{"type":"subcategory","payload":{"analyticsListId":"category_100101-eco-condimente-si-sosuri","analyticsListName":"Category - Condimente și sosuri ECO","name":"Condimente și sosuri ECO","slug":"100101-eco-condimente-si-sosuri","image":null,"breadcrumbs":[{"code":"10","name":"Dietetic, ECO & internațional","slug":"10-dietetic-bio-si-international"},{"code":"1001","name":"Produse ecologice","slug":"1001-produse-ecologice"},{"code":"100101","name":"Condimente și sosuri ECO","slug":"100101-eco-condimente-si-sosuri"}],"slots":[],"page":1,"limit":10,"pages":26,"count":260,"siblings":[{"name":"Produse ecologice","slug":"1001-produse-ecologice","selected":true},{"name":"Produse dietetice și naturiste","slug":"1002-produse-dietetice-si-naturiste","selected":false},{"name":"Suplimente alimentare","slug":"1003-suplimente-alimentare","selected":false},{"name":"Produse internaționale","slug":"1004-bucatarie-internationala","selected":false}],"children":[{"name":"Toate produsele","slug":"1001-produse-ecologice","selected":false},{"name":"Condimente și sosuri ECO","slug":"100101-eco-condimente-si-sosuri","selected":true},{"name":"Conserve ECO","slug":"100102-eco-conserve","selected":false},{"name":"Mic dejun ECO","slug":"100103-eco-micul-dejun","selected":false},{"name":"Ingrediente ECO","slug":"100104-eco-ingrediente","selected":false},{"name":"Snacks ECO","slug":"100105-eco-snacking","selected":false}],"products":[{"code":"100075493","variantCode":"8001440126826","name":"Pastă de roșii eco 700g","slug":"100075493-valfrutta-pasta-de-rosii-eco-700g","unitPriceLabel":"15,7 Lei/kg","brand":"Valfrutta","brandCode":"962","brandFilterCode":"valfrutta-b976","sku":"100075493","price":10.99,"originalPrice":11.99,"currencyCode":"RON","currency":"Lei","image":{"thumbnail":{"default":"https://cdn.freshful.ro/media/cache/sylius_shop_product_thumbnail/c8/ee/0ea1b51974985c8daa2f25625e36.jpg"},"large":{"default":"https://cdn.freshful.ro/media/cache/freshful_large/c8/ee/0ea1b51974985c8daa2f25625e36.jpg"},"extralarge":{"default":"https://cdn.freshful.ro/media/cache/sylius_shop_product_original/c8/ee/0ea1b51974985c8daa2f25625e36.jpg"}},"label":{"text":"-8%","backgroundColor":"#FF9903","textColor":"#FFFFFF"},"tags":[{"type":"Eco","text":"Eco","icon":"https://cdn.freshful.ro/assets/product_tags/eco.svg","iconPng":"https://cdn.freshful.ro/assets/product_tags/eco.png","backgroundColor":"#EFFBE4","textColor":"#66BB1B"},{"type":"vegan","text":"Vegan","icon":"https://cdn.freshful.ro/assets/product_tags/vegan.svg","iconPng":"https://cdn.freshful.ro/assets/product_tags/vegan.png","backgroundColor":"#ECF9F8","textColor":"#33A39C"}],"isAvailable":true,"maxAvailableQuantity":100,"maxAllowedQuantity":100,"breadcrumbs":[{"code":"10","name":"Dietetic, ECO & internațional","slug":"10-dietetic-bio-si-international"},{"code":"1001","name":"Produse ecologice","slug":"1001-produse-ecologice"},{"code":"100101","name":"Condimente și sosuri ECO","slug":"100101-eco-condimente-si-sosuri"},{"code":"100075493","name":"Pastă de roșii eco 700g","slug":"100075493-valfrutta-pasta-de-rosii-eco-700g"}],"activePromotion":{"code":"oferte-bacanie-bauturi-21feb-8mar23","name":"Preț redus","targetQuantity":null},"saveMe":null,"labels":[{"type":"v1","items":[{"text":"-8%","backgroundColor":"#FF9903","textColor":"#FFFFFF"}]}],"geniusPrice":null,"geniusUnitPricePerLabel":null,"banner":{"text":"Super preț","textColor":"#FF0000","bgColor":"#FFF2EC","icon":null,"link":"https://www.freshful.ro/oferte/oferte-bacanie-bauturi-21feb-8mar23","type":"promo","analyticsEventType":"select_promotion","analyticsEventPayload":{"promotion_id":"oferte-bacanie-bauturi-21feb-8mar23","promotion_name":"Cămara cu băuturi și bunătăți"}},"discountLabel":"Economisești 8%","geniusDiscountLabel":null,"badge":null},{"code":"100131786","variantCode":"100131786","name":"Griș de porumb eco (mălai) 500g ","slug":"100131786-verival-gris-de-porumb-eco-malai-500g","unitPriceLabel":"22,98 Lei/kg","brand":"Verival","brandCode":"958","brandFilterCode":"verival-b972","sku":"100131786","price":11.49,"originalPrice":null,"currencyCode":"RON","currency":"Lei","image":{"thumbnail":{"default":"https://cdn.freshful.ro/media/cache/sylius_shop_product_thumbnail/a8/c2/c525c432c39afef1991163369fcc.jpg"},"large":{"default":"https://cdn.freshful.ro/media/cache/freshful_large/a8/c2/c525c432c39afef1991163369fcc.jpg"},"extralarge":{"default":"https://cdn.freshful.ro/media/cache/sylius_shop_product_original/a8/c2/c525c432c39afef1991163369fcc.jpg"}},"label":{"text":"Profită acum","backgroundColor":"#FF9903","textColor":"#FFFFFF"},"tags":[{"type":"Eco","text":"Eco","icon":"https://cdn.freshful.ro/assets/product_tags/eco.svg","iconPng":"https://cdn.freshful.ro/assets/product_tags/eco.png","backgroundColor":"#EFFBE4","textColor":"#66BB1B"}],"isAvailable":true,"maxAvailableQuantity":100,"maxAllowedQuantity":100,"breadcrumbs":[{"code":"10","name":"Dietetic, ECO & internațional","slug":"10-dietetic-bio-si-international"},{"code":"1001","name":"Produse ecologice","slug":"1001-produse-ecologice"},{"code":"100101","name":"Condimente și sosuri ECO","slug":"100101-eco-condimente-si-sosuri"},{"code":"100131786","name":"Griș de porumb eco (mălai) 500g ","slug":"100131786-verival-gris-de-porumb-eco-malai-500g"}],"activePromotion":{"code":"oferte-bacanie-bauturi-21feb-8mar23","name":"Preț avantajos","targetQuantity":null},"saveMe":null,"labels":[{"type":"v1","items":[{"text":"Profită acum","backgroundColor":"#FF9903","textColor":"#FFFFFF"}]}],"geniusPrice":null,"geniusUnitPricePerLabel":null,"banner":{"text":"Preț avantajos","textColor":"#F95510","bgColor":"#FEF1CD","icon":null,"link":"https://www.freshful.ro/oferte/oferte-bacanie-bauturi-21feb-8mar23","type":"promo","analyticsEventType":"select_promotion","analyticsEventPayload":{"promotion_id":"oferte-bacanie-bauturi-21feb-8mar23","promotion_name":"Cămara cu băuturi și bunătăți"}},"discountLabel":null,"geniusDiscountLabel":null,"badge":null},{"code":"100131789","variantCode":"100131789","name":"Ulei de măsline extra virgin eco 500ml","slug":"100131789-kidonakis-ulei-de-masline-extra-virgin-eco-500ml","unitPriceLabel":"63,98 Lei/l","brand":"Kidonakis","brandCode":"968","brandFilterCode":"kidonakis-b982","sku":"100131789","price":31.99,"originalPrice":35.49,"currencyCode":"RON","currency":"Lei","image":{"thumbnail":{"default":"https://cdn.freshful.ro/media/cache/sylius_shop_product_thumbnail/82/ba/91e46e3db377996cd54ac3468208.jpg"},"large":{"default":"https://cdn.freshful.ro/media/cache/freshful_large/82/ba/91e46e3db377996cd54ac3468208.jpg"},"extralarge":{"default":"https://cdn.freshful.ro/media/cache/sylius_shop_product_original/82/ba/91e46e3db377996cd54ac3468208.jpg"}},"label":{"text":"-9%","backgroundColor":"#FF9903","textColor":"#FFFFFF"},"tags":[{"type":"Eco","text":"Eco","icon":"https://cdn.freshful.ro/assets/product_tags/eco.svg","iconPng":"https://cdn.freshful.ro/assets/product_tags/eco.png","backgroundColor":"#EFFBE4","textColor":"#66BB1B"}],"isAvailable":true,"maxAvailableQuantity":46,"maxAllowedQuantity":100,"breadcrumbs":[{"code":"10","name":"Dietetic, ECO & internațional","slug":"10-dietetic-bio-si-international"},{"code":"1001","name":"Produse ecologice","slug":"1001-produse-ecologice"},{"code":"100101","name":"Condimente și sosuri ECO","slug":"100101-eco-condimente-si-sosuri"},{"code":"100131789","name":"Ulei de măsline extra virgin eco 500ml","slug":"100131789-kidonakis-ulei-de-masline-extra-virgin-eco-500ml"}],"activePromotion":{"code":"special-produse-vegane-mar23","name":"Preț redus","targetQuantity":null},"saveMe":null,"labels":[{"type":"v1","items":[{"text":"-9%","backgroundColor":"#FF9903","textColor":"#FFFFFF"}]}],"geniusPrice":null,"geniusUnitPricePerLabel":null,"banner":{"text":"Super preț","textColor":"#FF0000","bgColor":"#FFF2EC","icon":null,"link":"https://www.freshful.ro/oferte/special-produse-vegane-mar23","type":"promo","analyticsEventType":"select_promotion","analyticsEventPayload":{"promotion_id":"special-produse-vegane-mar23","promotion_name":"Și bun, și de post"}},"discountLabel":"Economisești 9%","geniusDiscountLabel":null,"badge":null},{"code":"100122880","variantCode":"100122880","name":"Mălai rapid eco 500g","slug":"100122880-panzani-malai-rapid-eco-500g","unitPriceLabel":"18,18 Lei/kg","brand":"Panzani","brandCode":"1684","brandFilterCode":"panzani-b1688","sku":"100122880","price":9.09,"originalPrice":null,"currencyCode":"RON","currency":"Lei","image":{"thumbnail":{"default":"https://cdn.freshful.ro/media/cache/sylius_shop_product_thumbnail/36/c7/4a2b619d6a2c86deeb4e78f628f5.jpg"},"large":{"default":"https://cdn.freshful.ro/media/cache/freshful_large/36/c7/4a2b619d6a2c86deeb4e78f628f5.jpg"},"extralarge":{"default":"https://cdn.freshful.ro/media/cache/sylius_shop_product_original/36/c7/4a2b619d6a2c86deeb4e78f628f5.jpg"}},"label":null,"tags":[{"type":"Eco","text":"Eco","icon":"https://cdn.freshful.ro/assets/product_tags/eco.svg","iconPng":"https://cdn.freshful.ro/assets/product_tags/eco.png","backgroundColor":"#EFFBE4","textColor":"#66BB1B"}],"isAvailable":true,"maxAvailableQuantity":100,"maxAllowedQuantity":100,"breadcrumbs":[{"code":"10","name":"Dietetic, ECO & internațional","slug":"10-dietetic-bio-si-international"},{"code":"1001","name":"Produse ecologice","slug":"1001-produse-ecologice"},{"code":"100101","name":"Condimente și sosuri ECO","slug":"100101-eco-condimente-si-sosuri"},{"code":"100122880","name":"Mălai rapid eco 500g","slug":"100122880-panzani-malai-rapid-eco-500g"}],"activePromotion":null,"saveMe":null,"labels":[],"geniusPrice":null,"geniusUnitPricePerLabel":null,"banner":null,"discountLabel":null,"geniusDiscountLabel":null,"badge":null},{"code":"100082729","variantCode":"4015637832616","name":"Griș eco din grâu integral 500g","slug":"100082729-bauckhof-gris-eco-din-grau-integral-500g","unitPriceLabel":"28,5 Lei/kg","brand":"Bauckhof","brandCode":"684","brandFilterCode":"bauckhof-b685","sku":"100082729","price":14.25,"originalPrice":null,"currencyCode":"RON","currency":"Lei","image":{"thumbnail":{"default":"https://cdn.freshful.ro/media/cache/sylius_shop_product_thumbnail/2b/36/cd4d6cd51d692e133bfc22516b8b.jpg"},"large":{"default":"https://cdn.freshful.ro/media/cache/freshful_large/2b/36/cd4d6cd51d692e133bfc22516b8b.jpg"},"extralarge":{"default":"https://cdn.freshful.ro/media/cache/sylius_shop_product_original/2b/36/cd4d6cd51d692e133bfc22516b8b.jpg"}},"label":null,"tags":[{"type":"Eco","text":"Eco","icon":"https://cdn.freshful.ro/assets/product_tags/eco.svg","iconPng":"https://cdn.freshful.ro/assets/product_tags/eco.png","backgroundColor":"#EFFBE4","textColor":"#66BB1B"}],"isAvailable":true,"maxAvailableQuantity":100,"maxAllowedQuantity":100,"breadcrumbs":[{"code":"10","name":"Dietetic, ECO & internațional","slug":"10-dietetic-bio-si-international"},{"code":"1001","name":"Produse ecologice","slug":"1001-produse-ecologice"},{"code":"100101","name":"Condimente și sosuri ECO","slug":"100101-eco-condimente-si-sosuri"},{"code":"100082729","name":"Griș eco din grâu integral 500g","slug":"100082729-bauckhof-gris-eco-din-grau-integral-500g"}],"activePromotion":null,"saveMe":null,"labels":[],"geniusPrice":null,"geniusUnitPricePerLabel":null,"banner":null,"discountLabel":null,"geniusDiscountLabel":null,"badge":null},{"code":"100119053","variantCode":"100119053","name":"Sos roșii pasate eco 500g","slug":"100119053-alce-nero-sos-rosii-pasate-eco-500g","unitPriceLabel":"35,98 Lei/buc","brand":"Alce Nero","brandCode":"2012","brandFilterCode":"alce-nero-b2016","sku":"100119053","price":17.99,"originalPrice":null,"currencyCode":"RON","currency":"Lei","image":{"thumbnail":{"default":"https://cdn.freshful.ro/media/cache/sylius_shop_product_thumbnail/b5/08/03fb74fe9704bbe498f26f44dd84.jpg"},"large":{"default":"https://cdn.freshful.ro/media/cache/freshful_large/b5/08/03fb74fe9704bbe498f26f44dd84.jpg"},"extralarge":{"default":"https://cdn.freshful.ro/media/cache/sylius_shop_product_original/b5/08/03fb74fe9704bbe498f26f44dd84.jpg"}},"label":null,"tags":[{"type":"Eco","text":"Eco","icon":"https://cdn.freshful.ro/assets/product_tags/eco.svg","iconPng":"https://cdn.freshful.ro/assets/product_tags/eco.png","backgroundColor":"#EFFBE4","textColor":"#66BB1B"}],"isAvailable":true,"maxAvailableQuantity":96,"maxAllowedQuantity":100,"breadcrumbs":[{"code":"10","name":"Dietetic, ECO & internațional","slug":"10-dietetic-bio-si-international"},{"code":"1001","name":"Produse ecologice","slug":"1001-produse-ecologice"},{"code":"100101","name":"Condimente și sosuri ECO","slug":"100101-eco-condimente-si-sosuri"},{"code":"100119053","name":"Sos roșii pasate eco 500g","slug":"100119053-alce-nero-sos-rosii-pasate-eco-500g"}],"activePromotion":null,"saveMe":null,"labels":[],"geniusPrice":null,"geniusUnitPricePerLabel":null,"banner":null,"discountLabel":null,"geniusDiscountLabel":null,"badge":null},{"code":"100097238","variantCode":"100097238","name":"Ketchup eco 580g","slug":"100097238-heinz-ketchup-eco-580g","unitPriceLabel":"28,45 Lei/kg","brand":"Heinz","brandCode":"1624","brandFilterCode":"heinz-b1628","sku":"100097238","price":16.5,"originalPrice":null,"currencyCode":"RON","currency":"Lei","image":{"thumbnail":{"default":"https://cdn.freshful.ro/media/cache/sylius_shop_product_thumbnail/c1/41/0c1cfb10b5d73a66ab0d86258e33.jpg"},"large":{"default":"https://cdn.freshful.ro/media/cache/freshful_large/c1/41/0c1cfb10b5d73a66ab0d86258e33.jpg"},"extralarge":{"default":"https://cdn.freshful.ro/media/cache/sylius_shop_product_original/c1/41/0c1cfb10b5d73a66ab0d86258e33.jpg"}},"label":null,"tags":[{"type":"Eco","text":"Eco","icon":"https://cdn.freshful.ro/assets/product_tags/eco.svg","iconPng":"https://cdn.freshful.ro/assets/product_tags/eco.png","backgroundColor":"#EFFBE4","textColor":"#66BB1B"}],"isAvailable":true,"maxAvailableQuantity":75,"maxAllowedQuantity":100,"breadcrumbs":[{"code":"10","name":"Dietetic, ECO & internațional","slug":"10-dietetic-bio-si-international"},{"code":"1001","name":"Produse ecologice","slug":"1001-produse-ecologice"},{"code":"100101","name":"Condimente și sosuri ECO","slug":"100101-eco-condimente-si-sosuri"},{"code":"100097238","name":"Ketchup eco 580g","slug":"100097238-heinz-ketchup-eco-580g"}],"activePromotion":null,"saveMe":null,"labels":[],"geniusPrice":null,"geniusUnitPricePerLabel":null,"banner":null,"discountLabel":null,"geniusDiscountLabel":null,"badge":null},{"code":"100119028","variantCode":"100119028","name":"Năut fiert eco 300g","slug":"100119028-alce-nero-naut-fiert-eco-300g","unitPriceLabel":"56,63 Lei/buc","brand":"Alce Nero","brandCode":"2012","brandFilterCode":"alce-nero-b2016","sku":"100119028","price":16.99,"originalPrice":null,"currencyCode":"RON","currency":"Lei","image":{"thumbnail":{"default":"https://cdn.freshful.ro/media/cache/sylius_shop_product_thumbnail/7b/cb/b742dce211fe596f5f30cef0c36e.jpg"},"large":{"default":"https://cdn.freshful.ro/media/cache/freshful_large/7b/cb/b742dce211fe596f5f30cef0c36e.jpg"},"extralarge":{"default":"https://cdn.freshful.ro/media/cache/sylius_shop_product_original/7b/cb/b742dce211fe596f5f30cef0c36e.jpg"}},"label":null,"tags":[{"type":"Eco","text":"Eco","icon":"https://cdn.freshful.ro/assets/product_tags/eco.svg","iconPng":"https://cdn.freshful.ro/assets/product_tags/eco.png","backgroundColor":"#EFFBE4","textColor":"#66BB1B"}],"isAvailable":true,"maxAvailableQuantity":76,"maxAllowedQuantity":100,"breadcrumbs":[{"code":"10","name":"Dietetic, ECO & internațional","slug":"10-dietetic-bio-si-international"},{"code":"1001","name":"Produse ecologice","slug":"1001-produse-ecologice"},{"code":"100101","name":"Condimente și sosuri ECO","slug":"100101-eco-condimente-si-sosuri"},{"code":"100119028","name":"Năut fiert eco 300g","slug":"100119028-alce-nero-naut-fiert-eco-300g"}],"activePromotion":null,"saveMe":null,"labels":[],"geniusPrice":null,"geniusUnitPricePerLabel":null,"banner":null,"discountLabel":null,"geniusDiscountLabel":null,"badge":null},{"code":"100081583","variantCode":"6426284000453","name":"Scorțișoară Ceylon pulbere ecologică 60g","slug":"100081583-niavis-scortisoara-ceylon-pulbere-ecologica-60g","unitPriceLabel":"283,17 Lei/kg","brand":"Niavis","brandCode":"190","brandFilterCode":"niavis-b191","sku":"100081583","price":16.99,"originalPrice":null,"currencyCode":"RON","currency":"Lei","image":{"thumbnail":{"default":"https://cdn.freshful.ro/media/cache/sylius_shop_product_thumbnail/ae/c8/43e90bba4644c7e77e4afbe891a9.jpg"},"large":{"default":"https://cdn.freshful.ro/media/cache/freshful_large/ae/c8/43e90bba4644c7e77e4afbe891a9.jpg"},"extralarge":{"default":"https://cdn.freshful.ro/media/cache/sylius_shop_product_original/ae/c8/43e90bba4644c7e77e4afbe891a9.jpg"}},"label":null,"tags":[{"type":"vegan","text":"Vegan","icon":"https://cdn.freshful.ro/assets/product_tags/vegan.svg","iconPng":"https://cdn.freshful.ro/assets/product_tags/vegan.png","backgroundColor":"#ECF9F8","textColor":"#33A39C"},{"type":"NoGluten","text":"Fara gluten","icon":"https://cdn.freshful.ro/assets/product_tags/fara_gluten.svg","iconPng":"https://cdn.freshful.ro/assets/product_tags/fara_gluten.png","backgroundColor":"#FFF2E5","textColor":"#F07900"},{"type":"Eco","text":"Eco","icon":"https://cdn.freshful.ro/assets/product_tags/eco.svg","iconPng":"https://cdn.freshful.ro/assets/product_tags/eco.png","backgroundColor":"#EFFBE4","textColor":"#66BB1B"}],"isAvailable":true,"maxAvailableQuantity":86,"maxAllowedQuantity":100,"breadcrumbs":[{"code":"10","name":"Dietetic, ECO & internațional","slug":"10-dietetic-bio-si-international"},{"code":"1001","name":"Produse ecologice","slug":"1001-produse-ecologice"},{"code":"100101","name":"Condimente și sosuri ECO","slug":"100101-eco-condimente-si-sosuri"},{"code":"100081583","name":"Scorțișoară Ceylon pulbere ecologică 60g","slug":"100081583-niavis-scortisoara-ceylon-pulbere-ecologica-60g"}],"activePromotion":null,"saveMe":null,"labels":[],"geniusPrice":null,"geniusUnitPricePerLabel":null,"banner":null,"discountLabel":null,"geniusDiscountLabel":null,"badge":null},{"code":"100144385","variantCode":"100144385","name":"Cușcuș integral eco 500g","slug":"100144385-niavis-cuscus-integral-eco-500g","unitPriceLabel":"31,98 Lei/kg","brand":"Niavis","brandCode":"190","brandFilterCode":"niavis-b191","sku":"100144385","price":15.99,"originalPrice":null,"currencyCode":"RON","currency":"Lei","image":{"thumbnail":{"default":"https://cdn.freshful.ro/media/cache/sylius_shop_product_thumbnail/52/28/6646069ac2d97286332c6842436c.jpg"},"large":{"default":"https://cdn.freshful.ro/media/cache/freshful_large/52/28/6646069ac2d97286332c6842436c.jpg"},"extralarge":{"default":"https://cdn.freshful.ro/media/cache/sylius_shop_product_original/52/28/6646069ac2d97286332c6842436c.jpg"}},"label":null,"tags":[{"type":"Eco","text":"Eco","icon":"https://cdn.freshful.ro/assets/product_tags/eco.svg","iconPng":"https://cdn.freshful.ro/assets/product_tags/eco.png","backgroundColor":"#EFFBE4","textColor":"#66BB1B"},{"type":"vegan","text":"Vegan","icon":"https://cdn.freshful.ro/assets/product_tags/vegan.svg","iconPng":"https://cdn.freshful.ro/assets/product_tags/vegan.png","backgroundColor":"#ECF9F8","textColor":"#33A39C"}],"isAvailable":true,"maxAvailableQuantity":33,"maxAllowedQuantity":100,"breadcrumbs":[{"code":"10","name":"Dietetic, ECO & internațional","slug":"10-dietetic-bio-si-international"},{"code":"1001","name":"Produse ecologice","slug":"1001-produse-ecologice"},{"code":"100101","name":"Condimente și sosuri ECO","slug":"100101-eco-condimente-si-sosuri"},{"code":"100144385","name":"Cușcuș integral eco 500g","slug":"100144385-niavis-cuscus-integral-eco-500g"}],"activePromotion":null,"saveMe":null,"labels":[],"geniusPrice":null,"geniusUnitPricePerLabel":null,"banner":null,"discountLabel":null,"geniusDiscountLabel":null,"badge":null}],"filters":{"countSelected":0,"items":[{"code":"promotion","name":"Promoții","countSelected":0,"values":[{"code":"oferte-bacanie-bauturi-21feb-8mar23","name":"Cămara cu băuturi și bunătăți","isSelected":false,"count":3},{"code":"special-produse-vegane-mar23","name":"Și bun, și de post","isSelected":false,"count":1}]},{"code":"brand","name":"Brand","countSelected":0,"values":[{"code":"alce-nero-b2016","name":"Alce Nero","isSelected":false,"count":23},{"code":"alevia-b128","name":"Alevia","isSelected":false,"count":2},{"code":"amaizin-b974","name":"Amaizin","isSelected":false,"count":1},{"code":"barilla-b268","name":"Barilla","isSelected":false,"count":3},{"code":"bauckhof-b685","name":"Bauckhof","isSelected":false,"count":3},{"code":"biochampion-b1516","name":"Biochampion","isSelected":false,"count":1},{"code":"bioforia-b783","name":"Bioforia","isSelected":false,"count":2},{"code":"bjorg-b687","name":"Bjorg","isSelected":false,"count":2},{"code":"bunica-b263","name":"Bunica","isSelected":false,"count":1},{"code":"colavita-b2929","name":"Colavita","isSelected":false,"count":1},{"code":"cereal-bio-b684","name":"Céréal Bio","isSelected":false,"count":1},{"code":"dalla-costa-b1140","name":"Dalla Costa","isSelected":false,"count":9},{"code":"essentiae-b857","name":"Essentiae","isSelected":false,"count":16},{"code":"gallo-b990","name":"Gallo","isSelected":false,"count":4},{"code":"greenomic-b1848","name":"Greenomic","isSelected":false,"count":7},{"code":"hanf-natur-b860","name":"Hanf & Natur","isSelected":false,"count":3},{"code":"harmonica-b1505","name":"Harmonica","isSelected":false,"count":7},{"code":"heinz-b1628","name":"Heinz","isSelected":false,"count":1},{"code":"huilerie-de-lapalisse-b861","name":"Huilerie de Lapalisse","isSelected":false,"count":7},{"code":"il-nutrimento-b1521","name":"Il Nutrimento","isSelected":false,"count":3},{"code":"isolai-di-san-giorgio-b862","name":"iSolai di San Giorgio","isSelected":false,"count":6},{"code":"kidonakis-b982","name":"Kidonakis","isSelected":false,"count":2},{"code":"la-macina-bio-b864","name":"La Macina Bio","isSelected":false,"count":1},{"code":"mantova-b2295","name":"Mantova","isSelected":false,"count":3},{"code":"mirodenia-b921","name":"Mirodenia","isSelected":false,"count":2},{"code":"mutti-b646","name":"Mutti","isSelected":false,"count":1},{"code":"natura-toscana-b1520","name":"Natura Toscana","isSelected":false,"count":9},{"code":"niavis-b191","name":"Niavis","isSelected":false,"count":18},{"code":"panzani-b1688","name":"Panzani","isSelected":false,"count":8},{"code":"probios-b930","name":"Probios","isSelected":false,"count":5},{"code":"prosain-b866","name":"Prosain","isSelected":false,"count":14},{"code":"sonnentor-b1561","name":"Sonnentor","isSelected":false,"count":70},{"code":"tomi-b261","name":"Tomi","isSelected":false,"count":1},{"code":"tradizioni-padane-b869","name":"Tradizioni Padane","isSelected":false,"count":14},{"code":"valahia-b3021","name":"Valahia","isSelected":false,"count":2},{"code":"valfrutta-b976","name":"Valfrutta","isSelected":false,"count":2},{"code":"varvello-b2158","name":"Varvello","isSelected":false,"count":2},{"code":"vegeta-b1144","name":"Vegeta","isSelected":false,"count":1},{"code":"verival-b972","name":"Verival","isSelected":false,"count":2}]},{"code":"diet_lifestyle","name":"Dietă și lifestyle","countSelected":0,"values":[{"code":"eco-a83","name":"Eco","isSelected":false,"count":252},{"code":"fara-gluten-a16","name":"Fara gluten","isSelected":false,"count":22},{"code":"fara-sare-a52","name":"Fara sare","isSelected":false,"count":4},{"code":"fara-zahar-adaugat-a29","name":"Fara zahar adaugat","isSelected":false,"count":2},{"code":"made-in-romania-a85","name":"Made In Romania","isSelected":false,"count":3},{"code":"natural-a27","name":"Natural","isSelected":false,"count":3},{"code":"vegan-a24","name":"Vegan","isSelected":false,"count":29}]}]},"orderBy":[{"field":"price","direction":"asc","name":"Preț crescător","isSelected":false},{"field":"price","direction":"desc","name":"Preț descrescător","isSelected":false},{"field":"popularity","direction":"desc","name":"Cele mai populare","isSelected":true},{"field":"category","direction":"asc","name":"Categorie","isSelected":false}],"metaTitle":"Condimente și sosuri ECO - Gamă variată","metaDescription":"Vrei Condimente și sosuri ECO? Alege dintr-o gamă variată. Comanzi simplu și ai livrare rapidă, calitate și prospețime. Hai pe Freshful.ro","metaKeywords":null,"banners":[]}}