{"type":"subcategory","payload":{"analyticsListId":"category_100104-eco-ingrediente","analyticsListName":"Category - Ingrediente ECO","name":"Ingrediente ECO","slug":"100104-eco-ingrediente","image":null,"breadcrumbs":[{"code":"10","name":"Dietetic, ECO & internațional","slug":"10-dietetic-bio-si-international"},{"code":"1001","name":"Produse ecologice","slug":"1001-produse-ecologice"},{"code":"100104","name":"Ingrediente ECO","slug":"100104-eco-ingrediente"}],"slots":[],"page":1,"limit":10,"pages":5,"count":43,"siblings":[{"name":"Produse ecologice","slug":"1001-produse-ecologice","selected":true},{"name":"Produse dietetice și naturiste","slug":"1002-produse-dietetice-si-naturiste","selected":false},{"name":"Suplimente alimentare","slug":"1003-suplimente-alimentare","selected":false},{"name":"Produse internaționale","slug":"1004-bucatarie-internationala","selected":false}],"children":[{"name":"Toate produsele","slug":"1001-produse-ecologice","selected":false},{"name":"Condimente și sosuri ECO","slug":"100101-eco-condimente-si-sosuri","selected":false},{"name":"Conserve ECO","slug":"100102-eco-conserve","selected":false},{"name":"Mic dejun ECO","slug":"100103-eco-micul-dejun","selected":false},{"name":"Ingrediente ECO","slug":"100104-eco-ingrediente","selected":true},{"name":"Snacks ECO","slug":"100105-eco-snacking","selected":false}],"products":[{"code":"100081590","variantCode":"6426284000125","name":"Semințe ecologice de chia 125g","slug":"100081590-niavis-seminte-ecologice-de-chia-125g","unitPriceLabel":"135,92 Lei/kg","brand":"Niavis","brandCode":"190","brandFilterCode":"niavis-b191","sku":"100081590","price":16.99,"originalPrice":null,"currencyCode":"RON","currency":"Lei","image":{"thumbnail":{"default":"https://cdn.freshful.ro/media/cache/sylius_shop_product_thumbnail/6b/6a/1e6dc15bb0758653d063a089615f.jpg"},"large":{"default":"https://cdn.freshful.ro/media/cache/freshful_large/6b/6a/1e6dc15bb0758653d063a089615f.jpg"},"extralarge":{"default":"https://cdn.freshful.ro/media/cache/sylius_shop_product_original/6b/6a/1e6dc15bb0758653d063a089615f.jpg"}},"label":{"text":"-20% cu Genius","backgroundColor":"#FEF3FA","textColor":"#CD015F"},"tags":[{"type":"vegan","text":"Vegan","icon":"https://cdn.freshful.ro/assets/product_tags/vegan.svg","iconPng":"https://cdn.freshful.ro/assets/product_tags/vegan.png","backgroundColor":"#ECF9F8","textColor":"#33A39C"},{"type":"NoGluten","text":"Fara gluten","icon":"https://cdn.freshful.ro/assets/product_tags/fara_gluten.svg","iconPng":"https://cdn.freshful.ro/assets/product_tags/fara_gluten.png","backgroundColor":"#FFF2E5","textColor":"#F07900"},{"type":"Eco","text":"Eco","icon":"https://cdn.freshful.ro/assets/product_tags/eco.svg","iconPng":"https://cdn.freshful.ro/assets/product_tags/eco.png","backgroundColor":"#EFFBE4","textColor":"#66BB1B"}],"isAvailable":true,"maxAvailableQuantity":44,"maxAllowedQuantity":100,"breadcrumbs":[{"code":"10","name":"Dietetic, ECO & internațional","slug":"10-dietetic-bio-si-international"},{"code":"1001","name":"Produse ecologice","slug":"1001-produse-ecologice"},{"code":"100104","name":"Ingrediente ECO","slug":"100104-eco-ingrediente"},{"code":"100081590","name":"Semințe ecologice de chia 125g","slug":"100081590-niavis-seminte-ecologice-de-chia-125g"}],"activePromotion":null,"saveMe":null,"labels":[{"type":"gdeals","items":[{"text":"","backgroundColor":"","textColor":""}]},{"type":"v3","items":[{"text":"-20% cu Genius","backgroundColor":"#FEF3FA","textColor":"#CD015F"}]}],"geniusPrice":13.59,"geniusUnitPricePerLabel":"108,72 Lei/kg","banner":null,"discountLabel":null,"geniusDiscountLabel":"Economisești 20%","badge":null},{"code":"100139349","variantCode":"100139349","name":"Făină de ovăz ecologică 500g","slug":"100139349-niavis-faina-de-ovaz-ecologica-500g","unitPriceLabel":"23,98 Lei/kg","brand":"Niavis","brandCode":"190","brandFilterCode":"niavis-b191","sku":"100139349","price":11.99,"originalPrice":15.99,"currencyCode":"RON","currency":"Lei","image":{"thumbnail":{"default":"https://cdn.freshful.ro/media/cache/sylius_shop_product_thumbnail/4b/0e/67c960d7e4cca3740e7de1c91ac4.jpg"},"large":{"default":"https://cdn.freshful.ro/media/cache/freshful_large/4b/0e/67c960d7e4cca3740e7de1c91ac4.jpg"},"extralarge":{"default":"https://cdn.freshful.ro/media/cache/sylius_shop_product_original/4b/0e/67c960d7e4cca3740e7de1c91ac4.jpg"}},"label":{"text":"-25%","backgroundColor":"#FF9903","textColor":"#FFFFFF"},"tags":[{"type":"Eco","text":"Eco","icon":"https://cdn.freshful.ro/assets/product_tags/eco.svg","iconPng":"https://cdn.freshful.ro/assets/product_tags/eco.png","backgroundColor":"#EFFBE4","textColor":"#66BB1B"},{"type":"vegan","text":"Vegan","icon":"https://cdn.freshful.ro/assets/product_tags/vegan.svg","iconPng":"https://cdn.freshful.ro/assets/product_tags/vegan.png","backgroundColor":"#ECF9F8","textColor":"#33A39C"}],"isAvailable":true,"maxAvailableQuantity":54,"maxAllowedQuantity":100,"breadcrumbs":[{"code":"10","name":"Dietetic, ECO & internațional","slug":"10-dietetic-bio-si-international"},{"code":"1001","name":"Produse ecologice","slug":"1001-produse-ecologice"},{"code":"100104","name":"Ingrediente ECO","slug":"100104-eco-ingrediente"},{"code":"100139349","name":"Făină de ovăz ecologică 500g","slug":"100139349-niavis-faina-de-ovaz-ecologica-500g"}],"activePromotion":{"code":"oferte-bacanie-bauturi-21feb-8mar23","name":"Preț redus","targetQuantity":null},"saveMe":null,"labels":[{"type":"v1","items":[{"text":"-25%","backgroundColor":"#FF9903","textColor":"#FFFFFF"}]}],"geniusPrice":null,"geniusUnitPricePerLabel":null,"banner":{"text":"Super preț","textColor":"#FF0000","bgColor":"#FFF2EC","icon":null,"link":"https://www.freshful.ro/oferte/oferte-bacanie-bauturi-21feb-8mar23","type":"promo","analyticsEventType":"select_promotion","analyticsEventPayload":{"promotion_id":"oferte-bacanie-bauturi-21feb-8mar23","promotion_name":"Cămara cu băuturi și bunătăți"}},"discountLabel":"Economisești 25%","geniusDiscountLabel":null,"badge":null},{"code":"100081598","variantCode":"6426284001160","name":"Sirop de agave light eco 250ml","slug":"100081598-niavis-sirop-de-agave-light-eco-250ml","unitPriceLabel":"82,83 Lei/kg","brand":"Niavis","brandCode":"190","brandFilterCode":"niavis-b191","sku":"100081598","price":28.99,"originalPrice":null,"currencyCode":"RON","currency":"Lei","image":{"thumbnail":{"default":"https://cdn.freshful.ro/media/cache/sylius_shop_product_thumbnail/50/87/54652bd290b22d05aa9c22d8b2b0.jpg"},"large":{"default":"https://cdn.freshful.ro/media/cache/freshful_large/50/87/54652bd290b22d05aa9c22d8b2b0.jpg"},"extralarge":{"default":"https://cdn.freshful.ro/media/cache/sylius_shop_product_original/50/87/54652bd290b22d05aa9c22d8b2b0.jpg"}},"label":null,"tags":[{"type":"Eco","text":"Eco","icon":"https://cdn.freshful.ro/assets/product_tags/eco.svg","iconPng":"https://cdn.freshful.ro/assets/product_tags/eco.png","backgroundColor":"#EFFBE4","textColor":"#66BB1B"}],"isAvailable":true,"maxAvailableQuantity":47,"maxAllowedQuantity":100,"breadcrumbs":[{"code":"10","name":"Dietetic, ECO & internațional","slug":"10-dietetic-bio-si-international"},{"code":"1001","name":"Produse ecologice","slug":"1001-produse-ecologice"},{"code":"100104","name":"Ingrediente ECO","slug":"100104-eco-ingrediente"},{"code":"100081598","name":"Sirop de agave light eco 250ml","slug":"100081598-niavis-sirop-de-agave-light-eco-250ml"}],"activePromotion":null,"saveMe":null,"labels":[],"geniusPrice":null,"geniusUnitPricePerLabel":null,"banner":null,"discountLabel":null,"geniusDiscountLabel":null,"badge":null},{"code":"100064982","variantCode":"100064982","name":"Făină albă de grâu ecologică 1kg ","slug":"100064982-dobrogea-faina-alba-de-grau-ecologica-1kg","unitPriceLabel":"12,99 Lei/kg","brand":"Dobrogea","brandCode":"228","brandFilterCode":"dobrogea-b229","sku":"100064982","price":12.99,"originalPrice":null,"currencyCode":"RON","currency":"Lei","image":{"thumbnail":{"default":"https://cdn.freshful.ro/media/cache/sylius_shop_product_thumbnail/5e/f4/3ca62085b7455d30bfc27efc7596.jpg"},"large":{"default":"https://cdn.freshful.ro/media/cache/freshful_large/5e/f4/3ca62085b7455d30bfc27efc7596.jpg"},"extralarge":{"default":"https://cdn.freshful.ro/media/cache/sylius_shop_product_original/5e/f4/3ca62085b7455d30bfc27efc7596.jpg"}},"label":null,"tags":[{"type":"Eco","text":"Eco","icon":"https://cdn.freshful.ro/assets/product_tags/eco.svg","iconPng":"https://cdn.freshful.ro/assets/product_tags/eco.png","backgroundColor":"#EFFBE4","textColor":"#66BB1B"}],"isAvailable":true,"maxAvailableQuantity":82,"maxAllowedQuantity":100,"breadcrumbs":[{"code":"10","name":"Dietetic, ECO & internațional","slug":"10-dietetic-bio-si-international"},{"code":"1001","name":"Produse ecologice","slug":"1001-produse-ecologice"},{"code":"100104","name":"Ingrediente ECO","slug":"100104-eco-ingrediente"},{"code":"100064982","name":"Făină albă de grâu ecologică 1kg ","slug":"100064982-dobrogea-faina-alba-de-grau-ecologica-1kg"}],"activePromotion":null,"saveMe":null,"labels":[],"geniusPrice":null,"geniusUnitPricePerLabel":null,"banner":null,"discountLabel":null,"geniusDiscountLabel":null,"badge":null},{"code":"100075477","variantCode":"9004617023002","name":"Sirop de arțar grad A eco 250ml","slug":"100075477-verival-sirop-de-artar-grad-a-eco-250ml","unitPriceLabel":"154 Lei/kg","brand":"Verival","brandCode":"958","brandFilterCode":"verival-b972","sku":"100075477","price":38.5,"originalPrice":null,"currencyCode":"RON","currency":"Lei","image":{"thumbnail":{"default":"https://cdn.freshful.ro/media/cache/sylius_shop_product_thumbnail/92/6b/32dc724b5c6fb05e827d7fe3c4b6.jpg"},"large":{"default":"https://cdn.freshful.ro/media/cache/freshful_large/92/6b/32dc724b5c6fb05e827d7fe3c4b6.jpg"},"extralarge":{"default":"https://cdn.freshful.ro/media/cache/sylius_shop_product_original/92/6b/32dc724b5c6fb05e827d7fe3c4b6.jpg"}},"label":null,"tags":[{"type":"Eco","text":"Eco","icon":"https://cdn.freshful.ro/assets/product_tags/eco.svg","iconPng":"https://cdn.freshful.ro/assets/product_tags/eco.png","backgroundColor":"#EFFBE4","textColor":"#66BB1B"}],"isAvailable":true,"maxAvailableQuantity":88,"maxAllowedQuantity":100,"breadcrumbs":[{"code":"10","name":"Dietetic, ECO & internațional","slug":"10-dietetic-bio-si-international"},{"code":"1001","name":"Produse ecologice","slug":"1001-produse-ecologice"},{"code":"100104","name":"Ingrediente ECO","slug":"100104-eco-ingrediente"},{"code":"100075477","name":"Sirop de arțar grad A eco 250ml","slug":"100075477-verival-sirop-de-artar-grad-a-eco-250ml"}],"activePromotion":null,"saveMe":null,"labels":[],"geniusPrice":null,"geniusUnitPricePerLabel":null,"banner":null,"discountLabel":null,"geniusDiscountLabel":null,"badge":null},{"code":"100064983","variantCode":"100064983","name":"Făină integrală (dietetică) de grâu eco 1kg","slug":"100064983-dobrogea-faina-integrala-dietetica-de-grau-eco-1kg","unitPriceLabel":"11,49 Lei/kg","brand":"Dobrogea","brandCode":"228","brandFilterCode":"dobrogea-b229","sku":"100064983","price":11.49,"originalPrice":null,"currencyCode":"RON","currency":"Lei","image":{"thumbnail":{"default":"https://cdn.freshful.ro/media/cache/sylius_shop_product_thumbnail/7c/d6/fe24cb3894c053a79a8ca09fb17a.jpg"},"large":{"default":"https://cdn.freshful.ro/media/cache/freshful_large/7c/d6/fe24cb3894c053a79a8ca09fb17a.jpg"},"extralarge":{"default":"https://cdn.freshful.ro/media/cache/sylius_shop_product_original/7c/d6/fe24cb3894c053a79a8ca09fb17a.jpg"}},"label":null,"tags":[{"type":"Eco","text":"Eco","icon":"https://cdn.freshful.ro/assets/product_tags/eco.svg","iconPng":"https://cdn.freshful.ro/assets/product_tags/eco.png","backgroundColor":"#EFFBE4","textColor":"#66BB1B"}],"isAvailable":true,"maxAvailableQuantity":51,"maxAllowedQuantity":100,"breadcrumbs":[{"code":"10","name":"Dietetic, ECO & internațional","slug":"10-dietetic-bio-si-international"},{"code":"1001","name":"Produse ecologice","slug":"1001-produse-ecologice"},{"code":"100104","name":"Ingrediente ECO","slug":"100104-eco-ingrediente"},{"code":"100064983","name":"Făină integrală (dietetică) de grâu eco 1kg","slug":"100064983-dobrogea-faina-integrala-dietetica-de-grau-eco-1kg"}],"activePromotion":null,"saveMe":null,"labels":[],"geniusPrice":null,"geniusUnitPricePerLabel":null,"banner":null,"discountLabel":null,"geniusDiscountLabel":null,"badge":null},{"code":"100081606","variantCode":"6426284000903","name":"Zahăr de cocos ecologic 250g","slug":"100081606-niavis-zahar-de-cocos-ecologic-250g","unitPriceLabel":"79,96 Lei/kg","brand":"Niavis","brandCode":"190","brandFilterCode":"niavis-b191","sku":"100081606","price":19.99,"originalPrice":null,"currencyCode":"RON","currency":"Lei","image":{"thumbnail":{"default":"https://cdn.freshful.ro/media/cache/sylius_shop_product_thumbnail/d1/5a/7efe1d7de4493ffda6eed21acfdc.jpg"},"large":{"default":"https://cdn.freshful.ro/media/cache/freshful_large/d1/5a/7efe1d7de4493ffda6eed21acfdc.jpg"},"extralarge":{"default":"https://cdn.freshful.ro/media/cache/sylius_shop_product_original/d1/5a/7efe1d7de4493ffda6eed21acfdc.jpg"}},"label":null,"tags":[{"type":"vegan","text":"Vegan","icon":"https://cdn.freshful.ro/assets/product_tags/vegan.svg","iconPng":"https://cdn.freshful.ro/assets/product_tags/vegan.png","backgroundColor":"#ECF9F8","textColor":"#33A39C"},{"type":"Eco","text":"Eco","icon":"https://cdn.freshful.ro/assets/product_tags/eco.svg","iconPng":"https://cdn.freshful.ro/assets/product_tags/eco.png","backgroundColor":"#EFFBE4","textColor":"#66BB1B"}],"isAvailable":true,"maxAvailableQuantity":51,"maxAllowedQuantity":100,"breadcrumbs":[{"code":"10","name":"Dietetic, ECO & internațional","slug":"10-dietetic-bio-si-international"},{"code":"1001","name":"Produse ecologice","slug":"1001-produse-ecologice"},{"code":"100104","name":"Ingrediente ECO","slug":"100104-eco-ingrediente"},{"code":"100081606","name":"Zahăr de cocos ecologic 250g","slug":"100081606-niavis-zahar-de-cocos-ecologic-250g"}],"activePromotion":null,"saveMe":null,"labels":[],"geniusPrice":null,"geniusUnitPricePerLabel":null,"banner":null,"discountLabel":null,"geniusDiscountLabel":null,"badge":null},{"code":"100081571","variantCode":"6426284001214","name":"Nucă de cocos răzuită ecologică 125g","slug":"100081571-niavis-nuca-de-cocos-razuita-ecologica-125g","unitPriceLabel":"111,92 Lei/kg","brand":"Niavis","brandCode":"190","brandFilterCode":"niavis-b191","sku":"100081571","price":13.99,"originalPrice":null,"currencyCode":"RON","currency":"Lei","image":{"thumbnail":{"default":"https://cdn.freshful.ro/media/cache/sylius_shop_product_thumbnail/bb/02/37d8718bb075c822ac31fae2059e.jpg"},"large":{"default":"https://cdn.freshful.ro/media/cache/freshful_large/bb/02/37d8718bb075c822ac31fae2059e.jpg"},"extralarge":{"default":"https://cdn.freshful.ro/media/cache/sylius_shop_product_original/bb/02/37d8718bb075c822ac31fae2059e.jpg"}},"label":null,"tags":[{"type":"vegan","text":"Vegan","icon":"https://cdn.freshful.ro/assets/product_tags/vegan.svg","iconPng":"https://cdn.freshful.ro/assets/product_tags/vegan.png","backgroundColor":"#ECF9F8","textColor":"#33A39C"},{"type":"NoGluten","text":"Fara gluten","icon":"https://cdn.freshful.ro/assets/product_tags/fara_gluten.svg","iconPng":"https://cdn.freshful.ro/assets/product_tags/fara_gluten.png","backgroundColor":"#FFF2E5","textColor":"#F07900"},{"type":"Eco","text":"Eco","icon":"https://cdn.freshful.ro/assets/product_tags/eco.svg","iconPng":"https://cdn.freshful.ro/assets/product_tags/eco.png","backgroundColor":"#EFFBE4","textColor":"#66BB1B"}],"isAvailable":true,"maxAvailableQuantity":32,"maxAllowedQuantity":100,"breadcrumbs":[{"code":"10","name":"Dietetic, ECO & internațional","slug":"10-dietetic-bio-si-international"},{"code":"1001","name":"Produse ecologice","slug":"1001-produse-ecologice"},{"code":"100104","name":"Ingrediente ECO","slug":"100104-eco-ingrediente"},{"code":"100081571","name":"Nucă de cocos răzuită ecologică 125g","slug":"100081571-niavis-nuca-de-cocos-razuita-ecologica-125g"}],"activePromotion":null,"saveMe":null,"labels":[],"geniusPrice":null,"geniusUnitPricePerLabel":null,"banner":null,"discountLabel":null,"geniusDiscountLabel":null,"badge":null},{"code":"100081592","variantCode":"6426284001320","name":"Sirop de curmale ecologic 300g","slug":"100081592-niavis-sirop-de-curmale-ecologic-300g","unitPriceLabel":"99,97 Lei/kg","brand":"Niavis","brandCode":"190","brandFilterCode":"niavis-b191","sku":"100081592","price":29.99,"originalPrice":null,"currencyCode":"RON","currency":"Lei","image":{"thumbnail":{"default":"https://cdn.freshful.ro/media/cache/sylius_shop_product_thumbnail/44/fd/fc4ab5cb0c5f9db522807c5b47f4.jpg"},"large":{"default":"https://cdn.freshful.ro/media/cache/freshful_large/44/fd/fc4ab5cb0c5f9db522807c5b47f4.jpg"},"extralarge":{"default":"https://cdn.freshful.ro/media/cache/sylius_shop_product_original/44/fd/fc4ab5cb0c5f9db522807c5b47f4.jpg"}},"label":null,"tags":[{"type":"vegan","text":"Vegan","icon":"https://cdn.freshful.ro/assets/product_tags/vegan.svg","iconPng":"https://cdn.freshful.ro/assets/product_tags/vegan.png","backgroundColor":"#ECF9F8","textColor":"#33A39C"},{"type":"NoGluten","text":"Fara gluten","icon":"https://cdn.freshful.ro/assets/product_tags/fara_gluten.svg","iconPng":"https://cdn.freshful.ro/assets/product_tags/fara_gluten.png","backgroundColor":"#FFF2E5","textColor":"#F07900"},{"type":"Eco","text":"Eco","icon":"https://cdn.freshful.ro/assets/product_tags/eco.svg","iconPng":"https://cdn.freshful.ro/assets/product_tags/eco.png","backgroundColor":"#EFFBE4","textColor":"#66BB1B"}],"isAvailable":true,"maxAvailableQuantity":37,"maxAllowedQuantity":100,"breadcrumbs":[{"code":"10","name":"Dietetic, ECO & internațional","slug":"10-dietetic-bio-si-international"},{"code":"1001","name":"Produse ecologice","slug":"1001-produse-ecologice"},{"code":"100104","name":"Ingrediente ECO","slug":"100104-eco-ingrediente"},{"code":"100081592","name":"Sirop de curmale ecologic 300g","slug":"100081592-niavis-sirop-de-curmale-ecologic-300g"}],"activePromotion":null,"saveMe":null,"labels":[],"geniusPrice":null,"geniusUnitPricePerLabel":null,"banner":null,"discountLabel":null,"geniusDiscountLabel":null,"badge":null},{"code":"100104921","variantCode":"3800225478885","name":"Zahăr din cocos eco 250g","slug":"100104921-dragon-zahar-din-cocos-eco-250g","unitPriceLabel":"73,56 Lei/kg","brand":"Dragon","brandCode":"1704","brandFilterCode":"dragon-b1710","sku":"100104921","price":18.39,"originalPrice":null,"currencyCode":"RON","currency":"Lei","image":{"thumbnail":{"default":"https://cdn.freshful.ro/media/cache/sylius_shop_product_thumbnail/2b/c8/d1a8d0b3485046992e1f328b4584.jpg"},"large":{"default":"https://cdn.freshful.ro/media/cache/freshful_large/2b/c8/d1a8d0b3485046992e1f328b4584.jpg"},"extralarge":{"default":"https://cdn.freshful.ro/media/cache/sylius_shop_product_original/2b/c8/d1a8d0b3485046992e1f328b4584.jpg"}},"label":null,"tags":[{"type":"Eco","text":"Eco","icon":"https://cdn.freshful.ro/assets/product_tags/eco.svg","iconPng":"https://cdn.freshful.ro/assets/product_tags/eco.png","backgroundColor":"#EFFBE4","textColor":"#66BB1B"}],"isAvailable":true,"maxAvailableQuantity":17,"maxAllowedQuantity":100,"breadcrumbs":[{"code":"10","name":"Dietetic, ECO & internațional","slug":"10-dietetic-bio-si-international"},{"code":"1001","name":"Produse ecologice","slug":"1001-produse-ecologice"},{"code":"100104","name":"Ingrediente ECO","slug":"100104-eco-ingrediente"},{"code":"100104921","name":"Zahăr din cocos eco 250g","slug":"100104921-dragon-zahar-din-cocos-eco-250g"}],"activePromotion":null,"saveMe":null,"labels":[],"geniusPrice":null,"geniusUnitPricePerLabel":null,"banner":null,"discountLabel":null,"geniusDiscountLabel":null,"badge":null}],"filters":{"countSelected":0,"items":[{"code":"promotion","name":"Promoții","countSelected":0,"values":[{"code":"oferte-bacanie-bauturi-21feb-8mar23","name":"Cămara cu băuturi și bunătăți","isSelected":false,"count":1}]},{"code":"brand","name":"Brand","countSelected":0,"values":[{"code":"alce-nero-b2016","name":"Alce Nero","isSelected":false,"count":1},{"code":"bauckhof-b685","name":"Bauckhof","isSelected":false,"count":2},{"code":"dobrogea-b229","name":"Dobrogea","isSelected":false,"count":2},{"code":"dragon-b1710","name":"Dragon","isSelected":false,"count":2},{"code":"hanf-natur-b860","name":"Hanf & Natur","isSelected":false,"count":1},{"code":"iswari-b863","name":"Iswari","isSelected":false,"count":4},{"code":"merryberry-b2709","name":"Merryberry","isSelected":false,"count":1},{"code":"natura-toscana-b1520","name":"Natura Toscana","isSelected":false,"count":3},{"code":"niavis-b191","name":"Niavis","isSelected":false,"count":19},{"code":"probios-b930","name":"Probios","isSelected":false,"count":2},{"code":"ruf-b2162","name":"Ruf","isSelected":false,"count":2},{"code":"smileat-b867","name":"Smileat","isSelected":false,"count":1},{"code":"sukrin-b2274","name":"Sukrin","isSelected":false,"count":1},{"code":"verival-b972","name":"Verival","isSelected":false,"count":1},{"code":"videca-b988","name":"Videca","isSelected":false,"count":1}]},{"code":"diet_lifestyle","name":"Dietă și lifestyle","countSelected":0,"values":[{"code":"eco-a83","name":"Eco","isSelected":false,"count":40},{"code":"fara-conservanti-a37","name":"Fara conservanti","isSelected":false,"count":1},{"code":"fara-gluten-a16","name":"Fara gluten","isSelected":false,"count":18},{"code":"fara-zahar-adaugat-a29","name":"Fara zahar adaugat","isSelected":false,"count":3},{"code":"made-in-romania-a85","name":"Made In Romania","isSelected":false,"count":1},{"code":"natural-a27","name":"Natural","isSelected":false,"count":1},{"code":"vegan-a24","name":"Vegan","isSelected":false,"count":23}]}]},"orderBy":[{"field":"price","direction":"asc","name":"Preț crescător","isSelected":false},{"field":"price","direction":"desc","name":"Preț descrescător","isSelected":false},{"field":"popularity","direction":"desc","name":"Cele mai populare","isSelected":true},{"field":"category","direction":"asc","name":"Categorie","isSelected":false}],"metaTitle":"Ingrediente ECO - Gamă variată","metaDescription":"Vrei Ingrediente ECO? Alege dintr-o gamă variată. Comanzi simplu și ai livrare rapidă, calitate și prospețime. Hai pe Freshful.ro","metaKeywords":null,"banners":[]}}