{"type":"subcategory","payload":{"analyticsListId":"category_100105-eco-snacking","analyticsListName":"Category - Snacks ECO","name":"Snacks ECO","slug":"100105-eco-snacking","image":null,"breadcrumbs":[{"code":"10","name":"Dietetic, ECO & internațional","slug":"10-dietetic-bio-si-international"},{"code":"1001","name":"Produse ecologice","slug":"1001-produse-ecologice"},{"code":"100105","name":"Snacks ECO","slug":"100105-eco-snacking"}],"slots":[],"page":1,"limit":10,"pages":11,"count":107,"siblings":[{"name":"Produse ecologice","slug":"1001-produse-ecologice","selected":true},{"name":"Produse dietetice și naturiste","slug":"1002-produse-dietetice-si-naturiste","selected":false},{"name":"Suplimente alimentare","slug":"1003-suplimente-alimentare","selected":false},{"name":"Produse internaționale","slug":"1004-bucatarie-internationala","selected":false}],"children":[{"name":"Toate produsele","slug":"1001-produse-ecologice","selected":false},{"name":"Condimente și sosuri ECO","slug":"100101-eco-condimente-si-sosuri","selected":false},{"name":"Conserve ECO","slug":"100102-eco-conserve","selected":false},{"name":"Mic dejun ECO","slug":"100103-eco-micul-dejun","selected":false},{"name":"Ingrediente ECO","slug":"100104-eco-ingrediente","selected":false},{"name":"Snacks ECO","slug":"100105-eco-snacking","selected":true}],"products":[{"code":"100075550","variantCode":"4000381004334","name":"Sticks cu sare eco 175g","slug":"100075550-huober-sticks-cu-sare-eco-175g","unitPriceLabel":"34,23 Lei/kg","brand":"Huober","brandCode":"970","brandFilterCode":"huober-b984","sku":"100075550","price":5.99,"originalPrice":6.9,"currencyCode":"RON","currency":"Lei","image":{"thumbnail":{"default":"https://cdn.freshful.ro/media/cache/sylius_shop_product_thumbnail/dc/0b/c7f1415729a5148e02f6c008081d.jpg"},"large":{"default":"https://cdn.freshful.ro/media/cache/freshful_large/dc/0b/c7f1415729a5148e02f6c008081d.jpg"},"extralarge":{"default":"https://cdn.freshful.ro/media/cache/sylius_shop_product_original/dc/0b/c7f1415729a5148e02f6c008081d.jpg"}},"label":{"text":"-13%","backgroundColor":"#FF9903","textColor":"#FFFFFF"},"tags":[{"type":"Eco","text":"Eco","icon":"https://cdn.freshful.ro/assets/product_tags/eco.svg","iconPng":"https://cdn.freshful.ro/assets/product_tags/eco.png","backgroundColor":"#EFFBE4","textColor":"#66BB1B"}],"isAvailable":true,"maxAvailableQuantity":39,"maxAllowedQuantity":100,"breadcrumbs":[{"code":"10","name":"Dietetic, ECO & internațional","slug":"10-dietetic-bio-si-international"},{"code":"1001","name":"Produse ecologice","slug":"1001-produse-ecologice"},{"code":"100105","name":"Snacks ECO","slug":"100105-eco-snacking"},{"code":"100075550","name":"Sticks cu sare eco 175g","slug":"100075550-huober-sticks-cu-sare-eco-175g"}],"activePromotion":{"code":"targ-bere-snacks-mar23","name":"Preț redus","targetQuantity":null},"saveMe":null,"labels":[{"type":"v1","items":[{"text":"-13%","backgroundColor":"#FF9903","textColor":"#FFFFFF"}]}],"geniusPrice":null,"geniusUnitPricePerLabel":null,"banner":{"text":"Super preț","textColor":"#FF0000","bgColor":"#FFF2EC","icon":null,"link":"https://www.freshful.ro/oferte/targ-bere-snacks-mar23","type":"promo","analyticsEventType":"select_promotion","analyticsEventPayload":{"promotion_id":"targ-bere-snacks-mar23","promotion_name":"Bere și snackuri pentru toate gusturile"}},"discountLabel":"Economisești 13%","geniusDiscountLabel":null,"badge":null},{"code":"100075554","variantCode":"4000381003016","name":"Covrigei cu sare Minis eco 40g","slug":"100075554-huober-covrigei-cu-sare-minis-eco-40g","unitPriceLabel":"59,75 Lei/kg","brand":"Huober","brandCode":"970","brandFilterCode":"huober-b984","sku":"100075554","price":2.39,"originalPrice":2.65,"currencyCode":"RON","currency":"Lei","image":{"thumbnail":{"default":"https://cdn.freshful.ro/media/cache/sylius_shop_product_thumbnail/3a/e6/c3a8ae0bb2eb465945c61d710c30.jpg"},"large":{"default":"https://cdn.freshful.ro/media/cache/freshful_large/3a/e6/c3a8ae0bb2eb465945c61d710c30.jpg"},"extralarge":{"default":"https://cdn.freshful.ro/media/cache/sylius_shop_product_original/3a/e6/c3a8ae0bb2eb465945c61d710c30.jpg"}},"label":{"text":"-9%","backgroundColor":"#FF9903","textColor":"#FFFFFF"},"tags":[{"type":"Eco","text":"Eco","icon":"https://cdn.freshful.ro/assets/product_tags/eco.svg","iconPng":"https://cdn.freshful.ro/assets/product_tags/eco.png","backgroundColor":"#EFFBE4","textColor":"#66BB1B"}],"isAvailable":true,"maxAvailableQuantity":34,"maxAllowedQuantity":100,"breadcrumbs":[{"code":"10","name":"Dietetic, ECO & internațional","slug":"10-dietetic-bio-si-international"},{"code":"1001","name":"Produse ecologice","slug":"1001-produse-ecologice"},{"code":"100105","name":"Snacks ECO","slug":"100105-eco-snacking"},{"code":"100075554","name":"Covrigei cu sare Minis eco 40g","slug":"100075554-huober-covrigei-cu-sare-minis-eco-40g"}],"activePromotion":{"code":"targ-bere-snacks-mar23","name":"Preț redus","targetQuantity":null},"saveMe":null,"labels":[{"type":"v1","items":[{"text":"-9%","backgroundColor":"#FF9903","textColor":"#FFFFFF"}]}],"geniusPrice":null,"geniusUnitPricePerLabel":null,"banner":{"text":"Super preț","textColor":"#FF0000","bgColor":"#FFF2EC","icon":null,"link":"https://www.freshful.ro/oferte/targ-bere-snacks-mar23","type":"promo","analyticsEventType":"select_promotion","analyticsEventPayload":{"promotion_id":"targ-bere-snacks-mar23","promotion_name":"Bere și snackuri pentru toate gusturile"}},"discountLabel":"Economisești 9%","geniusDiscountLabel":null,"badge":null},{"code":"100075558","variantCode":"4000381102009","name":"Covrig eco 40g","slug":"100075558-huober-covrig-eco-40g","unitPriceLabel":"72,25 Lei/kg","brand":"Huober","brandCode":"970","brandFilterCode":"huober-b984","sku":"100075558","price":2.89,"originalPrice":3.15,"currencyCode":"RON","currency":"Lei","image":{"thumbnail":{"default":"https://cdn.freshful.ro/media/cache/sylius_shop_product_thumbnail/38/61/310be997380df46ef9594f7464e1.jpg"},"large":{"default":"https://cdn.freshful.ro/media/cache/freshful_large/38/61/310be997380df46ef9594f7464e1.jpg"},"extralarge":{"default":"https://cdn.freshful.ro/media/cache/sylius_shop_product_original/38/61/310be997380df46ef9594f7464e1.jpg"}},"label":{"text":"-8%","backgroundColor":"#FF9903","textColor":"#FFFFFF"},"tags":[{"type":"Eco","text":"Eco","icon":"https://cdn.freshful.ro/assets/product_tags/eco.svg","iconPng":"https://cdn.freshful.ro/assets/product_tags/eco.png","backgroundColor":"#EFFBE4","textColor":"#66BB1B"}],"isAvailable":true,"maxAvailableQuantity":69,"maxAllowedQuantity":100,"breadcrumbs":[{"code":"10","name":"Dietetic, ECO & internațional","slug":"10-dietetic-bio-si-international"},{"code":"1001","name":"Produse ecologice","slug":"1001-produse-ecologice"},{"code":"100105","name":"Snacks ECO","slug":"100105-eco-snacking"},{"code":"100075558","name":"Covrig eco 40g","slug":"100075558-huober-covrig-eco-40g"}],"activePromotion":{"code":"targ-bere-snacks-mar23","name":"Preț redus","targetQuantity":null},"saveMe":null,"labels":[{"type":"v1","items":[{"text":"-8%","backgroundColor":"#FF9903","textColor":"#FFFFFF"}]}],"geniusPrice":null,"geniusUnitPricePerLabel":null,"banner":{"text":"Super preț","textColor":"#FF0000","bgColor":"#FFF2EC","icon":null,"link":"https://www.freshful.ro/oferte/targ-bere-snacks-mar23","type":"promo","analyticsEventType":"select_promotion","analyticsEventPayload":{"promotion_id":"targ-bere-snacks-mar23","promotion_name":"Bere și snackuri pentru toate gusturile"}},"discountLabel":"Economisești 8%","geniusDiscountLabel":null,"badge":null},{"code":"100075549","variantCode":"4000381002019","name":"Covrigi sărați eco 125g","slug":"100075549-huober-covrigi-sarati-eco-125g","unitPriceLabel":"59,92 Lei/kg","brand":"Huober","brandCode":"970","brandFilterCode":"huober-b984","sku":"100075549","price":7.49,"originalPrice":8.55,"currencyCode":"RON","currency":"Lei","image":{"thumbnail":{"default":"https://cdn.freshful.ro/media/cache/sylius_shop_product_thumbnail/24/01/2ce83c4a35315e0d4a64c52eddbf.jpg"},"large":{"default":"https://cdn.freshful.ro/media/cache/freshful_large/24/01/2ce83c4a35315e0d4a64c52eddbf.jpg"},"extralarge":{"default":"https://cdn.freshful.ro/media/cache/sylius_shop_product_original/24/01/2ce83c4a35315e0d4a64c52eddbf.jpg"}},"label":{"text":"-12%","backgroundColor":"#FF9903","textColor":"#FFFFFF"},"tags":[{"type":"Eco","text":"Eco","icon":"https://cdn.freshful.ro/assets/product_tags/eco.svg","iconPng":"https://cdn.freshful.ro/assets/product_tags/eco.png","backgroundColor":"#EFFBE4","textColor":"#66BB1B"}],"isAvailable":true,"maxAvailableQuantity":57,"maxAllowedQuantity":100,"breadcrumbs":[{"code":"10","name":"Dietetic, ECO & internațional","slug":"10-dietetic-bio-si-international"},{"code":"1001","name":"Produse ecologice","slug":"1001-produse-ecologice"},{"code":"100105","name":"Snacks ECO","slug":"100105-eco-snacking"},{"code":"100075549","name":"Covrigi sărați eco 125g","slug":"100075549-huober-covrigi-sarati-eco-125g"}],"activePromotion":{"code":"targ-bere-snacks-mar23","name":"Preț redus","targetQuantity":null},"saveMe":null,"labels":[{"type":"v1","items":[{"text":"-12%","backgroundColor":"#FF9903","textColor":"#FFFFFF"}]}],"geniusPrice":null,"geniusUnitPricePerLabel":null,"banner":{"text":"Super preț","textColor":"#FF0000","bgColor":"#FFF2EC","icon":null,"link":"https://www.freshful.ro/oferte/targ-bere-snacks-mar23","type":"promo","analyticsEventType":"select_promotion","analyticsEventPayload":{"promotion_id":"targ-bere-snacks-mar23","promotion_name":"Bere și snackuri pentru toate gusturile"}},"discountLabel":"Economisești 12%","geniusDiscountLabel":null,"badge":null},{"code":"100144378","variantCode":"100144378","name":"Jeleuri ecologice animaluțe 100g","slug":"100144378-niavis-jeleuri-ecologice-animalute-100g","unitPriceLabel":"124,9 Lei/kg","brand":"Niavis","brandCode":"190","brandFilterCode":"niavis-b191","sku":"100144378","price":12.49,"originalPrice":16.99,"currencyCode":"RON","currency":"Lei","image":{"thumbnail":{"default":"https://cdn.freshful.ro/media/cache/sylius_shop_product_thumbnail/e4/63/c5285d6878634d82f9443efbe700.jpg"},"large":{"default":"https://cdn.freshful.ro/media/cache/freshful_large/e4/63/c5285d6878634d82f9443efbe700.jpg"},"extralarge":{"default":"https://cdn.freshful.ro/media/cache/sylius_shop_product_original/e4/63/c5285d6878634d82f9443efbe700.jpg"}},"label":{"text":"-26%","backgroundColor":"#FF9903","textColor":"#FFFFFF"},"tags":[{"type":"NoGluten","text":"Fara gluten","icon":"https://cdn.freshful.ro/assets/product_tags/fara_gluten.svg","iconPng":"https://cdn.freshful.ro/assets/product_tags/fara_gluten.png","backgroundColor":"#FFF2E5","textColor":"#F07900"},{"type":"LactoseFree","text":"Fara lactoza","icon":"https://cdn.freshful.ro/assets/product_tags/fara_lactoza.svg","iconPng":"https://cdn.freshful.ro/assets/product_tags/fara_lactoza.png","backgroundColor":"#E9F7FB","textColor":"#25A6D0"}],"isAvailable":true,"maxAvailableQuantity":16,"maxAllowedQuantity":100,"breadcrumbs":[{"code":"10","name":"Dietetic, ECO & internațional","slug":"10-dietetic-bio-si-international"},{"code":"1001","name":"Produse ecologice","slug":"1001-produse-ecologice"},{"code":"100105","name":"Snacks ECO","slug":"100105-eco-snacking"},{"code":"100144378","name":"Jeleuri ecologice animaluțe 100g","slug":"100144378-niavis-jeleuri-ecologice-animalute-100g"}],"activePromotion":{"code":"oferte-bacanie-bauturi-21feb-8mar23","name":"Preț redus","targetQuantity":null},"saveMe":null,"labels":[{"type":"v1","items":[{"text":"-26%","backgroundColor":"#FF9903","textColor":"#FFFFFF"}]}],"geniusPrice":null,"geniusUnitPricePerLabel":null,"banner":{"text":"Super preț","textColor":"#FF0000","bgColor":"#FFF2EC","icon":null,"link":"https://www.freshful.ro/oferte/oferte-bacanie-bauturi-21feb-8mar23","type":"promo","analyticsEventType":"select_promotion","analyticsEventPayload":{"promotion_id":"oferte-bacanie-bauturi-21feb-8mar23","promotion_name":"Cămara cu băuturi și bunătăți"}},"discountLabel":"Economisești 26%","geniusDiscountLabel":null,"badge":null},{"code":"100075551","variantCode":"4000381003030","name":"Covrigei crocanți svăbești eco 175g","slug":"100075551-huober-covrigei-crocanti-svabesti-eco-175g","unitPriceLabel":"45,66 Lei/kg","brand":"Huober","brandCode":"970","brandFilterCode":"huober-b984","sku":"100075551","price":7.99,"originalPrice":8.89,"currencyCode":"RON","currency":"Lei","image":{"thumbnail":{"default":"https://cdn.freshful.ro/media/cache/sylius_shop_product_thumbnail/a1/c1/dd7aacf8b521dc03e27a46023f23.jpg"},"large":{"default":"https://cdn.freshful.ro/media/cache/freshful_large/a1/c1/dd7aacf8b521dc03e27a46023f23.jpg"},"extralarge":{"default":"https://cdn.freshful.ro/media/cache/sylius_shop_product_original/a1/c1/dd7aacf8b521dc03e27a46023f23.jpg"}},"label":{"text":"-10%","backgroundColor":"#FF9903","textColor":"#FFFFFF"},"tags":[{"type":"Eco","text":"Eco","icon":"https://cdn.freshful.ro/assets/product_tags/eco.svg","iconPng":"https://cdn.freshful.ro/assets/product_tags/eco.png","backgroundColor":"#EFFBE4","textColor":"#66BB1B"}],"isAvailable":true,"maxAvailableQuantity":38,"maxAllowedQuantity":100,"breadcrumbs":[{"code":"10","name":"Dietetic, ECO & internațional","slug":"10-dietetic-bio-si-international"},{"code":"1001","name":"Produse ecologice","slug":"1001-produse-ecologice"},{"code":"100105","name":"Snacks ECO","slug":"100105-eco-snacking"},{"code":"100075551","name":"Covrigei crocanți svăbești eco 175g","slug":"100075551-huober-covrigei-crocanti-svabesti-eco-175g"}],"activePromotion":{"code":"targ-bere-snacks-mar23","name":"Preț redus","targetQuantity":null},"saveMe":null,"labels":[{"type":"v1","items":[{"text":"-10%","backgroundColor":"#FF9903","textColor":"#FFFFFF"}]}],"geniusPrice":null,"geniusUnitPricePerLabel":null,"banner":{"text":"Super preț","textColor":"#FF0000","bgColor":"#FFF2EC","icon":null,"link":"https://www.freshful.ro/oferte/targ-bere-snacks-mar23","type":"promo","analyticsEventType":"select_promotion","analyticsEventPayload":{"promotion_id":"targ-bere-snacks-mar23","promotion_name":"Bere și snackuri pentru toate gusturile"}},"discountLabel":"Economisești 10%","geniusDiscountLabel":null,"badge":null},{"code":"100144383","variantCode":"100144383","name":"Jeleuri ecologice ursuleți 100g","slug":"100144383-niavis-jeleuri-ecologice-ursuleti-100g","unitPriceLabel":"124,9 Lei/kg","brand":"Niavis","brandCode":"190","brandFilterCode":"niavis-b191","sku":"100144383","price":12.49,"originalPrice":16.99,"currencyCode":"RON","currency":"Lei","image":{"thumbnail":{"default":"https://cdn.freshful.ro/media/cache/sylius_shop_product_thumbnail/4f/05/73574832b5fabc394857eff405cd.jpg"},"large":{"default":"https://cdn.freshful.ro/media/cache/freshful_large/4f/05/73574832b5fabc394857eff405cd.jpg"},"extralarge":{"default":"https://cdn.freshful.ro/media/cache/sylius_shop_product_original/4f/05/73574832b5fabc394857eff405cd.jpg"}},"label":{"text":"-26%","backgroundColor":"#FF9903","textColor":"#FFFFFF"},"tags":[{"type":"Eco","text":"Eco","icon":"https://cdn.freshful.ro/assets/product_tags/eco.svg","iconPng":"https://cdn.freshful.ro/assets/product_tags/eco.png","backgroundColor":"#EFFBE4","textColor":"#66BB1B"},{"type":"vegan","text":"Vegan","icon":"https://cdn.freshful.ro/assets/product_tags/vegan.svg","iconPng":"https://cdn.freshful.ro/assets/product_tags/vegan.png","backgroundColor":"#ECF9F8","textColor":"#33A39C"},{"type":"NoGluten","text":"Fara gluten","icon":"https://cdn.freshful.ro/assets/product_tags/fara_gluten.svg","iconPng":"https://cdn.freshful.ro/assets/product_tags/fara_gluten.png","backgroundColor":"#FFF2E5","textColor":"#F07900"},{"type":"LactoseFree","text":"Fara lactoza","icon":"https://cdn.freshful.ro/assets/product_tags/fara_lactoza.svg","iconPng":"https://cdn.freshful.ro/assets/product_tags/fara_lactoza.png","backgroundColor":"#E9F7FB","textColor":"#25A6D0"}],"isAvailable":true,"maxAvailableQuantity":19,"maxAllowedQuantity":100,"breadcrumbs":[{"code":"10","name":"Dietetic, ECO & internațional","slug":"10-dietetic-bio-si-international"},{"code":"1001","name":"Produse ecologice","slug":"1001-produse-ecologice"},{"code":"100105","name":"Snacks ECO","slug":"100105-eco-snacking"},{"code":"100144383","name":"Jeleuri ecologice ursuleți 100g","slug":"100144383-niavis-jeleuri-ecologice-ursuleti-100g"}],"activePromotion":{"code":"oferte-bacanie-bauturi-21feb-8mar23","name":"Preț redus","targetQuantity":null},"saveMe":null,"labels":[{"type":"v1","items":[{"text":"-26%","backgroundColor":"#FF9903","textColor":"#FFFFFF"}]}],"geniusPrice":null,"geniusUnitPricePerLabel":null,"banner":{"text":"Super preț","textColor":"#FF0000","bgColor":"#FFF2EC","icon":null,"link":"https://www.freshful.ro/oferte/oferte-bacanie-bauturi-21feb-8mar23","type":"promo","analyticsEventType":"select_promotion","analyticsEventPayload":{"promotion_id":"oferte-bacanie-bauturi-21feb-8mar23","promotion_name":"Cămara cu băuturi și bunătăți"}},"discountLabel":"Economisești 26%","geniusDiscountLabel":null,"badge":null},{"code":"100075553","variantCode":"4000381008059","name":"Grisine eco 100g","slug":"100075553-huober-grisine-eco-100g","unitPriceLabel":"72,9 Lei/kg","brand":"Huober","brandCode":"970","brandFilterCode":"huober-b984","sku":"100075553","price":7.29,"originalPrice":7.65,"currencyCode":"RON","currency":"Lei","image":{"thumbnail":{"default":"https://cdn.freshful.ro/media/cache/sylius_shop_product_thumbnail/cd/1a/9c29bc0fa71452d338256d611481.jpg"},"large":{"default":"https://cdn.freshful.ro/media/cache/freshful_large/cd/1a/9c29bc0fa71452d338256d611481.jpg"},"extralarge":{"default":"https://cdn.freshful.ro/media/cache/sylius_shop_product_original/cd/1a/9c29bc0fa71452d338256d611481.jpg"}},"label":{"text":"-4%","backgroundColor":"#FF9903","textColor":"#FFFFFF"},"tags":[{"type":"Eco","text":"Eco","icon":"https://cdn.freshful.ro/assets/product_tags/eco.svg","iconPng":"https://cdn.freshful.ro/assets/product_tags/eco.png","backgroundColor":"#EFFBE4","textColor":"#66BB1B"}],"isAvailable":true,"maxAvailableQuantity":13,"maxAllowedQuantity":100,"breadcrumbs":[{"code":"10","name":"Dietetic, ECO & internațional","slug":"10-dietetic-bio-si-international"},{"code":"1001","name":"Produse ecologice","slug":"1001-produse-ecologice"},{"code":"100105","name":"Snacks ECO","slug":"100105-eco-snacking"},{"code":"100075553","name":"Grisine eco 100g","slug":"100075553-huober-grisine-eco-100g"}],"activePromotion":{"code":"targ-bere-snacks-mar23","name":"Preț redus","targetQuantity":null},"saveMe":null,"labels":[{"type":"v1","items":[{"text":"-4%","backgroundColor":"#FF9903","textColor":"#FFFFFF"}]}],"geniusPrice":null,"geniusUnitPricePerLabel":null,"banner":{"text":"Super preț","textColor":"#FF0000","bgColor":"#FFF2EC","icon":null,"link":"https://www.freshful.ro/oferte/targ-bere-snacks-mar23","type":"promo","analyticsEventType":"select_promotion","analyticsEventPayload":{"promotion_id":"targ-bere-snacks-mar23","promotion_name":"Bere și snackuri pentru toate gusturile"}},"discountLabel":"Economisești 4%","geniusDiscountLabel":null,"badge":null},{"code":"100075555","variantCode":"4000381004013","name":"Ministicks cu sare eco 40g","slug":"100075555-huober-ministicks-cu-sare-eco-40g","unitPriceLabel":"47,25 Lei/kg","brand":"Huober","brandCode":"970","brandFilterCode":"huober-b984","sku":"100075555","price":1.89,"originalPrice":2.05,"currencyCode":"RON","currency":"Lei","image":{"thumbnail":{"default":"https://cdn.freshful.ro/media/cache/sylius_shop_product_thumbnail/7b/96/2ccfcf90f9db44caa23296fc3f9f.jpg"},"large":{"default":"https://cdn.freshful.ro/media/cache/freshful_large/7b/96/2ccfcf90f9db44caa23296fc3f9f.jpg"},"extralarge":{"default":"https://cdn.freshful.ro/media/cache/sylius_shop_product_original/7b/96/2ccfcf90f9db44caa23296fc3f9f.jpg"}},"label":{"text":"-7%","backgroundColor":"#FF9903","textColor":"#FFFFFF"},"tags":[{"type":"Eco","text":"Eco","icon":"https://cdn.freshful.ro/assets/product_tags/eco.svg","iconPng":"https://cdn.freshful.ro/assets/product_tags/eco.png","backgroundColor":"#EFFBE4","textColor":"#66BB1B"}],"isAvailable":true,"maxAvailableQuantity":46,"maxAllowedQuantity":100,"breadcrumbs":[{"code":"10","name":"Dietetic, ECO & internațional","slug":"10-dietetic-bio-si-international"},{"code":"1001","name":"Produse ecologice","slug":"1001-produse-ecologice"},{"code":"100105","name":"Snacks ECO","slug":"100105-eco-snacking"},{"code":"100075555","name":"Ministicks cu sare eco 40g","slug":"100075555-huober-ministicks-cu-sare-eco-40g"}],"activePromotion":{"code":"targ-bere-snacks-mar23","name":"Preț redus","targetQuantity":null},"saveMe":null,"labels":[{"type":"v1","items":[{"text":"-7%","backgroundColor":"#FF9903","textColor":"#FFFFFF"}]}],"geniusPrice":null,"geniusUnitPricePerLabel":null,"banner":{"text":"Super preț","textColor":"#FF0000","bgColor":"#FFF2EC","icon":null,"link":"https://www.freshful.ro/oferte/targ-bere-snacks-mar23","type":"promo","analyticsEventType":"select_promotion","analyticsEventPayload":{"promotion_id":"targ-bere-snacks-mar23","promotion_name":"Bere și snackuri pentru toate gusturile"}},"discountLabel":"Economisești 7%","geniusDiscountLabel":null,"badge":null},{"code":"100075552","variantCode":"4000381004129","name":"Sticks lung cu sare de mare eco 125g","slug":"100075552-huober-sticks-lung-cu-sare-de-mare-eco-125g","unitPriceLabel":"66,32 Lei/kg","brand":"Huober","brandCode":"970","brandFilterCode":"huober-b984","sku":"100075552","price":8.29,"originalPrice":9.15,"currencyCode":"RON","currency":"Lei","image":{"thumbnail":{"default":"https://cdn.freshful.ro/media/cache/sylius_shop_product_thumbnail/66/90/a171d272545007554f424e7396f1.jpg"},"large":{"default":"https://cdn.freshful.ro/media/cache/freshful_large/66/90/a171d272545007554f424e7396f1.jpg"},"extralarge":{"default":"https://cdn.freshful.ro/media/cache/sylius_shop_product_original/66/90/a171d272545007554f424e7396f1.jpg"}},"label":{"text":"-9%","backgroundColor":"#FF9903","textColor":"#FFFFFF"},"tags":[{"type":"Eco","text":"Eco","icon":"https://cdn.freshful.ro/assets/product_tags/eco.svg","iconPng":"https://cdn.freshful.ro/assets/product_tags/eco.png","backgroundColor":"#EFFBE4","textColor":"#66BB1B"}],"isAvailable":true,"maxAvailableQuantity":16,"maxAllowedQuantity":100,"breadcrumbs":[{"code":"10","name":"Dietetic, ECO & internațional","slug":"10-dietetic-bio-si-international"},{"code":"1001","name":"Produse ecologice","slug":"1001-produse-ecologice"},{"code":"100105","name":"Snacks ECO","slug":"100105-eco-snacking"},{"code":"100075552","name":"Sticks lung cu sare de mare eco 125g","slug":"100075552-huober-sticks-lung-cu-sare-de-mare-eco-125g"}],"activePromotion":{"code":"targ-bere-snacks-mar23","name":"Preț redus","targetQuantity":null},"saveMe":null,"labels":[{"type":"v1","items":[{"text":"-9%","backgroundColor":"#FF9903","textColor":"#FFFFFF"}]}],"geniusPrice":null,"geniusUnitPricePerLabel":null,"banner":{"text":"Super preț","textColor":"#FF0000","bgColor":"#FFF2EC","icon":null,"link":"https://www.freshful.ro/oferte/targ-bere-snacks-mar23","type":"promo","analyticsEventType":"select_promotion","analyticsEventPayload":{"promotion_id":"targ-bere-snacks-mar23","promotion_name":"Bere și snackuri pentru toate gusturile"}},"discountLabel":"Economisești 9%","geniusDiscountLabel":null,"badge":null}],"filters":{"countSelected":0,"items":[{"code":"promotion","name":"Promoții","countSelected":0,"values":[{"code":"targ-bere-snacks-mar23","name":"Bere și snackuri pentru toate gusturile","isSelected":false,"count":8},{"code":"oferte-bacanie-bauturi-21feb-8mar23","name":"Cămara cu băuturi și bunătăți","isSelected":false,"count":2}]},{"code":"brand","name":"Brand","countSelected":0,"values":[{"code":"5-to-go-b2826","name":"5 To Go","isSelected":false,"count":4},{"code":"alce-nero-b2016","name":"Alce Nero","isSelected":false,"count":6},{"code":"bio-junior-b686","name":"Bio Junior","isSelected":false,"count":3},{"code":"bio-s-b855","name":"bio's","isSelected":false,"count":3},{"code":"bjorg-b687","name":"Bjorg","isSelected":false,"count":5},{"code":"cookie-b1469","name":"Cookie","isSelected":false,"count":2},{"code":"cereal-bio-b684","name":"Céréal Bio","isSelected":false,"count":3},{"code":"damhert-b1823","name":"Damhert","isSelected":false,"count":2},{"code":"ecomania-b1504","name":"Ecomania","isSelected":false,"count":3},{"code":"gerble-b1711","name":"Gerble","isSelected":false,"count":2},{"code":"go-pure-b1087","name":"Go Pure","isSelected":false,"count":3},{"code":"go-vegan-b1518","name":"Go Vegan","isSelected":false,"count":1},{"code":"grani-antichi-b859","name":"Grani Antichi","isSelected":false,"count":3},{"code":"hanf-natur-b860","name":"Hanf & Natur","isSelected":false,"count":1},{"code":"harmonica-b1505","name":"Harmonica","isSelected":false,"count":12},{"code":"huober-b984","name":"Huober","isSelected":false,"count":10},{"code":"iswari-b863","name":"Iswari","isSelected":false,"count":1},{"code":"kaoka-b2496","name":"Kaoka","isSelected":false,"count":5},{"code":"liking-b1827","name":"Liking","isSelected":false,"count":4},{"code":"merryberry-b2709","name":"Merryberry","isSelected":false,"count":1},{"code":"niavis-b191","name":"Niavis","isSelected":false,"count":18},{"code":"panealba-b106","name":"Panealba","isSelected":false,"count":1},{"code":"probios-b930","name":"Probios","isSelected":false,"count":7},{"code":"snack-italy-b2842","name":"Snack Italy","isSelected":false,"count":2},{"code":"tifabene-b868","name":"Tifabene","isSelected":false,"count":2},{"code":"verival-b972","name":"Verival","isSelected":false,"count":3}]},{"code":"diet_lifestyle","name":"Dietă și lifestyle","countSelected":0,"values":[{"code":"bio-a26","name":"Bio","isSelected":false,"count":5},{"code":"eco-a83","name":"Eco","isSelected":false,"count":99},{"code":"fara-conservanti-a37","name":"Fara conservanti","isSelected":false,"count":5},{"code":"fara-gluten-a16","name":"Fara gluten","isSelected":false,"count":35},{"code":"fara-lactoza-a38","name":"Fara lactoza","isSelected":false,"count":10},{"code":"fara-zahar-adaugat-a29","name":"Fara zahar adaugat","isSelected":false,"count":9},{"code":"made-in-romania-a85","name":"Made In Romania","isSelected":false,"count":1},{"code":"vegan-a24","name":"Vegan","isSelected":false,"count":33}]}]},"orderBy":[{"field":"price","direction":"asc","name":"Preț crescător","isSelected":false},{"field":"price","direction":"desc","name":"Preț descrescător","isSelected":false},{"field":"popularity","direction":"desc","name":"Cele mai populare","isSelected":true},{"field":"category","direction":"asc","name":"Categorie","isSelected":false}],"metaTitle":"Snacks ECO - Gamă variată","metaDescription":"Vrei Snacks ECO? Alege dintr-o gamă variată. Comanzi simplu și ai livrare rapidă, calitate și prospețime. Hai pe Freshful.ro","metaKeywords":null,"banners":[]}}