{"type":"subcategory","payload":{"analyticsListId":"category_100102-eco-conserve","analyticsListName":"Category - Conserve ECO","name":"Conserve ECO","slug":"100102-eco-conserve","image":null,"breadcrumbs":[{"code":"10","name":"Dietetic, ECO & internațional","slug":"10-dietetic-bio-si-international"},{"code":"1001","name":"Produse ecologice","slug":"1001-produse-ecologice"},{"code":"100102","name":"Conserve ECO","slug":"100102-eco-conserve"}],"slots":[],"page":1,"limit":10,"pages":6,"count":54,"siblings":[{"name":"Produse ecologice","slug":"1001-produse-ecologice","selected":true},{"name":"Produse dietetice și naturiste","slug":"1002-produse-dietetice-si-naturiste","selected":false},{"name":"Suplimente alimentare","slug":"1003-suplimente-alimentare","selected":false},{"name":"Produse internaționale","slug":"1004-bucatarie-internationala","selected":false}],"children":[{"name":"Toate produsele","slug":"1001-produse-ecologice","selected":false},{"name":"Condimente și sosuri ECO","slug":"100101-eco-condimente-si-sosuri","selected":false},{"name":"Conserve ECO","slug":"100102-eco-conserve","selected":true},{"name":"Mic dejun ECO","slug":"100103-eco-micul-dejun","selected":false},{"name":"Ingrediente ECO","slug":"100104-eco-ingrediente","selected":false},{"name":"Snacks ECO","slug":"100105-eco-snacking","selected":false}],"products":[{"code":"100094847","variantCode":"100094847","name":"Porumb dulce boabe eco 330g","slug":"100094847-daucy-porumb-dulce-boabe-eco-330g","unitPriceLabel":"22,58 Lei/kg","brand":"Daucy","brandCode":"1563","brandFilterCode":"daucy-b1567","sku":"100094847","price":7.45,"originalPrice":null,"currencyCode":"RON","currency":"Lei","image":{"thumbnail":{"default":"https://cdn.freshful.ro/media/cache/sylius_shop_product_thumbnail/d2/9c/835735e9c81decc56cd7697c916a.jpg"},"large":{"default":"https://cdn.freshful.ro/media/cache/freshful_large/d2/9c/835735e9c81decc56cd7697c916a.jpg"},"extralarge":{"default":"https://cdn.freshful.ro/media/cache/sylius_shop_product_original/d2/9c/835735e9c81decc56cd7697c916a.jpg"}},"label":null,"tags":[{"type":"Eco","text":"Eco","icon":"https://cdn.freshful.ro/assets/product_tags/eco.svg","iconPng":"https://cdn.freshful.ro/assets/product_tags/eco.png","backgroundColor":"#EFFBE4","textColor":"#66BB1B"}],"isAvailable":true,"maxAvailableQuantity":100,"maxAllowedQuantity":100,"breadcrumbs":[{"code":"10","name":"Dietetic, ECO & internațional","slug":"10-dietetic-bio-si-international"},{"code":"1001","name":"Produse ecologice","slug":"1001-produse-ecologice"},{"code":"100102","name":"Conserve ECO","slug":"100102-eco-conserve"},{"code":"100094847","name":"Porumb dulce boabe eco 330g","slug":"100094847-daucy-porumb-dulce-boabe-eco-330g"}],"activePromotion":null,"saveMe":null,"labels":[],"geniusPrice":null,"geniusUnitPricePerLabel":null,"banner":null,"discountLabel":null,"geniusDiscountLabel":null,"badge":null},{"code":"100090479","variantCode":"100090479","name":"Roșii cuburi eco 400g","slug":"100090479-podravka-rosii-cuburi-eco-400g","unitPriceLabel":"20,48 Lei/kg","brand":"Podravka","brandCode":"298","brandFilterCode":"podravka-b299","sku":"100090479","price":8.19,"originalPrice":null,"currencyCode":"RON","currency":"Lei","image":{"thumbnail":{"default":"https://cdn.freshful.ro/media/cache/sylius_shop_product_thumbnail/3e/b5/4b756abe334aea78b139e6173f75.jpg"},"large":{"default":"https://cdn.freshful.ro/media/cache/freshful_large/3e/b5/4b756abe334aea78b139e6173f75.jpg"},"extralarge":{"default":"https://cdn.freshful.ro/media/cache/sylius_shop_product_original/3e/b5/4b756abe334aea78b139e6173f75.jpg"}},"label":null,"tags":[{"type":"Eco","text":"Eco","icon":"https://cdn.freshful.ro/assets/product_tags/eco.svg","iconPng":"https://cdn.freshful.ro/assets/product_tags/eco.png","backgroundColor":"#EFFBE4","textColor":"#66BB1B"}],"isAvailable":true,"maxAvailableQuantity":100,"maxAllowedQuantity":100,"breadcrumbs":[{"code":"10","name":"Dietetic, ECO & internațional","slug":"10-dietetic-bio-si-international"},{"code":"1001","name":"Produse ecologice","slug":"1001-produse-ecologice"},{"code":"100102","name":"Conserve ECO","slug":"100102-eco-conserve"},{"code":"100090479","name":"Roșii cuburi eco 400g","slug":"100090479-podravka-rosii-cuburi-eco-400g"}],"activePromotion":null,"saveMe":null,"labels":[],"geniusPrice":null,"geniusUnitPricePerLabel":null,"banner":null,"discountLabel":null,"geniusDiscountLabel":null,"badge":null},{"code":"100081646","variantCode":"100081646","name":"Pate de ficat de porc eco 100g","slug":"100081646-silvania-gourmet-pate-de-ficat-de-porc-eco-100g","unitPriceLabel":"99,9 Lei/kg","brand":"Silvania Gourmet","brandCode":"495","brandFilterCode":"silvania-gourmet-b496","sku":"100081646","price":9.99,"originalPrice":null,"currencyCode":"RON","currency":"Lei","image":{"thumbnail":{"default":"https://cdn.freshful.ro/media/cache/sylius_shop_product_thumbnail/46/9d/572ee45715e55099eb49c4b044f1.jpg"},"large":{"default":"https://cdn.freshful.ro/media/cache/freshful_large/46/9d/572ee45715e55099eb49c4b044f1.jpg"},"extralarge":{"default":"https://cdn.freshful.ro/media/cache/sylius_shop_product_original/46/9d/572ee45715e55099eb49c4b044f1.jpg"}},"label":null,"tags":[{"type":"NoPreservatives","text":"Fara conservanti","icon":"https://cdn.freshful.ro/assets/product_tags/fara_conservanti.svg","iconPng":"https://cdn.freshful.ro/assets/product_tags/fara_conservanti.png","backgroundColor":"#F0F2FF","textColor":"#7889DD"},{"type":"Eco","text":"Eco","icon":"https://cdn.freshful.ro/assets/product_tags/eco.svg","iconPng":"https://cdn.freshful.ro/assets/product_tags/eco.png","backgroundColor":"#EFFBE4","textColor":"#66BB1B"},{"type":"NoE","text":"Fara E-uri","icon":"https://cdn.freshful.ro/assets/product_tags/fara_euri.svg","iconPng":"https://cdn.freshful.ro/assets/product_tags/fara_euri.png","backgroundColor":"#FCF5DF","textColor":"#CAA316"}],"isAvailable":true,"maxAvailableQuantity":98,"maxAllowedQuantity":100,"breadcrumbs":[{"code":"10","name":"Dietetic, ECO & internațional","slug":"10-dietetic-bio-si-international"},{"code":"1001","name":"Produse ecologice","slug":"1001-produse-ecologice"},{"code":"100102","name":"Conserve ECO","slug":"100102-eco-conserve"},{"code":"100081646","name":"Pate de ficat de porc eco 100g","slug":"100081646-silvania-gourmet-pate-de-ficat-de-porc-eco-100g"}],"activePromotion":null,"saveMe":null,"labels":[],"geniusPrice":null,"geniusUnitPricePerLabel":null,"banner":null,"discountLabel":null,"geniusDiscountLabel":null,"badge":null},{"code":"100094846","variantCode":"100094846","name":"Mazăre verde ecologică 330g","slug":"100094846-daucy-mazare-verde-ecologica-330g","unitPriceLabel":"21,21 Lei/kg","brand":"Daucy","brandCode":"1563","brandFilterCode":"daucy-b1567","sku":"100094846","price":7,"originalPrice":null,"currencyCode":"RON","currency":"Lei","image":{"thumbnail":{"default":"https://cdn.freshful.ro/media/cache/sylius_shop_product_thumbnail/a7/b9/8134e98dc7078d714d47b17ee8ee.jpg"},"large":{"default":"https://cdn.freshful.ro/media/cache/freshful_large/a7/b9/8134e98dc7078d714d47b17ee8ee.jpg"},"extralarge":{"default":"https://cdn.freshful.ro/media/cache/sylius_shop_product_original/a7/b9/8134e98dc7078d714d47b17ee8ee.jpg"}},"label":null,"tags":[{"type":"Eco","text":"Eco","icon":"https://cdn.freshful.ro/assets/product_tags/eco.svg","iconPng":"https://cdn.freshful.ro/assets/product_tags/eco.png","backgroundColor":"#EFFBE4","textColor":"#66BB1B"}],"isAvailable":true,"maxAvailableQuantity":29,"maxAllowedQuantity":100,"breadcrumbs":[{"code":"10","name":"Dietetic, ECO & internațional","slug":"10-dietetic-bio-si-international"},{"code":"1001","name":"Produse ecologice","slug":"1001-produse-ecologice"},{"code":"100102","name":"Conserve ECO","slug":"100102-eco-conserve"},{"code":"100094846","name":"Mazăre verde ecologică 330g","slug":"100094846-daucy-mazare-verde-ecologica-330g"}],"activePromotion":null,"saveMe":null,"labels":[],"geniusPrice":null,"geniusUnitPricePerLabel":null,"banner":null,"discountLabel":null,"geniusDiscountLabel":null,"badge":null},{"code":"100090481","variantCode":"100090481","name":"Piure de roșii eco 690g","slug":"100090481-podravka-piure-de-rosii-eco-690g","unitPriceLabel":"18,1 Lei/kg","brand":"Podravka","brandCode":"298","brandFilterCode":"podravka-b299","sku":"100090481","price":12.49,"originalPrice":null,"currencyCode":"RON","currency":"Lei","image":{"thumbnail":{"default":"https://cdn.freshful.ro/media/cache/sylius_shop_product_thumbnail/58/4b/ab5783747e6605ecedf46cbd03a7.jpg"},"large":{"default":"https://cdn.freshful.ro/media/cache/freshful_large/58/4b/ab5783747e6605ecedf46cbd03a7.jpg"},"extralarge":{"default":"https://cdn.freshful.ro/media/cache/sylius_shop_product_original/58/4b/ab5783747e6605ecedf46cbd03a7.jpg"}},"label":null,"tags":[{"type":"Eco","text":"Eco","icon":"https://cdn.freshful.ro/assets/product_tags/eco.svg","iconPng":"https://cdn.freshful.ro/assets/product_tags/eco.png","backgroundColor":"#EFFBE4","textColor":"#66BB1B"}],"isAvailable":true,"maxAvailableQuantity":71,"maxAllowedQuantity":100,"breadcrumbs":[{"code":"10","name":"Dietetic, ECO & internațional","slug":"10-dietetic-bio-si-international"},{"code":"1001","name":"Produse ecologice","slug":"1001-produse-ecologice"},{"code":"100102","name":"Conserve ECO","slug":"100102-eco-conserve"},{"code":"100090481","name":"Piure de roșii eco 690g","slug":"100090481-podravka-piure-de-rosii-eco-690g"}],"activePromotion":null,"saveMe":null,"labels":[],"geniusPrice":null,"geniusUnitPricePerLabel":null,"banner":null,"discountLabel":null,"geniusDiscountLabel":null,"badge":null},{"code":"100120850","variantCode":"100120850","name":"Macrou în ulei de măsline eco 90g","slug":"100120850-rizzoli-macrou-in-ulei-de-masline-eco-90g","unitPriceLabel":"13,5 Lei/buc","brand":"Rizzoli","brandCode":"2066","brandFilterCode":"rizzoli-b2070","sku":"100120850","price":13.5,"originalPrice":null,"currencyCode":"RON","currency":"Lei","image":{"thumbnail":{"default":"https://cdn.freshful.ro/media/cache/sylius_shop_product_thumbnail/db/3e/4b6ff8d31bd25c6812e86ee1070f.jpg"},"large":{"default":"https://cdn.freshful.ro/media/cache/freshful_large/db/3e/4b6ff8d31bd25c6812e86ee1070f.jpg"},"extralarge":{"default":"https://cdn.freshful.ro/media/cache/sylius_shop_product_original/db/3e/4b6ff8d31bd25c6812e86ee1070f.jpg"}},"label":null,"tags":[{"type":"Eco","text":"Eco","icon":"https://cdn.freshful.ro/assets/product_tags/eco.svg","iconPng":"https://cdn.freshful.ro/assets/product_tags/eco.png","backgroundColor":"#EFFBE4","textColor":"#66BB1B"}],"isAvailable":true,"maxAvailableQuantity":44,"maxAllowedQuantity":100,"breadcrumbs":[{"code":"10","name":"Dietetic, ECO & internațional","slug":"10-dietetic-bio-si-international"},{"code":"1001","name":"Produse ecologice","slug":"1001-produse-ecologice"},{"code":"100102","name":"Conserve ECO","slug":"100102-eco-conserve"},{"code":"100120850","name":"Macrou în ulei de măsline eco 90g","slug":"100120850-rizzoli-macrou-in-ulei-de-masline-eco-90g"}],"activePromotion":null,"saveMe":null,"labels":[],"geniusPrice":null,"geniusUnitPricePerLabel":null,"banner":null,"discountLabel":null,"geniusDiscountLabel":null,"badge":null},{"code":"100089883","variantCode":"100089883","name":"Boabe de năut eco 570g","slug":"100089883-harmonica-boabe-de-naut-eco-570g","unitPriceLabel":"27,63 Lei/kg","brand":"Harmonica","brandCode":"1501","brandFilterCode":"harmonica-b1505","sku":"100089883","price":15.75,"originalPrice":null,"currencyCode":"RON","currency":"Lei","image":{"thumbnail":{"default":"https://cdn.freshful.ro/media/cache/sylius_shop_product_thumbnail/95/ec/94863975f3a89913656c20eeb681.jpg"},"large":{"default":"https://cdn.freshful.ro/media/cache/freshful_large/95/ec/94863975f3a89913656c20eeb681.jpg"},"extralarge":{"default":"https://cdn.freshful.ro/media/cache/sylius_shop_product_original/95/ec/94863975f3a89913656c20eeb681.jpg"}},"label":null,"tags":[{"type":"Eco","text":"Eco","icon":"https://cdn.freshful.ro/assets/product_tags/eco.svg","iconPng":"https://cdn.freshful.ro/assets/product_tags/eco.png","backgroundColor":"#EFFBE4","textColor":"#66BB1B"}],"isAvailable":true,"maxAvailableQuantity":26,"maxAllowedQuantity":100,"breadcrumbs":[{"code":"10","name":"Dietetic, ECO & internațional","slug":"10-dietetic-bio-si-international"},{"code":"1001","name":"Produse ecologice","slug":"1001-produse-ecologice"},{"code":"100102","name":"Conserve ECO","slug":"100102-eco-conserve"},{"code":"100089883","name":"Boabe de năut eco 570g","slug":"100089883-harmonica-boabe-de-naut-eco-570g"}],"activePromotion":null,"saveMe":null,"labels":[],"geniusPrice":null,"geniusUnitPricePerLabel":null,"banner":null,"discountLabel":null,"geniusDiscountLabel":null,"badge":null},{"code":"100060539","variantCode":"3335880003535","name":"Salată humus cu ardei roșu eco 195g","slug":"100060539-prosain-salata-humus-cu-ardei-rosu-eco-195g","unitPriceLabel":"87,08 Lei/kg","brand":"Prosain","brandCode":"865","brandFilterCode":"prosain-b866","sku":"100060539","price":16.98,"originalPrice":null,"currencyCode":"RON","currency":"Lei","image":{"thumbnail":{"default":"https://cdn.freshful.ro/media/cache/sylius_shop_product_thumbnail/29/7a/9e7c367d4c01477613520062e71d.jpg"},"large":{"default":"https://cdn.freshful.ro/media/cache/freshful_large/29/7a/9e7c367d4c01477613520062e71d.jpg"},"extralarge":{"default":"https://cdn.freshful.ro/media/cache/sylius_shop_product_original/29/7a/9e7c367d4c01477613520062e71d.jpg"}},"label":null,"tags":[{"type":"Eco","text":"Eco","icon":"https://cdn.freshful.ro/assets/product_tags/eco.svg","iconPng":"https://cdn.freshful.ro/assets/product_tags/eco.png","backgroundColor":"#EFFBE4","textColor":"#66BB1B"}],"isAvailable":true,"maxAvailableQuantity":41,"maxAllowedQuantity":100,"breadcrumbs":[{"code":"10","name":"Dietetic, ECO & internațional","slug":"10-dietetic-bio-si-international"},{"code":"1001","name":"Produse ecologice","slug":"1001-produse-ecologice"},{"code":"100102","name":"Conserve ECO","slug":"100102-eco-conserve"},{"code":"100060539","name":"Salată humus cu ardei roșu eco 195g","slug":"100060539-prosain-salata-humus-cu-ardei-rosu-eco-195g"}],"activePromotion":null,"saveMe":null,"labels":[],"geniusPrice":null,"geniusUnitPricePerLabel":null,"banner":null,"discountLabel":null,"geniusDiscountLabel":null,"badge":null},{"code":"100119056","variantCode":"100119056","name":"Măsline verzi în saramură eco 350g","slug":"100119056-alce-nero-masline-verzi-in-saramura-eco-350g","unitPriceLabel":"104,6 Lei/buc","brand":"Alce Nero","brandCode":"2012","brandFilterCode":"alce-nero-b2016","sku":"100119056","price":36.61,"originalPrice":null,"currencyCode":"RON","currency":"Lei","image":{"thumbnail":{"default":"https://cdn.freshful.ro/media/cache/sylius_shop_product_thumbnail/ab/4a/43b4ca564662866a442c75e0ef27.jpg"},"large":{"default":"https://cdn.freshful.ro/media/cache/freshful_large/ab/4a/43b4ca564662866a442c75e0ef27.jpg"},"extralarge":{"default":"https://cdn.freshful.ro/media/cache/sylius_shop_product_original/ab/4a/43b4ca564662866a442c75e0ef27.jpg"}},"label":null,"tags":[{"type":"Eco","text":"Eco","icon":"https://cdn.freshful.ro/assets/product_tags/eco.svg","iconPng":"https://cdn.freshful.ro/assets/product_tags/eco.png","backgroundColor":"#EFFBE4","textColor":"#66BB1B"}],"isAvailable":true,"maxAvailableQuantity":96,"maxAllowedQuantity":100,"breadcrumbs":[{"code":"10","name":"Dietetic, ECO & internațional","slug":"10-dietetic-bio-si-international"},{"code":"1001","name":"Produse ecologice","slug":"1001-produse-ecologice"},{"code":"100102","name":"Conserve ECO","slug":"100102-eco-conserve"},{"code":"100119056","name":"Măsline verzi în saramură eco 350g","slug":"100119056-alce-nero-masline-verzi-in-saramura-eco-350g"}],"activePromotion":null,"saveMe":null,"labels":[],"geniusPrice":null,"geniusUnitPricePerLabel":null,"banner":null,"discountLabel":null,"geniusDiscountLabel":null,"badge":null},{"code":"100120855","variantCode":"100120855","name":"File de ton în ulei de măsline eco 150g","slug":"100120855-rizzoli-file-de-ton-in-ulei-de-masline-eco-150g","unitPriceLabel":"34,99 Lei/buc","brand":"Rizzoli","brandCode":"2066","brandFilterCode":"rizzoli-b2070","sku":"100120855","price":34.99,"originalPrice":null,"currencyCode":"RON","currency":"Lei","image":{"thumbnail":{"default":"https://cdn.freshful.ro/media/cache/sylius_shop_product_thumbnail/d2/19/74f8de46f668a235413d017d4b37.jpg"},"large":{"default":"https://cdn.freshful.ro/media/cache/freshful_large/d2/19/74f8de46f668a235413d017d4b37.jpg"},"extralarge":{"default":"https://cdn.freshful.ro/media/cache/sylius_shop_product_original/d2/19/74f8de46f668a235413d017d4b37.jpg"}},"label":null,"tags":[{"type":"Eco","text":"Eco","icon":"https://cdn.freshful.ro/assets/product_tags/eco.svg","iconPng":"https://cdn.freshful.ro/assets/product_tags/eco.png","backgroundColor":"#EFFBE4","textColor":"#66BB1B"}],"isAvailable":true,"maxAvailableQuantity":29,"maxAllowedQuantity":100,"breadcrumbs":[{"code":"10","name":"Dietetic, ECO & internațional","slug":"10-dietetic-bio-si-international"},{"code":"1001","name":"Produse ecologice","slug":"1001-produse-ecologice"},{"code":"100102","name":"Conserve ECO","slug":"100102-eco-conserve"},{"code":"100120855","name":"File de ton în ulei de măsline eco 150g","slug":"100120855-rizzoli-file-de-ton-in-ulei-de-masline-eco-150g"}],"activePromotion":null,"saveMe":null,"labels":[],"geniusPrice":null,"geniusUnitPricePerLabel":null,"banner":null,"discountLabel":null,"geniusDiscountLabel":null,"badge":null}],"filters":{"countSelected":0,"items":[{"code":"brand","name":"Brand","countSelected":0,"values":[{"code":"alce-nero-b2016","name":"Alce Nero","isSelected":false,"count":2},{"code":"daucy-b1567","name":"Daucy","isSelected":false,"count":2},{"code":"harmonica-b1505","name":"Harmonica","isSelected":false,"count":7},{"code":"il-nutrimento-b1521","name":"Il Nutrimento","isSelected":false,"count":1},{"code":"la-macina-bio-b864","name":"La Macina Bio","isSelected":false,"count":6},{"code":"mutti-b646","name":"Mutti","isSelected":false,"count":1},{"code":"natura-toscana-b1520","name":"Natura Toscana","isSelected":false,"count":2},{"code":"podravka-b299","name":"Podravka","isSelected":false,"count":3},{"code":"probios-b930","name":"Probios","isSelected":false,"count":4},{"code":"prosain-b866","name":"Prosain","isSelected":false,"count":19},{"code":"rizzoli-b2070","name":"Rizzoli","isSelected":false,"count":2},{"code":"silvania-gourmet-b496","name":"Silvania Gourmet","isSelected":false,"count":5}]},{"code":"diet_lifestyle","name":"Dietă și lifestyle","countSelected":0,"values":[{"code":"eco-a83","name":"Eco","isSelected":false,"count":54},{"code":"fara-conservanti-a37","name":"Fara conservanti","isSelected":false,"count":5},{"code":"fara-e-uri-a84","name":"Fara E-uri","isSelected":false,"count":5},{"code":"fara-gluten-a16","name":"Fara gluten","isSelected":false,"count":6},{"code":"vegan-a24","name":"Vegan","isSelected":false,"count":6}]}]},"orderBy":[{"field":"price","direction":"asc","name":"Preț crescător","isSelected":false},{"field":"price","direction":"desc","name":"Preț descrescător","isSelected":false},{"field":"popularity","direction":"desc","name":"Cele mai populare","isSelected":true},{"field":"category","direction":"asc","name":"Categorie","isSelected":false}],"metaTitle":"Conserve ECO - Gamă variată","metaDescription":"Vrei Conserve ECO? Alege dintr-o gamă variată. Comanzi simplu și ai livrare rapidă, calitate și prospețime. Hai pe Freshful.ro","metaKeywords":null,"banners":[]}}