{"type":"subcategory","payload":{"analyticsListId":"category_100103-eco-micul-dejun","analyticsListName":"Category - Mic dejun ECO","name":"Mic dejun ECO","slug":"100103-eco-micul-dejun","image":null,"breadcrumbs":[{"code":"10","name":"Dietetic, ECO & internațional","slug":"10-dietetic-bio-si-international"},{"code":"1001","name":"Produse ecologice","slug":"1001-produse-ecologice"},{"code":"100103","name":"Mic dejun ECO","slug":"100103-eco-micul-dejun"}],"slots":[],"page":1,"limit":10,"pages":24,"count":236,"siblings":[{"name":"Produse ecologice","slug":"1001-produse-ecologice","selected":true},{"name":"Produse dietetice și naturiste","slug":"1002-produse-dietetice-si-naturiste","selected":false},{"name":"Suplimente alimentare","slug":"1003-suplimente-alimentare","selected":false},{"name":"Produse internaționale","slug":"1004-bucatarie-internationala","selected":false}],"children":[{"name":"Toate produsele","slug":"1001-produse-ecologice","selected":false},{"name":"Condimente și sosuri ECO","slug":"100101-eco-condimente-si-sosuri","selected":false},{"name":"Conserve ECO","slug":"100102-eco-conserve","selected":false},{"name":"Mic dejun ECO","slug":"100103-eco-micul-dejun","selected":true},{"name":"Ingrediente ECO","slug":"100104-eco-ingrediente","selected":false},{"name":"Snacks ECO","slug":"100105-eco-snacking","selected":false}],"products":[{"code":"100101372","variantCode":"100101372","name":"Miere de salcâm eco 400g","slug":"100101372-honey-line-miere-de-salcam-eco-400g","unitPriceLabel":"62,25 Lei/kg","brand":"Honey Line","brandCode":"1598","brandFilterCode":"honey-line-b1602","sku":"100101372","price":24.9,"originalPrice":null,"currencyCode":"RON","currency":"Lei","image":{"thumbnail":{"default":"https://cdn.freshful.ro/media/cache/sylius_shop_product_thumbnail/0d/b4/374cc8b3a6bb547b95ece9aa63ea.jpg"},"large":{"default":"https://cdn.freshful.ro/media/cache/freshful_large/0d/b4/374cc8b3a6bb547b95ece9aa63ea.jpg"},"extralarge":{"default":"https://cdn.freshful.ro/media/cache/sylius_shop_product_original/0d/b4/374cc8b3a6bb547b95ece9aa63ea.jpg"}},"label":null,"tags":[{"type":"Eco","text":"Eco","icon":"https://cdn.freshful.ro/assets/product_tags/eco.svg","iconPng":"https://cdn.freshful.ro/assets/product_tags/eco.png","backgroundColor":"#EFFBE4","textColor":"#66BB1B"}],"isAvailable":true,"maxAvailableQuantity":100,"maxAllowedQuantity":100,"breadcrumbs":[{"code":"10","name":"Dietetic, ECO & internațional","slug":"10-dietetic-bio-si-international"},{"code":"1001","name":"Produse ecologice","slug":"1001-produse-ecologice"},{"code":"100103","name":"Mic dejun ECO","slug":"100103-eco-micul-dejun"},{"code":"100101372","name":"Miere de salcâm eco 400g","slug":"100101372-honey-line-miere-de-salcam-eco-400g"}],"activePromotion":null,"saveMe":null,"labels":[],"geniusPrice":null,"geniusUnitPricePerLabel":null,"banner":null,"discountLabel":null,"geniusDiscountLabel":null,"badge":null},{"code":"100082743","variantCode":"3175681072558","name":"Cereale Petale cacao eco 250g","slug":"100082743-bio-junior-cereale-petale-cacao-eco-250g","unitPriceLabel":"66 Lei/kg","brand":"Bio Junior","brandCode":"685","brandFilterCode":"bio-junior-b686","sku":"100082743","price":16.5,"originalPrice":null,"currencyCode":"RON","currency":"Lei","image":{"thumbnail":{"default":"https://cdn.freshful.ro/media/cache/sylius_shop_product_thumbnail/c9/b8/70a38a5fc8730e9977aeab92416a.jpg"},"large":{"default":"https://cdn.freshful.ro/media/cache/freshful_large/c9/b8/70a38a5fc8730e9977aeab92416a.jpg"},"extralarge":{"default":"https://cdn.freshful.ro/media/cache/sylius_shop_product_original/c9/b8/70a38a5fc8730e9977aeab92416a.jpg"}},"label":null,"tags":[{"type":"NoPreservatives","text":"Fara conservanti","icon":"https://cdn.freshful.ro/assets/product_tags/fara_conservanti.svg","iconPng":"https://cdn.freshful.ro/assets/product_tags/fara_conservanti.png","backgroundColor":"#F0F2FF","textColor":"#7889DD"},{"type":"Eco","text":"Eco","icon":"https://cdn.freshful.ro/assets/product_tags/eco.svg","iconPng":"https://cdn.freshful.ro/assets/product_tags/eco.png","backgroundColor":"#EFFBE4","textColor":"#66BB1B"}],"isAvailable":true,"maxAvailableQuantity":100,"maxAllowedQuantity":100,"breadcrumbs":[{"code":"10","name":"Dietetic, ECO & internațional","slug":"10-dietetic-bio-si-international"},{"code":"1001","name":"Produse ecologice","slug":"1001-produse-ecologice"},{"code":"100103","name":"Mic dejun ECO","slug":"100103-eco-micul-dejun"},{"code":"100082743","name":"Cereale Petale cacao eco 250g","slug":"100082743-bio-junior-cereale-petale-cacao-eco-250g"}],"activePromotion":null,"saveMe":null,"labels":[],"geniusPrice":null,"geniusUnitPricePerLabel":null,"banner":null,"discountLabel":null,"geniusDiscountLabel":null,"badge":null},{"code":"100082717","variantCode":"4015637823645","name":"Fulgi de ovăz mărunțiți fără gluten 475g","slug":"100082717-bauckhof-fulgi-de-ovaz-maruntiti-fara-gluten-475g","unitPriceLabel":"60,84 Lei/kg","brand":"Bauckhof","brandCode":"684","brandFilterCode":"bauckhof-b685","sku":"100082717","price":28.9,"originalPrice":null,"currencyCode":"RON","currency":"Lei","image":{"thumbnail":{"default":"https://cdn.freshful.ro/media/cache/sylius_shop_product_thumbnail/ef/06/b2448f3c40ff194a29265a766681.jpg"},"large":{"default":"https://cdn.freshful.ro/media/cache/freshful_large/ef/06/b2448f3c40ff194a29265a766681.jpg"},"extralarge":{"default":"https://cdn.freshful.ro/media/cache/sylius_shop_product_original/ef/06/b2448f3c40ff194a29265a766681.jpg"}},"label":null,"tags":[{"type":"NoGluten","text":"Fara gluten","icon":"https://cdn.freshful.ro/assets/product_tags/fara_gluten.svg","iconPng":"https://cdn.freshful.ro/assets/product_tags/fara_gluten.png","backgroundColor":"#FFF2E5","textColor":"#F07900"},{"type":"Eco","text":"Eco","icon":"https://cdn.freshful.ro/assets/product_tags/eco.svg","iconPng":"https://cdn.freshful.ro/assets/product_tags/eco.png","backgroundColor":"#EFFBE4","textColor":"#66BB1B"}],"isAvailable":true,"maxAvailableQuantity":100,"maxAllowedQuantity":100,"breadcrumbs":[{"code":"10","name":"Dietetic, ECO & internațional","slug":"10-dietetic-bio-si-international"},{"code":"1001","name":"Produse ecologice","slug":"1001-produse-ecologice"},{"code":"100103","name":"Mic dejun ECO","slug":"100103-eco-micul-dejun"},{"code":"100082717","name":"Fulgi de ovăz mărunțiți fără gluten 475g","slug":"100082717-bauckhof-fulgi-de-ovaz-maruntiti-fara-gluten-475g"}],"activePromotion":null,"saveMe":null,"labels":[],"geniusPrice":null,"geniusUnitPricePerLabel":null,"banner":null,"discountLabel":null,"geniusDiscountLabel":null,"badge":null},{"code":"100082741","variantCode":"3175681072589","name":"Cereale bulgărași miere eco 250g","slug":"100082741-bio-junior-cereale-bulgarasi-miere-eco-250g","unitPriceLabel":"59,6 Lei/kg","brand":"Bio Junior","brandCode":"685","brandFilterCode":"bio-junior-b686","sku":"100082741","price":14.9,"originalPrice":null,"currencyCode":"RON","currency":"Lei","image":{"thumbnail":{"default":"https://cdn.freshful.ro/media/cache/sylius_shop_product_thumbnail/ae/95/2c3527548327489db7e7bf985ed3.jpg"},"large":{"default":"https://cdn.freshful.ro/media/cache/freshful_large/ae/95/2c3527548327489db7e7bf985ed3.jpg"},"extralarge":{"default":"https://cdn.freshful.ro/media/cache/sylius_shop_product_original/ae/95/2c3527548327489db7e7bf985ed3.jpg"}},"label":null,"tags":[{"type":"NoPreservatives","text":"Fara conservanti","icon":"https://cdn.freshful.ro/assets/product_tags/fara_conservanti.svg","iconPng":"https://cdn.freshful.ro/assets/product_tags/fara_conservanti.png","backgroundColor":"#F0F2FF","textColor":"#7889DD"},{"type":"Eco","text":"Eco","icon":"https://cdn.freshful.ro/assets/product_tags/eco.svg","iconPng":"https://cdn.freshful.ro/assets/product_tags/eco.png","backgroundColor":"#EFFBE4","textColor":"#66BB1B"}],"isAvailable":true,"maxAvailableQuantity":58,"maxAllowedQuantity":100,"breadcrumbs":[{"code":"10","name":"Dietetic, ECO & internațional","slug":"10-dietetic-bio-si-international"},{"code":"1001","name":"Produse ecologice","slug":"1001-produse-ecologice"},{"code":"100103","name":"Mic dejun ECO","slug":"100103-eco-micul-dejun"},{"code":"100082741","name":"Cereale bulgărași miere eco 250g","slug":"100082741-bio-junior-cereale-bulgarasi-miere-eco-250g"}],"activePromotion":null,"saveMe":null,"labels":[],"geniusPrice":null,"geniusUnitPricePerLabel":null,"banner":null,"discountLabel":null,"geniusDiscountLabel":null,"badge":null},{"code":"100081604","variantCode":"100081604","name":"Cremă tartinabilă de arahide cremoasă, ecologică 250g","slug":"100081604-niavis-crema-tartinabila-de-arahide-cremoasa-ecologica-250g","unitPriceLabel":"111,96 Lei/kg","brand":"Niavis","brandCode":"190","brandFilterCode":"niavis-b191","sku":"100081604","price":27.99,"originalPrice":null,"currencyCode":"RON","currency":"Lei","image":{"thumbnail":{"default":"https://cdn.freshful.ro/media/cache/sylius_shop_product_thumbnail/13/14/08d32d71a13ecbf4164a2578fa3d.jpg"},"large":{"default":"https://cdn.freshful.ro/media/cache/freshful_large/13/14/08d32d71a13ecbf4164a2578fa3d.jpg"},"extralarge":{"default":"https://cdn.freshful.ro/media/cache/sylius_shop_product_original/13/14/08d32d71a13ecbf4164a2578fa3d.jpg"}},"label":null,"tags":[{"type":"vegan","text":"Vegan","icon":"https://cdn.freshful.ro/assets/product_tags/vegan.svg","iconPng":"https://cdn.freshful.ro/assets/product_tags/vegan.png","backgroundColor":"#ECF9F8","textColor":"#33A39C"},{"type":"NoGluten","text":"Fara gluten","icon":"https://cdn.freshful.ro/assets/product_tags/fara_gluten.svg","iconPng":"https://cdn.freshful.ro/assets/product_tags/fara_gluten.png","backgroundColor":"#FFF2E5","textColor":"#F07900"},{"type":"Eco","text":"Eco","icon":"https://cdn.freshful.ro/assets/product_tags/eco.svg","iconPng":"https://cdn.freshful.ro/assets/product_tags/eco.png","backgroundColor":"#EFFBE4","textColor":"#66BB1B"}],"isAvailable":true,"maxAvailableQuantity":42,"maxAllowedQuantity":100,"breadcrumbs":[{"code":"10","name":"Dietetic, ECO & internațional","slug":"10-dietetic-bio-si-international"},{"code":"1001","name":"Produse ecologice","slug":"1001-produse-ecologice"},{"code":"100103","name":"Mic dejun ECO","slug":"100103-eco-micul-dejun"},{"code":"100081604","name":"Cremă tartinabilă de arahide cremoasă, ecologică 250g","slug":"100081604-niavis-crema-tartinabila-de-arahide-cremoasa-ecologica-250g"}],"activePromotion":null,"saveMe":null,"labels":[],"geniusPrice":null,"geniusUnitPricePerLabel":null,"banner":null,"discountLabel":null,"geniusDiscountLabel":null,"badge":null},{"code":"100108601","variantCode":"100108601","name":"Ceai de plante mușețel eco 18 plicuri","slug":"100108601-sonnentor-ceai-de-plante-musetel-eco-18-plicuri","unitPriceLabel":"12,81 Lei/buc","brand":"Sonnentor","brandCode":"1555","brandFilterCode":"sonnentor-b1561","sku":"100108601","price":12.81,"originalPrice":null,"currencyCode":"RON","currency":"Lei","image":{"thumbnail":{"default":"https://cdn.freshful.ro/media/cache/sylius_shop_product_thumbnail/63/aa/e87bc0b649fce0562200553ec420.jpg"},"large":{"default":"https://cdn.freshful.ro/media/cache/freshful_large/63/aa/e87bc0b649fce0562200553ec420.jpg"},"extralarge":{"default":"https://cdn.freshful.ro/media/cache/sylius_shop_product_original/63/aa/e87bc0b649fce0562200553ec420.jpg"}},"label":null,"tags":[{"type":"Eco","text":"Eco","icon":"https://cdn.freshful.ro/assets/product_tags/eco.svg","iconPng":"https://cdn.freshful.ro/assets/product_tags/eco.png","backgroundColor":"#EFFBE4","textColor":"#66BB1B"}],"isAvailable":true,"maxAvailableQuantity":32,"maxAllowedQuantity":100,"breadcrumbs":[{"code":"10","name":"Dietetic, ECO & internațional","slug":"10-dietetic-bio-si-international"},{"code":"1001","name":"Produse ecologice","slug":"1001-produse-ecologice"},{"code":"100103","name":"Mic dejun ECO","slug":"100103-eco-micul-dejun"},{"code":"100108601","name":"Ceai de plante mușețel eco 18 plicuri","slug":"100108601-sonnentor-ceai-de-plante-musetel-eco-18-plicuri"}],"activePromotion":null,"saveMe":null,"labels":[],"geniusPrice":null,"geniusUnitPricePerLabel":null,"banner":null,"discountLabel":null,"geniusDiscountLabel":null,"badge":null},{"code":"100111424","variantCode":"100111424","name":"Porridge eco instant din ovăz integral cu mere și zmeură 60g","slug":"100111424-auga-porridge-eco-instant-din-ovaz-integral-cu-mere-si-zmeura-60g","unitPriceLabel":"9,99 Lei/buc","brand":"Auga","brandCode":"1856","brandFilterCode":"auga-b1860","sku":"100111424","price":9.99,"originalPrice":null,"currencyCode":"RON","currency":"Lei","image":{"thumbnail":{"default":"https://cdn.freshful.ro/media/cache/sylius_shop_product_thumbnail/91/16/6ce2c1fe52de5616652ef1c4ecb6.jpg"},"large":{"default":"https://cdn.freshful.ro/media/cache/freshful_large/91/16/6ce2c1fe52de5616652ef1c4ecb6.jpg"},"extralarge":{"default":"https://cdn.freshful.ro/media/cache/sylius_shop_product_original/91/16/6ce2c1fe52de5616652ef1c4ecb6.jpg"}},"label":null,"tags":[{"type":"vegan","text":"Vegan","icon":"https://cdn.freshful.ro/assets/product_tags/vegan.svg","iconPng":"https://cdn.freshful.ro/assets/product_tags/vegan.png","backgroundColor":"#ECF9F8","textColor":"#33A39C"},{"type":"LactoseFree","text":"Fara lactoza","icon":"https://cdn.freshful.ro/assets/product_tags/fara_lactoza.svg","iconPng":"https://cdn.freshful.ro/assets/product_tags/fara_lactoza.png","backgroundColor":"#E9F7FB","textColor":"#25A6D0"},{"type":"NoAddedSugar","text":"Fara zahar adaugat","icon":"https://cdn.freshful.ro/assets/product_tags/fara_zahar_adaugat.svg","iconPng":"https://cdn.freshful.ro/assets/product_tags/fara_zahar_adaugat.png","backgroundColor":"#F8EDF7","textColor":"#C05EBC"}],"isAvailable":true,"maxAvailableQuantity":60,"maxAllowedQuantity":100,"breadcrumbs":[{"code":"10","name":"Dietetic, ECO & internațional","slug":"10-dietetic-bio-si-international"},{"code":"1001","name":"Produse ecologice","slug":"1001-produse-ecologice"},{"code":"100103","name":"Mic dejun ECO","slug":"100103-eco-micul-dejun"},{"code":"100111424","name":"Porridge eco instant din ovăz integral cu mere și zmeură 60g","slug":"100111424-auga-porridge-eco-instant-din-ovaz-integral-cu-mere-si-zmeura-60g"}],"activePromotion":null,"saveMe":null,"labels":[],"geniusPrice":null,"geniusUnitPricePerLabel":null,"banner":null,"discountLabel":null,"geniusDiscountLabel":null,"badge":null},{"code":"100111423","variantCode":"100111423","name":"Porridge eco instant din ovăz integral cu fructe de pădure 60g","slug":"100111423-auga-porridge-eco-instant-din-ovaz-integral-cu-fructe-de-padure-60g","unitPriceLabel":"9,99 Lei/buc","brand":"Auga","brandCode":"1856","brandFilterCode":"auga-b1860","sku":"100111423","price":9.99,"originalPrice":null,"currencyCode":"RON","currency":"Lei","image":{"thumbnail":{"default":"https://cdn.freshful.ro/media/cache/sylius_shop_product_thumbnail/02/6f/8028d4b1221d6a701d216a154f1b.jpg"},"large":{"default":"https://cdn.freshful.ro/media/cache/freshful_large/02/6f/8028d4b1221d6a701d216a154f1b.jpg"},"extralarge":{"default":"https://cdn.freshful.ro/media/cache/sylius_shop_product_original/02/6f/8028d4b1221d6a701d216a154f1b.jpg"}},"label":null,"tags":[{"type":"vegan","text":"Vegan","icon":"https://cdn.freshful.ro/assets/product_tags/vegan.svg","iconPng":"https://cdn.freshful.ro/assets/product_tags/vegan.png","backgroundColor":"#ECF9F8","textColor":"#33A39C"},{"type":"NoAddedSugar","text":"Fara zahar adaugat","icon":"https://cdn.freshful.ro/assets/product_tags/fara_zahar_adaugat.svg","iconPng":"https://cdn.freshful.ro/assets/product_tags/fara_zahar_adaugat.png","backgroundColor":"#F8EDF7","textColor":"#C05EBC"},{"type":"LactoseFree","text":"Fara lactoza","icon":"https://cdn.freshful.ro/assets/product_tags/fara_lactoza.svg","iconPng":"https://cdn.freshful.ro/assets/product_tags/fara_lactoza.png","backgroundColor":"#E9F7FB","textColor":"#25A6D0"}],"isAvailable":true,"maxAvailableQuantity":61,"maxAllowedQuantity":100,"breadcrumbs":[{"code":"10","name":"Dietetic, ECO & internațional","slug":"10-dietetic-bio-si-international"},{"code":"1001","name":"Produse ecologice","slug":"1001-produse-ecologice"},{"code":"100103","name":"Mic dejun ECO","slug":"100103-eco-micul-dejun"},{"code":"100111423","name":"Porridge eco instant din ovăz integral cu fructe de pădure 60g","slug":"100111423-auga-porridge-eco-instant-din-ovaz-integral-cu-fructe-de-padure-60g"}],"activePromotion":null,"saveMe":null,"labels":[],"geniusPrice":null,"geniusUnitPricePerLabel":null,"banner":null,"discountLabel":null,"geniusDiscountLabel":null,"badge":null},{"code":"100111432","variantCode":"100111432","name":"Granola eco nuci și semințe 400g","slug":"100111432-lizi-s-granola-eco-nuci-si-seminte-400g","unitPriceLabel":"37,99 Lei/buc","brand":"Lizi's","brandCode":"1510","brandFilterCode":"lizi-s-b1514","sku":"100111432","price":37.99,"originalPrice":null,"currencyCode":"RON","currency":"Lei","image":{"thumbnail":{"default":"https://cdn.freshful.ro/media/cache/sylius_shop_product_thumbnail/bc/be/39e28478aa0e3e0a0c38fa2bc891.jpg"},"large":{"default":"https://cdn.freshful.ro/media/cache/freshful_large/bc/be/39e28478aa0e3e0a0c38fa2bc891.jpg"},"extralarge":{"default":"https://cdn.freshful.ro/media/cache/sylius_shop_product_original/bc/be/39e28478aa0e3e0a0c38fa2bc891.jpg"}},"label":null,"tags":[{"type":"Eco","text":"Eco","icon":"https://cdn.freshful.ro/assets/product_tags/eco.svg","iconPng":"https://cdn.freshful.ro/assets/product_tags/eco.png","backgroundColor":"#EFFBE4","textColor":"#66BB1B"}],"isAvailable":true,"maxAvailableQuantity":100,"maxAllowedQuantity":100,"breadcrumbs":[{"code":"10","name":"Dietetic, ECO & internațional","slug":"10-dietetic-bio-si-international"},{"code":"1001","name":"Produse ecologice","slug":"1001-produse-ecologice"},{"code":"100103","name":"Mic dejun ECO","slug":"100103-eco-micul-dejun"},{"code":"100111432","name":"Granola eco nuci și semințe 400g","slug":"100111432-lizi-s-granola-eco-nuci-si-seminte-400g"}],"activePromotion":null,"saveMe":null,"labels":[],"geniusPrice":null,"geniusUnitPricePerLabel":null,"banner":null,"discountLabel":null,"geniusDiscountLabel":null,"badge":null},{"code":"100144386","variantCode":"100144386","name":"Fulgi de porumb fără zahăr ecologici 200g","slug":"100144386-niavis-fulgi-de-porumb-fara-zahar-ecologici-200g","unitPriceLabel":"79,95 Lei/kg","brand":"Niavis","brandCode":"190","brandFilterCode":"niavis-b191","sku":"100144386","price":15.99,"originalPrice":null,"currencyCode":"RON","currency":"Lei","image":{"thumbnail":{"default":"https://cdn.freshful.ro/media/cache/sylius_shop_product_thumbnail/12/1f/e1a4bae9300282e8eed0e5811bac.jpg"},"large":{"default":"https://cdn.freshful.ro/media/cache/freshful_large/12/1f/e1a4bae9300282e8eed0e5811bac.jpg"},"extralarge":{"default":"https://cdn.freshful.ro/media/cache/sylius_shop_product_original/12/1f/e1a4bae9300282e8eed0e5811bac.jpg"}},"label":null,"tags":[{"type":"Eco","text":"Eco","icon":"https://cdn.freshful.ro/assets/product_tags/eco.svg","iconPng":"https://cdn.freshful.ro/assets/product_tags/eco.png","backgroundColor":"#EFFBE4","textColor":"#66BB1B"},{"type":"vegan","text":"Vegan","icon":"https://cdn.freshful.ro/assets/product_tags/vegan.svg","iconPng":"https://cdn.freshful.ro/assets/product_tags/vegan.png","backgroundColor":"#ECF9F8","textColor":"#33A39C"},{"type":"NoGluten","text":"Fara gluten","icon":"https://cdn.freshful.ro/assets/product_tags/fara_gluten.svg","iconPng":"https://cdn.freshful.ro/assets/product_tags/fara_gluten.png","backgroundColor":"#FFF2E5","textColor":"#F07900"},{"type":"NoAddedSugar","text":"Fara zahar adaugat","icon":"https://cdn.freshful.ro/assets/product_tags/fara_zahar_adaugat.svg","iconPng":"https://cdn.freshful.ro/assets/product_tags/fara_zahar_adaugat.png","backgroundColor":"#F8EDF7","textColor":"#C05EBC"}],"isAvailable":true,"maxAvailableQuantity":46,"maxAllowedQuantity":100,"breadcrumbs":[{"code":"10","name":"Dietetic, ECO & internațional","slug":"10-dietetic-bio-si-international"},{"code":"1001","name":"Produse ecologice","slug":"1001-produse-ecologice"},{"code":"100103","name":"Mic dejun ECO","slug":"100103-eco-micul-dejun"},{"code":"100144386","name":"Fulgi de porumb fără zahăr ecologici 200g","slug":"100144386-niavis-fulgi-de-porumb-fara-zahar-ecologici-200g"}],"activePromotion":null,"saveMe":null,"labels":[],"geniusPrice":null,"geniusUnitPricePerLabel":null,"banner":null,"discountLabel":null,"geniusDiscountLabel":null,"badge":null}],"filters":{"countSelected":0,"items":[{"code":"brand","name":"Brand","countSelected":0,"values":[{"code":"alce-nero-b2016","name":"Alce Nero","isSelected":false,"count":7},{"code":"apicoltura-casentinese-b853","name":"Apicoltura Casentinese","isSelected":false,"count":4},{"code":"auga-b1860","name":"Auga","isSelected":false,"count":2},{"code":"bauckhof-b685","name":"Bauckhof","isSelected":false,"count":5},{"code":"bettr-b1473","name":"Bettr","isSelected":false,"count":2},{"code":"bio-junior-b686","name":"Bio Junior","isSelected":false,"count":4},{"code":"bio-tradizioni-b854","name":"bio tradizioni","isSelected":false,"count":6},{"code":"bjorg-b687","name":"Bjorg","isSelected":false,"count":7},{"code":"colonia-b2454","name":"Colonia","isSelected":false,"count":10},{"code":"cupper-b1709","name":"Cupper","isSelected":false,"count":7},{"code":"destination-b2297","name":"Destination","isSelected":false,"count":9},{"code":"english-tea-shop-b1063","name":"English Tea Shop","isSelected":false,"count":20},{"code":"favrichon-b858","name":"Favrichon","isSelected":false,"count":8},{"code":"fuchs-b920","name":"Fuchs","isSelected":false,"count":1},{"code":"grani-antichi-b859","name":"Grani Antichi","isSelected":false,"count":1},{"code":"hanf-natur-b860","name":"Hanf & Natur","isSelected":false,"count":4},{"code":"harmonica-b1505","name":"Harmonica","isSelected":false,"count":6},{"code":"honey-line-b1602","name":"Honey Line","isSelected":false,"count":5},{"code":"iswari-b863","name":"Iswari","isSelected":false,"count":1},{"code":"lavazza-b162","name":"Lavazza","isSelected":false,"count":1},{"code":"lizi-s-b1514","name":"Lizi's","isSelected":false,"count":1},{"code":"malongo-b1062","name":"Malongo","isSelected":false,"count":4},{"code":"merryberry-b2709","name":"Merryberry","isSelected":false,"count":3},{"code":"morettino-b865","name":"Morettino","isSelected":false,"count":5},{"code":"niavis-b191","name":"Niavis","isSelected":false,"count":11},{"code":"probios-b930","name":"Probios","isSelected":false,"count":8},{"code":"sonnentor-b1561","name":"Sonnentor","isSelected":false,"count":52},{"code":"urban-bee-b1692","name":"Urban Bee","isSelected":false,"count":8},{"code":"vedda-bio-b753","name":"Vedda Bio","isSelected":false,"count":13},{"code":"velay-b870","name":"Velay","isSelected":false,"count":10},{"code":"verival-b972","name":"Verival","isSelected":false,"count":7},{"code":"yogi-tea-b84","name":"Yogi Tea","isSelected":false,"count":4}]},{"code":"diet_lifestyle","name":"Dietă și lifestyle","countSelected":0,"values":[{"code":"eco-a83","name":"Eco","isSelected":false,"count":232},{"code":"fara-conservanti-a37","name":"Fara conservanti","isSelected":false,"count":11},{"code":"fara-gluten-a16","name":"Fara gluten","isSelected":false,"count":17},{"code":"fara-lactoza-a38","name":"Fara lactoza","isSelected":false,"count":3},{"code":"fara-sare-a52","name":"Fara sare","isSelected":false,"count":1},{"code":"fara-zahar-adaugat-a29","name":"Fara zahar adaugat","isSelected":false,"count":22},{"code":"made-in-romania-a85","name":"Made In Romania","isSelected":false,"count":3},{"code":"natural-a27","name":"Natural","isSelected":false,"count":21},{"code":"vegan-a24","name":"Vegan","isSelected":false,"count":25}]}]},"orderBy":[{"field":"price","direction":"asc","name":"Preț crescător","isSelected":false},{"field":"price","direction":"desc","name":"Preț descrescător","isSelected":false},{"field":"popularity","direction":"desc","name":"Cele mai populare","isSelected":true},{"field":"category","direction":"asc","name":"Categorie","isSelected":false}],"metaTitle":"Mic dejun ECO - Gamă variată","metaDescription":"Vrei Mic dejun ECO? Alege dintr-o gamă variată. Comanzi simplu și ai livrare rapidă, calitate și prospețime. Hai pe Freshful.ro","metaKeywords":null,"banners":[]}}