{"type":"subcategory","payload":{"analyticsListId":"category_100204-diete-de-slabit","analyticsListName":"Category - Diete pentru slăbit","name":"Diete pentru slăbit","slug":"100204-diete-de-slabit","image":null,"breadcrumbs":[{"code":"10","name":"Dietetic, ECO & internațional","slug":"10-dietetic-bio-si-international"},{"code":"1002","name":"Produse dietetice și naturiste","slug":"1002-produse-dietetice-si-naturiste"},{"code":"100204","name":"Diete pentru slăbit","slug":"100204-diete-de-slabit"}],"slots":[],"page":1,"limit":10,"pages":3,"count":28,"siblings":[{"name":"Produse ecologice","slug":"1001-produse-ecologice","selected":false},{"name":"Produse dietetice și naturiste","slug":"1002-produse-dietetice-si-naturiste","selected":true},{"name":"Suplimente alimentare","slug":"1003-suplimente-alimentare","selected":false},{"name":"Produse internaționale","slug":"1004-bucatarie-internationala","selected":false}],"children":[{"name":"Toate produsele","slug":"1002-produse-dietetice-si-naturiste","selected":false},{"name":"Produse fără gluten","slug":"100201-produse-fara-gluten","selected":false},{"name":"Produse fără zahăr","slug":"100202-produse-fara-zahar","selected":false},{"name":"Îndulcitori","slug":"100203-indulcitori","selected":false},{"name":"Diete pentru slăbit","slug":"100204-diete-de-slabit","selected":true},{"name":"Diete sportive","slug":"100205-diete-sportive","selected":false},{"name":"Produse din soia","slug":"100206-produse-din-soia","selected":false}],"products":[{"code":"100036453","variantCode":"5941768000657","name":"Ciocolată cu lapte, quinoa, cocos, fără zahăr și îndulcitor stevie 25g","slug":"100036453-sweet-safe-ciocolata-cu-lapte-quinoa-cocos-fara-zahar-si-indulcitor-stevie-25g","unitPriceLabel":"","brand":"Sweet&Safe","brandCode":"128","brandFilterCode":"sweet-safe-b112","sku":"100036453","price":2.29,"originalPrice":null,"currencyCode":"RON","currency":"Lei","image":{"thumbnail":{"default":"https://cdn.freshful.ro/media/cache/sylius_shop_product_thumbnail/3e/34/1459ffcc5889d8ea290f9d957141.jpg"},"large":{"default":"https://cdn.freshful.ro/media/cache/freshful_large/3e/34/1459ffcc5889d8ea290f9d957141.jpg"},"extralarge":{"default":"https://cdn.freshful.ro/media/cache/sylius_shop_product_original/3e/34/1459ffcc5889d8ea290f9d957141.jpg"}},"label":null,"tags":[{"type":"NoAddedSugar","text":"Fara zahar adaugat","icon":"https://cdn.freshful.ro/assets/product_tags/fara_zahar_adaugat.svg","iconPng":"https://cdn.freshful.ro/assets/product_tags/fara_zahar_adaugat.png","backgroundColor":"#F8EDF7","textColor":"#C05EBC"}],"isAvailable":true,"maxAvailableQuantity":100,"maxAllowedQuantity":100,"breadcrumbs":[{"code":"10","name":"Dietetic, ECO & internațional","slug":"10-dietetic-bio-si-international"},{"code":"1002","name":"Produse dietetice și naturiste","slug":"1002-produse-dietetice-si-naturiste"},{"code":"100204","name":"Diete pentru slăbit","slug":"100204-diete-de-slabit"},{"code":"100036453","name":"Ciocolată cu lapte, quinoa, cocos, fără zahăr și îndulcitor stevie 25g","slug":"100036453-sweet-safe-ciocolata-cu-lapte-quinoa-cocos-fara-zahar-si-indulcitor-stevie-25g"}],"activePromotion":null,"saveMe":null,"labels":[],"geniusPrice":null,"geniusUnitPricePerLabel":null,"banner":null,"discountLabel":null,"geniusDiscountLabel":null,"badge":null},{"code":"100033311","variantCode":"100033311","name":"Napolitană cu cremă de alune 20g","slug":"100033311-sly-napolitana-cu-crema-de-alune-20g","unitPriceLabel":"","brand":"Sly","brandCode":"127","brandFilterCode":"sly-b111","sku":"100033311","price":1.09,"originalPrice":null,"currencyCode":"RON","currency":"Lei","image":{"thumbnail":{"default":"https://cdn.freshful.ro/media/cache/sylius_shop_product_thumbnail/25/1c/006d8e5ee54e4b4462b0e74efa52.jpg"},"large":{"default":"https://cdn.freshful.ro/media/cache/freshful_large/25/1c/006d8e5ee54e4b4462b0e74efa52.jpg"},"extralarge":{"default":"https://cdn.freshful.ro/media/cache/sylius_shop_product_original/25/1c/006d8e5ee54e4b4462b0e74efa52.jpg"}},"label":null,"tags":[{"type":"NoAddedSugar","text":"Fara zahar adaugat","icon":"https://cdn.freshful.ro/assets/product_tags/fara_zahar_adaugat.svg","iconPng":"https://cdn.freshful.ro/assets/product_tags/fara_zahar_adaugat.png","backgroundColor":"#F8EDF7","textColor":"#C05EBC"}],"isAvailable":true,"maxAvailableQuantity":100,"maxAllowedQuantity":100,"breadcrumbs":[{"code":"10","name":"Dietetic, ECO & internațional","slug":"10-dietetic-bio-si-international"},{"code":"1002","name":"Produse dietetice și naturiste","slug":"1002-produse-dietetice-si-naturiste"},{"code":"100204","name":"Diete pentru slăbit","slug":"100204-diete-de-slabit"},{"code":"100033311","name":"Napolitană cu cremă de alune 20g","slug":"100033311-sly-napolitana-cu-crema-de-alune-20g"}],"activePromotion":null,"saveMe":null,"labels":[],"geniusPrice":null,"geniusUnitPricePerLabel":null,"banner":null,"discountLabel":null,"geniusDiscountLabel":null,"badge":null},{"code":"100033310","variantCode":"100033310","name":"Napolitană cu cremă de cacao 20g","slug":"100033310-sly-napolitana-cu-crema-de-cacao-20g","unitPriceLabel":"","brand":"Sly","brandCode":"127","brandFilterCode":"sly-b111","sku":"100033310","price":1.09,"originalPrice":null,"currencyCode":"RON","currency":"Lei","image":{"thumbnail":{"default":"https://cdn.freshful.ro/media/cache/sylius_shop_product_thumbnail/16/2a/e78d819a5610a74d95d688e059ac.jpg"},"large":{"default":"https://cdn.freshful.ro/media/cache/freshful_large/16/2a/e78d819a5610a74d95d688e059ac.jpg"},"extralarge":{"default":"https://cdn.freshful.ro/media/cache/sylius_shop_product_original/16/2a/e78d819a5610a74d95d688e059ac.jpg"}},"label":null,"tags":[{"type":"NoAddedSugar","text":"Fara zahar adaugat","icon":"https://cdn.freshful.ro/assets/product_tags/fara_zahar_adaugat.svg","iconPng":"https://cdn.freshful.ro/assets/product_tags/fara_zahar_adaugat.png","backgroundColor":"#F8EDF7","textColor":"#C05EBC"}],"isAvailable":true,"maxAvailableQuantity":100,"maxAllowedQuantity":100,"breadcrumbs":[{"code":"10","name":"Dietetic, ECO & internațional","slug":"10-dietetic-bio-si-international"},{"code":"1002","name":"Produse dietetice și naturiste","slug":"1002-produse-dietetice-si-naturiste"},{"code":"100204","name":"Diete pentru slăbit","slug":"100204-diete-de-slabit"},{"code":"100033310","name":"Napolitană cu cremă de cacao 20g","slug":"100033310-sly-napolitana-cu-crema-de-cacao-20g"}],"activePromotion":null,"saveMe":null,"labels":[],"geniusPrice":null,"geniusUnitPricePerLabel":null,"banner":null,"discountLabel":null,"geniusDiscountLabel":null,"badge":null},{"code":"100033313","variantCode":"100033313","name":"Napolitană cu cremă de lămâie 40g","slug":"100033313-sly-napolitana-cu-crema-de-lamaie-40g","unitPriceLabel":"","brand":"Sly","brandCode":"127","brandFilterCode":"sly-b111","sku":"100033313","price":1.75,"originalPrice":null,"currencyCode":"RON","currency":"Lei","image":{"thumbnail":{"default":"https://cdn.freshful.ro/media/cache/sylius_shop_product_thumbnail/c5/d1/072ab94af417997f3e1d145fc74d.jpg"},"large":{"default":"https://cdn.freshful.ro/media/cache/freshful_large/c5/d1/072ab94af417997f3e1d145fc74d.jpg"},"extralarge":{"default":"https://cdn.freshful.ro/media/cache/sylius_shop_product_original/c5/d1/072ab94af417997f3e1d145fc74d.jpg"}},"label":null,"tags":[{"type":"NoAddedSugar","text":"Fara zahar adaugat","icon":"https://cdn.freshful.ro/assets/product_tags/fara_zahar_adaugat.svg","iconPng":"https://cdn.freshful.ro/assets/product_tags/fara_zahar_adaugat.png","backgroundColor":"#F8EDF7","textColor":"#C05EBC"}],"isAvailable":true,"maxAvailableQuantity":100,"maxAllowedQuantity":100,"breadcrumbs":[{"code":"10","name":"Dietetic, ECO & internațional","slug":"10-dietetic-bio-si-international"},{"code":"1002","name":"Produse dietetice și naturiste","slug":"1002-produse-dietetice-si-naturiste"},{"code":"100204","name":"Diete pentru slăbit","slug":"100204-diete-de-slabit"},{"code":"100033313","name":"Napolitană cu cremă de lămâie 40g","slug":"100033313-sly-napolitana-cu-crema-de-lamaie-40g"}],"activePromotion":null,"saveMe":null,"labels":[],"geniusPrice":null,"geniusUnitPricePerLabel":null,"banner":null,"discountLabel":null,"geniusDiscountLabel":null,"badge":null},{"code":"100036448","variantCode":"5941768000022","name":"Tabletă dietetică cu cappucino 25g","slug":"100036448-sly-tableta-dietetica-cu-cappucino-25g","unitPriceLabel":"","brand":"Sly","brandCode":"127","brandFilterCode":"sly-b111","sku":"100036448","price":1.59,"originalPrice":null,"currencyCode":"RON","currency":"Lei","image":{"thumbnail":{"default":"https://cdn.freshful.ro/media/cache/sylius_shop_product_thumbnail/44/7b/8e6eb4b482de549ffb51d23dc19b.jpg"},"large":{"default":"https://cdn.freshful.ro/media/cache/freshful_large/44/7b/8e6eb4b482de549ffb51d23dc19b.jpg"},"extralarge":{"default":"https://cdn.freshful.ro/media/cache/sylius_shop_product_original/44/7b/8e6eb4b482de549ffb51d23dc19b.jpg"}},"label":null,"tags":[{"type":"NoAddedSugar","text":"Fara zahar adaugat","icon":"https://cdn.freshful.ro/assets/product_tags/fara_zahar_adaugat.svg","iconPng":"https://cdn.freshful.ro/assets/product_tags/fara_zahar_adaugat.png","backgroundColor":"#F8EDF7","textColor":"#C05EBC"}],"isAvailable":true,"maxAvailableQuantity":100,"maxAllowedQuantity":100,"breadcrumbs":[{"code":"10","name":"Dietetic, ECO & internațional","slug":"10-dietetic-bio-si-international"},{"code":"1002","name":"Produse dietetice și naturiste","slug":"1002-produse-dietetice-si-naturiste"},{"code":"100204","name":"Diete pentru slăbit","slug":"100204-diete-de-slabit"},{"code":"100036448","name":"Tabletă dietetică cu cappucino 25g","slug":"100036448-sly-tableta-dietetica-cu-cappucino-25g"}],"activePromotion":null,"saveMe":null,"labels":[],"geniusPrice":null,"geniusUnitPricePerLabel":null,"banner":null,"discountLabel":null,"geniusDiscountLabel":null,"badge":null},{"code":"100036452","variantCode":"5941768000183","name":"Ciocolată cu lapte, fără zahăr și îndulcitor stevie 25g","slug":"100036452-sweet-safe-ciocolata-cu-lapte-fara-zahar-si-indulcitor-stevie-25g","unitPriceLabel":"","brand":"Sweet&Safe","brandCode":"128","brandFilterCode":"sweet-safe-b112","sku":"100036452","price":2.29,"originalPrice":null,"currencyCode":"RON","currency":"Lei","image":{"thumbnail":{"default":"https://cdn.freshful.ro/media/cache/sylius_shop_product_thumbnail/22/a5/d0e3119b1c606b6e0c9ddc2e77d9.jpg"},"large":{"default":"https://cdn.freshful.ro/media/cache/freshful_large/22/a5/d0e3119b1c606b6e0c9ddc2e77d9.jpg"},"extralarge":{"default":"https://cdn.freshful.ro/media/cache/sylius_shop_product_original/22/a5/d0e3119b1c606b6e0c9ddc2e77d9.jpg"}},"label":null,"tags":[{"type":"NoAddedSugar","text":"Fara zahar adaugat","icon":"https://cdn.freshful.ro/assets/product_tags/fara_zahar_adaugat.svg","iconPng":"https://cdn.freshful.ro/assets/product_tags/fara_zahar_adaugat.png","backgroundColor":"#F8EDF7","textColor":"#C05EBC"}],"isAvailable":true,"maxAvailableQuantity":100,"maxAllowedQuantity":100,"breadcrumbs":[{"code":"10","name":"Dietetic, ECO & internațional","slug":"10-dietetic-bio-si-international"},{"code":"1002","name":"Produse dietetice și naturiste","slug":"1002-produse-dietetice-si-naturiste"},{"code":"100204","name":"Diete pentru slăbit","slug":"100204-diete-de-slabit"},{"code":"100036452","name":"Ciocolată cu lapte, fără zahăr și îndulcitor stevie 25g","slug":"100036452-sweet-safe-ciocolata-cu-lapte-fara-zahar-si-indulcitor-stevie-25g"}],"activePromotion":null,"saveMe":null,"labels":[],"geniusPrice":null,"geniusUnitPricePerLabel":null,"banner":null,"discountLabel":null,"geniusDiscountLabel":null,"badge":null},{"code":"100036450","variantCode":"5941768000039","name":"Tabletă dietetică cu căpșune 25g","slug":"100036450-sly-tableta-dietetica-cu-capsune-25g","unitPriceLabel":"","brand":"Sly","brandCode":"127","brandFilterCode":"sly-b111","sku":"100036450","price":1.59,"originalPrice":null,"currencyCode":"RON","currency":"Lei","image":{"thumbnail":{"default":"https://cdn.freshful.ro/media/cache/sylius_shop_product_thumbnail/af/77/a046909e8a4cf26b1a88871d7b25.jpg"},"large":{"default":"https://cdn.freshful.ro/media/cache/freshful_large/af/77/a046909e8a4cf26b1a88871d7b25.jpg"},"extralarge":{"default":"https://cdn.freshful.ro/media/cache/sylius_shop_product_original/af/77/a046909e8a4cf26b1a88871d7b25.jpg"}},"label":null,"tags":[{"type":"NoAddedSugar","text":"Fara zahar adaugat","icon":"https://cdn.freshful.ro/assets/product_tags/fara_zahar_adaugat.svg","iconPng":"https://cdn.freshful.ro/assets/product_tags/fara_zahar_adaugat.png","backgroundColor":"#F8EDF7","textColor":"#C05EBC"}],"isAvailable":true,"maxAvailableQuantity":99,"maxAllowedQuantity":100,"breadcrumbs":[{"code":"10","name":"Dietetic, ECO & internațional","slug":"10-dietetic-bio-si-international"},{"code":"1002","name":"Produse dietetice și naturiste","slug":"1002-produse-dietetice-si-naturiste"},{"code":"100204","name":"Diete pentru slăbit","slug":"100204-diete-de-slabit"},{"code":"100036450","name":"Tabletă dietetică cu căpșune 25g","slug":"100036450-sly-tableta-dietetica-cu-capsune-25g"}],"activePromotion":null,"saveMe":null,"labels":[],"geniusPrice":null,"geniusUnitPricePerLabel":null,"banner":null,"discountLabel":null,"geniusDiscountLabel":null,"badge":null},{"code":"100036447","variantCode":"5941768000046","name":"Tabletă dietetică cu lapte 25g","slug":"100036447-sly-tableta-dietetica-cu-lapte-25g","unitPriceLabel":"","brand":"Sly","brandCode":"127","brandFilterCode":"sly-b111","sku":"100036447","price":1.59,"originalPrice":null,"currencyCode":"RON","currency":"Lei","image":{"thumbnail":{"default":"https://cdn.freshful.ro/media/cache/sylius_shop_product_thumbnail/a1/47/54b68fa721765a73f47f072cdb91.jpg"},"large":{"default":"https://cdn.freshful.ro/media/cache/freshful_large/a1/47/54b68fa721765a73f47f072cdb91.jpg"},"extralarge":{"default":"https://cdn.freshful.ro/media/cache/sylius_shop_product_original/a1/47/54b68fa721765a73f47f072cdb91.jpg"}},"label":null,"tags":[{"type":"NoAddedSugar","text":"Fara zahar adaugat","icon":"https://cdn.freshful.ro/assets/product_tags/fara_zahar_adaugat.svg","iconPng":"https://cdn.freshful.ro/assets/product_tags/fara_zahar_adaugat.png","backgroundColor":"#F8EDF7","textColor":"#C05EBC"}],"isAvailable":true,"maxAvailableQuantity":100,"maxAllowedQuantity":100,"breadcrumbs":[{"code":"10","name":"Dietetic, ECO & internațional","slug":"10-dietetic-bio-si-international"},{"code":"1002","name":"Produse dietetice și naturiste","slug":"1002-produse-dietetice-si-naturiste"},{"code":"100204","name":"Diete pentru slăbit","slug":"100204-diete-de-slabit"},{"code":"100036447","name":"Tabletă dietetică cu lapte 25g","slug":"100036447-sly-tableta-dietetica-cu-lapte-25g"}],"activePromotion":null,"saveMe":null,"labels":[],"geniusPrice":null,"geniusUnitPricePerLabel":null,"banner":null,"discountLabel":null,"geniusDiscountLabel":null,"badge":null},{"code":"100036451","variantCode":"5941768000190","name":"Ciocolată amăruie cu 60% cacao, fără zahăr și îndulcitor stevie 25g","slug":"100036451-sweet-safe-ciocolata-amaruie-cu-60-cacao-fara-zahar-si-indulcitor-stevie-25g","unitPriceLabel":"","brand":"Sweet&Safe","brandCode":"128","brandFilterCode":"sweet-safe-b112","sku":"100036451","price":2.29,"originalPrice":null,"currencyCode":"RON","currency":"Lei","image":{"thumbnail":{"default":"https://cdn.freshful.ro/media/cache/sylius_shop_product_thumbnail/38/06/776d6844c947d09de82fd862a7aa.jpg"},"large":{"default":"https://cdn.freshful.ro/media/cache/freshful_large/38/06/776d6844c947d09de82fd862a7aa.jpg"},"extralarge":{"default":"https://cdn.freshful.ro/media/cache/sylius_shop_product_original/38/06/776d6844c947d09de82fd862a7aa.jpg"}},"label":null,"tags":[{"type":"NoAddedSugar","text":"Fara zahar adaugat","icon":"https://cdn.freshful.ro/assets/product_tags/fara_zahar_adaugat.svg","iconPng":"https://cdn.freshful.ro/assets/product_tags/fara_zahar_adaugat.png","backgroundColor":"#F8EDF7","textColor":"#C05EBC"}],"isAvailable":true,"maxAvailableQuantity":100,"maxAllowedQuantity":100,"breadcrumbs":[{"code":"10","name":"Dietetic, ECO & internațional","slug":"10-dietetic-bio-si-international"},{"code":"1002","name":"Produse dietetice și naturiste","slug":"1002-produse-dietetice-si-naturiste"},{"code":"100204","name":"Diete pentru slăbit","slug":"100204-diete-de-slabit"},{"code":"100036451","name":"Ciocolată amăruie cu 60% cacao, fără zahăr și îndulcitor stevie 25g","slug":"100036451-sweet-safe-ciocolata-amaruie-cu-60-cacao-fara-zahar-si-indulcitor-stevie-25g"}],"activePromotion":null,"saveMe":null,"labels":[],"geniusPrice":null,"geniusUnitPricePerLabel":null,"banner":null,"discountLabel":null,"geniusDiscountLabel":null,"badge":null},{"code":"100033312","variantCode":"100033312","name":"Napolitană cu cremă de vanilie 20g","slug":"100033312-sly-napolitana-cu-crema-de-vanilie-20g","unitPriceLabel":"","brand":"Sly","brandCode":"127","brandFilterCode":"sly-b111","sku":"100033312","price":1.09,"originalPrice":null,"currencyCode":"RON","currency":"Lei","image":{"thumbnail":{"default":"https://cdn.freshful.ro/media/cache/sylius_shop_product_thumbnail/4a/5f/91665e6d1d35b428345efe3cbeaa.jpg"},"large":{"default":"https://cdn.freshful.ro/media/cache/freshful_large/4a/5f/91665e6d1d35b428345efe3cbeaa.jpg"},"extralarge":{"default":"https://cdn.freshful.ro/media/cache/sylius_shop_product_original/4a/5f/91665e6d1d35b428345efe3cbeaa.jpg"}},"label":null,"tags":[{"type":"NoAddedSugar","text":"Fara zahar adaugat","icon":"https://cdn.freshful.ro/assets/product_tags/fara_zahar_adaugat.svg","iconPng":"https://cdn.freshful.ro/assets/product_tags/fara_zahar_adaugat.png","backgroundColor":"#F8EDF7","textColor":"#C05EBC"}],"isAvailable":true,"maxAvailableQuantity":100,"maxAllowedQuantity":100,"breadcrumbs":[{"code":"10","name":"Dietetic, ECO & internațional","slug":"10-dietetic-bio-si-international"},{"code":"1002","name":"Produse dietetice și naturiste","slug":"1002-produse-dietetice-si-naturiste"},{"code":"100204","name":"Diete pentru slăbit","slug":"100204-diete-de-slabit"},{"code":"100033312","name":"Napolitană cu cremă de vanilie 20g","slug":"100033312-sly-napolitana-cu-crema-de-vanilie-20g"}],"activePromotion":null,"saveMe":null,"labels":[],"geniusPrice":null,"geniusUnitPricePerLabel":null,"banner":null,"discountLabel":null,"geniusDiscountLabel":null,"badge":null}],"filters":{"countSelected":0,"items":[{"code":"brand","name":"Brand","countSelected":0,"values":[{"code":"goldnutrition-b1999","name":"Goldnutrition","isSelected":false,"count":4},{"code":"isostar-b1713","name":"Isostar","isSelected":false,"count":3},{"code":"livity-nature-b1868","name":"Livity Nature","isSelected":false,"count":3},{"code":"nutrino-lab-b2825","name":"Nutrino Lab","isSelected":false,"count":7},{"code":"sly-b111","name":"Sly","isSelected":false,"count":8},{"code":"sweet-safe-b112","name":"Sweet&Safe","isSelected":false,"count":3}]},{"code":"diet_lifestyle","name":"Dietă și lifestyle","countSelected":0,"values":[{"code":"eco-a83","name":"Eco","isSelected":false,"count":3},{"code":"fara-conservanti-a37","name":"Fara conservanti","isSelected":false,"count":7},{"code":"fara-gluten-a16","name":"Fara gluten","isSelected":false,"count":2},{"code":"fara-zahar-adaugat-a29","name":"Fara zahar adaugat","isSelected":false,"count":20},{"code":"natural-a27","name":"Natural","isSelected":false,"count":7}]}]},"orderBy":[{"field":"price","direction":"asc","name":"Preț crescător","isSelected":false},{"field":"price","direction":"desc","name":"Preț descrescător","isSelected":false},{"field":"popularity","direction":"desc","name":"Cele mai populare","isSelected":true},{"field":"category","direction":"asc","name":"Categorie","isSelected":false}],"metaTitle":"Diete pentru slăbit - Gamă variată","metaDescription":"Vrei Diete pentru slăbit? Alege dintr-o gamă variată. Comanzi simplu și ai livrare rapidă, calitate și prospețime. Hai pe Freshful.ro","metaKeywords":null,"banners":[]}}