{"type":"subcategory","payload":{"analyticsListId":"category_100206-produse-din-soia","analyticsListName":"Category - Produse din soia","name":"Produse din soia","slug":"100206-produse-din-soia","image":null,"breadcrumbs":[{"code":"10","name":"Dietetic, ECO & internațional","slug":"10-dietetic-bio-si-international"},{"code":"1002","name":"Produse dietetice și naturiste","slug":"1002-produse-dietetice-si-naturiste"},{"code":"100206","name":"Produse din soia","slug":"100206-produse-din-soia"}],"slots":[],"page":1,"limit":10,"pages":2,"count":19,"siblings":[{"name":"Produse ecologice","slug":"1001-produse-ecologice","selected":false},{"name":"Produse dietetice și naturiste","slug":"1002-produse-dietetice-si-naturiste","selected":true},{"name":"Suplimente alimentare","slug":"1003-suplimente-alimentare","selected":false},{"name":"Produse internaționale","slug":"1004-bucatarie-internationala","selected":false}],"children":[{"name":"Toate produsele","slug":"1002-produse-dietetice-si-naturiste","selected":false},{"name":"Produse fără gluten","slug":"100201-produse-fara-gluten","selected":false},{"name":"Produse fără zahăr","slug":"100202-produse-fara-zahar","selected":false},{"name":"Îndulcitori","slug":"100203-indulcitori","selected":false},{"name":"Diete pentru slăbit","slug":"100204-diete-de-slabit","selected":false},{"name":"Diete sportive","slug":"100205-diete-sportive","selected":false},{"name":"Produse din soia","slug":"100206-produse-din-soia","selected":true}],"products":[{"code":"100001607","variantCode":"5941132014693","name":"Soia texturat fâșii 100g","slug":"100001607-inedit-soia-texturat-fasii-100g","unitPriceLabel":"35,9 Lei/kg","brand":"Inedit","brandCode":"60","brandFilterCode":"inedit-b57","sku":"100001607","price":3.59,"originalPrice":4.89,"currencyCode":"RON","currency":"Lei","image":{"thumbnail":{"default":"https://cdn.freshful.ro/media/cache/sylius_shop_product_thumbnail/79/dd/78bcf863b15dcf15621a4db38e82.jpg"},"large":{"default":"https://cdn.freshful.ro/media/cache/freshful_large/79/dd/78bcf863b15dcf15621a4db38e82.jpg"},"extralarge":{"default":"https://cdn.freshful.ro/media/cache/sylius_shop_product_original/79/dd/78bcf863b15dcf15621a4db38e82.jpg"}},"label":{"text":"-26%","backgroundColor":"#FF9903","textColor":"#FFFFFF"},"tags":[{"type":"vegan","text":"Vegan","icon":"https://cdn.freshful.ro/assets/product_tags/vegan.svg","iconPng":"https://cdn.freshful.ro/assets/product_tags/vegan.png","backgroundColor":"#ECF9F8","textColor":"#33A39C"}],"isAvailable":true,"maxAvailableQuantity":40,"maxAllowedQuantity":100,"breadcrumbs":[{"code":"10","name":"Dietetic, ECO & internațional","slug":"10-dietetic-bio-si-international"},{"code":"1002","name":"Produse dietetice și naturiste","slug":"1002-produse-dietetice-si-naturiste"},{"code":"100206","name":"Produse din soia","slug":"100206-produse-din-soia"},{"code":"100001607","name":"Soia texturat fâșii 100g","slug":"100001607-inedit-soia-texturat-fasii-100g"}],"activePromotion":{"code":"special-produse-vegane-mar23","name":"Preț redus","targetQuantity":null},"saveMe":null,"labels":[{"type":"v1","items":[{"text":"-26%","backgroundColor":"#FF9903","textColor":"#FFFFFF"}]}],"geniusPrice":null,"geniusUnitPricePerLabel":null,"banner":{"text":"Super preț","textColor":"#FF0000","bgColor":"#FFF2EC","icon":null,"link":"https://www.freshful.ro/oferte/special-produse-vegane-mar23","type":"promo","analyticsEventType":"select_promotion","analyticsEventPayload":{"promotion_id":"special-produse-vegane-mar23","promotion_name":"Și bun, și de post"}},"discountLabel":"Economisești 26%","geniusDiscountLabel":null,"badge":null},{"code":"100001606","variantCode":"5941276006509","name":"Soia texturat cuburi 100g","slug":"100001606-inedit-soia-texturat-cuburi-100g","unitPriceLabel":"29,9 Lei/kg","brand":"Inedit","brandCode":"60","brandFilterCode":"inedit-b57","sku":"100001606","price":2.99,"originalPrice":3.75,"currencyCode":"RON","currency":"Lei","image":{"thumbnail":{"default":"https://cdn.freshful.ro/media/cache/sylius_shop_product_thumbnail/19/ae/c4d39dbb49c167e653ac447f071c.jpg"},"large":{"default":"https://cdn.freshful.ro/media/cache/freshful_large/19/ae/c4d39dbb49c167e653ac447f071c.jpg"},"extralarge":{"default":"https://cdn.freshful.ro/media/cache/sylius_shop_product_original/19/ae/c4d39dbb49c167e653ac447f071c.jpg"}},"label":{"text":"-20%","backgroundColor":"#FF9903","textColor":"#FFFFFF"},"tags":[{"type":"vegan","text":"Vegan","icon":"https://cdn.freshful.ro/assets/product_tags/vegan.svg","iconPng":"https://cdn.freshful.ro/assets/product_tags/vegan.png","backgroundColor":"#ECF9F8","textColor":"#33A39C"}],"isAvailable":true,"maxAvailableQuantity":48,"maxAllowedQuantity":100,"breadcrumbs":[{"code":"10","name":"Dietetic, ECO & internațional","slug":"10-dietetic-bio-si-international"},{"code":"1002","name":"Produse dietetice și naturiste","slug":"1002-produse-dietetice-si-naturiste"},{"code":"100206","name":"Produse din soia","slug":"100206-produse-din-soia"},{"code":"100001606","name":"Soia texturat cuburi 100g","slug":"100001606-inedit-soia-texturat-cuburi-100g"}],"activePromotion":{"code":"special-produse-vegane-mar23","name":"Preț redus","targetQuantity":null},"saveMe":null,"labels":[{"type":"v1","items":[{"text":"-20%","backgroundColor":"#FF9903","textColor":"#FFFFFF"}]}],"geniusPrice":null,"geniusUnitPricePerLabel":null,"banner":{"text":"Super preț","textColor":"#FF0000","bgColor":"#FFF2EC","icon":null,"link":"https://www.freshful.ro/oferte/special-produse-vegane-mar23","type":"promo","analyticsEventType":"select_promotion","analyticsEventPayload":{"promotion_id":"special-produse-vegane-mar23","promotion_name":"Și bun, și de post"}},"discountLabel":"Economisești 20%","geniusDiscountLabel":null,"badge":null},{"code":"100001605","variantCode":"5941276006226","name":"Soia texturat felii 100g","slug":"100001605-inedit-soia-texturat-felii-100g","unitPriceLabel":"29,9 Lei/kg","brand":"Inedit","brandCode":"60","brandFilterCode":"inedit-b57","sku":"100001605","price":2.99,"originalPrice":3.75,"currencyCode":"RON","currency":"Lei","image":{"thumbnail":{"default":"https://cdn.freshful.ro/media/cache/sylius_shop_product_thumbnail/9f/a7/a21fd738173ef84f57745ac9cf7c.jpg"},"large":{"default":"https://cdn.freshful.ro/media/cache/freshful_large/9f/a7/a21fd738173ef84f57745ac9cf7c.jpg"},"extralarge":{"default":"https://cdn.freshful.ro/media/cache/sylius_shop_product_original/9f/a7/a21fd738173ef84f57745ac9cf7c.jpg"}},"label":{"text":"-20%","backgroundColor":"#FF9903","textColor":"#FFFFFF"},"tags":[{"type":"vegan","text":"Vegan","icon":"https://cdn.freshful.ro/assets/product_tags/vegan.svg","iconPng":"https://cdn.freshful.ro/assets/product_tags/vegan.png","backgroundColor":"#ECF9F8","textColor":"#33A39C"}],"isAvailable":true,"maxAvailableQuantity":14,"maxAllowedQuantity":100,"breadcrumbs":[{"code":"10","name":"Dietetic, ECO & internațional","slug":"10-dietetic-bio-si-international"},{"code":"1002","name":"Produse dietetice și naturiste","slug":"1002-produse-dietetice-si-naturiste"},{"code":"100206","name":"Produse din soia","slug":"100206-produse-din-soia"},{"code":"100001605","name":"Soia texturat felii 100g","slug":"100001605-inedit-soia-texturat-felii-100g"}],"activePromotion":{"code":"special-produse-vegane-mar23","name":"Preț redus","targetQuantity":null},"saveMe":null,"labels":[{"type":"v1","items":[{"text":"-20%","backgroundColor":"#FF9903","textColor":"#FFFFFF"}]}],"geniusPrice":null,"geniusUnitPricePerLabel":null,"banner":{"text":"Super preț","textColor":"#FF0000","bgColor":"#FFF2EC","icon":null,"link":"https://www.freshful.ro/oferte/special-produse-vegane-mar23","type":"promo","analyticsEventType":"select_promotion","analyticsEventPayload":{"promotion_id":"special-produse-vegane-mar23","promotion_name":"Și bun, și de post"}},"discountLabel":"Economisești 20%","geniusDiscountLabel":null,"badge":null},{"code":"100001469","variantCode":"5941276006233","name":"Soia texturat granule 100g","slug":"100001469-inedit-soia-texturat-granule-100g","unitPriceLabel":"29,9 Lei/kg","brand":"Inedit","brandCode":"60","brandFilterCode":"inedit-b57","sku":"100001469","price":2.99,"originalPrice":3.75,"currencyCode":"RON","currency":"Lei","image":{"thumbnail":{"default":"https://cdn.freshful.ro/media/cache/sylius_shop_product_thumbnail/80/66/24d3c78e5e1b67f389bf4b6dc9ac.jpg"},"large":{"default":"https://cdn.freshful.ro/media/cache/freshful_large/80/66/24d3c78e5e1b67f389bf4b6dc9ac.jpg"},"extralarge":{"default":"https://cdn.freshful.ro/media/cache/sylius_shop_product_original/80/66/24d3c78e5e1b67f389bf4b6dc9ac.jpg"}},"label":{"text":"-20%","backgroundColor":"#FF9903","textColor":"#FFFFFF"},"tags":[{"type":"vegan","text":"Vegan","icon":"https://cdn.freshful.ro/assets/product_tags/vegan.svg","iconPng":"https://cdn.freshful.ro/assets/product_tags/vegan.png","backgroundColor":"#ECF9F8","textColor":"#33A39C"}],"isAvailable":true,"maxAvailableQuantity":27,"maxAllowedQuantity":100,"breadcrumbs":[{"code":"10","name":"Dietetic, ECO & internațional","slug":"10-dietetic-bio-si-international"},{"code":"1002","name":"Produse dietetice și naturiste","slug":"1002-produse-dietetice-si-naturiste"},{"code":"100206","name":"Produse din soia","slug":"100206-produse-din-soia"},{"code":"100001469","name":"Soia texturat granule 100g","slug":"100001469-inedit-soia-texturat-granule-100g"}],"activePromotion":{"code":"special-produse-vegane-mar23","name":"Preț redus","targetQuantity":null},"saveMe":null,"labels":[{"type":"v1","items":[{"text":"-20%","backgroundColor":"#FF9903","textColor":"#FFFFFF"}]}],"geniusPrice":null,"geniusUnitPricePerLabel":null,"banner":{"text":"Super preț","textColor":"#FF0000","bgColor":"#FFF2EC","icon":null,"link":"https://www.freshful.ro/oferte/special-produse-vegane-mar23","type":"promo","analyticsEventType":"select_promotion","analyticsEventPayload":{"promotion_id":"special-produse-vegane-mar23","promotion_name":"Și bun, și de post"}},"discountLabel":"Economisești 20%","geniusDiscountLabel":null,"badge":null},{"code":"100143466","variantCode":"100143466","name":"Înlocuitor vegan pentru ouă - omletă, copt și gătit 180g","slug":"100143466-no-brand-inlocuitor-vegan-pentru-oua-omleta-copt-si-gatit-180g","unitPriceLabel":"94,39 Lei/kg","brand":"Veggs","brandCode":"2776","brandFilterCode":"veggs-b2850","sku":"100143466","price":16.99,"originalPrice":20.99,"currencyCode":"RON","currency":"Lei","image":{"thumbnail":{"default":"https://cdn.freshful.ro/media/cache/sylius_shop_product_thumbnail/63/44/a5ec47e219913ee50a6a1ceb5b10.jpg"},"large":{"default":"https://cdn.freshful.ro/media/cache/freshful_large/63/44/a5ec47e219913ee50a6a1ceb5b10.jpg"},"extralarge":{"default":"https://cdn.freshful.ro/media/cache/sylius_shop_product_original/63/44/a5ec47e219913ee50a6a1ceb5b10.jpg"}},"label":{"text":"-19%","backgroundColor":"#FF9903","textColor":"#FFFFFF"},"tags":[{"type":"vegan","text":"Vegan","icon":"https://cdn.freshful.ro/assets/product_tags/vegan.svg","iconPng":"https://cdn.freshful.ro/assets/product_tags/vegan.png","backgroundColor":"#ECF9F8","textColor":"#33A39C"},{"type":"Natural","text":"Natural","icon":"https://cdn.freshful.ro/assets/product_tags/natural.svg","iconPng":"https://cdn.freshful.ro/assets/product_tags/natural.png","backgroundColor":"#E9FCF2","textColor":"#18AF62"},{"type":"NoGluten","text":"Fara gluten","icon":"https://cdn.freshful.ro/assets/product_tags/fara_gluten.svg","iconPng":"https://cdn.freshful.ro/assets/product_tags/fara_gluten.png","backgroundColor":"#FFF2E5","textColor":"#F07900"}],"isAvailable":true,"maxAvailableQuantity":42,"maxAllowedQuantity":100,"breadcrumbs":[{"code":"10","name":"Dietetic, ECO & internațional","slug":"10-dietetic-bio-si-international"},{"code":"1002","name":"Produse dietetice și naturiste","slug":"1002-produse-dietetice-si-naturiste"},{"code":"100206","name":"Produse din soia","slug":"100206-produse-din-soia"},{"code":"100143466","name":"Înlocuitor vegan pentru ouă - omletă, copt și gătit 180g","slug":"100143466-no-brand-inlocuitor-vegan-pentru-oua-omleta-copt-si-gatit-180g"}],"activePromotion":{"code":"special-produse-vegane-mar23","name":"Preț redus","targetQuantity":null},"saveMe":null,"labels":[{"type":"v1","items":[{"text":"-19%","backgroundColor":"#FF9903","textColor":"#FFFFFF"}]}],"geniusPrice":null,"geniusUnitPricePerLabel":null,"banner":{"text":"Super preț","textColor":"#FF0000","bgColor":"#FFF2EC","icon":null,"link":"https://www.freshful.ro/oferte/special-produse-vegane-mar23","type":"promo","analyticsEventType":"select_promotion","analyticsEventPayload":{"promotion_id":"special-produse-vegane-mar23","promotion_name":"Și bun, și de post"}},"discountLabel":"Economisești 19%","geniusDiscountLabel":null,"badge":null},{"code":"100001454","variantCode":"5941132009354","name":"Batoane din soia afumate în saramură 350g","slug":"100001454-inedit-batoane-din-soia-afumate-in-saramura-350g","unitPriceLabel":"37,11 Lei/kg","brand":"Inedit","brandCode":"60","brandFilterCode":"inedit-b57","sku":"100001454","price":12.99,"originalPrice":15.49,"currencyCode":"RON","currency":"Lei","image":{"thumbnail":{"default":"https://cdn.freshful.ro/media/cache/sylius_shop_product_thumbnail/47/06/b411bbb302273877c4e9ebaed261.jpg"},"large":{"default":"https://cdn.freshful.ro/media/cache/freshful_large/47/06/b411bbb302273877c4e9ebaed261.jpg"},"extralarge":{"default":"https://cdn.freshful.ro/media/cache/sylius_shop_product_original/47/06/b411bbb302273877c4e9ebaed261.jpg"}},"label":{"text":"-16%","backgroundColor":"#FF9903","textColor":"#FFFFFF"},"tags":[{"type":"vegan","text":"Vegan","icon":"https://cdn.freshful.ro/assets/product_tags/vegan.svg","iconPng":"https://cdn.freshful.ro/assets/product_tags/vegan.png","backgroundColor":"#ECF9F8","textColor":"#33A39C"}],"isAvailable":true,"maxAvailableQuantity":35,"maxAllowedQuantity":100,"breadcrumbs":[{"code":"10","name":"Dietetic, ECO & internațional","slug":"10-dietetic-bio-si-international"},{"code":"1002","name":"Produse dietetice și naturiste","slug":"1002-produse-dietetice-si-naturiste"},{"code":"100206","name":"Produse din soia","slug":"100206-produse-din-soia"},{"code":"100001454","name":"Batoane din soia afumate în saramură 350g","slug":"100001454-inedit-batoane-din-soia-afumate-in-saramura-350g"}],"activePromotion":{"code":"special-produse-vegane-mar23","name":"Preț redus","targetQuantity":null},"saveMe":null,"labels":[{"type":"v1","items":[{"text":"-16%","backgroundColor":"#FF9903","textColor":"#FFFFFF"}]}],"geniusPrice":null,"geniusUnitPricePerLabel":null,"banner":{"text":"Super preț","textColor":"#FF0000","bgColor":"#FFF2EC","icon":null,"link":"https://www.freshful.ro/oferte/special-produse-vegane-mar23","type":"promo","analyticsEventType":"select_promotion","analyticsEventPayload":{"promotion_id":"special-produse-vegane-mar23","promotion_name":"Și bun, și de post"}},"discountLabel":"Economisești 16%","geniusDiscountLabel":null,"badge":null},{"code":"100143465","variantCode":"100143465","name":"Înlocuitor vegan pentru ouă - copt și gătit 128g","slug":"100143465-veggs-inlocuitor-vegan-pentru-oua-copt-si-gatit-128g","unitPriceLabel":"124,92 Lei/kg","brand":"Veggs","brandCode":"2776","brandFilterCode":"veggs-b2850","sku":"100143465","price":15.99,"originalPrice":18.49,"currencyCode":"RON","currency":"Lei","image":{"thumbnail":{"default":"https://cdn.freshful.ro/media/cache/sylius_shop_product_thumbnail/b1/aa/4b669ba8d3dfe60ee61c76292d0f.jpg"},"large":{"default":"https://cdn.freshful.ro/media/cache/freshful_large/b1/aa/4b669ba8d3dfe60ee61c76292d0f.jpg"},"extralarge":{"default":"https://cdn.freshful.ro/media/cache/sylius_shop_product_original/b1/aa/4b669ba8d3dfe60ee61c76292d0f.jpg"}},"label":{"text":"-13%","backgroundColor":"#FF9903","textColor":"#FFFFFF"},"tags":[{"type":"vegan","text":"Vegan","icon":"https://cdn.freshful.ro/assets/product_tags/vegan.svg","iconPng":"https://cdn.freshful.ro/assets/product_tags/vegan.png","backgroundColor":"#ECF9F8","textColor":"#33A39C"},{"type":"Natural","text":"Natural","icon":"https://cdn.freshful.ro/assets/product_tags/natural.svg","iconPng":"https://cdn.freshful.ro/assets/product_tags/natural.png","backgroundColor":"#E9FCF2","textColor":"#18AF62"},{"type":"NoGluten","text":"Fara gluten","icon":"https://cdn.freshful.ro/assets/product_tags/fara_gluten.svg","iconPng":"https://cdn.freshful.ro/assets/product_tags/fara_gluten.png","backgroundColor":"#FFF2E5","textColor":"#F07900"}],"isAvailable":true,"maxAvailableQuantity":30,"maxAllowedQuantity":100,"breadcrumbs":[{"code":"10","name":"Dietetic, ECO & internațional","slug":"10-dietetic-bio-si-international"},{"code":"1002","name":"Produse dietetice și naturiste","slug":"1002-produse-dietetice-si-naturiste"},{"code":"100206","name":"Produse din soia","slug":"100206-produse-din-soia"},{"code":"100143465","name":"Înlocuitor vegan pentru ouă - copt și gătit 128g","slug":"100143465-veggs-inlocuitor-vegan-pentru-oua-copt-si-gatit-128g"}],"activePromotion":{"code":"special-produse-vegane-mar23","name":"Preț redus","targetQuantity":null},"saveMe":null,"labels":[{"type":"v1","items":[{"text":"-13%","backgroundColor":"#FF9903","textColor":"#FFFFFF"}]}],"geniusPrice":null,"geniusUnitPricePerLabel":null,"banner":{"text":"Super preț","textColor":"#FF0000","bgColor":"#FFF2EC","icon":null,"link":"https://www.freshful.ro/oferte/special-produse-vegane-mar23","type":"promo","analyticsEventType":"select_promotion","analyticsEventPayload":{"promotion_id":"special-produse-vegane-mar23","promotion_name":"Și bun, și de post"}},"discountLabel":"Economisești 13%","geniusDiscountLabel":null,"badge":null},{"code":"100143467","variantCode":"100143467","name":"Înlocuitor pentru carne tocată necondimentat 150g","slug":"100143467-no-brand-inlocuitor-pentru-carne-tocata-necondimentat-150g","unitPriceLabel":"119,93 Lei/kg","brand":"Cultured Foods","brandCode":"2777","brandFilterCode":"cultured-foods-b2851","sku":"100143467","price":17.99,"originalPrice":21.99,"currencyCode":"RON","currency":"Lei","image":{"thumbnail":{"default":"https://cdn.freshful.ro/media/cache/sylius_shop_product_thumbnail/1b/da/44a056f5e8a9680a6d728ed04b48.jpg"},"large":{"default":"https://cdn.freshful.ro/media/cache/freshful_large/1b/da/44a056f5e8a9680a6d728ed04b48.jpg"},"extralarge":{"default":"https://cdn.freshful.ro/media/cache/sylius_shop_product_original/1b/da/44a056f5e8a9680a6d728ed04b48.jpg"}},"label":{"text":"-18%","backgroundColor":"#FF9903","textColor":"#FFFFFF"},"tags":[{"type":"vegan","text":"Vegan","icon":"https://cdn.freshful.ro/assets/product_tags/vegan.svg","iconPng":"https://cdn.freshful.ro/assets/product_tags/vegan.png","backgroundColor":"#ECF9F8","textColor":"#33A39C"},{"type":"Natural","text":"Natural","icon":"https://cdn.freshful.ro/assets/product_tags/natural.svg","iconPng":"https://cdn.freshful.ro/assets/product_tags/natural.png","backgroundColor":"#E9FCF2","textColor":"#18AF62"},{"type":"NoGluten","text":"Fara gluten","icon":"https://cdn.freshful.ro/assets/product_tags/fara_gluten.svg","iconPng":"https://cdn.freshful.ro/assets/product_tags/fara_gluten.png","backgroundColor":"#FFF2E5","textColor":"#F07900"}],"isAvailable":true,"maxAvailableQuantity":23,"maxAllowedQuantity":100,"breadcrumbs":[{"code":"10","name":"Dietetic, ECO & internațional","slug":"10-dietetic-bio-si-international"},{"code":"1002","name":"Produse dietetice și naturiste","slug":"1002-produse-dietetice-si-naturiste"},{"code":"100206","name":"Produse din soia","slug":"100206-produse-din-soia"},{"code":"100143467","name":"Înlocuitor pentru carne tocată necondimentat 150g","slug":"100143467-no-brand-inlocuitor-pentru-carne-tocata-necondimentat-150g"}],"activePromotion":{"code":"special-produse-vegane-mar23","name":"Preț redus","targetQuantity":null},"saveMe":null,"labels":[{"type":"v1","items":[{"text":"-18%","backgroundColor":"#FF9903","textColor":"#FFFFFF"}]}],"geniusPrice":null,"geniusUnitPricePerLabel":null,"banner":{"text":"Super preț","textColor":"#FF0000","bgColor":"#FFF2EC","icon":null,"link":"https://www.freshful.ro/oferte/special-produse-vegane-mar23","type":"promo","analyticsEventType":"select_promotion","analyticsEventPayload":{"promotion_id":"special-produse-vegane-mar23","promotion_name":"Și bun, și de post"}},"discountLabel":"Economisești 18%","geniusDiscountLabel":null,"badge":null},{"code":"100143470","variantCode":"100143470","name":"Înlocuitor carne tocată pentru Bolognese 200g","slug":"100143470-no-brand-inlocuitor-carne-tocata-pentru-bolognese-200g","unitPriceLabel":"89,95 Lei/kg","brand":"Cultured Foods","brandCode":"2777","brandFilterCode":"cultured-foods-b2851","sku":"100143470","price":17.99,"originalPrice":21.99,"currencyCode":"RON","currency":"Lei","image":{"thumbnail":{"default":"https://cdn.freshful.ro/media/cache/sylius_shop_product_thumbnail/a8/f7/0853e6ab429f4ebb5ef602a5c74c.jpg"},"large":{"default":"https://cdn.freshful.ro/media/cache/freshful_large/a8/f7/0853e6ab429f4ebb5ef602a5c74c.jpg"},"extralarge":{"default":"https://cdn.freshful.ro/media/cache/sylius_shop_product_original/a8/f7/0853e6ab429f4ebb5ef602a5c74c.jpg"}},"label":{"text":"-18%","backgroundColor":"#FF9903","textColor":"#FFFFFF"},"tags":[{"type":"vegan","text":"Vegan","icon":"https://cdn.freshful.ro/assets/product_tags/vegan.svg","iconPng":"https://cdn.freshful.ro/assets/product_tags/vegan.png","backgroundColor":"#ECF9F8","textColor":"#33A39C"},{"type":"NoGluten","text":"Fara gluten","icon":"https://cdn.freshful.ro/assets/product_tags/fara_gluten.svg","iconPng":"https://cdn.freshful.ro/assets/product_tags/fara_gluten.png","backgroundColor":"#FFF2E5","textColor":"#F07900"},{"type":"Natural","text":"Natural","icon":"https://cdn.freshful.ro/assets/product_tags/natural.svg","iconPng":"https://cdn.freshful.ro/assets/product_tags/natural.png","backgroundColor":"#E9FCF2","textColor":"#18AF62"}],"isAvailable":true,"maxAvailableQuantity":6,"maxAllowedQuantity":100,"breadcrumbs":[{"code":"10","name":"Dietetic, ECO & internațional","slug":"10-dietetic-bio-si-international"},{"code":"1002","name":"Produse dietetice și naturiste","slug":"1002-produse-dietetice-si-naturiste"},{"code":"100206","name":"Produse din soia","slug":"100206-produse-din-soia"},{"code":"100143470","name":"Înlocuitor carne tocată pentru Bolognese 200g","slug":"100143470-no-brand-inlocuitor-carne-tocata-pentru-bolognese-200g"}],"activePromotion":{"code":"special-produse-vegane-mar23","name":"Preț redus","targetQuantity":null},"saveMe":null,"labels":[{"type":"v1","items":[{"text":"-18%","backgroundColor":"#FF9903","textColor":"#FFFFFF"}]}],"geniusPrice":null,"geniusUnitPricePerLabel":null,"banner":{"text":"Super preț","textColor":"#FF0000","bgColor":"#FFF2EC","icon":null,"link":"https://www.freshful.ro/oferte/special-produse-vegane-mar23","type":"promo","analyticsEventType":"select_promotion","analyticsEventPayload":{"promotion_id":"special-produse-vegane-mar23","promotion_name":"Și bun, și de post"}},"discountLabel":"Economisești 18%","geniusDiscountLabel":null,"badge":null},{"code":"100143471","variantCode":"100143471","name":"Mix pentru sos brun vegan 150g","slug":"100143471-no-brand-mix-pentru-sos-brun-vegan-150g","unitPriceLabel":"113,27 Lei/kg","brand":"Cultured Foods","brandCode":"2777","brandFilterCode":"cultured-foods-b2851","sku":"100143471","price":16.99,"originalPrice":19.99,"currencyCode":"RON","currency":"Lei","image":{"thumbnail":{"default":"https://cdn.freshful.ro/media/cache/sylius_shop_product_thumbnail/a8/26/56cd5d7a39d458c4f234aa810c70.jpg"},"large":{"default":"https://cdn.freshful.ro/media/cache/freshful_large/a8/26/56cd5d7a39d458c4f234aa810c70.jpg"},"extralarge":{"default":"https://cdn.freshful.ro/media/cache/sylius_shop_product_original/a8/26/56cd5d7a39d458c4f234aa810c70.jpg"}},"label":{"text":"-15%","backgroundColor":"#FF9903","textColor":"#FFFFFF"},"tags":[{"type":"vegan","text":"Vegan","icon":"https://cdn.freshful.ro/assets/product_tags/vegan.svg","iconPng":"https://cdn.freshful.ro/assets/product_tags/vegan.png","backgroundColor":"#ECF9F8","textColor":"#33A39C"},{"type":"Natural","text":"Natural","icon":"https://cdn.freshful.ro/assets/product_tags/natural.svg","iconPng":"https://cdn.freshful.ro/assets/product_tags/natural.png","backgroundColor":"#E9FCF2","textColor":"#18AF62"},{"type":"NoGluten","text":"Fara gluten","icon":"https://cdn.freshful.ro/assets/product_tags/fara_gluten.svg","iconPng":"https://cdn.freshful.ro/assets/product_tags/fara_gluten.png","backgroundColor":"#FFF2E5","textColor":"#F07900"}],"isAvailable":true,"maxAvailableQuantity":12,"maxAllowedQuantity":100,"breadcrumbs":[{"code":"10","name":"Dietetic, ECO & internațional","slug":"10-dietetic-bio-si-international"},{"code":"1002","name":"Produse dietetice și naturiste","slug":"1002-produse-dietetice-si-naturiste"},{"code":"100206","name":"Produse din soia","slug":"100206-produse-din-soia"},{"code":"100143471","name":"Mix pentru sos brun vegan 150g","slug":"100143471-no-brand-mix-pentru-sos-brun-vegan-150g"}],"activePromotion":{"code":"special-produse-vegane-mar23","name":"Preț redus","targetQuantity":null},"saveMe":null,"labels":[{"type":"v1","items":[{"text":"-15%","backgroundColor":"#FF9903","textColor":"#FFFFFF"}]}],"geniusPrice":null,"geniusUnitPricePerLabel":null,"banner":{"text":"Super preț","textColor":"#FF0000","bgColor":"#FFF2EC","icon":null,"link":"https://www.freshful.ro/oferte/special-produse-vegane-mar23","type":"promo","analyticsEventType":"select_promotion","analyticsEventPayload":{"promotion_id":"special-produse-vegane-mar23","promotion_name":"Și bun, și de post"}},"discountLabel":"Economisești 15%","geniusDiscountLabel":null,"badge":null}],"filters":{"countSelected":0,"items":[{"code":"promotion","name":"Promoții","countSelected":0,"values":[{"code":"special-produse-vegane-mar23","name":"Și bun, și de post","isSelected":false,"count":15}]},{"code":"brand","name":"Brand","countSelected":0,"values":[{"code":"bauckhof-b685","name":"Bauckhof","isSelected":false,"count":1},{"code":"cultured-foods-b2851","name":"Cultured Foods","isSelected":false,"count":5},{"code":"cereal-bio-b684","name":"Céréal Bio","isSelected":false,"count":1},{"code":"inedit-b57","name":"Inedit","isSelected":false,"count":8},{"code":"sanovita-b483","name":"Sanovita","isSelected":false,"count":1},{"code":"veggs-b2850","name":"Veggs","isSelected":false,"count":3}]},{"code":"diet_lifestyle","name":"Dietă și lifestyle","countSelected":0,"values":[{"code":"eco-a83","name":"Eco","isSelected":false,"count":2},{"code":"fara-gluten-a16","name":"Fara gluten","isSelected":false,"count":8},{"code":"fara-lactoza-a38","name":"Fara lactoza","isSelected":false,"count":2},{"code":"fara-zahar-adaugat-a29","name":"Fara zahar adaugat","isSelected":false,"count":1},{"code":"natural-a27","name":"Natural","isSelected":false,"count":8},{"code":"vegan-a24","name":"Vegan","isSelected":false,"count":19}]}]},"orderBy":[{"field":"price","direction":"asc","name":"Preț crescător","isSelected":false},{"field":"price","direction":"desc","name":"Preț descrescător","isSelected":false},{"field":"popularity","direction":"desc","name":"Cele mai populare","isSelected":true},{"field":"category","direction":"asc","name":"Categorie","isSelected":false}],"metaTitle":"Produse din soia - Gamă variată","metaDescription":"Vrei Produse din soia? Alege dintr-o gamă variată. Comanzi simplu și ai livrare rapidă, calitate și prospețime. Hai pe Freshful.ro","metaKeywords":null,"banners":[]}}