{"type":"subcategory","payload":{"analyticsListId":"category_100202-produse-fara-zahar","analyticsListName":"Category - Produse fără zahăr","name":"Produse fără zahăr","slug":"100202-produse-fara-zahar","image":null,"breadcrumbs":[{"code":"10","name":"Dietetic, ECO & internațional","slug":"10-dietetic-bio-si-international"},{"code":"1002","name":"Produse dietetice și naturiste","slug":"1002-produse-dietetice-si-naturiste"},{"code":"100202","name":"Produse fără zahăr","slug":"100202-produse-fara-zahar"}],"slots":[],"page":1,"limit":10,"pages":11,"count":107,"siblings":[{"name":"Produse ecologice","slug":"1001-produse-ecologice","selected":false},{"name":"Produse dietetice și naturiste","slug":"1002-produse-dietetice-si-naturiste","selected":true},{"name":"Suplimente alimentare","slug":"1003-suplimente-alimentare","selected":false},{"name":"Produse internaționale","slug":"1004-bucatarie-internationala","selected":false}],"children":[{"name":"Toate produsele","slug":"1002-produse-dietetice-si-naturiste","selected":false},{"name":"Produse fără gluten","slug":"100201-produse-fara-gluten","selected":false},{"name":"Produse fără zahăr","slug":"100202-produse-fara-zahar","selected":true},{"name":"Îndulcitori","slug":"100203-indulcitori","selected":false},{"name":"Diete pentru slăbit","slug":"100204-diete-de-slabit","selected":false},{"name":"Diete sportive","slug":"100205-diete-sportive","selected":false},{"name":"Produse din soia","slug":"100206-produse-din-soia","selected":false}],"products":[{"code":"100075559","variantCode":"8710277720410","name":"Compot de ananas fără zahăr 340g","slug":"100075559-aarts-compot-de-ananas-fara-zahar-340g","unitPriceLabel":"44,09 Lei/kg","brand":"Aarts","brandCode":"971","brandFilterCode":"aarts-b985","sku":"100075559","price":14.99,"originalPrice":17.49,"currencyCode":"RON","currency":"Lei","image":{"thumbnail":{"default":"https://cdn.freshful.ro/media/cache/sylius_shop_product_thumbnail/9c/d3/692a25bd519b6ed78d7a822a68e0.jpg"},"large":{"default":"https://cdn.freshful.ro/media/cache/freshful_large/9c/d3/692a25bd519b6ed78d7a822a68e0.jpg"},"extralarge":{"default":"https://cdn.freshful.ro/media/cache/sylius_shop_product_original/9c/d3/692a25bd519b6ed78d7a822a68e0.jpg"}},"label":{"text":"-14%","backgroundColor":"#FF9903","textColor":"#FFFFFF"},"tags":[{"type":"NoAddedSugar","text":"Fara zahar adaugat","icon":"https://cdn.freshful.ro/assets/product_tags/fara_zahar_adaugat.svg","iconPng":"https://cdn.freshful.ro/assets/product_tags/fara_zahar_adaugat.png","backgroundColor":"#F8EDF7","textColor":"#C05EBC"}],"isAvailable":true,"maxAvailableQuantity":100,"maxAllowedQuantity":100,"breadcrumbs":[{"code":"10","name":"Dietetic, ECO & internațional","slug":"10-dietetic-bio-si-international"},{"code":"1002","name":"Produse dietetice și naturiste","slug":"1002-produse-dietetice-si-naturiste"},{"code":"100202","name":"Produse fără zahăr","slug":"100202-produse-fara-zahar"},{"code":"100075559","name":"Compot de ananas fără zahăr 340g","slug":"100075559-aarts-compot-de-ananas-fara-zahar-340g"}],"activePromotion":{"code":"special-produse-vegane-mar23","name":"Preț redus","targetQuantity":null},"saveMe":null,"labels":[{"type":"v1","items":[{"text":"-14%","backgroundColor":"#FF9903","textColor":"#FFFFFF"}]}],"geniusPrice":null,"geniusUnitPricePerLabel":null,"banner":{"text":"Super preț","textColor":"#FF0000","bgColor":"#FFF2EC","icon":null,"link":"https://www.freshful.ro/oferte/special-produse-vegane-mar23","type":"promo","analyticsEventType":"select_promotion","analyticsEventPayload":{"promotion_id":"special-produse-vegane-mar23","promotion_name":"Și bun, și de post"}},"discountLabel":"Economisești 14%","geniusDiscountLabel":null,"badge":null},{"code":"100075560","variantCode":"8710277719414","name":"Compot de piersici fără zahăr 340g","slug":"100075560-aarts-compot-de-piersici-fara-zahar-340g","unitPriceLabel":"42,83 Lei/kg","brand":"Aarts","brandCode":"971","brandFilterCode":"aarts-b985","sku":"100075560","price":14.99,"originalPrice":18.49,"currencyCode":"RON","currency":"Lei","image":{"thumbnail":{"default":"https://cdn.freshful.ro/media/cache/sylius_shop_product_thumbnail/a5/97/bd0301b127269be656e9e745cca9.jpg"},"large":{"default":"https://cdn.freshful.ro/media/cache/freshful_large/a5/97/bd0301b127269be656e9e745cca9.jpg"},"extralarge":{"default":"https://cdn.freshful.ro/media/cache/sylius_shop_product_original/a5/97/bd0301b127269be656e9e745cca9.jpg"}},"label":{"text":"-18%","backgroundColor":"#FF9903","textColor":"#FFFFFF"},"tags":[{"type":"NoAddedSugar","text":"Fara zahar adaugat","icon":"https://cdn.freshful.ro/assets/product_tags/fara_zahar_adaugat.svg","iconPng":"https://cdn.freshful.ro/assets/product_tags/fara_zahar_adaugat.png","backgroundColor":"#F8EDF7","textColor":"#C05EBC"}],"isAvailable":true,"maxAvailableQuantity":100,"maxAllowedQuantity":100,"breadcrumbs":[{"code":"10","name":"Dietetic, ECO & internațional","slug":"10-dietetic-bio-si-international"},{"code":"1002","name":"Produse dietetice și naturiste","slug":"1002-produse-dietetice-si-naturiste"},{"code":"100202","name":"Produse fără zahăr","slug":"100202-produse-fara-zahar"},{"code":"100075560","name":"Compot de piersici fără zahăr 340g","slug":"100075560-aarts-compot-de-piersici-fara-zahar-340g"}],"activePromotion":{"code":"special-produse-vegane-mar23","name":"Preț redus","targetQuantity":null},"saveMe":null,"labels":[{"type":"v1","items":[{"text":"-18%","backgroundColor":"#FF9903","textColor":"#FFFFFF"}]}],"geniusPrice":null,"geniusUnitPricePerLabel":null,"banner":{"text":"Super preț","textColor":"#FF0000","bgColor":"#FFF2EC","icon":null,"link":"https://www.freshful.ro/oferte/special-produse-vegane-mar23","type":"promo","analyticsEventType":"select_promotion","analyticsEventPayload":{"promotion_id":"special-produse-vegane-mar23","promotion_name":"Și bun, și de post"}},"discountLabel":"Economisești 18%","geniusDiscountLabel":null,"badge":null},{"code":"100075561","variantCode":"8710277722483","name":"Compot de vișine fără zahăr 350g","slug":"100075561-aarts-compot-de-visine-fara-zahar-350g","unitPriceLabel":"37,11 Lei/kg","brand":"Aarts","brandCode":"971","brandFilterCode":"aarts-b985","sku":"100075561","price":12.99,"originalPrice":16.99,"currencyCode":"RON","currency":"Lei","image":{"thumbnail":{"default":"https://cdn.freshful.ro/media/cache/sylius_shop_product_thumbnail/85/61/c090da74fbf5e74c04938325070c.jpg"},"large":{"default":"https://cdn.freshful.ro/media/cache/freshful_large/85/61/c090da74fbf5e74c04938325070c.jpg"},"extralarge":{"default":"https://cdn.freshful.ro/media/cache/sylius_shop_product_original/85/61/c090da74fbf5e74c04938325070c.jpg"}},"label":{"text":"-23%","backgroundColor":"#FF9903","textColor":"#FFFFFF"},"tags":[{"type":"NoAddedSugar","text":"Fara zahar adaugat","icon":"https://cdn.freshful.ro/assets/product_tags/fara_zahar_adaugat.svg","iconPng":"https://cdn.freshful.ro/assets/product_tags/fara_zahar_adaugat.png","backgroundColor":"#F8EDF7","textColor":"#C05EBC"}],"isAvailable":true,"maxAvailableQuantity":55,"maxAllowedQuantity":100,"breadcrumbs":[{"code":"10","name":"Dietetic, ECO & internațional","slug":"10-dietetic-bio-si-international"},{"code":"1002","name":"Produse dietetice și naturiste","slug":"1002-produse-dietetice-si-naturiste"},{"code":"100202","name":"Produse fără zahăr","slug":"100202-produse-fara-zahar"},{"code":"100075561","name":"Compot de vișine fără zahăr 350g","slug":"100075561-aarts-compot-de-visine-fara-zahar-350g"}],"activePromotion":{"code":"special-produse-vegane-mar23","name":"Preț redus","targetQuantity":null},"saveMe":null,"labels":[{"type":"v1","items":[{"text":"-23%","backgroundColor":"#FF9903","textColor":"#FFFFFF"}]}],"geniusPrice":null,"geniusUnitPricePerLabel":null,"banner":{"text":"Super preț","textColor":"#FF0000","bgColor":"#FFF2EC","icon":null,"link":"https://www.freshful.ro/oferte/special-produse-vegane-mar23","type":"promo","analyticsEventType":"select_promotion","analyticsEventPayload":{"promotion_id":"special-produse-vegane-mar23","promotion_name":"Și bun, și de post"}},"discountLabel":"Economisești 23%","geniusDiscountLabel":null,"badge":null},{"code":"100139076","variantCode":"100139076","name":"Fulgi de porumb fără zahăr 225g","slug":"100139076-sanovita-fulgi-de-porumb-fara-zahar-225g","unitPriceLabel":"25,73 Lei/kg","brand":"Sanovita","brandCode":"482","brandFilterCode":"sanovita-b483","sku":"100139076","price":5.79,"originalPrice":null,"currencyCode":"RON","currency":"Lei","image":{"thumbnail":{"default":"https://cdn.freshful.ro/media/cache/sylius_shop_product_thumbnail/16/6e/bd8f753d62f1c2b3dca0612ef302.jpg"},"large":{"default":"https://cdn.freshful.ro/media/cache/freshful_large/16/6e/bd8f753d62f1c2b3dca0612ef302.jpg"},"extralarge":{"default":"https://cdn.freshful.ro/media/cache/sylius_shop_product_original/16/6e/bd8f753d62f1c2b3dca0612ef302.jpg"}},"label":null,"tags":[{"type":"NoAddedSugar","text":"Fara zahar adaugat","icon":"https://cdn.freshful.ro/assets/product_tags/fara_zahar_adaugat.svg","iconPng":"https://cdn.freshful.ro/assets/product_tags/fara_zahar_adaugat.png","backgroundColor":"#F8EDF7","textColor":"#C05EBC"}],"isAvailable":true,"maxAvailableQuantity":100,"maxAllowedQuantity":100,"breadcrumbs":[{"code":"10","name":"Dietetic, ECO & internațional","slug":"10-dietetic-bio-si-international"},{"code":"1002","name":"Produse dietetice și naturiste","slug":"1002-produse-dietetice-si-naturiste"},{"code":"100202","name":"Produse fără zahăr","slug":"100202-produse-fara-zahar"},{"code":"100139076","name":"Fulgi de porumb fără zahăr 225g","slug":"100139076-sanovita-fulgi-de-porumb-fara-zahar-225g"}],"activePromotion":null,"saveMe":null,"labels":[],"geniusPrice":null,"geniusUnitPricePerLabel":null,"banner":null,"discountLabel":null,"geniusDiscountLabel":null,"badge":null},{"code":"100097426","variantCode":"100097426","name":"Biscuiți cu fibre fără zahăr 170g","slug":"100097426-gullon-biscuiti-cu-fibre-fara-zahar-170g","unitPriceLabel":"56,41 Lei/kg","brand":"Gullon","brandCode":"1531","brandFilterCode":"gullon-b1535","sku":"100097426","price":9.59,"originalPrice":null,"currencyCode":"RON","currency":"Lei","image":{"thumbnail":{"default":"https://cdn.freshful.ro/media/cache/sylius_shop_product_thumbnail/51/57/cb2c12b50dcd60989352c389e457.jpg"},"large":{"default":"https://cdn.freshful.ro/media/cache/freshful_large/51/57/cb2c12b50dcd60989352c389e457.jpg"},"extralarge":{"default":"https://cdn.freshful.ro/media/cache/sylius_shop_product_original/51/57/cb2c12b50dcd60989352c389e457.jpg"}},"label":null,"tags":[{"type":"NoAddedSugar","text":"Fara zahar adaugat","icon":"https://cdn.freshful.ro/assets/product_tags/fara_zahar_adaugat.svg","iconPng":"https://cdn.freshful.ro/assets/product_tags/fara_zahar_adaugat.png","backgroundColor":"#F8EDF7","textColor":"#C05EBC"},{"type":"Vegetarian","text":"Vegetarian","icon":"https://cdn.freshful.ro/assets/product_tags/vegetarian.svg","iconPng":"https://cdn.freshful.ro/assets/product_tags/vegetarian.png","backgroundColor":"#FAEAEE","textColor":"#B26275"}],"isAvailable":true,"maxAvailableQuantity":100,"maxAllowedQuantity":100,"breadcrumbs":[{"code":"10","name":"Dietetic, ECO & internațional","slug":"10-dietetic-bio-si-international"},{"code":"1002","name":"Produse dietetice și naturiste","slug":"1002-produse-dietetice-si-naturiste"},{"code":"100202","name":"Produse fără zahăr","slug":"100202-produse-fara-zahar"},{"code":"100097426","name":"Biscuiți cu fibre fără zahăr 170g","slug":"100097426-gullon-biscuiti-cu-fibre-fara-zahar-170g"}],"activePromotion":null,"saveMe":null,"labels":[],"geniusPrice":null,"geniusUnitPricePerLabel":null,"banner":null,"discountLabel":null,"geniusDiscountLabel":null,"badge":null},{"code":"100126065","variantCode":"100126065","name":"Napolitane cremă alune fără zahăr 45g","slug":"100126065-isostar-napolitane-crema-alune-fara-zahar-45g","unitPriceLabel":"90,89 Lei/kg","brand":"Lago","brandCode":"1708","brandFilterCode":"lago-b1714","sku":"100126065","price":4.09,"originalPrice":null,"currencyCode":"RON","currency":"Lei","image":{"thumbnail":{"default":"https://cdn.freshful.ro/media/cache/sylius_shop_product_thumbnail/b9/3d/b391e638e46d9681afd1dafc9b87.jpg"},"large":{"default":"https://cdn.freshful.ro/media/cache/freshful_large/b9/3d/b391e638e46d9681afd1dafc9b87.jpg"},"extralarge":{"default":"https://cdn.freshful.ro/media/cache/sylius_shop_product_original/b9/3d/b391e638e46d9681afd1dafc9b87.jpg"}},"label":null,"tags":[{"type":"NoAddedSugar","text":"Fara zahar adaugat","icon":"https://cdn.freshful.ro/assets/product_tags/fara_zahar_adaugat.svg","iconPng":"https://cdn.freshful.ro/assets/product_tags/fara_zahar_adaugat.png","backgroundColor":"#F8EDF7","textColor":"#C05EBC"}],"isAvailable":true,"maxAvailableQuantity":100,"maxAllowedQuantity":100,"breadcrumbs":[{"code":"10","name":"Dietetic, ECO & internațional","slug":"10-dietetic-bio-si-international"},{"code":"1002","name":"Produse dietetice și naturiste","slug":"1002-produse-dietetice-si-naturiste"},{"code":"100202","name":"Produse fără zahăr","slug":"100202-produse-fara-zahar"},{"code":"100126065","name":"Napolitane cremă alune fără zahăr 45g","slug":"100126065-isostar-napolitane-crema-alune-fara-zahar-45g"}],"activePromotion":null,"saveMe":null,"labels":[],"geniusPrice":null,"geniusUnitPricePerLabel":null,"banner":null,"discountLabel":null,"geniusDiscountLabel":null,"badge":null},{"code":"100105036","variantCode":"100105036","name":"Napolitană cu cremă de cacao fără zahăr 45g","slug":"100105036-lago-napolitana-cu-crema-de-cacao-fara-zahar-45g","unitPriceLabel":"90,89 Lei/kg","brand":"Lago","brandCode":"1708","brandFilterCode":"lago-b1714","sku":"100105036","price":4.09,"originalPrice":null,"currencyCode":"RON","currency":"Lei","image":{"thumbnail":{"default":"https://cdn.freshful.ro/media/cache/sylius_shop_product_thumbnail/32/cf/c2091b3d72b5470935bfcfd99e8e.jpg"},"large":{"default":"https://cdn.freshful.ro/media/cache/freshful_large/32/cf/c2091b3d72b5470935bfcfd99e8e.jpg"},"extralarge":{"default":"https://cdn.freshful.ro/media/cache/sylius_shop_product_original/32/cf/c2091b3d72b5470935bfcfd99e8e.jpg"}},"label":null,"tags":[{"type":"NoAddedSugar","text":"Fara zahar adaugat","icon":"https://cdn.freshful.ro/assets/product_tags/fara_zahar_adaugat.svg","iconPng":"https://cdn.freshful.ro/assets/product_tags/fara_zahar_adaugat.png","backgroundColor":"#F8EDF7","textColor":"#C05EBC"}],"isAvailable":true,"maxAvailableQuantity":100,"maxAllowedQuantity":100,"breadcrumbs":[{"code":"10","name":"Dietetic, ECO & internațional","slug":"10-dietetic-bio-si-international"},{"code":"1002","name":"Produse dietetice și naturiste","slug":"1002-produse-dietetice-si-naturiste"},{"code":"100202","name":"Produse fără zahăr","slug":"100202-produse-fara-zahar"},{"code":"100105036","name":"Napolitană cu cremă de cacao fără zahăr 45g","slug":"100105036-lago-napolitana-cu-crema-de-cacao-fara-zahar-45g"}],"activePromotion":null,"saveMe":null,"labels":[],"geniusPrice":null,"geniusUnitPricePerLabel":null,"banner":null,"discountLabel":null,"geniusDiscountLabel":null,"badge":null},{"code":"100097004","variantCode":"100097004","name":"Biscuiți cu iaurt fără zahăr 100g","slug":"100097004-misura-biscuiti-cu-iaurt-fara-zahar-100g","unitPriceLabel":"53,9 Lei/kg","brand":"Misura","brandCode":"1492","brandFilterCode":"misura-b1496","sku":"100097004","price":5.39,"originalPrice":null,"currencyCode":"RON","currency":"Lei","image":{"thumbnail":{"default":"https://cdn.freshful.ro/media/cache/sylius_shop_product_thumbnail/b1/9b/250df27d7beb23a75fbd3bbec15e.jpg"},"large":{"default":"https://cdn.freshful.ro/media/cache/freshful_large/b1/9b/250df27d7beb23a75fbd3bbec15e.jpg"},"extralarge":{"default":"https://cdn.freshful.ro/media/cache/sylius_shop_product_original/b1/9b/250df27d7beb23a75fbd3bbec15e.jpg"}},"label":null,"tags":[{"type":"NoAddedSugar","text":"Fara zahar adaugat","icon":"https://cdn.freshful.ro/assets/product_tags/fara_zahar_adaugat.svg","iconPng":"https://cdn.freshful.ro/assets/product_tags/fara_zahar_adaugat.png","backgroundColor":"#F8EDF7","textColor":"#C05EBC"}],"isAvailable":true,"maxAvailableQuantity":82,"maxAllowedQuantity":100,"breadcrumbs":[{"code":"10","name":"Dietetic, ECO & internațional","slug":"10-dietetic-bio-si-international"},{"code":"1002","name":"Produse dietetice și naturiste","slug":"1002-produse-dietetice-si-naturiste"},{"code":"100202","name":"Produse fără zahăr","slug":"100202-produse-fara-zahar"},{"code":"100097004","name":"Biscuiți cu iaurt fără zahăr 100g","slug":"100097004-misura-biscuiti-cu-iaurt-fara-zahar-100g"}],"activePromotion":null,"saveMe":null,"labels":[],"geniusPrice":null,"geniusUnitPricePerLabel":null,"banner":null,"discountLabel":null,"geniusDiscountLabel":null,"badge":null},{"code":"100105037","variantCode":"100105037","name":"Napolitană cu cremă de alune fără zahăr 213g","slug":"100105037-lago-napolitana-cu-crema-de-alune-fara-zahar-213g","unitPriceLabel":"93,38 Lei/kg","brand":"Lago","brandCode":"1708","brandFilterCode":"lago-b1714","sku":"100105037","price":19.89,"originalPrice":null,"currencyCode":"RON","currency":"Lei","image":{"thumbnail":{"default":"https://cdn.freshful.ro/media/cache/sylius_shop_product_thumbnail/2c/13/ec96a9d65a2ed0afa93f915d1482.jpg"},"large":{"default":"https://cdn.freshful.ro/media/cache/freshful_large/2c/13/ec96a9d65a2ed0afa93f915d1482.jpg"},"extralarge":{"default":"https://cdn.freshful.ro/media/cache/sylius_shop_product_original/2c/13/ec96a9d65a2ed0afa93f915d1482.jpg"}},"label":null,"tags":[{"type":"NoAddedSugar","text":"Fara zahar adaugat","icon":"https://cdn.freshful.ro/assets/product_tags/fara_zahar_adaugat.svg","iconPng":"https://cdn.freshful.ro/assets/product_tags/fara_zahar_adaugat.png","backgroundColor":"#F8EDF7","textColor":"#C05EBC"}],"isAvailable":true,"maxAvailableQuantity":100,"maxAllowedQuantity":100,"breadcrumbs":[{"code":"10","name":"Dietetic, ECO & internațional","slug":"10-dietetic-bio-si-international"},{"code":"1002","name":"Produse dietetice și naturiste","slug":"1002-produse-dietetice-si-naturiste"},{"code":"100202","name":"Produse fără zahăr","slug":"100202-produse-fara-zahar"},{"code":"100105037","name":"Napolitană cu cremă de alune fără zahăr 213g","slug":"100105037-lago-napolitana-cu-crema-de-alune-fara-zahar-213g"}],"activePromotion":null,"saveMe":null,"labels":[],"geniusPrice":null,"geniusUnitPricePerLabel":null,"banner":null,"discountLabel":null,"geniusDiscountLabel":null,"badge":null},{"code":"100086716","variantCode":"100086716","name":"Ketchup neîndulcit 480g","slug":"100086716-tomi-ketchup-neindulcit-480g","unitPriceLabel":"24,79 Lei/kg","brand":"Tomi","brandCode":"260","brandFilterCode":"tomi-b261","sku":"100086716","price":11.9,"originalPrice":null,"currencyCode":"RON","currency":"Lei","image":{"thumbnail":{"default":"https://cdn.freshful.ro/media/cache/sylius_shop_product_thumbnail/10/2a/70c1a6d41b89bceb33dc651f2ed1.jpg"},"large":{"default":"https://cdn.freshful.ro/media/cache/freshful_large/10/2a/70c1a6d41b89bceb33dc651f2ed1.jpg"},"extralarge":{"default":"https://cdn.freshful.ro/media/cache/sylius_shop_product_original/10/2a/70c1a6d41b89bceb33dc651f2ed1.jpg"}},"label":null,"tags":[{"type":"NoAddedSugar","text":"Fara zahar adaugat","icon":"https://cdn.freshful.ro/assets/product_tags/fara_zahar_adaugat.svg","iconPng":"https://cdn.freshful.ro/assets/product_tags/fara_zahar_adaugat.png","backgroundColor":"#F8EDF7","textColor":"#C05EBC"}],"isAvailable":true,"maxAvailableQuantity":73,"maxAllowedQuantity":100,"breadcrumbs":[{"code":"10","name":"Dietetic, ECO & internațional","slug":"10-dietetic-bio-si-international"},{"code":"1002","name":"Produse dietetice și naturiste","slug":"1002-produse-dietetice-si-naturiste"},{"code":"100202","name":"Produse fără zahăr","slug":"100202-produse-fara-zahar"},{"code":"100086716","name":"Ketchup neîndulcit 480g","slug":"100086716-tomi-ketchup-neindulcit-480g"}],"activePromotion":null,"saveMe":null,"labels":[],"geniusPrice":null,"geniusUnitPricePerLabel":null,"banner":null,"discountLabel":null,"geniusDiscountLabel":null,"badge":null}],"filters":{"countSelected":0,"items":[{"code":"promotion","name":"Promoții","countSelected":0,"values":[{"code":"special-produse-vegane-mar23","name":"Și bun, și de post","isSelected":false,"count":3}]},{"code":"brand","name":"Brand","countSelected":0,"values":[{"code":"aarts-b985","name":"Aarts","isSelected":false,"count":4},{"code":"activa-b2712","name":"Activa","isSelected":false,"count":3},{"code":"bio-tradizioni-b854","name":"bio tradizioni","isSelected":false,"count":1},{"code":"biskids-b2711","name":"Biskids","isSelected":false,"count":5},{"code":"bob-snail-b132","name":"Bob Snail","isSelected":false,"count":3},{"code":"damel-b2932","name":"Damel","isSelected":false,"count":2},{"code":"damhert-b1823","name":"Damhert","isSelected":false,"count":4},{"code":"debron-b1824","name":"Debron","isSelected":false,"count":8},{"code":"gerble-b1711","name":"Gerble","isSelected":false,"count":14},{"code":"gerlinea-b1712","name":"Gerlinea","isSelected":false,"count":1},{"code":"goldnutrition-b1999","name":"Goldnutrition","isSelected":false,"count":5},{"code":"gullon-b1535","name":"Gullon","isSelected":false,"count":4},{"code":"ibons-b1828","name":"Ibons","isSelected":false,"count":2},{"code":"lago-b1714","name":"Lago","isSelected":false,"count":4},{"code":"misura-b1496","name":"Misura","isSelected":false,"count":4},{"code":"mixmay-b2719","name":"MIXMAY","isSelected":false,"count":6},{"code":"monteoro-b113","name":"Monteoro","isSelected":false,"count":5},{"code":"niavis-b191","name":"Niavis","isSelected":false,"count":1},{"code":"olympic-b1172","name":"Olympic","isSelected":false,"count":3},{"code":"pivnita-bunicii-b2310","name":"Pivnița Bunicii","isSelected":false,"count":2},{"code":"probios-b930","name":"Probios","isSelected":false,"count":1},{"code":"ricola-b1785","name":"Ricola","isSelected":false,"count":3},{"code":"sanovita-b483","name":"Sanovita","isSelected":false,"count":3},{"code":"silvana-b1548","name":"Silvana","isSelected":false,"count":3},{"code":"sweet-switch-b2838","name":"Sweet Switch","isSelected":false,"count":3},{"code":"tagatesse-b1831","name":"Tagatesse","isSelected":false,"count":1},{"code":"tomi-b261","name":"Tomi","isSelected":false,"count":1},{"code":"vivil-b1822","name":"Vivil","isSelected":false,"count":11}]},{"code":"diet_lifestyle","name":"Dietă și lifestyle","countSelected":0,"values":[{"code":"eco-a83","name":"Eco","isSelected":false,"count":9},{"code":"fara-conservanti-a37","name":"Fara conservanti","isSelected":false,"count":12},{"code":"fara-gluten-a16","name":"Fara gluten","isSelected":false,"count":28},{"code":"fara-lactoza-a38","name":"Fara lactoza","isSelected":false,"count":2},{"code":"fara-zahar-adaugat-a29","name":"Fara zahar adaugat","isSelected":false,"count":100},{"code":"made-in-romania-a85","name":"Made In Romania","isSelected":false,"count":2},{"code":"vegan-a24","name":"Vegan","isSelected":false,"count":16},{"code":"vegetarian-a28","name":"Vegetarian","isSelected":false,"count":1}]}]},"orderBy":[{"field":"price","direction":"asc","name":"Preț crescător","isSelected":false},{"field":"price","direction":"desc","name":"Preț descrescător","isSelected":false},{"field":"popularity","direction":"desc","name":"Cele mai populare","isSelected":true},{"field":"category","direction":"asc","name":"Categorie","isSelected":false}],"metaTitle":"Produse fără zahăr - Gamă variată","metaDescription":"Vrei Produse fără zahăr? Alege dintr-o gamă variată. Comanzi simplu și ai livrare rapidă, calitate și prospețime. Hai pe Freshful.ro","metaKeywords":null,"banners":[]}}