{"type":"subcategory","payload":{"analyticsListId":"category_100201-produse-fara-gluten","analyticsListName":"Category - Produse fără gluten","name":"Produse fără gluten","slug":"100201-produse-fara-gluten","image":null,"breadcrumbs":[{"code":"10","name":"Dietetic, ECO & internațional","slug":"10-dietetic-bio-si-international"},{"code":"1002","name":"Produse dietetice și naturiste","slug":"1002-produse-dietetice-si-naturiste"},{"code":"100201","name":"Produse fără gluten","slug":"100201-produse-fara-gluten"}],"slots":[],"page":1,"limit":10,"pages":15,"count":148,"siblings":[{"name":"Produse ecologice","slug":"1001-produse-ecologice","selected":false},{"name":"Produse dietetice și naturiste","slug":"1002-produse-dietetice-si-naturiste","selected":true},{"name":"Suplimente alimentare","slug":"1003-suplimente-alimentare","selected":false},{"name":"Produse internaționale","slug":"1004-bucatarie-internationala","selected":false}],"children":[{"name":"Toate produsele","slug":"1002-produse-dietetice-si-naturiste","selected":false},{"name":"Produse fără gluten","slug":"100201-produse-fara-gluten","selected":true},{"name":"Produse fără zahăr","slug":"100202-produse-fara-zahar","selected":false},{"name":"Îndulcitori","slug":"100203-indulcitori","selected":false},{"name":"Diete pentru slăbit","slug":"100204-diete-de-slabit","selected":false},{"name":"Diete sportive","slug":"100205-diete-sportive","selected":false},{"name":"Produse din soia","slug":"100206-produse-din-soia","selected":false}],"products":[{"code":"100081547","variantCode":"6426284000613","name":"Fulgi de ovăz ecologici fără gluten 250g","slug":"100081547-niavis-fulgi-de-ovaz-ecologici-fara-gluten-250g","unitPriceLabel":"67,96 Lei/kg","brand":"Niavis","brandCode":"190","brandFilterCode":"niavis-b191","sku":"100081547","price":16.99,"originalPrice":null,"currencyCode":"RON","currency":"Lei","image":{"thumbnail":{"default":"https://cdn.freshful.ro/media/cache/sylius_shop_product_thumbnail/58/49/d3a05c782a8c2b35aeb28f6270ae.jpg"},"large":{"default":"https://cdn.freshful.ro/media/cache/freshful_large/58/49/d3a05c782a8c2b35aeb28f6270ae.jpg"},"extralarge":{"default":"https://cdn.freshful.ro/media/cache/sylius_shop_product_original/58/49/d3a05c782a8c2b35aeb28f6270ae.jpg"}},"label":{"text":"-20% cu Genius","backgroundColor":"#FEF3FA","textColor":"#CD015F"},"tags":[{"type":"vegan","text":"Vegan","icon":"https://cdn.freshful.ro/assets/product_tags/vegan.svg","iconPng":"https://cdn.freshful.ro/assets/product_tags/vegan.png","backgroundColor":"#ECF9F8","textColor":"#33A39C"},{"type":"NoGluten","text":"Fara gluten","icon":"https://cdn.freshful.ro/assets/product_tags/fara_gluten.svg","iconPng":"https://cdn.freshful.ro/assets/product_tags/fara_gluten.png","backgroundColor":"#FFF2E5","textColor":"#F07900"},{"type":"Eco","text":"Eco","icon":"https://cdn.freshful.ro/assets/product_tags/eco.svg","iconPng":"https://cdn.freshful.ro/assets/product_tags/eco.png","backgroundColor":"#EFFBE4","textColor":"#66BB1B"}],"isAvailable":true,"maxAvailableQuantity":69,"maxAllowedQuantity":100,"breadcrumbs":[{"code":"10","name":"Dietetic, ECO & internațional","slug":"10-dietetic-bio-si-international"},{"code":"1002","name":"Produse dietetice și naturiste","slug":"1002-produse-dietetice-si-naturiste"},{"code":"100201","name":"Produse fără gluten","slug":"100201-produse-fara-gluten"},{"code":"100081547","name":"Fulgi de ovăz ecologici fără gluten 250g","slug":"100081547-niavis-fulgi-de-ovaz-ecologici-fara-gluten-250g"}],"activePromotion":null,"saveMe":null,"labels":[{"type":"gdeals","items":[{"text":"","backgroundColor":"","textColor":""}]},{"type":"v3","items":[{"text":"-20% cu Genius","backgroundColor":"#FEF3FA","textColor":"#CD015F"}]}],"geniusPrice":13.59,"geniusUnitPricePerLabel":"54,36 Lei/kg","banner":null,"discountLabel":null,"geniusDiscountLabel":"Economisești 20%","badge":null},{"code":"100135162","variantCode":"100135162","name":"Paste penne eco din orez brun fără gluten 250g","slug":"100135162-dalla-costa-paste-penne-eco-din-orez-brun-fara-gluten-250g","unitPriceLabel":"15,99 Lei/buc","brand":"Dalla Costa","brandCode":"1139","brandFilterCode":"dalla-costa-b1140","sku":"100135162","price":15.99,"originalPrice":null,"currencyCode":"RON","currency":"Lei","image":{"thumbnail":{"default":"https://cdn.freshful.ro/media/cache/sylius_shop_product_thumbnail/a8/e0/82576822882361b5512e9272603a.jpg"},"large":{"default":"https://cdn.freshful.ro/media/cache/freshful_large/a8/e0/82576822882361b5512e9272603a.jpg"},"extralarge":{"default":"https://cdn.freshful.ro/media/cache/sylius_shop_product_original/a8/e0/82576822882361b5512e9272603a.jpg"}},"label":{"text":"Profită acum","backgroundColor":"#FF9903","textColor":"#FFFFFF"},"tags":[{"type":"Eco","text":"Eco","icon":"https://cdn.freshful.ro/assets/product_tags/eco.svg","iconPng":"https://cdn.freshful.ro/assets/product_tags/eco.png","backgroundColor":"#EFFBE4","textColor":"#66BB1B"},{"type":"vegan","text":"Vegan","icon":"https://cdn.freshful.ro/assets/product_tags/vegan.svg","iconPng":"https://cdn.freshful.ro/assets/product_tags/vegan.png","backgroundColor":"#ECF9F8","textColor":"#33A39C"},{"type":"NoGluten","text":"Fara gluten","icon":"https://cdn.freshful.ro/assets/product_tags/fara_gluten.svg","iconPng":"https://cdn.freshful.ro/assets/product_tags/fara_gluten.png","backgroundColor":"#FFF2E5","textColor":"#F07900"}],"isAvailable":true,"maxAvailableQuantity":31,"maxAllowedQuantity":100,"breadcrumbs":[{"code":"10","name":"Dietetic, ECO & internațional","slug":"10-dietetic-bio-si-international"},{"code":"1002","name":"Produse dietetice și naturiste","slug":"1002-produse-dietetice-si-naturiste"},{"code":"100201","name":"Produse fără gluten","slug":"100201-produse-fara-gluten"},{"code":"100135162","name":"Paste penne eco din orez brun fără gluten 250g","slug":"100135162-dalla-costa-paste-penne-eco-din-orez-brun-fara-gluten-250g"}],"activePromotion":{"code":"oferte-bacanie-bauturi-21feb-8mar23","name":"Preț avantajos","targetQuantity":null},"saveMe":null,"labels":[{"type":"v1","items":[{"text":"Profită acum","backgroundColor":"#FF9903","textColor":"#FFFFFF"}]}],"geniusPrice":null,"geniusUnitPricePerLabel":null,"banner":{"text":"Preț avantajos","textColor":"#F95510","bgColor":"#FEF1CD","icon":null,"link":"https://www.freshful.ro/oferte/oferte-bacanie-bauturi-21feb-8mar23","type":"promo","analyticsEventType":"select_promotion","analyticsEventPayload":{"promotion_id":"oferte-bacanie-bauturi-21feb-8mar23","promotion_name":"Cămara cu băuturi și bunătăți"}},"discountLabel":null,"geniusDiscountLabel":null,"badge":null},{"code":"100075626","variantCode":"5902578005218","name":"Mix clătite din mei cu afine fără gluten 71g","slug":"100075626-soligrano-mix-clatite-din-mei-cu-afine-fara-gluten-71g","unitPriceLabel":"112,54 Lei/kg","brand":"Soligrano","brandCode":"981","brandFilterCode":"soligrano-b995","sku":"100075626","price":7.99,"originalPrice":8.99,"currencyCode":"RON","currency":"Lei","image":{"thumbnail":{"default":"https://cdn.freshful.ro/media/cache/sylius_shop_product_thumbnail/d5/2d/1ab0786dcfb6829b3b8b58fe5831.jpg"},"large":{"default":"https://cdn.freshful.ro/media/cache/freshful_large/d5/2d/1ab0786dcfb6829b3b8b58fe5831.jpg"},"extralarge":{"default":"https://cdn.freshful.ro/media/cache/sylius_shop_product_original/d5/2d/1ab0786dcfb6829b3b8b58fe5831.jpg"}},"label":{"text":"-11%","backgroundColor":"#FF9903","textColor":"#FFFFFF"},"tags":[{"type":"NoGluten","text":"Fara gluten","icon":"https://cdn.freshful.ro/assets/product_tags/fara_gluten.svg","iconPng":"https://cdn.freshful.ro/assets/product_tags/fara_gluten.png","backgroundColor":"#FFF2E5","textColor":"#F07900"},{"type":"vegan","text":"Vegan","icon":"https://cdn.freshful.ro/assets/product_tags/vegan.svg","iconPng":"https://cdn.freshful.ro/assets/product_tags/vegan.png","backgroundColor":"#ECF9F8","textColor":"#33A39C"}],"isAvailable":true,"maxAvailableQuantity":30,"maxAllowedQuantity":100,"breadcrumbs":[{"code":"10","name":"Dietetic, ECO & internațional","slug":"10-dietetic-bio-si-international"},{"code":"1002","name":"Produse dietetice și naturiste","slug":"1002-produse-dietetice-si-naturiste"},{"code":"100201","name":"Produse fără gluten","slug":"100201-produse-fara-gluten"},{"code":"100075626","name":"Mix clătite din mei cu afine fără gluten 71g","slug":"100075626-soligrano-mix-clatite-din-mei-cu-afine-fara-gluten-71g"}],"activePromotion":{"code":"special-produse-vegane-mar23","name":"Preț redus","targetQuantity":null},"saveMe":null,"labels":[{"type":"v1","items":[{"text":"-11%","backgroundColor":"#FF9903","textColor":"#FFFFFF"}]}],"geniusPrice":null,"geniusUnitPricePerLabel":null,"banner":{"text":"Super preț","textColor":"#FF0000","bgColor":"#FFF2EC","icon":null,"link":"https://www.freshful.ro/oferte/special-produse-vegane-mar23","type":"promo","analyticsEventType":"select_promotion","analyticsEventPayload":{"promotion_id":"special-produse-vegane-mar23","promotion_name":"Și bun, și de post"}},"discountLabel":"Economisești 11%","geniusDiscountLabel":null,"badge":null},{"code":"100135161","variantCode":"100135161","name":"Paste maccheroni eco din orez fără gluten 250g","slug":"100135161-dalla-costa-paste-maccheroni-eco-din-orez-fara-gluten-250g","unitPriceLabel":"15,99 Lei/buc","brand":"Dalla Costa","brandCode":"1139","brandFilterCode":"dalla-costa-b1140","sku":"100135161","price":15.99,"originalPrice":null,"currencyCode":"RON","currency":"Lei","image":{"thumbnail":{"default":"https://cdn.freshful.ro/media/cache/sylius_shop_product_thumbnail/1d/67/8105a6eb285839fbac06780856e1.jpg"},"large":{"default":"https://cdn.freshful.ro/media/cache/freshful_large/1d/67/8105a6eb285839fbac06780856e1.jpg"},"extralarge":{"default":"https://cdn.freshful.ro/media/cache/sylius_shop_product_original/1d/67/8105a6eb285839fbac06780856e1.jpg"}},"label":{"text":"Profită acum","backgroundColor":"#FF9903","textColor":"#FFFFFF"},"tags":[{"type":"Eco","text":"Eco","icon":"https://cdn.freshful.ro/assets/product_tags/eco.svg","iconPng":"https://cdn.freshful.ro/assets/product_tags/eco.png","backgroundColor":"#EFFBE4","textColor":"#66BB1B"},{"type":"vegan","text":"Vegan","icon":"https://cdn.freshful.ro/assets/product_tags/vegan.svg","iconPng":"https://cdn.freshful.ro/assets/product_tags/vegan.png","backgroundColor":"#ECF9F8","textColor":"#33A39C"},{"type":"NoGluten","text":"Fara gluten","icon":"https://cdn.freshful.ro/assets/product_tags/fara_gluten.svg","iconPng":"https://cdn.freshful.ro/assets/product_tags/fara_gluten.png","backgroundColor":"#FFF2E5","textColor":"#F07900"}],"isAvailable":true,"maxAvailableQuantity":23,"maxAllowedQuantity":100,"breadcrumbs":[{"code":"10","name":"Dietetic, ECO & internațional","slug":"10-dietetic-bio-si-international"},{"code":"1002","name":"Produse dietetice și naturiste","slug":"1002-produse-dietetice-si-naturiste"},{"code":"100201","name":"Produse fără gluten","slug":"100201-produse-fara-gluten"},{"code":"100135161","name":"Paste maccheroni eco din orez fără gluten 250g","slug":"100135161-dalla-costa-paste-maccheroni-eco-din-orez-fara-gluten-250g"}],"activePromotion":{"code":"oferte-bacanie-bauturi-21feb-8mar23","name":"Preț avantajos","targetQuantity":null},"saveMe":null,"labels":[{"type":"v1","items":[{"text":"Profită acum","backgroundColor":"#FF9903","textColor":"#FFFFFF"}]}],"geniusPrice":null,"geniusUnitPricePerLabel":null,"banner":{"text":"Preț avantajos","textColor":"#F95510","bgColor":"#FEF1CD","icon":null,"link":"https://www.freshful.ro/oferte/oferte-bacanie-bauturi-21feb-8mar23","type":"promo","analyticsEventType":"select_promotion","analyticsEventPayload":{"promotion_id":"oferte-bacanie-bauturi-21feb-8mar23","promotion_name":"Cămara cu băuturi și bunătăți"}},"discountLabel":null,"geniusDiscountLabel":null,"badge":null},{"code":"100132893","variantCode":"5900020004697","name":"Fulgi crocanți de porumb Corn Flakes 500g","slug":"100132893-nestle-fulgi-crocanti-de-porumb-corn-flakes-500g","unitPriceLabel":"24,68 Lei/kg","brand":"Nestlé","brandCode":"697","brandFilterCode":"nestle-b698","sku":"100132893","price":12.34,"originalPrice":null,"currencyCode":"RON","currency":"Lei","image":{"thumbnail":{"default":"https://cdn.freshful.ro/media/cache/sylius_shop_product_thumbnail/9d/08/08acb8c3de874b072ec283d4491b.jpg"},"large":{"default":"https://cdn.freshful.ro/media/cache/freshful_large/9d/08/08acb8c3de874b072ec283d4491b.jpg"},"extralarge":{"default":"https://cdn.freshful.ro/media/cache/sylius_shop_product_original/9d/08/08acb8c3de874b072ec283d4491b.jpg"}},"label":null,"tags":[{"type":"NoGluten","text":"Fara gluten","icon":"https://cdn.freshful.ro/assets/product_tags/fara_gluten.svg","iconPng":"https://cdn.freshful.ro/assets/product_tags/fara_gluten.png","backgroundColor":"#FFF2E5","textColor":"#F07900"}],"isAvailable":true,"maxAvailableQuantity":100,"maxAllowedQuantity":100,"breadcrumbs":[{"code":"10","name":"Dietetic, ECO & internațional","slug":"10-dietetic-bio-si-international"},{"code":"1002","name":"Produse dietetice și naturiste","slug":"1002-produse-dietetice-si-naturiste"},{"code":"100201","name":"Produse fără gluten","slug":"100201-produse-fara-gluten"},{"code":"100132893","name":"Fulgi crocanți de porumb Corn Flakes 500g","slug":"100132893-nestle-fulgi-crocanti-de-porumb-corn-flakes-500g"}],"activePromotion":null,"saveMe":null,"labels":[],"geniusPrice":null,"geniusUnitPricePerLabel":null,"banner":null,"discountLabel":null,"geniusDiscountLabel":null,"badge":null},{"code":"100111437","variantCode":"100111437","name":"Porridge fulgi de ovăz integral fără gluten 450g","slug":"100111437-nairn-s-porridge-fulgi-de-ovaz-integral-fara-gluten-450g","unitPriceLabel":"23,9 Lei/buc","brand":"Nairn's","brandCode":"1504","brandFilterCode":"nairn-s-b1508","sku":"100111437","price":23.9,"originalPrice":null,"currencyCode":"RON","currency":"Lei","image":{"thumbnail":{"default":"https://cdn.freshful.ro/media/cache/sylius_shop_product_thumbnail/f8/38/8e2afcf940e6f50fcabf36e7f5bd.jpg"},"large":{"default":"https://cdn.freshful.ro/media/cache/freshful_large/f8/38/8e2afcf940e6f50fcabf36e7f5bd.jpg"},"extralarge":{"default":"https://cdn.freshful.ro/media/cache/sylius_shop_product_original/f8/38/8e2afcf940e6f50fcabf36e7f5bd.jpg"}},"label":null,"tags":[{"type":"NoGluten","text":"Fara gluten","icon":"https://cdn.freshful.ro/assets/product_tags/fara_gluten.svg","iconPng":"https://cdn.freshful.ro/assets/product_tags/fara_gluten.png","backgroundColor":"#FFF2E5","textColor":"#F07900"},{"type":"NoAddedSugar","text":"Fara zahar adaugat","icon":"https://cdn.freshful.ro/assets/product_tags/fara_zahar_adaugat.svg","iconPng":"https://cdn.freshful.ro/assets/product_tags/fara_zahar_adaugat.png","backgroundColor":"#F8EDF7","textColor":"#C05EBC"}],"isAvailable":true,"maxAvailableQuantity":59,"maxAllowedQuantity":100,"breadcrumbs":[{"code":"10","name":"Dietetic, ECO & internațional","slug":"10-dietetic-bio-si-international"},{"code":"1002","name":"Produse dietetice și naturiste","slug":"1002-produse-dietetice-si-naturiste"},{"code":"100201","name":"Produse fără gluten","slug":"100201-produse-fara-gluten"},{"code":"100111437","name":"Porridge fulgi de ovăz integral fără gluten 450g","slug":"100111437-nairn-s-porridge-fulgi-de-ovaz-integral-fara-gluten-450g"}],"activePromotion":null,"saveMe":null,"labels":[],"geniusPrice":null,"geniusUnitPricePerLabel":null,"banner":null,"discountLabel":null,"geniusDiscountLabel":null,"badge":null},{"code":"100096534","variantCode":"100096534","name":"Rondele simple din orez fără gluten 56g","slug":"100096534-sanovita-rondele-simple-din-orez-fara-gluten-56g","unitPriceLabel":"34,82 Lei/kg","brand":"Sanovita","brandCode":"482","brandFilterCode":"sanovita-b483","sku":"100096534","price":1.95,"originalPrice":null,"currencyCode":"RON","currency":"Lei","image":{"thumbnail":{"default":"https://cdn.freshful.ro/media/cache/sylius_shop_product_thumbnail/69/7a/b520b75be5e51b8c60c6e50b94d4.jpg"},"large":{"default":"https://cdn.freshful.ro/media/cache/freshful_large/69/7a/b520b75be5e51b8c60c6e50b94d4.jpg"},"extralarge":{"default":"https://cdn.freshful.ro/media/cache/sylius_shop_product_original/69/7a/b520b75be5e51b8c60c6e50b94d4.jpg"}},"label":null,"tags":[{"type":"vegan","text":"Vegan","icon":"https://cdn.freshful.ro/assets/product_tags/vegan.svg","iconPng":"https://cdn.freshful.ro/assets/product_tags/vegan.png","backgroundColor":"#ECF9F8","textColor":"#33A39C"},{"type":"NoGluten","text":"Fara gluten","icon":"https://cdn.freshful.ro/assets/product_tags/fara_gluten.svg","iconPng":"https://cdn.freshful.ro/assets/product_tags/fara_gluten.png","backgroundColor":"#FFF2E5","textColor":"#F07900"},{"type":"saltFree","text":"Fara sare","icon":"https://cdn.freshful.ro/assets/product_tags/salt_free.svg","iconPng":"https://cdn.freshful.ro/assets/product_tags/salt_free.png","backgroundColor":"#E9F6F1","textColor":"#46AB86"}],"isAvailable":true,"maxAvailableQuantity":100,"maxAllowedQuantity":100,"breadcrumbs":[{"code":"10","name":"Dietetic, ECO & internațional","slug":"10-dietetic-bio-si-international"},{"code":"1002","name":"Produse dietetice și naturiste","slug":"1002-produse-dietetice-si-naturiste"},{"code":"100201","name":"Produse fără gluten","slug":"100201-produse-fara-gluten"},{"code":"100096534","name":"Rondele simple din orez fără gluten 56g","slug":"100096534-sanovita-rondele-simple-din-orez-fara-gluten-56g"}],"activePromotion":null,"saveMe":null,"labels":[],"geniusPrice":null,"geniusUnitPricePerLabel":null,"banner":null,"discountLabel":null,"geniusDiscountLabel":null,"badge":null},{"code":"100082745","variantCode":"705632687925","name":"Sticksuri eco crocante fără gluten 45g","slug":"100082745-bio-junior-sticksuri-eco-crocante-fara-gluten-45g","unitPriceLabel":"122 Lei/kg","brand":"Bio Junior","brandCode":"685","brandFilterCode":"bio-junior-b686","sku":"100082745","price":5.49,"originalPrice":null,"currencyCode":"RON","currency":"Lei","image":{"thumbnail":{"default":"https://cdn.freshful.ro/media/cache/sylius_shop_product_thumbnail/63/c9/e1f15d8dd03858c1df3efe2bcf12.jpg"},"large":{"default":"https://cdn.freshful.ro/media/cache/freshful_large/63/c9/e1f15d8dd03858c1df3efe2bcf12.jpg"},"extralarge":{"default":"https://cdn.freshful.ro/media/cache/sylius_shop_product_original/63/c9/e1f15d8dd03858c1df3efe2bcf12.jpg"}},"label":null,"tags":[{"type":"Eco","text":"Eco","icon":"https://cdn.freshful.ro/assets/product_tags/eco.svg","iconPng":"https://cdn.freshful.ro/assets/product_tags/eco.png","backgroundColor":"#EFFBE4","textColor":"#66BB1B"},{"type":"NoGluten","text":"Fara gluten","icon":"https://cdn.freshful.ro/assets/product_tags/fara_gluten.svg","iconPng":"https://cdn.freshful.ro/assets/product_tags/fara_gluten.png","backgroundColor":"#FFF2E5","textColor":"#F07900"},{"type":"NoPreservatives","text":"Fara conservanti","icon":"https://cdn.freshful.ro/assets/product_tags/fara_conservanti.svg","iconPng":"https://cdn.freshful.ro/assets/product_tags/fara_conservanti.png","backgroundColor":"#F0F2FF","textColor":"#7889DD"}],"isAvailable":true,"maxAvailableQuantity":100,"maxAllowedQuantity":100,"breadcrumbs":[{"code":"10","name":"Dietetic, ECO & internațional","slug":"10-dietetic-bio-si-international"},{"code":"1002","name":"Produse dietetice și naturiste","slug":"1002-produse-dietetice-si-naturiste"},{"code":"100201","name":"Produse fără gluten","slug":"100201-produse-fara-gluten"},{"code":"100082745","name":"Sticksuri eco crocante fără gluten 45g","slug":"100082745-bio-junior-sticksuri-eco-crocante-fara-gluten-45g"}],"activePromotion":null,"saveMe":null,"labels":[],"geniusPrice":null,"geniusUnitPricePerLabel":null,"banner":null,"discountLabel":null,"geniusDiscountLabel":null,"badge":null},{"code":"100132892","variantCode":"5900020025692","name":"Fulgi de porumb cu miere și arahide Corn Flakes 450g","slug":"100132892-nestle-fulgi-de-porumb-cu-miere-si-arahide-corn-flakes-450g","unitPriceLabel":"27,84 Lei/kg","brand":"Nestlé","brandCode":"697","brandFilterCode":"nestle-b698","sku":"100132892","price":12.53,"originalPrice":null,"currencyCode":"RON","currency":"Lei","image":{"thumbnail":{"default":"https://cdn.freshful.ro/media/cache/sylius_shop_product_thumbnail/6d/f3/9a846f2d66483efaa42b3b56d44f.jpg"},"large":{"default":"https://cdn.freshful.ro/media/cache/freshful_large/6d/f3/9a846f2d66483efaa42b3b56d44f.jpg"},"extralarge":{"default":"https://cdn.freshful.ro/media/cache/sylius_shop_product_original/6d/f3/9a846f2d66483efaa42b3b56d44f.jpg"}},"label":null,"tags":[{"type":"NoGluten","text":"Fara gluten","icon":"https://cdn.freshful.ro/assets/product_tags/fara_gluten.svg","iconPng":"https://cdn.freshful.ro/assets/product_tags/fara_gluten.png","backgroundColor":"#FFF2E5","textColor":"#F07900"}],"isAvailable":true,"maxAvailableQuantity":58,"maxAllowedQuantity":100,"breadcrumbs":[{"code":"10","name":"Dietetic, ECO & internațional","slug":"10-dietetic-bio-si-international"},{"code":"1002","name":"Produse dietetice și naturiste","slug":"1002-produse-dietetice-si-naturiste"},{"code":"100201","name":"Produse fără gluten","slug":"100201-produse-fara-gluten"},{"code":"100132892","name":"Fulgi de porumb cu miere și arahide Corn Flakes 450g","slug":"100132892-nestle-fulgi-de-porumb-cu-miere-si-arahide-corn-flakes-450g"}],"activePromotion":null,"saveMe":null,"labels":[],"geniusPrice":null,"geniusUnitPricePerLabel":null,"banner":null,"discountLabel":null,"geniusDiscountLabel":null,"badge":null},{"code":"100080893","variantCode":"100080893","name":"Paste Penne Rigate fără gluten 400g","slug":"100080893-barilla-paste-penne-rigate-fara-gluten-400g","unitPriceLabel":"37,98 Lei/kg","brand":"Barilla","brandCode":"267","brandFilterCode":"barilla-b268","sku":"100080893","price":15.19,"originalPrice":null,"currencyCode":"RON","currency":"Lei","image":{"thumbnail":{"default":"https://cdn.freshful.ro/media/cache/sylius_shop_product_thumbnail/9a/3d/36f7190f1d5a070c0dfea00e59fe.jpg"},"large":{"default":"https://cdn.freshful.ro/media/cache/freshful_large/9a/3d/36f7190f1d5a070c0dfea00e59fe.jpg"},"extralarge":{"default":"https://cdn.freshful.ro/media/cache/sylius_shop_product_original/9a/3d/36f7190f1d5a070c0dfea00e59fe.jpg"}},"label":null,"tags":[{"type":"NoGluten","text":"Fara gluten","icon":"https://cdn.freshful.ro/assets/product_tags/fara_gluten.svg","iconPng":"https://cdn.freshful.ro/assets/product_tags/fara_gluten.png","backgroundColor":"#FFF2E5","textColor":"#F07900"}],"isAvailable":true,"maxAvailableQuantity":48,"maxAllowedQuantity":100,"breadcrumbs":[{"code":"10","name":"Dietetic, ECO & internațional","slug":"10-dietetic-bio-si-international"},{"code":"1002","name":"Produse dietetice și naturiste","slug":"1002-produse-dietetice-si-naturiste"},{"code":"100201","name":"Produse fără gluten","slug":"100201-produse-fara-gluten"},{"code":"100080893","name":"Paste Penne Rigate fără gluten 400g","slug":"100080893-barilla-paste-penne-rigate-fara-gluten-400g"}],"activePromotion":null,"saveMe":null,"labels":[],"geniusPrice":null,"geniusUnitPricePerLabel":null,"banner":null,"discountLabel":null,"geniusDiscountLabel":null,"badge":null}],"filters":{"countSelected":0,"items":[{"code":"promotion","name":"Promoții","countSelected":0,"values":[{"code":"oferte-bacanie-bauturi-21feb-8mar23","name":"Cămara cu băuturi și bunătăți","isSelected":false,"count":2},{"code":"special-produse-vegane-mar23","name":"Și bun, și de post","isSelected":false,"count":1}]},{"code":"brand","name":"Brand","countSelected":0,"values":[{"code":"alaska-b2271","name":"Alaska","isSelected":false,"count":4},{"code":"balviten-b688","name":"Balviten","isSelected":false,"count":4},{"code":"barilla-b268","name":"Barilla","isSelected":false,"count":2},{"code":"bauckhof-b685","name":"Bauckhof","isSelected":false,"count":16},{"code":"bio-junior-b686","name":"Bio Junior","isSelected":false,"count":1},{"code":"biotech-b2273","name":"Biotech","isSelected":false,"count":4},{"code":"dalla-costa-b1140","name":"Dalla Costa","isSelected":false,"count":5},{"code":"damhert-b1823","name":"Damhert","isSelected":false,"count":4},{"code":"debron-b1824","name":"Debron","isSelected":false,"count":1},{"code":"dr-oetker-b51","name":"Dr. Oetker","isSelected":false,"count":2},{"code":"fiorentini-b2272","name":"Fiorentini","isSelected":false,"count":6},{"code":"gerble-b1711","name":"Gerble","isSelected":false,"count":9},{"code":"go-tan-b2455","name":"Go-Tan","isSelected":false,"count":1},{"code":"granoro-b2153","name":"Granoro","isSelected":false,"count":5},{"code":"huxol-b1492","name":"Huxol","isSelected":false,"count":1},{"code":"la-molisana-b654","name":"La Molisana","isSelected":false,"count":1},{"code":"lizi-s-b1514","name":"Lizi's","isSelected":false,"count":1},{"code":"nairn-s-b1508","name":"Nairn's","isSelected":false,"count":1},{"code":"nakd-b1507","name":"Nakd","isSelected":false,"count":7},{"code":"nestle-b698","name":"Nestlé","isSelected":false,"count":2},{"code":"niavis-b191","name":"Niavis","isSelected":false,"count":2},{"code":"panzani-b1688","name":"Panzani","isSelected":false,"count":3},{"code":"probios-b930","name":"Probios","isSelected":false,"count":3},{"code":"rice-rice-b1517","name":"Rice&Rice","isSelected":false,"count":1},{"code":"roobar-b1470","name":"Roobar","isSelected":false,"count":1},{"code":"sanovita-b483","name":"Sanovita","isSelected":false,"count":1},{"code":"schar-b689","name":"Schär","isSelected":false,"count":42},{"code":"semper-b2192","name":"Semper","isSelected":false,"count":17},{"code":"soligrano-b995","name":"Soligrano","isSelected":false,"count":1}]},{"code":"diet_lifestyle","name":"Dietă și lifestyle","countSelected":0,"values":[{"code":"bio-a26","name":"Bio","isSelected":false,"count":1},{"code":"eco-a83","name":"Eco","isSelected":false,"count":36},{"code":"fara-conservanti-a37","name":"Fara conservanti","isSelected":false,"count":2},{"code":"fara-gluten-a16","name":"Fara gluten","isSelected":false,"count":146},{"code":"fara-lactoza-a38","name":"Fara lactoza","isSelected":false,"count":35},{"code":"fara-sare-a52","name":"Fara sare","isSelected":false,"count":1},{"code":"fara-zahar-adaugat-a29","name":"Fara zahar adaugat","isSelected":false,"count":15},{"code":"vegan-a24","name":"Vegan","isSelected":false,"count":21},{"code":"vegetarian-a28","name":"Vegetarian","isSelected":false,"count":3}]}]},"orderBy":[{"field":"price","direction":"asc","name":"Preț crescător","isSelected":false},{"field":"price","direction":"desc","name":"Preț descrescător","isSelected":false},{"field":"popularity","direction":"desc","name":"Cele mai populare","isSelected":true},{"field":"category","direction":"asc","name":"Categorie","isSelected":false}],"metaTitle":"Produse fără gluten - Gamă variată","metaDescription":"Vrei Produse fără gluten? Alege dintr-o gamă variată. Comanzi simplu și ai livrare rapidă, calitate și prospețime. Hai pe Freshful.ro","metaKeywords":null,"banners":[{"name":"Fara lactoza Listing","position":3,"type":"listing","displayOnMobile":true,"image":{"jpg":"https://cdn.freshful.ro/media/image/f5/b2/45391b2e2c45ea7248ca665bf91e.jpg","webp":"https://cdn.freshful.ro/media/image/fd/f7/d406098ac04d22d341c0c972c4a3.webp"},"imageResponsive":{"jpg":"https://cdn.freshful.ro/media/image/bd/b1/46ea82c67f1623f22479ded0f4cd.jpg","webp":"https://cdn.freshful.ro/media/image/52/70/ca9c5eeb7854e1ce62172598b470.webp"},"url":"/l/listing-produse-fara-lactoza"}]}}