{"type":"subcategory","payload":{"analyticsListId":"category_100205-diete-sportive","analyticsListName":"Category - Diete sportive","name":"Diete sportive","slug":"100205-diete-sportive","image":null,"breadcrumbs":[{"code":"10","name":"Dietetic, ECO & internațional","slug":"10-dietetic-bio-si-international"},{"code":"1002","name":"Produse dietetice și naturiste","slug":"1002-produse-dietetice-si-naturiste"},{"code":"100205","name":"Diete sportive","slug":"100205-diete-sportive"}],"slots":[],"page":1,"limit":10,"pages":12,"count":115,"siblings":[{"name":"Produse ecologice","slug":"1001-produse-ecologice","selected":false},{"name":"Produse dietetice și naturiste","slug":"1002-produse-dietetice-si-naturiste","selected":true},{"name":"Suplimente alimentare","slug":"1003-suplimente-alimentare","selected":false},{"name":"Produse internaționale","slug":"1004-bucatarie-internationala","selected":false}],"children":[{"name":"Toate produsele","slug":"1002-produse-dietetice-si-naturiste","selected":false},{"name":"Produse fără gluten","slug":"100201-produse-fara-gluten","selected":false},{"name":"Produse fără zahăr","slug":"100202-produse-fara-zahar","selected":false},{"name":"Îndulcitori","slug":"100203-indulcitori","selected":false},{"name":"Diete pentru slăbit","slug":"100204-diete-de-slabit","selected":false},{"name":"Diete sportive","slug":"100205-diete-sportive","selected":true},{"name":"Produse din soia","slug":"100206-produse-din-soia","selected":false}],"products":[{"code":"100036469","variantCode":"5941768002125","name":"Baton proteic cu cocos și ciocolată fără zahăr adăugat, cu îndulcitor 60g","slug":"100036469-fizico-baton-proteic-cu-cocos-si-ciocolata-fara-zahar-adaugat-cu-indulcitor-60g","unitPriceLabel":"","brand":"Fizico","brandCode":"130","brandFilterCode":"fizico-b114","sku":"100036469","price":5.75,"originalPrice":null,"currencyCode":"RON","currency":"Lei","image":{"thumbnail":{"default":"https://cdn.freshful.ro/media/cache/sylius_shop_product_thumbnail/54/d9/e0c9723ee098677119e25e4b898f.jpg"},"large":{"default":"https://cdn.freshful.ro/media/cache/freshful_large/54/d9/e0c9723ee098677119e25e4b898f.jpg"},"extralarge":{"default":"https://cdn.freshful.ro/media/cache/sylius_shop_product_original/54/d9/e0c9723ee098677119e25e4b898f.jpg"}},"label":null,"tags":[{"type":"NoAddedSugar","text":"Fara zahar adaugat","icon":"https://cdn.freshful.ro/assets/product_tags/fara_zahar_adaugat.svg","iconPng":"https://cdn.freshful.ro/assets/product_tags/fara_zahar_adaugat.png","backgroundColor":"#F8EDF7","textColor":"#C05EBC"}],"isAvailable":true,"maxAvailableQuantity":100,"maxAllowedQuantity":100,"breadcrumbs":[{"code":"10","name":"Dietetic, ECO & internațional","slug":"10-dietetic-bio-si-international"},{"code":"1002","name":"Produse dietetice și naturiste","slug":"1002-produse-dietetice-si-naturiste"},{"code":"100205","name":"Diete sportive","slug":"100205-diete-sportive"},{"code":"100036469","name":"Baton proteic cu cocos și ciocolată fără zahăr adăugat, cu îndulcitor 60g","slug":"100036469-fizico-baton-proteic-cu-cocos-si-ciocolata-fara-zahar-adaugat-cu-indulcitor-60g"}],"activePromotion":null,"saveMe":null,"labels":[],"geniusPrice":null,"geniusUnitPricePerLabel":null,"banner":null,"discountLabel":null,"geniusDiscountLabel":null,"badge":null},{"code":"100036473","variantCode":"5941768002194","name":"Baton pentru scădere în greutate cu ceai verde, fără zahăr adăugat, cu îndulcitor 40g","slug":"100036473-my-fibre-baton-pentru-scadere-in-greutate-cu-ceai-verde-fara-zahar-adaugat-cu-indulcitor-40g","unitPriceLabel":"","brand":"My Fibre","brandCode":"131","brandFilterCode":"my-fibre-b115","sku":"100036473","price":2.85,"originalPrice":null,"currencyCode":"RON","currency":"Lei","image":{"thumbnail":{"default":"https://cdn.freshful.ro/media/cache/sylius_shop_product_thumbnail/c6/ef/0fc889ea9f0f7d04b5a0aab47d8b.jpg"},"large":{"default":"https://cdn.freshful.ro/media/cache/freshful_large/c6/ef/0fc889ea9f0f7d04b5a0aab47d8b.jpg"},"extralarge":{"default":"https://cdn.freshful.ro/media/cache/sylius_shop_product_original/c6/ef/0fc889ea9f0f7d04b5a0aab47d8b.jpg"}},"label":null,"tags":[{"type":"NoAddedSugar","text":"Fara zahar adaugat","icon":"https://cdn.freshful.ro/assets/product_tags/fara_zahar_adaugat.svg","iconPng":"https://cdn.freshful.ro/assets/product_tags/fara_zahar_adaugat.png","backgroundColor":"#F8EDF7","textColor":"#C05EBC"}],"isAvailable":true,"maxAvailableQuantity":100,"maxAllowedQuantity":100,"breadcrumbs":[{"code":"10","name":"Dietetic, ECO & internațional","slug":"10-dietetic-bio-si-international"},{"code":"1002","name":"Produse dietetice și naturiste","slug":"1002-produse-dietetice-si-naturiste"},{"code":"100205","name":"Diete sportive","slug":"100205-diete-sportive"},{"code":"100036473","name":"Baton pentru scădere în greutate cu ceai verde, fără zahăr adăugat, cu îndulcitor 40g","slug":"100036473-my-fibre-baton-pentru-scadere-in-greutate-cu-ceai-verde-fara-zahar-adaugat-cu-indulcitor-40g"}],"activePromotion":null,"saveMe":null,"labels":[],"geniusPrice":null,"geniusUnitPricePerLabel":null,"banner":null,"discountLabel":null,"geniusDiscountLabel":null,"badge":null},{"code":"100036474","variantCode":"5941768002217","name":"Baton digestiv cu fibre din secară, cocos și portocale, fără zahăr adăugat, cu îndulcitor 40g","slug":"100036474-my-fibre-baton-digestiv-cu-fibre-din-secara-cocos-si-portocale-fara-zahar-adaugat-cu-indulcitor-40g","unitPriceLabel":"","brand":"My Fibre","brandCode":"131","brandFilterCode":"my-fibre-b115","sku":"100036474","price":2.85,"originalPrice":null,"currencyCode":"RON","currency":"Lei","image":{"thumbnail":{"default":"https://cdn.freshful.ro/media/cache/sylius_shop_product_thumbnail/ff/ff/a7688326d7cfba6606b5002306cd.jpg"},"large":{"default":"https://cdn.freshful.ro/media/cache/freshful_large/ff/ff/a7688326d7cfba6606b5002306cd.jpg"},"extralarge":{"default":"https://cdn.freshful.ro/media/cache/sylius_shop_product_original/ff/ff/a7688326d7cfba6606b5002306cd.jpg"}},"label":null,"tags":[{"type":"NoAddedSugar","text":"Fara zahar adaugat","icon":"https://cdn.freshful.ro/assets/product_tags/fara_zahar_adaugat.svg","iconPng":"https://cdn.freshful.ro/assets/product_tags/fara_zahar_adaugat.png","backgroundColor":"#F8EDF7","textColor":"#C05EBC"}],"isAvailable":true,"maxAvailableQuantity":100,"maxAllowedQuantity":100,"breadcrumbs":[{"code":"10","name":"Dietetic, ECO & internațional","slug":"10-dietetic-bio-si-international"},{"code":"1002","name":"Produse dietetice și naturiste","slug":"1002-produse-dietetice-si-naturiste"},{"code":"100205","name":"Diete sportive","slug":"100205-diete-sportive"},{"code":"100036474","name":"Baton digestiv cu fibre din secară, cocos și portocale, fără zahăr adăugat, cu îndulcitor 40g","slug":"100036474-my-fibre-baton-digestiv-cu-fibre-din-secara-cocos-si-portocale-fara-zahar-adaugat-cu-indulcitor-40g"}],"activePromotion":null,"saveMe":null,"labels":[],"geniusPrice":null,"geniusUnitPricePerLabel":null,"banner":null,"discountLabel":null,"geniusDiscountLabel":null,"badge":null},{"code":"100036472","variantCode":"5941768002170","name":"Baton proteic vegan cu arahide și ciocolată neagră 40g","slug":"100036472-fizico-baton-proteic-vegan-cu-arahide-si-ciocolata-neagra-40g","unitPriceLabel":"","brand":"Fizico","brandCode":"130","brandFilterCode":"fizico-b114","sku":"100036472","price":4.15,"originalPrice":null,"currencyCode":"RON","currency":"Lei","image":{"thumbnail":{"default":"https://cdn.freshful.ro/media/cache/sylius_shop_product_thumbnail/ef/58/8e68836c72d0fbe5c640dfaff449.jpg"},"large":{"default":"https://cdn.freshful.ro/media/cache/freshful_large/ef/58/8e68836c72d0fbe5c640dfaff449.jpg"},"extralarge":{"default":"https://cdn.freshful.ro/media/cache/sylius_shop_product_original/ef/58/8e68836c72d0fbe5c640dfaff449.jpg"}},"label":null,"tags":[{"type":"vegan","text":"Vegan","icon":"https://cdn.freshful.ro/assets/product_tags/vegan.svg","iconPng":"https://cdn.freshful.ro/assets/product_tags/vegan.png","backgroundColor":"#ECF9F8","textColor":"#33A39C"},{"type":"NoAddedSugar","text":"Fara zahar adaugat","icon":"https://cdn.freshful.ro/assets/product_tags/fara_zahar_adaugat.svg","iconPng":"https://cdn.freshful.ro/assets/product_tags/fara_zahar_adaugat.png","backgroundColor":"#F8EDF7","textColor":"#C05EBC"}],"isAvailable":true,"maxAvailableQuantity":100,"maxAllowedQuantity":100,"breadcrumbs":[{"code":"10","name":"Dietetic, ECO & internațional","slug":"10-dietetic-bio-si-international"},{"code":"1002","name":"Produse dietetice și naturiste","slug":"1002-produse-dietetice-si-naturiste"},{"code":"100205","name":"Diete sportive","slug":"100205-diete-sportive"},{"code":"100036472","name":"Baton proteic vegan cu arahide și ciocolată neagră 40g","slug":"100036472-fizico-baton-proteic-vegan-cu-arahide-si-ciocolata-neagra-40g"}],"activePromotion":null,"saveMe":null,"labels":[],"geniusPrice":null,"geniusUnitPricePerLabel":null,"banner":null,"discountLabel":null,"geniusDiscountLabel":null,"badge":null},{"code":"100036468","variantCode":"5941768002095","name":"Baton proteic cu ciocolată fără zahăr adăugat, cu îndulcitor 60g","slug":"100036468-fizico-baton-proteic-cu-ciocolata-fara-zahar-adaugat-cu-indulcitor-60g","unitPriceLabel":"","brand":"Fizico","brandCode":"130","brandFilterCode":"fizico-b114","sku":"100036468","price":5.75,"originalPrice":null,"currencyCode":"RON","currency":"Lei","image":{"thumbnail":{"default":"https://cdn.freshful.ro/media/cache/sylius_shop_product_thumbnail/64/2c/b4c49363779135e487c925465cba.jpg"},"large":{"default":"https://cdn.freshful.ro/media/cache/freshful_large/64/2c/b4c49363779135e487c925465cba.jpg"},"extralarge":{"default":"https://cdn.freshful.ro/media/cache/sylius_shop_product_original/64/2c/b4c49363779135e487c925465cba.jpg"}},"label":null,"tags":[{"type":"NoAddedSugar","text":"Fara zahar adaugat","icon":"https://cdn.freshful.ro/assets/product_tags/fara_zahar_adaugat.svg","iconPng":"https://cdn.freshful.ro/assets/product_tags/fara_zahar_adaugat.png","backgroundColor":"#F8EDF7","textColor":"#C05EBC"}],"isAvailable":true,"maxAvailableQuantity":100,"maxAllowedQuantity":100,"breadcrumbs":[{"code":"10","name":"Dietetic, ECO & internațional","slug":"10-dietetic-bio-si-international"},{"code":"1002","name":"Produse dietetice și naturiste","slug":"1002-produse-dietetice-si-naturiste"},{"code":"100205","name":"Diete sportive","slug":"100205-diete-sportive"},{"code":"100036468","name":"Baton proteic cu ciocolată fără zahăr adăugat, cu îndulcitor 60g","slug":"100036468-fizico-baton-proteic-cu-ciocolata-fara-zahar-adaugat-cu-indulcitor-60g"}],"activePromotion":null,"saveMe":null,"labels":[],"geniusPrice":null,"geniusUnitPricePerLabel":null,"banner":null,"discountLabel":null,"geniusDiscountLabel":null,"badge":null},{"code":"100105005","variantCode":"7612100004128","name":"Baton proteic cu alune High Protein 3x35g","slug":"100105005-isostar-baton-proteic-cu-alune-high-protein-3x35g","unitPriceLabel":"166,67 Lei/kg","brand":"Isostar","brandCode":"1707","brandFilterCode":"isostar-b1713","sku":"100105005","price":17.5,"originalPrice":null,"currencyCode":"RON","currency":"Lei","image":{"thumbnail":{"default":"https://cdn.freshful.ro/media/cache/sylius_shop_product_thumbnail/15/41/63921066e103e9ec8beda89c283a.jpg"},"large":{"default":"https://cdn.freshful.ro/media/cache/freshful_large/15/41/63921066e103e9ec8beda89c283a.jpg"},"extralarge":{"default":"https://cdn.freshful.ro/media/cache/sylius_shop_product_original/15/41/63921066e103e9ec8beda89c283a.jpg"}},"label":null,"tags":[{"type":"NoPreservatives","text":"Fara conservanti","icon":"https://cdn.freshful.ro/assets/product_tags/fara_conservanti.svg","iconPng":"https://cdn.freshful.ro/assets/product_tags/fara_conservanti.png","backgroundColor":"#F0F2FF","textColor":"#7889DD"}],"isAvailable":true,"maxAvailableQuantity":100,"maxAllowedQuantity":100,"breadcrumbs":[{"code":"10","name":"Dietetic, ECO & internațional","slug":"10-dietetic-bio-si-international"},{"code":"1002","name":"Produse dietetice și naturiste","slug":"1002-produse-dietetice-si-naturiste"},{"code":"100205","name":"Diete sportive","slug":"100205-diete-sportive"},{"code":"100105005","name":"Baton proteic cu alune High Protein 3x35g","slug":"100105005-isostar-baton-proteic-cu-alune-high-protein-3x35g"}],"activePromotion":null,"saveMe":null,"labels":[],"geniusPrice":null,"geniusUnitPricePerLabel":null,"banner":null,"discountLabel":null,"geniusDiscountLabel":null,"badge":null},{"code":"100036470","variantCode":"5941768002002","name":"Baton proteic vegan cu cafea și ciocolată neagră 40g","slug":"100036470-fizico-baton-proteic-vegan-cu-cafea-si-ciocolata-neagra-40g","unitPriceLabel":"","brand":"Fizico","brandCode":"130","brandFilterCode":"fizico-b114","sku":"100036470","price":4.15,"originalPrice":null,"currencyCode":"RON","currency":"Lei","image":{"thumbnail":{"default":"https://cdn.freshful.ro/media/cache/sylius_shop_product_thumbnail/82/33/b3e9028b4efb323c4d9a9492a613.jpg"},"large":{"default":"https://cdn.freshful.ro/media/cache/freshful_large/82/33/b3e9028b4efb323c4d9a9492a613.jpg"},"extralarge":{"default":"https://cdn.freshful.ro/media/cache/sylius_shop_product_original/82/33/b3e9028b4efb323c4d9a9492a613.jpg"}},"label":null,"tags":[{"type":"vegan","text":"Vegan","icon":"https://cdn.freshful.ro/assets/product_tags/vegan.svg","iconPng":"https://cdn.freshful.ro/assets/product_tags/vegan.png","backgroundColor":"#ECF9F8","textColor":"#33A39C"},{"type":"NoAddedSugar","text":"Fara zahar adaugat","icon":"https://cdn.freshful.ro/assets/product_tags/fara_zahar_adaugat.svg","iconPng":"https://cdn.freshful.ro/assets/product_tags/fara_zahar_adaugat.png","backgroundColor":"#F8EDF7","textColor":"#C05EBC"}],"isAvailable":true,"maxAvailableQuantity":87,"maxAllowedQuantity":100,"breadcrumbs":[{"code":"10","name":"Dietetic, ECO & internațional","slug":"10-dietetic-bio-si-international"},{"code":"1002","name":"Produse dietetice și naturiste","slug":"1002-produse-dietetice-si-naturiste"},{"code":"100205","name":"Diete sportive","slug":"100205-diete-sportive"},{"code":"100036470","name":"Baton proteic vegan cu cafea și ciocolată neagră 40g","slug":"100036470-fizico-baton-proteic-vegan-cu-cafea-si-ciocolata-neagra-40g"}],"activePromotion":null,"saveMe":null,"labels":[],"geniusPrice":null,"geniusUnitPricePerLabel":null,"banner":null,"discountLabel":null,"geniusDiscountLabel":null,"badge":null},{"code":"100081582","variantCode":"6426284000507","name":"Roșcove (carob) pudră ecologică 250g","slug":"100081582-niavis-roscove-carob-pudra-ecologica-250g","unitPriceLabel":"75,96 Lei/kg","brand":"Niavis","brandCode":"190","brandFilterCode":"niavis-b191","sku":"100081582","price":18.99,"originalPrice":null,"currencyCode":"RON","currency":"Lei","image":{"thumbnail":{"default":"https://cdn.freshful.ro/media/cache/sylius_shop_product_thumbnail/eb/20/fb12abb7f889bfa2dd83ab730fd5.jpg"},"large":{"default":"https://cdn.freshful.ro/media/cache/freshful_large/eb/20/fb12abb7f889bfa2dd83ab730fd5.jpg"},"extralarge":{"default":"https://cdn.freshful.ro/media/cache/sylius_shop_product_original/eb/20/fb12abb7f889bfa2dd83ab730fd5.jpg"}},"label":null,"tags":[{"type":"vegan","text":"Vegan","icon":"https://cdn.freshful.ro/assets/product_tags/vegan.svg","iconPng":"https://cdn.freshful.ro/assets/product_tags/vegan.png","backgroundColor":"#ECF9F8","textColor":"#33A39C"},{"type":"NoGluten","text":"Fara gluten","icon":"https://cdn.freshful.ro/assets/product_tags/fara_gluten.svg","iconPng":"https://cdn.freshful.ro/assets/product_tags/fara_gluten.png","backgroundColor":"#FFF2E5","textColor":"#F07900"},{"type":"Eco","text":"Eco","icon":"https://cdn.freshful.ro/assets/product_tags/eco.svg","iconPng":"https://cdn.freshful.ro/assets/product_tags/eco.png","backgroundColor":"#EFFBE4","textColor":"#66BB1B"}],"isAvailable":true,"maxAvailableQuantity":58,"maxAllowedQuantity":100,"breadcrumbs":[{"code":"10","name":"Dietetic, ECO & internațional","slug":"10-dietetic-bio-si-international"},{"code":"1002","name":"Produse dietetice și naturiste","slug":"1002-produse-dietetice-si-naturiste"},{"code":"100205","name":"Diete sportive","slug":"100205-diete-sportive"},{"code":"100081582","name":"Roșcove (carob) pudră ecologică 250g","slug":"100081582-niavis-roscove-carob-pudra-ecologica-250g"}],"activePromotion":null,"saveMe":null,"labels":[],"geniusPrice":null,"geniusUnitPricePerLabel":null,"banner":null,"discountLabel":null,"geniusDiscountLabel":null,"badge":null},{"code":"100036471","variantCode":"5941768002064","name":"Baton proteic vegan cu cacao și ciocolată neagră 40g","slug":"100036471-fizico-baton-proteic-vegan-cu-cacao-si-ciocolata-neagra-40g","unitPriceLabel":"","brand":"Fizico","brandCode":"130","brandFilterCode":"fizico-b114","sku":"100036471","price":4.15,"originalPrice":null,"currencyCode":"RON","currency":"Lei","image":{"thumbnail":{"default":"https://cdn.freshful.ro/media/cache/sylius_shop_product_thumbnail/b0/38/3278398a4e44f4bd2be730ac0237.jpg"},"large":{"default":"https://cdn.freshful.ro/media/cache/freshful_large/b0/38/3278398a4e44f4bd2be730ac0237.jpg"},"extralarge":{"default":"https://cdn.freshful.ro/media/cache/sylius_shop_product_original/b0/38/3278398a4e44f4bd2be730ac0237.jpg"}},"label":null,"tags":[{"type":"vegan","text":"Vegan","icon":"https://cdn.freshful.ro/assets/product_tags/vegan.svg","iconPng":"https://cdn.freshful.ro/assets/product_tags/vegan.png","backgroundColor":"#ECF9F8","textColor":"#33A39C"},{"type":"NoAddedSugar","text":"Fara zahar adaugat","icon":"https://cdn.freshful.ro/assets/product_tags/fara_zahar_adaugat.svg","iconPng":"https://cdn.freshful.ro/assets/product_tags/fara_zahar_adaugat.png","backgroundColor":"#F8EDF7","textColor":"#C05EBC"}],"isAvailable":true,"maxAvailableQuantity":43,"maxAllowedQuantity":100,"breadcrumbs":[{"code":"10","name":"Dietetic, ECO & internațional","slug":"10-dietetic-bio-si-international"},{"code":"1002","name":"Produse dietetice și naturiste","slug":"1002-produse-dietetice-si-naturiste"},{"code":"100205","name":"Diete sportive","slug":"100205-diete-sportive"},{"code":"100036471","name":"Baton proteic vegan cu cacao și ciocolată neagră 40g","slug":"100036471-fizico-baton-proteic-vegan-cu-cacao-si-ciocolata-neagra-40g"}],"activePromotion":null,"saveMe":null,"labels":[],"geniusPrice":null,"geniusUnitPricePerLabel":null,"banner":null,"discountLabel":null,"geniusDiscountLabel":null,"badge":null},{"code":"100109288","variantCode":"100109288","name":"Baton energizant Power Pro 31% proteină cu cremă de arahide 80g","slug":"100109288-nature-tech-baton-energizant-power-pro-31-proteina-cu-crema-de-arahide-80g","unitPriceLabel":"95,63 Lei/kg","brand":"Nature Tech","brandCode":"1825","brandFilterCode":"nature-tech-b1829","sku":"100109288","price":7.65,"originalPrice":null,"currencyCode":"RON","currency":"Lei","image":{"thumbnail":{"default":"https://cdn.freshful.ro/media/cache/sylius_shop_product_thumbnail/8e/11/69fc23e62b75edb0d1aa7441d006.jpg"},"large":{"default":"https://cdn.freshful.ro/media/cache/freshful_large/8e/11/69fc23e62b75edb0d1aa7441d006.jpg"},"extralarge":{"default":"https://cdn.freshful.ro/media/cache/sylius_shop_product_original/8e/11/69fc23e62b75edb0d1aa7441d006.jpg"}},"label":null,"tags":[],"isAvailable":true,"maxAvailableQuantity":52,"maxAllowedQuantity":100,"breadcrumbs":[{"code":"10","name":"Dietetic, ECO & internațional","slug":"10-dietetic-bio-si-international"},{"code":"1002","name":"Produse dietetice și naturiste","slug":"1002-produse-dietetice-si-naturiste"},{"code":"100205","name":"Diete sportive","slug":"100205-diete-sportive"},{"code":"100109288","name":"Baton energizant Power Pro 31% proteină cu cremă de arahide 80g","slug":"100109288-nature-tech-baton-energizant-power-pro-31-proteina-cu-crema-de-arahide-80g"}],"activePromotion":null,"saveMe":null,"labels":[],"geniusPrice":null,"geniusUnitPricePerLabel":null,"banner":null,"discountLabel":null,"geniusDiscountLabel":null,"badge":null}],"filters":{"countSelected":0,"items":[{"code":"brand","name":"Brand","countSelected":0,"values":[{"code":"biotech-b2273","name":"Biotech","isSelected":false,"count":1},{"code":"dextro-energy-b1832","name":"Dextro Energy","isSelected":false,"count":16},{"code":"fizico-b114","name":"Fizico","isSelected":false,"count":5},{"code":"gerlinea-b1712","name":"Gerlinea","isSelected":false,"count":11},{"code":"goldnutrition-b1999","name":"Goldnutrition","isSelected":false,"count":23},{"code":"hanf-natur-b860","name":"Hanf & Natur","isSelected":false,"count":1},{"code":"isostar-b1713","name":"Isostar","isSelected":false,"count":16},{"code":"iswari-b863","name":"Iswari","isSelected":false,"count":19},{"code":"my-fibre-b115","name":"My Fibre","isSelected":false,"count":2},{"code":"nature-tech-b1829","name":"Nature Tech","isSelected":false,"count":7},{"code":"niavis-b191","name":"Niavis","isSelected":false,"count":13},{"code":"roobar-b1470","name":"Roobar","isSelected":false,"count":1}]},{"code":"diet_lifestyle","name":"Dietă și lifestyle","countSelected":0,"values":[{"code":"eco-a83","name":"Eco","isSelected":false,"count":36},{"code":"fara-conservanti-a37","name":"Fara conservanti","isSelected":false,"count":3},{"code":"fara-gluten-a16","name":"Fara gluten","isSelected":false,"count":30},{"code":"fara-zahar-adaugat-a29","name":"Fara zahar adaugat","isSelected":false,"count":11},{"code":"natural-a27","name":"Natural","isSelected":false,"count":4},{"code":"vegan-a24","name":"Vegan","isSelected":false,"count":34},{"code":"vegetarian-a28","name":"Vegetarian","isSelected":false,"count":1}]}]},"orderBy":[{"field":"price","direction":"asc","name":"Preț crescător","isSelected":false},{"field":"price","direction":"desc","name":"Preț descrescător","isSelected":false},{"field":"popularity","direction":"desc","name":"Cele mai populare","isSelected":true},{"field":"category","direction":"asc","name":"Categorie","isSelected":false}],"metaTitle":"Diete sportive - Gamă variată","metaDescription":"Vrei Diete sportive? Alege dintr-o gamă variată. Comanzi simplu și ai livrare rapidă, calitate și prospețime. Hai pe Freshful.ro","metaKeywords":null,"banners":[]}}