{"type":"subcategory","payload":{"analyticsListId":"category_100304-imunitate","analyticsListName":"Category - Imunitate","name":"Imunitate","slug":"100304-imunitate","image":null,"breadcrumbs":[{"code":"10","name":"Dietetic, ECO & internațional","slug":"10-dietetic-bio-si-international"},{"code":"1003","name":"Suplimente alimentare","slug":"1003-suplimente-alimentare"},{"code":"100304","name":"Imunitate","slug":"100304-imunitate"}],"slots":[],"page":1,"limit":10,"pages":6,"count":51,"siblings":[{"name":"Produse ecologice","slug":"1001-produse-ecologice","selected":false},{"name":"Produse dietetice și naturiste","slug":"1002-produse-dietetice-si-naturiste","selected":false},{"name":"Suplimente alimentare","slug":"1003-suplimente-alimentare","selected":true},{"name":"Produse internaționale","slug":"1004-bucatarie-internationala","selected":false}],"children":[{"name":"Toate produsele","slug":"1003-suplimente-alimentare","selected":false},{"name":"Vitamine și minerale","slug":"100301-vitamine-si-minerale","selected":false},{"name":"Energie și vitalitate","slug":"100302-energie-si-vitalitate","selected":false},{"name":"Sarcină","slug":"100303-sarcina","selected":false},{"name":"Imunitate","slug":"100304-imunitate","selected":true},{"name":"Sistem muscular, articular și osos","slug":"100305-muscular-articular-si-osos","selected":false},{"name":"Sistem nervos, ochi și cardio","slug":"100306-nervos-ochi-cardiovascular","selected":false},{"name":"Piele, păr și unghii","slug":"100307-piele-par-si-unghii","selected":false},{"name":"Sistem gastrointestinal","slug":"100308-sistemul-gastrointenstinal","selected":false},{"name":"Sistem urogenital","slug":"100309-sistemul-urogenital","selected":false},{"name":"Sistem respirator","slug":"100310-sistemul-respirator","selected":false}],"products":[{"code":"100139457","variantCode":"100139457","name":"Acadele pentru imunitate și concentrare 10 buc","slug":"100139457-sanovita-acadele-pentru-imunitate-si-concentrare-10-buc","unitPriceLabel":"431,5 Lei/kg","brand":"Sanovita","brandCode":"482","brandFilterCode":"sanovita-b483","sku":"100139457","price":25.89,"originalPrice":null,"currencyCode":"RON","currency":"Lei","image":{"thumbnail":{"default":"https://cdn.freshful.ro/media/cache/sylius_shop_product_thumbnail/85/4a/5003c0a4dd97f2f37db5605c471c.jpg"},"large":{"default":"https://cdn.freshful.ro/media/cache/freshful_large/85/4a/5003c0a4dd97f2f37db5605c471c.jpg"},"extralarge":{"default":"https://cdn.freshful.ro/media/cache/sylius_shop_product_original/85/4a/5003c0a4dd97f2f37db5605c471c.jpg"}},"label":null,"tags":[{"type":"NoGluten","text":"Fara gluten","icon":"https://cdn.freshful.ro/assets/product_tags/fara_gluten.svg","iconPng":"https://cdn.freshful.ro/assets/product_tags/fara_gluten.png","backgroundColor":"#FFF2E5","textColor":"#F07900"},{"type":"NoAddedSugar","text":"Fara zahar adaugat","icon":"https://cdn.freshful.ro/assets/product_tags/fara_zahar_adaugat.svg","iconPng":"https://cdn.freshful.ro/assets/product_tags/fara_zahar_adaugat.png","backgroundColor":"#F8EDF7","textColor":"#C05EBC"},{"type":"Vegetarian","text":"Vegetarian","icon":"https://cdn.freshful.ro/assets/product_tags/vegetarian.svg","iconPng":"https://cdn.freshful.ro/assets/product_tags/vegetarian.png","backgroundColor":"#FAEAEE","textColor":"#B26275"}],"isAvailable":true,"maxAvailableQuantity":54,"maxAllowedQuantity":100,"breadcrumbs":[{"code":"10","name":"Dietetic, ECO & internațional","slug":"10-dietetic-bio-si-international"},{"code":"1003","name":"Suplimente alimentare","slug":"1003-suplimente-alimentare"},{"code":"100304","name":"Imunitate","slug":"100304-imunitate"},{"code":"100139457","name":"Acadele pentru imunitate și concentrare 10 buc","slug":"100139457-sanovita-acadele-pentru-imunitate-si-concentrare-10-buc"}],"activePromotion":null,"saveMe":null,"labels":[],"geniusPrice":null,"geniusUnitPricePerLabel":null,"banner":null,"discountLabel":null,"geniusDiscountLabel":null,"badge":null},{"code":"100118464","variantCode":"100118464","name":"Vitamina C lipozomală 30 capsule","slug":"100118464-biocyte-vitamina-c-lipozomala-30-capsule","unitPriceLabel":"83,99 Lei/buc","brand":"Biocyte","brandCode":"2001","brandFilterCode":"biocyte-b2010","sku":"100118464","price":83.99,"originalPrice":null,"currencyCode":"RON","currency":"Lei","image":{"thumbnail":{"default":"https://cdn.freshful.ro/media/cache/sylius_shop_product_thumbnail/2c/55/2508947d0ca9043e5d59dbda0c43.jpg"},"large":{"default":"https://cdn.freshful.ro/media/cache/freshful_large/2c/55/2508947d0ca9043e5d59dbda0c43.jpg"},"extralarge":{"default":"https://cdn.freshful.ro/media/cache/sylius_shop_product_original/2c/55/2508947d0ca9043e5d59dbda0c43.jpg"}},"label":null,"tags":[],"isAvailable":true,"maxAvailableQuantity":57,"maxAllowedQuantity":100,"breadcrumbs":[{"code":"10","name":"Dietetic, ECO & internațional","slug":"10-dietetic-bio-si-international"},{"code":"1003","name":"Suplimente alimentare","slug":"1003-suplimente-alimentare"},{"code":"100304","name":"Imunitate","slug":"100304-imunitate"},{"code":"100118464","name":"Vitamina C lipozomală 30 capsule","slug":"100118464-biocyte-vitamina-c-lipozomala-30-capsule"}],"activePromotion":null,"saveMe":null,"labels":[],"geniusPrice":null,"geniusUnitPricePerLabel":null,"banner":null,"discountLabel":null,"geniusDiscountLabel":null,"badge":null},{"code":"100118466","variantCode":"100118466","name":"Zinc lipozomal 60 capsule","slug":"100118466-biocyte-zinc-lipozomal-60-capsule","unitPriceLabel":"62,99 Lei/buc","brand":"Biocyte","brandCode":"2001","brandFilterCode":"biocyte-b2010","sku":"100118466","price":62.99,"originalPrice":null,"currencyCode":"RON","currency":"Lei","image":{"thumbnail":{"default":"https://cdn.freshful.ro/media/cache/sylius_shop_product_thumbnail/0e/d1/834c1b219f576f287ac73efd610d.jpg"},"large":{"default":"https://cdn.freshful.ro/media/cache/freshful_large/0e/d1/834c1b219f576f287ac73efd610d.jpg"},"extralarge":{"default":"https://cdn.freshful.ro/media/cache/sylius_shop_product_original/0e/d1/834c1b219f576f287ac73efd610d.jpg"}},"label":null,"tags":[],"isAvailable":true,"maxAvailableQuantity":17,"maxAllowedQuantity":100,"breadcrumbs":[{"code":"10","name":"Dietetic, ECO & internațional","slug":"10-dietetic-bio-si-international"},{"code":"1003","name":"Suplimente alimentare","slug":"1003-suplimente-alimentare"},{"code":"100304","name":"Imunitate","slug":"100304-imunitate"},{"code":"100118466","name":"Zinc lipozomal 60 capsule","slug":"100118466-biocyte-zinc-lipozomal-60-capsule"}],"activePromotion":null,"saveMe":null,"labels":[],"geniusPrice":null,"geniusUnitPricePerLabel":null,"banner":null,"discountLabel":null,"geniusDiscountLabel":null,"badge":null},{"code":"100097859","variantCode":"6421930320763","name":"Propolis cu echinacea, fără alcool, spray 20ml","slug":"100097859-dacia-plant-propolis-cu-echinacea-fara-alcool-spray-20ml","unitPriceLabel":"400,2 Lei/kg","brand":"Dacia Plant","brandCode":"934","brandFilterCode":"dacia-plant-b934","sku":"100097859","price":20.01,"originalPrice":null,"currencyCode":"RON","currency":"Lei","image":{"thumbnail":{"default":"https://cdn.freshful.ro/media/cache/sylius_shop_product_thumbnail/46/5f/581c2b1f4be157c4bcc9bf3ee88d.jpg"},"large":{"default":"https://cdn.freshful.ro/media/cache/freshful_large/46/5f/581c2b1f4be157c4bcc9bf3ee88d.jpg"},"extralarge":{"default":"https://cdn.freshful.ro/media/cache/sylius_shop_product_original/46/5f/581c2b1f4be157c4bcc9bf3ee88d.jpg"}},"label":null,"tags":[],"isAvailable":true,"maxAvailableQuantity":43,"maxAllowedQuantity":100,"breadcrumbs":[{"code":"10","name":"Dietetic, ECO & internațional","slug":"10-dietetic-bio-si-international"},{"code":"1003","name":"Suplimente alimentare","slug":"1003-suplimente-alimentare"},{"code":"100304","name":"Imunitate","slug":"100304-imunitate"},{"code":"100097859","name":"Propolis cu echinacea, fără alcool, spray 20ml","slug":"100097859-dacia-plant-propolis-cu-echinacea-fara-alcool-spray-20ml"}],"activePromotion":null,"saveMe":null,"labels":[],"geniusPrice":null,"geniusUnitPricePerLabel":null,"banner":null,"discountLabel":null,"geniusDiscountLabel":null,"badge":null},{"code":"100129373","variantCode":"100129373","name":"Propolis esență 50ml","slug":"100129373-apiphen-propolis-esenta-50ml","unitPriceLabel":"558,6 Lei/l","brand":"Apiphen","brandCode":"2372","brandFilterCode":"apiphen-b2376","sku":"100129373","price":27.93,"originalPrice":null,"currencyCode":"RON","currency":"Lei","image":{"thumbnail":{"default":"https://cdn.freshful.ro/media/cache/sylius_shop_product_thumbnail/c9/0a/6559c0c57c630fe958973e29487b.jpg"},"large":{"default":"https://cdn.freshful.ro/media/cache/freshful_large/c9/0a/6559c0c57c630fe958973e29487b.jpg"},"extralarge":{"default":"https://cdn.freshful.ro/media/cache/sylius_shop_product_original/c9/0a/6559c0c57c630fe958973e29487b.jpg"}},"label":null,"tags":[],"isAvailable":true,"maxAvailableQuantity":93,"maxAllowedQuantity":100,"breadcrumbs":[{"code":"10","name":"Dietetic, ECO & internațional","slug":"10-dietetic-bio-si-international"},{"code":"1003","name":"Suplimente alimentare","slug":"1003-suplimente-alimentare"},{"code":"100304","name":"Imunitate","slug":"100304-imunitate"},{"code":"100129373","name":"Propolis esență 50ml","slug":"100129373-apiphen-propolis-esenta-50ml"}],"activePromotion":null,"saveMe":null,"labels":[],"geniusPrice":null,"geniusUnitPricePerLabel":null,"banner":null,"discountLabel":null,"geniusDiscountLabel":null,"badge":null},{"code":"100113543","variantCode":"100113543","name":"Vitamina C 1000mg 100 capsule vegetale","slug":"100113543-solgar-vitamina-c-1000mg-100-capsule-vegetale","unitPriceLabel":"340,1 Lei/kg","brand":"Solgar","brandCode":"1885","brandFilterCode":"solgar-b1889","sku":"100113543","price":103.73,"originalPrice":null,"currencyCode":"RON","currency":"Lei","image":{"thumbnail":{"default":"https://cdn.freshful.ro/media/cache/sylius_shop_product_thumbnail/4a/d7/6b08749184c756411020bc3bfa7d.jpg"},"large":{"default":"https://cdn.freshful.ro/media/cache/freshful_large/4a/d7/6b08749184c756411020bc3bfa7d.jpg"},"extralarge":{"default":"https://cdn.freshful.ro/media/cache/sylius_shop_product_original/4a/d7/6b08749184c756411020bc3bfa7d.jpg"}},"label":null,"tags":[{"type":"vegan","text":"Vegan","icon":"https://cdn.freshful.ro/assets/product_tags/vegan.svg","iconPng":"https://cdn.freshful.ro/assets/product_tags/vegan.png","backgroundColor":"#ECF9F8","textColor":"#33A39C"},{"type":"saltFree","text":"Fara sare","icon":"https://cdn.freshful.ro/assets/product_tags/salt_free.svg","iconPng":"https://cdn.freshful.ro/assets/product_tags/salt_free.png","backgroundColor":"#E9F6F1","textColor":"#46AB86"},{"type":"NoAddedSugar","text":"Fara zahar adaugat","icon":"https://cdn.freshful.ro/assets/product_tags/fara_zahar_adaugat.svg","iconPng":"https://cdn.freshful.ro/assets/product_tags/fara_zahar_adaugat.png","backgroundColor":"#F8EDF7","textColor":"#C05EBC"}],"isAvailable":true,"maxAvailableQuantity":8,"maxAllowedQuantity":100,"breadcrumbs":[{"code":"10","name":"Dietetic, ECO & internațional","slug":"10-dietetic-bio-si-international"},{"code":"1003","name":"Suplimente alimentare","slug":"1003-suplimente-alimentare"},{"code":"100304","name":"Imunitate","slug":"100304-imunitate"},{"code":"100113543","name":"Vitamina C 1000mg 100 capsule vegetale","slug":"100113543-solgar-vitamina-c-1000mg-100-capsule-vegetale"}],"activePromotion":null,"saveMe":null,"labels":[],"geniusPrice":null,"geniusUnitPricePerLabel":null,"banner":null,"discountLabel":null,"geniusDiscountLabel":null,"badge":null},{"code":"100113615","variantCode":"100113615","name":"Vitamina C 500mg, 100 capsule vegetale","slug":"100113615-solgar-vitamina-c-500mg-100-capsule-vegetale","unitPriceLabel":"348,2 Lei/kg","brand":"Solgar","brandCode":"1885","brandFilterCode":"solgar-b1889","sku":"100113615","price":69.64,"originalPrice":null,"currencyCode":"RON","currency":"Lei","image":{"thumbnail":{"default":"https://cdn.freshful.ro/media/cache/sylius_shop_product_thumbnail/0d/a0/9204b1a5d9e569ae67ec718cec34.jpg"},"large":{"default":"https://cdn.freshful.ro/media/cache/freshful_large/0d/a0/9204b1a5d9e569ae67ec718cec34.jpg"},"extralarge":{"default":"https://cdn.freshful.ro/media/cache/sylius_shop_product_original/0d/a0/9204b1a5d9e569ae67ec718cec34.jpg"}},"label":null,"tags":[{"type":"vegan","text":"Vegan","icon":"https://cdn.freshful.ro/assets/product_tags/vegan.svg","iconPng":"https://cdn.freshful.ro/assets/product_tags/vegan.png","backgroundColor":"#ECF9F8","textColor":"#33A39C"},{"type":"saltFree","text":"Fara sare","icon":"https://cdn.freshful.ro/assets/product_tags/salt_free.svg","iconPng":"https://cdn.freshful.ro/assets/product_tags/salt_free.png","backgroundColor":"#E9F6F1","textColor":"#46AB86"},{"type":"NoAddedSugar","text":"Fara zahar adaugat","icon":"https://cdn.freshful.ro/assets/product_tags/fara_zahar_adaugat.svg","iconPng":"https://cdn.freshful.ro/assets/product_tags/fara_zahar_adaugat.png","backgroundColor":"#F8EDF7","textColor":"#C05EBC"}],"isAvailable":true,"maxAvailableQuantity":1,"maxAllowedQuantity":100,"breadcrumbs":[{"code":"10","name":"Dietetic, ECO & internațional","slug":"10-dietetic-bio-si-international"},{"code":"1003","name":"Suplimente alimentare","slug":"1003-suplimente-alimentare"},{"code":"100304","name":"Imunitate","slug":"100304-imunitate"},{"code":"100113615","name":"Vitamina C 500mg, 100 capsule vegetale","slug":"100113615-solgar-vitamina-c-500mg-100-capsule-vegetale"}],"activePromotion":null,"saveMe":null,"labels":[],"geniusPrice":null,"geniusUnitPricePerLabel":null,"banner":null,"discountLabel":null,"geniusDiscountLabel":null,"badge":null},{"code":"100118463","variantCode":"100118463","name":"Vitamina C lipozomală 10 plicuri","slug":"100118463-biocyte-vitamina-c-lipozomala-10-plicuri","unitPriceLabel":"69,99 Lei/buc","brand":"Biocyte","brandCode":"2001","brandFilterCode":"biocyte-b2010","sku":"100118463","price":69.99,"originalPrice":null,"currencyCode":"RON","currency":"Lei","image":{"thumbnail":{"default":"https://cdn.freshful.ro/media/cache/sylius_shop_product_thumbnail/35/af/fc2194033f0234d3e0fd06d57889.jpg"},"large":{"default":"https://cdn.freshful.ro/media/cache/freshful_large/35/af/fc2194033f0234d3e0fd06d57889.jpg"},"extralarge":{"default":"https://cdn.freshful.ro/media/cache/sylius_shop_product_original/35/af/fc2194033f0234d3e0fd06d57889.jpg"}},"label":null,"tags":[],"isAvailable":true,"maxAvailableQuantity":10,"maxAllowedQuantity":100,"breadcrumbs":[{"code":"10","name":"Dietetic, ECO & internațional","slug":"10-dietetic-bio-si-international"},{"code":"1003","name":"Suplimente alimentare","slug":"1003-suplimente-alimentare"},{"code":"100304","name":"Imunitate","slug":"100304-imunitate"},{"code":"100118463","name":"Vitamina C lipozomală 10 plicuri","slug":"100118463-biocyte-vitamina-c-lipozomala-10-plicuri"}],"activePromotion":null,"saveMe":null,"labels":[],"geniusPrice":null,"geniusUnitPricePerLabel":null,"banner":null,"discountLabel":null,"geniusDiscountLabel":null,"badge":null},{"code":"100129376","variantCode":"100129376","name":"Supliment alimentar ApiImunoProtect 50ml","slug":"100129376-apiphen-supliment-alimentar-apiimunoprotect-50ml","unitPriceLabel":"539,6 Lei/l","brand":"Apiphen","brandCode":"2372","brandFilterCode":"apiphen-b2376","sku":"100129376","price":26.98,"originalPrice":null,"currencyCode":"RON","currency":"Lei","image":{"thumbnail":{"default":"https://cdn.freshful.ro/media/cache/sylius_shop_product_thumbnail/10/69/c30cbc1372011933f36e1880e537.jpg"},"large":{"default":"https://cdn.freshful.ro/media/cache/freshful_large/10/69/c30cbc1372011933f36e1880e537.jpg"},"extralarge":{"default":"https://cdn.freshful.ro/media/cache/sylius_shop_product_original/10/69/c30cbc1372011933f36e1880e537.jpg"}},"label":null,"tags":[],"isAvailable":true,"maxAvailableQuantity":100,"maxAllowedQuantity":100,"breadcrumbs":[{"code":"10","name":"Dietetic, ECO & internațional","slug":"10-dietetic-bio-si-international"},{"code":"1003","name":"Suplimente alimentare","slug":"1003-suplimente-alimentare"},{"code":"100304","name":"Imunitate","slug":"100304-imunitate"},{"code":"100129376","name":"Supliment alimentar ApiImunoProtect 50ml","slug":"100129376-apiphen-supliment-alimentar-apiimunoprotect-50ml"}],"activePromotion":null,"saveMe":null,"labels":[],"geniusPrice":null,"geniusUnitPricePerLabel":null,"banner":null,"discountLabel":null,"geniusDiscountLabel":null,"badge":null},{"code":"100129377","variantCode":"100129377","name":"Vitamina C api naturală 50ml","slug":"100129377-apiphen-vitamina-c-api-naturala-50ml","unitPriceLabel":"566,6 Lei/l","brand":"Apiphen","brandCode":"2372","brandFilterCode":"apiphen-b2376","sku":"100129377","price":28.33,"originalPrice":null,"currencyCode":"RON","currency":"Lei","image":{"thumbnail":{"default":"https://cdn.freshful.ro/media/cache/sylius_shop_product_thumbnail/20/42/12c98c3ab6cd84f004cb5691cb51.jpg"},"large":{"default":"https://cdn.freshful.ro/media/cache/freshful_large/20/42/12c98c3ab6cd84f004cb5691cb51.jpg"},"extralarge":{"default":"https://cdn.freshful.ro/media/cache/sylius_shop_product_original/20/42/12c98c3ab6cd84f004cb5691cb51.jpg"}},"label":null,"tags":[],"isAvailable":true,"maxAvailableQuantity":100,"maxAllowedQuantity":100,"breadcrumbs":[{"code":"10","name":"Dietetic, ECO & internațional","slug":"10-dietetic-bio-si-international"},{"code":"1003","name":"Suplimente alimentare","slug":"1003-suplimente-alimentare"},{"code":"100304","name":"Imunitate","slug":"100304-imunitate"},{"code":"100129377","name":"Vitamina C api naturală 50ml","slug":"100129377-apiphen-vitamina-c-api-naturala-50ml"}],"activePromotion":null,"saveMe":null,"labels":[],"geniusPrice":null,"geniusUnitPricePerLabel":null,"banner":null,"discountLabel":null,"geniusDiscountLabel":null,"badge":null}],"filters":{"countSelected":0,"items":[{"code":"brand","name":"Brand","countSelected":0,"values":[{"code":"apiphen-b2376","name":"Apiphen","isSelected":false,"count":6},{"code":"barny-s-born-in-canada-b2067","name":"Barny's Born in Canada","isSelected":false,"count":3},{"code":"biocyte-b2010","name":"Biocyte","isSelected":false,"count":6},{"code":"citonat-b935","name":"Citonat","isSelected":false,"count":1},{"code":"dacia-plant-b934","name":"Dacia Plant","isSelected":false,"count":8},{"code":"goldnutrition-b1999","name":"Goldnutrition","isSelected":false,"count":2},{"code":"herbiolys-b100","name":"Herbiolys","isSelected":false,"count":1},{"code":"ingerasul-b1637","name":"Ingerașul","isSelected":false,"count":1},{"code":"mumie-b2268","name":"Mumie","isSelected":false,"count":9},{"code":"natural-doctor-b2293","name":"Natural Doctor","isSelected":false,"count":2},{"code":"sanovita-b483","name":"Sanovita","isSelected":false,"count":2},{"code":"solgar-b1889","name":"Solgar","isSelected":false,"count":10}]},{"code":"diet_lifestyle","name":"Dietă și lifestyle","countSelected":0,"values":[{"code":"bio-a26","name":"Bio","isSelected":false,"count":1},{"code":"eco-a83","name":"Eco","isSelected":false,"count":1},{"code":"fara-gluten-a16","name":"Fara gluten","isSelected":false,"count":1},{"code":"fara-sare-a52","name":"Fara sare","isSelected":false,"count":8},{"code":"fara-zahar-adaugat-a29","name":"Fara zahar adaugat","isSelected":false,"count":9},{"code":"vegan-a24","name":"Vegan","isSelected":false,"count":9},{"code":"vegetarian-a28","name":"Vegetarian","isSelected":false,"count":3}]}]},"orderBy":[{"field":"price","direction":"asc","name":"Preț crescător","isSelected":false},{"field":"price","direction":"desc","name":"Preț descrescător","isSelected":false},{"field":"popularity","direction":"desc","name":"Cele mai populare","isSelected":true},{"field":"category","direction":"asc","name":"Categorie","isSelected":false}],"metaTitle":"Imunitate - Gamă variată","metaDescription":"Vrei Imunitate? Alege dintr-o gamă variată. Comanzi simplu și ai livrare rapidă, calitate și prospețime. Hai pe Freshful.ro","metaKeywords":null,"banners":[]}}