{"type":"subcategory","payload":{"analyticsListId":"category_100307-piele-par-si-unghii","analyticsListName":"Category - Piele, păr și unghii","name":"Piele, păr și unghii","slug":"100307-piele-par-si-unghii","image":null,"breadcrumbs":[{"code":"10","name":"Dietetic, ECO & internațional","slug":"10-dietetic-bio-si-international"},{"code":"1003","name":"Suplimente alimentare","slug":"1003-suplimente-alimentare"},{"code":"100307","name":"Piele, păr și unghii","slug":"100307-piele-par-si-unghii"}],"slots":[],"page":1,"limit":10,"pages":3,"count":28,"siblings":[{"name":"Produse ecologice","slug":"1001-produse-ecologice","selected":false},{"name":"Produse dietetice și naturiste","slug":"1002-produse-dietetice-si-naturiste","selected":false},{"name":"Suplimente alimentare","slug":"1003-suplimente-alimentare","selected":true},{"name":"Produse internaționale","slug":"1004-bucatarie-internationala","selected":false}],"children":[{"name":"Toate produsele","slug":"1003-suplimente-alimentare","selected":false},{"name":"Vitamine și minerale","slug":"100301-vitamine-si-minerale","selected":false},{"name":"Energie și vitalitate","slug":"100302-energie-si-vitalitate","selected":false},{"name":"Sarcină","slug":"100303-sarcina","selected":false},{"name":"Imunitate","slug":"100304-imunitate","selected":false},{"name":"Sistem muscular, articular și osos","slug":"100305-muscular-articular-si-osos","selected":false},{"name":"Sistem nervos, ochi și cardio","slug":"100306-nervos-ochi-cardiovascular","selected":false},{"name":"Piele, păr și unghii","slug":"100307-piele-par-si-unghii","selected":true},{"name":"Sistem gastrointestinal","slug":"100308-sistemul-gastrointenstinal","selected":false},{"name":"Sistem urogenital","slug":"100309-sistemul-urogenital","selected":false},{"name":"Sistem respirator","slug":"100310-sistemul-respirator","selected":false}],"products":[{"code":"100118436","variantCode":"100118436","name":"Collagen Express 10 plicuri","slug":"100118436-biocyte-collagen-express-10-plicuri","unitPriceLabel":"69,99 Lei/buc","brand":"Biocyte","brandCode":"2001","brandFilterCode":"biocyte-b2010","sku":"100118436","price":69.99,"originalPrice":100.28,"currencyCode":"RON","currency":"Lei","image":{"thumbnail":{"default":"https://cdn.freshful.ro/media/cache/sylius_shop_product_thumbnail/e2/72/2e99faccb618fdb01b44b5806663.jpg"},"large":{"default":"https://cdn.freshful.ro/media/cache/freshful_large/e2/72/2e99faccb618fdb01b44b5806663.jpg"},"extralarge":{"default":"https://cdn.freshful.ro/media/cache/sylius_shop_product_original/e2/72/2e99faccb618fdb01b44b5806663.jpg"}},"label":{"text":"-30%","backgroundColor":"#FF9903","textColor":"#FFFFFF"},"tags":[],"isAvailable":true,"maxAvailableQuantity":6,"maxAllowedQuantity":100,"breadcrumbs":[{"code":"10","name":"Dietetic, ECO & internațional","slug":"10-dietetic-bio-si-international"},{"code":"1003","name":"Suplimente alimentare","slug":"1003-suplimente-alimentare"},{"code":"100307","name":"Piele, păr și unghii","slug":"100307-piele-par-si-unghii"},{"code":"100118436","name":"Collagen Express 10 plicuri","slug":"100118436-biocyte-collagen-express-10-plicuri"}],"activePromotion":{"code":"special-bacanie-bauturi-mar23","name":"Preț redus","targetQuantity":null},"saveMe":null,"labels":[{"type":"v1","items":[{"text":"-30%","backgroundColor":"#FF9903","textColor":"#FFFFFF"}]}],"geniusPrice":null,"geniusUnitPricePerLabel":null,"banner":{"text":"Super preț","textColor":"#FF0000","bgColor":"#FFF2EC","icon":null,"link":"https://www.freshful.ro/oferte/special-bacanie-bauturi-mar23","type":"promo","analyticsEventType":"select_promotion","analyticsEventPayload":{"promotion_id":"special-bacanie-bauturi-mar23","promotion_name":"Prețuri speciale pentru Ziua Femeii"}},"discountLabel":"Economisești 30%","geniusDiscountLabel":null,"badge":null},{"code":"100118439","variantCode":"100118439","name":"Éclat Extrême Pearl 40 capsule","slug":"100118439-biocyte-eclat-extreme-pearl-40-capsule","unitPriceLabel":"118,99 Lei/buc","brand":"Biocyte","brandCode":"2001","brandFilterCode":"biocyte-b2010","sku":"100118439","price":118.99,"originalPrice":169.99,"currencyCode":"RON","currency":"Lei","image":{"thumbnail":{"default":"https://cdn.freshful.ro/media/cache/sylius_shop_product_thumbnail/8d/7f/275aaa9858a35cdfab350ff7f207.jpg"},"large":{"default":"https://cdn.freshful.ro/media/cache/freshful_large/8d/7f/275aaa9858a35cdfab350ff7f207.jpg"},"extralarge":{"default":"https://cdn.freshful.ro/media/cache/sylius_shop_product_original/8d/7f/275aaa9858a35cdfab350ff7f207.jpg"}},"label":{"text":"-30%","backgroundColor":"#FF9903","textColor":"#FFFFFF"},"tags":[],"isAvailable":true,"maxAvailableQuantity":5,"maxAllowedQuantity":100,"breadcrumbs":[{"code":"10","name":"Dietetic, ECO & internațional","slug":"10-dietetic-bio-si-international"},{"code":"1003","name":"Suplimente alimentare","slug":"1003-suplimente-alimentare"},{"code":"100307","name":"Piele, păr și unghii","slug":"100307-piele-par-si-unghii"},{"code":"100118439","name":"Éclat Extrême Pearl 40 capsule","slug":"100118439-biocyte-eclat-extreme-pearl-40-capsule"}],"activePromotion":{"code":"special-bacanie-bauturi-mar23","name":"Preț redus","targetQuantity":null},"saveMe":null,"labels":[{"type":"v1","items":[{"text":"-30%","backgroundColor":"#FF9903","textColor":"#FFFFFF"}]}],"geniusPrice":null,"geniusUnitPricePerLabel":null,"banner":{"text":"Super preț","textColor":"#FF0000","bgColor":"#FFF2EC","icon":null,"link":"https://www.freshful.ro/oferte/special-bacanie-bauturi-mar23","type":"promo","analyticsEventType":"select_promotion","analyticsEventPayload":{"promotion_id":"special-bacanie-bauturi-mar23","promotion_name":"Prețuri speciale pentru Ziua Femeii"}},"discountLabel":"Economisești 30%","geniusDiscountLabel":null,"badge":null},{"code":"100118722","variantCode":"100118722","name":"Ultra Max Collagen 30 plicuri","slug":"100118722-goldnutrition-ultra-max-collagen-30-plicuri","unitPriceLabel":"99,99 Lei/buc","brand":"Goldnutrition","brandCode":"2007","brandFilterCode":"goldnutrition-b1999","sku":"100118722","price":99.99,"originalPrice":149.99,"currencyCode":"RON","currency":"Lei","image":{"thumbnail":{"default":"https://cdn.freshful.ro/media/cache/sylius_shop_product_thumbnail/9a/d4/aa1d1815c78132ed05beb0dce61b.jpg"},"large":{"default":"https://cdn.freshful.ro/media/cache/freshful_large/9a/d4/aa1d1815c78132ed05beb0dce61b.jpg"},"extralarge":{"default":"https://cdn.freshful.ro/media/cache/sylius_shop_product_original/9a/d4/aa1d1815c78132ed05beb0dce61b.jpg"}},"label":{"text":"-33%","backgroundColor":"#FF9903","textColor":"#FFFFFF"},"tags":[],"isAvailable":true,"maxAvailableQuantity":1,"maxAllowedQuantity":100,"breadcrumbs":[{"code":"10","name":"Dietetic, ECO & internațional","slug":"10-dietetic-bio-si-international"},{"code":"1003","name":"Suplimente alimentare","slug":"1003-suplimente-alimentare"},{"code":"100307","name":"Piele, păr și unghii","slug":"100307-piele-par-si-unghii"},{"code":"100118722","name":"Ultra Max Collagen 30 plicuri","slug":"100118722-goldnutrition-ultra-max-collagen-30-plicuri"}],"activePromotion":{"code":"special-bacanie-bauturi-mar23","name":"Preț redus","targetQuantity":null},"saveMe":null,"labels":[{"type":"v1","items":[{"text":"-33%","backgroundColor":"#FF9903","textColor":"#FFFFFF"}]}],"geniusPrice":null,"geniusUnitPricePerLabel":null,"banner":{"text":"Super preț","textColor":"#FF0000","bgColor":"#FFF2EC","icon":null,"link":"https://www.freshful.ro/oferte/special-bacanie-bauturi-mar23","type":"promo","analyticsEventType":"select_promotion","analyticsEventPayload":{"promotion_id":"special-bacanie-bauturi-mar23","promotion_name":"Prețuri speciale pentru Ziua Femeii"}},"discountLabel":"Economisești 33%","geniusDiscountLabel":null,"badge":null},{"code":"100118435","variantCode":"100118435","name":"Activ' Anti-rides 30 capsule","slug":"100118435-biocyte-activ-anti-rides-30-capsule","unitPriceLabel":"97,99 Lei/buc","brand":"Biocyte","brandCode":"2001","brandFilterCode":"biocyte-b2010","sku":"100118435","price":97.99,"originalPrice":139.99,"currencyCode":"RON","currency":"Lei","image":{"thumbnail":{"default":"https://cdn.freshful.ro/media/cache/sylius_shop_product_thumbnail/a4/4b/95c0d12854130ed718916c4448a4.jpg"},"large":{"default":"https://cdn.freshful.ro/media/cache/freshful_large/a4/4b/95c0d12854130ed718916c4448a4.jpg"},"extralarge":{"default":"https://cdn.freshful.ro/media/cache/sylius_shop_product_original/a4/4b/95c0d12854130ed718916c4448a4.jpg"}},"label":{"text":"-30%","backgroundColor":"#FF9903","textColor":"#FFFFFF"},"tags":[],"isAvailable":true,"maxAvailableQuantity":7,"maxAllowedQuantity":100,"breadcrumbs":[{"code":"10","name":"Dietetic, ECO & internațional","slug":"10-dietetic-bio-si-international"},{"code":"1003","name":"Suplimente alimentare","slug":"1003-suplimente-alimentare"},{"code":"100307","name":"Piele, păr și unghii","slug":"100307-piele-par-si-unghii"},{"code":"100118435","name":"Activ' Anti-rides 30 capsule","slug":"100118435-biocyte-activ-anti-rides-30-capsule"}],"activePromotion":{"code":"special-bacanie-bauturi-mar23","name":"Preț redus","targetQuantity":null},"saveMe":null,"labels":[{"type":"v1","items":[{"text":"-30%","backgroundColor":"#FF9903","textColor":"#FFFFFF"}]}],"geniusPrice":null,"geniusUnitPricePerLabel":null,"banner":{"text":"Super preț","textColor":"#FF0000","bgColor":"#FFF2EC","icon":null,"link":"https://www.freshful.ro/oferte/special-bacanie-bauturi-mar23","type":"promo","analyticsEventType":"select_promotion","analyticsEventPayload":{"promotion_id":"special-bacanie-bauturi-mar23","promotion_name":"Prețuri speciale pentru Ziua Femeii"}},"discountLabel":"Economisești 30%","geniusDiscountLabel":null,"badge":null},{"code":"100118440","variantCode":"100118440","name":"Supliment alimentar cu elastina Elastine Forte 40 capsule","slug":"100118440-biocyte-supliment-alimentar-cu-elastina-elastine-forte-40-capsule","unitPriceLabel":"84,99 Lei/buc","brand":"Biocyte","brandCode":"2001","brandFilterCode":"biocyte-b2010","sku":"100118440","price":84.99,"originalPrice":120.99,"currencyCode":"RON","currency":"Lei","image":{"thumbnail":{"default":"https://cdn.freshful.ro/media/cache/sylius_shop_product_thumbnail/ce/68/93a2f311c658d528c5e4b2a4fe1d.jpg"},"large":{"default":"https://cdn.freshful.ro/media/cache/freshful_large/ce/68/93a2f311c658d528c5e4b2a4fe1d.jpg"},"extralarge":{"default":"https://cdn.freshful.ro/media/cache/sylius_shop_product_original/ce/68/93a2f311c658d528c5e4b2a4fe1d.jpg"}},"label":{"text":"-29%","backgroundColor":"#FF9903","textColor":"#FFFFFF"},"tags":[],"isAvailable":true,"maxAvailableQuantity":9,"maxAllowedQuantity":100,"breadcrumbs":[{"code":"10","name":"Dietetic, ECO & internațional","slug":"10-dietetic-bio-si-international"},{"code":"1003","name":"Suplimente alimentare","slug":"1003-suplimente-alimentare"},{"code":"100307","name":"Piele, păr și unghii","slug":"100307-piele-par-si-unghii"},{"code":"100118440","name":"Supliment alimentar cu elastina Elastine Forte 40 capsule","slug":"100118440-biocyte-supliment-alimentar-cu-elastina-elastine-forte-40-capsule"}],"activePromotion":{"code":"special-bacanie-bauturi-mar23","name":"Preț redus","targetQuantity":null},"saveMe":null,"labels":[{"type":"v1","items":[{"text":"-29%","backgroundColor":"#FF9903","textColor":"#FFFFFF"}]}],"geniusPrice":null,"geniusUnitPricePerLabel":null,"banner":{"text":"Super preț","textColor":"#FF0000","bgColor":"#FFF2EC","icon":null,"link":"https://www.freshful.ro/oferte/special-bacanie-bauturi-mar23","type":"promo","analyticsEventType":"select_promotion","analyticsEventPayload":{"promotion_id":"special-bacanie-bauturi-mar23","promotion_name":"Prețuri speciale pentru Ziua Femeii"}},"discountLabel":"Economisești 29%","geniusDiscountLabel":null,"badge":null},{"code":"100118445","variantCode":"100118445","name":"Supliment alimentar Peau Radieuse 60 capsule","slug":"100118445-biocyte-supliment-alimentar-peau-radieuse-60-capsule","unitPriceLabel":"97,99 Lei/buc","brand":"Biocyte","brandCode":"2001","brandFilterCode":"biocyte-b2010","sku":"100118445","price":97.99,"originalPrice":139.99,"currencyCode":"RON","currency":"Lei","image":{"thumbnail":{"default":"https://cdn.freshful.ro/media/cache/sylius_shop_product_thumbnail/7e/a2/bbe915a8fd35a105319e48c9080b.jpg"},"large":{"default":"https://cdn.freshful.ro/media/cache/freshful_large/7e/a2/bbe915a8fd35a105319e48c9080b.jpg"},"extralarge":{"default":"https://cdn.freshful.ro/media/cache/sylius_shop_product_original/7e/a2/bbe915a8fd35a105319e48c9080b.jpg"}},"label":{"text":"-30%","backgroundColor":"#FF9903","textColor":"#FFFFFF"},"tags":[],"isAvailable":true,"maxAvailableQuantity":4,"maxAllowedQuantity":100,"breadcrumbs":[{"code":"10","name":"Dietetic, ECO & internațional","slug":"10-dietetic-bio-si-international"},{"code":"1003","name":"Suplimente alimentare","slug":"1003-suplimente-alimentare"},{"code":"100307","name":"Piele, păr și unghii","slug":"100307-piele-par-si-unghii"},{"code":"100118445","name":"Supliment alimentar Peau Radieuse 60 capsule","slug":"100118445-biocyte-supliment-alimentar-peau-radieuse-60-capsule"}],"activePromotion":{"code":"special-bacanie-bauturi-mar23","name":"Preț redus","targetQuantity":null},"saveMe":null,"labels":[{"type":"v1","items":[{"text":"-30%","backgroundColor":"#FF9903","textColor":"#FFFFFF"}]}],"geniusPrice":null,"geniusUnitPricePerLabel":null,"banner":{"text":"Super preț","textColor":"#FF0000","bgColor":"#FFF2EC","icon":null,"link":"https://www.freshful.ro/oferte/special-bacanie-bauturi-mar23","type":"promo","analyticsEventType":"select_promotion","analyticsEventPayload":{"promotion_id":"special-bacanie-bauturi-mar23","promotion_name":"Prețuri speciale pentru Ziua Femeii"}},"discountLabel":"Economisești 30%","geniusDiscountLabel":null,"badge":null},{"code":"100118446","variantCode":"100118446","name":"Supliment alimentar Terracotta Cocktail Autobronzant 30 capsule","slug":"100118446-biocyte-supliment-alimentar-terracotta-cocktail-autobronzant-30-capsule","unitPriceLabel":"69,99 Lei/buc","brand":"Biocyte","brandCode":"2001","brandFilterCode":"biocyte-b2010","sku":"100118446","price":69.99,"originalPrice":89.99,"currencyCode":"RON","currency":"Lei","image":{"thumbnail":{"default":"https://cdn.freshful.ro/media/cache/sylius_shop_product_thumbnail/f5/87/23bf03260cd0e25290419f53d263.jpg"},"large":{"default":"https://cdn.freshful.ro/media/cache/freshful_large/f5/87/23bf03260cd0e25290419f53d263.jpg"},"extralarge":{"default":"https://cdn.freshful.ro/media/cache/sylius_shop_product_original/f5/87/23bf03260cd0e25290419f53d263.jpg"}},"label":{"text":"-22%","backgroundColor":"#FF9903","textColor":"#FFFFFF"},"tags":[],"isAvailable":true,"maxAvailableQuantity":25,"maxAllowedQuantity":100,"breadcrumbs":[{"code":"10","name":"Dietetic, ECO & internațional","slug":"10-dietetic-bio-si-international"},{"code":"1003","name":"Suplimente alimentare","slug":"1003-suplimente-alimentare"},{"code":"100307","name":"Piele, păr și unghii","slug":"100307-piele-par-si-unghii"},{"code":"100118446","name":"Supliment alimentar Terracotta Cocktail Autobronzant 30 capsule","slug":"100118446-biocyte-supliment-alimentar-terracotta-cocktail-autobronzant-30-capsule"}],"activePromotion":{"code":"special-bacanie-bauturi-mar23","name":"Preț redus","targetQuantity":null},"saveMe":null,"labels":[{"type":"v1","items":[{"text":"-22%","backgroundColor":"#FF9903","textColor":"#FFFFFF"}]}],"geniusPrice":null,"geniusUnitPricePerLabel":null,"banner":{"text":"Super preț","textColor":"#FF0000","bgColor":"#FFF2EC","icon":null,"link":"https://www.freshful.ro/oferte/special-bacanie-bauturi-mar23","type":"promo","analyticsEventType":"select_promotion","analyticsEventPayload":{"promotion_id":"special-bacanie-bauturi-mar23","promotion_name":"Prețuri speciale pentru Ziua Femeii"}},"discountLabel":"Economisești 22%","geniusDiscountLabel":null,"badge":null},{"code":"100118449","variantCode":"100118449","name":"Keratine Forte anti-cădereapărului  40 comprimate","slug":"100118449-biocyte-keratine-forte-anti-cadereaparului-40-comprimate","unitPriceLabel":"76,99 Lei/buc","brand":"Biocyte","brandCode":"2001","brandFilterCode":"biocyte-b2010","sku":"100118449","price":76.99,"originalPrice":109.99,"currencyCode":"RON","currency":"Lei","image":{"thumbnail":{"default":"https://cdn.freshful.ro/media/cache/sylius_shop_product_thumbnail/47/35/09e1cce460a4e722f4158321b312.jpg"},"large":{"default":"https://cdn.freshful.ro/media/cache/freshful_large/47/35/09e1cce460a4e722f4158321b312.jpg"},"extralarge":{"default":"https://cdn.freshful.ro/media/cache/sylius_shop_product_original/47/35/09e1cce460a4e722f4158321b312.jpg"}},"label":{"text":"-30%","backgroundColor":"#FF9903","textColor":"#FFFFFF"},"tags":[],"isAvailable":true,"maxAvailableQuantity":28,"maxAllowedQuantity":100,"breadcrumbs":[{"code":"10","name":"Dietetic, ECO & internațional","slug":"10-dietetic-bio-si-international"},{"code":"1003","name":"Suplimente alimentare","slug":"1003-suplimente-alimentare"},{"code":"100307","name":"Piele, păr și unghii","slug":"100307-piele-par-si-unghii"},{"code":"100118449","name":"Keratine Forte anti-cădereapărului  40 comprimate","slug":"100118449-biocyte-keratine-forte-anti-cadereaparului-40-comprimate"}],"activePromotion":{"code":"special-bacanie-bauturi-mar23","name":"Preț redus","targetQuantity":null},"saveMe":null,"labels":[{"type":"v1","items":[{"text":"-30%","backgroundColor":"#FF9903","textColor":"#FFFFFF"}]}],"geniusPrice":null,"geniusUnitPricePerLabel":null,"banner":{"text":"Super preț","textColor":"#FF0000","bgColor":"#FFF2EC","icon":null,"link":"https://www.freshful.ro/oferte/special-bacanie-bauturi-mar23","type":"promo","analyticsEventType":"select_promotion","analyticsEventPayload":{"promotion_id":"special-bacanie-bauturi-mar23","promotion_name":"Prețuri speciale pentru Ziua Femeii"}},"discountLabel":"Economisești 30%","geniusDiscountLabel":null,"badge":null},{"code":"100118450","variantCode":"100118450","name":"Keratine Forte Full Spectrum 40 capsule","slug":"100118450-biocyte-keratine-forte-full-spectrum-40-capsule","unitPriceLabel":"97,99 Lei/buc","brand":"Biocyte","brandCode":"2001","brandFilterCode":"biocyte-b2010","sku":"100118450","price":97.99,"originalPrice":139.99,"currencyCode":"RON","currency":"Lei","image":{"thumbnail":{"default":"https://cdn.freshful.ro/media/cache/sylius_shop_product_thumbnail/8e/3e/921ae22608d6176312113430335e.jpg"},"large":{"default":"https://cdn.freshful.ro/media/cache/freshful_large/8e/3e/921ae22608d6176312113430335e.jpg"},"extralarge":{"default":"https://cdn.freshful.ro/media/cache/sylius_shop_product_original/8e/3e/921ae22608d6176312113430335e.jpg"}},"label":{"text":"-30%","backgroundColor":"#FF9903","textColor":"#FFFFFF"},"tags":[],"isAvailable":true,"maxAvailableQuantity":4,"maxAllowedQuantity":100,"breadcrumbs":[{"code":"10","name":"Dietetic, ECO & internațional","slug":"10-dietetic-bio-si-international"},{"code":"1003","name":"Suplimente alimentare","slug":"1003-suplimente-alimentare"},{"code":"100307","name":"Piele, păr și unghii","slug":"100307-piele-par-si-unghii"},{"code":"100118450","name":"Keratine Forte Full Spectrum 40 capsule","slug":"100118450-biocyte-keratine-forte-full-spectrum-40-capsule"}],"activePromotion":{"code":"special-bacanie-bauturi-mar23","name":"Preț redus","targetQuantity":null},"saveMe":null,"labels":[{"type":"v1","items":[{"text":"-30%","backgroundColor":"#FF9903","textColor":"#FFFFFF"}]}],"geniusPrice":null,"geniusUnitPricePerLabel":null,"banner":{"text":"Super preț","textColor":"#FF0000","bgColor":"#FFF2EC","icon":null,"link":"https://www.freshful.ro/oferte/special-bacanie-bauturi-mar23","type":"promo","analyticsEventType":"select_promotion","analyticsEventPayload":{"promotion_id":"special-bacanie-bauturi-mar23","promotion_name":"Prețuri speciale pentru Ziua Femeii"}},"discountLabel":"Economisești 30%","geniusDiscountLabel":null,"badge":null},{"code":"100097835","variantCode":"6421930000054","name":"Tinctură de propolis 20ml","slug":"100097835-dacia-plant-tinctura-de-propolis-20ml","unitPriceLabel":"310 Lei/kg","brand":"Dacia Plant","brandCode":"934","brandFilterCode":"dacia-plant-b934","sku":"100097835","price":15.5,"originalPrice":null,"currencyCode":"RON","currency":"Lei","image":{"thumbnail":{"default":"https://cdn.freshful.ro/media/cache/sylius_shop_product_thumbnail/81/b5/077ab47f105394bce1677eaeae8a.jpg"},"large":{"default":"https://cdn.freshful.ro/media/cache/freshful_large/81/b5/077ab47f105394bce1677eaeae8a.jpg"},"extralarge":{"default":"https://cdn.freshful.ro/media/cache/sylius_shop_product_original/81/b5/077ab47f105394bce1677eaeae8a.jpg"}},"label":null,"tags":[],"isAvailable":true,"maxAvailableQuantity":34,"maxAllowedQuantity":100,"breadcrumbs":[{"code":"10","name":"Dietetic, ECO & internațional","slug":"10-dietetic-bio-si-international"},{"code":"1003","name":"Suplimente alimentare","slug":"1003-suplimente-alimentare"},{"code":"100307","name":"Piele, păr și unghii","slug":"100307-piele-par-si-unghii"},{"code":"100097835","name":"Tinctură de propolis 20ml","slug":"100097835-dacia-plant-tinctura-de-propolis-20ml"}],"activePromotion":null,"saveMe":null,"labels":[],"geniusPrice":null,"geniusUnitPricePerLabel":null,"banner":null,"discountLabel":null,"geniusDiscountLabel":null,"badge":null}],"filters":{"countSelected":0,"items":[{"code":"promotion","name":"Promoții","countSelected":0,"values":[{"code":"special-bacanie-bauturi-mar23","name":"Prețuri speciale pentru Ziua Femeii","isSelected":false,"count":10}]},{"code":"brand","name":"Brand","countSelected":0,"values":[{"code":"biocyte-b2010","name":"Biocyte","isSelected":false,"count":15},{"code":"dacia-plant-b934","name":"Dacia Plant","isSelected":false,"count":1},{"code":"goldnutrition-b1999","name":"Goldnutrition","isSelected":false,"count":1},{"code":"herbiolys-b100","name":"Herbiolys","isSelected":false,"count":1},{"code":"sanovita-b483","name":"Sanovita","isSelected":false,"count":1},{"code":"solgar-b1889","name":"Solgar","isSelected":false,"count":9}]},{"code":"diet_lifestyle","name":"Dietă și lifestyle","countSelected":0,"values":[{"code":"eco-a83","name":"Eco","isSelected":false,"count":1},{"code":"fara-sare-a52","name":"Fara sare","isSelected":false,"count":6},{"code":"fara-zahar-adaugat-a29","name":"Fara zahar adaugat","isSelected":false,"count":7},{"code":"vegan-a24","name":"Vegan","isSelected":false,"count":6},{"code":"vegetarian-a28","name":"Vegetarian","isSelected":false,"count":1}]}]},"orderBy":[{"field":"price","direction":"asc","name":"Preț crescător","isSelected":false},{"field":"price","direction":"desc","name":"Preț descrescător","isSelected":false},{"field":"popularity","direction":"desc","name":"Cele mai populare","isSelected":true},{"field":"category","direction":"asc","name":"Categorie","isSelected":false}],"metaTitle":"Piele, păr și unghii - Gamă variată","metaDescription":"Vrei Piele, păr și unghii? Alege dintr-o gamă variată. Comanzi simplu și ai livrare rapidă, calitate și prospețime. Hai pe Freshful.ro","metaKeywords":null,"banners":[]}}