{"type":"subcategory","payload":{"analyticsListId":"category_100306-nervos-ochi-cardiovascular","analyticsListName":"Category - Sistem nervos, ochi și cardio","name":"Sistem nervos, ochi și cardio","slug":"100306-nervos-ochi-cardiovascular","image":null,"breadcrumbs":[{"code":"10","name":"Dietetic, ECO & internațional","slug":"10-dietetic-bio-si-international"},{"code":"1003","name":"Suplimente alimentare","slug":"1003-suplimente-alimentare"},{"code":"100306","name":"Sistem nervos, ochi și cardio","slug":"100306-nervos-ochi-cardiovascular"}],"slots":[],"page":1,"limit":10,"pages":5,"count":45,"siblings":[{"name":"Produse ecologice","slug":"1001-produse-ecologice","selected":false},{"name":"Produse dietetice și naturiste","slug":"1002-produse-dietetice-si-naturiste","selected":false},{"name":"Suplimente alimentare","slug":"1003-suplimente-alimentare","selected":true},{"name":"Produse internaționale","slug":"1004-bucatarie-internationala","selected":false}],"children":[{"name":"Toate produsele","slug":"1003-suplimente-alimentare","selected":false},{"name":"Vitamine și minerale","slug":"100301-vitamine-si-minerale","selected":false},{"name":"Energie și vitalitate","slug":"100302-energie-si-vitalitate","selected":false},{"name":"Sarcină","slug":"100303-sarcina","selected":false},{"name":"Imunitate","slug":"100304-imunitate","selected":false},{"name":"Sistem muscular, articular și osos","slug":"100305-muscular-articular-si-osos","selected":false},{"name":"Sistem nervos, ochi și cardio","slug":"100306-nervos-ochi-cardiovascular","selected":true},{"name":"Piele, păr și unghii","slug":"100307-piele-par-si-unghii","selected":false},{"name":"Sistem gastrointestinal","slug":"100308-sistemul-gastrointenstinal","selected":false},{"name":"Sistem urogenital","slug":"100309-sistemul-urogenital","selected":false},{"name":"Sistem respirator","slug":"100310-sistemul-respirator","selected":false}],"products":[{"code":"100118453","variantCode":"100118453","name":"Cellu 7 Defense 40 capsule","slug":"100118453-biocyte-cellu-7-defense-40-capsule","unitPriceLabel":"86,99 Lei/buc","brand":"Biocyte","brandCode":"2001","brandFilterCode":"biocyte-b2010","sku":"100118453","price":86.99,"originalPrice":124.26,"currencyCode":"RON","currency":"Lei","image":{"thumbnail":{"default":"https://cdn.freshful.ro/media/cache/sylius_shop_product_thumbnail/9d/26/33a6e98c440650aac3b82b946c2e.jpg"},"large":{"default":"https://cdn.freshful.ro/media/cache/freshful_large/9d/26/33a6e98c440650aac3b82b946c2e.jpg"},"extralarge":{"default":"https://cdn.freshful.ro/media/cache/sylius_shop_product_original/9d/26/33a6e98c440650aac3b82b946c2e.jpg"}},"label":{"text":"-29%","backgroundColor":"#FF9903","textColor":"#FFFFFF"},"tags":[],"isAvailable":true,"maxAvailableQuantity":10,"maxAllowedQuantity":100,"breadcrumbs":[{"code":"10","name":"Dietetic, ECO & internațional","slug":"10-dietetic-bio-si-international"},{"code":"1003","name":"Suplimente alimentare","slug":"1003-suplimente-alimentare"},{"code":"100306","name":"Sistem nervos, ochi și cardio","slug":"100306-nervos-ochi-cardiovascular"},{"code":"100118453","name":"Cellu 7 Defense 40 capsule","slug":"100118453-biocyte-cellu-7-defense-40-capsule"}],"activePromotion":{"code":"special-bacanie-bauturi-mar23","name":"Preț redus","targetQuantity":null},"saveMe":null,"labels":[{"type":"v1","items":[{"text":"-29%","backgroundColor":"#FF9903","textColor":"#FFFFFF"}]}],"geniusPrice":null,"geniusUnitPricePerLabel":null,"banner":{"text":"Super preț","textColor":"#FF0000","bgColor":"#FFF2EC","icon":null,"link":"https://www.freshful.ro/oferte/special-bacanie-bauturi-mar23","type":"promo","analyticsEventType":"select_promotion","analyticsEventPayload":{"promotion_id":"special-bacanie-bauturi-mar23","promotion_name":"Prețuri speciale pentru Ziua Femeii"}},"discountLabel":"Economisești 29%","geniusDiscountLabel":null,"badge":null},{"code":"100113520","variantCode":"100113520","name":"Magneziu & B6, 100 tablete","slug":"100113520-solgar-magneziu-b6-100-tablete","unitPriceLabel":"450,34 Lei/kg","brand":"Solgar","brandCode":"1885","brandFilterCode":"solgar-b1889","sku":"100113520","price":39.9,"originalPrice":null,"currencyCode":"RON","currency":"Lei","image":{"thumbnail":{"default":"https://cdn.freshful.ro/media/cache/sylius_shop_product_thumbnail/dd/49/e296cb4181d914d0b0f0d412b0cd.jpg"},"large":{"default":"https://cdn.freshful.ro/media/cache/freshful_large/dd/49/e296cb4181d914d0b0f0d412b0cd.jpg"},"extralarge":{"default":"https://cdn.freshful.ro/media/cache/sylius_shop_product_original/dd/49/e296cb4181d914d0b0f0d412b0cd.jpg"}},"label":null,"tags":[{"type":"vegan","text":"Vegan","icon":"https://cdn.freshful.ro/assets/product_tags/vegan.svg","iconPng":"https://cdn.freshful.ro/assets/product_tags/vegan.png","backgroundColor":"#ECF9F8","textColor":"#33A39C"}],"isAvailable":true,"maxAvailableQuantity":5,"maxAllowedQuantity":100,"breadcrumbs":[{"code":"10","name":"Dietetic, ECO & internațional","slug":"10-dietetic-bio-si-international"},{"code":"1003","name":"Suplimente alimentare","slug":"1003-suplimente-alimentare"},{"code":"100306","name":"Sistem nervos, ochi și cardio","slug":"100306-nervos-ochi-cardiovascular"},{"code":"100113520","name":"Magneziu & B6, 100 tablete","slug":"100113520-solgar-magneziu-b6-100-tablete"}],"activePromotion":null,"saveMe":null,"labels":[],"geniusPrice":null,"geniusUnitPricePerLabel":null,"banner":null,"discountLabel":null,"geniusDiscountLabel":null,"badge":null},{"code":"100097857","variantCode":"6421930770032","name":"Valeriană tinctură fără alcool 50ml","slug":"100097857-dacia-plant-valeriana-tinctura-fara-alcool-50ml","unitPriceLabel":"0,25 Lei/l","brand":"Dacia Plant","brandCode":"934","brandFilterCode":"dacia-plant-b934","sku":"100097857","price":12.5,"originalPrice":null,"currencyCode":"RON","currency":"Lei","image":{"thumbnail":{"default":"https://cdn.freshful.ro/media/cache/sylius_shop_product_thumbnail/ff/f5/45920ee44684c6b494e72190e91e.jpg"},"large":{"default":"https://cdn.freshful.ro/media/cache/freshful_large/ff/f5/45920ee44684c6b494e72190e91e.jpg"},"extralarge":{"default":"https://cdn.freshful.ro/media/cache/sylius_shop_product_original/ff/f5/45920ee44684c6b494e72190e91e.jpg"}},"label":null,"tags":[],"isAvailable":true,"maxAvailableQuantity":49,"maxAllowedQuantity":100,"breadcrumbs":[{"code":"10","name":"Dietetic, ECO & internațional","slug":"10-dietetic-bio-si-international"},{"code":"1003","name":"Suplimente alimentare","slug":"1003-suplimente-alimentare"},{"code":"100306","name":"Sistem nervos, ochi și cardio","slug":"100306-nervos-ochi-cardiovascular"},{"code":"100097857","name":"Valeriană tinctură fără alcool 50ml","slug":"100097857-dacia-plant-valeriana-tinctura-fara-alcool-50ml"}],"activePromotion":null,"saveMe":null,"labels":[],"geniusPrice":null,"geniusUnitPricePerLabel":null,"banner":null,"discountLabel":null,"geniusDiscountLabel":null,"badge":null},{"code":"100113522","variantCode":"100113522","name":"Magneziu citrat 200mg, 60 tablete","slug":"100113522-solgar-magneziu-citrat-200mg-60-tablete","unitPriceLabel":"360,3 Lei/kg","brand":"Solgar","brandCode":"1885","brandFilterCode":"solgar-b1889","sku":"100113522","price":72.06,"originalPrice":null,"currencyCode":"RON","currency":"Lei","image":{"thumbnail":{"default":"https://cdn.freshful.ro/media/cache/sylius_shop_product_thumbnail/f3/cd/e08dc0d51b2bcc0ac944d66755a8.jpg"},"large":{"default":"https://cdn.freshful.ro/media/cache/freshful_large/f3/cd/e08dc0d51b2bcc0ac944d66755a8.jpg"},"extralarge":{"default":"https://cdn.freshful.ro/media/cache/sylius_shop_product_original/f3/cd/e08dc0d51b2bcc0ac944d66755a8.jpg"}},"label":null,"tags":[{"type":"vegan","text":"Vegan","icon":"https://cdn.freshful.ro/assets/product_tags/vegan.svg","iconPng":"https://cdn.freshful.ro/assets/product_tags/vegan.png","backgroundColor":"#ECF9F8","textColor":"#33A39C"},{"type":"saltFree","text":"Fara sare","icon":"https://cdn.freshful.ro/assets/product_tags/salt_free.svg","iconPng":"https://cdn.freshful.ro/assets/product_tags/salt_free.png","backgroundColor":"#E9F6F1","textColor":"#46AB86"},{"type":"NoAddedSugar","text":"Fara zahar adaugat","icon":"https://cdn.freshful.ro/assets/product_tags/fara_zahar_adaugat.svg","iconPng":"https://cdn.freshful.ro/assets/product_tags/fara_zahar_adaugat.png","backgroundColor":"#F8EDF7","textColor":"#C05EBC"}],"isAvailable":true,"maxAvailableQuantity":2,"maxAllowedQuantity":100,"breadcrumbs":[{"code":"10","name":"Dietetic, ECO & internațional","slug":"10-dietetic-bio-si-international"},{"code":"1003","name":"Suplimente alimentare","slug":"1003-suplimente-alimentare"},{"code":"100306","name":"Sistem nervos, ochi și cardio","slug":"100306-nervos-ochi-cardiovascular"},{"code":"100113522","name":"Magneziu citrat 200mg, 60 tablete","slug":"100113522-solgar-magneziu-citrat-200mg-60-tablete"}],"activePromotion":null,"saveMe":null,"labels":[],"geniusPrice":null,"geniusUnitPricePerLabel":null,"banner":null,"discountLabel":null,"geniusDiscountLabel":null,"badge":null},{"code":"100113517","variantCode":"100113517","name":"Folat (Metafolin) 50 tablete","slug":"100113517-solgar-folat-metafolin-50-tablete","unitPriceLabel":"299,35 Lei/kg","brand":"Solgar","brandCode":"1885","brandFilterCode":"solgar-b1889","sku":"100113517","price":69.15,"originalPrice":null,"currencyCode":"RON","currency":"Lei","image":{"thumbnail":{"default":"https://cdn.freshful.ro/media/cache/sylius_shop_product_thumbnail/dc/7a/46f8151214207ae0f0f441663654.jpg"},"large":{"default":"https://cdn.freshful.ro/media/cache/freshful_large/dc/7a/46f8151214207ae0f0f441663654.jpg"},"extralarge":{"default":"https://cdn.freshful.ro/media/cache/sylius_shop_product_original/dc/7a/46f8151214207ae0f0f441663654.jpg"}},"label":null,"tags":[{"type":"vegan","text":"Vegan","icon":"https://cdn.freshful.ro/assets/product_tags/vegan.svg","iconPng":"https://cdn.freshful.ro/assets/product_tags/vegan.png","backgroundColor":"#ECF9F8","textColor":"#33A39C"},{"type":"saltFree","text":"Fara sare","icon":"https://cdn.freshful.ro/assets/product_tags/salt_free.svg","iconPng":"https://cdn.freshful.ro/assets/product_tags/salt_free.png","backgroundColor":"#E9F6F1","textColor":"#46AB86"},{"type":"NoAddedSugar","text":"Fara zahar adaugat","icon":"https://cdn.freshful.ro/assets/product_tags/fara_zahar_adaugat.svg","iconPng":"https://cdn.freshful.ro/assets/product_tags/fara_zahar_adaugat.png","backgroundColor":"#F8EDF7","textColor":"#C05EBC"}],"isAvailable":true,"maxAvailableQuantity":8,"maxAllowedQuantity":100,"breadcrumbs":[{"code":"10","name":"Dietetic, ECO & internațional","slug":"10-dietetic-bio-si-international"},{"code":"1003","name":"Suplimente alimentare","slug":"1003-suplimente-alimentare"},{"code":"100306","name":"Sistem nervos, ochi și cardio","slug":"100306-nervos-ochi-cardiovascular"},{"code":"100113517","name":"Folat (Metafolin) 50 tablete","slug":"100113517-solgar-folat-metafolin-50-tablete"}],"activePromotion":null,"saveMe":null,"labels":[],"geniusPrice":null,"geniusUnitPricePerLabel":null,"banner":null,"discountLabel":null,"geniusDiscountLabel":null,"badge":null},{"code":"100097871","variantCode":"6421930112238","name":"Glicemonorm 2x60 comprimate ","slug":"100097871-dacia-plant-glicemonorm-2x60-comprimate","unitPriceLabel":"274,67 Lei/kg","brand":"Dacia Plant","brandCode":"934","brandFilterCode":"dacia-plant-b934","sku":"100097871","price":32.96,"originalPrice":null,"currencyCode":"RON","currency":"Lei","image":{"thumbnail":{"default":"https://cdn.freshful.ro/media/cache/sylius_shop_product_thumbnail/45/9b/eb29f6491b83b4cc31146b889ef4.jpg"},"large":{"default":"https://cdn.freshful.ro/media/cache/freshful_large/45/9b/eb29f6491b83b4cc31146b889ef4.jpg"},"extralarge":{"default":"https://cdn.freshful.ro/media/cache/sylius_shop_product_original/45/9b/eb29f6491b83b4cc31146b889ef4.jpg"}},"label":null,"tags":[],"isAvailable":true,"maxAvailableQuantity":11,"maxAllowedQuantity":100,"breadcrumbs":[{"code":"10","name":"Dietetic, ECO & internațional","slug":"10-dietetic-bio-si-international"},{"code":"1003","name":"Suplimente alimentare","slug":"1003-suplimente-alimentare"},{"code":"100306","name":"Sistem nervos, ochi și cardio","slug":"100306-nervos-ochi-cardiovascular"},{"code":"100097871","name":"Glicemonorm 2x60 comprimate ","slug":"100097871-dacia-plant-glicemonorm-2x60-comprimate"}],"activePromotion":null,"saveMe":null,"labels":[],"geniusPrice":null,"geniusUnitPricePerLabel":null,"banner":null,"discountLabel":null,"geniusDiscountLabel":null,"badge":null},{"code":"100118668","variantCode":"100118668","name":"Clinical Melatonin Power Sleep 30 capsule","slug":"100118668-goldnutrition-clinical-melatonin-power-sleep-30-capsule","unitPriceLabel":"44,99 Lei/buc","brand":"Goldnutrition","brandCode":"2007","brandFilterCode":"goldnutrition-b1999","sku":"100118668","price":44.99,"originalPrice":null,"currencyCode":"RON","currency":"Lei","image":{"thumbnail":{"default":"https://cdn.freshful.ro/media/cache/sylius_shop_product_thumbnail/a4/20/f7827b557260caf6ba7e5830877d.jpg"},"large":{"default":"https://cdn.freshful.ro/media/cache/freshful_large/a4/20/f7827b557260caf6ba7e5830877d.jpg"},"extralarge":{"default":"https://cdn.freshful.ro/media/cache/sylius_shop_product_original/a4/20/f7827b557260caf6ba7e5830877d.jpg"}},"label":null,"tags":[],"isAvailable":true,"maxAvailableQuantity":11,"maxAllowedQuantity":100,"breadcrumbs":[{"code":"10","name":"Dietetic, ECO & internațional","slug":"10-dietetic-bio-si-international"},{"code":"1003","name":"Suplimente alimentare","slug":"1003-suplimente-alimentare"},{"code":"100306","name":"Sistem nervos, ochi și cardio","slug":"100306-nervos-ochi-cardiovascular"},{"code":"100118668","name":"Clinical Melatonin Power Sleep 30 capsule","slug":"100118668-goldnutrition-clinical-melatonin-power-sleep-30-capsule"}],"activePromotion":null,"saveMe":null,"labels":[],"geniusPrice":null,"geniusUnitPricePerLabel":null,"banner":null,"discountLabel":null,"geniusDiscountLabel":null,"badge":null},{"code":"100097825","variantCode":"6421930101003","name":"Emocalm cu melatonină (Somnofort) 60 comprimate","slug":"100097825-dacia-plant-emocalm-cu-melatonina-somnofort-60-comprimate","unitPriceLabel":"637,5 Lei/kg","brand":"Dacia Plant","brandCode":"934","brandFilterCode":"dacia-plant-b934","sku":"100097825","price":38.25,"originalPrice":null,"currencyCode":"RON","currency":"Lei","image":{"thumbnail":{"default":"https://cdn.freshful.ro/media/cache/sylius_shop_product_thumbnail/a1/e2/21921159014f05b321c63603aff2.jpg"},"large":{"default":"https://cdn.freshful.ro/media/cache/freshful_large/a1/e2/21921159014f05b321c63603aff2.jpg"},"extralarge":{"default":"https://cdn.freshful.ro/media/cache/sylius_shop_product_original/a1/e2/21921159014f05b321c63603aff2.jpg"}},"label":null,"tags":[],"isAvailable":true,"maxAvailableQuantity":34,"maxAllowedQuantity":100,"breadcrumbs":[{"code":"10","name":"Dietetic, ECO & internațional","slug":"10-dietetic-bio-si-international"},{"code":"1003","name":"Suplimente alimentare","slug":"1003-suplimente-alimentare"},{"code":"100306","name":"Sistem nervos, ochi și cardio","slug":"100306-nervos-ochi-cardiovascular"},{"code":"100097825","name":"Emocalm cu melatonină (Somnofort) 60 comprimate","slug":"100097825-dacia-plant-emocalm-cu-melatonina-somnofort-60-comprimate"}],"activePromotion":null,"saveMe":null,"labels":[],"geniusPrice":null,"geniusUnitPricePerLabel":null,"banner":null,"discountLabel":null,"geniusDiscountLabel":null,"badge":null},{"code":"100097884","variantCode":"6421930112191","name":"Emocalm cu valeriană 2x60 comprimate ","slug":"100097884-dacia-plant-emocalm-cu-valeriana-2x60-comprimate","unitPriceLabel":"245,83 Lei/kg","brand":"Dacia Plant","brandCode":"934","brandFilterCode":"dacia-plant-b934","sku":"100097884","price":29.5,"originalPrice":null,"currencyCode":"RON","currency":"Lei","image":{"thumbnail":{"default":"https://cdn.freshful.ro/media/cache/sylius_shop_product_thumbnail/d3/7a/f2495b584383e96159a693df64bb.jpg"},"large":{"default":"https://cdn.freshful.ro/media/cache/freshful_large/d3/7a/f2495b584383e96159a693df64bb.jpg"},"extralarge":{"default":"https://cdn.freshful.ro/media/cache/sylius_shop_product_original/d3/7a/f2495b584383e96159a693df64bb.jpg"}},"label":null,"tags":[],"isAvailable":true,"maxAvailableQuantity":14,"maxAllowedQuantity":100,"breadcrumbs":[{"code":"10","name":"Dietetic, ECO & internațional","slug":"10-dietetic-bio-si-international"},{"code":"1003","name":"Suplimente alimentare","slug":"1003-suplimente-alimentare"},{"code":"100306","name":"Sistem nervos, ochi și cardio","slug":"100306-nervos-ochi-cardiovascular"},{"code":"100097884","name":"Emocalm cu valeriană 2x60 comprimate ","slug":"100097884-dacia-plant-emocalm-cu-valeriana-2x60-comprimate"}],"activePromotion":null,"saveMe":null,"labels":[],"geniusPrice":null,"geniusUnitPricePerLabel":null,"banner":null,"discountLabel":null,"geniusDiscountLabel":null,"badge":null},{"code":"100097878","variantCode":"6421930321326","name":"Anghinare, leurdă și ridiche neagră 2x60 comprimate ","slug":"100097878-dacia-plant-anghinare-leurda-si-ridiche-neagra-2x60-comprimate","unitPriceLabel":"294,25 Lei/kg","brand":"Dacia Plant","brandCode":"934","brandFilterCode":"dacia-plant-b934","sku":"100097878","price":35.31,"originalPrice":null,"currencyCode":"RON","currency":"Lei","image":{"thumbnail":{"default":"https://cdn.freshful.ro/media/cache/sylius_shop_product_thumbnail/4b/46/7d3334b72aa558eef13f48dc067a.jpg"},"large":{"default":"https://cdn.freshful.ro/media/cache/freshful_large/4b/46/7d3334b72aa558eef13f48dc067a.jpg"},"extralarge":{"default":"https://cdn.freshful.ro/media/cache/sylius_shop_product_original/4b/46/7d3334b72aa558eef13f48dc067a.jpg"}},"label":null,"tags":[],"isAvailable":true,"maxAvailableQuantity":3,"maxAllowedQuantity":100,"breadcrumbs":[{"code":"10","name":"Dietetic, ECO & internațional","slug":"10-dietetic-bio-si-international"},{"code":"1003","name":"Suplimente alimentare","slug":"1003-suplimente-alimentare"},{"code":"100306","name":"Sistem nervos, ochi și cardio","slug":"100306-nervos-ochi-cardiovascular"},{"code":"100097878","name":"Anghinare, leurdă și ridiche neagră 2x60 comprimate ","slug":"100097878-dacia-plant-anghinare-leurda-si-ridiche-neagra-2x60-comprimate"}],"activePromotion":null,"saveMe":null,"labels":[],"geniusPrice":null,"geniusUnitPricePerLabel":null,"banner":null,"discountLabel":null,"geniusDiscountLabel":null,"badge":null}],"filters":{"countSelected":0,"items":[{"code":"promotion","name":"Promoții","countSelected":0,"values":[{"code":"special-bacanie-bauturi-mar23","name":"Prețuri speciale pentru Ziua Femeii","isSelected":false,"count":1}]},{"code":"brand","name":"Brand","countSelected":0,"values":[{"code":"alevia-b128","name":"Alevia","isSelected":false,"count":1},{"code":"alfa-b215","name":"Alfa","isSelected":false,"count":1},{"code":"biocyte-b2010","name":"Biocyte","isSelected":false,"count":6},{"code":"dacia-plant-b934","name":"Dacia Plant","isSelected":false,"count":16},{"code":"goldnutrition-b1999","name":"Goldnutrition","isSelected":false,"count":2},{"code":"natural-doctor-b2293","name":"Natural Doctor","isSelected":false,"count":3},{"code":"solgar-b1889","name":"Solgar","isSelected":false,"count":13},{"code":"specialistii-plantelor-b939","name":"Specialistii Plantelor","isSelected":false,"count":3}]},{"code":"diet_lifestyle","name":"Dietă și lifestyle","countSelected":0,"values":[{"code":"bio-a26","name":"Bio","isSelected":false,"count":1},{"code":"fara-sare-a52","name":"Fara sare","isSelected":false,"count":12},{"code":"fara-zahar-adaugat-a29","name":"Fara zahar adaugat","isSelected":false,"count":12},{"code":"vegan-a24","name":"Vegan","isSelected":false,"count":12},{"code":"vegetarian-a28","name":"Vegetarian","isSelected":false,"count":2}]}]},"orderBy":[{"field":"price","direction":"asc","name":"Preț crescător","isSelected":false},{"field":"price","direction":"desc","name":"Preț descrescător","isSelected":false},{"field":"popularity","direction":"desc","name":"Cele mai populare","isSelected":true},{"field":"category","direction":"asc","name":"Categorie","isSelected":false}],"metaTitle":"Sistem nervos, ochi și cardio - Gamă variată","metaDescription":"Vrei Sistem nervos, ochi și cardio? Alege dintr-o gamă variată. Comanzi simplu și ai livrare rapidă, calitate și prospețime. Hai pe Freshful.ro","metaKeywords":null,"banners":[]}}