{"type":"subcategory","payload":{"analyticsListId":"category_100310-sistemul-respirator","analyticsListName":"Category - Sistem respirator","name":"Sistem respirator","slug":"100310-sistemul-respirator","image":null,"breadcrumbs":[{"code":"10","name":"Dietetic, ECO & internațional","slug":"10-dietetic-bio-si-international"},{"code":"1003","name":"Suplimente alimentare","slug":"1003-suplimente-alimentare"},{"code":"100310","name":"Sistem respirator","slug":"100310-sistemul-respirator"}],"slots":[],"page":1,"limit":10,"pages":4,"count":31,"siblings":[{"name":"Produse ecologice","slug":"1001-produse-ecologice","selected":false},{"name":"Produse dietetice și naturiste","slug":"1002-produse-dietetice-si-naturiste","selected":false},{"name":"Suplimente alimentare","slug":"1003-suplimente-alimentare","selected":true},{"name":"Produse internaționale","slug":"1004-bucatarie-internationala","selected":false}],"children":[{"name":"Toate produsele","slug":"1003-suplimente-alimentare","selected":false},{"name":"Vitamine și minerale","slug":"100301-vitamine-si-minerale","selected":false},{"name":"Energie și vitalitate","slug":"100302-energie-si-vitalitate","selected":false},{"name":"Sarcină","slug":"100303-sarcina","selected":false},{"name":"Imunitate","slug":"100304-imunitate","selected":false},{"name":"Sistem muscular, articular și osos","slug":"100305-muscular-articular-si-osos","selected":false},{"name":"Sistem nervos, ochi și cardio","slug":"100306-nervos-ochi-cardiovascular","selected":false},{"name":"Piele, păr și unghii","slug":"100307-piele-par-si-unghii","selected":false},{"name":"Sistem gastrointestinal","slug":"100308-sistemul-gastrointenstinal","selected":false},{"name":"Sistem urogenital","slug":"100309-sistemul-urogenital","selected":false},{"name":"Sistem respirator","slug":"100310-sistemul-respirator","selected":true}],"products":[{"code":"100129384","variantCode":"100129384","name":"Spray nazal cu apă termală Sinus Spa forte 30ml","slug":"100129384-apiphen-spray-nazal-cu-apa-termala-sinus-spa-forte-30ml","unitPriceLabel":"390,33 Lei/l","brand":"Apiphen","brandCode":"2372","brandFilterCode":"apiphen-b2376","sku":"100129384","price":11.71,"originalPrice":null,"currencyCode":"RON","currency":"Lei","image":{"thumbnail":{"default":"https://cdn.freshful.ro/media/cache/sylius_shop_product_thumbnail/ac/62/d50d2e1235b2647f9674bdf07e58.jpg"},"large":{"default":"https://cdn.freshful.ro/media/cache/freshful_large/ac/62/d50d2e1235b2647f9674bdf07e58.jpg"},"extralarge":{"default":"https://cdn.freshful.ro/media/cache/sylius_shop_product_original/ac/62/d50d2e1235b2647f9674bdf07e58.jpg"}},"label":null,"tags":[],"isAvailable":true,"maxAvailableQuantity":32,"maxAllowedQuantity":100,"breadcrumbs":[{"code":"10","name":"Dietetic, ECO & internațional","slug":"10-dietetic-bio-si-international"},{"code":"1003","name":"Suplimente alimentare","slug":"1003-suplimente-alimentare"},{"code":"100310","name":"Sistem respirator","slug":"100310-sistemul-respirator"},{"code":"100129384","name":"Spray nazal cu apă termală Sinus Spa forte 30ml","slug":"100129384-apiphen-spray-nazal-cu-apa-termala-sinus-spa-forte-30ml"}],"activePromotion":null,"saveMe":null,"labels":[],"geniusPrice":null,"geniusUnitPricePerLabel":null,"banner":null,"discountLabel":null,"geniusDiscountLabel":null,"badge":null},{"code":"100097852","variantCode":"6421930322972","name":"Dropsuri cu propolis și albastru de metilen 20 buc","slug":"100097852-biseptol-dropsuri-cu-propolis-si-albastru-de-metilen-20-buc","unitPriceLabel":"289,9 Lei/kg","brand":"Biseptol","brandCode":"1632","brandFilterCode":"biseptol-b1636","sku":"100097852","price":28.99,"originalPrice":null,"currencyCode":"RON","currency":"Lei","image":{"thumbnail":{"default":"https://cdn.freshful.ro/media/cache/sylius_shop_product_thumbnail/cf/de/84c2d29ec88054aed929cc719322.jpg"},"large":{"default":"https://cdn.freshful.ro/media/cache/freshful_large/cf/de/84c2d29ec88054aed929cc719322.jpg"},"extralarge":{"default":"https://cdn.freshful.ro/media/cache/sylius_shop_product_original/cf/de/84c2d29ec88054aed929cc719322.jpg"}},"label":null,"tags":[],"isAvailable":true,"maxAvailableQuantity":32,"maxAllowedQuantity":100,"breadcrumbs":[{"code":"10","name":"Dietetic, ECO & internațional","slug":"10-dietetic-bio-si-international"},{"code":"1003","name":"Suplimente alimentare","slug":"1003-suplimente-alimentare"},{"code":"100310","name":"Sistem respirator","slug":"100310-sistemul-respirator"},{"code":"100097852","name":"Dropsuri cu propolis și albastru de metilen 20 buc","slug":"100097852-biseptol-dropsuri-cu-propolis-si-albastru-de-metilen-20-buc"}],"activePromotion":null,"saveMe":null,"labels":[],"geniusPrice":null,"geniusUnitPricePerLabel":null,"banner":null,"discountLabel":null,"geniusDiscountLabel":null,"badge":null},{"code":"100139458","variantCode":"100139458","name":"Acadele pentru durere în gât 5 buc","slug":"100139458-sanovita-acadele-pentru-durere-in-gat-5-buc","unitPriceLabel":"689,67 Lei/kg","brand":"Sanovita","brandCode":"482","brandFilterCode":"sanovita-b483","sku":"100139458","price":20.69,"originalPrice":null,"currencyCode":"RON","currency":"Lei","image":{"thumbnail":{"default":"https://cdn.freshful.ro/media/cache/sylius_shop_product_thumbnail/05/e8/2e0bbd66559c7d745bd117422a95.jpg"},"large":{"default":"https://cdn.freshful.ro/media/cache/freshful_large/05/e8/2e0bbd66559c7d745bd117422a95.jpg"},"extralarge":{"default":"https://cdn.freshful.ro/media/cache/sylius_shop_product_original/05/e8/2e0bbd66559c7d745bd117422a95.jpg"}},"label":null,"tags":[{"type":"NoGluten","text":"Fara gluten","icon":"https://cdn.freshful.ro/assets/product_tags/fara_gluten.svg","iconPng":"https://cdn.freshful.ro/assets/product_tags/fara_gluten.png","backgroundColor":"#FFF2E5","textColor":"#F07900"},{"type":"NoAddedSugar","text":"Fara zahar adaugat","icon":"https://cdn.freshful.ro/assets/product_tags/fara_zahar_adaugat.svg","iconPng":"https://cdn.freshful.ro/assets/product_tags/fara_zahar_adaugat.png","backgroundColor":"#F8EDF7","textColor":"#C05EBC"},{"type":"Vegetarian","text":"Vegetarian","icon":"https://cdn.freshful.ro/assets/product_tags/vegetarian.svg","iconPng":"https://cdn.freshful.ro/assets/product_tags/vegetarian.png","backgroundColor":"#FAEAEE","textColor":"#B26275"}],"isAvailable":true,"maxAvailableQuantity":31,"maxAllowedQuantity":100,"breadcrumbs":[{"code":"10","name":"Dietetic, ECO & internațional","slug":"10-dietetic-bio-si-international"},{"code":"1003","name":"Suplimente alimentare","slug":"1003-suplimente-alimentare"},{"code":"100310","name":"Sistem respirator","slug":"100310-sistemul-respirator"},{"code":"100139458","name":"Acadele pentru durere în gât 5 buc","slug":"100139458-sanovita-acadele-pentru-durere-in-gat-5-buc"}],"activePromotion":null,"saveMe":null,"labels":[],"geniusPrice":null,"geniusUnitPricePerLabel":null,"banner":null,"discountLabel":null,"geniusDiscountLabel":null,"badge":null},{"code":"100097848","variantCode":"6421930322811","name":"Apă de gură cu albastru de metilen și eucalipt 480ml","slug":"100097848-dacia-plant-apa-de-gura-cu-albastru-de-metilen-si-eucalipt-480ml","unitPriceLabel":"399,8 Lei/l","brand":"Dacia Plant","brandCode":"934","brandFilterCode":"dacia-plant-b934","sku":"100097848","price":19.99,"originalPrice":null,"currencyCode":"RON","currency":"Lei","image":{"thumbnail":{"default":"https://cdn.freshful.ro/media/cache/sylius_shop_product_thumbnail/ff/af/067b377958d8f4bd7b2bb681af0b.jpg"},"large":{"default":"https://cdn.freshful.ro/media/cache/freshful_large/ff/af/067b377958d8f4bd7b2bb681af0b.jpg"},"extralarge":{"default":"https://cdn.freshful.ro/media/cache/sylius_shop_product_original/ff/af/067b377958d8f4bd7b2bb681af0b.jpg"}},"label":null,"tags":[],"isAvailable":true,"maxAvailableQuantity":22,"maxAllowedQuantity":100,"breadcrumbs":[{"code":"10","name":"Dietetic, ECO & internațional","slug":"10-dietetic-bio-si-international"},{"code":"1003","name":"Suplimente alimentare","slug":"1003-suplimente-alimentare"},{"code":"100310","name":"Sistem respirator","slug":"100310-sistemul-respirator"},{"code":"100097848","name":"Apă de gură cu albastru de metilen și eucalipt 480ml","slug":"100097848-dacia-plant-apa-de-gura-cu-albastru-de-metilen-si-eucalipt-480ml"}],"activePromotion":null,"saveMe":null,"labels":[],"geniusPrice":null,"geniusUnitPricePerLabel":null,"banner":null,"discountLabel":null,"geniusDiscountLabel":null,"badge":null},{"code":"100097850","variantCode":"6421930322507","name":"Dropsuri cu miere și eucalipt 20 buc","slug":"100097850-calmotusin-dropsuri-cu-miere-si-eucalipt-20-buc","unitPriceLabel":"289,9 Lei/kg","brand":"Calmotusin","brandCode":"941","brandFilterCode":"calmotusin-b941","sku":"100097850","price":28.99,"originalPrice":null,"currencyCode":"RON","currency":"Lei","image":{"thumbnail":{"default":"https://cdn.freshful.ro/media/cache/sylius_shop_product_thumbnail/8d/f9/87d6812a8c9b8cd176bc18250a74.jpg"},"large":{"default":"https://cdn.freshful.ro/media/cache/freshful_large/8d/f9/87d6812a8c9b8cd176bc18250a74.jpg"},"extralarge":{"default":"https://cdn.freshful.ro/media/cache/sylius_shop_product_original/8d/f9/87d6812a8c9b8cd176bc18250a74.jpg"}},"label":null,"tags":[{"type":"NoAddedSugar","text":"Fara zahar adaugat","icon":"https://cdn.freshful.ro/assets/product_tags/fara_zahar_adaugat.svg","iconPng":"https://cdn.freshful.ro/assets/product_tags/fara_zahar_adaugat.png","backgroundColor":"#F8EDF7","textColor":"#C05EBC"},{"type":"NoPreservatives","text":"Fara conservanti","icon":"https://cdn.freshful.ro/assets/product_tags/fara_conservanti.svg","iconPng":"https://cdn.freshful.ro/assets/product_tags/fara_conservanti.png","backgroundColor":"#F0F2FF","textColor":"#7889DD"}],"isAvailable":true,"maxAvailableQuantity":22,"maxAllowedQuantity":100,"breadcrumbs":[{"code":"10","name":"Dietetic, ECO & internațional","slug":"10-dietetic-bio-si-international"},{"code":"1003","name":"Suplimente alimentare","slug":"1003-suplimente-alimentare"},{"code":"100310","name":"Sistem respirator","slug":"100310-sistemul-respirator"},{"code":"100097850","name":"Dropsuri cu miere și eucalipt 20 buc","slug":"100097850-calmotusin-dropsuri-cu-miere-si-eucalipt-20-buc"}],"activePromotion":null,"saveMe":null,"labels":[],"geniusPrice":null,"geniusUnitPricePerLabel":null,"banner":null,"discountLabel":null,"geniusDiscountLabel":null,"badge":null},{"code":"100097846","variantCode":"6421930600032","name":"Sirop pentru tuse uscată sau productivă 200ml","slug":"100097846-calmotusin-sirop-pentru-tuse-uscata-sau-productiva-200ml","unitPriceLabel":"279,9 Lei/l","brand":"Calmotusin","brandCode":"941","brandFilterCode":"calmotusin-b941","sku":"100097846","price":27.99,"originalPrice":null,"currencyCode":"RON","currency":"Lei","image":{"thumbnail":{"default":"https://cdn.freshful.ro/media/cache/sylius_shop_product_thumbnail/c2/2c/e4bd6d517c6dacd0e6a327793021.jpg"},"large":{"default":"https://cdn.freshful.ro/media/cache/freshful_large/c2/2c/e4bd6d517c6dacd0e6a327793021.jpg"},"extralarge":{"default":"https://cdn.freshful.ro/media/cache/sylius_shop_product_original/c2/2c/e4bd6d517c6dacd0e6a327793021.jpg"}},"label":null,"tags":[],"isAvailable":true,"maxAvailableQuantity":66,"maxAllowedQuantity":100,"breadcrumbs":[{"code":"10","name":"Dietetic, ECO & internațional","slug":"10-dietetic-bio-si-international"},{"code":"1003","name":"Suplimente alimentare","slug":"1003-suplimente-alimentare"},{"code":"100310","name":"Sistem respirator","slug":"100310-sistemul-respirator"},{"code":"100097846","name":"Sirop pentru tuse uscată sau productivă 200ml","slug":"100097846-calmotusin-sirop-pentru-tuse-uscata-sau-productiva-200ml"}],"activePromotion":null,"saveMe":null,"labels":[],"geniusPrice":null,"geniusUnitPricePerLabel":null,"banner":null,"discountLabel":null,"geniusDiscountLabel":null,"badge":null},{"code":"100097863","variantCode":"6421930322699","name":"Spray cu propolis și albastru de metilen 20ml ","slug":"100097863-biseptol-spray-cu-propolis-si-albastru-de-metilen-20ml","unitPriceLabel":"319,9 Lei/kg","brand":"Biseptol","brandCode":"1632","brandFilterCode":"biseptol-b1636","sku":"100097863","price":31.99,"originalPrice":null,"currencyCode":"RON","currency":"Lei","image":{"thumbnail":{"default":"https://cdn.freshful.ro/media/cache/sylius_shop_product_thumbnail/05/24/936eabe0ee2d1324a1e1598bf5a4.jpg"},"large":{"default":"https://cdn.freshful.ro/media/cache/freshful_large/05/24/936eabe0ee2d1324a1e1598bf5a4.jpg"},"extralarge":{"default":"https://cdn.freshful.ro/media/cache/sylius_shop_product_original/05/24/936eabe0ee2d1324a1e1598bf5a4.jpg"}},"label":null,"tags":[],"isAvailable":true,"maxAvailableQuantity":35,"maxAllowedQuantity":100,"breadcrumbs":[{"code":"10","name":"Dietetic, ECO & internațional","slug":"10-dietetic-bio-si-international"},{"code":"1003","name":"Suplimente alimentare","slug":"1003-suplimente-alimentare"},{"code":"100310","name":"Sistem respirator","slug":"100310-sistemul-respirator"},{"code":"100097863","name":"Spray cu propolis și albastru de metilen 20ml ","slug":"100097863-biseptol-spray-cu-propolis-si-albastru-de-metilen-20ml"}],"activePromotion":null,"saveMe":null,"labels":[],"geniusPrice":null,"geniusUnitPricePerLabel":null,"banner":null,"discountLabel":null,"geniusDiscountLabel":null,"badge":null},{"code":"100097823","variantCode":"6421930100464","name":"Calmotusin cu ghimbir și propolis 60 comprimate masticabile","slug":"100097823-calmotusin-calmotusin-cu-ghimbir-si-propolis-60-comprimate-masticabile","unitPriceLabel":"549,83 Lei/kg","brand":"Calmotusin","brandCode":"941","brandFilterCode":"calmotusin-b941","sku":"100097823","price":32.99,"originalPrice":null,"currencyCode":"RON","currency":"Lei","image":{"thumbnail":{"default":"https://cdn.freshful.ro/media/cache/sylius_shop_product_thumbnail/11/43/ccdd76991a59e7c0d4f14c4aaed7.jpg"},"large":{"default":"https://cdn.freshful.ro/media/cache/freshful_large/11/43/ccdd76991a59e7c0d4f14c4aaed7.jpg"},"extralarge":{"default":"https://cdn.freshful.ro/media/cache/sylius_shop_product_original/11/43/ccdd76991a59e7c0d4f14c4aaed7.jpg"}},"label":null,"tags":[],"isAvailable":true,"maxAvailableQuantity":46,"maxAllowedQuantity":100,"breadcrumbs":[{"code":"10","name":"Dietetic, ECO & internațional","slug":"10-dietetic-bio-si-international"},{"code":"1003","name":"Suplimente alimentare","slug":"1003-suplimente-alimentare"},{"code":"100310","name":"Sistem respirator","slug":"100310-sistemul-respirator"},{"code":"100097823","name":"Calmotusin cu ghimbir și propolis 60 comprimate masticabile","slug":"100097823-calmotusin-calmotusin-cu-ghimbir-si-propolis-60-comprimate-masticabile"}],"activePromotion":null,"saveMe":null,"labels":[],"geniusPrice":null,"geniusUnitPricePerLabel":null,"banner":null,"discountLabel":null,"geniusDiscountLabel":null,"badge":null},{"code":"100129378","variantCode":"100129378","name":"Spray pentru gât Apit 50ml","slug":"100129378-apiphen-spray-pentru-gat-apit-50ml","unitPriceLabel":"438,2 Lei/l","brand":"Apiphen","brandCode":"2372","brandFilterCode":"apiphen-b2376","sku":"100129378","price":21.91,"originalPrice":null,"currencyCode":"RON","currency":"Lei","image":{"thumbnail":{"default":"https://cdn.freshful.ro/media/cache/sylius_shop_product_thumbnail/0a/b7/e0eefd868b9b0bf9ea22830370ed.jpg"},"large":{"default":"https://cdn.freshful.ro/media/cache/freshful_large/0a/b7/e0eefd868b9b0bf9ea22830370ed.jpg"},"extralarge":{"default":"https://cdn.freshful.ro/media/cache/sylius_shop_product_original/0a/b7/e0eefd868b9b0bf9ea22830370ed.jpg"}},"label":null,"tags":[],"isAvailable":true,"maxAvailableQuantity":100,"maxAllowedQuantity":100,"breadcrumbs":[{"code":"10","name":"Dietetic, ECO & internațional","slug":"10-dietetic-bio-si-international"},{"code":"1003","name":"Suplimente alimentare","slug":"1003-suplimente-alimentare"},{"code":"100310","name":"Sistem respirator","slug":"100310-sistemul-respirator"},{"code":"100129378","name":"Spray pentru gât Apit 50ml","slug":"100129378-apiphen-spray-pentru-gat-apit-50ml"}],"activePromotion":null,"saveMe":null,"labels":[],"geniusPrice":null,"geniusUnitPricePerLabel":null,"banner":null,"discountLabel":null,"geniusDiscountLabel":null,"badge":null},{"code":"100067334","variantCode":"100067334","name":"Lapte de măgăriță Kids 10 comprimate masticabile","slug":"100067334-sintofarm-lapte-de-magarita-kids-10-comprimate-masticabile","unitPriceLabel":"42,99 Lei/buc","brand":"Sintofarm","brandCode":"1130","brandFilterCode":"sintofarm-b1131","sku":"100067334","price":42.99,"originalPrice":null,"currencyCode":"RON","currency":"Lei","image":{"thumbnail":{"default":"https://cdn.freshful.ro/media/cache/sylius_shop_product_thumbnail/f2/2d/5e0f8e0375b05059ac57b6512543.jpg"},"large":{"default":"https://cdn.freshful.ro/media/cache/freshful_large/f2/2d/5e0f8e0375b05059ac57b6512543.jpg"},"extralarge":{"default":"https://cdn.freshful.ro/media/cache/sylius_shop_product_original/f2/2d/5e0f8e0375b05059ac57b6512543.jpg"}},"label":null,"tags":[],"isAvailable":true,"maxAvailableQuantity":28,"maxAllowedQuantity":100,"breadcrumbs":[{"code":"10","name":"Dietetic, ECO & internațional","slug":"10-dietetic-bio-si-international"},{"code":"1003","name":"Suplimente alimentare","slug":"1003-suplimente-alimentare"},{"code":"100310","name":"Sistem respirator","slug":"100310-sistemul-respirator"},{"code":"100067334","name":"Lapte de măgăriță Kids 10 comprimate masticabile","slug":"100067334-sintofarm-lapte-de-magarita-kids-10-comprimate-masticabile"}],"activePromotion":null,"saveMe":null,"labels":[],"geniusPrice":null,"geniusUnitPricePerLabel":null,"banner":null,"discountLabel":null,"geniusDiscountLabel":null,"badge":null}],"filters":{"countSelected":0,"items":[{"code":"brand","name":"Brand","countSelected":0,"values":[{"code":"albina-carpatina-b1249","name":"Albina Carpatina","isSelected":false,"count":1},{"code":"alevia-b128","name":"Alevia","isSelected":false,"count":3},{"code":"apiphen-b2376","name":"Apiphen","isSelected":false,"count":7},{"code":"biseptol-b1636","name":"Biseptol","isSelected":false,"count":3},{"code":"calmotusin-b941","name":"Calmotusin","isSelected":false,"count":5},{"code":"dacia-plant-b934","name":"Dacia Plant","isSelected":false,"count":6},{"code":"herbiolys-b100","name":"Herbiolys","isSelected":false,"count":1},{"code":"lapte-de-magarita-b1842","name":"Lapte de Măgăriță","isSelected":false,"count":2},{"code":"sanovita-b483","name":"Sanovita","isSelected":false,"count":1},{"code":"sintofarm-b1131","name":"Sintofarm","isSelected":false,"count":1},{"code":"solgar-b1889","name":"Solgar","isSelected":false,"count":1}]},{"code":"diet_lifestyle","name":"Dietă și lifestyle","countSelected":0,"values":[{"code":"eco-a83","name":"Eco","isSelected":false,"count":1},{"code":"fara-conservanti-a37","name":"Fara conservanti","isSelected":false,"count":1},{"code":"fara-gluten-a16","name":"Fara gluten","isSelected":false,"count":1},{"code":"fara-sare-a52","name":"Fara sare","isSelected":false,"count":1},{"code":"fara-zahar-adaugat-a29","name":"Fara zahar adaugat","isSelected":false,"count":3},{"code":"natural-a27","name":"Natural","isSelected":false,"count":1},{"code":"vegan-a24","name":"Vegan","isSelected":false,"count":1},{"code":"vegetarian-a28","name":"Vegetarian","isSelected":false,"count":1}]}]},"orderBy":[{"field":"price","direction":"asc","name":"Preț crescător","isSelected":false},{"field":"price","direction":"desc","name":"Preț descrescător","isSelected":false},{"field":"popularity","direction":"desc","name":"Cele mai populare","isSelected":true},{"field":"category","direction":"asc","name":"Categorie","isSelected":false}],"metaTitle":"Sistem respirator - Gamă variată","metaDescription":"Vrei Sistem respirator? Alege dintr-o gamă variată. Comanzi simplu și ai livrare rapidă, calitate și prospețime. Hai pe Freshful.ro","metaKeywords":null,"banners":[]}}