{"type":"subcategory","payload":{"analyticsListId":"category_100301-vitamine-si-minerale","analyticsListName":"Category - Vitamine și minerale","name":"Vitamine și minerale","slug":"100301-vitamine-si-minerale","image":null,"breadcrumbs":[{"code":"10","name":"Dietetic, ECO & internațional","slug":"10-dietetic-bio-si-international"},{"code":"1003","name":"Suplimente alimentare","slug":"1003-suplimente-alimentare"},{"code":"100301","name":"Vitamine și minerale","slug":"100301-vitamine-si-minerale"}],"slots":[],"page":1,"limit":10,"pages":6,"count":60,"siblings":[{"name":"Produse ecologice","slug":"1001-produse-ecologice","selected":false},{"name":"Produse dietetice și naturiste","slug":"1002-produse-dietetice-si-naturiste","selected":false},{"name":"Suplimente alimentare","slug":"1003-suplimente-alimentare","selected":true},{"name":"Produse internaționale","slug":"1004-bucatarie-internationala","selected":false}],"children":[{"name":"Toate produsele","slug":"1003-suplimente-alimentare","selected":false},{"name":"Vitamine și minerale","slug":"100301-vitamine-si-minerale","selected":true},{"name":"Energie și vitalitate","slug":"100302-energie-si-vitalitate","selected":false},{"name":"Sarcină","slug":"100303-sarcina","selected":false},{"name":"Imunitate","slug":"100304-imunitate","selected":false},{"name":"Sistem muscular, articular și osos","slug":"100305-muscular-articular-si-osos","selected":false},{"name":"Sistem nervos, ochi și cardio","slug":"100306-nervos-ochi-cardiovascular","selected":false},{"name":"Piele, păr și unghii","slug":"100307-piele-par-si-unghii","selected":false},{"name":"Sistem gastrointestinal","slug":"100308-sistemul-gastrointenstinal","selected":false},{"name":"Sistem urogenital","slug":"100309-sistemul-urogenital","selected":false},{"name":"Sistem respirator","slug":"100310-sistemul-respirator","selected":false}],"products":[{"code":"100061502","variantCode":"6423602003189","name":"Propolis Vitamina C cu echinacea 40 comprimate","slug":"100061502-alevia-propolis-vitamina-c-cu-echinacea-40-comprimate","unitPriceLabel":"7.995 Lei/kg","brand":"Alevia","brandCode":"83","brandFilterCode":"alevia-b128","sku":"100061502","price":15.99,"originalPrice":18.99,"currencyCode":"RON","currency":"Lei","image":{"thumbnail":{"default":"https://cdn.freshful.ro/media/cache/sylius_shop_product_thumbnail/ec/7f/17f6e06ef87dd313fbdc36852093.jpg"},"large":{"default":"https://cdn.freshful.ro/media/cache/freshful_large/ec/7f/17f6e06ef87dd313fbdc36852093.jpg"},"extralarge":{"default":"https://cdn.freshful.ro/media/cache/sylius_shop_product_original/ec/7f/17f6e06ef87dd313fbdc36852093.jpg"}},"label":{"text":"-15%","backgroundColor":"#FF9903","textColor":"#FFFFFF"},"tags":[],"isAvailable":true,"maxAvailableQuantity":49,"maxAllowedQuantity":100,"breadcrumbs":[{"code":"10","name":"Dietetic, ECO & internațional","slug":"10-dietetic-bio-si-international"},{"code":"1003","name":"Suplimente alimentare","slug":"1003-suplimente-alimentare"},{"code":"100301","name":"Vitamine și minerale","slug":"100301-vitamine-si-minerale"},{"code":"100061502","name":"Propolis Vitamina C cu echinacea 40 comprimate","slug":"100061502-alevia-propolis-vitamina-c-cu-echinacea-40-comprimate"}],"activePromotion":{"code":"oferte-bacanie-bauturi-21feb-8mar23","name":"Preț redus","targetQuantity":null},"saveMe":null,"labels":[{"type":"v1","items":[{"text":"-15%","backgroundColor":"#FF9903","textColor":"#FFFFFF"}]}],"geniusPrice":null,"geniusUnitPricePerLabel":null,"banner":{"text":"Super preț","textColor":"#FF0000","bgColor":"#FFF2EC","icon":null,"link":"https://www.freshful.ro/oferte/oferte-bacanie-bauturi-21feb-8mar23","type":"promo","analyticsEventType":"select_promotion","analyticsEventPayload":{"promotion_id":"oferte-bacanie-bauturi-21feb-8mar23","promotion_name":"Cămara cu băuturi și bunătăți"}},"discountLabel":"Economisești 15%","geniusDiscountLabel":null,"badge":null},{"code":"100139465","variantCode":"100139465","name":"Jeleuri probiotice 60 buc","slug":"100139465-sanovita-jeleuri-probiotice-60-buc","unitPriceLabel":"277,72 Lei/kg","brand":"Sanovita","brandCode":"482","brandFilterCode":"sanovita-b483","sku":"100139465","price":49.99,"originalPrice":null,"currencyCode":"RON","currency":"Lei","image":{"thumbnail":{"default":"https://cdn.freshful.ro/media/cache/sylius_shop_product_thumbnail/f2/8d/d53e3df811cb9cb763bafdbba6aa.jpg"},"large":{"default":"https://cdn.freshful.ro/media/cache/freshful_large/f2/8d/d53e3df811cb9cb763bafdbba6aa.jpg"},"extralarge":{"default":"https://cdn.freshful.ro/media/cache/sylius_shop_product_original/f2/8d/d53e3df811cb9cb763bafdbba6aa.jpg"}},"label":null,"tags":[{"type":"vegan","text":"Vegan","icon":"https://cdn.freshful.ro/assets/product_tags/vegan.svg","iconPng":"https://cdn.freshful.ro/assets/product_tags/vegan.png","backgroundColor":"#ECF9F8","textColor":"#33A39C"},{"type":"NoAddedSugar","text":"Fara zahar adaugat","icon":"https://cdn.freshful.ro/assets/product_tags/fara_zahar_adaugat.svg","iconPng":"https://cdn.freshful.ro/assets/product_tags/fara_zahar_adaugat.png","backgroundColor":"#F8EDF7","textColor":"#C05EBC"}],"isAvailable":true,"maxAvailableQuantity":35,"maxAllowedQuantity":100,"breadcrumbs":[{"code":"10","name":"Dietetic, ECO & internațional","slug":"10-dietetic-bio-si-international"},{"code":"1003","name":"Suplimente alimentare","slug":"1003-suplimente-alimentare"},{"code":"100301","name":"Vitamine și minerale","slug":"100301-vitamine-si-minerale"},{"code":"100139465","name":"Jeleuri probiotice 60 buc","slug":"100139465-sanovita-jeleuri-probiotice-60-buc"}],"activePromotion":null,"saveMe":null,"labels":[],"geniusPrice":null,"geniusUnitPricePerLabel":null,"banner":null,"discountLabel":null,"geniusDiscountLabel":null,"badge":null},{"code":"100139464","variantCode":"100139464","name":"Jeleuri probiotice pentru copii 30 buc","slug":"100139464-sanovita-jeleuri-probiotice-pentru-copii-30-buc","unitPriceLabel":"333,22 Lei/kg","brand":"Sanovita","brandCode":"482","brandFilterCode":"sanovita-b483","sku":"100139464","price":29.99,"originalPrice":null,"currencyCode":"RON","currency":"Lei","image":{"thumbnail":{"default":"https://cdn.freshful.ro/media/cache/sylius_shop_product_thumbnail/f3/38/1ea593d1e6a456b57c36a69a5a5a.jpg"},"large":{"default":"https://cdn.freshful.ro/media/cache/freshful_large/f3/38/1ea593d1e6a456b57c36a69a5a5a.jpg"},"extralarge":{"default":"https://cdn.freshful.ro/media/cache/sylius_shop_product_original/f3/38/1ea593d1e6a456b57c36a69a5a5a.jpg"}},"label":null,"tags":[{"type":"vegan","text":"Vegan","icon":"https://cdn.freshful.ro/assets/product_tags/vegan.svg","iconPng":"https://cdn.freshful.ro/assets/product_tags/vegan.png","backgroundColor":"#ECF9F8","textColor":"#33A39C"},{"type":"NoAddedSugar","text":"Fara zahar adaugat","icon":"https://cdn.freshful.ro/assets/product_tags/fara_zahar_adaugat.svg","iconPng":"https://cdn.freshful.ro/assets/product_tags/fara_zahar_adaugat.png","backgroundColor":"#F8EDF7","textColor":"#C05EBC"}],"isAvailable":true,"maxAvailableQuantity":73,"maxAllowedQuantity":100,"breadcrumbs":[{"code":"10","name":"Dietetic, ECO & internațional","slug":"10-dietetic-bio-si-international"},{"code":"1003","name":"Suplimente alimentare","slug":"1003-suplimente-alimentare"},{"code":"100301","name":"Vitamine și minerale","slug":"100301-vitamine-si-minerale"},{"code":"100139464","name":"Jeleuri probiotice pentru copii 30 buc","slug":"100139464-sanovita-jeleuri-probiotice-pentru-copii-30-buc"}],"activePromotion":null,"saveMe":null,"labels":[],"geniusPrice":null,"geniusUnitPricePerLabel":null,"banner":null,"discountLabel":null,"geniusDiscountLabel":null,"badge":null},{"code":"100061544","variantCode":"6423602012426","name":"CaMgZn + Vitamina C 60 comprimate","slug":"100061544-alevia-camgzn-vitamina-c-60-comprimate","unitPriceLabel":"583,06 Lei/kg","brand":"Alevia","brandCode":"83","brandFilterCode":"alevia-b128","sku":"100061544","price":20.99,"originalPrice":null,"currencyCode":"RON","currency":"Lei","image":{"thumbnail":{"default":"https://cdn.freshful.ro/media/cache/sylius_shop_product_thumbnail/87/c0/c0f21445d95018ea507d1118288d.jpg"},"large":{"default":"https://cdn.freshful.ro/media/cache/freshful_large/87/c0/c0f21445d95018ea507d1118288d.jpg"},"extralarge":{"default":"https://cdn.freshful.ro/media/cache/sylius_shop_product_original/87/c0/c0f21445d95018ea507d1118288d.jpg"}},"label":null,"tags":[],"isAvailable":true,"maxAvailableQuantity":16,"maxAllowedQuantity":100,"breadcrumbs":[{"code":"10","name":"Dietetic, ECO & internațional","slug":"10-dietetic-bio-si-international"},{"code":"1003","name":"Suplimente alimentare","slug":"1003-suplimente-alimentare"},{"code":"100301","name":"Vitamine și minerale","slug":"100301-vitamine-si-minerale"},{"code":"100061544","name":"CaMgZn + Vitamina C 60 comprimate","slug":"100061544-alevia-camgzn-vitamina-c-60-comprimate"}],"activePromotion":null,"saveMe":null,"labels":[],"geniusPrice":null,"geniusUnitPricePerLabel":null,"banner":null,"discountLabel":null,"geniusDiscountLabel":null,"badge":null},{"code":"100061542","variantCode":"6423602012198","name":"Vitamina D3 Optim 2000UI 30 comprimate","slug":"100061542-alevia-vitamina-d3-optim-2000ui-30-comprimate","unitPriceLabel":"","brand":"Alevia","brandCode":"83","brandFilterCode":"alevia-b128","sku":"100061542","price":19.99,"originalPrice":null,"currencyCode":"RON","currency":"Lei","image":{"thumbnail":{"default":"https://cdn.freshful.ro/media/cache/sylius_shop_product_thumbnail/4f/06/3cda5a035c6f4f7d768ab2ddec39.jpg"},"large":{"default":"https://cdn.freshful.ro/media/cache/freshful_large/4f/06/3cda5a035c6f4f7d768ab2ddec39.jpg"},"extralarge":{"default":"https://cdn.freshful.ro/media/cache/sylius_shop_product_original/4f/06/3cda5a035c6f4f7d768ab2ddec39.jpg"}},"label":null,"tags":[],"isAvailable":true,"maxAvailableQuantity":10,"maxAllowedQuantity":100,"breadcrumbs":[{"code":"10","name":"Dietetic, ECO & internațional","slug":"10-dietetic-bio-si-international"},{"code":"1003","name":"Suplimente alimentare","slug":"1003-suplimente-alimentare"},{"code":"100301","name":"Vitamine și minerale","slug":"100301-vitamine-si-minerale"},{"code":"100061542","name":"Vitamina D3 Optim 2000UI 30 comprimate","slug":"100061542-alevia-vitamina-d3-optim-2000ui-30-comprimate"}],"activePromotion":null,"saveMe":null,"labels":[],"geniusPrice":null,"geniusUnitPricePerLabel":null,"banner":null,"discountLabel":null,"geniusDiscountLabel":null,"badge":null},{"code":"100061520","variantCode":"100061520","name":"Spirulină 500mg 2x30 comprimate","slug":"100061520-alevia-spirulina-500mg-2x30-comprimate","unitPriceLabel":"610,54 Lei/kg","brand":"Alevia","brandCode":"83","brandFilterCode":"alevia-b128","sku":"100061520","price":22.59,"originalPrice":null,"currencyCode":"RON","currency":"Lei","image":{"thumbnail":{"default":"https://cdn.freshful.ro/media/cache/sylius_shop_product_thumbnail/1e/47/e7e46fcacdd86651413a22a30b5b.jpg"},"large":{"default":"https://cdn.freshful.ro/media/cache/freshful_large/1e/47/e7e46fcacdd86651413a22a30b5b.jpg"},"extralarge":{"default":"https://cdn.freshful.ro/media/cache/sylius_shop_product_original/1e/47/e7e46fcacdd86651413a22a30b5b.jpg"}},"label":null,"tags":[],"isAvailable":true,"maxAvailableQuantity":18,"maxAllowedQuantity":100,"breadcrumbs":[{"code":"10","name":"Dietetic, ECO & internațional","slug":"10-dietetic-bio-si-international"},{"code":"1003","name":"Suplimente alimentare","slug":"1003-suplimente-alimentare"},{"code":"100301","name":"Vitamine și minerale","slug":"100301-vitamine-si-minerale"},{"code":"100061520","name":"Spirulină 500mg 2x30 comprimate","slug":"100061520-alevia-spirulina-500mg-2x30-comprimate"}],"activePromotion":null,"saveMe":null,"labels":[],"geniusPrice":null,"geniusUnitPricePerLabel":null,"banner":null,"discountLabel":null,"geniusDiscountLabel":null,"badge":null},{"code":"100097814","variantCode":"6421930100945","name":"Magneziu organic 60 comprimate","slug":"100097814-vitamine-si-minerale-magneziu-organic-60-comprimate","unitPriceLabel":"516,5 Lei/kg","brand":"Vitamine si Minerale","brandCode":"938","brandFilterCode":"vitamine-si-minerale-b938","sku":"100097814","price":30.99,"originalPrice":null,"currencyCode":"RON","currency":"Lei","image":{"thumbnail":{"default":"https://cdn.freshful.ro/media/cache/sylius_shop_product_thumbnail/ab/75/33e1a4c04fc06b762aa7db1206e9.jpg"},"large":{"default":"https://cdn.freshful.ro/media/cache/freshful_large/ab/75/33e1a4c04fc06b762aa7db1206e9.jpg"},"extralarge":{"default":"https://cdn.freshful.ro/media/cache/sylius_shop_product_original/ab/75/33e1a4c04fc06b762aa7db1206e9.jpg"}},"label":null,"tags":[],"isAvailable":true,"maxAvailableQuantity":34,"maxAllowedQuantity":100,"breadcrumbs":[{"code":"10","name":"Dietetic, ECO & internațional","slug":"10-dietetic-bio-si-international"},{"code":"1003","name":"Suplimente alimentare","slug":"1003-suplimente-alimentare"},{"code":"100301","name":"Vitamine și minerale","slug":"100301-vitamine-si-minerale"},{"code":"100097814","name":"Magneziu organic 60 comprimate","slug":"100097814-vitamine-si-minerale-magneziu-organic-60-comprimate"}],"activePromotion":null,"saveMe":null,"labels":[],"geniusPrice":null,"geniusUnitPricePerLabel":null,"banner":null,"discountLabel":null,"geniusDiscountLabel":null,"badge":null},{"code":"100139460","variantCode":"100139460","name":"Jeleuri de imunitate pentru copii 30 buc","slug":"100139460-sanovita-jeleuri-de-imunitate-pentru-copii-30-buc","unitPriceLabel":"345,2 Lei/kg","brand":"Sanovita","brandCode":"482","brandFilterCode":"sanovita-b483","sku":"100139460","price":25.89,"originalPrice":null,"currencyCode":"RON","currency":"Lei","image":{"thumbnail":{"default":"https://cdn.freshful.ro/media/cache/sylius_shop_product_thumbnail/0b/b6/7586816ba8628542df045aa82a81.jpg"},"large":{"default":"https://cdn.freshful.ro/media/cache/freshful_large/0b/b6/7586816ba8628542df045aa82a81.jpg"},"extralarge":{"default":"https://cdn.freshful.ro/media/cache/sylius_shop_product_original/0b/b6/7586816ba8628542df045aa82a81.jpg"}},"label":null,"tags":[{"type":"vegan","text":"Vegan","icon":"https://cdn.freshful.ro/assets/product_tags/vegan.svg","iconPng":"https://cdn.freshful.ro/assets/product_tags/vegan.png","backgroundColor":"#ECF9F8","textColor":"#33A39C"},{"type":"NoAddedSugar","text":"Fara zahar adaugat","icon":"https://cdn.freshful.ro/assets/product_tags/fara_zahar_adaugat.svg","iconPng":"https://cdn.freshful.ro/assets/product_tags/fara_zahar_adaugat.png","backgroundColor":"#F8EDF7","textColor":"#C05EBC"}],"isAvailable":true,"maxAvailableQuantity":85,"maxAllowedQuantity":100,"breadcrumbs":[{"code":"10","name":"Dietetic, ECO & internațional","slug":"10-dietetic-bio-si-international"},{"code":"1003","name":"Suplimente alimentare","slug":"1003-suplimente-alimentare"},{"code":"100301","name":"Vitamine și minerale","slug":"100301-vitamine-si-minerale"},{"code":"100139460","name":"Jeleuri de imunitate pentru copii 30 buc","slug":"100139460-sanovita-jeleuri-de-imunitate-pentru-copii-30-buc"}],"activePromotion":null,"saveMe":null,"labels":[],"geniusPrice":null,"geniusUnitPricePerLabel":null,"banner":null,"discountLabel":null,"geniusDiscountLabel":null,"badge":null},{"code":"100061511","variantCode":"6423602000041","name":"Magneziu Vitamina B6 30 comprimate","slug":"100061511-alevia-magneziu-vitamina-b6-30-comprimate","unitPriceLabel":"880,77 Lei/kg","brand":"Alevia","brandCode":"83","brandFilterCode":"alevia-b128","sku":"100061511","price":22.9,"originalPrice":null,"currencyCode":"RON","currency":"Lei","image":{"thumbnail":{"default":"https://cdn.freshful.ro/media/cache/sylius_shop_product_thumbnail/d3/7f/e66663c6fcb76e2164aa87cfd3ff.jpg"},"large":{"default":"https://cdn.freshful.ro/media/cache/freshful_large/d3/7f/e66663c6fcb76e2164aa87cfd3ff.jpg"},"extralarge":{"default":"https://cdn.freshful.ro/media/cache/sylius_shop_product_original/d3/7f/e66663c6fcb76e2164aa87cfd3ff.jpg"}},"label":null,"tags":[],"isAvailable":true,"maxAvailableQuantity":22,"maxAllowedQuantity":100,"breadcrumbs":[{"code":"10","name":"Dietetic, ECO & internațional","slug":"10-dietetic-bio-si-international"},{"code":"1003","name":"Suplimente alimentare","slug":"1003-suplimente-alimentare"},{"code":"100301","name":"Vitamine și minerale","slug":"100301-vitamine-si-minerale"},{"code":"100061511","name":"Magneziu Vitamina B6 30 comprimate","slug":"100061511-alevia-magneziu-vitamina-b6-30-comprimate"}],"activePromotion":null,"saveMe":null,"labels":[],"geniusPrice":null,"geniusUnitPricePerLabel":null,"banner":null,"discountLabel":null,"geniusDiscountLabel":null,"badge":null},{"code":"100097812","variantCode":"6421930100129","name":"Silueth 90-60-90, 60 comprimate","slug":"100097812-sublima-silueth-90-60-90-60-comprimate","unitPriceLabel":"490,5 Lei/kg","brand":"Sublima","brandCode":"937","brandFilterCode":"sublima-b937","sku":"100097812","price":29.43,"originalPrice":null,"currencyCode":"RON","currency":"Lei","image":{"thumbnail":{"default":"https://cdn.freshful.ro/media/cache/sylius_shop_product_thumbnail/19/bf/6373c08df1307c212e05a6a703ab.jpg"},"large":{"default":"https://cdn.freshful.ro/media/cache/freshful_large/19/bf/6373c08df1307c212e05a6a703ab.jpg"},"extralarge":{"default":"https://cdn.freshful.ro/media/cache/sylius_shop_product_original/19/bf/6373c08df1307c212e05a6a703ab.jpg"}},"label":null,"tags":[],"isAvailable":true,"maxAvailableQuantity":34,"maxAllowedQuantity":100,"breadcrumbs":[{"code":"10","name":"Dietetic, ECO & internațional","slug":"10-dietetic-bio-si-international"},{"code":"1003","name":"Suplimente alimentare","slug":"1003-suplimente-alimentare"},{"code":"100301","name":"Vitamine și minerale","slug":"100301-vitamine-si-minerale"},{"code":"100097812","name":"Silueth 90-60-90, 60 comprimate","slug":"100097812-sublima-silueth-90-60-90-60-comprimate"}],"activePromotion":null,"saveMe":null,"labels":[],"geniusPrice":null,"geniusUnitPricePerLabel":null,"banner":null,"discountLabel":null,"geniusDiscountLabel":null,"badge":null}],"filters":{"countSelected":0,"items":[{"code":"promotion","name":"Promoții","countSelected":0,"values":[{"code":"oferte-bacanie-bauturi-21feb-8mar23","name":"Cămara cu băuturi și bunătăți","isSelected":false,"count":1}]},{"code":"brand","name":"Brand","countSelected":0,"values":[{"code":"alevia-b128","name":"Alevia","isSelected":false,"count":28},{"code":"biocyte-b2010","name":"Biocyte","isSelected":false,"count":1},{"code":"dacia-plant-b934","name":"Dacia Plant","isSelected":false,"count":2},{"code":"goldnutrition-b1999","name":"Goldnutrition","isSelected":false,"count":2},{"code":"herbiolys-b100","name":"Herbiolys","isSelected":false,"count":12},{"code":"natural-doctor-b2293","name":"Natural Doctor","isSelected":false,"count":1},{"code":"sanovita-b483","name":"Sanovita","isSelected":false,"count":6},{"code":"solgar-b1889","name":"Solgar","isSelected":false,"count":1},{"code":"sublima-b937","name":"Sublima","isSelected":false,"count":1},{"code":"tianli-b3259","name":"Tianli","isSelected":false,"count":1},{"code":"vitamine-si-minerale-b938","name":"Vitamine si Minerale","isSelected":false,"count":5}]},{"code":"diet_lifestyle","name":"Dietă și lifestyle","countSelected":0,"values":[{"code":"bio-a26","name":"Bio","isSelected":false,"count":3},{"code":"eco-a83","name":"Eco","isSelected":false,"count":8},{"code":"fara-gluten-a16","name":"Fara gluten","isSelected":false,"count":1},{"code":"fara-zahar-adaugat-a29","name":"Fara zahar adaugat","isSelected":false,"count":7},{"code":"natural-a27","name":"Natural","isSelected":false,"count":2},{"code":"vegan-a24","name":"Vegan","isSelected":false,"count":6},{"code":"vegetarian-a28","name":"Vegetarian","isSelected":false,"count":1}]}]},"orderBy":[{"field":"price","direction":"asc","name":"Preț crescător","isSelected":false},{"field":"price","direction":"desc","name":"Preț descrescător","isSelected":false},{"field":"popularity","direction":"desc","name":"Cele mai populare","isSelected":true},{"field":"category","direction":"asc","name":"Categorie","isSelected":false}],"metaTitle":"Vitamine și minerale - Gamă variată","metaDescription":"Vrei Vitamine și minerale? Alege dintr-o gamă variată. Comanzi simplu și ai livrare rapidă, calitate și prospețime. Hai pe Freshful.ro","metaKeywords":null,"banners":[]}}