{"type":"subcategory","payload":{"analyticsListId":"category_1003-suplimente-alimentare","analyticsListName":"Category - Suplimente alimentare","name":"Suplimente alimentare","slug":"1003-suplimente-alimentare","image":null,"breadcrumbs":[{"code":"10","name":"Dietetic, ECO & internațional","slug":"10-dietetic-bio-si-international"},{"code":"1003","name":"Suplimente alimentare","slug":"1003-suplimente-alimentare"}],"slots":[],"page":1,"limit":10,"pages":33,"count":326,"siblings":[{"name":"Produse ecologice","slug":"1001-produse-ecologice","selected":false},{"name":"Produse dietetice și naturiste","slug":"1002-produse-dietetice-si-naturiste","selected":false},{"name":"Suplimente alimentare","slug":"1003-suplimente-alimentare","selected":true},{"name":"Produse internaționale","slug":"1004-bucatarie-internationala","selected":false}],"children":[{"name":"Toate produsele","slug":"1003-suplimente-alimentare","selected":true},{"name":"Vitamine și minerale","slug":"100301-vitamine-si-minerale","selected":false},{"name":"Energie și vitalitate","slug":"100302-energie-si-vitalitate","selected":false},{"name":"Sarcină","slug":"100303-sarcina","selected":false},{"name":"Imunitate","slug":"100304-imunitate","selected":false},{"name":"Sistem muscular, articular și osos","slug":"100305-muscular-articular-si-osos","selected":false},{"name":"Sistem nervos, ochi și cardio","slug":"100306-nervos-ochi-cardiovascular","selected":false},{"name":"Piele, păr și unghii","slug":"100307-piele-par-si-unghii","selected":false},{"name":"Sistem gastrointestinal","slug":"100308-sistemul-gastrointenstinal","selected":false},{"name":"Sistem urogenital","slug":"100309-sistemul-urogenital","selected":false},{"name":"Sistem respirator","slug":"100310-sistemul-respirator","selected":false}],"products":[{"code":"100061502","variantCode":"6423602003189","name":"Propolis Vitamina C cu echinacea 40 comprimate","slug":"100061502-alevia-propolis-vitamina-c-cu-echinacea-40-comprimate","unitPriceLabel":"7.995 Lei/kg","brand":"Alevia","brandCode":"83","brandFilterCode":"alevia-b128","sku":"100061502","price":15.99,"originalPrice":18.99,"currencyCode":"RON","currency":"Lei","image":{"thumbnail":{"default":"https://cdn.freshful.ro/media/cache/sylius_shop_product_thumbnail/ec/7f/17f6e06ef87dd313fbdc36852093.jpg"},"large":{"default":"https://cdn.freshful.ro/media/cache/freshful_large/ec/7f/17f6e06ef87dd313fbdc36852093.jpg"},"extralarge":{"default":"https://cdn.freshful.ro/media/cache/sylius_shop_product_original/ec/7f/17f6e06ef87dd313fbdc36852093.jpg"}},"label":{"text":"-15%","backgroundColor":"#FF9903","textColor":"#FFFFFF"},"tags":[],"isAvailable":true,"maxAvailableQuantity":49,"maxAllowedQuantity":100,"breadcrumbs":[{"code":"10","name":"Dietetic, ECO & internațional","slug":"10-dietetic-bio-si-international"},{"code":"1003","name":"Suplimente alimentare","slug":"1003-suplimente-alimentare"},{"code":"100301","name":"Vitamine și minerale","slug":"100301-vitamine-si-minerale"},{"code":"100061502","name":"Propolis Vitamina C cu echinacea 40 comprimate","slug":"100061502-alevia-propolis-vitamina-c-cu-echinacea-40-comprimate"}],"activePromotion":{"code":"oferte-bacanie-bauturi-21feb-8mar23","name":"Preț redus","targetQuantity":null},"saveMe":null,"labels":[{"type":"v1","items":[{"text":"-15%","backgroundColor":"#FF9903","textColor":"#FFFFFF"}]}],"geniusPrice":null,"geniusUnitPricePerLabel":null,"banner":{"text":"Super preț","textColor":"#FF0000","bgColor":"#FFF2EC","icon":null,"link":"https://www.freshful.ro/oferte/oferte-bacanie-bauturi-21feb-8mar23","type":"promo","analyticsEventType":"select_promotion","analyticsEventPayload":{"promotion_id":"oferte-bacanie-bauturi-21feb-8mar23","promotion_name":"Cămara cu băuturi și bunătăți"}},"discountLabel":"Economisești 15%","geniusDiscountLabel":null,"badge":null},{"code":"100118436","variantCode":"100118436","name":"Collagen Express 10 plicuri","slug":"100118436-biocyte-collagen-express-10-plicuri","unitPriceLabel":"69,99 Lei/buc","brand":"Biocyte","brandCode":"2001","brandFilterCode":"biocyte-b2010","sku":"100118436","price":69.99,"originalPrice":100.28,"currencyCode":"RON","currency":"Lei","image":{"thumbnail":{"default":"https://cdn.freshful.ro/media/cache/sylius_shop_product_thumbnail/e2/72/2e99faccb618fdb01b44b5806663.jpg"},"large":{"default":"https://cdn.freshful.ro/media/cache/freshful_large/e2/72/2e99faccb618fdb01b44b5806663.jpg"},"extralarge":{"default":"https://cdn.freshful.ro/media/cache/sylius_shop_product_original/e2/72/2e99faccb618fdb01b44b5806663.jpg"}},"label":{"text":"-30%","backgroundColor":"#FF9903","textColor":"#FFFFFF"},"tags":[],"isAvailable":true,"maxAvailableQuantity":6,"maxAllowedQuantity":100,"breadcrumbs":[{"code":"10","name":"Dietetic, ECO & internațional","slug":"10-dietetic-bio-si-international"},{"code":"1003","name":"Suplimente alimentare","slug":"1003-suplimente-alimentare"},{"code":"100307","name":"Piele, păr și unghii","slug":"100307-piele-par-si-unghii"},{"code":"100118436","name":"Collagen Express 10 plicuri","slug":"100118436-biocyte-collagen-express-10-plicuri"}],"activePromotion":{"code":"special-bacanie-bauturi-mar23","name":"Preț redus","targetQuantity":null},"saveMe":null,"labels":[{"type":"v1","items":[{"text":"-30%","backgroundColor":"#FF9903","textColor":"#FFFFFF"}]}],"geniusPrice":null,"geniusUnitPricePerLabel":null,"banner":{"text":"Super preț","textColor":"#FF0000","bgColor":"#FFF2EC","icon":null,"link":"https://www.freshful.ro/oferte/special-bacanie-bauturi-mar23","type":"promo","analyticsEventType":"select_promotion","analyticsEventPayload":{"promotion_id":"special-bacanie-bauturi-mar23","promotion_name":"Prețuri speciale pentru Ziua Femeii"}},"discountLabel":"Economisești 30%","geniusDiscountLabel":null,"badge":null},{"code":"100118439","variantCode":"100118439","name":"Éclat Extrême Pearl 40 capsule","slug":"100118439-biocyte-eclat-extreme-pearl-40-capsule","unitPriceLabel":"118,99 Lei/buc","brand":"Biocyte","brandCode":"2001","brandFilterCode":"biocyte-b2010","sku":"100118439","price":118.99,"originalPrice":169.99,"currencyCode":"RON","currency":"Lei","image":{"thumbnail":{"default":"https://cdn.freshful.ro/media/cache/sylius_shop_product_thumbnail/8d/7f/275aaa9858a35cdfab350ff7f207.jpg"},"large":{"default":"https://cdn.freshful.ro/media/cache/freshful_large/8d/7f/275aaa9858a35cdfab350ff7f207.jpg"},"extralarge":{"default":"https://cdn.freshful.ro/media/cache/sylius_shop_product_original/8d/7f/275aaa9858a35cdfab350ff7f207.jpg"}},"label":{"text":"-30%","backgroundColor":"#FF9903","textColor":"#FFFFFF"},"tags":[],"isAvailable":true,"maxAvailableQuantity":5,"maxAllowedQuantity":100,"breadcrumbs":[{"code":"10","name":"Dietetic, ECO & internațional","slug":"10-dietetic-bio-si-international"},{"code":"1003","name":"Suplimente alimentare","slug":"1003-suplimente-alimentare"},{"code":"100307","name":"Piele, păr și unghii","slug":"100307-piele-par-si-unghii"},{"code":"100118439","name":"Éclat Extrême Pearl 40 capsule","slug":"100118439-biocyte-eclat-extreme-pearl-40-capsule"}],"activePromotion":{"code":"special-bacanie-bauturi-mar23","name":"Preț redus","targetQuantity":null},"saveMe":null,"labels":[{"type":"v1","items":[{"text":"-30%","backgroundColor":"#FF9903","textColor":"#FFFFFF"}]}],"geniusPrice":null,"geniusUnitPricePerLabel":null,"banner":{"text":"Super preț","textColor":"#FF0000","bgColor":"#FFF2EC","icon":null,"link":"https://www.freshful.ro/oferte/special-bacanie-bauturi-mar23","type":"promo","analyticsEventType":"select_promotion","analyticsEventPayload":{"promotion_id":"special-bacanie-bauturi-mar23","promotion_name":"Prețuri speciale pentru Ziua Femeii"}},"discountLabel":"Economisești 30%","geniusDiscountLabel":null,"badge":null},{"code":"100118722","variantCode":"100118722","name":"Ultra Max Collagen 30 plicuri","slug":"100118722-goldnutrition-ultra-max-collagen-30-plicuri","unitPriceLabel":"99,99 Lei/buc","brand":"Goldnutrition","brandCode":"2007","brandFilterCode":"goldnutrition-b1999","sku":"100118722","price":99.99,"originalPrice":149.99,"currencyCode":"RON","currency":"Lei","image":{"thumbnail":{"default":"https://cdn.freshful.ro/media/cache/sylius_shop_product_thumbnail/9a/d4/aa1d1815c78132ed05beb0dce61b.jpg"},"large":{"default":"https://cdn.freshful.ro/media/cache/freshful_large/9a/d4/aa1d1815c78132ed05beb0dce61b.jpg"},"extralarge":{"default":"https://cdn.freshful.ro/media/cache/sylius_shop_product_original/9a/d4/aa1d1815c78132ed05beb0dce61b.jpg"}},"label":{"text":"-33%","backgroundColor":"#FF9903","textColor":"#FFFFFF"},"tags":[],"isAvailable":true,"maxAvailableQuantity":1,"maxAllowedQuantity":100,"breadcrumbs":[{"code":"10","name":"Dietetic, ECO & internațional","slug":"10-dietetic-bio-si-international"},{"code":"1003","name":"Suplimente alimentare","slug":"1003-suplimente-alimentare"},{"code":"100307","name":"Piele, păr și unghii","slug":"100307-piele-par-si-unghii"},{"code":"100118722","name":"Ultra Max Collagen 30 plicuri","slug":"100118722-goldnutrition-ultra-max-collagen-30-plicuri"}],"activePromotion":{"code":"special-bacanie-bauturi-mar23","name":"Preț redus","targetQuantity":null},"saveMe":null,"labels":[{"type":"v1","items":[{"text":"-33%","backgroundColor":"#FF9903","textColor":"#FFFFFF"}]}],"geniusPrice":null,"geniusUnitPricePerLabel":null,"banner":{"text":"Super preț","textColor":"#FF0000","bgColor":"#FFF2EC","icon":null,"link":"https://www.freshful.ro/oferte/special-bacanie-bauturi-mar23","type":"promo","analyticsEventType":"select_promotion","analyticsEventPayload":{"promotion_id":"special-bacanie-bauturi-mar23","promotion_name":"Prețuri speciale pentru Ziua Femeii"}},"discountLabel":"Economisești 33%","geniusDiscountLabel":null,"badge":null},{"code":"100118435","variantCode":"100118435","name":"Activ' Anti-rides 30 capsule","slug":"100118435-biocyte-activ-anti-rides-30-capsule","unitPriceLabel":"97,99 Lei/buc","brand":"Biocyte","brandCode":"2001","brandFilterCode":"biocyte-b2010","sku":"100118435","price":97.99,"originalPrice":139.99,"currencyCode":"RON","currency":"Lei","image":{"thumbnail":{"default":"https://cdn.freshful.ro/media/cache/sylius_shop_product_thumbnail/a4/4b/95c0d12854130ed718916c4448a4.jpg"},"large":{"default":"https://cdn.freshful.ro/media/cache/freshful_large/a4/4b/95c0d12854130ed718916c4448a4.jpg"},"extralarge":{"default":"https://cdn.freshful.ro/media/cache/sylius_shop_product_original/a4/4b/95c0d12854130ed718916c4448a4.jpg"}},"label":{"text":"-30%","backgroundColor":"#FF9903","textColor":"#FFFFFF"},"tags":[],"isAvailable":true,"maxAvailableQuantity":7,"maxAllowedQuantity":100,"breadcrumbs":[{"code":"10","name":"Dietetic, ECO & internațional","slug":"10-dietetic-bio-si-international"},{"code":"1003","name":"Suplimente alimentare","slug":"1003-suplimente-alimentare"},{"code":"100307","name":"Piele, păr și unghii","slug":"100307-piele-par-si-unghii"},{"code":"100118435","name":"Activ' Anti-rides 30 capsule","slug":"100118435-biocyte-activ-anti-rides-30-capsule"}],"activePromotion":{"code":"special-bacanie-bauturi-mar23","name":"Preț redus","targetQuantity":null},"saveMe":null,"labels":[{"type":"v1","items":[{"text":"-30%","backgroundColor":"#FF9903","textColor":"#FFFFFF"}]}],"geniusPrice":null,"geniusUnitPricePerLabel":null,"banner":{"text":"Super preț","textColor":"#FF0000","bgColor":"#FFF2EC","icon":null,"link":"https://www.freshful.ro/oferte/special-bacanie-bauturi-mar23","type":"promo","analyticsEventType":"select_promotion","analyticsEventPayload":{"promotion_id":"special-bacanie-bauturi-mar23","promotion_name":"Prețuri speciale pentru Ziua Femeii"}},"discountLabel":"Economisești 30%","geniusDiscountLabel":null,"badge":null},{"code":"100118440","variantCode":"100118440","name":"Supliment alimentar cu elastina Elastine Forte 40 capsule","slug":"100118440-biocyte-supliment-alimentar-cu-elastina-elastine-forte-40-capsule","unitPriceLabel":"84,99 Lei/buc","brand":"Biocyte","brandCode":"2001","brandFilterCode":"biocyte-b2010","sku":"100118440","price":84.99,"originalPrice":120.99,"currencyCode":"RON","currency":"Lei","image":{"thumbnail":{"default":"https://cdn.freshful.ro/media/cache/sylius_shop_product_thumbnail/ce/68/93a2f311c658d528c5e4b2a4fe1d.jpg"},"large":{"default":"https://cdn.freshful.ro/media/cache/freshful_large/ce/68/93a2f311c658d528c5e4b2a4fe1d.jpg"},"extralarge":{"default":"https://cdn.freshful.ro/media/cache/sylius_shop_product_original/ce/68/93a2f311c658d528c5e4b2a4fe1d.jpg"}},"label":{"text":"-29%","backgroundColor":"#FF9903","textColor":"#FFFFFF"},"tags":[],"isAvailable":true,"maxAvailableQuantity":9,"maxAllowedQuantity":100,"breadcrumbs":[{"code":"10","name":"Dietetic, ECO & internațional","slug":"10-dietetic-bio-si-international"},{"code":"1003","name":"Suplimente alimentare","slug":"1003-suplimente-alimentare"},{"code":"100307","name":"Piele, păr și unghii","slug":"100307-piele-par-si-unghii"},{"code":"100118440","name":"Supliment alimentar cu elastina Elastine Forte 40 capsule","slug":"100118440-biocyte-supliment-alimentar-cu-elastina-elastine-forte-40-capsule"}],"activePromotion":{"code":"special-bacanie-bauturi-mar23","name":"Preț redus","targetQuantity":null},"saveMe":null,"labels":[{"type":"v1","items":[{"text":"-29%","backgroundColor":"#FF9903","textColor":"#FFFFFF"}]}],"geniusPrice":null,"geniusUnitPricePerLabel":null,"banner":{"text":"Super preț","textColor":"#FF0000","bgColor":"#FFF2EC","icon":null,"link":"https://www.freshful.ro/oferte/special-bacanie-bauturi-mar23","type":"promo","analyticsEventType":"select_promotion","analyticsEventPayload":{"promotion_id":"special-bacanie-bauturi-mar23","promotion_name":"Prețuri speciale pentru Ziua Femeii"}},"discountLabel":"Economisești 29%","geniusDiscountLabel":null,"badge":null},{"code":"100118445","variantCode":"100118445","name":"Supliment alimentar Peau Radieuse 60 capsule","slug":"100118445-biocyte-supliment-alimentar-peau-radieuse-60-capsule","unitPriceLabel":"97,99 Lei/buc","brand":"Biocyte","brandCode":"2001","brandFilterCode":"biocyte-b2010","sku":"100118445","price":97.99,"originalPrice":139.99,"currencyCode":"RON","currency":"Lei","image":{"thumbnail":{"default":"https://cdn.freshful.ro/media/cache/sylius_shop_product_thumbnail/7e/a2/bbe915a8fd35a105319e48c9080b.jpg"},"large":{"default":"https://cdn.freshful.ro/media/cache/freshful_large/7e/a2/bbe915a8fd35a105319e48c9080b.jpg"},"extralarge":{"default":"https://cdn.freshful.ro/media/cache/sylius_shop_product_original/7e/a2/bbe915a8fd35a105319e48c9080b.jpg"}},"label":{"text":"-30%","backgroundColor":"#FF9903","textColor":"#FFFFFF"},"tags":[],"isAvailable":true,"maxAvailableQuantity":4,"maxAllowedQuantity":100,"breadcrumbs":[{"code":"10","name":"Dietetic, ECO & internațional","slug":"10-dietetic-bio-si-international"},{"code":"1003","name":"Suplimente alimentare","slug":"1003-suplimente-alimentare"},{"code":"100307","name":"Piele, păr și unghii","slug":"100307-piele-par-si-unghii"},{"code":"100118445","name":"Supliment alimentar Peau Radieuse 60 capsule","slug":"100118445-biocyte-supliment-alimentar-peau-radieuse-60-capsule"}],"activePromotion":{"code":"special-bacanie-bauturi-mar23","name":"Preț redus","targetQuantity":null},"saveMe":null,"labels":[{"type":"v1","items":[{"text":"-30%","backgroundColor":"#FF9903","textColor":"#FFFFFF"}]}],"geniusPrice":null,"geniusUnitPricePerLabel":null,"banner":{"text":"Super preț","textColor":"#FF0000","bgColor":"#FFF2EC","icon":null,"link":"https://www.freshful.ro/oferte/special-bacanie-bauturi-mar23","type":"promo","analyticsEventType":"select_promotion","analyticsEventPayload":{"promotion_id":"special-bacanie-bauturi-mar23","promotion_name":"Prețuri speciale pentru Ziua Femeii"}},"discountLabel":"Economisești 30%","geniusDiscountLabel":null,"badge":null},{"code":"100118446","variantCode":"100118446","name":"Supliment alimentar Terracotta Cocktail Autobronzant 30 capsule","slug":"100118446-biocyte-supliment-alimentar-terracotta-cocktail-autobronzant-30-capsule","unitPriceLabel":"69,99 Lei/buc","brand":"Biocyte","brandCode":"2001","brandFilterCode":"biocyte-b2010","sku":"100118446","price":69.99,"originalPrice":89.99,"currencyCode":"RON","currency":"Lei","image":{"thumbnail":{"default":"https://cdn.freshful.ro/media/cache/sylius_shop_product_thumbnail/f5/87/23bf03260cd0e25290419f53d263.jpg"},"large":{"default":"https://cdn.freshful.ro/media/cache/freshful_large/f5/87/23bf03260cd0e25290419f53d263.jpg"},"extralarge":{"default":"https://cdn.freshful.ro/media/cache/sylius_shop_product_original/f5/87/23bf03260cd0e25290419f53d263.jpg"}},"label":{"text":"-22%","backgroundColor":"#FF9903","textColor":"#FFFFFF"},"tags":[],"isAvailable":true,"maxAvailableQuantity":25,"maxAllowedQuantity":100,"breadcrumbs":[{"code":"10","name":"Dietetic, ECO & internațional","slug":"10-dietetic-bio-si-international"},{"code":"1003","name":"Suplimente alimentare","slug":"1003-suplimente-alimentare"},{"code":"100307","name":"Piele, păr și unghii","slug":"100307-piele-par-si-unghii"},{"code":"100118446","name":"Supliment alimentar Terracotta Cocktail Autobronzant 30 capsule","slug":"100118446-biocyte-supliment-alimentar-terracotta-cocktail-autobronzant-30-capsule"}],"activePromotion":{"code":"special-bacanie-bauturi-mar23","name":"Preț redus","targetQuantity":null},"saveMe":null,"labels":[{"type":"v1","items":[{"text":"-22%","backgroundColor":"#FF9903","textColor":"#FFFFFF"}]}],"geniusPrice":null,"geniusUnitPricePerLabel":null,"banner":{"text":"Super preț","textColor":"#FF0000","bgColor":"#FFF2EC","icon":null,"link":"https://www.freshful.ro/oferte/special-bacanie-bauturi-mar23","type":"promo","analyticsEventType":"select_promotion","analyticsEventPayload":{"promotion_id":"special-bacanie-bauturi-mar23","promotion_name":"Prețuri speciale pentru Ziua Femeii"}},"discountLabel":"Economisești 22%","geniusDiscountLabel":null,"badge":null},{"code":"100118449","variantCode":"100118449","name":"Keratine Forte anti-cădereapărului  40 comprimate","slug":"100118449-biocyte-keratine-forte-anti-cadereaparului-40-comprimate","unitPriceLabel":"76,99 Lei/buc","brand":"Biocyte","brandCode":"2001","brandFilterCode":"biocyte-b2010","sku":"100118449","price":76.99,"originalPrice":109.99,"currencyCode":"RON","currency":"Lei","image":{"thumbnail":{"default":"https://cdn.freshful.ro/media/cache/sylius_shop_product_thumbnail/47/35/09e1cce460a4e722f4158321b312.jpg"},"large":{"default":"https://cdn.freshful.ro/media/cache/freshful_large/47/35/09e1cce460a4e722f4158321b312.jpg"},"extralarge":{"default":"https://cdn.freshful.ro/media/cache/sylius_shop_product_original/47/35/09e1cce460a4e722f4158321b312.jpg"}},"label":{"text":"-30%","backgroundColor":"#FF9903","textColor":"#FFFFFF"},"tags":[],"isAvailable":true,"maxAvailableQuantity":28,"maxAllowedQuantity":100,"breadcrumbs":[{"code":"10","name":"Dietetic, ECO & internațional","slug":"10-dietetic-bio-si-international"},{"code":"1003","name":"Suplimente alimentare","slug":"1003-suplimente-alimentare"},{"code":"100307","name":"Piele, păr și unghii","slug":"100307-piele-par-si-unghii"},{"code":"100118449","name":"Keratine Forte anti-cădereapărului  40 comprimate","slug":"100118449-biocyte-keratine-forte-anti-cadereaparului-40-comprimate"}],"activePromotion":{"code":"special-bacanie-bauturi-mar23","name":"Preț redus","targetQuantity":null},"saveMe":null,"labels":[{"type":"v1","items":[{"text":"-30%","backgroundColor":"#FF9903","textColor":"#FFFFFF"}]}],"geniusPrice":null,"geniusUnitPricePerLabel":null,"banner":{"text":"Super preț","textColor":"#FF0000","bgColor":"#FFF2EC","icon":null,"link":"https://www.freshful.ro/oferte/special-bacanie-bauturi-mar23","type":"promo","analyticsEventType":"select_promotion","analyticsEventPayload":{"promotion_id":"special-bacanie-bauturi-mar23","promotion_name":"Prețuri speciale pentru Ziua Femeii"}},"discountLabel":"Economisești 30%","geniusDiscountLabel":null,"badge":null},{"code":"100118450","variantCode":"100118450","name":"Keratine Forte Full Spectrum 40 capsule","slug":"100118450-biocyte-keratine-forte-full-spectrum-40-capsule","unitPriceLabel":"97,99 Lei/buc","brand":"Biocyte","brandCode":"2001","brandFilterCode":"biocyte-b2010","sku":"100118450","price":97.99,"originalPrice":139.99,"currencyCode":"RON","currency":"Lei","image":{"thumbnail":{"default":"https://cdn.freshful.ro/media/cache/sylius_shop_product_thumbnail/8e/3e/921ae22608d6176312113430335e.jpg"},"large":{"default":"https://cdn.freshful.ro/media/cache/freshful_large/8e/3e/921ae22608d6176312113430335e.jpg"},"extralarge":{"default":"https://cdn.freshful.ro/media/cache/sylius_shop_product_original/8e/3e/921ae22608d6176312113430335e.jpg"}},"label":{"text":"-30%","backgroundColor":"#FF9903","textColor":"#FFFFFF"},"tags":[],"isAvailable":true,"maxAvailableQuantity":4,"maxAllowedQuantity":100,"breadcrumbs":[{"code":"10","name":"Dietetic, ECO & internațional","slug":"10-dietetic-bio-si-international"},{"code":"1003","name":"Suplimente alimentare","slug":"1003-suplimente-alimentare"},{"code":"100307","name":"Piele, păr și unghii","slug":"100307-piele-par-si-unghii"},{"code":"100118450","name":"Keratine Forte Full Spectrum 40 capsule","slug":"100118450-biocyte-keratine-forte-full-spectrum-40-capsule"}],"activePromotion":{"code":"special-bacanie-bauturi-mar23","name":"Preț redus","targetQuantity":null},"saveMe":null,"labels":[{"type":"v1","items":[{"text":"-30%","backgroundColor":"#FF9903","textColor":"#FFFFFF"}]}],"geniusPrice":null,"geniusUnitPricePerLabel":null,"banner":{"text":"Super preț","textColor":"#FF0000","bgColor":"#FFF2EC","icon":null,"link":"https://www.freshful.ro/oferte/special-bacanie-bauturi-mar23","type":"promo","analyticsEventType":"select_promotion","analyticsEventPayload":{"promotion_id":"special-bacanie-bauturi-mar23","promotion_name":"Prețuri speciale pentru Ziua Femeii"}},"discountLabel":"Economisești 30%","geniusDiscountLabel":null,"badge":null}],"filters":{"countSelected":0,"items":[{"code":"promotion","name":"Promoții","countSelected":0,"values":[{"code":"oferte-bacanie-bauturi-21feb-8mar23","name":"Cămara cu băuturi și bunătăți","isSelected":false,"count":1},{"code":"special-bacanie-bauturi-mar23","name":"Prețuri speciale pentru Ziua Femeii","isSelected":false,"count":12}]},{"code":"brand","name":"Brand","countSelected":0,"values":[{"code":"albina-carpatina-b1249","name":"Albina Carpatina","isSelected":false,"count":1},{"code":"alevia-b128","name":"Alevia","isSelected":false,"count":41},{"code":"alfa-b215","name":"Alfa","isSelected":false,"count":4},{"code":"apiphen-b2376","name":"Apiphen","isSelected":false,"count":14},{"code":"barny-s-born-in-canada-b2067","name":"Barny's Born in Canada","isSelected":false,"count":10},{"code":"biocyte-b2010","name":"Biocyte","isSelected":false,"count":35},{"code":"biseptol-b1636","name":"Biseptol","isSelected":false,"count":4},{"code":"calmotusin-b941","name":"Calmotusin","isSelected":false,"count":5},{"code":"citonat-b935","name":"Citonat","isSelected":false,"count":1},{"code":"dacia-plant-b934","name":"Dacia Plant","isSelected":false,"count":59},{"code":"detoxicolon-b940","name":"Detoxicolon","isSelected":false,"count":1},{"code":"emetix-b2689","name":"Emetix","isSelected":false,"count":1},{"code":"gerlinea-b1712","name":"Gerlinea","isSelected":false,"count":3},{"code":"goldnutrition-b1999","name":"Goldnutrition","isSelected":false,"count":14},{"code":"herbiolys-b100","name":"Herbiolys","isSelected":false,"count":25},{"code":"ingerasul-b1637","name":"Ingerașul","isSelected":false,"count":3},{"code":"interferonat-b936","name":"Interferonat","isSelected":false,"count":1},{"code":"lapte-de-magarita-b1842","name":"Lapte de Măgăriță","isSelected":false,"count":2},{"code":"mumie-b2268","name":"Mumie","isSelected":false,"count":15},{"code":"natural-doctor-b2293","name":"Natural Doctor","isSelected":false,"count":16},{"code":"sanovita-b483","name":"Sanovita","isSelected":false,"count":10},{"code":"sintofarm-b1131","name":"Sintofarm","isSelected":false,"count":1},{"code":"solgar-b1889","name":"Solgar","isSelected":false,"count":43},{"code":"specialistii-plantelor-b939","name":"Specialistii Plantelor","isSelected":false,"count":4},{"code":"sublima-b937","name":"Sublima","isSelected":false,"count":7},{"code":"tianli-b3259","name":"Tianli","isSelected":false,"count":1},{"code":"vitamine-si-minerale-b938","name":"Vitamine si Minerale","isSelected":false,"count":5}]},{"code":"diet_lifestyle","name":"Dietă și lifestyle","countSelected":0,"values":[{"code":"bio-a26","name":"Bio","isSelected":false,"count":8},{"code":"eco-a83","name":"Eco","isSelected":false,"count":21},{"code":"fara-conservanti-a37","name":"Fara conservanti","isSelected":false,"count":1},{"code":"fara-gluten-a16","name":"Fara gluten","isSelected":false,"count":3},{"code":"fara-sare-a52","name":"Fara sare","isSelected":false,"count":34},{"code":"fara-zahar-adaugat-a29","name":"Fara zahar adaugat","isSelected":false,"count":46},{"code":"natural-a27","name":"Natural","isSelected":false,"count":5},{"code":"vegan-a24","name":"Vegan","isSelected":false,"count":44},{"code":"vegetarian-a28","name":"Vegetarian","isSelected":false,"count":13}]}]},"orderBy":[{"field":"price","direction":"asc","name":"Preț crescător","isSelected":false},{"field":"price","direction":"desc","name":"Preț descrescător","isSelected":false},{"field":"popularity","direction":"desc","name":"Cele mai populare","isSelected":true},{"field":"category","direction":"asc","name":"Categorie","isSelected":false}],"metaTitle":"Suplimente alimentare - Gamă variată","metaDescription":"Vrei Suplimente alimentare? Alege dintr-o gamă variată. Comanzi simplu și ai livrare rapidă, calitate și prospețime. Hai pe Freshful.ro","metaKeywords":null,"banners":[]}}