{"type":"subcategory","payload":{"analyticsListId":"category_100305-muscular-articular-si-osos","analyticsListName":"Category - Sistem muscular, articular și osos","name":"Sistem muscular, articular și osos","slug":"100305-muscular-articular-si-osos","image":null,"breadcrumbs":[{"code":"10","name":"Dietetic, ECO & internațional","slug":"10-dietetic-bio-si-international"},{"code":"1003","name":"Suplimente alimentare","slug":"1003-suplimente-alimentare"},{"code":"100305","name":"Sistem muscular, articular și osos","slug":"100305-muscular-articular-si-osos"}],"slots":[],"page":1,"limit":10,"pages":4,"count":39,"siblings":[{"name":"Produse ecologice","slug":"1001-produse-ecologice","selected":false},{"name":"Produse dietetice și naturiste","slug":"1002-produse-dietetice-si-naturiste","selected":false},{"name":"Suplimente alimentare","slug":"1003-suplimente-alimentare","selected":true},{"name":"Produse internaționale","slug":"1004-bucatarie-internationala","selected":false}],"children":[{"name":"Toate produsele","slug":"1003-suplimente-alimentare","selected":false},{"name":"Vitamine și minerale","slug":"100301-vitamine-si-minerale","selected":false},{"name":"Energie și vitalitate","slug":"100302-energie-si-vitalitate","selected":false},{"name":"Sarcină","slug":"100303-sarcina","selected":false},{"name":"Imunitate","slug":"100304-imunitate","selected":false},{"name":"Sistem muscular, articular și osos","slug":"100305-muscular-articular-si-osos","selected":true},{"name":"Sistem nervos, ochi și cardio","slug":"100306-nervos-ochi-cardiovascular","selected":false},{"name":"Piele, păr și unghii","slug":"100307-piele-par-si-unghii","selected":false},{"name":"Sistem gastrointestinal","slug":"100308-sistemul-gastrointenstinal","selected":false},{"name":"Sistem urogenital","slug":"100309-sistemul-urogenital","selected":false},{"name":"Sistem respirator","slug":"100310-sistemul-respirator","selected":false}],"products":[{"code":"100061534","variantCode":"6423602011412","name":"Melatonină 3mg 30 capsule moi","slug":"100061534-alevia-melatonina-3mg-30-capsule-moi","unitPriceLabel":"999,33 Lei/kg","brand":"Alevia","brandCode":"83","brandFilterCode":"alevia-b128","sku":"100061534","price":14.99,"originalPrice":null,"currencyCode":"RON","currency":"Lei","image":{"thumbnail":{"default":"https://cdn.freshful.ro/media/cache/sylius_shop_product_thumbnail/88/eb/0ae94bca50bbfea168a6790b95b9.jpg"},"large":{"default":"https://cdn.freshful.ro/media/cache/freshful_large/88/eb/0ae94bca50bbfea168a6790b95b9.jpg"},"extralarge":{"default":"https://cdn.freshful.ro/media/cache/sylius_shop_product_original/88/eb/0ae94bca50bbfea168a6790b95b9.jpg"}},"label":null,"tags":[],"isAvailable":true,"maxAvailableQuantity":30,"maxAllowedQuantity":100,"breadcrumbs":[{"code":"10","name":"Dietetic, ECO & internațional","slug":"10-dietetic-bio-si-international"},{"code":"1003","name":"Suplimente alimentare","slug":"1003-suplimente-alimentare"},{"code":"100305","name":"Sistem muscular, articular și osos","slug":"100305-muscular-articular-si-osos"},{"code":"100061534","name":"Melatonină 3mg 30 capsule moi","slug":"100061534-alevia-melatonina-3mg-30-capsule-moi"}],"activePromotion":null,"saveMe":null,"labels":[],"geniusPrice":null,"geniusUnitPricePerLabel":null,"banner":null,"discountLabel":null,"geniusDiscountLabel":null,"badge":null},{"code":"100118465","variantCode":"100118465","name":"Vitamina D Lipozomală 30 capsule","slug":"100118465-biocyte-vitamina-d-lipozomala-30-capsule","unitPriceLabel":"53,99 Lei/buc","brand":"Biocyte","brandCode":"2001","brandFilterCode":"biocyte-b2010","sku":"100118465","price":53.99,"originalPrice":null,"currencyCode":"RON","currency":"Lei","image":{"thumbnail":{"default":"https://cdn.freshful.ro/media/cache/sylius_shop_product_thumbnail/d2/47/da0bf85af6b36f49a95d69c0d2a5.jpg"},"large":{"default":"https://cdn.freshful.ro/media/cache/freshful_large/d2/47/da0bf85af6b36f49a95d69c0d2a5.jpg"},"extralarge":{"default":"https://cdn.freshful.ro/media/cache/sylius_shop_product_original/d2/47/da0bf85af6b36f49a95d69c0d2a5.jpg"}},"label":null,"tags":[],"isAvailable":true,"maxAvailableQuantity":42,"maxAllowedQuantity":100,"breadcrumbs":[{"code":"10","name":"Dietetic, ECO & internațional","slug":"10-dietetic-bio-si-international"},{"code":"1003","name":"Suplimente alimentare","slug":"1003-suplimente-alimentare"},{"code":"100305","name":"Sistem muscular, articular și osos","slug":"100305-muscular-articular-si-osos"},{"code":"100118465","name":"Vitamina D Lipozomală 30 capsule","slug":"100118465-biocyte-vitamina-d-lipozomala-30-capsule"}],"activePromotion":null,"saveMe":null,"labels":[],"geniusPrice":null,"geniusUnitPricePerLabel":null,"banner":null,"discountLabel":null,"geniusDiscountLabel":null,"badge":null},{"code":"100118704","variantCode":"100118704","name":"Magneziu 600mg 60 capsule","slug":"100118704-goldnutrition-magneziu-600mg-60-capsule","unitPriceLabel":"47,99 Lei/buc","brand":"Goldnutrition","brandCode":"2007","brandFilterCode":"goldnutrition-b1999","sku":"100118704","price":47.99,"originalPrice":null,"currencyCode":"RON","currency":"Lei","image":{"thumbnail":{"default":"https://cdn.freshful.ro/media/cache/sylius_shop_product_thumbnail/b3/de/0a15eed5c941ab04cffe36ffe84e.jpg"},"large":{"default":"https://cdn.freshful.ro/media/cache/freshful_large/b3/de/0a15eed5c941ab04cffe36ffe84e.jpg"},"extralarge":{"default":"https://cdn.freshful.ro/media/cache/sylius_shop_product_original/b3/de/0a15eed5c941ab04cffe36ffe84e.jpg"}},"label":null,"tags":[],"isAvailable":true,"maxAvailableQuantity":7,"maxAllowedQuantity":100,"breadcrumbs":[{"code":"10","name":"Dietetic, ECO & internațional","slug":"10-dietetic-bio-si-international"},{"code":"1003","name":"Suplimente alimentare","slug":"1003-suplimente-alimentare"},{"code":"100305","name":"Sistem muscular, articular și osos","slug":"100305-muscular-articular-si-osos"},{"code":"100118704","name":"Magneziu 600mg 60 capsule","slug":"100118704-goldnutrition-magneziu-600mg-60-capsule"}],"activePromotion":null,"saveMe":null,"labels":[],"geniusPrice":null,"geniusUnitPricePerLabel":null,"banner":null,"discountLabel":null,"geniusDiscountLabel":null,"badge":null},{"code":"100097792","variantCode":"6421930320015","name":"Calmindolor 60 comprimate ","slug":"100097792-dacia-plant-calmindolor-60-comprimate","unitPriceLabel":"451,17 Lei/kg","brand":"Dacia Plant","brandCode":"934","brandFilterCode":"dacia-plant-b934","sku":"100097792","price":27.07,"originalPrice":null,"currencyCode":"RON","currency":"Lei","image":{"thumbnail":{"default":"https://cdn.freshful.ro/media/cache/sylius_shop_product_thumbnail/59/0c/72747149fc9ceeeef59d2722507b.jpg"},"large":{"default":"https://cdn.freshful.ro/media/cache/freshful_large/59/0c/72747149fc9ceeeef59d2722507b.jpg"},"extralarge":{"default":"https://cdn.freshful.ro/media/cache/sylius_shop_product_original/59/0c/72747149fc9ceeeef59d2722507b.jpg"}},"label":null,"tags":[],"isAvailable":true,"maxAvailableQuantity":45,"maxAllowedQuantity":100,"breadcrumbs":[{"code":"10","name":"Dietetic, ECO & internațional","slug":"10-dietetic-bio-si-international"},{"code":"1003","name":"Suplimente alimentare","slug":"1003-suplimente-alimentare"},{"code":"100305","name":"Sistem muscular, articular și osos","slug":"100305-muscular-articular-si-osos"},{"code":"100097792","name":"Calmindolor 60 comprimate ","slug":"100097792-dacia-plant-calmindolor-60-comprimate"}],"activePromotion":null,"saveMe":null,"labels":[],"geniusPrice":null,"geniusUnitPricePerLabel":null,"banner":null,"discountLabel":null,"geniusDiscountLabel":null,"badge":null},{"code":"100118665","variantCode":"100118665","name":"5-HTP, 60 capsule","slug":"100118665-goldnutrition-5-htp-60-capsule","unitPriceLabel":"70 Lei/buc","brand":"Goldnutrition","brandCode":"2007","brandFilterCode":"goldnutrition-b1999","sku":"100118665","price":70,"originalPrice":null,"currencyCode":"RON","currency":"Lei","image":{"thumbnail":{"default":"https://cdn.freshful.ro/media/cache/sylius_shop_product_thumbnail/c1/a6/0c7dfdc7f6fee22609cc62172529.jpg"},"large":{"default":"https://cdn.freshful.ro/media/cache/freshful_large/c1/a6/0c7dfdc7f6fee22609cc62172529.jpg"},"extralarge":{"default":"https://cdn.freshful.ro/media/cache/sylius_shop_product_original/c1/a6/0c7dfdc7f6fee22609cc62172529.jpg"}},"label":null,"tags":[],"isAvailable":true,"maxAvailableQuantity":7,"maxAllowedQuantity":100,"breadcrumbs":[{"code":"10","name":"Dietetic, ECO & internațional","slug":"10-dietetic-bio-si-international"},{"code":"1003","name":"Suplimente alimentare","slug":"1003-suplimente-alimentare"},{"code":"100305","name":"Sistem muscular, articular și osos","slug":"100305-muscular-articular-si-osos"},{"code":"100118665","name":"5-HTP, 60 capsule","slug":"100118665-goldnutrition-5-htp-60-capsule"}],"activePromotion":null,"saveMe":null,"labels":[],"geniusPrice":null,"geniusUnitPricePerLabel":null,"banner":null,"discountLabel":null,"geniusDiscountLabel":null,"badge":null},{"code":"100124488","variantCode":"100124488","name":"Extract purificat de rășină cu pantocrin 30 tablete","slug":"100124488-mumie-extract-purificat-de-rasina-cu-pantocrin-30-tablete","unitPriceLabel":"21,63 Lei/buc","brand":"Mumie","brandCode":"2269","brandFilterCode":"mumie-b2268","sku":"100124488","price":21.63,"originalPrice":null,"currencyCode":"RON","currency":"Lei","image":{"thumbnail":{"default":"https://cdn.freshful.ro/media/cache/sylius_shop_product_thumbnail/f9/6e/293521def5fea34a48cd7b07816e.jpg"},"large":{"default":"https://cdn.freshful.ro/media/cache/freshful_large/f9/6e/293521def5fea34a48cd7b07816e.jpg"},"extralarge":{"default":"https://cdn.freshful.ro/media/cache/sylius_shop_product_original/f9/6e/293521def5fea34a48cd7b07816e.jpg"}},"label":null,"tags":[],"isAvailable":true,"maxAvailableQuantity":8,"maxAllowedQuantity":100,"breadcrumbs":[{"code":"10","name":"Dietetic, ECO & internațional","slug":"10-dietetic-bio-si-international"},{"code":"1003","name":"Suplimente alimentare","slug":"1003-suplimente-alimentare"},{"code":"100305","name":"Sistem muscular, articular și osos","slug":"100305-muscular-articular-si-osos"},{"code":"100124488","name":"Extract purificat de rășină cu pantocrin 30 tablete","slug":"100124488-mumie-extract-purificat-de-rasina-cu-pantocrin-30-tablete"}],"activePromotion":null,"saveMe":null,"labels":[],"geniusPrice":null,"geniusUnitPricePerLabel":null,"banner":null,"discountLabel":null,"geniusDiscountLabel":null,"badge":null},{"code":"100061533","variantCode":"6423602011443","name":"Spirulină și cătină 30 comprimate","slug":"100061533-alevia-spirulina-si-catina-30-comprimate","unitPriceLabel":"888,33 Lei/kg","brand":"Alevia","brandCode":"83","brandFilterCode":"alevia-b128","sku":"100061533","price":15.99,"originalPrice":null,"currencyCode":"RON","currency":"Lei","image":{"thumbnail":{"default":"https://cdn.freshful.ro/media/cache/sylius_shop_product_thumbnail/b8/16/61c6079e0a241aaa2b7d31d1b140.jpg"},"large":{"default":"https://cdn.freshful.ro/media/cache/freshful_large/b8/16/61c6079e0a241aaa2b7d31d1b140.jpg"},"extralarge":{"default":"https://cdn.freshful.ro/media/cache/sylius_shop_product_original/b8/16/61c6079e0a241aaa2b7d31d1b140.jpg"}},"label":null,"tags":[],"isAvailable":true,"maxAvailableQuantity":12,"maxAllowedQuantity":100,"breadcrumbs":[{"code":"10","name":"Dietetic, ECO & internațional","slug":"10-dietetic-bio-si-international"},{"code":"1003","name":"Suplimente alimentare","slug":"1003-suplimente-alimentare"},{"code":"100305","name":"Sistem muscular, articular și osos","slug":"100305-muscular-articular-si-osos"},{"code":"100061533","name":"Spirulină și cătină 30 comprimate","slug":"100061533-alevia-spirulina-si-catina-30-comprimate"}],"activePromotion":null,"saveMe":null,"labels":[],"geniusPrice":null,"geniusUnitPricePerLabel":null,"banner":null,"discountLabel":null,"geniusDiscountLabel":null,"badge":null},{"code":"100061532","variantCode":"6423602011504","name":"Coenzima Q10 cu cătină 60 comprimate","slug":"100061532-alevia-coenzima-q10-cu-catina-60-comprimate","unitPriceLabel":"1.999,67 Lei/kg","brand":"Alevia","brandCode":"83","brandFilterCode":"alevia-b128","sku":"100061532","price":59.99,"originalPrice":null,"currencyCode":"RON","currency":"Lei","image":{"thumbnail":{"default":"https://cdn.freshful.ro/media/cache/sylius_shop_product_thumbnail/a4/6a/5d502885875d6e1356ed01cd8da6.jpg"},"large":{"default":"https://cdn.freshful.ro/media/cache/freshful_large/a4/6a/5d502885875d6e1356ed01cd8da6.jpg"},"extralarge":{"default":"https://cdn.freshful.ro/media/cache/sylius_shop_product_original/a4/6a/5d502885875d6e1356ed01cd8da6.jpg"}},"label":null,"tags":[],"isAvailable":true,"maxAvailableQuantity":17,"maxAllowedQuantity":100,"breadcrumbs":[{"code":"10","name":"Dietetic, ECO & internațional","slug":"10-dietetic-bio-si-international"},{"code":"1003","name":"Suplimente alimentare","slug":"1003-suplimente-alimentare"},{"code":"100305","name":"Sistem muscular, articular și osos","slug":"100305-muscular-articular-si-osos"},{"code":"100061532","name":"Coenzima Q10 cu cătină 60 comprimate","slug":"100061532-alevia-coenzima-q10-cu-catina-60-comprimate"}],"activePromotion":null,"saveMe":null,"labels":[],"geniusPrice":null,"geniusUnitPricePerLabel":null,"banner":null,"discountLabel":null,"geniusDiscountLabel":null,"badge":null},{"code":"100097790","variantCode":"6421930100587","name":"Boswellia 60 comprimate ","slug":"100097790-dacia-plant-boswellia-60-comprimate","unitPriceLabel":"588,5 Lei/kg","brand":"Dacia Plant","brandCode":"934","brandFilterCode":"dacia-plant-b934","sku":"100097790","price":35.31,"originalPrice":null,"currencyCode":"RON","currency":"Lei","image":{"thumbnail":{"default":"https://cdn.freshful.ro/media/cache/sylius_shop_product_thumbnail/ee/89/888d0188e0a096bfca2b3ef911e7.jpg"},"large":{"default":"https://cdn.freshful.ro/media/cache/freshful_large/ee/89/888d0188e0a096bfca2b3ef911e7.jpg"},"extralarge":{"default":"https://cdn.freshful.ro/media/cache/sylius_shop_product_original/ee/89/888d0188e0a096bfca2b3ef911e7.jpg"}},"label":null,"tags":[],"isAvailable":true,"maxAvailableQuantity":49,"maxAllowedQuantity":100,"breadcrumbs":[{"code":"10","name":"Dietetic, ECO & internațional","slug":"10-dietetic-bio-si-international"},{"code":"1003","name":"Suplimente alimentare","slug":"1003-suplimente-alimentare"},{"code":"100305","name":"Sistem muscular, articular și osos","slug":"100305-muscular-articular-si-osos"},{"code":"100097790","name":"Boswellia 60 comprimate ","slug":"100097790-dacia-plant-boswellia-60-comprimate"}],"activePromotion":null,"saveMe":null,"labels":[],"geniusPrice":null,"geniusUnitPricePerLabel":null,"banner":null,"discountLabel":null,"geniusDiscountLabel":null,"badge":null},{"code":"100075737","variantCode":"100075737","name":"Complex de plante proaspete eco pentru articulații 50ml ","slug":"100075737-herbiolys-complex-de-plante-proaspete-eco-pentru-articulatii-50ml","unitPriceLabel":"1.671,4 Lei/l","brand":"Herbiolys","brandCode":"116","brandFilterCode":"herbiolys-b100","sku":"100075737","price":83.57,"originalPrice":null,"currencyCode":"RON","currency":"Lei","image":{"thumbnail":{"default":"https://cdn.freshful.ro/media/cache/sylius_shop_product_thumbnail/95/27/d66b53895a57b0e12b75697b3f57.jpg"},"large":{"default":"https://cdn.freshful.ro/media/cache/freshful_large/95/27/d66b53895a57b0e12b75697b3f57.jpg"},"extralarge":{"default":"https://cdn.freshful.ro/media/cache/sylius_shop_product_original/95/27/d66b53895a57b0e12b75697b3f57.jpg"}},"label":null,"tags":[{"type":"Eco","text":"Eco","icon":"https://cdn.freshful.ro/assets/product_tags/eco.svg","iconPng":"https://cdn.freshful.ro/assets/product_tags/eco.png","backgroundColor":"#EFFBE4","textColor":"#66BB1B"}],"isAvailable":true,"maxAvailableQuantity":22,"maxAllowedQuantity":100,"breadcrumbs":[{"code":"10","name":"Dietetic, ECO & internațional","slug":"10-dietetic-bio-si-international"},{"code":"1003","name":"Suplimente alimentare","slug":"1003-suplimente-alimentare"},{"code":"100305","name":"Sistem muscular, articular și osos","slug":"100305-muscular-articular-si-osos"},{"code":"100075737","name":"Complex de plante proaspete eco pentru articulații 50ml ","slug":"100075737-herbiolys-complex-de-plante-proaspete-eco-pentru-articulatii-50ml"}],"activePromotion":null,"saveMe":null,"labels":[],"geniusPrice":null,"geniusUnitPricePerLabel":null,"banner":null,"discountLabel":null,"geniusDiscountLabel":null,"badge":null}],"filters":{"countSelected":0,"items":[{"code":"brand","name":"Brand","countSelected":0,"values":[{"code":"alevia-b128","name":"Alevia","isSelected":false,"count":9},{"code":"barny-s-born-in-canada-b2067","name":"Barny's Born in Canada","isSelected":false,"count":5},{"code":"biocyte-b2010","name":"Biocyte","isSelected":false,"count":1},{"code":"dacia-plant-b934","name":"Dacia Plant","isSelected":false,"count":6},{"code":"goldnutrition-b1999","name":"Goldnutrition","isSelected":false,"count":6},{"code":"herbiolys-b100","name":"Herbiolys","isSelected":false,"count":2},{"code":"mumie-b2268","name":"Mumie","isSelected":false,"count":6},{"code":"natural-doctor-b2293","name":"Natural Doctor","isSelected":false,"count":2},{"code":"solgar-b1889","name":"Solgar","isSelected":false,"count":1},{"code":"sublima-b937","name":"Sublima","isSelected":false,"count":1}]},{"code":"diet_lifestyle","name":"Dietă și lifestyle","countSelected":0,"values":[{"code":"bio-a26","name":"Bio","isSelected":false,"count":1},{"code":"eco-a83","name":"Eco","isSelected":false,"count":2},{"code":"fara-sare-a52","name":"Fara sare","isSelected":false,"count":1},{"code":"fara-zahar-adaugat-a29","name":"Fara zahar adaugat","isSelected":false,"count":1},{"code":"natural-a27","name":"Natural","isSelected":false,"count":2},{"code":"vegan-a24","name":"Vegan","isSelected":false,"count":1}]}]},"orderBy":[{"field":"price","direction":"asc","name":"Preț crescător","isSelected":false},{"field":"price","direction":"desc","name":"Preț descrescător","isSelected":false},{"field":"popularity","direction":"desc","name":"Cele mai populare","isSelected":true},{"field":"category","direction":"asc","name":"Categorie","isSelected":false}],"metaTitle":"Sistem muscular, articular și osos - Gamă variată","metaDescription":"Vrei Sistem muscular, articular și osos? Alege dintr-o gamă variată. Comanzi simplu și ai livrare rapidă, calitate și prospețime. Hai pe Freshful.ro","metaKeywords":null,"banners":[]}}