{"type":"subcategory","payload":{"analyticsListId":"category_100309-sistemul-urogenital","analyticsListName":"Category - Sistem urogenital","name":"Sistem urogenital","slug":"100309-sistemul-urogenital","image":null,"breadcrumbs":[{"code":"10","name":"Dietetic, ECO & internațional","slug":"10-dietetic-bio-si-international"},{"code":"1003","name":"Suplimente alimentare","slug":"1003-suplimente-alimentare"},{"code":"100309","name":"Sistem urogenital","slug":"100309-sistemul-urogenital"}],"slots":[],"page":1,"limit":10,"pages":2,"count":16,"siblings":[{"name":"Produse ecologice","slug":"1001-produse-ecologice","selected":false},{"name":"Produse dietetice și naturiste","slug":"1002-produse-dietetice-si-naturiste","selected":false},{"name":"Suplimente alimentare","slug":"1003-suplimente-alimentare","selected":true},{"name":"Produse internaționale","slug":"1004-bucatarie-internationala","selected":false}],"children":[{"name":"Toate produsele","slug":"1003-suplimente-alimentare","selected":false},{"name":"Vitamine și minerale","slug":"100301-vitamine-si-minerale","selected":false},{"name":"Energie și vitalitate","slug":"100302-energie-si-vitalitate","selected":false},{"name":"Sarcină","slug":"100303-sarcina","selected":false},{"name":"Imunitate","slug":"100304-imunitate","selected":false},{"name":"Sistem muscular, articular și osos","slug":"100305-muscular-articular-si-osos","selected":false},{"name":"Sistem nervos, ochi și cardio","slug":"100306-nervos-ochi-cardiovascular","selected":false},{"name":"Piele, păr și unghii","slug":"100307-piele-par-si-unghii","selected":false},{"name":"Sistem gastrointestinal","slug":"100308-sistemul-gastrointenstinal","selected":false},{"name":"Sistem urogenital","slug":"100309-sistemul-urogenital","selected":true},{"name":"Sistem respirator","slug":"100310-sistemul-respirator","selected":false}],"products":[{"code":"100097799","variantCode":"6421930320046","name":"Macca 69+, 60 comprimate","slug":"100097799-dacia-plant-macca-69-60-comprimate","unitPriceLabel":"588,5 Lei/kg","brand":"Dacia Plant","brandCode":"934","brandFilterCode":"dacia-plant-b934","sku":"100097799","price":35.31,"originalPrice":null,"currencyCode":"RON","currency":"Lei","image":{"thumbnail":{"default":"https://cdn.freshful.ro/media/cache/sylius_shop_product_thumbnail/77/bb/fdb3735964ae92fafeb853d11cc0.jpg"},"large":{"default":"https://cdn.freshful.ro/media/cache/freshful_large/77/bb/fdb3735964ae92fafeb853d11cc0.jpg"},"extralarge":{"default":"https://cdn.freshful.ro/media/cache/sylius_shop_product_original/77/bb/fdb3735964ae92fafeb853d11cc0.jpg"}},"label":null,"tags":[],"isAvailable":true,"maxAvailableQuantity":32,"maxAllowedQuantity":100,"breadcrumbs":[{"code":"10","name":"Dietetic, ECO & internațional","slug":"10-dietetic-bio-si-international"},{"code":"1003","name":"Suplimente alimentare","slug":"1003-suplimente-alimentare"},{"code":"100309","name":"Sistem urogenital","slug":"100309-sistemul-urogenital"},{"code":"100097799","name":"Macca 69+, 60 comprimate","slug":"100097799-dacia-plant-macca-69-60-comprimate"}],"activePromotion":null,"saveMe":null,"labels":[],"geniusPrice":null,"geniusUnitPricePerLabel":null,"banner":null,"discountLabel":null,"geniusDiscountLabel":null,"badge":null},{"code":"100097791","variantCode":"6421930300239","name":"Brânca ursului 60 comprimate","slug":"100097791-dacia-plant-branca-ursului-60-comprimate","unitPriceLabel":"508,33 Lei/kg","brand":"Dacia Plant","brandCode":"934","brandFilterCode":"dacia-plant-b934","sku":"100097791","price":30.5,"originalPrice":null,"currencyCode":"RON","currency":"Lei","image":{"thumbnail":{"default":"https://cdn.freshful.ro/media/cache/sylius_shop_product_thumbnail/b6/57/95e175e19195736f530b45f7a5f3.jpg"},"large":{"default":"https://cdn.freshful.ro/media/cache/freshful_large/b6/57/95e175e19195736f530b45f7a5f3.jpg"},"extralarge":{"default":"https://cdn.freshful.ro/media/cache/sylius_shop_product_original/b6/57/95e175e19195736f530b45f7a5f3.jpg"}},"label":null,"tags":[],"isAvailable":true,"maxAvailableQuantity":26,"maxAllowedQuantity":100,"breadcrumbs":[{"code":"10","name":"Dietetic, ECO & internațional","slug":"10-dietetic-bio-si-international"},{"code":"1003","name":"Suplimente alimentare","slug":"1003-suplimente-alimentare"},{"code":"100309","name":"Sistem urogenital","slug":"100309-sistemul-urogenital"},{"code":"100097791","name":"Brânca ursului 60 comprimate","slug":"100097791-dacia-plant-branca-ursului-60-comprimate"}],"activePromotion":null,"saveMe":null,"labels":[],"geniusPrice":null,"geniusUnitPricePerLabel":null,"banner":null,"discountLabel":null,"geniusDiscountLabel":null,"badge":null},{"code":"100097854","variantCode":"6421930110067","name":"Zmeur mlădițe gemoderivat 50ml","slug":"100097854-dacia-plant-zmeur-mladite-gemoderivat-50ml","unitPriceLabel":"0,42 Lei/l","brand":"Dacia Plant","brandCode":"934","brandFilterCode":"dacia-plant-b934","sku":"100097854","price":20.99,"originalPrice":null,"currencyCode":"RON","currency":"Lei","image":{"thumbnail":{"default":"https://cdn.freshful.ro/media/cache/sylius_shop_product_thumbnail/e8/b8/f0e8e86a2e157ea3560eb1f3b782.jpg"},"large":{"default":"https://cdn.freshful.ro/media/cache/freshful_large/e8/b8/f0e8e86a2e157ea3560eb1f3b782.jpg"},"extralarge":{"default":"https://cdn.freshful.ro/media/cache/sylius_shop_product_original/e8/b8/f0e8e86a2e157ea3560eb1f3b782.jpg"}},"label":null,"tags":[],"isAvailable":true,"maxAvailableQuantity":7,"maxAllowedQuantity":100,"breadcrumbs":[{"code":"10","name":"Dietetic, ECO & internațional","slug":"10-dietetic-bio-si-international"},{"code":"1003","name":"Suplimente alimentare","slug":"1003-suplimente-alimentare"},{"code":"100309","name":"Sistem urogenital","slug":"100309-sistemul-urogenital"},{"code":"100097854","name":"Zmeur mlădițe gemoderivat 50ml","slug":"100097854-dacia-plant-zmeur-mladite-gemoderivat-50ml"}],"activePromotion":null,"saveMe":null,"labels":[],"geniusPrice":null,"geniusUnitPricePerLabel":null,"banner":null,"discountLabel":null,"geniusDiscountLabel":null,"badge":null},{"code":"100097808","variantCode":"6421930100815","name":"Estrogen natural 60 comprimate","slug":"100097808-sublima-estrogen-natural-60-comprimate","unitPriceLabel":"490,5 Lei/kg","brand":"Sublima","brandCode":"937","brandFilterCode":"sublima-b937","sku":"100097808","price":29.43,"originalPrice":null,"currencyCode":"RON","currency":"Lei","image":{"thumbnail":{"default":"https://cdn.freshful.ro/media/cache/sylius_shop_product_thumbnail/18/71/91e171bc54111420f0d5f34ccb8a.jpg"},"large":{"default":"https://cdn.freshful.ro/media/cache/freshful_large/18/71/91e171bc54111420f0d5f34ccb8a.jpg"},"extralarge":{"default":"https://cdn.freshful.ro/media/cache/sylius_shop_product_original/18/71/91e171bc54111420f0d5f34ccb8a.jpg"}},"label":null,"tags":[],"isAvailable":true,"maxAvailableQuantity":42,"maxAllowedQuantity":100,"breadcrumbs":[{"code":"10","name":"Dietetic, ECO & internațional","slug":"10-dietetic-bio-si-international"},{"code":"1003","name":"Suplimente alimentare","slug":"1003-suplimente-alimentare"},{"code":"100309","name":"Sistem urogenital","slug":"100309-sistemul-urogenital"},{"code":"100097808","name":"Estrogen natural 60 comprimate","slug":"100097808-sublima-estrogen-natural-60-comprimate"}],"activePromotion":null,"saveMe":null,"labels":[],"geniusPrice":null,"geniusUnitPricePerLabel":null,"banner":null,"discountLabel":null,"geniusDiscountLabel":null,"badge":null},{"code":"100097820","variantCode":"6421930320404","name":"Pi prostată 60 comprimante","slug":"100097820-alfa-pi-prostata-60-comprimante","unitPriceLabel":"549,33 Lei/kg","brand":"Alfa","brandCode":"214","brandFilterCode":"alfa-b215","sku":"100097820","price":32.96,"originalPrice":null,"currencyCode":"RON","currency":"Lei","image":{"thumbnail":{"default":"https://cdn.freshful.ro/media/cache/sylius_shop_product_thumbnail/4f/be/4b17bd460e39eb9d2b76c1fa39ac.jpg"},"large":{"default":"https://cdn.freshful.ro/media/cache/freshful_large/4f/be/4b17bd460e39eb9d2b76c1fa39ac.jpg"},"extralarge":{"default":"https://cdn.freshful.ro/media/cache/sylius_shop_product_original/4f/be/4b17bd460e39eb9d2b76c1fa39ac.jpg"}},"label":null,"tags":[],"isAvailable":true,"maxAvailableQuantity":46,"maxAllowedQuantity":100,"breadcrumbs":[{"code":"10","name":"Dietetic, ECO & internațional","slug":"10-dietetic-bio-si-international"},{"code":"1003","name":"Suplimente alimentare","slug":"1003-suplimente-alimentare"},{"code":"100309","name":"Sistem urogenital","slug":"100309-sistemul-urogenital"},{"code":"100097820","name":"Pi prostată 60 comprimante","slug":"100097820-alfa-pi-prostata-60-comprimante"}],"activePromotion":null,"saveMe":null,"labels":[],"geniusPrice":null,"geniusUnitPricePerLabel":null,"banner":null,"discountLabel":null,"geniusDiscountLabel":null,"badge":null},{"code":"100097809","variantCode":"6421930320237","name":"Gynecomed 60 comprimate","slug":"100097809-sublima-gynecomed-60-comprimate","unitPriceLabel":"431,5 Lei/kg","brand":"Sublima","brandCode":"937","brandFilterCode":"sublima-b937","sku":"100097809","price":25.89,"originalPrice":null,"currencyCode":"RON","currency":"Lei","image":{"thumbnail":{"default":"https://cdn.freshful.ro/media/cache/sylius_shop_product_thumbnail/16/ee/0973646ecc8faf3c3b9e83865042.jpg"},"large":{"default":"https://cdn.freshful.ro/media/cache/freshful_large/16/ee/0973646ecc8faf3c3b9e83865042.jpg"},"extralarge":{"default":"https://cdn.freshful.ro/media/cache/sylius_shop_product_original/16/ee/0973646ecc8faf3c3b9e83865042.jpg"}},"label":null,"tags":[],"isAvailable":true,"maxAvailableQuantity":40,"maxAllowedQuantity":100,"breadcrumbs":[{"code":"10","name":"Dietetic, ECO & internațional","slug":"10-dietetic-bio-si-international"},{"code":"1003","name":"Suplimente alimentare","slug":"1003-suplimente-alimentare"},{"code":"100309","name":"Sistem urogenital","slug":"100309-sistemul-urogenital"},{"code":"100097809","name":"Gynecomed 60 comprimate","slug":"100097809-sublima-gynecomed-60-comprimate"}],"activePromotion":null,"saveMe":null,"labels":[],"geniusPrice":null,"geniusUnitPricePerLabel":null,"banner":null,"discountLabel":null,"geniusDiscountLabel":null,"badge":null},{"code":"100097833","variantCode":"6421930323108","name":"Renal 30 comprimate","slug":"100097833-biseptol-renal-30-comprimate","unitPriceLabel":"1.199,67 Lei/kg","brand":"Biseptol","brandCode":"1632","brandFilterCode":"biseptol-b1636","sku":"100097833","price":35.99,"originalPrice":null,"currencyCode":"RON","currency":"Lei","image":{"thumbnail":{"default":"https://cdn.freshful.ro/media/cache/sylius_shop_product_thumbnail/06/da/2663f9c280975da3c05d35724cd1.jpg"},"large":{"default":"https://cdn.freshful.ro/media/cache/freshful_large/06/da/2663f9c280975da3c05d35724cd1.jpg"},"extralarge":{"default":"https://cdn.freshful.ro/media/cache/sylius_shop_product_original/06/da/2663f9c280975da3c05d35724cd1.jpg"}},"label":null,"tags":[],"isAvailable":true,"maxAvailableQuantity":38,"maxAllowedQuantity":100,"breadcrumbs":[{"code":"10","name":"Dietetic, ECO & internațional","slug":"10-dietetic-bio-si-international"},{"code":"1003","name":"Suplimente alimentare","slug":"1003-suplimente-alimentare"},{"code":"100309","name":"Sistem urogenital","slug":"100309-sistemul-urogenital"},{"code":"100097833","name":"Renal 30 comprimate","slug":"100097833-biseptol-renal-30-comprimate"}],"activePromotion":null,"saveMe":null,"labels":[],"geniusPrice":null,"geniusUnitPricePerLabel":null,"banner":null,"discountLabel":null,"geniusDiscountLabel":null,"badge":null},{"code":"100097874","variantCode":"6421930112214","name":"Renostim 2x60 comprimate ","slug":"100097874-dacia-plant-renostim-2x60-comprimate","unitPriceLabel":"294,25 Lei/kg","brand":"Dacia Plant","brandCode":"934","brandFilterCode":"dacia-plant-b934","sku":"100097874","price":35.31,"originalPrice":null,"currencyCode":"RON","currency":"Lei","image":{"thumbnail":{"default":"https://cdn.freshful.ro/media/cache/sylius_shop_product_thumbnail/7d/d7/8ec36d244881e57739414b4f9df7.jpg"},"large":{"default":"https://cdn.freshful.ro/media/cache/freshful_large/7d/d7/8ec36d244881e57739414b4f9df7.jpg"},"extralarge":{"default":"https://cdn.freshful.ro/media/cache/sylius_shop_product_original/7d/d7/8ec36d244881e57739414b4f9df7.jpg"}},"label":null,"tags":[],"isAvailable":true,"maxAvailableQuantity":18,"maxAllowedQuantity":100,"breadcrumbs":[{"code":"10","name":"Dietetic, ECO & internațional","slug":"10-dietetic-bio-si-international"},{"code":"1003","name":"Suplimente alimentare","slug":"1003-suplimente-alimentare"},{"code":"100309","name":"Sistem urogenital","slug":"100309-sistemul-urogenital"},{"code":"100097874","name":"Renostim 2x60 comprimate ","slug":"100097874-dacia-plant-renostim-2x60-comprimate"}],"activePromotion":null,"saveMe":null,"labels":[],"geniusPrice":null,"geniusUnitPricePerLabel":null,"banner":null,"discountLabel":null,"geniusDiscountLabel":null,"badge":null},{"code":"100097811","variantCode":"6421930320244","name":"Progesteron Natural 60 comprimate","slug":"100097811-sublima-progesteron-natural-60-comprimate","unitPriceLabel":"490,5 Lei/kg","brand":"Sublima","brandCode":"937","brandFilterCode":"sublima-b937","sku":"100097811","price":29.43,"originalPrice":null,"currencyCode":"RON","currency":"Lei","image":{"thumbnail":{"default":"https://cdn.freshful.ro/media/cache/sylius_shop_product_thumbnail/a5/8c/a9ff5e98cb0ffac5a175eda01bc3.jpg"},"large":{"default":"https://cdn.freshful.ro/media/cache/freshful_large/a5/8c/a9ff5e98cb0ffac5a175eda01bc3.jpg"},"extralarge":{"default":"https://cdn.freshful.ro/media/cache/sylius_shop_product_original/a5/8c/a9ff5e98cb0ffac5a175eda01bc3.jpg"}},"label":null,"tags":[],"isAvailable":true,"maxAvailableQuantity":48,"maxAllowedQuantity":100,"breadcrumbs":[{"code":"10","name":"Dietetic, ECO & internațional","slug":"10-dietetic-bio-si-international"},{"code":"1003","name":"Suplimente alimentare","slug":"1003-suplimente-alimentare"},{"code":"100309","name":"Sistem urogenital","slug":"100309-sistemul-urogenital"},{"code":"100097811","name":"Progesteron Natural 60 comprimate","slug":"100097811-sublima-progesteron-natural-60-comprimate"}],"activePromotion":null,"saveMe":null,"labels":[],"geniusPrice":null,"geniusUnitPricePerLabel":null,"banner":null,"discountLabel":null,"geniusDiscountLabel":null,"badge":null},{"code":"100097810","variantCode":"6421930100778","name":"Hormon balance 45+, 60 comprimate","slug":"100097810-sublima-hormon-balance-45-60-comprimate","unitPriceLabel":"431,5 Lei/kg","brand":"Sublima","brandCode":"937","brandFilterCode":"sublima-b937","sku":"100097810","price":25.89,"originalPrice":null,"currencyCode":"RON","currency":"Lei","image":{"thumbnail":{"default":"https://cdn.freshful.ro/media/cache/sylius_shop_product_thumbnail/92/8d/f7e3f4af39ded708cbda73100567.jpg"},"large":{"default":"https://cdn.freshful.ro/media/cache/freshful_large/92/8d/f7e3f4af39ded708cbda73100567.jpg"},"extralarge":{"default":"https://cdn.freshful.ro/media/cache/sylius_shop_product_original/92/8d/f7e3f4af39ded708cbda73100567.jpg"}},"label":null,"tags":[],"isAvailable":true,"maxAvailableQuantity":49,"maxAllowedQuantity":100,"breadcrumbs":[{"code":"10","name":"Dietetic, ECO & internațional","slug":"10-dietetic-bio-si-international"},{"code":"1003","name":"Suplimente alimentare","slug":"1003-suplimente-alimentare"},{"code":"100309","name":"Sistem urogenital","slug":"100309-sistemul-urogenital"},{"code":"100097810","name":"Hormon balance 45+, 60 comprimate","slug":"100097810-sublima-hormon-balance-45-60-comprimate"}],"activePromotion":null,"saveMe":null,"labels":[],"geniusPrice":null,"geniusUnitPricePerLabel":null,"banner":null,"discountLabel":null,"geniusDiscountLabel":null,"badge":null}],"filters":{"countSelected":0,"items":[{"code":"brand","name":"Brand","countSelected":0,"values":[{"code":"alfa-b215","name":"Alfa","isSelected":false,"count":1},{"code":"biseptol-b1636","name":"Biseptol","isSelected":false,"count":1},{"code":"dacia-plant-b934","name":"Dacia Plant","isSelected":false,"count":6},{"code":"herbiolys-b100","name":"Herbiolys","isSelected":false,"count":2},{"code":"natural-doctor-b2293","name":"Natural Doctor","isSelected":false,"count":2},{"code":"sublima-b937","name":"Sublima","isSelected":false,"count":4}]},{"code":"diet_lifestyle","name":"Dietă și lifestyle","countSelected":0,"values":[{"code":"eco-a83","name":"Eco","isSelected":false,"count":2},{"code":"vegetarian-a28","name":"Vegetarian","isSelected":false,"count":2}]}]},"orderBy":[{"field":"price","direction":"asc","name":"Preț crescător","isSelected":false},{"field":"price","direction":"desc","name":"Preț descrescător","isSelected":false},{"field":"popularity","direction":"desc","name":"Cele mai populare","isSelected":true},{"field":"category","direction":"asc","name":"Categorie","isSelected":false}],"metaTitle":"Sistem urogenital - Gamă variată","metaDescription":"Vrei Sistem urogenital? Alege dintr-o gamă variată. Comanzi simplu și ai livrare rapidă, calitate și prospețime. Hai pe Freshful.ro","metaKeywords":null,"banners":[]}}