{"type":"subcategory","payload":{"analyticsListId":"category_100404-produse-din-franta","analyticsListName":"Category - Produse franțuzești","name":"Produse franțuzești","slug":"100404-produse-din-franta","image":null,"breadcrumbs":[{"code":"10","name":"Dietetic, ECO & internațional","slug":"10-dietetic-bio-si-international"},{"code":"1004","name":"Produse internaționale","slug":"1004-bucatarie-internationala"},{"code":"100404","name":"Produse franțuzești","slug":"100404-produse-din-franta"}],"slots":[],"page":1,"limit":10,"pages":2,"count":18,"siblings":[{"name":"Produse ecologice","slug":"1001-produse-ecologice","selected":false},{"name":"Produse dietetice și naturiste","slug":"1002-produse-dietetice-si-naturiste","selected":false},{"name":"Suplimente alimentare","slug":"1003-suplimente-alimentare","selected":false},{"name":"Produse internaționale","slug":"1004-bucatarie-internationala","selected":true}],"children":[{"name":"Toate produsele","slug":"1004-bucatarie-internationala","selected":false},{"name":"Produse asiatice","slug":"100401-produse-din-asia","selected":false},{"name":"Produse libaneze","slug":"100402-produse-libaneze","selected":false},{"name":"Produse mexicane","slug":"100403-produse-din-mexic","selected":false},{"name":"Produse franțuzești","slug":"100404-produse-din-franta","selected":true},{"name":"Produse italienești","slug":"100405-produse-din-italia","selected":false}],"products":[{"code":"100121674","variantCode":"3330720650085","name":"Pate tradițional de țară 220g","slug":"100121674-lucien-georgelin-pate-traditional-de-tara-220g","unitPriceLabel":"17,98 Lei/buc","brand":"Lucien Georgelin","brandCode":"2146","brandFilterCode":"lucien-georgelin-b2151","sku":"100121674","price":17.98,"originalPrice":null,"currencyCode":"RON","currency":"Lei","image":{"thumbnail":{"default":"https://cdn.freshful.ro/media/cache/sylius_shop_product_thumbnail/62/8b/ce804a2df4fa654b18aca6ec3783.jpg"},"large":{"default":"https://cdn.freshful.ro/media/cache/freshful_large/62/8b/ce804a2df4fa654b18aca6ec3783.jpg"},"extralarge":{"default":"https://cdn.freshful.ro/media/cache/sylius_shop_product_original/62/8b/ce804a2df4fa654b18aca6ec3783.jpg"}},"label":null,"tags":[],"isAvailable":true,"maxAvailableQuantity":24,"maxAllowedQuantity":100,"breadcrumbs":[{"code":"10","name":"Dietetic, ECO & internațional","slug":"10-dietetic-bio-si-international"},{"code":"1004","name":"Produse internaționale","slug":"1004-bucatarie-internationala"},{"code":"100404","name":"Produse franțuzești","slug":"100404-produse-din-franta"},{"code":"100121674","name":"Pate tradițional de țară 220g","slug":"100121674-lucien-georgelin-pate-traditional-de-tara-220g"}],"activePromotion":null,"saveMe":null,"labels":[],"geniusPrice":null,"geniusUnitPricePerLabel":null,"banner":null,"discountLabel":null,"geniusDiscountLabel":null,"badge":null},{"code":"100097263","variantCode":"3033610016793","name":"Terrine de rață (100% rață) 170g","slug":"100097263-labeyrie-terrine-de-rata-100-rata-170g","unitPriceLabel":"244,12 Lei/kg","brand":"Labeyrie","brandCode":"1627","brandFilterCode":"labeyrie-b1631","sku":"100097263","price":41.5,"originalPrice":null,"currencyCode":"RON","currency":"Lei","image":{"thumbnail":{"default":"https://cdn.freshful.ro/media/cache/sylius_shop_product_thumbnail/d5/80/795ec5aa4e58fd9f6df32985d3d2.jpg"},"large":{"default":"https://cdn.freshful.ro/media/cache/freshful_large/d5/80/795ec5aa4e58fd9f6df32985d3d2.jpg"},"extralarge":{"default":"https://cdn.freshful.ro/media/cache/sylius_shop_product_original/d5/80/795ec5aa4e58fd9f6df32985d3d2.jpg"}},"label":null,"tags":[],"isAvailable":true,"maxAvailableQuantity":11,"maxAllowedQuantity":100,"breadcrumbs":[{"code":"10","name":"Dietetic, ECO & internațional","slug":"10-dietetic-bio-si-international"},{"code":"1004","name":"Produse internaționale","slug":"1004-bucatarie-internationala"},{"code":"100404","name":"Produse franțuzești","slug":"100404-produse-din-franta"},{"code":"100097263","name":"Terrine de rață (100% rață) 170g","slug":"100097263-labeyrie-terrine-de-rata-100-rata-170g"}],"activePromotion":null,"saveMe":null,"labels":[],"geniusPrice":null,"geniusUnitPricePerLabel":null,"banner":null,"discountLabel":null,"geniusDiscountLabel":null,"badge":null},{"code":"100121671","variantCode":"3330720251053","name":"Gem smochine roșii 320g","slug":"100121671-lucien-georgelin-gem-smochine-rosii-320g","unitPriceLabel":"16,98 Lei/buc","brand":"Lucien Georgelin","brandCode":"2146","brandFilterCode":"lucien-georgelin-b2151","sku":"100121671","price":16.98,"originalPrice":null,"currencyCode":"RON","currency":"Lei","image":{"thumbnail":{"default":"https://cdn.freshful.ro/media/cache/sylius_shop_product_thumbnail/dd/40/6c7e99b066069f7fb8ac87d1df32.jpg"},"large":{"default":"https://cdn.freshful.ro/media/cache/freshful_large/dd/40/6c7e99b066069f7fb8ac87d1df32.jpg"},"extralarge":{"default":"https://cdn.freshful.ro/media/cache/sylius_shop_product_original/dd/40/6c7e99b066069f7fb8ac87d1df32.jpg"}},"label":null,"tags":[],"isAvailable":true,"maxAvailableQuantity":9,"maxAllowedQuantity":100,"breadcrumbs":[{"code":"10","name":"Dietetic, ECO & internațional","slug":"10-dietetic-bio-si-international"},{"code":"1004","name":"Produse internaționale","slug":"1004-bucatarie-internationala"},{"code":"100404","name":"Produse franțuzești","slug":"100404-produse-din-franta"},{"code":"100121671","name":"Gem smochine roșii 320g","slug":"100121671-lucien-georgelin-gem-smochine-rosii-320g"}],"activePromotion":null,"saveMe":null,"labels":[],"geniusPrice":null,"geniusUnitPricePerLabel":null,"banner":null,"discountLabel":null,"geniusDiscountLabel":null,"badge":null},{"code":"100121673","variantCode":"3330720251091","name":"Gem 4 citrice 320g","slug":"100121673-lucien-georgelin-gem-4-citrice-320g","unitPriceLabel":"15,99 Lei/buc","brand":"Lucien Georgelin","brandCode":"2146","brandFilterCode":"lucien-georgelin-b2151","sku":"100121673","price":15.99,"originalPrice":null,"currencyCode":"RON","currency":"Lei","image":{"thumbnail":{"default":"https://cdn.freshful.ro/media/cache/sylius_shop_product_thumbnail/cb/08/a9208a487a5474bf80b5bd687d4d.jpg"},"large":{"default":"https://cdn.freshful.ro/media/cache/freshful_large/cb/08/a9208a487a5474bf80b5bd687d4d.jpg"},"extralarge":{"default":"https://cdn.freshful.ro/media/cache/sylius_shop_product_original/cb/08/a9208a487a5474bf80b5bd687d4d.jpg"}},"label":null,"tags":[],"isAvailable":true,"maxAvailableQuantity":10,"maxAllowedQuantity":100,"breadcrumbs":[{"code":"10","name":"Dietetic, ECO & internațional","slug":"10-dietetic-bio-si-international"},{"code":"1004","name":"Produse internaționale","slug":"1004-bucatarie-internationala"},{"code":"100404","name":"Produse franțuzești","slug":"100404-produse-din-franta"},{"code":"100121673","name":"Gem 4 citrice 320g","slug":"100121673-lucien-georgelin-gem-4-citrice-320g"}],"activePromotion":null,"saveMe":null,"labels":[],"geniusPrice":null,"geniusUnitPricePerLabel":null,"banner":null,"discountLabel":null,"geniusDiscountLabel":null,"badge":null},{"code":"100068461","variantCode":"100068461","name":"Ciuperci Shiitake 30g ","slug":"100068461-sabarot-ciuperci-shiitake-30g","unitPriceLabel":"566,33 Lei/kg","brand":"Sabarot","brandCode":"1085","brandFilterCode":"sabarot-b1085","sku":"100068461","price":16.99,"originalPrice":null,"currencyCode":"RON","currency":"Lei","image":{"thumbnail":{"default":"https://cdn.freshful.ro/media/cache/sylius_shop_product_thumbnail/c2/8e/59de0d842c739f6e8af298d3c27a.jpg"},"large":{"default":"https://cdn.freshful.ro/media/cache/freshful_large/c2/8e/59de0d842c739f6e8af298d3c27a.jpg"},"extralarge":{"default":"https://cdn.freshful.ro/media/cache/sylius_shop_product_original/c2/8e/59de0d842c739f6e8af298d3c27a.jpg"}},"label":null,"tags":[],"isAvailable":true,"maxAvailableQuantity":9,"maxAllowedQuantity":100,"breadcrumbs":[{"code":"10","name":"Dietetic, ECO & internațional","slug":"10-dietetic-bio-si-international"},{"code":"1004","name":"Produse internaționale","slug":"1004-bucatarie-internationala"},{"code":"100404","name":"Produse franțuzești","slug":"100404-produse-din-franta"},{"code":"100068461","name":"Ciuperci Shiitake 30g ","slug":"100068461-sabarot-ciuperci-shiitake-30g"}],"activePromotion":null,"saveMe":null,"labels":[],"geniusPrice":null,"geniusUnitPricePerLabel":null,"banner":null,"discountLabel":null,"geniusDiscountLabel":null,"badge":null},{"code":"100121672","variantCode":"3330720251008","name":"Gem de caise și mere 320g","slug":"100121672-lucien-georgelin-gem-de-caise-si-mere-320g","unitPriceLabel":"14,99 Lei/buc","brand":"Lucien Georgelin","brandCode":"2146","brandFilterCode":"lucien-georgelin-b2151","sku":"100121672","price":14.99,"originalPrice":null,"currencyCode":"RON","currency":"Lei","image":{"thumbnail":{"default":"https://cdn.freshful.ro/media/cache/sylius_shop_product_thumbnail/2e/62/b9d74270c024ec9efea0ff3490af.jpg"},"large":{"default":"https://cdn.freshful.ro/media/cache/freshful_large/2e/62/b9d74270c024ec9efea0ff3490af.jpg"},"extralarge":{"default":"https://cdn.freshful.ro/media/cache/sylius_shop_product_original/2e/62/b9d74270c024ec9efea0ff3490af.jpg"}},"label":null,"tags":[],"isAvailable":true,"maxAvailableQuantity":9,"maxAllowedQuantity":100,"breadcrumbs":[{"code":"10","name":"Dietetic, ECO & internațional","slug":"10-dietetic-bio-si-international"},{"code":"1004","name":"Produse internaționale","slug":"1004-bucatarie-internationala"},{"code":"100404","name":"Produse franțuzești","slug":"100404-produse-din-franta"},{"code":"100121672","name":"Gem de caise și mere 320g","slug":"100121672-lucien-georgelin-gem-de-caise-si-mere-320g"}],"activePromotion":null,"saveMe":null,"labels":[],"geniusPrice":null,"geniusUnitPricePerLabel":null,"banner":null,"discountLabel":null,"geniusDiscountLabel":null,"badge":null},{"code":"100122049","variantCode":"2777870000017","name":"Bloc de foie gras de rață 30% bucăți întregi 160g","slug":"100122049-patesa-bloc-de-foie-gras-de-rata-30-bucati-intregi-160g","unitPriceLabel":"331,06 Lei/kg","brand":"Patesa","brandCode":"2164","brandFilterCode":"patesa-b2169","sku":"100122049","price":52.97,"originalPrice":null,"currencyCode":"RON","currency":"Lei","image":{"thumbnail":{"default":"https://cdn.freshful.ro/media/cache/sylius_shop_product_thumbnail/a3/e6/d9437fcb7a3c2088ff62b7623cc0.jpg"},"large":{"default":"https://cdn.freshful.ro/media/cache/freshful_large/a3/e6/d9437fcb7a3c2088ff62b7623cc0.jpg"},"extralarge":{"default":"https://cdn.freshful.ro/media/cache/sylius_shop_product_original/a3/e6/d9437fcb7a3c2088ff62b7623cc0.jpg"}},"label":null,"tags":[],"isAvailable":true,"maxAvailableQuantity":11,"maxAllowedQuantity":100,"breadcrumbs":[{"code":"10","name":"Dietetic, ECO & internațional","slug":"10-dietetic-bio-si-international"},{"code":"1004","name":"Produse internaționale","slug":"1004-bucatarie-internationala"},{"code":"100404","name":"Produse franțuzești","slug":"100404-produse-din-franta"},{"code":"100122049","name":"Bloc de foie gras de rață 30% bucăți întregi 160g","slug":"100122049-patesa-bloc-de-foie-gras-de-rata-30-bucati-intregi-160g"}],"activePromotion":null,"saveMe":null,"labels":[],"geniusPrice":null,"geniusUnitPricePerLabel":null,"banner":null,"discountLabel":null,"geniusDiscountLabel":null,"badge":null},{"code":"100068462","variantCode":"100068462","name":"Mix ciuperci de pădure 40g ","slug":"100068462-eat-real-mix-ciuperci-de-padure-40g","unitPriceLabel":"424,75 Lei/kg","brand":"Eat Real","brandCode":"1086","brandFilterCode":"eat-real-b1086","sku":"100068462","price":16.99,"originalPrice":null,"currencyCode":"RON","currency":"Lei","image":{"thumbnail":{"default":"https://cdn.freshful.ro/media/cache/sylius_shop_product_thumbnail/c8/20/998dbf3ce68e43ab3cc05f5f9111.jpg"},"large":{"default":"https://cdn.freshful.ro/media/cache/freshful_large/c8/20/998dbf3ce68e43ab3cc05f5f9111.jpg"},"extralarge":{"default":"https://cdn.freshful.ro/media/cache/sylius_shop_product_original/c8/20/998dbf3ce68e43ab3cc05f5f9111.jpg"}},"label":null,"tags":[],"isAvailable":true,"maxAvailableQuantity":9,"maxAllowedQuantity":100,"breadcrumbs":[{"code":"10","name":"Dietetic, ECO & internațional","slug":"10-dietetic-bio-si-international"},{"code":"1004","name":"Produse internaționale","slug":"1004-bucatarie-internationala"},{"code":"100404","name":"Produse franțuzești","slug":"100404-produse-din-franta"},{"code":"100068462","name":"Mix ciuperci de pădure 40g ","slug":"100068462-eat-real-mix-ciuperci-de-padure-40g"}],"activePromotion":null,"saveMe":null,"labels":[],"geniusPrice":null,"geniusUnitPricePerLabel":null,"banner":null,"discountLabel":null,"geniusDiscountLabel":null,"badge":null},{"code":"100068447","variantCode":"100068447","name":"Bloc de foie gras de rață 65g","slug":"100068447-canardie-bloc-de-foie-gras-de-rata-65g","unitPriceLabel":"769,08 Lei/kg","brand":"Canardie","brandCode":"1082","brandFilterCode":"canardie-b1082","sku":"100068447","price":49.99,"originalPrice":null,"currencyCode":"RON","currency":"Lei","image":{"thumbnail":{"default":"https://cdn.freshful.ro/media/cache/sylius_shop_product_thumbnail/4a/7e/d7b5b751a40c98a5518544800e1c.jpg"},"large":{"default":"https://cdn.freshful.ro/media/cache/freshful_large/4a/7e/d7b5b751a40c98a5518544800e1c.jpg"},"extralarge":{"default":"https://cdn.freshful.ro/media/cache/sylius_shop_product_original/4a/7e/d7b5b751a40c98a5518544800e1c.jpg"}},"label":null,"tags":[],"isAvailable":true,"maxAvailableQuantity":8,"maxAllowedQuantity":100,"breadcrumbs":[{"code":"10","name":"Dietetic, ECO & internațional","slug":"10-dietetic-bio-si-international"},{"code":"1004","name":"Produse internaționale","slug":"1004-bucatarie-internationala"},{"code":"100404","name":"Produse franțuzești","slug":"100404-produse-din-franta"},{"code":"100068447","name":"Bloc de foie gras de rață 65g","slug":"100068447-canardie-bloc-de-foie-gras-de-rata-65g"}],"activePromotion":null,"saveMe":null,"labels":[],"geniusPrice":null,"geniusUnitPricePerLabel":null,"banner":null,"discountLabel":null,"geniusDiscountLabel":null,"badge":null},{"code":"100122046","variantCode":"2755560000011","name":"Foie gras de rață 180g","slug":"100122046-patesa-foie-gras-de-rata-180g","unitPriceLabel":"499,94 Lei/kg","brand":"Patesa","brandCode":"2164","brandFilterCode":"patesa-b2169","sku":"100122046","price":89.99,"originalPrice":null,"currencyCode":"RON","currency":"Lei","image":{"thumbnail":{"default":"https://cdn.freshful.ro/media/cache/sylius_shop_product_thumbnail/e6/ea/913d2eea2baea62e2f0cea7760cc.jpg"},"large":{"default":"https://cdn.freshful.ro/media/cache/freshful_large/e6/ea/913d2eea2baea62e2f0cea7760cc.jpg"},"extralarge":{"default":"https://cdn.freshful.ro/media/cache/sylius_shop_product_original/e6/ea/913d2eea2baea62e2f0cea7760cc.jpg"}},"label":null,"tags":[],"isAvailable":true,"maxAvailableQuantity":25,"maxAllowedQuantity":100,"breadcrumbs":[{"code":"10","name":"Dietetic, ECO & internațional","slug":"10-dietetic-bio-si-international"},{"code":"1004","name":"Produse internaționale","slug":"1004-bucatarie-internationala"},{"code":"100404","name":"Produse franțuzești","slug":"100404-produse-din-franta"},{"code":"100122046","name":"Foie gras de rață 180g","slug":"100122046-patesa-foie-gras-de-rata-180g"}],"activePromotion":null,"saveMe":null,"labels":[],"geniusPrice":null,"geniusUnitPricePerLabel":null,"banner":null,"discountLabel":null,"geniusDiscountLabel":null,"badge":null}],"filters":{"countSelected":0,"items":[{"code":"brand","name":"Brand","countSelected":0,"values":[{"code":"canardie-b1082","name":"Canardie","isSelected":false,"count":1},{"code":"eat-real-b1086","name":"Eat Real","isSelected":false,"count":1},{"code":"labeyrie-b1631","name":"Labeyrie","isSelected":false,"count":2},{"code":"lucien-georgelin-b2151","name":"Lucien Georgelin","isSelected":false,"count":5},{"code":"maxim-s-de-paris-b703","name":"Maxim's de Paris","isSelected":false,"count":4},{"code":"patesa-b2169","name":"Patesa","isSelected":false,"count":3},{"code":"sabarot-b1085","name":"Sabarot","isSelected":false,"count":2}]}]},"orderBy":[{"field":"price","direction":"asc","name":"Preț crescător","isSelected":false},{"field":"price","direction":"desc","name":"Preț descrescător","isSelected":false},{"field":"popularity","direction":"desc","name":"Cele mai populare","isSelected":true},{"field":"category","direction":"asc","name":"Categorie","isSelected":false}],"metaTitle":"Produse franțuzești - Gamă variată","metaDescription":"Vrei Produse franțuzești? Alege dintr-o gamă variată. Comanzi simplu și ai livrare rapidă, calitate și prospețime. Hai pe Freshful.ro","metaKeywords":null,"banners":[]}}