{"type":"subcategory","payload":{"analyticsListId":"category_100403-produse-din-mexic","analyticsListName":"Category - Produse mexicane","name":"Produse mexicane","slug":"100403-produse-din-mexic","image":null,"breadcrumbs":[{"code":"10","name":"Dietetic, ECO & internațional","slug":"10-dietetic-bio-si-international"},{"code":"1004","name":"Produse internaționale","slug":"1004-bucatarie-internationala"},{"code":"100403","name":"Produse mexicane","slug":"100403-produse-din-mexic"}],"slots":[],"page":1,"limit":10,"pages":3,"count":24,"siblings":[{"name":"Produse ecologice","slug":"1001-produse-ecologice","selected":false},{"name":"Produse dietetice și naturiste","slug":"1002-produse-dietetice-si-naturiste","selected":false},{"name":"Suplimente alimentare","slug":"1003-suplimente-alimentare","selected":false},{"name":"Produse internaționale","slug":"1004-bucatarie-internationala","selected":true}],"children":[{"name":"Toate produsele","slug":"1004-bucatarie-internationala","selected":false},{"name":"Produse asiatice","slug":"100401-produse-din-asia","selected":false},{"name":"Produse libaneze","slug":"100402-produse-libaneze","selected":false},{"name":"Produse mexicane","slug":"100403-produse-din-mexic","selected":true},{"name":"Produse franțuzești","slug":"100404-produse-din-franta","selected":false},{"name":"Produse italienești","slug":"100405-produse-din-italia","selected":false}],"products":[{"code":"100124455","variantCode":"100124455","name":"Chipsuri Tortilla cu sare 200g","slug":"100124455-la-fiesta-chipsuri-tortilla-cu-sare-200g","unitPriceLabel":"54,5 Lei/kg","brand":"La Fiesta","brandCode":"2279","brandFilterCode":"la-fiesta-b2269","sku":"100124455","price":10.9,"originalPrice":null,"currencyCode":"RON","currency":"Lei","image":{"thumbnail":{"default":"https://cdn.freshful.ro/media/cache/sylius_shop_product_thumbnail/0f/26/7cc12bacdc2e769c0f3b39387866.jpg"},"large":{"default":"https://cdn.freshful.ro/media/cache/freshful_large/0f/26/7cc12bacdc2e769c0f3b39387866.jpg"},"extralarge":{"default":"https://cdn.freshful.ro/media/cache/sylius_shop_product_original/0f/26/7cc12bacdc2e769c0f3b39387866.jpg"}},"label":null,"tags":[],"isAvailable":true,"maxAvailableQuantity":89,"maxAllowedQuantity":100,"breadcrumbs":[{"code":"10","name":"Dietetic, ECO & internațional","slug":"10-dietetic-bio-si-international"},{"code":"1004","name":"Produse internaționale","slug":"1004-bucatarie-internationala"},{"code":"100403","name":"Produse mexicane","slug":"100403-produse-din-mexic"},{"code":"100124455","name":"Chipsuri Tortilla cu sare 200g","slug":"100124455-la-fiesta-chipsuri-tortilla-cu-sare-200g"}],"activePromotion":null,"saveMe":null,"labels":[],"geniusPrice":null,"geniusUnitPricePerLabel":null,"banner":null,"discountLabel":null,"geniusDiscountLabel":null,"badge":null},{"code":"100123913","variantCode":"100123913","name":"Tortillas din făină integrală (6buc) 350g","slug":"100123913-old-el-paso-tortillas-din-faina-integrala-6buc-350g","unitPriceLabel":"45,69 Lei/kg","brand":"Old El Paso","brandCode":"646","brandFilterCode":"old-el-paso-b647","sku":"100123913","price":15.99,"originalPrice":null,"currencyCode":"RON","currency":"Lei","image":{"thumbnail":{"default":"https://cdn.freshful.ro/media/cache/sylius_shop_product_thumbnail/6b/10/f7f39f73ae45183a861e7850778f.jpg"},"large":{"default":"https://cdn.freshful.ro/media/cache/freshful_large/6b/10/f7f39f73ae45183a861e7850778f.jpg"},"extralarge":{"default":"https://cdn.freshful.ro/media/cache/sylius_shop_product_original/6b/10/f7f39f73ae45183a861e7850778f.jpg"}},"label":null,"tags":[],"isAvailable":true,"maxAvailableQuantity":49,"maxAllowedQuantity":100,"breadcrumbs":[{"code":"10","name":"Dietetic, ECO & internațional","slug":"10-dietetic-bio-si-international"},{"code":"1004","name":"Produse internaționale","slug":"1004-bucatarie-internationala"},{"code":"100403","name":"Produse mexicane","slug":"100403-produse-din-mexic"},{"code":"100123913","name":"Tortillas din făină integrală (6buc) 350g","slug":"100123913-old-el-paso-tortillas-din-faina-integrala-6buc-350g"}],"activePromotion":null,"saveMe":null,"labels":[],"geniusPrice":null,"geniusUnitPricePerLabel":null,"banner":null,"discountLabel":null,"geniusDiscountLabel":null,"badge":null},{"code":"100124453","variantCode":"100124453","name":"Chipsuri tortilla brânză 200g","slug":"100124453-la-fiesta-chipsuri-tortilla-branza-200g","unitPriceLabel":"52,2 Lei/kg","brand":"La Fiesta","brandCode":"2279","brandFilterCode":"la-fiesta-b2269","sku":"100124453","price":10.44,"originalPrice":null,"currencyCode":"RON","currency":"Lei","image":{"thumbnail":{"default":"https://cdn.freshful.ro/media/cache/sylius_shop_product_thumbnail/ac/0d/850741631c0c0a6946e95790ab3d.jpg"},"large":{"default":"https://cdn.freshful.ro/media/cache/freshful_large/ac/0d/850741631c0c0a6946e95790ab3d.jpg"},"extralarge":{"default":"https://cdn.freshful.ro/media/cache/sylius_shop_product_original/ac/0d/850741631c0c0a6946e95790ab3d.jpg"}},"label":null,"tags":[],"isAvailable":true,"maxAvailableQuantity":73,"maxAllowedQuantity":100,"breadcrumbs":[{"code":"10","name":"Dietetic, ECO & internațional","slug":"10-dietetic-bio-si-international"},{"code":"1004","name":"Produse internaționale","slug":"1004-bucatarie-internationala"},{"code":"100403","name":"Produse mexicane","slug":"100403-produse-din-mexic"},{"code":"100124453","name":"Chipsuri tortilla brânză 200g","slug":"100124453-la-fiesta-chipsuri-tortilla-branza-200g"}],"activePromotion":null,"saveMe":null,"labels":[],"geniusPrice":null,"geniusUnitPricePerLabel":null,"banner":null,"discountLabel":null,"geniusDiscountLabel":null,"badge":null},{"code":"100124459","variantCode":"100124459","name":"Sos salsa 315g","slug":"100124459-la-fiesta-sos-salsa-315g","unitPriceLabel":"39,68 Lei/kg","brand":"La Fiesta","brandCode":"2279","brandFilterCode":"la-fiesta-b2269","sku":"100124459","price":12.5,"originalPrice":null,"currencyCode":"RON","currency":"Lei","image":{"thumbnail":{"default":"https://cdn.freshful.ro/media/cache/sylius_shop_product_thumbnail/79/5c/070e32a5a24330e599dd30ea1617.jpg"},"large":{"default":"https://cdn.freshful.ro/media/cache/freshful_large/79/5c/070e32a5a24330e599dd30ea1617.jpg"},"extralarge":{"default":"https://cdn.freshful.ro/media/cache/sylius_shop_product_original/79/5c/070e32a5a24330e599dd30ea1617.jpg"}},"label":null,"tags":[],"isAvailable":true,"maxAvailableQuantity":41,"maxAllowedQuantity":100,"breadcrumbs":[{"code":"10","name":"Dietetic, ECO & internațional","slug":"10-dietetic-bio-si-international"},{"code":"1004","name":"Produse internaționale","slug":"1004-bucatarie-internationala"},{"code":"100403","name":"Produse mexicane","slug":"100403-produse-din-mexic"},{"code":"100124459","name":"Sos salsa 315g","slug":"100124459-la-fiesta-sos-salsa-315g"}],"activePromotion":null,"saveMe":null,"labels":[],"geniusPrice":null,"geniusUnitPricePerLabel":null,"banner":null,"discountLabel":null,"geniusDiscountLabel":null,"badge":null},{"code":"100124456","variantCode":"100124456","name":"Sos picant cu brânză și ardei iuți jalapeno 300g","slug":"100124456-la-fiesta-sos-picant-cu-branza-si-ardei-iuti-jalapeno-300g","unitPriceLabel":"56,97 Lei/kg","brand":"La Fiesta","brandCode":"2279","brandFilterCode":"la-fiesta-b2269","sku":"100124456","price":17.09,"originalPrice":null,"currencyCode":"RON","currency":"Lei","image":{"thumbnail":{"default":"https://cdn.freshful.ro/media/cache/sylius_shop_product_thumbnail/33/59/b3a91cf8fb4f37fbf162050220d4.jpg"},"large":{"default":"https://cdn.freshful.ro/media/cache/freshful_large/33/59/b3a91cf8fb4f37fbf162050220d4.jpg"},"extralarge":{"default":"https://cdn.freshful.ro/media/cache/sylius_shop_product_original/33/59/b3a91cf8fb4f37fbf162050220d4.jpg"}},"label":null,"tags":[],"isAvailable":true,"maxAvailableQuantity":39,"maxAllowedQuantity":100,"breadcrumbs":[{"code":"10","name":"Dietetic, ECO & internațional","slug":"10-dietetic-bio-si-international"},{"code":"1004","name":"Produse internaționale","slug":"1004-bucatarie-internationala"},{"code":"100403","name":"Produse mexicane","slug":"100403-produse-din-mexic"},{"code":"100124456","name":"Sos picant cu brânză și ardei iuți jalapeno 300g","slug":"100124456-la-fiesta-sos-picant-cu-branza-si-ardei-iuti-jalapeno-300g"}],"activePromotion":null,"saveMe":null,"labels":[],"geniusPrice":null,"geniusUnitPricePerLabel":null,"banner":null,"discountLabel":null,"geniusDiscountLabel":null,"badge":null},{"code":"100123912","variantCode":"100123912","name":"Tortillas din făină de grâu 8 buc 326g","slug":"100123912-old-el-paso-tortillas-din-faina-de-grau-8-buc-326g","unitPriceLabel":"59,82 Lei/kg","brand":"Old El Paso","brandCode":"646","brandFilterCode":"old-el-paso-b647","sku":"100123912","price":19.5,"originalPrice":null,"currencyCode":"RON","currency":"Lei","image":{"thumbnail":{"default":"https://cdn.freshful.ro/media/cache/sylius_shop_product_thumbnail/cf/fc/6c110805bfc790a89eafa765b858.jpg"},"large":{"default":"https://cdn.freshful.ro/media/cache/freshful_large/cf/fc/6c110805bfc790a89eafa765b858.jpg"},"extralarge":{"default":"https://cdn.freshful.ro/media/cache/sylius_shop_product_original/cf/fc/6c110805bfc790a89eafa765b858.jpg"}},"label":null,"tags":[],"isAvailable":true,"maxAvailableQuantity":35,"maxAllowedQuantity":100,"breadcrumbs":[{"code":"10","name":"Dietetic, ECO & internațional","slug":"10-dietetic-bio-si-international"},{"code":"1004","name":"Produse internaționale","slug":"1004-bucatarie-internationala"},{"code":"100403","name":"Produse mexicane","slug":"100403-produse-din-mexic"},{"code":"100123912","name":"Tortillas din făină de grâu 8 buc 326g","slug":"100123912-old-el-paso-tortillas-din-faina-de-grau-8-buc-326g"}],"activePromotion":null,"saveMe":null,"labels":[],"geniusPrice":null,"geniusUnitPricePerLabel":null,"banner":null,"discountLabel":null,"geniusDiscountLabel":null,"badge":null},{"code":"100123903","variantCode":"100123903","name":"Chipsuri Tortilla chilli 185g","slug":"100123903-old-el-paso-chipsuri-tortilla-chilli-185g","unitPriceLabel":"64,16 Lei/kg","brand":"Old El Paso","brandCode":"646","brandFilterCode":"old-el-paso-b647","sku":"100123903","price":11.87,"originalPrice":null,"currencyCode":"RON","currency":"Lei","image":{"thumbnail":{"default":"https://cdn.freshful.ro/media/cache/sylius_shop_product_thumbnail/e0/b8/532601b4178585f0bedd82a9c5bb.jpg"},"large":{"default":"https://cdn.freshful.ro/media/cache/freshful_large/e0/b8/532601b4178585f0bedd82a9c5bb.jpg"},"extralarge":{"default":"https://cdn.freshful.ro/media/cache/sylius_shop_product_original/e0/b8/532601b4178585f0bedd82a9c5bb.jpg"}},"label":null,"tags":[{"type":"NoGluten","text":"Fara gluten","icon":"https://cdn.freshful.ro/assets/product_tags/fara_gluten.svg","iconPng":"https://cdn.freshful.ro/assets/product_tags/fara_gluten.png","backgroundColor":"#FFF2E5","textColor":"#F07900"},{"type":"NoPreservatives","text":"Fara conservanti","icon":"https://cdn.freshful.ro/assets/product_tags/fara_conservanti.svg","iconPng":"https://cdn.freshful.ro/assets/product_tags/fara_conservanti.png","backgroundColor":"#F0F2FF","textColor":"#7889DD"}],"isAvailable":true,"maxAvailableQuantity":34,"maxAllowedQuantity":100,"breadcrumbs":[{"code":"10","name":"Dietetic, ECO & internațional","slug":"10-dietetic-bio-si-international"},{"code":"1004","name":"Produse internaționale","slug":"1004-bucatarie-internationala"},{"code":"100403","name":"Produse mexicane","slug":"100403-produse-din-mexic"},{"code":"100123903","name":"Chipsuri Tortilla chilli 185g","slug":"100123903-old-el-paso-chipsuri-tortilla-chilli-185g"}],"activePromotion":null,"saveMe":null,"labels":[],"geniusPrice":null,"geniusUnitPricePerLabel":null,"banner":null,"discountLabel":null,"geniusDiscountLabel":null,"badge":null},{"code":"100078595","variantCode":"4001242003015","name":"Sos salsa mild 200ml","slug":"100078595-chio-sos-salsa-mild-200ml","unitPriceLabel":"74,5 Lei/kg","brand":"Chio","brandCode":"238","brandFilterCode":"chio-b239","sku":"100078595","price":14.9,"originalPrice":null,"currencyCode":"RON","currency":"Lei","image":{"thumbnail":{"default":"https://cdn.freshful.ro/media/cache/sylius_shop_product_thumbnail/28/1a/af3f104eed4725b11aee3de6e396.jpg"},"large":{"default":"https://cdn.freshful.ro/media/cache/freshful_large/28/1a/af3f104eed4725b11aee3de6e396.jpg"},"extralarge":{"default":"https://cdn.freshful.ro/media/cache/sylius_shop_product_original/28/1a/af3f104eed4725b11aee3de6e396.jpg"}},"label":null,"tags":[],"isAvailable":true,"maxAvailableQuantity":100,"maxAllowedQuantity":100,"breadcrumbs":[{"code":"10","name":"Dietetic, ECO & internațional","slug":"10-dietetic-bio-si-international"},{"code":"1004","name":"Produse internaționale","slug":"1004-bucatarie-internationala"},{"code":"100403","name":"Produse mexicane","slug":"100403-produse-din-mexic"},{"code":"100078595","name":"Sos salsa mild 200ml","slug":"100078595-chio-sos-salsa-mild-200ml"}],"activePromotion":null,"saveMe":null,"labels":[],"geniusPrice":null,"geniusUnitPricePerLabel":null,"banner":null,"discountLabel":null,"geniusDiscountLabel":null,"badge":null},{"code":"100070685","variantCode":"100070685","name":"Nacho snacks cu gust de brânză 100g","slug":"100070685-doritos-nacho-snacks-cu-gust-de-branza-100g","unitPriceLabel":"53,2 Lei/kg","brand":"Doritos","brandCode":"1355","brandFilterCode":"doritos-b1257","sku":"100070685","price":5.32,"originalPrice":null,"currencyCode":"RON","currency":"Lei","image":{"thumbnail":{"default":"https://cdn.freshful.ro/media/cache/sylius_shop_product_thumbnail/af/63/ca57e611b27d40415db186986711.jpg"},"large":{"default":"https://cdn.freshful.ro/media/cache/freshful_large/af/63/ca57e611b27d40415db186986711.jpg"},"extralarge":{"default":"https://cdn.freshful.ro/media/cache/sylius_shop_product_original/af/63/ca57e611b27d40415db186986711.jpg"}},"label":null,"tags":[],"isAvailable":true,"maxAvailableQuantity":48,"maxAllowedQuantity":100,"breadcrumbs":[{"code":"10","name":"Dietetic, ECO & internațional","slug":"10-dietetic-bio-si-international"},{"code":"1004","name":"Produse internaționale","slug":"1004-bucatarie-internationala"},{"code":"100403","name":"Produse mexicane","slug":"100403-produse-din-mexic"},{"code":"100070685","name":"Nacho snacks cu gust de brânză 100g","slug":"100070685-doritos-nacho-snacks-cu-gust-de-branza-100g"}],"activePromotion":null,"saveMe":null,"labels":[],"geniusPrice":null,"geniusUnitPricePerLabel":null,"banner":null,"discountLabel":null,"geniusDiscountLabel":null,"badge":null},{"code":"100124454","variantCode":"100124454","name":"Chipsuri tortilla chili 200g","slug":"100124454-la-fiesta-chipsuri-tortilla-chili-200g","unitPriceLabel":"52,2 Lei/kg","brand":"La Fiesta","brandCode":"2279","brandFilterCode":"la-fiesta-b2269","sku":"100124454","price":10.44,"originalPrice":null,"currencyCode":"RON","currency":"Lei","image":{"thumbnail":{"default":"https://cdn.freshful.ro/media/cache/sylius_shop_product_thumbnail/18/1f/4c8b56f3f38e188baf8058ae3b64.jpg"},"large":{"default":"https://cdn.freshful.ro/media/cache/freshful_large/18/1f/4c8b56f3f38e188baf8058ae3b64.jpg"},"extralarge":{"default":"https://cdn.freshful.ro/media/cache/sylius_shop_product_original/18/1f/4c8b56f3f38e188baf8058ae3b64.jpg"}},"label":null,"tags":[],"isAvailable":true,"maxAvailableQuantity":54,"maxAllowedQuantity":100,"breadcrumbs":[{"code":"10","name":"Dietetic, ECO & internațional","slug":"10-dietetic-bio-si-international"},{"code":"1004","name":"Produse internaționale","slug":"1004-bucatarie-internationala"},{"code":"100403","name":"Produse mexicane","slug":"100403-produse-din-mexic"},{"code":"100124454","name":"Chipsuri tortilla chili 200g","slug":"100124454-la-fiesta-chipsuri-tortilla-chili-200g"}],"activePromotion":null,"saveMe":null,"labels":[],"geniusPrice":null,"geniusUnitPricePerLabel":null,"banner":null,"discountLabel":null,"geniusDiscountLabel":null,"badge":null}],"filters":{"countSelected":0,"items":[{"code":"brand","name":"Brand","countSelected":0,"values":[{"code":"bandido-b993","name":"Bandido","isSelected":false,"count":3},{"code":"chio-b239","name":"Chio","isSelected":false,"count":1},{"code":"doritos-b1257","name":"Doritos","isSelected":false,"count":3},{"code":"knorr-b123","name":"Knorr","isSelected":false,"count":2},{"code":"la-fiesta-b2269","name":"La Fiesta","isSelected":false,"count":7},{"code":"old-el-paso-b647","name":"Old El Paso","isSelected":false,"count":8}]},{"code":"diet_lifestyle","name":"Dietă și lifestyle","countSelected":0,"values":[{"code":"fara-conservanti-a37","name":"Fara conservanti","isSelected":false,"count":1},{"code":"fara-gluten-a16","name":"Fara gluten","isSelected":false,"count":1}]}]},"orderBy":[{"field":"price","direction":"asc","name":"Preț crescător","isSelected":false},{"field":"price","direction":"desc","name":"Preț descrescător","isSelected":false},{"field":"popularity","direction":"desc","name":"Cele mai populare","isSelected":true},{"field":"category","direction":"asc","name":"Categorie","isSelected":false}],"metaTitle":"Produse mexicane - Gamă variată","metaDescription":"Vrei Produse mexicane? Alege dintr-o gamă variată. Comanzi simplu și ai livrare rapidă, calitate și prospețime. Hai pe Freshful.ro","metaKeywords":null,"banners":[]}}