{"type":"subcategory","payload":{"analyticsListId":"category_1004-bucatarie-internationala","analyticsListName":"Category - Produse internaționale","name":"Produse internaționale","slug":"1004-bucatarie-internationala","image":null,"breadcrumbs":[{"code":"10","name":"Dietetic, ECO & internațional","slug":"10-dietetic-bio-si-international"},{"code":"1004","name":"Produse internaționale","slug":"1004-bucatarie-internationala"}],"slots":[],"page":1,"limit":10,"pages":38,"count":372,"siblings":[{"name":"Produse ecologice","slug":"1001-produse-ecologice","selected":false},{"name":"Produse dietetice și naturiste","slug":"1002-produse-dietetice-si-naturiste","selected":false},{"name":"Suplimente alimentare","slug":"1003-suplimente-alimentare","selected":false},{"name":"Produse internaționale","slug":"1004-bucatarie-internationala","selected":true}],"children":[{"name":"Toate produsele","slug":"1004-bucatarie-internationala","selected":true},{"name":"Produse asiatice","slug":"100401-produse-din-asia","selected":false},{"name":"Produse libaneze","slug":"100402-produse-libaneze","selected":false},{"name":"Produse mexicane","slug":"100403-produse-din-mexic","selected":false},{"name":"Produse franțuzești","slug":"100404-produse-din-franta","selected":false},{"name":"Produse italienești","slug":"100405-produse-din-italia","selected":false}],"products":[{"code":"100075619","variantCode":"5060194790939","name":"Pesmet Panko 150g","slug":"100075619-saitaku-pesmet-panko-150g","unitPriceLabel":"86,6 Lei/kg","brand":"Saitaku","brandCode":"980","brandFilterCode":"saitaku-b994","sku":"100075619","price":12.99,"originalPrice":14.99,"currencyCode":"RON","currency":"Lei","image":{"thumbnail":{"default":"https://cdn.freshful.ro/media/cache/sylius_shop_product_thumbnail/2e/f1/c981b25764faa0f1c67e08e17cee.jpg"},"large":{"default":"https://cdn.freshful.ro/media/cache/freshful_large/2e/f1/c981b25764faa0f1c67e08e17cee.jpg"},"extralarge":{"default":"https://cdn.freshful.ro/media/cache/sylius_shop_product_original/2e/f1/c981b25764faa0f1c67e08e17cee.jpg"}},"label":{"text":"-13%","backgroundColor":"#FF9903","textColor":"#FFFFFF"},"tags":[],"isAvailable":true,"maxAvailableQuantity":87,"maxAllowedQuantity":100,"breadcrumbs":[{"code":"10","name":"Dietetic, ECO & internațional","slug":"10-dietetic-bio-si-international"},{"code":"1004","name":"Produse internaționale","slug":"1004-bucatarie-internationala"},{"code":"100401","name":"Produse asiatice","slug":"100401-produse-din-asia"},{"code":"100075619","name":"Pesmet Panko 150g","slug":"100075619-saitaku-pesmet-panko-150g"}],"activePromotion":{"code":"oferte-bacanie-bauturi-21feb-8mar23","name":"Preț redus","targetQuantity":null},"saveMe":null,"labels":[{"type":"v1","items":[{"text":"-13%","backgroundColor":"#FF9903","textColor":"#FFFFFF"}]}],"geniusPrice":null,"geniusUnitPricePerLabel":null,"banner":{"text":"Super preț","textColor":"#FF0000","bgColor":"#FFF2EC","icon":null,"link":"https://www.freshful.ro/oferte/oferte-bacanie-bauturi-21feb-8mar23","type":"promo","analyticsEventType":"select_promotion","analyticsEventPayload":{"promotion_id":"oferte-bacanie-bauturi-21feb-8mar23","promotion_name":"Cămara cu băuturi și bunătăți"}},"discountLabel":"Economisești 13%","geniusDiscountLabel":null,"badge":null},{"code":"100075522","variantCode":"8690804036910","name":"Halva cu cacao 350g","slug":"100075522-suntat-halva-cu-cacao-350g","unitPriceLabel":"48,54 Lei/kg","brand":"Suntat","brandCode":"966","brandFilterCode":"suntat-b980","sku":"100075522","price":16.99,"originalPrice":18.99,"currencyCode":"RON","currency":"Lei","image":{"thumbnail":{"default":"https://cdn.freshful.ro/media/cache/sylius_shop_product_thumbnail/25/f5/4f62dd6c8e84cf91c01886f97e89.jpg"},"large":{"default":"https://cdn.freshful.ro/media/cache/freshful_large/25/f5/4f62dd6c8e84cf91c01886f97e89.jpg"},"extralarge":{"default":"https://cdn.freshful.ro/media/cache/sylius_shop_product_original/25/f5/4f62dd6c8e84cf91c01886f97e89.jpg"}},"label":{"text":"-10%","backgroundColor":"#FF9903","textColor":"#FFFFFF"},"tags":[],"isAvailable":true,"maxAvailableQuantity":100,"maxAllowedQuantity":100,"breadcrumbs":[{"code":"10","name":"Dietetic, ECO & internațional","slug":"10-dietetic-bio-si-international"},{"code":"1004","name":"Produse internaționale","slug":"1004-bucatarie-internationala"},{"code":"100401","name":"Produse asiatice","slug":"100401-produse-din-asia"},{"code":"100075522","name":"Halva cu cacao 350g","slug":"100075522-suntat-halva-cu-cacao-350g"}],"activePromotion":{"code":"special-produse-vegane-mar23","name":"Preț redus","targetQuantity":null},"saveMe":null,"labels":[{"type":"v1","items":[{"text":"-10%","backgroundColor":"#FF9903","textColor":"#FFFFFF"}]}],"geniusPrice":null,"geniusUnitPricePerLabel":null,"banner":{"text":"Super preț","textColor":"#FF0000","bgColor":"#FFF2EC","icon":null,"link":"https://www.freshful.ro/oferte/special-produse-vegane-mar23","type":"promo","analyticsEventType":"select_promotion","analyticsEventPayload":{"promotion_id":"special-produse-vegane-mar23","promotion_name":"Și bun, și de post"}},"discountLabel":"Economisești 10%","geniusDiscountLabel":null,"badge":null},{"code":"100075511","variantCode":"8690804410505","name":"Sărmăluțe în foi de viță cu orez 400g","slug":"100075511-suntat-sarmalute-in-foi-de-vita-cu-orez-400g","unitPriceLabel":"39,98 Lei/kg","brand":"Suntat","brandCode":"966","brandFilterCode":"suntat-b980","sku":"100075511","price":15.99,"originalPrice":18.49,"currencyCode":"RON","currency":"Lei","image":{"thumbnail":{"default":"https://cdn.freshful.ro/media/cache/sylius_shop_product_thumbnail/dd/0a/2ec372a1b4d192c8e03dd55539d1.jpg"},"large":{"default":"https://cdn.freshful.ro/media/cache/freshful_large/dd/0a/2ec372a1b4d192c8e03dd55539d1.jpg"},"extralarge":{"default":"https://cdn.freshful.ro/media/cache/sylius_shop_product_original/dd/0a/2ec372a1b4d192c8e03dd55539d1.jpg"}},"label":{"text":"-13%","backgroundColor":"#FF9903","textColor":"#FFFFFF"},"tags":[],"isAvailable":true,"maxAvailableQuantity":47,"maxAllowedQuantity":100,"breadcrumbs":[{"code":"10","name":"Dietetic, ECO & internațional","slug":"10-dietetic-bio-si-international"},{"code":"1004","name":"Produse internaționale","slug":"1004-bucatarie-internationala"},{"code":"100401","name":"Produse asiatice","slug":"100401-produse-din-asia"},{"code":"100075511","name":"Sărmăluțe în foi de viță cu orez 400g","slug":"100075511-suntat-sarmalute-in-foi-de-vita-cu-orez-400g"}],"activePromotion":{"code":"special-produse-vegane-mar23","name":"Preț redus","targetQuantity":null},"saveMe":null,"labels":[{"type":"v1","items":[{"text":"-13%","backgroundColor":"#FF9903","textColor":"#FFFFFF"}]}],"geniusPrice":null,"geniusUnitPricePerLabel":null,"banner":{"text":"Super preț","textColor":"#FF0000","bgColor":"#FFF2EC","icon":null,"link":"https://www.freshful.ro/oferte/special-produse-vegane-mar23","type":"promo","analyticsEventType":"select_promotion","analyticsEventPayload":{"promotion_id":"special-produse-vegane-mar23","promotion_name":"Și bun, și de post"}},"discountLabel":"Economisești 13%","geniusDiscountLabel":null,"badge":null},{"code":"100075516","variantCode":"8690804692215","name":"Humus 330g","slug":"100075516-suntat-humus-330g","unitPriceLabel":"30,27 Lei/kg","brand":"Suntat","brandCode":"966","brandFilterCode":"suntat-b980","sku":"100075516","price":9.99,"originalPrice":13.99,"currencyCode":"RON","currency":"Lei","image":{"thumbnail":{"default":"https://cdn.freshful.ro/media/cache/sylius_shop_product_thumbnail/96/2d/7e0216d133df9451a226e360d2f6.jpg"},"large":{"default":"https://cdn.freshful.ro/media/cache/freshful_large/96/2d/7e0216d133df9451a226e360d2f6.jpg"},"extralarge":{"default":"https://cdn.freshful.ro/media/cache/sylius_shop_product_original/96/2d/7e0216d133df9451a226e360d2f6.jpg"}},"label":{"text":"-28%","backgroundColor":"#FF9903","textColor":"#FFFFFF"},"tags":[],"isAvailable":true,"maxAvailableQuantity":35,"maxAllowedQuantity":100,"breadcrumbs":[{"code":"10","name":"Dietetic, ECO & internațional","slug":"10-dietetic-bio-si-international"},{"code":"1004","name":"Produse internaționale","slug":"1004-bucatarie-internationala"},{"code":"100401","name":"Produse asiatice","slug":"100401-produse-din-asia"},{"code":"100075516","name":"Humus 330g","slug":"100075516-suntat-humus-330g"}],"activePromotion":{"code":"special-produse-vegane-mar23","name":"Preț redus","targetQuantity":null},"saveMe":null,"labels":[{"type":"v1","items":[{"text":"-28%","backgroundColor":"#FF9903","textColor":"#FFFFFF"}]}],"geniusPrice":null,"geniusUnitPricePerLabel":null,"banner":{"text":"Super preț","textColor":"#FF0000","bgColor":"#FFF2EC","icon":null,"link":"https://www.freshful.ro/oferte/special-produse-vegane-mar23","type":"promo","analyticsEventType":"select_promotion","analyticsEventPayload":{"promotion_id":"special-produse-vegane-mar23","promotion_name":"Și bun, și de post"}},"discountLabel":"Economisești 28%","geniusDiscountLabel":null,"badge":null},{"code":"100075515","variantCode":"8690804036897","name":"Halva cu aromă de vanilie 350g","slug":"100075515-suntat-halva-cu-aroma-de-vanilie-350g","unitPriceLabel":"48,54 Lei/kg","brand":"Suntat","brandCode":"966","brandFilterCode":"suntat-b980","sku":"100075515","price":16.99,"originalPrice":18.99,"currencyCode":"RON","currency":"Lei","image":{"thumbnail":{"default":"https://cdn.freshful.ro/media/cache/sylius_shop_product_thumbnail/03/81/d41bb7e41011a79dc8e9cfcf5165.jpg"},"large":{"default":"https://cdn.freshful.ro/media/cache/freshful_large/03/81/d41bb7e41011a79dc8e9cfcf5165.jpg"},"extralarge":{"default":"https://cdn.freshful.ro/media/cache/sylius_shop_product_original/03/81/d41bb7e41011a79dc8e9cfcf5165.jpg"}},"label":{"text":"-10%","backgroundColor":"#FF9903","textColor":"#FFFFFF"},"tags":[],"isAvailable":true,"maxAvailableQuantity":8,"maxAllowedQuantity":100,"breadcrumbs":[{"code":"10","name":"Dietetic, ECO & internațional","slug":"10-dietetic-bio-si-international"},{"code":"1004","name":"Produse internaționale","slug":"1004-bucatarie-internationala"},{"code":"100401","name":"Produse asiatice","slug":"100401-produse-din-asia"},{"code":"100075515","name":"Halva cu aromă de vanilie 350g","slug":"100075515-suntat-halva-cu-aroma-de-vanilie-350g"}],"activePromotion":{"code":"special-produse-vegane-mar23","name":"Preț redus","targetQuantity":null},"saveMe":null,"labels":[{"type":"v1","items":[{"text":"-10%","backgroundColor":"#FF9903","textColor":"#FFFFFF"}]}],"geniusPrice":null,"geniusUnitPricePerLabel":null,"banner":{"text":"Super preț","textColor":"#FF0000","bgColor":"#FFF2EC","icon":null,"link":"https://www.freshful.ro/oferte/special-produse-vegane-mar23","type":"promo","analyticsEventType":"select_promotion","analyticsEventPayload":{"promotion_id":"special-produse-vegane-mar23","promotion_name":"Și bun, și de post"}},"discountLabel":"Economisești 10%","geniusDiscountLabel":null,"badge":null},{"code":"100075512","variantCode":"8690804410529","name":"Sărmăluțe în foi de viță cu orez 2kg","slug":"100075512-suntat-sarmalute-in-foi-de-vita-cu-orez-2kg","unitPriceLabel":"30 Lei/kg","brand":"Suntat","brandCode":"966","brandFilterCode":"suntat-b980","sku":"100075512","price":59.99,"originalPrice":76.99,"currencyCode":"RON","currency":"Lei","image":{"thumbnail":{"default":"https://cdn.freshful.ro/media/cache/sylius_shop_product_thumbnail/60/b6/80ea9c5898471edd1d5cf7e0d218.jpg"},"large":{"default":"https://cdn.freshful.ro/media/cache/freshful_large/60/b6/80ea9c5898471edd1d5cf7e0d218.jpg"},"extralarge":{"default":"https://cdn.freshful.ro/media/cache/sylius_shop_product_original/60/b6/80ea9c5898471edd1d5cf7e0d218.jpg"}},"label":{"text":"-22%","backgroundColor":"#FF9903","textColor":"#FFFFFF"},"tags":[{"type":"Vegetarian","text":"Vegetarian","icon":"https://cdn.freshful.ro/assets/product_tags/vegetarian.svg","iconPng":"https://cdn.freshful.ro/assets/product_tags/vegetarian.png","backgroundColor":"#FAEAEE","textColor":"#B26275"}],"isAvailable":true,"maxAvailableQuantity":7,"maxAllowedQuantity":100,"breadcrumbs":[{"code":"10","name":"Dietetic, ECO & internațional","slug":"10-dietetic-bio-si-international"},{"code":"1004","name":"Produse internaționale","slug":"1004-bucatarie-internationala"},{"code":"100401","name":"Produse asiatice","slug":"100401-produse-din-asia"},{"code":"100075512","name":"Sărmăluțe în foi de viță cu orez 2kg","slug":"100075512-suntat-sarmalute-in-foi-de-vita-cu-orez-2kg"}],"activePromotion":{"code":"special-produse-vegane-mar23","name":"Preț redus","targetQuantity":null},"saveMe":null,"labels":[{"type":"v1","items":[{"text":"-22%","backgroundColor":"#FF9903","textColor":"#FFFFFF"}]}],"geniusPrice":null,"geniusUnitPricePerLabel":null,"banner":{"text":"Super preț","textColor":"#FF0000","bgColor":"#FFF2EC","icon":null,"link":"https://www.freshful.ro/oferte/special-produse-vegane-mar23","type":"promo","analyticsEventType":"select_promotion","analyticsEventPayload":{"promotion_id":"special-produse-vegane-mar23","promotion_name":"Și bun, și de post"}},"discountLabel":"Economisești 22%","geniusDiscountLabel":null,"badge":null},{"code":"100124455","variantCode":"100124455","name":"Chipsuri Tortilla cu sare 200g","slug":"100124455-la-fiesta-chipsuri-tortilla-cu-sare-200g","unitPriceLabel":"54,5 Lei/kg","brand":"La Fiesta","brandCode":"2279","brandFilterCode":"la-fiesta-b2269","sku":"100124455","price":10.9,"originalPrice":null,"currencyCode":"RON","currency":"Lei","image":{"thumbnail":{"default":"https://cdn.freshful.ro/media/cache/sylius_shop_product_thumbnail/0f/26/7cc12bacdc2e769c0f3b39387866.jpg"},"large":{"default":"https://cdn.freshful.ro/media/cache/freshful_large/0f/26/7cc12bacdc2e769c0f3b39387866.jpg"},"extralarge":{"default":"https://cdn.freshful.ro/media/cache/sylius_shop_product_original/0f/26/7cc12bacdc2e769c0f3b39387866.jpg"}},"label":null,"tags":[],"isAvailable":true,"maxAvailableQuantity":89,"maxAllowedQuantity":100,"breadcrumbs":[{"code":"10","name":"Dietetic, ECO & internațional","slug":"10-dietetic-bio-si-international"},{"code":"1004","name":"Produse internaționale","slug":"1004-bucatarie-internationala"},{"code":"100403","name":"Produse mexicane","slug":"100403-produse-din-mexic"},{"code":"100124455","name":"Chipsuri Tortilla cu sare 200g","slug":"100124455-la-fiesta-chipsuri-tortilla-cu-sare-200g"}],"activePromotion":null,"saveMe":null,"labels":[],"geniusPrice":null,"geniusUnitPricePerLabel":null,"banner":null,"discountLabel":null,"geniusDiscountLabel":null,"badge":null},{"code":"100082084","variantCode":"9120012041059","name":"Sos de soia 150ml","slug":"100082084-shan-shi-sos-de-soia-150ml","unitPriceLabel":"63,74 Lei/kg","brand":"Shan Shi","brandCode":"188","brandFilterCode":"shan-shi-b189","sku":"100082084","price":10.9,"originalPrice":null,"currencyCode":"RON","currency":"Lei","image":{"thumbnail":{"default":"https://cdn.freshful.ro/media/cache/sylius_shop_product_thumbnail/11/f2/9c8d3725cdbbd10fec3788a64f40.jpg"},"large":{"default":"https://cdn.freshful.ro/media/cache/freshful_large/11/f2/9c8d3725cdbbd10fec3788a64f40.jpg"},"extralarge":{"default":"https://cdn.freshful.ro/media/cache/sylius_shop_product_original/11/f2/9c8d3725cdbbd10fec3788a64f40.jpg"}},"label":null,"tags":[],"isAvailable":true,"maxAvailableQuantity":100,"maxAllowedQuantity":100,"breadcrumbs":[{"code":"10","name":"Dietetic, ECO & internațional","slug":"10-dietetic-bio-si-international"},{"code":"1004","name":"Produse internaționale","slug":"1004-bucatarie-internationala"},{"code":"100401","name":"Produse asiatice","slug":"100401-produse-din-asia"},{"code":"100082084","name":"Sos de soia 150ml","slug":"100082084-shan-shi-sos-de-soia-150ml"}],"activePromotion":null,"saveMe":null,"labels":[],"geniusPrice":null,"geniusUnitPricePerLabel":null,"banner":null,"discountLabel":null,"geniusDiscountLabel":null,"badge":null},{"code":"100093249","variantCode":"100093249","name":"Supă Ramen instant Miso 66g","slug":"100093249-oyakata-supa-ramen-instant-miso-66g","unitPriceLabel":"128,64 Lei/kg","brand":"Oyakata","brandCode":"1072","brandFilterCode":"oyakata-b1072","sku":"100093249","price":8.49,"originalPrice":null,"currencyCode":"RON","currency":"Lei","image":{"thumbnail":{"default":"https://cdn.freshful.ro/media/cache/sylius_shop_product_thumbnail/14/6f/7e9052f2ce7ab3e9de6da963c1c0.jpg"},"large":{"default":"https://cdn.freshful.ro/media/cache/freshful_large/14/6f/7e9052f2ce7ab3e9de6da963c1c0.jpg"},"extralarge":{"default":"https://cdn.freshful.ro/media/cache/sylius_shop_product_original/14/6f/7e9052f2ce7ab3e9de6da963c1c0.jpg"}},"label":null,"tags":[],"isAvailable":true,"maxAvailableQuantity":100,"maxAllowedQuantity":100,"breadcrumbs":[{"code":"10","name":"Dietetic, ECO & internațional","slug":"10-dietetic-bio-si-international"},{"code":"1004","name":"Produse internaționale","slug":"1004-bucatarie-internationala"},{"code":"100401","name":"Produse asiatice","slug":"100401-produse-din-asia"},{"code":"100093249","name":"Supă Ramen instant Miso 66g","slug":"100093249-oyakata-supa-ramen-instant-miso-66g"}],"activePromotion":null,"saveMe":null,"labels":[],"geniusPrice":null,"geniusUnitPricePerLabel":null,"banner":null,"discountLabel":null,"geniusDiscountLabel":null,"badge":null},{"code":"100068400","variantCode":"100068400","name":"Supă Ramen instant cu tăiței și aromă de pui 63g","slug":"100068400-oyakata-supa-ramen-instant-cu-taitei-si-aroma-de-pui-63g","unitPriceLabel":"173,02 Lei/kg","brand":"Oyakata","brandCode":"1072","brandFilterCode":"oyakata-b1072","sku":"100068400","price":10.9,"originalPrice":null,"currencyCode":"RON","currency":"Lei","image":{"thumbnail":{"default":"https://cdn.freshful.ro/media/cache/sylius_shop_product_thumbnail/06/b0/2ba74607f0b74793849397a8f0fa.jpg"},"large":{"default":"https://cdn.freshful.ro/media/cache/freshful_large/06/b0/2ba74607f0b74793849397a8f0fa.jpg"},"extralarge":{"default":"https://cdn.freshful.ro/media/cache/sylius_shop_product_original/06/b0/2ba74607f0b74793849397a8f0fa.jpg"}},"label":null,"tags":[],"isAvailable":true,"maxAvailableQuantity":100,"maxAllowedQuantity":100,"breadcrumbs":[{"code":"10","name":"Dietetic, ECO & internațional","slug":"10-dietetic-bio-si-international"},{"code":"1004","name":"Produse internaționale","slug":"1004-bucatarie-internationala"},{"code":"100401","name":"Produse asiatice","slug":"100401-produse-din-asia"},{"code":"100068400","name":"Supă Ramen instant cu tăiței și aromă de pui 63g","slug":"100068400-oyakata-supa-ramen-instant-cu-taitei-si-aroma-de-pui-63g"}],"activePromotion":null,"saveMe":null,"labels":[],"geniusPrice":null,"geniusUnitPricePerLabel":null,"banner":null,"discountLabel":null,"geniusDiscountLabel":null,"badge":null}],"filters":{"countSelected":0,"items":[{"code":"promotion","name":"Promoții","countSelected":0,"values":[{"code":"oferte-bacanie-bauturi-21feb-8mar23","name":"Cămara cu băuturi și bunătăți","isSelected":false,"count":1},{"code":"special-produse-vegane-mar23","name":"Și bun, și de post","isSelected":false,"count":5}]},{"code":"brand","name":"Brand","countSelected":0,"values":[{"code":"a-b1908","name":"A+","isSelected":false,"count":1},{"code":"abido-b2930","name":"Abido","isSelected":false,"count":8},{"code":"al-fez-b632","name":"Al'fez","isSelected":false,"count":3},{"code":"artebianca-b107","name":"Artebianca","isSelected":false,"count":1},{"code":"aseel-b2057","name":"Aseel","isSelected":false,"count":2},{"code":"asian-home-gourmet-b1940","name":"Asian Home Gourmet","isSelected":false,"count":15},{"code":"asli-b1939","name":"Asli","isSelected":false,"count":1},{"code":"bandido-b993","name":"Bandido","isSelected":false,"count":3},{"code":"bich-chi-b1073","name":"Bich Chi","isSelected":false,"count":4},{"code":"bio-planet-b1910","name":"Bio Planet","isSelected":false,"count":4},{"code":"blue-dragon-b630","name":"Blue Dragon","isSelected":false,"count":11},{"code":"bragg-b1967","name":"Bragg","isSelected":false,"count":1},{"code":"canardie-b1082","name":"Canardie","isSelected":false,"count":1},{"code":"chao-tai-b1938","name":"Chao Tai","isSelected":false,"count":1},{"code":"chaokoh-b1912","name":"Chaokoh","isSelected":false,"count":3},{"code":"chio-b239","name":"Chio","isSelected":false,"count":1},{"code":"chunsi-b1960","name":"Chunsi","isSelected":false,"count":2},{"code":"city-aroma-b1949","name":"City Aroma","isSelected":false,"count":1},{"code":"darinne-b2922","name":"Darinne","isSelected":false,"count":17},{"code":"dary-natury-b1933","name":"Dary Natury","isSelected":false,"count":1},{"code":"desiam-b1074","name":"Desiam","isSelected":false,"count":5},{"code":"doritos-b1257","name":"Doritos","isSelected":false,"count":3},{"code":"eat-real-b1086","name":"Eat Real","isSelected":false,"count":1},{"code":"enso-b1075","name":"Enso","isSelected":false,"count":2},{"code":"farmer-b1929","name":"Farmer","isSelected":false,"count":2},{"code":"flying-goose-b658","name":"Flying Goose","isSelected":false,"count":4},{"code":"frank-s-redhot-b513","name":"Frank's RedHot","isSelected":false,"count":2},{"code":"go-tan-b2455","name":"Go-Tan","isSelected":false,"count":7},{"code":"gold-cup-b1905","name":"Gold Cup","isSelected":false,"count":1},{"code":"golden-phoenix-b1944","name":"Golden Phoenix","isSelected":false,"count":2},{"code":"golden-turtle-b1926","name":"Golden Turtle","isSelected":false,"count":4},{"code":"goong-b138","name":"Goong","isSelected":false,"count":2},{"code":"greenomic-b1848","name":"Greenomic","isSelected":false,"count":3},{"code":"h-s-b1932","name":"H&S","isSelected":false,"count":2},{"code":"healthy-boy-b1953","name":"Healthy Boy","isSelected":false,"count":3},{"code":"huy-fong-b648","name":"Huy Fong","isSelected":false,"count":3},{"code":"inovfruit-b3075","name":"Inovfruit","isSelected":false,"count":1},{"code":"jeeny-s-b1950","name":"Jeeny'S","isSelected":false,"count":1},{"code":"jhfoods-b1931","name":"Jhfoods","isSelected":false,"count":1},{"code":"kikkoman-b1956","name":"Kikkoman","isSelected":false,"count":4},{"code":"knorr-b123","name":"Knorr","isSelected":false,"count":6},{"code":"ktc-b1963","name":"Ktc","isSelected":false,"count":2},{"code":"la-fiesta-b2269","name":"La Fiesta","isSelected":false,"count":7},{"code":"labeyrie-b1631","name":"Labeyrie","isSelected":false,"count":2},{"code":"lee-kum-kee-b1964","name":"Lee Kum Kee","isSelected":false,"count":2},{"code":"lobo-b1909","name":"Lobo","isSelected":false,"count":3},{"code":"longevity-b1936","name":"Longevity","isSelected":false,"count":1},{"code":"lucien-georgelin-b2151","name":"Lucien Georgelin","isSelected":false,"count":5},{"code":"mae-pranom-b1947","name":"Mae Pranom","isSelected":false,"count":1},{"code":"maekrua-b1957","name":"Maekrua","isSelected":false,"count":2},{"code":"maxim-s-de-paris-b703","name":"Maxim's de Paris","isSelected":false,"count":4},{"code":"meiasia-b1961","name":"Meiasia","isSelected":false,"count":1},{"code":"mogu-mogu-b1914","name":"Mogu Mogu","isSelected":false,"count":2},{"code":"monika-b1959","name":"Monika","isSelected":false,"count":1},{"code":"nan-fen-zhuang-b1966","name":"Nan Fen Zhuang","isSelected":false,"count":1},{"code":"niavis-b191","name":"Niavis","isSelected":false,"count":2},{"code":"old-el-paso-b647","name":"Old El Paso","isSelected":false,"count":8},{"code":"oriental-b1935","name":"Oriental","isSelected":false,"count":1},{"code":"oyakata-b1072","name":"Oyakata","isSelected":false,"count":10},{"code":"oyster-brand-b1954","name":"Oyster Brand","isSelected":false,"count":1},{"code":"panealba-b106","name":"Panealba","isSelected":false,"count":9},{"code":"pasco-b1925","name":"Pasco","isSelected":false,"count":10},{"code":"patak-s-b631","name":"Patak's","isSelected":false,"count":3},{"code":"patesa-b2169","name":"Patesa","isSelected":false,"count":3},{"code":"philippine-brand-b1917","name":"Philippine Brand","isSelected":false,"count":1},{"code":"queen-taylor-colledge-b1968","name":"Queen - Taylor & Colledge","isSelected":false,"count":2},{"code":"renuka-b1928","name":"Renuka","isSelected":false,"count":2},{"code":"roberto-b104","name":"Roberto","isSelected":false,"count":6},{"code":"royal-tiger-b1945","name":"Royal Tiger","isSelected":false,"count":1},{"code":"s-b-b1948","name":"S&B","isSelected":false,"count":1},{"code":"sa-giang-b2845","name":"Sa Giang","isSelected":false,"count":3},{"code":"sabarot-b1085","name":"Sabarot","isSelected":false,"count":2},{"code":"saitaku-b994","name":"Saitaku","isSelected":false,"count":24},{"code":"salcis-b2152","name":"Salcis","isSelected":false,"count":3},{"code":"sebahat-b986","name":"Sebahat","isSelected":false,"count":5},{"code":"shan-shi-b189","name":"Shan Shi","isSelected":false,"count":29},{"code":"sin-a-b1920","name":"Sin A","isSelected":false,"count":4},{"code":"spring-happiness-b1922","name":"Spring Happiness","isSelected":false,"count":2},{"code":"squid-brand-b1955","name":"Squid Brand","isSelected":false,"count":1},{"code":"sukina-b1077","name":"Sukina","isSelected":false,"count":1},{"code":"sun-clad-b1943","name":"Sun Clad","isSelected":false,"count":2},{"code":"suntat-b980","name":"Suntat","isSelected":false,"count":13},{"code":"super-q-b1962","name":"Super Q","isSelected":false,"count":1},{"code":"tamanoi-b1946","name":"Tamanoi","isSelected":false,"count":1},{"code":"tentazioni-pugliesi-b105","name":"Tentazioni Pugliesi","isSelected":false,"count":3},{"code":"terrasana-b1913","name":"Terrasana","isSelected":false,"count":2},{"code":"thai-dancer-b1080","name":"Thai Dancer","isSelected":false,"count":9},{"code":"tiandu-b1927","name":"Tiandu","isSelected":false,"count":1},{"code":"trs-b1906","name":"Trs","isSelected":false,"count":17},{"code":"twin-elephants-and-earth-b1921","name":"Twin Elephants And Earth","isSelected":false,"count":3},{"code":"uncle-barn-s-b1076","name":"Uncle Barn's","isSelected":false,"count":3},{"code":"wai-wai-b1965","name":"Wai Wai","isSelected":false,"count":2},{"code":"wang-b1079","name":"Wang","isSelected":false,"count":1},{"code":"yuki-love-b1941","name":"Yuki & Love","isSelected":false,"count":6}]},{"code":"diet_lifestyle","name":"Dietă și lifestyle","countSelected":0,"values":[{"code":"eco-a83","name":"Eco","isSelected":false,"count":15},{"code":"fara-conservanti-a37","name":"Fara conservanti","isSelected":false,"count":44},{"code":"fara-gluten-a16","name":"Fara gluten","isSelected":false,"count":39},{"code":"fara-lactoza-a38","name":"Fara lactoza","isSelected":false,"count":2},{"code":"fara-zahar-adaugat-a29","name":"Fara zahar adaugat","isSelected":false,"count":6},{"code":"natural-a27","name":"Natural","isSelected":false,"count":1},{"code":"vegan-a24","name":"Vegan","isSelected":false,"count":19},{"code":"vegetarian-a28","name":"Vegetarian","isSelected":false,"count":11}]}]},"orderBy":[{"field":"price","direction":"asc","name":"Preț crescător","isSelected":false},{"field":"price","direction":"desc","name":"Preț descrescător","isSelected":false},{"field":"popularity","direction":"desc","name":"Cele mai populare","isSelected":true},{"field":"category","direction":"asc","name":"Categorie","isSelected":false}],"metaTitle":"Produse internaționale - Gamă variată","metaDescription":"Vrei Produse internaționale? Alege dintr-o gamă variată. Comanzi simplu și ai livrare rapidă, calitate și prospețime. Hai pe Freshful.ro","metaKeywords":null,"banners":[]}}