{"type":"subcategory","payload":{"analyticsListId":"category_100405-produse-din-italia","analyticsListName":"Category - Produse italienești","name":"Produse italienești","slug":"100405-produse-din-italia","image":null,"breadcrumbs":[{"code":"10","name":"Dietetic, ECO & internațional","slug":"10-dietetic-bio-si-international"},{"code":"1004","name":"Produse internaționale","slug":"1004-bucatarie-internationala"},{"code":"100405","name":"Produse italienești","slug":"100405-produse-din-italia"}],"slots":[],"page":1,"limit":10,"pages":3,"count":26,"siblings":[{"name":"Produse ecologice","slug":"1001-produse-ecologice","selected":false},{"name":"Produse dietetice și naturiste","slug":"1002-produse-dietetice-si-naturiste","selected":false},{"name":"Suplimente alimentare","slug":"1003-suplimente-alimentare","selected":false},{"name":"Produse internaționale","slug":"1004-bucatarie-internationala","selected":true}],"children":[{"name":"Toate produsele","slug":"1004-bucatarie-internationala","selected":false},{"name":"Produse asiatice","slug":"100401-produse-din-asia","selected":false},{"name":"Produse libaneze","slug":"100402-produse-libaneze","selected":false},{"name":"Produse mexicane","slug":"100403-produse-din-mexic","selected":false},{"name":"Produse franțuzești","slug":"100404-produse-din-franta","selected":false},{"name":"Produse italienești","slug":"100405-produse-din-italia","selected":true}],"products":[{"code":"100084021","variantCode":"8032804632080","name":"Taralli cu făină integrală 200g","slug":"100084021-tentazioni-pugliesi-taralli-cu-faina-integrala-200g","unitPriceLabel":"37,7 Lei/kg","brand":"Tentazioni Pugliesi","brandCode":"121","brandFilterCode":"tentazioni-pugliesi-b105","sku":"100084021","price":7.54,"originalPrice":null,"currencyCode":"RON","currency":"Lei","image":{"thumbnail":{"default":"https://cdn.freshful.ro/media/cache/sylius_shop_product_thumbnail/ee/4f/4d8012d55e196d479631a42094b9.jpg"},"large":{"default":"https://cdn.freshful.ro/media/cache/freshful_large/ee/4f/4d8012d55e196d479631a42094b9.jpg"},"extralarge":{"default":"https://cdn.freshful.ro/media/cache/sylius_shop_product_original/ee/4f/4d8012d55e196d479631a42094b9.jpg"}},"label":null,"tags":[],"isAvailable":true,"maxAvailableQuantity":14,"maxAllowedQuantity":100,"breadcrumbs":[{"code":"10","name":"Dietetic, ECO & internațional","slug":"10-dietetic-bio-si-international"},{"code":"1004","name":"Produse internaționale","slug":"1004-bucatarie-internationala"},{"code":"100405","name":"Produse italienești","slug":"100405-produse-din-italia"},{"code":"100084021","name":"Taralli cu făină integrală 200g","slug":"100084021-tentazioni-pugliesi-taralli-cu-faina-integrala-200g"}],"activePromotion":null,"saveMe":null,"labels":[],"geniusPrice":null,"geniusUnitPricePerLabel":null,"banner":null,"discountLabel":null,"geniusDiscountLabel":null,"badge":null},{"code":"100084025","variantCode":"8002333018839","name":"Crackers cu ulei de măsline 180g","slug":"100084025-panealba-crackers-cu-ulei-de-masline-180g","unitPriceLabel":"46,22 Lei/kg","brand":"Panealba","brandCode":"122","brandFilterCode":"panealba-b106","sku":"100084025","price":8.32,"originalPrice":null,"currencyCode":"RON","currency":"Lei","image":{"thumbnail":{"default":"https://cdn.freshful.ro/media/cache/sylius_shop_product_thumbnail/9c/ed/4edbf2f3ed1885232ea04a563d99.jpg"},"large":{"default":"https://cdn.freshful.ro/media/cache/freshful_large/9c/ed/4edbf2f3ed1885232ea04a563d99.jpg"},"extralarge":{"default":"https://cdn.freshful.ro/media/cache/sylius_shop_product_original/9c/ed/4edbf2f3ed1885232ea04a563d99.jpg"}},"label":null,"tags":[],"isAvailable":true,"maxAvailableQuantity":31,"maxAllowedQuantity":100,"breadcrumbs":[{"code":"10","name":"Dietetic, ECO & internațional","slug":"10-dietetic-bio-si-international"},{"code":"1004","name":"Produse internaționale","slug":"1004-bucatarie-internationala"},{"code":"100405","name":"Produse italienești","slug":"100405-produse-din-italia"},{"code":"100084025","name":"Crackers cu ulei de măsline 180g","slug":"100084025-panealba-crackers-cu-ulei-de-masline-180g"}],"activePromotion":null,"saveMe":null,"labels":[],"geniusPrice":null,"geniusUnitPricePerLabel":null,"banner":null,"discountLabel":null,"geniusDiscountLabel":null,"badge":null},{"code":"100084034","variantCode":"8002333007888","name":"Grisine cu ulei de măsline 250g","slug":"100084034-panealba-grisine-cu-ulei-de-masline-250g","unitPriceLabel":"36,56 Lei/kg","brand":"Panealba","brandCode":"122","brandFilterCode":"panealba-b106","sku":"100084034","price":9.14,"originalPrice":null,"currencyCode":"RON","currency":"Lei","image":{"thumbnail":{"default":"https://cdn.freshful.ro/media/cache/sylius_shop_product_thumbnail/93/df/4a98c03e4864ddeeda8949a9a35d.jpg"},"large":{"default":"https://cdn.freshful.ro/media/cache/freshful_large/93/df/4a98c03e4864ddeeda8949a9a35d.jpg"},"extralarge":{"default":"https://cdn.freshful.ro/media/cache/sylius_shop_product_original/93/df/4a98c03e4864ddeeda8949a9a35d.jpg"}},"label":null,"tags":[],"isAvailable":true,"maxAvailableQuantity":42,"maxAllowedQuantity":100,"breadcrumbs":[{"code":"10","name":"Dietetic, ECO & internațional","slug":"10-dietetic-bio-si-international"},{"code":"1004","name":"Produse internaționale","slug":"1004-bucatarie-internationala"},{"code":"100405","name":"Produse italienești","slug":"100405-produse-din-italia"},{"code":"100084034","name":"Grisine cu ulei de măsline 250g","slug":"100084034-panealba-grisine-cu-ulei-de-masline-250g"}],"activePromotion":null,"saveMe":null,"labels":[],"geniusPrice":null,"geniusUnitPricePerLabel":null,"banner":null,"discountLabel":null,"geniusDiscountLabel":null,"badge":null},{"code":"100084019","variantCode":"8032804631649","name":"Taralli gourmet cu ulei extravirgin de măsline 250g","slug":"100084019-tentazioni-pugliesi-taralli-gourmet-cu-ulei-extravirgin-de-masline-250g","unitPriceLabel":"35,24 Lei/kg","brand":"Tentazioni Pugliesi","brandCode":"121","brandFilterCode":"tentazioni-pugliesi-b105","sku":"100084019","price":8.81,"originalPrice":null,"currencyCode":"RON","currency":"Lei","image":{"thumbnail":{"default":"https://cdn.freshful.ro/media/cache/sylius_shop_product_thumbnail/26/93/5716836bd2e3dde7e9c7a457a463.jpg"},"large":{"default":"https://cdn.freshful.ro/media/cache/freshful_large/26/93/5716836bd2e3dde7e9c7a457a463.jpg"},"extralarge":{"default":"https://cdn.freshful.ro/media/cache/sylius_shop_product_original/26/93/5716836bd2e3dde7e9c7a457a463.jpg"}},"label":null,"tags":[],"isAvailable":true,"maxAvailableQuantity":54,"maxAllowedQuantity":100,"breadcrumbs":[{"code":"10","name":"Dietetic, ECO & internațional","slug":"10-dietetic-bio-si-international"},{"code":"1004","name":"Produse internaționale","slug":"1004-bucatarie-internationala"},{"code":"100405","name":"Produse italienești","slug":"100405-produse-din-italia"},{"code":"100084019","name":"Taralli gourmet cu ulei extravirgin de măsline 250g","slug":"100084019-tentazioni-pugliesi-taralli-gourmet-cu-ulei-extravirgin-de-masline-250g"}],"activePromotion":null,"saveMe":null,"labels":[],"geniusPrice":null,"geniusUnitPricePerLabel":null,"banner":null,"discountLabel":null,"geniusDiscountLabel":null,"badge":null},{"code":"100084032","variantCode":"8002333007918","name":"Crutoane cu roșii și busuioc 100g","slug":"100084032-panealba-crutoane-cu-rosii-si-busuioc-100g","unitPriceLabel":"74,8 Lei/kg","brand":"Panealba","brandCode":"122","brandFilterCode":"panealba-b106","sku":"100084032","price":7.48,"originalPrice":null,"currencyCode":"RON","currency":"Lei","image":{"thumbnail":{"default":"https://cdn.freshful.ro/media/cache/sylius_shop_product_thumbnail/5e/5f/7846f0ce793f6a52fe8d9745ec0b.jpg"},"large":{"default":"https://cdn.freshful.ro/media/cache/freshful_large/5e/5f/7846f0ce793f6a52fe8d9745ec0b.jpg"},"extralarge":{"default":"https://cdn.freshful.ro/media/cache/sylius_shop_product_original/5e/5f/7846f0ce793f6a52fe8d9745ec0b.jpg"}},"label":null,"tags":[],"isAvailable":true,"maxAvailableQuantity":15,"maxAllowedQuantity":100,"breadcrumbs":[{"code":"10","name":"Dietetic, ECO & internațional","slug":"10-dietetic-bio-si-international"},{"code":"1004","name":"Produse internaționale","slug":"1004-bucatarie-internationala"},{"code":"100405","name":"Produse italienești","slug":"100405-produse-din-italia"},{"code":"100084032","name":"Crutoane cu roșii și busuioc 100g","slug":"100084032-panealba-crutoane-cu-rosii-si-busuioc-100g"}],"activePromotion":null,"saveMe":null,"labels":[],"geniusPrice":null,"geniusUnitPricePerLabel":null,"banner":null,"discountLabel":null,"geniusDiscountLabel":null,"badge":null},{"code":"100084026","variantCode":"8002333018853","name":"Crackers cu măsline 180g","slug":"100084026-panealba-crackers-cu-masline-180g","unitPriceLabel":"46,22 Lei/kg","brand":"Panealba","brandCode":"122","brandFilterCode":"panealba-b106","sku":"100084026","price":8.32,"originalPrice":null,"currencyCode":"RON","currency":"Lei","image":{"thumbnail":{"default":"https://cdn.freshful.ro/media/cache/sylius_shop_product_thumbnail/9f/8a/6695caed3e406c9a8c0d6018bb1d.jpg"},"large":{"default":"https://cdn.freshful.ro/media/cache/freshful_large/9f/8a/6695caed3e406c9a8c0d6018bb1d.jpg"},"extralarge":{"default":"https://cdn.freshful.ro/media/cache/sylius_shop_product_original/9f/8a/6695caed3e406c9a8c0d6018bb1d.jpg"}},"label":null,"tags":[],"isAvailable":true,"maxAvailableQuantity":34,"maxAllowedQuantity":100,"breadcrumbs":[{"code":"10","name":"Dietetic, ECO & internațional","slug":"10-dietetic-bio-si-international"},{"code":"1004","name":"Produse internaționale","slug":"1004-bucatarie-internationala"},{"code":"100405","name":"Produse italienești","slug":"100405-produse-din-italia"},{"code":"100084026","name":"Crackers cu măsline 180g","slug":"100084026-panealba-crackers-cu-masline-180g"}],"activePromotion":null,"saveMe":null,"labels":[],"geniusPrice":null,"geniusUnitPricePerLabel":null,"banner":null,"discountLabel":null,"geniusDiscountLabel":null,"badge":null},{"code":"100084027","variantCode":"8002333018877","name":"Crackers cu rozmarin 180g","slug":"100084027-panealba-crackers-cu-rozmarin-180g","unitPriceLabel":"46,22 Lei/kg","brand":"Panealba","brandCode":"122","brandFilterCode":"panealba-b106","sku":"100084027","price":8.32,"originalPrice":null,"currencyCode":"RON","currency":"Lei","image":{"thumbnail":{"default":"https://cdn.freshful.ro/media/cache/sylius_shop_product_thumbnail/85/53/529576859f61cd5484663e58afe2.jpg"},"large":{"default":"https://cdn.freshful.ro/media/cache/freshful_large/85/53/529576859f61cd5484663e58afe2.jpg"},"extralarge":{"default":"https://cdn.freshful.ro/media/cache/sylius_shop_product_original/85/53/529576859f61cd5484663e58afe2.jpg"}},"label":null,"tags":[],"isAvailable":true,"maxAvailableQuantity":16,"maxAllowedQuantity":100,"breadcrumbs":[{"code":"10","name":"Dietetic, ECO & internațional","slug":"10-dietetic-bio-si-international"},{"code":"1004","name":"Produse internaționale","slug":"1004-bucatarie-internationala"},{"code":"100405","name":"Produse italienești","slug":"100405-produse-din-italia"},{"code":"100084027","name":"Crackers cu rozmarin 180g","slug":"100084027-panealba-crackers-cu-rozmarin-180g"}],"activePromotion":null,"saveMe":null,"labels":[],"geniusPrice":null,"geniusUnitPricePerLabel":null,"banner":null,"discountLabel":null,"geniusDiscountLabel":null,"badge":null},{"code":"100084011","variantCode":"8003490038708","name":"Grisine cu ulei de palmier și rozmarin 250g","slug":"100084011-roberto-grisine-cu-ulei-de-palmier-si-rozmarin-250g","unitPriceLabel":"67,96 Lei/kg","brand":"Roberto","brandCode":"120","brandFilterCode":"roberto-b104","sku":"100084011","price":16.99,"originalPrice":null,"currencyCode":"RON","currency":"Lei","image":{"thumbnail":{"default":"https://cdn.freshful.ro/media/cache/sylius_shop_product_thumbnail/50/22/b186634d65e51e0f8f7b12654529.jpg"},"large":{"default":"https://cdn.freshful.ro/media/cache/freshful_large/50/22/b186634d65e51e0f8f7b12654529.jpg"},"extralarge":{"default":"https://cdn.freshful.ro/media/cache/sylius_shop_product_original/50/22/b186634d65e51e0f8f7b12654529.jpg"}},"label":null,"tags":[],"isAvailable":true,"maxAvailableQuantity":13,"maxAllowedQuantity":100,"breadcrumbs":[{"code":"10","name":"Dietetic, ECO & internațional","slug":"10-dietetic-bio-si-international"},{"code":"1004","name":"Produse internaționale","slug":"1004-bucatarie-internationala"},{"code":"100405","name":"Produse italienești","slug":"100405-produse-din-italia"},{"code":"100084011","name":"Grisine cu ulei de palmier și rozmarin 250g","slug":"100084011-roberto-grisine-cu-ulei-de-palmier-si-rozmarin-250g"}],"activePromotion":null,"saveMe":null,"labels":[],"geniusPrice":null,"geniusUnitPricePerLabel":null,"banner":null,"discountLabel":null,"geniusDiscountLabel":null,"badge":null},{"code":"100084035","variantCode":"8002333007895","name":"Grisine cu susan 250g","slug":"100084035-panealba-grisine-cu-susan-250g","unitPriceLabel":"36,56 Lei/kg","brand":"Panealba","brandCode":"122","brandFilterCode":"panealba-b106","sku":"100084035","price":9.14,"originalPrice":null,"currencyCode":"RON","currency":"Lei","image":{"thumbnail":{"default":"https://cdn.freshful.ro/media/cache/sylius_shop_product_thumbnail/d8/eb/c8897b26dd4a621fa5457a905207.jpg"},"large":{"default":"https://cdn.freshful.ro/media/cache/freshful_large/d8/eb/c8897b26dd4a621fa5457a905207.jpg"},"extralarge":{"default":"https://cdn.freshful.ro/media/cache/sylius_shop_product_original/d8/eb/c8897b26dd4a621fa5457a905207.jpg"}},"label":null,"tags":[],"isAvailable":true,"maxAvailableQuantity":20,"maxAllowedQuantity":100,"breadcrumbs":[{"code":"10","name":"Dietetic, ECO & internațional","slug":"10-dietetic-bio-si-international"},{"code":"1004","name":"Produse internaționale","slug":"1004-bucatarie-internationala"},{"code":"100405","name":"Produse italienești","slug":"100405-produse-din-italia"},{"code":"100084035","name":"Grisine cu susan 250g","slug":"100084035-panealba-grisine-cu-susan-250g"}],"activePromotion":null,"saveMe":null,"labels":[],"geniusPrice":null,"geniusUnitPricePerLabel":null,"banner":null,"discountLabel":null,"geniusDiscountLabel":null,"badge":null},{"code":"100084028","variantCode":"8002333010161","name":"Grisine cu măsline negre Griss d'or 100g","slug":"100084028-panealba-grisine-cu-masline-negre-griss-d-or-100g","unitPriceLabel":"79,9 Lei/kg","brand":"Panealba","brandCode":"122","brandFilterCode":"panealba-b106","sku":"100084028","price":7.99,"originalPrice":null,"currencyCode":"RON","currency":"Lei","image":{"thumbnail":{"default":"https://cdn.freshful.ro/media/cache/sylius_shop_product_thumbnail/05/62/0932139c1339f9decd521bf1c74d.jpg"},"large":{"default":"https://cdn.freshful.ro/media/cache/freshful_large/05/62/0932139c1339f9decd521bf1c74d.jpg"},"extralarge":{"default":"https://cdn.freshful.ro/media/cache/sylius_shop_product_original/05/62/0932139c1339f9decd521bf1c74d.jpg"}},"label":null,"tags":[],"isAvailable":true,"maxAvailableQuantity":24,"maxAllowedQuantity":100,"breadcrumbs":[{"code":"10","name":"Dietetic, ECO & internațional","slug":"10-dietetic-bio-si-international"},{"code":"1004","name":"Produse internaționale","slug":"1004-bucatarie-internationala"},{"code":"100405","name":"Produse italienești","slug":"100405-produse-din-italia"},{"code":"100084028","name":"Grisine cu măsline negre Griss d'or 100g","slug":"100084028-panealba-grisine-cu-masline-negre-griss-d-or-100g"}],"activePromotion":null,"saveMe":null,"labels":[],"geniusPrice":null,"geniusUnitPricePerLabel":null,"banner":null,"discountLabel":null,"geniusDiscountLabel":null,"badge":null}],"filters":{"countSelected":0,"items":[{"code":"brand","name":"Brand","countSelected":0,"values":[{"code":"artebianca-b107","name":"Artebianca","isSelected":false,"count":1},{"code":"greenomic-b1848","name":"Greenomic","isSelected":false,"count":3},{"code":"knorr-b123","name":"Knorr","isSelected":false,"count":1},{"code":"panealba-b106","name":"Panealba","isSelected":false,"count":9},{"code":"roberto-b104","name":"Roberto","isSelected":false,"count":6},{"code":"salcis-b2152","name":"Salcis","isSelected":false,"count":3},{"code":"tentazioni-pugliesi-b105","name":"Tentazioni Pugliesi","isSelected":false,"count":3}]},{"code":"diet_lifestyle","name":"Dietă și lifestyle","countSelected":0,"values":[{"code":"fara-conservanti-a37","name":"Fara conservanti","isSelected":false,"count":1}]}]},"orderBy":[{"field":"price","direction":"asc","name":"Preț crescător","isSelected":false},{"field":"price","direction":"desc","name":"Preț descrescător","isSelected":false},{"field":"popularity","direction":"desc","name":"Cele mai populare","isSelected":true},{"field":"category","direction":"asc","name":"Categorie","isSelected":false}],"metaTitle":"Produse italienești - Gamă variată","metaDescription":"Vrei Produse italienești? Alege dintr-o gamă variată. Comanzi simplu și ai livrare rapidă, calitate și prospețime. Hai pe Freshful.ro","metaKeywords":null,"banners":[]}}