{"type":"subcategory","payload":{"analyticsListId":"category_101-paine","analyticsListName":"Category - Pâine","name":"Pâine","slug":"101-paine","image":null,"breadcrumbs":[{"code":"1","name":"Brutărie & patiserie","slug":"1-brutarie-si-patiserie"},{"code":"101","name":"Pâine","slug":"101-paine"}],"slots":[],"page":1,"limit":10,"pages":10,"count":98,"siblings":[{"name":"Pâine","slug":"101-paine","selected":true},{"name":"Patiserie","slug":"102-patiserie","selected":false}],"children":[{"name":"Toate produsele","slug":"101-paine","selected":true},{"name":"Pâine proaspătă din cuptor","slug":"10101-paine-proaspata-din-cuptor","selected":false},{"name":"Pâine artizanală","slug":"10102-paine-artizanala","selected":false},{"name":"Pâine clasică","slug":"10103-paine-clasica","selected":false},{"name":"Pâine feliată și toast","slug":"10104-paine-feliata-si-toast","selected":false},{"name":"Specialități","slug":"10105-specialitati","selected":false},{"name":"Pâine prăjită","slug":"10106-paine-prajita","selected":false}],"products":[{"code":"100087718","variantCode":"100087718","name":"Pâine toast alb 600g","slug":"100087718-kb-paine-toast-alb-600g","unitPriceLabel":"13,32 Lei/kg","brand":"KB","brandCode":"1490","brandFilterCode":"kb-b1494","sku":"100087718","price":7.99,"originalPrice":9.49,"currencyCode":"RON","currency":"Lei","image":{"thumbnail":{"default":"https://cdn.freshful.ro/media/cache/sylius_shop_product_thumbnail/57/9b/b58a9c1032c562d06ff6904a3acc.jpg"},"large":{"default":"https://cdn.freshful.ro/media/cache/freshful_large/57/9b/b58a9c1032c562d06ff6904a3acc.jpg"},"extralarge":{"default":"https://cdn.freshful.ro/media/cache/sylius_shop_product_original/57/9b/b58a9c1032c562d06ff6904a3acc.jpg"}},"label":{"text":"-15%","backgroundColor":"#FF9903","textColor":"#FFFFFF"},"tags":[{"type":"NoPreservatives","text":"Fara conservanti","icon":"https://cdn.freshful.ro/assets/product_tags/fara_conservanti.svg","iconPng":"https://cdn.freshful.ro/assets/product_tags/fara_conservanti.png","backgroundColor":"#F0F2FF","textColor":"#7889DD"},{"type":"MadeInRomania","text":"Made In Romania","icon":"https://cdn.freshful.ro/assets/product_tags/made_in_romania.svg","iconPng":"https://cdn.freshful.ro/assets/product_tags/made_in_romania.png","backgroundColor":"#EDF2FD","textColor":"#1653CA"}],"isAvailable":true,"maxAvailableQuantity":100,"maxAllowedQuantity":100,"breadcrumbs":[{"code":"1","name":"Brutărie & patiserie","slug":"1-brutarie-si-patiserie"},{"code":"101","name":"Pâine","slug":"101-paine"},{"code":"10104","name":"Pâine feliată și toast","slug":"10104-paine-feliata-si-toast"},{"code":"100087718","name":"Pâine toast alb 600g","slug":"100087718-kb-paine-toast-alb-600g"}],"activePromotion":{"code":"bunatatile-saptamanii-cw0923","name":"Preț redus","targetQuantity":null},"saveMe":null,"labels":[{"type":"v1","items":[{"text":"-15%","backgroundColor":"#FF9903","textColor":"#FFFFFF"}]}],"geniusPrice":null,"geniusUnitPricePerLabel":null,"banner":{"text":"Super preț","textColor":"#FF0000","bgColor":"#FFF2EC","icon":null,"link":"https://www.freshful.ro/oferte/bunatatile-saptamanii-cw0923","type":"promo","analyticsEventType":"select_promotion","analyticsEventPayload":{"promotion_id":"bunatatile-saptamanii-cw0923","promotion_name":"Oferta proaspătă a săptămânii"}},"discountLabel":"Economisești 15%","geniusDiscountLabel":null,"badge":null},{"code":"100136996","variantCode":"100136996","name":"Lipii din făină de grâu Wraps, 4 buc 245g","slug":"100136996-mission-lipii-din-faina-de-grau-wraps-4-buc-245g","unitPriceLabel":"27,31 Lei/kg","brand":"Mission","brandCode":"532","brandFilterCode":"mission-b533","sku":"100136996","price":6.69,"originalPrice":8.54,"currencyCode":"RON","currency":"Lei","image":{"thumbnail":{"default":"https://cdn.freshful.ro/media/cache/sylius_shop_product_thumbnail/b0/92/d2154bcb4c65615934351f914b6b.jpg"},"large":{"default":"https://cdn.freshful.ro/media/cache/freshful_large/b0/92/d2154bcb4c65615934351f914b6b.jpg"},"extralarge":{"default":"https://cdn.freshful.ro/media/cache/sylius_shop_product_original/b0/92/d2154bcb4c65615934351f914b6b.jpg"}},"label":{"text":"-21%","backgroundColor":"#FF9903","textColor":"#FFFFFF"},"tags":[],"isAvailable":true,"maxAvailableQuantity":100,"maxAllowedQuantity":100,"breadcrumbs":[{"code":"1","name":"Brutărie & patiserie","slug":"1-brutarie-si-patiserie"},{"code":"101","name":"Pâine","slug":"101-paine"},{"code":"10105","name":"Specialități","slug":"10105-specialitati"},{"code":"100136996","name":"Lipii din făină de grâu Wraps, 4 buc 245g","slug":"100136996-mission-lipii-din-faina-de-grau-wraps-4-buc-245g"}],"activePromotion":{"code":"bunatatile-saptamanii-cw0923","name":"Preț redus","targetQuantity":null},"saveMe":null,"labels":[{"type":"v1","items":[{"text":"-21%","backgroundColor":"#FF9903","textColor":"#FFFFFF"}]}],"geniusPrice":null,"geniusUnitPricePerLabel":null,"banner":{"text":"Super preț","textColor":"#FF0000","bgColor":"#FFF2EC","icon":null,"link":"https://www.freshful.ro/oferte/bunatatile-saptamanii-cw0923","type":"promo","analyticsEventType":"select_promotion","analyticsEventPayload":{"promotion_id":"bunatatile-saptamanii-cw0923","promotion_name":"Oferta proaspătă a săptămânii"}},"discountLabel":"Economisești 21%","geniusDiscountLabel":null,"badge":null},{"code":"100140407","variantCode":"100140407","name":"Pâine albă cu maia 500g","slug":"100140407-san-delicio-paine-alba-cu-maia-500g","unitPriceLabel":"11,98 Lei/kg","brand":"San Delicio","brandCode":"2681","brandFilterCode":"san-delicio-b2685","sku":"100140407","price":5.99,"originalPrice":7.49,"currencyCode":"RON","currency":"Lei","image":{"thumbnail":{"default":"https://cdn.freshful.ro/media/cache/sylius_shop_product_thumbnail/db/18/2d2b9a5e7a19f96a020fe4e2a713.jpg"},"large":{"default":"https://cdn.freshful.ro/media/cache/freshful_large/db/18/2d2b9a5e7a19f96a020fe4e2a713.jpg"},"extralarge":{"default":"https://cdn.freshful.ro/media/cache/sylius_shop_product_original/db/18/2d2b9a5e7a19f96a020fe4e2a713.jpg"}},"label":{"text":"-20%","backgroundColor":"#FF9903","textColor":"#FFFFFF"},"tags":[],"isAvailable":true,"maxAvailableQuantity":28,"maxAllowedQuantity":100,"breadcrumbs":[{"code":"1","name":"Brutărie & patiserie","slug":"1-brutarie-si-patiserie"},{"code":"101","name":"Pâine","slug":"101-paine"},{"code":"10102","name":"Pâine artizanală","slug":"10102-paine-artizanala"},{"code":"100140407","name":"Pâine albă cu maia 500g","slug":"100140407-san-delicio-paine-alba-cu-maia-500g"}],"activePromotion":{"code":"bunatatile-saptamanii-cw0923","name":"Preț redus","targetQuantity":null},"saveMe":null,"labels":[{"type":"v1","items":[{"text":"-20%","backgroundColor":"#FF9903","textColor":"#FFFFFF"}]}],"geniusPrice":null,"geniusUnitPricePerLabel":null,"banner":{"text":"Super preț","textColor":"#FF0000","bgColor":"#FFF2EC","icon":null,"link":"https://www.freshful.ro/oferte/bunatatile-saptamanii-cw0923","type":"promo","analyticsEventType":"select_promotion","analyticsEventPayload":{"promotion_id":"bunatatile-saptamanii-cw0923","promotion_name":"Oferta proaspătă a săptămânii"}},"discountLabel":"Economisești 20%","geniusDiscountLabel":null,"badge":null},{"code":"100144652","variantCode":"100144652","name":"Pâine albă cu maia 600g","slug":"100144652-campeneasca-paine-alba-cu-maia-600g","unitPriceLabel":"9,98 Lei/kg","brand":"Câmpeneasca","brandCode":"2814","brandFilterCode":"campeneasca-b2901","sku":"100144652","price":5.99,"originalPrice":7.49,"currencyCode":"RON","currency":"Lei","image":{"thumbnail":{"default":"https://cdn.freshful.ro/media/cache/sylius_shop_product_thumbnail/38/95/8471aea7bcc4aa2367d42d3d54a5.jpg"},"large":{"default":"https://cdn.freshful.ro/media/cache/freshful_large/38/95/8471aea7bcc4aa2367d42d3d54a5.jpg"},"extralarge":{"default":"https://cdn.freshful.ro/media/cache/sylius_shop_product_original/38/95/8471aea7bcc4aa2367d42d3d54a5.jpg"}},"label":{"text":"-20%","backgroundColor":"#FF9903","textColor":"#FFFFFF"},"tags":[],"isAvailable":true,"maxAvailableQuantity":26,"maxAllowedQuantity":100,"breadcrumbs":[{"code":"1","name":"Brutărie & patiserie","slug":"1-brutarie-si-patiserie"},{"code":"101","name":"Pâine","slug":"101-paine"},{"code":"10104","name":"Pâine feliată și toast","slug":"10104-paine-feliata-si-toast"},{"code":"100144652","name":"Pâine albă cu maia 600g","slug":"100144652-campeneasca-paine-alba-cu-maia-600g"}],"activePromotion":{"code":"bunatatile-saptamanii-cw0923","name":"Preț redus","targetQuantity":null},"saveMe":null,"labels":[{"type":"v1","items":[{"text":"-20%","backgroundColor":"#FF9903","textColor":"#FFFFFF"}]}],"geniusPrice":null,"geniusUnitPricePerLabel":null,"banner":{"text":"Super preț","textColor":"#FF0000","bgColor":"#FFF2EC","icon":null,"link":"https://www.freshful.ro/oferte/bunatatile-saptamanii-cw0923","type":"promo","analyticsEventType":"select_promotion","analyticsEventPayload":{"promotion_id":"bunatatile-saptamanii-cw0923","promotion_name":"Oferta proaspătă a săptămânii"}},"discountLabel":"Economisești 20%","geniusDiscountLabel":null,"badge":null},{"code":"100062517","variantCode":"100062517","name":" Chifle hot dog Classic 4x62.5g","slug":"100062517-schulstad-chifle-hot-dog-classic-4x62-5g","unitPriceLabel":"26,92 Lei/kg","brand":"Schulstad","brandCode":"439","brandFilterCode":"schulstad-b440","sku":"100062517","price":6.73,"originalPrice":null,"currencyCode":"RON","currency":"Lei","image":{"thumbnail":{"default":"https://cdn.freshful.ro/media/cache/sylius_shop_product_thumbnail/f8/ba/7e06832c62876d02307e6d3480d3.jpg"},"large":{"default":"https://cdn.freshful.ro/media/cache/freshful_large/f8/ba/7e06832c62876d02307e6d3480d3.jpg"},"extralarge":{"default":"https://cdn.freshful.ro/media/cache/sylius_shop_product_original/f8/ba/7e06832c62876d02307e6d3480d3.jpg"}},"label":{"text":"Profită acum","backgroundColor":"#FF9903","textColor":"#FFFFFF"},"tags":[],"isAvailable":true,"maxAvailableQuantity":100,"maxAllowedQuantity":100,"breadcrumbs":[{"code":"1","name":"Brutărie & patiserie","slug":"1-brutarie-si-patiserie"},{"code":"101","name":"Pâine","slug":"101-paine"},{"code":"10105","name":"Specialități","slug":"10105-specialitati"},{"code":"100062517","name":" Chifle hot dog Classic 4x62.5g","slug":"100062517-schulstad-chifle-hot-dog-classic-4x62-5g"}],"activePromotion":{"code":"freshful-top-deals-2023","name":"Preț avantajos","targetQuantity":null},"saveMe":null,"labels":[{"type":"v1","items":[{"text":"Profită acum","backgroundColor":"#FF9903","textColor":"#FFFFFF"}]}],"geniusPrice":null,"geniusUnitPricePerLabel":null,"banner":{"text":"Preț avantajos","textColor":"#F95510","bgColor":"#FEF1CD","icon":null,"link":"https://www.freshful.ro/oferte/freshful-top-deals-2023","type":"promo","analyticsEventType":"select_promotion","analyticsEventPayload":{"promotion_id":"freshful-top-deals-2023","promotion_name":"Profită de Top Deals"}},"discountLabel":null,"geniusDiscountLabel":null,"badge":null},{"code":"100138175","variantCode":"100138175","name":"Pâine albă 700g","slug":"100138175-boiereasca-paine-alba-700g","unitPriceLabel":"12,6 Lei/kg","brand":"Boierească","brandCode":"2636","brandFilterCode":"boiereasca-b2640","sku":"100138175","price":8.82,"originalPrice":null,"currencyCode":"RON","currency":"Lei","image":{"thumbnail":{"default":"https://cdn.freshful.ro/media/cache/sylius_shop_product_thumbnail/6e/58/ee7baf5cda9e559ec05ef850149e.jpg"},"large":{"default":"https://cdn.freshful.ro/media/cache/freshful_large/6e/58/ee7baf5cda9e559ec05ef850149e.jpg"},"extralarge":{"default":"https://cdn.freshful.ro/media/cache/sylius_shop_product_original/6e/58/ee7baf5cda9e559ec05ef850149e.jpg"}},"label":null,"tags":[{"type":"MadeInRomania","text":"Made In Romania","icon":"https://cdn.freshful.ro/assets/product_tags/made_in_romania.svg","iconPng":"https://cdn.freshful.ro/assets/product_tags/made_in_romania.png","backgroundColor":"#EDF2FD","textColor":"#1653CA"}],"isAvailable":true,"maxAvailableQuantity":100,"maxAllowedQuantity":100,"breadcrumbs":[{"code":"1","name":"Brutărie & patiserie","slug":"1-brutarie-si-patiserie"},{"code":"101","name":"Pâine","slug":"101-paine"},{"code":"10104","name":"Pâine feliată și toast","slug":"10104-paine-feliata-si-toast"},{"code":"100138175","name":"Pâine albă 700g","slug":"100138175-boiereasca-paine-alba-700g"}],"activePromotion":null,"saveMe":null,"labels":[],"geniusPrice":null,"geniusUnitPricePerLabel":null,"banner":null,"discountLabel":null,"geniusDiscountLabel":null,"badge":null},{"code":"100138176","variantCode":"100138176","name":"Pâine neagră 700g","slug":"100138176-boiereasca-paine-neagra-700g","unitPriceLabel":"12,84 Lei/kg","brand":"Boierească","brandCode":"2636","brandFilterCode":"boiereasca-b2640","sku":"100138176","price":8.99,"originalPrice":null,"currencyCode":"RON","currency":"Lei","image":{"thumbnail":{"default":"https://cdn.freshful.ro/media/cache/sylius_shop_product_thumbnail/ac/69/414e0a8eb32973f59be4380c9a7e.jpg"},"large":{"default":"https://cdn.freshful.ro/media/cache/freshful_large/ac/69/414e0a8eb32973f59be4380c9a7e.jpg"},"extralarge":{"default":"https://cdn.freshful.ro/media/cache/sylius_shop_product_original/ac/69/414e0a8eb32973f59be4380c9a7e.jpg"}},"label":null,"tags":[{"type":"MadeInRomania","text":"Made In Romania","icon":"https://cdn.freshful.ro/assets/product_tags/made_in_romania.svg","iconPng":"https://cdn.freshful.ro/assets/product_tags/made_in_romania.png","backgroundColor":"#EDF2FD","textColor":"#1653CA"}],"isAvailable":true,"maxAvailableQuantity":100,"maxAllowedQuantity":100,"breadcrumbs":[{"code":"1","name":"Brutărie & patiserie","slug":"1-brutarie-si-patiserie"},{"code":"101","name":"Pâine","slug":"101-paine"},{"code":"10104","name":"Pâine feliată și toast","slug":"10104-paine-feliata-si-toast"},{"code":"100138176","name":"Pâine neagră 700g","slug":"100138176-boiereasca-paine-neagra-700g"}],"activePromotion":null,"saveMe":null,"labels":[],"geniusPrice":null,"geniusUnitPricePerLabel":null,"banner":null,"discountLabel":null,"geniusDiscountLabel":null,"badge":null},{"code":"100143692","variantCode":"100143692","name":"Pâine 7 semințe, feliată 700g","slug":"100143692-vel-pitar-paine-7-seminte-feliata-700g","unitPriceLabel":"13,29 Lei/kg","brand":"Vel Pitar","brandCode":"2760","brandFilterCode":"vel-pitar-b2835","sku":"100143692","price":9.3,"originalPrice":null,"currencyCode":"RON","currency":"Lei","image":{"thumbnail":{"default":"https://cdn.freshful.ro/media/cache/sylius_shop_product_thumbnail/65/83/d76ce42cebd764f62f71699c46b0.jpg"},"large":{"default":"https://cdn.freshful.ro/media/cache/freshful_large/65/83/d76ce42cebd764f62f71699c46b0.jpg"},"extralarge":{"default":"https://cdn.freshful.ro/media/cache/sylius_shop_product_original/65/83/d76ce42cebd764f62f71699c46b0.jpg"}},"label":null,"tags":[],"isAvailable":true,"maxAvailableQuantity":55,"maxAllowedQuantity":100,"breadcrumbs":[{"code":"1","name":"Brutărie & patiserie","slug":"1-brutarie-si-patiserie"},{"code":"101","name":"Pâine","slug":"101-paine"},{"code":"10104","name":"Pâine feliată și toast","slug":"10104-paine-feliata-si-toast"},{"code":"100143692","name":"Pâine 7 semințe, feliată 700g","slug":"100143692-vel-pitar-paine-7-seminte-feliata-700g"}],"activePromotion":null,"saveMe":null,"labels":[],"geniusPrice":null,"geniusUnitPricePerLabel":null,"banner":null,"discountLabel":null,"geniusDiscountLabel":null,"badge":null},{"code":"100122899","variantCode":"100122899","name":"Pâine albă Pave cu maia 100% 400g","slug":"100122899-my-maia-by-freshful-paine-alba-pave-cu-maia-100-400g","unitPriceLabel":"24,37 Lei/kg","brand":"My Maia by Freshful","brandCode":"1694","brandFilterCode":"my-maia-by-freshful-b1698","sku":"100122899","price":9.99,"originalPrice":null,"currencyCode":"RON","currency":"Lei","image":{"thumbnail":{"default":"https://cdn.freshful.ro/media/cache/sylius_shop_product_thumbnail/94/72/78578756299f5c35f8c4cc890799.jpg"},"large":{"default":"https://cdn.freshful.ro/media/cache/freshful_large/94/72/78578756299f5c35f8c4cc890799.jpg"},"extralarge":{"default":"https://cdn.freshful.ro/media/cache/sylius_shop_product_original/94/72/78578756299f5c35f8c4cc890799.jpg"}},"label":null,"tags":[{"type":"BakedToday","text":"Copt astăzi","icon":"https://cdn.freshful.ro/assets/product_tags/baked_today.svg","iconPng":"https://cdn.freshful.ro/assets/product_tags/baked_today.png","backgroundColor":"#FFEFEB","textColor":"#FF6737"},{"type":"MadeInRomania","text":"Made In Romania","icon":"https://cdn.freshful.ro/assets/product_tags/made_in_romania.svg","iconPng":"https://cdn.freshful.ro/assets/product_tags/made_in_romania.png","backgroundColor":"#EDF2FD","textColor":"#1653CA"}],"isAvailable":true,"maxAvailableQuantity":53,"maxAllowedQuantity":100,"breadcrumbs":[{"code":"1","name":"Brutărie & patiserie","slug":"1-brutarie-si-patiserie"},{"code":"101","name":"Pâine","slug":"101-paine"},{"code":"10101","name":"Pâine proaspătă din cuptor","slug":"10101-paine-proaspata-din-cuptor"},{"code":"100122899","name":"Pâine albă Pave cu maia 100% 400g","slug":"100122899-my-maia-by-freshful-paine-alba-pave-cu-maia-100-400g"}],"activePromotion":null,"saveMe":null,"labels":[],"geniusPrice":null,"geniusUnitPricePerLabel":null,"banner":null,"discountLabel":null,"geniusDiscountLabel":null,"badge":null},{"code":"100087688","variantCode":"100087688","name":"Pâine cu cartofi feliată 750g","slug":"100087688-dioszegi-paine-cu-cartofi-feliata-750g","unitPriceLabel":"13,32 Lei/kg","brand":"Dioszegi","brandCode":"1498","brandFilterCode":"dioszegi-b1502","sku":"100087688","price":9.99,"originalPrice":null,"currencyCode":"RON","currency":"Lei","image":{"thumbnail":{"default":"https://cdn.freshful.ro/media/cache/sylius_shop_product_thumbnail/af/00/1cc573f2176029db7aea1d346f77.jpg"},"large":{"default":"https://cdn.freshful.ro/media/cache/freshful_large/af/00/1cc573f2176029db7aea1d346f77.jpg"},"extralarge":{"default":"https://cdn.freshful.ro/media/cache/sylius_shop_product_original/af/00/1cc573f2176029db7aea1d346f77.jpg"}},"label":{"text":"Mici producători","backgroundColor":"#7B61FF","textColor":"#FFFFFF"},"tags":[],"isAvailable":true,"maxAvailableQuantity":1,"maxAllowedQuantity":100,"breadcrumbs":[{"code":"1","name":"Brutărie & patiserie","slug":"1-brutarie-si-patiserie"},{"code":"101","name":"Pâine","slug":"101-paine"},{"code":"10104","name":"Pâine feliată și toast","slug":"10104-paine-feliata-si-toast"},{"code":"100087688","name":"Pâine cu cartofi feliată 750g","slug":"100087688-dioszegi-paine-cu-cartofi-feliata-750g"}],"activePromotion":null,"saveMe":null,"labels":[{"type":"v1","items":[{"text":"Mici producători","backgroundColor":"#7B61FF","textColor":"#FFFFFF"}]}],"geniusPrice":null,"geniusUnitPricePerLabel":null,"banner":null,"discountLabel":null,"geniusDiscountLabel":null,"badge":null}],"filters":{"countSelected":0,"items":[{"code":"promotion","name":"Promoții","countSelected":0,"values":[{"code":"bunatatile-saptamanii-cw0923","name":"Oferta proaspătă a săptămânii","isSelected":false,"count":5},{"code":"freshful-top-deals-2023","name":"Profită de Top Deals","isSelected":false,"count":1}]},{"code":"brand","name":"Brand","countSelected":0,"values":[{"code":"b-yond-b1863","name":"B.Yond","isSelected":false,"count":2},{"code":"balviten-b688","name":"Balviten","isSelected":false,"count":3},{"code":"boiereasca-b2640","name":"Boierească","isSelected":false,"count":5},{"code":"brutaria-mamapan-b510","name":"Brutaria Mamapan","isSelected":false,"count":1},{"code":"campeneasca-b2901","name":"Câmpeneasca","isSelected":false,"count":3},{"code":"cereal-bio-b684","name":"Céréal Bio","isSelected":false,"count":2},{"code":"dioszegi-b1502","name":"Dioszegi","isSelected":false,"count":5},{"code":"gerble-b1711","name":"Gerble","isSelected":false,"count":1},{"code":"grewe-b473","name":"Grewe","isSelected":false,"count":3},{"code":"kb-b1494","name":"KB","isSelected":false,"count":6},{"code":"land-leben-b725","name":"Land-Leben","isSelected":false,"count":3},{"code":"mission-b533","name":"Mission","isSelected":false,"count":3},{"code":"monviso-b2730","name":"Monviso","isSelected":false,"count":7},{"code":"mulino-bianco-b269","name":"Mulino Bianco","isSelected":false,"count":5},{"code":"my-maia-by-freshful-b1698","name":"My Maia by Freshful","isSelected":false,"count":6},{"code":"pain-plaisir-b3059","name":"Pain Plaisir","isSelected":false,"count":2},{"code":"panvivis-b2593","name":"Panvivis","isSelected":false,"count":2},{"code":"roberto-b104","name":"Roberto","isSelected":false,"count":8},{"code":"san-delicio-b2685","name":"San Delicio","isSelected":false,"count":12},{"code":"savoria-b509","name":"Savoria","isSelected":false,"count":4},{"code":"schulstad-b440","name":"Schulstad","isSelected":false,"count":4},{"code":"stela-franzela-b2681","name":"Stela Franzela","isSelected":false,"count":1},{"code":"vel-pitar-b2835","name":"Vel Pitar","isSelected":false,"count":5},{"code":"wasa-b270","name":"Wasa","isSelected":false,"count":5}]},{"code":"diet_lifestyle","name":"Dietă și lifestyle","countSelected":0,"values":[{"code":"copt-astazi-a87","name":"Copt astăzi","isSelected":false,"count":6},{"code":"eco-a83","name":"Eco","isSelected":false,"count":4},{"code":"fara-conservanti-a37","name":"Fara conservanti","isSelected":false,"count":18},{"code":"fara-e-uri-a84","name":"Fara E-uri","isSelected":false,"count":7},{"code":"fara-gluten-a16","name":"Fara gluten","isSelected":false,"count":7},{"code":"fara-lactoza-a38","name":"Fara lactoza","isSelected":false,"count":7},{"code":"made-in-romania-a85","name":"Made In Romania","isSelected":false,"count":21},{"code":"vegan-a24","name":"Vegan","isSelected":false,"count":11},{"code":"vegetarian-a28","name":"Vegetarian","isSelected":false,"count":1}]}]},"orderBy":[{"field":"price","direction":"asc","name":"Preț crescător","isSelected":false},{"field":"price","direction":"desc","name":"Preț descrescător","isSelected":false},{"field":"popularity","direction":"desc","name":"Cele mai populare","isSelected":true},{"field":"category","direction":"asc","name":"Categorie","isSelected":false}],"metaTitle":"Pâine - Gamă variată","metaDescription":"Vrei Pâine? Alege dintr-o gamă variată. Comanzi simplu și ai livrare rapidă, calitate și prospețime. Hai pe Freshful.ro","metaKeywords":null,"banners":[]}}