{"type":"subcategory","payload":{"analyticsListId":"category_10104-paine-feliata-si-toast","analyticsListName":"Category - Pâine feliată și toast","name":"Pâine feliată și toast","slug":"10104-paine-feliata-si-toast","image":null,"breadcrumbs":[{"code":"1","name":"Brutărie & patiserie","slug":"1-brutarie-si-patiserie"},{"code":"101","name":"Pâine","slug":"101-paine"},{"code":"10104","name":"Pâine feliată și toast","slug":"10104-paine-feliata-si-toast"}],"slots":[],"page":1,"limit":10,"pages":3,"count":30,"siblings":[{"name":"Pâine","slug":"101-paine","selected":true},{"name":"Patiserie","slug":"102-patiserie","selected":false}],"children":[{"name":"Toate produsele","slug":"101-paine","selected":false},{"name":"Pâine proaspătă din cuptor","slug":"10101-paine-proaspata-din-cuptor","selected":false},{"name":"Pâine artizanală","slug":"10102-paine-artizanala","selected":false},{"name":"Pâine clasică","slug":"10103-paine-clasica","selected":false},{"name":"Pâine feliată și toast","slug":"10104-paine-feliata-si-toast","selected":true},{"name":"Specialități","slug":"10105-specialitati","selected":false},{"name":"Pâine prăjită","slug":"10106-paine-prajita","selected":false}],"products":[{"code":"100087718","variantCode":"100087718","name":"Pâine toast alb 600g","slug":"100087718-kb-paine-toast-alb-600g","unitPriceLabel":"13,32 Lei/kg","brand":"KB","brandCode":"1490","brandFilterCode":"kb-b1494","sku":"100087718","price":7.99,"originalPrice":9.49,"currencyCode":"RON","currency":"Lei","image":{"thumbnail":{"default":"https://cdn.freshful.ro/media/cache/sylius_shop_product_thumbnail/57/9b/b58a9c1032c562d06ff6904a3acc.jpg"},"large":{"default":"https://cdn.freshful.ro/media/cache/freshful_large/57/9b/b58a9c1032c562d06ff6904a3acc.jpg"},"extralarge":{"default":"https://cdn.freshful.ro/media/cache/sylius_shop_product_original/57/9b/b58a9c1032c562d06ff6904a3acc.jpg"}},"label":{"text":"-15%","backgroundColor":"#FF9903","textColor":"#FFFFFF"},"tags":[{"type":"NoPreservatives","text":"Fara conservanti","icon":"https://cdn.freshful.ro/assets/product_tags/fara_conservanti.svg","iconPng":"https://cdn.freshful.ro/assets/product_tags/fara_conservanti.png","backgroundColor":"#F0F2FF","textColor":"#7889DD"},{"type":"MadeInRomania","text":"Made In Romania","icon":"https://cdn.freshful.ro/assets/product_tags/made_in_romania.svg","iconPng":"https://cdn.freshful.ro/assets/product_tags/made_in_romania.png","backgroundColor":"#EDF2FD","textColor":"#1653CA"}],"isAvailable":true,"maxAvailableQuantity":100,"maxAllowedQuantity":100,"breadcrumbs":[{"code":"1","name":"Brutărie & patiserie","slug":"1-brutarie-si-patiserie"},{"code":"101","name":"Pâine","slug":"101-paine"},{"code":"10104","name":"Pâine feliată și toast","slug":"10104-paine-feliata-si-toast"},{"code":"100087718","name":"Pâine toast alb 600g","slug":"100087718-kb-paine-toast-alb-600g"}],"activePromotion":{"code":"bunatatile-saptamanii-cw0923","name":"Preț redus","targetQuantity":null},"saveMe":null,"labels":[{"type":"v1","items":[{"text":"-15%","backgroundColor":"#FF9903","textColor":"#FFFFFF"}]}],"geniusPrice":null,"geniusUnitPricePerLabel":null,"banner":{"text":"Super preț","textColor":"#FF0000","bgColor":"#FFF2EC","icon":null,"link":"https://www.freshful.ro/oferte/bunatatile-saptamanii-cw0923","type":"promo","analyticsEventType":"select_promotion","analyticsEventPayload":{"promotion_id":"bunatatile-saptamanii-cw0923","promotion_name":"Oferta proaspătă a săptămânii"}},"discountLabel":"Economisești 15%","geniusDiscountLabel":null,"badge":null},{"code":"100144652","variantCode":"100144652","name":"Pâine albă cu maia 600g","slug":"100144652-campeneasca-paine-alba-cu-maia-600g","unitPriceLabel":"9,98 Lei/kg","brand":"Câmpeneasca","brandCode":"2814","brandFilterCode":"campeneasca-b2901","sku":"100144652","price":5.99,"originalPrice":7.49,"currencyCode":"RON","currency":"Lei","image":{"thumbnail":{"default":"https://cdn.freshful.ro/media/cache/sylius_shop_product_thumbnail/38/95/8471aea7bcc4aa2367d42d3d54a5.jpg"},"large":{"default":"https://cdn.freshful.ro/media/cache/freshful_large/38/95/8471aea7bcc4aa2367d42d3d54a5.jpg"},"extralarge":{"default":"https://cdn.freshful.ro/media/cache/sylius_shop_product_original/38/95/8471aea7bcc4aa2367d42d3d54a5.jpg"}},"label":{"text":"-20%","backgroundColor":"#FF9903","textColor":"#FFFFFF"},"tags":[],"isAvailable":true,"maxAvailableQuantity":26,"maxAllowedQuantity":100,"breadcrumbs":[{"code":"1","name":"Brutărie & patiserie","slug":"1-brutarie-si-patiserie"},{"code":"101","name":"Pâine","slug":"101-paine"},{"code":"10104","name":"Pâine feliată și toast","slug":"10104-paine-feliata-si-toast"},{"code":"100144652","name":"Pâine albă cu maia 600g","slug":"100144652-campeneasca-paine-alba-cu-maia-600g"}],"activePromotion":{"code":"bunatatile-saptamanii-cw0923","name":"Preț redus","targetQuantity":null},"saveMe":null,"labels":[{"type":"v1","items":[{"text":"-20%","backgroundColor":"#FF9903","textColor":"#FFFFFF"}]}],"geniusPrice":null,"geniusUnitPricePerLabel":null,"banner":{"text":"Super preț","textColor":"#FF0000","bgColor":"#FFF2EC","icon":null,"link":"https://www.freshful.ro/oferte/bunatatile-saptamanii-cw0923","type":"promo","analyticsEventType":"select_promotion","analyticsEventPayload":{"promotion_id":"bunatatile-saptamanii-cw0923","promotion_name":"Oferta proaspătă a săptămânii"}},"discountLabel":"Economisești 20%","geniusDiscountLabel":null,"badge":null},{"code":"100138175","variantCode":"100138175","name":"Pâine albă 700g","slug":"100138175-boiereasca-paine-alba-700g","unitPriceLabel":"12,6 Lei/kg","brand":"Boierească","brandCode":"2636","brandFilterCode":"boiereasca-b2640","sku":"100138175","price":8.82,"originalPrice":null,"currencyCode":"RON","currency":"Lei","image":{"thumbnail":{"default":"https://cdn.freshful.ro/media/cache/sylius_shop_product_thumbnail/6e/58/ee7baf5cda9e559ec05ef850149e.jpg"},"large":{"default":"https://cdn.freshful.ro/media/cache/freshful_large/6e/58/ee7baf5cda9e559ec05ef850149e.jpg"},"extralarge":{"default":"https://cdn.freshful.ro/media/cache/sylius_shop_product_original/6e/58/ee7baf5cda9e559ec05ef850149e.jpg"}},"label":null,"tags":[{"type":"MadeInRomania","text":"Made In Romania","icon":"https://cdn.freshful.ro/assets/product_tags/made_in_romania.svg","iconPng":"https://cdn.freshful.ro/assets/product_tags/made_in_romania.png","backgroundColor":"#EDF2FD","textColor":"#1653CA"}],"isAvailable":true,"maxAvailableQuantity":100,"maxAllowedQuantity":100,"breadcrumbs":[{"code":"1","name":"Brutărie & patiserie","slug":"1-brutarie-si-patiserie"},{"code":"101","name":"Pâine","slug":"101-paine"},{"code":"10104","name":"Pâine feliată și toast","slug":"10104-paine-feliata-si-toast"},{"code":"100138175","name":"Pâine albă 700g","slug":"100138175-boiereasca-paine-alba-700g"}],"activePromotion":null,"saveMe":null,"labels":[],"geniusPrice":null,"geniusUnitPricePerLabel":null,"banner":null,"discountLabel":null,"geniusDiscountLabel":null,"badge":null},{"code":"100138176","variantCode":"100138176","name":"Pâine neagră 700g","slug":"100138176-boiereasca-paine-neagra-700g","unitPriceLabel":"12,84 Lei/kg","brand":"Boierească","brandCode":"2636","brandFilterCode":"boiereasca-b2640","sku":"100138176","price":8.99,"originalPrice":null,"currencyCode":"RON","currency":"Lei","image":{"thumbnail":{"default":"https://cdn.freshful.ro/media/cache/sylius_shop_product_thumbnail/ac/69/414e0a8eb32973f59be4380c9a7e.jpg"},"large":{"default":"https://cdn.freshful.ro/media/cache/freshful_large/ac/69/414e0a8eb32973f59be4380c9a7e.jpg"},"extralarge":{"default":"https://cdn.freshful.ro/media/cache/sylius_shop_product_original/ac/69/414e0a8eb32973f59be4380c9a7e.jpg"}},"label":null,"tags":[{"type":"MadeInRomania","text":"Made In Romania","icon":"https://cdn.freshful.ro/assets/product_tags/made_in_romania.svg","iconPng":"https://cdn.freshful.ro/assets/product_tags/made_in_romania.png","backgroundColor":"#EDF2FD","textColor":"#1653CA"}],"isAvailable":true,"maxAvailableQuantity":100,"maxAllowedQuantity":100,"breadcrumbs":[{"code":"1","name":"Brutărie & patiserie","slug":"1-brutarie-si-patiserie"},{"code":"101","name":"Pâine","slug":"101-paine"},{"code":"10104","name":"Pâine feliată și toast","slug":"10104-paine-feliata-si-toast"},{"code":"100138176","name":"Pâine neagră 700g","slug":"100138176-boiereasca-paine-neagra-700g"}],"activePromotion":null,"saveMe":null,"labels":[],"geniusPrice":null,"geniusUnitPricePerLabel":null,"banner":null,"discountLabel":null,"geniusDiscountLabel":null,"badge":null},{"code":"100143692","variantCode":"100143692","name":"Pâine 7 semințe, feliată 700g","slug":"100143692-vel-pitar-paine-7-seminte-feliata-700g","unitPriceLabel":"13,29 Lei/kg","brand":"Vel Pitar","brandCode":"2760","brandFilterCode":"vel-pitar-b2835","sku":"100143692","price":9.3,"originalPrice":null,"currencyCode":"RON","currency":"Lei","image":{"thumbnail":{"default":"https://cdn.freshful.ro/media/cache/sylius_shop_product_thumbnail/65/83/d76ce42cebd764f62f71699c46b0.jpg"},"large":{"default":"https://cdn.freshful.ro/media/cache/freshful_large/65/83/d76ce42cebd764f62f71699c46b0.jpg"},"extralarge":{"default":"https://cdn.freshful.ro/media/cache/sylius_shop_product_original/65/83/d76ce42cebd764f62f71699c46b0.jpg"}},"label":null,"tags":[],"isAvailable":true,"maxAvailableQuantity":55,"maxAllowedQuantity":100,"breadcrumbs":[{"code":"1","name":"Brutărie & patiserie","slug":"1-brutarie-si-patiserie"},{"code":"101","name":"Pâine","slug":"101-paine"},{"code":"10104","name":"Pâine feliată și toast","slug":"10104-paine-feliata-si-toast"},{"code":"100143692","name":"Pâine 7 semințe, feliată 700g","slug":"100143692-vel-pitar-paine-7-seminte-feliata-700g"}],"activePromotion":null,"saveMe":null,"labels":[],"geniusPrice":null,"geniusUnitPricePerLabel":null,"banner":null,"discountLabel":null,"geniusDiscountLabel":null,"badge":null},{"code":"100087688","variantCode":"100087688","name":"Pâine cu cartofi feliată 750g","slug":"100087688-dioszegi-paine-cu-cartofi-feliata-750g","unitPriceLabel":"13,32 Lei/kg","brand":"Dioszegi","brandCode":"1498","brandFilterCode":"dioszegi-b1502","sku":"100087688","price":9.99,"originalPrice":null,"currencyCode":"RON","currency":"Lei","image":{"thumbnail":{"default":"https://cdn.freshful.ro/media/cache/sylius_shop_product_thumbnail/af/00/1cc573f2176029db7aea1d346f77.jpg"},"large":{"default":"https://cdn.freshful.ro/media/cache/freshful_large/af/00/1cc573f2176029db7aea1d346f77.jpg"},"extralarge":{"default":"https://cdn.freshful.ro/media/cache/sylius_shop_product_original/af/00/1cc573f2176029db7aea1d346f77.jpg"}},"label":{"text":"Mici producători","backgroundColor":"#7B61FF","textColor":"#FFFFFF"},"tags":[],"isAvailable":true,"maxAvailableQuantity":1,"maxAllowedQuantity":100,"breadcrumbs":[{"code":"1","name":"Brutărie & patiserie","slug":"1-brutarie-si-patiserie"},{"code":"101","name":"Pâine","slug":"101-paine"},{"code":"10104","name":"Pâine feliată și toast","slug":"10104-paine-feliata-si-toast"},{"code":"100087688","name":"Pâine cu cartofi feliată 750g","slug":"100087688-dioszegi-paine-cu-cartofi-feliata-750g"}],"activePromotion":null,"saveMe":null,"labels":[{"type":"v1","items":[{"text":"Mici producători","backgroundColor":"#7B61FF","textColor":"#FFFFFF"}]}],"geniusPrice":null,"geniusUnitPricePerLabel":null,"banner":null,"discountLabel":null,"geniusDiscountLabel":null,"badge":null},{"code":"100143691","variantCode":"100143691","name":"Pâine Grâu Întreg 500g","slug":"100143691-vel-pitar-paine-grau-intreg-500g","unitPriceLabel":"10,8 Lei/kg","brand":"Vel Pitar","brandCode":"2760","brandFilterCode":"vel-pitar-b2835","sku":"100143691","price":5.4,"originalPrice":null,"currencyCode":"RON","currency":"Lei","image":{"thumbnail":{"default":"https://cdn.freshful.ro/media/cache/sylius_shop_product_thumbnail/cf/09/5c0b43ec2ea3ab40bceef831ecc1.jpg"},"large":{"default":"https://cdn.freshful.ro/media/cache/freshful_large/cf/09/5c0b43ec2ea3ab40bceef831ecc1.jpg"},"extralarge":{"default":"https://cdn.freshful.ro/media/cache/sylius_shop_product_original/cf/09/5c0b43ec2ea3ab40bceef831ecc1.jpg"}},"label":null,"tags":[{"type":"NoE","text":"Fara E-uri","icon":"https://cdn.freshful.ro/assets/product_tags/fara_euri.svg","iconPng":"https://cdn.freshful.ro/assets/product_tags/fara_euri.png","backgroundColor":"#FCF5DF","textColor":"#CAA316"},{"type":"MadeInRomania","text":"Made In Romania","icon":"https://cdn.freshful.ro/assets/product_tags/made_in_romania.svg","iconPng":"https://cdn.freshful.ro/assets/product_tags/made_in_romania.png","backgroundColor":"#EDF2FD","textColor":"#1653CA"},{"type":"NoPreservatives","text":"Fara conservanti","icon":"https://cdn.freshful.ro/assets/product_tags/fara_conservanti.svg","iconPng":"https://cdn.freshful.ro/assets/product_tags/fara_conservanti.png","backgroundColor":"#F0F2FF","textColor":"#7889DD"}],"isAvailable":true,"maxAvailableQuantity":13,"maxAllowedQuantity":100,"breadcrumbs":[{"code":"1","name":"Brutărie & patiserie","slug":"1-brutarie-si-patiserie"},{"code":"101","name":"Pâine","slug":"101-paine"},{"code":"10104","name":"Pâine feliată și toast","slug":"10104-paine-feliata-si-toast"},{"code":"100143691","name":"Pâine Grâu Întreg 500g","slug":"100143691-vel-pitar-paine-grau-intreg-500g"}],"activePromotion":null,"saveMe":null,"labels":[],"geniusPrice":null,"geniusUnitPricePerLabel":null,"banner":null,"discountLabel":null,"geniusDiscountLabel":null,"badge":null},{"code":"100087731","variantCode":"100087731","name":"Pâine toast miez alb 300g","slug":"100087731-kb-paine-toast-miez-alb-300g","unitPriceLabel":"25,6 Lei/kg","brand":"KB","brandCode":"1490","brandFilterCode":"kb-b1494","sku":"100087731","price":7.68,"originalPrice":null,"currencyCode":"RON","currency":"Lei","image":{"thumbnail":{"default":"https://cdn.freshful.ro/media/cache/sylius_shop_product_thumbnail/d7/94/70fe674027e5d995052bc905b6b0.jpg"},"large":{"default":"https://cdn.freshful.ro/media/cache/freshful_large/d7/94/70fe674027e5d995052bc905b6b0.jpg"},"extralarge":{"default":"https://cdn.freshful.ro/media/cache/sylius_shop_product_original/d7/94/70fe674027e5d995052bc905b6b0.jpg"}},"label":null,"tags":[{"type":"MadeInRomania","text":"Made In Romania","icon":"https://cdn.freshful.ro/assets/product_tags/made_in_romania.svg","iconPng":"https://cdn.freshful.ro/assets/product_tags/made_in_romania.png","backgroundColor":"#EDF2FD","textColor":"#1653CA"},{"type":"NoPreservatives","text":"Fara conservanti","icon":"https://cdn.freshful.ro/assets/product_tags/fara_conservanti.svg","iconPng":"https://cdn.freshful.ro/assets/product_tags/fara_conservanti.png","backgroundColor":"#F0F2FF","textColor":"#7889DD"}],"isAvailable":true,"maxAvailableQuantity":100,"maxAllowedQuantity":100,"breadcrumbs":[{"code":"1","name":"Brutărie & patiserie","slug":"1-brutarie-si-patiserie"},{"code":"101","name":"Pâine","slug":"101-paine"},{"code":"10104","name":"Pâine feliată și toast","slug":"10104-paine-feliata-si-toast"},{"code":"100087731","name":"Pâine toast miez alb 300g","slug":"100087731-kb-paine-toast-miez-alb-300g"}],"activePromotion":null,"saveMe":null,"labels":[],"geniusPrice":null,"geniusUnitPricePerLabel":null,"banner":null,"discountLabel":null,"geniusDiscountLabel":null,"badge":null},{"code":"100087734","variantCode":"100087734","name":"Pâine toast integral 600g","slug":"100087734-kb-paine-toast-integral-600g","unitPriceLabel":"16,65 Lei/kg","brand":"KB","brandCode":"1490","brandFilterCode":"kb-b1494","sku":"100087734","price":9.99,"originalPrice":null,"currencyCode":"RON","currency":"Lei","image":{"thumbnail":{"default":"https://cdn.freshful.ro/media/cache/sylius_shop_product_thumbnail/92/27/a2683f31c6689b70887a90b8692a.jpg"},"large":{"default":"https://cdn.freshful.ro/media/cache/freshful_large/92/27/a2683f31c6689b70887a90b8692a.jpg"},"extralarge":{"default":"https://cdn.freshful.ro/media/cache/sylius_shop_product_original/92/27/a2683f31c6689b70887a90b8692a.jpg"}},"label":null,"tags":[{"type":"MadeInRomania","text":"Made In Romania","icon":"https://cdn.freshful.ro/assets/product_tags/made_in_romania.svg","iconPng":"https://cdn.freshful.ro/assets/product_tags/made_in_romania.png","backgroundColor":"#EDF2FD","textColor":"#1653CA"},{"type":"NoPreservatives","text":"Fara conservanti","icon":"https://cdn.freshful.ro/assets/product_tags/fara_conservanti.svg","iconPng":"https://cdn.freshful.ro/assets/product_tags/fara_conservanti.png","backgroundColor":"#F0F2FF","textColor":"#7889DD"}],"isAvailable":true,"maxAvailableQuantity":100,"maxAllowedQuantity":100,"breadcrumbs":[{"code":"1","name":"Brutărie & patiserie","slug":"1-brutarie-si-patiserie"},{"code":"101","name":"Pâine","slug":"101-paine"},{"code":"10104","name":"Pâine feliată și toast","slug":"10104-paine-feliata-si-toast"},{"code":"100087734","name":"Pâine toast integral 600g","slug":"100087734-kb-paine-toast-integral-600g"}],"activePromotion":null,"saveMe":null,"labels":[],"geniusPrice":null,"geniusUnitPricePerLabel":null,"banner":null,"discountLabel":null,"geniusDiscountLabel":null,"badge":null},{"code":"100140010","variantCode":"100140010","name":"Pâine cu secară și maia 700g","slug":"100140010-boiereasca-paine-cu-secara-si-maia-700g","unitPriceLabel":"12,66 Lei/kg","brand":"Boierească","brandCode":"2636","brandFilterCode":"boiereasca-b2640","sku":"100140010","price":8.99,"originalPrice":null,"currencyCode":"RON","currency":"Lei","image":{"thumbnail":{"default":"https://cdn.freshful.ro/media/cache/sylius_shop_product_thumbnail/bd/96/c377763be5819b90118a662dee79.jpg"},"large":{"default":"https://cdn.freshful.ro/media/cache/freshful_large/bd/96/c377763be5819b90118a662dee79.jpg"},"extralarge":{"default":"https://cdn.freshful.ro/media/cache/sylius_shop_product_original/bd/96/c377763be5819b90118a662dee79.jpg"}},"label":null,"tags":[],"isAvailable":true,"maxAvailableQuantity":100,"maxAllowedQuantity":100,"breadcrumbs":[{"code":"1","name":"Brutărie & patiserie","slug":"1-brutarie-si-patiserie"},{"code":"101","name":"Pâine","slug":"101-paine"},{"code":"10104","name":"Pâine feliată și toast","slug":"10104-paine-feliata-si-toast"},{"code":"100140010","name":"Pâine cu secară și maia 700g","slug":"100140010-boiereasca-paine-cu-secara-si-maia-700g"}],"activePromotion":null,"saveMe":null,"labels":[],"geniusPrice":null,"geniusUnitPricePerLabel":null,"banner":null,"discountLabel":null,"geniusDiscountLabel":null,"badge":null}],"filters":{"countSelected":0,"items":[{"code":"promotion","name":"Promoții","countSelected":0,"values":[{"code":"bunatatile-saptamanii-cw0923","name":"Oferta proaspătă a săptămânii","isSelected":false,"count":2}]},{"code":"brand","name":"Brand","countSelected":0,"values":[{"code":"boiereasca-b2640","name":"Boierească","isSelected":false,"count":5},{"code":"brutaria-mamapan-b510","name":"Brutaria Mamapan","isSelected":false,"count":1},{"code":"campeneasca-b2901","name":"Câmpeneasca","isSelected":false,"count":3},{"code":"dioszegi-b1502","name":"Dioszegi","isSelected":false,"count":2},{"code":"grewe-b473","name":"Grewe","isSelected":false,"count":3},{"code":"kb-b1494","name":"KB","isSelected":false,"count":6},{"code":"roberto-b104","name":"Roberto","isSelected":false,"count":1},{"code":"savoria-b509","name":"Savoria","isSelected":false,"count":4},{"code":"vel-pitar-b2835","name":"Vel Pitar","isSelected":false,"count":5}]},{"code":"diet_lifestyle","name":"Dietă și lifestyle","countSelected":0,"values":[{"code":"eco-a83","name":"Eco","isSelected":false,"count":1},{"code":"fara-conservanti-a37","name":"Fara conservanti","isSelected":false,"count":12},{"code":"fara-e-uri-a84","name":"Fara E-uri","isSelected":false,"count":6},{"code":"made-in-romania-a85","name":"Made In Romania","isSelected":false,"count":12}]}]},"orderBy":[{"field":"price","direction":"asc","name":"Preț crescător","isSelected":false},{"field":"price","direction":"desc","name":"Preț descrescător","isSelected":false},{"field":"popularity","direction":"desc","name":"Cele mai populare","isSelected":true},{"field":"category","direction":"asc","name":"Categorie","isSelected":false}],"metaTitle":"Pâine feliată și toast - Gamă variată","metaDescription":"Vrei Pâine feliată și toast? Alege dintr-o gamă variată. Comanzi simplu și ai livrare rapidă, calitate și prospețime. Hai pe Freshful.ro","metaKeywords":null,"banners":[]}}