{"type":"subcategory","payload":{"analyticsListId":"category_10105-specialitati","analyticsListName":"Category - Specialități","name":"Specialități","slug":"10105-specialitati","image":null,"breadcrumbs":[{"code":"1","name":"Brutărie & patiserie","slug":"1-brutarie-si-patiserie"},{"code":"101","name":"Pâine","slug":"101-paine"},{"code":"10105","name":"Specialități","slug":"10105-specialitati"}],"slots":[],"page":1,"limit":10,"pages":3,"count":21,"siblings":[{"name":"Pâine","slug":"101-paine","selected":true},{"name":"Patiserie","slug":"102-patiserie","selected":false}],"children":[{"name":"Toate produsele","slug":"101-paine","selected":false},{"name":"Pâine proaspătă din cuptor","slug":"10101-paine-proaspata-din-cuptor","selected":false},{"name":"Pâine artizanală","slug":"10102-paine-artizanala","selected":false},{"name":"Pâine clasică","slug":"10103-paine-clasica","selected":false},{"name":"Pâine feliată și toast","slug":"10104-paine-feliata-si-toast","selected":false},{"name":"Specialități","slug":"10105-specialitati","selected":true},{"name":"Pâine prăjită","slug":"10106-paine-prajita","selected":false}],"products":[{"code":"100136996","variantCode":"100136996","name":"Lipii din făină de grâu Wraps, 4 buc 245g","slug":"100136996-mission-lipii-din-faina-de-grau-wraps-4-buc-245g","unitPriceLabel":"27,31 Lei/kg","brand":"Mission","brandCode":"532","brandFilterCode":"mission-b533","sku":"100136996","price":6.69,"originalPrice":8.54,"currencyCode":"RON","currency":"Lei","image":{"thumbnail":{"default":"https://cdn.freshful.ro/media/cache/sylius_shop_product_thumbnail/b0/92/d2154bcb4c65615934351f914b6b.jpg"},"large":{"default":"https://cdn.freshful.ro/media/cache/freshful_large/b0/92/d2154bcb4c65615934351f914b6b.jpg"},"extralarge":{"default":"https://cdn.freshful.ro/media/cache/sylius_shop_product_original/b0/92/d2154bcb4c65615934351f914b6b.jpg"}},"label":{"text":"-21%","backgroundColor":"#FF9903","textColor":"#FFFFFF"},"tags":[],"isAvailable":true,"maxAvailableQuantity":100,"maxAllowedQuantity":100,"breadcrumbs":[{"code":"1","name":"Brutărie & patiserie","slug":"1-brutarie-si-patiserie"},{"code":"101","name":"Pâine","slug":"101-paine"},{"code":"10105","name":"Specialități","slug":"10105-specialitati"},{"code":"100136996","name":"Lipii din făină de grâu Wraps, 4 buc 245g","slug":"100136996-mission-lipii-din-faina-de-grau-wraps-4-buc-245g"}],"activePromotion":{"code":"bunatatile-saptamanii-cw0923","name":"Preț redus","targetQuantity":null},"saveMe":null,"labels":[{"type":"v1","items":[{"text":"-21%","backgroundColor":"#FF9903","textColor":"#FFFFFF"}]}],"geniusPrice":null,"geniusUnitPricePerLabel":null,"banner":{"text":"Super preț","textColor":"#FF0000","bgColor":"#FFF2EC","icon":null,"link":"https://www.freshful.ro/oferte/bunatatile-saptamanii-cw0923","type":"promo","analyticsEventType":"select_promotion","analyticsEventPayload":{"promotion_id":"bunatatile-saptamanii-cw0923","promotion_name":"Oferta proaspătă a săptămânii"}},"discountLabel":"Economisești 21%","geniusDiscountLabel":null,"badge":null},{"code":"100062517","variantCode":"100062517","name":" Chifle hot dog Classic 4x62.5g","slug":"100062517-schulstad-chifle-hot-dog-classic-4x62-5g","unitPriceLabel":"26,92 Lei/kg","brand":"Schulstad","brandCode":"439","brandFilterCode":"schulstad-b440","sku":"100062517","price":6.73,"originalPrice":null,"currencyCode":"RON","currency":"Lei","image":{"thumbnail":{"default":"https://cdn.freshful.ro/media/cache/sylius_shop_product_thumbnail/f8/ba/7e06832c62876d02307e6d3480d3.jpg"},"large":{"default":"https://cdn.freshful.ro/media/cache/freshful_large/f8/ba/7e06832c62876d02307e6d3480d3.jpg"},"extralarge":{"default":"https://cdn.freshful.ro/media/cache/sylius_shop_product_original/f8/ba/7e06832c62876d02307e6d3480d3.jpg"}},"label":{"text":"Profită acum","backgroundColor":"#FF9903","textColor":"#FFFFFF"},"tags":[],"isAvailable":true,"maxAvailableQuantity":100,"maxAllowedQuantity":100,"breadcrumbs":[{"code":"1","name":"Brutărie & patiserie","slug":"1-brutarie-si-patiserie"},{"code":"101","name":"Pâine","slug":"101-paine"},{"code":"10105","name":"Specialități","slug":"10105-specialitati"},{"code":"100062517","name":" Chifle hot dog Classic 4x62.5g","slug":"100062517-schulstad-chifle-hot-dog-classic-4x62-5g"}],"activePromotion":{"code":"freshful-top-deals-2023","name":"Preț avantajos","targetQuantity":null},"saveMe":null,"labels":[{"type":"v1","items":[{"text":"Profită acum","backgroundColor":"#FF9903","textColor":"#FFFFFF"}]}],"geniusPrice":null,"geniusUnitPricePerLabel":null,"banner":{"text":"Preț avantajos","textColor":"#F95510","bgColor":"#FEF1CD","icon":null,"link":"https://www.freshful.ro/oferte/freshful-top-deals-2023","type":"promo","analyticsEventType":"select_promotion","analyticsEventPayload":{"promotion_id":"freshful-top-deals-2023","promotion_name":"Profită de Top Deals"}},"discountLabel":null,"geniusDiscountLabel":null,"badge":null},{"code":"100121829","variantCode":"100121829","name":"Piadină cu ulei extravirgin de măsline 330g","slug":"100121829-roberto-piadina-cu-ulei-extravirgin-de-masline-330g","unitPriceLabel":"26,23 Lei/kg","brand":"Roberto","brandCode":"120","brandFilterCode":"roberto-b104","sku":"100121829","price":10.49,"originalPrice":null,"currencyCode":"RON","currency":"Lei","image":{"thumbnail":{"default":"https://cdn.freshful.ro/media/cache/sylius_shop_product_thumbnail/f8/d0/3895d3dd28b99e51aec94ca8ca3f.jpg"},"large":{"default":"https://cdn.freshful.ro/media/cache/freshful_large/f8/d0/3895d3dd28b99e51aec94ca8ca3f.jpg"},"extralarge":{"default":"https://cdn.freshful.ro/media/cache/sylius_shop_product_original/f8/d0/3895d3dd28b99e51aec94ca8ca3f.jpg"}},"label":null,"tags":[],"isAvailable":true,"maxAvailableQuantity":100,"maxAllowedQuantity":100,"breadcrumbs":[{"code":"1","name":"Brutărie & patiserie","slug":"1-brutarie-si-patiserie"},{"code":"101","name":"Pâine","slug":"101-paine"},{"code":"10105","name":"Specialități","slug":"10105-specialitati"},{"code":"100121829","name":"Piadină cu ulei extravirgin de măsline 330g","slug":"100121829-roberto-piadina-cu-ulei-extravirgin-de-masline-330g"}],"activePromotion":null,"saveMe":null,"labels":[],"geniusPrice":null,"geniusUnitPricePerLabel":null,"banner":null,"discountLabel":null,"geniusDiscountLabel":null,"badge":null},{"code":"100136994","variantCode":"100136994","name":"Lipii din făină de grâu cu semințe de in Wraps, 4 buc 245g","slug":"100136994-mission-lipii-din-faina-de-grau-cu-seminte-de-in-wraps-4-buc-245g","unitPriceLabel":"34,86 Lei/kg","brand":"Mission","brandCode":"532","brandFilterCode":"mission-b533","sku":"100136994","price":8.54,"originalPrice":null,"currencyCode":"RON","currency":"Lei","image":{"thumbnail":{"default":"https://cdn.freshful.ro/media/cache/sylius_shop_product_thumbnail/13/30/a03b9bfbf5ee54103ca18a672dbd.jpg"},"large":{"default":"https://cdn.freshful.ro/media/cache/freshful_large/13/30/a03b9bfbf5ee54103ca18a672dbd.jpg"},"extralarge":{"default":"https://cdn.freshful.ro/media/cache/sylius_shop_product_original/13/30/a03b9bfbf5ee54103ca18a672dbd.jpg"}},"label":null,"tags":[],"isAvailable":true,"maxAvailableQuantity":100,"maxAllowedQuantity":100,"breadcrumbs":[{"code":"1","name":"Brutărie & patiserie","slug":"1-brutarie-si-patiserie"},{"code":"101","name":"Pâine","slug":"101-paine"},{"code":"10105","name":"Specialități","slug":"10105-specialitati"},{"code":"100136994","name":"Lipii din făină de grâu cu semințe de in Wraps, 4 buc 245g","slug":"100136994-mission-lipii-din-faina-de-grau-cu-seminte-de-in-wraps-4-buc-245g"}],"activePromotion":null,"saveMe":null,"labels":[],"geniusPrice":null,"geniusUnitPricePerLabel":null,"banner":null,"discountLabel":null,"geniusDiscountLabel":null,"badge":null},{"code":"100062518","variantCode":"100062518","name":"Chiflă hamburger gourmet 4x81g","slug":"100062518-schulstad-chifla-hamburger-gourmet-4x81g","unitPriceLabel":"29,29 Lei/kg","brand":"Schulstad","brandCode":"439","brandFilterCode":"schulstad-b440","sku":"100062518","price":9.49,"originalPrice":null,"currencyCode":"RON","currency":"Lei","image":{"thumbnail":{"default":"https://cdn.freshful.ro/media/cache/sylius_shop_product_thumbnail/36/04/40be8232f88d5e80a3997cd9b920.jpg"},"large":{"default":"https://cdn.freshful.ro/media/cache/freshful_large/36/04/40be8232f88d5e80a3997cd9b920.jpg"},"extralarge":{"default":"https://cdn.freshful.ro/media/cache/sylius_shop_product_original/36/04/40be8232f88d5e80a3997cd9b920.jpg"}},"label":null,"tags":[{"type":"vegan","text":"Vegan","icon":"https://cdn.freshful.ro/assets/product_tags/vegan.svg","iconPng":"https://cdn.freshful.ro/assets/product_tags/vegan.png","backgroundColor":"#ECF9F8","textColor":"#33A39C"},{"type":"MadeInRomania","text":"Made In Romania","icon":"https://cdn.freshful.ro/assets/product_tags/made_in_romania.svg","iconPng":"https://cdn.freshful.ro/assets/product_tags/made_in_romania.png","backgroundColor":"#EDF2FD","textColor":"#1653CA"}],"isAvailable":true,"maxAvailableQuantity":100,"maxAllowedQuantity":100,"breadcrumbs":[{"code":"1","name":"Brutărie & patiserie","slug":"1-brutarie-si-patiserie"},{"code":"101","name":"Pâine","slug":"101-paine"},{"code":"10105","name":"Specialități","slug":"10105-specialitati"},{"code":"100062518","name":"Chiflă hamburger gourmet 4x81g","slug":"100062518-schulstad-chifla-hamburger-gourmet-4x81g"}],"activePromotion":null,"saveMe":null,"labels":[],"geniusPrice":null,"geniusUnitPricePerLabel":null,"banner":null,"discountLabel":null,"geniusDiscountLabel":null,"badge":null},{"code":"100150448","variantCode":"100150448","name":"Lipii din făină de grâu Wraps la grătar, 6 buc (370g)","slug":"100150448-mission-lipii-din-faina-de-grau-wraps-la-gratar-6-buc-370g","unitPriceLabel":"36,46 Lei/kg","brand":"Mission","brandCode":"532","brandFilterCode":"mission-b533","sku":"100150448","price":13.49,"originalPrice":null,"currencyCode":"RON","currency":"Lei","image":{"thumbnail":{"default":"https://cdn.freshful.ro/media/cache/sylius_shop_product_thumbnail/91/0a/7508fe21e69f2dd4015790896cea.jpg"},"large":{"default":"https://cdn.freshful.ro/media/cache/freshful_large/91/0a/7508fe21e69f2dd4015790896cea.jpg"},"extralarge":{"default":"https://cdn.freshful.ro/media/cache/sylius_shop_product_original/91/0a/7508fe21e69f2dd4015790896cea.jpg"}},"label":null,"tags":[{"type":"vegan","text":"Vegan","icon":"https://cdn.freshful.ro/assets/product_tags/vegan.svg","iconPng":"https://cdn.freshful.ro/assets/product_tags/vegan.png","backgroundColor":"#ECF9F8","textColor":"#33A39C"},{"type":"Vegetarian","text":"Vegetarian","icon":"https://cdn.freshful.ro/assets/product_tags/vegetarian.svg","iconPng":"https://cdn.freshful.ro/assets/product_tags/vegetarian.png","backgroundColor":"#FAEAEE","textColor":"#B26275"}],"isAvailable":true,"maxAvailableQuantity":100,"maxAllowedQuantity":100,"breadcrumbs":[{"code":"1","name":"Brutărie & patiserie","slug":"1-brutarie-si-patiserie"},{"code":"101","name":"Pâine","slug":"101-paine"},{"code":"10105","name":"Specialități","slug":"10105-specialitati"},{"code":"100150448","name":"Lipii din făină de grâu Wraps la grătar, 6 buc (370g)","slug":"100150448-mission-lipii-din-faina-de-grau-wraps-la-gratar-6-buc-370g"}],"activePromotion":null,"saveMe":null,"labels":[],"geniusPrice":null,"geniusUnitPricePerLabel":null,"banner":null,"discountLabel":null,"geniusDiscountLabel":null,"badge":null},{"code":"100148218","variantCode":"100148218","name":"Chiflă hamburger 100g","slug":"100148218-dioszegi-chifla-hamburger-100g","unitPriceLabel":"19,9 Lei/kg","brand":"Dioszegi","brandCode":"1498","brandFilterCode":"dioszegi-b1502","sku":"100148218","price":1.99,"originalPrice":null,"currencyCode":"RON","currency":"Lei","image":{"thumbnail":{"default":"https://cdn.freshful.ro/media/cache/sylius_shop_product_thumbnail/02/05/273c1bb7489bb0e305e737b356c7.jpg"},"large":{"default":"https://cdn.freshful.ro/media/cache/freshful_large/02/05/273c1bb7489bb0e305e737b356c7.jpg"},"extralarge":{"default":"https://cdn.freshful.ro/media/cache/sylius_shop_product_original/02/05/273c1bb7489bb0e305e737b356c7.jpg"}},"label":{"text":"Mici producători","backgroundColor":"#7B61FF","textColor":"#FFFFFF"},"tags":[],"isAvailable":true,"maxAvailableQuantity":47,"maxAllowedQuantity":100,"breadcrumbs":[{"code":"1","name":"Brutărie & patiserie","slug":"1-brutarie-si-patiserie"},{"code":"101","name":"Pâine","slug":"101-paine"},{"code":"10105","name":"Specialități","slug":"10105-specialitati"},{"code":"100148218","name":"Chiflă hamburger 100g","slug":"100148218-dioszegi-chifla-hamburger-100g"}],"activePromotion":null,"saveMe":null,"labels":[{"type":"v1","items":[{"text":"Mici producători","backgroundColor":"#7B61FF","textColor":"#FFFFFF"}]}],"geniusPrice":null,"geniusUnitPricePerLabel":null,"banner":null,"discountLabel":null,"geniusDiscountLabel":null,"badge":null},{"code":"100062515","variantCode":"100062515","name":" Chiflă hamburger Classic cu susan 6x50g","slug":"100062515-schulstad-chifla-hamburger-classic-cu-susan-6x50g","unitPriceLabel":"23,7 Lei/kg","brand":"Schulstad","brandCode":"439","brandFilterCode":"schulstad-b440","sku":"100062515","price":7.11,"originalPrice":null,"currencyCode":"RON","currency":"Lei","image":{"thumbnail":{"default":"https://cdn.freshful.ro/media/cache/sylius_shop_product_thumbnail/0e/d8/12189368c15e3a6a84bbece893b2.jpg"},"large":{"default":"https://cdn.freshful.ro/media/cache/freshful_large/0e/d8/12189368c15e3a6a84bbece893b2.jpg"},"extralarge":{"default":"https://cdn.freshful.ro/media/cache/sylius_shop_product_original/0e/d8/12189368c15e3a6a84bbece893b2.jpg"}},"label":null,"tags":[],"isAvailable":true,"maxAvailableQuantity":100,"maxAllowedQuantity":100,"breadcrumbs":[{"code":"1","name":"Brutărie & patiserie","slug":"1-brutarie-si-patiserie"},{"code":"101","name":"Pâine","slug":"101-paine"},{"code":"10105","name":"Specialități","slug":"10105-specialitati"},{"code":"100062515","name":" Chiflă hamburger Classic cu susan 6x50g","slug":"100062515-schulstad-chifla-hamburger-classic-cu-susan-6x50g"}],"activePromotion":null,"saveMe":null,"labels":[],"geniusPrice":null,"geniusUnitPricePerLabel":null,"banner":null,"discountLabel":null,"geniusDiscountLabel":null,"badge":null},{"code":"100102118","variantCode":"3175681117860","name":"Pâine integrală de secară cu fulgi de ovăz și semințe de in eco 500g","slug":"100102118-cereal-bio-paine-integrala-de-secara-cu-fulgi-de-ovaz-si-seminte-de-in-eco-500g","unitPriceLabel":"27,8 Lei/kg","brand":"Céréal Bio","brandCode":"683","brandFilterCode":"cereal-bio-b684","sku":"100102118","price":13.9,"originalPrice":null,"currencyCode":"RON","currency":"Lei","image":{"thumbnail":{"default":"https://cdn.freshful.ro/media/cache/sylius_shop_product_thumbnail/47/53/dd75e895e0a2d921235e10067100.jpg"},"large":{"default":"https://cdn.freshful.ro/media/cache/freshful_large/47/53/dd75e895e0a2d921235e10067100.jpg"},"extralarge":{"default":"https://cdn.freshful.ro/media/cache/sylius_shop_product_original/47/53/dd75e895e0a2d921235e10067100.jpg"}},"label":null,"tags":[{"type":"NoPreservatives","text":"Fara conservanti","icon":"https://cdn.freshful.ro/assets/product_tags/fara_conservanti.svg","iconPng":"https://cdn.freshful.ro/assets/product_tags/fara_conservanti.png","backgroundColor":"#F0F2FF","textColor":"#7889DD"},{"type":"Eco","text":"Eco","icon":"https://cdn.freshful.ro/assets/product_tags/eco.svg","iconPng":"https://cdn.freshful.ro/assets/product_tags/eco.png","backgroundColor":"#EFFBE4","textColor":"#66BB1B"}],"isAvailable":true,"maxAvailableQuantity":78,"maxAllowedQuantity":100,"breadcrumbs":[{"code":"1","name":"Brutărie & patiserie","slug":"1-brutarie-si-patiserie"},{"code":"101","name":"Pâine","slug":"101-paine"},{"code":"10105","name":"Specialități","slug":"10105-specialitati"},{"code":"100102118","name":"Pâine integrală de secară cu fulgi de ovăz și semințe de in eco 500g","slug":"100102118-cereal-bio-paine-integrala-de-secara-cu-fulgi-de-ovaz-si-seminte-de-in-eco-500g"}],"activePromotion":null,"saveMe":null,"labels":[],"geniusPrice":null,"geniusUnitPricePerLabel":null,"banner":null,"discountLabel":null,"geniusDiscountLabel":null,"badge":null},{"code":"100121830","variantCode":"100121830","name":"Tortillas 240g","slug":"100121830-roberto-tortillas-240g","unitPriceLabel":"41,63 Lei/kg","brand":"Roberto","brandCode":"120","brandFilterCode":"roberto-b104","sku":"100121830","price":9.99,"originalPrice":null,"currencyCode":"RON","currency":"Lei","image":{"thumbnail":{"default":"https://cdn.freshful.ro/media/cache/sylius_shop_product_thumbnail/b1/51/44fc83f9a26b35e61e55da09c719.jpg"},"large":{"default":"https://cdn.freshful.ro/media/cache/freshful_large/b1/51/44fc83f9a26b35e61e55da09c719.jpg"},"extralarge":{"default":"https://cdn.freshful.ro/media/cache/sylius_shop_product_original/b1/51/44fc83f9a26b35e61e55da09c719.jpg"}},"label":null,"tags":[],"isAvailable":true,"maxAvailableQuantity":23,"maxAllowedQuantity":100,"breadcrumbs":[{"code":"1","name":"Brutărie & patiserie","slug":"1-brutarie-si-patiserie"},{"code":"101","name":"Pâine","slug":"101-paine"},{"code":"10105","name":"Specialități","slug":"10105-specialitati"},{"code":"100121830","name":"Tortillas 240g","slug":"100121830-roberto-tortillas-240g"}],"activePromotion":null,"saveMe":null,"labels":[],"geniusPrice":null,"geniusUnitPricePerLabel":null,"banner":null,"discountLabel":null,"geniusDiscountLabel":null,"badge":null}],"filters":{"countSelected":0,"items":[{"code":"promotion","name":"Promoții","countSelected":0,"values":[{"code":"bunatatile-saptamanii-cw0923","name":"Oferta proaspătă a săptămânii","isSelected":false,"count":1},{"code":"freshful-top-deals-2023","name":"Profită de Top Deals","isSelected":false,"count":1}]},{"code":"brand","name":"Brand","countSelected":0,"values":[{"code":"balviten-b688","name":"Balviten","isSelected":false,"count":3},{"code":"cereal-bio-b684","name":"Céréal Bio","isSelected":false,"count":2},{"code":"dioszegi-b1502","name":"Dioszegi","isSelected":false,"count":1},{"code":"gerble-b1711","name":"Gerble","isSelected":false,"count":1},{"code":"mission-b533","name":"Mission","isSelected":false,"count":3},{"code":"roberto-b104","name":"Roberto","isSelected":false,"count":7},{"code":"schulstad-b440","name":"Schulstad","isSelected":false,"count":4}]},{"code":"diet_lifestyle","name":"Dietă și lifestyle","countSelected":0,"values":[{"code":"eco-a83","name":"Eco","isSelected":false,"count":3},{"code":"fara-conservanti-a37","name":"Fara conservanti","isSelected":false,"count":2},{"code":"fara-gluten-a16","name":"Fara gluten","isSelected":false,"count":5},{"code":"fara-lactoza-a38","name":"Fara lactoza","isSelected":false,"count":4},{"code":"made-in-romania-a85","name":"Made In Romania","isSelected":false,"count":1},{"code":"vegan-a24","name":"Vegan","isSelected":false,"count":4},{"code":"vegetarian-a28","name":"Vegetarian","isSelected":false,"count":1}]}]},"orderBy":[{"field":"price","direction":"asc","name":"Preț crescător","isSelected":false},{"field":"price","direction":"desc","name":"Preț descrescător","isSelected":false},{"field":"popularity","direction":"desc","name":"Cele mai populare","isSelected":true},{"field":"category","direction":"asc","name":"Categorie","isSelected":false}],"metaTitle":"Specialități - Gamă variată","metaDescription":"Vrei Specialități? Alege dintr-o gamă variată. Comanzi simplu și ai livrare rapidă, calitate și prospețime. Hai pe Freshful.ro","metaKeywords":null,"banners":[]}}