{"type":"subcategory","payload":{"analyticsListId":"category_10106-paine-prajita","analyticsListName":"Category - Pâine prăjită","name":"Pâine prăjită","slug":"10106-paine-prajita","image":null,"breadcrumbs":[{"code":"1","name":"Brutărie & patiserie","slug":"1-brutarie-si-patiserie"},{"code":"101","name":"Pâine","slug":"101-paine"},{"code":"10106","name":"Pâine prăjită","slug":"10106-paine-prajita"}],"slots":[],"page":1,"limit":10,"pages":3,"count":29,"siblings":[{"name":"Pâine","slug":"101-paine","selected":true},{"name":"Patiserie","slug":"102-patiserie","selected":false}],"children":[{"name":"Toate produsele","slug":"101-paine","selected":false},{"name":"Pâine proaspătă din cuptor","slug":"10101-paine-proaspata-din-cuptor","selected":false},{"name":"Pâine artizanală","slug":"10102-paine-artizanala","selected":false},{"name":"Pâine clasică","slug":"10103-paine-clasica","selected":false},{"name":"Pâine feliată și toast","slug":"10104-paine-feliata-si-toast","selected":false},{"name":"Specialități","slug":"10105-specialitati","selected":false},{"name":"Pâine prăjită","slug":"10106-paine-prajita","selected":true}],"products":[{"code":"100064485","variantCode":"100064485","name":"Pâine crocantă integrală 270g","slug":"100064485-wasa-paine-crocanta-integrala-270g","unitPriceLabel":"29,85 Lei/kg","brand":"Wasa","brandCode":"269","brandFilterCode":"wasa-b270","sku":"100064485","price":8.06,"originalPrice":null,"currencyCode":"RON","currency":"Lei","image":{"thumbnail":{"default":"https://cdn.freshful.ro/media/cache/sylius_shop_product_thumbnail/e7/9f/f2b45cf982d607e01f885c42a883.jpg"},"large":{"default":"https://cdn.freshful.ro/media/cache/freshful_large/e7/9f/f2b45cf982d607e01f885c42a883.jpg"},"extralarge":{"default":"https://cdn.freshful.ro/media/cache/sylius_shop_product_original/e7/9f/f2b45cf982d607e01f885c42a883.jpg"}},"label":null,"tags":[],"isAvailable":true,"maxAvailableQuantity":100,"maxAllowedQuantity":100,"breadcrumbs":[{"code":"1","name":"Brutărie & patiserie","slug":"1-brutarie-si-patiserie"},{"code":"101","name":"Pâine","slug":"101-paine"},{"code":"10106","name":"Pâine prăjită","slug":"10106-paine-prajita"},{"code":"100064485","name":"Pâine crocantă integrală 270g","slug":"100064485-wasa-paine-crocanta-integrala-270g"}],"activePromotion":null,"saveMe":null,"labels":[],"geniusPrice":null,"geniusUnitPricePerLabel":null,"banner":null,"discountLabel":null,"geniusDiscountLabel":null,"badge":null},{"code":"100064481","variantCode":"100064481","name":"Pâine prăjită integrală 315g","slug":"100064481-mulino-bianco-paine-prajita-integrala-315g","unitPriceLabel":"26,19 Lei/kg","brand":"Mulino Bianco","brandCode":"268","brandFilterCode":"mulino-bianco-b269","sku":"100064481","price":8.25,"originalPrice":null,"currencyCode":"RON","currency":"Lei","image":{"thumbnail":{"default":"https://cdn.freshful.ro/media/cache/sylius_shop_product_thumbnail/2c/33/84aa9ece09d7188beb1ffeef23e4.jpg"},"large":{"default":"https://cdn.freshful.ro/media/cache/freshful_large/2c/33/84aa9ece09d7188beb1ffeef23e4.jpg"},"extralarge":{"default":"https://cdn.freshful.ro/media/cache/sylius_shop_product_original/2c/33/84aa9ece09d7188beb1ffeef23e4.jpg"}},"label":null,"tags":[],"isAvailable":true,"maxAvailableQuantity":100,"maxAllowedQuantity":100,"breadcrumbs":[{"code":"1","name":"Brutărie & patiserie","slug":"1-brutarie-si-patiserie"},{"code":"101","name":"Pâine","slug":"101-paine"},{"code":"10106","name":"Pâine prăjită","slug":"10106-paine-prajita"},{"code":"100064481","name":"Pâine prăjită integrală 315g","slug":"100064481-mulino-bianco-paine-prajita-integrala-315g"}],"activePromotion":null,"saveMe":null,"labels":[],"geniusPrice":null,"geniusUnitPricePerLabel":null,"banner":null,"discountLabel":null,"geniusDiscountLabel":null,"badge":null},{"code":"100064484","variantCode":"100064484","name":"Pâine crocantă 275g","slug":"100064484-wasa-paine-crocanta-275g","unitPriceLabel":"29,31 Lei/kg","brand":"Wasa","brandCode":"269","brandFilterCode":"wasa-b270","sku":"100064484","price":8.06,"originalPrice":null,"currencyCode":"RON","currency":"Lei","image":{"thumbnail":{"default":"https://cdn.freshful.ro/media/cache/sylius_shop_product_thumbnail/e3/91/1b353e574bb8164ab1e2798f21ee.jpg"},"large":{"default":"https://cdn.freshful.ro/media/cache/freshful_large/e3/91/1b353e574bb8164ab1e2798f21ee.jpg"},"extralarge":{"default":"https://cdn.freshful.ro/media/cache/sylius_shop_product_original/e3/91/1b353e574bb8164ab1e2798f21ee.jpg"}},"label":null,"tags":[],"isAvailable":true,"maxAvailableQuantity":100,"maxAllowedQuantity":100,"breadcrumbs":[{"code":"1","name":"Brutărie & patiserie","slug":"1-brutarie-si-patiserie"},{"code":"101","name":"Pâine","slug":"101-paine"},{"code":"10106","name":"Pâine prăjită","slug":"10106-paine-prajita"},{"code":"100064484","name":"Pâine crocantă 275g","slug":"100064484-wasa-paine-crocanta-275g"}],"activePromotion":null,"saveMe":null,"labels":[],"geniusPrice":null,"geniusUnitPricePerLabel":null,"banner":null,"discountLabel":null,"geniusDiscountLabel":null,"badge":null},{"code":"100064480","variantCode":"100064480","name":"Pâine prăjită 315g","slug":"100064480-mulino-bianco-paine-prajita-315g","unitPriceLabel":"26,19 Lei/kg","brand":"Mulino Bianco","brandCode":"268","brandFilterCode":"mulino-bianco-b269","sku":"100064480","price":8.25,"originalPrice":null,"currencyCode":"RON","currency":"Lei","image":{"thumbnail":{"default":"https://cdn.freshful.ro/media/cache/sylius_shop_product_thumbnail/7e/ee/2eb746d1140b7e802429d886e2ef.jpg"},"large":{"default":"https://cdn.freshful.ro/media/cache/freshful_large/7e/ee/2eb746d1140b7e802429d886e2ef.jpg"},"extralarge":{"default":"https://cdn.freshful.ro/media/cache/sylius_shop_product_original/7e/ee/2eb746d1140b7e802429d886e2ef.jpg"}},"label":null,"tags":[],"isAvailable":true,"maxAvailableQuantity":100,"maxAllowedQuantity":100,"breadcrumbs":[{"code":"1","name":"Brutărie & patiserie","slug":"1-brutarie-si-patiserie"},{"code":"101","name":"Pâine","slug":"101-paine"},{"code":"10106","name":"Pâine prăjită","slug":"10106-paine-prajita"},{"code":"100064480","name":"Pâine prăjită 315g","slug":"100064480-mulino-bianco-paine-prajita-315g"}],"activePromotion":null,"saveMe":null,"labels":[],"geniusPrice":null,"geniusUnitPricePerLabel":null,"banner":null,"discountLabel":null,"geniusDiscountLabel":null,"badge":null},{"code":"100090153","variantCode":"100090153","name":"Crutoane sferice 100g","slug":"100090153-land-leben-crutoane-sferice-100g","unitPriceLabel":"54,9 Lei/kg","brand":"Land-Leben","brandCode":"724","brandFilterCode":"land-leben-b725","sku":"100090153","price":5.49,"originalPrice":null,"currencyCode":"RON","currency":"Lei","image":{"thumbnail":{"default":"https://cdn.freshful.ro/media/cache/sylius_shop_product_thumbnail/46/9c/ba8d36dc91627f63f004e8133848.jpg"},"large":{"default":"https://cdn.freshful.ro/media/cache/freshful_large/46/9c/ba8d36dc91627f63f004e8133848.jpg"},"extralarge":{"default":"https://cdn.freshful.ro/media/cache/sylius_shop_product_original/46/9c/ba8d36dc91627f63f004e8133848.jpg"}},"label":null,"tags":[],"isAvailable":true,"maxAvailableQuantity":25,"maxAllowedQuantity":100,"breadcrumbs":[{"code":"1","name":"Brutărie & patiserie","slug":"1-brutarie-si-patiserie"},{"code":"101","name":"Pâine","slug":"101-paine"},{"code":"10106","name":"Pâine prăjită","slug":"10106-paine-prajita"},{"code":"100090153","name":"Crutoane sferice 100g","slug":"100090153-land-leben-crutoane-sferice-100g"}],"activePromotion":null,"saveMe":null,"labels":[],"geniusPrice":null,"geniusUnitPricePerLabel":null,"banner":null,"discountLabel":null,"geniusDiscountLabel":null,"badge":null},{"code":"100140404","variantCode":"100140404","name":"Crutoane mediteraneene 125g","slug":"100140404-san-delicio-crutoane-mediteraneene-125g","unitPriceLabel":"31,92 Lei/kg","brand":"San Delicio","brandCode":"2681","brandFilterCode":"san-delicio-b2685","sku":"100140404","price":3.99,"originalPrice":null,"currencyCode":"RON","currency":"Lei","image":{"thumbnail":{"default":"https://cdn.freshful.ro/media/cache/sylius_shop_product_thumbnail/6e/e4/71cc9bbc83fed3ac29e92d14c790.jpg"},"large":{"default":"https://cdn.freshful.ro/media/cache/freshful_large/6e/e4/71cc9bbc83fed3ac29e92d14c790.jpg"},"extralarge":{"default":"https://cdn.freshful.ro/media/cache/sylius_shop_product_original/6e/e4/71cc9bbc83fed3ac29e92d14c790.jpg"}},"label":{"text":"Mici producători","backgroundColor":"#7B61FF","textColor":"#FFFFFF"},"tags":[],"isAvailable":true,"maxAvailableQuantity":47,"maxAllowedQuantity":100,"breadcrumbs":[{"code":"1","name":"Brutărie & patiserie","slug":"1-brutarie-si-patiserie"},{"code":"101","name":"Pâine","slug":"101-paine"},{"code":"10106","name":"Pâine prăjită","slug":"10106-paine-prajita"},{"code":"100140404","name":"Crutoane mediteraneene 125g","slug":"100140404-san-delicio-crutoane-mediteraneene-125g"}],"activePromotion":null,"saveMe":null,"labels":[{"type":"v1","items":[{"text":"Mici producători","backgroundColor":"#7B61FF","textColor":"#FFFFFF"}]}],"geniusPrice":null,"geniusUnitPricePerLabel":null,"banner":null,"discountLabel":null,"geniusDiscountLabel":null,"badge":null},{"code":"100112162","variantCode":"100112162","name":"Rondele din orez integral cu 12 semințe superioare 100g","slug":"100112162-b-yond-rondele-din-orez-integral-cu-12-seminte-superioare-100g","unitPriceLabel":"49,9 Lei/kg","brand":"B.Yond","brandCode":"1859","brandFilterCode":"b-yond-b1863","sku":"100112162","price":4.99,"originalPrice":null,"currencyCode":"RON","currency":"Lei","image":{"thumbnail":{"default":"https://cdn.freshful.ro/media/cache/sylius_shop_product_thumbnail/53/f1/f90ba599851e11204219ac3a9141.jpg"},"large":{"default":"https://cdn.freshful.ro/media/cache/freshful_large/53/f1/f90ba599851e11204219ac3a9141.jpg"},"extralarge":{"default":"https://cdn.freshful.ro/media/cache/sylius_shop_product_original/53/f1/f90ba599851e11204219ac3a9141.jpg"}},"label":null,"tags":[{"type":"NoGluten","text":"Fara gluten","icon":"https://cdn.freshful.ro/assets/product_tags/fara_gluten.svg","iconPng":"https://cdn.freshful.ro/assets/product_tags/fara_gluten.png","backgroundColor":"#FFF2E5","textColor":"#F07900"},{"type":"NoPreservatives","text":"Fara conservanti","icon":"https://cdn.freshful.ro/assets/product_tags/fara_conservanti.svg","iconPng":"https://cdn.freshful.ro/assets/product_tags/fara_conservanti.png","backgroundColor":"#F0F2FF","textColor":"#7889DD"}],"isAvailable":true,"maxAvailableQuantity":100,"maxAllowedQuantity":100,"breadcrumbs":[{"code":"1","name":"Brutărie & patiserie","slug":"1-brutarie-si-patiserie"},{"code":"101","name":"Pâine","slug":"101-paine"},{"code":"10106","name":"Pâine prăjită","slug":"10106-paine-prajita"},{"code":"100112162","name":"Rondele din orez integral cu 12 semințe superioare 100g","slug":"100112162-b-yond-rondele-din-orez-integral-cu-12-seminte-superioare-100g"}],"activePromotion":null,"saveMe":null,"labels":[],"geniusPrice":null,"geniusUnitPricePerLabel":null,"banner":null,"discountLabel":null,"geniusDiscountLabel":null,"badge":null},{"code":"100064489","variantCode":"100064489","name":"Pâine prăjită cu rozmarin și sare de mare 190g","slug":"100064489-wasa-paine-prajita-cu-rozmarin-si-sare-de-mare-190g","unitPriceLabel":"71,05 Lei/kg","brand":"Wasa","brandCode":"269","brandFilterCode":"wasa-b270","sku":"100064489","price":13.5,"originalPrice":null,"currencyCode":"RON","currency":"Lei","image":{"thumbnail":{"default":"https://cdn.freshful.ro/media/cache/sylius_shop_product_thumbnail/1e/da/f14c6cd70fa5389d49d4fccc3c3b.jpg"},"large":{"default":"https://cdn.freshful.ro/media/cache/freshful_large/1e/da/f14c6cd70fa5389d49d4fccc3c3b.jpg"},"extralarge":{"default":"https://cdn.freshful.ro/media/cache/sylius_shop_product_original/1e/da/f14c6cd70fa5389d49d4fccc3c3b.jpg"}},"label":null,"tags":[],"isAvailable":true,"maxAvailableQuantity":100,"maxAllowedQuantity":100,"breadcrumbs":[{"code":"1","name":"Brutărie & patiserie","slug":"1-brutarie-si-patiserie"},{"code":"101","name":"Pâine","slug":"101-paine"},{"code":"10106","name":"Pâine prăjită","slug":"10106-paine-prajita"},{"code":"100064489","name":"Pâine prăjită cu rozmarin și sare de mare 190g","slug":"100064489-wasa-paine-prajita-cu-rozmarin-si-sare-de-mare-190g"}],"activePromotion":null,"saveMe":null,"labels":[],"geniusPrice":null,"geniusUnitPricePerLabel":null,"banner":null,"discountLabel":null,"geniusDiscountLabel":null,"badge":null},{"code":"100112163","variantCode":"100112163","name":"Rondele din orez integral cu chia, quinoa, amarant 100g","slug":"100112163-b-yond-rondele-din-orez-integral-cu-chia-quinoa-amarant-100g","unitPriceLabel":"49,9 Lei/kg","brand":"B.Yond","brandCode":"1859","brandFilterCode":"b-yond-b1863","sku":"100112163","price":4.99,"originalPrice":null,"currencyCode":"RON","currency":"Lei","image":{"thumbnail":{"default":"https://cdn.freshful.ro/media/cache/sylius_shop_product_thumbnail/a4/43/19ce236e611556c4f41937b72eb0.jpg"},"large":{"default":"https://cdn.freshful.ro/media/cache/freshful_large/a4/43/19ce236e611556c4f41937b72eb0.jpg"},"extralarge":{"default":"https://cdn.freshful.ro/media/cache/sylius_shop_product_original/a4/43/19ce236e611556c4f41937b72eb0.jpg"}},"label":null,"tags":[{"type":"NoGluten","text":"Fara gluten","icon":"https://cdn.freshful.ro/assets/product_tags/fara_gluten.svg","iconPng":"https://cdn.freshful.ro/assets/product_tags/fara_gluten.png","backgroundColor":"#FFF2E5","textColor":"#F07900"},{"type":"NoPreservatives","text":"Fara conservanti","icon":"https://cdn.freshful.ro/assets/product_tags/fara_conservanti.svg","iconPng":"https://cdn.freshful.ro/assets/product_tags/fara_conservanti.png","backgroundColor":"#F0F2FF","textColor":"#7889DD"}],"isAvailable":true,"maxAvailableQuantity":100,"maxAllowedQuantity":100,"breadcrumbs":[{"code":"1","name":"Brutărie & patiserie","slug":"1-brutarie-si-patiserie"},{"code":"101","name":"Pâine","slug":"101-paine"},{"code":"10106","name":"Pâine prăjită","slug":"10106-paine-prajita"},{"code":"100112163","name":"Rondele din orez integral cu chia, quinoa, amarant 100g","slug":"100112163-b-yond-rondele-din-orez-integral-cu-chia-quinoa-amarant-100g"}],"activePromotion":null,"saveMe":null,"labels":[],"geniusPrice":null,"geniusUnitPricePerLabel":null,"banner":null,"discountLabel":null,"geniusDiscountLabel":null,"badge":null},{"code":"100140402","variantCode":"100140402","name":"Crutoane din pâine albă cu maia 125g","slug":"100140402-san-delicio-crutoane-din-paine-alba-cu-maia-125g","unitPriceLabel":"31,92 Lei/kg","brand":"San Delicio","brandCode":"2681","brandFilterCode":"san-delicio-b2685","sku":"100140402","price":3.99,"originalPrice":null,"currencyCode":"RON","currency":"Lei","image":{"thumbnail":{"default":"https://cdn.freshful.ro/media/cache/sylius_shop_product_thumbnail/45/b6/1b1582fea97192ee6f64f8596d0e.jpg"},"large":{"default":"https://cdn.freshful.ro/media/cache/freshful_large/45/b6/1b1582fea97192ee6f64f8596d0e.jpg"},"extralarge":{"default":"https://cdn.freshful.ro/media/cache/sylius_shop_product_original/45/b6/1b1582fea97192ee6f64f8596d0e.jpg"}},"label":{"text":"Mici producători","backgroundColor":"#7B61FF","textColor":"#FFFFFF"},"tags":[],"isAvailable":true,"maxAvailableQuantity":11,"maxAllowedQuantity":100,"breadcrumbs":[{"code":"1","name":"Brutărie & patiserie","slug":"1-brutarie-si-patiserie"},{"code":"101","name":"Pâine","slug":"101-paine"},{"code":"10106","name":"Pâine prăjită","slug":"10106-paine-prajita"},{"code":"100140402","name":"Crutoane din pâine albă cu maia 125g","slug":"100140402-san-delicio-crutoane-din-paine-alba-cu-maia-125g"}],"activePromotion":null,"saveMe":null,"labels":[{"type":"v1","items":[{"text":"Mici producători","backgroundColor":"#7B61FF","textColor":"#FFFFFF"}]}],"geniusPrice":null,"geniusUnitPricePerLabel":null,"banner":null,"discountLabel":null,"geniusDiscountLabel":null,"badge":null}],"filters":{"countSelected":0,"items":[{"code":"brand","name":"Brand","countSelected":0,"values":[{"code":"b-yond-b1863","name":"B.Yond","isSelected":false,"count":2},{"code":"land-leben-b725","name":"Land-Leben","isSelected":false,"count":3},{"code":"monviso-b2730","name":"Monviso","isSelected":false,"count":7},{"code":"mulino-bianco-b269","name":"Mulino Bianco","isSelected":false,"count":5},{"code":"panvivis-b2593","name":"Panvivis","isSelected":false,"count":2},{"code":"san-delicio-b2685","name":"San Delicio","isSelected":false,"count":5},{"code":"wasa-b270","name":"Wasa","isSelected":false,"count":5}]},{"code":"diet_lifestyle","name":"Dietă și lifestyle","countSelected":0,"values":[{"code":"fara-conservanti-a37","name":"Fara conservanti","isSelected":false,"count":4},{"code":"fara-gluten-a16","name":"Fara gluten","isSelected":false,"count":2},{"code":"fara-lactoza-a38","name":"Fara lactoza","isSelected":false,"count":3},{"code":"vegan-a24","name":"Vegan","isSelected":false,"count":7}]}]},"orderBy":[{"field":"price","direction":"asc","name":"Preț crescător","isSelected":false},{"field":"price","direction":"desc","name":"Preț descrescător","isSelected":false},{"field":"popularity","direction":"desc","name":"Cele mai populare","isSelected":true},{"field":"category","direction":"asc","name":"Categorie","isSelected":false}],"metaTitle":"Pâine prăjită - Gamă variată","metaDescription":"Vrei Pâine prăjită? Alege dintr-o gamă variată. Comanzi simplu și ai livrare rapidă, calitate și prospețime. Hai pe Freshful.ro","metaKeywords":null,"banners":[]}}