{"type":"subcategory","payload":{"analyticsListId":"category_102-patiserie","analyticsListName":"Category - Patiserie","name":"Patiserie","slug":"102-patiserie","image":null,"breadcrumbs":[{"code":"1","name":"Brutărie & patiserie","slug":"1-brutarie-si-patiserie"},{"code":"102","name":"Patiserie","slug":"102-patiserie"}],"slots":[],"page":1,"limit":10,"pages":10,"count":97,"siblings":[{"name":"Pâine","slug":"101-paine","selected":false},{"name":"Patiserie","slug":"102-patiserie","selected":true}],"children":[{"name":"Toate produsele","slug":"102-patiserie","selected":true},{"name":"Patiserie proaspătă din cuptor","slug":"10201-patiserie-proaspata-din-cuptor","selected":false},{"name":"Prăjituri artizanale","slug":"10202-prajituri-artizanale","selected":false},{"name":"Cozonac, fursecuri și cornulețe artizanale","slug":"10203-cozonac-fursecuri-si-cornulete-artizanale","selected":false},{"name":"Sărățele, saleuri și covrigi","slug":"10204-saratele-saleuri-si-covrigi","selected":false}],"products":[{"code":"100151490","variantCode":"100151490","name":"Mousse inimă ciocolată 80g","slug":"100151490-flour-more-the-bakery-mousse-inima-ciocolata-80g","unitPriceLabel":"143,63 Lei/kg","brand":"Flour & More - The Bakery","brandCode":"1089","brandFilterCode":"flour-more-the-bakery-b1090","sku":"100151490","price":11.49,"originalPrice":15.49,"currencyCode":"RON","currency":"Lei","image":{"thumbnail":{"default":"https://cdn.freshful.ro/media/cache/sylius_shop_product_thumbnail/5a/36/1e2b06f4305625854b6859496b65.jpg"},"large":{"default":"https://cdn.freshful.ro/media/cache/freshful_large/5a/36/1e2b06f4305625854b6859496b65.jpg"},"extralarge":{"default":"https://cdn.freshful.ro/media/cache/sylius_shop_product_original/5a/36/1e2b06f4305625854b6859496b65.jpg"}},"label":{"text":"-25%","backgroundColor":"#FF9903","textColor":"#FFFFFF"},"tags":[{"type":"NoPreservatives","text":"Fara conservanti","icon":"https://cdn.freshful.ro/assets/product_tags/fara_conservanti.svg","iconPng":"https://cdn.freshful.ro/assets/product_tags/fara_conservanti.png","backgroundColor":"#F0F2FF","textColor":"#7889DD"}],"isAvailable":true,"maxAvailableQuantity":100,"maxAllowedQuantity":100,"breadcrumbs":[{"code":"1","name":"Brutărie & patiserie","slug":"1-brutarie-si-patiserie"},{"code":"102","name":"Patiserie","slug":"102-patiserie"},{"code":"10202","name":"Prăjituri artizanale","slug":"10202-prajituri-artizanale"},{"code":"100151490","name":"Mousse inimă ciocolată 80g","slug":"100151490-flour-more-the-bakery-mousse-inima-ciocolata-80g"}],"activePromotion":{"code":"superpreturile-saptamanii","name":"Preț redus","targetQuantity":null},"saveMe":null,"labels":[{"type":"v1","items":[{"text":"-25%","backgroundColor":"#FF9903","textColor":"#FFFFFF"}]}],"geniusPrice":null,"geniusUnitPricePerLabel":null,"banner":{"text":"Super preț","textColor":"#FF0000","bgColor":"#FFF2EC","icon":null,"link":"https://www.freshful.ro/oferte/superpreturile-saptamanii","type":"promo","analyticsEventType":"select_promotion","analyticsEventPayload":{"promotion_id":"superpreturile-saptamanii","promotion_name":"Superprețurile zilei"}},"discountLabel":"Economisești 25%","geniusDiscountLabel":null,"badge":null},{"code":"100149647","variantCode":"100149647","name":"Cookies vanilie și ciocolată 200g","slug":"100149647-cake-away-cookies-vanilie-si-ciocolata-200g","unitPriceLabel":"94,95 Lei/kg","brand":"Cake Away","brandCode":"2527","brandFilterCode":"cake-away-b2531","sku":"100149647","price":18.99,"originalPrice":24.99,"currencyCode":"RON","currency":"Lei","image":{"thumbnail":{"default":"https://cdn.freshful.ro/media/cache/sylius_shop_product_thumbnail/d3/8f/effdb7c186c16df81103fe934019.jpg"},"large":{"default":"https://cdn.freshful.ro/media/cache/freshful_large/d3/8f/effdb7c186c16df81103fe934019.jpg"},"extralarge":{"default":"https://cdn.freshful.ro/media/cache/sylius_shop_product_original/d3/8f/effdb7c186c16df81103fe934019.jpg"}},"label":{"text":"-24%","backgroundColor":"#FF9903","textColor":"#FFFFFF"},"tags":[{"type":"MadeInRomania","text":"Made In Romania","icon":"https://cdn.freshful.ro/assets/product_tags/made_in_romania.svg","iconPng":"https://cdn.freshful.ro/assets/product_tags/made_in_romania.png","backgroundColor":"#EDF2FD","textColor":"#1653CA"}],"isAvailable":true,"maxAvailableQuantity":41,"maxAllowedQuantity":100,"breadcrumbs":[{"code":"1","name":"Brutărie & patiserie","slug":"1-brutarie-si-patiserie"},{"code":"102","name":"Patiserie","slug":"102-patiserie"},{"code":"10203","name":"Cozonac, fursecuri și cornulețe artizanale","slug":"10203-cozonac-fursecuri-si-cornulete-artizanale"},{"code":"100149647","name":"Cookies vanilie și ciocolată 200g","slug":"100149647-cake-away-cookies-vanilie-si-ciocolata-200g"}],"activePromotion":{"code":"bunatatile-saptamanii-cw0923","name":"Preț redus","targetQuantity":null},"saveMe":null,"labels":[{"type":"v1","items":[{"text":"-24%","backgroundColor":"#FF9903","textColor":"#FFFFFF"}]}],"geniusPrice":null,"geniusUnitPricePerLabel":null,"banner":{"text":"Super preț","textColor":"#FF0000","bgColor":"#FFF2EC","icon":null,"link":"https://www.freshful.ro/oferte/bunatatile-saptamanii-cw0923","type":"promo","analyticsEventType":"select_promotion","analyticsEventPayload":{"promotion_id":"bunatatile-saptamanii-cw0923","promotion_name":"Oferta proaspătă a săptămânii"}},"discountLabel":"Economisești 24%","geniusDiscountLabel":null,"badge":null},{"code":"100139490","variantCode":"100139490","name":"Colivă Gustul Eternității 350g","slug":"100139490-flour-more-the-bakery-coliva-gustul-eternitatii-350g","unitPriceLabel":"42,83 Lei/kg","brand":"Flour & More - The Bakery","brandCode":"1089","brandFilterCode":"flour-more-the-bakery-b1090","sku":"100139490","price":14.99,"originalPrice":18.99,"currencyCode":"RON","currency":"Lei","image":{"thumbnail":{"default":"https://cdn.freshful.ro/media/cache/sylius_shop_product_thumbnail/a7/5d/07804ff30771fe106c0fa43690d5.jpg"},"large":{"default":"https://cdn.freshful.ro/media/cache/freshful_large/a7/5d/07804ff30771fe106c0fa43690d5.jpg"},"extralarge":{"default":"https://cdn.freshful.ro/media/cache/sylius_shop_product_original/a7/5d/07804ff30771fe106c0fa43690d5.jpg"}},"label":{"text":"-21%","backgroundColor":"#FF9903","textColor":"#FFFFFF"},"tags":[{"type":"NoPreservatives","text":"Fara conservanti","icon":"https://cdn.freshful.ro/assets/product_tags/fara_conservanti.svg","iconPng":"https://cdn.freshful.ro/assets/product_tags/fara_conservanti.png","backgroundColor":"#F0F2FF","textColor":"#7889DD"}],"isAvailable":true,"maxAvailableQuantity":26,"maxAllowedQuantity":100,"breadcrumbs":[{"code":"1","name":"Brutărie & patiserie","slug":"1-brutarie-si-patiserie"},{"code":"102","name":"Patiserie","slug":"102-patiserie"},{"code":"10202","name":"Prăjituri artizanale","slug":"10202-prajituri-artizanale"},{"code":"100139490","name":"Colivă Gustul Eternității 350g","slug":"100139490-flour-more-the-bakery-coliva-gustul-eternitatii-350g"}],"activePromotion":{"code":"bunatatile-saptamanii-cw0923","name":"Preț redus","targetQuantity":null},"saveMe":null,"labels":[{"type":"v1","items":[{"text":"-21%","backgroundColor":"#FF9903","textColor":"#FFFFFF"}]}],"geniusPrice":null,"geniusUnitPricePerLabel":null,"banner":{"text":"Super preț","textColor":"#FF0000","bgColor":"#FFF2EC","icon":null,"link":"https://www.freshful.ro/oferte/bunatatile-saptamanii-cw0923","type":"promo","analyticsEventType":"select_promotion","analyticsEventPayload":{"promotion_id":"bunatatile-saptamanii-cw0923","promotion_name":"Oferta proaspătă a săptămânii"}},"discountLabel":"Economisești 21%","geniusDiscountLabel":null,"badge":null},{"code":"100149955","variantCode":"100149955","name":"Biscuiți delicioși cu ovăz și unt 150g","slug":"100149955-pain-plaisir-biscuiti-deliciosi-cu-ovaz-si-unt-150g","unitPriceLabel":"113,27 Lei/kg","brand":"Pain Plaisir","brandCode":"2974","brandFilterCode":"pain-plaisir-b3059","sku":"100149955","price":16.99,"originalPrice":19.48,"currencyCode":"RON","currency":"Lei","image":{"thumbnail":{"default":"https://cdn.freshful.ro/media/cache/sylius_shop_product_thumbnail/c7/fe/ef772b97ee7dcb7922bed6bfd803.jpg"},"large":{"default":"https://cdn.freshful.ro/media/cache/freshful_large/c7/fe/ef772b97ee7dcb7922bed6bfd803.jpg"},"extralarge":{"default":"https://cdn.freshful.ro/media/cache/sylius_shop_product_original/c7/fe/ef772b97ee7dcb7922bed6bfd803.jpg"}},"label":{"text":"-12%","backgroundColor":"#FF9903","textColor":"#FFFFFF"},"tags":[],"isAvailable":true,"maxAvailableQuantity":90,"maxAllowedQuantity":100,"breadcrumbs":[{"code":"1","name":"Brutărie & patiserie","slug":"1-brutarie-si-patiserie"},{"code":"102","name":"Patiserie","slug":"102-patiserie"},{"code":"10203","name":"Cozonac, fursecuri și cornulețe artizanale","slug":"10203-cozonac-fursecuri-si-cornulete-artizanale"},{"code":"100149955","name":"Biscuiți delicioși cu ovăz și unt 150g","slug":"100149955-pain-plaisir-biscuiti-deliciosi-cu-ovaz-si-unt-150g"}],"activePromotion":{"code":"bunatatile-saptamanii-cw0923","name":"Preț redus","targetQuantity":null},"saveMe":null,"labels":[{"type":"v1","items":[{"text":"-12%","backgroundColor":"#FF9903","textColor":"#FFFFFF"}]}],"geniusPrice":null,"geniusUnitPricePerLabel":null,"banner":{"text":"Super preț","textColor":"#FF0000","bgColor":"#FFF2EC","icon":null,"link":"https://www.freshful.ro/oferte/bunatatile-saptamanii-cw0923","type":"promo","analyticsEventType":"select_promotion","analyticsEventPayload":{"promotion_id":"bunatatile-saptamanii-cw0923","promotion_name":"Oferta proaspătă a săptămânii"}},"discountLabel":"Economisești 12%","geniusDiscountLabel":null,"badge":null},{"code":"100107437","variantCode":"100107437","name":"Mousse ciocolată fără zahăr 150g","slug":"100107437-flour-more-the-bakery-mousse-ciocolata-fara-zahar-150g","unitPriceLabel":"153,27 Lei/kg","brand":"Flour & More - The Bakery","brandCode":"1089","brandFilterCode":"flour-more-the-bakery-b1090","sku":"100107437","price":22.99,"originalPrice":null,"currencyCode":"RON","currency":"Lei","image":{"thumbnail":{"default":"https://cdn.freshful.ro/media/cache/sylius_shop_product_thumbnail/55/5a/c79c899078d1120777ac31114de7.jpg"},"large":{"default":"https://cdn.freshful.ro/media/cache/freshful_large/55/5a/c79c899078d1120777ac31114de7.jpg"},"extralarge":{"default":"https://cdn.freshful.ro/media/cache/sylius_shop_product_original/55/5a/c79c899078d1120777ac31114de7.jpg"}},"label":{"text":"-20% cu Genius","backgroundColor":"#FEF3FA","textColor":"#CD015F"},"tags":[{"type":"NoAddedSugar","text":"Fara zahar adaugat","icon":"https://cdn.freshful.ro/assets/product_tags/fara_zahar_adaugat.svg","iconPng":"https://cdn.freshful.ro/assets/product_tags/fara_zahar_adaugat.png","backgroundColor":"#F8EDF7","textColor":"#C05EBC"},{"type":"NoPreservatives","text":"Fara conservanti","icon":"https://cdn.freshful.ro/assets/product_tags/fara_conservanti.svg","iconPng":"https://cdn.freshful.ro/assets/product_tags/fara_conservanti.png","backgroundColor":"#F0F2FF","textColor":"#7889DD"}],"isAvailable":true,"maxAvailableQuantity":88,"maxAllowedQuantity":100,"breadcrumbs":[{"code":"1","name":"Brutărie & patiserie","slug":"1-brutarie-si-patiserie"},{"code":"102","name":"Patiserie","slug":"102-patiserie"},{"code":"10202","name":"Prăjituri artizanale","slug":"10202-prajituri-artizanale"},{"code":"100107437","name":"Mousse ciocolată fără zahăr 150g","slug":"100107437-flour-more-the-bakery-mousse-ciocolata-fara-zahar-150g"}],"activePromotion":null,"saveMe":null,"labels":[{"type":"gdeals","items":[{"text":"","backgroundColor":"","textColor":""}]},{"type":"v3","items":[{"text":"-20% cu Genius","backgroundColor":"#FEF3FA","textColor":"#CD015F"}]}],"geniusPrice":18.39,"geniusUnitPricePerLabel":"122,6 Lei/kg","banner":null,"discountLabel":null,"geniusDiscountLabel":"Economisești 20%","badge":null},{"code":"100133603","variantCode":"100133603","name":"Cheesecake 200g","slug":"100133603-cake-away-cheesecake-200g","unitPriceLabel":"64,24 Lei/kg","brand":"Cake Away","brandCode":"2527","brandFilterCode":"cake-away-b2531","sku":"100133603","price":13.49,"originalPrice":16.99,"currencyCode":"RON","currency":"Lei","image":{"thumbnail":{"default":"https://cdn.freshful.ro/media/cache/sylius_shop_product_thumbnail/ba/c0/d86465dc62762de2ce209067f7c7.jpg"},"large":{"default":"https://cdn.freshful.ro/media/cache/freshful_large/ba/c0/d86465dc62762de2ce209067f7c7.jpg"},"extralarge":{"default":"https://cdn.freshful.ro/media/cache/sylius_shop_product_original/ba/c0/d86465dc62762de2ce209067f7c7.jpg"}},"label":{"text":"-20%","backgroundColor":"#FF9903","textColor":"#FFFFFF"},"tags":[{"type":"MadeInRomania","text":"Made In Romania","icon":"https://cdn.freshful.ro/assets/product_tags/made_in_romania.svg","iconPng":"https://cdn.freshful.ro/assets/product_tags/made_in_romania.png","backgroundColor":"#EDF2FD","textColor":"#1653CA"}],"isAvailable":true,"maxAvailableQuantity":30,"maxAllowedQuantity":100,"breadcrumbs":[{"code":"1","name":"Brutărie & patiserie","slug":"1-brutarie-si-patiserie"},{"code":"102","name":"Patiserie","slug":"102-patiserie"},{"code":"10202","name":"Prăjituri artizanale","slug":"10202-prajituri-artizanale"},{"code":"100133603","name":"Cheesecake 200g","slug":"100133603-cake-away-cheesecake-200g"}],"activePromotion":{"code":"bunatatile-saptamanii-cw0923","name":"Preț redus","targetQuantity":null},"saveMe":null,"labels":[{"type":"v1","items":[{"text":"-20%","backgroundColor":"#FF9903","textColor":"#FFFFFF"}]}],"geniusPrice":null,"geniusUnitPricePerLabel":null,"banner":{"text":"Super preț","textColor":"#FF0000","bgColor":"#FFF2EC","icon":null,"link":"https://www.freshful.ro/oferte/bunatatile-saptamanii-cw0923","type":"promo","analyticsEventType":"select_promotion","analyticsEventPayload":{"promotion_id":"bunatatile-saptamanii-cw0923","promotion_name":"Oferta proaspătă a săptămânii"}},"discountLabel":"Economisești 20%","geniusDiscountLabel":null,"badge":null},{"code":"100149958","variantCode":"100149958","name":"Sărățele cu susan 200g","slug":"100149958-pain-plaisir-saratele-cu-susan-200g","unitPriceLabel":"99,95 Lei/kg","brand":"Pain Plaisir","brandCode":"2974","brandFilterCode":"pain-plaisir-b3059","sku":"100149958","price":19.99,"originalPrice":24.99,"currencyCode":"RON","currency":"Lei","image":{"thumbnail":{"default":"https://cdn.freshful.ro/media/cache/sylius_shop_product_thumbnail/dc/e2/0ea9bcdba1944b2f6c9dfb4d19f8.jpg"},"large":{"default":"https://cdn.freshful.ro/media/cache/freshful_large/dc/e2/0ea9bcdba1944b2f6c9dfb4d19f8.jpg"},"extralarge":{"default":"https://cdn.freshful.ro/media/cache/sylius_shop_product_original/dc/e2/0ea9bcdba1944b2f6c9dfb4d19f8.jpg"}},"label":{"text":"-20%","backgroundColor":"#FF9903","textColor":"#FFFFFF"},"tags":[],"isAvailable":true,"maxAvailableQuantity":67,"maxAllowedQuantity":100,"breadcrumbs":[{"code":"1","name":"Brutărie & patiserie","slug":"1-brutarie-si-patiserie"},{"code":"102","name":"Patiserie","slug":"102-patiserie"},{"code":"10204","name":"Sărățele, saleuri și covrigi","slug":"10204-saratele-saleuri-si-covrigi"},{"code":"100149958","name":"Sărățele cu susan 200g","slug":"100149958-pain-plaisir-saratele-cu-susan-200g"}],"activePromotion":{"code":"bunatatile-saptamanii-cw0923","name":"Preț redus","targetQuantity":null},"saveMe":null,"labels":[{"type":"v1","items":[{"text":"-20%","backgroundColor":"#FF9903","textColor":"#FFFFFF"}]}],"geniusPrice":null,"geniusUnitPricePerLabel":null,"banner":{"text":"Super preț","textColor":"#FF0000","bgColor":"#FFF2EC","icon":null,"link":"https://www.freshful.ro/oferte/bunatatile-saptamanii-cw0923","type":"promo","analyticsEventType":"select_promotion","analyticsEventPayload":{"promotion_id":"bunatatile-saptamanii-cw0923","promotion_name":"Oferta proaspătă a săptămânii"}},"discountLabel":"Economisești 20%","geniusDiscountLabel":null,"badge":null},{"code":"100140393","variantCode":"100140393","name":"Fursecuri cu stafide 200g","slug":"100140393-san-delicio-fursecuri-cu-stafide-200g","unitPriceLabel":"59,95 Lei/kg","brand":"San Delicio","brandCode":"2681","brandFilterCode":"san-delicio-b2685","sku":"100140393","price":11.99,"originalPrice":null,"currencyCode":"RON","currency":"Lei","image":{"thumbnail":{"default":"https://cdn.freshful.ro/media/cache/sylius_shop_product_thumbnail/ee/e2/6f2db6838fd0e672b9b3bbdc9870.jpg"},"large":{"default":"https://cdn.freshful.ro/media/cache/freshful_large/ee/e2/6f2db6838fd0e672b9b3bbdc9870.jpg"},"extralarge":{"default":"https://cdn.freshful.ro/media/cache/sylius_shop_product_original/ee/e2/6f2db6838fd0e672b9b3bbdc9870.jpg"}},"label":{"text":"Mici producători","backgroundColor":"#7B61FF","textColor":"#FFFFFF"},"tags":[{"type":"MadeInRomania","text":"Made In Romania","icon":"https://cdn.freshful.ro/assets/product_tags/made_in_romania.svg","iconPng":"https://cdn.freshful.ro/assets/product_tags/made_in_romania.png","backgroundColor":"#EDF2FD","textColor":"#1653CA"}],"isAvailable":true,"maxAvailableQuantity":100,"maxAllowedQuantity":100,"breadcrumbs":[{"code":"1","name":"Brutărie & patiserie","slug":"1-brutarie-si-patiserie"},{"code":"102","name":"Patiserie","slug":"102-patiserie"},{"code":"10203","name":"Cozonac, fursecuri și cornulețe artizanale","slug":"10203-cozonac-fursecuri-si-cornulete-artizanale"},{"code":"100140393","name":"Fursecuri cu stafide 200g","slug":"100140393-san-delicio-fursecuri-cu-stafide-200g"}],"activePromotion":null,"saveMe":null,"labels":[{"type":"v1","items":[{"text":"Mici producători","backgroundColor":"#7B61FF","textColor":"#FFFFFF"}]}],"geniusPrice":null,"geniusUnitPricePerLabel":null,"banner":null,"discountLabel":null,"geniusDiscountLabel":null,"badge":null},{"code":"100061579","variantCode":"100061579","name":"Covrigei cu cașcaval 150g","slug":"100061579-grewe-covrigei-cu-cascaval-150g","unitPriceLabel":"61,27 Lei/kg","brand":"Grewe","brandCode":"472","brandFilterCode":"grewe-b473","sku":"100061579","price":9.19,"originalPrice":null,"currencyCode":"RON","currency":"Lei","image":{"thumbnail":{"default":"https://cdn.freshful.ro/media/cache/sylius_shop_product_thumbnail/29/54/172995ea1214a2831a8cfd61402a.jpg"},"large":{"default":"https://cdn.freshful.ro/media/cache/freshful_large/29/54/172995ea1214a2831a8cfd61402a.jpg"},"extralarge":{"default":"https://cdn.freshful.ro/media/cache/sylius_shop_product_original/29/54/172995ea1214a2831a8cfd61402a.jpg"}},"label":null,"tags":[{"type":"MadeInRomania","text":"Made In Romania","icon":"https://cdn.freshful.ro/assets/product_tags/made_in_romania.svg","iconPng":"https://cdn.freshful.ro/assets/product_tags/made_in_romania.png","backgroundColor":"#EDF2FD","textColor":"#1653CA"}],"isAvailable":true,"maxAvailableQuantity":100,"maxAllowedQuantity":100,"breadcrumbs":[{"code":"1","name":"Brutărie & patiserie","slug":"1-brutarie-si-patiserie"},{"code":"102","name":"Patiserie","slug":"102-patiserie"},{"code":"10204","name":"Sărățele, saleuri și covrigi","slug":"10204-saratele-saleuri-si-covrigi"},{"code":"100061579","name":"Covrigei cu cașcaval 150g","slug":"100061579-grewe-covrigei-cu-cascaval-150g"}],"activePromotion":null,"saveMe":null,"labels":[],"geniusPrice":null,"geniusUnitPricePerLabel":null,"banner":null,"discountLabel":null,"geniusDiscountLabel":null,"badge":null},{"code":"100140399","variantCode":"100140399","name":"Pogăcele cu cașcaval 150g","slug":"100140399-san-delicio-pogacele-cu-cascaval-150g","unitPriceLabel":"73,27 Lei/kg","brand":"San Delicio","brandCode":"2681","brandFilterCode":"san-delicio-b2685","sku":"100140399","price":10.99,"originalPrice":null,"currencyCode":"RON","currency":"Lei","image":{"thumbnail":{"default":"https://cdn.freshful.ro/media/cache/sylius_shop_product_thumbnail/b4/19/13b530da30af142296db786889d5.jpg"},"large":{"default":"https://cdn.freshful.ro/media/cache/freshful_large/b4/19/13b530da30af142296db786889d5.jpg"},"extralarge":{"default":"https://cdn.freshful.ro/media/cache/sylius_shop_product_original/b4/19/13b530da30af142296db786889d5.jpg"}},"label":{"text":"Mici producători","backgroundColor":"#7B61FF","textColor":"#FFFFFF"},"tags":[{"type":"MadeInRomania","text":"Made In Romania","icon":"https://cdn.freshful.ro/assets/product_tags/made_in_romania.svg","iconPng":"https://cdn.freshful.ro/assets/product_tags/made_in_romania.png","backgroundColor":"#EDF2FD","textColor":"#1653CA"}],"isAvailable":true,"maxAvailableQuantity":8,"maxAllowedQuantity":100,"breadcrumbs":[{"code":"1","name":"Brutărie & patiserie","slug":"1-brutarie-si-patiserie"},{"code":"102","name":"Patiserie","slug":"102-patiserie"},{"code":"10204","name":"Sărățele, saleuri și covrigi","slug":"10204-saratele-saleuri-si-covrigi"},{"code":"100140399","name":"Pogăcele cu cașcaval 150g","slug":"100140399-san-delicio-pogacele-cu-cascaval-150g"}],"activePromotion":null,"saveMe":null,"labels":[{"type":"v1","items":[{"text":"Mici producători","backgroundColor":"#7B61FF","textColor":"#FFFFFF"}]}],"geniusPrice":null,"geniusUnitPricePerLabel":null,"banner":null,"discountLabel":null,"geniusDiscountLabel":null,"badge":null}],"filters":{"countSelected":0,"items":[{"code":"promotion","name":"Promoții","countSelected":0,"values":[{"code":"bunatatile-saptamanii-cw0923","name":"Oferta proaspătă a săptămânii","isSelected":false,"count":5},{"code":"superpreturile-saptamanii","name":"Superprețurile zilei","isSelected":false,"count":2}]},{"code":"brand","name":"Brand","countSelected":0,"values":[{"code":"ana-pan-b2604","name":"Ana Pan","isSelected":false,"count":3},{"code":"boromir-b141","name":"Boromir","isSelected":false,"count":2},{"code":"brutaria-mamapan-b510","name":"Brutaria Mamapan","isSelected":false,"count":2},{"code":"cake-away-b2531","name":"Cake Away","isSelected":false,"count":14},{"code":"dioszegi-b1502","name":"Dioszegi","isSelected":false,"count":2},{"code":"flour-more-the-bakery-b1090","name":"Flour & More - The Bakery","isSelected":false,"count":21},{"code":"grewe-b473","name":"Grewe","isSelected":false,"count":7},{"code":"guyader-b2957","name":"Guyader","isSelected":false,"count":3},{"code":"iris-b2516","name":"Iris","isSelected":false,"count":4},{"code":"my-maia-by-freshful-b1698","name":"My Maia by Freshful","isSelected":false,"count":2},{"code":"ohvaz-b109","name":"Ohvăz","isSelected":false,"count":3},{"code":"pain-plaisir-b3059","name":"Pain Plaisir","isSelected":false,"count":5},{"code":"san-delicio-b2685","name":"San Delicio","isSelected":false,"count":11},{"code":"sublimmme-b3252","name":"Sublimmme","isSelected":false,"count":5},{"code":"tort-de-bezea-b2965","name":"Tort de bezea","isSelected":false,"count":5},{"code":"vel-pitar-b2835","name":"Vel Pitar","isSelected":false,"count":8}]},{"code":"diet_lifestyle","name":"Dietă și lifestyle","countSelected":0,"values":[{"code":"copt-astazi-a87","name":"Copt astăzi","isSelected":false,"count":2},{"code":"fara-conservanti-a37","name":"Fara conservanti","isSelected":false,"count":26},{"code":"fara-e-uri-a84","name":"Fara E-uri","isSelected":false,"count":3},{"code":"fara-gluten-a16","name":"Fara gluten","isSelected":false,"count":5},{"code":"fara-lactoza-a38","name":"Fara lactoza","isSelected":false,"count":5},{"code":"fara-zahar-adaugat-a29","name":"Fara zahar adaugat","isSelected":false,"count":12},{"code":"made-in-romania-a85","name":"Made In Romania","isSelected":false,"count":40},{"code":"vegan-a24","name":"Vegan","isSelected":false,"count":10}]}]},"orderBy":[{"field":"price","direction":"asc","name":"Preț crescător","isSelected":false},{"field":"price","direction":"desc","name":"Preț descrescător","isSelected":false},{"field":"popularity","direction":"desc","name":"Cele mai populare","isSelected":true},{"field":"category","direction":"asc","name":"Categorie","isSelected":false}],"metaTitle":"Patiserie - Gamă variată","metaDescription":"Vrei Patiserie? Alege dintr-o gamă variată. Comanzi simplu și ai livrare rapidă, calitate și prospețime. Hai pe Freshful.ro","metaKeywords":null,"banners":[]}}