{"type":"subcategory","payload":{"analyticsListId":"category_10204-saratele-saleuri-si-covrigi","analyticsListName":"Category - Sărățele, saleuri și covrigi","name":"Sărățele, saleuri și covrigi","slug":"10204-saratele-saleuri-si-covrigi","image":null,"breadcrumbs":[{"code":"1","name":"Brutărie & patiserie","slug":"1-brutarie-si-patiserie"},{"code":"102","name":"Patiserie","slug":"102-patiserie"},{"code":"10204","name":"Sărățele, saleuri și covrigi","slug":"10204-saratele-saleuri-si-covrigi"}],"slots":[],"page":1,"limit":10,"pages":3,"count":22,"siblings":[{"name":"Pâine","slug":"101-paine","selected":false},{"name":"Patiserie","slug":"102-patiserie","selected":true}],"children":[{"name":"Toate produsele","slug":"102-patiserie","selected":false},{"name":"Patiserie proaspătă din cuptor","slug":"10201-patiserie-proaspata-din-cuptor","selected":false},{"name":"Prăjituri artizanale","slug":"10202-prajituri-artizanale","selected":false},{"name":"Cozonac, fursecuri și cornulețe artizanale","slug":"10203-cozonac-fursecuri-si-cornulete-artizanale","selected":false},{"name":"Sărățele, saleuri și covrigi","slug":"10204-saratele-saleuri-si-covrigi","selected":true}],"products":[{"code":"100149958","variantCode":"100149958","name":"Sărățele cu susan 200g","slug":"100149958-pain-plaisir-saratele-cu-susan-200g","unitPriceLabel":"99,95 Lei/kg","brand":"Pain Plaisir","brandCode":"2974","brandFilterCode":"pain-plaisir-b3059","sku":"100149958","price":19.99,"originalPrice":24.99,"currencyCode":"RON","currency":"Lei","image":{"thumbnail":{"default":"https://cdn.freshful.ro/media/cache/sylius_shop_product_thumbnail/dc/e2/0ea9bcdba1944b2f6c9dfb4d19f8.jpg"},"large":{"default":"https://cdn.freshful.ro/media/cache/freshful_large/dc/e2/0ea9bcdba1944b2f6c9dfb4d19f8.jpg"},"extralarge":{"default":"https://cdn.freshful.ro/media/cache/sylius_shop_product_original/dc/e2/0ea9bcdba1944b2f6c9dfb4d19f8.jpg"}},"label":{"text":"-20%","backgroundColor":"#FF9903","textColor":"#FFFFFF"},"tags":[],"isAvailable":true,"maxAvailableQuantity":67,"maxAllowedQuantity":100,"breadcrumbs":[{"code":"1","name":"Brutărie & patiserie","slug":"1-brutarie-si-patiserie"},{"code":"102","name":"Patiserie","slug":"102-patiserie"},{"code":"10204","name":"Sărățele, saleuri și covrigi","slug":"10204-saratele-saleuri-si-covrigi"},{"code":"100149958","name":"Sărățele cu susan 200g","slug":"100149958-pain-plaisir-saratele-cu-susan-200g"}],"activePromotion":{"code":"bunatatile-saptamanii-cw0923","name":"Preț redus","targetQuantity":null},"saveMe":null,"labels":[{"type":"v1","items":[{"text":"-20%","backgroundColor":"#FF9903","textColor":"#FFFFFF"}]}],"geniusPrice":null,"geniusUnitPricePerLabel":null,"banner":{"text":"Super preț","textColor":"#FF0000","bgColor":"#FFF2EC","icon":null,"link":"https://www.freshful.ro/oferte/bunatatile-saptamanii-cw0923","type":"promo","analyticsEventType":"select_promotion","analyticsEventPayload":{"promotion_id":"bunatatile-saptamanii-cw0923","promotion_name":"Oferta proaspătă a săptămânii"}},"discountLabel":"Economisești 20%","geniusDiscountLabel":null,"badge":null},{"code":"100061579","variantCode":"100061579","name":"Covrigei cu cașcaval 150g","slug":"100061579-grewe-covrigei-cu-cascaval-150g","unitPriceLabel":"61,27 Lei/kg","brand":"Grewe","brandCode":"472","brandFilterCode":"grewe-b473","sku":"100061579","price":9.19,"originalPrice":null,"currencyCode":"RON","currency":"Lei","image":{"thumbnail":{"default":"https://cdn.freshful.ro/media/cache/sylius_shop_product_thumbnail/29/54/172995ea1214a2831a8cfd61402a.jpg"},"large":{"default":"https://cdn.freshful.ro/media/cache/freshful_large/29/54/172995ea1214a2831a8cfd61402a.jpg"},"extralarge":{"default":"https://cdn.freshful.ro/media/cache/sylius_shop_product_original/29/54/172995ea1214a2831a8cfd61402a.jpg"}},"label":null,"tags":[{"type":"MadeInRomania","text":"Made In Romania","icon":"https://cdn.freshful.ro/assets/product_tags/made_in_romania.svg","iconPng":"https://cdn.freshful.ro/assets/product_tags/made_in_romania.png","backgroundColor":"#EDF2FD","textColor":"#1653CA"}],"isAvailable":true,"maxAvailableQuantity":100,"maxAllowedQuantity":100,"breadcrumbs":[{"code":"1","name":"Brutărie & patiserie","slug":"1-brutarie-si-patiserie"},{"code":"102","name":"Patiserie","slug":"102-patiserie"},{"code":"10204","name":"Sărățele, saleuri și covrigi","slug":"10204-saratele-saleuri-si-covrigi"},{"code":"100061579","name":"Covrigei cu cașcaval 150g","slug":"100061579-grewe-covrigei-cu-cascaval-150g"}],"activePromotion":null,"saveMe":null,"labels":[],"geniusPrice":null,"geniusUnitPricePerLabel":null,"banner":null,"discountLabel":null,"geniusDiscountLabel":null,"badge":null},{"code":"100140399","variantCode":"100140399","name":"Pogăcele cu cașcaval 150g","slug":"100140399-san-delicio-pogacele-cu-cascaval-150g","unitPriceLabel":"73,27 Lei/kg","brand":"San Delicio","brandCode":"2681","brandFilterCode":"san-delicio-b2685","sku":"100140399","price":10.99,"originalPrice":null,"currencyCode":"RON","currency":"Lei","image":{"thumbnail":{"default":"https://cdn.freshful.ro/media/cache/sylius_shop_product_thumbnail/b4/19/13b530da30af142296db786889d5.jpg"},"large":{"default":"https://cdn.freshful.ro/media/cache/freshful_large/b4/19/13b530da30af142296db786889d5.jpg"},"extralarge":{"default":"https://cdn.freshful.ro/media/cache/sylius_shop_product_original/b4/19/13b530da30af142296db786889d5.jpg"}},"label":{"text":"Mici producători","backgroundColor":"#7B61FF","textColor":"#FFFFFF"},"tags":[{"type":"MadeInRomania","text":"Made In Romania","icon":"https://cdn.freshful.ro/assets/product_tags/made_in_romania.svg","iconPng":"https://cdn.freshful.ro/assets/product_tags/made_in_romania.png","backgroundColor":"#EDF2FD","textColor":"#1653CA"}],"isAvailable":true,"maxAvailableQuantity":8,"maxAllowedQuantity":100,"breadcrumbs":[{"code":"1","name":"Brutărie & patiserie","slug":"1-brutarie-si-patiserie"},{"code":"102","name":"Patiserie","slug":"102-patiserie"},{"code":"10204","name":"Sărățele, saleuri și covrigi","slug":"10204-saratele-saleuri-si-covrigi"},{"code":"100140399","name":"Pogăcele cu cașcaval 150g","slug":"100140399-san-delicio-pogacele-cu-cascaval-150g"}],"activePromotion":null,"saveMe":null,"labels":[{"type":"v1","items":[{"text":"Mici producători","backgroundColor":"#7B61FF","textColor":"#FFFFFF"}]}],"geniusPrice":null,"geniusUnitPricePerLabel":null,"banner":null,"discountLabel":null,"geniusDiscountLabel":null,"badge":null},{"code":"100061577","variantCode":"100061577","name":"Spirale cu susan 200g","slug":"100061577-grewe-spirale-cu-susan-200g","unitPriceLabel":"47,45 Lei/kg","brand":"Grewe","brandCode":"472","brandFilterCode":"grewe-b473","sku":"100061577","price":9.49,"originalPrice":null,"currencyCode":"RON","currency":"Lei","image":{"thumbnail":{"default":"https://cdn.freshful.ro/media/cache/sylius_shop_product_thumbnail/10/2b/df7b76de2bae427c2d9f0c7835c4.jpg"},"large":{"default":"https://cdn.freshful.ro/media/cache/freshful_large/10/2b/df7b76de2bae427c2d9f0c7835c4.jpg"},"extralarge":{"default":"https://cdn.freshful.ro/media/cache/sylius_shop_product_original/10/2b/df7b76de2bae427c2d9f0c7835c4.jpg"}},"label":null,"tags":[{"type":"MadeInRomania","text":"Made In Romania","icon":"https://cdn.freshful.ro/assets/product_tags/made_in_romania.svg","iconPng":"https://cdn.freshful.ro/assets/product_tags/made_in_romania.png","backgroundColor":"#EDF2FD","textColor":"#1653CA"}],"isAvailable":true,"maxAvailableQuantity":100,"maxAllowedQuantity":100,"breadcrumbs":[{"code":"1","name":"Brutărie & patiserie","slug":"1-brutarie-si-patiserie"},{"code":"102","name":"Patiserie","slug":"102-patiserie"},{"code":"10204","name":"Sărățele, saleuri și covrigi","slug":"10204-saratele-saleuri-si-covrigi"},{"code":"100061577","name":"Spirale cu susan 200g","slug":"100061577-grewe-spirale-cu-susan-200g"}],"activePromotion":null,"saveMe":null,"labels":[],"geniusPrice":null,"geniusUnitPricePerLabel":null,"banner":null,"discountLabel":null,"geniusDiscountLabel":null,"badge":null},{"code":"100061576","variantCode":"100061576","name":"Sărățele cu chimen 200g","slug":"100061576-grewe-saratele-cu-chimen-200g","unitPriceLabel":"49,95 Lei/kg","brand":"Grewe","brandCode":"472","brandFilterCode":"grewe-b473","sku":"100061576","price":9.99,"originalPrice":null,"currencyCode":"RON","currency":"Lei","image":{"thumbnail":{"default":"https://cdn.freshful.ro/media/cache/sylius_shop_product_thumbnail/9f/05/57173d118bb2a69c7cf7f936822b.jpg"},"large":{"default":"https://cdn.freshful.ro/media/cache/freshful_large/9f/05/57173d118bb2a69c7cf7f936822b.jpg"},"extralarge":{"default":"https://cdn.freshful.ro/media/cache/sylius_shop_product_original/9f/05/57173d118bb2a69c7cf7f936822b.jpg"}},"label":null,"tags":[{"type":"MadeInRomania","text":"Made In Romania","icon":"https://cdn.freshful.ro/assets/product_tags/made_in_romania.svg","iconPng":"https://cdn.freshful.ro/assets/product_tags/made_in_romania.png","backgroundColor":"#EDF2FD","textColor":"#1653CA"}],"isAvailable":true,"maxAvailableQuantity":71,"maxAllowedQuantity":100,"breadcrumbs":[{"code":"1","name":"Brutărie & patiserie","slug":"1-brutarie-si-patiserie"},{"code":"102","name":"Patiserie","slug":"102-patiserie"},{"code":"10204","name":"Sărățele, saleuri și covrigi","slug":"10204-saratele-saleuri-si-covrigi"},{"code":"100061576","name":"Sărățele cu chimen 200g","slug":"100061576-grewe-saratele-cu-chimen-200g"}],"activePromotion":null,"saveMe":null,"labels":[],"geniusPrice":null,"geniusUnitPricePerLabel":null,"banner":null,"discountLabel":null,"geniusDiscountLabel":null,"badge":null},{"code":"100134520","variantCode":"100134520","name":"Sărățele cu cașcaval 200g","slug":"100134520-grewe-saratele-cu-cascaval-200g","unitPriceLabel":"49,95 Lei/buc","brand":"Grewe","brandCode":"472","brandFilterCode":"grewe-b473","sku":"100134520","price":9.99,"originalPrice":null,"currencyCode":"RON","currency":"Lei","image":{"thumbnail":{"default":"https://cdn.freshful.ro/media/cache/sylius_shop_product_thumbnail/0d/fd/a2b4d261e68c00186e855553554b.jpg"},"large":{"default":"https://cdn.freshful.ro/media/cache/freshful_large/0d/fd/a2b4d261e68c00186e855553554b.jpg"},"extralarge":{"default":"https://cdn.freshful.ro/media/cache/sylius_shop_product_original/0d/fd/a2b4d261e68c00186e855553554b.jpg"}},"label":null,"tags":[{"type":"MadeInRomania","text":"Made In Romania","icon":"https://cdn.freshful.ro/assets/product_tags/made_in_romania.svg","iconPng":"https://cdn.freshful.ro/assets/product_tags/made_in_romania.png","backgroundColor":"#EDF2FD","textColor":"#1653CA"}],"isAvailable":true,"maxAvailableQuantity":29,"maxAllowedQuantity":100,"breadcrumbs":[{"code":"1","name":"Brutărie & patiserie","slug":"1-brutarie-si-patiserie"},{"code":"102","name":"Patiserie","slug":"102-patiserie"},{"code":"10204","name":"Sărățele, saleuri și covrigi","slug":"10204-saratele-saleuri-si-covrigi"},{"code":"100134520","name":"Sărățele cu cașcaval 200g","slug":"100134520-grewe-saratele-cu-cascaval-200g"}],"activePromotion":null,"saveMe":null,"labels":[],"geniusPrice":null,"geniusUnitPricePerLabel":null,"banner":null,"discountLabel":null,"geniusDiscountLabel":null,"badge":null},{"code":"100147788","variantCode":"100147788","name":"Pogacea Bunicii 250g","slug":"100147788-dioszegi-pogacea-bunicii-250g","unitPriceLabel":"49,96 Lei/kg","brand":"Dioszegi","brandCode":"1498","brandFilterCode":"dioszegi-b1502","sku":"100147788","price":12.49,"originalPrice":null,"currencyCode":"RON","currency":"Lei","image":{"thumbnail":{"default":"https://cdn.freshful.ro/media/cache/sylius_shop_product_thumbnail/bf/7e/6f0a913750862124941c0ef3afae.jpg"},"large":{"default":"https://cdn.freshful.ro/media/cache/freshful_large/bf/7e/6f0a913750862124941c0ef3afae.jpg"},"extralarge":{"default":"https://cdn.freshful.ro/media/cache/sylius_shop_product_original/bf/7e/6f0a913750862124941c0ef3afae.jpg"}},"label":{"text":"Mici producători","backgroundColor":"#7B61FF","textColor":"#FFFFFF"},"tags":[],"isAvailable":true,"maxAvailableQuantity":1,"maxAllowedQuantity":100,"breadcrumbs":[{"code":"1","name":"Brutărie & patiserie","slug":"1-brutarie-si-patiserie"},{"code":"102","name":"Patiserie","slug":"102-patiserie"},{"code":"10204","name":"Sărățele, saleuri și covrigi","slug":"10204-saratele-saleuri-si-covrigi"},{"code":"100147788","name":"Pogacea Bunicii 250g","slug":"100147788-dioszegi-pogacea-bunicii-250g"}],"activePromotion":null,"saveMe":null,"labels":[{"type":"v1","items":[{"text":"Mici producători","backgroundColor":"#7B61FF","textColor":"#FFFFFF"}]}],"geniusPrice":null,"geniusUnitPricePerLabel":null,"banner":null,"discountLabel":null,"geniusDiscountLabel":null,"badge":null},{"code":"100150285","variantCode":"100150285","name":"Plăcintă cu brânză sărată 200g","slug":"100150285-flour-more-the-bakery-placinta-cu-branza-sarata-200g","unitPriceLabel":"84,9 Lei/kg","brand":"Flour & More - The Bakery","brandCode":"1089","brandFilterCode":"flour-more-the-bakery-b1090","sku":"100150285","price":16.98,"originalPrice":null,"currencyCode":"RON","currency":"Lei","image":{"thumbnail":{"default":"https://cdn.freshful.ro/media/cache/sylius_shop_product_thumbnail/c6/39/db9e434180f8858154031b4e111b.jpg"},"large":{"default":"https://cdn.freshful.ro/media/cache/freshful_large/c6/39/db9e434180f8858154031b4e111b.jpg"},"extralarge":{"default":"https://cdn.freshful.ro/media/cache/sylius_shop_product_original/c6/39/db9e434180f8858154031b4e111b.jpg"}},"label":{"text":"Mici producători","backgroundColor":"#7B61FF","textColor":"#FFFFFF"},"tags":[{"type":"NoPreservatives","text":"Fara conservanti","icon":"https://cdn.freshful.ro/assets/product_tags/fara_conservanti.svg","iconPng":"https://cdn.freshful.ro/assets/product_tags/fara_conservanti.png","backgroundColor":"#F0F2FF","textColor":"#7889DD"}],"isAvailable":true,"maxAvailableQuantity":22,"maxAllowedQuantity":100,"breadcrumbs":[{"code":"1","name":"Brutărie & patiserie","slug":"1-brutarie-si-patiserie"},{"code":"102","name":"Patiserie","slug":"102-patiserie"},{"code":"10204","name":"Sărățele, saleuri și covrigi","slug":"10204-saratele-saleuri-si-covrigi"},{"code":"100150285","name":"Plăcintă cu brânză sărată 200g","slug":"100150285-flour-more-the-bakery-placinta-cu-branza-sarata-200g"}],"activePromotion":null,"saveMe":null,"labels":[{"type":"v1","items":[{"text":"Mici producători","backgroundColor":"#7B61FF","textColor":"#FFFFFF"}]}],"geniusPrice":null,"geniusUnitPricePerLabel":null,"banner":null,"discountLabel":null,"geniusDiscountLabel":null,"badge":null},{"code":"100061578","variantCode":"100061578","name":"Covrigei cu chimen 150g","slug":"100061578-grewe-covrigei-cu-chimen-150g","unitPriceLabel":"61,27 Lei/kg","brand":"Grewe","brandCode":"472","brandFilterCode":"grewe-b473","sku":"100061578","price":9.19,"originalPrice":null,"currencyCode":"RON","currency":"Lei","image":{"thumbnail":{"default":"https://cdn.freshful.ro/media/cache/sylius_shop_product_thumbnail/46/1b/f12ccd350d5bc490699b0f7c843e.jpg"},"large":{"default":"https://cdn.freshful.ro/media/cache/freshful_large/46/1b/f12ccd350d5bc490699b0f7c843e.jpg"},"extralarge":{"default":"https://cdn.freshful.ro/media/cache/sylius_shop_product_original/46/1b/f12ccd350d5bc490699b0f7c843e.jpg"}},"label":null,"tags":[{"type":"MadeInRomania","text":"Made In Romania","icon":"https://cdn.freshful.ro/assets/product_tags/made_in_romania.svg","iconPng":"https://cdn.freshful.ro/assets/product_tags/made_in_romania.png","backgroundColor":"#EDF2FD","textColor":"#1653CA"}],"isAvailable":true,"maxAvailableQuantity":22,"maxAllowedQuantity":100,"breadcrumbs":[{"code":"1","name":"Brutărie & patiserie","slug":"1-brutarie-si-patiserie"},{"code":"102","name":"Patiserie","slug":"102-patiserie"},{"code":"10204","name":"Sărățele, saleuri și covrigi","slug":"10204-saratele-saleuri-si-covrigi"},{"code":"100061578","name":"Covrigei cu chimen 150g","slug":"100061578-grewe-covrigei-cu-chimen-150g"}],"activePromotion":null,"saveMe":null,"labels":[],"geniusPrice":null,"geniusUnitPricePerLabel":null,"banner":null,"discountLabel":null,"geniusDiscountLabel":null,"badge":null},{"code":"100062541","variantCode":"100062541","name":"Biscuiți sărați cu semințe 200g","slug":"100062541-brutaria-mamapan-biscuiti-sarati-cu-seminte-200g","unitPriceLabel":"64,95 Lei/kg","brand":"Brutaria Mamapan","brandCode":"509","brandFilterCode":"brutaria-mamapan-b510","sku":"100062541","price":12.99,"originalPrice":null,"currencyCode":"RON","currency":"Lei","image":{"thumbnail":{"default":"https://cdn.freshful.ro/media/cache/sylius_shop_product_thumbnail/6a/9e/45b2563b7eeb3d6922fd9e3dbdb1.jpg"},"large":{"default":"https://cdn.freshful.ro/media/cache/freshful_large/6a/9e/45b2563b7eeb3d6922fd9e3dbdb1.jpg"},"extralarge":{"default":"https://cdn.freshful.ro/media/cache/sylius_shop_product_original/6a/9e/45b2563b7eeb3d6922fd9e3dbdb1.jpg"}},"label":{"text":"Mici producători","backgroundColor":"#7B61FF","textColor":"#FFFFFF"},"tags":[{"type":"MadeInRomania","text":"Made In Romania","icon":"https://cdn.freshful.ro/assets/product_tags/made_in_romania.svg","iconPng":"https://cdn.freshful.ro/assets/product_tags/made_in_romania.png","backgroundColor":"#EDF2FD","textColor":"#1653CA"}],"isAvailable":true,"maxAvailableQuantity":14,"maxAllowedQuantity":100,"breadcrumbs":[{"code":"1","name":"Brutărie & patiserie","slug":"1-brutarie-si-patiserie"},{"code":"102","name":"Patiserie","slug":"102-patiserie"},{"code":"10204","name":"Sărățele, saleuri și covrigi","slug":"10204-saratele-saleuri-si-covrigi"},{"code":"100062541","name":"Biscuiți sărați cu semințe 200g","slug":"100062541-brutaria-mamapan-biscuiti-sarati-cu-seminte-200g"}],"activePromotion":null,"saveMe":null,"labels":[{"type":"v1","items":[{"text":"Mici producători","backgroundColor":"#7B61FF","textColor":"#FFFFFF"}]}],"geniusPrice":null,"geniusUnitPricePerLabel":null,"banner":null,"discountLabel":null,"geniusDiscountLabel":null,"badge":null}],"filters":{"countSelected":0,"items":[{"code":"promotion","name":"Promoții","countSelected":0,"values":[{"code":"bunatatile-saptamanii-cw0923","name":"Oferta proaspătă a săptămânii","isSelected":false,"count":1}]},{"code":"brand","name":"Brand","countSelected":0,"values":[{"code":"brutaria-mamapan-b510","name":"Brutaria Mamapan","isSelected":false,"count":2},{"code":"cake-away-b2531","name":"Cake Away","isSelected":false,"count":2},{"code":"dioszegi-b1502","name":"Dioszegi","isSelected":false,"count":1},{"code":"flour-more-the-bakery-b1090","name":"Flour & More - The Bakery","isSelected":false,"count":2},{"code":"grewe-b473","name":"Grewe","isSelected":false,"count":5},{"code":"guyader-b2957","name":"Guyader","isSelected":false,"count":3},{"code":"pain-plaisir-b3059","name":"Pain Plaisir","isSelected":false,"count":1},{"code":"san-delicio-b2685","name":"San Delicio","isSelected":false,"count":2},{"code":"vel-pitar-b2835","name":"Vel Pitar","isSelected":false,"count":4}]},{"code":"diet_lifestyle","name":"Dietă și lifestyle","countSelected":0,"values":[{"code":"fara-conservanti-a37","name":"Fara conservanti","isSelected":false,"count":2},{"code":"made-in-romania-a85","name":"Made In Romania","isSelected":false,"count":11}]}]},"orderBy":[{"field":"price","direction":"asc","name":"Preț crescător","isSelected":false},{"field":"price","direction":"desc","name":"Preț descrescător","isSelected":false},{"field":"popularity","direction":"desc","name":"Cele mai populare","isSelected":true},{"field":"category","direction":"asc","name":"Categorie","isSelected":false}],"metaTitle":"Sărățele, saleuri și covrigi - Gamă variată","metaDescription":"Vrei Sărățele, saleuri și covrigi? Alege dintr-o gamă variată. Comanzi simplu și ai livrare rapidă, calitate și prospețime. Hai pe Freshful.ro","metaKeywords":null,"banners":[]}}