{"type":"subcategory","payload":{"analyticsListId":"category_10202-prajituri-artizanale","analyticsListName":"Category - Prăjituri artizanale","name":"Prăjituri artizanale","slug":"10202-prajituri-artizanale","image":null,"breadcrumbs":[{"code":"1","name":"Brutărie & patiserie","slug":"1-brutarie-si-patiserie"},{"code":"102","name":"Patiserie","slug":"102-patiserie"},{"code":"10202","name":"Prăjituri artizanale","slug":"10202-prajituri-artizanale"}],"slots":[],"page":1,"limit":10,"pages":3,"count":24,"siblings":[{"name":"Pâine","slug":"101-paine","selected":false},{"name":"Patiserie","slug":"102-patiserie","selected":true}],"children":[{"name":"Toate produsele","slug":"102-patiserie","selected":false},{"name":"Patiserie proaspătă din cuptor","slug":"10201-patiserie-proaspata-din-cuptor","selected":false},{"name":"Prăjituri artizanale","slug":"10202-prajituri-artizanale","selected":true},{"name":"Cozonac, fursecuri și cornulețe artizanale","slug":"10203-cozonac-fursecuri-si-cornulete-artizanale","selected":false},{"name":"Sărățele, saleuri și covrigi","slug":"10204-saratele-saleuri-si-covrigi","selected":false}],"products":[{"code":"100151490","variantCode":"100151490","name":"Mousse inimă ciocolată 80g","slug":"100151490-flour-more-the-bakery-mousse-inima-ciocolata-80g","unitPriceLabel":"143,63 Lei/kg","brand":"Flour & More - The Bakery","brandCode":"1089","brandFilterCode":"flour-more-the-bakery-b1090","sku":"100151490","price":11.49,"originalPrice":15.49,"currencyCode":"RON","currency":"Lei","image":{"thumbnail":{"default":"https://cdn.freshful.ro/media/cache/sylius_shop_product_thumbnail/5a/36/1e2b06f4305625854b6859496b65.jpg"},"large":{"default":"https://cdn.freshful.ro/media/cache/freshful_large/5a/36/1e2b06f4305625854b6859496b65.jpg"},"extralarge":{"default":"https://cdn.freshful.ro/media/cache/sylius_shop_product_original/5a/36/1e2b06f4305625854b6859496b65.jpg"}},"label":{"text":"-25%","backgroundColor":"#FF9903","textColor":"#FFFFFF"},"tags":[{"type":"NoPreservatives","text":"Fara conservanti","icon":"https://cdn.freshful.ro/assets/product_tags/fara_conservanti.svg","iconPng":"https://cdn.freshful.ro/assets/product_tags/fara_conservanti.png","backgroundColor":"#F0F2FF","textColor":"#7889DD"}],"isAvailable":true,"maxAvailableQuantity":100,"maxAllowedQuantity":100,"breadcrumbs":[{"code":"1","name":"Brutărie & patiserie","slug":"1-brutarie-si-patiserie"},{"code":"102","name":"Patiserie","slug":"102-patiserie"},{"code":"10202","name":"Prăjituri artizanale","slug":"10202-prajituri-artizanale"},{"code":"100151490","name":"Mousse inimă ciocolată 80g","slug":"100151490-flour-more-the-bakery-mousse-inima-ciocolata-80g"}],"activePromotion":{"code":"superpreturile-saptamanii","name":"Preț redus","targetQuantity":null},"saveMe":null,"labels":[{"type":"v1","items":[{"text":"-25%","backgroundColor":"#FF9903","textColor":"#FFFFFF"}]}],"geniusPrice":null,"geniusUnitPricePerLabel":null,"banner":{"text":"Super preț","textColor":"#FF0000","bgColor":"#FFF2EC","icon":null,"link":"https://www.freshful.ro/oferte/superpreturile-saptamanii","type":"promo","analyticsEventType":"select_promotion","analyticsEventPayload":{"promotion_id":"superpreturile-saptamanii","promotion_name":"Superprețurile zilei"}},"discountLabel":"Economisești 25%","geniusDiscountLabel":null,"badge":null},{"code":"100139490","variantCode":"100139490","name":"Colivă Gustul Eternității 350g","slug":"100139490-flour-more-the-bakery-coliva-gustul-eternitatii-350g","unitPriceLabel":"42,83 Lei/kg","brand":"Flour & More - The Bakery","brandCode":"1089","brandFilterCode":"flour-more-the-bakery-b1090","sku":"100139490","price":14.99,"originalPrice":18.99,"currencyCode":"RON","currency":"Lei","image":{"thumbnail":{"default":"https://cdn.freshful.ro/media/cache/sylius_shop_product_thumbnail/a7/5d/07804ff30771fe106c0fa43690d5.jpg"},"large":{"default":"https://cdn.freshful.ro/media/cache/freshful_large/a7/5d/07804ff30771fe106c0fa43690d5.jpg"},"extralarge":{"default":"https://cdn.freshful.ro/media/cache/sylius_shop_product_original/a7/5d/07804ff30771fe106c0fa43690d5.jpg"}},"label":{"text":"-21%","backgroundColor":"#FF9903","textColor":"#FFFFFF"},"tags":[{"type":"NoPreservatives","text":"Fara conservanti","icon":"https://cdn.freshful.ro/assets/product_tags/fara_conservanti.svg","iconPng":"https://cdn.freshful.ro/assets/product_tags/fara_conservanti.png","backgroundColor":"#F0F2FF","textColor":"#7889DD"}],"isAvailable":true,"maxAvailableQuantity":26,"maxAllowedQuantity":100,"breadcrumbs":[{"code":"1","name":"Brutărie & patiserie","slug":"1-brutarie-si-patiserie"},{"code":"102","name":"Patiserie","slug":"102-patiserie"},{"code":"10202","name":"Prăjituri artizanale","slug":"10202-prajituri-artizanale"},{"code":"100139490","name":"Colivă Gustul Eternității 350g","slug":"100139490-flour-more-the-bakery-coliva-gustul-eternitatii-350g"}],"activePromotion":{"code":"bunatatile-saptamanii-cw0923","name":"Preț redus","targetQuantity":null},"saveMe":null,"labels":[{"type":"v1","items":[{"text":"-21%","backgroundColor":"#FF9903","textColor":"#FFFFFF"}]}],"geniusPrice":null,"geniusUnitPricePerLabel":null,"banner":{"text":"Super preț","textColor":"#FF0000","bgColor":"#FFF2EC","icon":null,"link":"https://www.freshful.ro/oferte/bunatatile-saptamanii-cw0923","type":"promo","analyticsEventType":"select_promotion","analyticsEventPayload":{"promotion_id":"bunatatile-saptamanii-cw0923","promotion_name":"Oferta proaspătă a săptămânii"}},"discountLabel":"Economisești 21%","geniusDiscountLabel":null,"badge":null},{"code":"100107437","variantCode":"100107437","name":"Mousse ciocolată fără zahăr 150g","slug":"100107437-flour-more-the-bakery-mousse-ciocolata-fara-zahar-150g","unitPriceLabel":"153,27 Lei/kg","brand":"Flour & More - The Bakery","brandCode":"1089","brandFilterCode":"flour-more-the-bakery-b1090","sku":"100107437","price":22.99,"originalPrice":null,"currencyCode":"RON","currency":"Lei","image":{"thumbnail":{"default":"https://cdn.freshful.ro/media/cache/sylius_shop_product_thumbnail/55/5a/c79c899078d1120777ac31114de7.jpg"},"large":{"default":"https://cdn.freshful.ro/media/cache/freshful_large/55/5a/c79c899078d1120777ac31114de7.jpg"},"extralarge":{"default":"https://cdn.freshful.ro/media/cache/sylius_shop_product_original/55/5a/c79c899078d1120777ac31114de7.jpg"}},"label":{"text":"-20% cu Genius","backgroundColor":"#FEF3FA","textColor":"#CD015F"},"tags":[{"type":"NoAddedSugar","text":"Fara zahar adaugat","icon":"https://cdn.freshful.ro/assets/product_tags/fara_zahar_adaugat.svg","iconPng":"https://cdn.freshful.ro/assets/product_tags/fara_zahar_adaugat.png","backgroundColor":"#F8EDF7","textColor":"#C05EBC"},{"type":"NoPreservatives","text":"Fara conservanti","icon":"https://cdn.freshful.ro/assets/product_tags/fara_conservanti.svg","iconPng":"https://cdn.freshful.ro/assets/product_tags/fara_conservanti.png","backgroundColor":"#F0F2FF","textColor":"#7889DD"}],"isAvailable":true,"maxAvailableQuantity":88,"maxAllowedQuantity":100,"breadcrumbs":[{"code":"1","name":"Brutărie & patiserie","slug":"1-brutarie-si-patiserie"},{"code":"102","name":"Patiserie","slug":"102-patiserie"},{"code":"10202","name":"Prăjituri artizanale","slug":"10202-prajituri-artizanale"},{"code":"100107437","name":"Mousse ciocolată fără zahăr 150g","slug":"100107437-flour-more-the-bakery-mousse-ciocolata-fara-zahar-150g"}],"activePromotion":null,"saveMe":null,"labels":[{"type":"gdeals","items":[{"text":"","backgroundColor":"","textColor":""}]},{"type":"v3","items":[{"text":"-20% cu Genius","backgroundColor":"#FEF3FA","textColor":"#CD015F"}]}],"geniusPrice":18.39,"geniusUnitPricePerLabel":"122,6 Lei/kg","banner":null,"discountLabel":null,"geniusDiscountLabel":"Economisești 20%","badge":null},{"code":"100133603","variantCode":"100133603","name":"Cheesecake 200g","slug":"100133603-cake-away-cheesecake-200g","unitPriceLabel":"64,24 Lei/kg","brand":"Cake Away","brandCode":"2527","brandFilterCode":"cake-away-b2531","sku":"100133603","price":13.49,"originalPrice":16.99,"currencyCode":"RON","currency":"Lei","image":{"thumbnail":{"default":"https://cdn.freshful.ro/media/cache/sylius_shop_product_thumbnail/ba/c0/d86465dc62762de2ce209067f7c7.jpg"},"large":{"default":"https://cdn.freshful.ro/media/cache/freshful_large/ba/c0/d86465dc62762de2ce209067f7c7.jpg"},"extralarge":{"default":"https://cdn.freshful.ro/media/cache/sylius_shop_product_original/ba/c0/d86465dc62762de2ce209067f7c7.jpg"}},"label":{"text":"-20%","backgroundColor":"#FF9903","textColor":"#FFFFFF"},"tags":[{"type":"MadeInRomania","text":"Made In Romania","icon":"https://cdn.freshful.ro/assets/product_tags/made_in_romania.svg","iconPng":"https://cdn.freshful.ro/assets/product_tags/made_in_romania.png","backgroundColor":"#EDF2FD","textColor":"#1653CA"}],"isAvailable":true,"maxAvailableQuantity":30,"maxAllowedQuantity":100,"breadcrumbs":[{"code":"1","name":"Brutărie & patiserie","slug":"1-brutarie-si-patiserie"},{"code":"102","name":"Patiserie","slug":"102-patiserie"},{"code":"10202","name":"Prăjituri artizanale","slug":"10202-prajituri-artizanale"},{"code":"100133603","name":"Cheesecake 200g","slug":"100133603-cake-away-cheesecake-200g"}],"activePromotion":{"code":"bunatatile-saptamanii-cw0923","name":"Preț redus","targetQuantity":null},"saveMe":null,"labels":[{"type":"v1","items":[{"text":"-20%","backgroundColor":"#FF9903","textColor":"#FFFFFF"}]}],"geniusPrice":null,"geniusUnitPricePerLabel":null,"banner":{"text":"Super preț","textColor":"#FF0000","bgColor":"#FFF2EC","icon":null,"link":"https://www.freshful.ro/oferte/bunatatile-saptamanii-cw0923","type":"promo","analyticsEventType":"select_promotion","analyticsEventPayload":{"promotion_id":"bunatatile-saptamanii-cw0923","promotion_name":"Oferta proaspătă a săptămânii"}},"discountLabel":"Economisești 20%","geniusDiscountLabel":null,"badge":null},{"code":"100150313","variantCode":"100150313","name":"Prăjitură Red Velvet 150g","slug":"100150313-flour-more-the-bakery-prajitura-red-velvet-150g","unitPriceLabel":"109,93 Lei/kg","brand":"Flour & More - The Bakery","brandCode":"1089","brandFilterCode":"flour-more-the-bakery-b1090","sku":"100150313","price":16.49,"originalPrice":null,"currencyCode":"RON","currency":"Lei","image":{"thumbnail":{"default":"https://cdn.freshful.ro/media/cache/sylius_shop_product_thumbnail/c6/bb/96966b5c2bf93923f015c640f4f7.jpg"},"large":{"default":"https://cdn.freshful.ro/media/cache/freshful_large/c6/bb/96966b5c2bf93923f015c640f4f7.jpg"},"extralarge":{"default":"https://cdn.freshful.ro/media/cache/sylius_shop_product_original/c6/bb/96966b5c2bf93923f015c640f4f7.jpg"}},"label":{"text":"Mici producători","backgroundColor":"#7B61FF","textColor":"#FFFFFF"},"tags":[{"type":"NoPreservatives","text":"Fara conservanti","icon":"https://cdn.freshful.ro/assets/product_tags/fara_conservanti.svg","iconPng":"https://cdn.freshful.ro/assets/product_tags/fara_conservanti.png","backgroundColor":"#F0F2FF","textColor":"#7889DD"}],"isAvailable":true,"maxAvailableQuantity":11,"maxAllowedQuantity":100,"breadcrumbs":[{"code":"1","name":"Brutărie & patiserie","slug":"1-brutarie-si-patiserie"},{"code":"102","name":"Patiserie","slug":"102-patiserie"},{"code":"10202","name":"Prăjituri artizanale","slug":"10202-prajituri-artizanale"},{"code":"100150313","name":"Prăjitură Red Velvet 150g","slug":"100150313-flour-more-the-bakery-prajitura-red-velvet-150g"}],"activePromotion":null,"saveMe":null,"labels":[{"type":"v1","items":[{"text":"Mici producători","backgroundColor":"#7B61FF","textColor":"#FFFFFF"}]}],"geniusPrice":null,"geniusUnitPricePerLabel":null,"banner":null,"discountLabel":null,"geniusDiscountLabel":null,"badge":null},{"code":"100150844","variantCode":"100150844","name":"Mango Dream Heart 120g","slug":"100150844-cake-away-mango-dream-heart-120g","unitPriceLabel":"149,83 Lei/kg","brand":"Cake Away","brandCode":"2527","brandFilterCode":"cake-away-b2531","sku":"100150844","price":17.98,"originalPrice":null,"currencyCode":"RON","currency":"Lei","image":{"thumbnail":{"default":"https://cdn.freshful.ro/media/cache/sylius_shop_product_thumbnail/5c/d8/7c86bcdc405b6c075656a2abbc72.jpg"},"large":{"default":"https://cdn.freshful.ro/media/cache/freshful_large/5c/d8/7c86bcdc405b6c075656a2abbc72.jpg"},"extralarge":{"default":"https://cdn.freshful.ro/media/cache/sylius_shop_product_original/5c/d8/7c86bcdc405b6c075656a2abbc72.jpg"}},"label":{"text":"Mici producători","backgroundColor":"#7B61FF","textColor":"#FFFFFF"},"tags":[{"type":"MadeInRomania","text":"Made In Romania","icon":"https://cdn.freshful.ro/assets/product_tags/made_in_romania.svg","iconPng":"https://cdn.freshful.ro/assets/product_tags/made_in_romania.png","backgroundColor":"#EDF2FD","textColor":"#1653CA"}],"isAvailable":true,"maxAvailableQuantity":25,"maxAllowedQuantity":100,"breadcrumbs":[{"code":"1","name":"Brutărie & patiserie","slug":"1-brutarie-si-patiserie"},{"code":"102","name":"Patiserie","slug":"102-patiserie"},{"code":"10202","name":"Prăjituri artizanale","slug":"10202-prajituri-artizanale"},{"code":"100150844","name":"Mango Dream Heart 120g","slug":"100150844-cake-away-mango-dream-heart-120g"}],"activePromotion":null,"saveMe":null,"labels":[{"type":"v1","items":[{"text":"Mici producători","backgroundColor":"#7B61FF","textColor":"#FFFFFF"}]}],"geniusPrice":null,"geniusUnitPricePerLabel":null,"banner":null,"discountLabel":null,"geniusDiscountLabel":null,"badge":null},{"code":"100140838","variantCode":"100140838","name":"Ecler caramel sărat 120g","slug":"100140838-cake-away-ecler-caramel-sarat-120g","unitPriceLabel":"143,92 Lei/kg","brand":"Cake Away","brandCode":"2527","brandFilterCode":"cake-away-b2531","sku":"100140838","price":17.99,"originalPrice":null,"currencyCode":"RON","currency":"Lei","image":{"thumbnail":{"default":"https://cdn.freshful.ro/media/cache/sylius_shop_product_thumbnail/15/d0/3027de3e60b08c1428a2af770140.jpg"},"large":{"default":"https://cdn.freshful.ro/media/cache/freshful_large/15/d0/3027de3e60b08c1428a2af770140.jpg"},"extralarge":{"default":"https://cdn.freshful.ro/media/cache/sylius_shop_product_original/15/d0/3027de3e60b08c1428a2af770140.jpg"}},"label":{"text":"Mici producători","backgroundColor":"#7B61FF","textColor":"#FFFFFF"},"tags":[{"type":"MadeInRomania","text":"Made In Romania","icon":"https://cdn.freshful.ro/assets/product_tags/made_in_romania.svg","iconPng":"https://cdn.freshful.ro/assets/product_tags/made_in_romania.png","backgroundColor":"#EDF2FD","textColor":"#1653CA"}],"isAvailable":true,"maxAvailableQuantity":5,"maxAllowedQuantity":100,"breadcrumbs":[{"code":"1","name":"Brutărie & patiserie","slug":"1-brutarie-si-patiserie"},{"code":"102","name":"Patiserie","slug":"102-patiserie"},{"code":"10202","name":"Prăjituri artizanale","slug":"10202-prajituri-artizanale"},{"code":"100140838","name":"Ecler caramel sărat 120g","slug":"100140838-cake-away-ecler-caramel-sarat-120g"}],"activePromotion":null,"saveMe":null,"labels":[{"type":"v1","items":[{"text":"Mici producători","backgroundColor":"#7B61FF","textColor":"#FFFFFF"}]}],"geniusPrice":null,"geniusUnitPricePerLabel":null,"banner":null,"discountLabel":null,"geniusDiscountLabel":null,"badge":null},{"code":"100107436","variantCode":"100107436","name":"Ciocolată de casă fără zahăr 100g","slug":"100107436-flour-more-the-bakery-ciocolata-de-casa-fara-zahar-100g","unitPriceLabel":"169,9 Lei/kg","brand":"Flour & More - The Bakery","brandCode":"1089","brandFilterCode":"flour-more-the-bakery-b1090","sku":"100107436","price":16.99,"originalPrice":null,"currencyCode":"RON","currency":"Lei","image":{"thumbnail":{"default":"https://cdn.freshful.ro/media/cache/sylius_shop_product_thumbnail/77/15/833b03aa473706c5495eb8d79b59.jpg"},"large":{"default":"https://cdn.freshful.ro/media/cache/freshful_large/77/15/833b03aa473706c5495eb8d79b59.jpg"},"extralarge":{"default":"https://cdn.freshful.ro/media/cache/sylius_shop_product_original/77/15/833b03aa473706c5495eb8d79b59.jpg"}},"label":{"text":"Mici producători","backgroundColor":"#7B61FF","textColor":"#FFFFFF"},"tags":[{"type":"NoAddedSugar","text":"Fara zahar adaugat","icon":"https://cdn.freshful.ro/assets/product_tags/fara_zahar_adaugat.svg","iconPng":"https://cdn.freshful.ro/assets/product_tags/fara_zahar_adaugat.png","backgroundColor":"#F8EDF7","textColor":"#C05EBC"},{"type":"NoPreservatives","text":"Fara conservanti","icon":"https://cdn.freshful.ro/assets/product_tags/fara_conservanti.svg","iconPng":"https://cdn.freshful.ro/assets/product_tags/fara_conservanti.png","backgroundColor":"#F0F2FF","textColor":"#7889DD"}],"isAvailable":true,"maxAvailableQuantity":16,"maxAllowedQuantity":100,"breadcrumbs":[{"code":"1","name":"Brutărie & patiserie","slug":"1-brutarie-si-patiserie"},{"code":"102","name":"Patiserie","slug":"102-patiserie"},{"code":"10202","name":"Prăjituri artizanale","slug":"10202-prajituri-artizanale"},{"code":"100107436","name":"Ciocolată de casă fără zahăr 100g","slug":"100107436-flour-more-the-bakery-ciocolata-de-casa-fara-zahar-100g"}],"activePromotion":null,"saveMe":null,"labels":[{"type":"v1","items":[{"text":"Mici producători","backgroundColor":"#7B61FF","textColor":"#FFFFFF"}]}],"geniusPrice":null,"geniusUnitPricePerLabel":null,"banner":null,"discountLabel":null,"geniusDiscountLabel":null,"badge":null},{"code":"100149059","variantCode":"100149059","name":"Prăjitură cu blat de bezea și fructe de pădure 120g","slug":"100149059-tort-de-bezea-prajitura-cu-blat-de-bezea-si-fructe-de-padure-120g","unitPriceLabel":"124,92 Lei/kg","brand":"Tort de bezea","brandCode":"2875","brandFilterCode":"tort-de-bezea-b2965","sku":"100149059","price":14.99,"originalPrice":null,"currencyCode":"RON","currency":"Lei","image":{"thumbnail":{"default":"https://cdn.freshful.ro/media/cache/sylius_shop_product_thumbnail/b6/db/0953cfefacb097c9ac74019a2f58.jpg"},"large":{"default":"https://cdn.freshful.ro/media/cache/freshful_large/b6/db/0953cfefacb097c9ac74019a2f58.jpg"},"extralarge":{"default":"https://cdn.freshful.ro/media/cache/sylius_shop_product_original/b6/db/0953cfefacb097c9ac74019a2f58.jpg"}},"label":null,"tags":[],"isAvailable":true,"maxAvailableQuantity":4,"maxAllowedQuantity":100,"breadcrumbs":[{"code":"1","name":"Brutărie & patiserie","slug":"1-brutarie-si-patiserie"},{"code":"102","name":"Patiserie","slug":"102-patiserie"},{"code":"10202","name":"Prăjituri artizanale","slug":"10202-prajituri-artizanale"},{"code":"100149059","name":"Prăjitură cu blat de bezea și fructe de pădure 120g","slug":"100149059-tort-de-bezea-prajitura-cu-blat-de-bezea-si-fructe-de-padure-120g"}],"activePromotion":null,"saveMe":null,"labels":[],"geniusPrice":null,"geniusUnitPricePerLabel":null,"banner":null,"discountLabel":null,"geniusDiscountLabel":null,"badge":null},{"code":"100143592","variantCode":"100143592","name":"Tort ciocolată 180g","slug":"100143592-cake-away-tort-ciocolata-180g","unitPriceLabel":"109,95 Lei/kg","brand":"Cake Away","brandCode":"2527","brandFilterCode":"cake-away-b2531","sku":"100143592","price":21.99,"originalPrice":null,"currencyCode":"RON","currency":"Lei","image":{"thumbnail":{"default":"https://cdn.freshful.ro/media/cache/sylius_shop_product_thumbnail/71/de/efc5e5d88266210d9ae562bffced.jpg"},"large":{"default":"https://cdn.freshful.ro/media/cache/freshful_large/71/de/efc5e5d88266210d9ae562bffced.jpg"},"extralarge":{"default":"https://cdn.freshful.ro/media/cache/sylius_shop_product_original/71/de/efc5e5d88266210d9ae562bffced.jpg"}},"label":{"text":"Mici producători","backgroundColor":"#7B61FF","textColor":"#FFFFFF"},"tags":[{"type":"MadeInRomania","text":"Made In Romania","icon":"https://cdn.freshful.ro/assets/product_tags/made_in_romania.svg","iconPng":"https://cdn.freshful.ro/assets/product_tags/made_in_romania.png","backgroundColor":"#EDF2FD","textColor":"#1653CA"}],"isAvailable":true,"maxAvailableQuantity":10,"maxAllowedQuantity":100,"breadcrumbs":[{"code":"1","name":"Brutărie & patiserie","slug":"1-brutarie-si-patiserie"},{"code":"102","name":"Patiserie","slug":"102-patiserie"},{"code":"10202","name":"Prăjituri artizanale","slug":"10202-prajituri-artizanale"},{"code":"100143592","name":"Tort ciocolată 180g","slug":"100143592-cake-away-tort-ciocolata-180g"}],"activePromotion":null,"saveMe":null,"labels":[{"type":"v1","items":[{"text":"Mici producători","backgroundColor":"#7B61FF","textColor":"#FFFFFF"}]}],"geniusPrice":null,"geniusUnitPricePerLabel":null,"banner":null,"discountLabel":null,"geniusDiscountLabel":null,"badge":null}],"filters":{"countSelected":0,"items":[{"code":"promotion","name":"Promoții","countSelected":0,"values":[{"code":"bunatatile-saptamanii-cw0923","name":"Oferta proaspătă a săptămânii","isSelected":false,"count":2},{"code":"superpreturile-saptamanii","name":"Superprețurile zilei","isSelected":false,"count":1}]},{"code":"brand","name":"Brand","countSelected":0,"values":[{"code":"ana-pan-b2604","name":"Ana Pan","isSelected":false,"count":1},{"code":"cake-away-b2531","name":"Cake Away","isSelected":false,"count":9},{"code":"flour-more-the-bakery-b1090","name":"Flour & More - The Bakery","isSelected":false,"count":6},{"code":"sublimmme-b3252","name":"Sublimmme","isSelected":false,"count":5},{"code":"tort-de-bezea-b2965","name":"Tort de bezea","isSelected":false,"count":3}]},{"code":"diet_lifestyle","name":"Dietă și lifestyle","countSelected":0,"values":[{"code":"fara-conservanti-a37","name":"Fara conservanti","isSelected":false,"count":11},{"code":"fara-gluten-a16","name":"Fara gluten","isSelected":false,"count":5},{"code":"fara-lactoza-a38","name":"Fara lactoza","isSelected":false,"count":5},{"code":"fara-zahar-adaugat-a29","name":"Fara zahar adaugat","isSelected":false,"count":7},{"code":"made-in-romania-a85","name":"Made In Romania","isSelected":false,"count":9},{"code":"vegan-a24","name":"Vegan","isSelected":false,"count":6}]}]},"orderBy":[{"field":"price","direction":"asc","name":"Preț crescător","isSelected":false},{"field":"price","direction":"desc","name":"Preț descrescător","isSelected":false},{"field":"popularity","direction":"desc","name":"Cele mai populare","isSelected":true},{"field":"category","direction":"asc","name":"Categorie","isSelected":false}],"metaTitle":"Prăjituri artizanale - Gamă variată","metaDescription":"Vrei Prăjituri artizanale? Alege dintr-o gamă variată. Comanzi simplu și ai livrare rapidă, calitate și prospețime. Hai pe Freshful.ro","metaKeywords":null,"banners":[]}}