{"type":"subcategory","payload":{"analyticsListId":"category_10203-cozonac-fursecuri-si-cornulete-artizanale","analyticsListName":"Category - Cozonac, fursecuri și cornulețe artizanale","name":"Cozonac, fursecuri și cornulețe artizanale","slug":"10203-cozonac-fursecuri-si-cornulete-artizanale","image":null,"breadcrumbs":[{"code":"1","name":"Brutărie & patiserie","slug":"1-brutarie-si-patiserie"},{"code":"102","name":"Patiserie","slug":"102-patiserie"},{"code":"10203","name":"Cozonac, fursecuri și cornulețe artizanale","slug":"10203-cozonac-fursecuri-si-cornulete-artizanale"}],"slots":[],"page":1,"limit":10,"pages":5,"count":49,"siblings":[{"name":"Pâine","slug":"101-paine","selected":false},{"name":"Patiserie","slug":"102-patiserie","selected":true}],"children":[{"name":"Toate produsele","slug":"102-patiserie","selected":false},{"name":"Patiserie proaspătă din cuptor","slug":"10201-patiserie-proaspata-din-cuptor","selected":false},{"name":"Prăjituri artizanale","slug":"10202-prajituri-artizanale","selected":false},{"name":"Cozonac, fursecuri și cornulețe artizanale","slug":"10203-cozonac-fursecuri-si-cornulete-artizanale","selected":true},{"name":"Sărățele, saleuri și covrigi","slug":"10204-saratele-saleuri-si-covrigi","selected":false}],"products":[{"code":"100149647","variantCode":"100149647","name":"Cookies vanilie și ciocolată 200g","slug":"100149647-cake-away-cookies-vanilie-si-ciocolata-200g","unitPriceLabel":"94,95 Lei/kg","brand":"Cake Away","brandCode":"2527","brandFilterCode":"cake-away-b2531","sku":"100149647","price":18.99,"originalPrice":24.99,"currencyCode":"RON","currency":"Lei","image":{"thumbnail":{"default":"https://cdn.freshful.ro/media/cache/sylius_shop_product_thumbnail/d3/8f/effdb7c186c16df81103fe934019.jpg"},"large":{"default":"https://cdn.freshful.ro/media/cache/freshful_large/d3/8f/effdb7c186c16df81103fe934019.jpg"},"extralarge":{"default":"https://cdn.freshful.ro/media/cache/sylius_shop_product_original/d3/8f/effdb7c186c16df81103fe934019.jpg"}},"label":{"text":"-24%","backgroundColor":"#FF9903","textColor":"#FFFFFF"},"tags":[{"type":"MadeInRomania","text":"Made In Romania","icon":"https://cdn.freshful.ro/assets/product_tags/made_in_romania.svg","iconPng":"https://cdn.freshful.ro/assets/product_tags/made_in_romania.png","backgroundColor":"#EDF2FD","textColor":"#1653CA"}],"isAvailable":true,"maxAvailableQuantity":41,"maxAllowedQuantity":100,"breadcrumbs":[{"code":"1","name":"Brutărie & patiserie","slug":"1-brutarie-si-patiserie"},{"code":"102","name":"Patiserie","slug":"102-patiserie"},{"code":"10203","name":"Cozonac, fursecuri și cornulețe artizanale","slug":"10203-cozonac-fursecuri-si-cornulete-artizanale"},{"code":"100149647","name":"Cookies vanilie și ciocolată 200g","slug":"100149647-cake-away-cookies-vanilie-si-ciocolata-200g"}],"activePromotion":{"code":"bunatatile-saptamanii-cw0923","name":"Preț redus","targetQuantity":null},"saveMe":null,"labels":[{"type":"v1","items":[{"text":"-24%","backgroundColor":"#FF9903","textColor":"#FFFFFF"}]}],"geniusPrice":null,"geniusUnitPricePerLabel":null,"banner":{"text":"Super preț","textColor":"#FF0000","bgColor":"#FFF2EC","icon":null,"link":"https://www.freshful.ro/oferte/bunatatile-saptamanii-cw0923","type":"promo","analyticsEventType":"select_promotion","analyticsEventPayload":{"promotion_id":"bunatatile-saptamanii-cw0923","promotion_name":"Oferta proaspătă a săptămânii"}},"discountLabel":"Economisești 24%","geniusDiscountLabel":null,"badge":null},{"code":"100149955","variantCode":"100149955","name":"Biscuiți delicioși cu ovăz și unt 150g","slug":"100149955-pain-plaisir-biscuiti-deliciosi-cu-ovaz-si-unt-150g","unitPriceLabel":"113,27 Lei/kg","brand":"Pain Plaisir","brandCode":"2974","brandFilterCode":"pain-plaisir-b3059","sku":"100149955","price":16.99,"originalPrice":19.48,"currencyCode":"RON","currency":"Lei","image":{"thumbnail":{"default":"https://cdn.freshful.ro/media/cache/sylius_shop_product_thumbnail/c7/fe/ef772b97ee7dcb7922bed6bfd803.jpg"},"large":{"default":"https://cdn.freshful.ro/media/cache/freshful_large/c7/fe/ef772b97ee7dcb7922bed6bfd803.jpg"},"extralarge":{"default":"https://cdn.freshful.ro/media/cache/sylius_shop_product_original/c7/fe/ef772b97ee7dcb7922bed6bfd803.jpg"}},"label":{"text":"-12%","backgroundColor":"#FF9903","textColor":"#FFFFFF"},"tags":[],"isAvailable":true,"maxAvailableQuantity":90,"maxAllowedQuantity":100,"breadcrumbs":[{"code":"1","name":"Brutărie & patiserie","slug":"1-brutarie-si-patiserie"},{"code":"102","name":"Patiserie","slug":"102-patiserie"},{"code":"10203","name":"Cozonac, fursecuri și cornulețe artizanale","slug":"10203-cozonac-fursecuri-si-cornulete-artizanale"},{"code":"100149955","name":"Biscuiți delicioși cu ovăz și unt 150g","slug":"100149955-pain-plaisir-biscuiti-deliciosi-cu-ovaz-si-unt-150g"}],"activePromotion":{"code":"bunatatile-saptamanii-cw0923","name":"Preț redus","targetQuantity":null},"saveMe":null,"labels":[{"type":"v1","items":[{"text":"-12%","backgroundColor":"#FF9903","textColor":"#FFFFFF"}]}],"geniusPrice":null,"geniusUnitPricePerLabel":null,"banner":{"text":"Super preț","textColor":"#FF0000","bgColor":"#FFF2EC","icon":null,"link":"https://www.freshful.ro/oferte/bunatatile-saptamanii-cw0923","type":"promo","analyticsEventType":"select_promotion","analyticsEventPayload":{"promotion_id":"bunatatile-saptamanii-cw0923","promotion_name":"Oferta proaspătă a săptămânii"}},"discountLabel":"Economisești 12%","geniusDiscountLabel":null,"badge":null},{"code":"100140393","variantCode":"100140393","name":"Fursecuri cu stafide 200g","slug":"100140393-san-delicio-fursecuri-cu-stafide-200g","unitPriceLabel":"59,95 Lei/kg","brand":"San Delicio","brandCode":"2681","brandFilterCode":"san-delicio-b2685","sku":"100140393","price":11.99,"originalPrice":null,"currencyCode":"RON","currency":"Lei","image":{"thumbnail":{"default":"https://cdn.freshful.ro/media/cache/sylius_shop_product_thumbnail/ee/e2/6f2db6838fd0e672b9b3bbdc9870.jpg"},"large":{"default":"https://cdn.freshful.ro/media/cache/freshful_large/ee/e2/6f2db6838fd0e672b9b3bbdc9870.jpg"},"extralarge":{"default":"https://cdn.freshful.ro/media/cache/sylius_shop_product_original/ee/e2/6f2db6838fd0e672b9b3bbdc9870.jpg"}},"label":{"text":"Mici producători","backgroundColor":"#7B61FF","textColor":"#FFFFFF"},"tags":[{"type":"MadeInRomania","text":"Made In Romania","icon":"https://cdn.freshful.ro/assets/product_tags/made_in_romania.svg","iconPng":"https://cdn.freshful.ro/assets/product_tags/made_in_romania.png","backgroundColor":"#EDF2FD","textColor":"#1653CA"}],"isAvailable":true,"maxAvailableQuantity":100,"maxAllowedQuantity":100,"breadcrumbs":[{"code":"1","name":"Brutărie & patiserie","slug":"1-brutarie-si-patiserie"},{"code":"102","name":"Patiserie","slug":"102-patiserie"},{"code":"10203","name":"Cozonac, fursecuri și cornulețe artizanale","slug":"10203-cozonac-fursecuri-si-cornulete-artizanale"},{"code":"100140393","name":"Fursecuri cu stafide 200g","slug":"100140393-san-delicio-fursecuri-cu-stafide-200g"}],"activePromotion":null,"saveMe":null,"labels":[{"type":"v1","items":[{"text":"Mici producători","backgroundColor":"#7B61FF","textColor":"#FFFFFF"}]}],"geniusPrice":null,"geniusUnitPricePerLabel":null,"banner":null,"discountLabel":null,"geniusDiscountLabel":null,"badge":null},{"code":"100133094","variantCode":"100133094","name":"Cornulețe cu rahat 250g","slug":"100133094-iris-cornulete-cu-rahat-250g","unitPriceLabel":"35,96 Lei/kg","brand":"Iris","brandCode":"2512","brandFilterCode":"iris-b2516","sku":"100133094","price":8.99,"originalPrice":null,"currencyCode":"RON","currency":"Lei","image":{"thumbnail":{"default":"https://cdn.freshful.ro/media/cache/sylius_shop_product_thumbnail/bb/1e/b1618c114f22e83a5b32dbcd707f.jpg"},"large":{"default":"https://cdn.freshful.ro/media/cache/freshful_large/bb/1e/b1618c114f22e83a5b32dbcd707f.jpg"},"extralarge":{"default":"https://cdn.freshful.ro/media/cache/sylius_shop_product_original/bb/1e/b1618c114f22e83a5b32dbcd707f.jpg"}},"label":{"text":"Mici producători","backgroundColor":"#7B61FF","textColor":"#FFFFFF"},"tags":[{"type":"MadeInRomania","text":"Made In Romania","icon":"https://cdn.freshful.ro/assets/product_tags/made_in_romania.svg","iconPng":"https://cdn.freshful.ro/assets/product_tags/made_in_romania.png","backgroundColor":"#EDF2FD","textColor":"#1653CA"}],"isAvailable":true,"maxAvailableQuantity":69,"maxAllowedQuantity":100,"breadcrumbs":[{"code":"1","name":"Brutărie & patiserie","slug":"1-brutarie-si-patiserie"},{"code":"102","name":"Patiserie","slug":"102-patiserie"},{"code":"10203","name":"Cozonac, fursecuri și cornulețe artizanale","slug":"10203-cozonac-fursecuri-si-cornulete-artizanale"},{"code":"100133094","name":"Cornulețe cu rahat 250g","slug":"100133094-iris-cornulete-cu-rahat-250g"}],"activePromotion":null,"saveMe":null,"labels":[{"type":"v1","items":[{"text":"Mici producători","backgroundColor":"#7B61FF","textColor":"#FFFFFF"}]}],"geniusPrice":null,"geniusUnitPricePerLabel":null,"banner":null,"discountLabel":null,"geniusDiscountLabel":null,"badge":null},{"code":"100134724","variantCode":"100134724","name":"Brioșă cu vișine, fără zahăr 100g","slug":"100134724-flour-more-the-bakery-briosa-cu-visine-fara-zahar-100g","unitPriceLabel":"69,9 Lei/kg","brand":"Flour & More - The Bakery","brandCode":"1089","brandFilterCode":"flour-more-the-bakery-b1090","sku":"100134724","price":6.99,"originalPrice":null,"currencyCode":"RON","currency":"Lei","image":{"thumbnail":{"default":"https://cdn.freshful.ro/media/cache/sylius_shop_product_thumbnail/41/e5/afe19040e88a2a81fbd860d536ce.jpg"},"large":{"default":"https://cdn.freshful.ro/media/cache/freshful_large/41/e5/afe19040e88a2a81fbd860d536ce.jpg"},"extralarge":{"default":"https://cdn.freshful.ro/media/cache/sylius_shop_product_original/41/e5/afe19040e88a2a81fbd860d536ce.jpg"}},"label":{"text":"Mici producători","backgroundColor":"#7B61FF","textColor":"#FFFFFF"},"tags":[{"type":"NoAddedSugar","text":"Fara zahar adaugat","icon":"https://cdn.freshful.ro/assets/product_tags/fara_zahar_adaugat.svg","iconPng":"https://cdn.freshful.ro/assets/product_tags/fara_zahar_adaugat.png","backgroundColor":"#F8EDF7","textColor":"#C05EBC"},{"type":"NoPreservatives","text":"Fara conservanti","icon":"https://cdn.freshful.ro/assets/product_tags/fara_conservanti.svg","iconPng":"https://cdn.freshful.ro/assets/product_tags/fara_conservanti.png","backgroundColor":"#F0F2FF","textColor":"#7889DD"}],"isAvailable":true,"maxAvailableQuantity":82,"maxAllowedQuantity":100,"breadcrumbs":[{"code":"1","name":"Brutărie & patiserie","slug":"1-brutarie-si-patiserie"},{"code":"102","name":"Patiserie","slug":"102-patiserie"},{"code":"10203","name":"Cozonac, fursecuri și cornulețe artizanale","slug":"10203-cozonac-fursecuri-si-cornulete-artizanale"},{"code":"100134724","name":"Brioșă cu vișine, fără zahăr 100g","slug":"100134724-flour-more-the-bakery-briosa-cu-visine-fara-zahar-100g"}],"activePromotion":null,"saveMe":null,"labels":[{"type":"v1","items":[{"text":"Mici producători","backgroundColor":"#7B61FF","textColor":"#FFFFFF"}]}],"geniusPrice":null,"geniusUnitPricePerLabel":null,"banner":null,"discountLabel":null,"geniusDiscountLabel":null,"badge":null},{"code":"100149646","variantCode":"100149646","name":"Nuci cu cremă de ciocolată 200g","slug":"100149646-cake-away-nuci-cu-crema-de-ciocolata-200g","unitPriceLabel":"94,95 Lei/kg","brand":"Cake Away","brandCode":"2527","brandFilterCode":"cake-away-b2531","sku":"100149646","price":18.99,"originalPrice":null,"currencyCode":"RON","currency":"Lei","image":{"thumbnail":{"default":"https://cdn.freshful.ro/media/cache/sylius_shop_product_thumbnail/4e/f7/d4d1f9969d4e0ec626fa3bb05bd3.jpg"},"large":{"default":"https://cdn.freshful.ro/media/cache/freshful_large/4e/f7/d4d1f9969d4e0ec626fa3bb05bd3.jpg"},"extralarge":{"default":"https://cdn.freshful.ro/media/cache/sylius_shop_product_original/4e/f7/d4d1f9969d4e0ec626fa3bb05bd3.jpg"}},"label":{"text":"Mici producători","backgroundColor":"#7B61FF","textColor":"#FFFFFF"},"tags":[{"type":"MadeInRomania","text":"Made In Romania","icon":"https://cdn.freshful.ro/assets/product_tags/made_in_romania.svg","iconPng":"https://cdn.freshful.ro/assets/product_tags/made_in_romania.png","backgroundColor":"#EDF2FD","textColor":"#1653CA"}],"isAvailable":true,"maxAvailableQuantity":37,"maxAllowedQuantity":100,"breadcrumbs":[{"code":"1","name":"Brutărie & patiserie","slug":"1-brutarie-si-patiserie"},{"code":"102","name":"Patiserie","slug":"102-patiserie"},{"code":"10203","name":"Cozonac, fursecuri și cornulețe artizanale","slug":"10203-cozonac-fursecuri-si-cornulete-artizanale"},{"code":"100149646","name":"Nuci cu cremă de ciocolată 200g","slug":"100149646-cake-away-nuci-cu-crema-de-ciocolata-200g"}],"activePromotion":null,"saveMe":null,"labels":[{"type":"v1","items":[{"text":"Mici producători","backgroundColor":"#7B61FF","textColor":"#FFFFFF"}]}],"geniusPrice":null,"geniusUnitPricePerLabel":null,"banner":null,"discountLabel":null,"geniusDiscountLabel":null,"badge":null},{"code":"100107427","variantCode":"100107427","name":"Brioșă cu morcov 100g","slug":"100107427-flour-more-the-bakery-briosa-cu-morcov-100g","unitPriceLabel":"59,9 Lei/kg","brand":"Flour & More - The Bakery","brandCode":"1089","brandFilterCode":"flour-more-the-bakery-b1090","sku":"100107427","price":5.99,"originalPrice":null,"currencyCode":"RON","currency":"Lei","image":{"thumbnail":{"default":"https://cdn.freshful.ro/media/cache/sylius_shop_product_thumbnail/c4/5e/aafe9cab40271f3a3fb11a18ba6c.jpg"},"large":{"default":"https://cdn.freshful.ro/media/cache/freshful_large/c4/5e/aafe9cab40271f3a3fb11a18ba6c.jpg"},"extralarge":{"default":"https://cdn.freshful.ro/media/cache/sylius_shop_product_original/c4/5e/aafe9cab40271f3a3fb11a18ba6c.jpg"}},"label":{"text":"Mici producători","backgroundColor":"#7B61FF","textColor":"#FFFFFF"},"tags":[{"type":"MadeInRomania","text":"Made In Romania","icon":"https://cdn.freshful.ro/assets/product_tags/made_in_romania.svg","iconPng":"https://cdn.freshful.ro/assets/product_tags/made_in_romania.png","backgroundColor":"#EDF2FD","textColor":"#1653CA"}],"isAvailable":true,"maxAvailableQuantity":48,"maxAllowedQuantity":100,"breadcrumbs":[{"code":"1","name":"Brutărie & patiserie","slug":"1-brutarie-si-patiserie"},{"code":"102","name":"Patiserie","slug":"102-patiserie"},{"code":"10203","name":"Cozonac, fursecuri și cornulețe artizanale","slug":"10203-cozonac-fursecuri-si-cornulete-artizanale"},{"code":"100107427","name":"Brioșă cu morcov 100g","slug":"100107427-flour-more-the-bakery-briosa-cu-morcov-100g"}],"activePromotion":null,"saveMe":null,"labels":[{"type":"v1","items":[{"text":"Mici producători","backgroundColor":"#7B61FF","textColor":"#FFFFFF"}]}],"geniusPrice":null,"geniusUnitPricePerLabel":null,"banner":null,"discountLabel":null,"geniusDiscountLabel":null,"badge":null},{"code":"100133092","variantCode":"100133092","name":"Chec cu cacao 280g","slug":"100133092-iris-chec-cu-cacao-280g","unitPriceLabel":"53,54 Lei/kg","brand":"Iris","brandCode":"2512","brandFilterCode":"iris-b2516","sku":"100133092","price":14.99,"originalPrice":null,"currencyCode":"RON","currency":"Lei","image":{"thumbnail":{"default":"https://cdn.freshful.ro/media/cache/sylius_shop_product_thumbnail/70/6d/c35034e774485834fb24b499c7db.jpg"},"large":{"default":"https://cdn.freshful.ro/media/cache/freshful_large/70/6d/c35034e774485834fb24b499c7db.jpg"},"extralarge":{"default":"https://cdn.freshful.ro/media/cache/sylius_shop_product_original/70/6d/c35034e774485834fb24b499c7db.jpg"}},"label":{"text":"Mici producători","backgroundColor":"#7B61FF","textColor":"#FFFFFF"},"tags":[{"type":"MadeInRomania","text":"Made In Romania","icon":"https://cdn.freshful.ro/assets/product_tags/made_in_romania.svg","iconPng":"https://cdn.freshful.ro/assets/product_tags/made_in_romania.png","backgroundColor":"#EDF2FD","textColor":"#1653CA"}],"isAvailable":true,"maxAvailableQuantity":38,"maxAllowedQuantity":100,"breadcrumbs":[{"code":"1","name":"Brutărie & patiserie","slug":"1-brutarie-si-patiserie"},{"code":"102","name":"Patiserie","slug":"102-patiserie"},{"code":"10203","name":"Cozonac, fursecuri și cornulețe artizanale","slug":"10203-cozonac-fursecuri-si-cornulete-artizanale"},{"code":"100133092","name":"Chec cu cacao 280g","slug":"100133092-iris-chec-cu-cacao-280g"}],"activePromotion":null,"saveMe":{"isAvailable":true,"variantCode":"100133092-accsale","maxAvailableQuantity":7,"maxAllowedQuantity":100,"price":10.49,"originalPrice":14.99,"labels":[{"type":"v2","items":[{"text":"Save Me","backgroundColor":"#FF7070","textColor":"#FFFFFF"},{"text":"-30%","backgroundColor":"#333333","textColor":"#FFFFFF"}]},{"type":"v3","items":[{"text":"Expiră pe 04-03-2023","backgroundColor":"#FEF7DC","textColor":"#595959"}]}],"priceColor":"#FF7070","priceIcon":"https://cdn.freshful.ro/assets/save_me/priceIcon.png","unitPriceLabel":"37,46 Lei/kg","badge":null},"labels":[{"type":"v1","items":[{"text":"Mici producători","backgroundColor":"#7B61FF","textColor":"#FFFFFF"}]}],"geniusPrice":null,"geniusUnitPricePerLabel":null,"banner":{"text":"Cumpără la 10.49 lei","textColor":"#FF7070","bgColor":"#FFF1F1","icon":"https://cdn.freshful.ro/assets/save_me/priceIcon.png","link":"https://www.freshful.ro/p/100133092-iris-chec-cu-cacao-280g?sm=true","type":"saveMe","analyticsEventType":"select_item","analyticsEventPayload":[]},"discountLabel":null,"geniusDiscountLabel":null,"badge":null},{"code":"100061574","variantCode":"100061574","name":"Cornulețe cu magiun de prune 200g","slug":"100061574-grewe-cornulete-cu-magiun-de-prune-200g","unitPriceLabel":"49,95 Lei/kg","brand":"Grewe","brandCode":"472","brandFilterCode":"grewe-b473","sku":"100061574","price":9.99,"originalPrice":null,"currencyCode":"RON","currency":"Lei","image":{"thumbnail":{"default":"https://cdn.freshful.ro/media/cache/sylius_shop_product_thumbnail/93/12/1b0e44ab26165ff596618f8ff7bb.jpg"},"large":{"default":"https://cdn.freshful.ro/media/cache/freshful_large/93/12/1b0e44ab26165ff596618f8ff7bb.jpg"},"extralarge":{"default":"https://cdn.freshful.ro/media/cache/sylius_shop_product_original/93/12/1b0e44ab26165ff596618f8ff7bb.jpg"}},"label":null,"tags":[{"type":"MadeInRomania","text":"Made In Romania","icon":"https://cdn.freshful.ro/assets/product_tags/made_in_romania.svg","iconPng":"https://cdn.freshful.ro/assets/product_tags/made_in_romania.png","backgroundColor":"#EDF2FD","textColor":"#1653CA"}],"isAvailable":true,"maxAvailableQuantity":72,"maxAllowedQuantity":100,"breadcrumbs":[{"code":"1","name":"Brutărie & patiserie","slug":"1-brutarie-si-patiserie"},{"code":"102","name":"Patiserie","slug":"102-patiserie"},{"code":"10203","name":"Cozonac, fursecuri și cornulețe artizanale","slug":"10203-cozonac-fursecuri-si-cornulete-artizanale"},{"code":"100061574","name":"Cornulețe cu magiun de prune 200g","slug":"100061574-grewe-cornulete-cu-magiun-de-prune-200g"}],"activePromotion":null,"saveMe":null,"labels":[],"geniusPrice":null,"geniusUnitPricePerLabel":null,"banner":null,"discountLabel":null,"geniusDiscountLabel":null,"badge":null},{"code":"100094715","variantCode":"100094715","name":"Salam de biscuiți 200g","slug":"100094715-flour-more-the-bakery-salam-de-biscuiti-200g","unitPriceLabel":"79,95 Lei/kg","brand":"Flour & More - The Bakery","brandCode":"1089","brandFilterCode":"flour-more-the-bakery-b1090","sku":"100094715","price":15.99,"originalPrice":null,"currencyCode":"RON","currency":"Lei","image":{"thumbnail":{"default":"https://cdn.freshful.ro/media/cache/sylius_shop_product_thumbnail/21/6e/deae7c4ed76dc7c81f55608e78f1.jpg"},"large":{"default":"https://cdn.freshful.ro/media/cache/freshful_large/21/6e/deae7c4ed76dc7c81f55608e78f1.jpg"},"extralarge":{"default":"https://cdn.freshful.ro/media/cache/sylius_shop_product_original/21/6e/deae7c4ed76dc7c81f55608e78f1.jpg"}},"label":{"text":"Mici producători","backgroundColor":"#7B61FF","textColor":"#FFFFFF"},"tags":[{"type":"MadeInRomania","text":"Made In Romania","icon":"https://cdn.freshful.ro/assets/product_tags/made_in_romania.svg","iconPng":"https://cdn.freshful.ro/assets/product_tags/made_in_romania.png","backgroundColor":"#EDF2FD","textColor":"#1653CA"},{"type":"NoPreservatives","text":"Fara conservanti","icon":"https://cdn.freshful.ro/assets/product_tags/fara_conservanti.svg","iconPng":"https://cdn.freshful.ro/assets/product_tags/fara_conservanti.png","backgroundColor":"#F0F2FF","textColor":"#7889DD"}],"isAvailable":true,"maxAvailableQuantity":33,"maxAllowedQuantity":100,"breadcrumbs":[{"code":"1","name":"Brutărie & patiserie","slug":"1-brutarie-si-patiserie"},{"code":"102","name":"Patiserie","slug":"102-patiserie"},{"code":"10203","name":"Cozonac, fursecuri și cornulețe artizanale","slug":"10203-cozonac-fursecuri-si-cornulete-artizanale"},{"code":"100094715","name":"Salam de biscuiți 200g","slug":"100094715-flour-more-the-bakery-salam-de-biscuiti-200g"}],"activePromotion":null,"saveMe":null,"labels":[{"type":"v1","items":[{"text":"Mici producători","backgroundColor":"#7B61FF","textColor":"#FFFFFF"}]}],"geniusPrice":null,"geniusUnitPricePerLabel":null,"banner":null,"discountLabel":null,"geniusDiscountLabel":null,"badge":null}],"filters":{"countSelected":0,"items":[{"code":"promotion","name":"Promoții","countSelected":0,"values":[{"code":"bunatatile-saptamanii-cw0923","name":"Oferta proaspătă a săptămânii","isSelected":false,"count":2},{"code":"superpreturile-saptamanii","name":"Superprețurile zilei","isSelected":false,"count":1}]},{"code":"brand","name":"Brand","countSelected":0,"values":[{"code":"ana-pan-b2604","name":"Ana Pan","isSelected":false,"count":2},{"code":"boromir-b141","name":"Boromir","isSelected":false,"count":2},{"code":"cake-away-b2531","name":"Cake Away","isSelected":false,"count":3},{"code":"dioszegi-b1502","name":"Dioszegi","isSelected":false,"count":1},{"code":"flour-more-the-bakery-b1090","name":"Flour & More - The Bakery","isSelected":false,"count":13},{"code":"grewe-b473","name":"Grewe","isSelected":false,"count":2},{"code":"iris-b2516","name":"Iris","isSelected":false,"count":4},{"code":"ohvaz-b109","name":"Ohvăz","isSelected":false,"count":3},{"code":"pain-plaisir-b3059","name":"Pain Plaisir","isSelected":false,"count":4},{"code":"san-delicio-b2685","name":"San Delicio","isSelected":false,"count":9},{"code":"tort-de-bezea-b2965","name":"Tort de bezea","isSelected":false,"count":2},{"code":"vel-pitar-b2835","name":"Vel Pitar","isSelected":false,"count":4}]},{"code":"diet_lifestyle","name":"Dietă și lifestyle","countSelected":0,"values":[{"code":"fara-conservanti-a37","name":"Fara conservanti","isSelected":false,"count":13},{"code":"fara-e-uri-a84","name":"Fara E-uri","isSelected":false,"count":3},{"code":"fara-zahar-adaugat-a29","name":"Fara zahar adaugat","isSelected":false,"count":5},{"code":"made-in-romania-a85","name":"Made In Romania","isSelected":false,"count":18},{"code":"vegan-a24","name":"Vegan","isSelected":false,"count":4}]}]},"orderBy":[{"field":"price","direction":"asc","name":"Preț crescător","isSelected":false},{"field":"price","direction":"desc","name":"Preț descrescător","isSelected":false},{"field":"popularity","direction":"desc","name":"Cele mai populare","isSelected":true},{"field":"category","direction":"asc","name":"Categorie","isSelected":false}],"metaTitle":"Cozonac, fursecuri și cornulețe artizanale - Gamă variată","metaDescription":"Vrei Cozonac, fursecuri și cornulețe artizanale? Alege dintr-o gamă variată. Comanzi simplu și ai livrare rapidă, calitate și prospețime. Hai pe Freshful.ro","metaKeywords":null,"banners":[]}}