{"type":"subcategory","payload":{"analyticsListId":"category_110101-deodorante-barbati","analyticsListName":"Category - Deodorante bărbați","name":"Deodorante bărbați","slug":"110101-deodorante-barbati","image":null,"breadcrumbs":[{"code":"11","name":"Cosmetice","slug":"11-cosmetice-si-ingrijire-personala"},{"code":"1101","name":"Deodorante și parfumuri","slug":"1101-deodorante-si-parfumuri"},{"code":"110101","name":"Deodorante bărbați","slug":"110101-deodorante-barbati"}],"slots":[],"page":1,"limit":10,"pages":9,"count":90,"siblings":[{"name":"Deodorante și parfumuri","slug":"1101-deodorante-si-parfumuri","selected":true},{"name":"Bărbierit și îngrijire ten","slug":"1102-produse-pentru-barbierit-si-ingrijit-ten","selected":false},{"name":"Demachiante și creme","slug":"1103-creme-intretinere-si-demachiante","selected":false},{"name":"Protecție solară","slug":"1104-produse-cu-protectie-solara","selected":false},{"name":"Ceară, benzi și creme depilatoare","slug":"1105-ceara-benzi-si-creme-depliatoare","selected":false},{"name":"Seturi cadou","slug":"1106-seturi-cadou","selected":false},{"name":"Îngrijirea părului","slug":"1107-ingrijirea-parului","selected":false},{"name":"Igienă intimă","slug":"1108-igienta-inima","selected":false},{"name":"Igienă dentară","slug":"1109-igiena-dentara","selected":false},{"name":"Săpunuri și geluri de duș","slug":"1110-sapunuri-si-geluri-de-dus","selected":false},{"name":"Dermatocosmetice și parafarmacie","slug":"1111-dermatocosmetice-si-parafarmacie","selected":false},{"name":"Repelent","slug":"repelent","selected":false}],"children":[{"name":"Toate produsele","slug":"1101-deodorante-si-parfumuri","selected":false},{"name":"Deodorante bărbați","slug":"110101-deodorante-barbati","selected":true},{"name":"Deodorante femei","slug":"110102-deodorante-femei","selected":false},{"name":"Apă de toaletă bărbați","slug":"110103-apa-de-toaleta-barbati","selected":false},{"name":"Apă de toaletă femei","slug":"110104-apa-de-toaleta-femei","selected":false},{"name":"Apă de parfum femei","slug":"110106-apa-de-parfum-femei","selected":false},{"name":"Apă de toaletă și parfum copii","slug":"apa-de-toaleta-si-parfum-copii","selected":false}],"products":[{"code":"100062293","variantCode":"100062293","name":"Antiperspirant spray Men+Care Invisible Dry 150ml","slug":"100062293-dove-antiperspirant-spray-men-care-invisible-dry-150ml","unitPriceLabel":"113,27 Lei/l","brand":"Dove","brandCode":"763","brandFilterCode":"dove-b764","sku":"100062293","price":16.99,"originalPrice":null,"currencyCode":"RON","currency":"Lei","image":{"thumbnail":{"default":"https://cdn.freshful.ro/media/cache/sylius_shop_product_thumbnail/b0/b8/c462b36070d80cfa232b4ea8bd0c.jpg"},"large":{"default":"https://cdn.freshful.ro/media/cache/freshful_large/b0/b8/c462b36070d80cfa232b4ea8bd0c.jpg"},"extralarge":{"default":"https://cdn.freshful.ro/media/cache/sylius_shop_product_original/b0/b8/c462b36070d80cfa232b4ea8bd0c.jpg"}},"label":{"text":"Profită acum","backgroundColor":"#FF9903","textColor":"#FFFFFF"},"tags":[],"isAvailable":true,"maxAvailableQuantity":100,"maxAllowedQuantity":100,"breadcrumbs":[{"code":"11","name":"Cosmetice","slug":"11-cosmetice-si-ingrijire-personala"},{"code":"1101","name":"Deodorante și parfumuri","slug":"1101-deodorante-si-parfumuri"},{"code":"110101","name":"Deodorante bărbați","slug":"110101-deodorante-barbati"},{"code":"100062293","name":"Antiperspirant spray Men+Care Invisible Dry 150ml","slug":"100062293-dove-antiperspirant-spray-men-care-invisible-dry-150ml"}],"activePromotion":{"code":"oferte-dph-21feb-8mar23","name":"Preț avantajos","targetQuantity":null},"saveMe":null,"labels":[{"type":"v1","items":[{"text":"Profită acum","backgroundColor":"#FF9903","textColor":"#FFFFFF"}]}],"geniusPrice":null,"geniusUnitPricePerLabel":null,"banner":{"text":"Preț avantajos","textColor":"#F95510","bgColor":"#FEF1CD","icon":null,"link":"https://www.freshful.ro/oferte/oferte-dph-21feb-8mar23","type":"promo","analyticsEventType":"select_promotion","analyticsEventPayload":{"promotion_id":"oferte-dph-21feb-8mar23","promotion_name":"Curățenie și îngrijire personală"}},"discountLabel":null,"geniusDiscountLabel":null,"badge":null},{"code":"100062296","variantCode":"100062296","name":"Antiperspirant spray Men+Care Clean Comfort 150ml","slug":"100062296-dove-antiperspirant-spray-men-care-clean-comfort-150ml","unitPriceLabel":"106,6 Lei/l","brand":"Dove","brandCode":"763","brandFilterCode":"dove-b764","sku":"100062296","price":15.99,"originalPrice":18.52,"currencyCode":"RON","currency":"Lei","image":{"thumbnail":{"default":"https://cdn.freshful.ro/media/cache/sylius_shop_product_thumbnail/0e/14/bf8c04432a46062d3a7b71c0e250.jpg"},"large":{"default":"https://cdn.freshful.ro/media/cache/freshful_large/0e/14/bf8c04432a46062d3a7b71c0e250.jpg"},"extralarge":{"default":"https://cdn.freshful.ro/media/cache/sylius_shop_product_original/0e/14/bf8c04432a46062d3a7b71c0e250.jpg"}},"label":{"text":"-13%","backgroundColor":"#FF9903","textColor":"#FFFFFF"},"tags":[],"isAvailable":true,"maxAvailableQuantity":100,"maxAllowedQuantity":100,"breadcrumbs":[{"code":"11","name":"Cosmetice","slug":"11-cosmetice-si-ingrijire-personala"},{"code":"1101","name":"Deodorante și parfumuri","slug":"1101-deodorante-si-parfumuri"},{"code":"110101","name":"Deodorante bărbați","slug":"110101-deodorante-barbati"},{"code":"100062296","name":"Antiperspirant spray Men+Care Clean Comfort 150ml","slug":"100062296-dove-antiperspirant-spray-men-care-clean-comfort-150ml"}],"activePromotion":{"code":"oferte-dph-21feb-8mar23","name":"Preț redus","targetQuantity":null},"saveMe":null,"labels":[{"type":"v1","items":[{"text":"-13%","backgroundColor":"#FF9903","textColor":"#FFFFFF"}]}],"geniusPrice":null,"geniusUnitPricePerLabel":null,"banner":{"text":"Super preț","textColor":"#FF0000","bgColor":"#FFF2EC","icon":null,"link":"https://www.freshful.ro/oferte/oferte-dph-21feb-8mar23","type":"promo","analyticsEventType":"select_promotion","analyticsEventPayload":{"promotion_id":"oferte-dph-21feb-8mar23","promotion_name":"Curățenie și îngrijire personală"}},"discountLabel":"Economisești 13%","geniusDiscountLabel":null,"badge":null},{"code":"100062292","variantCode":"100062292","name":"Antiperspirant spray Men+Care Cool Fresh 150ml","slug":"100062292-dove-antiperspirant-spray-men-care-cool-fresh-150ml","unitPriceLabel":"106,6 Lei/l","brand":"Dove","brandCode":"763","brandFilterCode":"dove-b764","sku":"100062292","price":15.99,"originalPrice":19.49,"currencyCode":"RON","currency":"Lei","image":{"thumbnail":{"default":"https://cdn.freshful.ro/media/cache/sylius_shop_product_thumbnail/ee/25/c9c4598331ef64f80598b67724f8.jpg"},"large":{"default":"https://cdn.freshful.ro/media/cache/freshful_large/ee/25/c9c4598331ef64f80598b67724f8.jpg"},"extralarge":{"default":"https://cdn.freshful.ro/media/cache/sylius_shop_product_original/ee/25/c9c4598331ef64f80598b67724f8.jpg"}},"label":{"text":"-17%","backgroundColor":"#FF9903","textColor":"#FFFFFF"},"tags":[],"isAvailable":true,"maxAvailableQuantity":100,"maxAllowedQuantity":100,"breadcrumbs":[{"code":"11","name":"Cosmetice","slug":"11-cosmetice-si-ingrijire-personala"},{"code":"1101","name":"Deodorante și parfumuri","slug":"1101-deodorante-si-parfumuri"},{"code":"110101","name":"Deodorante bărbați","slug":"110101-deodorante-barbati"},{"code":"100062292","name":"Antiperspirant spray Men+Care Cool Fresh 150ml","slug":"100062292-dove-antiperspirant-spray-men-care-cool-fresh-150ml"}],"activePromotion":{"code":"oferte-dph-21feb-8mar23","name":"Preț redus","targetQuantity":null},"saveMe":null,"labels":[{"type":"v1","items":[{"text":"-17%","backgroundColor":"#FF9903","textColor":"#FFFFFF"}]}],"geniusPrice":null,"geniusUnitPricePerLabel":null,"banner":{"text":"Super preț","textColor":"#FF0000","bgColor":"#FFF2EC","icon":null,"link":"https://www.freshful.ro/oferte/oferte-dph-21feb-8mar23","type":"promo","analyticsEventType":"select_promotion","analyticsEventPayload":{"promotion_id":"oferte-dph-21feb-8mar23","promotion_name":"Curățenie și îngrijire personală"}},"discountLabel":"Economisești 17%","geniusDiscountLabel":null,"badge":null},{"code":"100062297","variantCode":"100062297","name":"Antiperspirant spray Men+Care Extra Fresh 150ml","slug":"100062297-dove-antiperspirant-spray-men-care-extra-fresh-150ml","unitPriceLabel":"106,6 Lei/l","brand":"Dove","brandCode":"763","brandFilterCode":"dove-b764","sku":"100062297","price":15.99,"originalPrice":19.44,"currencyCode":"RON","currency":"Lei","image":{"thumbnail":{"default":"https://cdn.freshful.ro/media/cache/sylius_shop_product_thumbnail/ae/50/5db571742cc53192cf96c017b1ab.jpg"},"large":{"default":"https://cdn.freshful.ro/media/cache/freshful_large/ae/50/5db571742cc53192cf96c017b1ab.jpg"},"extralarge":{"default":"https://cdn.freshful.ro/media/cache/sylius_shop_product_original/ae/50/5db571742cc53192cf96c017b1ab.jpg"}},"label":{"text":"-17%","backgroundColor":"#FF9903","textColor":"#FFFFFF"},"tags":[],"isAvailable":true,"maxAvailableQuantity":47,"maxAllowedQuantity":100,"breadcrumbs":[{"code":"11","name":"Cosmetice","slug":"11-cosmetice-si-ingrijire-personala"},{"code":"1101","name":"Deodorante și parfumuri","slug":"1101-deodorante-si-parfumuri"},{"code":"110101","name":"Deodorante bărbați","slug":"110101-deodorante-barbati"},{"code":"100062297","name":"Antiperspirant spray Men+Care Extra Fresh 150ml","slug":"100062297-dove-antiperspirant-spray-men-care-extra-fresh-150ml"}],"activePromotion":{"code":"oferte-dph-21feb-8mar23","name":"Preț redus","targetQuantity":null},"saveMe":null,"labels":[{"type":"v1","items":[{"text":"-17%","backgroundColor":"#FF9903","textColor":"#FFFFFF"}]}],"geniusPrice":null,"geniusUnitPricePerLabel":null,"banner":{"text":"Super preț","textColor":"#FF0000","bgColor":"#FFF2EC","icon":null,"link":"https://www.freshful.ro/oferte/oferte-dph-21feb-8mar23","type":"promo","analyticsEventType":"select_promotion","analyticsEventPayload":{"promotion_id":"oferte-dph-21feb-8mar23","promotion_name":"Curățenie și îngrijire personală"}},"discountLabel":"Economisești 17%","geniusDiscountLabel":null,"badge":null},{"code":"100085516","variantCode":"5201314107071","name":"Deodorant spray Original 150ml","slug":"100085516-str8-deodorant-spray-original-150ml","unitPriceLabel":"131,9 Lei/l","brand":"STR8","brandCode":"539","brandFilterCode":"str8-b540","sku":"100085516","price":13.19,"originalPrice":null,"currencyCode":"RON","currency":"Lei","image":{"thumbnail":{"default":"https://cdn.freshful.ro/media/cache/sylius_shop_product_thumbnail/a3/d8/6715603d16cc8fb9698ec048956c.jpg"},"large":{"default":"https://cdn.freshful.ro/media/cache/freshful_large/a3/d8/6715603d16cc8fb9698ec048956c.jpg"},"extralarge":{"default":"https://cdn.freshful.ro/media/cache/sylius_shop_product_original/a3/d8/6715603d16cc8fb9698ec048956c.jpg"}},"label":null,"tags":[],"isAvailable":true,"maxAvailableQuantity":100,"maxAllowedQuantity":100,"breadcrumbs":[{"code":"11","name":"Cosmetice","slug":"11-cosmetice-si-ingrijire-personala"},{"code":"1101","name":"Deodorante și parfumuri","slug":"1101-deodorante-si-parfumuri"},{"code":"110101","name":"Deodorante bărbați","slug":"110101-deodorante-barbati"},{"code":"100085516","name":"Deodorant spray Original 150ml","slug":"100085516-str8-deodorant-spray-original-150ml"}],"activePromotion":null,"saveMe":null,"labels":[],"geniusPrice":null,"geniusUnitPricePerLabel":null,"banner":null,"discountLabel":null,"geniusDiscountLabel":null,"badge":null},{"code":"100033648","variantCode":"4005808729951","name":"Antiperspirant spray invisible Black&White Power men 150ml","slug":"100033648-nivea-antiperspirant-spray-invisible-black-white-power-men-150ml","unitPriceLabel":"123,6 Lei/l","brand":"Nivea","brandCode":"316","brandFilterCode":"nivea-b317","sku":"100033648","price":18.54,"originalPrice":null,"currencyCode":"RON","currency":"Lei","image":{"thumbnail":{"default":"https://cdn.freshful.ro/media/cache/sylius_shop_product_thumbnail/2f/b5/76c7df3df090668620cba22f1f36.jpg"},"large":{"default":"https://cdn.freshful.ro/media/cache/freshful_large/2f/b5/76c7df3df090668620cba22f1f36.jpg"},"extralarge":{"default":"https://cdn.freshful.ro/media/cache/sylius_shop_product_original/2f/b5/76c7df3df090668620cba22f1f36.jpg"}},"label":null,"tags":[],"isAvailable":true,"maxAvailableQuantity":69,"maxAllowedQuantity":100,"breadcrumbs":[{"code":"11","name":"Cosmetice","slug":"11-cosmetice-si-ingrijire-personala"},{"code":"1101","name":"Deodorante și parfumuri","slug":"1101-deodorante-si-parfumuri"},{"code":"110101","name":"Deodorante bărbați","slug":"110101-deodorante-barbati"},{"code":"100033648","name":"Antiperspirant spray invisible Black&White Power men 150ml","slug":"100033648-nivea-antiperspirant-spray-invisible-black-white-power-men-150ml"}],"activePromotion":null,"saveMe":null,"labels":[],"geniusPrice":null,"geniusUnitPricePerLabel":null,"banner":null,"discountLabel":null,"geniusDiscountLabel":null,"badge":null},{"code":"100091388","variantCode":"100091388","name":"Deodorant stick Whitewater 50ml","slug":"100091388-old-spice-deodorant-stick-whitewater-50ml","unitPriceLabel":"369,6 Lei/l","brand":"Old Spice","brandCode":"662","brandFilterCode":"old-spice-b663","sku":"100091388","price":18.48,"originalPrice":null,"currencyCode":"RON","currency":"Lei","image":{"thumbnail":{"default":"https://cdn.freshful.ro/media/cache/sylius_shop_product_thumbnail/6b/f9/dc05781b8bcae969c63e738468b6.jpg"},"large":{"default":"https://cdn.freshful.ro/media/cache/freshful_large/6b/f9/dc05781b8bcae969c63e738468b6.jpg"},"extralarge":{"default":"https://cdn.freshful.ro/media/cache/sylius_shop_product_original/6b/f9/dc05781b8bcae969c63e738468b6.jpg"}},"label":null,"tags":[],"isAvailable":true,"maxAvailableQuantity":100,"maxAllowedQuantity":100,"breadcrumbs":[{"code":"11","name":"Cosmetice","slug":"11-cosmetice-si-ingrijire-personala"},{"code":"1101","name":"Deodorante și parfumuri","slug":"1101-deodorante-si-parfumuri"},{"code":"110101","name":"Deodorante bărbați","slug":"110101-deodorante-barbati"},{"code":"100091388","name":"Deodorant stick Whitewater 50ml","slug":"100091388-old-spice-deodorant-stick-whitewater-50ml"}],"activePromotion":null,"saveMe":null,"labels":[],"geniusPrice":null,"geniusUnitPricePerLabel":null,"banner":null,"discountLabel":null,"geniusDiscountLabel":null,"badge":null},{"code":"100062305","variantCode":"100062305","name":"Antiperspirant stick Men+Care Clean Comfort 50ml","slug":"100062305-dove-antiperspirant-stick-men-care-clean-comfort-50ml","unitPriceLabel":"339 Lei/l","brand":"Dove","brandCode":"763","brandFilterCode":"dove-b764","sku":"100062305","price":16.95,"originalPrice":null,"currencyCode":"RON","currency":"Lei","image":{"thumbnail":{"default":"https://cdn.freshful.ro/media/cache/sylius_shop_product_thumbnail/db/64/897af0658a5347670c028b779f29.jpg"},"large":{"default":"https://cdn.freshful.ro/media/cache/freshful_large/db/64/897af0658a5347670c028b779f29.jpg"},"extralarge":{"default":"https://cdn.freshful.ro/media/cache/sylius_shop_product_original/db/64/897af0658a5347670c028b779f29.jpg"}},"label":null,"tags":[],"isAvailable":true,"maxAvailableQuantity":100,"maxAllowedQuantity":100,"breadcrumbs":[{"code":"11","name":"Cosmetice","slug":"11-cosmetice-si-ingrijire-personala"},{"code":"1101","name":"Deodorante și parfumuri","slug":"1101-deodorante-si-parfumuri"},{"code":"110101","name":"Deodorante bărbați","slug":"110101-deodorante-barbati"},{"code":"100062305","name":"Antiperspirant stick Men+Care Clean Comfort 50ml","slug":"100062305-dove-antiperspirant-stick-men-care-clean-comfort-50ml"}],"activePromotion":null,"saveMe":null,"labels":[],"geniusPrice":null,"geniusUnitPricePerLabel":null,"banner":null,"discountLabel":null,"geniusDiscountLabel":null,"badge":null},{"code":"100062018","variantCode":"100062018","name":"Antiperspirant spray Men+Care Mineral&Sage 150ml","slug":"100062018-dove-antiperspirant-spray-men-care-mineral-sage-150ml","unitPriceLabel":"98,07 Lei/l","brand":"Dove","brandCode":"763","brandFilterCode":"dove-b764","sku":"100062018","price":14.71,"originalPrice":null,"currencyCode":"RON","currency":"Lei","image":{"thumbnail":{"default":"https://cdn.freshful.ro/media/cache/sylius_shop_product_thumbnail/8e/d9/089ac16f134de79edcfd2ca77fa3.jpg"},"large":{"default":"https://cdn.freshful.ro/media/cache/freshful_large/8e/d9/089ac16f134de79edcfd2ca77fa3.jpg"},"extralarge":{"default":"https://cdn.freshful.ro/media/cache/sylius_shop_product_original/8e/d9/089ac16f134de79edcfd2ca77fa3.jpg"}},"label":null,"tags":[],"isAvailable":true,"maxAvailableQuantity":79,"maxAllowedQuantity":100,"breadcrumbs":[{"code":"11","name":"Cosmetice","slug":"11-cosmetice-si-ingrijire-personala"},{"code":"1101","name":"Deodorante și parfumuri","slug":"1101-deodorante-si-parfumuri"},{"code":"110101","name":"Deodorante bărbați","slug":"110101-deodorante-barbati"},{"code":"100062018","name":"Antiperspirant spray Men+Care Mineral&Sage 150ml","slug":"100062018-dove-antiperspirant-spray-men-care-mineral-sage-150ml"}],"activePromotion":null,"saveMe":null,"labels":[],"geniusPrice":null,"geniusUnitPricePerLabel":null,"banner":null,"discountLabel":null,"geniusDiscountLabel":null,"badge":null},{"code":"100101544","variantCode":"100101544","name":"Deodorant spray Original 150ml","slug":"100101544-borotalco-deodorant-spray-original-150ml","unitPriceLabel":"123,33 Lei/l","brand":"Borotalco","brandCode":"689","brandFilterCode":"borotalco-b690","sku":"100101544","price":18.5,"originalPrice":null,"currencyCode":"RON","currency":"Lei","image":{"thumbnail":{"default":"https://cdn.freshful.ro/media/cache/sylius_shop_product_thumbnail/06/5a/a9987f65a3d08cb5e7c6cef3ed82.jpg"},"large":{"default":"https://cdn.freshful.ro/media/cache/freshful_large/06/5a/a9987f65a3d08cb5e7c6cef3ed82.jpg"},"extralarge":{"default":"https://cdn.freshful.ro/media/cache/sylius_shop_product_original/06/5a/a9987f65a3d08cb5e7c6cef3ed82.jpg"}},"label":null,"tags":[],"isAvailable":true,"maxAvailableQuantity":44,"maxAllowedQuantity":100,"breadcrumbs":[{"code":"11","name":"Cosmetice","slug":"11-cosmetice-si-ingrijire-personala"},{"code":"1101","name":"Deodorante și parfumuri","slug":"1101-deodorante-si-parfumuri"},{"code":"110101","name":"Deodorante bărbați","slug":"110101-deodorante-barbati"},{"code":"100101544","name":"Deodorant spray Original 150ml","slug":"100101544-borotalco-deodorant-spray-original-150ml"}],"activePromotion":null,"saveMe":null,"labels":[],"geniusPrice":null,"geniusUnitPricePerLabel":null,"banner":null,"discountLabel":null,"geniusDiscountLabel":null,"badge":null}],"filters":{"countSelected":0,"items":[{"code":"promotion","name":"Promoții","countSelected":0,"values":[{"code":"oferte-dph-21feb-8mar23","name":"Curățenie și îngrijire personală","isSelected":false,"count":4}]},{"code":"brand","name":"Brand","countSelected":0,"values":[{"code":"banderas-b541","name":"Banderas","isSelected":false,"count":1},{"code":"borotalco-b690","name":"Borotalco","isSelected":false,"count":19},{"code":"denim-b553","name":"Denim","isSelected":false,"count":3},{"code":"dove-b764","name":"Dove","isSelected":false,"count":10},{"code":"gerovital-b1837","name":"Gerovital","isSelected":false,"count":4},{"code":"gillette-b661","name":"Gillette","isSelected":false,"count":2},{"code":"mennen-speed-stick-b327","name":"Mennen Speed Stick","isSelected":false,"count":5},{"code":"nivea-b317","name":"Nivea","isSelected":false,"count":17},{"code":"old-spice-b663","name":"Old Spice","isSelected":false,"count":13},{"code":"rexona-b765","name":"Rexona","isSelected":false,"count":7},{"code":"str8-b540","name":"STR8","isSelected":false,"count":9}]}]},"orderBy":[{"field":"price","direction":"asc","name":"Preț crescător","isSelected":false},{"field":"price","direction":"desc","name":"Preț descrescător","isSelected":false},{"field":"popularity","direction":"desc","name":"Cele mai populare","isSelected":true},{"field":"category","direction":"asc","name":"Categorie","isSelected":false}],"metaTitle":"Deodorante bărbați - Gamă variată","metaDescription":"Vrei Deodorante bărbați? Alege dintr-o gamă variată. Comanzi simplu și ai livrare rapidă, calitate și prospețime. Hai pe Freshful.ro","metaKeywords":null,"banners":[]}}