{"type":"subcategory","payload":{"analyticsListId":"category_110102-deodorante-femei","analyticsListName":"Category - Deodorante femei","name":"Deodorante femei","slug":"110102-deodorante-femei","image":null,"breadcrumbs":[{"code":"11","name":"Cosmetice","slug":"11-cosmetice-si-ingrijire-personala"},{"code":"1101","name":"Deodorante și parfumuri","slug":"1101-deodorante-si-parfumuri"},{"code":"110102","name":"Deodorante femei","slug":"110102-deodorante-femei"}],"slots":[],"page":1,"limit":10,"pages":8,"count":73,"siblings":[{"name":"Deodorante și parfumuri","slug":"1101-deodorante-si-parfumuri","selected":true},{"name":"Bărbierit și îngrijire ten","slug":"1102-produse-pentru-barbierit-si-ingrijit-ten","selected":false},{"name":"Demachiante și creme","slug":"1103-creme-intretinere-si-demachiante","selected":false},{"name":"Protecție solară","slug":"1104-produse-cu-protectie-solara","selected":false},{"name":"Ceară, benzi și creme depilatoare","slug":"1105-ceara-benzi-si-creme-depliatoare","selected":false},{"name":"Seturi cadou","slug":"1106-seturi-cadou","selected":false},{"name":"Îngrijirea părului","slug":"1107-ingrijirea-parului","selected":false},{"name":"Igienă intimă","slug":"1108-igienta-inima","selected":false},{"name":"Igienă dentară","slug":"1109-igiena-dentara","selected":false},{"name":"Săpunuri și geluri de duș","slug":"1110-sapunuri-si-geluri-de-dus","selected":false},{"name":"Dermatocosmetice și parafarmacie","slug":"1111-dermatocosmetice-si-parafarmacie","selected":false},{"name":"Repelent","slug":"repelent","selected":false}],"children":[{"name":"Toate produsele","slug":"1101-deodorante-si-parfumuri","selected":false},{"name":"Deodorante bărbați","slug":"110101-deodorante-barbati","selected":false},{"name":"Deodorante femei","slug":"110102-deodorante-femei","selected":true},{"name":"Apă de toaletă bărbați","slug":"110103-apa-de-toaleta-barbati","selected":false},{"name":"Apă de toaletă femei","slug":"110104-apa-de-toaleta-femei","selected":false},{"name":"Apă de parfum femei","slug":"110106-apa-de-parfum-femei","selected":false},{"name":"Apă de toaletă și parfum copii","slug":"apa-de-toaleta-si-parfum-copii","selected":false}],"products":[{"code":"100062024","variantCode":"100062024","name":"Antiperspirant stick Invisible Dry 40ml","slug":"100062024-dove-antiperspirant-stick-invisible-dry-40ml","unitPriceLabel":"424 Lei/l","brand":"Dove","brandCode":"763","brandFilterCode":"dove-b764","sku":"100062024","price":16.96,"originalPrice":null,"currencyCode":"RON","currency":"Lei","image":{"thumbnail":{"default":"https://cdn.freshful.ro/media/cache/sylius_shop_product_thumbnail/b6/34/33559378da0698fbc65016d96190.jpg"},"large":{"default":"https://cdn.freshful.ro/media/cache/freshful_large/b6/34/33559378da0698fbc65016d96190.jpg"},"extralarge":{"default":"https://cdn.freshful.ro/media/cache/sylius_shop_product_original/b6/34/33559378da0698fbc65016d96190.jpg"}},"label":{"text":"Profită acum","backgroundColor":"#FF9903","textColor":"#FFFFFF"},"tags":[],"isAvailable":true,"maxAvailableQuantity":99,"maxAllowedQuantity":100,"breadcrumbs":[{"code":"11","name":"Cosmetice","slug":"11-cosmetice-si-ingrijire-personala"},{"code":"1101","name":"Deodorante și parfumuri","slug":"1101-deodorante-si-parfumuri"},{"code":"110102","name":"Deodorante femei","slug":"110102-deodorante-femei"},{"code":"100062024","name":"Antiperspirant stick Invisible Dry 40ml","slug":"100062024-dove-antiperspirant-stick-invisible-dry-40ml"}],"activePromotion":{"code":"freshful-top-deals-2023","name":"Preț avantajos","targetQuantity":null},"saveMe":null,"labels":[{"type":"v1","items":[{"text":"Profită acum","backgroundColor":"#FF9903","textColor":"#FFFFFF"}]}],"geniusPrice":null,"geniusUnitPricePerLabel":null,"banner":{"text":"Preț avantajos","textColor":"#F95510","bgColor":"#FEF1CD","icon":null,"link":"https://www.freshful.ro/oferte/freshful-top-deals-2023","type":"promo","analyticsEventType":"select_promotion","analyticsEventPayload":{"promotion_id":"freshful-top-deals-2023","promotion_name":"Profită de Top Deals"}},"discountLabel":null,"geniusDiscountLabel":null,"badge":null},{"code":"100062010","variantCode":"100062010","name":"Antiperspirant spray Invisible Dry 150ml","slug":"100062010-dove-antiperspirant-spray-invisible-dry-150ml","unitPriceLabel":"113,27 Lei/l","brand":"Dove","brandCode":"763","brandFilterCode":"dove-b764","sku":"100062010","price":16.99,"originalPrice":null,"currencyCode":"RON","currency":"Lei","image":{"thumbnail":{"default":"https://cdn.freshful.ro/media/cache/sylius_shop_product_thumbnail/86/c9/61e82dcdd212d316875c3bac7f06.jpg"},"large":{"default":"https://cdn.freshful.ro/media/cache/freshful_large/86/c9/61e82dcdd212d316875c3bac7f06.jpg"},"extralarge":{"default":"https://cdn.freshful.ro/media/cache/sylius_shop_product_original/86/c9/61e82dcdd212d316875c3bac7f06.jpg"}},"label":{"text":"Profită acum","backgroundColor":"#FF9903","textColor":"#FFFFFF"},"tags":[],"isAvailable":true,"maxAvailableQuantity":100,"maxAllowedQuantity":100,"breadcrumbs":[{"code":"11","name":"Cosmetice","slug":"11-cosmetice-si-ingrijire-personala"},{"code":"1101","name":"Deodorante și parfumuri","slug":"1101-deodorante-si-parfumuri"},{"code":"110102","name":"Deodorante femei","slug":"110102-deodorante-femei"},{"code":"100062010","name":"Antiperspirant spray Invisible Dry 150ml","slug":"100062010-dove-antiperspirant-spray-invisible-dry-150ml"}],"activePromotion":{"code":"oferte-dph-21feb-8mar23","name":"Preț avantajos","targetQuantity":null},"saveMe":null,"labels":[{"type":"v1","items":[{"text":"Profită acum","backgroundColor":"#FF9903","textColor":"#FFFFFF"}]}],"geniusPrice":null,"geniusUnitPricePerLabel":null,"banner":{"text":"Preț avantajos","textColor":"#F95510","bgColor":"#FEF1CD","icon":null,"link":"https://www.freshful.ro/oferte/oferte-dph-21feb-8mar23","type":"promo","analyticsEventType":"select_promotion","analyticsEventPayload":{"promotion_id":"oferte-dph-21feb-8mar23","promotion_name":"Curățenie și îngrijire personală"}},"discountLabel":null,"geniusDiscountLabel":null,"badge":null},{"code":"100062008","variantCode":"100062008","name":"Antiperspirant spray Original 150ml","slug":"100062008-dove-antiperspirant-spray-original-150ml","unitPriceLabel":"127,87 Lei/l","brand":"Dove","brandCode":"763","brandFilterCode":"dove-b764","sku":"100062008","price":19.18,"originalPrice":null,"currencyCode":"RON","currency":"Lei","image":{"thumbnail":{"default":"https://cdn.freshful.ro/media/cache/sylius_shop_product_thumbnail/01/49/818725c6e3d424c7f5ac362bb1d3.jpg"},"large":{"default":"https://cdn.freshful.ro/media/cache/freshful_large/01/49/818725c6e3d424c7f5ac362bb1d3.jpg"},"extralarge":{"default":"https://cdn.freshful.ro/media/cache/sylius_shop_product_original/01/49/818725c6e3d424c7f5ac362bb1d3.jpg"}},"label":{"text":"-20% cu Genius","backgroundColor":"#FEF3FA","textColor":"#CD015F"},"tags":[],"isAvailable":true,"maxAvailableQuantity":100,"maxAllowedQuantity":100,"breadcrumbs":[{"code":"11","name":"Cosmetice","slug":"11-cosmetice-si-ingrijire-personala"},{"code":"1101","name":"Deodorante și parfumuri","slug":"1101-deodorante-si-parfumuri"},{"code":"110102","name":"Deodorante femei","slug":"110102-deodorante-femei"},{"code":"100062008","name":"Antiperspirant spray Original 150ml","slug":"100062008-dove-antiperspirant-spray-original-150ml"}],"activePromotion":null,"saveMe":null,"labels":[{"type":"gdeals","items":[{"text":"","backgroundColor":"","textColor":""}]},{"type":"v3","items":[{"text":"-20% cu Genius","backgroundColor":"#FEF3FA","textColor":"#CD015F"}]}],"geniusPrice":15.34,"geniusUnitPricePerLabel":"102,27 Lei/l","banner":null,"discountLabel":null,"geniusDiscountLabel":"Economisești 20%","badge":null},{"code":"100062302","variantCode":"100062302","name":"Antiperspirant stick Original 40ml","slug":"100062302-dove-antiperspirant-stick-original-40ml","unitPriceLabel":"424 Lei/l","brand":"Dove","brandCode":"763","brandFilterCode":"dove-b764","sku":"100062302","price":16.96,"originalPrice":null,"currencyCode":"RON","currency":"Lei","image":{"thumbnail":{"default":"https://cdn.freshful.ro/media/cache/sylius_shop_product_thumbnail/48/7a/ca658476ee299c822de2589f9b51.jpg"},"large":{"default":"https://cdn.freshful.ro/media/cache/freshful_large/48/7a/ca658476ee299c822de2589f9b51.jpg"},"extralarge":{"default":"https://cdn.freshful.ro/media/cache/sylius_shop_product_original/48/7a/ca658476ee299c822de2589f9b51.jpg"}},"label":{"text":"Profită acum","backgroundColor":"#FF9903","textColor":"#FFFFFF"},"tags":[],"isAvailable":true,"maxAvailableQuantity":100,"maxAllowedQuantity":100,"breadcrumbs":[{"code":"11","name":"Cosmetice","slug":"11-cosmetice-si-ingrijire-personala"},{"code":"1101","name":"Deodorante și parfumuri","slug":"1101-deodorante-si-parfumuri"},{"code":"110102","name":"Deodorante femei","slug":"110102-deodorante-femei"},{"code":"100062302","name":"Antiperspirant stick Original 40ml","slug":"100062302-dove-antiperspirant-stick-original-40ml"}],"activePromotion":{"code":"freshful-top-deals-2023","name":"Preț avantajos","targetQuantity":null},"saveMe":null,"labels":[{"type":"v1","items":[{"text":"Profită acum","backgroundColor":"#FF9903","textColor":"#FFFFFF"}]}],"geniusPrice":null,"geniusUnitPricePerLabel":null,"banner":{"text":"Preț avantajos","textColor":"#F95510","bgColor":"#FEF1CD","icon":null,"link":"https://www.freshful.ro/oferte/freshful-top-deals-2023","type":"promo","analyticsEventType":"select_promotion","analyticsEventPayload":{"promotion_id":"freshful-top-deals-2023","promotion_name":"Profită de Top Deals"}},"discountLabel":null,"geniusDiscountLabel":null,"badge":null},{"code":"100062294","variantCode":"100062294","name":"Antiperspirant spray Pomegranate 150ml","slug":"100062294-dove-antiperspirant-spray-pomegranate-150ml","unitPriceLabel":"113,27 Lei/l","brand":"Dove","brandCode":"763","brandFilterCode":"dove-b764","sku":"100062294","price":16.99,"originalPrice":18.52,"currencyCode":"RON","currency":"Lei","image":{"thumbnail":{"default":"https://cdn.freshful.ro/media/cache/sylius_shop_product_thumbnail/62/17/151792355e3a4e9d6163bffd80c7.jpg"},"large":{"default":"https://cdn.freshful.ro/media/cache/freshful_large/62/17/151792355e3a4e9d6163bffd80c7.jpg"},"extralarge":{"default":"https://cdn.freshful.ro/media/cache/sylius_shop_product_original/62/17/151792355e3a4e9d6163bffd80c7.jpg"}},"label":{"text":"-8%","backgroundColor":"#FF9903","textColor":"#FFFFFF"},"tags":[],"isAvailable":true,"maxAvailableQuantity":100,"maxAllowedQuantity":100,"breadcrumbs":[{"code":"11","name":"Cosmetice","slug":"11-cosmetice-si-ingrijire-personala"},{"code":"1101","name":"Deodorante și parfumuri","slug":"1101-deodorante-si-parfumuri"},{"code":"110102","name":"Deodorante femei","slug":"110102-deodorante-femei"},{"code":"100062294","name":"Antiperspirant spray Pomegranate 150ml","slug":"100062294-dove-antiperspirant-spray-pomegranate-150ml"}],"activePromotion":{"code":"oferte-dph-21feb-8mar23","name":"Preț redus","targetQuantity":null},"saveMe":null,"labels":[{"type":"v1","items":[{"text":"-8%","backgroundColor":"#FF9903","textColor":"#FFFFFF"}]}],"geniusPrice":null,"geniusUnitPricePerLabel":null,"banner":{"text":"Super preț","textColor":"#FF0000","bgColor":"#FFF2EC","icon":null,"link":"https://www.freshful.ro/oferte/oferte-dph-21feb-8mar23","type":"promo","analyticsEventType":"select_promotion","analyticsEventPayload":{"promotion_id":"oferte-dph-21feb-8mar23","promotion_name":"Curățenie și îngrijire personală"}},"discountLabel":"Economisești 8%","geniusDiscountLabel":null,"badge":null},{"code":"100062298","variantCode":"100062298","name":"Antiperspirant spray Coconut&Jasmine 150ml","slug":"100062298-dove-antiperspirant-spray-coconut-jasmine-150ml","unitPriceLabel":"113,27 Lei/l","brand":"Dove","brandCode":"763","brandFilterCode":"dove-b764","sku":"100062298","price":16.99,"originalPrice":19.49,"currencyCode":"RON","currency":"Lei","image":{"thumbnail":{"default":"https://cdn.freshful.ro/media/cache/sylius_shop_product_thumbnail/bd/43/4b2e67cba533b01c4227f5fa8365.jpg"},"large":{"default":"https://cdn.freshful.ro/media/cache/freshful_large/bd/43/4b2e67cba533b01c4227f5fa8365.jpg"},"extralarge":{"default":"https://cdn.freshful.ro/media/cache/sylius_shop_product_original/bd/43/4b2e67cba533b01c4227f5fa8365.jpg"}},"label":{"text":"-12%","backgroundColor":"#FF9903","textColor":"#FFFFFF"},"tags":[],"isAvailable":true,"maxAvailableQuantity":71,"maxAllowedQuantity":100,"breadcrumbs":[{"code":"11","name":"Cosmetice","slug":"11-cosmetice-si-ingrijire-personala"},{"code":"1101","name":"Deodorante și parfumuri","slug":"1101-deodorante-si-parfumuri"},{"code":"110102","name":"Deodorante femei","slug":"110102-deodorante-femei"},{"code":"100062298","name":"Antiperspirant spray Coconut&Jasmine 150ml","slug":"100062298-dove-antiperspirant-spray-coconut-jasmine-150ml"}],"activePromotion":{"code":"oferte-dph-21feb-8mar23","name":"Preț redus","targetQuantity":null},"saveMe":null,"labels":[{"type":"v1","items":[{"text":"-12%","backgroundColor":"#FF9903","textColor":"#FFFFFF"}]}],"geniusPrice":null,"geniusUnitPricePerLabel":null,"banner":{"text":"Super preț","textColor":"#FF0000","bgColor":"#FFF2EC","icon":null,"link":"https://www.freshful.ro/oferte/oferte-dph-21feb-8mar23","type":"promo","analyticsEventType":"select_promotion","analyticsEventPayload":{"promotion_id":"oferte-dph-21feb-8mar23","promotion_name":"Curățenie și îngrijire personală"}},"discountLabel":"Economisești 12%","geniusDiscountLabel":null,"badge":null},{"code":"100062295","variantCode":"100062295","name":"Antiperspirant spray Go Fresh Pear&Aloe Vera 150ml","slug":"100062295-dove-antiperspirant-spray-go-fresh-pear-aloe-vera-150ml","unitPriceLabel":"113,27 Lei/l","brand":"Dove","brandCode":"763","brandFilterCode":"dove-b764","sku":"100062295","price":16.99,"originalPrice":19.49,"currencyCode":"RON","currency":"Lei","image":{"thumbnail":{"default":"https://cdn.freshful.ro/media/cache/sylius_shop_product_thumbnail/a9/cb/0d76baa623d00a200684622b8342.jpg"},"large":{"default":"https://cdn.freshful.ro/media/cache/freshful_large/a9/cb/0d76baa623d00a200684622b8342.jpg"},"extralarge":{"default":"https://cdn.freshful.ro/media/cache/sylius_shop_product_original/a9/cb/0d76baa623d00a200684622b8342.jpg"}},"label":{"text":"-12%","backgroundColor":"#FF9903","textColor":"#FFFFFF"},"tags":[],"isAvailable":true,"maxAvailableQuantity":100,"maxAllowedQuantity":100,"breadcrumbs":[{"code":"11","name":"Cosmetice","slug":"11-cosmetice-si-ingrijire-personala"},{"code":"1101","name":"Deodorante și parfumuri","slug":"1101-deodorante-si-parfumuri"},{"code":"110102","name":"Deodorante femei","slug":"110102-deodorante-femei"},{"code":"100062295","name":"Antiperspirant spray Go Fresh Pear&Aloe Vera 150ml","slug":"100062295-dove-antiperspirant-spray-go-fresh-pear-aloe-vera-150ml"}],"activePromotion":{"code":"oferte-dph-21feb-8mar23","name":"Preț redus","targetQuantity":null},"saveMe":null,"labels":[{"type":"v1","items":[{"text":"-12%","backgroundColor":"#FF9903","textColor":"#FFFFFF"}]}],"geniusPrice":null,"geniusUnitPricePerLabel":null,"banner":{"text":"Super preț","textColor":"#FF0000","bgColor":"#FFF2EC","icon":null,"link":"https://www.freshful.ro/oferte/oferte-dph-21feb-8mar23","type":"promo","analyticsEventType":"select_promotion","analyticsEventPayload":{"promotion_id":"oferte-dph-21feb-8mar23","promotion_name":"Curățenie și îngrijire personală"}},"discountLabel":"Economisești 12%","geniusDiscountLabel":null,"badge":null},{"code":"100062016","variantCode":"100062016","name":"Antiperspirant spray Matcha&Sakura Blossom 150ml","slug":"100062016-dove-antiperspirant-spray-matcha-sakura-blossom-150ml","unitPriceLabel":"113,27 Lei/l","brand":"Dove","brandCode":"763","brandFilterCode":"dove-b764","sku":"100062016","price":16.99,"originalPrice":19.49,"currencyCode":"RON","currency":"Lei","image":{"thumbnail":{"default":"https://cdn.freshful.ro/media/cache/sylius_shop_product_thumbnail/fd/eb/db57dd6aca7fd9c1c5ea87d50baa.jpg"},"large":{"default":"https://cdn.freshful.ro/media/cache/freshful_large/fd/eb/db57dd6aca7fd9c1c5ea87d50baa.jpg"},"extralarge":{"default":"https://cdn.freshful.ro/media/cache/sylius_shop_product_original/fd/eb/db57dd6aca7fd9c1c5ea87d50baa.jpg"}},"label":{"text":"-12%","backgroundColor":"#FF9903","textColor":"#FFFFFF"},"tags":[],"isAvailable":true,"maxAvailableQuantity":40,"maxAllowedQuantity":100,"breadcrumbs":[{"code":"11","name":"Cosmetice","slug":"11-cosmetice-si-ingrijire-personala"},{"code":"1101","name":"Deodorante și parfumuri","slug":"1101-deodorante-si-parfumuri"},{"code":"110102","name":"Deodorante femei","slug":"110102-deodorante-femei"},{"code":"100062016","name":"Antiperspirant spray Matcha&Sakura Blossom 150ml","slug":"100062016-dove-antiperspirant-spray-matcha-sakura-blossom-150ml"}],"activePromotion":{"code":"oferte-dph-21feb-8mar23","name":"Preț redus","targetQuantity":null},"saveMe":null,"labels":[{"type":"v1","items":[{"text":"-12%","backgroundColor":"#FF9903","textColor":"#FFFFFF"}]}],"geniusPrice":null,"geniusUnitPricePerLabel":null,"banner":{"text":"Super preț","textColor":"#FF0000","bgColor":"#FFF2EC","icon":null,"link":"https://www.freshful.ro/oferte/oferte-dph-21feb-8mar23","type":"promo","analyticsEventType":"select_promotion","analyticsEventPayload":{"promotion_id":"oferte-dph-21feb-8mar23","promotion_name":"Curățenie și îngrijire personală"}},"discountLabel":"Economisești 12%","geniusDiscountLabel":null,"badge":null},{"code":"100086213","variantCode":"100086213","name":"Deodorant spray mosc alb 150ml","slug":"100086213-tesori-d-oriente-deodorant-spray-mosc-alb-150ml","unitPriceLabel":"82,6 Lei/l","brand":"Tesori d'Oriente","brandCode":"554","brandFilterCode":"tesori-d-oriente-b555","sku":"100086213","price":12.39,"originalPrice":15.5,"currencyCode":"RON","currency":"Lei","image":{"thumbnail":{"default":"https://cdn.freshful.ro/media/cache/sylius_shop_product_thumbnail/7d/74/6d2ca1c7b638e51cf79fa84af605.jpg"},"large":{"default":"https://cdn.freshful.ro/media/cache/freshful_large/7d/74/6d2ca1c7b638e51cf79fa84af605.jpg"},"extralarge":{"default":"https://cdn.freshful.ro/media/cache/sylius_shop_product_original/7d/74/6d2ca1c7b638e51cf79fa84af605.jpg"}},"label":{"text":"-20%","backgroundColor":"#FF9903","textColor":"#FFFFFF"},"tags":[],"isAvailable":true,"maxAvailableQuantity":34,"maxAllowedQuantity":100,"breadcrumbs":[{"code":"11","name":"Cosmetice","slug":"11-cosmetice-si-ingrijire-personala"},{"code":"1101","name":"Deodorante și parfumuri","slug":"1101-deodorante-si-parfumuri"},{"code":"110102","name":"Deodorante femei","slug":"110102-deodorante-femei"},{"code":"100086213","name":"Deodorant spray mosc alb 150ml","slug":"100086213-tesori-d-oriente-deodorant-spray-mosc-alb-150ml"}],"activePromotion":{"code":"oferte-dph-21feb-8mar23","name":"Preț redus","targetQuantity":null},"saveMe":null,"labels":[{"type":"v1","items":[{"text":"-20%","backgroundColor":"#FF9903","textColor":"#FFFFFF"}]}],"geniusPrice":null,"geniusUnitPricePerLabel":null,"banner":{"text":"Super preț","textColor":"#FF0000","bgColor":"#FFF2EC","icon":null,"link":"https://www.freshful.ro/oferte/oferte-dph-21feb-8mar23","type":"promo","analyticsEventType":"select_promotion","analyticsEventPayload":{"promotion_id":"oferte-dph-21feb-8mar23","promotion_name":"Curățenie și îngrijire personală"}},"discountLabel":"Economisești 20%","geniusDiscountLabel":null,"badge":null},{"code":"100085548","variantCode":"100085548","name":"Deodorant spray Wild 150ml","slug":"100085548-b-u-deodorant-spray-wild-150ml","unitPriceLabel":"66,6 Lei/l","brand":"B.U.","brandCode":"541","brandFilterCode":"b-u-b542","sku":"100085548","price":9.99,"originalPrice":null,"currencyCode":"RON","currency":"Lei","image":{"thumbnail":{"default":"https://cdn.freshful.ro/media/cache/sylius_shop_product_thumbnail/c5/b6/259bddb18590cefc985a2045303e.jpg"},"large":{"default":"https://cdn.freshful.ro/media/cache/freshful_large/c5/b6/259bddb18590cefc985a2045303e.jpg"},"extralarge":{"default":"https://cdn.freshful.ro/media/cache/sylius_shop_product_original/c5/b6/259bddb18590cefc985a2045303e.jpg"}},"label":{"text":"Profită acum","backgroundColor":"#FF9903","textColor":"#FFFFFF"},"tags":[],"isAvailable":true,"maxAvailableQuantity":39,"maxAllowedQuantity":100,"breadcrumbs":[{"code":"11","name":"Cosmetice","slug":"11-cosmetice-si-ingrijire-personala"},{"code":"1101","name":"Deodorante și parfumuri","slug":"1101-deodorante-si-parfumuri"},{"code":"110102","name":"Deodorante femei","slug":"110102-deodorante-femei"},{"code":"100085548","name":"Deodorant spray Wild 150ml","slug":"100085548-b-u-deodorant-spray-wild-150ml"}],"activePromotion":{"code":"oferte-dph-21feb-8mar23","name":"Preț avantajos","targetQuantity":null},"saveMe":null,"labels":[{"type":"v1","items":[{"text":"Profită acum","backgroundColor":"#FF9903","textColor":"#FFFFFF"}]}],"geniusPrice":null,"geniusUnitPricePerLabel":null,"banner":{"text":"Preț avantajos","textColor":"#F95510","bgColor":"#FEF1CD","icon":null,"link":"https://www.freshful.ro/oferte/oferte-dph-21feb-8mar23","type":"promo","analyticsEventType":"select_promotion","analyticsEventPayload":{"promotion_id":"oferte-dph-21feb-8mar23","promotion_name":"Curățenie și îngrijire personală"}},"discountLabel":null,"geniusDiscountLabel":null,"badge":null}],"filters":{"countSelected":0,"items":[{"code":"promotion","name":"Promoții","countSelected":0,"values":[{"code":"oferte-dph-21feb-8mar23","name":"Curățenie și îngrijire personală","isSelected":false,"count":12},{"code":"freshful-top-deals-2023","name":"Profită de Top Deals","isSelected":false,"count":2}]},{"code":"brand","name":"Brand","countSelected":0,"values":[{"code":"b-u-b542","name":"B.U.","isSelected":false,"count":4},{"code":"borotalco-b690","name":"Borotalco","isSelected":false,"count":2},{"code":"c-thru-b543","name":"C-THRU","isSelected":false,"count":2},{"code":"cl-b1857","name":"CL","isSelected":false,"count":1},{"code":"dove-b764","name":"Dove","isSelected":false,"count":14},{"code":"elmiplant-b551","name":"Elmiplant","isSelected":false,"count":11},{"code":"lactovit-b302","name":"Lactovit","isSelected":false,"count":3},{"code":"lady-speed-stick-b328","name":"Lady Speed Stick","isSelected":false,"count":6},{"code":"natura-verde-b340","name":"Natura Verde","isSelected":false,"count":2},{"code":"nivea-b317","name":"Nivea","isSelected":false,"count":19},{"code":"rexona-b765","name":"Rexona","isSelected":false,"count":6},{"code":"tesori-d-oriente-b555","name":"Tesori d'Oriente","isSelected":false,"count":2},{"code":"tiama-b1683","name":"Tiama","isSelected":false,"count":1}]},{"code":"diet_lifestyle","name":"Dietă și lifestyle","countSelected":0,"values":[{"code":"bio-a26","name":"Bio","isSelected":false,"count":1},{"code":"vegan-a24","name":"Vegan","isSelected":false,"count":12}]}]},"orderBy":[{"field":"price","direction":"asc","name":"Preț crescător","isSelected":false},{"field":"price","direction":"desc","name":"Preț descrescător","isSelected":false},{"field":"popularity","direction":"desc","name":"Cele mai populare","isSelected":true},{"field":"category","direction":"asc","name":"Categorie","isSelected":false}],"metaTitle":"Deodorante femei - Gamă variată","metaDescription":"Vrei Deodorante femei? Alege dintr-o gamă variată. Comanzi simplu și ai livrare rapidă, calitate și prospețime. Hai pe Freshful.ro","metaKeywords":null,"banners":[]}}