{"type":"subcategory","payload":{"analyticsListId":"category_1102-produse-pentru-barbierit-si-ingrijit-ten","analyticsListName":"Category - Bărbierit și îngrijire ten","name":"Bărbierit și îngrijire ten","slug":"1102-produse-pentru-barbierit-si-ingrijit-ten","image":null,"breadcrumbs":[{"code":"11","name":"Cosmetice","slug":"11-cosmetice-si-ingrijire-personala"},{"code":"1102","name":"Bărbierit și îngrijire ten","slug":"1102-produse-pentru-barbierit-si-ingrijit-ten"}],"slots":[],"page":1,"limit":10,"pages":12,"count":112,"siblings":[{"name":"Deodorante și parfumuri","slug":"1101-deodorante-si-parfumuri","selected":false},{"name":"Bărbierit și îngrijire ten","slug":"1102-produse-pentru-barbierit-si-ingrijit-ten","selected":true},{"name":"Demachiante și creme","slug":"1103-creme-intretinere-si-demachiante","selected":false},{"name":"Protecție solară","slug":"1104-produse-cu-protectie-solara","selected":false},{"name":"Ceară, benzi și creme depilatoare","slug":"1105-ceara-benzi-si-creme-depliatoare","selected":false},{"name":"Seturi cadou","slug":"1106-seturi-cadou","selected":false},{"name":"Îngrijirea părului","slug":"1107-ingrijirea-parului","selected":false},{"name":"Igienă intimă","slug":"1108-igienta-inima","selected":false},{"name":"Igienă dentară","slug":"1109-igiena-dentara","selected":false},{"name":"Săpunuri și geluri de duș","slug":"1110-sapunuri-si-geluri-de-dus","selected":false},{"name":"Dermatocosmetice și parafarmacie","slug":"1111-dermatocosmetice-si-parafarmacie","selected":false},{"name":"Repelent","slug":"repelent","selected":false}],"children":[{"name":"Toate produsele","slug":"1102-produse-pentru-barbierit-si-ingrijit-ten","selected":true},{"name":"Aftershave","slug":"110201-aftershave","selected":false},{"name":"Aparate și lame de ras","slug":"110202-aparate-si-lame-de-ras","selected":false},{"name":"Spumă și gel de ras","slug":"110203-spuma-si-gel-de-ras","selected":false},{"name":"Creme hidratante și antirid","slug":"110204-creme-hidratante-si-antirid","selected":false},{"name":"Îngrijire barbă","slug":"ingrijire-barba","selected":false}],"products":[{"code":"100124538","variantCode":"100124538","name":"Aparat de ras Fusion5 ProGlide + 4 rezerve","slug":"100124538-gillette-aparat-de-ras-fusion5-proglide-4-rezerve","unitPriceLabel":"","brand":"Gillette","brandCode":"660","brandFilterCode":"gillette-b661","sku":"100124538","price":53.99,"originalPrice":87.7,"currencyCode":"RON","currency":"Lei","image":{"thumbnail":{"default":"https://cdn.freshful.ro/media/cache/sylius_shop_product_thumbnail/93/e6/77e4d5508f55d1abb4e00651f2d0.jpg"},"large":{"default":"https://cdn.freshful.ro/media/cache/freshful_large/93/e6/77e4d5508f55d1abb4e00651f2d0.jpg"},"extralarge":{"default":"https://cdn.freshful.ro/media/cache/sylius_shop_product_original/93/e6/77e4d5508f55d1abb4e00651f2d0.jpg"}},"label":{"text":"-38%","backgroundColor":"#FF9903","textColor":"#FFFFFF"},"tags":[],"isAvailable":true,"maxAvailableQuantity":98,"maxAllowedQuantity":100,"breadcrumbs":[{"code":"11","name":"Cosmetice","slug":"11-cosmetice-si-ingrijire-personala"},{"code":"1102","name":"Bărbierit și îngrijire ten","slug":"1102-produse-pentru-barbierit-si-ingrijit-ten"},{"code":"110202","name":"Aparate și lame de ras","slug":"110202-aparate-si-lame-de-ras"},{"code":"100124538","name":"Aparat de ras Fusion5 ProGlide + 4 rezerve","slug":"100124538-gillette-aparat-de-ras-fusion5-proglide-4-rezerve"}],"activePromotion":{"code":"superpreturile-saptamanii","name":"Preț redus","targetQuantity":null},"saveMe":null,"labels":[{"type":"v1","items":[{"text":"-38%","backgroundColor":"#FF9903","textColor":"#FFFFFF"}]}],"geniusPrice":null,"geniusUnitPricePerLabel":null,"banner":{"text":"Super preț","textColor":"#FF0000","bgColor":"#FFF2EC","icon":null,"link":"https://www.freshful.ro/oferte/superpreturile-saptamanii","type":"promo","analyticsEventType":"select_promotion","analyticsEventPayload":{"promotion_id":"superpreturile-saptamanii","promotion_name":"Superprețurile zilei"}},"discountLabel":"Economisești 38%","geniusDiscountLabel":null,"badge":null},{"code":"100091311","variantCode":"100091311","name":"Rezerve aparat de ras Mach3, 18 buc","slug":"100091311-gillette-rezerve-aparat-de-ras-mach3-18-buc","unitPriceLabel":"","brand":"Gillette","brandCode":"660","brandFilterCode":"gillette-b661","sku":"100091311","price":159.99,"originalPrice":199.99,"currencyCode":"RON","currency":"Lei","image":{"thumbnail":{"default":"https://cdn.freshful.ro/media/cache/sylius_shop_product_thumbnail/db/49/3385646507c20776f24b3123ac96.jpg"},"large":{"default":"https://cdn.freshful.ro/media/cache/freshful_large/db/49/3385646507c20776f24b3123ac96.jpg"},"extralarge":{"default":"https://cdn.freshful.ro/media/cache/sylius_shop_product_original/db/49/3385646507c20776f24b3123ac96.jpg"}},"label":{"text":"-20%","backgroundColor":"#FF9903","textColor":"#FFFFFF"},"tags":[],"isAvailable":true,"maxAvailableQuantity":64,"maxAllowedQuantity":100,"breadcrumbs":[{"code":"11","name":"Cosmetice","slug":"11-cosmetice-si-ingrijire-personala"},{"code":"1102","name":"Bărbierit și îngrijire ten","slug":"1102-produse-pentru-barbierit-si-ingrijit-ten"},{"code":"110202","name":"Aparate și lame de ras","slug":"110202-aparate-si-lame-de-ras"},{"code":"100091311","name":"Rezerve aparat de ras Mach3, 18 buc","slug":"100091311-gillette-rezerve-aparat-de-ras-mach3-18-buc"}],"activePromotion":{"code":"oferte-dph-21feb-8mar23","name":"Preț redus","targetQuantity":null},"saveMe":null,"labels":[{"type":"v1","items":[{"text":"-20%","backgroundColor":"#FF9903","textColor":"#FFFFFF"}]}],"geniusPrice":null,"geniusUnitPricePerLabel":null,"banner":{"text":"Super preț","textColor":"#FF0000","bgColor":"#FFF2EC","icon":null,"link":"https://www.freshful.ro/oferte/oferte-dph-21feb-8mar23","type":"promo","analyticsEventType":"select_promotion","analyticsEventPayload":{"promotion_id":"oferte-dph-21feb-8mar23","promotion_name":"Curățenie și îngrijire personală"}},"discountLabel":"Economisești 20%","geniusDiscountLabel":null,"badge":null},{"code":"100091333","variantCode":"100091333","name":"Spumă de ras Regular Sensitive 300ml","slug":"100091333-gillette-spuma-de-ras-regular-sensitive-300ml","unitPriceLabel":"41,97 Lei/l","brand":"Gillette","brandCode":"660","brandFilterCode":"gillette-b661","sku":"100091333","price":12.59,"originalPrice":null,"currencyCode":"RON","currency":"Lei","image":{"thumbnail":{"default":"https://cdn.freshful.ro/media/cache/sylius_shop_product_thumbnail/50/0c/b586471b8d2a3178bc471fc3f8be.jpg"},"large":{"default":"https://cdn.freshful.ro/media/cache/freshful_large/50/0c/b586471b8d2a3178bc471fc3f8be.jpg"},"extralarge":{"default":"https://cdn.freshful.ro/media/cache/sylius_shop_product_original/50/0c/b586471b8d2a3178bc471fc3f8be.jpg"}},"label":null,"tags":[],"isAvailable":true,"maxAvailableQuantity":100,"maxAllowedQuantity":100,"breadcrumbs":[{"code":"11","name":"Cosmetice","slug":"11-cosmetice-si-ingrijire-personala"},{"code":"1102","name":"Bărbierit și îngrijire ten","slug":"1102-produse-pentru-barbierit-si-ingrijit-ten"},{"code":"110203","name":"Spumă și gel de ras","slug":"110203-spuma-si-gel-de-ras"},{"code":"100091333","name":"Spumă de ras Regular Sensitive 300ml","slug":"100091333-gillette-spuma-de-ras-regular-sensitive-300ml"}],"activePromotion":null,"saveMe":null,"labels":[],"geniusPrice":null,"geniusUnitPricePerLabel":null,"banner":null,"discountLabel":null,"geniusDiscountLabel":null,"badge":null},{"code":"100091340","variantCode":"100091340","name":"Gel de ras Series Sensitive 240ml","slug":"100091340-gillette-gel-de-ras-series-sensitive-240ml","unitPriceLabel":"95,42 Lei/l","brand":"Gillette","brandCode":"660","brandFilterCode":"gillette-b661","sku":"100091340","price":22.9,"originalPrice":null,"currencyCode":"RON","currency":"Lei","image":{"thumbnail":{"default":"https://cdn.freshful.ro/media/cache/sylius_shop_product_thumbnail/82/01/f88139b26a282cb54bcbb6c1a467.jpg"},"large":{"default":"https://cdn.freshful.ro/media/cache/freshful_large/82/01/f88139b26a282cb54bcbb6c1a467.jpg"},"extralarge":{"default":"https://cdn.freshful.ro/media/cache/sylius_shop_product_original/82/01/f88139b26a282cb54bcbb6c1a467.jpg"}},"label":null,"tags":[],"isAvailable":true,"maxAvailableQuantity":72,"maxAllowedQuantity":100,"breadcrumbs":[{"code":"11","name":"Cosmetice","slug":"11-cosmetice-si-ingrijire-personala"},{"code":"1102","name":"Bărbierit și îngrijire ten","slug":"1102-produse-pentru-barbierit-si-ingrijit-ten"},{"code":"110203","name":"Spumă și gel de ras","slug":"110203-spuma-si-gel-de-ras"},{"code":"100091340","name":"Gel de ras Series Sensitive 240ml","slug":"100091340-gillette-gel-de-ras-series-sensitive-240ml"}],"activePromotion":null,"saveMe":null,"labels":[],"geniusPrice":null,"geniusUnitPricePerLabel":null,"banner":null,"discountLabel":null,"geniusDiscountLabel":null,"badge":null},{"code":"100100941","variantCode":"100100941","name":"Aparat de ras Sensitive 6 buc","slug":"100100941-bic-aparat-de-ras-sensitive-6-buc","unitPriceLabel":"2,32 Lei/buc","brand":"BiC","brandCode":"319","brandFilterCode":"bic-b320","sku":"100100941","price":13.9,"originalPrice":null,"currencyCode":"RON","currency":"Lei","image":{"thumbnail":{"default":"https://cdn.freshful.ro/media/cache/sylius_shop_product_thumbnail/b5/f9/735ce789bacdce0d9be9ee2d3985.jpg"},"large":{"default":"https://cdn.freshful.ro/media/cache/freshful_large/b5/f9/735ce789bacdce0d9be9ee2d3985.jpg"},"extralarge":{"default":"https://cdn.freshful.ro/media/cache/sylius_shop_product_original/b5/f9/735ce789bacdce0d9be9ee2d3985.jpg"}},"label":null,"tags":[],"isAvailable":true,"maxAvailableQuantity":41,"maxAllowedQuantity":100,"breadcrumbs":[{"code":"11","name":"Cosmetice","slug":"11-cosmetice-si-ingrijire-personala"},{"code":"1102","name":"Bărbierit și îngrijire ten","slug":"1102-produse-pentru-barbierit-si-ingrijit-ten"},{"code":"110202","name":"Aparate și lame de ras","slug":"110202-aparate-si-lame-de-ras"},{"code":"100100941","name":"Aparat de ras Sensitive 6 buc","slug":"100100941-bic-aparat-de-ras-sensitive-6-buc"}],"activePromotion":null,"saveMe":null,"labels":[],"geniusPrice":null,"geniusUnitPricePerLabel":null,"banner":null,"discountLabel":null,"geniusDiscountLabel":null,"badge":null},{"code":"100091306","variantCode":"100091306","name":"Aparat de ras de unică folosință Blue3 Comfort 4 buc","slug":"100091306-gillette-aparat-de-ras-de-unica-folosinta-blue3-comfort-4-buc","unitPriceLabel":"","brand":"Gillette","brandCode":"660","brandFilterCode":"gillette-b661","sku":"100091306","price":17.9,"originalPrice":null,"currencyCode":"RON","currency":"Lei","image":{"thumbnail":{"default":"https://cdn.freshful.ro/media/cache/sylius_shop_product_thumbnail/41/34/3a3ee85d3c66ef1998c090b5a967.jpg"},"large":{"default":"https://cdn.freshful.ro/media/cache/freshful_large/41/34/3a3ee85d3c66ef1998c090b5a967.jpg"},"extralarge":{"default":"https://cdn.freshful.ro/media/cache/sylius_shop_product_original/41/34/3a3ee85d3c66ef1998c090b5a967.jpg"}},"label":null,"tags":[],"isAvailable":true,"maxAvailableQuantity":75,"maxAllowedQuantity":100,"breadcrumbs":[{"code":"11","name":"Cosmetice","slug":"11-cosmetice-si-ingrijire-personala"},{"code":"1102","name":"Bărbierit și îngrijire ten","slug":"1102-produse-pentru-barbierit-si-ingrijit-ten"},{"code":"110202","name":"Aparate și lame de ras","slug":"110202-aparate-si-lame-de-ras"},{"code":"100091306","name":"Aparat de ras de unică folosință Blue3 Comfort 4 buc","slug":"100091306-gillette-aparat-de-ras-de-unica-folosinta-blue3-comfort-4-buc"}],"activePromotion":null,"saveMe":null,"labels":[],"geniusPrice":null,"geniusUnitPricePerLabel":null,"banner":null,"discountLabel":null,"geniusDiscountLabel":null,"badge":null},{"code":"100091304","variantCode":"100091304","name":"Aparat de ras de unică folosință Blue3 Sensitive 3buc","slug":"100091304-gillette-aparat-de-ras-de-unica-folosinta-blue3-sensitive-3buc","unitPriceLabel":"","brand":"Gillette","brandCode":"660","brandFilterCode":"gillette-b661","sku":"100091304","price":17.9,"originalPrice":null,"currencyCode":"RON","currency":"Lei","image":{"thumbnail":{"default":"https://cdn.freshful.ro/media/cache/sylius_shop_product_thumbnail/04/b6/53dffb977e18533602e689489dc5.jpg"},"large":{"default":"https://cdn.freshful.ro/media/cache/freshful_large/04/b6/53dffb977e18533602e689489dc5.jpg"},"extralarge":{"default":"https://cdn.freshful.ro/media/cache/sylius_shop_product_original/04/b6/53dffb977e18533602e689489dc5.jpg"}},"label":null,"tags":[],"isAvailable":true,"maxAvailableQuantity":59,"maxAllowedQuantity":100,"breadcrumbs":[{"code":"11","name":"Cosmetice","slug":"11-cosmetice-si-ingrijire-personala"},{"code":"1102","name":"Bărbierit și îngrijire ten","slug":"1102-produse-pentru-barbierit-si-ingrijit-ten"},{"code":"110202","name":"Aparate și lame de ras","slug":"110202-aparate-si-lame-de-ras"},{"code":"100091304","name":"Aparat de ras de unică folosință Blue3 Sensitive 3buc","slug":"100091304-gillette-aparat-de-ras-de-unica-folosinta-blue3-sensitive-3buc"}],"activePromotion":null,"saveMe":null,"labels":[],"geniusPrice":null,"geniusUnitPricePerLabel":null,"banner":null,"discountLabel":null,"geniusDiscountLabel":null,"badge":null},{"code":"100033711","variantCode":"9005800308432","name":"Gel de ras Sensitive 200ml","slug":"100033711-nivea-gel-de-ras-sensitive-200ml","unitPriceLabel":"89,45 Lei/l","brand":"Nivea","brandCode":"316","brandFilterCode":"nivea-b317","sku":"100033711","price":17.89,"originalPrice":null,"currencyCode":"RON","currency":"Lei","image":{"thumbnail":{"default":"https://cdn.freshful.ro/media/cache/sylius_shop_product_thumbnail/c2/ba/390a995cb219269599866b1f1c75.jpg"},"large":{"default":"https://cdn.freshful.ro/media/cache/freshful_large/c2/ba/390a995cb219269599866b1f1c75.jpg"},"extralarge":{"default":"https://cdn.freshful.ro/media/cache/sylius_shop_product_original/c2/ba/390a995cb219269599866b1f1c75.jpg"}},"label":null,"tags":[],"isAvailable":true,"maxAvailableQuantity":21,"maxAllowedQuantity":100,"breadcrumbs":[{"code":"11","name":"Cosmetice","slug":"11-cosmetice-si-ingrijire-personala"},{"code":"1102","name":"Bărbierit și îngrijire ten","slug":"1102-produse-pentru-barbierit-si-ingrijit-ten"},{"code":"110203","name":"Spumă și gel de ras","slug":"110203-spuma-si-gel-de-ras"},{"code":"100033711","name":"Gel de ras Sensitive 200ml","slug":"100033711-nivea-gel-de-ras-sensitive-200ml"}],"activePromotion":null,"saveMe":null,"labels":[],"geniusPrice":null,"geniusUnitPricePerLabel":null,"banner":null,"discountLabel":null,"geniusDiscountLabel":null,"badge":null},{"code":"100091308","variantCode":"100091308","name":"Aparat de ras de unică folosință Blue3 Simple 4buc","slug":"100091308-gillette-aparat-de-ras-de-unica-folosinta-blue3-simple-4buc","unitPriceLabel":"","brand":"Gillette","brandCode":"660","brandFilterCode":"gillette-b661","sku":"100091308","price":12.9,"originalPrice":null,"currencyCode":"RON","currency":"Lei","image":{"thumbnail":{"default":"https://cdn.freshful.ro/media/cache/sylius_shop_product_thumbnail/71/1e/27c0b54fe53f35faccb797a5d330.jpg"},"large":{"default":"https://cdn.freshful.ro/media/cache/freshful_large/71/1e/27c0b54fe53f35faccb797a5d330.jpg"},"extralarge":{"default":"https://cdn.freshful.ro/media/cache/sylius_shop_product_original/71/1e/27c0b54fe53f35faccb797a5d330.jpg"}},"label":null,"tags":[],"isAvailable":true,"maxAvailableQuantity":57,"maxAllowedQuantity":100,"breadcrumbs":[{"code":"11","name":"Cosmetice","slug":"11-cosmetice-si-ingrijire-personala"},{"code":"1102","name":"Bărbierit și îngrijire ten","slug":"1102-produse-pentru-barbierit-si-ingrijit-ten"},{"code":"110202","name":"Aparate și lame de ras","slug":"110202-aparate-si-lame-de-ras"},{"code":"100091308","name":"Aparat de ras de unică folosință Blue3 Simple 4buc","slug":"100091308-gillette-aparat-de-ras-de-unica-folosinta-blue3-simple-4buc"}],"activePromotion":null,"saveMe":null,"labels":[],"geniusPrice":null,"geniusUnitPricePerLabel":null,"banner":null,"discountLabel":null,"geniusDiscountLabel":null,"badge":null},{"code":"100033784","variantCode":"4005808310715","name":"Spumă de ras pentru ten sensibil 200ml","slug":"100033784-nivea-spuma-de-ras-pentru-ten-sensibil-200ml","unitPriceLabel":"81,45 Lei/l","brand":"Nivea","brandCode":"316","brandFilterCode":"nivea-b317","sku":"100033784","price":16.29,"originalPrice":null,"currencyCode":"RON","currency":"Lei","image":{"thumbnail":{"default":"https://cdn.freshful.ro/media/cache/sylius_shop_product_thumbnail/65/a6/46b0ddf68f65e0ef490a6f3ae429.jpg"},"large":{"default":"https://cdn.freshful.ro/media/cache/freshful_large/65/a6/46b0ddf68f65e0ef490a6f3ae429.jpg"},"extralarge":{"default":"https://cdn.freshful.ro/media/cache/sylius_shop_product_original/65/a6/46b0ddf68f65e0ef490a6f3ae429.jpg"}},"label":null,"tags":[],"isAvailable":true,"maxAvailableQuantity":27,"maxAllowedQuantity":100,"breadcrumbs":[{"code":"11","name":"Cosmetice","slug":"11-cosmetice-si-ingrijire-personala"},{"code":"1102","name":"Bărbierit și îngrijire ten","slug":"1102-produse-pentru-barbierit-si-ingrijit-ten"},{"code":"110203","name":"Spumă și gel de ras","slug":"110203-spuma-si-gel-de-ras"},{"code":"100033784","name":"Spumă de ras pentru ten sensibil 200ml","slug":"100033784-nivea-spuma-de-ras-pentru-ten-sensibil-200ml"}],"activePromotion":null,"saveMe":null,"labels":[],"geniusPrice":null,"geniusUnitPricePerLabel":null,"banner":null,"discountLabel":null,"geniusDiscountLabel":null,"badge":null}],"filters":{"countSelected":0,"items":[{"code":"promotion","name":"Promoții","countSelected":0,"values":[{"code":"oferte-dph-21feb-8mar23","name":"Curățenie și îngrijire personală","isSelected":false,"count":1},{"code":"superpreturile-saptamanii","name":"Superprețurile zilei","isSelected":false,"count":1}]},{"code":"brand","name":"Brand","countSelected":0,"values":[{"code":"adidas-b348","name":"Adidas","isSelected":false,"count":1},{"code":"bic-b320","name":"BiC","isSelected":false,"count":21},{"code":"brisk-b1858","name":"Brisk","isSelected":false,"count":3},{"code":"denim-b553","name":"Denim","isSelected":false,"count":3},{"code":"florame-b1418","name":"Florame","isSelected":false,"count":2},{"code":"gerovital-b1837","name":"Gerovital","isSelected":false,"count":4},{"code":"gillette-b661","name":"Gillette","isSelected":false,"count":45},{"code":"men-expert-b445","name":"Men Expert","isSelected":false,"count":1},{"code":"nivea-b317","name":"Nivea","isSelected":false,"count":28},{"code":"str8-b540","name":"STR8","isSelected":false,"count":2},{"code":"wilkinson-sword-b559","name":"Wilkinson Sword","isSelected":false,"count":2}]},{"code":"diet_lifestyle","name":"Dietă și lifestyle","countSelected":0,"values":[{"code":"bio-a26","name":"Bio","isSelected":false,"count":2}]}]},"orderBy":[{"field":"price","direction":"asc","name":"Preț crescător","isSelected":false},{"field":"price","direction":"desc","name":"Preț descrescător","isSelected":false},{"field":"popularity","direction":"desc","name":"Cele mai populare","isSelected":true},{"field":"category","direction":"asc","name":"Categorie","isSelected":false}],"metaTitle":"Bărbierit și îngrijire ten - Gamă variată","metaDescription":"Vrei Bărbierit și îngrijire ten? Alege dintr-o gamă variată. Comanzi simplu și ai livrare rapidă, calitate și prospețime. Hai pe Freshful.ro","metaKeywords":null,"banners":[]}}