{"type":"subcategory","payload":{"analyticsListId":"category_110203-spuma-si-gel-de-ras","analyticsListName":"Category - Spumă și gel de ras","name":"Spumă și gel de ras","slug":"110203-spuma-si-gel-de-ras","image":null,"breadcrumbs":[{"code":"11","name":"Cosmetice","slug":"11-cosmetice-si-ingrijire-personala"},{"code":"1102","name":"Bărbierit și îngrijire ten","slug":"1102-produse-pentru-barbierit-si-ingrijit-ten"},{"code":"110203","name":"Spumă și gel de ras","slug":"110203-spuma-si-gel-de-ras"}],"slots":[],"page":1,"limit":10,"pages":3,"count":21,"siblings":[{"name":"Deodorante și parfumuri","slug":"1101-deodorante-si-parfumuri","selected":false},{"name":"Bărbierit și îngrijire ten","slug":"1102-produse-pentru-barbierit-si-ingrijit-ten","selected":true},{"name":"Demachiante și creme","slug":"1103-creme-intretinere-si-demachiante","selected":false},{"name":"Protecție solară","slug":"1104-produse-cu-protectie-solara","selected":false},{"name":"Ceară, benzi și creme depilatoare","slug":"1105-ceara-benzi-si-creme-depliatoare","selected":false},{"name":"Seturi cadou","slug":"1106-seturi-cadou","selected":false},{"name":"Îngrijirea părului","slug":"1107-ingrijirea-parului","selected":false},{"name":"Igienă intimă","slug":"1108-igienta-inima","selected":false},{"name":"Igienă dentară","slug":"1109-igiena-dentara","selected":false},{"name":"Săpunuri și geluri de duș","slug":"1110-sapunuri-si-geluri-de-dus","selected":false},{"name":"Dermatocosmetice și parafarmacie","slug":"1111-dermatocosmetice-si-parafarmacie","selected":false},{"name":"Repelent","slug":"repelent","selected":false}],"children":[{"name":"Toate produsele","slug":"1102-produse-pentru-barbierit-si-ingrijit-ten","selected":false},{"name":"Aftershave","slug":"110201-aftershave","selected":false},{"name":"Aparate și lame de ras","slug":"110202-aparate-si-lame-de-ras","selected":false},{"name":"Spumă și gel de ras","slug":"110203-spuma-si-gel-de-ras","selected":true},{"name":"Creme hidratante și antirid","slug":"110204-creme-hidratante-si-antirid","selected":false},{"name":"Îngrijire barbă","slug":"ingrijire-barba","selected":false}],"products":[{"code":"100091333","variantCode":"100091333","name":"Spumă de ras Regular Sensitive 300ml","slug":"100091333-gillette-spuma-de-ras-regular-sensitive-300ml","unitPriceLabel":"41,97 Lei/l","brand":"Gillette","brandCode":"660","brandFilterCode":"gillette-b661","sku":"100091333","price":12.59,"originalPrice":null,"currencyCode":"RON","currency":"Lei","image":{"thumbnail":{"default":"https://cdn.freshful.ro/media/cache/sylius_shop_product_thumbnail/50/0c/b586471b8d2a3178bc471fc3f8be.jpg"},"large":{"default":"https://cdn.freshful.ro/media/cache/freshful_large/50/0c/b586471b8d2a3178bc471fc3f8be.jpg"},"extralarge":{"default":"https://cdn.freshful.ro/media/cache/sylius_shop_product_original/50/0c/b586471b8d2a3178bc471fc3f8be.jpg"}},"label":null,"tags":[],"isAvailable":true,"maxAvailableQuantity":100,"maxAllowedQuantity":100,"breadcrumbs":[{"code":"11","name":"Cosmetice","slug":"11-cosmetice-si-ingrijire-personala"},{"code":"1102","name":"Bărbierit și îngrijire ten","slug":"1102-produse-pentru-barbierit-si-ingrijit-ten"},{"code":"110203","name":"Spumă și gel de ras","slug":"110203-spuma-si-gel-de-ras"},{"code":"100091333","name":"Spumă de ras Regular Sensitive 300ml","slug":"100091333-gillette-spuma-de-ras-regular-sensitive-300ml"}],"activePromotion":null,"saveMe":null,"labels":[],"geniusPrice":null,"geniusUnitPricePerLabel":null,"banner":null,"discountLabel":null,"geniusDiscountLabel":null,"badge":null},{"code":"100091340","variantCode":"100091340","name":"Gel de ras Series Sensitive 240ml","slug":"100091340-gillette-gel-de-ras-series-sensitive-240ml","unitPriceLabel":"95,42 Lei/l","brand":"Gillette","brandCode":"660","brandFilterCode":"gillette-b661","sku":"100091340","price":22.9,"originalPrice":null,"currencyCode":"RON","currency":"Lei","image":{"thumbnail":{"default":"https://cdn.freshful.ro/media/cache/sylius_shop_product_thumbnail/82/01/f88139b26a282cb54bcbb6c1a467.jpg"},"large":{"default":"https://cdn.freshful.ro/media/cache/freshful_large/82/01/f88139b26a282cb54bcbb6c1a467.jpg"},"extralarge":{"default":"https://cdn.freshful.ro/media/cache/sylius_shop_product_original/82/01/f88139b26a282cb54bcbb6c1a467.jpg"}},"label":null,"tags":[],"isAvailable":true,"maxAvailableQuantity":72,"maxAllowedQuantity":100,"breadcrumbs":[{"code":"11","name":"Cosmetice","slug":"11-cosmetice-si-ingrijire-personala"},{"code":"1102","name":"Bărbierit și îngrijire ten","slug":"1102-produse-pentru-barbierit-si-ingrijit-ten"},{"code":"110203","name":"Spumă și gel de ras","slug":"110203-spuma-si-gel-de-ras"},{"code":"100091340","name":"Gel de ras Series Sensitive 240ml","slug":"100091340-gillette-gel-de-ras-series-sensitive-240ml"}],"activePromotion":null,"saveMe":null,"labels":[],"geniusPrice":null,"geniusUnitPricePerLabel":null,"banner":null,"discountLabel":null,"geniusDiscountLabel":null,"badge":null},{"code":"100033711","variantCode":"9005800308432","name":"Gel de ras Sensitive 200ml","slug":"100033711-nivea-gel-de-ras-sensitive-200ml","unitPriceLabel":"89,45 Lei/l","brand":"Nivea","brandCode":"316","brandFilterCode":"nivea-b317","sku":"100033711","price":17.89,"originalPrice":null,"currencyCode":"RON","currency":"Lei","image":{"thumbnail":{"default":"https://cdn.freshful.ro/media/cache/sylius_shop_product_thumbnail/c2/ba/390a995cb219269599866b1f1c75.jpg"},"large":{"default":"https://cdn.freshful.ro/media/cache/freshful_large/c2/ba/390a995cb219269599866b1f1c75.jpg"},"extralarge":{"default":"https://cdn.freshful.ro/media/cache/sylius_shop_product_original/c2/ba/390a995cb219269599866b1f1c75.jpg"}},"label":null,"tags":[],"isAvailable":true,"maxAvailableQuantity":21,"maxAllowedQuantity":100,"breadcrumbs":[{"code":"11","name":"Cosmetice","slug":"11-cosmetice-si-ingrijire-personala"},{"code":"1102","name":"Bărbierit și îngrijire ten","slug":"1102-produse-pentru-barbierit-si-ingrijit-ten"},{"code":"110203","name":"Spumă și gel de ras","slug":"110203-spuma-si-gel-de-ras"},{"code":"100033711","name":"Gel de ras Sensitive 200ml","slug":"100033711-nivea-gel-de-ras-sensitive-200ml"}],"activePromotion":null,"saveMe":null,"labels":[],"geniusPrice":null,"geniusUnitPricePerLabel":null,"banner":null,"discountLabel":null,"geniusDiscountLabel":null,"badge":null},{"code":"100033784","variantCode":"4005808310715","name":"Spumă de ras pentru ten sensibil 200ml","slug":"100033784-nivea-spuma-de-ras-pentru-ten-sensibil-200ml","unitPriceLabel":"81,45 Lei/l","brand":"Nivea","brandCode":"316","brandFilterCode":"nivea-b317","sku":"100033784","price":16.29,"originalPrice":null,"currencyCode":"RON","currency":"Lei","image":{"thumbnail":{"default":"https://cdn.freshful.ro/media/cache/sylius_shop_product_thumbnail/65/a6/46b0ddf68f65e0ef490a6f3ae429.jpg"},"large":{"default":"https://cdn.freshful.ro/media/cache/freshful_large/65/a6/46b0ddf68f65e0ef490a6f3ae429.jpg"},"extralarge":{"default":"https://cdn.freshful.ro/media/cache/sylius_shop_product_original/65/a6/46b0ddf68f65e0ef490a6f3ae429.jpg"}},"label":null,"tags":[],"isAvailable":true,"maxAvailableQuantity":27,"maxAllowedQuantity":100,"breadcrumbs":[{"code":"11","name":"Cosmetice","slug":"11-cosmetice-si-ingrijire-personala"},{"code":"1102","name":"Bărbierit și îngrijire ten","slug":"1102-produse-pentru-barbierit-si-ingrijit-ten"},{"code":"110203","name":"Spumă și gel de ras","slug":"110203-spuma-si-gel-de-ras"},{"code":"100033784","name":"Spumă de ras pentru ten sensibil 200ml","slug":"100033784-nivea-spuma-de-ras-pentru-ten-sensibil-200ml"}],"activePromotion":null,"saveMe":null,"labels":[],"geniusPrice":null,"geniusUnitPricePerLabel":null,"banner":null,"discountLabel":null,"geniusDiscountLabel":null,"badge":null},{"code":"100091335","variantCode":"100091335","name":"Spumă de ras Regular Sensitive 200ml","slug":"100091335-gillette-spuma-de-ras-regular-sensitive-200ml","unitPriceLabel":"44,65 Lei/l","brand":"Gillette","brandCode":"660","brandFilterCode":"gillette-b661","sku":"100091335","price":8.93,"originalPrice":null,"currencyCode":"RON","currency":"Lei","image":{"thumbnail":{"default":"https://cdn.freshful.ro/media/cache/sylius_shop_product_thumbnail/ae/a9/88cb2a17ed665fe8a1ee608356c3.jpg"},"large":{"default":"https://cdn.freshful.ro/media/cache/freshful_large/ae/a9/88cb2a17ed665fe8a1ee608356c3.jpg"},"extralarge":{"default":"https://cdn.freshful.ro/media/cache/sylius_shop_product_original/ae/a9/88cb2a17ed665fe8a1ee608356c3.jpg"}},"label":null,"tags":[],"isAvailable":true,"maxAvailableQuantity":22,"maxAllowedQuantity":100,"breadcrumbs":[{"code":"11","name":"Cosmetice","slug":"11-cosmetice-si-ingrijire-personala"},{"code":"1102","name":"Bărbierit și îngrijire ten","slug":"1102-produse-pentru-barbierit-si-ingrijit-ten"},{"code":"110203","name":"Spumă și gel de ras","slug":"110203-spuma-si-gel-de-ras"},{"code":"100091335","name":"Spumă de ras Regular Sensitive 200ml","slug":"100091335-gillette-spuma-de-ras-regular-sensitive-200ml"}],"activePromotion":null,"saveMe":null,"labels":[],"geniusPrice":null,"geniusUnitPricePerLabel":null,"banner":null,"discountLabel":null,"geniusDiscountLabel":null,"badge":null},{"code":"100033708","variantCode":"4005808265312","name":"Gel de ras pentru ten sensibil 200ml","slug":"100033708-nivea-gel-de-ras-pentru-ten-sensibil-200ml","unitPriceLabel":"89,45 Lei/l","brand":"Nivea","brandCode":"316","brandFilterCode":"nivea-b317","sku":"100033708","price":17.89,"originalPrice":null,"currencyCode":"RON","currency":"Lei","image":{"thumbnail":{"default":"https://cdn.freshful.ro/media/cache/sylius_shop_product_thumbnail/4b/45/48d0712d372c63b459441bce5319.jpg"},"large":{"default":"https://cdn.freshful.ro/media/cache/freshful_large/4b/45/48d0712d372c63b459441bce5319.jpg"},"extralarge":{"default":"https://cdn.freshful.ro/media/cache/sylius_shop_product_original/4b/45/48d0712d372c63b459441bce5319.jpg"}},"label":null,"tags":[],"isAvailable":true,"maxAvailableQuantity":10,"maxAllowedQuantity":100,"breadcrumbs":[{"code":"11","name":"Cosmetice","slug":"11-cosmetice-si-ingrijire-personala"},{"code":"1102","name":"Bărbierit și îngrijire ten","slug":"1102-produse-pentru-barbierit-si-ingrijit-ten"},{"code":"110203","name":"Spumă și gel de ras","slug":"110203-spuma-si-gel-de-ras"},{"code":"100033708","name":"Gel de ras pentru ten sensibil 200ml","slug":"100033708-nivea-gel-de-ras-pentru-ten-sensibil-200ml"}],"activePromotion":null,"saveMe":null,"labels":[],"geniusPrice":null,"geniusUnitPricePerLabel":null,"banner":null,"discountLabel":null,"geniusDiscountLabel":null,"badge":null},{"code":"100033712","variantCode":"9005800294209","name":"Gel pentru ras Sensitive Recovery 200ml","slug":"100033712-nivea-gel-pentru-ras-sensitive-recovery-200ml","unitPriceLabel":"86 Lei/l","brand":"Nivea","brandCode":"316","brandFilterCode":"nivea-b317","sku":"100033712","price":17.2,"originalPrice":null,"currencyCode":"RON","currency":"Lei","image":{"thumbnail":{"default":"https://cdn.freshful.ro/media/cache/sylius_shop_product_thumbnail/bc/c0/1ef1c359233f71a25c087c9888c4.jpg"},"large":{"default":"https://cdn.freshful.ro/media/cache/freshful_large/bc/c0/1ef1c359233f71a25c087c9888c4.jpg"},"extralarge":{"default":"https://cdn.freshful.ro/media/cache/sylius_shop_product_original/bc/c0/1ef1c359233f71a25c087c9888c4.jpg"}},"label":null,"tags":[],"isAvailable":true,"maxAvailableQuantity":12,"maxAllowedQuantity":100,"breadcrumbs":[{"code":"11","name":"Cosmetice","slug":"11-cosmetice-si-ingrijire-personala"},{"code":"1102","name":"Bărbierit și îngrijire ten","slug":"1102-produse-pentru-barbierit-si-ingrijit-ten"},{"code":"110203","name":"Spumă și gel de ras","slug":"110203-spuma-si-gel-de-ras"},{"code":"100033712","name":"Gel pentru ras Sensitive Recovery 200ml","slug":"100033712-nivea-gel-pentru-ras-sensitive-recovery-200ml"}],"activePromotion":null,"saveMe":null,"labels":[],"geniusPrice":null,"geniusUnitPricePerLabel":null,"banner":null,"discountLabel":null,"geniusDiscountLabel":null,"badge":null},{"code":"100119264","variantCode":"100119264","name":"Spumă de ras Sensitive 200ml","slug":"100119264-gerovital-spuma-de-ras-sensitive-200ml","unitPriceLabel":"72,5 Lei/l","brand":"Gerovital","brandCode":"1833","brandFilterCode":"gerovital-b1837","sku":"100119264","price":14.5,"originalPrice":null,"currencyCode":"RON","currency":"Lei","image":{"thumbnail":{"default":"https://cdn.freshful.ro/media/cache/sylius_shop_product_thumbnail/9c/89/3fa116494261505265dcc9a1f1be.jpg"},"large":{"default":"https://cdn.freshful.ro/media/cache/freshful_large/9c/89/3fa116494261505265dcc9a1f1be.jpg"},"extralarge":{"default":"https://cdn.freshful.ro/media/cache/sylius_shop_product_original/9c/89/3fa116494261505265dcc9a1f1be.jpg"}},"label":null,"tags":[],"isAvailable":true,"maxAvailableQuantity":11,"maxAllowedQuantity":100,"breadcrumbs":[{"code":"11","name":"Cosmetice","slug":"11-cosmetice-si-ingrijire-personala"},{"code":"1102","name":"Bărbierit și îngrijire ten","slug":"1102-produse-pentru-barbierit-si-ingrijit-ten"},{"code":"110203","name":"Spumă și gel de ras","slug":"110203-spuma-si-gel-de-ras"},{"code":"100119264","name":"Spumă de ras Sensitive 200ml","slug":"100119264-gerovital-spuma-de-ras-sensitive-200ml"}],"activePromotion":null,"saveMe":null,"labels":[],"geniusPrice":null,"geniusUnitPricePerLabel":null,"banner":null,"discountLabel":null,"geniusDiscountLabel":null,"badge":null},{"code":"100033584","variantCode":"9005800313443","name":"Cremă pentru ras ten sensibil 100ml","slug":"100033584-nivea-crema-pentru-ras-ten-sensibil-100ml","unitPriceLabel":"98,9 Lei/l","brand":"Nivea","brandCode":"316","brandFilterCode":"nivea-b317","sku":"100033584","price":9.89,"originalPrice":null,"currencyCode":"RON","currency":"Lei","image":{"thumbnail":{"default":"https://cdn.freshful.ro/media/cache/sylius_shop_product_thumbnail/65/f5/16b62c5667ce1ba5558f53b1b59e.jpg"},"large":{"default":"https://cdn.freshful.ro/media/cache/freshful_large/65/f5/16b62c5667ce1ba5558f53b1b59e.jpg"},"extralarge":{"default":"https://cdn.freshful.ro/media/cache/sylius_shop_product_original/65/f5/16b62c5667ce1ba5558f53b1b59e.jpg"}},"label":null,"tags":[],"isAvailable":true,"maxAvailableQuantity":25,"maxAllowedQuantity":100,"breadcrumbs":[{"code":"11","name":"Cosmetice","slug":"11-cosmetice-si-ingrijire-personala"},{"code":"1102","name":"Bărbierit și îngrijire ten","slug":"1102-produse-pentru-barbierit-si-ingrijit-ten"},{"code":"110203","name":"Spumă și gel de ras","slug":"110203-spuma-si-gel-de-ras"},{"code":"100033584","name":"Cremă pentru ras ten sensibil 100ml","slug":"100033584-nivea-crema-pentru-ras-ten-sensibil-100ml"}],"activePromotion":null,"saveMe":null,"labels":[],"geniusPrice":null,"geniusUnitPricePerLabel":null,"banner":null,"discountLabel":null,"geniusDiscountLabel":null,"badge":null},{"code":"100033710","variantCode":"9005800297156","name":"Gel pentru ras Deep 200ml","slug":"100033710-nivea-gel-pentru-ras-deep-200ml","unitPriceLabel":"89,45 Lei/l","brand":"Nivea","brandCode":"316","brandFilterCode":"nivea-b317","sku":"100033710","price":17.89,"originalPrice":null,"currencyCode":"RON","currency":"Lei","image":{"thumbnail":{"default":"https://cdn.freshful.ro/media/cache/sylius_shop_product_thumbnail/9a/17/a5d10a91c045597018fa72e6b853.jpg"},"large":{"default":"https://cdn.freshful.ro/media/cache/freshful_large/9a/17/a5d10a91c045597018fa72e6b853.jpg"},"extralarge":{"default":"https://cdn.freshful.ro/media/cache/sylius_shop_product_original/9a/17/a5d10a91c045597018fa72e6b853.jpg"}},"label":null,"tags":[],"isAvailable":true,"maxAvailableQuantity":10,"maxAllowedQuantity":100,"breadcrumbs":[{"code":"11","name":"Cosmetice","slug":"11-cosmetice-si-ingrijire-personala"},{"code":"1102","name":"Bărbierit și îngrijire ten","slug":"1102-produse-pentru-barbierit-si-ingrijit-ten"},{"code":"110203","name":"Spumă și gel de ras","slug":"110203-spuma-si-gel-de-ras"},{"code":"100033710","name":"Gel pentru ras Deep 200ml","slug":"100033710-nivea-gel-pentru-ras-deep-200ml"}],"activePromotion":null,"saveMe":null,"labels":[],"geniusPrice":null,"geniusUnitPricePerLabel":null,"banner":null,"discountLabel":null,"geniusDiscountLabel":null,"badge":null}],"filters":{"countSelected":0,"items":[{"code":"brand","name":"Brand","countSelected":0,"values":[{"code":"denim-b553","name":"Denim","isSelected":false,"count":1},{"code":"florame-b1418","name":"Florame","isSelected":false,"count":1},{"code":"gerovital-b1837","name":"Gerovital","isSelected":false,"count":2},{"code":"gillette-b661","name":"Gillette","isSelected":false,"count":4},{"code":"nivea-b317","name":"Nivea","isSelected":false,"count":13}]},{"code":"diet_lifestyle","name":"Dietă și lifestyle","countSelected":0,"values":[{"code":"bio-a26","name":"Bio","isSelected":false,"count":1}]}]},"orderBy":[{"field":"price","direction":"asc","name":"Preț crescător","isSelected":false},{"field":"price","direction":"desc","name":"Preț descrescător","isSelected":false},{"field":"popularity","direction":"desc","name":"Cele mai populare","isSelected":true},{"field":"category","direction":"asc","name":"Categorie","isSelected":false}],"metaTitle":"Spumă și gel de ras - Gamă variată","metaDescription":"Vrei Spumă și gel de ras? Alege dintr-o gamă variată. Comanzi simplu și ai livrare rapidă, calitate și prospețime. Hai pe Freshful.ro","metaKeywords":null,"banners":[]}}