{"type":"subcategory","payload":{"analyticsListId":"category_110201-aftershave","analyticsListName":"Category - Aftershave","name":"Aftershave","slug":"110201-aftershave","image":null,"breadcrumbs":[{"code":"11","name":"Cosmetice","slug":"11-cosmetice-si-ingrijire-personala"},{"code":"1102","name":"Bărbierit și îngrijire ten","slug":"1102-produse-pentru-barbierit-si-ingrijit-ten"},{"code":"110201","name":"Aftershave","slug":"110201-aftershave"}],"slots":[],"page":1,"limit":10,"pages":2,"count":19,"siblings":[{"name":"Deodorante și parfumuri","slug":"1101-deodorante-si-parfumuri","selected":false},{"name":"Bărbierit și îngrijire ten","slug":"1102-produse-pentru-barbierit-si-ingrijit-ten","selected":true},{"name":"Demachiante și creme","slug":"1103-creme-intretinere-si-demachiante","selected":false},{"name":"Protecție solară","slug":"1104-produse-cu-protectie-solara","selected":false},{"name":"Ceară, benzi și creme depilatoare","slug":"1105-ceara-benzi-si-creme-depliatoare","selected":false},{"name":"Seturi cadou","slug":"1106-seturi-cadou","selected":false},{"name":"Îngrijirea părului","slug":"1107-ingrijirea-parului","selected":false},{"name":"Igienă intimă","slug":"1108-igienta-inima","selected":false},{"name":"Igienă dentară","slug":"1109-igiena-dentara","selected":false},{"name":"Săpunuri și geluri de duș","slug":"1110-sapunuri-si-geluri-de-dus","selected":false},{"name":"Dermatocosmetice și parafarmacie","slug":"1111-dermatocosmetice-si-parafarmacie","selected":false},{"name":"Repelent","slug":"repelent","selected":false}],"children":[{"name":"Toate produsele","slug":"1102-produse-pentru-barbierit-si-ingrijit-ten","selected":false},{"name":"Aftershave","slug":"110201-aftershave","selected":true},{"name":"Aparate și lame de ras","slug":"110202-aparate-si-lame-de-ras","selected":false},{"name":"Spumă și gel de ras","slug":"110203-spuma-si-gel-de-ras","selected":false},{"name":"Creme hidratante și antirid","slug":"110204-creme-hidratante-si-antirid","selected":false},{"name":"Îngrijire barbă","slug":"ingrijire-barba","selected":false}],"products":[{"code":"100033571","variantCode":"9005800294483","name":"Balsam după ras Sensitive Recovery 100ml","slug":"100033571-nivea-balsam-dupa-ras-sensitive-recovery-100ml","unitPriceLabel":"349,9 Lei/l","brand":"Nivea","brandCode":"316","brandFilterCode":"nivea-b317","sku":"100033571","price":34.99,"originalPrice":null,"currencyCode":"RON","currency":"Lei","image":{"thumbnail":{"default":"https://cdn.freshful.ro/media/cache/sylius_shop_product_thumbnail/92/81/fe22201fd9c253a1840581ff6c3c.jpg"},"large":{"default":"https://cdn.freshful.ro/media/cache/freshful_large/92/81/fe22201fd9c253a1840581ff6c3c.jpg"},"extralarge":{"default":"https://cdn.freshful.ro/media/cache/sylius_shop_product_original/92/81/fe22201fd9c253a1840581ff6c3c.jpg"}},"label":null,"tags":[],"isAvailable":true,"maxAvailableQuantity":17,"maxAllowedQuantity":100,"breadcrumbs":[{"code":"11","name":"Cosmetice","slug":"11-cosmetice-si-ingrijire-personala"},{"code":"1102","name":"Bărbierit și îngrijire ten","slug":"1102-produse-pentru-barbierit-si-ingrijit-ten"},{"code":"110201","name":"Aftershave","slug":"110201-aftershave"},{"code":"100033571","name":"Balsam după ras Sensitive Recovery 100ml","slug":"100033571-nivea-balsam-dupa-ras-sensitive-recovery-100ml"}],"activePromotion":null,"saveMe":null,"labels":[],"geniusPrice":null,"geniusUnitPricePerLabel":null,"banner":null,"discountLabel":null,"geniusDiscountLabel":null,"badge":null},{"code":"100085525","variantCode":"100085525","name":"Loțiune aftershave Ahead 100ml","slug":"100085525-str8-lotiune-aftershave-ahead-100ml","unitPriceLabel":"285 Lei/l","brand":"STR8","brandCode":"539","brandFilterCode":"str8-b540","sku":"100085525","price":28.5,"originalPrice":null,"currencyCode":"RON","currency":"Lei","image":{"thumbnail":{"default":"https://cdn.freshful.ro/media/cache/sylius_shop_product_thumbnail/bd/b1/5a14489f00c4ff131e80929aae79.jpg"},"large":{"default":"https://cdn.freshful.ro/media/cache/freshful_large/bd/b1/5a14489f00c4ff131e80929aae79.jpg"},"extralarge":{"default":"https://cdn.freshful.ro/media/cache/sylius_shop_product_original/bd/b1/5a14489f00c4ff131e80929aae79.jpg"}},"label":null,"tags":[],"isAvailable":true,"maxAvailableQuantity":5,"maxAllowedQuantity":100,"breadcrumbs":[{"code":"11","name":"Cosmetice","slug":"11-cosmetice-si-ingrijire-personala"},{"code":"1102","name":"Bărbierit și îngrijire ten","slug":"1102-produse-pentru-barbierit-si-ingrijit-ten"},{"code":"110201","name":"Aftershave","slug":"110201-aftershave"},{"code":"100085525","name":"Loțiune aftershave Ahead 100ml","slug":"100085525-str8-lotiune-aftershave-ahead-100ml"}],"activePromotion":null,"saveMe":null,"labels":[],"geniusPrice":null,"geniusUnitPricePerLabel":null,"banner":null,"discountLabel":null,"geniusDiscountLabel":null,"badge":null},{"code":"100091345","variantCode":"100091345","name":"Balsam King pentru barbă 100ml","slug":"100091345-gillette-balsam-king-pentru-barba-100ml","unitPriceLabel":"445 Lei/l","brand":"Gillette","brandCode":"660","brandFilterCode":"gillette-b661","sku":"100091345","price":44.5,"originalPrice":null,"currencyCode":"RON","currency":"Lei","image":{"thumbnail":{"default":"https://cdn.freshful.ro/media/cache/sylius_shop_product_thumbnail/07/81/d380db8d8295d078da33f388d001.jpg"},"large":{"default":"https://cdn.freshful.ro/media/cache/freshful_large/07/81/d380db8d8295d078da33f388d001.jpg"},"extralarge":{"default":"https://cdn.freshful.ro/media/cache/sylius_shop_product_original/07/81/d380db8d8295d078da33f388d001.jpg"}},"label":null,"tags":[],"isAvailable":true,"maxAvailableQuantity":14,"maxAllowedQuantity":100,"breadcrumbs":[{"code":"11","name":"Cosmetice","slug":"11-cosmetice-si-ingrijire-personala"},{"code":"1102","name":"Bărbierit și îngrijire ten","slug":"1102-produse-pentru-barbierit-si-ingrijit-ten"},{"code":"110201","name":"Aftershave","slug":"110201-aftershave"},{"code":"100091345","name":"Balsam King pentru barbă 100ml","slug":"100091345-gillette-balsam-king-pentru-barba-100ml"}],"activePromotion":null,"saveMe":null,"labels":[],"geniusPrice":null,"geniusUnitPricePerLabel":null,"banner":null,"discountLabel":null,"geniusDiscountLabel":null,"badge":null},{"code":"100033569","variantCode":"4005808228706","name":"Balsam după ras ten sensibil 100ml","slug":"100033569-nivea-balsam-dupa-ras-ten-sensibil-100ml","unitPriceLabel":"349,9 Lei/l","brand":"Nivea","brandCode":"316","brandFilterCode":"nivea-b317","sku":"100033569","price":34.99,"originalPrice":null,"currencyCode":"RON","currency":"Lei","image":{"thumbnail":{"default":"https://cdn.freshful.ro/media/cache/sylius_shop_product_thumbnail/3b/bf/8cfa9c975f0dd80bf3aaea3d139d.jpg"},"large":{"default":"https://cdn.freshful.ro/media/cache/freshful_large/3b/bf/8cfa9c975f0dd80bf3aaea3d139d.jpg"},"extralarge":{"default":"https://cdn.freshful.ro/media/cache/sylius_shop_product_original/3b/bf/8cfa9c975f0dd80bf3aaea3d139d.jpg"}},"label":null,"tags":[],"isAvailable":true,"maxAvailableQuantity":2,"maxAllowedQuantity":100,"breadcrumbs":[{"code":"11","name":"Cosmetice","slug":"11-cosmetice-si-ingrijire-personala"},{"code":"1102","name":"Bărbierit și îngrijire ten","slug":"1102-produse-pentru-barbierit-si-ingrijit-ten"},{"code":"110201","name":"Aftershave","slug":"110201-aftershave"},{"code":"100033569","name":"Balsam după ras ten sensibil 100ml","slug":"100033569-nivea-balsam-dupa-ras-ten-sensibil-100ml"}],"activePromotion":null,"saveMe":null,"labels":[],"geniusPrice":null,"geniusUnitPricePerLabel":null,"banner":null,"discountLabel":null,"geniusDiscountLabel":null,"badge":null},{"code":"100085514","variantCode":"5201314105893","name":"Loțiune aftershave Original 100ml","slug":"100085514-str8-lotiune-aftershave-original-100ml","unitPriceLabel":"285 Lei/l","brand":"STR8","brandCode":"539","brandFilterCode":"str8-b540","sku":"100085514","price":28.5,"originalPrice":null,"currencyCode":"RON","currency":"Lei","image":{"thumbnail":{"default":"https://cdn.freshful.ro/media/cache/sylius_shop_product_thumbnail/93/3c/fb9bf237928a520bd26107141537.jpg"},"large":{"default":"https://cdn.freshful.ro/media/cache/freshful_large/93/3c/fb9bf237928a520bd26107141537.jpg"},"extralarge":{"default":"https://cdn.freshful.ro/media/cache/sylius_shop_product_original/93/3c/fb9bf237928a520bd26107141537.jpg"}},"label":null,"tags":[],"isAvailable":true,"maxAvailableQuantity":14,"maxAllowedQuantity":100,"breadcrumbs":[{"code":"11","name":"Cosmetice","slug":"11-cosmetice-si-ingrijire-personala"},{"code":"1102","name":"Bărbierit și îngrijire ten","slug":"1102-produse-pentru-barbierit-si-ingrijit-ten"},{"code":"110201","name":"Aftershave","slug":"110201-aftershave"},{"code":"100085514","name":"Loțiune aftershave Original 100ml","slug":"100085514-str8-lotiune-aftershave-original-100ml"}],"activePromotion":null,"saveMe":null,"labels":[],"geniusPrice":null,"geniusUnitPricePerLabel":null,"banner":null,"discountLabel":null,"geniusDiscountLabel":null,"badge":null},{"code":"100086203","variantCode":"100086203","name":"Loțiune aftershave Original 100ml","slug":"100086203-denim-lotiune-aftershave-original-100ml","unitPriceLabel":"249 Lei/l","brand":"Denim","brandCode":"552","brandFilterCode":"denim-b553","sku":"100086203","price":24.9,"originalPrice":null,"currencyCode":"RON","currency":"Lei","image":{"thumbnail":{"default":"https://cdn.freshful.ro/media/cache/sylius_shop_product_thumbnail/b5/f9/01fb4b7f41d02c8262b577977139.jpg"},"large":{"default":"https://cdn.freshful.ro/media/cache/freshful_large/b5/f9/01fb4b7f41d02c8262b577977139.jpg"},"extralarge":{"default":"https://cdn.freshful.ro/media/cache/sylius_shop_product_original/b5/f9/01fb4b7f41d02c8262b577977139.jpg"}},"label":null,"tags":[],"isAvailable":true,"maxAvailableQuantity":9,"maxAllowedQuantity":100,"breadcrumbs":[{"code":"11","name":"Cosmetice","slug":"11-cosmetice-si-ingrijire-personala"},{"code":"1102","name":"Bărbierit și îngrijire ten","slug":"1102-produse-pentru-barbierit-si-ingrijit-ten"},{"code":"110201","name":"Aftershave","slug":"110201-aftershave"},{"code":"100086203","name":"Loțiune aftershave Original 100ml","slug":"100086203-denim-lotiune-aftershave-original-100ml"}],"activePromotion":null,"saveMe":null,"labels":[],"geniusPrice":null,"geniusUnitPricePerLabel":null,"banner":null,"discountLabel":null,"geniusDiscountLabel":null,"badge":null},{"code":"100091328","variantCode":"100091328","name":"Aftershave Arctic Ice 100ml","slug":"100091328-gillette-aftershave-arctic-ice-100ml","unitPriceLabel":"261,2 Lei/l","brand":"Gillette","brandCode":"660","brandFilterCode":"gillette-b661","sku":"100091328","price":26.12,"originalPrice":null,"currencyCode":"RON","currency":"Lei","image":{"thumbnail":{"default":"https://cdn.freshful.ro/media/cache/sylius_shop_product_thumbnail/a3/6f/14b7a2f7b8a6d1876caa1aa4d31c.jpg"},"large":{"default":"https://cdn.freshful.ro/media/cache/freshful_large/a3/6f/14b7a2f7b8a6d1876caa1aa4d31c.jpg"},"extralarge":{"default":"https://cdn.freshful.ro/media/cache/sylius_shop_product_original/a3/6f/14b7a2f7b8a6d1876caa1aa4d31c.jpg"}},"label":null,"tags":[],"isAvailable":true,"maxAvailableQuantity":15,"maxAllowedQuantity":100,"breadcrumbs":[{"code":"11","name":"Cosmetice","slug":"11-cosmetice-si-ingrijire-personala"},{"code":"1102","name":"Bărbierit și îngrijire ten","slug":"1102-produse-pentru-barbierit-si-ingrijit-ten"},{"code":"110201","name":"Aftershave","slug":"110201-aftershave"},{"code":"100091328","name":"Aftershave Arctic Ice 100ml","slug":"100091328-gillette-aftershave-arctic-ice-100ml"}],"activePromotion":null,"saveMe":null,"labels":[],"geniusPrice":null,"geniusUnitPricePerLabel":null,"banner":null,"discountLabel":null,"geniusDiscountLabel":null,"badge":null},{"code":"100033577","variantCode":"4005808588763","name":"Loţiune după ras ten sensibil 100ml","slug":"100033577-nivea-lotiune-dupa-ras-ten-sensibil-100ml","unitPriceLabel":"295 Lei/l","brand":"Nivea","brandCode":"316","brandFilterCode":"nivea-b317","sku":"100033577","price":29.5,"originalPrice":null,"currencyCode":"RON","currency":"Lei","image":{"thumbnail":{"default":"https://cdn.freshful.ro/media/cache/sylius_shop_product_thumbnail/cd/c3/f930cf99ba644448179bc62887a4.jpg"},"large":{"default":"https://cdn.freshful.ro/media/cache/freshful_large/cd/c3/f930cf99ba644448179bc62887a4.jpg"},"extralarge":{"default":"https://cdn.freshful.ro/media/cache/sylius_shop_product_original/cd/c3/f930cf99ba644448179bc62887a4.jpg"}},"label":null,"tags":[],"isAvailable":true,"maxAvailableQuantity":10,"maxAllowedQuantity":100,"breadcrumbs":[{"code":"11","name":"Cosmetice","slug":"11-cosmetice-si-ingrijire-personala"},{"code":"1102","name":"Bărbierit și îngrijire ten","slug":"1102-produse-pentru-barbierit-si-ingrijit-ten"},{"code":"110201","name":"Aftershave","slug":"110201-aftershave"},{"code":"100033577","name":"Loţiune după ras ten sensibil 100ml","slug":"100033577-nivea-lotiune-dupa-ras-ten-sensibil-100ml"}],"activePromotion":null,"saveMe":null,"labels":[],"geniusPrice":null,"geniusUnitPricePerLabel":null,"banner":null,"discountLabel":null,"geniusDiscountLabel":null,"badge":null},{"code":"100091331","variantCode":"100091331","name":"After shave balsam Comfort Cooling 100ml","slug":"100091331-gillette-after-shave-balsam-comfort-cooling-100ml","unitPriceLabel":"299,9 Lei/l","brand":"Gillette","brandCode":"660","brandFilterCode":"gillette-b661","sku":"100091331","price":29.99,"originalPrice":null,"currencyCode":"RON","currency":"Lei","image":{"thumbnail":{"default":"https://cdn.freshful.ro/media/cache/sylius_shop_product_thumbnail/fe/86/fa70b46486189cf59e83a2c800d3.jpg"},"large":{"default":"https://cdn.freshful.ro/media/cache/freshful_large/fe/86/fa70b46486189cf59e83a2c800d3.jpg"},"extralarge":{"default":"https://cdn.freshful.ro/media/cache/sylius_shop_product_original/fe/86/fa70b46486189cf59e83a2c800d3.jpg"}},"label":null,"tags":[],"isAvailable":true,"maxAvailableQuantity":16,"maxAllowedQuantity":100,"breadcrumbs":[{"code":"11","name":"Cosmetice","slug":"11-cosmetice-si-ingrijire-personala"},{"code":"1102","name":"Bărbierit și îngrijire ten","slug":"1102-produse-pentru-barbierit-si-ingrijit-ten"},{"code":"110201","name":"Aftershave","slug":"110201-aftershave"},{"code":"100091331","name":"After shave balsam Comfort Cooling 100ml","slug":"100091331-gillette-after-shave-balsam-comfort-cooling-100ml"}],"activePromotion":null,"saveMe":null,"labels":[],"geniusPrice":null,"geniusUnitPricePerLabel":null,"banner":null,"discountLabel":null,"geniusDiscountLabel":null,"badge":null},{"code":"100092547","variantCode":"100092547","name":"After Shave balsam Pro 100ml","slug":"100092547-gillette-after-shave-balsam-pro-100ml","unitPriceLabel":"316,9 Lei/l","brand":"Gillette","brandCode":"660","brandFilterCode":"gillette-b661","sku":"100092547","price":31.69,"originalPrice":null,"currencyCode":"RON","currency":"Lei","image":{"thumbnail":{"default":"https://cdn.freshful.ro/media/cache/sylius_shop_product_thumbnail/8d/0f/b3194b31b0a559b99540c14fbaf1.jpg"},"large":{"default":"https://cdn.freshful.ro/media/cache/freshful_large/8d/0f/b3194b31b0a559b99540c14fbaf1.jpg"},"extralarge":{"default":"https://cdn.freshful.ro/media/cache/sylius_shop_product_original/8d/0f/b3194b31b0a559b99540c14fbaf1.jpg"}},"label":null,"tags":[],"isAvailable":true,"maxAvailableQuantity":3,"maxAllowedQuantity":100,"breadcrumbs":[{"code":"11","name":"Cosmetice","slug":"11-cosmetice-si-ingrijire-personala"},{"code":"1102","name":"Bărbierit și îngrijire ten","slug":"1102-produse-pentru-barbierit-si-ingrijit-ten"},{"code":"110201","name":"Aftershave","slug":"110201-aftershave"},{"code":"100092547","name":"After Shave balsam Pro 100ml","slug":"100092547-gillette-after-shave-balsam-pro-100ml"}],"activePromotion":null,"saveMe":null,"labels":[],"geniusPrice":null,"geniusUnitPricePerLabel":null,"banner":null,"discountLabel":null,"geniusDiscountLabel":null,"badge":null}],"filters":{"countSelected":0,"items":[{"code":"brand","name":"Brand","countSelected":0,"values":[{"code":"adidas-b348","name":"Adidas","isSelected":false,"count":1},{"code":"denim-b553","name":"Denim","isSelected":false,"count":2},{"code":"gerovital-b1837","name":"Gerovital","isSelected":false,"count":1},{"code":"gillette-b661","name":"Gillette","isSelected":false,"count":4},{"code":"nivea-b317","name":"Nivea","isSelected":false,"count":9},{"code":"str8-b540","name":"STR8","isSelected":false,"count":2}]}]},"orderBy":[{"field":"price","direction":"asc","name":"Preț crescător","isSelected":false},{"field":"price","direction":"desc","name":"Preț descrescător","isSelected":false},{"field":"popularity","direction":"desc","name":"Cele mai populare","isSelected":true},{"field":"category","direction":"asc","name":"Categorie","isSelected":false}],"metaTitle":"Aftershave - Gamă variată","metaDescription":"Vrei Aftershave? Alege dintr-o gamă variată. Comanzi simplu și ai livrare rapidă, calitate și prospețime. Hai pe Freshful.ro","metaKeywords":null,"banners":[]}}