{"type":"subcategory","payload":{"analyticsListId":"category_110202-aparate-si-lame-de-ras","analyticsListName":"Category - Aparate și lame de ras","name":"Aparate și lame de ras","slug":"110202-aparate-si-lame-de-ras","image":null,"breadcrumbs":[{"code":"11","name":"Cosmetice","slug":"11-cosmetice-si-ingrijire-personala"},{"code":"1102","name":"Bărbierit și îngrijire ten","slug":"1102-produse-pentru-barbierit-si-ingrijit-ten"},{"code":"110202","name":"Aparate și lame de ras","slug":"110202-aparate-si-lame-de-ras"}],"slots":[],"page":1,"limit":10,"pages":6,"count":58,"siblings":[{"name":"Deodorante și parfumuri","slug":"1101-deodorante-si-parfumuri","selected":false},{"name":"Bărbierit și îngrijire ten","slug":"1102-produse-pentru-barbierit-si-ingrijit-ten","selected":true},{"name":"Demachiante și creme","slug":"1103-creme-intretinere-si-demachiante","selected":false},{"name":"Protecție solară","slug":"1104-produse-cu-protectie-solara","selected":false},{"name":"Ceară, benzi și creme depilatoare","slug":"1105-ceara-benzi-si-creme-depliatoare","selected":false},{"name":"Seturi cadou","slug":"1106-seturi-cadou","selected":false},{"name":"Îngrijirea părului","slug":"1107-ingrijirea-parului","selected":false},{"name":"Igienă intimă","slug":"1108-igienta-inima","selected":false},{"name":"Igienă dentară","slug":"1109-igiena-dentara","selected":false},{"name":"Săpunuri și geluri de duș","slug":"1110-sapunuri-si-geluri-de-dus","selected":false},{"name":"Dermatocosmetice și parafarmacie","slug":"1111-dermatocosmetice-si-parafarmacie","selected":false},{"name":"Repelent","slug":"repelent","selected":false}],"children":[{"name":"Toate produsele","slug":"1102-produse-pentru-barbierit-si-ingrijit-ten","selected":false},{"name":"Aftershave","slug":"110201-aftershave","selected":false},{"name":"Aparate și lame de ras","slug":"110202-aparate-si-lame-de-ras","selected":true},{"name":"Spumă și gel de ras","slug":"110203-spuma-si-gel-de-ras","selected":false},{"name":"Creme hidratante și antirid","slug":"110204-creme-hidratante-si-antirid","selected":false},{"name":"Îngrijire barbă","slug":"ingrijire-barba","selected":false}],"products":[{"code":"100124538","variantCode":"100124538","name":"Aparat de ras Fusion5 ProGlide + 4 rezerve","slug":"100124538-gillette-aparat-de-ras-fusion5-proglide-4-rezerve","unitPriceLabel":"","brand":"Gillette","brandCode":"660","brandFilterCode":"gillette-b661","sku":"100124538","price":53.99,"originalPrice":87.7,"currencyCode":"RON","currency":"Lei","image":{"thumbnail":{"default":"https://cdn.freshful.ro/media/cache/sylius_shop_product_thumbnail/93/e6/77e4d5508f55d1abb4e00651f2d0.jpg"},"large":{"default":"https://cdn.freshful.ro/media/cache/freshful_large/93/e6/77e4d5508f55d1abb4e00651f2d0.jpg"},"extralarge":{"default":"https://cdn.freshful.ro/media/cache/sylius_shop_product_original/93/e6/77e4d5508f55d1abb4e00651f2d0.jpg"}},"label":{"text":"-38%","backgroundColor":"#FF9903","textColor":"#FFFFFF"},"tags":[],"isAvailable":true,"maxAvailableQuantity":98,"maxAllowedQuantity":100,"breadcrumbs":[{"code":"11","name":"Cosmetice","slug":"11-cosmetice-si-ingrijire-personala"},{"code":"1102","name":"Bărbierit și îngrijire ten","slug":"1102-produse-pentru-barbierit-si-ingrijit-ten"},{"code":"110202","name":"Aparate și lame de ras","slug":"110202-aparate-si-lame-de-ras"},{"code":"100124538","name":"Aparat de ras Fusion5 ProGlide + 4 rezerve","slug":"100124538-gillette-aparat-de-ras-fusion5-proglide-4-rezerve"}],"activePromotion":{"code":"superpreturile-saptamanii","name":"Preț redus","targetQuantity":null},"saveMe":null,"labels":[{"type":"v1","items":[{"text":"-38%","backgroundColor":"#FF9903","textColor":"#FFFFFF"}]}],"geniusPrice":null,"geniusUnitPricePerLabel":null,"banner":{"text":"Super preț","textColor":"#FF0000","bgColor":"#FFF2EC","icon":null,"link":"https://www.freshful.ro/oferte/superpreturile-saptamanii","type":"promo","analyticsEventType":"select_promotion","analyticsEventPayload":{"promotion_id":"superpreturile-saptamanii","promotion_name":"Superprețurile zilei"}},"discountLabel":"Economisești 38%","geniusDiscountLabel":null,"badge":null},{"code":"100091311","variantCode":"100091311","name":"Rezerve aparat de ras Mach3, 18 buc","slug":"100091311-gillette-rezerve-aparat-de-ras-mach3-18-buc","unitPriceLabel":"","brand":"Gillette","brandCode":"660","brandFilterCode":"gillette-b661","sku":"100091311","price":159.99,"originalPrice":199.99,"currencyCode":"RON","currency":"Lei","image":{"thumbnail":{"default":"https://cdn.freshful.ro/media/cache/sylius_shop_product_thumbnail/db/49/3385646507c20776f24b3123ac96.jpg"},"large":{"default":"https://cdn.freshful.ro/media/cache/freshful_large/db/49/3385646507c20776f24b3123ac96.jpg"},"extralarge":{"default":"https://cdn.freshful.ro/media/cache/sylius_shop_product_original/db/49/3385646507c20776f24b3123ac96.jpg"}},"label":{"text":"-20%","backgroundColor":"#FF9903","textColor":"#FFFFFF"},"tags":[],"isAvailable":true,"maxAvailableQuantity":64,"maxAllowedQuantity":100,"breadcrumbs":[{"code":"11","name":"Cosmetice","slug":"11-cosmetice-si-ingrijire-personala"},{"code":"1102","name":"Bărbierit și îngrijire ten","slug":"1102-produse-pentru-barbierit-si-ingrijit-ten"},{"code":"110202","name":"Aparate și lame de ras","slug":"110202-aparate-si-lame-de-ras"},{"code":"100091311","name":"Rezerve aparat de ras Mach3, 18 buc","slug":"100091311-gillette-rezerve-aparat-de-ras-mach3-18-buc"}],"activePromotion":{"code":"oferte-dph-21feb-8mar23","name":"Preț redus","targetQuantity":null},"saveMe":null,"labels":[{"type":"v1","items":[{"text":"-20%","backgroundColor":"#FF9903","textColor":"#FFFFFF"}]}],"geniusPrice":null,"geniusUnitPricePerLabel":null,"banner":{"text":"Super preț","textColor":"#FF0000","bgColor":"#FFF2EC","icon":null,"link":"https://www.freshful.ro/oferte/oferte-dph-21feb-8mar23","type":"promo","analyticsEventType":"select_promotion","analyticsEventPayload":{"promotion_id":"oferte-dph-21feb-8mar23","promotion_name":"Curățenie și îngrijire personală"}},"discountLabel":"Economisești 20%","geniusDiscountLabel":null,"badge":null},{"code":"100100941","variantCode":"100100941","name":"Aparat de ras Sensitive 6 buc","slug":"100100941-bic-aparat-de-ras-sensitive-6-buc","unitPriceLabel":"2,32 Lei/buc","brand":"BiC","brandCode":"319","brandFilterCode":"bic-b320","sku":"100100941","price":13.9,"originalPrice":null,"currencyCode":"RON","currency":"Lei","image":{"thumbnail":{"default":"https://cdn.freshful.ro/media/cache/sylius_shop_product_thumbnail/b5/f9/735ce789bacdce0d9be9ee2d3985.jpg"},"large":{"default":"https://cdn.freshful.ro/media/cache/freshful_large/b5/f9/735ce789bacdce0d9be9ee2d3985.jpg"},"extralarge":{"default":"https://cdn.freshful.ro/media/cache/sylius_shop_product_original/b5/f9/735ce789bacdce0d9be9ee2d3985.jpg"}},"label":null,"tags":[],"isAvailable":true,"maxAvailableQuantity":41,"maxAllowedQuantity":100,"breadcrumbs":[{"code":"11","name":"Cosmetice","slug":"11-cosmetice-si-ingrijire-personala"},{"code":"1102","name":"Bărbierit și îngrijire ten","slug":"1102-produse-pentru-barbierit-si-ingrijit-ten"},{"code":"110202","name":"Aparate și lame de ras","slug":"110202-aparate-si-lame-de-ras"},{"code":"100100941","name":"Aparat de ras Sensitive 6 buc","slug":"100100941-bic-aparat-de-ras-sensitive-6-buc"}],"activePromotion":null,"saveMe":null,"labels":[],"geniusPrice":null,"geniusUnitPricePerLabel":null,"banner":null,"discountLabel":null,"geniusDiscountLabel":null,"badge":null},{"code":"100091306","variantCode":"100091306","name":"Aparat de ras de unică folosință Blue3 Comfort 4 buc","slug":"100091306-gillette-aparat-de-ras-de-unica-folosinta-blue3-comfort-4-buc","unitPriceLabel":"","brand":"Gillette","brandCode":"660","brandFilterCode":"gillette-b661","sku":"100091306","price":17.9,"originalPrice":null,"currencyCode":"RON","currency":"Lei","image":{"thumbnail":{"default":"https://cdn.freshful.ro/media/cache/sylius_shop_product_thumbnail/41/34/3a3ee85d3c66ef1998c090b5a967.jpg"},"large":{"default":"https://cdn.freshful.ro/media/cache/freshful_large/41/34/3a3ee85d3c66ef1998c090b5a967.jpg"},"extralarge":{"default":"https://cdn.freshful.ro/media/cache/sylius_shop_product_original/41/34/3a3ee85d3c66ef1998c090b5a967.jpg"}},"label":null,"tags":[],"isAvailable":true,"maxAvailableQuantity":75,"maxAllowedQuantity":100,"breadcrumbs":[{"code":"11","name":"Cosmetice","slug":"11-cosmetice-si-ingrijire-personala"},{"code":"1102","name":"Bărbierit și îngrijire ten","slug":"1102-produse-pentru-barbierit-si-ingrijit-ten"},{"code":"110202","name":"Aparate și lame de ras","slug":"110202-aparate-si-lame-de-ras"},{"code":"100091306","name":"Aparat de ras de unică folosință Blue3 Comfort 4 buc","slug":"100091306-gillette-aparat-de-ras-de-unica-folosinta-blue3-comfort-4-buc"}],"activePromotion":null,"saveMe":null,"labels":[],"geniusPrice":null,"geniusUnitPricePerLabel":null,"banner":null,"discountLabel":null,"geniusDiscountLabel":null,"badge":null},{"code":"100091304","variantCode":"100091304","name":"Aparat de ras de unică folosință Blue3 Sensitive 3buc","slug":"100091304-gillette-aparat-de-ras-de-unica-folosinta-blue3-sensitive-3buc","unitPriceLabel":"","brand":"Gillette","brandCode":"660","brandFilterCode":"gillette-b661","sku":"100091304","price":17.9,"originalPrice":null,"currencyCode":"RON","currency":"Lei","image":{"thumbnail":{"default":"https://cdn.freshful.ro/media/cache/sylius_shop_product_thumbnail/04/b6/53dffb977e18533602e689489dc5.jpg"},"large":{"default":"https://cdn.freshful.ro/media/cache/freshful_large/04/b6/53dffb977e18533602e689489dc5.jpg"},"extralarge":{"default":"https://cdn.freshful.ro/media/cache/sylius_shop_product_original/04/b6/53dffb977e18533602e689489dc5.jpg"}},"label":null,"tags":[],"isAvailable":true,"maxAvailableQuantity":59,"maxAllowedQuantity":100,"breadcrumbs":[{"code":"11","name":"Cosmetice","slug":"11-cosmetice-si-ingrijire-personala"},{"code":"1102","name":"Bărbierit și îngrijire ten","slug":"1102-produse-pentru-barbierit-si-ingrijit-ten"},{"code":"110202","name":"Aparate și lame de ras","slug":"110202-aparate-si-lame-de-ras"},{"code":"100091304","name":"Aparat de ras de unică folosință Blue3 Sensitive 3buc","slug":"100091304-gillette-aparat-de-ras-de-unica-folosinta-blue3-sensitive-3buc"}],"activePromotion":null,"saveMe":null,"labels":[],"geniusPrice":null,"geniusUnitPricePerLabel":null,"banner":null,"discountLabel":null,"geniusDiscountLabel":null,"badge":null},{"code":"100091308","variantCode":"100091308","name":"Aparat de ras de unică folosință Blue3 Simple 4buc","slug":"100091308-gillette-aparat-de-ras-de-unica-folosinta-blue3-simple-4buc","unitPriceLabel":"","brand":"Gillette","brandCode":"660","brandFilterCode":"gillette-b661","sku":"100091308","price":12.9,"originalPrice":null,"currencyCode":"RON","currency":"Lei","image":{"thumbnail":{"default":"https://cdn.freshful.ro/media/cache/sylius_shop_product_thumbnail/71/1e/27c0b54fe53f35faccb797a5d330.jpg"},"large":{"default":"https://cdn.freshful.ro/media/cache/freshful_large/71/1e/27c0b54fe53f35faccb797a5d330.jpg"},"extralarge":{"default":"https://cdn.freshful.ro/media/cache/sylius_shop_product_original/71/1e/27c0b54fe53f35faccb797a5d330.jpg"}},"label":null,"tags":[],"isAvailable":true,"maxAvailableQuantity":57,"maxAllowedQuantity":100,"breadcrumbs":[{"code":"11","name":"Cosmetice","slug":"11-cosmetice-si-ingrijire-personala"},{"code":"1102","name":"Bărbierit și îngrijire ten","slug":"1102-produse-pentru-barbierit-si-ingrijit-ten"},{"code":"110202","name":"Aparate și lame de ras","slug":"110202-aparate-si-lame-de-ras"},{"code":"100091308","name":"Aparat de ras de unică folosință Blue3 Simple 4buc","slug":"100091308-gillette-aparat-de-ras-de-unica-folosinta-blue3-simple-4buc"}],"activePromotion":null,"saveMe":null,"labels":[],"geniusPrice":null,"geniusUnitPricePerLabel":null,"banner":null,"discountLabel":null,"geniusDiscountLabel":null,"badge":null},{"code":"100100947","variantCode":"100100947","name":"Aparat de ras Flex3, 4 buc","slug":"100100947-bic-aparat-de-ras-flex3-4-buc","unitPriceLabel":"4,38 Lei/buc","brand":"BiC","brandCode":"319","brandFilterCode":"bic-b320","sku":"100100947","price":17.5,"originalPrice":null,"currencyCode":"RON","currency":"Lei","image":{"thumbnail":{"default":"https://cdn.freshful.ro/media/cache/sylius_shop_product_thumbnail/cb/07/25aa61b790f6b5c802d0407b200c.jpg"},"large":{"default":"https://cdn.freshful.ro/media/cache/freshful_large/cb/07/25aa61b790f6b5c802d0407b200c.jpg"},"extralarge":{"default":"https://cdn.freshful.ro/media/cache/sylius_shop_product_original/cb/07/25aa61b790f6b5c802d0407b200c.jpg"}},"label":null,"tags":[],"isAvailable":true,"maxAvailableQuantity":20,"maxAllowedQuantity":100,"breadcrumbs":[{"code":"11","name":"Cosmetice","slug":"11-cosmetice-si-ingrijire-personala"},{"code":"1102","name":"Bărbierit și îngrijire ten","slug":"1102-produse-pentru-barbierit-si-ingrijit-ten"},{"code":"110202","name":"Aparate și lame de ras","slug":"110202-aparate-si-lame-de-ras"},{"code":"100100947","name":"Aparat de ras Flex3, 4 buc","slug":"100100947-bic-aparat-de-ras-flex3-4-buc"}],"activePromotion":null,"saveMe":null,"labels":[],"geniusPrice":null,"geniusUnitPricePerLabel":null,"banner":null,"discountLabel":null,"geniusDiscountLabel":null,"badge":null},{"code":"100091307","variantCode":"100091307","name":"Aparat de ras de unică folosință Blue3 Comfort 8 buc","slug":"100091307-gillette-aparat-de-ras-de-unica-folosinta-blue3-comfort-8-buc","unitPriceLabel":"","brand":"Gillette","brandCode":"660","brandFilterCode":"gillette-b661","sku":"100091307","price":38.99,"originalPrice":null,"currencyCode":"RON","currency":"Lei","image":{"thumbnail":{"default":"https://cdn.freshful.ro/media/cache/sylius_shop_product_thumbnail/b8/94/1fb01a37b926a662b0041e3a14df.jpg"},"large":{"default":"https://cdn.freshful.ro/media/cache/freshful_large/b8/94/1fb01a37b926a662b0041e3a14df.jpg"},"extralarge":{"default":"https://cdn.freshful.ro/media/cache/sylius_shop_product_original/b8/94/1fb01a37b926a662b0041e3a14df.jpg"}},"label":null,"tags":[],"isAvailable":true,"maxAvailableQuantity":38,"maxAllowedQuantity":100,"breadcrumbs":[{"code":"11","name":"Cosmetice","slug":"11-cosmetice-si-ingrijire-personala"},{"code":"1102","name":"Bărbierit și îngrijire ten","slug":"1102-produse-pentru-barbierit-si-ingrijit-ten"},{"code":"110202","name":"Aparate și lame de ras","slug":"110202-aparate-si-lame-de-ras"},{"code":"100091307","name":"Aparat de ras de unică folosință Blue3 Comfort 8 buc","slug":"100091307-gillette-aparat-de-ras-de-unica-folosinta-blue3-comfort-8-buc"}],"activePromotion":null,"saveMe":null,"labels":[],"geniusPrice":null,"geniusUnitPricePerLabel":null,"banner":null,"discountLabel":null,"geniusDiscountLabel":null,"badge":null},{"code":"100091314","variantCode":"100091314","name":"Rezerve aparat de ras Mach3, 4 buc","slug":"100091314-gillette-rezerve-aparat-de-ras-mach3-4-buc","unitPriceLabel":"","brand":"Gillette","brandCode":"660","brandFilterCode":"gillette-b661","sku":"100091314","price":54.99,"originalPrice":null,"currencyCode":"RON","currency":"Lei","image":{"thumbnail":{"default":"https://cdn.freshful.ro/media/cache/sylius_shop_product_thumbnail/05/dd/8d0f8184665bc4c1a14642f84135.jpg"},"large":{"default":"https://cdn.freshful.ro/media/cache/freshful_large/05/dd/8d0f8184665bc4c1a14642f84135.jpg"},"extralarge":{"default":"https://cdn.freshful.ro/media/cache/sylius_shop_product_original/05/dd/8d0f8184665bc4c1a14642f84135.jpg"}},"label":null,"tags":[],"isAvailable":true,"maxAvailableQuantity":36,"maxAllowedQuantity":100,"breadcrumbs":[{"code":"11","name":"Cosmetice","slug":"11-cosmetice-si-ingrijire-personala"},{"code":"1102","name":"Bărbierit și îngrijire ten","slug":"1102-produse-pentru-barbierit-si-ingrijit-ten"},{"code":"110202","name":"Aparate și lame de ras","slug":"110202-aparate-si-lame-de-ras"},{"code":"100091314","name":"Rezerve aparat de ras Mach3, 4 buc","slug":"100091314-gillette-rezerve-aparat-de-ras-mach3-4-buc"}],"activePromotion":null,"saveMe":null,"labels":[],"geniusPrice":null,"geniusUnitPricePerLabel":null,"banner":null,"discountLabel":null,"geniusDiscountLabel":null,"badge":null},{"code":"100100939","variantCode":"100100939","name":"Aparat de ras Comfort2, 5buc","slug":"100100939-bic-aparat-de-ras-comfort2-5buc","unitPriceLabel":"3 Lei/buc","brand":"BiC","brandCode":"319","brandFilterCode":"bic-b320","sku":"100100939","price":14.99,"originalPrice":null,"currencyCode":"RON","currency":"Lei","image":{"thumbnail":{"default":"https://cdn.freshful.ro/media/cache/sylius_shop_product_thumbnail/b9/53/6e60ef0a3d35be21f78d3dfd910a.jpg"},"large":{"default":"https://cdn.freshful.ro/media/cache/freshful_large/b9/53/6e60ef0a3d35be21f78d3dfd910a.jpg"},"extralarge":{"default":"https://cdn.freshful.ro/media/cache/sylius_shop_product_original/b9/53/6e60ef0a3d35be21f78d3dfd910a.jpg"}},"label":null,"tags":[],"isAvailable":true,"maxAvailableQuantity":24,"maxAllowedQuantity":100,"breadcrumbs":[{"code":"11","name":"Cosmetice","slug":"11-cosmetice-si-ingrijire-personala"},{"code":"1102","name":"Bărbierit și îngrijire ten","slug":"1102-produse-pentru-barbierit-si-ingrijit-ten"},{"code":"110202","name":"Aparate și lame de ras","slug":"110202-aparate-si-lame-de-ras"},{"code":"100100939","name":"Aparat de ras Comfort2, 5buc","slug":"100100939-bic-aparat-de-ras-comfort2-5buc"}],"activePromotion":null,"saveMe":null,"labels":[],"geniusPrice":null,"geniusUnitPricePerLabel":null,"banner":null,"discountLabel":null,"geniusDiscountLabel":null,"badge":null}],"filters":{"countSelected":0,"items":[{"code":"promotion","name":"Promoții","countSelected":0,"values":[{"code":"oferte-dph-21feb-8mar23","name":"Curățenie și îngrijire personală","isSelected":false,"count":1},{"code":"superpreturile-saptamanii","name":"Superprețurile zilei","isSelected":false,"count":1}]},{"code":"brand","name":"Brand","countSelected":0,"values":[{"code":"bic-b320","name":"BiC","isSelected":false,"count":21},{"code":"gillette-b661","name":"Gillette","isSelected":false,"count":35},{"code":"wilkinson-sword-b559","name":"Wilkinson Sword","isSelected":false,"count":2}]}]},"orderBy":[{"field":"price","direction":"asc","name":"Preț crescător","isSelected":false},{"field":"price","direction":"desc","name":"Preț descrescător","isSelected":false},{"field":"popularity","direction":"desc","name":"Cele mai populare","isSelected":true},{"field":"category","direction":"asc","name":"Categorie","isSelected":false}],"metaTitle":"Aparate și lame de ras - Gamă variată","metaDescription":"Vrei Aparate și lame de ras? Alege dintr-o gamă variată. Comanzi simplu și ai livrare rapidă, calitate și prospețime. Hai pe Freshful.ro","metaKeywords":null,"banners":[]}}