{"type":"subcategory","payload":{"analyticsListId":"category_110304-curatare-ten-si-demachiere","analyticsListName":"Category - Curățare și demachiere ten","name":"Curățare și demachiere ten","slug":"110304-curatare-ten-si-demachiere","image":null,"breadcrumbs":[{"code":"11","name":"Cosmetice","slug":"11-cosmetice-si-ingrijire-personala"},{"code":"1103","name":"Demachiante și creme","slug":"1103-creme-intretinere-si-demachiante"},{"code":"110304","name":"Curățare și demachiere ten","slug":"110304-curatare-ten-si-demachiere"}],"slots":[],"page":1,"limit":10,"pages":12,"count":113,"siblings":[{"name":"Deodorante și parfumuri","slug":"1101-deodorante-si-parfumuri","selected":false},{"name":"Bărbierit și îngrijire ten","slug":"1102-produse-pentru-barbierit-si-ingrijit-ten","selected":false},{"name":"Demachiante și creme","slug":"1103-creme-intretinere-si-demachiante","selected":true},{"name":"Protecție solară","slug":"1104-produse-cu-protectie-solara","selected":false},{"name":"Ceară, benzi și creme depilatoare","slug":"1105-ceara-benzi-si-creme-depliatoare","selected":false},{"name":"Seturi cadou","slug":"1106-seturi-cadou","selected":false},{"name":"Îngrijirea părului","slug":"1107-ingrijirea-parului","selected":false},{"name":"Igienă intimă","slug":"1108-igienta-inima","selected":false},{"name":"Igienă dentară","slug":"1109-igiena-dentara","selected":false},{"name":"Săpunuri și geluri de duș","slug":"1110-sapunuri-si-geluri-de-dus","selected":false},{"name":"Dermatocosmetice și parafarmacie","slug":"1111-dermatocosmetice-si-parafarmacie","selected":false},{"name":"Repelent","slug":"repelent","selected":false}],"children":[{"name":"Toate produsele","slug":"1103-creme-intretinere-si-demachiante","selected":false},{"name":"Creme pentru față","slug":"110301-creme-de-fata","selected":false},{"name":"Creme pentru corp","slug":"110302-creme-pentru-corp","selected":false},{"name":"Creme pentru mâini","slug":"110303-creme-pentru-maini","selected":false},{"name":"Curățare și demachiere ten","slug":"110304-curatare-ten-si-demachiere","selected":true}],"products":[{"code":"100086143","variantCode":"100086143","name":"Mască Vitamin C 20ml","slug":"100086143-elmiplant-masca-vitamin-c-20ml","unitPriceLabel":"343 Lei/l","brand":"Elmiplant","brandCode":"550","brandFilterCode":"elmiplant-b551","sku":"100086143","price":6.86,"originalPrice":null,"currencyCode":"RON","currency":"Lei","image":{"thumbnail":{"default":"https://cdn.freshful.ro/media/cache/sylius_shop_product_thumbnail/6d/5a/3fbfdd62a13032931131b90d7cc3.jpg"},"large":{"default":"https://cdn.freshful.ro/media/cache/freshful_large/6d/5a/3fbfdd62a13032931131b90d7cc3.jpg"},"extralarge":{"default":"https://cdn.freshful.ro/media/cache/sylius_shop_product_original/6d/5a/3fbfdd62a13032931131b90d7cc3.jpg"}},"label":{"text":"Profită acum","backgroundColor":"#FF9903","textColor":"#FFFFFF"},"tags":[],"isAvailable":true,"maxAvailableQuantity":100,"maxAllowedQuantity":100,"breadcrumbs":[{"code":"11","name":"Cosmetice","slug":"11-cosmetice-si-ingrijire-personala"},{"code":"1103","name":"Demachiante și creme","slug":"1103-creme-intretinere-si-demachiante"},{"code":"110304","name":"Curățare și demachiere ten","slug":"110304-curatare-ten-si-demachiere"},{"code":"100086143","name":"Mască Vitamin C 20ml","slug":"100086143-elmiplant-masca-vitamin-c-20ml"}],"activePromotion":{"code":"freshful-top-deals-2023","name":"Preț avantajos","targetQuantity":null},"saveMe":null,"labels":[{"type":"v1","items":[{"text":"Profită acum","backgroundColor":"#FF9903","textColor":"#FFFFFF"}]}],"geniusPrice":null,"geniusUnitPricePerLabel":null,"banner":{"text":"Preț avantajos","textColor":"#F95510","bgColor":"#FEF1CD","icon":null,"link":"https://www.freshful.ro/oferte/freshful-top-deals-2023","type":"promo","analyticsEventType":"select_promotion","analyticsEventPayload":{"promotion_id":"freshful-top-deals-2023","promotion_name":"Profită de Top Deals"}},"discountLabel":null,"geniusDiscountLabel":null,"badge":null},{"code":"100148048","variantCode":"100148048","name":"Mască Hyaluronic Gold Hidrogel pentru ochi","slug":"100148048-elmiplant-masca-hyaluronic-gold-hidrogel-pentru-ochi","unitPriceLabel":"1.247,27 Lei/kg","brand":"Elmiplant","brandCode":"550","brandFilterCode":"elmiplant-b551","sku":"100148048","price":6.86,"originalPrice":null,"currencyCode":"RON","currency":"Lei","image":{"thumbnail":{"default":"https://cdn.freshful.ro/media/cache/sylius_shop_product_thumbnail/d1/09/5559d7f7715fbd648b83f2864962.jpg"},"large":{"default":"https://cdn.freshful.ro/media/cache/freshful_large/d1/09/5559d7f7715fbd648b83f2864962.jpg"},"extralarge":{"default":"https://cdn.freshful.ro/media/cache/sylius_shop_product_original/d1/09/5559d7f7715fbd648b83f2864962.jpg"}},"label":{"text":"Profită acum","backgroundColor":"#FF9903","textColor":"#FFFFFF"},"tags":[],"isAvailable":true,"maxAvailableQuantity":19,"maxAllowedQuantity":100,"breadcrumbs":[{"code":"11","name":"Cosmetice","slug":"11-cosmetice-si-ingrijire-personala"},{"code":"1103","name":"Demachiante și creme","slug":"1103-creme-intretinere-si-demachiante"},{"code":"110304","name":"Curățare și demachiere ten","slug":"110304-curatare-ten-si-demachiere"},{"code":"100148048","name":"Mască Hyaluronic Gold Hidrogel pentru ochi","slug":"100148048-elmiplant-masca-hyaluronic-gold-hidrogel-pentru-ochi"}],"activePromotion":{"code":"freshful-top-deals-2023","name":"Preț avantajos","targetQuantity":null},"saveMe":null,"labels":[{"type":"v1","items":[{"text":"Profită acum","backgroundColor":"#FF9903","textColor":"#FFFFFF"}]}],"geniusPrice":null,"geniusUnitPricePerLabel":null,"banner":{"text":"Preț avantajos","textColor":"#F95510","bgColor":"#FEF1CD","icon":null,"link":"https://www.freshful.ro/oferte/freshful-top-deals-2023","type":"promo","analyticsEventType":"select_promotion","analyticsEventPayload":{"promotion_id":"freshful-top-deals-2023","promotion_name":"Profită de Top Deals"}},"discountLabel":null,"geniusDiscountLabel":null,"badge":null},{"code":"100086132","variantCode":"100086132","name":"Șervețele demachiante pentru piele uscată/sensibilă 25 buc","slug":"100086132-elmiplant-servetele-demachiante-pentru-piele-uscata-sensibila-25-buc","unitPriceLabel":"","brand":"Elmiplant","brandCode":"550","brandFilterCode":"elmiplant-b551","sku":"100086132","price":12.1,"originalPrice":null,"currencyCode":"RON","currency":"Lei","image":{"thumbnail":{"default":"https://cdn.freshful.ro/media/cache/sylius_shop_product_thumbnail/05/92/6a49beac33ac6b889b3854bd6825.jpg"},"large":{"default":"https://cdn.freshful.ro/media/cache/freshful_large/05/92/6a49beac33ac6b889b3854bd6825.jpg"},"extralarge":{"default":"https://cdn.freshful.ro/media/cache/sylius_shop_product_original/05/92/6a49beac33ac6b889b3854bd6825.jpg"}},"label":{"text":"Profită acum","backgroundColor":"#FF9903","textColor":"#FFFFFF"},"tags":[{"type":"vegan","text":"Vegan","icon":"https://cdn.freshful.ro/assets/product_tags/vegan.svg","iconPng":"https://cdn.freshful.ro/assets/product_tags/vegan.png","backgroundColor":"#ECF9F8","textColor":"#33A39C"}],"isAvailable":true,"maxAvailableQuantity":87,"maxAllowedQuantity":100,"breadcrumbs":[{"code":"11","name":"Cosmetice","slug":"11-cosmetice-si-ingrijire-personala"},{"code":"1103","name":"Demachiante și creme","slug":"1103-creme-intretinere-si-demachiante"},{"code":"110304","name":"Curățare și demachiere ten","slug":"110304-curatare-ten-si-demachiere"},{"code":"100086132","name":"Șervețele demachiante pentru piele uscată/sensibilă 25 buc","slug":"100086132-elmiplant-servetele-demachiante-pentru-piele-uscata-sensibila-25-buc"}],"activePromotion":{"code":"freshful-top-deals-2023","name":"Preț avantajos","targetQuantity":null},"saveMe":null,"labels":[{"type":"v1","items":[{"text":"Profită acum","backgroundColor":"#FF9903","textColor":"#FFFFFF"}]}],"geniusPrice":null,"geniusUnitPricePerLabel":null,"banner":{"text":"Preț avantajos","textColor":"#F95510","bgColor":"#FEF1CD","icon":null,"link":"https://www.freshful.ro/oferte/freshful-top-deals-2023","type":"promo","analyticsEventType":"select_promotion","analyticsEventPayload":{"promotion_id":"freshful-top-deals-2023","promotion_name":"Profită de Top Deals"}},"discountLabel":null,"geniusDiscountLabel":null,"badge":null},{"code":"100086133","variantCode":"100086133","name":"Șervețele demachiante Skin Moisture pentru ten uscat/sensibil 25 buc","slug":"100086133-elmiplant-servetele-demachiante-skin-moisture-pentru-ten-uscat-sensibil-25-buc","unitPriceLabel":"","brand":"Elmiplant","brandCode":"550","brandFilterCode":"elmiplant-b551","sku":"100086133","price":11.85,"originalPrice":null,"currencyCode":"RON","currency":"Lei","image":{"thumbnail":{"default":"https://cdn.freshful.ro/media/cache/sylius_shop_product_thumbnail/1b/56/9d68f92897880f9615e3eb0738aa.jpg"},"large":{"default":"https://cdn.freshful.ro/media/cache/freshful_large/1b/56/9d68f92897880f9615e3eb0738aa.jpg"},"extralarge":{"default":"https://cdn.freshful.ro/media/cache/sylius_shop_product_original/1b/56/9d68f92897880f9615e3eb0738aa.jpg"}},"label":{"text":"Profită acum","backgroundColor":"#FF9903","textColor":"#FFFFFF"},"tags":[{"type":"vegan","text":"Vegan","icon":"https://cdn.freshful.ro/assets/product_tags/vegan.svg","iconPng":"https://cdn.freshful.ro/assets/product_tags/vegan.png","backgroundColor":"#ECF9F8","textColor":"#33A39C"}],"isAvailable":true,"maxAvailableQuantity":100,"maxAllowedQuantity":100,"breadcrumbs":[{"code":"11","name":"Cosmetice","slug":"11-cosmetice-si-ingrijire-personala"},{"code":"1103","name":"Demachiante și creme","slug":"1103-creme-intretinere-si-demachiante"},{"code":"110304","name":"Curățare și demachiere ten","slug":"110304-curatare-ten-si-demachiere"},{"code":"100086133","name":"Șervețele demachiante Skin Moisture pentru ten uscat/sensibil 25 buc","slug":"100086133-elmiplant-servetele-demachiante-skin-moisture-pentru-ten-uscat-sensibil-25-buc"}],"activePromotion":{"code":"freshful-top-deals-2023","name":"Preț avantajos","targetQuantity":null},"saveMe":null,"labels":[{"type":"v1","items":[{"text":"Profită acum","backgroundColor":"#FF9903","textColor":"#FFFFFF"}]}],"geniusPrice":null,"geniusUnitPricePerLabel":null,"banner":{"text":"Preț avantajos","textColor":"#F95510","bgColor":"#FEF1CD","icon":null,"link":"https://www.freshful.ro/oferte/freshful-top-deals-2023","type":"promo","analyticsEventType":"select_promotion","analyticsEventPayload":{"promotion_id":"freshful-top-deals-2023","promotion_name":"Profită de Top Deals"}},"discountLabel":null,"geniusDiscountLabel":null,"badge":null},{"code":"100085646","variantCode":"100085646","name":"Scrub facial Refreshingly Clear 150ml","slug":"100085646-neutrogena-scrub-facial-refreshingly-clear-150ml","unitPriceLabel":"166,6 Lei/l","brand":"Neutrogena","brandCode":"548","brandFilterCode":"neutrogena-b549","sku":"100085646","price":24.99,"originalPrice":33.79,"currencyCode":"RON","currency":"Lei","image":{"thumbnail":{"default":"https://cdn.freshful.ro/media/cache/sylius_shop_product_thumbnail/55/48/e52812331419783aa01244e5cd57.jpg"},"large":{"default":"https://cdn.freshful.ro/media/cache/freshful_large/55/48/e52812331419783aa01244e5cd57.jpg"},"extralarge":{"default":"https://cdn.freshful.ro/media/cache/sylius_shop_product_original/55/48/e52812331419783aa01244e5cd57.jpg"}},"label":{"text":"-26%","backgroundColor":"#FF9903","textColor":"#FFFFFF"},"tags":[],"isAvailable":true,"maxAvailableQuantity":7,"maxAllowedQuantity":100,"breadcrumbs":[{"code":"11","name":"Cosmetice","slug":"11-cosmetice-si-ingrijire-personala"},{"code":"1103","name":"Demachiante și creme","slug":"1103-creme-intretinere-si-demachiante"},{"code":"110304","name":"Curățare și demachiere ten","slug":"110304-curatare-ten-si-demachiere"},{"code":"100085646","name":"Scrub facial Refreshingly Clear 150ml","slug":"100085646-neutrogena-scrub-facial-refreshingly-clear-150ml"}],"activePromotion":{"code":"oferte-dph-21feb-8mar23","name":"Preț redus","targetQuantity":null},"saveMe":null,"labels":[{"type":"v1","items":[{"text":"-26%","backgroundColor":"#FF9903","textColor":"#FFFFFF"}]}],"geniusPrice":null,"geniusUnitPricePerLabel":null,"banner":{"text":"Super preț","textColor":"#FF0000","bgColor":"#FFF2EC","icon":null,"link":"https://www.freshful.ro/oferte/oferte-dph-21feb-8mar23","type":"promo","analyticsEventType":"select_promotion","analyticsEventPayload":{"promotion_id":"oferte-dph-21feb-8mar23","promotion_name":"Curățenie și îngrijire personală"}},"discountLabel":"Economisești 26%","geniusDiscountLabel":null,"badge":null},{"code":"100148050","variantCode":"100148050","name":"Apă micelară Hyaluronic Gold 400ml","slug":"100148050-elmiplant-apa-micelara-hyaluronic-gold-400ml","unitPriceLabel":"41,38 Lei/l","brand":"Elmiplant","brandCode":"550","brandFilterCode":"elmiplant-b551","sku":"100148050","price":16.55,"originalPrice":null,"currencyCode":"RON","currency":"Lei","image":{"thumbnail":{"default":"https://cdn.freshful.ro/media/cache/sylius_shop_product_thumbnail/25/15/45ac613af350e2a84f522b05a4e4.jpg"},"large":{"default":"https://cdn.freshful.ro/media/cache/freshful_large/25/15/45ac613af350e2a84f522b05a4e4.jpg"},"extralarge":{"default":"https://cdn.freshful.ro/media/cache/sylius_shop_product_original/25/15/45ac613af350e2a84f522b05a4e4.jpg"}},"label":{"text":"Profită acum","backgroundColor":"#FF9903","textColor":"#FFFFFF"},"tags":[],"isAvailable":true,"maxAvailableQuantity":32,"maxAllowedQuantity":100,"breadcrumbs":[{"code":"11","name":"Cosmetice","slug":"11-cosmetice-si-ingrijire-personala"},{"code":"1103","name":"Demachiante și creme","slug":"1103-creme-intretinere-si-demachiante"},{"code":"110304","name":"Curățare și demachiere ten","slug":"110304-curatare-ten-si-demachiere"},{"code":"100148050","name":"Apă micelară Hyaluronic Gold 400ml","slug":"100148050-elmiplant-apa-micelara-hyaluronic-gold-400ml"}],"activePromotion":{"code":"freshful-top-deals-2023","name":"Preț avantajos","targetQuantity":null},"saveMe":null,"labels":[{"type":"v1","items":[{"text":"Profită acum","backgroundColor":"#FF9903","textColor":"#FFFFFF"}]}],"geniusPrice":null,"geniusUnitPricePerLabel":null,"banner":{"text":"Preț avantajos","textColor":"#F95510","bgColor":"#FEF1CD","icon":null,"link":"https://www.freshful.ro/oferte/freshful-top-deals-2023","type":"promo","analyticsEventType":"select_promotion","analyticsEventPayload":{"promotion_id":"freshful-top-deals-2023","promotion_name":"Profită de Top Deals"}},"discountLabel":null,"geniusDiscountLabel":null,"badge":null},{"code":"100086138","variantCode":"100086138","name":"Mască șervețel Hyaluronic 35+, 20ml","slug":"100086138-elmiplant-masca-servetel-hyaluronic-35-20ml","unitPriceLabel":"","brand":"Elmiplant","brandCode":"550","brandFilterCode":"elmiplant-b551","sku":"100086138","price":7.22,"originalPrice":null,"currencyCode":"RON","currency":"Lei","image":{"thumbnail":{"default":"https://cdn.freshful.ro/media/cache/sylius_shop_product_thumbnail/1b/44/28e4cab7cb3f1a58e91f19d5b6fb.jpg"},"large":{"default":"https://cdn.freshful.ro/media/cache/freshful_large/1b/44/28e4cab7cb3f1a58e91f19d5b6fb.jpg"},"extralarge":{"default":"https://cdn.freshful.ro/media/cache/sylius_shop_product_original/1b/44/28e4cab7cb3f1a58e91f19d5b6fb.jpg"}},"label":{"text":"Profită acum","backgroundColor":"#FF9903","textColor":"#FFFFFF"},"tags":[],"isAvailable":true,"maxAvailableQuantity":33,"maxAllowedQuantity":100,"breadcrumbs":[{"code":"11","name":"Cosmetice","slug":"11-cosmetice-si-ingrijire-personala"},{"code":"1103","name":"Demachiante și creme","slug":"1103-creme-intretinere-si-demachiante"},{"code":"110304","name":"Curățare și demachiere ten","slug":"110304-curatare-ten-si-demachiere"},{"code":"100086138","name":"Mască șervețel Hyaluronic 35+, 20ml","slug":"100086138-elmiplant-masca-servetel-hyaluronic-35-20ml"}],"activePromotion":{"code":"freshful-top-deals-2023","name":"Preț avantajos","targetQuantity":null},"saveMe":null,"labels":[{"type":"v1","items":[{"text":"Profită acum","backgroundColor":"#FF9903","textColor":"#FFFFFF"}]}],"geniusPrice":null,"geniusUnitPricePerLabel":null,"banner":{"text":"Preț avantajos","textColor":"#F95510","bgColor":"#FEF1CD","icon":null,"link":"https://www.freshful.ro/oferte/freshful-top-deals-2023","type":"promo","analyticsEventType":"select_promotion","analyticsEventPayload":{"promotion_id":"freshful-top-deals-2023","promotion_name":"Profită de Top Deals"}},"discountLabel":null,"geniusDiscountLabel":null,"badge":null},{"code":"100086118","variantCode":"5201314114611","name":"Lapte demachiant ten normal și mixt Skin Moisture 200ml","slug":"100086118-elmiplant-lapte-demachiant-ten-normal-si-mixt-skin-moisture-200ml","unitPriceLabel":"65,8 Lei/l","brand":"Elmiplant","brandCode":"550","brandFilterCode":"elmiplant-b551","sku":"100086118","price":13.16,"originalPrice":null,"currencyCode":"RON","currency":"Lei","image":{"thumbnail":{"default":"https://cdn.freshful.ro/media/cache/sylius_shop_product_thumbnail/84/8f/063c8f08788edec2d8af4a64a168.jpg"},"large":{"default":"https://cdn.freshful.ro/media/cache/freshful_large/84/8f/063c8f08788edec2d8af4a64a168.jpg"},"extralarge":{"default":"https://cdn.freshful.ro/media/cache/sylius_shop_product_original/84/8f/063c8f08788edec2d8af4a64a168.jpg"}},"label":{"text":"Profită acum","backgroundColor":"#FF9903","textColor":"#FFFFFF"},"tags":[{"type":"vegan","text":"Vegan","icon":"https://cdn.freshful.ro/assets/product_tags/vegan.svg","iconPng":"https://cdn.freshful.ro/assets/product_tags/vegan.png","backgroundColor":"#ECF9F8","textColor":"#33A39C"}],"isAvailable":true,"maxAvailableQuantity":26,"maxAllowedQuantity":100,"breadcrumbs":[{"code":"11","name":"Cosmetice","slug":"11-cosmetice-si-ingrijire-personala"},{"code":"1103","name":"Demachiante și creme","slug":"1103-creme-intretinere-si-demachiante"},{"code":"110304","name":"Curățare și demachiere ten","slug":"110304-curatare-ten-si-demachiere"},{"code":"100086118","name":"Lapte demachiant ten normal și mixt Skin Moisture 200ml","slug":"100086118-elmiplant-lapte-demachiant-ten-normal-si-mixt-skin-moisture-200ml"}],"activePromotion":{"code":"freshful-top-deals-2023","name":"Preț avantajos","targetQuantity":null},"saveMe":null,"labels":[{"type":"v1","items":[{"text":"Profită acum","backgroundColor":"#FF9903","textColor":"#FFFFFF"}]}],"geniusPrice":null,"geniusUnitPricePerLabel":null,"banner":{"text":"Preț avantajos","textColor":"#F95510","bgColor":"#FEF1CD","icon":null,"link":"https://www.freshful.ro/oferte/freshful-top-deals-2023","type":"promo","analyticsEventType":"select_promotion","analyticsEventPayload":{"promotion_id":"freshful-top-deals-2023","promotion_name":"Profită de Top Deals"}},"discountLabel":null,"geniusDiscountLabel":null,"badge":null},{"code":"100115017","variantCode":"3600542368896","name":"Mască șervețel anti-imperfecțiuni și hidratare 28g","slug":"100115017-garnier-skin-naturals-masca-servetel-anti-imperfectiuni-si-hidratare-28g","unitPriceLabel":"412,61 Lei/kg","brand":"Garnier Skin Naturals","brandCode":"442","brandFilterCode":"garnier-skin-naturals-b443","sku":"100115017","price":9.49,"originalPrice":11.99,"currencyCode":"RON","currency":"Lei","image":{"thumbnail":{"default":"https://cdn.freshful.ro/media/cache/sylius_shop_product_thumbnail/d1/86/36d7f5004898a9fc6c244f0618e8.jpg"},"large":{"default":"https://cdn.freshful.ro/media/cache/freshful_large/d1/86/36d7f5004898a9fc6c244f0618e8.jpg"},"extralarge":{"default":"https://cdn.freshful.ro/media/cache/sylius_shop_product_original/d1/86/36d7f5004898a9fc6c244f0618e8.jpg"}},"label":{"text":"-20%","backgroundColor":"#FF9903","textColor":"#FFFFFF"},"tags":[],"isAvailable":true,"maxAvailableQuantity":3,"maxAllowedQuantity":100,"breadcrumbs":[{"code":"11","name":"Cosmetice","slug":"11-cosmetice-si-ingrijire-personala"},{"code":"1103","name":"Demachiante și creme","slug":"1103-creme-intretinere-si-demachiante"},{"code":"110304","name":"Curățare și demachiere ten","slug":"110304-curatare-ten-si-demachiere"},{"code":"100115017","name":"Mască șervețel anti-imperfecțiuni și hidratare 28g","slug":"100115017-garnier-skin-naturals-masca-servetel-anti-imperfectiuni-si-hidratare-28g"}],"activePromotion":{"code":"oferte-dph-21feb-8mar23","name":"Preț redus","targetQuantity":null},"saveMe":null,"labels":[{"type":"v1","items":[{"text":"-20%","backgroundColor":"#FF9903","textColor":"#FFFFFF"}]}],"geniusPrice":null,"geniusUnitPricePerLabel":null,"banner":{"text":"Super preț","textColor":"#FF0000","bgColor":"#FFF2EC","icon":null,"link":"https://www.freshful.ro/oferte/oferte-dph-21feb-8mar23","type":"promo","analyticsEventType":"select_promotion","analyticsEventPayload":{"promotion_id":"oferte-dph-21feb-8mar23","promotion_name":"Curățenie și îngrijire personală"}},"discountLabel":"Economisești 20%","geniusDiscountLabel":null,"badge":null},{"code":"100085658","variantCode":"3574660569759","name":"Gel de curățare facială Refreshingly Clear 200ml","slug":"100085658-neutrogena-gel-de-curatare-faciala-refreshingly-clear-200ml","unitPriceLabel":"124,95 Lei/l","brand":"Neutrogena","brandCode":"548","brandFilterCode":"neutrogena-b549","sku":"100085658","price":24.99,"originalPrice":34.49,"currencyCode":"RON","currency":"Lei","image":{"thumbnail":{"default":"https://cdn.freshful.ro/media/cache/sylius_shop_product_thumbnail/48/84/88ca81a649c1c68f20764fc17094.jpg"},"large":{"default":"https://cdn.freshful.ro/media/cache/freshful_large/48/84/88ca81a649c1c68f20764fc17094.jpg"},"extralarge":{"default":"https://cdn.freshful.ro/media/cache/sylius_shop_product_original/48/84/88ca81a649c1c68f20764fc17094.jpg"}},"label":{"text":"-27%","backgroundColor":"#FF9903","textColor":"#FFFFFF"},"tags":[],"isAvailable":true,"maxAvailableQuantity":7,"maxAllowedQuantity":100,"breadcrumbs":[{"code":"11","name":"Cosmetice","slug":"11-cosmetice-si-ingrijire-personala"},{"code":"1103","name":"Demachiante și creme","slug":"1103-creme-intretinere-si-demachiante"},{"code":"110304","name":"Curățare și demachiere ten","slug":"110304-curatare-ten-si-demachiere"},{"code":"100085658","name":"Gel de curățare facială Refreshingly Clear 200ml","slug":"100085658-neutrogena-gel-de-curatare-faciala-refreshingly-clear-200ml"}],"activePromotion":{"code":"oferte-dph-21feb-8mar23","name":"Preț redus","targetQuantity":null},"saveMe":null,"labels":[{"type":"v1","items":[{"text":"-27%","backgroundColor":"#FF9903","textColor":"#FFFFFF"}]}],"geniusPrice":null,"geniusUnitPricePerLabel":null,"banner":{"text":"Super preț","textColor":"#FF0000","bgColor":"#FFF2EC","icon":null,"link":"https://www.freshful.ro/oferte/oferte-dph-21feb-8mar23","type":"promo","analyticsEventType":"select_promotion","analyticsEventPayload":{"promotion_id":"oferte-dph-21feb-8mar23","promotion_name":"Curățenie și îngrijire personală"}},"discountLabel":"Economisești 27%","geniusDiscountLabel":null,"badge":null}],"filters":{"countSelected":0,"items":[{"code":"promotion","name":"Promoții","countSelected":0,"values":[{"code":"oferte-dph-21feb-8mar23","name":"Curățenie și îngrijire personală","isSelected":false,"count":7},{"code":"freshful-top-deals-2023","name":"Profită de Top Deals","isSelected":false,"count":10}]},{"code":"brand","name":"Brand","countSelected":0,"values":[{"code":"7th-heaven-b1745","name":"7th Heaven","isSelected":false,"count":11},{"code":"apidava-cosmetic-line-b1871","name":"Apidava Cosmetic Line","isSelected":false,"count":4},{"code":"bella-b322","name":"Bella","isSelected":false,"count":5},{"code":"biopha-b1420","name":"Biopha","isSelected":false,"count":1},{"code":"delia-b341","name":"Delia","isSelected":false,"count":1},{"code":"elmiplant-b551","name":"Elmiplant","isSelected":false,"count":17},{"code":"essere-b1365","name":"Essere","isSelected":false,"count":2},{"code":"family-b1747","name":"Family","isSelected":false,"count":1},{"code":"florame-b1418","name":"Florame","isSelected":false,"count":1},{"code":"garnier-skin-naturals-b443","name":"Garnier Skin Naturals","isSelected":false,"count":24},{"code":"gerovital-b1837","name":"Gerovital","isSelected":false,"count":3},{"code":"laboratoires-de-biarritz-b1419","name":"Laboratoires de Biarritz","isSelected":false,"count":1},{"code":"le-petit-olivier-b1746","name":"Le Petit Olivier","isSelected":false,"count":7},{"code":"l-oreal-skin-expert-b442","name":"L’Oréal Skin Expert","isSelected":false,"count":4},{"code":"naturativ-b1621","name":"Naturativ","isSelected":false,"count":1},{"code":"neutrogena-b549","name":"Neutrogena","isSelected":false,"count":6},{"code":"nivea-b317","name":"Nivea","isSelected":false,"count":21},{"code":"renew-b1751","name":"Renew","isSelected":false,"count":3}]},{"code":"diet_lifestyle","name":"Dietă și lifestyle","countSelected":0,"values":[{"code":"bio-a26","name":"Bio","isSelected":false,"count":9},{"code":"natural-a27","name":"Natural","isSelected":false,"count":1},{"code":"vegan-a24","name":"Vegan","isSelected":false,"count":11}]}]},"orderBy":[{"field":"price","direction":"asc","name":"Preț crescător","isSelected":false},{"field":"price","direction":"desc","name":"Preț descrescător","isSelected":false},{"field":"popularity","direction":"desc","name":"Cele mai populare","isSelected":true},{"field":"category","direction":"asc","name":"Categorie","isSelected":false}],"metaTitle":"Curățare și demachiere ten - Gamă variată","metaDescription":"Vrei Curățare și demachiere ten? Alege dintr-o gamă variată. Comanzi simplu și ai livrare rapidă, calitate și prospețime. Hai pe Freshful.ro","metaKeywords":null,"banners":[]}}