{"type":"subcategory","payload":{"analyticsListId":"category_110303-creme-pentru-maini","analyticsListName":"Category - Creme pentru mâini","name":"Creme pentru mâini","slug":"110303-creme-pentru-maini","image":null,"breadcrumbs":[{"code":"11","name":"Cosmetice","slug":"11-cosmetice-si-ingrijire-personala"},{"code":"1103","name":"Demachiante și creme","slug":"1103-creme-intretinere-si-demachiante"},{"code":"110303","name":"Creme pentru mâini","slug":"110303-creme-pentru-maini"}],"slots":[],"page":1,"limit":10,"pages":2,"count":17,"siblings":[{"name":"Deodorante și parfumuri","slug":"1101-deodorante-si-parfumuri","selected":false},{"name":"Bărbierit și îngrijire ten","slug":"1102-produse-pentru-barbierit-si-ingrijit-ten","selected":false},{"name":"Demachiante și creme","slug":"1103-creme-intretinere-si-demachiante","selected":true},{"name":"Protecție solară","slug":"1104-produse-cu-protectie-solara","selected":false},{"name":"Ceară, benzi și creme depilatoare","slug":"1105-ceara-benzi-si-creme-depliatoare","selected":false},{"name":"Seturi cadou","slug":"1106-seturi-cadou","selected":false},{"name":"Îngrijirea părului","slug":"1107-ingrijirea-parului","selected":false},{"name":"Igienă intimă","slug":"1108-igienta-inima","selected":false},{"name":"Igienă dentară","slug":"1109-igiena-dentara","selected":false},{"name":"Săpunuri și geluri de duș","slug":"1110-sapunuri-si-geluri-de-dus","selected":false},{"name":"Dermatocosmetice și parafarmacie","slug":"1111-dermatocosmetice-si-parafarmacie","selected":false},{"name":"Repelent","slug":"repelent","selected":false}],"children":[{"name":"Toate produsele","slug":"1103-creme-intretinere-si-demachiante","selected":false},{"name":"Creme pentru față","slug":"110301-creme-de-fata","selected":false},{"name":"Creme pentru corp","slug":"110302-creme-pentru-corp","selected":false},{"name":"Creme pentru mâini","slug":"110303-creme-pentru-maini","selected":true},{"name":"Curățare și demachiere ten","slug":"110304-curatare-ten-si-demachiere","selected":false}],"products":[{"code":"100085667","variantCode":"100085667","name":"Cremă de mâini Visibly Renew, SPF 20, 75ml","slug":"100085667-neutrogena-crema-de-maini-visibly-renew-spf-20-75ml","unitPriceLabel":"213,2 Lei/l","brand":"Neutrogena","brandCode":"548","brandFilterCode":"neutrogena-b549","sku":"100085667","price":15.99,"originalPrice":18.5,"currencyCode":"RON","currency":"Lei","image":{"thumbnail":{"default":"https://cdn.freshful.ro/media/cache/sylius_shop_product_thumbnail/c6/d6/bed8bc7df192c450be6dcc37e8e5.jpg"},"large":{"default":"https://cdn.freshful.ro/media/cache/freshful_large/c6/d6/bed8bc7df192c450be6dcc37e8e5.jpg"},"extralarge":{"default":"https://cdn.freshful.ro/media/cache/sylius_shop_product_original/c6/d6/bed8bc7df192c450be6dcc37e8e5.jpg"}},"label":{"text":"-13%","backgroundColor":"#FF9903","textColor":"#FFFFFF"},"tags":[],"isAvailable":true,"maxAvailableQuantity":15,"maxAllowedQuantity":100,"breadcrumbs":[{"code":"11","name":"Cosmetice","slug":"11-cosmetice-si-ingrijire-personala"},{"code":"1103","name":"Demachiante și creme","slug":"1103-creme-intretinere-si-demachiante"},{"code":"110303","name":"Creme pentru mâini","slug":"110303-creme-pentru-maini"},{"code":"100085667","name":"Cremă de mâini Visibly Renew, SPF 20, 75ml","slug":"100085667-neutrogena-crema-de-maini-visibly-renew-spf-20-75ml"}],"activePromotion":{"code":"special-cosmetice-21feb-8mar23","name":"Preț redus","targetQuantity":null},"saveMe":null,"labels":[{"type":"v1","items":[{"text":"-13%","backgroundColor":"#FF9903","textColor":"#FFFFFF"}]}],"geniusPrice":null,"geniusUnitPricePerLabel":null,"banner":{"text":"Super preț","textColor":"#FF0000","bgColor":"#FFF2EC","icon":null,"link":"https://www.freshful.ro/oferte/special-cosmetice-21feb-8mar23","type":"promo","analyticsEventType":"select_promotion","analyticsEventPayload":{"promotion_id":"special-cosmetice-21feb-8mar23","promotion_name":"Cadouri pentru sărbătoritele lunii martie"}},"discountLabel":"Economisești 13%","geniusDiscountLabel":null,"badge":null},{"code":"100085664","variantCode":"100085664","name":"Cremă pentru mâini și unghii 75ml","slug":"100085664-neutrogena-crema-pentru-maini-si-unghii-75ml","unitPriceLabel":"239,87 Lei/l","brand":"Neutrogena","brandCode":"548","brandFilterCode":"neutrogena-b549","sku":"100085664","price":17.99,"originalPrice":23.5,"currencyCode":"RON","currency":"Lei","image":{"thumbnail":{"default":"https://cdn.freshful.ro/media/cache/sylius_shop_product_thumbnail/e6/e5/1daa7511b7beffa249d189abd52d.jpg"},"large":{"default":"https://cdn.freshful.ro/media/cache/freshful_large/e6/e5/1daa7511b7beffa249d189abd52d.jpg"},"extralarge":{"default":"https://cdn.freshful.ro/media/cache/sylius_shop_product_original/e6/e5/1daa7511b7beffa249d189abd52d.jpg"}},"label":{"text":"-23%","backgroundColor":"#FF9903","textColor":"#FFFFFF"},"tags":[],"isAvailable":true,"maxAvailableQuantity":19,"maxAllowedQuantity":100,"breadcrumbs":[{"code":"11","name":"Cosmetice","slug":"11-cosmetice-si-ingrijire-personala"},{"code":"1103","name":"Demachiante și creme","slug":"1103-creme-intretinere-si-demachiante"},{"code":"110303","name":"Creme pentru mâini","slug":"110303-creme-pentru-maini"},{"code":"100085664","name":"Cremă pentru mâini și unghii 75ml","slug":"100085664-neutrogena-crema-pentru-maini-si-unghii-75ml"}],"activePromotion":{"code":"special-cosmetice-21feb-8mar23","name":"Preț redus","targetQuantity":null},"saveMe":null,"labels":[{"type":"v1","items":[{"text":"-23%","backgroundColor":"#FF9903","textColor":"#FFFFFF"}]}],"geniusPrice":null,"geniusUnitPricePerLabel":null,"banner":{"text":"Super preț","textColor":"#FF0000","bgColor":"#FFF2EC","icon":null,"link":"https://www.freshful.ro/oferte/special-cosmetice-21feb-8mar23","type":"promo","analyticsEventType":"select_promotion","analyticsEventPayload":{"promotion_id":"special-cosmetice-21feb-8mar23","promotion_name":"Cadouri pentru sărbătoritele lunii martie"}},"discountLabel":"Economisești 23%","geniusDiscountLabel":null,"badge":null},{"code":"100086208","variantCode":"100086208","name":"Cremă de corp mosc alb 300ml","slug":"100086208-tesori-d-oriente-crema-de-corp-mosc-alb-300ml","unitPriceLabel":"86,63 Lei/l","brand":"Tesori d'Oriente","brandCode":"554","brandFilterCode":"tesori-d-oriente-b555","sku":"100086208","price":25.99,"originalPrice":32.69,"currencyCode":"RON","currency":"Lei","image":{"thumbnail":{"default":"https://cdn.freshful.ro/media/cache/sylius_shop_product_thumbnail/a3/56/bdf8ba134e5fa611b7ff724e7300.jpg"},"large":{"default":"https://cdn.freshful.ro/media/cache/freshful_large/a3/56/bdf8ba134e5fa611b7ff724e7300.jpg"},"extralarge":{"default":"https://cdn.freshful.ro/media/cache/sylius_shop_product_original/a3/56/bdf8ba134e5fa611b7ff724e7300.jpg"}},"label":{"text":"-20%","backgroundColor":"#FF9903","textColor":"#FFFFFF"},"tags":[],"isAvailable":true,"maxAvailableQuantity":2,"maxAllowedQuantity":100,"breadcrumbs":[{"code":"11","name":"Cosmetice","slug":"11-cosmetice-si-ingrijire-personala"},{"code":"1103","name":"Demachiante și creme","slug":"1103-creme-intretinere-si-demachiante"},{"code":"110303","name":"Creme pentru mâini","slug":"110303-creme-pentru-maini"},{"code":"100086208","name":"Cremă de corp mosc alb 300ml","slug":"100086208-tesori-d-oriente-crema-de-corp-mosc-alb-300ml"}],"activePromotion":{"code":"special-cosmetice-21feb-8mar23","name":"Preț redus","targetQuantity":null},"saveMe":null,"labels":[{"type":"v1","items":[{"text":"-20%","backgroundColor":"#FF9903","textColor":"#FFFFFF"}]}],"geniusPrice":null,"geniusUnitPricePerLabel":null,"banner":{"text":"Super preț","textColor":"#FF0000","bgColor":"#FFF2EC","icon":null,"link":"https://www.freshful.ro/oferte/special-cosmetice-21feb-8mar23","type":"promo","analyticsEventType":"select_promotion","analyticsEventPayload":{"promotion_id":"special-cosmetice-21feb-8mar23","promotion_name":"Cadouri pentru sărbătoritele lunii martie"}},"discountLabel":"Economisești 20%","geniusDiscountLabel":null,"badge":null},{"code":"100085645","variantCode":"100085645","name":"Cremă de mâini parfumată 50ml","slug":"100085645-neutrogena-crema-de-maini-parfumata-50ml","unitPriceLabel":"299,8 Lei/l","brand":"Neutrogena","brandCode":"548","brandFilterCode":"neutrogena-b549","sku":"100085645","price":14.99,"originalPrice":18.9,"currencyCode":"RON","currency":"Lei","image":{"thumbnail":{"default":"https://cdn.freshful.ro/media/cache/sylius_shop_product_thumbnail/e1/a6/79f0a7031733666d5f28a6f1c82e.jpg"},"large":{"default":"https://cdn.freshful.ro/media/cache/freshful_large/e1/a6/79f0a7031733666d5f28a6f1c82e.jpg"},"extralarge":{"default":"https://cdn.freshful.ro/media/cache/sylius_shop_product_original/e1/a6/79f0a7031733666d5f28a6f1c82e.jpg"}},"label":{"text":"-20%","backgroundColor":"#FF9903","textColor":"#FFFFFF"},"tags":[],"isAvailable":true,"maxAvailableQuantity":9,"maxAllowedQuantity":100,"breadcrumbs":[{"code":"11","name":"Cosmetice","slug":"11-cosmetice-si-ingrijire-personala"},{"code":"1103","name":"Demachiante și creme","slug":"1103-creme-intretinere-si-demachiante"},{"code":"110303","name":"Creme pentru mâini","slug":"110303-creme-pentru-maini"},{"code":"100085645","name":"Cremă de mâini parfumată 50ml","slug":"100085645-neutrogena-crema-de-maini-parfumata-50ml"}],"activePromotion":{"code":"special-cosmetice-21feb-8mar23","name":"Preț redus","targetQuantity":null},"saveMe":null,"labels":[{"type":"v1","items":[{"text":"-20%","backgroundColor":"#FF9903","textColor":"#FFFFFF"}]}],"geniusPrice":null,"geniusUnitPricePerLabel":null,"banner":{"text":"Super preț","textColor":"#FF0000","bgColor":"#FFF2EC","icon":null,"link":"https://www.freshful.ro/oferte/special-cosmetice-21feb-8mar23","type":"promo","analyticsEventType":"select_promotion","analyticsEventPayload":{"promotion_id":"special-cosmetice-21feb-8mar23","promotion_name":"Cadouri pentru sărbătoritele lunii martie"}},"discountLabel":"Economisești 20%","geniusDiscountLabel":null,"badge":null},{"code":"100086217","variantCode":"8008970005607","name":"Cremă de corp Hammam 300ml","slug":"100086217-tesori-d-oriente-crema-de-corp-hammam-300ml","unitPriceLabel":"86,63 Lei/l","brand":"Tesori d'Oriente","brandCode":"554","brandFilterCode":"tesori-d-oriente-b555","sku":"100086217","price":25.99,"originalPrice":30.5,"currencyCode":"RON","currency":"Lei","image":{"thumbnail":{"default":"https://cdn.freshful.ro/media/cache/sylius_shop_product_thumbnail/7a/5e/d7e21a7d939eeac81c11250974d4.jpg"},"large":{"default":"https://cdn.freshful.ro/media/cache/freshful_large/7a/5e/d7e21a7d939eeac81c11250974d4.jpg"},"extralarge":{"default":"https://cdn.freshful.ro/media/cache/sylius_shop_product_original/7a/5e/d7e21a7d939eeac81c11250974d4.jpg"}},"label":{"text":"-14%","backgroundColor":"#FF9903","textColor":"#FFFFFF"},"tags":[],"isAvailable":true,"maxAvailableQuantity":6,"maxAllowedQuantity":100,"breadcrumbs":[{"code":"11","name":"Cosmetice","slug":"11-cosmetice-si-ingrijire-personala"},{"code":"1103","name":"Demachiante și creme","slug":"1103-creme-intretinere-si-demachiante"},{"code":"110303","name":"Creme pentru mâini","slug":"110303-creme-pentru-maini"},{"code":"100086217","name":"Cremă de corp Hammam 300ml","slug":"100086217-tesori-d-oriente-crema-de-corp-hammam-300ml"}],"activePromotion":{"code":"special-cosmetice-21feb-8mar23","name":"Preț redus","targetQuantity":null},"saveMe":null,"labels":[{"type":"v1","items":[{"text":"-14%","backgroundColor":"#FF9903","textColor":"#FFFFFF"}]}],"geniusPrice":null,"geniusUnitPricePerLabel":null,"banner":{"text":"Super preț","textColor":"#FF0000","bgColor":"#FFF2EC","icon":null,"link":"https://www.freshful.ro/oferte/special-cosmetice-21feb-8mar23","type":"promo","analyticsEventType":"select_promotion","analyticsEventPayload":{"promotion_id":"special-cosmetice-21feb-8mar23","promotion_name":"Cadouri pentru sărbătoritele lunii martie"}},"discountLabel":"Economisești 14%","geniusDiscountLabel":null,"badge":null},{"code":"100086167","variantCode":"100086167","name":"Cremă de mâini Repair&Care 100ml","slug":"100086167-elmiplant-crema-de-maini-repair-care-100ml","unitPriceLabel":"86,5 Lei/l","brand":"Elmiplant","brandCode":"550","brandFilterCode":"elmiplant-b551","sku":"100086167","price":8.65,"originalPrice":null,"currencyCode":"RON","currency":"Lei","image":{"thumbnail":{"default":"https://cdn.freshful.ro/media/cache/sylius_shop_product_thumbnail/f2/02/ff3659d7c65ec0f8111a54e1ca9d.jpg"},"large":{"default":"https://cdn.freshful.ro/media/cache/freshful_large/f2/02/ff3659d7c65ec0f8111a54e1ca9d.jpg"},"extralarge":{"default":"https://cdn.freshful.ro/media/cache/sylius_shop_product_original/f2/02/ff3659d7c65ec0f8111a54e1ca9d.jpg"}},"label":null,"tags":[],"isAvailable":true,"maxAvailableQuantity":65,"maxAllowedQuantity":100,"breadcrumbs":[{"code":"11","name":"Cosmetice","slug":"11-cosmetice-si-ingrijire-personala"},{"code":"1103","name":"Demachiante și creme","slug":"1103-creme-intretinere-si-demachiante"},{"code":"110303","name":"Creme pentru mâini","slug":"110303-creme-pentru-maini"},{"code":"100086167","name":"Cremă de mâini Repair&Care 100ml","slug":"100086167-elmiplant-crema-de-maini-repair-care-100ml"}],"activePromotion":null,"saveMe":null,"labels":[],"geniusPrice":null,"geniusUnitPricePerLabel":null,"banner":null,"discountLabel":null,"geniusDiscountLabel":null,"badge":null},{"code":"100086168","variantCode":"100086168","name":"Cremă de mâini Hyaluronic Boost 100ml","slug":"100086168-elmiplant-crema-de-maini-hyaluronic-boost-100ml","unitPriceLabel":"86,5 Lei/l","brand":"Elmiplant","brandCode":"550","brandFilterCode":"elmiplant-b551","sku":"100086168","price":8.65,"originalPrice":null,"currencyCode":"RON","currency":"Lei","image":{"thumbnail":{"default":"https://cdn.freshful.ro/media/cache/sylius_shop_product_thumbnail/8a/5d/54636ccb3f2759ec61fa7b7370d5.jpg"},"large":{"default":"https://cdn.freshful.ro/media/cache/freshful_large/8a/5d/54636ccb3f2759ec61fa7b7370d5.jpg"},"extralarge":{"default":"https://cdn.freshful.ro/media/cache/sylius_shop_product_original/8a/5d/54636ccb3f2759ec61fa7b7370d5.jpg"}},"label":null,"tags":[],"isAvailable":true,"maxAvailableQuantity":67,"maxAllowedQuantity":100,"breadcrumbs":[{"code":"11","name":"Cosmetice","slug":"11-cosmetice-si-ingrijire-personala"},{"code":"1103","name":"Demachiante și creme","slug":"1103-creme-intretinere-si-demachiante"},{"code":"110303","name":"Creme pentru mâini","slug":"110303-creme-pentru-maini"},{"code":"100086168","name":"Cremă de mâini Hyaluronic Boost 100ml","slug":"100086168-elmiplant-crema-de-maini-hyaluronic-boost-100ml"}],"activePromotion":null,"saveMe":null,"labels":[],"geniusPrice":null,"geniusUnitPricePerLabel":null,"banner":null,"discountLabel":null,"geniusDiscountLabel":null,"badge":null},{"code":"100033808","variantCode":"100033808","name":"Cremă de corp Soft 200ml","slug":"100033808-nivea-crema-de-corp-soft-200ml","unitPriceLabel":"137,5 Lei/l","brand":"Nivea","brandCode":"316","brandFilterCode":"nivea-b317","sku":"100033808","price":27.5,"originalPrice":null,"currencyCode":"RON","currency":"Lei","image":{"thumbnail":{"default":"https://cdn.freshful.ro/media/cache/sylius_shop_product_thumbnail/85/8b/308368bc069b07e8b5f7a6f4889f.jpg"},"large":{"default":"https://cdn.freshful.ro/media/cache/freshful_large/85/8b/308368bc069b07e8b5f7a6f4889f.jpg"},"extralarge":{"default":"https://cdn.freshful.ro/media/cache/sylius_shop_product_original/85/8b/308368bc069b07e8b5f7a6f4889f.jpg"}},"label":null,"tags":[],"isAvailable":true,"maxAvailableQuantity":20,"maxAllowedQuantity":100,"breadcrumbs":[{"code":"11","name":"Cosmetice","slug":"11-cosmetice-si-ingrijire-personala"},{"code":"1103","name":"Demachiante și creme","slug":"1103-creme-intretinere-si-demachiante"},{"code":"110303","name":"Creme pentru mâini","slug":"110303-creme-pentru-maini"},{"code":"100033808","name":"Cremă de corp Soft 200ml","slug":"100033808-nivea-crema-de-corp-soft-200ml"}],"activePromotion":null,"saveMe":null,"labels":[],"geniusPrice":null,"geniusUnitPricePerLabel":null,"banner":null,"discountLabel":null,"geniusDiscountLabel":null,"badge":null},{"code":"100112288","variantCode":"100112288","name":"Cremă nutritivă de mâini 50ml","slug":"100112288-apidava-cosmetic-line-crema-nutritiva-de-maini-50ml","unitPriceLabel":"415,8 Lei/l","brand":"Apidava Cosmetic Line","brandCode":"1881","brandFilterCode":"apidava-cosmetic-line-b1871","sku":"100112288","price":20.79,"originalPrice":null,"currencyCode":"RON","currency":"Lei","image":{"thumbnail":{"default":"https://cdn.freshful.ro/media/cache/sylius_shop_product_thumbnail/5e/b2/06fd2328e86fb209e4352fcd3be1.jpg"},"large":{"default":"https://cdn.freshful.ro/media/cache/freshful_large/5e/b2/06fd2328e86fb209e4352fcd3be1.jpg"},"extralarge":{"default":"https://cdn.freshful.ro/media/cache/sylius_shop_product_original/5e/b2/06fd2328e86fb209e4352fcd3be1.jpg"}},"label":null,"tags":[],"isAvailable":true,"maxAvailableQuantity":23,"maxAllowedQuantity":100,"breadcrumbs":[{"code":"11","name":"Cosmetice","slug":"11-cosmetice-si-ingrijire-personala"},{"code":"1103","name":"Demachiante și creme","slug":"1103-creme-intretinere-si-demachiante"},{"code":"110303","name":"Creme pentru mâini","slug":"110303-creme-pentru-maini"},{"code":"100112288","name":"Cremă nutritivă de mâini 50ml","slug":"100112288-apidava-cosmetic-line-crema-nutritiva-de-maini-50ml"}],"activePromotion":null,"saveMe":null,"labels":[],"geniusPrice":null,"geniusUnitPricePerLabel":null,"banner":null,"discountLabel":null,"geniusDiscountLabel":null,"badge":null},{"code":"100086166","variantCode":"100086166","name":"Cremă de mâini Nourish&Protect 100ml","slug":"100086166-elmiplant-crema-de-maini-nourish-protect-100ml","unitPriceLabel":"86,5 Lei/l","brand":"Elmiplant","brandCode":"550","brandFilterCode":"elmiplant-b551","sku":"100086166","price":8.65,"originalPrice":null,"currencyCode":"RON","currency":"Lei","image":{"thumbnail":{"default":"https://cdn.freshful.ro/media/cache/sylius_shop_product_thumbnail/63/e4/6331a09fbe43d1b8271ecf804892.jpg"},"large":{"default":"https://cdn.freshful.ro/media/cache/freshful_large/63/e4/6331a09fbe43d1b8271ecf804892.jpg"},"extralarge":{"default":"https://cdn.freshful.ro/media/cache/sylius_shop_product_original/63/e4/6331a09fbe43d1b8271ecf804892.jpg"}},"label":null,"tags":[],"isAvailable":true,"maxAvailableQuantity":19,"maxAllowedQuantity":100,"breadcrumbs":[{"code":"11","name":"Cosmetice","slug":"11-cosmetice-si-ingrijire-personala"},{"code":"1103","name":"Demachiante și creme","slug":"1103-creme-intretinere-si-demachiante"},{"code":"110303","name":"Creme pentru mâini","slug":"110303-creme-pentru-maini"},{"code":"100086166","name":"Cremă de mâini Nourish&Protect 100ml","slug":"100086166-elmiplant-crema-de-maini-nourish-protect-100ml"}],"activePromotion":null,"saveMe":null,"labels":[],"geniusPrice":null,"geniusUnitPricePerLabel":null,"banner":null,"discountLabel":null,"geniusDiscountLabel":null,"badge":null}],"filters":{"countSelected":0,"items":[{"code":"promotion","name":"Promoții","countSelected":0,"values":[{"code":"special-cosmetice-21feb-8mar23","name":"Cadouri pentru sărbătoritele lunii martie","isSelected":false,"count":8}]},{"code":"brand","name":"Brand","countSelected":0,"values":[{"code":"apidava-cosmetic-line-b1871","name":"Apidava Cosmetic Line","isSelected":false,"count":1},{"code":"elmiplant-b551","name":"Elmiplant","isSelected":false,"count":3},{"code":"le-petit-olivier-b1746","name":"Le Petit Olivier","isSelected":false,"count":3},{"code":"nacomi-b1618","name":"Nacomi","isSelected":false,"count":1},{"code":"neutrogena-b549","name":"Neutrogena","isSelected":false,"count":6},{"code":"nivea-b317","name":"Nivea","isSelected":false,"count":1},{"code":"tesori-d-oriente-b555","name":"Tesori d'Oriente","isSelected":false,"count":2}]},{"code":"diet_lifestyle","name":"Dietă și lifestyle","countSelected":0,"values":[{"code":"natural-a27","name":"Natural","isSelected":false,"count":1},{"code":"vegan-a24","name":"Vegan","isSelected":false,"count":1}]}]},"orderBy":[{"field":"price","direction":"asc","name":"Preț crescător","isSelected":false},{"field":"price","direction":"desc","name":"Preț descrescător","isSelected":false},{"field":"popularity","direction":"desc","name":"Cele mai populare","isSelected":true},{"field":"category","direction":"asc","name":"Categorie","isSelected":false}],"metaTitle":"Creme pentru mâini - Gamă variată","metaDescription":"Vrei Creme pentru mâini? Alege dintr-o gamă variată. Comanzi simplu și ai livrare rapidă, calitate și prospețime. Hai pe Freshful.ro","metaKeywords":null,"banners":[]}}