{"type":"subcategory","payload":{"analyticsListId":"category_110302-creme-pentru-corp","analyticsListName":"Category - Creme pentru corp","name":"Creme pentru corp","slug":"110302-creme-pentru-corp","image":null,"breadcrumbs":[{"code":"11","name":"Cosmetice","slug":"11-cosmetice-si-ingrijire-personala"},{"code":"1103","name":"Demachiante și creme","slug":"1103-creme-intretinere-si-demachiante"},{"code":"110302","name":"Creme pentru corp","slug":"110302-creme-pentru-corp"}],"slots":[],"page":1,"limit":10,"pages":5,"count":50,"siblings":[{"name":"Deodorante și parfumuri","slug":"1101-deodorante-si-parfumuri","selected":false},{"name":"Bărbierit și îngrijire ten","slug":"1102-produse-pentru-barbierit-si-ingrijit-ten","selected":false},{"name":"Demachiante și creme","slug":"1103-creme-intretinere-si-demachiante","selected":true},{"name":"Protecție solară","slug":"1104-produse-cu-protectie-solara","selected":false},{"name":"Ceară, benzi și creme depilatoare","slug":"1105-ceara-benzi-si-creme-depliatoare","selected":false},{"name":"Seturi cadou","slug":"1106-seturi-cadou","selected":false},{"name":"Îngrijirea părului","slug":"1107-ingrijirea-parului","selected":false},{"name":"Igienă intimă","slug":"1108-igienta-inima","selected":false},{"name":"Igienă dentară","slug":"1109-igiena-dentara","selected":false},{"name":"Săpunuri și geluri de duș","slug":"1110-sapunuri-si-geluri-de-dus","selected":false},{"name":"Dermatocosmetice și parafarmacie","slug":"1111-dermatocosmetice-si-parafarmacie","selected":false},{"name":"Repelent","slug":"repelent","selected":false}],"children":[{"name":"Toate produsele","slug":"1103-creme-intretinere-si-demachiante","selected":false},{"name":"Creme pentru față","slug":"110301-creme-de-fata","selected":false},{"name":"Creme pentru corp","slug":"110302-creme-pentru-corp","selected":true},{"name":"Creme pentru mâini","slug":"110303-creme-pentru-maini","selected":false},{"name":"Curățare și demachiere ten","slug":"110304-curatare-ten-si-demachiere","selected":false}],"products":[{"code":"100085665","variantCode":"100085665","name":"Loțiune de corp Deep Moisture cu uleiuri hrănitoare pentru piele uscată 400ml","slug":"100085665-neutrogena-lotiune-de-corp-deep-moisture-cu-uleiuri-hranitoare-pentru-piele-uscata-400ml","unitPriceLabel":"52,48 Lei/l","brand":"Neutrogena","brandCode":"548","brandFilterCode":"neutrogena-b549","sku":"100085665","price":20.99,"originalPrice":25.5,"currencyCode":"RON","currency":"Lei","image":{"thumbnail":{"default":"https://cdn.freshful.ro/media/cache/sylius_shop_product_thumbnail/e1/f1/55b757c255ec37390b6a8c32f2e7.jpg"},"large":{"default":"https://cdn.freshful.ro/media/cache/freshful_large/e1/f1/55b757c255ec37390b6a8c32f2e7.jpg"},"extralarge":{"default":"https://cdn.freshful.ro/media/cache/sylius_shop_product_original/e1/f1/55b757c255ec37390b6a8c32f2e7.jpg"}},"label":{"text":"-17%","backgroundColor":"#FF9903","textColor":"#FFFFFF"},"tags":[],"isAvailable":true,"maxAvailableQuantity":9,"maxAllowedQuantity":100,"breadcrumbs":[{"code":"11","name":"Cosmetice","slug":"11-cosmetice-si-ingrijire-personala"},{"code":"1103","name":"Demachiante și creme","slug":"1103-creme-intretinere-si-demachiante"},{"code":"110302","name":"Creme pentru corp","slug":"110302-creme-pentru-corp"},{"code":"100085665","name":"Loțiune de corp Deep Moisture cu uleiuri hrănitoare pentru piele uscată 400ml","slug":"100085665-neutrogena-lotiune-de-corp-deep-moisture-cu-uleiuri-hranitoare-pentru-piele-uscata-400ml"}],"activePromotion":{"code":"special-cosmetice-21feb-8mar23","name":"Preț redus","targetQuantity":null},"saveMe":null,"labels":[{"type":"v1","items":[{"text":"-17%","backgroundColor":"#FF9903","textColor":"#FFFFFF"}]}],"geniusPrice":null,"geniusUnitPricePerLabel":null,"banner":{"text":"Super preț","textColor":"#FF0000","bgColor":"#FFF2EC","icon":null,"link":"https://www.freshful.ro/oferte/special-cosmetice-21feb-8mar23","type":"promo","analyticsEventType":"select_promotion","analyticsEventPayload":{"promotion_id":"special-cosmetice-21feb-8mar23","promotion_name":"Cadouri pentru sărbătoritele lunii martie"}},"discountLabel":"Economisești 17%","geniusDiscountLabel":null,"badge":null},{"code":"100085669","variantCode":"100085669","name":"Cremă pentru călcâie crăpate 50ml","slug":"100085669-neutrogena-crema-pentru-calcaie-crapate-50ml","unitPriceLabel":"419,8 Lei/l","brand":"Neutrogena","brandCode":"548","brandFilterCode":"neutrogena-b549","sku":"100085669","price":20.99,"originalPrice":25.5,"currencyCode":"RON","currency":"Lei","image":{"thumbnail":{"default":"https://cdn.freshful.ro/media/cache/sylius_shop_product_thumbnail/21/79/6cb03b7954d2d6208bc0f6c8657c.jpg"},"large":{"default":"https://cdn.freshful.ro/media/cache/freshful_large/21/79/6cb03b7954d2d6208bc0f6c8657c.jpg"},"extralarge":{"default":"https://cdn.freshful.ro/media/cache/sylius_shop_product_original/21/79/6cb03b7954d2d6208bc0f6c8657c.jpg"}},"label":{"text":"-17%","backgroundColor":"#FF9903","textColor":"#FFFFFF"},"tags":[],"isAvailable":true,"maxAvailableQuantity":15,"maxAllowedQuantity":100,"breadcrumbs":[{"code":"11","name":"Cosmetice","slug":"11-cosmetice-si-ingrijire-personala"},{"code":"1103","name":"Demachiante și creme","slug":"1103-creme-intretinere-si-demachiante"},{"code":"110302","name":"Creme pentru corp","slug":"110302-creme-pentru-corp"},{"code":"100085669","name":"Cremă pentru călcâie crăpate 50ml","slug":"100085669-neutrogena-crema-pentru-calcaie-crapate-50ml"}],"activePromotion":{"code":"special-cosmetice-21feb-8mar23","name":"Preț redus","targetQuantity":null},"saveMe":null,"labels":[{"type":"v1","items":[{"text":"-17%","backgroundColor":"#FF9903","textColor":"#FFFFFF"}]}],"geniusPrice":null,"geniusUnitPricePerLabel":null,"banner":{"text":"Super preț","textColor":"#FF0000","bgColor":"#FFF2EC","icon":null,"link":"https://www.freshful.ro/oferte/special-cosmetice-21feb-8mar23","type":"promo","analyticsEventType":"select_promotion","analyticsEventPayload":{"promotion_id":"special-cosmetice-21feb-8mar23","promotion_name":"Cadouri pentru sărbătoritele lunii martie"}},"discountLabel":"Economisești 17%","geniusDiscountLabel":null,"badge":null},{"code":"100085670","variantCode":"100085670","name":"Loțiune de corp Deep Moisture pentru piele uscată 400ml","slug":"100085670-neutrogena-lotiune-de-corp-deep-moisture-pentru-piele-uscata-400ml","unitPriceLabel":"52,48 Lei/l","brand":"Neutrogena","brandCode":"548","brandFilterCode":"neutrogena-b549","sku":"100085670","price":20.99,"originalPrice":23.9,"currencyCode":"RON","currency":"Lei","image":{"thumbnail":{"default":"https://cdn.freshful.ro/media/cache/sylius_shop_product_thumbnail/b1/e4/1c19793e2801f8fc52cd73d1abe3.jpg"},"large":{"default":"https://cdn.freshful.ro/media/cache/freshful_large/b1/e4/1c19793e2801f8fc52cd73d1abe3.jpg"},"extralarge":{"default":"https://cdn.freshful.ro/media/cache/sylius_shop_product_original/b1/e4/1c19793e2801f8fc52cd73d1abe3.jpg"}},"label":{"text":"-12%","backgroundColor":"#FF9903","textColor":"#FFFFFF"},"tags":[],"isAvailable":true,"maxAvailableQuantity":22,"maxAllowedQuantity":100,"breadcrumbs":[{"code":"11","name":"Cosmetice","slug":"11-cosmetice-si-ingrijire-personala"},{"code":"1103","name":"Demachiante și creme","slug":"1103-creme-intretinere-si-demachiante"},{"code":"110302","name":"Creme pentru corp","slug":"110302-creme-pentru-corp"},{"code":"100085670","name":"Loțiune de corp Deep Moisture pentru piele uscată 400ml","slug":"100085670-neutrogena-lotiune-de-corp-deep-moisture-pentru-piele-uscata-400ml"}],"activePromotion":{"code":"special-cosmetice-21feb-8mar23","name":"Preț redus","targetQuantity":null},"saveMe":null,"labels":[{"type":"v1","items":[{"text":"-12%","backgroundColor":"#FF9903","textColor":"#FFFFFF"}]}],"geniusPrice":null,"geniusUnitPricePerLabel":null,"banner":{"text":"Super preț","textColor":"#FF0000","bgColor":"#FFF2EC","icon":null,"link":"https://www.freshful.ro/oferte/special-cosmetice-21feb-8mar23","type":"promo","analyticsEventType":"select_promotion","analyticsEventPayload":{"promotion_id":"special-cosmetice-21feb-8mar23","promotion_name":"Cadouri pentru sărbătoritele lunii martie"}},"discountLabel":"Economisești 12%","geniusDiscountLabel":null,"badge":null},{"code":"100047463","variantCode":"8411660650771","name":"Lapte de corp pentru piele foarte uscată 400ml","slug":"100047463-lactovit-lapte-de-corp-pentru-piele-foarte-uscata-400ml","unitPriceLabel":"49,98 Lei/l","brand":"Lactovit","brandCode":"301","brandFilterCode":"lactovit-b302","sku":"100047463","price":19.99,"originalPrice":23.59,"currencyCode":"RON","currency":"Lei","image":{"thumbnail":{"default":"https://cdn.freshful.ro/media/cache/sylius_shop_product_thumbnail/6e/22/857d3b5ddaf6206b549bf4722732.jpg"},"large":{"default":"https://cdn.freshful.ro/media/cache/freshful_large/6e/22/857d3b5ddaf6206b549bf4722732.jpg"},"extralarge":{"default":"https://cdn.freshful.ro/media/cache/sylius_shop_product_original/6e/22/857d3b5ddaf6206b549bf4722732.jpg"}},"label":{"text":"-15%","backgroundColor":"#FF9903","textColor":"#FFFFFF"},"tags":[],"isAvailable":true,"maxAvailableQuantity":36,"maxAllowedQuantity":100,"breadcrumbs":[{"code":"11","name":"Cosmetice","slug":"11-cosmetice-si-ingrijire-personala"},{"code":"1103","name":"Demachiante și creme","slug":"1103-creme-intretinere-si-demachiante"},{"code":"110302","name":"Creme pentru corp","slug":"110302-creme-pentru-corp"},{"code":"100047463","name":"Lapte de corp pentru piele foarte uscată 400ml","slug":"100047463-lactovit-lapte-de-corp-pentru-piele-foarte-uscata-400ml"}],"activePromotion":{"code":"special-cosmetice-21feb-8mar23","name":"Preț redus","targetQuantity":null},"saveMe":null,"labels":[{"type":"v1","items":[{"text":"-15%","backgroundColor":"#FF9903","textColor":"#FFFFFF"}]}],"geniusPrice":null,"geniusUnitPricePerLabel":null,"banner":{"text":"Super preț","textColor":"#FF0000","bgColor":"#FFF2EC","icon":null,"link":"https://www.freshful.ro/oferte/special-cosmetice-21feb-8mar23","type":"promo","analyticsEventType":"select_promotion","analyticsEventPayload":{"promotion_id":"special-cosmetice-21feb-8mar23","promotion_name":"Cadouri pentru sărbătoritele lunii martie"}},"discountLabel":"Economisești 15%","geniusDiscountLabel":null,"badge":null},{"code":"100085642","variantCode":"100085642","name":"Loțiune de corp Deep Moisture pentru piele uscată și sensibilă 400ml","slug":"100085642-neutrogena-lotiune-de-corp-deep-moisture-pentru-piele-uscata-si-sensibila-400ml","unitPriceLabel":"52,48 Lei/l","brand":"Neutrogena","brandCode":"548","brandFilterCode":"neutrogena-b549","sku":"100085642","price":20.99,"originalPrice":23.9,"currencyCode":"RON","currency":"Lei","image":{"thumbnail":{"default":"https://cdn.freshful.ro/media/cache/sylius_shop_product_thumbnail/4d/65/6bfd137815602b9dbfcafb79bf6f.jpg"},"large":{"default":"https://cdn.freshful.ro/media/cache/freshful_large/4d/65/6bfd137815602b9dbfcafb79bf6f.jpg"},"extralarge":{"default":"https://cdn.freshful.ro/media/cache/sylius_shop_product_original/4d/65/6bfd137815602b9dbfcafb79bf6f.jpg"}},"label":{"text":"-12%","backgroundColor":"#FF9903","textColor":"#FFFFFF"},"tags":[],"isAvailable":true,"maxAvailableQuantity":15,"maxAllowedQuantity":100,"breadcrumbs":[{"code":"11","name":"Cosmetice","slug":"11-cosmetice-si-ingrijire-personala"},{"code":"1103","name":"Demachiante și creme","slug":"1103-creme-intretinere-si-demachiante"},{"code":"110302","name":"Creme pentru corp","slug":"110302-creme-pentru-corp"},{"code":"100085642","name":"Loțiune de corp Deep Moisture pentru piele uscată și sensibilă 400ml","slug":"100085642-neutrogena-lotiune-de-corp-deep-moisture-pentru-piele-uscata-si-sensibila-400ml"}],"activePromotion":{"code":"special-cosmetice-21feb-8mar23","name":"Preț redus","targetQuantity":null},"saveMe":null,"labels":[{"type":"v1","items":[{"text":"-12%","backgroundColor":"#FF9903","textColor":"#FFFFFF"}]}],"geniusPrice":null,"geniusUnitPricePerLabel":null,"banner":{"text":"Super preț","textColor":"#FF0000","bgColor":"#FFF2EC","icon":null,"link":"https://www.freshful.ro/oferte/special-cosmetice-21feb-8mar23","type":"promo","analyticsEventType":"select_promotion","analyticsEventPayload":{"promotion_id":"special-cosmetice-21feb-8mar23","promotion_name":"Cadouri pentru sărbătoritele lunii martie"}},"discountLabel":"Economisești 12%","geniusDiscountLabel":null,"badge":null},{"code":"100085655","variantCode":"100085655","name":"Spray hidratant corp Hydro Boost 200ml","slug":"100085655-neutrogena-spray-hidratant-corp-hydro-boost-200ml","unitPriceLabel":"119,95 Lei/l","brand":"Neutrogena","brandCode":"548","brandFilterCode":"neutrogena-b549","sku":"100085655","price":23.99,"originalPrice":29.5,"currencyCode":"RON","currency":"Lei","image":{"thumbnail":{"default":"https://cdn.freshful.ro/media/cache/sylius_shop_product_thumbnail/de/c7/71d0d16f8aae913f6722f8e2b309.jpg"},"large":{"default":"https://cdn.freshful.ro/media/cache/freshful_large/de/c7/71d0d16f8aae913f6722f8e2b309.jpg"},"extralarge":{"default":"https://cdn.freshful.ro/media/cache/sylius_shop_product_original/de/c7/71d0d16f8aae913f6722f8e2b309.jpg"}},"label":{"text":"-18%","backgroundColor":"#FF9903","textColor":"#FFFFFF"},"tags":[],"isAvailable":true,"maxAvailableQuantity":20,"maxAllowedQuantity":100,"breadcrumbs":[{"code":"11","name":"Cosmetice","slug":"11-cosmetice-si-ingrijire-personala"},{"code":"1103","name":"Demachiante și creme","slug":"1103-creme-intretinere-si-demachiante"},{"code":"110302","name":"Creme pentru corp","slug":"110302-creme-pentru-corp"},{"code":"100085655","name":"Spray hidratant corp Hydro Boost 200ml","slug":"100085655-neutrogena-spray-hidratant-corp-hydro-boost-200ml"}],"activePromotion":{"code":"special-cosmetice-21feb-8mar23","name":"Preț redus","targetQuantity":null},"saveMe":null,"labels":[{"type":"v1","items":[{"text":"-18%","backgroundColor":"#FF9903","textColor":"#FFFFFF"}]}],"geniusPrice":null,"geniusUnitPricePerLabel":null,"banner":{"text":"Super preț","textColor":"#FF0000","bgColor":"#FFF2EC","icon":null,"link":"https://www.freshful.ro/oferte/special-cosmetice-21feb-8mar23","type":"promo","analyticsEventType":"select_promotion","analyticsEventPayload":{"promotion_id":"special-cosmetice-21feb-8mar23","promotion_name":"Cadouri pentru sărbătoritele lunii martie"}},"discountLabel":"Economisești 18%","geniusDiscountLabel":null,"badge":null},{"code":"100085657","variantCode":"100085657","name":"Cremă-gel de corp Hydro Boost 250ml","slug":"100085657-neutrogena-crema-gel-de-corp-hydro-boost-250ml","unitPriceLabel":"95,96 Lei/l","brand":"Neutrogena","brandCode":"548","brandFilterCode":"neutrogena-b549","sku":"100085657","price":23.99,"originalPrice":29.5,"currencyCode":"RON","currency":"Lei","image":{"thumbnail":{"default":"https://cdn.freshful.ro/media/cache/sylius_shop_product_thumbnail/9a/a8/e69c8c9b932e5ff682858ea2363e.jpg"},"large":{"default":"https://cdn.freshful.ro/media/cache/freshful_large/9a/a8/e69c8c9b932e5ff682858ea2363e.jpg"},"extralarge":{"default":"https://cdn.freshful.ro/media/cache/sylius_shop_product_original/9a/a8/e69c8c9b932e5ff682858ea2363e.jpg"}},"label":{"text":"-18%","backgroundColor":"#FF9903","textColor":"#FFFFFF"},"tags":[],"isAvailable":true,"maxAvailableQuantity":12,"maxAllowedQuantity":100,"breadcrumbs":[{"code":"11","name":"Cosmetice","slug":"11-cosmetice-si-ingrijire-personala"},{"code":"1103","name":"Demachiante și creme","slug":"1103-creme-intretinere-si-demachiante"},{"code":"110302","name":"Creme pentru corp","slug":"110302-creme-pentru-corp"},{"code":"100085657","name":"Cremă-gel de corp Hydro Boost 250ml","slug":"100085657-neutrogena-crema-gel-de-corp-hydro-boost-250ml"}],"activePromotion":{"code":"special-cosmetice-21feb-8mar23","name":"Preț redus","targetQuantity":null},"saveMe":null,"labels":[{"type":"v1","items":[{"text":"-18%","backgroundColor":"#FF9903","textColor":"#FFFFFF"}]}],"geniusPrice":null,"geniusUnitPricePerLabel":null,"banner":{"text":"Super preț","textColor":"#FF0000","bgColor":"#FFF2EC","icon":null,"link":"https://www.freshful.ro/oferte/special-cosmetice-21feb-8mar23","type":"promo","analyticsEventType":"select_promotion","analyticsEventPayload":{"promotion_id":"special-cosmetice-21feb-8mar23","promotion_name":"Cadouri pentru sărbătoritele lunii martie"}},"discountLabel":"Economisești 18%","geniusDiscountLabel":null,"badge":null},{"code":"100047465","variantCode":"8411135354807","name":"Lapte de corp pentru piele uscată 400ml","slug":"100047465-lactovit-lapte-de-corp-pentru-piele-uscata-400ml","unitPriceLabel":"47,48 Lei/l","brand":"Lactovit","brandCode":"301","brandFilterCode":"lactovit-b302","sku":"100047465","price":18.99,"originalPrice":20.99,"currencyCode":"RON","currency":"Lei","image":{"thumbnail":{"default":"https://cdn.freshful.ro/media/cache/sylius_shop_product_thumbnail/d2/2b/2f1876dcda443e4d033d93e2dd2c.jpg"},"large":{"default":"https://cdn.freshful.ro/media/cache/freshful_large/d2/2b/2f1876dcda443e4d033d93e2dd2c.jpg"},"extralarge":{"default":"https://cdn.freshful.ro/media/cache/sylius_shop_product_original/d2/2b/2f1876dcda443e4d033d93e2dd2c.jpg"}},"label":{"text":"-9%","backgroundColor":"#FF9903","textColor":"#FFFFFF"},"tags":[],"isAvailable":true,"maxAvailableQuantity":18,"maxAllowedQuantity":100,"breadcrumbs":[{"code":"11","name":"Cosmetice","slug":"11-cosmetice-si-ingrijire-personala"},{"code":"1103","name":"Demachiante și creme","slug":"1103-creme-intretinere-si-demachiante"},{"code":"110302","name":"Creme pentru corp","slug":"110302-creme-pentru-corp"},{"code":"100047465","name":"Lapte de corp pentru piele uscată 400ml","slug":"100047465-lactovit-lapte-de-corp-pentru-piele-uscata-400ml"}],"activePromotion":{"code":"special-cosmetice-21feb-8mar23","name":"Preț redus","targetQuantity":null},"saveMe":null,"labels":[{"type":"v1","items":[{"text":"-9%","backgroundColor":"#FF9903","textColor":"#FFFFFF"}]}],"geniusPrice":null,"geniusUnitPricePerLabel":null,"banner":{"text":"Super preț","textColor":"#FF0000","bgColor":"#FFF2EC","icon":null,"link":"https://www.freshful.ro/oferte/special-cosmetice-21feb-8mar23","type":"promo","analyticsEventType":"select_promotion","analyticsEventPayload":{"promotion_id":"special-cosmetice-21feb-8mar23","promotion_name":"Cadouri pentru sărbătoritele lunii martie"}},"discountLabel":"Economisești 9%","geniusDiscountLabel":null,"badge":null},{"code":"100085643","variantCode":"100085643","name":"Loțiune de corp Intense Repair 250ml","slug":"100085643-neutrogena-lotiune-de-corp-intense-repair-250ml","unitPriceLabel":"83,96 Lei/l","brand":"Neutrogena","brandCode":"548","brandFilterCode":"neutrogena-b549","sku":"100085643","price":20.99,"originalPrice":25.5,"currencyCode":"RON","currency":"Lei","image":{"thumbnail":{"default":"https://cdn.freshful.ro/media/cache/sylius_shop_product_thumbnail/d8/c9/c059f062c73d8a0ddffd0e8c6cfc.jpg"},"large":{"default":"https://cdn.freshful.ro/media/cache/freshful_large/d8/c9/c059f062c73d8a0ddffd0e8c6cfc.jpg"},"extralarge":{"default":"https://cdn.freshful.ro/media/cache/sylius_shop_product_original/d8/c9/c059f062c73d8a0ddffd0e8c6cfc.jpg"}},"label":{"text":"-17%","backgroundColor":"#FF9903","textColor":"#FFFFFF"},"tags":[],"isAvailable":true,"maxAvailableQuantity":30,"maxAllowedQuantity":100,"breadcrumbs":[{"code":"11","name":"Cosmetice","slug":"11-cosmetice-si-ingrijire-personala"},{"code":"1103","name":"Demachiante și creme","slug":"1103-creme-intretinere-si-demachiante"},{"code":"110302","name":"Creme pentru corp","slug":"110302-creme-pentru-corp"},{"code":"100085643","name":"Loțiune de corp Intense Repair 250ml","slug":"100085643-neutrogena-lotiune-de-corp-intense-repair-250ml"}],"activePromotion":{"code":"special-cosmetice-21feb-8mar23","name":"Preț redus","targetQuantity":null},"saveMe":null,"labels":[{"type":"v1","items":[{"text":"-17%","backgroundColor":"#FF9903","textColor":"#FFFFFF"}]}],"geniusPrice":null,"geniusUnitPricePerLabel":null,"banner":{"text":"Super preț","textColor":"#FF0000","bgColor":"#FFF2EC","icon":null,"link":"https://www.freshful.ro/oferte/special-cosmetice-21feb-8mar23","type":"promo","analyticsEventType":"select_promotion","analyticsEventPayload":{"promotion_id":"special-cosmetice-21feb-8mar23","promotion_name":"Cadouri pentru sărbătoritele lunii martie"}},"discountLabel":"Economisești 17%","geniusDiscountLabel":null,"badge":null},{"code":"100085666","variantCode":"100085666","name":"Cremă pentru picioare cu absorbție rapidă 100ml","slug":"100085666-neutrogena-crema-pentru-picioare-cu-absorbtie-rapida-100ml","unitPriceLabel":"209,9 Lei/l","brand":"Neutrogena","brandCode":"548","brandFilterCode":"neutrogena-b549","sku":"100085666","price":20.99,"originalPrice":25.5,"currencyCode":"RON","currency":"Lei","image":{"thumbnail":{"default":"https://cdn.freshful.ro/media/cache/sylius_shop_product_thumbnail/c0/93/e167ca12bd402fa9ac3024abca8c.jpg"},"large":{"default":"https://cdn.freshful.ro/media/cache/freshful_large/c0/93/e167ca12bd402fa9ac3024abca8c.jpg"},"extralarge":{"default":"https://cdn.freshful.ro/media/cache/sylius_shop_product_original/c0/93/e167ca12bd402fa9ac3024abca8c.jpg"}},"label":{"text":"-17%","backgroundColor":"#FF9903","textColor":"#FFFFFF"},"tags":[],"isAvailable":true,"maxAvailableQuantity":14,"maxAllowedQuantity":100,"breadcrumbs":[{"code":"11","name":"Cosmetice","slug":"11-cosmetice-si-ingrijire-personala"},{"code":"1103","name":"Demachiante și creme","slug":"1103-creme-intretinere-si-demachiante"},{"code":"110302","name":"Creme pentru corp","slug":"110302-creme-pentru-corp"},{"code":"100085666","name":"Cremă pentru picioare cu absorbție rapidă 100ml","slug":"100085666-neutrogena-crema-pentru-picioare-cu-absorbtie-rapida-100ml"}],"activePromotion":{"code":"special-cosmetice-21feb-8mar23","name":"Preț redus","targetQuantity":null},"saveMe":null,"labels":[{"type":"v1","items":[{"text":"-17%","backgroundColor":"#FF9903","textColor":"#FFFFFF"}]}],"geniusPrice":null,"geniusUnitPricePerLabel":null,"banner":{"text":"Super preț","textColor":"#FF0000","bgColor":"#FFF2EC","icon":null,"link":"https://www.freshful.ro/oferte/special-cosmetice-21feb-8mar23","type":"promo","analyticsEventType":"select_promotion","analyticsEventPayload":{"promotion_id":"special-cosmetice-21feb-8mar23","promotion_name":"Cadouri pentru sărbătoritele lunii martie"}},"discountLabel":"Economisești 17%","geniusDiscountLabel":null,"badge":null}],"filters":{"countSelected":0,"items":[{"code":"promotion","name":"Promoții","countSelected":0,"values":[{"code":"special-cosmetice-21feb-8mar23","name":"Cadouri pentru sărbătoritele lunii martie","isSelected":false,"count":13}]},{"code":"brand","name":"Brand","countSelected":0,"values":[{"code":"alevia-b128","name":"Alevia","isSelected":false,"count":3},{"code":"apidava-cosmetic-line-b1871","name":"Apidava Cosmetic Line","isSelected":false,"count":1},{"code":"biopha-b1420","name":"Biopha","isSelected":false,"count":1},{"code":"elmiplant-b551","name":"Elmiplant","isSelected":false,"count":13},{"code":"essere-b1365","name":"Essere","isSelected":false,"count":1},{"code":"lactovit-b302","name":"Lactovit","isSelected":false,"count":3},{"code":"le-petit-olivier-b1746","name":"Le Petit Olivier","isSelected":false,"count":9},{"code":"nacomi-b1618","name":"Nacomi","isSelected":false,"count":1},{"code":"neutrogena-b549","name":"Neutrogena","isSelected":false,"count":10},{"code":"nivea-b317","name":"Nivea","isSelected":false,"count":1},{"code":"rituals-b2992","name":"Rituals","isSelected":false,"count":2},{"code":"titania-b2228","name":"Titania","isSelected":false,"count":5}]},{"code":"diet_lifestyle","name":"Dietă și lifestyle","countSelected":0,"values":[{"code":"bio-a26","name":"Bio","isSelected":false,"count":2},{"code":"natural-a27","name":"Natural","isSelected":false,"count":1},{"code":"vegan-a24","name":"Vegan","isSelected":false,"count":6}]}]},"orderBy":[{"field":"price","direction":"asc","name":"Preț crescător","isSelected":false},{"field":"price","direction":"desc","name":"Preț descrescător","isSelected":false},{"field":"popularity","direction":"desc","name":"Cele mai populare","isSelected":true},{"field":"category","direction":"asc","name":"Categorie","isSelected":false}],"metaTitle":"Creme pentru corp - Gamă variată","metaDescription":"Vrei Creme pentru corp? Alege dintr-o gamă variată. Comanzi simplu și ai livrare rapidă, calitate și prospețime. Hai pe Freshful.ro","metaKeywords":null,"banners":[]}}