{"type":"subcategory","payload":{"analyticsListId":"category_1103-creme-intretinere-si-demachiante","analyticsListName":"Category - Demachiante și creme","name":"Demachiante și creme","slug":"1103-creme-intretinere-si-demachiante","image":null,"breadcrumbs":[{"code":"11","name":"Cosmetice","slug":"11-cosmetice-si-ingrijire-personala"},{"code":"1103","name":"Demachiante și creme","slug":"1103-creme-intretinere-si-demachiante"}],"slots":[],"page":1,"limit":10,"pages":29,"count":289,"siblings":[{"name":"Deodorante și parfumuri","slug":"1101-deodorante-si-parfumuri","selected":false},{"name":"Bărbierit și îngrijire ten","slug":"1102-produse-pentru-barbierit-si-ingrijit-ten","selected":false},{"name":"Demachiante și creme","slug":"1103-creme-intretinere-si-demachiante","selected":true},{"name":"Protecție solară","slug":"1104-produse-cu-protectie-solara","selected":false},{"name":"Ceară, benzi și creme depilatoare","slug":"1105-ceara-benzi-si-creme-depliatoare","selected":false},{"name":"Seturi cadou","slug":"1106-seturi-cadou","selected":false},{"name":"Îngrijirea părului","slug":"1107-ingrijirea-parului","selected":false},{"name":"Igienă intimă","slug":"1108-igienta-inima","selected":false},{"name":"Igienă dentară","slug":"1109-igiena-dentara","selected":false},{"name":"Săpunuri și geluri de duș","slug":"1110-sapunuri-si-geluri-de-dus","selected":false},{"name":"Dermatocosmetice și parafarmacie","slug":"1111-dermatocosmetice-si-parafarmacie","selected":false},{"name":"Repelent","slug":"repelent","selected":false}],"children":[{"name":"Toate produsele","slug":"1103-creme-intretinere-si-demachiante","selected":true},{"name":"Creme pentru față","slug":"110301-creme-de-fata","selected":false},{"name":"Creme pentru corp","slug":"110302-creme-pentru-corp","selected":false},{"name":"Creme pentru mâini","slug":"110303-creme-pentru-maini","selected":false},{"name":"Curățare și demachiere ten","slug":"110304-curatare-ten-si-demachiere","selected":false}],"products":[{"code":"100148326","variantCode":"100148326","name":"Balsam pentru buze crăpate și uscate 4.8g","slug":"100148326-neutrogena-balsam-pentru-buze-crapate-si-uscate-4-8g","unitPriceLabel":"10,99 Lei/buc","brand":"Neutrogena","brandCode":"548","brandFilterCode":"neutrogena-b549","sku":"100148326","price":10.99,"originalPrice":12.91,"currencyCode":"RON","currency":"Lei","image":{"thumbnail":{"default":"https://cdn.freshful.ro/media/cache/sylius_shop_product_thumbnail/13/ce/d7491b87a2c8c8b8ff4116fecfc1.jpg"},"large":{"default":"https://cdn.freshful.ro/media/cache/freshful_large/13/ce/d7491b87a2c8c8b8ff4116fecfc1.jpg"},"extralarge":{"default":"https://cdn.freshful.ro/media/cache/sylius_shop_product_original/13/ce/d7491b87a2c8c8b8ff4116fecfc1.jpg"}},"label":{"text":"-14%","backgroundColor":"#FF9903","textColor":"#FFFFFF"},"tags":[],"isAvailable":true,"maxAvailableQuantity":22,"maxAllowedQuantity":100,"breadcrumbs":[{"code":"11","name":"Cosmetice","slug":"11-cosmetice-si-ingrijire-personala"},{"code":"1103","name":"Demachiante și creme","slug":"1103-creme-intretinere-si-demachiante"},{"code":"110301","name":"Creme pentru față","slug":"110301-creme-de-fata"},{"code":"100148326","name":"Balsam pentru buze crăpate și uscate 4.8g","slug":"100148326-neutrogena-balsam-pentru-buze-crapate-si-uscate-4-8g"}],"activePromotion":{"code":"oferte-dph-21feb-8mar23","name":"Preț redus","targetQuantity":null},"saveMe":null,"labels":[{"type":"v1","items":[{"text":"-14%","backgroundColor":"#FF9903","textColor":"#FFFFFF"}]}],"geniusPrice":null,"geniusUnitPricePerLabel":null,"banner":{"text":"Super preț","textColor":"#FF0000","bgColor":"#FFF2EC","icon":null,"link":"https://www.freshful.ro/oferte/oferte-dph-21feb-8mar23","type":"promo","analyticsEventType":"select_promotion","analyticsEventPayload":{"promotion_id":"oferte-dph-21feb-8mar23","promotion_name":"Curățenie și îngrijire personală"}},"discountLabel":"Economisești 14%","geniusDiscountLabel":null,"badge":null},{"code":"100086143","variantCode":"100086143","name":"Mască Vitamin C 20ml","slug":"100086143-elmiplant-masca-vitamin-c-20ml","unitPriceLabel":"343 Lei/l","brand":"Elmiplant","brandCode":"550","brandFilterCode":"elmiplant-b551","sku":"100086143","price":6.86,"originalPrice":null,"currencyCode":"RON","currency":"Lei","image":{"thumbnail":{"default":"https://cdn.freshful.ro/media/cache/sylius_shop_product_thumbnail/6d/5a/3fbfdd62a13032931131b90d7cc3.jpg"},"large":{"default":"https://cdn.freshful.ro/media/cache/freshful_large/6d/5a/3fbfdd62a13032931131b90d7cc3.jpg"},"extralarge":{"default":"https://cdn.freshful.ro/media/cache/sylius_shop_product_original/6d/5a/3fbfdd62a13032931131b90d7cc3.jpg"}},"label":{"text":"Profită acum","backgroundColor":"#FF9903","textColor":"#FFFFFF"},"tags":[],"isAvailable":true,"maxAvailableQuantity":100,"maxAllowedQuantity":100,"breadcrumbs":[{"code":"11","name":"Cosmetice","slug":"11-cosmetice-si-ingrijire-personala"},{"code":"1103","name":"Demachiante și creme","slug":"1103-creme-intretinere-si-demachiante"},{"code":"110304","name":"Curățare și demachiere ten","slug":"110304-curatare-ten-si-demachiere"},{"code":"100086143","name":"Mască Vitamin C 20ml","slug":"100086143-elmiplant-masca-vitamin-c-20ml"}],"activePromotion":{"code":"freshful-top-deals-2023","name":"Preț avantajos","targetQuantity":null},"saveMe":null,"labels":[{"type":"v1","items":[{"text":"Profită acum","backgroundColor":"#FF9903","textColor":"#FFFFFF"}]}],"geniusPrice":null,"geniusUnitPricePerLabel":null,"banner":{"text":"Preț avantajos","textColor":"#F95510","bgColor":"#FEF1CD","icon":null,"link":"https://www.freshful.ro/oferte/freshful-top-deals-2023","type":"promo","analyticsEventType":"select_promotion","analyticsEventPayload":{"promotion_id":"freshful-top-deals-2023","promotion_name":"Profită de Top Deals"}},"discountLabel":null,"geniusDiscountLabel":null,"badge":null},{"code":"100148048","variantCode":"100148048","name":"Mască Hyaluronic Gold Hidrogel pentru ochi","slug":"100148048-elmiplant-masca-hyaluronic-gold-hidrogel-pentru-ochi","unitPriceLabel":"1.247,27 Lei/kg","brand":"Elmiplant","brandCode":"550","brandFilterCode":"elmiplant-b551","sku":"100148048","price":6.86,"originalPrice":null,"currencyCode":"RON","currency":"Lei","image":{"thumbnail":{"default":"https://cdn.freshful.ro/media/cache/sylius_shop_product_thumbnail/d1/09/5559d7f7715fbd648b83f2864962.jpg"},"large":{"default":"https://cdn.freshful.ro/media/cache/freshful_large/d1/09/5559d7f7715fbd648b83f2864962.jpg"},"extralarge":{"default":"https://cdn.freshful.ro/media/cache/sylius_shop_product_original/d1/09/5559d7f7715fbd648b83f2864962.jpg"}},"label":{"text":"Profită acum","backgroundColor":"#FF9903","textColor":"#FFFFFF"},"tags":[],"isAvailable":true,"maxAvailableQuantity":19,"maxAllowedQuantity":100,"breadcrumbs":[{"code":"11","name":"Cosmetice","slug":"11-cosmetice-si-ingrijire-personala"},{"code":"1103","name":"Demachiante și creme","slug":"1103-creme-intretinere-si-demachiante"},{"code":"110304","name":"Curățare și demachiere ten","slug":"110304-curatare-ten-si-demachiere"},{"code":"100148048","name":"Mască Hyaluronic Gold Hidrogel pentru ochi","slug":"100148048-elmiplant-masca-hyaluronic-gold-hidrogel-pentru-ochi"}],"activePromotion":{"code":"freshful-top-deals-2023","name":"Preț avantajos","targetQuantity":null},"saveMe":null,"labels":[{"type":"v1","items":[{"text":"Profită acum","backgroundColor":"#FF9903","textColor":"#FFFFFF"}]}],"geniusPrice":null,"geniusUnitPricePerLabel":null,"banner":{"text":"Preț avantajos","textColor":"#F95510","bgColor":"#FEF1CD","icon":null,"link":"https://www.freshful.ro/oferte/freshful-top-deals-2023","type":"promo","analyticsEventType":"select_promotion","analyticsEventPayload":{"promotion_id":"freshful-top-deals-2023","promotion_name":"Profită de Top Deals"}},"discountLabel":null,"geniusDiscountLabel":null,"badge":null},{"code":"100086132","variantCode":"100086132","name":"Șervețele demachiante pentru piele uscată/sensibilă 25 buc","slug":"100086132-elmiplant-servetele-demachiante-pentru-piele-uscata-sensibila-25-buc","unitPriceLabel":"","brand":"Elmiplant","brandCode":"550","brandFilterCode":"elmiplant-b551","sku":"100086132","price":12.1,"originalPrice":null,"currencyCode":"RON","currency":"Lei","image":{"thumbnail":{"default":"https://cdn.freshful.ro/media/cache/sylius_shop_product_thumbnail/05/92/6a49beac33ac6b889b3854bd6825.jpg"},"large":{"default":"https://cdn.freshful.ro/media/cache/freshful_large/05/92/6a49beac33ac6b889b3854bd6825.jpg"},"extralarge":{"default":"https://cdn.freshful.ro/media/cache/sylius_shop_product_original/05/92/6a49beac33ac6b889b3854bd6825.jpg"}},"label":{"text":"Profită acum","backgroundColor":"#FF9903","textColor":"#FFFFFF"},"tags":[{"type":"vegan","text":"Vegan","icon":"https://cdn.freshful.ro/assets/product_tags/vegan.svg","iconPng":"https://cdn.freshful.ro/assets/product_tags/vegan.png","backgroundColor":"#ECF9F8","textColor":"#33A39C"}],"isAvailable":true,"maxAvailableQuantity":87,"maxAllowedQuantity":100,"breadcrumbs":[{"code":"11","name":"Cosmetice","slug":"11-cosmetice-si-ingrijire-personala"},{"code":"1103","name":"Demachiante și creme","slug":"1103-creme-intretinere-si-demachiante"},{"code":"110304","name":"Curățare și demachiere ten","slug":"110304-curatare-ten-si-demachiere"},{"code":"100086132","name":"Șervețele demachiante pentru piele uscată/sensibilă 25 buc","slug":"100086132-elmiplant-servetele-demachiante-pentru-piele-uscata-sensibila-25-buc"}],"activePromotion":{"code":"freshful-top-deals-2023","name":"Preț avantajos","targetQuantity":null},"saveMe":null,"labels":[{"type":"v1","items":[{"text":"Profită acum","backgroundColor":"#FF9903","textColor":"#FFFFFF"}]}],"geniusPrice":null,"geniusUnitPricePerLabel":null,"banner":{"text":"Preț avantajos","textColor":"#F95510","bgColor":"#FEF1CD","icon":null,"link":"https://www.freshful.ro/oferte/freshful-top-deals-2023","type":"promo","analyticsEventType":"select_promotion","analyticsEventPayload":{"promotion_id":"freshful-top-deals-2023","promotion_name":"Profită de Top Deals"}},"discountLabel":null,"geniusDiscountLabel":null,"badge":null},{"code":"100085667","variantCode":"100085667","name":"Cremă de mâini Visibly Renew, SPF 20, 75ml","slug":"100085667-neutrogena-crema-de-maini-visibly-renew-spf-20-75ml","unitPriceLabel":"213,2 Lei/l","brand":"Neutrogena","brandCode":"548","brandFilterCode":"neutrogena-b549","sku":"100085667","price":15.99,"originalPrice":18.5,"currencyCode":"RON","currency":"Lei","image":{"thumbnail":{"default":"https://cdn.freshful.ro/media/cache/sylius_shop_product_thumbnail/c6/d6/bed8bc7df192c450be6dcc37e8e5.jpg"},"large":{"default":"https://cdn.freshful.ro/media/cache/freshful_large/c6/d6/bed8bc7df192c450be6dcc37e8e5.jpg"},"extralarge":{"default":"https://cdn.freshful.ro/media/cache/sylius_shop_product_original/c6/d6/bed8bc7df192c450be6dcc37e8e5.jpg"}},"label":{"text":"-13%","backgroundColor":"#FF9903","textColor":"#FFFFFF"},"tags":[],"isAvailable":true,"maxAvailableQuantity":15,"maxAllowedQuantity":100,"breadcrumbs":[{"code":"11","name":"Cosmetice","slug":"11-cosmetice-si-ingrijire-personala"},{"code":"1103","name":"Demachiante și creme","slug":"1103-creme-intretinere-si-demachiante"},{"code":"110303","name":"Creme pentru mâini","slug":"110303-creme-pentru-maini"},{"code":"100085667","name":"Cremă de mâini Visibly Renew, SPF 20, 75ml","slug":"100085667-neutrogena-crema-de-maini-visibly-renew-spf-20-75ml"}],"activePromotion":{"code":"special-cosmetice-21feb-8mar23","name":"Preț redus","targetQuantity":null},"saveMe":null,"labels":[{"type":"v1","items":[{"text":"-13%","backgroundColor":"#FF9903","textColor":"#FFFFFF"}]}],"geniusPrice":null,"geniusUnitPricePerLabel":null,"banner":{"text":"Super preț","textColor":"#FF0000","bgColor":"#FFF2EC","icon":null,"link":"https://www.freshful.ro/oferte/special-cosmetice-21feb-8mar23","type":"promo","analyticsEventType":"select_promotion","analyticsEventPayload":{"promotion_id":"special-cosmetice-21feb-8mar23","promotion_name":"Cadouri pentru sărbătoritele lunii martie"}},"discountLabel":"Economisești 13%","geniusDiscountLabel":null,"badge":null},{"code":"100086133","variantCode":"100086133","name":"Șervețele demachiante Skin Moisture pentru ten uscat/sensibil 25 buc","slug":"100086133-elmiplant-servetele-demachiante-skin-moisture-pentru-ten-uscat-sensibil-25-buc","unitPriceLabel":"","brand":"Elmiplant","brandCode":"550","brandFilterCode":"elmiplant-b551","sku":"100086133","price":11.85,"originalPrice":null,"currencyCode":"RON","currency":"Lei","image":{"thumbnail":{"default":"https://cdn.freshful.ro/media/cache/sylius_shop_product_thumbnail/1b/56/9d68f92897880f9615e3eb0738aa.jpg"},"large":{"default":"https://cdn.freshful.ro/media/cache/freshful_large/1b/56/9d68f92897880f9615e3eb0738aa.jpg"},"extralarge":{"default":"https://cdn.freshful.ro/media/cache/sylius_shop_product_original/1b/56/9d68f92897880f9615e3eb0738aa.jpg"}},"label":{"text":"Profită acum","backgroundColor":"#FF9903","textColor":"#FFFFFF"},"tags":[{"type":"vegan","text":"Vegan","icon":"https://cdn.freshful.ro/assets/product_tags/vegan.svg","iconPng":"https://cdn.freshful.ro/assets/product_tags/vegan.png","backgroundColor":"#ECF9F8","textColor":"#33A39C"}],"isAvailable":true,"maxAvailableQuantity":100,"maxAllowedQuantity":100,"breadcrumbs":[{"code":"11","name":"Cosmetice","slug":"11-cosmetice-si-ingrijire-personala"},{"code":"1103","name":"Demachiante și creme","slug":"1103-creme-intretinere-si-demachiante"},{"code":"110304","name":"Curățare și demachiere ten","slug":"110304-curatare-ten-si-demachiere"},{"code":"100086133","name":"Șervețele demachiante Skin Moisture pentru ten uscat/sensibil 25 buc","slug":"100086133-elmiplant-servetele-demachiante-skin-moisture-pentru-ten-uscat-sensibil-25-buc"}],"activePromotion":{"code":"freshful-top-deals-2023","name":"Preț avantajos","targetQuantity":null},"saveMe":null,"labels":[{"type":"v1","items":[{"text":"Profită acum","backgroundColor":"#FF9903","textColor":"#FFFFFF"}]}],"geniusPrice":null,"geniusUnitPricePerLabel":null,"banner":{"text":"Preț avantajos","textColor":"#F95510","bgColor":"#FEF1CD","icon":null,"link":"https://www.freshful.ro/oferte/freshful-top-deals-2023","type":"promo","analyticsEventType":"select_promotion","analyticsEventPayload":{"promotion_id":"freshful-top-deals-2023","promotion_name":"Profită de Top Deals"}},"discountLabel":null,"geniusDiscountLabel":null,"badge":null},{"code":"100085665","variantCode":"100085665","name":"Loțiune de corp Deep Moisture cu uleiuri hrănitoare pentru piele uscată 400ml","slug":"100085665-neutrogena-lotiune-de-corp-deep-moisture-cu-uleiuri-hranitoare-pentru-piele-uscata-400ml","unitPriceLabel":"52,48 Lei/l","brand":"Neutrogena","brandCode":"548","brandFilterCode":"neutrogena-b549","sku":"100085665","price":20.99,"originalPrice":25.5,"currencyCode":"RON","currency":"Lei","image":{"thumbnail":{"default":"https://cdn.freshful.ro/media/cache/sylius_shop_product_thumbnail/e1/f1/55b757c255ec37390b6a8c32f2e7.jpg"},"large":{"default":"https://cdn.freshful.ro/media/cache/freshful_large/e1/f1/55b757c255ec37390b6a8c32f2e7.jpg"},"extralarge":{"default":"https://cdn.freshful.ro/media/cache/sylius_shop_product_original/e1/f1/55b757c255ec37390b6a8c32f2e7.jpg"}},"label":{"text":"-17%","backgroundColor":"#FF9903","textColor":"#FFFFFF"},"tags":[],"isAvailable":true,"maxAvailableQuantity":9,"maxAllowedQuantity":100,"breadcrumbs":[{"code":"11","name":"Cosmetice","slug":"11-cosmetice-si-ingrijire-personala"},{"code":"1103","name":"Demachiante și creme","slug":"1103-creme-intretinere-si-demachiante"},{"code":"110302","name":"Creme pentru corp","slug":"110302-creme-pentru-corp"},{"code":"100085665","name":"Loțiune de corp Deep Moisture cu uleiuri hrănitoare pentru piele uscată 400ml","slug":"100085665-neutrogena-lotiune-de-corp-deep-moisture-cu-uleiuri-hranitoare-pentru-piele-uscata-400ml"}],"activePromotion":{"code":"special-cosmetice-21feb-8mar23","name":"Preț redus","targetQuantity":null},"saveMe":null,"labels":[{"type":"v1","items":[{"text":"-17%","backgroundColor":"#FF9903","textColor":"#FFFFFF"}]}],"geniusPrice":null,"geniusUnitPricePerLabel":null,"banner":{"text":"Super preț","textColor":"#FF0000","bgColor":"#FFF2EC","icon":null,"link":"https://www.freshful.ro/oferte/special-cosmetice-21feb-8mar23","type":"promo","analyticsEventType":"select_promotion","analyticsEventPayload":{"promotion_id":"special-cosmetice-21feb-8mar23","promotion_name":"Cadouri pentru sărbătoritele lunii martie"}},"discountLabel":"Economisești 17%","geniusDiscountLabel":null,"badge":null},{"code":"100086112","variantCode":"100086112","name":"Cremă de zi Hyaluronic Gold 50ml","slug":"100086112-elmiplant-crema-de-zi-hyaluronic-gold-50ml","unitPriceLabel":"439,8 Lei/l","brand":"Elmiplant","brandCode":"550","brandFilterCode":"elmiplant-b551","sku":"100086112","price":21.99,"originalPrice":24.99,"currencyCode":"RON","currency":"Lei","image":{"thumbnail":{"default":"https://cdn.freshful.ro/media/cache/sylius_shop_product_thumbnail/6e/74/063c02572efa5d2f6226e03a27f5.jpg"},"large":{"default":"https://cdn.freshful.ro/media/cache/freshful_large/6e/74/063c02572efa5d2f6226e03a27f5.jpg"},"extralarge":{"default":"https://cdn.freshful.ro/media/cache/sylius_shop_product_original/6e/74/063c02572efa5d2f6226e03a27f5.jpg"}},"label":{"text":"-12%","backgroundColor":"#FF9903","textColor":"#FFFFFF"},"tags":[],"isAvailable":true,"maxAvailableQuantity":73,"maxAllowedQuantity":100,"breadcrumbs":[{"code":"11","name":"Cosmetice","slug":"11-cosmetice-si-ingrijire-personala"},{"code":"1103","name":"Demachiante și creme","slug":"1103-creme-intretinere-si-demachiante"},{"code":"110301","name":"Creme pentru față","slug":"110301-creme-de-fata"},{"code":"100086112","name":"Cremă de zi Hyaluronic Gold 50ml","slug":"100086112-elmiplant-crema-de-zi-hyaluronic-gold-50ml"}],"activePromotion":{"code":"special-cosmetice-21feb-8mar23","name":"Preț redus","targetQuantity":null},"saveMe":null,"labels":[{"type":"v1","items":[{"text":"-12%","backgroundColor":"#FF9903","textColor":"#FFFFFF"}]}],"geniusPrice":null,"geniusUnitPricePerLabel":null,"banner":{"text":"Super preț","textColor":"#FF0000","bgColor":"#FFF2EC","icon":null,"link":"https://www.freshful.ro/oferte/special-cosmetice-21feb-8mar23","type":"promo","analyticsEventType":"select_promotion","analyticsEventPayload":{"promotion_id":"special-cosmetice-21feb-8mar23","promotion_name":"Cadouri pentru sărbătoritele lunii martie"}},"discountLabel":"Economisești 12%","geniusDiscountLabel":null,"badge":null},{"code":"100085669","variantCode":"100085669","name":"Cremă pentru călcâie crăpate 50ml","slug":"100085669-neutrogena-crema-pentru-calcaie-crapate-50ml","unitPriceLabel":"419,8 Lei/l","brand":"Neutrogena","brandCode":"548","brandFilterCode":"neutrogena-b549","sku":"100085669","price":20.99,"originalPrice":25.5,"currencyCode":"RON","currency":"Lei","image":{"thumbnail":{"default":"https://cdn.freshful.ro/media/cache/sylius_shop_product_thumbnail/21/79/6cb03b7954d2d6208bc0f6c8657c.jpg"},"large":{"default":"https://cdn.freshful.ro/media/cache/freshful_large/21/79/6cb03b7954d2d6208bc0f6c8657c.jpg"},"extralarge":{"default":"https://cdn.freshful.ro/media/cache/sylius_shop_product_original/21/79/6cb03b7954d2d6208bc0f6c8657c.jpg"}},"label":{"text":"-17%","backgroundColor":"#FF9903","textColor":"#FFFFFF"},"tags":[],"isAvailable":true,"maxAvailableQuantity":15,"maxAllowedQuantity":100,"breadcrumbs":[{"code":"11","name":"Cosmetice","slug":"11-cosmetice-si-ingrijire-personala"},{"code":"1103","name":"Demachiante și creme","slug":"1103-creme-intretinere-si-demachiante"},{"code":"110302","name":"Creme pentru corp","slug":"110302-creme-pentru-corp"},{"code":"100085669","name":"Cremă pentru călcâie crăpate 50ml","slug":"100085669-neutrogena-crema-pentru-calcaie-crapate-50ml"}],"activePromotion":{"code":"special-cosmetice-21feb-8mar23","name":"Preț redus","targetQuantity":null},"saveMe":null,"labels":[{"type":"v1","items":[{"text":"-17%","backgroundColor":"#FF9903","textColor":"#FFFFFF"}]}],"geniusPrice":null,"geniusUnitPricePerLabel":null,"banner":{"text":"Super preț","textColor":"#FF0000","bgColor":"#FFF2EC","icon":null,"link":"https://www.freshful.ro/oferte/special-cosmetice-21feb-8mar23","type":"promo","analyticsEventType":"select_promotion","analyticsEventPayload":{"promotion_id":"special-cosmetice-21feb-8mar23","promotion_name":"Cadouri pentru sărbătoritele lunii martie"}},"discountLabel":"Economisești 17%","geniusDiscountLabel":null,"badge":null},{"code":"100085646","variantCode":"100085646","name":"Scrub facial Refreshingly Clear 150ml","slug":"100085646-neutrogena-scrub-facial-refreshingly-clear-150ml","unitPriceLabel":"166,6 Lei/l","brand":"Neutrogena","brandCode":"548","brandFilterCode":"neutrogena-b549","sku":"100085646","price":24.99,"originalPrice":33.79,"currencyCode":"RON","currency":"Lei","image":{"thumbnail":{"default":"https://cdn.freshful.ro/media/cache/sylius_shop_product_thumbnail/55/48/e52812331419783aa01244e5cd57.jpg"},"large":{"default":"https://cdn.freshful.ro/media/cache/freshful_large/55/48/e52812331419783aa01244e5cd57.jpg"},"extralarge":{"default":"https://cdn.freshful.ro/media/cache/sylius_shop_product_original/55/48/e52812331419783aa01244e5cd57.jpg"}},"label":{"text":"-26%","backgroundColor":"#FF9903","textColor":"#FFFFFF"},"tags":[],"isAvailable":true,"maxAvailableQuantity":7,"maxAllowedQuantity":100,"breadcrumbs":[{"code":"11","name":"Cosmetice","slug":"11-cosmetice-si-ingrijire-personala"},{"code":"1103","name":"Demachiante și creme","slug":"1103-creme-intretinere-si-demachiante"},{"code":"110304","name":"Curățare și demachiere ten","slug":"110304-curatare-ten-si-demachiere"},{"code":"100085646","name":"Scrub facial Refreshingly Clear 150ml","slug":"100085646-neutrogena-scrub-facial-refreshingly-clear-150ml"}],"activePromotion":{"code":"oferte-dph-21feb-8mar23","name":"Preț redus","targetQuantity":null},"saveMe":null,"labels":[{"type":"v1","items":[{"text":"-26%","backgroundColor":"#FF9903","textColor":"#FFFFFF"}]}],"geniusPrice":null,"geniusUnitPricePerLabel":null,"banner":{"text":"Super preț","textColor":"#FF0000","bgColor":"#FFF2EC","icon":null,"link":"https://www.freshful.ro/oferte/oferte-dph-21feb-8mar23","type":"promo","analyticsEventType":"select_promotion","analyticsEventPayload":{"promotion_id":"oferte-dph-21feb-8mar23","promotion_name":"Curățenie și îngrijire personală"}},"discountLabel":"Economisești 26%","geniusDiscountLabel":null,"badge":null}],"filters":{"countSelected":0,"items":[{"code":"promotion","name":"Promoții","countSelected":0,"values":[{"code":"special-cosmetice-21feb-8mar23","name":"Cadouri pentru sărbătoritele lunii martie","isSelected":false,"count":53},{"code":"oferte-dph-21feb-8mar23","name":"Curățenie și îngrijire personală","isSelected":false,"count":8},{"code":"freshful-top-deals-2023","name":"Profită de Top Deals","isSelected":false,"count":10}]},{"code":"brand","name":"Brand","countSelected":0,"values":[{"code":"7th-heaven-b1745","name":"7th Heaven","isSelected":false,"count":11},{"code":"alevia-b128","name":"Alevia","isSelected":false,"count":3},{"code":"apidava-cosmetic-line-b1871","name":"Apidava Cosmetic Line","isSelected":false,"count":12},{"code":"bella-b322","name":"Bella","isSelected":false,"count":5},{"code":"biopha-b1420","name":"Biopha","isSelected":false,"count":2},{"code":"delia-b341","name":"Delia","isSelected":false,"count":1},{"code":"elmiplant-b551","name":"Elmiplant","isSelected":false,"count":51},{"code":"essere-b1365","name":"Essere","isSelected":false,"count":5},{"code":"family-b1747","name":"Family","isSelected":false,"count":1},{"code":"florame-b1418","name":"Florame","isSelected":false,"count":3},{"code":"garnier-skin-naturals-b443","name":"Garnier Skin Naturals","isSelected":false,"count":27},{"code":"gerovital-b1837","name":"Gerovital","isSelected":false,"count":23},{"code":"laboratoires-de-biarritz-b1419","name":"Laboratoires de Biarritz","isSelected":false,"count":2},{"code":"lactovit-b302","name":"Lactovit","isSelected":false,"count":3},{"code":"le-petit-olivier-b1746","name":"Le Petit Olivier","isSelected":false,"count":23},{"code":"l-oreal-skin-expert-b442","name":"L’Oréal Skin Expert","isSelected":false,"count":29},{"code":"nacomi-b1618","name":"Nacomi","isSelected":false,"count":2},{"code":"naturativ-b1621","name":"Naturativ","isSelected":false,"count":1},{"code":"neutrogena-b549","name":"Neutrogena","isSelected":false,"count":27},{"code":"nivea-b317","name":"Nivea","isSelected":false,"count":45},{"code":"piz-buin-b556","name":"Piz Buin","isSelected":false,"count":1},{"code":"renew-b1751","name":"Renew","isSelected":false,"count":3},{"code":"rituals-b2992","name":"Rituals","isSelected":false,"count":2},{"code":"tesori-d-oriente-b555","name":"Tesori d'Oriente","isSelected":false,"count":2},{"code":"titania-b2228","name":"Titania","isSelected":false,"count":5}]},{"code":"diet_lifestyle","name":"Dietă și lifestyle","countSelected":0,"values":[{"code":"bio-a26","name":"Bio","isSelected":false,"count":16},{"code":"natural-a27","name":"Natural","isSelected":false,"count":3},{"code":"vegan-a24","name":"Vegan","isSelected":false,"count":22}]}]},"orderBy":[{"field":"price","direction":"asc","name":"Preț crescător","isSelected":false},{"field":"price","direction":"desc","name":"Preț descrescător","isSelected":false},{"field":"popularity","direction":"desc","name":"Cele mai populare","isSelected":true},{"field":"category","direction":"asc","name":"Categorie","isSelected":false}],"metaTitle":"Demachiante și creme - Gamă variată","metaDescription":"Vrei Demachiante și creme? Alege dintr-o gamă variată. Comanzi simplu și ai livrare rapidă, calitate și prospețime. Hai pe Freshful.ro","metaKeywords":null,"banners":[{"name":"Elmiplant Nutri Listing","position":4,"type":"listing","displayOnMobile":false,"image":{"jpg":"https://cdn.freshful.ro/media/image/43/90/6c11a42d6aa59bfba5fc8d820720.jpg","webp":"https://cdn.freshful.ro/media/image/47/eb/67e496ebcd31da778d9a29351fc1.webp"},"imageResponsive":{"jpg":"https://cdn.freshful.ro/media/image/a0/cb/2a00336f267c77f28256cd7d209f.jpg","webp":"https://cdn.freshful.ro/media/image/25/6a/760e44b4f7da251efb3ae1e93f18.webp"},"url":"/l/listing-elmiplant-nutri"}]}}