{"type":"subcategory","payload":{"analyticsListId":"category_110301-creme-de-fata","analyticsListName":"Category - Creme pentru față","name":"Creme pentru față","slug":"110301-creme-de-fata","image":null,"breadcrumbs":[{"code":"11","name":"Cosmetice","slug":"11-cosmetice-si-ingrijire-personala"},{"code":"1103","name":"Demachiante și creme","slug":"1103-creme-intretinere-si-demachiante"},{"code":"110301","name":"Creme pentru față","slug":"110301-creme-de-fata"}],"slots":[],"page":1,"limit":10,"pages":11,"count":109,"siblings":[{"name":"Deodorante și parfumuri","slug":"1101-deodorante-si-parfumuri","selected":false},{"name":"Bărbierit și îngrijire ten","slug":"1102-produse-pentru-barbierit-si-ingrijit-ten","selected":false},{"name":"Demachiante și creme","slug":"1103-creme-intretinere-si-demachiante","selected":true},{"name":"Protecție solară","slug":"1104-produse-cu-protectie-solara","selected":false},{"name":"Ceară, benzi și creme depilatoare","slug":"1105-ceara-benzi-si-creme-depliatoare","selected":false},{"name":"Seturi cadou","slug":"1106-seturi-cadou","selected":false},{"name":"Îngrijirea părului","slug":"1107-ingrijirea-parului","selected":false},{"name":"Igienă intimă","slug":"1108-igienta-inima","selected":false},{"name":"Igienă dentară","slug":"1109-igiena-dentara","selected":false},{"name":"Săpunuri și geluri de duș","slug":"1110-sapunuri-si-geluri-de-dus","selected":false},{"name":"Dermatocosmetice și parafarmacie","slug":"1111-dermatocosmetice-si-parafarmacie","selected":false},{"name":"Repelent","slug":"repelent","selected":false}],"children":[{"name":"Toate produsele","slug":"1103-creme-intretinere-si-demachiante","selected":false},{"name":"Creme pentru față","slug":"110301-creme-de-fata","selected":true},{"name":"Creme pentru corp","slug":"110302-creme-pentru-corp","selected":false},{"name":"Creme pentru mâini","slug":"110303-creme-pentru-maini","selected":false},{"name":"Curățare și demachiere ten","slug":"110304-curatare-ten-si-demachiere","selected":false}],"products":[{"code":"100148326","variantCode":"100148326","name":"Balsam pentru buze crăpate și uscate 4.8g","slug":"100148326-neutrogena-balsam-pentru-buze-crapate-si-uscate-4-8g","unitPriceLabel":"10,99 Lei/buc","brand":"Neutrogena","brandCode":"548","brandFilterCode":"neutrogena-b549","sku":"100148326","price":10.99,"originalPrice":12.91,"currencyCode":"RON","currency":"Lei","image":{"thumbnail":{"default":"https://cdn.freshful.ro/media/cache/sylius_shop_product_thumbnail/13/ce/d7491b87a2c8c8b8ff4116fecfc1.jpg"},"large":{"default":"https://cdn.freshful.ro/media/cache/freshful_large/13/ce/d7491b87a2c8c8b8ff4116fecfc1.jpg"},"extralarge":{"default":"https://cdn.freshful.ro/media/cache/sylius_shop_product_original/13/ce/d7491b87a2c8c8b8ff4116fecfc1.jpg"}},"label":{"text":"-14%","backgroundColor":"#FF9903","textColor":"#FFFFFF"},"tags":[],"isAvailable":true,"maxAvailableQuantity":22,"maxAllowedQuantity":100,"breadcrumbs":[{"code":"11","name":"Cosmetice","slug":"11-cosmetice-si-ingrijire-personala"},{"code":"1103","name":"Demachiante și creme","slug":"1103-creme-intretinere-si-demachiante"},{"code":"110301","name":"Creme pentru față","slug":"110301-creme-de-fata"},{"code":"100148326","name":"Balsam pentru buze crăpate și uscate 4.8g","slug":"100148326-neutrogena-balsam-pentru-buze-crapate-si-uscate-4-8g"}],"activePromotion":{"code":"oferte-dph-21feb-8mar23","name":"Preț redus","targetQuantity":null},"saveMe":null,"labels":[{"type":"v1","items":[{"text":"-14%","backgroundColor":"#FF9903","textColor":"#FFFFFF"}]}],"geniusPrice":null,"geniusUnitPricePerLabel":null,"banner":{"text":"Super preț","textColor":"#FF0000","bgColor":"#FFF2EC","icon":null,"link":"https://www.freshful.ro/oferte/oferte-dph-21feb-8mar23","type":"promo","analyticsEventType":"select_promotion","analyticsEventPayload":{"promotion_id":"oferte-dph-21feb-8mar23","promotion_name":"Curățenie și îngrijire personală"}},"discountLabel":"Economisești 14%","geniusDiscountLabel":null,"badge":null},{"code":"100086112","variantCode":"100086112","name":"Cremă de zi Hyaluronic Gold 50ml","slug":"100086112-elmiplant-crema-de-zi-hyaluronic-gold-50ml","unitPriceLabel":"439,8 Lei/l","brand":"Elmiplant","brandCode":"550","brandFilterCode":"elmiplant-b551","sku":"100086112","price":21.99,"originalPrice":24.99,"currencyCode":"RON","currency":"Lei","image":{"thumbnail":{"default":"https://cdn.freshful.ro/media/cache/sylius_shop_product_thumbnail/6e/74/063c02572efa5d2f6226e03a27f5.jpg"},"large":{"default":"https://cdn.freshful.ro/media/cache/freshful_large/6e/74/063c02572efa5d2f6226e03a27f5.jpg"},"extralarge":{"default":"https://cdn.freshful.ro/media/cache/sylius_shop_product_original/6e/74/063c02572efa5d2f6226e03a27f5.jpg"}},"label":{"text":"-12%","backgroundColor":"#FF9903","textColor":"#FFFFFF"},"tags":[],"isAvailable":true,"maxAvailableQuantity":73,"maxAllowedQuantity":100,"breadcrumbs":[{"code":"11","name":"Cosmetice","slug":"11-cosmetice-si-ingrijire-personala"},{"code":"1103","name":"Demachiante și creme","slug":"1103-creme-intretinere-si-demachiante"},{"code":"110301","name":"Creme pentru față","slug":"110301-creme-de-fata"},{"code":"100086112","name":"Cremă de zi Hyaluronic Gold 50ml","slug":"100086112-elmiplant-crema-de-zi-hyaluronic-gold-50ml"}],"activePromotion":{"code":"special-cosmetice-21feb-8mar23","name":"Preț redus","targetQuantity":null},"saveMe":null,"labels":[{"type":"v1","items":[{"text":"-12%","backgroundColor":"#FF9903","textColor":"#FFFFFF"}]}],"geniusPrice":null,"geniusUnitPricePerLabel":null,"banner":{"text":"Super preț","textColor":"#FF0000","bgColor":"#FFF2EC","icon":null,"link":"https://www.freshful.ro/oferte/special-cosmetice-21feb-8mar23","type":"promo","analyticsEventType":"select_promotion","analyticsEventPayload":{"promotion_id":"special-cosmetice-21feb-8mar23","promotion_name":"Cadouri pentru sărbătoritele lunii martie"}},"discountLabel":"Economisești 12%","geniusDiscountLabel":null,"badge":null},{"code":"100086128","variantCode":"100086128","name":"Cremă antirid pentru ochi Hyaluronic 3D 15ml","slug":"100086128-elmiplant-crema-antirid-pentru-ochi-hyaluronic-3d-15ml","unitPriceLabel":"1.066 Lei/l","brand":"Elmiplant","brandCode":"550","brandFilterCode":"elmiplant-b551","sku":"100086128","price":15.99,"originalPrice":18.9,"currencyCode":"RON","currency":"Lei","image":{"thumbnail":{"default":"https://cdn.freshful.ro/media/cache/sylius_shop_product_thumbnail/b8/2d/74618595aa207febe53cc8354878.jpg"},"large":{"default":"https://cdn.freshful.ro/media/cache/freshful_large/b8/2d/74618595aa207febe53cc8354878.jpg"},"extralarge":{"default":"https://cdn.freshful.ro/media/cache/sylius_shop_product_original/b8/2d/74618595aa207febe53cc8354878.jpg"}},"label":{"text":"-15%","backgroundColor":"#FF9903","textColor":"#FFFFFF"},"tags":[],"isAvailable":true,"maxAvailableQuantity":21,"maxAllowedQuantity":100,"breadcrumbs":[{"code":"11","name":"Cosmetice","slug":"11-cosmetice-si-ingrijire-personala"},{"code":"1103","name":"Demachiante și creme","slug":"1103-creme-intretinere-si-demachiante"},{"code":"110301","name":"Creme pentru față","slug":"110301-creme-de-fata"},{"code":"100086128","name":"Cremă antirid pentru ochi Hyaluronic 3D 15ml","slug":"100086128-elmiplant-crema-antirid-pentru-ochi-hyaluronic-3d-15ml"}],"activePromotion":{"code":"special-cosmetice-21feb-8mar23","name":"Preț redus","targetQuantity":null},"saveMe":null,"labels":[{"type":"v1","items":[{"text":"-15%","backgroundColor":"#FF9903","textColor":"#FFFFFF"}]}],"geniusPrice":null,"geniusUnitPricePerLabel":null,"banner":{"text":"Super preț","textColor":"#FF0000","bgColor":"#FFF2EC","icon":null,"link":"https://www.freshful.ro/oferte/special-cosmetice-21feb-8mar23","type":"promo","analyticsEventType":"select_promotion","analyticsEventPayload":{"promotion_id":"special-cosmetice-21feb-8mar23","promotion_name":"Cadouri pentru sărbătoritele lunii martie"}},"discountLabel":"Economisești 15%","geniusDiscountLabel":null,"badge":null},{"code":"100086134","variantCode":"100086134","name":"Serum pentru față cu efect de umplere Hyaluronic Gold 30ml","slug":"100086134-elmiplant-serum-pentru-fata-cu-efect-de-umplere-hyaluronic-gold-30ml","unitPriceLabel":"866,33 Lei/l","brand":"Elmiplant","brandCode":"550","brandFilterCode":"elmiplant-b551","sku":"100086134","price":25.99,"originalPrice":31.79,"currencyCode":"RON","currency":"Lei","image":{"thumbnail":{"default":"https://cdn.freshful.ro/media/cache/sylius_shop_product_thumbnail/46/18/4a6dd23bcce40bebfa173d33a13b.jpg"},"large":{"default":"https://cdn.freshful.ro/media/cache/freshful_large/46/18/4a6dd23bcce40bebfa173d33a13b.jpg"},"extralarge":{"default":"https://cdn.freshful.ro/media/cache/sylius_shop_product_original/46/18/4a6dd23bcce40bebfa173d33a13b.jpg"}},"label":{"text":"-18%","backgroundColor":"#FF9903","textColor":"#FFFFFF"},"tags":[],"isAvailable":true,"maxAvailableQuantity":4,"maxAllowedQuantity":100,"breadcrumbs":[{"code":"11","name":"Cosmetice","slug":"11-cosmetice-si-ingrijire-personala"},{"code":"1103","name":"Demachiante și creme","slug":"1103-creme-intretinere-si-demachiante"},{"code":"110301","name":"Creme pentru față","slug":"110301-creme-de-fata"},{"code":"100086134","name":"Serum pentru față cu efect de umplere Hyaluronic Gold 30ml","slug":"100086134-elmiplant-serum-pentru-fata-cu-efect-de-umplere-hyaluronic-gold-30ml"}],"activePromotion":{"code":"special-cosmetice-21feb-8mar23","name":"Preț redus","targetQuantity":null},"saveMe":null,"labels":[{"type":"v1","items":[{"text":"-18%","backgroundColor":"#FF9903","textColor":"#FFFFFF"}]}],"geniusPrice":null,"geniusUnitPricePerLabel":null,"banner":{"text":"Super preț","textColor":"#FF0000","bgColor":"#FFF2EC","icon":null,"link":"https://www.freshful.ro/oferte/special-cosmetice-21feb-8mar23","type":"promo","analyticsEventType":"select_promotion","analyticsEventPayload":{"promotion_id":"special-cosmetice-21feb-8mar23","promotion_name":"Cadouri pentru sărbătoritele lunii martie"}},"discountLabel":"Economisești 18%","geniusDiscountLabel":null,"badge":null},{"code":"100086124","variantCode":"100086124","name":"Gel-cremă intens hidratant Skin Moisture ten normal/mixt 50ml","slug":"100086124-elmiplant-gel-crema-intens-hidratant-skin-moisture-ten-normal-mixt-50ml","unitPriceLabel":"299,8 Lei/l","brand":"Elmiplant","brandCode":"550","brandFilterCode":"elmiplant-b551","sku":"100086124","price":14.99,"originalPrice":17.48,"currencyCode":"RON","currency":"Lei","image":{"thumbnail":{"default":"https://cdn.freshful.ro/media/cache/sylius_shop_product_thumbnail/dd/9c/c9e8da4d05dfe4f18e46b733c993.jpg"},"large":{"default":"https://cdn.freshful.ro/media/cache/freshful_large/dd/9c/c9e8da4d05dfe4f18e46b733c993.jpg"},"extralarge":{"default":"https://cdn.freshful.ro/media/cache/sylius_shop_product_original/dd/9c/c9e8da4d05dfe4f18e46b733c993.jpg"}},"label":{"text":"-14%","backgroundColor":"#FF9903","textColor":"#FFFFFF"},"tags":[{"type":"vegan","text":"Vegan","icon":"https://cdn.freshful.ro/assets/product_tags/vegan.svg","iconPng":"https://cdn.freshful.ro/assets/product_tags/vegan.png","backgroundColor":"#ECF9F8","textColor":"#33A39C"}],"isAvailable":true,"maxAvailableQuantity":6,"maxAllowedQuantity":100,"breadcrumbs":[{"code":"11","name":"Cosmetice","slug":"11-cosmetice-si-ingrijire-personala"},{"code":"1103","name":"Demachiante și creme","slug":"1103-creme-intretinere-si-demachiante"},{"code":"110301","name":"Creme pentru față","slug":"110301-creme-de-fata"},{"code":"100086124","name":"Gel-cremă intens hidratant Skin Moisture ten normal/mixt 50ml","slug":"100086124-elmiplant-gel-crema-intens-hidratant-skin-moisture-ten-normal-mixt-50ml"}],"activePromotion":{"code":"special-cosmetice-21feb-8mar23","name":"Preț redus","targetQuantity":null},"saveMe":null,"labels":[{"type":"v1","items":[{"text":"-14%","backgroundColor":"#FF9903","textColor":"#FFFFFF"}]}],"geniusPrice":null,"geniusUnitPricePerLabel":null,"banner":{"text":"Super preț","textColor":"#FF0000","bgColor":"#FFF2EC","icon":null,"link":"https://www.freshful.ro/oferte/special-cosmetice-21feb-8mar23","type":"promo","analyticsEventType":"select_promotion","analyticsEventPayload":{"promotion_id":"special-cosmetice-21feb-8mar23","promotion_name":"Cadouri pentru sărbătoritele lunii martie"}},"discountLabel":"Economisești 14%","geniusDiscountLabel":null,"badge":null},{"code":"100086114","variantCode":"100086114","name":"Cremă pentru conturul ochilor Hyaluronic Gold 15ml","slug":"100086114-elmiplant-crema-pentru-conturul-ochilor-hyaluronic-gold-15ml","unitPriceLabel":"1.466 Lei/l","brand":"Elmiplant","brandCode":"550","brandFilterCode":"elmiplant-b551","sku":"100086114","price":21.99,"originalPrice":27.5,"currencyCode":"RON","currency":"Lei","image":{"thumbnail":{"default":"https://cdn.freshful.ro/media/cache/sylius_shop_product_thumbnail/56/fe/8f301851d30cd3e5e443d199258b.jpg"},"large":{"default":"https://cdn.freshful.ro/media/cache/freshful_large/56/fe/8f301851d30cd3e5e443d199258b.jpg"},"extralarge":{"default":"https://cdn.freshful.ro/media/cache/sylius_shop_product_original/56/fe/8f301851d30cd3e5e443d199258b.jpg"}},"label":{"text":"-20%","backgroundColor":"#FF9903","textColor":"#FFFFFF"},"tags":[],"isAvailable":true,"maxAvailableQuantity":15,"maxAllowedQuantity":100,"breadcrumbs":[{"code":"11","name":"Cosmetice","slug":"11-cosmetice-si-ingrijire-personala"},{"code":"1103","name":"Demachiante și creme","slug":"1103-creme-intretinere-si-demachiante"},{"code":"110301","name":"Creme pentru față","slug":"110301-creme-de-fata"},{"code":"100086114","name":"Cremă pentru conturul ochilor Hyaluronic Gold 15ml","slug":"100086114-elmiplant-crema-pentru-conturul-ochilor-hyaluronic-gold-15ml"}],"activePromotion":{"code":"special-cosmetice-21feb-8mar23","name":"Preț redus","targetQuantity":null},"saveMe":null,"labels":[{"type":"v1","items":[{"text":"-20%","backgroundColor":"#FF9903","textColor":"#FFFFFF"}]}],"geniusPrice":null,"geniusUnitPricePerLabel":null,"banner":{"text":"Super preț","textColor":"#FF0000","bgColor":"#FFF2EC","icon":null,"link":"https://www.freshful.ro/oferte/special-cosmetice-21feb-8mar23","type":"promo","analyticsEventType":"select_promotion","analyticsEventPayload":{"promotion_id":"special-cosmetice-21feb-8mar23","promotion_name":"Cadouri pentru sărbătoritele lunii martie"}},"discountLabel":"Economisești 20%","geniusDiscountLabel":null,"badge":null},{"code":"100086144","variantCode":"100086144","name":"Fiole iluminatoare anti-îmbătrânire Vitamin C 7x1.3ml","slug":"100086144-elmiplant-fiole-iluminatoare-anti-imbatranire-vitamin-c-7x1-3ml","unitPriceLabel":"3.075,82 Lei/l","brand":"Elmiplant","brandCode":"550","brandFilterCode":"elmiplant-b551","sku":"100086144","price":27.99,"originalPrice":34.5,"currencyCode":"RON","currency":"Lei","image":{"thumbnail":{"default":"https://cdn.freshful.ro/media/cache/sylius_shop_product_thumbnail/78/58/83d4ab92918214b7256a91b73302.jpg"},"large":{"default":"https://cdn.freshful.ro/media/cache/freshful_large/78/58/83d4ab92918214b7256a91b73302.jpg"},"extralarge":{"default":"https://cdn.freshful.ro/media/cache/sylius_shop_product_original/78/58/83d4ab92918214b7256a91b73302.jpg"}},"label":{"text":"-18%","backgroundColor":"#FF9903","textColor":"#FFFFFF"},"tags":[],"isAvailable":true,"maxAvailableQuantity":7,"maxAllowedQuantity":100,"breadcrumbs":[{"code":"11","name":"Cosmetice","slug":"11-cosmetice-si-ingrijire-personala"},{"code":"1103","name":"Demachiante și creme","slug":"1103-creme-intretinere-si-demachiante"},{"code":"110301","name":"Creme pentru față","slug":"110301-creme-de-fata"},{"code":"100086144","name":"Fiole iluminatoare anti-îmbătrânire Vitamin C 7x1.3ml","slug":"100086144-elmiplant-fiole-iluminatoare-anti-imbatranire-vitamin-c-7x1-3ml"}],"activePromotion":{"code":"special-cosmetice-21feb-8mar23","name":"Preț redus","targetQuantity":null},"saveMe":null,"labels":[{"type":"v1","items":[{"text":"-18%","backgroundColor":"#FF9903","textColor":"#FFFFFF"}]}],"geniusPrice":null,"geniusUnitPricePerLabel":null,"banner":{"text":"Super preț","textColor":"#FF0000","bgColor":"#FFF2EC","icon":null,"link":"https://www.freshful.ro/oferte/special-cosmetice-21feb-8mar23","type":"promo","analyticsEventType":"select_promotion","analyticsEventPayload":{"promotion_id":"special-cosmetice-21feb-8mar23","promotion_name":"Cadouri pentru sărbătoritele lunii martie"}},"discountLabel":"Economisești 18%","geniusDiscountLabel":null,"badge":null},{"code":"100086131","variantCode":"100086131","name":"Serum antirid concentrat multiCollagen 30ml","slug":"100086131-elmiplant-serum-antirid-concentrat-multicollagen-30ml","unitPriceLabel":"699,67 Lei/l","brand":"Elmiplant","brandCode":"550","brandFilterCode":"elmiplant-b551","sku":"100086131","price":20.99,"originalPrice":25.9,"currencyCode":"RON","currency":"Lei","image":{"thumbnail":{"default":"https://cdn.freshful.ro/media/cache/sylius_shop_product_thumbnail/7e/d9/8acef85cfeeb9c6868f55bd6f26c.jpg"},"large":{"default":"https://cdn.freshful.ro/media/cache/freshful_large/7e/d9/8acef85cfeeb9c6868f55bd6f26c.jpg"},"extralarge":{"default":"https://cdn.freshful.ro/media/cache/sylius_shop_product_original/7e/d9/8acef85cfeeb9c6868f55bd6f26c.jpg"}},"label":{"text":"-18%","backgroundColor":"#FF9903","textColor":"#FFFFFF"},"tags":[],"isAvailable":true,"maxAvailableQuantity":14,"maxAllowedQuantity":100,"breadcrumbs":[{"code":"11","name":"Cosmetice","slug":"11-cosmetice-si-ingrijire-personala"},{"code":"1103","name":"Demachiante și creme","slug":"1103-creme-intretinere-si-demachiante"},{"code":"110301","name":"Creme pentru față","slug":"110301-creme-de-fata"},{"code":"100086131","name":"Serum antirid concentrat multiCollagen 30ml","slug":"100086131-elmiplant-serum-antirid-concentrat-multicollagen-30ml"}],"activePromotion":{"code":"special-cosmetice-21feb-8mar23","name":"Preț redus","targetQuantity":null},"saveMe":null,"labels":[{"type":"v1","items":[{"text":"-18%","backgroundColor":"#FF9903","textColor":"#FFFFFF"}]}],"geniusPrice":null,"geniusUnitPricePerLabel":null,"banner":{"text":"Super preț","textColor":"#FF0000","bgColor":"#FFF2EC","icon":null,"link":"https://www.freshful.ro/oferte/special-cosmetice-21feb-8mar23","type":"promo","analyticsEventType":"select_promotion","analyticsEventPayload":{"promotion_id":"special-cosmetice-21feb-8mar23","promotion_name":"Cadouri pentru sărbătoritele lunii martie"}},"discountLabel":"Economisești 18%","geniusDiscountLabel":null,"badge":null},{"code":"100085659","variantCode":"3574661543666","name":"Cremă hidratantă față Refreshingly Clear 50ml","slug":"100085659-neutrogena-crema-hidratanta-fata-refreshingly-clear-50ml","unitPriceLabel":"539,8 Lei/l","brand":"Neutrogena","brandCode":"548","brandFilterCode":"neutrogena-b549","sku":"100085659","price":26.99,"originalPrice":36.09,"currencyCode":"RON","currency":"Lei","image":{"thumbnail":{"default":"https://cdn.freshful.ro/media/cache/sylius_shop_product_thumbnail/f5/79/363f36d005e52c1d2f93c5297d8d.jpg"},"large":{"default":"https://cdn.freshful.ro/media/cache/freshful_large/f5/79/363f36d005e52c1d2f93c5297d8d.jpg"},"extralarge":{"default":"https://cdn.freshful.ro/media/cache/sylius_shop_product_original/f5/79/363f36d005e52c1d2f93c5297d8d.jpg"}},"label":{"text":"-25%","backgroundColor":"#FF9903","textColor":"#FFFFFF"},"tags":[],"isAvailable":true,"maxAvailableQuantity":5,"maxAllowedQuantity":100,"breadcrumbs":[{"code":"11","name":"Cosmetice","slug":"11-cosmetice-si-ingrijire-personala"},{"code":"1103","name":"Demachiante și creme","slug":"1103-creme-intretinere-si-demachiante"},{"code":"110301","name":"Creme pentru față","slug":"110301-creme-de-fata"},{"code":"100085659","name":"Cremă hidratantă față Refreshingly Clear 50ml","slug":"100085659-neutrogena-crema-hidratanta-fata-refreshingly-clear-50ml"}],"activePromotion":{"code":"special-cosmetice-21feb-8mar23","name":"Preț redus","targetQuantity":null},"saveMe":null,"labels":[{"type":"v1","items":[{"text":"-25%","backgroundColor":"#FF9903","textColor":"#FFFFFF"}]}],"geniusPrice":null,"geniusUnitPricePerLabel":null,"banner":{"text":"Super preț","textColor":"#FF0000","bgColor":"#FFF2EC","icon":null,"link":"https://www.freshful.ro/oferte/special-cosmetice-21feb-8mar23","type":"promo","analyticsEventType":"select_promotion","analyticsEventPayload":{"promotion_id":"special-cosmetice-21feb-8mar23","promotion_name":"Cadouri pentru sărbătoritele lunii martie"}},"discountLabel":"Economisești 25%","geniusDiscountLabel":null,"badge":null},{"code":"100086125","variantCode":"100086125","name":"Cremă hidratantă Skin Moisture 24h 50ml","slug":"100086125-elmiplant-crema-hidratanta-skin-moisture-24h-50ml","unitPriceLabel":"299,8 Lei/l","brand":"Elmiplant","brandCode":"550","brandFilterCode":"elmiplant-b551","sku":"100086125","price":14.99,"originalPrice":17.48,"currencyCode":"RON","currency":"Lei","image":{"thumbnail":{"default":"https://cdn.freshful.ro/media/cache/sylius_shop_product_thumbnail/33/39/a910444d01991732b79eab646eae.jpg"},"large":{"default":"https://cdn.freshful.ro/media/cache/freshful_large/33/39/a910444d01991732b79eab646eae.jpg"},"extralarge":{"default":"https://cdn.freshful.ro/media/cache/sylius_shop_product_original/33/39/a910444d01991732b79eab646eae.jpg"}},"label":{"text":"-14%","backgroundColor":"#FF9903","textColor":"#FFFFFF"},"tags":[],"isAvailable":true,"maxAvailableQuantity":25,"maxAllowedQuantity":100,"breadcrumbs":[{"code":"11","name":"Cosmetice","slug":"11-cosmetice-si-ingrijire-personala"},{"code":"1103","name":"Demachiante și creme","slug":"1103-creme-intretinere-si-demachiante"},{"code":"110301","name":"Creme pentru față","slug":"110301-creme-de-fata"},{"code":"100086125","name":"Cremă hidratantă Skin Moisture 24h 50ml","slug":"100086125-elmiplant-crema-hidratanta-skin-moisture-24h-50ml"}],"activePromotion":{"code":"special-cosmetice-21feb-8mar23","name":"Preț redus","targetQuantity":null},"saveMe":null,"labels":[{"type":"v1","items":[{"text":"-14%","backgroundColor":"#FF9903","textColor":"#FFFFFF"}]}],"geniusPrice":null,"geniusUnitPricePerLabel":null,"banner":{"text":"Super preț","textColor":"#FF0000","bgColor":"#FFF2EC","icon":null,"link":"https://www.freshful.ro/oferte/special-cosmetice-21feb-8mar23","type":"promo","analyticsEventType":"select_promotion","analyticsEventPayload":{"promotion_id":"special-cosmetice-21feb-8mar23","promotion_name":"Cadouri pentru sărbătoritele lunii martie"}},"discountLabel":"Economisești 14%","geniusDiscountLabel":null,"badge":null}],"filters":{"countSelected":0,"items":[{"code":"promotion","name":"Promoții","countSelected":0,"values":[{"code":"special-cosmetice-21feb-8mar23","name":"Cadouri pentru sărbătoritele lunii martie","isSelected":false,"count":32},{"code":"oferte-dph-21feb-8mar23","name":"Curățenie și îngrijire personală","isSelected":false,"count":1}]},{"code":"brand","name":"Brand","countSelected":0,"values":[{"code":"apidava-cosmetic-line-b1871","name":"Apidava Cosmetic Line","isSelected":false,"count":6},{"code":"elmiplant-b551","name":"Elmiplant","isSelected":false,"count":18},{"code":"essere-b1365","name":"Essere","isSelected":false,"count":2},{"code":"florame-b1418","name":"Florame","isSelected":false,"count":2},{"code":"garnier-skin-naturals-b443","name":"Garnier Skin Naturals","isSelected":false,"count":3},{"code":"gerovital-b1837","name":"Gerovital","isSelected":false,"count":20},{"code":"laboratoires-de-biarritz-b1419","name":"Laboratoires de Biarritz","isSelected":false,"count":1},{"code":"le-petit-olivier-b1746","name":"Le Petit Olivier","isSelected":false,"count":4},{"code":"l-oreal-skin-expert-b442","name":"L’Oréal Skin Expert","isSelected":false,"count":25},{"code":"neutrogena-b549","name":"Neutrogena","isSelected":false,"count":5},{"code":"nivea-b317","name":"Nivea","isSelected":false,"count":22},{"code":"piz-buin-b556","name":"Piz Buin","isSelected":false,"count":1}]},{"code":"diet_lifestyle","name":"Dietă și lifestyle","countSelected":0,"values":[{"code":"bio-a26","name":"Bio","isSelected":false,"count":5},{"code":"vegan-a24","name":"Vegan","isSelected":false,"count":4}]}]},"orderBy":[{"field":"price","direction":"asc","name":"Preț crescător","isSelected":false},{"field":"price","direction":"desc","name":"Preț descrescător","isSelected":false},{"field":"popularity","direction":"desc","name":"Cele mai populare","isSelected":true},{"field":"category","direction":"asc","name":"Categorie","isSelected":false}],"metaTitle":"Creme pentru față - Gamă variată","metaDescription":"Vrei Creme pentru față? Alege dintr-o gamă variată. Comanzi simplu și ai livrare rapidă, calitate și prospețime. Hai pe Freshful.ro","metaKeywords":null,"banners":[{"name":"Elmiplant Nutri Listing","position":4,"type":"listing","displayOnMobile":false,"image":{"jpg":"https://cdn.freshful.ro/media/image/43/90/6c11a42d6aa59bfba5fc8d820720.jpg","webp":"https://cdn.freshful.ro/media/image/47/eb/67e496ebcd31da778d9a29351fc1.webp"},"imageResponsive":{"jpg":"https://cdn.freshful.ro/media/image/a0/cb/2a00336f267c77f28256cd7d209f.jpg","webp":"https://cdn.freshful.ro/media/image/25/6a/760e44b4f7da251efb3ae1e93f18.webp"},"url":"/l/listing-elmiplant-nutri"}]}}