{"type":"subcategory","payload":{"analyticsListId":"category_110403-protectie-solara-plaja","analyticsListName":"Category - Protecție solară plajă","name":"Protecție solară plajă","slug":"110403-protectie-solara-plaja","image":null,"breadcrumbs":[{"code":"11","name":"Cosmetice","slug":"11-cosmetice-si-ingrijire-personala"},{"code":"1104","name":"Protecție solară","slug":"1104-produse-cu-protectie-solara"},{"code":"110403","name":"Protecție solară plajă","slug":"110403-protectie-solara-plaja"}],"slots":[],"page":1,"limit":10,"pages":3,"count":29,"siblings":[{"name":"Deodorante și parfumuri","slug":"1101-deodorante-si-parfumuri","selected":false},{"name":"Bărbierit și îngrijire ten","slug":"1102-produse-pentru-barbierit-si-ingrijit-ten","selected":false},{"name":"Demachiante și creme","slug":"1103-creme-intretinere-si-demachiante","selected":false},{"name":"Protecție solară","slug":"1104-produse-cu-protectie-solara","selected":true},{"name":"Ceară, benzi și creme depilatoare","slug":"1105-ceara-benzi-si-creme-depliatoare","selected":false},{"name":"Seturi cadou","slug":"1106-seturi-cadou","selected":false},{"name":"Îngrijirea părului","slug":"1107-ingrijirea-parului","selected":false},{"name":"Igienă intimă","slug":"1108-igienta-inima","selected":false},{"name":"Igienă dentară","slug":"1109-igiena-dentara","selected":false},{"name":"Săpunuri și geluri de duș","slug":"1110-sapunuri-si-geluri-de-dus","selected":false},{"name":"Dermatocosmetice și parafarmacie","slug":"1111-dermatocosmetice-si-parafarmacie","selected":false},{"name":"Repelent","slug":"repelent","selected":false}],"children":[{"name":"Toate produsele","slug":"1104-produse-cu-protectie-solara","selected":false},{"name":"Autobronzant","slug":"110402-autobronzant","selected":false},{"name":"Protecție solară plajă","slug":"110403-protectie-solara-plaja","selected":true},{"name":"Protecție solară după plajă","slug":"110404-protectie-solara-dupa-plaja","selected":false}],"products":[{"code":"100033819","variantCode":"100033819","name":"Cremă de față antirid cu protecție solară UV Face SPF50, 50ml","slug":"100033819-nivea-crema-de-fata-antirid-cu-protectie-solara-uv-face-spf50-50ml","unitPriceLabel":"779,8 Lei/l","brand":"Nivea","brandCode":"316","brandFilterCode":"nivea-b317","sku":"100033819","price":38.99,"originalPrice":null,"currencyCode":"RON","currency":"Lei","image":{"thumbnail":{"default":"https://cdn.freshful.ro/media/cache/sylius_shop_product_thumbnail/11/fe/0c4deeded8580f0ded0e4ea1c34b.jpg"},"large":{"default":"https://cdn.freshful.ro/media/cache/freshful_large/11/fe/0c4deeded8580f0ded0e4ea1c34b.jpg"},"extralarge":{"default":"https://cdn.freshful.ro/media/cache/sylius_shop_product_original/11/fe/0c4deeded8580f0ded0e4ea1c34b.jpg"}},"label":null,"tags":[],"isAvailable":true,"maxAvailableQuantity":53,"maxAllowedQuantity":100,"breadcrumbs":[{"code":"11","name":"Cosmetice","slug":"11-cosmetice-si-ingrijire-personala"},{"code":"1104","name":"Protecție solară","slug":"1104-produse-cu-protectie-solara"},{"code":"110403","name":"Protecție solară plajă","slug":"110403-protectie-solara-plaja"},{"code":"100033819","name":"Cremă de față antirid cu protecție solară UV Face SPF50, 50ml","slug":"100033819-nivea-crema-de-fata-antirid-cu-protectie-solara-uv-face-spf50-50ml"}],"activePromotion":null,"saveMe":null,"labels":[],"geniusPrice":null,"geniusUnitPricePerLabel":null,"banner":null,"discountLabel":null,"geniusDiscountLabel":null,"badge":null},{"code":"100138359","variantCode":"100138359","name":"Cremă protecție solară Sun, SPF 50, 100ml","slug":"100138359-gerovital-crema-protectie-solara-sun-spf-50-100ml","unitPriceLabel":"415,9 Lei/l","brand":"Gerovital","brandCode":"1833","brandFilterCode":"gerovital-b1837","sku":"100138359","price":41.59,"originalPrice":null,"currencyCode":"RON","currency":"Lei","image":{"thumbnail":{"default":"https://cdn.freshful.ro/media/cache/sylius_shop_product_thumbnail/37/b4/a9d0e2fd65dd67b95fa239174886.jpg"},"large":{"default":"https://cdn.freshful.ro/media/cache/freshful_large/37/b4/a9d0e2fd65dd67b95fa239174886.jpg"},"extralarge":{"default":"https://cdn.freshful.ro/media/cache/sylius_shop_product_original/37/b4/a9d0e2fd65dd67b95fa239174886.jpg"}},"label":null,"tags":[],"isAvailable":true,"maxAvailableQuantity":5,"maxAllowedQuantity":100,"breadcrumbs":[{"code":"11","name":"Cosmetice","slug":"11-cosmetice-si-ingrijire-personala"},{"code":"1104","name":"Protecție solară","slug":"1104-produse-cu-protectie-solara"},{"code":"110403","name":"Protecție solară plajă","slug":"110403-protectie-solara-plaja"},{"code":"100138359","name":"Cremă protecție solară Sun, SPF 50, 100ml","slug":"100138359-gerovital-crema-protectie-solara-sun-spf-50-100ml"}],"activePromotion":null,"saveMe":null,"labels":[],"geniusPrice":null,"geniusUnitPricePerLabel":null,"banner":null,"discountLabel":null,"geniusDiscountLabel":null,"badge":null},{"code":"100033818","variantCode":"100033818","name":"Spray cu protecție solară și bronzare SPF30, 200ml","slug":"100033818-nivea-spray-cu-protectie-solara-si-bronzare-spf30-200ml","unitPriceLabel":"249,95 Lei/l","brand":"Nivea","brandCode":"316","brandFilterCode":"nivea-b317","sku":"100033818","price":49.99,"originalPrice":null,"currencyCode":"RON","currency":"Lei","image":{"thumbnail":{"default":"https://cdn.freshful.ro/media/cache/sylius_shop_product_thumbnail/3c/67/51feb506b1e795b5a3bdb47882b2.jpg"},"large":{"default":"https://cdn.freshful.ro/media/cache/freshful_large/3c/67/51feb506b1e795b5a3bdb47882b2.jpg"},"extralarge":{"default":"https://cdn.freshful.ro/media/cache/sylius_shop_product_original/3c/67/51feb506b1e795b5a3bdb47882b2.jpg"}},"label":null,"tags":[],"isAvailable":true,"maxAvailableQuantity":11,"maxAllowedQuantity":100,"breadcrumbs":[{"code":"11","name":"Cosmetice","slug":"11-cosmetice-si-ingrijire-personala"},{"code":"1104","name":"Protecție solară","slug":"1104-produse-cu-protectie-solara"},{"code":"110403","name":"Protecție solară plajă","slug":"110403-protectie-solara-plaja"},{"code":"100033818","name":"Spray cu protecție solară și bronzare SPF30, 200ml","slug":"100033818-nivea-spray-cu-protectie-solara-si-bronzare-spf30-200ml"}],"activePromotion":null,"saveMe":null,"labels":[],"geniusPrice":null,"geniusUnitPricePerLabel":null,"banner":null,"discountLabel":null,"geniusDiscountLabel":null,"badge":null},{"code":"100138372","variantCode":"100138372","name":"Cremă protecție solară pentru copii H3 Derma+ Sun, SPF 50, 100ml","slug":"100138372-gerovital-crema-protectie-solara-pentru-copii-h3-derma-sun-spf-50-100ml","unitPriceLabel":"589,9 Lei/l","brand":"Gerovital","brandCode":"1833","brandFilterCode":"gerovital-b1837","sku":"100138372","price":58.99,"originalPrice":null,"currencyCode":"RON","currency":"Lei","image":{"thumbnail":{"default":"https://cdn.freshful.ro/media/cache/sylius_shop_product_thumbnail/28/70/f721b3283fc4ec44733fb7c64b42.jpg"},"large":{"default":"https://cdn.freshful.ro/media/cache/freshful_large/28/70/f721b3283fc4ec44733fb7c64b42.jpg"},"extralarge":{"default":"https://cdn.freshful.ro/media/cache/sylius_shop_product_original/28/70/f721b3283fc4ec44733fb7c64b42.jpg"}},"label":null,"tags":[],"isAvailable":true,"maxAvailableQuantity":11,"maxAllowedQuantity":100,"breadcrumbs":[{"code":"11","name":"Cosmetice","slug":"11-cosmetice-si-ingrijire-personala"},{"code":"1104","name":"Protecție solară","slug":"1104-produse-cu-protectie-solara"},{"code":"110403","name":"Protecție solară plajă","slug":"110403-protectie-solara-plaja"},{"code":"100138372","name":"Cremă protecție solară pentru copii H3 Derma+ Sun, SPF 50, 100ml","slug":"100138372-gerovital-crema-protectie-solara-pentru-copii-h3-derma-sun-spf-50-100ml"}],"activePromotion":null,"saveMe":null,"labels":[],"geniusPrice":null,"geniusUnitPricePerLabel":null,"banner":null,"discountLabel":null,"geniusDiscountLabel":null,"badge":null},{"code":"100138555","variantCode":"100138555","name":"Loțiune cu protecție solară SPF 30, 400ml","slug":"100138555-nivea-lotiune-cu-protectie-solara-spf-30-400ml","unitPriceLabel":"169,95 Lei/l","brand":"Nivea","brandCode":"316","brandFilterCode":"nivea-b317","sku":"100138555","price":67.98,"originalPrice":null,"currencyCode":"RON","currency":"Lei","image":{"thumbnail":{"default":"https://cdn.freshful.ro/media/cache/sylius_shop_product_thumbnail/09/b9/7e5b26a879cf908bdf68b098de3b.jpg"},"large":{"default":"https://cdn.freshful.ro/media/cache/freshful_large/09/b9/7e5b26a879cf908bdf68b098de3b.jpg"},"extralarge":{"default":"https://cdn.freshful.ro/media/cache/sylius_shop_product_original/09/b9/7e5b26a879cf908bdf68b098de3b.jpg"}},"label":null,"tags":[],"isAvailable":true,"maxAvailableQuantity":48,"maxAllowedQuantity":100,"breadcrumbs":[{"code":"11","name":"Cosmetice","slug":"11-cosmetice-si-ingrijire-personala"},{"code":"1104","name":"Protecție solară","slug":"1104-produse-cu-protectie-solara"},{"code":"110403","name":"Protecție solară plajă","slug":"110403-protectie-solara-plaja"},{"code":"100138555","name":"Loțiune cu protecție solară SPF 30, 400ml","slug":"100138555-nivea-lotiune-cu-protectie-solara-spf-30-400ml"}],"activePromotion":null,"saveMe":null,"labels":[],"geniusPrice":null,"geniusUnitPricePerLabel":null,"banner":null,"discountLabel":null,"geniusDiscountLabel":null,"badge":null},{"code":"100138556","variantCode":"100138556","name":"Loțiune cu protecție solară și bronzare SPF30, 200ml","slug":"100138556-nivea-lotiune-cu-protectie-solara-si-bronzare-spf30-200ml","unitPriceLabel":"249,95 Lei/l","brand":"Nivea","brandCode":"316","brandFilterCode":"nivea-b317","sku":"100138556","price":49.99,"originalPrice":null,"currencyCode":"RON","currency":"Lei","image":{"thumbnail":{"default":"https://cdn.freshful.ro/media/cache/sylius_shop_product_thumbnail/12/0b/b0eac3d37f1ab51f5f6576c02011.jpg"},"large":{"default":"https://cdn.freshful.ro/media/cache/freshful_large/12/0b/b0eac3d37f1ab51f5f6576c02011.jpg"},"extralarge":{"default":"https://cdn.freshful.ro/media/cache/sylius_shop_product_original/12/0b/b0eac3d37f1ab51f5f6576c02011.jpg"}},"label":null,"tags":[],"isAvailable":true,"maxAvailableQuantity":53,"maxAllowedQuantity":100,"breadcrumbs":[{"code":"11","name":"Cosmetice","slug":"11-cosmetice-si-ingrijire-personala"},{"code":"1104","name":"Protecție solară","slug":"1104-produse-cu-protectie-solara"},{"code":"110403","name":"Protecție solară plajă","slug":"110403-protectie-solara-plaja"},{"code":"100138556","name":"Loțiune cu protecție solară și bronzare SPF30, 200ml","slug":"100138556-nivea-lotiune-cu-protectie-solara-si-bronzare-spf30-200ml"}],"activePromotion":null,"saveMe":null,"labels":[],"geniusPrice":null,"geniusUnitPricePerLabel":null,"banner":null,"discountLabel":null,"geniusDiscountLabel":null,"badge":null},{"code":"100138557","variantCode":"100138557","name":"Loțiune cu protecție solară SPF50,  200ml","slug":"100138557-nivea-lotiune-cu-protectie-solara-spf50-200ml","unitPriceLabel":"274,95 Lei/l","brand":"Nivea","brandCode":"316","brandFilterCode":"nivea-b317","sku":"100138557","price":54.99,"originalPrice":null,"currencyCode":"RON","currency":"Lei","image":{"thumbnail":{"default":"https://cdn.freshful.ro/media/cache/sylius_shop_product_thumbnail/5d/36/4f58b7883d928d8b85377bfbcdc7.jpg"},"large":{"default":"https://cdn.freshful.ro/media/cache/freshful_large/5d/36/4f58b7883d928d8b85377bfbcdc7.jpg"},"extralarge":{"default":"https://cdn.freshful.ro/media/cache/sylius_shop_product_original/5d/36/4f58b7883d928d8b85377bfbcdc7.jpg"}},"label":null,"tags":[],"isAvailable":true,"maxAvailableQuantity":68,"maxAllowedQuantity":100,"breadcrumbs":[{"code":"11","name":"Cosmetice","slug":"11-cosmetice-si-ingrijire-personala"},{"code":"1104","name":"Protecție solară","slug":"1104-produse-cu-protectie-solara"},{"code":"110403","name":"Protecție solară plajă","slug":"110403-protectie-solara-plaja"},{"code":"100138557","name":"Loțiune cu protecție solară SPF50,  200ml","slug":"100138557-nivea-lotiune-cu-protectie-solara-spf50-200ml"}],"activePromotion":null,"saveMe":null,"labels":[],"geniusPrice":null,"geniusUnitPricePerLabel":null,"banner":null,"discountLabel":null,"geniusDiscountLabel":null,"badge":null},{"code":"100138565","variantCode":"100138565","name":"Spray protecție solară Sensitive pentru copii, SPF 50+, 300ml","slug":"100138565-nivea-spray-protectie-solara-sensitive-pentru-copii-spf-50-300ml","unitPriceLabel":"259,93 Lei/l","brand":"Nivea","brandCode":"316","brandFilterCode":"nivea-b317","sku":"100138565","price":77.98,"originalPrice":null,"currencyCode":"RON","currency":"Lei","image":{"thumbnail":{"default":"https://cdn.freshful.ro/media/cache/sylius_shop_product_thumbnail/a9/5f/716d36e05a9b594bb1fce46a39a2.jpg"},"large":{"default":"https://cdn.freshful.ro/media/cache/freshful_large/a9/5f/716d36e05a9b594bb1fce46a39a2.jpg"},"extralarge":{"default":"https://cdn.freshful.ro/media/cache/sylius_shop_product_original/a9/5f/716d36e05a9b594bb1fce46a39a2.jpg"}},"label":null,"tags":[],"isAvailable":true,"maxAvailableQuantity":48,"maxAllowedQuantity":100,"breadcrumbs":[{"code":"11","name":"Cosmetice","slug":"11-cosmetice-si-ingrijire-personala"},{"code":"1104","name":"Protecție solară","slug":"1104-produse-cu-protectie-solara"},{"code":"110403","name":"Protecție solară plajă","slug":"110403-protectie-solara-plaja"},{"code":"100138565","name":"Spray protecție solară Sensitive pentru copii, SPF 50+, 300ml","slug":"100138565-nivea-spray-protectie-solara-sensitive-pentru-copii-spf-50-300ml"}],"activePromotion":null,"saveMe":null,"labels":[],"geniusPrice":null,"geniusUnitPricePerLabel":null,"banner":null,"discountLabel":null,"geniusDiscountLabel":null,"badge":null},{"code":"100033728","variantCode":"9005800294698","name":"Spray de plajă cu caroten și vitamina E pentru bronz SPF 6 200ml","slug":"100033728-nivea-spray-de-plaja-cu-caroten-si-vitamina-e-pentru-bronz-spf-6-200ml","unitPriceLabel":"199,95 Lei/l","brand":"Nivea","brandCode":"316","brandFilterCode":"nivea-b317","sku":"100033728","price":39.99,"originalPrice":null,"currencyCode":"RON","currency":"Lei","image":{"thumbnail":{"default":"https://cdn.freshful.ro/media/cache/sylius_shop_product_thumbnail/d0/68/446053a65415a0ef30987ceba50d.jpg"},"large":{"default":"https://cdn.freshful.ro/media/cache/freshful_large/d0/68/446053a65415a0ef30987ceba50d.jpg"},"extralarge":{"default":"https://cdn.freshful.ro/media/cache/sylius_shop_product_original/d0/68/446053a65415a0ef30987ceba50d.jpg"}},"label":null,"tags":[],"isAvailable":true,"maxAvailableQuantity":40,"maxAllowedQuantity":100,"breadcrumbs":[{"code":"11","name":"Cosmetice","slug":"11-cosmetice-si-ingrijire-personala"},{"code":"1104","name":"Protecție solară","slug":"1104-produse-cu-protectie-solara"},{"code":"110403","name":"Protecție solară plajă","slug":"110403-protectie-solara-plaja"},{"code":"100033728","name":"Spray de plajă cu caroten și vitamina E pentru bronz SPF 6 200ml","slug":"100033728-nivea-spray-de-plaja-cu-caroten-si-vitamina-e-pentru-bronz-spf-6-200ml"}],"activePromotion":null,"saveMe":null,"labels":[],"geniusPrice":null,"geniusUnitPricePerLabel":null,"banner":null,"discountLabel":null,"geniusDiscountLabel":null,"badge":null},{"code":"100136074","variantCode":"5201314142980","name":"Loțiune spray protecție solară Sensitive SPF50+ 200ml","slug":"100136074-elmiplant-lotiune-spray-protectie-solara-sensitive-spf50-200ml","unitPriceLabel":"229,95 Lei/l","brand":"Elmiplant","brandCode":"550","brandFilterCode":"elmiplant-b551","sku":"100136074","price":45.99,"originalPrice":null,"currencyCode":"RON","currency":"Lei","image":{"thumbnail":{"default":"https://cdn.freshful.ro/media/cache/sylius_shop_product_thumbnail/eb/e3/c3e0fa0cb2555493d4ee094043ec.jpg"},"large":{"default":"https://cdn.freshful.ro/media/cache/freshful_large/eb/e3/c3e0fa0cb2555493d4ee094043ec.jpg"},"extralarge":{"default":"https://cdn.freshful.ro/media/cache/sylius_shop_product_original/eb/e3/c3e0fa0cb2555493d4ee094043ec.jpg"}},"label":null,"tags":[],"isAvailable":true,"maxAvailableQuantity":45,"maxAllowedQuantity":100,"breadcrumbs":[{"code":"11","name":"Cosmetice","slug":"11-cosmetice-si-ingrijire-personala"},{"code":"1104","name":"Protecție solară","slug":"1104-produse-cu-protectie-solara"},{"code":"110403","name":"Protecție solară plajă","slug":"110403-protectie-solara-plaja"},{"code":"100136074","name":"Loțiune spray protecție solară Sensitive SPF50+ 200ml","slug":"100136074-elmiplant-lotiune-spray-protectie-solara-sensitive-spf50-200ml"}],"activePromotion":null,"saveMe":null,"labels":[],"geniusPrice":null,"geniusUnitPricePerLabel":null,"banner":null,"discountLabel":null,"geniusDiscountLabel":null,"badge":null}],"filters":{"countSelected":0,"items":[{"code":"brand","name":"Brand","countSelected":0,"values":[{"code":"elmiplant-b551","name":"Elmiplant","isSelected":false,"count":6},{"code":"gerovital-b1837","name":"Gerovital","isSelected":false,"count":7},{"code":"nivea-b317","name":"Nivea","isSelected":false,"count":16}]},{"code":"diet_lifestyle","name":"Dietă și lifestyle","countSelected":0,"values":[{"code":"bio-a26","name":"Bio","isSelected":false,"count":1},{"code":"eco-a83","name":"Eco","isSelected":false,"count":2}]}]},"orderBy":[{"field":"price","direction":"asc","name":"Preț crescător","isSelected":false},{"field":"price","direction":"desc","name":"Preț descrescător","isSelected":false},{"field":"popularity","direction":"desc","name":"Cele mai populare","isSelected":true},{"field":"category","direction":"asc","name":"Categorie","isSelected":false}],"metaTitle":"Protecție solară plajă - Gamă variată","metaDescription":"Vrei Protecție solară plajă? Alege dintr-o gamă variată. Comanzi simplu și ai livrare rapidă, calitate și prospețime. Hai pe Freshful.ro","metaKeywords":null,"banners":[]}}