{"type":"subcategory","payload":{"analyticsListId":"category_1104-produse-cu-protectie-solara","analyticsListName":"Category - Protecție solară","name":"Protecție solară","slug":"1104-produse-cu-protectie-solara","image":null,"breadcrumbs":[{"code":"11","name":"Cosmetice","slug":"11-cosmetice-si-ingrijire-personala"},{"code":"1104","name":"Protecție solară","slug":"1104-produse-cu-protectie-solara"}],"slots":[],"page":1,"limit":10,"pages":5,"count":44,"siblings":[{"name":"Deodorante și parfumuri","slug":"1101-deodorante-si-parfumuri","selected":false},{"name":"Bărbierit și îngrijire ten","slug":"1102-produse-pentru-barbierit-si-ingrijit-ten","selected":false},{"name":"Demachiante și creme","slug":"1103-creme-intretinere-si-demachiante","selected":false},{"name":"Protecție solară","slug":"1104-produse-cu-protectie-solara","selected":true},{"name":"Ceară, benzi și creme depilatoare","slug":"1105-ceara-benzi-si-creme-depliatoare","selected":false},{"name":"Seturi cadou","slug":"1106-seturi-cadou","selected":false},{"name":"Îngrijirea părului","slug":"1107-ingrijirea-parului","selected":false},{"name":"Igienă intimă","slug":"1108-igienta-inima","selected":false},{"name":"Igienă dentară","slug":"1109-igiena-dentara","selected":false},{"name":"Săpunuri și geluri de duș","slug":"1110-sapunuri-si-geluri-de-dus","selected":false},{"name":"Dermatocosmetice și parafarmacie","slug":"1111-dermatocosmetice-si-parafarmacie","selected":false},{"name":"Repelent","slug":"repelent","selected":false}],"children":[{"name":"Toate produsele","slug":"1104-produse-cu-protectie-solara","selected":true},{"name":"Autobronzant","slug":"110402-autobronzant","selected":false},{"name":"Protecție solară plajă","slug":"110403-protectie-solara-plaja","selected":false},{"name":"Protecție solară după plajă","slug":"110404-protectie-solara-dupa-plaja","selected":false}],"products":[{"code":"100138568","variantCode":"100138568","name":"Cremă de față protecție solară UV Face Shine Control, SPF 50, 50ml","slug":"100138568-nivea-crema-de-fata-protectie-solara-uv-face-shine-control-spf-50-50ml","unitPriceLabel":"798 Lei/l","brand":"Nivea","brandCode":"316","brandFilterCode":"nivea-b317","sku":"100138568","price":39.9,"originalPrice":null,"currencyCode":"RON","currency":"Lei","image":{"thumbnail":{"default":"https://cdn.freshful.ro/media/cache/sylius_shop_product_thumbnail/4e/97/4abeb17ae3ef497fd6143355b5e0.jpg"},"large":{"default":"https://cdn.freshful.ro/media/cache/freshful_large/4e/97/4abeb17ae3ef497fd6143355b5e0.jpg"},"extralarge":{"default":"https://cdn.freshful.ro/media/cache/sylius_shop_product_original/4e/97/4abeb17ae3ef497fd6143355b5e0.jpg"}},"label":null,"tags":[],"isAvailable":true,"maxAvailableQuantity":38,"maxAllowedQuantity":100,"breadcrumbs":[{"code":"11","name":"Cosmetice","slug":"11-cosmetice-si-ingrijire-personala"},{"code":"1104","name":"Protecție solară","slug":"1104-produse-cu-protectie-solara"},{"code":"110404","name":"Protecție solară după plajă","slug":"110404-protectie-solara-dupa-plaja"},{"code":"100138568","name":"Cremă de față protecție solară UV Face Shine Control, SPF 50, 50ml","slug":"100138568-nivea-crema-de-fata-protectie-solara-uv-face-shine-control-spf-50-50ml"}],"activePromotion":null,"saveMe":null,"labels":[],"geniusPrice":null,"geniusUnitPricePerLabel":null,"banner":null,"discountLabel":null,"geniusDiscountLabel":null,"badge":null},{"code":"100033819","variantCode":"100033819","name":"Cremă de față antirid cu protecție solară UV Face SPF50, 50ml","slug":"100033819-nivea-crema-de-fata-antirid-cu-protectie-solara-uv-face-spf50-50ml","unitPriceLabel":"779,8 Lei/l","brand":"Nivea","brandCode":"316","brandFilterCode":"nivea-b317","sku":"100033819","price":38.99,"originalPrice":null,"currencyCode":"RON","currency":"Lei","image":{"thumbnail":{"default":"https://cdn.freshful.ro/media/cache/sylius_shop_product_thumbnail/11/fe/0c4deeded8580f0ded0e4ea1c34b.jpg"},"large":{"default":"https://cdn.freshful.ro/media/cache/freshful_large/11/fe/0c4deeded8580f0ded0e4ea1c34b.jpg"},"extralarge":{"default":"https://cdn.freshful.ro/media/cache/sylius_shop_product_original/11/fe/0c4deeded8580f0ded0e4ea1c34b.jpg"}},"label":null,"tags":[],"isAvailable":true,"maxAvailableQuantity":53,"maxAllowedQuantity":100,"breadcrumbs":[{"code":"11","name":"Cosmetice","slug":"11-cosmetice-si-ingrijire-personala"},{"code":"1104","name":"Protecție solară","slug":"1104-produse-cu-protectie-solara"},{"code":"110403","name":"Protecție solară plajă","slug":"110403-protectie-solara-plaja"},{"code":"100033819","name":"Cremă de față antirid cu protecție solară UV Face SPF50, 50ml","slug":"100033819-nivea-crema-de-fata-antirid-cu-protectie-solara-uv-face-spf50-50ml"}],"activePromotion":null,"saveMe":null,"labels":[],"geniusPrice":null,"geniusUnitPricePerLabel":null,"banner":null,"discountLabel":null,"geniusDiscountLabel":null,"badge":null},{"code":"100138566","variantCode":"100138566","name":"Spray hidratant după plajă 200ml","slug":"100138566-nivea-spray-hidratant-dupa-plaja-200ml","unitPriceLabel":"144,95 Lei/l","brand":"Nivea","brandCode":"316","brandFilterCode":"nivea-b317","sku":"100138566","price":28.99,"originalPrice":null,"currencyCode":"RON","currency":"Lei","image":{"thumbnail":{"default":"https://cdn.freshful.ro/media/cache/sylius_shop_product_thumbnail/49/6a/8c6191ac677e47bcb68456d24be6.jpg"},"large":{"default":"https://cdn.freshful.ro/media/cache/freshful_large/49/6a/8c6191ac677e47bcb68456d24be6.jpg"},"extralarge":{"default":"https://cdn.freshful.ro/media/cache/sylius_shop_product_original/49/6a/8c6191ac677e47bcb68456d24be6.jpg"}},"label":null,"tags":[],"isAvailable":true,"maxAvailableQuantity":8,"maxAllowedQuantity":100,"breadcrumbs":[{"code":"11","name":"Cosmetice","slug":"11-cosmetice-si-ingrijire-personala"},{"code":"1104","name":"Protecție solară","slug":"1104-produse-cu-protectie-solara"},{"code":"110404","name":"Protecție solară după plajă","slug":"110404-protectie-solara-dupa-plaja"},{"code":"100138566","name":"Spray hidratant după plajă 200ml","slug":"100138566-nivea-spray-hidratant-dupa-plaja-200ml"}],"activePromotion":null,"saveMe":null,"labels":[],"geniusPrice":null,"geniusUnitPricePerLabel":null,"banner":null,"discountLabel":null,"geniusDiscountLabel":null,"badge":null},{"code":"100136096","variantCode":"100136096","name":"Loțiune spray după plajă 200ml","slug":"100136096-elmiplant-lotiune-spray-dupa-plaja-200ml","unitPriceLabel":"89,9 Lei/l","brand":"Elmiplant","brandCode":"550","brandFilterCode":"elmiplant-b551","sku":"100136096","price":17.98,"originalPrice":null,"currencyCode":"RON","currency":"Lei","image":{"thumbnail":{"default":"https://cdn.freshful.ro/media/cache/sylius_shop_product_thumbnail/4c/ff/d6e415132ca4c74f246bbe554c6d.jpg"},"large":{"default":"https://cdn.freshful.ro/media/cache/freshful_large/4c/ff/d6e415132ca4c74f246bbe554c6d.jpg"},"extralarge":{"default":"https://cdn.freshful.ro/media/cache/sylius_shop_product_original/4c/ff/d6e415132ca4c74f246bbe554c6d.jpg"}},"label":null,"tags":[],"isAvailable":true,"maxAvailableQuantity":30,"maxAllowedQuantity":100,"breadcrumbs":[{"code":"11","name":"Cosmetice","slug":"11-cosmetice-si-ingrijire-personala"},{"code":"1104","name":"Protecție solară","slug":"1104-produse-cu-protectie-solara"},{"code":"110404","name":"Protecție solară după plajă","slug":"110404-protectie-solara-dupa-plaja"},{"code":"100136096","name":"Loțiune spray după plajă 200ml","slug":"100136096-elmiplant-lotiune-spray-dupa-plaja-200ml"}],"activePromotion":null,"saveMe":null,"labels":[],"geniusPrice":null,"geniusUnitPricePerLabel":null,"banner":null,"discountLabel":null,"geniusDiscountLabel":null,"badge":null},{"code":"100138359","variantCode":"100138359","name":"Cremă protecție solară Sun, SPF 50, 100ml","slug":"100138359-gerovital-crema-protectie-solara-sun-spf-50-100ml","unitPriceLabel":"415,9 Lei/l","brand":"Gerovital","brandCode":"1833","brandFilterCode":"gerovital-b1837","sku":"100138359","price":41.59,"originalPrice":null,"currencyCode":"RON","currency":"Lei","image":{"thumbnail":{"default":"https://cdn.freshful.ro/media/cache/sylius_shop_product_thumbnail/37/b4/a9d0e2fd65dd67b95fa239174886.jpg"},"large":{"default":"https://cdn.freshful.ro/media/cache/freshful_large/37/b4/a9d0e2fd65dd67b95fa239174886.jpg"},"extralarge":{"default":"https://cdn.freshful.ro/media/cache/sylius_shop_product_original/37/b4/a9d0e2fd65dd67b95fa239174886.jpg"}},"label":null,"tags":[],"isAvailable":true,"maxAvailableQuantity":5,"maxAllowedQuantity":100,"breadcrumbs":[{"code":"11","name":"Cosmetice","slug":"11-cosmetice-si-ingrijire-personala"},{"code":"1104","name":"Protecție solară","slug":"1104-produse-cu-protectie-solara"},{"code":"110403","name":"Protecție solară plajă","slug":"110403-protectie-solara-plaja"},{"code":"100138359","name":"Cremă protecție solară Sun, SPF 50, 100ml","slug":"100138359-gerovital-crema-protectie-solara-sun-spf-50-100ml"}],"activePromotion":null,"saveMe":null,"labels":[],"geniusPrice":null,"geniusUnitPricePerLabel":null,"banner":null,"discountLabel":null,"geniusDiscountLabel":null,"badge":null},{"code":"100033818","variantCode":"100033818","name":"Spray cu protecție solară și bronzare SPF30, 200ml","slug":"100033818-nivea-spray-cu-protectie-solara-si-bronzare-spf30-200ml","unitPriceLabel":"249,95 Lei/l","brand":"Nivea","brandCode":"316","brandFilterCode":"nivea-b317","sku":"100033818","price":49.99,"originalPrice":null,"currencyCode":"RON","currency":"Lei","image":{"thumbnail":{"default":"https://cdn.freshful.ro/media/cache/sylius_shop_product_thumbnail/3c/67/51feb506b1e795b5a3bdb47882b2.jpg"},"large":{"default":"https://cdn.freshful.ro/media/cache/freshful_large/3c/67/51feb506b1e795b5a3bdb47882b2.jpg"},"extralarge":{"default":"https://cdn.freshful.ro/media/cache/sylius_shop_product_original/3c/67/51feb506b1e795b5a3bdb47882b2.jpg"}},"label":null,"tags":[],"isAvailable":true,"maxAvailableQuantity":11,"maxAllowedQuantity":100,"breadcrumbs":[{"code":"11","name":"Cosmetice","slug":"11-cosmetice-si-ingrijire-personala"},{"code":"1104","name":"Protecție solară","slug":"1104-produse-cu-protectie-solara"},{"code":"110403","name":"Protecție solară plajă","slug":"110403-protectie-solara-plaja"},{"code":"100033818","name":"Spray cu protecție solară și bronzare SPF30, 200ml","slug":"100033818-nivea-spray-cu-protectie-solara-si-bronzare-spf30-200ml"}],"activePromotion":null,"saveMe":null,"labels":[],"geniusPrice":null,"geniusUnitPricePerLabel":null,"banner":null,"discountLabel":null,"geniusDiscountLabel":null,"badge":null},{"code":"100136076","variantCode":"100136076","name":"Ulei spray bronzare rapidă 150ml","slug":"100136076-elmiplant-ulei-spray-bronzare-rapida-150ml","unitPriceLabel":"106,6 Lei/l","brand":"Elmiplant","brandCode":"550","brandFilterCode":"elmiplant-b551","sku":"100136076","price":15.99,"originalPrice":null,"currencyCode":"RON","currency":"Lei","image":{"thumbnail":{"default":"https://cdn.freshful.ro/media/cache/sylius_shop_product_thumbnail/40/e5/54457b246f6bd39a3cfce534d6b0.jpg"},"large":{"default":"https://cdn.freshful.ro/media/cache/freshful_large/40/e5/54457b246f6bd39a3cfce534d6b0.jpg"},"extralarge":{"default":"https://cdn.freshful.ro/media/cache/sylius_shop_product_original/40/e5/54457b246f6bd39a3cfce534d6b0.jpg"}},"label":null,"tags":[],"isAvailable":true,"maxAvailableQuantity":4,"maxAllowedQuantity":100,"breadcrumbs":[{"code":"11","name":"Cosmetice","slug":"11-cosmetice-si-ingrijire-personala"},{"code":"1104","name":"Protecție solară","slug":"1104-produse-cu-protectie-solara"},{"code":"110402","name":"Autobronzant","slug":"110402-autobronzant"},{"code":"100136076","name":"Ulei spray bronzare rapidă 150ml","slug":"100136076-elmiplant-ulei-spray-bronzare-rapida-150ml"}],"activePromotion":null,"saveMe":null,"labels":[],"geniusPrice":null,"geniusUnitPricePerLabel":null,"banner":null,"discountLabel":null,"geniusDiscountLabel":null,"badge":null},{"code":"100138365","variantCode":"100138365","name":"Loțiune spray 3in1 după plajă Sun 150ml","slug":"100138365-gerovital-lotiune-spray-3in1-dupa-plaja-sun-150ml","unitPriceLabel":"117,93 Lei/l","brand":"Gerovital","brandCode":"1833","brandFilterCode":"gerovital-b1837","sku":"100138365","price":17.69,"originalPrice":null,"currencyCode":"RON","currency":"Lei","image":{"thumbnail":{"default":"https://cdn.freshful.ro/media/cache/sylius_shop_product_thumbnail/83/af/c9e54e9545999502aaebdf7e06b8.jpg"},"large":{"default":"https://cdn.freshful.ro/media/cache/freshful_large/83/af/c9e54e9545999502aaebdf7e06b8.jpg"},"extralarge":{"default":"https://cdn.freshful.ro/media/cache/sylius_shop_product_original/83/af/c9e54e9545999502aaebdf7e06b8.jpg"}},"label":null,"tags":[],"isAvailable":true,"maxAvailableQuantity":3,"maxAllowedQuantity":100,"breadcrumbs":[{"code":"11","name":"Cosmetice","slug":"11-cosmetice-si-ingrijire-personala"},{"code":"1104","name":"Protecție solară","slug":"1104-produse-cu-protectie-solara"},{"code":"110404","name":"Protecție solară după plajă","slug":"110404-protectie-solara-dupa-plaja"},{"code":"100138365","name":"Loțiune spray 3in1 după plajă Sun 150ml","slug":"100138365-gerovital-lotiune-spray-3in1-dupa-plaja-sun-150ml"}],"activePromotion":null,"saveMe":null,"labels":[],"geniusPrice":null,"geniusUnitPricePerLabel":null,"banner":null,"discountLabel":null,"geniusDiscountLabel":null,"badge":null},{"code":"100138372","variantCode":"100138372","name":"Cremă protecție solară pentru copii H3 Derma+ Sun, SPF 50, 100ml","slug":"100138372-gerovital-crema-protectie-solara-pentru-copii-h3-derma-sun-spf-50-100ml","unitPriceLabel":"589,9 Lei/l","brand":"Gerovital","brandCode":"1833","brandFilterCode":"gerovital-b1837","sku":"100138372","price":58.99,"originalPrice":null,"currencyCode":"RON","currency":"Lei","image":{"thumbnail":{"default":"https://cdn.freshful.ro/media/cache/sylius_shop_product_thumbnail/28/70/f721b3283fc4ec44733fb7c64b42.jpg"},"large":{"default":"https://cdn.freshful.ro/media/cache/freshful_large/28/70/f721b3283fc4ec44733fb7c64b42.jpg"},"extralarge":{"default":"https://cdn.freshful.ro/media/cache/sylius_shop_product_original/28/70/f721b3283fc4ec44733fb7c64b42.jpg"}},"label":null,"tags":[],"isAvailable":true,"maxAvailableQuantity":11,"maxAllowedQuantity":100,"breadcrumbs":[{"code":"11","name":"Cosmetice","slug":"11-cosmetice-si-ingrijire-personala"},{"code":"1104","name":"Protecție solară","slug":"1104-produse-cu-protectie-solara"},{"code":"110403","name":"Protecție solară plajă","slug":"110403-protectie-solara-plaja"},{"code":"100138372","name":"Cremă protecție solară pentru copii H3 Derma+ Sun, SPF 50, 100ml","slug":"100138372-gerovital-crema-protectie-solara-pentru-copii-h3-derma-sun-spf-50-100ml"}],"activePromotion":null,"saveMe":null,"labels":[],"geniusPrice":null,"geniusUnitPricePerLabel":null,"banner":null,"discountLabel":null,"geniusDiscountLabel":null,"badge":null},{"code":"100138555","variantCode":"100138555","name":"Loțiune cu protecție solară SPF 30, 400ml","slug":"100138555-nivea-lotiune-cu-protectie-solara-spf-30-400ml","unitPriceLabel":"169,95 Lei/l","brand":"Nivea","brandCode":"316","brandFilterCode":"nivea-b317","sku":"100138555","price":67.98,"originalPrice":null,"currencyCode":"RON","currency":"Lei","image":{"thumbnail":{"default":"https://cdn.freshful.ro/media/cache/sylius_shop_product_thumbnail/09/b9/7e5b26a879cf908bdf68b098de3b.jpg"},"large":{"default":"https://cdn.freshful.ro/media/cache/freshful_large/09/b9/7e5b26a879cf908bdf68b098de3b.jpg"},"extralarge":{"default":"https://cdn.freshful.ro/media/cache/sylius_shop_product_original/09/b9/7e5b26a879cf908bdf68b098de3b.jpg"}},"label":null,"tags":[],"isAvailable":true,"maxAvailableQuantity":48,"maxAllowedQuantity":100,"breadcrumbs":[{"code":"11","name":"Cosmetice","slug":"11-cosmetice-si-ingrijire-personala"},{"code":"1104","name":"Protecție solară","slug":"1104-produse-cu-protectie-solara"},{"code":"110403","name":"Protecție solară plajă","slug":"110403-protectie-solara-plaja"},{"code":"100138555","name":"Loțiune cu protecție solară SPF 30, 400ml","slug":"100138555-nivea-lotiune-cu-protectie-solara-spf-30-400ml"}],"activePromotion":null,"saveMe":null,"labels":[],"geniusPrice":null,"geniusUnitPricePerLabel":null,"banner":null,"discountLabel":null,"geniusDiscountLabel":null,"badge":null}],"filters":{"countSelected":0,"items":[{"code":"brand","name":"Brand","countSelected":0,"values":[{"code":"elmiplant-b551","name":"Elmiplant","isSelected":false,"count":8},{"code":"gerovital-b1837","name":"Gerovital","isSelected":false,"count":14},{"code":"nivea-b317","name":"Nivea","isSelected":false,"count":22}]},{"code":"diet_lifestyle","name":"Dietă și lifestyle","countSelected":0,"values":[{"code":"bio-a26","name":"Bio","isSelected":false,"count":1},{"code":"eco-a83","name":"Eco","isSelected":false,"count":2}]}]},"orderBy":[{"field":"price","direction":"asc","name":"Preț crescător","isSelected":false},{"field":"price","direction":"desc","name":"Preț descrescător","isSelected":false},{"field":"popularity","direction":"desc","name":"Cele mai populare","isSelected":true},{"field":"category","direction":"asc","name":"Categorie","isSelected":false}],"metaTitle":"Protecție solară - Gamă variată","metaDescription":"Vrei Protecție solară? Alege dintr-o gamă variată. Comanzi simplu și ai livrare rapidă, calitate și prospețime. Hai pe Freshful.ro","metaKeywords":null,"banners":[]}}