{"type":"subcategory","payload":{"analyticsListId":"category_110504-aparate-de-ras-epliare","analyticsListName":"Category - Aparate de ras și epilat","name":"Aparate de ras și epilat","slug":"110504-aparate-de-ras-epliare","image":null,"breadcrumbs":[{"code":"11","name":"Cosmetice","slug":"11-cosmetice-si-ingrijire-personala"},{"code":"1105","name":"Ceară, benzi și creme depilatoare","slug":"1105-ceara-benzi-si-creme-depliatoare"},{"code":"110504","name":"Aparate de ras și epilat","slug":"110504-aparate-de-ras-epliare"}],"slots":[],"page":1,"limit":10,"pages":3,"count":26,"siblings":[{"name":"Deodorante și parfumuri","slug":"1101-deodorante-si-parfumuri","selected":false},{"name":"Bărbierit și îngrijire ten","slug":"1102-produse-pentru-barbierit-si-ingrijit-ten","selected":false},{"name":"Demachiante și creme","slug":"1103-creme-intretinere-si-demachiante","selected":false},{"name":"Protecție solară","slug":"1104-produse-cu-protectie-solara","selected":false},{"name":"Ceară, benzi și creme depilatoare","slug":"1105-ceara-benzi-si-creme-depliatoare","selected":true},{"name":"Seturi cadou","slug":"1106-seturi-cadou","selected":false},{"name":"Îngrijirea părului","slug":"1107-ingrijirea-parului","selected":false},{"name":"Igienă intimă","slug":"1108-igienta-inima","selected":false},{"name":"Igienă dentară","slug":"1109-igiena-dentara","selected":false},{"name":"Săpunuri și geluri de duș","slug":"1110-sapunuri-si-geluri-de-dus","selected":false},{"name":"Dermatocosmetice și parafarmacie","slug":"1111-dermatocosmetice-si-parafarmacie","selected":false},{"name":"Repelent","slug":"repelent","selected":false}],"children":[{"name":"Toate produsele","slug":"1105-ceara-benzi-si-creme-depliatoare","selected":false},{"name":"Ceară depilatoare","slug":"110501-ceara-epliare","selected":false},{"name":"Cremă depilatoare","slug":"110502-crema-epilare","selected":false},{"name":"Gel și spumă depilatoare","slug":"110503-gel-si-spuma-epilare","selected":false},{"name":"Aparate de ras și epilat","slug":"110504-aparate-de-ras-epliare","selected":true}],"products":[{"code":"100091353","variantCode":"100091353","name":"Aparat de ras de unică folosință Tresures pentru femei 3 buc","slug":"100091353-gillette-venus-aparat-de-ras-de-unica-folosinta-tresures-pentru-femei-3-buc","unitPriceLabel":"","brand":"Gillette Venus","brandCode":"661","brandFilterCode":"gillette-venus-b662","sku":"100091353","price":28.99,"originalPrice":30.9,"currencyCode":"RON","currency":"Lei","image":{"thumbnail":{"default":"https://cdn.freshful.ro/media/cache/sylius_shop_product_thumbnail/c6/8c/2e9ff0b597943ea6ea999c2d0e49.jpg"},"large":{"default":"https://cdn.freshful.ro/media/cache/freshful_large/c6/8c/2e9ff0b597943ea6ea999c2d0e49.jpg"},"extralarge":{"default":"https://cdn.freshful.ro/media/cache/sylius_shop_product_original/c6/8c/2e9ff0b597943ea6ea999c2d0e49.jpg"}},"label":{"text":"-6%","backgroundColor":"#FF9903","textColor":"#FFFFFF"},"tags":[],"isAvailable":true,"maxAvailableQuantity":53,"maxAllowedQuantity":100,"breadcrumbs":[{"code":"11","name":"Cosmetice","slug":"11-cosmetice-si-ingrijire-personala"},{"code":"1105","name":"Ceară, benzi și creme depilatoare","slug":"1105-ceara-benzi-si-creme-depliatoare"},{"code":"110504","name":"Aparate de ras și epilat","slug":"110504-aparate-de-ras-epliare"},{"code":"100091353","name":"Aparat de ras de unică folosință Tresures pentru femei 3 buc","slug":"100091353-gillette-venus-aparat-de-ras-de-unica-folosinta-tresures-pentru-femei-3-buc"}],"activePromotion":{"code":"oferte-dph-21feb-8mar23","name":"Preț redus","targetQuantity":null},"saveMe":null,"labels":[{"type":"v1","items":[{"text":"-6%","backgroundColor":"#FF9903","textColor":"#FFFFFF"}]}],"geniusPrice":null,"geniusUnitPricePerLabel":null,"banner":{"text":"Super preț","textColor":"#FF0000","bgColor":"#FFF2EC","icon":null,"link":"https://www.freshful.ro/oferte/oferte-dph-21feb-8mar23","type":"promo","analyticsEventType":"select_promotion","analyticsEventPayload":{"promotion_id":"oferte-dph-21feb-8mar23","promotion_name":"Curățenie și îngrijire personală"}},"discountLabel":"Economisești 6%","geniusDiscountLabel":null,"badge":null},{"code":"100091355","variantCode":"100091355","name":"Aparat de ras de unică folosință Oceana pentru femei 3 buc","slug":"100091355-gillette-venus-aparat-de-ras-de-unica-folosinta-oceana-pentru-femei-3-buc","unitPriceLabel":"","brand":"Gillette Venus","brandCode":"661","brandFilterCode":"gillette-venus-b662","sku":"100091355","price":23.9,"originalPrice":null,"currencyCode":"RON","currency":"Lei","image":{"thumbnail":{"default":"https://cdn.freshful.ro/media/cache/sylius_shop_product_thumbnail/ef/b8/e44668d38a6f35992c0763ebf8da.jpg"},"large":{"default":"https://cdn.freshful.ro/media/cache/freshful_large/ef/b8/e44668d38a6f35992c0763ebf8da.jpg"},"extralarge":{"default":"https://cdn.freshful.ro/media/cache/sylius_shop_product_original/ef/b8/e44668d38a6f35992c0763ebf8da.jpg"}},"label":null,"tags":[],"isAvailable":true,"maxAvailableQuantity":100,"maxAllowedQuantity":100,"breadcrumbs":[{"code":"11","name":"Cosmetice","slug":"11-cosmetice-si-ingrijire-personala"},{"code":"1105","name":"Ceară, benzi și creme depilatoare","slug":"1105-ceara-benzi-si-creme-depliatoare"},{"code":"110504","name":"Aparate de ras și epilat","slug":"110504-aparate-de-ras-epliare"},{"code":"100091355","name":"Aparat de ras de unică folosință Oceana pentru femei 3 buc","slug":"100091355-gillette-venus-aparat-de-ras-de-unica-folosinta-oceana-pentru-femei-3-buc"}],"activePromotion":null,"saveMe":null,"labels":[],"geniusPrice":null,"geniusUnitPricePerLabel":null,"banner":null,"discountLabel":null,"geniusDiscountLabel":null,"badge":null},{"code":"100100964","variantCode":"100100964","name":"Aparat de ras Miss Soleil 3+1 buc","slug":"100100964-bic-aparat-de-ras-miss-soleil-3-1-buc","unitPriceLabel":"3,38 Lei/buc","brand":"BiC","brandCode":"319","brandFilterCode":"bic-b320","sku":"100100964","price":13.5,"originalPrice":null,"currencyCode":"RON","currency":"Lei","image":{"thumbnail":{"default":"https://cdn.freshful.ro/media/cache/sylius_shop_product_thumbnail/f2/20/d42de39f46d380695a6548be4084.jpg"},"large":{"default":"https://cdn.freshful.ro/media/cache/freshful_large/f2/20/d42de39f46d380695a6548be4084.jpg"},"extralarge":{"default":"https://cdn.freshful.ro/media/cache/sylius_shop_product_original/f2/20/d42de39f46d380695a6548be4084.jpg"}},"label":null,"tags":[],"isAvailable":true,"maxAvailableQuantity":69,"maxAllowedQuantity":100,"breadcrumbs":[{"code":"11","name":"Cosmetice","slug":"11-cosmetice-si-ingrijire-personala"},{"code":"1105","name":"Ceară, benzi și creme depilatoare","slug":"1105-ceara-benzi-si-creme-depliatoare"},{"code":"110504","name":"Aparate de ras și epilat","slug":"110504-aparate-de-ras-epliare"},{"code":"100100964","name":"Aparat de ras Miss Soleil 3+1 buc","slug":"100100964-bic-aparat-de-ras-miss-soleil-3-1-buc"}],"activePromotion":null,"saveMe":null,"labels":[],"geniusPrice":null,"geniusUnitPricePerLabel":null,"banner":null,"discountLabel":null,"geniusDiscountLabel":null,"badge":null},{"code":"100091359","variantCode":"100091359","name":"Aparat de ras de unică folosință Simply Venus pentru femei 4 buc","slug":"100091359-gillette-venus-aparat-de-ras-de-unica-folosinta-simply-venus-pentru-femei-4-buc","unitPriceLabel":"","brand":"Gillette Venus","brandCode":"661","brandFilterCode":"gillette-venus-b662","sku":"100091359","price":13.9,"originalPrice":null,"currencyCode":"RON","currency":"Lei","image":{"thumbnail":{"default":"https://cdn.freshful.ro/media/cache/sylius_shop_product_thumbnail/5b/25/abaf831059ff46fced88ab73ac55.jpg"},"large":{"default":"https://cdn.freshful.ro/media/cache/freshful_large/5b/25/abaf831059ff46fced88ab73ac55.jpg"},"extralarge":{"default":"https://cdn.freshful.ro/media/cache/sylius_shop_product_original/5b/25/abaf831059ff46fced88ab73ac55.jpg"}},"label":null,"tags":[],"isAvailable":true,"maxAvailableQuantity":47,"maxAllowedQuantity":100,"breadcrumbs":[{"code":"11","name":"Cosmetice","slug":"11-cosmetice-si-ingrijire-personala"},{"code":"1105","name":"Ceară, benzi și creme depilatoare","slug":"1105-ceara-benzi-si-creme-depliatoare"},{"code":"110504","name":"Aparate de ras și epilat","slug":"110504-aparate-de-ras-epliare"},{"code":"100091359","name":"Aparat de ras de unică folosință Simply Venus pentru femei 4 buc","slug":"100091359-gillette-venus-aparat-de-ras-de-unica-folosinta-simply-venus-pentru-femei-4-buc"}],"activePromotion":null,"saveMe":null,"labels":[],"geniusPrice":null,"geniusUnitPricePerLabel":null,"banner":null,"discountLabel":null,"geniusDiscountLabel":null,"badge":null},{"code":"100100970","variantCode":"100100970","name":"Aparat de ras Miss Soleil Colour Collection 3+1buc","slug":"100100970-bic-aparat-de-ras-miss-soleil-colour-collection-3-1buc","unitPriceLabel":"3,38 Lei/buc","brand":"BiC","brandCode":"319","brandFilterCode":"bic-b320","sku":"100100970","price":13.5,"originalPrice":null,"currencyCode":"RON","currency":"Lei","image":{"thumbnail":{"default":"https://cdn.freshful.ro/media/cache/sylius_shop_product_thumbnail/0f/4b/4ba8af567ceda26284958f17cd2a.jpg"},"large":{"default":"https://cdn.freshful.ro/media/cache/freshful_large/0f/4b/4ba8af567ceda26284958f17cd2a.jpg"},"extralarge":{"default":"https://cdn.freshful.ro/media/cache/sylius_shop_product_original/0f/4b/4ba8af567ceda26284958f17cd2a.jpg"}},"label":null,"tags":[],"isAvailable":true,"maxAvailableQuantity":14,"maxAllowedQuantity":100,"breadcrumbs":[{"code":"11","name":"Cosmetice","slug":"11-cosmetice-si-ingrijire-personala"},{"code":"1105","name":"Ceară, benzi și creme depilatoare","slug":"1105-ceara-benzi-si-creme-depliatoare"},{"code":"110504","name":"Aparate de ras și epilat","slug":"110504-aparate-de-ras-epliare"},{"code":"100100970","name":"Aparat de ras Miss Soleil Colour Collection 3+1buc","slug":"100100970-bic-aparat-de-ras-miss-soleil-colour-collection-3-1buc"}],"activePromotion":null,"saveMe":null,"labels":[],"geniusPrice":null,"geniusUnitPricePerLabel":null,"banner":null,"discountLabel":null,"geniusDiscountLabel":null,"badge":null},{"code":"100100965","variantCode":"100100965","name":"Aparat de ras Miss Soleil Special Edition 4 buc","slug":"100100965-bic-aparat-de-ras-miss-soleil-special-edition-4-buc","unitPriceLabel":"4,25 Lei/buc","brand":"BiC","brandCode":"319","brandFilterCode":"bic-b320","sku":"100100965","price":16.98,"originalPrice":null,"currencyCode":"RON","currency":"Lei","image":{"thumbnail":{"default":"https://cdn.freshful.ro/media/cache/sylius_shop_product_thumbnail/f1/77/a0e25189a4850a203ea0361f49fd.jpg"},"large":{"default":"https://cdn.freshful.ro/media/cache/freshful_large/f1/77/a0e25189a4850a203ea0361f49fd.jpg"},"extralarge":{"default":"https://cdn.freshful.ro/media/cache/sylius_shop_product_original/f1/77/a0e25189a4850a203ea0361f49fd.jpg"}},"label":null,"tags":[],"isAvailable":true,"maxAvailableQuantity":5,"maxAllowedQuantity":100,"breadcrumbs":[{"code":"11","name":"Cosmetice","slug":"11-cosmetice-si-ingrijire-personala"},{"code":"1105","name":"Ceară, benzi și creme depilatoare","slug":"1105-ceara-benzi-si-creme-depliatoare"},{"code":"110504","name":"Aparate de ras și epilat","slug":"110504-aparate-de-ras-epliare"},{"code":"100100965","name":"Aparat de ras Miss Soleil Special Edition 4 buc","slug":"100100965-bic-aparat-de-ras-miss-soleil-special-edition-4-buc"}],"activePromotion":null,"saveMe":null,"labels":[],"geniusPrice":null,"geniusUnitPricePerLabel":null,"banner":null,"discountLabel":null,"geniusDiscountLabel":null,"badge":null},{"code":"100100961","variantCode":"100100961","name":"Aparat de ras Pure Lady 4+2buc","slug":"100100961-bic-aparat-de-ras-pure-lady-4-2buc","unitPriceLabel":"2,25 Lei/buc","brand":"BiC","brandCode":"319","brandFilterCode":"bic-b320","sku":"100100961","price":13.5,"originalPrice":null,"currencyCode":"RON","currency":"Lei","image":{"thumbnail":{"default":"https://cdn.freshful.ro/media/cache/sylius_shop_product_thumbnail/d8/d4/8d72e550329e1f3cc870620eb898.jpg"},"large":{"default":"https://cdn.freshful.ro/media/cache/freshful_large/d8/d4/8d72e550329e1f3cc870620eb898.jpg"},"extralarge":{"default":"https://cdn.freshful.ro/media/cache/sylius_shop_product_original/d8/d4/8d72e550329e1f3cc870620eb898.jpg"}},"label":null,"tags":[],"isAvailable":true,"maxAvailableQuantity":26,"maxAllowedQuantity":100,"breadcrumbs":[{"code":"11","name":"Cosmetice","slug":"11-cosmetice-si-ingrijire-personala"},{"code":"1105","name":"Ceară, benzi și creme depilatoare","slug":"1105-ceara-benzi-si-creme-depliatoare"},{"code":"110504","name":"Aparate de ras și epilat","slug":"110504-aparate-de-ras-epliare"},{"code":"100100961","name":"Aparat de ras Pure Lady 4+2buc","slug":"100100961-bic-aparat-de-ras-pure-lady-4-2buc"}],"activePromotion":null,"saveMe":null,"labels":[],"geniusPrice":null,"geniusUnitPricePerLabel":null,"banner":null,"discountLabel":null,"geniusDiscountLabel":null,"badge":null},{"code":"100091364","variantCode":"100091364","name":"Rezerve aparat de ras Comfortglide 4 buc ","slug":"100091364-gillette-venus-rezerve-aparat-de-ras-comfortglide-4-buc","unitPriceLabel":"","brand":"Gillette Venus","brandCode":"661","brandFilterCode":"gillette-venus-b662","sku":"100091364","price":51.5,"originalPrice":null,"currencyCode":"RON","currency":"Lei","image":{"thumbnail":{"default":"https://cdn.freshful.ro/media/cache/sylius_shop_product_thumbnail/b0/1f/5c0ab43edb7b1fceb3440e5acbfd.jpg"},"large":{"default":"https://cdn.freshful.ro/media/cache/freshful_large/b0/1f/5c0ab43edb7b1fceb3440e5acbfd.jpg"},"extralarge":{"default":"https://cdn.freshful.ro/media/cache/sylius_shop_product_original/b0/1f/5c0ab43edb7b1fceb3440e5acbfd.jpg"}},"label":null,"tags":[],"isAvailable":true,"maxAvailableQuantity":80,"maxAllowedQuantity":100,"breadcrumbs":[{"code":"11","name":"Cosmetice","slug":"11-cosmetice-si-ingrijire-personala"},{"code":"1105","name":"Ceară, benzi și creme depilatoare","slug":"1105-ceara-benzi-si-creme-depliatoare"},{"code":"110504","name":"Aparate de ras și epilat","slug":"110504-aparate-de-ras-epliare"},{"code":"100091364","name":"Rezerve aparat de ras Comfortglide 4 buc ","slug":"100091364-gillette-venus-rezerve-aparat-de-ras-comfortglide-4-buc"}],"activePromotion":null,"saveMe":null,"labels":[],"geniusPrice":null,"geniusUnitPricePerLabel":null,"banner":null,"discountLabel":null,"geniusDiscountLabel":null,"badge":null},{"code":"100091358","variantCode":"100091358","name":"Aparat de ras de unică folosință Simply pentru femei 6 buc","slug":"100091358-gillette-venus-aparat-de-ras-de-unica-folosinta-simply-pentru-femei-6-buc","unitPriceLabel":"","brand":"Gillette Venus","brandCode":"661","brandFilterCode":"gillette-venus-b662","sku":"100091358","price":16.89,"originalPrice":null,"currencyCode":"RON","currency":"Lei","image":{"thumbnail":{"default":"https://cdn.freshful.ro/media/cache/sylius_shop_product_thumbnail/c1/b8/de090e6b760790ffbb692d1da9a2.jpg"},"large":{"default":"https://cdn.freshful.ro/media/cache/freshful_large/c1/b8/de090e6b760790ffbb692d1da9a2.jpg"},"extralarge":{"default":"https://cdn.freshful.ro/media/cache/sylius_shop_product_original/c1/b8/de090e6b760790ffbb692d1da9a2.jpg"}},"label":null,"tags":[],"isAvailable":true,"maxAvailableQuantity":31,"maxAllowedQuantity":100,"breadcrumbs":[{"code":"11","name":"Cosmetice","slug":"11-cosmetice-si-ingrijire-personala"},{"code":"1105","name":"Ceară, benzi și creme depilatoare","slug":"1105-ceara-benzi-si-creme-depliatoare"},{"code":"110504","name":"Aparate de ras și epilat","slug":"110504-aparate-de-ras-epliare"},{"code":"100091358","name":"Aparat de ras de unică folosință Simply pentru femei 6 buc","slug":"100091358-gillette-venus-aparat-de-ras-de-unica-folosinta-simply-pentru-femei-6-buc"}],"activePromotion":null,"saveMe":null,"labels":[],"geniusPrice":null,"geniusUnitPricePerLabel":null,"banner":null,"discountLabel":null,"geniusDiscountLabel":null,"badge":null},{"code":"100091356","variantCode":"100091356","name":"Aparat de ras de unică folosință Sensitive pentru femei 3 buc","slug":"100091356-gillette-venus-aparat-de-ras-de-unica-folosinta-sensitive-pentru-femei-3-buc","unitPriceLabel":"","brand":"Gillette Venus","brandCode":"661","brandFilterCode":"gillette-venus-b662","sku":"100091356","price":19.9,"originalPrice":null,"currencyCode":"RON","currency":"Lei","image":{"thumbnail":{"default":"https://cdn.freshful.ro/media/cache/sylius_shop_product_thumbnail/f2/90/03f74aa23791a6c492548da7c289.jpg"},"large":{"default":"https://cdn.freshful.ro/media/cache/freshful_large/f2/90/03f74aa23791a6c492548da7c289.jpg"},"extralarge":{"default":"https://cdn.freshful.ro/media/cache/sylius_shop_product_original/f2/90/03f74aa23791a6c492548da7c289.jpg"}},"label":null,"tags":[],"isAvailable":true,"maxAvailableQuantity":53,"maxAllowedQuantity":100,"breadcrumbs":[{"code":"11","name":"Cosmetice","slug":"11-cosmetice-si-ingrijire-personala"},{"code":"1105","name":"Ceară, benzi și creme depilatoare","slug":"1105-ceara-benzi-si-creme-depliatoare"},{"code":"110504","name":"Aparate de ras și epilat","slug":"110504-aparate-de-ras-epliare"},{"code":"100091356","name":"Aparat de ras de unică folosință Sensitive pentru femei 3 buc","slug":"100091356-gillette-venus-aparat-de-ras-de-unica-folosinta-sensitive-pentru-femei-3-buc"}],"activePromotion":null,"saveMe":null,"labels":[],"geniusPrice":null,"geniusUnitPricePerLabel":null,"banner":null,"discountLabel":null,"geniusDiscountLabel":null,"badge":null}],"filters":{"countSelected":0,"items":[{"code":"promotion","name":"Promoții","countSelected":0,"values":[{"code":"oferte-dph-21feb-8mar23","name":"Curățenie și îngrijire personală","isSelected":false,"count":1}]},{"code":"brand","name":"Brand","countSelected":0,"values":[{"code":"bic-b320","name":"BiC","isSelected":false,"count":19},{"code":"gillette-venus-b662","name":"Gillette Venus","isSelected":false,"count":7}]}]},"orderBy":[{"field":"price","direction":"asc","name":"Preț crescător","isSelected":false},{"field":"price","direction":"desc","name":"Preț descrescător","isSelected":false},{"field":"popularity","direction":"desc","name":"Cele mai populare","isSelected":true},{"field":"category","direction":"asc","name":"Categorie","isSelected":false}],"metaTitle":"Aparate de ras și epilat - Gamă variată","metaDescription":"Vrei Aparate de ras și epilat? Alege dintr-o gamă variată. Comanzi simplu și ai livrare rapidă, calitate și prospețime. Hai pe Freshful.ro","metaKeywords":null,"banners":[]}}