{"type":"subcategory","payload":{"analyticsListId":"category_1105-ceara-benzi-si-creme-depliatoare","analyticsListName":"Category - Ceară, benzi și creme depilatoare","name":"Ceară, benzi și creme depilatoare","slug":"1105-ceara-benzi-si-creme-depliatoare","image":null,"breadcrumbs":[{"code":"11","name":"Cosmetice","slug":"11-cosmetice-si-ingrijire-personala"},{"code":"1105","name":"Ceară, benzi și creme depilatoare","slug":"1105-ceara-benzi-si-creme-depliatoare"}],"slots":[],"page":1,"limit":10,"pages":4,"count":39,"siblings":[{"name":"Deodorante și parfumuri","slug":"1101-deodorante-si-parfumuri","selected":false},{"name":"Bărbierit și îngrijire ten","slug":"1102-produse-pentru-barbierit-si-ingrijit-ten","selected":false},{"name":"Demachiante și creme","slug":"1103-creme-intretinere-si-demachiante","selected":false},{"name":"Protecție solară","slug":"1104-produse-cu-protectie-solara","selected":false},{"name":"Ceară, benzi și creme depilatoare","slug":"1105-ceara-benzi-si-creme-depliatoare","selected":true},{"name":"Seturi cadou","slug":"1106-seturi-cadou","selected":false},{"name":"Îngrijirea părului","slug":"1107-ingrijirea-parului","selected":false},{"name":"Igienă intimă","slug":"1108-igienta-inima","selected":false},{"name":"Igienă dentară","slug":"1109-igiena-dentara","selected":false},{"name":"Săpunuri și geluri de duș","slug":"1110-sapunuri-si-geluri-de-dus","selected":false},{"name":"Dermatocosmetice și parafarmacie","slug":"1111-dermatocosmetice-si-parafarmacie","selected":false},{"name":"Repelent","slug":"repelent","selected":false}],"children":[{"name":"Toate produsele","slug":"1105-ceara-benzi-si-creme-depliatoare","selected":true},{"name":"Ceară depilatoare","slug":"110501-ceara-epliare","selected":false},{"name":"Cremă depilatoare","slug":"110502-crema-epilare","selected":false},{"name":"Gel și spumă depilatoare","slug":"110503-gel-si-spuma-epilare","selected":false},{"name":"Aparate de ras și epilat","slug":"110504-aparate-de-ras-epliare","selected":false}],"products":[{"code":"100086192","variantCode":"100086192","name":"Benzi depilatoare pentru față Velvet Touch 20 buc","slug":"100086192-elmiplant-benzi-depilatoare-pentru-fata-velvet-touch-20-buc","unitPriceLabel":"","brand":"Elmiplant","brandCode":"550","brandFilterCode":"elmiplant-b551","sku":"100086192","price":8.99,"originalPrice":10.9,"currencyCode":"RON","currency":"Lei","image":{"thumbnail":{"default":"https://cdn.freshful.ro/media/cache/sylius_shop_product_thumbnail/1e/e2/e250dc04310a82ef20fb331b36b7.jpg"},"large":{"default":"https://cdn.freshful.ro/media/cache/freshful_large/1e/e2/e250dc04310a82ef20fb331b36b7.jpg"},"extralarge":{"default":"https://cdn.freshful.ro/media/cache/sylius_shop_product_original/1e/e2/e250dc04310a82ef20fb331b36b7.jpg"}},"label":{"text":"-17%","backgroundColor":"#FF9903","textColor":"#FFFFFF"},"tags":[],"isAvailable":true,"maxAvailableQuantity":100,"maxAllowedQuantity":100,"breadcrumbs":[{"code":"11","name":"Cosmetice","slug":"11-cosmetice-si-ingrijire-personala"},{"code":"1105","name":"Ceară, benzi și creme depilatoare","slug":"1105-ceara-benzi-si-creme-depliatoare"},{"code":"110501","name":"Ceară depilatoare","slug":"110501-ceara-epliare"},{"code":"100086192","name":"Benzi depilatoare pentru față Velvet Touch 20 buc","slug":"100086192-elmiplant-benzi-depilatoare-pentru-fata-velvet-touch-20-buc"}],"activePromotion":{"code":"oferte-dph-21feb-8mar23","name":"Preț redus","targetQuantity":null},"saveMe":null,"labels":[{"type":"v1","items":[{"text":"-17%","backgroundColor":"#FF9903","textColor":"#FFFFFF"}]}],"geniusPrice":null,"geniusUnitPricePerLabel":null,"banner":{"text":"Super preț","textColor":"#FF0000","bgColor":"#FFF2EC","icon":null,"link":"https://www.freshful.ro/oferte/oferte-dph-21feb-8mar23","type":"promo","analyticsEventType":"select_promotion","analyticsEventPayload":{"promotion_id":"oferte-dph-21feb-8mar23","promotion_name":"Curățenie și îngrijire personală"}},"discountLabel":"Economisești 17%","geniusDiscountLabel":null,"badge":null},{"code":"100086191","variantCode":"100086191","name":"Benzi depilatoare pentru corp Velvet Touch 12 buc","slug":"100086191-elmiplant-benzi-depilatoare-pentru-corp-velvet-touch-12-buc","unitPriceLabel":"","brand":"Elmiplant","brandCode":"550","brandFilterCode":"elmiplant-b551","sku":"100086191","price":8.99,"originalPrice":11.5,"currencyCode":"RON","currency":"Lei","image":{"thumbnail":{"default":"https://cdn.freshful.ro/media/cache/sylius_shop_product_thumbnail/4e/3f/ddbd49cb740da1074d4cd341a0e7.jpg"},"large":{"default":"https://cdn.freshful.ro/media/cache/freshful_large/4e/3f/ddbd49cb740da1074d4cd341a0e7.jpg"},"extralarge":{"default":"https://cdn.freshful.ro/media/cache/sylius_shop_product_original/4e/3f/ddbd49cb740da1074d4cd341a0e7.jpg"}},"label":{"text":"-21%","backgroundColor":"#FF9903","textColor":"#FFFFFF"},"tags":[],"isAvailable":true,"maxAvailableQuantity":58,"maxAllowedQuantity":100,"breadcrumbs":[{"code":"11","name":"Cosmetice","slug":"11-cosmetice-si-ingrijire-personala"},{"code":"1105","name":"Ceară, benzi și creme depilatoare","slug":"1105-ceara-benzi-si-creme-depliatoare"},{"code":"110501","name":"Ceară depilatoare","slug":"110501-ceara-epliare"},{"code":"100086191","name":"Benzi depilatoare pentru corp Velvet Touch 12 buc","slug":"100086191-elmiplant-benzi-depilatoare-pentru-corp-velvet-touch-12-buc"}],"activePromotion":{"code":"oferte-dph-21feb-8mar23","name":"Preț redus","targetQuantity":null},"saveMe":null,"labels":[{"type":"v1","items":[{"text":"-21%","backgroundColor":"#FF9903","textColor":"#FFFFFF"}]}],"geniusPrice":null,"geniusUnitPricePerLabel":null,"banner":{"text":"Super preț","textColor":"#FF0000","bgColor":"#FFF2EC","icon":null,"link":"https://www.freshful.ro/oferte/oferte-dph-21feb-8mar23","type":"promo","analyticsEventType":"select_promotion","analyticsEventPayload":{"promotion_id":"oferte-dph-21feb-8mar23","promotion_name":"Curățenie și îngrijire personală"}},"discountLabel":"Economisești 21%","geniusDiscountLabel":null,"badge":null},{"code":"100086193","variantCode":"100086193","name":"Cremă depilatoare Almond Care 150ml","slug":"100086193-elmiplant-crema-depilatoare-almond-care-150ml","unitPriceLabel":"59,93 Lei/l","brand":"Elmiplant","brandCode":"550","brandFilterCode":"elmiplant-b551","sku":"100086193","price":8.99,"originalPrice":10.9,"currencyCode":"RON","currency":"Lei","image":{"thumbnail":{"default":"https://cdn.freshful.ro/media/cache/sylius_shop_product_thumbnail/de/52/2c5e44da490e543f1c1ea74e68b7.jpg"},"large":{"default":"https://cdn.freshful.ro/media/cache/freshful_large/de/52/2c5e44da490e543f1c1ea74e68b7.jpg"},"extralarge":{"default":"https://cdn.freshful.ro/media/cache/sylius_shop_product_original/de/52/2c5e44da490e543f1c1ea74e68b7.jpg"}},"label":{"text":"-17%","backgroundColor":"#FF9903","textColor":"#FFFFFF"},"tags":[{"type":"vegan","text":"Vegan","icon":"https://cdn.freshful.ro/assets/product_tags/vegan.svg","iconPng":"https://cdn.freshful.ro/assets/product_tags/vegan.png","backgroundColor":"#ECF9F8","textColor":"#33A39C"}],"isAvailable":true,"maxAvailableQuantity":82,"maxAllowedQuantity":100,"breadcrumbs":[{"code":"11","name":"Cosmetice","slug":"11-cosmetice-si-ingrijire-personala"},{"code":"1105","name":"Ceară, benzi și creme depilatoare","slug":"1105-ceara-benzi-si-creme-depliatoare"},{"code":"110502","name":"Cremă depilatoare","slug":"110502-crema-epilare"},{"code":"100086193","name":"Cremă depilatoare Almond Care 150ml","slug":"100086193-elmiplant-crema-depilatoare-almond-care-150ml"}],"activePromotion":{"code":"oferte-dph-21feb-8mar23","name":"Preț redus","targetQuantity":null},"saveMe":null,"labels":[{"type":"v1","items":[{"text":"-17%","backgroundColor":"#FF9903","textColor":"#FFFFFF"}]}],"geniusPrice":null,"geniusUnitPricePerLabel":null,"banner":{"text":"Super preț","textColor":"#FF0000","bgColor":"#FFF2EC","icon":null,"link":"https://www.freshful.ro/oferte/oferte-dph-21feb-8mar23","type":"promo","analyticsEventType":"select_promotion","analyticsEventPayload":{"promotion_id":"oferte-dph-21feb-8mar23","promotion_name":"Curățenie și îngrijire personală"}},"discountLabel":"Economisești 17%","geniusDiscountLabel":null,"badge":null},{"code":"100091353","variantCode":"100091353","name":"Aparat de ras de unică folosință Tresures pentru femei 3 buc","slug":"100091353-gillette-venus-aparat-de-ras-de-unica-folosinta-tresures-pentru-femei-3-buc","unitPriceLabel":"","brand":"Gillette Venus","brandCode":"661","brandFilterCode":"gillette-venus-b662","sku":"100091353","price":28.99,"originalPrice":30.9,"currencyCode":"RON","currency":"Lei","image":{"thumbnail":{"default":"https://cdn.freshful.ro/media/cache/sylius_shop_product_thumbnail/c6/8c/2e9ff0b597943ea6ea999c2d0e49.jpg"},"large":{"default":"https://cdn.freshful.ro/media/cache/freshful_large/c6/8c/2e9ff0b597943ea6ea999c2d0e49.jpg"},"extralarge":{"default":"https://cdn.freshful.ro/media/cache/sylius_shop_product_original/c6/8c/2e9ff0b597943ea6ea999c2d0e49.jpg"}},"label":{"text":"-6%","backgroundColor":"#FF9903","textColor":"#FFFFFF"},"tags":[],"isAvailable":true,"maxAvailableQuantity":53,"maxAllowedQuantity":100,"breadcrumbs":[{"code":"11","name":"Cosmetice","slug":"11-cosmetice-si-ingrijire-personala"},{"code":"1105","name":"Ceară, benzi și creme depilatoare","slug":"1105-ceara-benzi-si-creme-depliatoare"},{"code":"110504","name":"Aparate de ras și epilat","slug":"110504-aparate-de-ras-epliare"},{"code":"100091353","name":"Aparat de ras de unică folosință Tresures pentru femei 3 buc","slug":"100091353-gillette-venus-aparat-de-ras-de-unica-folosinta-tresures-pentru-femei-3-buc"}],"activePromotion":{"code":"oferte-dph-21feb-8mar23","name":"Preț redus","targetQuantity":null},"saveMe":null,"labels":[{"type":"v1","items":[{"text":"-6%","backgroundColor":"#FF9903","textColor":"#FFFFFF"}]}],"geniusPrice":null,"geniusUnitPricePerLabel":null,"banner":{"text":"Super preț","textColor":"#FF0000","bgColor":"#FFF2EC","icon":null,"link":"https://www.freshful.ro/oferte/oferte-dph-21feb-8mar23","type":"promo","analyticsEventType":"select_promotion","analyticsEventPayload":{"promotion_id":"oferte-dph-21feb-8mar23","promotion_name":"Curățenie și îngrijire personală"}},"discountLabel":"Economisești 6%","geniusDiscountLabel":null,"badge":null},{"code":"100091361","variantCode":"100091361","name":"Gel de ras Venus pentru piele uscată 200ml","slug":"100091361-gillette-venus-gel-de-ras-venus-pentru-piele-uscata-200ml","unitPriceLabel":"89,95 Lei/l","brand":"Gillette Venus","brandCode":"661","brandFilterCode":"gillette-venus-b662","sku":"100091361","price":17.99,"originalPrice":19.49,"currencyCode":"RON","currency":"Lei","image":{"thumbnail":{"default":"https://cdn.freshful.ro/media/cache/sylius_shop_product_thumbnail/46/e9/4bc971c673ef846f89f98642f5e9.jpg"},"large":{"default":"https://cdn.freshful.ro/media/cache/freshful_large/46/e9/4bc971c673ef846f89f98642f5e9.jpg"},"extralarge":{"default":"https://cdn.freshful.ro/media/cache/sylius_shop_product_original/46/e9/4bc971c673ef846f89f98642f5e9.jpg"}},"label":{"text":"-7%","backgroundColor":"#FF9903","textColor":"#FFFFFF"},"tags":[],"isAvailable":true,"maxAvailableQuantity":53,"maxAllowedQuantity":100,"breadcrumbs":[{"code":"11","name":"Cosmetice","slug":"11-cosmetice-si-ingrijire-personala"},{"code":"1105","name":"Ceară, benzi și creme depilatoare","slug":"1105-ceara-benzi-si-creme-depliatoare"},{"code":"110503","name":"Gel și spumă depilatoare","slug":"110503-gel-si-spuma-epilare"},{"code":"100091361","name":"Gel de ras Venus pentru piele uscată 200ml","slug":"100091361-gillette-venus-gel-de-ras-venus-pentru-piele-uscata-200ml"}],"activePromotion":{"code":"oferte-dph-21feb-8mar23","name":"Preț redus","targetQuantity":null},"saveMe":null,"labels":[{"type":"v1","items":[{"text":"-7%","backgroundColor":"#FF9903","textColor":"#FFFFFF"}]}],"geniusPrice":null,"geniusUnitPricePerLabel":null,"banner":{"text":"Super preț","textColor":"#FF0000","bgColor":"#FFF2EC","icon":null,"link":"https://www.freshful.ro/oferte/oferte-dph-21feb-8mar23","type":"promo","analyticsEventType":"select_promotion","analyticsEventPayload":{"promotion_id":"oferte-dph-21feb-8mar23","promotion_name":"Curățenie și îngrijire personală"}},"discountLabel":"Economisești 7%","geniusDiscountLabel":null,"badge":null},{"code":"100086195","variantCode":"100086195","name":"Benzi depilatoare pentru corp Charcoal Power 12 buc","slug":"100086195-elmiplant-benzi-depilatoare-pentru-corp-charcoal-power-12-buc","unitPriceLabel":"","brand":"Elmiplant","brandCode":"550","brandFilterCode":"elmiplant-b551","sku":"100086195","price":8.99,"originalPrice":11.9,"currencyCode":"RON","currency":"Lei","image":{"thumbnail":{"default":"https://cdn.freshful.ro/media/cache/sylius_shop_product_thumbnail/71/a3/e9b94eba0d243f6334d652b6cbd2.jpg"},"large":{"default":"https://cdn.freshful.ro/media/cache/freshful_large/71/a3/e9b94eba0d243f6334d652b6cbd2.jpg"},"extralarge":{"default":"https://cdn.freshful.ro/media/cache/sylius_shop_product_original/71/a3/e9b94eba0d243f6334d652b6cbd2.jpg"}},"label":{"text":"-24%","backgroundColor":"#FF9903","textColor":"#FFFFFF"},"tags":[],"isAvailable":true,"maxAvailableQuantity":20,"maxAllowedQuantity":100,"breadcrumbs":[{"code":"11","name":"Cosmetice","slug":"11-cosmetice-si-ingrijire-personala"},{"code":"1105","name":"Ceară, benzi și creme depilatoare","slug":"1105-ceara-benzi-si-creme-depliatoare"},{"code":"110501","name":"Ceară depilatoare","slug":"110501-ceara-epliare"},{"code":"100086195","name":"Benzi depilatoare pentru corp Charcoal Power 12 buc","slug":"100086195-elmiplant-benzi-depilatoare-pentru-corp-charcoal-power-12-buc"}],"activePromotion":{"code":"oferte-dph-21feb-8mar23","name":"Preț redus","targetQuantity":null},"saveMe":null,"labels":[{"type":"v1","items":[{"text":"-24%","backgroundColor":"#FF9903","textColor":"#FFFFFF"}]}],"geniusPrice":null,"geniusUnitPricePerLabel":null,"banner":{"text":"Super preț","textColor":"#FF0000","bgColor":"#FFF2EC","icon":null,"link":"https://www.freshful.ro/oferte/oferte-dph-21feb-8mar23","type":"promo","analyticsEventType":"select_promotion","analyticsEventPayload":{"promotion_id":"oferte-dph-21feb-8mar23","promotion_name":"Curățenie și îngrijire personală"}},"discountLabel":"Economisești 24%","geniusDiscountLabel":null,"badge":null},{"code":"100086194","variantCode":"5201314131571","name":"Cremă depilatoare corp Charcoal Power 150ml","slug":"100086194-elmiplant-crema-depilatoare-corp-charcoal-power-150ml","unitPriceLabel":"66,6 Lei/l","brand":"Elmiplant","brandCode":"550","brandFilterCode":"elmiplant-b551","sku":"100086194","price":9.99,"originalPrice":12.5,"currencyCode":"RON","currency":"Lei","image":{"thumbnail":{"default":"https://cdn.freshful.ro/media/cache/sylius_shop_product_thumbnail/15/2c/588093b8e7ec29469756af361e63.jpg"},"large":{"default":"https://cdn.freshful.ro/media/cache/freshful_large/15/2c/588093b8e7ec29469756af361e63.jpg"},"extralarge":{"default":"https://cdn.freshful.ro/media/cache/sylius_shop_product_original/15/2c/588093b8e7ec29469756af361e63.jpg"}},"label":{"text":"-20%","backgroundColor":"#FF9903","textColor":"#FFFFFF"},"tags":[{"type":"vegan","text":"Vegan","icon":"https://cdn.freshful.ro/assets/product_tags/vegan.svg","iconPng":"https://cdn.freshful.ro/assets/product_tags/vegan.png","backgroundColor":"#ECF9F8","textColor":"#33A39C"}],"isAvailable":true,"maxAvailableQuantity":25,"maxAllowedQuantity":100,"breadcrumbs":[{"code":"11","name":"Cosmetice","slug":"11-cosmetice-si-ingrijire-personala"},{"code":"1105","name":"Ceară, benzi și creme depilatoare","slug":"1105-ceara-benzi-si-creme-depliatoare"},{"code":"110502","name":"Cremă depilatoare","slug":"110502-crema-epilare"},{"code":"100086194","name":"Cremă depilatoare corp Charcoal Power 150ml","slug":"100086194-elmiplant-crema-depilatoare-corp-charcoal-power-150ml"}],"activePromotion":{"code":"oferte-dph-21feb-8mar23","name":"Preț redus","targetQuantity":null},"saveMe":null,"labels":[{"type":"v1","items":[{"text":"-20%","backgroundColor":"#FF9903","textColor":"#FFFFFF"}]}],"geniusPrice":null,"geniusUnitPricePerLabel":null,"banner":{"text":"Super preț","textColor":"#FF0000","bgColor":"#FFF2EC","icon":null,"link":"https://www.freshful.ro/oferte/oferte-dph-21feb-8mar23","type":"promo","analyticsEventType":"select_promotion","analyticsEventPayload":{"promotion_id":"oferte-dph-21feb-8mar23","promotion_name":"Curățenie și îngrijire personală"}},"discountLabel":"Economisești 20%","geniusDiscountLabel":null,"badge":null},{"code":"100086196","variantCode":"100086196","name":"Cremă depilatoare pentru față Almond Care 20ml","slug":"100086196-elmiplant-crema-depilatoare-pentru-fata-almond-care-20ml","unitPriceLabel":"449,5 Lei/l","brand":"Elmiplant","brandCode":"550","brandFilterCode":"elmiplant-b551","sku":"100086196","price":8.99,"originalPrice":11.9,"currencyCode":"RON","currency":"Lei","image":{"thumbnail":{"default":"https://cdn.freshful.ro/media/cache/sylius_shop_product_thumbnail/72/a9/6596b8bbeda5cbb56840e9546ff2.jpg"},"large":{"default":"https://cdn.freshful.ro/media/cache/freshful_large/72/a9/6596b8bbeda5cbb56840e9546ff2.jpg"},"extralarge":{"default":"https://cdn.freshful.ro/media/cache/sylius_shop_product_original/72/a9/6596b8bbeda5cbb56840e9546ff2.jpg"}},"label":{"text":"-24%","backgroundColor":"#FF9903","textColor":"#FFFFFF"},"tags":[{"type":"vegan","text":"Vegan","icon":"https://cdn.freshful.ro/assets/product_tags/vegan.svg","iconPng":"https://cdn.freshful.ro/assets/product_tags/vegan.png","backgroundColor":"#ECF9F8","textColor":"#33A39C"}],"isAvailable":true,"maxAvailableQuantity":5,"maxAllowedQuantity":100,"breadcrumbs":[{"code":"11","name":"Cosmetice","slug":"11-cosmetice-si-ingrijire-personala"},{"code":"1105","name":"Ceară, benzi și creme depilatoare","slug":"1105-ceara-benzi-si-creme-depliatoare"},{"code":"110502","name":"Cremă depilatoare","slug":"110502-crema-epilare"},{"code":"100086196","name":"Cremă depilatoare pentru față Almond Care 20ml","slug":"100086196-elmiplant-crema-depilatoare-pentru-fata-almond-care-20ml"}],"activePromotion":{"code":"oferte-dph-21feb-8mar23","name":"Preț redus","targetQuantity":null},"saveMe":null,"labels":[{"type":"v1","items":[{"text":"-24%","backgroundColor":"#FF9903","textColor":"#FFFFFF"}]}],"geniusPrice":null,"geniusUnitPricePerLabel":null,"banner":{"text":"Super preț","textColor":"#FF0000","bgColor":"#FFF2EC","icon":null,"link":"https://www.freshful.ro/oferte/oferte-dph-21feb-8mar23","type":"promo","analyticsEventType":"select_promotion","analyticsEventPayload":{"promotion_id":"oferte-dph-21feb-8mar23","promotion_name":"Curățenie și îngrijire personală"}},"discountLabel":"Economisești 24%","geniusDiscountLabel":null,"badge":null},{"code":"100091355","variantCode":"100091355","name":"Aparat de ras de unică folosință Oceana pentru femei 3 buc","slug":"100091355-gillette-venus-aparat-de-ras-de-unica-folosinta-oceana-pentru-femei-3-buc","unitPriceLabel":"","brand":"Gillette Venus","brandCode":"661","brandFilterCode":"gillette-venus-b662","sku":"100091355","price":23.9,"originalPrice":null,"currencyCode":"RON","currency":"Lei","image":{"thumbnail":{"default":"https://cdn.freshful.ro/media/cache/sylius_shop_product_thumbnail/ef/b8/e44668d38a6f35992c0763ebf8da.jpg"},"large":{"default":"https://cdn.freshful.ro/media/cache/freshful_large/ef/b8/e44668d38a6f35992c0763ebf8da.jpg"},"extralarge":{"default":"https://cdn.freshful.ro/media/cache/sylius_shop_product_original/ef/b8/e44668d38a6f35992c0763ebf8da.jpg"}},"label":null,"tags":[],"isAvailable":true,"maxAvailableQuantity":100,"maxAllowedQuantity":100,"breadcrumbs":[{"code":"11","name":"Cosmetice","slug":"11-cosmetice-si-ingrijire-personala"},{"code":"1105","name":"Ceară, benzi și creme depilatoare","slug":"1105-ceara-benzi-si-creme-depliatoare"},{"code":"110504","name":"Aparate de ras și epilat","slug":"110504-aparate-de-ras-epliare"},{"code":"100091355","name":"Aparat de ras de unică folosință Oceana pentru femei 3 buc","slug":"100091355-gillette-venus-aparat-de-ras-de-unica-folosinta-oceana-pentru-femei-3-buc"}],"activePromotion":null,"saveMe":null,"labels":[],"geniusPrice":null,"geniusUnitPricePerLabel":null,"banner":null,"discountLabel":null,"geniusDiscountLabel":null,"badge":null},{"code":"100091362","variantCode":"100091362","name":"Gel de ras pentru femei Sensitive 200ml","slug":"100091362-gillette-venus-gel-de-ras-pentru-femei-sensitive-200ml","unitPriceLabel":"107,5 Lei/l","brand":"Gillette Venus","brandCode":"661","brandFilterCode":"gillette-venus-b662","sku":"100091362","price":21.5,"originalPrice":null,"currencyCode":"RON","currency":"Lei","image":{"thumbnail":{"default":"https://cdn.freshful.ro/media/cache/sylius_shop_product_thumbnail/3b/24/34f23b3732bde2933c93f4b254d2.jpg"},"large":{"default":"https://cdn.freshful.ro/media/cache/freshful_large/3b/24/34f23b3732bde2933c93f4b254d2.jpg"},"extralarge":{"default":"https://cdn.freshful.ro/media/cache/sylius_shop_product_original/3b/24/34f23b3732bde2933c93f4b254d2.jpg"}},"label":null,"tags":[],"isAvailable":true,"maxAvailableQuantity":100,"maxAllowedQuantity":100,"breadcrumbs":[{"code":"11","name":"Cosmetice","slug":"11-cosmetice-si-ingrijire-personala"},{"code":"1105","name":"Ceară, benzi și creme depilatoare","slug":"1105-ceara-benzi-si-creme-depliatoare"},{"code":"110503","name":"Gel și spumă depilatoare","slug":"110503-gel-si-spuma-epilare"},{"code":"100091362","name":"Gel de ras pentru femei Sensitive 200ml","slug":"100091362-gillette-venus-gel-de-ras-pentru-femei-sensitive-200ml"}],"activePromotion":null,"saveMe":null,"labels":[],"geniusPrice":null,"geniusUnitPricePerLabel":null,"banner":null,"discountLabel":null,"geniusDiscountLabel":null,"badge":null}],"filters":{"countSelected":0,"items":[{"code":"promotion","name":"Promoții","countSelected":0,"values":[{"code":"oferte-dph-21feb-8mar23","name":"Curățenie și îngrijire personală","isSelected":false,"count":8}]},{"code":"brand","name":"Brand","countSelected":0,"values":[{"code":"bic-b320","name":"BiC","isSelected":false,"count":19},{"code":"biemme-b462","name":"Biemme","isSelected":false,"count":1},{"code":"elmiplant-b551","name":"Elmiplant","isSelected":false,"count":6},{"code":"gillette-venus-b662","name":"Gillette Venus","isSelected":false,"count":9},{"code":"roial-b342","name":"Roial","isSelected":false,"count":4}]},{"code":"diet_lifestyle","name":"Dietă și lifestyle","countSelected":0,"values":[{"code":"vegan-a24","name":"Vegan","isSelected":false,"count":3}]}]},"orderBy":[{"field":"price","direction":"asc","name":"Preț crescător","isSelected":false},{"field":"price","direction":"desc","name":"Preț descrescător","isSelected":false},{"field":"popularity","direction":"desc","name":"Cele mai populare","isSelected":true},{"field":"category","direction":"asc","name":"Categorie","isSelected":false}],"metaTitle":"Ceară, benzi și creme depilatoare - Gamă variată","metaDescription":"Vrei Ceară, benzi și creme depilatoare? Alege dintr-o gamă variată. Comanzi simplu și ai livrare rapidă, calitate și prospețime. Hai pe Freshful.ro","metaKeywords":null,"banners":[]}}