{"type":"subcategory","payload":{"analyticsListId":"category_1106-seturi-cadou","analyticsListName":"Category - Seturi cadou","name":"Seturi cadou","slug":"1106-seturi-cadou","image":null,"breadcrumbs":[{"code":"11","name":"Cosmetice","slug":"11-cosmetice-si-ingrijire-personala"},{"code":"1106","name":"Seturi cadou","slug":"1106-seturi-cadou"}],"slots":[],"page":1,"limit":10,"pages":5,"count":48,"siblings":[{"name":"Deodorante și parfumuri","slug":"1101-deodorante-si-parfumuri","selected":false},{"name":"Bărbierit și îngrijire ten","slug":"1102-produse-pentru-barbierit-si-ingrijit-ten","selected":false},{"name":"Demachiante și creme","slug":"1103-creme-intretinere-si-demachiante","selected":false},{"name":"Protecție solară","slug":"1104-produse-cu-protectie-solara","selected":false},{"name":"Ceară, benzi și creme depilatoare","slug":"1105-ceara-benzi-si-creme-depliatoare","selected":false},{"name":"Seturi cadou","slug":"1106-seturi-cadou","selected":true},{"name":"Îngrijirea părului","slug":"1107-ingrijirea-parului","selected":false},{"name":"Igienă intimă","slug":"1108-igienta-inima","selected":false},{"name":"Igienă dentară","slug":"1109-igiena-dentara","selected":false},{"name":"Săpunuri și geluri de duș","slug":"1110-sapunuri-si-geluri-de-dus","selected":false},{"name":"Dermatocosmetice și parafarmacie","slug":"1111-dermatocosmetice-si-parafarmacie","selected":false},{"name":"Repelent","slug":"repelent","selected":false}],"children":[{"name":"Toate produsele","slug":"1106-seturi-cadou","selected":true},{"name":"Pachete cadou bărbați","slug":"110601-pachete-cadou-barbati","selected":false},{"name":"Pachete cadou femei","slug":"110602-pachete-cadou-femei","selected":false}],"products":[{"code":"100148529","variantCode":"100148529","name":"Set cadou The Ritual of Sakura - Renewing Treat","slug":"100148529-rituals-set-cadou-the-ritual-of-sakura-renewing-treat","unitPriceLabel":"","brand":"Rituals","brandCode":"2896","brandFilterCode":"rituals-b2992","sku":"100148529","price":89.99,"originalPrice":99.99,"currencyCode":"RON","currency":"Lei","image":{"thumbnail":{"default":"https://cdn.freshful.ro/media/cache/sylius_shop_product_thumbnail/9e/fe/6bc42d5b168d4fd9b89a8dca8126.jpg"},"large":{"default":"https://cdn.freshful.ro/media/cache/freshful_large/9e/fe/6bc42d5b168d4fd9b89a8dca8126.jpg"},"extralarge":{"default":"https://cdn.freshful.ro/media/cache/sylius_shop_product_original/9e/fe/6bc42d5b168d4fd9b89a8dca8126.jpg"}},"label":{"text":"-10%","backgroundColor":"#FF9903","textColor":"#FFFFFF"},"tags":[],"isAvailable":true,"maxAvailableQuantity":25,"maxAllowedQuantity":100,"breadcrumbs":[{"code":"11","name":"Cosmetice","slug":"11-cosmetice-si-ingrijire-personala"},{"code":"1106","name":"Seturi cadou","slug":"1106-seturi-cadou"},{"code":"110602","name":"Pachete cadou femei","slug":"110602-pachete-cadou-femei"},{"code":"100148529","name":"Set cadou The Ritual of Sakura - Renewing Treat","slug":"100148529-rituals-set-cadou-the-ritual-of-sakura-renewing-treat"}],"activePromotion":{"code":"special-cosmetice-21feb-8mar23","name":"Preț redus","targetQuantity":null},"saveMe":null,"labels":[{"type":"v1","items":[{"text":"-10%","backgroundColor":"#FF9903","textColor":"#FFFFFF"}]}],"geniusPrice":null,"geniusUnitPricePerLabel":null,"banner":{"text":"Super preț","textColor":"#FF0000","bgColor":"#FFF2EC","icon":null,"link":"https://www.freshful.ro/oferte/special-cosmetice-21feb-8mar23","type":"promo","analyticsEventType":"select_promotion","analyticsEventPayload":{"promotion_id":"special-cosmetice-21feb-8mar23","promotion_name":"Cadouri pentru sărbătoritele lunii martie"}},"discountLabel":"Economisești 10%","geniusDiscountLabel":null,"badge":null},{"code":"100148531","variantCode":"100148531","name":"Set cadou The Ritual of Mehr - Energising Treat","slug":"100148531-rituals-set-cadou-the-ritual-of-mehr-energising-treat","unitPriceLabel":"","brand":"Rituals","brandCode":"2896","brandFilterCode":"rituals-b2992","sku":"100148531","price":89.99,"originalPrice":99.99,"currencyCode":"RON","currency":"Lei","image":{"thumbnail":{"default":"https://cdn.freshful.ro/media/cache/sylius_shop_product_thumbnail/65/6f/6e662512a51532738b4b9a859b02.jpg"},"large":{"default":"https://cdn.freshful.ro/media/cache/freshful_large/65/6f/6e662512a51532738b4b9a859b02.jpg"},"extralarge":{"default":"https://cdn.freshful.ro/media/cache/sylius_shop_product_original/65/6f/6e662512a51532738b4b9a859b02.jpg"}},"label":{"text":"-10%","backgroundColor":"#FF9903","textColor":"#FFFFFF"},"tags":[],"isAvailable":true,"maxAvailableQuantity":24,"maxAllowedQuantity":100,"breadcrumbs":[{"code":"11","name":"Cosmetice","slug":"11-cosmetice-si-ingrijire-personala"},{"code":"1106","name":"Seturi cadou","slug":"1106-seturi-cadou"},{"code":"110602","name":"Pachete cadou femei","slug":"110602-pachete-cadou-femei"},{"code":"100148531","name":"Set cadou The Ritual of Mehr - Energising Treat","slug":"100148531-rituals-set-cadou-the-ritual-of-mehr-energising-treat"}],"activePromotion":{"code":"special-cosmetice-21feb-8mar23","name":"Preț redus","targetQuantity":null},"saveMe":null,"labels":[{"type":"v1","items":[{"text":"-10%","backgroundColor":"#FF9903","textColor":"#FFFFFF"}]}],"geniusPrice":null,"geniusUnitPricePerLabel":null,"banner":{"text":"Super preț","textColor":"#FF0000","bgColor":"#FFF2EC","icon":null,"link":"https://www.freshful.ro/oferte/special-cosmetice-21feb-8mar23","type":"promo","analyticsEventType":"select_promotion","analyticsEventPayload":{"promotion_id":"special-cosmetice-21feb-8mar23","promotion_name":"Cadouri pentru sărbătoritele lunii martie"}},"discountLabel":"Economisești 10%","geniusDiscountLabel":null,"badge":null},{"code":"100148533","variantCode":"100148533","name":"Set cadou The Ritual of Ayurveda - Rebalancing Ritual","slug":"100148533-rituals-set-cadou-the-ritual-of-ayurveda-rebalancing-ritual","unitPriceLabel":"","brand":"Rituals","brandCode":"2896","brandFilterCode":"rituals-b2992","sku":"100148533","price":149.99,"originalPrice":169.99,"currencyCode":"RON","currency":"Lei","image":{"thumbnail":{"default":"https://cdn.freshful.ro/media/cache/sylius_shop_product_thumbnail/a0/b6/66e23c731f5bdc53e5794cd22fa8.jpg"},"large":{"default":"https://cdn.freshful.ro/media/cache/freshful_large/a0/b6/66e23c731f5bdc53e5794cd22fa8.jpg"},"extralarge":{"default":"https://cdn.freshful.ro/media/cache/sylius_shop_product_original/a0/b6/66e23c731f5bdc53e5794cd22fa8.jpg"}},"label":{"text":"-11%","backgroundColor":"#FF9903","textColor":"#FFFFFF"},"tags":[],"isAvailable":true,"maxAvailableQuantity":12,"maxAllowedQuantity":100,"breadcrumbs":[{"code":"11","name":"Cosmetice","slug":"11-cosmetice-si-ingrijire-personala"},{"code":"1106","name":"Seturi cadou","slug":"1106-seturi-cadou"},{"code":"110602","name":"Pachete cadou femei","slug":"110602-pachete-cadou-femei"},{"code":"100148533","name":"Set cadou The Ritual of Ayurveda - Rebalancing Ritual","slug":"100148533-rituals-set-cadou-the-ritual-of-ayurveda-rebalancing-ritual"}],"activePromotion":{"code":"special-cosmetice-21feb-8mar23","name":"Preț redus","targetQuantity":null},"saveMe":null,"labels":[{"type":"v1","items":[{"text":"-11%","backgroundColor":"#FF9903","textColor":"#FFFFFF"}]}],"geniusPrice":null,"geniusUnitPricePerLabel":null,"banner":{"text":"Super preț","textColor":"#FF0000","bgColor":"#FFF2EC","icon":null,"link":"https://www.freshful.ro/oferte/special-cosmetice-21feb-8mar23","type":"promo","analyticsEventType":"select_promotion","analyticsEventPayload":{"promotion_id":"special-cosmetice-21feb-8mar23","promotion_name":"Cadouri pentru sărbătoritele lunii martie"}},"discountLabel":"Economisești 11%","geniusDiscountLabel":null,"badge":null},{"code":"100148535","variantCode":"100148535","name":"Set cadou The Ritual of Karma - Soothing Collection","slug":"100148535-rituals-set-cadou-the-ritual-of-karma-soothing-collection","unitPriceLabel":"","brand":"Rituals","brandCode":"2896","brandFilterCode":"rituals-b2992","sku":"100148535","price":199.99,"originalPrice":229.99,"currencyCode":"RON","currency":"Lei","image":{"thumbnail":{"default":"https://cdn.freshful.ro/media/cache/sylius_shop_product_thumbnail/b6/1c/50caebe8a0c0cb40e0f3891267dc.jpg"},"large":{"default":"https://cdn.freshful.ro/media/cache/freshful_large/b6/1c/50caebe8a0c0cb40e0f3891267dc.jpg"},"extralarge":{"default":"https://cdn.freshful.ro/media/cache/sylius_shop_product_original/b6/1c/50caebe8a0c0cb40e0f3891267dc.jpg"}},"label":{"text":"-13%","backgroundColor":"#FF9903","textColor":"#FFFFFF"},"tags":[],"isAvailable":true,"maxAvailableQuantity":7,"maxAllowedQuantity":100,"breadcrumbs":[{"code":"11","name":"Cosmetice","slug":"11-cosmetice-si-ingrijire-personala"},{"code":"1106","name":"Seturi cadou","slug":"1106-seturi-cadou"},{"code":"110602","name":"Pachete cadou femei","slug":"110602-pachete-cadou-femei"},{"code":"100148535","name":"Set cadou The Ritual of Karma - Soothing Collection","slug":"100148535-rituals-set-cadou-the-ritual-of-karma-soothing-collection"}],"activePromotion":{"code":"special-cosmetice-21feb-8mar23","name":"Preț redus","targetQuantity":null},"saveMe":null,"labels":[{"type":"v1","items":[{"text":"-13%","backgroundColor":"#FF9903","textColor":"#FFFFFF"}]}],"geniusPrice":null,"geniusUnitPricePerLabel":null,"banner":{"text":"Super preț","textColor":"#FF0000","bgColor":"#FFF2EC","icon":null,"link":"https://www.freshful.ro/oferte/special-cosmetice-21feb-8mar23","type":"promo","analyticsEventType":"select_promotion","analyticsEventPayload":{"promotion_id":"special-cosmetice-21feb-8mar23","promotion_name":"Cadouri pentru sărbătoritele lunii martie"}},"discountLabel":"Economisești 13%","geniusDiscountLabel":null,"badge":null},{"code":"100128673","variantCode":"100128673","name":"Set cadou femei baie Coconut Oil-Beauty Ritual","slug":"100128673-cottage-set-cadou-femei-baie-coconut-oil-beauty-ritual","unitPriceLabel":"","brand":"Cottage","brandCode":"704","brandFilterCode":"cottage-b705","sku":"100128673","price":71.99,"originalPrice":89.99,"currencyCode":"RON","currency":"Lei","image":{"thumbnail":{"default":"https://cdn.freshful.ro/media/cache/sylius_shop_product_thumbnail/cc/82/08d39a814987a3ae6e36e96d3b37.jpg"},"large":{"default":"https://cdn.freshful.ro/media/cache/freshful_large/cc/82/08d39a814987a3ae6e36e96d3b37.jpg"},"extralarge":{"default":"https://cdn.freshful.ro/media/cache/sylius_shop_product_original/cc/82/08d39a814987a3ae6e36e96d3b37.jpg"}},"label":{"text":"-20%","backgroundColor":"#FF9903","textColor":"#FFFFFF"},"tags":[],"isAvailable":true,"maxAvailableQuantity":43,"maxAllowedQuantity":100,"breadcrumbs":[{"code":"11","name":"Cosmetice","slug":"11-cosmetice-si-ingrijire-personala"},{"code":"1106","name":"Seturi cadou","slug":"1106-seturi-cadou"},{"code":"110602","name":"Pachete cadou femei","slug":"110602-pachete-cadou-femei"},{"code":"100128673","name":"Set cadou femei baie Coconut Oil-Beauty Ritual","slug":"100128673-cottage-set-cadou-femei-baie-coconut-oil-beauty-ritual"}],"activePromotion":{"code":"special-cosmetice-21feb-8mar23","name":"Preț redus","targetQuantity":null},"saveMe":null,"labels":[{"type":"v1","items":[{"text":"-20%","backgroundColor":"#FF9903","textColor":"#FFFFFF"}]}],"geniusPrice":null,"geniusUnitPricePerLabel":null,"banner":{"text":"Super preț","textColor":"#FF0000","bgColor":"#FFF2EC","icon":null,"link":"https://www.freshful.ro/oferte/special-cosmetice-21feb-8mar23","type":"promo","analyticsEventType":"select_promotion","analyticsEventPayload":{"promotion_id":"special-cosmetice-21feb-8mar23","promotion_name":"Cadouri pentru sărbătoritele lunii martie"}},"discountLabel":"Economisești 20%","geniusDiscountLabel":null,"badge":null},{"code":"100143719","variantCode":"100143719","name":"Set cadou Naturally Caring Fresh % Revitalized Skin","slug":"100143719-dove-set-cadou-naturally-caring-fresh-revitalized-skin","unitPriceLabel":"","brand":"Dove","brandCode":"763","brandFilterCode":"dove-b764","sku":"100143719","price":25.99,"originalPrice":28.99,"currencyCode":"RON","currency":"Lei","image":{"thumbnail":{"default":"https://cdn.freshful.ro/media/cache/sylius_shop_product_thumbnail/81/b0/5e035425aaa24e0f1a76b773436c.jpg"},"large":{"default":"https://cdn.freshful.ro/media/cache/freshful_large/81/b0/5e035425aaa24e0f1a76b773436c.jpg"},"extralarge":{"default":"https://cdn.freshful.ro/media/cache/sylius_shop_product_original/81/b0/5e035425aaa24e0f1a76b773436c.jpg"}},"label":{"text":"-10%","backgroundColor":"#FF9903","textColor":"#FFFFFF"},"tags":[],"isAvailable":true,"maxAvailableQuantity":16,"maxAllowedQuantity":100,"breadcrumbs":[{"code":"11","name":"Cosmetice","slug":"11-cosmetice-si-ingrijire-personala"},{"code":"1106","name":"Seturi cadou","slug":"1106-seturi-cadou"},{"code":"110602","name":"Pachete cadou femei","slug":"110602-pachete-cadou-femei"},{"code":"100143719","name":"Set cadou Naturally Caring Fresh % Revitalized Skin","slug":"100143719-dove-set-cadou-naturally-caring-fresh-revitalized-skin"}],"activePromotion":{"code":"special-cosmetice-21feb-8mar23","name":"Preț redus","targetQuantity":null},"saveMe":null,"labels":[{"type":"v1","items":[{"text":"-10%","backgroundColor":"#FF9903","textColor":"#FFFFFF"}]}],"geniusPrice":null,"geniusUnitPricePerLabel":null,"banner":{"text":"Super preț","textColor":"#FF0000","bgColor":"#FFF2EC","icon":null,"link":"https://www.freshful.ro/oferte/special-cosmetice-21feb-8mar23","type":"promo","analyticsEventType":"select_promotion","analyticsEventPayload":{"promotion_id":"special-cosmetice-21feb-8mar23","promotion_name":"Cadouri pentru sărbătoritele lunii martie"}},"discountLabel":"Economisești 10%","geniusDiscountLabel":null,"badge":null},{"code":"100143329","variantCode":"100143329","name":"Set Hydro Boost","slug":"100143329-neutrogena-set-hydro-boost","unitPriceLabel":"","brand":"Neutrogena","brandCode":"548","brandFilterCode":"neutrogena-b549","sku":"100143329","price":69.99,"originalPrice":81.99,"currencyCode":"RON","currency":"Lei","image":{"thumbnail":{"default":"https://cdn.freshful.ro/media/cache/sylius_shop_product_thumbnail/f1/8e/f94ae64bca86fc605547d1259ea5.jpg"},"large":{"default":"https://cdn.freshful.ro/media/cache/freshful_large/f1/8e/f94ae64bca86fc605547d1259ea5.jpg"},"extralarge":{"default":"https://cdn.freshful.ro/media/cache/sylius_shop_product_original/f1/8e/f94ae64bca86fc605547d1259ea5.jpg"}},"label":{"text":"-14%","backgroundColor":"#FF9903","textColor":"#FFFFFF"},"tags":[],"isAvailable":true,"maxAvailableQuantity":5,"maxAllowedQuantity":100,"breadcrumbs":[{"code":"11","name":"Cosmetice","slug":"11-cosmetice-si-ingrijire-personala"},{"code":"1106","name":"Seturi cadou","slug":"1106-seturi-cadou"},{"code":"110602","name":"Pachete cadou femei","slug":"110602-pachete-cadou-femei"},{"code":"100143329","name":"Set Hydro Boost","slug":"100143329-neutrogena-set-hydro-boost"}],"activePromotion":{"code":"special-cosmetice-21feb-8mar23","name":"Preț redus","targetQuantity":null},"saveMe":null,"labels":[{"type":"v1","items":[{"text":"-14%","backgroundColor":"#FF9903","textColor":"#FFFFFF"}]}],"geniusPrice":null,"geniusUnitPricePerLabel":null,"banner":{"text":"Super preț","textColor":"#FF0000","bgColor":"#FFF2EC","icon":null,"link":"https://www.freshful.ro/oferte/special-cosmetice-21feb-8mar23","type":"promo","analyticsEventType":"select_promotion","analyticsEventPayload":{"promotion_id":"special-cosmetice-21feb-8mar23","promotion_name":"Cadouri pentru sărbătoritele lunii martie"}},"discountLabel":"Economisești 14%","geniusDiscountLabel":null,"badge":null},{"code":"100143716","variantCode":"100143716","name":"Set cadou Botanicals Skin Purify&Refresh","slug":"100143716-lux-set-cadou-botanicals-skin-purify-refresh","unitPriceLabel":"","brand":"Lux","brandCode":"2710","brandFilterCode":"lux-b2717","sku":"100143716","price":39.99,"originalPrice":44.99,"currencyCode":"RON","currency":"Lei","image":{"thumbnail":{"default":"https://cdn.freshful.ro/media/cache/sylius_shop_product_thumbnail/9e/d8/3c9f4e12d0e4d05a2031e1d41bae.jpg"},"large":{"default":"https://cdn.freshful.ro/media/cache/freshful_large/9e/d8/3c9f4e12d0e4d05a2031e1d41bae.jpg"},"extralarge":{"default":"https://cdn.freshful.ro/media/cache/sylius_shop_product_original/9e/d8/3c9f4e12d0e4d05a2031e1d41bae.jpg"}},"label":{"text":"-11%","backgroundColor":"#FF9903","textColor":"#FFFFFF"},"tags":[],"isAvailable":true,"maxAvailableQuantity":4,"maxAllowedQuantity":100,"breadcrumbs":[{"code":"11","name":"Cosmetice","slug":"11-cosmetice-si-ingrijire-personala"},{"code":"1106","name":"Seturi cadou","slug":"1106-seturi-cadou"},{"code":"110602","name":"Pachete cadou femei","slug":"110602-pachete-cadou-femei"},{"code":"100143716","name":"Set cadou Botanicals Skin Purify&Refresh","slug":"100143716-lux-set-cadou-botanicals-skin-purify-refresh"}],"activePromotion":{"code":"special-cosmetice-21feb-8mar23","name":"Preț redus","targetQuantity":null},"saveMe":null,"labels":[{"type":"v1","items":[{"text":"-11%","backgroundColor":"#FF9903","textColor":"#FFFFFF"}]}],"geniusPrice":null,"geniusUnitPricePerLabel":null,"banner":{"text":"Super preț","textColor":"#FF0000","bgColor":"#FFF2EC","icon":null,"link":"https://www.freshful.ro/oferte/special-cosmetice-21feb-8mar23","type":"promo","analyticsEventType":"select_promotion","analyticsEventPayload":{"promotion_id":"special-cosmetice-21feb-8mar23","promotion_name":"Cadouri pentru sărbătoritele lunii martie"}},"discountLabel":"Economisești 11%","geniusDiscountLabel":null,"badge":null},{"code":"100143725","variantCode":"100143725","name":"Set cadou Original Care Deeply nourishing skin","slug":"100143725-dove-set-cadou-original-care-deeply-nourishing-skin","unitPriceLabel":"","brand":"Dove","brandCode":"763","brandFilterCode":"dove-b764","sku":"100143725","price":32.99,"originalPrice":36.99,"currencyCode":"RON","currency":"Lei","image":{"thumbnail":{"default":"https://cdn.freshful.ro/media/cache/sylius_shop_product_thumbnail/88/dc/97ef4207561848b95268750b5296.jpg"},"large":{"default":"https://cdn.freshful.ro/media/cache/freshful_large/88/dc/97ef4207561848b95268750b5296.jpg"},"extralarge":{"default":"https://cdn.freshful.ro/media/cache/sylius_shop_product_original/88/dc/97ef4207561848b95268750b5296.jpg"}},"label":{"text":"-10%","backgroundColor":"#FF9903","textColor":"#FFFFFF"},"tags":[],"isAvailable":true,"maxAvailableQuantity":45,"maxAllowedQuantity":100,"breadcrumbs":[{"code":"11","name":"Cosmetice","slug":"11-cosmetice-si-ingrijire-personala"},{"code":"1106","name":"Seturi cadou","slug":"1106-seturi-cadou"},{"code":"110602","name":"Pachete cadou femei","slug":"110602-pachete-cadou-femei"},{"code":"100143725","name":"Set cadou Original Care Deeply nourishing skin","slug":"100143725-dove-set-cadou-original-care-deeply-nourishing-skin"}],"activePromotion":{"code":"special-cosmetice-21feb-8mar23","name":"Preț redus","targetQuantity":null},"saveMe":null,"labels":[{"type":"v1","items":[{"text":"-10%","backgroundColor":"#FF9903","textColor":"#FFFFFF"}]}],"geniusPrice":null,"geniusUnitPricePerLabel":null,"banner":{"text":"Super preț","textColor":"#FF0000","bgColor":"#FFF2EC","icon":null,"link":"https://www.freshful.ro/oferte/special-cosmetice-21feb-8mar23","type":"promo","analyticsEventType":"select_promotion","analyticsEventPayload":{"promotion_id":"special-cosmetice-21feb-8mar23","promotion_name":"Cadouri pentru sărbătoritele lunii martie"}},"discountLabel":"Economisești 10%","geniusDiscountLabel":null,"badge":null},{"code":"100143323","variantCode":"100143323","name":"Set cadou One Love","slug":"100143323-b-u-set-cadou-one-love","unitPriceLabel":"","brand":"B.U.","brandCode":"541","brandFilterCode":"b-u-b542","sku":"100143323","price":59.99,"originalPrice":67.98,"currencyCode":"RON","currency":"Lei","image":{"thumbnail":{"default":"https://cdn.freshful.ro/media/cache/sylius_shop_product_thumbnail/1c/45/558e6fd3c0a4ec89d3231be08c26.jpg"},"large":{"default":"https://cdn.freshful.ro/media/cache/freshful_large/1c/45/558e6fd3c0a4ec89d3231be08c26.jpg"},"extralarge":{"default":"https://cdn.freshful.ro/media/cache/sylius_shop_product_original/1c/45/558e6fd3c0a4ec89d3231be08c26.jpg"}},"label":{"text":"-11%","backgroundColor":"#FF9903","textColor":"#FFFFFF"},"tags":[],"isAvailable":true,"maxAvailableQuantity":2,"maxAllowedQuantity":100,"breadcrumbs":[{"code":"11","name":"Cosmetice","slug":"11-cosmetice-si-ingrijire-personala"},{"code":"1106","name":"Seturi cadou","slug":"1106-seturi-cadou"},{"code":"110602","name":"Pachete cadou femei","slug":"110602-pachete-cadou-femei"},{"code":"100143323","name":"Set cadou One Love","slug":"100143323-b-u-set-cadou-one-love"}],"activePromotion":{"code":"special-cosmetice-21feb-8mar23","name":"Preț redus","targetQuantity":null},"saveMe":null,"labels":[{"type":"v1","items":[{"text":"-11%","backgroundColor":"#FF9903","textColor":"#FFFFFF"}]}],"geniusPrice":null,"geniusUnitPricePerLabel":null,"banner":{"text":"Super preț","textColor":"#FF0000","bgColor":"#FFF2EC","icon":null,"link":"https://www.freshful.ro/oferte/special-cosmetice-21feb-8mar23","type":"promo","analyticsEventType":"select_promotion","analyticsEventPayload":{"promotion_id":"special-cosmetice-21feb-8mar23","promotion_name":"Cadouri pentru sărbătoritele lunii martie"}},"discountLabel":"Economisești 11%","geniusDiscountLabel":null,"badge":null}],"filters":{"countSelected":0,"items":[{"code":"promotion","name":"Promoții","countSelected":0,"values":[{"code":"special-cosmetice-21feb-8mar23","name":"Cadouri pentru sărbătoritele lunii martie","isSelected":false,"count":26}]},{"code":"brand","name":"Brand","countSelected":0,"values":[{"code":"b-u-b542","name":"B.U.","isSelected":false,"count":1},{"code":"cottage-b705","name":"Cottage","isSelected":false,"count":2},{"code":"dove-b764","name":"Dove","isSelected":false,"count":19},{"code":"gillette-b661","name":"Gillette","isSelected":false,"count":1},{"code":"gillette-venus-b662","name":"Gillette Venus","isSelected":false,"count":1},{"code":"head-shoulders-b664","name":"Head & Shoulders","isSelected":false,"count":1},{"code":"lux-b2717","name":"Lux","isSelected":false,"count":1},{"code":"neutrogena-b549","name":"Neutrogena","isSelected":false,"count":3},{"code":"nivea-b317","name":"Nivea","isSelected":false,"count":3},{"code":"old-spice-b663","name":"Old Spice","isSelected":false,"count":4},{"code":"pantene-b671","name":"Pantene","isSelected":false,"count":2},{"code":"rituals-b2992","name":"Rituals","isSelected":false,"count":7},{"code":"str8-b540","name":"STR8","isSelected":false,"count":2},{"code":"syoss-b1765","name":"Syoss","isSelected":false,"count":1}]}]},"orderBy":[{"field":"price","direction":"asc","name":"Preț crescător","isSelected":false},{"field":"price","direction":"desc","name":"Preț descrescător","isSelected":false},{"field":"popularity","direction":"desc","name":"Cele mai populare","isSelected":true},{"field":"category","direction":"asc","name":"Categorie","isSelected":false}],"metaTitle":"Seturi cadou - Gamă variată","metaDescription":"Vrei Seturi cadou? Alege dintr-o gamă variată. Comanzi simplu și ai livrare rapidă, calitate și prospețime. Hai pe Freshful.ro","metaKeywords":null,"banners":[]}}