{"type":"subcategory","payload":{"analyticsListId":"category_110601-pachete-cadou-barbati","analyticsListName":"Category - Pachete cadou bărbați","name":"Pachete cadou bărbați","slug":"110601-pachete-cadou-barbati","image":null,"breadcrumbs":[{"code":"11","name":"Cosmetice","slug":"11-cosmetice-si-ingrijire-personala"},{"code":"1106","name":"Seturi cadou","slug":"1106-seturi-cadou"},{"code":"110601","name":"Pachete cadou bărbați","slug":"110601-pachete-cadou-barbati"}],"slots":[],"page":1,"limit":10,"pages":2,"count":19,"siblings":[{"name":"Deodorante și parfumuri","slug":"1101-deodorante-si-parfumuri","selected":false},{"name":"Bărbierit și îngrijire ten","slug":"1102-produse-pentru-barbierit-si-ingrijit-ten","selected":false},{"name":"Demachiante și creme","slug":"1103-creme-intretinere-si-demachiante","selected":false},{"name":"Protecție solară","slug":"1104-produse-cu-protectie-solara","selected":false},{"name":"Ceară, benzi și creme depilatoare","slug":"1105-ceara-benzi-si-creme-depliatoare","selected":false},{"name":"Seturi cadou","slug":"1106-seturi-cadou","selected":true},{"name":"Îngrijirea părului","slug":"1107-ingrijirea-parului","selected":false},{"name":"Igienă intimă","slug":"1108-igienta-inima","selected":false},{"name":"Igienă dentară","slug":"1109-igiena-dentara","selected":false},{"name":"Săpunuri și geluri de duș","slug":"1110-sapunuri-si-geluri-de-dus","selected":false},{"name":"Dermatocosmetice și parafarmacie","slug":"1111-dermatocosmetice-si-parafarmacie","selected":false},{"name":"Repelent","slug":"repelent","selected":false}],"children":[{"name":"Toate produsele","slug":"1106-seturi-cadou","selected":false},{"name":"Pachete cadou bărbați","slug":"110601-pachete-cadou-barbati","selected":true},{"name":"Pachete cadou femei","slug":"110602-pachete-cadou-femei","selected":false}],"products":[{"code":"100148530","variantCode":"100148530","name":"Set cadou The Ritual of Samurai - Invigorating Treat","slug":"100148530-rituals-set-cadou-the-ritual-of-samurai-invigorating-treat","unitPriceLabel":"","brand":"Rituals","brandCode":"2896","brandFilterCode":"rituals-b2992","sku":"100148530","price":99.99,"originalPrice":null,"currencyCode":"RON","currency":"Lei","image":{"thumbnail":{"default":"https://cdn.freshful.ro/media/cache/sylius_shop_product_thumbnail/f6/e1/7abd680ac32dd4dac7c966721fb3.jpg"},"large":{"default":"https://cdn.freshful.ro/media/cache/freshful_large/f6/e1/7abd680ac32dd4dac7c966721fb3.jpg"},"extralarge":{"default":"https://cdn.freshful.ro/media/cache/sylius_shop_product_original/f6/e1/7abd680ac32dd4dac7c966721fb3.jpg"}},"label":null,"tags":[],"isAvailable":true,"maxAvailableQuantity":40,"maxAllowedQuantity":100,"breadcrumbs":[{"code":"11","name":"Cosmetice","slug":"11-cosmetice-si-ingrijire-personala"},{"code":"1106","name":"Seturi cadou","slug":"1106-seturi-cadou"},{"code":"110601","name":"Pachete cadou bărbați","slug":"110601-pachete-cadou-barbati"},{"code":"100148530","name":"Set cadou The Ritual of Samurai - Invigorating Treat","slug":"100148530-rituals-set-cadou-the-ritual-of-samurai-invigorating-treat"}],"activePromotion":null,"saveMe":null,"labels":[],"geniusPrice":null,"geniusUnitPricePerLabel":null,"banner":null,"discountLabel":null,"geniusDiscountLabel":null,"badge":null},{"code":"100143313","variantCode":"100143313","name":"Set cadou Red Code","slug":"100143313-str8-set-cadou-red-code","unitPriceLabel":"","brand":"STR8","brandCode":"539","brandFilterCode":"str8-b540","sku":"100143313","price":63.99,"originalPrice":null,"currencyCode":"RON","currency":"Lei","image":{"thumbnail":{"default":"https://cdn.freshful.ro/media/cache/sylius_shop_product_thumbnail/db/b2/69c5d8ecc488fd4e5a65c2d68f82.jpg"},"large":{"default":"https://cdn.freshful.ro/media/cache/freshful_large/db/b2/69c5d8ecc488fd4e5a65c2d68f82.jpg"},"extralarge":{"default":"https://cdn.freshful.ro/media/cache/sylius_shop_product_original/db/b2/69c5d8ecc488fd4e5a65c2d68f82.jpg"}},"label":null,"tags":[],"isAvailable":true,"maxAvailableQuantity":9,"maxAllowedQuantity":100,"breadcrumbs":[{"code":"11","name":"Cosmetice","slug":"11-cosmetice-si-ingrijire-personala"},{"code":"1106","name":"Seturi cadou","slug":"1106-seturi-cadou"},{"code":"110601","name":"Pachete cadou bărbați","slug":"110601-pachete-cadou-barbati"},{"code":"100143313","name":"Set cadou Red Code","slug":"100143313-str8-set-cadou-red-code"}],"activePromotion":null,"saveMe":null,"labels":[],"geniusPrice":null,"geniusUnitPricePerLabel":null,"banner":null,"discountLabel":null,"geniusDiscountLabel":null,"badge":null},{"code":"100143733","variantCode":"100143733","name":"Set cadou  Self Care Extra Fresh","slug":"100143733-dove-set-cadou-self-care-extra-fresh","unitPriceLabel":"","brand":"Dove","brandCode":"763","brandFilterCode":"dove-b764","sku":"100143733","price":53.49,"originalPrice":null,"currencyCode":"RON","currency":"Lei","image":{"thumbnail":{"default":"https://cdn.freshful.ro/media/cache/sylius_shop_product_thumbnail/73/fa/41551f1d9475e216c3bb23ae7c1d.jpg"},"large":{"default":"https://cdn.freshful.ro/media/cache/freshful_large/73/fa/41551f1d9475e216c3bb23ae7c1d.jpg"},"extralarge":{"default":"https://cdn.freshful.ro/media/cache/sylius_shop_product_original/73/fa/41551f1d9475e216c3bb23ae7c1d.jpg"}},"label":null,"tags":[],"isAvailable":true,"maxAvailableQuantity":13,"maxAllowedQuantity":100,"breadcrumbs":[{"code":"11","name":"Cosmetice","slug":"11-cosmetice-si-ingrijire-personala"},{"code":"1106","name":"Seturi cadou","slug":"1106-seturi-cadou"},{"code":"110601","name":"Pachete cadou bărbați","slug":"110601-pachete-cadou-barbati"},{"code":"100143733","name":"Set cadou  Self Care Extra Fresh","slug":"100143733-dove-set-cadou-self-care-extra-fresh"}],"activePromotion":null,"saveMe":null,"labels":[],"geniusPrice":null,"geniusUnitPricePerLabel":null,"banner":null,"discountLabel":null,"geniusDiscountLabel":null,"badge":null},{"code":"100123883","variantCode":"100123883","name":"Set cadou Fresh Kick pentru bărbați","slug":"100123883-nivea-set-cadou-fresh-kick-pentru-barbati","unitPriceLabel":"","brand":"Nivea","brandCode":"316","brandFilterCode":"nivea-b317","sku":"100123883","price":69.98,"originalPrice":null,"currencyCode":"RON","currency":"Lei","image":{"thumbnail":{"default":"https://cdn.freshful.ro/media/cache/sylius_shop_product_thumbnail/0d/a2/cac8bedb89b1621abccda7b70873.jpg"},"large":{"default":"https://cdn.freshful.ro/media/cache/freshful_large/0d/a2/cac8bedb89b1621abccda7b70873.jpg"},"extralarge":{"default":"https://cdn.freshful.ro/media/cache/sylius_shop_product_original/0d/a2/cac8bedb89b1621abccda7b70873.jpg"}},"label":null,"tags":[],"isAvailable":true,"maxAvailableQuantity":1,"maxAllowedQuantity":100,"breadcrumbs":[{"code":"11","name":"Cosmetice","slug":"11-cosmetice-si-ingrijire-personala"},{"code":"1106","name":"Seturi cadou","slug":"1106-seturi-cadou"},{"code":"110601","name":"Pachete cadou bărbați","slug":"110601-pachete-cadou-barbati"},{"code":"100123883","name":"Set cadou Fresh Kick pentru bărbați","slug":"100123883-nivea-set-cadou-fresh-kick-pentru-barbati"}],"activePromotion":null,"saveMe":null,"labels":[],"geniusPrice":null,"geniusUnitPricePerLabel":null,"banner":null,"discountLabel":null,"geniusDiscountLabel":null,"badge":null},{"code":"100143728","variantCode":"100143728","name":"Set cadou Self Care Extra Fresh","slug":"100143728-dove-set-cadou-self-care-extra-fresh","unitPriceLabel":"","brand":"Dove","brandCode":"763","brandFilterCode":"dove-b764","sku":"100143728","price":36.99,"originalPrice":null,"currencyCode":"RON","currency":"Lei","image":{"thumbnail":{"default":"https://cdn.freshful.ro/media/cache/sylius_shop_product_thumbnail/55/e2/ac7cbccfd4c389c22df509937acc.jpg"},"large":{"default":"https://cdn.freshful.ro/media/cache/freshful_large/55/e2/ac7cbccfd4c389c22df509937acc.jpg"},"extralarge":{"default":"https://cdn.freshful.ro/media/cache/sylius_shop_product_original/55/e2/ac7cbccfd4c389c22df509937acc.jpg"}},"label":null,"tags":[],"isAvailable":true,"maxAvailableQuantity":43,"maxAllowedQuantity":100,"breadcrumbs":[{"code":"11","name":"Cosmetice","slug":"11-cosmetice-si-ingrijire-personala"},{"code":"1106","name":"Seturi cadou","slug":"1106-seturi-cadou"},{"code":"110601","name":"Pachete cadou bărbați","slug":"110601-pachete-cadou-barbati"},{"code":"100143728","name":"Set cadou Self Care Extra Fresh","slug":"100143728-dove-set-cadou-self-care-extra-fresh"}],"activePromotion":null,"saveMe":null,"labels":[],"geniusPrice":null,"geniusUnitPricePerLabel":null,"banner":null,"discountLabel":null,"geniusDiscountLabel":null,"badge":null},{"code":"100146862","variantCode":"100146862","name":"Set Cadou Old Spice Gamer","slug":"100146862-old-spice-set-cadou-old-spice-gamer","unitPriceLabel":"","brand":"Old Spice","brandCode":"662","brandFilterCode":"old-spice-b663","sku":"100146862","price":36.99,"originalPrice":null,"currencyCode":"RON","currency":"Lei","image":{"thumbnail":{"default":"https://cdn.freshful.ro/media/cache/sylius_shop_product_thumbnail/2a/a5/9a9328b5cf6d6aa5c55ee4172fe6.jpg"},"large":{"default":"https://cdn.freshful.ro/media/cache/freshful_large/2a/a5/9a9328b5cf6d6aa5c55ee4172fe6.jpg"},"extralarge":{"default":"https://cdn.freshful.ro/media/cache/sylius_shop_product_original/2a/a5/9a9328b5cf6d6aa5c55ee4172fe6.jpg"}},"label":null,"tags":[],"isAvailable":true,"maxAvailableQuantity":8,"maxAllowedQuantity":100,"breadcrumbs":[{"code":"11","name":"Cosmetice","slug":"11-cosmetice-si-ingrijire-personala"},{"code":"1106","name":"Seturi cadou","slug":"1106-seturi-cadou"},{"code":"110601","name":"Pachete cadou bărbați","slug":"110601-pachete-cadou-barbati"},{"code":"100146862","name":"Set Cadou Old Spice Gamer","slug":"100146862-old-spice-set-cadou-old-spice-gamer"}],"activePromotion":null,"saveMe":null,"labels":[],"geniusPrice":null,"geniusUnitPricePerLabel":null,"banner":null,"discountLabel":null,"geniusDiscountLabel":null,"badge":null},{"code":"100146859","variantCode":"100146859","name":"Set Cadou Old Spice Gentleman","slug":"100146859-old-spice-set-cadou-old-spice-gentleman","unitPriceLabel":"","brand":"Old Spice","brandCode":"662","brandFilterCode":"old-spice-b663","sku":"100146859","price":54.99,"originalPrice":null,"currencyCode":"RON","currency":"Lei","image":{"thumbnail":{"default":"https://cdn.freshful.ro/media/cache/sylius_shop_product_thumbnail/3d/c1/4fbd8c2b8753cf08f916cf8849d1.jpg"},"large":{"default":"https://cdn.freshful.ro/media/cache/freshful_large/3d/c1/4fbd8c2b8753cf08f916cf8849d1.jpg"},"extralarge":{"default":"https://cdn.freshful.ro/media/cache/sylius_shop_product_original/3d/c1/4fbd8c2b8753cf08f916cf8849d1.jpg"}},"label":null,"tags":[],"isAvailable":true,"maxAvailableQuantity":27,"maxAllowedQuantity":100,"breadcrumbs":[{"code":"11","name":"Cosmetice","slug":"11-cosmetice-si-ingrijire-personala"},{"code":"1106","name":"Seturi cadou","slug":"1106-seturi-cadou"},{"code":"110601","name":"Pachete cadou bărbați","slug":"110601-pachete-cadou-barbati"},{"code":"100146859","name":"Set Cadou Old Spice Gentleman","slug":"100146859-old-spice-set-cadou-old-spice-gentleman"}],"activePromotion":null,"saveMe":null,"labels":[],"geniusPrice":null,"geniusUnitPricePerLabel":null,"banner":null,"discountLabel":null,"geniusDiscountLabel":null,"badge":null},{"code":"100146861","variantCode":"100146861","name":"Set Cadou Old Spice Dark Captain","slug":"100146861-old-spice-set-cadou-old-spice-dark-captain","unitPriceLabel":"","brand":"Old Spice","brandCode":"662","brandFilterCode":"old-spice-b663","sku":"100146861","price":35.99,"originalPrice":null,"currencyCode":"RON","currency":"Lei","image":{"thumbnail":{"default":"https://cdn.freshful.ro/media/cache/sylius_shop_product_thumbnail/ca/6d/458ec25f7e6e998a760d1917aebb.jpg"},"large":{"default":"https://cdn.freshful.ro/media/cache/freshful_large/ca/6d/458ec25f7e6e998a760d1917aebb.jpg"},"extralarge":{"default":"https://cdn.freshful.ro/media/cache/sylius_shop_product_original/ca/6d/458ec25f7e6e998a760d1917aebb.jpg"}},"label":null,"tags":[],"isAvailable":true,"maxAvailableQuantity":100,"maxAllowedQuantity":100,"breadcrumbs":[{"code":"11","name":"Cosmetice","slug":"11-cosmetice-si-ingrijire-personala"},{"code":"1106","name":"Seturi cadou","slug":"1106-seturi-cadou"},{"code":"110601","name":"Pachete cadou bărbați","slug":"110601-pachete-cadou-barbati"},{"code":"100146861","name":"Set Cadou Old Spice Dark Captain","slug":"100146861-old-spice-set-cadou-old-spice-dark-captain"}],"activePromotion":null,"saveMe":null,"labels":[],"geniusPrice":null,"geniusUnitPricePerLabel":null,"banner":null,"discountLabel":null,"geniusDiscountLabel":null,"badge":null},{"code":"100124632","variantCode":"100124632","name":"Set cadou pentru bărbierit King C. ","slug":"100124632-gillette-set-cadou-pentru-barbierit-king-c","unitPriceLabel":"","brand":"Gillette","brandCode":"660","brandFilterCode":"gillette-b661","sku":"100124632","price":121.9,"originalPrice":null,"currencyCode":"RON","currency":"Lei","image":{"thumbnail":{"default":"https://cdn.freshful.ro/media/cache/sylius_shop_product_thumbnail/b5/cb/777e6ce659dff2cf91196c7c9370.jpg"},"large":{"default":"https://cdn.freshful.ro/media/cache/freshful_large/b5/cb/777e6ce659dff2cf91196c7c9370.jpg"},"extralarge":{"default":"https://cdn.freshful.ro/media/cache/sylius_shop_product_original/b5/cb/777e6ce659dff2cf91196c7c9370.jpg"}},"label":null,"tags":[],"isAvailable":true,"maxAvailableQuantity":4,"maxAllowedQuantity":100,"breadcrumbs":[{"code":"11","name":"Cosmetice","slug":"11-cosmetice-si-ingrijire-personala"},{"code":"1106","name":"Seturi cadou","slug":"1106-seturi-cadou"},{"code":"110601","name":"Pachete cadou bărbați","slug":"110601-pachete-cadou-barbati"},{"code":"100124632","name":"Set cadou pentru bărbierit King C. ","slug":"100124632-gillette-set-cadou-pentru-barbierit-king-c"}],"activePromotion":null,"saveMe":null,"labels":[],"geniusPrice":null,"geniusUnitPricePerLabel":null,"banner":null,"discountLabel":null,"geniusDiscountLabel":null,"badge":null},{"code":"100126253","variantCode":"100126253","name":"Set cadou pentru bărbați: Șampon Clean&Cool 440ml + Pastă modelatoare Matt Fiber 100ml +  Deodorant Fa Men Sport 150ml","slug":"100126253-syoss-set-cadou-pentru-barbati-sampon-clean-cool-440ml-pasta-modelatoare-matt-fiber-100ml-deodorant-fa-men-sport-150ml","unitPriceLabel":"","brand":"Syoss","brandCode":"1761","brandFilterCode":"syoss-b1765","sku":"100126253","price":50.9,"originalPrice":null,"currencyCode":"RON","currency":"Lei","image":{"thumbnail":{"default":"https://cdn.freshful.ro/media/cache/sylius_shop_product_thumbnail/e1/9b/15b08ec8b2167512f8743193f505.jpg"},"large":{"default":"https://cdn.freshful.ro/media/cache/freshful_large/e1/9b/15b08ec8b2167512f8743193f505.jpg"},"extralarge":{"default":"https://cdn.freshful.ro/media/cache/sylius_shop_product_original/e1/9b/15b08ec8b2167512f8743193f505.jpg"}},"label":null,"tags":[],"isAvailable":true,"maxAvailableQuantity":12,"maxAllowedQuantity":100,"breadcrumbs":[{"code":"11","name":"Cosmetice","slug":"11-cosmetice-si-ingrijire-personala"},{"code":"1106","name":"Seturi cadou","slug":"1106-seturi-cadou"},{"code":"110601","name":"Pachete cadou bărbați","slug":"110601-pachete-cadou-barbati"},{"code":"100126253","name":"Set cadou pentru bărbați: Șampon Clean&Cool 440ml + Pastă modelatoare Matt Fiber 100ml +  Deodorant Fa Men Sport 150ml","slug":"100126253-syoss-set-cadou-pentru-barbati-sampon-clean-cool-440ml-pasta-modelatoare-matt-fiber-100ml-deodorant-fa-men-sport-150ml"}],"activePromotion":null,"saveMe":null,"labels":[],"geniusPrice":null,"geniusUnitPricePerLabel":null,"banner":null,"discountLabel":null,"geniusDiscountLabel":null,"badge":null}],"filters":{"countSelected":0,"items":[{"code":"brand","name":"Brand","countSelected":0,"values":[{"code":"dove-b764","name":"Dove","isSelected":false,"count":7},{"code":"gillette-b661","name":"Gillette","isSelected":false,"count":1},{"code":"head-shoulders-b664","name":"Head & Shoulders","isSelected":false,"count":1},{"code":"nivea-b317","name":"Nivea","isSelected":false,"count":1},{"code":"old-spice-b663","name":"Old Spice","isSelected":false,"count":4},{"code":"rituals-b2992","name":"Rituals","isSelected":false,"count":2},{"code":"str8-b540","name":"STR8","isSelected":false,"count":2},{"code":"syoss-b1765","name":"Syoss","isSelected":false,"count":1}]}]},"orderBy":[{"field":"price","direction":"asc","name":"Preț crescător","isSelected":false},{"field":"price","direction":"desc","name":"Preț descrescător","isSelected":false},{"field":"popularity","direction":"desc","name":"Cele mai populare","isSelected":true},{"field":"category","direction":"asc","name":"Categorie","isSelected":false}],"metaTitle":"Pachete cadou bărbați - Gamă variată","metaDescription":"Vrei Pachete cadou bărbați? Alege dintr-o gamă variată. Comanzi simplu și ai livrare rapidă, calitate și prospețime. Hai pe Freshful.ro","metaKeywords":null,"banners":[]}}