{"type":"subcategory","payload":{"analyticsListId":"category_110706-masti-capilare","analyticsListName":"Category - Măști capilare","name":"Măști capilare","slug":"110706-masti-capilare","image":null,"breadcrumbs":[{"code":"11","name":"Cosmetice","slug":"11-cosmetice-si-ingrijire-personala"},{"code":"1107","name":"Îngrijirea părului","slug":"1107-ingrijirea-parului"},{"code":"110706","name":"Măști capilare","slug":"110706-masti-capilare"}],"slots":[],"page":1,"limit":10,"pages":3,"count":30,"siblings":[{"name":"Deodorante și parfumuri","slug":"1101-deodorante-si-parfumuri","selected":false},{"name":"Bărbierit și îngrijire ten","slug":"1102-produse-pentru-barbierit-si-ingrijit-ten","selected":false},{"name":"Demachiante și creme","slug":"1103-creme-intretinere-si-demachiante","selected":false},{"name":"Protecție solară","slug":"1104-produse-cu-protectie-solara","selected":false},{"name":"Ceară, benzi și creme depilatoare","slug":"1105-ceara-benzi-si-creme-depliatoare","selected":false},{"name":"Seturi cadou","slug":"1106-seturi-cadou","selected":false},{"name":"Îngrijirea părului","slug":"1107-ingrijirea-parului","selected":true},{"name":"Igienă intimă","slug":"1108-igienta-inima","selected":false},{"name":"Igienă dentară","slug":"1109-igiena-dentara","selected":false},{"name":"Săpunuri și geluri de duș","slug":"1110-sapunuri-si-geluri-de-dus","selected":false},{"name":"Dermatocosmetice și parafarmacie","slug":"1111-dermatocosmetice-si-parafarmacie","selected":false},{"name":"Repelent","slug":"repelent","selected":false}],"children":[{"name":"Toate produsele","slug":"1107-ingrijirea-parului","selected":false},{"name":"Accesorii pentru păr","slug":"110701-acesorii-pentru-par","selected":false},{"name":"Fixativ, gel și spumă pentru păr","slug":"110702-fixativ-gel-si-spuma-par","selected":false},{"name":"Vopsea pentru păr","slug":"110703-vopsea-pentru-par","selected":false},{"name":"Șampon","slug":"110704-sampon","selected":false},{"name":"Balsam","slug":"110705-balsam","selected":false},{"name":"Măști capilare","slug":"110706-masti-capilare","selected":true},{"name":"Tratamente capilare","slug":"110707-tratament-capilar","selected":false}],"products":[{"code":"100109905","variantCode":"9000101050776","name":"Mască pentru păr foarte deteriorat Ultimate Repair 300ml ","slug":"100109905-gliss-masca-pentru-par-foarte-deteriorat-ultimate-repair-300ml","unitPriceLabel":"86,63 Lei/l","brand":"Gliss","brandCode":"1756","brandFilterCode":"gliss-b1760","sku":"100109905","price":25.99,"originalPrice":null,"currencyCode":"RON","currency":"Lei","image":{"thumbnail":{"default":"https://cdn.freshful.ro/media/cache/sylius_shop_product_thumbnail/cf/b5/fd1faa353d1ecb53a8ac4125a6c5.jpg"},"large":{"default":"https://cdn.freshful.ro/media/cache/freshful_large/cf/b5/fd1faa353d1ecb53a8ac4125a6c5.jpg"},"extralarge":{"default":"https://cdn.freshful.ro/media/cache/sylius_shop_product_original/cf/b5/fd1faa353d1ecb53a8ac4125a6c5.jpg"}},"label":{"text":"Profită acum","backgroundColor":"#FF9903","textColor":"#FFFFFF"},"tags":[],"isAvailable":true,"maxAvailableQuantity":4,"maxAllowedQuantity":100,"breadcrumbs":[{"code":"11","name":"Cosmetice","slug":"11-cosmetice-si-ingrijire-personala"},{"code":"1107","name":"Îngrijirea părului","slug":"1107-ingrijirea-parului"},{"code":"110706","name":"Măști capilare","slug":"110706-masti-capilare"},{"code":"100109905","name":"Mască pentru păr foarte deteriorat Ultimate Repair 300ml ","slug":"100109905-gliss-masca-pentru-par-foarte-deteriorat-ultimate-repair-300ml"}],"activePromotion":{"code":"special-colorare-styling-feb23","name":"Preț avantajos","targetQuantity":null},"saveMe":null,"labels":[{"type":"v1","items":[{"text":"Profită acum","backgroundColor":"#FF9903","textColor":"#FFFFFF"}]}],"geniusPrice":null,"geniusUnitPricePerLabel":null,"banner":{"text":"Preț avantajos","textColor":"#F95510","bgColor":"#FEF1CD","icon":null,"link":"https://www.freshful.ro/oferte/special-colorare-styling-feb23","type":"promo","analyticsEventType":"select_promotion","analyticsEventPayload":{"promotion_id":"special-colorare-styling-feb23","promotion_name":"Colorare și styling"}},"discountLabel":null,"geniusDiscountLabel":null,"badge":null},{"code":"100109924","variantCode":"9000101287493","name":"Mască 2în1 Split Hair Miracle pentru păr deteriorat și vârfuri despicate 300ml","slug":"100109924-gliss-masca-2in1-split-hair-miracle-pentru-par-deteriorat-si-varfuri-despicate-300ml","unitPriceLabel":"86,63 Lei/l","brand":"Gliss","brandCode":"1756","brandFilterCode":"gliss-b1760","sku":"100109924","price":25.99,"originalPrice":null,"currencyCode":"RON","currency":"Lei","image":{"thumbnail":{"default":"https://cdn.freshful.ro/media/cache/sylius_shop_product_thumbnail/a4/8e/15361479de1a0c9f5345395192e2.jpg"},"large":{"default":"https://cdn.freshful.ro/media/cache/freshful_large/a4/8e/15361479de1a0c9f5345395192e2.jpg"},"extralarge":{"default":"https://cdn.freshful.ro/media/cache/sylius_shop_product_original/a4/8e/15361479de1a0c9f5345395192e2.jpg"}},"label":{"text":"Profită acum","backgroundColor":"#FF9903","textColor":"#FFFFFF"},"tags":[],"isAvailable":true,"maxAvailableQuantity":7,"maxAllowedQuantity":100,"breadcrumbs":[{"code":"11","name":"Cosmetice","slug":"11-cosmetice-si-ingrijire-personala"},{"code":"1107","name":"Îngrijirea părului","slug":"1107-ingrijirea-parului"},{"code":"110706","name":"Măști capilare","slug":"110706-masti-capilare"},{"code":"100109924","name":"Mască 2în1 Split Hair Miracle pentru păr deteriorat și vârfuri despicate 300ml","slug":"100109924-gliss-masca-2in1-split-hair-miracle-pentru-par-deteriorat-si-varfuri-despicate-300ml"}],"activePromotion":{"code":"special-colorare-styling-feb23","name":"Preț avantajos","targetQuantity":null},"saveMe":null,"labels":[{"type":"v1","items":[{"text":"Profită acum","backgroundColor":"#FF9903","textColor":"#FFFFFF"}]}],"geniusPrice":null,"geniusUnitPricePerLabel":null,"banner":{"text":"Preț avantajos","textColor":"#F95510","bgColor":"#FEF1CD","icon":null,"link":"https://www.freshful.ro/oferte/special-colorare-styling-feb23","type":"promo","analyticsEventType":"select_promotion","analyticsEventPayload":{"promotion_id":"special-colorare-styling-feb23","promotion_name":"Colorare și styling"}},"discountLabel":null,"geniusDiscountLabel":null,"badge":null},{"code":"100109902","variantCode":"100109902","name":"Mască de păr Total Repair 2în1, 300ml ","slug":"100109902-gliss-masca-de-par-total-repair-2in1-300ml","unitPriceLabel":"86,63 Lei/l","brand":"Gliss","brandCode":"1756","brandFilterCode":"gliss-b1760","sku":"100109902","price":25.99,"originalPrice":null,"currencyCode":"RON","currency":"Lei","image":{"thumbnail":{"default":"https://cdn.freshful.ro/media/cache/sylius_shop_product_thumbnail/c5/03/5e6d8bae5ac2092b0c719065a977.jpg"},"large":{"default":"https://cdn.freshful.ro/media/cache/freshful_large/c5/03/5e6d8bae5ac2092b0c719065a977.jpg"},"extralarge":{"default":"https://cdn.freshful.ro/media/cache/sylius_shop_product_original/c5/03/5e6d8bae5ac2092b0c719065a977.jpg"}},"label":{"text":"Profită acum","backgroundColor":"#FF9903","textColor":"#FFFFFF"},"tags":[],"isAvailable":true,"maxAvailableQuantity":14,"maxAllowedQuantity":100,"breadcrumbs":[{"code":"11","name":"Cosmetice","slug":"11-cosmetice-si-ingrijire-personala"},{"code":"1107","name":"Îngrijirea părului","slug":"1107-ingrijirea-parului"},{"code":"110706","name":"Măști capilare","slug":"110706-masti-capilare"},{"code":"100109902","name":"Mască de păr Total Repair 2în1, 300ml ","slug":"100109902-gliss-masca-de-par-total-repair-2in1-300ml"}],"activePromotion":{"code":"special-colorare-styling-feb23","name":"Preț avantajos","targetQuantity":null},"saveMe":null,"labels":[{"type":"v1","items":[{"text":"Profită acum","backgroundColor":"#FF9903","textColor":"#FFFFFF"}]}],"geniusPrice":null,"geniusUnitPricePerLabel":null,"banner":{"text":"Preț avantajos","textColor":"#F95510","bgColor":"#FEF1CD","icon":null,"link":"https://www.freshful.ro/oferte/special-colorare-styling-feb23","type":"promo","analyticsEventType":"select_promotion","analyticsEventPayload":{"promotion_id":"special-colorare-styling-feb23","promotion_name":"Colorare și styling"}},"discountLabel":null,"geniusDiscountLabel":null,"badge":null},{"code":"100109903","variantCode":"9000101050936","name":"Mască pentru păr uscat și deteriorat Oil Nutritive 300ml","slug":"100109903-gliss-masca-pentru-par-uscat-si-deteriorat-oil-nutritive-300ml","unitPriceLabel":"86,63 Lei/l","brand":"Gliss","brandCode":"1756","brandFilterCode":"gliss-b1760","sku":"100109903","price":25.99,"originalPrice":null,"currencyCode":"RON","currency":"Lei","image":{"thumbnail":{"default":"https://cdn.freshful.ro/media/cache/sylius_shop_product_thumbnail/3c/05/0e13b84de1d5d6cbd676f64fa79d.jpg"},"large":{"default":"https://cdn.freshful.ro/media/cache/freshful_large/3c/05/0e13b84de1d5d6cbd676f64fa79d.jpg"},"extralarge":{"default":"https://cdn.freshful.ro/media/cache/sylius_shop_product_original/3c/05/0e13b84de1d5d6cbd676f64fa79d.jpg"}},"label":{"text":"Profită acum","backgroundColor":"#FF9903","textColor":"#FFFFFF"},"tags":[],"isAvailable":true,"maxAvailableQuantity":12,"maxAllowedQuantity":100,"breadcrumbs":[{"code":"11","name":"Cosmetice","slug":"11-cosmetice-si-ingrijire-personala"},{"code":"1107","name":"Îngrijirea părului","slug":"1107-ingrijirea-parului"},{"code":"110706","name":"Măști capilare","slug":"110706-masti-capilare"},{"code":"100109903","name":"Mască pentru păr uscat și deteriorat Oil Nutritive 300ml","slug":"100109903-gliss-masca-pentru-par-uscat-si-deteriorat-oil-nutritive-300ml"}],"activePromotion":{"code":"special-colorare-styling-feb23","name":"Preț avantajos","targetQuantity":null},"saveMe":null,"labels":[{"type":"v1","items":[{"text":"Profită acum","backgroundColor":"#FF9903","textColor":"#FFFFFF"}]}],"geniusPrice":null,"geniusUnitPricePerLabel":null,"banner":{"text":"Preț avantajos","textColor":"#F95510","bgColor":"#FEF1CD","icon":null,"link":"https://www.freshful.ro/oferte/special-colorare-styling-feb23","type":"promo","analyticsEventType":"select_promotion","analyticsEventPayload":{"promotion_id":"special-colorare-styling-feb23","promotion_name":"Colorare și styling"}},"discountLabel":null,"geniusDiscountLabel":null,"badge":null},{"code":"100109925","variantCode":"9000101201062","name":"Mască de păr Supreme Length 300ml","slug":"100109925-gliss-masca-de-par-supreme-length-300ml","unitPriceLabel":"86,63 Lei/l","brand":"Gliss","brandCode":"1756","brandFilterCode":"gliss-b1760","sku":"100109925","price":25.99,"originalPrice":null,"currencyCode":"RON","currency":"Lei","image":{"thumbnail":{"default":"https://cdn.freshful.ro/media/cache/sylius_shop_product_thumbnail/6f/94/ac0083c0f61e9baf7a13d60fdfb8.jpg"},"large":{"default":"https://cdn.freshful.ro/media/cache/freshful_large/6f/94/ac0083c0f61e9baf7a13d60fdfb8.jpg"},"extralarge":{"default":"https://cdn.freshful.ro/media/cache/sylius_shop_product_original/6f/94/ac0083c0f61e9baf7a13d60fdfb8.jpg"}},"label":{"text":"Profită acum","backgroundColor":"#FF9903","textColor":"#FFFFFF"},"tags":[],"isAvailable":true,"maxAvailableQuantity":15,"maxAllowedQuantity":100,"breadcrumbs":[{"code":"11","name":"Cosmetice","slug":"11-cosmetice-si-ingrijire-personala"},{"code":"1107","name":"Îngrijirea părului","slug":"1107-ingrijirea-parului"},{"code":"110706","name":"Măști capilare","slug":"110706-masti-capilare"},{"code":"100109925","name":"Mască de păr Supreme Length 300ml","slug":"100109925-gliss-masca-de-par-supreme-length-300ml"}],"activePromotion":{"code":"special-colorare-styling-feb23","name":"Preț avantajos","targetQuantity":null},"saveMe":null,"labels":[{"type":"v1","items":[{"text":"Profită acum","backgroundColor":"#FF9903","textColor":"#FFFFFF"}]}],"geniusPrice":null,"geniusUnitPricePerLabel":null,"banner":{"text":"Preț avantajos","textColor":"#F95510","bgColor":"#FEF1CD","icon":null,"link":"https://www.freshful.ro/oferte/special-colorare-styling-feb23","type":"promo","analyticsEventType":"select_promotion","analyticsEventPayload":{"promotion_id":"special-colorare-styling-feb23","promotion_name":"Colorare și styling"}},"discountLabel":null,"geniusDiscountLabel":null,"badge":null},{"code":"100091577","variantCode":"100091577","name":"Mască de păr Pro-V Smooth&Sleek 300ml","slug":"100091577-pantene-masca-de-par-pro-v-smooth-sleek-300ml","unitPriceLabel":"151,63 Lei/l","brand":"Pantene","brandCode":"670","brandFilterCode":"pantene-b671","sku":"100091577","price":45.49,"originalPrice":null,"currencyCode":"RON","currency":"Lei","image":{"thumbnail":{"default":"https://cdn.freshful.ro/media/cache/sylius_shop_product_thumbnail/b8/dc/a6fbb0c7ab328b8a4df03268a44c.jpg"},"large":{"default":"https://cdn.freshful.ro/media/cache/freshful_large/b8/dc/a6fbb0c7ab328b8a4df03268a44c.jpg"},"extralarge":{"default":"https://cdn.freshful.ro/media/cache/sylius_shop_product_original/b8/dc/a6fbb0c7ab328b8a4df03268a44c.jpg"}},"label":null,"tags":[],"isAvailable":true,"maxAvailableQuantity":25,"maxAllowedQuantity":100,"breadcrumbs":[{"code":"11","name":"Cosmetice","slug":"11-cosmetice-si-ingrijire-personala"},{"code":"1107","name":"Îngrijirea părului","slug":"1107-ingrijirea-parului"},{"code":"110706","name":"Măști capilare","slug":"110706-masti-capilare"},{"code":"100091577","name":"Mască de păr Pro-V Smooth&Sleek 300ml","slug":"100091577-pantene-masca-de-par-pro-v-smooth-sleek-300ml"}],"activePromotion":null,"saveMe":null,"labels":[],"geniusPrice":null,"geniusUnitPricePerLabel":null,"banner":null,"discountLabel":null,"geniusDiscountLabel":null,"badge":null},{"code":"100115507","variantCode":"3600522894933","name":"Mască multi utilizări cu ulei de Jojoba pentru păr foarte uscat 300ml","slug":"100115507-elseve-masca-multi-utilizari-cu-ulei-de-jojoba-pentru-par-foarte-uscat-300ml","unitPriceLabel":"116,3 Lei/l","brand":"Elseve","brandCode":"1985","brandFilterCode":"elseve-b1989","sku":"100115507","price":34.89,"originalPrice":null,"currencyCode":"RON","currency":"Lei","image":{"thumbnail":{"default":"https://cdn.freshful.ro/media/cache/sylius_shop_product_thumbnail/5f/ca/cfe7daf09bd97c29a76992a13336.jpg"},"large":{"default":"https://cdn.freshful.ro/media/cache/freshful_large/5f/ca/cfe7daf09bd97c29a76992a13336.jpg"},"extralarge":{"default":"https://cdn.freshful.ro/media/cache/sylius_shop_product_original/5f/ca/cfe7daf09bd97c29a76992a13336.jpg"}},"label":null,"tags":[],"isAvailable":true,"maxAvailableQuantity":27,"maxAllowedQuantity":100,"breadcrumbs":[{"code":"11","name":"Cosmetice","slug":"11-cosmetice-si-ingrijire-personala"},{"code":"1107","name":"Îngrijirea părului","slug":"1107-ingrijirea-parului"},{"code":"110706","name":"Măști capilare","slug":"110706-masti-capilare"},{"code":"100115507","name":"Mască multi utilizări cu ulei de Jojoba pentru păr foarte uscat 300ml","slug":"100115507-elseve-masca-multi-utilizari-cu-ulei-de-jojoba-pentru-par-foarte-uscat-300ml"}],"activePromotion":null,"saveMe":null,"labels":[],"geniusPrice":null,"geniusUnitPricePerLabel":null,"banner":null,"discountLabel":null,"geniusDiscountLabel":null,"badge":null},{"code":"100091530","variantCode":"100091530","name":"Mască de păr Argan Oil pentru păr deteriorat 250ml","slug":"100091530-herbal-essences-masca-de-par-argan-oil-pentru-par-deteriorat-250ml","unitPriceLabel":"122,76 Lei/l","brand":"Herbal Essences","brandCode":"671","brandFilterCode":"herbal-essences-b672","sku":"100091530","price":30.69,"originalPrice":null,"currencyCode":"RON","currency":"Lei","image":{"thumbnail":{"default":"https://cdn.freshful.ro/media/cache/sylius_shop_product_thumbnail/86/6f/74eae62667b5be7ef56794955e5c.jpg"},"large":{"default":"https://cdn.freshful.ro/media/cache/freshful_large/86/6f/74eae62667b5be7ef56794955e5c.jpg"},"extralarge":{"default":"https://cdn.freshful.ro/media/cache/sylius_shop_product_original/86/6f/74eae62667b5be7ef56794955e5c.jpg"}},"label":null,"tags":[],"isAvailable":true,"maxAvailableQuantity":16,"maxAllowedQuantity":100,"breadcrumbs":[{"code":"11","name":"Cosmetice","slug":"11-cosmetice-si-ingrijire-personala"},{"code":"1107","name":"Îngrijirea părului","slug":"1107-ingrijirea-parului"},{"code":"110706","name":"Măști capilare","slug":"110706-masti-capilare"},{"code":"100091530","name":"Mască de păr Argan Oil pentru păr deteriorat 250ml","slug":"100091530-herbal-essences-masca-de-par-argan-oil-pentru-par-deteriorat-250ml"}],"activePromotion":null,"saveMe":null,"labels":[],"geniusPrice":null,"geniusUnitPricePerLabel":null,"banner":null,"discountLabel":null,"geniusDiscountLabel":null,"badge":null},{"code":"100115436","variantCode":"3600523015207","name":"Mască reconstituantă pentru păr deteriorat 300ml ","slug":"100115436-elseve-masca-reconstituanta-pentru-par-deteriorat-300ml","unitPriceLabel":"101,67 Lei/l","brand":"Elseve","brandCode":"1985","brandFilterCode":"elseve-b1989","sku":"100115436","price":30.5,"originalPrice":null,"currencyCode":"RON","currency":"Lei","image":{"thumbnail":{"default":"https://cdn.freshful.ro/media/cache/sylius_shop_product_thumbnail/e0/b5/93c689f86ed203cf888a5083b327.jpg"},"large":{"default":"https://cdn.freshful.ro/media/cache/freshful_large/e0/b5/93c689f86ed203cf888a5083b327.jpg"},"extralarge":{"default":"https://cdn.freshful.ro/media/cache/sylius_shop_product_original/e0/b5/93c689f86ed203cf888a5083b327.jpg"}},"label":null,"tags":[],"isAvailable":true,"maxAvailableQuantity":29,"maxAllowedQuantity":100,"breadcrumbs":[{"code":"11","name":"Cosmetice","slug":"11-cosmetice-si-ingrijire-personala"},{"code":"1107","name":"Îngrijirea părului","slug":"1107-ingrijirea-parului"},{"code":"110706","name":"Măști capilare","slug":"110706-masti-capilare"},{"code":"100115436","name":"Mască reconstituantă pentru păr deteriorat 300ml ","slug":"100115436-elseve-masca-reconstituanta-pentru-par-deteriorat-300ml"}],"activePromotion":null,"saveMe":null,"labels":[],"geniusPrice":null,"geniusUnitPricePerLabel":null,"banner":null,"discountLabel":null,"geniusDiscountLabel":null,"badge":null},{"code":"100115438","variantCode":"3600523822997","name":"Mască de păr lung, degradat 300ml","slug":"100115438-elseve-masca-de-par-lung-degradat-300ml","unitPriceLabel":"96,33 Lei/l","brand":"Elseve","brandCode":"1985","brandFilterCode":"elseve-b1989","sku":"100115438","price":28.9,"originalPrice":null,"currencyCode":"RON","currency":"Lei","image":{"thumbnail":{"default":"https://cdn.freshful.ro/media/cache/sylius_shop_product_thumbnail/33/fb/aa571bfbcf8b8570a98dd1056600.jpg"},"large":{"default":"https://cdn.freshful.ro/media/cache/freshful_large/33/fb/aa571bfbcf8b8570a98dd1056600.jpg"},"extralarge":{"default":"https://cdn.freshful.ro/media/cache/sylius_shop_product_original/33/fb/aa571bfbcf8b8570a98dd1056600.jpg"}},"label":null,"tags":[],"isAvailable":true,"maxAvailableQuantity":27,"maxAllowedQuantity":100,"breadcrumbs":[{"code":"11","name":"Cosmetice","slug":"11-cosmetice-si-ingrijire-personala"},{"code":"1107","name":"Îngrijirea părului","slug":"1107-ingrijirea-parului"},{"code":"110706","name":"Măști capilare","slug":"110706-masti-capilare"},{"code":"100115438","name":"Mască de păr lung, degradat 300ml","slug":"100115438-elseve-masca-de-par-lung-degradat-300ml"}],"activePromotion":null,"saveMe":null,"labels":[],"geniusPrice":null,"geniusUnitPricePerLabel":null,"banner":null,"discountLabel":null,"geniusDiscountLabel":null,"badge":null}],"filters":{"countSelected":0,"items":[{"code":"promotion","name":"Promoții","countSelected":0,"values":[{"code":"special-colorare-styling-feb23","name":"Colorare și styling","isSelected":false,"count":5}]},{"code":"brand","name":"Brand","countSelected":0,"values":[{"code":"botanic-therapy-b1990","name":"Botanic Therapy","isSelected":false,"count":1},{"code":"elseve-b1989","name":"Elseve","isSelected":false,"count":7},{"code":"essere-b1365","name":"Essere","isSelected":false,"count":1},{"code":"gliss-b1760","name":"Gliss","isSelected":false,"count":9},{"code":"herbal-essences-b672","name":"Herbal Essences","isSelected":false,"count":3},{"code":"pantene-b671","name":"Pantene","isSelected":false,"count":5},{"code":"schauma-b1764","name":"Schauma","isSelected":false,"count":1},{"code":"wash-go-b558","name":"Wash & Go","isSelected":false,"count":3}]},{"code":"diet_lifestyle","name":"Dietă și lifestyle","countSelected":0,"values":[{"code":"bio-a26","name":"Bio","isSelected":false,"count":1},{"code":"vegan-a24","name":"Vegan","isSelected":false,"count":4}]}]},"orderBy":[{"field":"price","direction":"asc","name":"Preț crescător","isSelected":false},{"field":"price","direction":"desc","name":"Preț descrescător","isSelected":false},{"field":"popularity","direction":"desc","name":"Cele mai populare","isSelected":true},{"field":"category","direction":"asc","name":"Categorie","isSelected":false}],"metaTitle":"Măști capilare - Gamă variată","metaDescription":"Vrei Măști capilare? Alege dintr-o gamă variată. Comanzi simplu și ai livrare rapidă, calitate și prospețime. Hai pe Freshful.ro","metaKeywords":null,"banners":[]}}