{"type":"subcategory","payload":{"analyticsListId":"category_110702-fixativ-gel-si-spuma-par","analyticsListName":"Category - Fixativ, gel și spumă pentru păr","name":"Fixativ, gel și spumă pentru păr","slug":"110702-fixativ-gel-si-spuma-par","image":null,"breadcrumbs":[{"code":"11","name":"Cosmetice","slug":"11-cosmetice-si-ingrijire-personala"},{"code":"1107","name":"Îngrijirea părului","slug":"1107-ingrijirea-parului"},{"code":"110702","name":"Fixativ, gel și spumă pentru păr","slug":"110702-fixativ-gel-si-spuma-par"}],"slots":[],"page":1,"limit":10,"pages":8,"count":76,"siblings":[{"name":"Deodorante și parfumuri","slug":"1101-deodorante-si-parfumuri","selected":false},{"name":"Bărbierit și îngrijire ten","slug":"1102-produse-pentru-barbierit-si-ingrijit-ten","selected":false},{"name":"Demachiante și creme","slug":"1103-creme-intretinere-si-demachiante","selected":false},{"name":"Protecție solară","slug":"1104-produse-cu-protectie-solara","selected":false},{"name":"Ceară, benzi și creme depilatoare","slug":"1105-ceara-benzi-si-creme-depliatoare","selected":false},{"name":"Seturi cadou","slug":"1106-seturi-cadou","selected":false},{"name":"Îngrijirea părului","slug":"1107-ingrijirea-parului","selected":true},{"name":"Igienă intimă","slug":"1108-igienta-inima","selected":false},{"name":"Igienă dentară","slug":"1109-igiena-dentara","selected":false},{"name":"Săpunuri și geluri de duș","slug":"1110-sapunuri-si-geluri-de-dus","selected":false},{"name":"Dermatocosmetice și parafarmacie","slug":"1111-dermatocosmetice-si-parafarmacie","selected":false},{"name":"Repelent","slug":"repelent","selected":false}],"children":[{"name":"Toate produsele","slug":"1107-ingrijirea-parului","selected":false},{"name":"Accesorii pentru păr","slug":"110701-acesorii-pentru-par","selected":false},{"name":"Fixativ, gel și spumă pentru păr","slug":"110702-fixativ-gel-si-spuma-par","selected":true},{"name":"Vopsea pentru păr","slug":"110703-vopsea-pentru-par","selected":false},{"name":"Șampon","slug":"110704-sampon","selected":false},{"name":"Balsam","slug":"110705-balsam","selected":false},{"name":"Măști capilare","slug":"110706-masti-capilare","selected":false},{"name":"Tratamente capilare","slug":"110707-tratament-capilar","selected":false}],"products":[{"code":"100109807","variantCode":"9000100336376","name":"Fixativ Phyto-Keratin (4) pentru păr 250ml","slug":"100109807-taft-fixativ-phyto-keratin-4-pentru-par-250ml","unitPriceLabel":"76,87 Lei/l","brand":"Taft","brandCode":"1754","brandFilterCode":"taft-b1758","sku":"100109807","price":14.99,"originalPrice":null,"currencyCode":"RON","currency":"Lei","image":{"thumbnail":{"default":"https://cdn.freshful.ro/media/cache/sylius_shop_product_thumbnail/5c/80/619c27f67ac3a8b7cc08087b133a.jpg"},"large":{"default":"https://cdn.freshful.ro/media/cache/freshful_large/5c/80/619c27f67ac3a8b7cc08087b133a.jpg"},"extralarge":{"default":"https://cdn.freshful.ro/media/cache/sylius_shop_product_original/5c/80/619c27f67ac3a8b7cc08087b133a.jpg"}},"label":{"text":"Profită acum","backgroundColor":"#FF9903","textColor":"#FFFFFF"},"tags":[{"type":"vegan","text":"Vegan","icon":"https://cdn.freshful.ro/assets/product_tags/vegan.svg","iconPng":"https://cdn.freshful.ro/assets/product_tags/vegan.png","backgroundColor":"#ECF9F8","textColor":"#33A39C"}],"isAvailable":true,"maxAvailableQuantity":6,"maxAllowedQuantity":100,"breadcrumbs":[{"code":"11","name":"Cosmetice","slug":"11-cosmetice-si-ingrijire-personala"},{"code":"1107","name":"Îngrijirea părului","slug":"1107-ingrijirea-parului"},{"code":"110702","name":"Fixativ, gel și spumă pentru păr","slug":"110702-fixativ-gel-si-spuma-par"},{"code":"100109807","name":"Fixativ Phyto-Keratin (4) pentru păr 250ml","slug":"100109807-taft-fixativ-phyto-keratin-4-pentru-par-250ml"}],"activePromotion":{"code":"special-colorare-styling-feb23","name":"Preț avantajos","targetQuantity":null},"saveMe":null,"labels":[{"type":"v1","items":[{"text":"Profită acum","backgroundColor":"#FF9903","textColor":"#FFFFFF"}]}],"geniusPrice":null,"geniusUnitPricePerLabel":null,"banner":{"text":"Preț avantajos","textColor":"#F95510","bgColor":"#FEF1CD","icon":null,"link":"https://www.freshful.ro/oferte/special-colorare-styling-feb23","type":"promo","analyticsEventType":"select_promotion","analyticsEventPayload":{"promotion_id":"special-colorare-styling-feb23","promotion_name":"Colorare și styling"}},"discountLabel":null,"geniusDiscountLabel":null,"badge":null},{"code":"100109805","variantCode":"9000100728201","name":"Fixativ Fine&Thin (5) pentru păr subțire 250ml","slug":"100109805-taft-fixativ-fine-thin-5-pentru-par-subtire-250ml","unitPriceLabel":"76,87 Lei/l","brand":"Taft","brandCode":"1754","brandFilterCode":"taft-b1758","sku":"100109805","price":14.99,"originalPrice":null,"currencyCode":"RON","currency":"Lei","image":{"thumbnail":{"default":"https://cdn.freshful.ro/media/cache/sylius_shop_product_thumbnail/fc/b5/d8e4b79a4674a65b511d6820904b.jpg"},"large":{"default":"https://cdn.freshful.ro/media/cache/freshful_large/fc/b5/d8e4b79a4674a65b511d6820904b.jpg"},"extralarge":{"default":"https://cdn.freshful.ro/media/cache/sylius_shop_product_original/fc/b5/d8e4b79a4674a65b511d6820904b.jpg"}},"label":{"text":"Profită acum","backgroundColor":"#FF9903","textColor":"#FFFFFF"},"tags":[],"isAvailable":true,"maxAvailableQuantity":10,"maxAllowedQuantity":100,"breadcrumbs":[{"code":"11","name":"Cosmetice","slug":"11-cosmetice-si-ingrijire-personala"},{"code":"1107","name":"Îngrijirea părului","slug":"1107-ingrijirea-parului"},{"code":"110702","name":"Fixativ, gel și spumă pentru păr","slug":"110702-fixativ-gel-si-spuma-par"},{"code":"100109805","name":"Fixativ Fine&Thin (5) pentru păr subțire 250ml","slug":"100109805-taft-fixativ-fine-thin-5-pentru-par-subtire-250ml"}],"activePromotion":{"code":"special-colorare-styling-feb23","name":"Preț avantajos","targetQuantity":null},"saveMe":null,"labels":[{"type":"v1","items":[{"text":"Profită acum","backgroundColor":"#FF9903","textColor":"#FFFFFF"}]}],"geniusPrice":null,"geniusUnitPricePerLabel":null,"banner":{"text":"Preț avantajos","textColor":"#F95510","bgColor":"#FEF1CD","icon":null,"link":"https://www.freshful.ro/oferte/special-colorare-styling-feb23","type":"promo","analyticsEventType":"select_promotion","analyticsEventPayload":{"promotion_id":"special-colorare-styling-feb23","promotion_name":"Colorare și styling"}},"discountLabel":null,"geniusDiscountLabel":null,"badge":null},{"code":"100109799","variantCode":"9000101619287","name":"Spray fixativ Volume Blow-Dry (3) pentru toate tipurile de păr 150ml","slug":"100109799-taft-spray-fixativ-volume-blow-dry-3-pentru-toate-tipurile-de-par-150ml","unitPriceLabel":"99,93 Lei/l","brand":"Taft","brandCode":"1754","brandFilterCode":"taft-b1758","sku":"100109799","price":14.99,"originalPrice":null,"currencyCode":"RON","currency":"Lei","image":{"thumbnail":{"default":"https://cdn.freshful.ro/media/cache/sylius_shop_product_thumbnail/b6/fc/47f9894df4626e9528a5483456eb.jpg"},"large":{"default":"https://cdn.freshful.ro/media/cache/freshful_large/b6/fc/47f9894df4626e9528a5483456eb.jpg"},"extralarge":{"default":"https://cdn.freshful.ro/media/cache/sylius_shop_product_original/b6/fc/47f9894df4626e9528a5483456eb.jpg"}},"label":{"text":"Profită acum","backgroundColor":"#FF9903","textColor":"#FFFFFF"},"tags":[],"isAvailable":true,"maxAvailableQuantity":12,"maxAllowedQuantity":100,"breadcrumbs":[{"code":"11","name":"Cosmetice","slug":"11-cosmetice-si-ingrijire-personala"},{"code":"1107","name":"Îngrijirea părului","slug":"1107-ingrijirea-parului"},{"code":"110702","name":"Fixativ, gel și spumă pentru păr","slug":"110702-fixativ-gel-si-spuma-par"},{"code":"100109799","name":"Spray fixativ Volume Blow-Dry (3) pentru toate tipurile de păr 150ml","slug":"100109799-taft-spray-fixativ-volume-blow-dry-3-pentru-toate-tipurile-de-par-150ml"}],"activePromotion":{"code":"special-colorare-styling-feb23","name":"Preț avantajos","targetQuantity":null},"saveMe":null,"labels":[{"type":"v1","items":[{"text":"Profită acum","backgroundColor":"#FF9903","textColor":"#FFFFFF"}]}],"geniusPrice":null,"geniusUnitPricePerLabel":null,"banner":{"text":"Preț avantajos","textColor":"#F95510","bgColor":"#FEF1CD","icon":null,"link":"https://www.freshful.ro/oferte/special-colorare-styling-feb23","type":"promo","analyticsEventType":"select_promotion","analyticsEventPayload":{"promotion_id":"special-colorare-styling-feb23","promotion_name":"Colorare și styling"}},"discountLabel":null,"geniusDiscountLabel":null,"badge":null},{"code":"100109802","variantCode":"40152257","name":"Ceară pentru păr 75ml","slug":"100109802-taft-ceara-pentru-par-75ml","unitPriceLabel":"194,68 Lei/l","brand":"Taft","brandCode":"1754","brandFilterCode":"taft-b1758","sku":"100109802","price":14.99,"originalPrice":null,"currencyCode":"RON","currency":"Lei","image":{"thumbnail":{"default":"https://cdn.freshful.ro/media/cache/sylius_shop_product_thumbnail/f8/f4/8a37d9f88414884b000a4a5b8b56.jpg"},"large":{"default":"https://cdn.freshful.ro/media/cache/freshful_large/f8/f4/8a37d9f88414884b000a4a5b8b56.jpg"},"extralarge":{"default":"https://cdn.freshful.ro/media/cache/sylius_shop_product_original/f8/f4/8a37d9f88414884b000a4a5b8b56.jpg"}},"label":{"text":"Profită acum","backgroundColor":"#FF9903","textColor":"#FFFFFF"},"tags":[],"isAvailable":true,"maxAvailableQuantity":21,"maxAllowedQuantity":100,"breadcrumbs":[{"code":"11","name":"Cosmetice","slug":"11-cosmetice-si-ingrijire-personala"},{"code":"1107","name":"Îngrijirea părului","slug":"1107-ingrijirea-parului"},{"code":"110702","name":"Fixativ, gel și spumă pentru păr","slug":"110702-fixativ-gel-si-spuma-par"},{"code":"100109802","name":"Ceară pentru păr 75ml","slug":"100109802-taft-ceara-pentru-par-75ml"}],"activePromotion":{"code":"special-colorare-styling-feb23","name":"Preț avantajos","targetQuantity":null},"saveMe":null,"labels":[{"type":"v1","items":[{"text":"Profită acum","backgroundColor":"#FF9903","textColor":"#FFFFFF"}]}],"geniusPrice":null,"geniusUnitPricePerLabel":null,"banner":{"text":"Preț avantajos","textColor":"#F95510","bgColor":"#FEF1CD","icon":null,"link":"https://www.freshful.ro/oferte/special-colorare-styling-feb23","type":"promo","analyticsEventType":"select_promotion","analyticsEventPayload":{"promotion_id":"special-colorare-styling-feb23","promotion_name":"Colorare și styling"}},"discountLabel":null,"geniusDiscountLabel":null,"badge":null},{"code":"100109825","variantCode":"9000100653541","name":"Spumă pentru păr fin și subțire (5) 200ml","slug":"100109825-taft-spuma-pentru-par-fin-si-subtire-5-200ml","unitPriceLabel":"79,31 Lei/l","brand":"Taft","brandCode":"1754","brandFilterCode":"taft-b1758","sku":"100109825","price":14.99,"originalPrice":null,"currencyCode":"RON","currency":"Lei","image":{"thumbnail":{"default":"https://cdn.freshful.ro/media/cache/sylius_shop_product_thumbnail/ae/d2/d5e4a60940352824d998d801b8b9.jpg"},"large":{"default":"https://cdn.freshful.ro/media/cache/freshful_large/ae/d2/d5e4a60940352824d998d801b8b9.jpg"},"extralarge":{"default":"https://cdn.freshful.ro/media/cache/sylius_shop_product_original/ae/d2/d5e4a60940352824d998d801b8b9.jpg"}},"label":{"text":"Profită acum","backgroundColor":"#FF9903","textColor":"#FFFFFF"},"tags":[],"isAvailable":true,"maxAvailableQuantity":12,"maxAllowedQuantity":100,"breadcrumbs":[{"code":"11","name":"Cosmetice","slug":"11-cosmetice-si-ingrijire-personala"},{"code":"1107","name":"Îngrijirea părului","slug":"1107-ingrijirea-parului"},{"code":"110702","name":"Fixativ, gel și spumă pentru păr","slug":"110702-fixativ-gel-si-spuma-par"},{"code":"100109825","name":"Spumă pentru păr fin și subțire (5) 200ml","slug":"100109825-taft-spuma-pentru-par-fin-si-subtire-5-200ml"}],"activePromotion":{"code":"special-colorare-styling-feb23","name":"Preț avantajos","targetQuantity":null},"saveMe":null,"labels":[{"type":"v1","items":[{"text":"Profită acum","backgroundColor":"#FF9903","textColor":"#FFFFFF"}]}],"geniusPrice":null,"geniusUnitPricePerLabel":null,"banner":{"text":"Preț avantajos","textColor":"#F95510","bgColor":"#FEF1CD","icon":null,"link":"https://www.freshful.ro/oferte/special-colorare-styling-feb23","type":"promo","analyticsEventType":"select_promotion","analyticsEventPayload":{"promotion_id":"special-colorare-styling-feb23","promotion_name":"Colorare și styling"}},"discountLabel":null,"geniusDiscountLabel":null,"badge":null},{"code":"100109808","variantCode":"9000100909778","name":"Fixativ Perfect Flex (4) pentru păr 250ml","slug":"100109808-taft-fixativ-perfect-flex-4-pentru-par-250ml","unitPriceLabel":"76,87 Lei/l","brand":"Taft","brandCode":"1754","brandFilterCode":"taft-b1758","sku":"100109808","price":14.99,"originalPrice":null,"currencyCode":"RON","currency":"Lei","image":{"thumbnail":{"default":"https://cdn.freshful.ro/media/cache/sylius_shop_product_thumbnail/0f/9d/7025ca93a7a97b50b1776a195196.jpg"},"large":{"default":"https://cdn.freshful.ro/media/cache/freshful_large/0f/9d/7025ca93a7a97b50b1776a195196.jpg"},"extralarge":{"default":"https://cdn.freshful.ro/media/cache/sylius_shop_product_original/0f/9d/7025ca93a7a97b50b1776a195196.jpg"}},"label":{"text":"Profită acum","backgroundColor":"#FF9903","textColor":"#FFFFFF"},"tags":[],"isAvailable":true,"maxAvailableQuantity":22,"maxAllowedQuantity":100,"breadcrumbs":[{"code":"11","name":"Cosmetice","slug":"11-cosmetice-si-ingrijire-personala"},{"code":"1107","name":"Îngrijirea părului","slug":"1107-ingrijirea-parului"},{"code":"110702","name":"Fixativ, gel și spumă pentru păr","slug":"110702-fixativ-gel-si-spuma-par"},{"code":"100109808","name":"Fixativ Perfect Flex (4) pentru păr 250ml","slug":"100109808-taft-fixativ-perfect-flex-4-pentru-par-250ml"}],"activePromotion":{"code":"special-colorare-styling-feb23","name":"Preț avantajos","targetQuantity":null},"saveMe":null,"labels":[{"type":"v1","items":[{"text":"Profită acum","backgroundColor":"#FF9903","textColor":"#FFFFFF"}]}],"geniusPrice":null,"geniusUnitPricePerLabel":null,"banner":{"text":"Preț avantajos","textColor":"#F95510","bgColor":"#FEF1CD","icon":null,"link":"https://www.freshful.ro/oferte/special-colorare-styling-feb23","type":"promo","analyticsEventType":"select_promotion","analyticsEventPayload":{"promotion_id":"special-colorare-styling-feb23","promotion_name":"Colorare și styling"}},"discountLabel":null,"geniusDiscountLabel":null,"badge":null},{"code":"100109813","variantCode":"9000100653503","name":"Fixativ Power&Fullness (5) pentu păr 250ml","slug":"100109813-taft-fixativ-power-fullness-5-pentu-par-250ml","unitPriceLabel":"76,87 Lei/l","brand":"Taft","brandCode":"1754","brandFilterCode":"taft-b1758","sku":"100109813","price":14.99,"originalPrice":null,"currencyCode":"RON","currency":"Lei","image":{"thumbnail":{"default":"https://cdn.freshful.ro/media/cache/sylius_shop_product_thumbnail/b7/e1/643c4484aa3886133806d8fb5813.jpg"},"large":{"default":"https://cdn.freshful.ro/media/cache/freshful_large/b7/e1/643c4484aa3886133806d8fb5813.jpg"},"extralarge":{"default":"https://cdn.freshful.ro/media/cache/sylius_shop_product_original/b7/e1/643c4484aa3886133806d8fb5813.jpg"}},"label":{"text":"Profită acum","backgroundColor":"#FF9903","textColor":"#FFFFFF"},"tags":[],"isAvailable":true,"maxAvailableQuantity":23,"maxAllowedQuantity":100,"breadcrumbs":[{"code":"11","name":"Cosmetice","slug":"11-cosmetice-si-ingrijire-personala"},{"code":"1107","name":"Îngrijirea părului","slug":"1107-ingrijirea-parului"},{"code":"110702","name":"Fixativ, gel și spumă pentru păr","slug":"110702-fixativ-gel-si-spuma-par"},{"code":"100109813","name":"Fixativ Power&Fullness (5) pentu păr 250ml","slug":"100109813-taft-fixativ-power-fullness-5-pentu-par-250ml"}],"activePromotion":{"code":"special-colorare-styling-feb23","name":"Preț avantajos","targetQuantity":null},"saveMe":null,"labels":[{"type":"v1","items":[{"text":"Profită acum","backgroundColor":"#FF9903","textColor":"#FFFFFF"}]}],"geniusPrice":null,"geniusUnitPricePerLabel":null,"banner":{"text":"Preț avantajos","textColor":"#F95510","bgColor":"#FEF1CD","icon":null,"link":"https://www.freshful.ro/oferte/special-colorare-styling-feb23","type":"promo","analyticsEventType":"select_promotion","analyticsEventPayload":{"promotion_id":"special-colorare-styling-feb23","promotion_name":"Colorare și styling"}},"discountLabel":null,"geniusDiscountLabel":null,"badge":null},{"code":"100109820","variantCode":"3838824083667","name":"Spumă pentru păr Shine 200ml","slug":"100109820-taft-spuma-pentru-par-shine-200ml","unitPriceLabel":"79,31 Lei/l","brand":"Taft","brandCode":"1754","brandFilterCode":"taft-b1758","sku":"100109820","price":14.99,"originalPrice":null,"currencyCode":"RON","currency":"Lei","image":{"thumbnail":{"default":"https://cdn.freshful.ro/media/cache/sylius_shop_product_thumbnail/21/f9/8a3e6c74017d0681852d6c9b8ca6.jpg"},"large":{"default":"https://cdn.freshful.ro/media/cache/freshful_large/21/f9/8a3e6c74017d0681852d6c9b8ca6.jpg"},"extralarge":{"default":"https://cdn.freshful.ro/media/cache/sylius_shop_product_original/21/f9/8a3e6c74017d0681852d6c9b8ca6.jpg"}},"label":{"text":"Profită acum","backgroundColor":"#FF9903","textColor":"#FFFFFF"},"tags":[],"isAvailable":true,"maxAvailableQuantity":3,"maxAllowedQuantity":100,"breadcrumbs":[{"code":"11","name":"Cosmetice","slug":"11-cosmetice-si-ingrijire-personala"},{"code":"1107","name":"Îngrijirea părului","slug":"1107-ingrijirea-parului"},{"code":"110702","name":"Fixativ, gel și spumă pentru păr","slug":"110702-fixativ-gel-si-spuma-par"},{"code":"100109820","name":"Spumă pentru păr Shine 200ml","slug":"100109820-taft-spuma-pentru-par-shine-200ml"}],"activePromotion":{"code":"special-colorare-styling-feb23","name":"Preț avantajos","targetQuantity":null},"saveMe":null,"labels":[{"type":"v1","items":[{"text":"Profită acum","backgroundColor":"#FF9903","textColor":"#FFFFFF"}]}],"geniusPrice":null,"geniusUnitPricePerLabel":null,"banner":{"text":"Preț avantajos","textColor":"#F95510","bgColor":"#FEF1CD","icon":null,"link":"https://www.freshful.ro/oferte/special-colorare-styling-feb23","type":"promo","analyticsEventType":"select_promotion","analyticsEventPayload":{"promotion_id":"special-colorare-styling-feb23","promotion_name":"Colorare și styling"}},"discountLabel":null,"geniusDiscountLabel":null,"badge":null},{"code":"100109823","variantCode":"9000100909716","name":"Spumă Perfect Flex (4) pentru păr 200ml","slug":"100109823-taft-spuma-perfect-flex-4-pentru-par-200ml","unitPriceLabel":"79,31 Lei/l","brand":"Taft","brandCode":"1754","brandFilterCode":"taft-b1758","sku":"100109823","price":14.99,"originalPrice":null,"currencyCode":"RON","currency":"Lei","image":{"thumbnail":{"default":"https://cdn.freshful.ro/media/cache/sylius_shop_product_thumbnail/db/7d/c5ba8ac0c224f1bf9503081dc1dc.jpg"},"large":{"default":"https://cdn.freshful.ro/media/cache/freshful_large/db/7d/c5ba8ac0c224f1bf9503081dc1dc.jpg"},"extralarge":{"default":"https://cdn.freshful.ro/media/cache/sylius_shop_product_original/db/7d/c5ba8ac0c224f1bf9503081dc1dc.jpg"}},"label":{"text":"Profită acum","backgroundColor":"#FF9903","textColor":"#FFFFFF"},"tags":[{"type":"vegan","text":"Vegan","icon":"https://cdn.freshful.ro/assets/product_tags/vegan.svg","iconPng":"https://cdn.freshful.ro/assets/product_tags/vegan.png","backgroundColor":"#ECF9F8","textColor":"#33A39C"}],"isAvailable":true,"maxAvailableQuantity":5,"maxAllowedQuantity":100,"breadcrumbs":[{"code":"11","name":"Cosmetice","slug":"11-cosmetice-si-ingrijire-personala"},{"code":"1107","name":"Îngrijirea părului","slug":"1107-ingrijirea-parului"},{"code":"110702","name":"Fixativ, gel și spumă pentru păr","slug":"110702-fixativ-gel-si-spuma-par"},{"code":"100109823","name":"Spumă Perfect Flex (4) pentru păr 200ml","slug":"100109823-taft-spuma-perfect-flex-4-pentru-par-200ml"}],"activePromotion":{"code":"special-colorare-styling-feb23","name":"Preț avantajos","targetQuantity":null},"saveMe":null,"labels":[{"type":"v1","items":[{"text":"Profită acum","backgroundColor":"#FF9903","textColor":"#FFFFFF"}]}],"geniusPrice":null,"geniusUnitPricePerLabel":null,"banner":{"text":"Preț avantajos","textColor":"#F95510","bgColor":"#FEF1CD","icon":null,"link":"https://www.freshful.ro/oferte/special-colorare-styling-feb23","type":"promo","analyticsEventType":"select_promotion","analyticsEventPayload":{"promotion_id":"special-colorare-styling-feb23","promotion_name":"Colorare și styling"}},"discountLabel":null,"geniusDiscountLabel":null,"badge":null},{"code":"100109822","variantCode":"9000100728249","name":"Spumă pentru păr fin (5) 200ml ","slug":"100109822-taft-spuma-pentru-par-fin-5-200ml","unitPriceLabel":"79,31 Lei/l","brand":"Taft","brandCode":"1754","brandFilterCode":"taft-b1758","sku":"100109822","price":14.99,"originalPrice":null,"currencyCode":"RON","currency":"Lei","image":{"thumbnail":{"default":"https://cdn.freshful.ro/media/cache/sylius_shop_product_thumbnail/a2/6f/d45abbd5f1ab41b944b34c4c9f53.jpg"},"large":{"default":"https://cdn.freshful.ro/media/cache/freshful_large/a2/6f/d45abbd5f1ab41b944b34c4c9f53.jpg"},"extralarge":{"default":"https://cdn.freshful.ro/media/cache/sylius_shop_product_original/a2/6f/d45abbd5f1ab41b944b34c4c9f53.jpg"}},"label":{"text":"Profită acum","backgroundColor":"#FF9903","textColor":"#FFFFFF"},"tags":[{"type":"vegan","text":"Vegan","icon":"https://cdn.freshful.ro/assets/product_tags/vegan.svg","iconPng":"https://cdn.freshful.ro/assets/product_tags/vegan.png","backgroundColor":"#ECF9F8","textColor":"#33A39C"}],"isAvailable":true,"maxAvailableQuantity":9,"maxAllowedQuantity":100,"breadcrumbs":[{"code":"11","name":"Cosmetice","slug":"11-cosmetice-si-ingrijire-personala"},{"code":"1107","name":"Îngrijirea părului","slug":"1107-ingrijirea-parului"},{"code":"110702","name":"Fixativ, gel și spumă pentru păr","slug":"110702-fixativ-gel-si-spuma-par"},{"code":"100109822","name":"Spumă pentru păr fin (5) 200ml ","slug":"100109822-taft-spuma-pentru-par-fin-5-200ml"}],"activePromotion":{"code":"special-colorare-styling-feb23","name":"Preț avantajos","targetQuantity":null},"saveMe":null,"labels":[{"type":"v1","items":[{"text":"Profită acum","backgroundColor":"#FF9903","textColor":"#FFFFFF"}]}],"geniusPrice":null,"geniusUnitPricePerLabel":null,"banner":{"text":"Preț avantajos","textColor":"#F95510","bgColor":"#FEF1CD","icon":null,"link":"https://www.freshful.ro/oferte/special-colorare-styling-feb23","type":"promo","analyticsEventType":"select_promotion","analyticsEventPayload":{"promotion_id":"special-colorare-styling-feb23","promotion_name":"Colorare și styling"}},"discountLabel":null,"geniusDiscountLabel":null,"badge":null}],"filters":{"countSelected":0,"items":[{"code":"promotion","name":"Promoții","countSelected":0,"values":[{"code":"special-colorare-styling-feb23","name":"Colorare și styling","isSelected":false,"count":28}]},{"code":"brand","name":"Brand","countSelected":0,"values":[{"code":"got2b-b1761","name":"got2b","isSelected":false,"count":9},{"code":"loncolor-b1009","name":"Loncolor","isSelected":false,"count":1},{"code":"nivea-b317","name":"Nivea","isSelected":false,"count":15},{"code":"syoss-b1765","name":"Syoss","isSelected":false,"count":16},{"code":"taft-b1758","name":"Taft","isSelected":false,"count":35}]},{"code":"diet_lifestyle","name":"Dietă și lifestyle","countSelected":0,"values":[{"code":"vegan-a24","name":"Vegan","isSelected":false,"count":7}]}]},"orderBy":[{"field":"price","direction":"asc","name":"Preț crescător","isSelected":false},{"field":"price","direction":"desc","name":"Preț descrescător","isSelected":false},{"field":"popularity","direction":"desc","name":"Cele mai populare","isSelected":true},{"field":"category","direction":"asc","name":"Categorie","isSelected":false}],"metaTitle":"Fixativ, gel și spumă pentru păr - Gamă variată","metaDescription":"Vrei Fixativ, gel și spumă pentru păr? Alege dintr-o gamă variată. Comanzi simplu și ai livrare rapidă, calitate și prospețime. Hai pe Freshful.ro","metaKeywords":null,"banners":[]}}