{"type":"subcategory","payload":{"analyticsListId":"category_110707-tratament-capilar","analyticsListName":"Category - Tratamente capilare","name":"Tratamente capilare","slug":"110707-tratament-capilar","image":null,"breadcrumbs":[{"code":"11","name":"Cosmetice","slug":"11-cosmetice-si-ingrijire-personala"},{"code":"1107","name":"Îngrijirea părului","slug":"1107-ingrijirea-parului"},{"code":"110707","name":"Tratamente capilare","slug":"110707-tratament-capilar"}],"slots":[],"page":1,"limit":10,"pages":3,"count":23,"siblings":[{"name":"Deodorante și parfumuri","slug":"1101-deodorante-si-parfumuri","selected":false},{"name":"Bărbierit și îngrijire ten","slug":"1102-produse-pentru-barbierit-si-ingrijit-ten","selected":false},{"name":"Demachiante și creme","slug":"1103-creme-intretinere-si-demachiante","selected":false},{"name":"Protecție solară","slug":"1104-produse-cu-protectie-solara","selected":false},{"name":"Ceară, benzi și creme depilatoare","slug":"1105-ceara-benzi-si-creme-depliatoare","selected":false},{"name":"Seturi cadou","slug":"1106-seturi-cadou","selected":false},{"name":"Îngrijirea părului","slug":"1107-ingrijirea-parului","selected":true},{"name":"Igienă intimă","slug":"1108-igienta-inima","selected":false},{"name":"Igienă dentară","slug":"1109-igiena-dentara","selected":false},{"name":"Săpunuri și geluri de duș","slug":"1110-sapunuri-si-geluri-de-dus","selected":false},{"name":"Dermatocosmetice și parafarmacie","slug":"1111-dermatocosmetice-si-parafarmacie","selected":false},{"name":"Repelent","slug":"repelent","selected":false}],"children":[{"name":"Toate produsele","slug":"1107-ingrijirea-parului","selected":false},{"name":"Accesorii pentru păr","slug":"110701-acesorii-pentru-par","selected":false},{"name":"Fixativ, gel și spumă pentru păr","slug":"110702-fixativ-gel-si-spuma-par","selected":false},{"name":"Vopsea pentru păr","slug":"110703-vopsea-pentru-par","selected":false},{"name":"Șampon","slug":"110704-sampon","selected":false},{"name":"Balsam","slug":"110705-balsam","selected":false},{"name":"Măști capilare","slug":"110706-masti-capilare","selected":false},{"name":"Tratamente capilare","slug":"110707-tratament-capilar","selected":true}],"products":[{"code":"100115519","variantCode":"3600523086344","name":"Spray bi-fazic pentru păr deteriorat Total Repair 5 Double Elixir 200ml","slug":"100115519-elseve-spray-bi-fazic-pentru-par-deteriorat-total-repair-5-double-elixir-200ml","unitPriceLabel":"114,95 Lei/l","brand":"Elseve","brandCode":"1985","brandFilterCode":"elseve-b1989","sku":"100115519","price":22.99,"originalPrice":26.79,"currencyCode":"RON","currency":"Lei","image":{"thumbnail":{"default":"https://cdn.freshful.ro/media/cache/sylius_shop_product_thumbnail/42/f4/c6663f94c1d3429f8aeb24175f1b.jpg"},"large":{"default":"https://cdn.freshful.ro/media/cache/freshful_large/42/f4/c6663f94c1d3429f8aeb24175f1b.jpg"},"extralarge":{"default":"https://cdn.freshful.ro/media/cache/sylius_shop_product_original/42/f4/c6663f94c1d3429f8aeb24175f1b.jpg"}},"label":{"text":"-14%","backgroundColor":"#FF9903","textColor":"#FFFFFF"},"tags":[],"isAvailable":true,"maxAvailableQuantity":14,"maxAllowedQuantity":100,"breadcrumbs":[{"code":"11","name":"Cosmetice","slug":"11-cosmetice-si-ingrijire-personala"},{"code":"1107","name":"Îngrijirea părului","slug":"1107-ingrijirea-parului"},{"code":"110707","name":"Tratamente capilare","slug":"110707-tratament-capilar"},{"code":"100115519","name":"Spray bi-fazic pentru păr deteriorat Total Repair 5 Double Elixir 200ml","slug":"100115519-elseve-spray-bi-fazic-pentru-par-deteriorat-total-repair-5-double-elixir-200ml"}],"activePromotion":{"code":"oferte-dph-21feb-8mar23","name":"Preț redus","targetQuantity":null},"saveMe":null,"labels":[{"type":"v1","items":[{"text":"-14%","backgroundColor":"#FF9903","textColor":"#FFFFFF"}]}],"geniusPrice":null,"geniusUnitPricePerLabel":null,"banner":{"text":"Super preț","textColor":"#FF0000","bgColor":"#FFF2EC","icon":null,"link":"https://www.freshful.ro/oferte/oferte-dph-21feb-8mar23","type":"promo","analyticsEventType":"select_promotion","analyticsEventPayload":{"promotion_id":"oferte-dph-21feb-8mar23","promotion_name":"Curățenie și îngrijire personală"}},"discountLabel":"Economisești 14%","geniusDiscountLabel":null,"badge":null},{"code":"100115461","variantCode":"3600522470540","name":"Ulei Extraordinar pentru păr 100ml","slug":"100115461-elseve-ulei-extraordinar-pentru-par-100ml","unitPriceLabel":"289,9 Lei/l","brand":"Elseve","brandCode":"1985","brandFilterCode":"elseve-b1989","sku":"100115461","price":28.99,"originalPrice":32.99,"currencyCode":"RON","currency":"Lei","image":{"thumbnail":{"default":"https://cdn.freshful.ro/media/cache/sylius_shop_product_thumbnail/fc/97/0ef2f7c2557822416a79d516b253.jpg"},"large":{"default":"https://cdn.freshful.ro/media/cache/freshful_large/fc/97/0ef2f7c2557822416a79d516b253.jpg"},"extralarge":{"default":"https://cdn.freshful.ro/media/cache/sylius_shop_product_original/fc/97/0ef2f7c2557822416a79d516b253.jpg"}},"label":{"text":"-12%","backgroundColor":"#FF9903","textColor":"#FFFFFF"},"tags":[],"isAvailable":true,"maxAvailableQuantity":8,"maxAllowedQuantity":100,"breadcrumbs":[{"code":"11","name":"Cosmetice","slug":"11-cosmetice-si-ingrijire-personala"},{"code":"1107","name":"Îngrijirea părului","slug":"1107-ingrijirea-parului"},{"code":"110707","name":"Tratamente capilare","slug":"110707-tratament-capilar"},{"code":"100115461","name":"Ulei Extraordinar pentru păr 100ml","slug":"100115461-elseve-ulei-extraordinar-pentru-par-100ml"}],"activePromotion":{"code":"oferte-dph-21feb-8mar23","name":"Preț redus","targetQuantity":null},"saveMe":null,"labels":[{"type":"v1","items":[{"text":"-12%","backgroundColor":"#FF9903","textColor":"#FFFFFF"}]}],"geniusPrice":null,"geniusUnitPricePerLabel":null,"banner":{"text":"Super preț","textColor":"#FF0000","bgColor":"#FFF2EC","icon":null,"link":"https://www.freshful.ro/oferte/oferte-dph-21feb-8mar23","type":"promo","analyticsEventType":"select_promotion","analyticsEventPayload":{"promotion_id":"oferte-dph-21feb-8mar23","promotion_name":"Curățenie și îngrijire personală"}},"discountLabel":"Economisești 12%","geniusDiscountLabel":null,"badge":null},{"code":"100115463","variantCode":"3600523981007","name":"Ser cu protecție termică pentru păr lung, creț 100ml","slug":"100115463-elseve-ser-cu-protectie-termica-pentru-par-lung-cret-100ml","unitPriceLabel":"289,9 Lei/l","brand":"Elseve","brandCode":"1985","brandFilterCode":"elseve-b1989","sku":"100115463","price":28.99,"originalPrice":31.5,"currencyCode":"RON","currency":"Lei","image":{"thumbnail":{"default":"https://cdn.freshful.ro/media/cache/sylius_shop_product_thumbnail/60/03/fd0b8b1b56daf2b8089b82c21c7b.jpg"},"large":{"default":"https://cdn.freshful.ro/media/cache/freshful_large/60/03/fd0b8b1b56daf2b8089b82c21c7b.jpg"},"extralarge":{"default":"https://cdn.freshful.ro/media/cache/sylius_shop_product_original/60/03/fd0b8b1b56daf2b8089b82c21c7b.jpg"}},"label":{"text":"-7%","backgroundColor":"#FF9903","textColor":"#FFFFFF"},"tags":[],"isAvailable":true,"maxAvailableQuantity":10,"maxAllowedQuantity":100,"breadcrumbs":[{"code":"11","name":"Cosmetice","slug":"11-cosmetice-si-ingrijire-personala"},{"code":"1107","name":"Îngrijirea părului","slug":"1107-ingrijirea-parului"},{"code":"110707","name":"Tratamente capilare","slug":"110707-tratament-capilar"},{"code":"100115463","name":"Ser cu protecție termică pentru păr lung, creț 100ml","slug":"100115463-elseve-ser-cu-protectie-termica-pentru-par-lung-cret-100ml"}],"activePromotion":{"code":"oferte-dph-21feb-8mar23","name":"Preț redus","targetQuantity":null},"saveMe":null,"labels":[{"type":"v1","items":[{"text":"-7%","backgroundColor":"#FF9903","textColor":"#FFFFFF"}]}],"geniusPrice":null,"geniusUnitPricePerLabel":null,"banner":{"text":"Super preț","textColor":"#FF0000","bgColor":"#FFF2EC","icon":null,"link":"https://www.freshful.ro/oferte/oferte-dph-21feb-8mar23","type":"promo","analyticsEventType":"select_promotion","analyticsEventPayload":{"promotion_id":"oferte-dph-21feb-8mar23","promotion_name":"Curățenie și îngrijire personală"}},"discountLabel":"Economisești 7%","geniusDiscountLabel":null,"badge":null},{"code":"100109898","variantCode":"9000101610277","name":"Tratament Express Oil Nutritive pentru păr uscat sau lipsit de strălucire 200ml","slug":"100109898-gliss-tratament-express-oil-nutritive-pentru-par-uscat-sau-lipsit-de-stralucire-200ml","unitPriceLabel":"129,95 Lei/l","brand":"Gliss","brandCode":"1756","brandFilterCode":"gliss-b1760","sku":"100109898","price":25.99,"originalPrice":null,"currencyCode":"RON","currency":"Lei","image":{"thumbnail":{"default":"https://cdn.freshful.ro/media/cache/sylius_shop_product_thumbnail/ce/b6/e4e5d4099b6b6e3e68c5181bca10.jpg"},"large":{"default":"https://cdn.freshful.ro/media/cache/freshful_large/ce/b6/e4e5d4099b6b6e3e68c5181bca10.jpg"},"extralarge":{"default":"https://cdn.freshful.ro/media/cache/sylius_shop_product_original/ce/b6/e4e5d4099b6b6e3e68c5181bca10.jpg"}},"label":{"text":"Profită acum","backgroundColor":"#FF9903","textColor":"#FFFFFF"},"tags":[],"isAvailable":true,"maxAvailableQuantity":8,"maxAllowedQuantity":100,"breadcrumbs":[{"code":"11","name":"Cosmetice","slug":"11-cosmetice-si-ingrijire-personala"},{"code":"1107","name":"Îngrijirea părului","slug":"1107-ingrijirea-parului"},{"code":"110707","name":"Tratamente capilare","slug":"110707-tratament-capilar"},{"code":"100109898","name":"Tratament Express Oil Nutritive pentru păr uscat sau lipsit de strălucire 200ml","slug":"100109898-gliss-tratament-express-oil-nutritive-pentru-par-uscat-sau-lipsit-de-stralucire-200ml"}],"activePromotion":{"code":"special-colorare-styling-feb23","name":"Preț avantajos","targetQuantity":null},"saveMe":null,"labels":[{"type":"v1","items":[{"text":"Profită acum","backgroundColor":"#FF9903","textColor":"#FFFFFF"}]}],"geniusPrice":null,"geniusUnitPricePerLabel":null,"banner":{"text":"Preț avantajos","textColor":"#F95510","bgColor":"#FEF1CD","icon":null,"link":"https://www.freshful.ro/oferte/special-colorare-styling-feb23","type":"promo","analyticsEventType":"select_promotion","analyticsEventPayload":{"promotion_id":"special-colorare-styling-feb23","promotion_name":"Colorare și styling"}},"discountLabel":null,"geniusDiscountLabel":null,"badge":null},{"code":"100115459","variantCode":"3600523823000","name":"Cremă Adio vârfuri despicate pentru păr lung 200ml","slug":"100115459-elseve-crema-adio-varfuri-despicate-pentru-par-lung-200ml","unitPriceLabel":"114,95 Lei/l","brand":"Elseve","brandCode":"1985","brandFilterCode":"elseve-b1989","sku":"100115459","price":22.99,"originalPrice":24.9,"currencyCode":"RON","currency":"Lei","image":{"thumbnail":{"default":"https://cdn.freshful.ro/media/cache/sylius_shop_product_thumbnail/4d/16/43803258fe64a7248cfc2d3e78ab.jpg"},"large":{"default":"https://cdn.freshful.ro/media/cache/freshful_large/4d/16/43803258fe64a7248cfc2d3e78ab.jpg"},"extralarge":{"default":"https://cdn.freshful.ro/media/cache/sylius_shop_product_original/4d/16/43803258fe64a7248cfc2d3e78ab.jpg"}},"label":{"text":"-7%","backgroundColor":"#FF9903","textColor":"#FFFFFF"},"tags":[],"isAvailable":true,"maxAvailableQuantity":13,"maxAllowedQuantity":100,"breadcrumbs":[{"code":"11","name":"Cosmetice","slug":"11-cosmetice-si-ingrijire-personala"},{"code":"1107","name":"Îngrijirea părului","slug":"1107-ingrijirea-parului"},{"code":"110707","name":"Tratamente capilare","slug":"110707-tratament-capilar"},{"code":"100115459","name":"Cremă Adio vârfuri despicate pentru păr lung 200ml","slug":"100115459-elseve-crema-adio-varfuri-despicate-pentru-par-lung-200ml"}],"activePromotion":{"code":"oferte-dph-21feb-8mar23","name":"Preț redus","targetQuantity":null},"saveMe":null,"labels":[{"type":"v1","items":[{"text":"-7%","backgroundColor":"#FF9903","textColor":"#FFFFFF"}]}],"geniusPrice":null,"geniusUnitPricePerLabel":null,"banner":{"text":"Super preț","textColor":"#FF0000","bgColor":"#FFF2EC","icon":null,"link":"https://www.freshful.ro/oferte/oferte-dph-21feb-8mar23","type":"promo","analyticsEventType":"select_promotion","analyticsEventPayload":{"promotion_id":"oferte-dph-21feb-8mar23","promotion_name":"Curățenie și îngrijire personală"}},"discountLabel":"Economisești 7%","geniusDiscountLabel":null,"badge":null},{"code":"100115460","variantCode":"3600523883899","name":"Cremă rezistentă la pieptănat Full Resist 200ml","slug":"100115460-elseve-crema-rezistenta-la-pieptanat-full-resist-200ml","unitPriceLabel":"114,95 Lei/l","brand":"Elseve","brandCode":"1985","brandFilterCode":"elseve-b1989","sku":"100115460","price":22.99,"originalPrice":27.19,"currencyCode":"RON","currency":"Lei","image":{"thumbnail":{"default":"https://cdn.freshful.ro/media/cache/sylius_shop_product_thumbnail/41/a7/a59e3d4e8ed72ec03300296c03ed.jpg"},"large":{"default":"https://cdn.freshful.ro/media/cache/freshful_large/41/a7/a59e3d4e8ed72ec03300296c03ed.jpg"},"extralarge":{"default":"https://cdn.freshful.ro/media/cache/sylius_shop_product_original/41/a7/a59e3d4e8ed72ec03300296c03ed.jpg"}},"label":{"text":"-15%","backgroundColor":"#FF9903","textColor":"#FFFFFF"},"tags":[],"isAvailable":true,"maxAvailableQuantity":13,"maxAllowedQuantity":100,"breadcrumbs":[{"code":"11","name":"Cosmetice","slug":"11-cosmetice-si-ingrijire-personala"},{"code":"1107","name":"Îngrijirea părului","slug":"1107-ingrijirea-parului"},{"code":"110707","name":"Tratamente capilare","slug":"110707-tratament-capilar"},{"code":"100115460","name":"Cremă rezistentă la pieptănat Full Resist 200ml","slug":"100115460-elseve-crema-rezistenta-la-pieptanat-full-resist-200ml"}],"activePromotion":{"code":"oferte-dph-21feb-8mar23","name":"Preț redus","targetQuantity":null},"saveMe":null,"labels":[{"type":"v1","items":[{"text":"-15%","backgroundColor":"#FF9903","textColor":"#FFFFFF"}]}],"geniusPrice":null,"geniusUnitPricePerLabel":null,"banner":{"text":"Super preț","textColor":"#FF0000","bgColor":"#FFF2EC","icon":null,"link":"https://www.freshful.ro/oferte/oferte-dph-21feb-8mar23","type":"promo","analyticsEventType":"select_promotion","analyticsEventPayload":{"promotion_id":"oferte-dph-21feb-8mar23","promotion_name":"Curățenie și îngrijire personală"}},"discountLabel":"Economisești 15%","geniusDiscountLabel":null,"badge":null},{"code":"100109926","variantCode":"9000100695732","name":"Ulei de păr Daily Oil Elixir pentru păr foarte deteriorat 75ml","slug":"100109926-gliss-ulei-de-par-daily-oil-elixir-pentru-par-foarte-deteriorat-75ml","unitPriceLabel":"346,53 Lei/l","brand":"Gliss","brandCode":"1756","brandFilterCode":"gliss-b1760","sku":"100109926","price":25.99,"originalPrice":null,"currencyCode":"RON","currency":"Lei","image":{"thumbnail":{"default":"https://cdn.freshful.ro/media/cache/sylius_shop_product_thumbnail/46/a7/e931124fe46c7c766e7336fee26b.jpg"},"large":{"default":"https://cdn.freshful.ro/media/cache/freshful_large/46/a7/e931124fe46c7c766e7336fee26b.jpg"},"extralarge":{"default":"https://cdn.freshful.ro/media/cache/sylius_shop_product_original/46/a7/e931124fe46c7c766e7336fee26b.jpg"}},"label":{"text":"Profită acum","backgroundColor":"#FF9903","textColor":"#FFFFFF"},"tags":[],"isAvailable":true,"maxAvailableQuantity":10,"maxAllowedQuantity":100,"breadcrumbs":[{"code":"11","name":"Cosmetice","slug":"11-cosmetice-si-ingrijire-personala"},{"code":"1107","name":"Îngrijirea părului","slug":"1107-ingrijirea-parului"},{"code":"110707","name":"Tratamente capilare","slug":"110707-tratament-capilar"},{"code":"100109926","name":"Ulei de păr Daily Oil Elixir pentru păr foarte deteriorat 75ml","slug":"100109926-gliss-ulei-de-par-daily-oil-elixir-pentru-par-foarte-deteriorat-75ml"}],"activePromotion":{"code":"special-colorare-styling-feb23","name":"Preț avantajos","targetQuantity":null},"saveMe":null,"labels":[{"type":"v1","items":[{"text":"Profită acum","backgroundColor":"#FF9903","textColor":"#FFFFFF"}]}],"geniusPrice":null,"geniusUnitPricePerLabel":null,"banner":{"text":"Preț avantajos","textColor":"#F95510","bgColor":"#FEF1CD","icon":null,"link":"https://www.freshful.ro/oferte/special-colorare-styling-feb23","type":"promo","analyticsEventType":"select_promotion","analyticsEventPayload":{"promotion_id":"special-colorare-styling-feb23","promotion_name":"Colorare și styling"}},"discountLabel":null,"geniusDiscountLabel":null,"badge":null},{"code":"100091549","variantCode":"100091549","name":"Ulei de păr Pro-V Repair & Protect pentru păr deteriorat 100ml","slug":"100091549-pantene-ulei-de-par-pro-v-repair-protect-pentru-par-deteriorat-100ml","unitPriceLabel":"219 Lei/l","brand":"Pantene","brandCode":"670","brandFilterCode":"pantene-b671","sku":"100091549","price":21.9,"originalPrice":null,"currencyCode":"RON","currency":"Lei","image":{"thumbnail":{"default":"https://cdn.freshful.ro/media/cache/sylius_shop_product_thumbnail/3b/af/1cab5922a6af14d956825cbdf40e.jpg"},"large":{"default":"https://cdn.freshful.ro/media/cache/freshful_large/3b/af/1cab5922a6af14d956825cbdf40e.jpg"},"extralarge":{"default":"https://cdn.freshful.ro/media/cache/sylius_shop_product_original/3b/af/1cab5922a6af14d956825cbdf40e.jpg"}},"label":null,"tags":[],"isAvailable":true,"maxAvailableQuantity":21,"maxAllowedQuantity":100,"breadcrumbs":[{"code":"11","name":"Cosmetice","slug":"11-cosmetice-si-ingrijire-personala"},{"code":"1107","name":"Îngrijirea părului","slug":"1107-ingrijirea-parului"},{"code":"110707","name":"Tratamente capilare","slug":"110707-tratament-capilar"},{"code":"100091549","name":"Ulei de păr Pro-V Repair & Protect pentru păr deteriorat 100ml","slug":"100091549-pantene-ulei-de-par-pro-v-repair-protect-pentru-par-deteriorat-100ml"}],"activePromotion":null,"saveMe":null,"labels":[],"geniusPrice":null,"geniusUnitPricePerLabel":null,"banner":null,"discountLabel":null,"geniusDiscountLabel":null,"badge":null},{"code":"100109899","variantCode":"9000101610352","name":"Tratament Express Regenerator pentru păr foarte deteriorat 200 ml","slug":"100109899-gliss-tratament-express-regenerator-pentru-par-foarte-deteriorat-200-ml","unitPriceLabel":"147,5 Lei/l","brand":"Gliss","brandCode":"1756","brandFilterCode":"gliss-b1760","sku":"100109899","price":29.5,"originalPrice":null,"currencyCode":"RON","currency":"Lei","image":{"thumbnail":{"default":"https://cdn.freshful.ro/media/cache/sylius_shop_product_thumbnail/3f/4b/06076bb8a18045dfbbbf6a6a5c9a.jpg"},"large":{"default":"https://cdn.freshful.ro/media/cache/freshful_large/3f/4b/06076bb8a18045dfbbbf6a6a5c9a.jpg"},"extralarge":{"default":"https://cdn.freshful.ro/media/cache/sylius_shop_product_original/3f/4b/06076bb8a18045dfbbbf6a6a5c9a.jpg"}},"label":null,"tags":[],"isAvailable":true,"maxAvailableQuantity":14,"maxAllowedQuantity":100,"breadcrumbs":[{"code":"11","name":"Cosmetice","slug":"11-cosmetice-si-ingrijire-personala"},{"code":"1107","name":"Îngrijirea părului","slug":"1107-ingrijirea-parului"},{"code":"110707","name":"Tratamente capilare","slug":"110707-tratament-capilar"},{"code":"100109899","name":"Tratament Express Regenerator pentru păr foarte deteriorat 200 ml","slug":"100109899-gliss-tratament-express-regenerator-pentru-par-foarte-deteriorat-200-ml"}],"activePromotion":null,"saveMe":null,"labels":[],"geniusPrice":null,"geniusUnitPricePerLabel":null,"banner":null,"discountLabel":null,"geniusDiscountLabel":null,"badge":null},{"code":"100063999","variantCode":"100063999","name":"Cremă Expert Abyssinian Leave-on pentru păr uscat sau deteriorat 200ml","slug":"100063999-loncolor-crema-expert-abyssinian-leave-on-pentru-par-uscat-sau-deteriorat-200ml","unitPriceLabel":"80,45 Lei/l","brand":"Loncolor","brandCode":"995","brandFilterCode":"loncolor-b1009","sku":"100063999","price":16.09,"originalPrice":null,"currencyCode":"RON","currency":"Lei","image":{"thumbnail":{"default":"https://cdn.freshful.ro/media/cache/sylius_shop_product_thumbnail/3c/c8/22cdb77a10fc423059ea66cab119.jpg"},"large":{"default":"https://cdn.freshful.ro/media/cache/freshful_large/3c/c8/22cdb77a10fc423059ea66cab119.jpg"},"extralarge":{"default":"https://cdn.freshful.ro/media/cache/sylius_shop_product_original/3c/c8/22cdb77a10fc423059ea66cab119.jpg"}},"label":null,"tags":[],"isAvailable":true,"maxAvailableQuantity":3,"maxAllowedQuantity":100,"breadcrumbs":[{"code":"11","name":"Cosmetice","slug":"11-cosmetice-si-ingrijire-personala"},{"code":"1107","name":"Îngrijirea părului","slug":"1107-ingrijirea-parului"},{"code":"110707","name":"Tratamente capilare","slug":"110707-tratament-capilar"},{"code":"100063999","name":"Cremă Expert Abyssinian Leave-on pentru păr uscat sau deteriorat 200ml","slug":"100063999-loncolor-crema-expert-abyssinian-leave-on-pentru-par-uscat-sau-deteriorat-200ml"}],"activePromotion":null,"saveMe":null,"labels":[],"geniusPrice":null,"geniusUnitPricePerLabel":null,"banner":null,"discountLabel":null,"geniusDiscountLabel":null,"badge":null}],"filters":{"countSelected":0,"items":[{"code":"promotion","name":"Promoții","countSelected":0,"values":[{"code":"special-colorare-styling-feb23","name":"Colorare și styling","isSelected":false,"count":2},{"code":"oferte-dph-21feb-8mar23","name":"Curățenie și îngrijire personală","isSelected":false,"count":5}]},{"code":"brand","name":"Brand","countSelected":0,"values":[{"code":"botanic-therapy-b1990","name":"Botanic Therapy","isSelected":false,"count":1},{"code":"elseve-b1989","name":"Elseve","isSelected":false,"count":5},{"code":"gerovital-b1837","name":"Gerovital","isSelected":false,"count":1},{"code":"gliss-b1760","name":"Gliss","isSelected":false,"count":3},{"code":"herbal-essences-b672","name":"Herbal Essences","isSelected":false,"count":3},{"code":"loncolor-b1009","name":"Loncolor","isSelected":false,"count":1},{"code":"nacomi-b1618","name":"Nacomi","isSelected":false,"count":1},{"code":"nature-box-b1763","name":"Nature Box","isSelected":false,"count":1},{"code":"pantene-b671","name":"Pantene","isSelected":false,"count":3},{"code":"seboradin-b1887","name":"Seboradin","isSelected":false,"count":2},{"code":"syoss-b1765","name":"Syoss","isSelected":false,"count":2}]},{"code":"diet_lifestyle","name":"Dietă și lifestyle","countSelected":0,"values":[{"code":"natural-a27","name":"Natural","isSelected":false,"count":1},{"code":"vegan-a24","name":"Vegan","isSelected":false,"count":2}]}]},"orderBy":[{"field":"price","direction":"asc","name":"Preț crescător","isSelected":false},{"field":"price","direction":"desc","name":"Preț descrescător","isSelected":false},{"field":"popularity","direction":"desc","name":"Cele mai populare","isSelected":true},{"field":"category","direction":"asc","name":"Categorie","isSelected":false}],"metaTitle":"Tratamente capilare - Gamă variată","metaDescription":"Vrei Tratamente capilare? Alege dintr-o gamă variată. Comanzi simplu și ai livrare rapidă, calitate și prospețime. Hai pe Freshful.ro","metaKeywords":null,"banners":[]}}