{"type":"subcategory","payload":{"analyticsListId":"category_110704-sampon","analyticsListName":"Category - Șampon","name":"Șampon","slug":"110704-sampon","image":null,"breadcrumbs":[{"code":"11","name":"Cosmetice","slug":"11-cosmetice-si-ingrijire-personala"},{"code":"1107","name":"Îngrijirea părului","slug":"1107-ingrijirea-parului"},{"code":"110704","name":"Șampon","slug":"110704-sampon"}],"slots":[],"page":1,"limit":10,"pages":18,"count":171,"siblings":[{"name":"Deodorante și parfumuri","slug":"1101-deodorante-si-parfumuri","selected":false},{"name":"Bărbierit și îngrijire ten","slug":"1102-produse-pentru-barbierit-si-ingrijit-ten","selected":false},{"name":"Demachiante și creme","slug":"1103-creme-intretinere-si-demachiante","selected":false},{"name":"Protecție solară","slug":"1104-produse-cu-protectie-solara","selected":false},{"name":"Ceară, benzi și creme depilatoare","slug":"1105-ceara-benzi-si-creme-depliatoare","selected":false},{"name":"Seturi cadou","slug":"1106-seturi-cadou","selected":false},{"name":"Îngrijirea părului","slug":"1107-ingrijirea-parului","selected":true},{"name":"Igienă intimă","slug":"1108-igienta-inima","selected":false},{"name":"Igienă dentară","slug":"1109-igiena-dentara","selected":false},{"name":"Săpunuri și geluri de duș","slug":"1110-sapunuri-si-geluri-de-dus","selected":false},{"name":"Dermatocosmetice și parafarmacie","slug":"1111-dermatocosmetice-si-parafarmacie","selected":false},{"name":"Repelent","slug":"repelent","selected":false}],"children":[{"name":"Toate produsele","slug":"1107-ingrijirea-parului","selected":false},{"name":"Accesorii pentru păr","slug":"110701-acesorii-pentru-par","selected":false},{"name":"Fixativ, gel și spumă pentru păr","slug":"110702-fixativ-gel-si-spuma-par","selected":false},{"name":"Vopsea pentru păr","slug":"110703-vopsea-pentru-par","selected":false},{"name":"Șampon","slug":"110704-sampon","selected":true},{"name":"Balsam","slug":"110705-balsam","selected":false},{"name":"Măști capilare","slug":"110706-masti-capilare","selected":false},{"name":"Tratamente capilare","slug":"110707-tratament-capilar","selected":false}],"products":[{"code":"100086232","variantCode":"100086232","name":"Șampon uscat Original 200ml","slug":"100086232-batiste-sampon-uscat-original-200ml","unitPriceLabel":"102,55 Lei/l","brand":"Batiste","brandCode":"556","brandFilterCode":"batiste-b557","sku":"100086232","price":20.51,"originalPrice":null,"currencyCode":"RON","currency":"Lei","image":{"thumbnail":{"default":"https://cdn.freshful.ro/media/cache/sylius_shop_product_thumbnail/7f/e6/3644d568c95e559ba3abfddd05c1.jpg"},"large":{"default":"https://cdn.freshful.ro/media/cache/freshful_large/7f/e6/3644d568c95e559ba3abfddd05c1.jpg"},"extralarge":{"default":"https://cdn.freshful.ro/media/cache/sylius_shop_product_original/7f/e6/3644d568c95e559ba3abfddd05c1.jpg"}},"label":{"text":"Profită acum","backgroundColor":"#FF9903","textColor":"#FFFFFF"},"tags":[],"isAvailable":true,"maxAvailableQuantity":100,"maxAllowedQuantity":100,"breadcrumbs":[{"code":"11","name":"Cosmetice","slug":"11-cosmetice-si-ingrijire-personala"},{"code":"1107","name":"Îngrijirea părului","slug":"1107-ingrijirea-parului"},{"code":"110704","name":"Șampon","slug":"110704-sampon"},{"code":"100086232","name":"Șampon uscat Original 200ml","slug":"100086232-batiste-sampon-uscat-original-200ml"}],"activePromotion":{"code":"freshful-top-deals-2023","name":"Preț avantajos","targetQuantity":null},"saveMe":null,"labels":[{"type":"v1","items":[{"text":"Profită acum","backgroundColor":"#FF9903","textColor":"#FFFFFF"}]}],"geniusPrice":null,"geniusUnitPricePerLabel":null,"banner":{"text":"Preț avantajos","textColor":"#F95510","bgColor":"#FEF1CD","icon":null,"link":"https://www.freshful.ro/oferte/freshful-top-deals-2023","type":"promo","analyticsEventType":"select_promotion","analyticsEventPayload":{"promotion_id":"freshful-top-deals-2023","promotion_name":"Profită de Top Deals"}},"discountLabel":null,"geniusDiscountLabel":null,"badge":null},{"code":"100091502","variantCode":"100091502","name":"Șampon Menthol Fresh pentru păr normal 900ml","slug":"100091502-head-shoulders-sampon-menthol-fresh-pentru-par-normal-900ml","unitPriceLabel":"72,11 Lei/l","brand":"Head & Shoulders","brandCode":"663","brandFilterCode":"head-shoulders-b664","sku":"100091502","price":64.9,"originalPrice":null,"currencyCode":"RON","currency":"Lei","image":{"thumbnail":{"default":"https://cdn.freshful.ro/media/cache/sylius_shop_product_thumbnail/62/3e/ef774fb86113da695e6457579a18.jpg"},"large":{"default":"https://cdn.freshful.ro/media/cache/freshful_large/62/3e/ef774fb86113da695e6457579a18.jpg"},"extralarge":{"default":"https://cdn.freshful.ro/media/cache/sylius_shop_product_original/62/3e/ef774fb86113da695e6457579a18.jpg"}},"label":{"text":"-20% cu Genius","backgroundColor":"#FEF3FA","textColor":"#CD015F"},"tags":[],"isAvailable":true,"maxAvailableQuantity":100,"maxAllowedQuantity":100,"breadcrumbs":[{"code":"11","name":"Cosmetice","slug":"11-cosmetice-si-ingrijire-personala"},{"code":"1107","name":"Îngrijirea părului","slug":"1107-ingrijirea-parului"},{"code":"110704","name":"Șampon","slug":"110704-sampon"},{"code":"100091502","name":"Șampon Menthol Fresh pentru păr normal 900ml","slug":"100091502-head-shoulders-sampon-menthol-fresh-pentru-par-normal-900ml"}],"activePromotion":null,"saveMe":null,"labels":[{"type":"gdeals","items":[{"text":"","backgroundColor":"","textColor":""}]},{"type":"v3","items":[{"text":"-20% cu Genius","backgroundColor":"#FEF3FA","textColor":"#CD015F"}]}],"geniusPrice":51.92,"geniusUnitPricePerLabel":"57,69 Lei/l","banner":null,"discountLabel":null,"geniusDiscountLabel":"Economisești 20%","badge":null},{"code":"100092020","variantCode":"100092020","name":"Șampon pentru păr Biology Cleanse & Reconstruct 250ml ","slug":"100092020-pantene-sampon-pentru-par-biology-cleanse-reconstruct-250ml","unitPriceLabel":"91,96 Lei/l","brand":"Pantene","brandCode":"670","brandFilterCode":"pantene-b671","sku":"100092020","price":22.99,"originalPrice":29.9,"currencyCode":"RON","currency":"Lei","image":{"thumbnail":{"default":"https://cdn.freshful.ro/media/cache/sylius_shop_product_thumbnail/b4/5d/3c9db1aa68f436240ef4a8563d8b.jpg"},"large":{"default":"https://cdn.freshful.ro/media/cache/freshful_large/b4/5d/3c9db1aa68f436240ef4a8563d8b.jpg"},"extralarge":{"default":"https://cdn.freshful.ro/media/cache/sylius_shop_product_original/b4/5d/3c9db1aa68f436240ef4a8563d8b.jpg"}},"label":{"text":"-23%","backgroundColor":"#FF9903","textColor":"#FFFFFF"},"tags":[],"isAvailable":true,"maxAvailableQuantity":17,"maxAllowedQuantity":100,"breadcrumbs":[{"code":"11","name":"Cosmetice","slug":"11-cosmetice-si-ingrijire-personala"},{"code":"1107","name":"Îngrijirea părului","slug":"1107-ingrijirea-parului"},{"code":"110704","name":"Șampon","slug":"110704-sampon"},{"code":"100092020","name":"Șampon pentru păr Biology Cleanse & Reconstruct 250ml ","slug":"100092020-pantene-sampon-pentru-par-biology-cleanse-reconstruct-250ml"}],"activePromotion":{"code":"oferte-dph-21feb-8mar23","name":"Preț redus","targetQuantity":null},"saveMe":null,"labels":[{"type":"v1","items":[{"text":"-23%","backgroundColor":"#FF9903","textColor":"#FFFFFF"}]}],"geniusPrice":null,"geniusUnitPricePerLabel":null,"banner":{"text":"Super preț","textColor":"#FF0000","bgColor":"#FFF2EC","icon":null,"link":"https://www.freshful.ro/oferte/oferte-dph-21feb-8mar23","type":"promo","analyticsEventType":"select_promotion","analyticsEventPayload":{"promotion_id":"oferte-dph-21feb-8mar23","promotion_name":"Curățenie și îngrijire personală"}},"discountLabel":"Economisești 23%","geniusDiscountLabel":null,"badge":null},{"code":"100062113","variantCode":"100062113","name":"Șampon pentru bărbați Classic 400ml","slug":"100062113-clear-sampon-pentru-barbati-classic-400ml","unitPriceLabel":"69,98 Lei/l","brand":"Clear","brandCode":"768","brandFilterCode":"clear-b769","sku":"100062113","price":27.99,"originalPrice":32.59,"currencyCode":"RON","currency":"Lei","image":{"thumbnail":{"default":"https://cdn.freshful.ro/media/cache/sylius_shop_product_thumbnail/bb/a4/370c354d44784292ae00c601d4b4.jpg"},"large":{"default":"https://cdn.freshful.ro/media/cache/freshful_large/bb/a4/370c354d44784292ae00c601d4b4.jpg"},"extralarge":{"default":"https://cdn.freshful.ro/media/cache/sylius_shop_product_original/bb/a4/370c354d44784292ae00c601d4b4.jpg"}},"label":{"text":"-14%","backgroundColor":"#FF9903","textColor":"#FFFFFF"},"tags":[],"isAvailable":true,"maxAvailableQuantity":28,"maxAllowedQuantity":100,"breadcrumbs":[{"code":"11","name":"Cosmetice","slug":"11-cosmetice-si-ingrijire-personala"},{"code":"1107","name":"Îngrijirea părului","slug":"1107-ingrijirea-parului"},{"code":"110704","name":"Șampon","slug":"110704-sampon"},{"code":"100062113","name":"Șampon pentru bărbați Classic 400ml","slug":"100062113-clear-sampon-pentru-barbati-classic-400ml"}],"activePromotion":{"code":"oferte-dph-21feb-8mar23","name":"Preț redus","targetQuantity":null},"saveMe":null,"labels":[{"type":"v1","items":[{"text":"-14%","backgroundColor":"#FF9903","textColor":"#FFFFFF"}]}],"geniusPrice":null,"geniusUnitPricePerLabel":null,"banner":{"text":"Super preț","textColor":"#FF0000","bgColor":"#FFF2EC","icon":null,"link":"https://www.freshful.ro/oferte/oferte-dph-21feb-8mar23","type":"promo","analyticsEventType":"select_promotion","analyticsEventPayload":{"promotion_id":"oferte-dph-21feb-8mar23","promotion_name":"Curățenie și îngrijire personală"}},"discountLabel":"Economisești 14%","geniusDiscountLabel":null,"badge":null},{"code":"100141865","variantCode":"100141865","name":"Spray pentru volum Stylist 200ml","slug":"100141865-batiste-spray-pentru-volum-stylist-200ml","unitPriceLabel":"102,55 Lei/l","brand":"Batiste","brandCode":"556","brandFilterCode":"batiste-b557","sku":"100141865","price":20.51,"originalPrice":null,"currencyCode":"RON","currency":"Lei","image":{"thumbnail":{"default":"https://cdn.freshful.ro/media/cache/sylius_shop_product_thumbnail/dc/12/d7fa266407055419d7a0fc9540cc.jpg"},"large":{"default":"https://cdn.freshful.ro/media/cache/freshful_large/dc/12/d7fa266407055419d7a0fc9540cc.jpg"},"extralarge":{"default":"https://cdn.freshful.ro/media/cache/sylius_shop_product_original/dc/12/d7fa266407055419d7a0fc9540cc.jpg"}},"label":{"text":"Profită acum","backgroundColor":"#FF9903","textColor":"#FFFFFF"},"tags":[],"isAvailable":true,"maxAvailableQuantity":59,"maxAllowedQuantity":100,"breadcrumbs":[{"code":"11","name":"Cosmetice","slug":"11-cosmetice-si-ingrijire-personala"},{"code":"1107","name":"Îngrijirea părului","slug":"1107-ingrijirea-parului"},{"code":"110704","name":"Șampon","slug":"110704-sampon"},{"code":"100141865","name":"Spray pentru volum Stylist 200ml","slug":"100141865-batiste-spray-pentru-volum-stylist-200ml"}],"activePromotion":{"code":"freshful-top-deals-2023","name":"Preț avantajos","targetQuantity":null},"saveMe":null,"labels":[{"type":"v1","items":[{"text":"Profită acum","backgroundColor":"#FF9903","textColor":"#FFFFFF"}]}],"geniusPrice":null,"geniusUnitPricePerLabel":null,"banner":{"text":"Preț avantajos","textColor":"#F95510","bgColor":"#FEF1CD","icon":null,"link":"https://www.freshful.ro/oferte/freshful-top-deals-2023","type":"promo","analyticsEventType":"select_promotion","analyticsEventPayload":{"promotion_id":"freshful-top-deals-2023","promotion_name":"Profită de Top Deals"}},"discountLabel":null,"geniusDiscountLabel":null,"badge":null},{"code":"100091558","variantCode":"100091558","name":"Șampon men Ultra împotriva căderii părului 360ml","slug":"100091558-head-shoulders-sampon-men-ultra-impotriva-caderii-parului-360ml","unitPriceLabel":"91,64 Lei/l","brand":"Head & Shoulders","brandCode":"663","brandFilterCode":"head-shoulders-b664","sku":"100091558","price":32.99,"originalPrice":35.99,"currencyCode":"RON","currency":"Lei","image":{"thumbnail":{"default":"https://cdn.freshful.ro/media/cache/sylius_shop_product_thumbnail/47/c4/83315d9fc7e46d393c622cd5c345.jpg"},"large":{"default":"https://cdn.freshful.ro/media/cache/freshful_large/47/c4/83315d9fc7e46d393c622cd5c345.jpg"},"extralarge":{"default":"https://cdn.freshful.ro/media/cache/sylius_shop_product_original/47/c4/83315d9fc7e46d393c622cd5c345.jpg"}},"label":{"text":"-8%","backgroundColor":"#FF9903","textColor":"#FFFFFF"},"tags":[],"isAvailable":true,"maxAvailableQuantity":21,"maxAllowedQuantity":100,"breadcrumbs":[{"code":"11","name":"Cosmetice","slug":"11-cosmetice-si-ingrijire-personala"},{"code":"1107","name":"Îngrijirea părului","slug":"1107-ingrijirea-parului"},{"code":"110704","name":"Șampon","slug":"110704-sampon"},{"code":"100091558","name":"Șampon men Ultra împotriva căderii părului 360ml","slug":"100091558-head-shoulders-sampon-men-ultra-impotriva-caderii-parului-360ml"}],"activePromotion":{"code":"oferte-dph-21feb-8mar23","name":"Preț redus","targetQuantity":null},"saveMe":null,"labels":[{"type":"v1","items":[{"text":"-8%","backgroundColor":"#FF9903","textColor":"#FFFFFF"}]}],"geniusPrice":null,"geniusUnitPricePerLabel":null,"banner":{"text":"Super preț","textColor":"#FF0000","bgColor":"#FFF2EC","icon":null,"link":"https://www.freshful.ro/oferte/oferte-dph-21feb-8mar23","type":"promo","analyticsEventType":"select_promotion","analyticsEventPayload":{"promotion_id":"oferte-dph-21feb-8mar23","promotion_name":"Curățenie și îngrijire personală"}},"discountLabel":"Economisești 8%","geniusDiscountLabel":null,"badge":null},{"code":"100109917","variantCode":"9000101201147","name":"Șampon Supreme Length 400ml","slug":"100109917-gliss-sampon-supreme-length-400ml","unitPriceLabel":"43,45 Lei/l","brand":"Gliss","brandCode":"1756","brandFilterCode":"gliss-b1760","sku":"100109917","price":17.99,"originalPrice":null,"currencyCode":"RON","currency":"Lei","image":{"thumbnail":{"default":"https://cdn.freshful.ro/media/cache/sylius_shop_product_thumbnail/61/5b/9ae7b0fc7fd5e83c655380c38fdb.jpg"},"large":{"default":"https://cdn.freshful.ro/media/cache/freshful_large/61/5b/9ae7b0fc7fd5e83c655380c38fdb.jpg"},"extralarge":{"default":"https://cdn.freshful.ro/media/cache/sylius_shop_product_original/61/5b/9ae7b0fc7fd5e83c655380c38fdb.jpg"}},"label":{"text":"Profită acum","backgroundColor":"#FF9903","textColor":"#FFFFFF"},"tags":[],"isAvailable":true,"maxAvailableQuantity":10,"maxAllowedQuantity":100,"breadcrumbs":[{"code":"11","name":"Cosmetice","slug":"11-cosmetice-si-ingrijire-personala"},{"code":"1107","name":"Îngrijirea părului","slug":"1107-ingrijirea-parului"},{"code":"110704","name":"Șampon","slug":"110704-sampon"},{"code":"100109917","name":"Șampon Supreme Length 400ml","slug":"100109917-gliss-sampon-supreme-length-400ml"}],"activePromotion":{"code":"special-colorare-styling-feb23","name":"Preț avantajos","targetQuantity":null},"saveMe":null,"labels":[{"type":"v1","items":[{"text":"Profită acum","backgroundColor":"#FF9903","textColor":"#FFFFFF"}]}],"geniusPrice":null,"geniusUnitPricePerLabel":null,"banner":{"text":"Preț avantajos","textColor":"#F95510","bgColor":"#FEF1CD","icon":null,"link":"https://www.freshful.ro/oferte/special-colorare-styling-feb23","type":"promo","analyticsEventType":"select_promotion","analyticsEventPayload":{"promotion_id":"special-colorare-styling-feb23","promotion_name":"Colorare și styling"}},"discountLabel":null,"geniusDiscountLabel":null,"badge":null},{"code":"100109910","variantCode":"100109910","name":"Șampon pentru păr vopsit Ultimate Color 400ml","slug":"100109910-gliss-sampon-pentru-par-vopsit-ultimate-color-400ml","unitPriceLabel":"43,45 Lei/l","brand":"Gliss","brandCode":"1756","brandFilterCode":"gliss-b1760","sku":"100109910","price":17.99,"originalPrice":null,"currencyCode":"RON","currency":"Lei","image":{"thumbnail":{"default":"https://cdn.freshful.ro/media/cache/sylius_shop_product_thumbnail/d7/3e/7844c9e2ded22343023f9b4065c1.jpg"},"large":{"default":"https://cdn.freshful.ro/media/cache/freshful_large/d7/3e/7844c9e2ded22343023f9b4065c1.jpg"},"extralarge":{"default":"https://cdn.freshful.ro/media/cache/sylius_shop_product_original/d7/3e/7844c9e2ded22343023f9b4065c1.jpg"}},"label":{"text":"Profită acum","backgroundColor":"#FF9903","textColor":"#FFFFFF"},"tags":[],"isAvailable":true,"maxAvailableQuantity":5,"maxAllowedQuantity":100,"breadcrumbs":[{"code":"11","name":"Cosmetice","slug":"11-cosmetice-si-ingrijire-personala"},{"code":"1107","name":"Îngrijirea părului","slug":"1107-ingrijirea-parului"},{"code":"110704","name":"Șampon","slug":"110704-sampon"},{"code":"100109910","name":"Șampon pentru păr vopsit Ultimate Color 400ml","slug":"100109910-gliss-sampon-pentru-par-vopsit-ultimate-color-400ml"}],"activePromotion":{"code":"special-colorare-styling-feb23","name":"Preț avantajos","targetQuantity":null},"saveMe":null,"labels":[{"type":"v1","items":[{"text":"Profită acum","backgroundColor":"#FF9903","textColor":"#FFFFFF"}]}],"geniusPrice":null,"geniusUnitPricePerLabel":null,"banner":{"text":"Preț avantajos","textColor":"#F95510","bgColor":"#FEF1CD","icon":null,"link":"https://www.freshful.ro/oferte/special-colorare-styling-feb23","type":"promo","analyticsEventType":"select_promotion","analyticsEventPayload":{"promotion_id":"special-colorare-styling-feb23","promotion_name":"Colorare și styling"}},"discountLabel":null,"geniusDiscountLabel":null,"badge":null},{"code":"100062102","variantCode":"100062102","name":"Șampon Scalp Oil Control 400ml","slug":"100062102-clear-sampon-scalp-oil-control-400ml","unitPriceLabel":"69,98 Lei/l","brand":"Clear","brandCode":"768","brandFilterCode":"clear-b769","sku":"100062102","price":27.99,"originalPrice":35.9,"currencyCode":"RON","currency":"Lei","image":{"thumbnail":{"default":"https://cdn.freshful.ro/media/cache/sylius_shop_product_thumbnail/fb/6a/6bc55d3847feae887d4bd4001268.jpg"},"large":{"default":"https://cdn.freshful.ro/media/cache/freshful_large/fb/6a/6bc55d3847feae887d4bd4001268.jpg"},"extralarge":{"default":"https://cdn.freshful.ro/media/cache/sylius_shop_product_original/fb/6a/6bc55d3847feae887d4bd4001268.jpg"}},"label":{"text":"-22%","backgroundColor":"#FF9903","textColor":"#FFFFFF"},"tags":[],"isAvailable":true,"maxAvailableQuantity":14,"maxAllowedQuantity":100,"breadcrumbs":[{"code":"11","name":"Cosmetice","slug":"11-cosmetice-si-ingrijire-personala"},{"code":"1107","name":"Îngrijirea părului","slug":"1107-ingrijirea-parului"},{"code":"110704","name":"Șampon","slug":"110704-sampon"},{"code":"100062102","name":"Șampon Scalp Oil Control 400ml","slug":"100062102-clear-sampon-scalp-oil-control-400ml"}],"activePromotion":{"code":"oferte-dph-21feb-8mar23","name":"Preț redus","targetQuantity":null},"saveMe":null,"labels":[{"type":"v1","items":[{"text":"-22%","backgroundColor":"#FF9903","textColor":"#FFFFFF"}]}],"geniusPrice":null,"geniusUnitPricePerLabel":null,"banner":{"text":"Super preț","textColor":"#FF0000","bgColor":"#FFF2EC","icon":null,"link":"https://www.freshful.ro/oferte/oferte-dph-21feb-8mar23","type":"promo","analyticsEventType":"select_promotion","analyticsEventPayload":{"promotion_id":"oferte-dph-21feb-8mar23","promotion_name":"Curățenie și îngrijire personală"}},"discountLabel":"Economisești 22%","geniusDiscountLabel":null,"badge":null},{"code":"100062103","variantCode":"100062103","name":"Șampon antimătreață Intense Hydration 400ml","slug":"100062103-clear-sampon-antimatreata-intense-hydration-400ml","unitPriceLabel":"69,98 Lei/l","brand":"Clear","brandCode":"768","brandFilterCode":"clear-b769","sku":"100062103","price":27.99,"originalPrice":35.9,"currencyCode":"RON","currency":"Lei","image":{"thumbnail":{"default":"https://cdn.freshful.ro/media/cache/sylius_shop_product_thumbnail/6b/89/233dbf6fc2fcf62ca352ff02ccb5.jpg"},"large":{"default":"https://cdn.freshful.ro/media/cache/freshful_large/6b/89/233dbf6fc2fcf62ca352ff02ccb5.jpg"},"extralarge":{"default":"https://cdn.freshful.ro/media/cache/sylius_shop_product_original/6b/89/233dbf6fc2fcf62ca352ff02ccb5.jpg"}},"label":{"text":"-22%","backgroundColor":"#FF9903","textColor":"#FFFFFF"},"tags":[],"isAvailable":true,"maxAvailableQuantity":10,"maxAllowedQuantity":100,"breadcrumbs":[{"code":"11","name":"Cosmetice","slug":"11-cosmetice-si-ingrijire-personala"},{"code":"1107","name":"Îngrijirea părului","slug":"1107-ingrijirea-parului"},{"code":"110704","name":"Șampon","slug":"110704-sampon"},{"code":"100062103","name":"Șampon antimătreață Intense Hydration 400ml","slug":"100062103-clear-sampon-antimatreata-intense-hydration-400ml"}],"activePromotion":{"code":"oferte-dph-21feb-8mar23","name":"Preț redus","targetQuantity":null},"saveMe":null,"labels":[{"type":"v1","items":[{"text":"-22%","backgroundColor":"#FF9903","textColor":"#FFFFFF"}]}],"geniusPrice":null,"geniusUnitPricePerLabel":null,"banner":{"text":"Super preț","textColor":"#FF0000","bgColor":"#FFF2EC","icon":null,"link":"https://www.freshful.ro/oferte/oferte-dph-21feb-8mar23","type":"promo","analyticsEventType":"select_promotion","analyticsEventPayload":{"promotion_id":"oferte-dph-21feb-8mar23","promotion_name":"Curățenie și îngrijire personală"}},"discountLabel":"Economisești 22%","geniusDiscountLabel":null,"badge":null}],"filters":{"countSelected":0,"items":[{"code":"promotion","name":"Promoții","countSelected":0,"values":[{"code":"special-colorare-styling-feb23","name":"Colorare și styling","isSelected":false,"count":9},{"code":"oferte-dph-21feb-8mar23","name":"Curățenie și îngrijire personală","isSelected":false,"count":9},{"code":"freshful-top-deals-2023","name":"Profită de Top Deals","isSelected":false,"count":2}]},{"code":"brand","name":"Brand","countSelected":0,"values":[{"code":"batiste-b557","name":"Batiste","isSelected":false,"count":3},{"code":"bioturm-b1859","name":"Bioturm","isSelected":false,"count":2},{"code":"botanic-therapy-b1990","name":"Botanic Therapy","isSelected":false,"count":8},{"code":"clear-b769","name":"Clear","isSelected":false,"count":18},{"code":"dove-b764","name":"Dove","isSelected":false,"count":4},{"code":"eliah-sahil-b1684","name":"Eliah Sahil","isSelected":false,"count":1},{"code":"elseve-b1989","name":"Elseve","isSelected":false,"count":15},{"code":"essere-b1365","name":"Essere","isSelected":false,"count":2},{"code":"gerovital-b1837","name":"Gerovital","isSelected":false,"count":3},{"code":"gliss-b1760","name":"Gliss","isSelected":false,"count":11},{"code":"head-shoulders-b664","name":"Head & Shoulders","isSelected":false,"count":29},{"code":"herbal-essences-b672","name":"Herbal Essences","isSelected":false,"count":3},{"code":"loncolor-b1009","name":"Loncolor","isSelected":false,"count":2},{"code":"nacomi-b1618","name":"Nacomi","isSelected":false,"count":1},{"code":"natura-verde-b340","name":"Natura Verde","isSelected":false,"count":2},{"code":"nature-box-b1763","name":"Nature Box","isSelected":false,"count":5},{"code":"nivea-b317","name":"Nivea","isSelected":false,"count":16},{"code":"pantene-b671","name":"Pantene","isSelected":false,"count":12},{"code":"petrole-hahn-b345","name":"Pétrole Hahn","isSelected":false,"count":4},{"code":"schauma-b1764","name":"Schauma","isSelected":false,"count":8},{"code":"syoss-b1765","name":"Syoss","isSelected":false,"count":16},{"code":"wash-go-b558","name":"Wash & Go","isSelected":false,"count":5},{"code":"yope-b1617","name":"Yope","isSelected":false,"count":1}]},{"code":"diet_lifestyle","name":"Dietă și lifestyle","countSelected":0,"values":[{"code":"bio-a26","name":"Bio","isSelected":false,"count":12},{"code":"natural-a27","name":"Natural","isSelected":false,"count":3},{"code":"vegan-a24","name":"Vegan","isSelected":false,"count":17}]}]},"orderBy":[{"field":"price","direction":"asc","name":"Preț crescător","isSelected":false},{"field":"price","direction":"desc","name":"Preț descrescător","isSelected":false},{"field":"popularity","direction":"desc","name":"Cele mai populare","isSelected":true},{"field":"category","direction":"asc","name":"Categorie","isSelected":false}],"metaTitle":"Șampon - Gamă variată","metaDescription":"Vrei Șampon? Alege dintr-o gamă variată. Comanzi simplu și ai livrare rapidă, calitate și prospețime. Hai pe Freshful.ro","metaKeywords":null,"banners":[]}}