{"type":"subcategory","payload":{"analyticsListId":"category_110705-balsam","analyticsListName":"Category - Balsam","name":"Balsam","slug":"110705-balsam","image":null,"breadcrumbs":[{"code":"11","name":"Cosmetice","slug":"11-cosmetice-si-ingrijire-personala"},{"code":"1107","name":"Îngrijirea părului","slug":"1107-ingrijirea-parului"},{"code":"110705","name":"Balsam","slug":"110705-balsam"}],"slots":[],"page":1,"limit":10,"pages":7,"count":62,"siblings":[{"name":"Deodorante și parfumuri","slug":"1101-deodorante-si-parfumuri","selected":false},{"name":"Bărbierit și îngrijire ten","slug":"1102-produse-pentru-barbierit-si-ingrijit-ten","selected":false},{"name":"Demachiante și creme","slug":"1103-creme-intretinere-si-demachiante","selected":false},{"name":"Protecție solară","slug":"1104-produse-cu-protectie-solara","selected":false},{"name":"Ceară, benzi și creme depilatoare","slug":"1105-ceara-benzi-si-creme-depliatoare","selected":false},{"name":"Seturi cadou","slug":"1106-seturi-cadou","selected":false},{"name":"Îngrijirea părului","slug":"1107-ingrijirea-parului","selected":true},{"name":"Igienă intimă","slug":"1108-igienta-inima","selected":false},{"name":"Igienă dentară","slug":"1109-igiena-dentara","selected":false},{"name":"Săpunuri și geluri de duș","slug":"1110-sapunuri-si-geluri-de-dus","selected":false},{"name":"Dermatocosmetice și parafarmacie","slug":"1111-dermatocosmetice-si-parafarmacie","selected":false},{"name":"Repelent","slug":"repelent","selected":false}],"children":[{"name":"Toate produsele","slug":"1107-ingrijirea-parului","selected":false},{"name":"Accesorii pentru păr","slug":"110701-acesorii-pentru-par","selected":false},{"name":"Fixativ, gel și spumă pentru păr","slug":"110702-fixativ-gel-si-spuma-par","selected":false},{"name":"Vopsea pentru păr","slug":"110703-vopsea-pentru-par","selected":false},{"name":"Șampon","slug":"110704-sampon","selected":false},{"name":"Balsam","slug":"110705-balsam","selected":true},{"name":"Măști capilare","slug":"110706-masti-capilare","selected":false},{"name":"Tratamente capilare","slug":"110707-tratament-capilar","selected":false}],"products":[{"code":"100109893","variantCode":"9000100398572","name":"Balsam Oil Nutritive pentru păr uscat și deteriorat 200ml","slug":"100109893-gliss-balsam-oil-nutritive-pentru-par-uscat-si-deteriorat-200ml","unitPriceLabel":"64,95 Lei/l","brand":"Gliss","brandCode":"1756","brandFilterCode":"gliss-b1760","sku":"100109893","price":12.99,"originalPrice":null,"currencyCode":"RON","currency":"Lei","image":{"thumbnail":{"default":"https://cdn.freshful.ro/media/cache/sylius_shop_product_thumbnail/9a/42/ffdfcdd32660fa998105400778fe.jpg"},"large":{"default":"https://cdn.freshful.ro/media/cache/freshful_large/9a/42/ffdfcdd32660fa998105400778fe.jpg"},"extralarge":{"default":"https://cdn.freshful.ro/media/cache/sylius_shop_product_original/9a/42/ffdfcdd32660fa998105400778fe.jpg"}},"label":{"text":"Profită acum","backgroundColor":"#FF9903","textColor":"#FFFFFF"},"tags":[],"isAvailable":true,"maxAvailableQuantity":7,"maxAllowedQuantity":100,"breadcrumbs":[{"code":"11","name":"Cosmetice","slug":"11-cosmetice-si-ingrijire-personala"},{"code":"1107","name":"Îngrijirea părului","slug":"1107-ingrijirea-parului"},{"code":"110705","name":"Balsam","slug":"110705-balsam"},{"code":"100109893","name":"Balsam Oil Nutritive pentru păr uscat și deteriorat 200ml","slug":"100109893-gliss-balsam-oil-nutritive-pentru-par-uscat-si-deteriorat-200ml"}],"activePromotion":{"code":"special-colorare-styling-feb23","name":"Preț avantajos","targetQuantity":null},"saveMe":null,"labels":[{"type":"v1","items":[{"text":"Profită acum","backgroundColor":"#FF9903","textColor":"#FFFFFF"}]}],"geniusPrice":null,"geniusUnitPricePerLabel":null,"banner":{"text":"Preț avantajos","textColor":"#F95510","bgColor":"#FEF1CD","icon":null,"link":"https://www.freshful.ro/oferte/special-colorare-styling-feb23","type":"promo","analyticsEventType":"select_promotion","analyticsEventPayload":{"promotion_id":"special-colorare-styling-feb23","promotion_name":"Colorare și styling"}},"discountLabel":null,"geniusDiscountLabel":null,"badge":null},{"code":"100143762","variantCode":"100143762","name":"Balsam hidratant pentru păr și scalp Derma X Pro, 220ml","slug":"100143762-head-shoulders-balsam-hidratant-pentru-par-si-scalp-derma-x-pro-220ml","unitPriceLabel":"149,95 Lei/l","brand":"Head & Shoulders","brandCode":"663","brandFilterCode":"head-shoulders-b664","sku":"100143762","price":32.99,"originalPrice":36.69,"currencyCode":"RON","currency":"Lei","image":{"thumbnail":{"default":"https://cdn.freshful.ro/media/cache/sylius_shop_product_thumbnail/3a/7c/9ed0b52516fc0828a2f5bd38237f.jpg"},"large":{"default":"https://cdn.freshful.ro/media/cache/freshful_large/3a/7c/9ed0b52516fc0828a2f5bd38237f.jpg"},"extralarge":{"default":"https://cdn.freshful.ro/media/cache/sylius_shop_product_original/3a/7c/9ed0b52516fc0828a2f5bd38237f.jpg"}},"label":{"text":"-10%","backgroundColor":"#FF9903","textColor":"#FFFFFF"},"tags":[],"isAvailable":true,"maxAvailableQuantity":19,"maxAllowedQuantity":100,"breadcrumbs":[{"code":"11","name":"Cosmetice","slug":"11-cosmetice-si-ingrijire-personala"},{"code":"1107","name":"Îngrijirea părului","slug":"1107-ingrijirea-parului"},{"code":"110705","name":"Balsam","slug":"110705-balsam"},{"code":"100143762","name":"Balsam hidratant pentru păr și scalp Derma X Pro, 220ml","slug":"100143762-head-shoulders-balsam-hidratant-pentru-par-si-scalp-derma-x-pro-220ml"}],"activePromotion":{"code":"oferte-dph-21feb-8mar23","name":"Preț redus","targetQuantity":null},"saveMe":null,"labels":[{"type":"v1","items":[{"text":"-10%","backgroundColor":"#FF9903","textColor":"#FFFFFF"}]}],"geniusPrice":null,"geniusUnitPricePerLabel":null,"banner":{"text":"Super preț","textColor":"#FF0000","bgColor":"#FFF2EC","icon":null,"link":"https://www.freshful.ro/oferte/oferte-dph-21feb-8mar23","type":"promo","analyticsEventType":"select_promotion","analyticsEventPayload":{"promotion_id":"oferte-dph-21feb-8mar23","promotion_name":"Curățenie și îngrijire personală"}},"discountLabel":"Economisești 10%","geniusDiscountLabel":null,"badge":null},{"code":"100109894","variantCode":"9000101287172","name":"Balsam Split Hair Miracle pentru păr deteriorat și vârfuri despicate 200ml","slug":"100109894-gliss-balsam-split-hair-miracle-pentru-par-deteriorat-si-varfuri-despicate-200ml","unitPriceLabel":"64,95 Lei/l","brand":"Gliss","brandCode":"1756","brandFilterCode":"gliss-b1760","sku":"100109894","price":12.99,"originalPrice":null,"currencyCode":"RON","currency":"Lei","image":{"thumbnail":{"default":"https://cdn.freshful.ro/media/cache/sylius_shop_product_thumbnail/bf/25/332b69213c23a5905339842c3dcc.jpg"},"large":{"default":"https://cdn.freshful.ro/media/cache/freshful_large/bf/25/332b69213c23a5905339842c3dcc.jpg"},"extralarge":{"default":"https://cdn.freshful.ro/media/cache/sylius_shop_product_original/bf/25/332b69213c23a5905339842c3dcc.jpg"}},"label":{"text":"Profită acum","backgroundColor":"#FF9903","textColor":"#FFFFFF"},"tags":[],"isAvailable":true,"maxAvailableQuantity":10,"maxAllowedQuantity":100,"breadcrumbs":[{"code":"11","name":"Cosmetice","slug":"11-cosmetice-si-ingrijire-personala"},{"code":"1107","name":"Îngrijirea părului","slug":"1107-ingrijirea-parului"},{"code":"110705","name":"Balsam","slug":"110705-balsam"},{"code":"100109894","name":"Balsam Split Hair Miracle pentru păr deteriorat și vârfuri despicate 200ml","slug":"100109894-gliss-balsam-split-hair-miracle-pentru-par-deteriorat-si-varfuri-despicate-200ml"}],"activePromotion":{"code":"special-colorare-styling-feb23","name":"Preț avantajos","targetQuantity":null},"saveMe":null,"labels":[{"type":"v1","items":[{"text":"Profită acum","backgroundColor":"#FF9903","textColor":"#FFFFFF"}]}],"geniusPrice":null,"geniusUnitPricePerLabel":null,"banner":{"text":"Preț avantajos","textColor":"#F95510","bgColor":"#FEF1CD","icon":null,"link":"https://www.freshful.ro/oferte/special-colorare-styling-feb23","type":"promo","analyticsEventType":"select_promotion","analyticsEventPayload":{"promotion_id":"special-colorare-styling-feb23","promotion_name":"Colorare și styling"}},"discountLabel":null,"geniusDiscountLabel":null,"badge":null},{"code":"100091541","variantCode":"100091541","name":"Balsam Pro-V Miracles Strong & Long pentru păr puternic și lung 200ml","slug":"100091541-pantene-balsam-pro-v-miracles-strong-long-pentru-par-puternic-si-lung-200ml","unitPriceLabel":"109,95 Lei/l","brand":"Pantene","brandCode":"670","brandFilterCode":"pantene-b671","sku":"100091541","price":21.99,"originalPrice":25.9,"currencyCode":"RON","currency":"Lei","image":{"thumbnail":{"default":"https://cdn.freshful.ro/media/cache/sylius_shop_product_thumbnail/2a/55/90ed41cfeb631aa69482472ddff9.jpg"},"large":{"default":"https://cdn.freshful.ro/media/cache/freshful_large/2a/55/90ed41cfeb631aa69482472ddff9.jpg"},"extralarge":{"default":"https://cdn.freshful.ro/media/cache/sylius_shop_product_original/2a/55/90ed41cfeb631aa69482472ddff9.jpg"}},"label":{"text":"-15%","backgroundColor":"#FF9903","textColor":"#FFFFFF"},"tags":[],"isAvailable":true,"maxAvailableQuantity":8,"maxAllowedQuantity":100,"breadcrumbs":[{"code":"11","name":"Cosmetice","slug":"11-cosmetice-si-ingrijire-personala"},{"code":"1107","name":"Îngrijirea părului","slug":"1107-ingrijirea-parului"},{"code":"110705","name":"Balsam","slug":"110705-balsam"},{"code":"100091541","name":"Balsam Pro-V Miracles Strong & Long pentru păr puternic și lung 200ml","slug":"100091541-pantene-balsam-pro-v-miracles-strong-long-pentru-par-puternic-si-lung-200ml"}],"activePromotion":{"code":"oferte-dph-21feb-8mar23","name":"Preț redus","targetQuantity":null},"saveMe":null,"labels":[{"type":"v1","items":[{"text":"-15%","backgroundColor":"#FF9903","textColor":"#FFFFFF"}]}],"geniusPrice":null,"geniusUnitPricePerLabel":null,"banner":{"text":"Super preț","textColor":"#FF0000","bgColor":"#FFF2EC","icon":null,"link":"https://www.freshful.ro/oferte/oferte-dph-21feb-8mar23","type":"promo","analyticsEventType":"select_promotion","analyticsEventPayload":{"promotion_id":"oferte-dph-21feb-8mar23","promotion_name":"Curățenie și îngrijire personală"}},"discountLabel":"Economisești 15%","geniusDiscountLabel":null,"badge":null},{"code":"100143764","variantCode":"100143764","name":"Balsam calmant pentru păr și scalp Derma X Pro, 220ml","slug":"100143764-head-shoulders-balsam-calmant-pentru-par-si-scalp-derma-x-pro-220ml","unitPriceLabel":"149,95 Lei/l","brand":"Head & Shoulders","brandCode":"663","brandFilterCode":"head-shoulders-b664","sku":"100143764","price":32.99,"originalPrice":36.5,"currencyCode":"RON","currency":"Lei","image":{"thumbnail":{"default":"https://cdn.freshful.ro/media/cache/sylius_shop_product_thumbnail/eb/8a/4a5543c43a7664cc323ea5e568cc.jpg"},"large":{"default":"https://cdn.freshful.ro/media/cache/freshful_large/eb/8a/4a5543c43a7664cc323ea5e568cc.jpg"},"extralarge":{"default":"https://cdn.freshful.ro/media/cache/sylius_shop_product_original/eb/8a/4a5543c43a7664cc323ea5e568cc.jpg"}},"label":{"text":"-9%","backgroundColor":"#FF9903","textColor":"#FFFFFF"},"tags":[],"isAvailable":true,"maxAvailableQuantity":11,"maxAllowedQuantity":100,"breadcrumbs":[{"code":"11","name":"Cosmetice","slug":"11-cosmetice-si-ingrijire-personala"},{"code":"1107","name":"Îngrijirea părului","slug":"1107-ingrijirea-parului"},{"code":"110705","name":"Balsam","slug":"110705-balsam"},{"code":"100143764","name":"Balsam calmant pentru păr și scalp Derma X Pro, 220ml","slug":"100143764-head-shoulders-balsam-calmant-pentru-par-si-scalp-derma-x-pro-220ml"}],"activePromotion":{"code":"oferte-dph-21feb-8mar23","name":"Preț redus","targetQuantity":null},"saveMe":null,"labels":[{"type":"v1","items":[{"text":"-9%","backgroundColor":"#FF9903","textColor":"#FFFFFF"}]}],"geniusPrice":null,"geniusUnitPricePerLabel":null,"banner":{"text":"Super preț","textColor":"#FF0000","bgColor":"#FFF2EC","icon":null,"link":"https://www.freshful.ro/oferte/oferte-dph-21feb-8mar23","type":"promo","analyticsEventType":"select_promotion","analyticsEventPayload":{"promotion_id":"oferte-dph-21feb-8mar23","promotion_name":"Curățenie și îngrijire personală"}},"discountLabel":"Economisești 9%","geniusDiscountLabel":null,"badge":null},{"code":"100109887","variantCode":"9000101201376","name":"Balsam spray Supreme Length pentru păr 200ml","slug":"100109887-gliss-balsam-spray-supreme-length-pentru-par-200ml","unitPriceLabel":"89,95 Lei/l","brand":"Gliss","brandCode":"1756","brandFilterCode":"gliss-b1760","sku":"100109887","price":17.99,"originalPrice":null,"currencyCode":"RON","currency":"Lei","image":{"thumbnail":{"default":"https://cdn.freshful.ro/media/cache/sylius_shop_product_thumbnail/9d/57/540882e430d6c84802f14793854f.jpg"},"large":{"default":"https://cdn.freshful.ro/media/cache/freshful_large/9d/57/540882e430d6c84802f14793854f.jpg"},"extralarge":{"default":"https://cdn.freshful.ro/media/cache/sylius_shop_product_original/9d/57/540882e430d6c84802f14793854f.jpg"}},"label":{"text":"Profită acum","backgroundColor":"#FF9903","textColor":"#FFFFFF"},"tags":[],"isAvailable":true,"maxAvailableQuantity":24,"maxAllowedQuantity":100,"breadcrumbs":[{"code":"11","name":"Cosmetice","slug":"11-cosmetice-si-ingrijire-personala"},{"code":"1107","name":"Îngrijirea părului","slug":"1107-ingrijirea-parului"},{"code":"110705","name":"Balsam","slug":"110705-balsam"},{"code":"100109887","name":"Balsam spray Supreme Length pentru păr 200ml","slug":"100109887-gliss-balsam-spray-supreme-length-pentru-par-200ml"}],"activePromotion":{"code":"special-colorare-styling-feb23","name":"Preț avantajos","targetQuantity":null},"saveMe":null,"labels":[{"type":"v1","items":[{"text":"Profită acum","backgroundColor":"#FF9903","textColor":"#FFFFFF"}]}],"geniusPrice":null,"geniusUnitPricePerLabel":null,"banner":{"text":"Preț avantajos","textColor":"#F95510","bgColor":"#FEF1CD","icon":null,"link":"https://www.freshful.ro/oferte/special-colorare-styling-feb23","type":"promo","analyticsEventType":"select_promotion","analyticsEventPayload":{"promotion_id":"special-colorare-styling-feb23","promotion_name":"Colorare și styling"}},"discountLabel":null,"geniusDiscountLabel":null,"badge":null},{"code":"100109886","variantCode":"9000101287233","name":"Balsam spray Split Hair Miracle pentru păr deteriorat și vârfuri despicate 200ml","slug":"100109886-gliss-balsam-spray-split-hair-miracle-pentru-par-deteriorat-si-varfuri-despicate-200ml","unitPriceLabel":"89,95 Lei/l","brand":"Gliss","brandCode":"1756","brandFilterCode":"gliss-b1760","sku":"100109886","price":17.99,"originalPrice":null,"currencyCode":"RON","currency":"Lei","image":{"thumbnail":{"default":"https://cdn.freshful.ro/media/cache/sylius_shop_product_thumbnail/2f/a3/3abe8b044da2a547677a97fcfb63.jpg"},"large":{"default":"https://cdn.freshful.ro/media/cache/freshful_large/2f/a3/3abe8b044da2a547677a97fcfb63.jpg"},"extralarge":{"default":"https://cdn.freshful.ro/media/cache/sylius_shop_product_original/2f/a3/3abe8b044da2a547677a97fcfb63.jpg"}},"label":{"text":"Profită acum","backgroundColor":"#FF9903","textColor":"#FFFFFF"},"tags":[],"isAvailable":true,"maxAvailableQuantity":15,"maxAllowedQuantity":100,"breadcrumbs":[{"code":"11","name":"Cosmetice","slug":"11-cosmetice-si-ingrijire-personala"},{"code":"1107","name":"Îngrijirea părului","slug":"1107-ingrijirea-parului"},{"code":"110705","name":"Balsam","slug":"110705-balsam"},{"code":"100109886","name":"Balsam spray Split Hair Miracle pentru păr deteriorat și vârfuri despicate 200ml","slug":"100109886-gliss-balsam-spray-split-hair-miracle-pentru-par-deteriorat-si-varfuri-despicate-200ml"}],"activePromotion":{"code":"special-colorare-styling-feb23","name":"Preț avantajos","targetQuantity":null},"saveMe":null,"labels":[{"type":"v1","items":[{"text":"Profită acum","backgroundColor":"#FF9903","textColor":"#FFFFFF"}]}],"geniusPrice":null,"geniusUnitPricePerLabel":null,"banner":{"text":"Preț avantajos","textColor":"#F95510","bgColor":"#FEF1CD","icon":null,"link":"https://www.freshful.ro/oferte/special-colorare-styling-feb23","type":"promo","analyticsEventType":"select_promotion","analyticsEventPayload":{"promotion_id":"special-colorare-styling-feb23","promotion_name":"Colorare și styling"}},"discountLabel":null,"geniusDiscountLabel":null,"badge":null},{"code":"100143761","variantCode":"100143761","name":"Balsam anti-mătreață pentru scalp Derma X Pro, cu acid hialuronic, 145ml","slug":"100143761-head-shoulders-balsam-anti-matreata-pentru-scalp-derma-x-pro-cu-acid-hialuronic-145ml","unitPriceLabel":"190,97 Lei/l","brand":"Head & Shoulders","brandCode":"663","brandFilterCode":"head-shoulders-b664","sku":"100143761","price":27.69,"originalPrice":null,"currencyCode":"RON","currency":"Lei","image":{"thumbnail":{"default":"https://cdn.freshful.ro/media/cache/sylius_shop_product_thumbnail/27/13/f0177e6d4e9f6be2e8e6c19b5078.jpg"},"large":{"default":"https://cdn.freshful.ro/media/cache/freshful_large/27/13/f0177e6d4e9f6be2e8e6c19b5078.jpg"},"extralarge":{"default":"https://cdn.freshful.ro/media/cache/sylius_shop_product_original/27/13/f0177e6d4e9f6be2e8e6c19b5078.jpg"}},"label":{"text":"Profită acum","backgroundColor":"#FF9903","textColor":"#FFFFFF"},"tags":[],"isAvailable":true,"maxAvailableQuantity":16,"maxAllowedQuantity":100,"breadcrumbs":[{"code":"11","name":"Cosmetice","slug":"11-cosmetice-si-ingrijire-personala"},{"code":"1107","name":"Îngrijirea părului","slug":"1107-ingrijirea-parului"},{"code":"110705","name":"Balsam","slug":"110705-balsam"},{"code":"100143761","name":"Balsam anti-mătreață pentru scalp Derma X Pro, cu acid hialuronic, 145ml","slug":"100143761-head-shoulders-balsam-anti-matreata-pentru-scalp-derma-x-pro-cu-acid-hialuronic-145ml"}],"activePromotion":{"code":"oferte-dph-21feb-8mar23","name":"Preț avantajos","targetQuantity":null},"saveMe":null,"labels":[{"type":"v1","items":[{"text":"Profită acum","backgroundColor":"#FF9903","textColor":"#FFFFFF"}]}],"geniusPrice":null,"geniusUnitPricePerLabel":null,"banner":{"text":"Preț avantajos","textColor":"#F95510","bgColor":"#FEF1CD","icon":null,"link":"https://www.freshful.ro/oferte/oferte-dph-21feb-8mar23","type":"promo","analyticsEventType":"select_promotion","analyticsEventPayload":{"promotion_id":"oferte-dph-21feb-8mar23","promotion_name":"Curățenie și îngrijire personală"}},"discountLabel":null,"geniusDiscountLabel":null,"badge":null},{"code":"100143765","variantCode":"100143765","name":"Balsam întaritor pentru păr și scalp Derma X Pro, 220ml","slug":"100143765-head-shoulders-balsam-intaritor-pentru-par-si-scalp-derma-x-pro-220ml","unitPriceLabel":"149,95 Lei/l","brand":"Head & Shoulders","brandCode":"663","brandFilterCode":"head-shoulders-b664","sku":"100143765","price":32.99,"originalPrice":36.99,"currencyCode":"RON","currency":"Lei","image":{"thumbnail":{"default":"https://cdn.freshful.ro/media/cache/sylius_shop_product_thumbnail/29/6c/f4a0ca16730e333402b7fe434906.jpg"},"large":{"default":"https://cdn.freshful.ro/media/cache/freshful_large/29/6c/f4a0ca16730e333402b7fe434906.jpg"},"extralarge":{"default":"https://cdn.freshful.ro/media/cache/sylius_shop_product_original/29/6c/f4a0ca16730e333402b7fe434906.jpg"}},"label":{"text":"-10%","backgroundColor":"#FF9903","textColor":"#FFFFFF"},"tags":[],"isAvailable":true,"maxAvailableQuantity":27,"maxAllowedQuantity":100,"breadcrumbs":[{"code":"11","name":"Cosmetice","slug":"11-cosmetice-si-ingrijire-personala"},{"code":"1107","name":"Îngrijirea părului","slug":"1107-ingrijirea-parului"},{"code":"110705","name":"Balsam","slug":"110705-balsam"},{"code":"100143765","name":"Balsam întaritor pentru păr și scalp Derma X Pro, 220ml","slug":"100143765-head-shoulders-balsam-intaritor-pentru-par-si-scalp-derma-x-pro-220ml"}],"activePromotion":{"code":"oferte-dph-21feb-8mar23","name":"Preț redus","targetQuantity":null},"saveMe":null,"labels":[{"type":"v1","items":[{"text":"-10%","backgroundColor":"#FF9903","textColor":"#FFFFFF"}]}],"geniusPrice":null,"geniusUnitPricePerLabel":null,"banner":{"text":"Super preț","textColor":"#FF0000","bgColor":"#FFF2EC","icon":null,"link":"https://www.freshful.ro/oferte/oferte-dph-21feb-8mar23","type":"promo","analyticsEventType":"select_promotion","analyticsEventPayload":{"promotion_id":"oferte-dph-21feb-8mar23","promotion_name":"Curățenie și îngrijire personală"}},"discountLabel":"Economisești 10%","geniusDiscountLabel":null,"badge":null},{"code":"100109885","variantCode":"9000100398701","name":"Balsam spray Oil Nutritive pentru păr uscat și deteriorat 200ml","slug":"100109885-gliss-balsam-spray-oil-nutritive-pentru-par-uscat-si-deteriorat-200ml","unitPriceLabel":"89,95 Lei/l","brand":"Gliss","brandCode":"1756","brandFilterCode":"gliss-b1760","sku":"100109885","price":17.99,"originalPrice":null,"currencyCode":"RON","currency":"Lei","image":{"thumbnail":{"default":"https://cdn.freshful.ro/media/cache/sylius_shop_product_thumbnail/08/76/11ccd7c772bfac6fca939f6999d4.jpg"},"large":{"default":"https://cdn.freshful.ro/media/cache/freshful_large/08/76/11ccd7c772bfac6fca939f6999d4.jpg"},"extralarge":{"default":"https://cdn.freshful.ro/media/cache/sylius_shop_product_original/08/76/11ccd7c772bfac6fca939f6999d4.jpg"}},"label":{"text":"Profită acum","backgroundColor":"#FF9903","textColor":"#FFFFFF"},"tags":[],"isAvailable":true,"maxAvailableQuantity":27,"maxAllowedQuantity":100,"breadcrumbs":[{"code":"11","name":"Cosmetice","slug":"11-cosmetice-si-ingrijire-personala"},{"code":"1107","name":"Îngrijirea părului","slug":"1107-ingrijirea-parului"},{"code":"110705","name":"Balsam","slug":"110705-balsam"},{"code":"100109885","name":"Balsam spray Oil Nutritive pentru păr uscat și deteriorat 200ml","slug":"100109885-gliss-balsam-spray-oil-nutritive-pentru-par-uscat-si-deteriorat-200ml"}],"activePromotion":{"code":"special-colorare-styling-feb23","name":"Preț avantajos","targetQuantity":null},"saveMe":null,"labels":[{"type":"v1","items":[{"text":"Profită acum","backgroundColor":"#FF9903","textColor":"#FFFFFF"}]}],"geniusPrice":null,"geniusUnitPricePerLabel":null,"banner":{"text":"Preț avantajos","textColor":"#F95510","bgColor":"#FEF1CD","icon":null,"link":"https://www.freshful.ro/oferte/special-colorare-styling-feb23","type":"promo","analyticsEventType":"select_promotion","analyticsEventPayload":{"promotion_id":"special-colorare-styling-feb23","promotion_name":"Colorare și styling"}},"discountLabel":null,"geniusDiscountLabel":null,"badge":null}],"filters":{"countSelected":0,"items":[{"code":"promotion","name":"Promoții","countSelected":0,"values":[{"code":"special-colorare-styling-feb23","name":"Colorare și styling","isSelected":false,"count":10},{"code":"oferte-dph-21feb-8mar23","name":"Curățenie și îngrijire personală","isSelected":false,"count":6}]},{"code":"brand","name":"Brand","countSelected":0,"values":[{"code":"botanic-therapy-b1990","name":"Botanic Therapy","isSelected":false,"count":3},{"code":"elseve-b1989","name":"Elseve","isSelected":false,"count":10},{"code":"gliss-b1760","name":"Gliss","isSelected":false,"count":13},{"code":"head-shoulders-b664","name":"Head & Shoulders","isSelected":false,"count":6},{"code":"herbal-essences-b672","name":"Herbal Essences","isSelected":false,"count":3},{"code":"loncolor-b1009","name":"Loncolor","isSelected":false,"count":2},{"code":"nature-box-b1763","name":"Nature Box","isSelected":false,"count":7},{"code":"nivea-b317","name":"Nivea","isSelected":false,"count":2},{"code":"pantene-b671","name":"Pantene","isSelected":false,"count":8},{"code":"syoss-b1765","name":"Syoss","isSelected":false,"count":6},{"code":"wash-go-b558","name":"Wash & Go","isSelected":false,"count":1},{"code":"yope-b1617","name":"Yope","isSelected":false,"count":1}]},{"code":"diet_lifestyle","name":"Dietă și lifestyle","countSelected":0,"values":[{"code":"bio-a26","name":"Bio","isSelected":false,"count":7},{"code":"natural-a27","name":"Natural","isSelected":false,"count":1},{"code":"vegan-a24","name":"Vegan","isSelected":false,"count":12}]}]},"orderBy":[{"field":"price","direction":"asc","name":"Preț crescător","isSelected":false},{"field":"price","direction":"desc","name":"Preț descrescător","isSelected":false},{"field":"popularity","direction":"desc","name":"Cele mai populare","isSelected":true},{"field":"category","direction":"asc","name":"Categorie","isSelected":false}],"metaTitle":"Balsam - Gamă variată","metaDescription":"Vrei Balsam? Alege dintr-o gamă variată. Comanzi simplu și ai livrare rapidă, calitate și prospețime. Hai pe Freshful.ro","metaKeywords":null,"banners":[]}}