{"type":"subcategory","payload":{"analyticsListId":"category_110703-vopsea-pentru-par","analyticsListName":"Category - Vopsea pentru păr","name":"Vopsea pentru păr","slug":"110703-vopsea-pentru-par","image":null,"breadcrumbs":[{"code":"11","name":"Cosmetice","slug":"11-cosmetice-si-ingrijire-personala"},{"code":"1107","name":"Îngrijirea părului","slug":"1107-ingrijirea-parului"},{"code":"110703","name":"Vopsea pentru păr","slug":"110703-vopsea-pentru-par"}],"slots":[],"page":1,"limit":10,"pages":24,"count":240,"siblings":[{"name":"Deodorante și parfumuri","slug":"1101-deodorante-si-parfumuri","selected":false},{"name":"Bărbierit și îngrijire ten","slug":"1102-produse-pentru-barbierit-si-ingrijit-ten","selected":false},{"name":"Demachiante și creme","slug":"1103-creme-intretinere-si-demachiante","selected":false},{"name":"Protecție solară","slug":"1104-produse-cu-protectie-solara","selected":false},{"name":"Ceară, benzi și creme depilatoare","slug":"1105-ceara-benzi-si-creme-depliatoare","selected":false},{"name":"Seturi cadou","slug":"1106-seturi-cadou","selected":false},{"name":"Îngrijirea părului","slug":"1107-ingrijirea-parului","selected":true},{"name":"Igienă intimă","slug":"1108-igienta-inima","selected":false},{"name":"Igienă dentară","slug":"1109-igiena-dentara","selected":false},{"name":"Săpunuri și geluri de duș","slug":"1110-sapunuri-si-geluri-de-dus","selected":false},{"name":"Dermatocosmetice și parafarmacie","slug":"1111-dermatocosmetice-si-parafarmacie","selected":false},{"name":"Repelent","slug":"repelent","selected":false}],"children":[{"name":"Toate produsele","slug":"1107-ingrijirea-parului","selected":false},{"name":"Accesorii pentru păr","slug":"110701-acesorii-pentru-par","selected":false},{"name":"Fixativ, gel și spumă pentru păr","slug":"110702-fixativ-gel-si-spuma-par","selected":false},{"name":"Vopsea pentru păr","slug":"110703-vopsea-pentru-par","selected":true},{"name":"Șampon","slug":"110704-sampon","selected":false},{"name":"Balsam","slug":"110705-balsam","selected":false},{"name":"Măști capilare","slug":"110706-masti-capilare","selected":false},{"name":"Tratamente capilare","slug":"110707-tratament-capilar","selected":false}],"products":[{"code":"100110158","variantCode":"3838824159133","name":"Vopsea de păr permanentă Intensive Color Creme A10 blond cenușiu 110ml","slug":"100110158-schwarzkopf-vopsea-de-par-permanenta-intensive-color-creme-a10-blond-cenusiu-110ml","unitPriceLabel":"","brand":"Palette Intensive","brandCode":"2701","brandFilterCode":"palette-intensive-b2704","sku":"100110158","price":10.99,"originalPrice":null,"currencyCode":"RON","currency":"Lei","image":{"thumbnail":{"default":"https://cdn.freshful.ro/media/cache/sylius_shop_product_thumbnail/9b/c0/0a94f57ccb9d6152f9ee9cbef3e0.jpg"},"large":{"default":"https://cdn.freshful.ro/media/cache/freshful_large/9b/c0/0a94f57ccb9d6152f9ee9cbef3e0.jpg"},"extralarge":{"default":"https://cdn.freshful.ro/media/cache/sylius_shop_product_original/9b/c0/0a94f57ccb9d6152f9ee9cbef3e0.jpg"}},"label":{"text":"Profită acum","backgroundColor":"#FF9903","textColor":"#FFFFFF"},"tags":[],"isAvailable":true,"maxAvailableQuantity":24,"maxAllowedQuantity":100,"breadcrumbs":[{"code":"11","name":"Cosmetice","slug":"11-cosmetice-si-ingrijire-personala"},{"code":"1107","name":"Îngrijirea părului","slug":"1107-ingrijirea-parului"},{"code":"110703","name":"Vopsea pentru păr","slug":"110703-vopsea-pentru-par"},{"code":"100110158","name":"Vopsea de păr permanentă Intensive Color Creme A10 blond cenușiu 110ml","slug":"100110158-schwarzkopf-vopsea-de-par-permanenta-intensive-color-creme-a10-blond-cenusiu-110ml"}],"activePromotion":{"code":"special-colorare-styling-feb23","name":"Preț avantajos","targetQuantity":null},"saveMe":null,"labels":[{"type":"v1","items":[{"text":"Profită acum","backgroundColor":"#FF9903","textColor":"#FFFFFF"}]}],"geniusPrice":null,"geniusUnitPricePerLabel":null,"banner":{"text":"Preț avantajos","textColor":"#F95510","bgColor":"#FEF1CD","icon":null,"link":"https://www.freshful.ro/oferte/special-colorare-styling-feb23","type":"promo","analyticsEventType":"select_promotion","analyticsEventPayload":{"promotion_id":"special-colorare-styling-feb23","promotion_name":"Colorare și styling"}},"discountLabel":null,"geniusDiscountLabel":null,"badge":null},{"code":"100109966","variantCode":"9000101202779","name":"Vopsea de păr permanentă Urban Metallics U69 amethyst chrome 142.5 ml","slug":"100109966-schwarzkopf-vopsea-de-par-permanenta-urban-metallics-u69-amethyst-chrome-142-5-ml","unitPriceLabel":"","brand":"Live","brandCode":"2699","brandFilterCode":"live-b2701","sku":"100109966","price":23.99,"originalPrice":null,"currencyCode":"RON","currency":"Lei","image":{"thumbnail":{"default":"https://cdn.freshful.ro/media/cache/sylius_shop_product_thumbnail/63/c3/600a466e11efbd3e4c109842fa74.jpg"},"large":{"default":"https://cdn.freshful.ro/media/cache/freshful_large/63/c3/600a466e11efbd3e4c109842fa74.jpg"},"extralarge":{"default":"https://cdn.freshful.ro/media/cache/sylius_shop_product_original/63/c3/600a466e11efbd3e4c109842fa74.jpg"}},"label":{"text":"Profită acum","backgroundColor":"#FF9903","textColor":"#FFFFFF"},"tags":[],"isAvailable":true,"maxAvailableQuantity":15,"maxAllowedQuantity":100,"breadcrumbs":[{"code":"11","name":"Cosmetice","slug":"11-cosmetice-si-ingrijire-personala"},{"code":"1107","name":"Îngrijirea părului","slug":"1107-ingrijirea-parului"},{"code":"110703","name":"Vopsea pentru păr","slug":"110703-vopsea-pentru-par"},{"code":"100109966","name":"Vopsea de păr permanentă Urban Metallics U69 amethyst chrome 142.5 ml","slug":"100109966-schwarzkopf-vopsea-de-par-permanenta-urban-metallics-u69-amethyst-chrome-142-5-ml"}],"activePromotion":{"code":"special-colorare-styling-feb23","name":"Preț avantajos","targetQuantity":null},"saveMe":null,"labels":[{"type":"v1","items":[{"text":"Profită acum","backgroundColor":"#FF9903","textColor":"#FFFFFF"}]}],"geniusPrice":null,"geniusUnitPricePerLabel":null,"banner":{"text":"Preț avantajos","textColor":"#F95510","bgColor":"#FEF1CD","icon":null,"link":"https://www.freshful.ro/oferte/special-colorare-styling-feb23","type":"promo","analyticsEventType":"select_promotion","analyticsEventPayload":{"promotion_id":"special-colorare-styling-feb23","promotion_name":"Colorare și styling"}},"discountLabel":null,"geniusDiscountLabel":null,"badge":null},{"code":"100109942","variantCode":"9000101297560","name":"Vopsea de păr permanentă sub formă de gel 10.21 baby blond 142.5ml","slug":"100109942-schwarzkopf-vopsea-de-par-permanenta-sub-forma-de-gel-10-21-baby-blond-142-5ml","unitPriceLabel":"","brand":"Live","brandCode":"2699","brandFilterCode":"live-b2701","sku":"100109942","price":23.99,"originalPrice":null,"currencyCode":"RON","currency":"Lei","image":{"thumbnail":{"default":"https://cdn.freshful.ro/media/cache/sylius_shop_product_thumbnail/76/de/c3955257a6d03be1151afeeb54f8.jpg"},"large":{"default":"https://cdn.freshful.ro/media/cache/freshful_large/76/de/c3955257a6d03be1151afeeb54f8.jpg"},"extralarge":{"default":"https://cdn.freshful.ro/media/cache/sylius_shop_product_original/76/de/c3955257a6d03be1151afeeb54f8.jpg"}},"label":{"text":"Profită acum","backgroundColor":"#FF9903","textColor":"#FFFFFF"},"tags":[],"isAvailable":true,"maxAvailableQuantity":3,"maxAllowedQuantity":100,"breadcrumbs":[{"code":"11","name":"Cosmetice","slug":"11-cosmetice-si-ingrijire-personala"},{"code":"1107","name":"Îngrijirea părului","slug":"1107-ingrijirea-parului"},{"code":"110703","name":"Vopsea pentru păr","slug":"110703-vopsea-pentru-par"},{"code":"100109942","name":"Vopsea de păr permanentă sub formă de gel 10.21 baby blond 142.5ml","slug":"100109942-schwarzkopf-vopsea-de-par-permanenta-sub-forma-de-gel-10-21-baby-blond-142-5ml"}],"activePromotion":{"code":"special-colorare-styling-feb23","name":"Preț avantajos","targetQuantity":null},"saveMe":null,"labels":[{"type":"v1","items":[{"text":"Profită acum","backgroundColor":"#FF9903","textColor":"#FFFFFF"}]}],"geniusPrice":null,"geniusUnitPricePerLabel":null,"banner":{"text":"Preț avantajos","textColor":"#F95510","bgColor":"#FEF1CD","icon":null,"link":"https://www.freshful.ro/oferte/special-colorare-styling-feb23","type":"promo","analyticsEventType":"select_promotion","analyticsEventPayload":{"promotion_id":"special-colorare-styling-feb23","promotion_name":"Colorare și styling"}},"discountLabel":null,"geniusDiscountLabel":null,"badge":null},{"code":"100110138","variantCode":"9000100823555","name":"Vopsea de păr permanentă Deluxe Oil-Care Color 562 arămiu intens strălucitor 135ml","slug":"100110138-schwarzkopf-vopsea-de-par-permanenta-deluxe-oil-care-color-562-aramiu-intens-stralucitor-135ml","unitPriceLabel":"","brand":"Palette Deluxe","brandCode":"2700","brandFilterCode":"palette-deluxe-b2703","sku":"100110138","price":13.99,"originalPrice":null,"currencyCode":"RON","currency":"Lei","image":{"thumbnail":{"default":"https://cdn.freshful.ro/media/cache/sylius_shop_product_thumbnail/06/84/0bb01ed366eef92d76218bbeb67f.jpg"},"large":{"default":"https://cdn.freshful.ro/media/cache/freshful_large/06/84/0bb01ed366eef92d76218bbeb67f.jpg"},"extralarge":{"default":"https://cdn.freshful.ro/media/cache/sylius_shop_product_original/06/84/0bb01ed366eef92d76218bbeb67f.jpg"}},"label":{"text":"Profită acum","backgroundColor":"#FF9903","textColor":"#FFFFFF"},"tags":[],"isAvailable":true,"maxAvailableQuantity":18,"maxAllowedQuantity":100,"breadcrumbs":[{"code":"11","name":"Cosmetice","slug":"11-cosmetice-si-ingrijire-personala"},{"code":"1107","name":"Îngrijirea părului","slug":"1107-ingrijirea-parului"},{"code":"110703","name":"Vopsea pentru păr","slug":"110703-vopsea-pentru-par"},{"code":"100110138","name":"Vopsea de păr permanentă Deluxe Oil-Care Color 562 arămiu intens strălucitor 135ml","slug":"100110138-schwarzkopf-vopsea-de-par-permanenta-deluxe-oil-care-color-562-aramiu-intens-stralucitor-135ml"}],"activePromotion":{"code":"special-colorare-styling-feb23","name":"Preț avantajos","targetQuantity":null},"saveMe":null,"labels":[{"type":"v1","items":[{"text":"Profită acum","backgroundColor":"#FF9903","textColor":"#FFFFFF"}]}],"geniusPrice":null,"geniusUnitPricePerLabel":null,"banner":{"text":"Preț avantajos","textColor":"#F95510","bgColor":"#FEF1CD","icon":null,"link":"https://www.freshful.ro/oferte/special-colorare-styling-feb23","type":"promo","analyticsEventType":"select_promotion","analyticsEventPayload":{"promotion_id":"special-colorare-styling-feb23","promotion_name":"Colorare și styling"}},"discountLabel":null,"geniusDiscountLabel":null,"badge":null},{"code":"100110161","variantCode":"3838824159171","name":"Vopsea de păr permanentă Intensive Color Cream C1 negru albăstrui 110 ml","slug":"100110161-schwarzkopf-vopsea-de-par-permanenta-intensive-color-cream-c1-negru-albastrui-110-ml","unitPriceLabel":"","brand":"Palette Intensive","brandCode":"2701","brandFilterCode":"palette-intensive-b2704","sku":"100110161","price":10.99,"originalPrice":null,"currencyCode":"RON","currency":"Lei","image":{"thumbnail":{"default":"https://cdn.freshful.ro/media/cache/sylius_shop_product_thumbnail/cf/08/73e15e199bdaf763524ea200cb83.jpg"},"large":{"default":"https://cdn.freshful.ro/media/cache/freshful_large/cf/08/73e15e199bdaf763524ea200cb83.jpg"},"extralarge":{"default":"https://cdn.freshful.ro/media/cache/sylius_shop_product_original/cf/08/73e15e199bdaf763524ea200cb83.jpg"}},"label":{"text":"Profită acum","backgroundColor":"#FF9903","textColor":"#FFFFFF"},"tags":[],"isAvailable":true,"maxAvailableQuantity":14,"maxAllowedQuantity":100,"breadcrumbs":[{"code":"11","name":"Cosmetice","slug":"11-cosmetice-si-ingrijire-personala"},{"code":"1107","name":"Îngrijirea părului","slug":"1107-ingrijirea-parului"},{"code":"110703","name":"Vopsea pentru păr","slug":"110703-vopsea-pentru-par"},{"code":"100110161","name":"Vopsea de păr permanentă Intensive Color Cream C1 negru albăstrui 110 ml","slug":"100110161-schwarzkopf-vopsea-de-par-permanenta-intensive-color-cream-c1-negru-albastrui-110-ml"}],"activePromotion":{"code":"special-colorare-styling-feb23","name":"Preț avantajos","targetQuantity":null},"saveMe":null,"labels":[{"type":"v1","items":[{"text":"Profită acum","backgroundColor":"#FF9903","textColor":"#FFFFFF"}]}],"geniusPrice":null,"geniusUnitPricePerLabel":null,"banner":{"text":"Preț avantajos","textColor":"#F95510","bgColor":"#FEF1CD","icon":null,"link":"https://www.freshful.ro/oferte/special-colorare-styling-feb23","type":"promo","analyticsEventType":"select_promotion","analyticsEventPayload":{"promotion_id":"special-colorare-styling-feb23","promotion_name":"Colorare și styling"}},"discountLabel":null,"geniusDiscountLabel":null,"badge":null},{"code":"100110150","variantCode":"100110150","name":"Vopsea de păr permanentă U71 argintiu înghețat 135ml ","slug":"100110150-palette-deluxe-vopsea-de-par-permanenta-u71-argintiu-inghetat-135ml","unitPriceLabel":"","brand":"Palette Deluxe","brandCode":"2700","brandFilterCode":"palette-deluxe-b2703","sku":"100110150","price":13.99,"originalPrice":null,"currencyCode":"RON","currency":"Lei","image":{"thumbnail":{"default":"https://cdn.freshful.ro/media/cache/sylius_shop_product_thumbnail/d0/e1/0daaed991c303440da8fd7a29e31.jpg"},"large":{"default":"https://cdn.freshful.ro/media/cache/freshful_large/d0/e1/0daaed991c303440da8fd7a29e31.jpg"},"extralarge":{"default":"https://cdn.freshful.ro/media/cache/sylius_shop_product_original/d0/e1/0daaed991c303440da8fd7a29e31.jpg"}},"label":{"text":"Profită acum","backgroundColor":"#FF9903","textColor":"#FFFFFF"},"tags":[],"isAvailable":true,"maxAvailableQuantity":23,"maxAllowedQuantity":100,"breadcrumbs":[{"code":"11","name":"Cosmetice","slug":"11-cosmetice-si-ingrijire-personala"},{"code":"1107","name":"Îngrijirea părului","slug":"1107-ingrijirea-parului"},{"code":"110703","name":"Vopsea pentru păr","slug":"110703-vopsea-pentru-par"},{"code":"100110150","name":"Vopsea de păr permanentă U71 argintiu înghețat 135ml ","slug":"100110150-palette-deluxe-vopsea-de-par-permanenta-u71-argintiu-inghetat-135ml"}],"activePromotion":{"code":"special-colorare-styling-feb23","name":"Preț avantajos","targetQuantity":null},"saveMe":null,"labels":[{"type":"v1","items":[{"text":"Profită acum","backgroundColor":"#FF9903","textColor":"#FFFFFF"}]}],"geniusPrice":null,"geniusUnitPricePerLabel":null,"banner":{"text":"Preț avantajos","textColor":"#F95510","bgColor":"#FEF1CD","icon":null,"link":"https://www.freshful.ro/oferte/special-colorare-styling-feb23","type":"promo","analyticsEventType":"select_promotion","analyticsEventPayload":{"promotion_id":"special-colorare-styling-feb23","promotion_name":"Colorare și styling"}},"discountLabel":null,"geniusDiscountLabel":null,"badge":null},{"code":"100109956","variantCode":"9000101256925","name":" Vopsea de păr semi-permanentă Ultra Brights P123 rose gold 65ml","slug":"100109956-schwarzkopf-vopsea-de-par-semi-permanenta-ultra-brights-p123-rose-gold-65ml","unitPriceLabel":"","brand":"Live","brandCode":"2699","brandFilterCode":"live-b2701","sku":"100109956","price":23.99,"originalPrice":null,"currencyCode":"RON","currency":"Lei","image":{"thumbnail":{"default":"https://cdn.freshful.ro/media/cache/sylius_shop_product_thumbnail/57/e4/62647247dc463c00fac214877f5d.jpg"},"large":{"default":"https://cdn.freshful.ro/media/cache/freshful_large/57/e4/62647247dc463c00fac214877f5d.jpg"},"extralarge":{"default":"https://cdn.freshful.ro/media/cache/sylius_shop_product_original/57/e4/62647247dc463c00fac214877f5d.jpg"}},"label":{"text":"Profită acum","backgroundColor":"#FF9903","textColor":"#FFFFFF"},"tags":[],"isAvailable":true,"maxAvailableQuantity":12,"maxAllowedQuantity":100,"breadcrumbs":[{"code":"11","name":"Cosmetice","slug":"11-cosmetice-si-ingrijire-personala"},{"code":"1107","name":"Îngrijirea părului","slug":"1107-ingrijirea-parului"},{"code":"110703","name":"Vopsea pentru păr","slug":"110703-vopsea-pentru-par"},{"code":"100109956","name":" Vopsea de păr semi-permanentă Ultra Brights P123 rose gold 65ml","slug":"100109956-schwarzkopf-vopsea-de-par-semi-permanenta-ultra-brights-p123-rose-gold-65ml"}],"activePromotion":{"code":"special-colorare-styling-feb23","name":"Preț avantajos","targetQuantity":null},"saveMe":null,"labels":[{"type":"v1","items":[{"text":"Profită acum","backgroundColor":"#FF9903","textColor":"#FFFFFF"}]}],"geniusPrice":null,"geniusUnitPricePerLabel":null,"banner":{"text":"Preț avantajos","textColor":"#F95510","bgColor":"#FEF1CD","icon":null,"link":"https://www.freshful.ro/oferte/special-colorare-styling-feb23","type":"promo","analyticsEventType":"select_promotion","analyticsEventPayload":{"promotion_id":"special-colorare-styling-feb23","promotion_name":"Colorare și styling"}},"discountLabel":null,"geniusDiscountLabel":null,"badge":null},{"code":"100110164","variantCode":"3838824159256","name":"Vopsea de păr permanentă Intensive Color Cream E20 blond foarte deschis 110ml","slug":"100110164-schwarzkopf-vopsea-de-par-permanenta-intensive-color-cream-e20-blond-foarte-deschis-110ml","unitPriceLabel":"","brand":"Palette Intensive","brandCode":"2701","brandFilterCode":"palette-intensive-b2704","sku":"100110164","price":10.99,"originalPrice":null,"currencyCode":"RON","currency":"Lei","image":{"thumbnail":{"default":"https://cdn.freshful.ro/media/cache/sylius_shop_product_thumbnail/e6/fd/3d32a7b40c26cd80c1bb6b778b26.jpg"},"large":{"default":"https://cdn.freshful.ro/media/cache/freshful_large/e6/fd/3d32a7b40c26cd80c1bb6b778b26.jpg"},"extralarge":{"default":"https://cdn.freshful.ro/media/cache/sylius_shop_product_original/e6/fd/3d32a7b40c26cd80c1bb6b778b26.jpg"}},"label":{"text":"Profită acum","backgroundColor":"#FF9903","textColor":"#FFFFFF"},"tags":[],"isAvailable":true,"maxAvailableQuantity":16,"maxAllowedQuantity":100,"breadcrumbs":[{"code":"11","name":"Cosmetice","slug":"11-cosmetice-si-ingrijire-personala"},{"code":"1107","name":"Îngrijirea părului","slug":"1107-ingrijirea-parului"},{"code":"110703","name":"Vopsea pentru păr","slug":"110703-vopsea-pentru-par"},{"code":"100110164","name":"Vopsea de păr permanentă Intensive Color Cream E20 blond foarte deschis 110ml","slug":"100110164-schwarzkopf-vopsea-de-par-permanenta-intensive-color-cream-e20-blond-foarte-deschis-110ml"}],"activePromotion":{"code":"special-colorare-styling-feb23","name":"Preț avantajos","targetQuantity":null},"saveMe":null,"labels":[{"type":"v1","items":[{"text":"Profită acum","backgroundColor":"#FF9903","textColor":"#FFFFFF"}]}],"geniusPrice":null,"geniusUnitPricePerLabel":null,"banner":{"text":"Preț avantajos","textColor":"#F95510","bgColor":"#FEF1CD","icon":null,"link":"https://www.freshful.ro/oferte/special-colorare-styling-feb23","type":"promo","analyticsEventType":"select_promotion","analyticsEventPayload":{"promotion_id":"special-colorare-styling-feb23","promotion_name":"Colorare și styling"}},"discountLabel":null,"geniusDiscountLabel":null,"badge":null},{"code":"100110165","variantCode":"9000101003314","name":"Vopsea de păr permanentă Intensive Color Cream RV6 roșu stacojiu 110ml","slug":"100110165-schwarzkopf-vopsea-de-par-permanenta-intensive-color-cream-rv6-rosu-stacojiu-110ml","unitPriceLabel":"","brand":"Palette Intensive","brandCode":"2701","brandFilterCode":"palette-intensive-b2704","sku":"100110165","price":10.99,"originalPrice":null,"currencyCode":"RON","currency":"Lei","image":{"thumbnail":{"default":"https://cdn.freshful.ro/media/cache/sylius_shop_product_thumbnail/78/8c/18aaaca1254a0467e22a3cf736bf.jpg"},"large":{"default":"https://cdn.freshful.ro/media/cache/freshful_large/78/8c/18aaaca1254a0467e22a3cf736bf.jpg"},"extralarge":{"default":"https://cdn.freshful.ro/media/cache/sylius_shop_product_original/78/8c/18aaaca1254a0467e22a3cf736bf.jpg"}},"label":{"text":"Profită acum","backgroundColor":"#FF9903","textColor":"#FFFFFF"},"tags":[],"isAvailable":true,"maxAvailableQuantity":20,"maxAllowedQuantity":100,"breadcrumbs":[{"code":"11","name":"Cosmetice","slug":"11-cosmetice-si-ingrijire-personala"},{"code":"1107","name":"Îngrijirea părului","slug":"1107-ingrijirea-parului"},{"code":"110703","name":"Vopsea pentru păr","slug":"110703-vopsea-pentru-par"},{"code":"100110165","name":"Vopsea de păr permanentă Intensive Color Cream RV6 roșu stacojiu 110ml","slug":"100110165-schwarzkopf-vopsea-de-par-permanenta-intensive-color-cream-rv6-rosu-stacojiu-110ml"}],"activePromotion":{"code":"special-colorare-styling-feb23","name":"Preț avantajos","targetQuantity":null},"saveMe":null,"labels":[{"type":"v1","items":[{"text":"Profită acum","backgroundColor":"#FF9903","textColor":"#FFFFFF"}]}],"geniusPrice":null,"geniusUnitPricePerLabel":null,"banner":{"text":"Preț avantajos","textColor":"#F95510","bgColor":"#FEF1CD","icon":null,"link":"https://www.freshful.ro/oferte/special-colorare-styling-feb23","type":"promo","analyticsEventType":"select_promotion","analyticsEventPayload":{"promotion_id":"special-colorare-styling-feb23","promotion_name":"Colorare și styling"}},"discountLabel":null,"geniusDiscountLabel":null,"badge":null},{"code":"100109938","variantCode":"9000101624274","name":"Vopsea de păr permanentă Intense Colour 035 roșu aprins 142.5 ml","slug":"100109938-schwarzkopf-vopsea-de-par-permanenta-intense-colour-035-rosu-aprins-142-5-ml","unitPriceLabel":"","brand":"Live","brandCode":"2699","brandFilterCode":"live-b2701","sku":"100109938","price":23.99,"originalPrice":null,"currencyCode":"RON","currency":"Lei","image":{"thumbnail":{"default":"https://cdn.freshful.ro/media/cache/sylius_shop_product_thumbnail/d3/50/468205dcb0ed6db9b04da5fa9bf9.jpg"},"large":{"default":"https://cdn.freshful.ro/media/cache/freshful_large/d3/50/468205dcb0ed6db9b04da5fa9bf9.jpg"},"extralarge":{"default":"https://cdn.freshful.ro/media/cache/sylius_shop_product_original/d3/50/468205dcb0ed6db9b04da5fa9bf9.jpg"}},"label":{"text":"Profită acum","backgroundColor":"#FF9903","textColor":"#FFFFFF"},"tags":[],"isAvailable":true,"maxAvailableQuantity":11,"maxAllowedQuantity":100,"breadcrumbs":[{"code":"11","name":"Cosmetice","slug":"11-cosmetice-si-ingrijire-personala"},{"code":"1107","name":"Îngrijirea părului","slug":"1107-ingrijirea-parului"},{"code":"110703","name":"Vopsea pentru păr","slug":"110703-vopsea-pentru-par"},{"code":"100109938","name":"Vopsea de păr permanentă Intense Colour 035 roșu aprins 142.5 ml","slug":"100109938-schwarzkopf-vopsea-de-par-permanenta-intense-colour-035-rosu-aprins-142-5-ml"}],"activePromotion":{"code":"special-colorare-styling-feb23","name":"Preț avantajos","targetQuantity":null},"saveMe":null,"labels":[{"type":"v1","items":[{"text":"Profită acum","backgroundColor":"#FF9903","textColor":"#FFFFFF"}]}],"geniusPrice":null,"geniusUnitPricePerLabel":null,"banner":{"text":"Preț avantajos","textColor":"#F95510","bgColor":"#FEF1CD","icon":null,"link":"https://www.freshful.ro/oferte/special-colorare-styling-feb23","type":"promo","analyticsEventType":"select_promotion","analyticsEventPayload":{"promotion_id":"special-colorare-styling-feb23","promotion_name":"Colorare și styling"}},"discountLabel":null,"geniusDiscountLabel":null,"badge":null}],"filters":{"countSelected":0,"items":[{"code":"promotion","name":"Promoții","countSelected":0,"values":[{"code":"special-colorare-styling-feb23","name":"Colorare și styling","isSelected":false,"count":63}]},{"code":"brand","name":"Brand","countSelected":0,"values":[{"code":"cameleo-b344","name":"Cameleo","isSelected":false,"count":6},{"code":"excellence-b1991","name":"Excellence","isSelected":false,"count":25},{"code":"garnier-olia-b1988","name":"Garnier Olia","isSelected":false,"count":21},{"code":"gliss-b1760","name":"Gliss","isSelected":false,"count":15},{"code":"live-b2701","name":"Live","isSelected":false,"count":22},{"code":"loncolor-b1009","name":"Loncolor","isSelected":false,"count":73},{"code":"magic-retouch-b1987","name":"Magic Retouch","isSelected":false,"count":5},{"code":"palette-deluxe-b2703","name":"Palette Deluxe","isSelected":false,"count":8},{"code":"palette-intensive-b2704","name":"Palette Intensive","isSelected":false,"count":20},{"code":"petrole-hahn-b345","name":"Pétrole Hahn","isSelected":false,"count":2},{"code":"schwarzkopf-b1762","name":"Schwarzkopf","isSelected":false,"count":9},{"code":"syoss-b1765","name":"Syoss","isSelected":false,"count":34}]}]},"orderBy":[{"field":"price","direction":"asc","name":"Preț crescător","isSelected":false},{"field":"price","direction":"desc","name":"Preț descrescător","isSelected":false},{"field":"popularity","direction":"desc","name":"Cele mai populare","isSelected":true},{"field":"category","direction":"asc","name":"Categorie","isSelected":false}],"metaTitle":"Vopsea pentru păr - Gamă variată","metaDescription":"Vrei Vopsea pentru păr? Alege dintr-o gamă variată. Comanzi simplu și ai livrare rapidă, calitate și prospețime. Hai pe Freshful.ro","metaKeywords":null,"banners":[]}}