{"type":"subcategory","payload":{"analyticsListId":"category_1108-igienta-inima","analyticsListName":"Category - Igienă intimă","name":"Igienă intimă","slug":"1108-igienta-inima","image":null,"breadcrumbs":[{"code":"11","name":"Cosmetice","slug":"11-cosmetice-si-ingrijire-personala"},{"code":"1108","name":"Igienă intimă","slug":"1108-igienta-inima"}],"slots":[],"page":1,"limit":10,"pages":19,"count":189,"siblings":[{"name":"Deodorante și parfumuri","slug":"1101-deodorante-si-parfumuri","selected":false},{"name":"Bărbierit și îngrijire ten","slug":"1102-produse-pentru-barbierit-si-ingrijit-ten","selected":false},{"name":"Demachiante și creme","slug":"1103-creme-intretinere-si-demachiante","selected":false},{"name":"Protecție solară","slug":"1104-produse-cu-protectie-solara","selected":false},{"name":"Ceară, benzi și creme depilatoare","slug":"1105-ceara-benzi-si-creme-depliatoare","selected":false},{"name":"Seturi cadou","slug":"1106-seturi-cadou","selected":false},{"name":"Îngrijirea părului","slug":"1107-ingrijirea-parului","selected":false},{"name":"Igienă intimă","slug":"1108-igienta-inima","selected":true},{"name":"Igienă dentară","slug":"1109-igiena-dentara","selected":false},{"name":"Săpunuri și geluri de duș","slug":"1110-sapunuri-si-geluri-de-dus","selected":false},{"name":"Dermatocosmetice și parafarmacie","slug":"1111-dermatocosmetice-si-parafarmacie","selected":false},{"name":"Repelent","slug":"repelent","selected":false}],"children":[{"name":"Toate produsele","slug":"1108-igienta-inima","selected":true},{"name":"Absorbante adulți","slug":"110801-absorbante-adulti","selected":false},{"name":"Igienă feminină","slug":"110802-igiena-feminina","selected":false},{"name":"Protecție sexuală","slug":"110803-protectie-sexuala","selected":false}],"products":[{"code":"100091470","variantCode":"100091470","name":"Absorbante Cotton protection ultra normal 22 buc","slug":"100091470-always-absorbante-cotton-protection-ultra-normal-22-buc","unitPriceLabel":"","brand":"Always","brandCode":"669","brandFilterCode":"always-b670","sku":"100091470","price":22.99,"originalPrice":26.5,"currencyCode":"RON","currency":"Lei","image":{"thumbnail":{"default":"https://cdn.freshful.ro/media/cache/sylius_shop_product_thumbnail/30/a5/41ddb22f96f5a5d13032bc235a57.jpg"},"large":{"default":"https://cdn.freshful.ro/media/cache/freshful_large/30/a5/41ddb22f96f5a5d13032bc235a57.jpg"},"extralarge":{"default":"https://cdn.freshful.ro/media/cache/sylius_shop_product_original/30/a5/41ddb22f96f5a5d13032bc235a57.jpg"}},"label":{"text":"-13%","backgroundColor":"#FF9903","textColor":"#FFFFFF"},"tags":[],"isAvailable":true,"maxAvailableQuantity":100,"maxAllowedQuantity":100,"breadcrumbs":[{"code":"11","name":"Cosmetice","slug":"11-cosmetice-si-ingrijire-personala"},{"code":"1108","name":"Igienă intimă","slug":"1108-igienta-inima"},{"code":"110802","name":"Igienă feminină","slug":"110802-igiena-feminina"},{"code":"100091470","name":"Absorbante Cotton protection ultra normal 22 buc","slug":"100091470-always-absorbante-cotton-protection-ultra-normal-22-buc"}],"activePromotion":{"code":"oferte-dph-21feb-8mar23","name":"Preț redus","targetQuantity":null},"saveMe":null,"labels":[{"type":"v1","items":[{"text":"-13%","backgroundColor":"#FF9903","textColor":"#FFFFFF"}]}],"geniusPrice":null,"geniusUnitPricePerLabel":null,"banner":{"text":"Super preț","textColor":"#FF0000","bgColor":"#FFF2EC","icon":null,"link":"https://www.freshful.ro/oferte/oferte-dph-21feb-8mar23","type":"promo","analyticsEventType":"select_promotion","analyticsEventPayload":{"promotion_id":"oferte-dph-21feb-8mar23","promotion_name":"Curățenie și îngrijire personală"}},"discountLabel":"Economisești 13%","geniusDiscountLabel":null,"badge":null},{"code":"100118771","variantCode":"100118771","name":"Absorbante zilice Fresh & Protect Normal 60 buc","slug":"100118771-always-absorbante-zilice-fresh-protect-normal-60-buc","unitPriceLabel":"","brand":"Always","brandCode":"669","brandFilterCode":"always-b670","sku":"100118771","price":17.99,"originalPrice":32.69,"currencyCode":"RON","currency":"Lei","image":{"thumbnail":{"default":"https://cdn.freshful.ro/media/cache/sylius_shop_product_thumbnail/97/25/97fe03432750949ca9bb393e1e0b.jpg"},"large":{"default":"https://cdn.freshful.ro/media/cache/freshful_large/97/25/97fe03432750949ca9bb393e1e0b.jpg"},"extralarge":{"default":"https://cdn.freshful.ro/media/cache/sylius_shop_product_original/97/25/97fe03432750949ca9bb393e1e0b.jpg"}},"label":{"text":"-44%","backgroundColor":"#FF9903","textColor":"#FFFFFF"},"tags":[],"isAvailable":true,"maxAvailableQuantity":66,"maxAllowedQuantity":100,"breadcrumbs":[{"code":"11","name":"Cosmetice","slug":"11-cosmetice-si-ingrijire-personala"},{"code":"1108","name":"Igienă intimă","slug":"1108-igienta-inima"},{"code":"110802","name":"Igienă feminină","slug":"110802-igiena-feminina"},{"code":"100118771","name":"Absorbante zilice Fresh & Protect Normal 60 buc","slug":"100118771-always-absorbante-zilice-fresh-protect-normal-60-buc"}],"activePromotion":{"code":"oferte-dph-21feb-8mar23","name":"Preț redus","targetQuantity":null},"saveMe":null,"labels":[{"type":"v1","items":[{"text":"-44%","backgroundColor":"#FF9903","textColor":"#FFFFFF"}]}],"geniusPrice":null,"geniusUnitPricePerLabel":null,"banner":{"text":"Super preț","textColor":"#FF0000","bgColor":"#FFF2EC","icon":null,"link":"https://www.freshful.ro/oferte/oferte-dph-21feb-8mar23","type":"promo","analyticsEventType":"select_promotion","analyticsEventPayload":{"promotion_id":"oferte-dph-21feb-8mar23","promotion_name":"Curățenie și îngrijire personală"}},"discountLabel":"Economisești 44%","geniusDiscountLabel":null,"badge":null},{"code":"100091466","variantCode":"100091466","name":"Absorbante Platinum super 14 buc","slug":"100091466-always-absorbante-platinum-super-14-buc","unitPriceLabel":"","brand":"Always","brandCode":"669","brandFilterCode":"always-b670","sku":"100091466","price":16.99,"originalPrice":null,"currencyCode":"RON","currency":"Lei","image":{"thumbnail":{"default":"https://cdn.freshful.ro/media/cache/sylius_shop_product_thumbnail/e1/a7/12633030cb8d5cf44525ea82b90d.jpg"},"large":{"default":"https://cdn.freshful.ro/media/cache/freshful_large/e1/a7/12633030cb8d5cf44525ea82b90d.jpg"},"extralarge":{"default":"https://cdn.freshful.ro/media/cache/sylius_shop_product_original/e1/a7/12633030cb8d5cf44525ea82b90d.jpg"}},"label":{"text":"Profită acum","backgroundColor":"#FF9903","textColor":"#FFFFFF"},"tags":[],"isAvailable":true,"maxAvailableQuantity":55,"maxAllowedQuantity":100,"breadcrumbs":[{"code":"11","name":"Cosmetice","slug":"11-cosmetice-si-ingrijire-personala"},{"code":"1108","name":"Igienă intimă","slug":"1108-igienta-inima"},{"code":"110802","name":"Igienă feminină","slug":"110802-igiena-feminina"},{"code":"100091466","name":"Absorbante Platinum super 14 buc","slug":"100091466-always-absorbante-platinum-super-14-buc"}],"activePromotion":{"code":"oferte-dph-21feb-8mar23","name":"Preț avantajos","targetQuantity":null},"saveMe":null,"labels":[{"type":"v1","items":[{"text":"Profită acum","backgroundColor":"#FF9903","textColor":"#FFFFFF"}]}],"geniusPrice":null,"geniusUnitPricePerLabel":null,"banner":{"text":"Preț avantajos","textColor":"#F95510","bgColor":"#FEF1CD","icon":null,"link":"https://www.freshful.ro/oferte/oferte-dph-21feb-8mar23","type":"promo","analyticsEventType":"select_promotion","analyticsEventPayload":{"promotion_id":"oferte-dph-21feb-8mar23","promotion_name":"Curățenie și îngrijire personală"}},"discountLabel":null,"geniusDiscountLabel":null,"badge":null},{"code":"100091582","variantCode":"100091582","name":"Absorbante zilnice Spring breeze 100 buc","slug":"100091582-discreet-absorbante-zilnice-spring-breeze-100-buc","unitPriceLabel":"","brand":"Discreet","brandCode":"668","brandFilterCode":"discreet-b669","sku":"100091582","price":21.99,"originalPrice":null,"currencyCode":"RON","currency":"Lei","image":{"thumbnail":{"default":"https://cdn.freshful.ro/media/cache/sylius_shop_product_thumbnail/a3/79/054e32fe1d08bb77865cab85625f.jpg"},"large":{"default":"https://cdn.freshful.ro/media/cache/freshful_large/a3/79/054e32fe1d08bb77865cab85625f.jpg"},"extralarge":{"default":"https://cdn.freshful.ro/media/cache/sylius_shop_product_original/a3/79/054e32fe1d08bb77865cab85625f.jpg"}},"label":{"text":"Profită acum","backgroundColor":"#FF9903","textColor":"#FFFFFF"},"tags":[],"isAvailable":true,"maxAvailableQuantity":27,"maxAllowedQuantity":100,"breadcrumbs":[{"code":"11","name":"Cosmetice","slug":"11-cosmetice-si-ingrijire-personala"},{"code":"1108","name":"Igienă intimă","slug":"1108-igienta-inima"},{"code":"110802","name":"Igienă feminină","slug":"110802-igiena-feminina"},{"code":"100091582","name":"Absorbante zilnice Spring breeze 100 buc","slug":"100091582-discreet-absorbante-zilnice-spring-breeze-100-buc"}],"activePromotion":{"code":"oferte-dph-21feb-8mar23","name":"Preț avantajos","targetQuantity":null},"saveMe":null,"labels":[{"type":"v1","items":[{"text":"Profită acum","backgroundColor":"#FF9903","textColor":"#FFFFFF"}]}],"geniusPrice":null,"geniusUnitPricePerLabel":null,"banner":{"text":"Preț avantajos","textColor":"#F95510","bgColor":"#FEF1CD","icon":null,"link":"https://www.freshful.ro/oferte/oferte-dph-21feb-8mar23","type":"promo","analyticsEventType":"select_promotion","analyticsEventPayload":{"promotion_id":"oferte-dph-21feb-8mar23","promotion_name":"Curățenie și îngrijire personală"}},"discountLabel":null,"geniusDiscountLabel":null,"badge":null},{"code":"100118766","variantCode":"100118766","name":"Tampoane interne Regular 16 buc","slug":"100118766-tampax-tampoane-interne-regular-16-buc","unitPriceLabel":"","brand":"Tampax","brandCode":"2484","brandFilterCode":"tampax-b2488","sku":"100118766","price":14.99,"originalPrice":15.9,"currencyCode":"RON","currency":"Lei","image":{"thumbnail":{"default":"https://cdn.freshful.ro/media/cache/sylius_shop_product_thumbnail/d4/75/7a863d6d5aedb82782c013aa7f39.jpg"},"large":{"default":"https://cdn.freshful.ro/media/cache/freshful_large/d4/75/7a863d6d5aedb82782c013aa7f39.jpg"},"extralarge":{"default":"https://cdn.freshful.ro/media/cache/sylius_shop_product_original/d4/75/7a863d6d5aedb82782c013aa7f39.jpg"}},"label":{"text":"-5%","backgroundColor":"#FF9903","textColor":"#FFFFFF"},"tags":[],"isAvailable":true,"maxAvailableQuantity":35,"maxAllowedQuantity":100,"breadcrumbs":[{"code":"11","name":"Cosmetice","slug":"11-cosmetice-si-ingrijire-personala"},{"code":"1108","name":"Igienă intimă","slug":"1108-igienta-inima"},{"code":"110802","name":"Igienă feminină","slug":"110802-igiena-feminina"},{"code":"100118766","name":"Tampoane interne Regular 16 buc","slug":"100118766-tampax-tampoane-interne-regular-16-buc"}],"activePromotion":{"code":"oferte-dph-21feb-8mar23","name":"Preț redus","targetQuantity":null},"saveMe":null,"labels":[{"type":"v1","items":[{"text":"-5%","backgroundColor":"#FF9903","textColor":"#FFFFFF"}]}],"geniusPrice":null,"geniusUnitPricePerLabel":null,"banner":{"text":"Super preț","textColor":"#FF0000","bgColor":"#FFF2EC","icon":null,"link":"https://www.freshful.ro/oferte/oferte-dph-21feb-8mar23","type":"promo","analyticsEventType":"select_promotion","analyticsEventPayload":{"promotion_id":"oferte-dph-21feb-8mar23","promotion_name":"Curățenie și îngrijire personală"}},"discountLabel":"Economisești 5%","geniusDiscountLabel":null,"badge":null},{"code":"100091581","variantCode":"100091581","name":"Absorbante zilnice Waterlilly 100 buc","slug":"100091581-discreet-absorbante-zilnice-waterlilly-100-buc","unitPriceLabel":"","brand":"Discreet","brandCode":"668","brandFilterCode":"discreet-b669","sku":"100091581","price":24.99,"originalPrice":null,"currencyCode":"RON","currency":"Lei","image":{"thumbnail":{"default":"https://cdn.freshful.ro/media/cache/sylius_shop_product_thumbnail/f5/85/17b2990d6edd8be42e091d697acd.jpg"},"large":{"default":"https://cdn.freshful.ro/media/cache/freshful_large/f5/85/17b2990d6edd8be42e091d697acd.jpg"},"extralarge":{"default":"https://cdn.freshful.ro/media/cache/sylius_shop_product_original/f5/85/17b2990d6edd8be42e091d697acd.jpg"}},"label":null,"tags":[],"isAvailable":true,"maxAvailableQuantity":100,"maxAllowedQuantity":100,"breadcrumbs":[{"code":"11","name":"Cosmetice","slug":"11-cosmetice-si-ingrijire-personala"},{"code":"1108","name":"Igienă intimă","slug":"1108-igienta-inima"},{"code":"110802","name":"Igienă feminină","slug":"110802-igiena-feminina"},{"code":"100091581","name":"Absorbante zilnice Waterlilly 100 buc","slug":"100091581-discreet-absorbante-zilnice-waterlilly-100-buc"}],"activePromotion":null,"saveMe":null,"labels":[],"geniusPrice":null,"geniusUnitPricePerLabel":null,"banner":null,"discountLabel":null,"geniusDiscountLabel":null,"badge":null},{"code":"100091454","variantCode":"100091454","name":"Absorbante Ultra normal 20 buc","slug":"100091454-always-absorbante-ultra-normal-20-buc","unitPriceLabel":"","brand":"Always","brandCode":"669","brandFilterCode":"always-b670","sku":"100091454","price":18.9,"originalPrice":null,"currencyCode":"RON","currency":"Lei","image":{"thumbnail":{"default":"https://cdn.freshful.ro/media/cache/sylius_shop_product_thumbnail/79/6b/10271f5ea7ecb3a413e0be652438.jpg"},"large":{"default":"https://cdn.freshful.ro/media/cache/freshful_large/79/6b/10271f5ea7ecb3a413e0be652438.jpg"},"extralarge":{"default":"https://cdn.freshful.ro/media/cache/sylius_shop_product_original/79/6b/10271f5ea7ecb3a413e0be652438.jpg"}},"label":null,"tags":[],"isAvailable":true,"maxAvailableQuantity":100,"maxAllowedQuantity":100,"breadcrumbs":[{"code":"11","name":"Cosmetice","slug":"11-cosmetice-si-ingrijire-personala"},{"code":"1108","name":"Igienă intimă","slug":"1108-igienta-inima"},{"code":"110802","name":"Igienă feminină","slug":"110802-igiena-feminina"},{"code":"100091454","name":"Absorbante Ultra normal 20 buc","slug":"100091454-always-absorbante-ultra-normal-20-buc"}],"activePromotion":null,"saveMe":null,"labels":[],"geniusPrice":null,"geniusUnitPricePerLabel":null,"banner":null,"discountLabel":null,"geniusDiscountLabel":null,"badge":null},{"code":"100091472","variantCode":"100091472","name":"Absorbante Cotton protection ultra normal 12 buc","slug":"100091472-always-absorbante-cotton-protection-ultra-normal-12-buc","unitPriceLabel":"","brand":"Always","brandCode":"669","brandFilterCode":"always-b670","sku":"100091472","price":16.5,"originalPrice":null,"currencyCode":"RON","currency":"Lei","image":{"thumbnail":{"default":"https://cdn.freshful.ro/media/cache/sylius_shop_product_thumbnail/de/e0/50d19902bbfc33f88a4bf616675f.jpg"},"large":{"default":"https://cdn.freshful.ro/media/cache/freshful_large/de/e0/50d19902bbfc33f88a4bf616675f.jpg"},"extralarge":{"default":"https://cdn.freshful.ro/media/cache/sylius_shop_product_original/de/e0/50d19902bbfc33f88a4bf616675f.jpg"}},"label":null,"tags":[],"isAvailable":true,"maxAvailableQuantity":100,"maxAllowedQuantity":100,"breadcrumbs":[{"code":"11","name":"Cosmetice","slug":"11-cosmetice-si-ingrijire-personala"},{"code":"1108","name":"Igienă intimă","slug":"1108-igienta-inima"},{"code":"110802","name":"Igienă feminină","slug":"110802-igiena-feminina"},{"code":"100091472","name":"Absorbante Cotton protection ultra normal 12 buc","slug":"100091472-always-absorbante-cotton-protection-ultra-normal-12-buc"}],"activePromotion":null,"saveMe":null,"labels":[],"geniusPrice":null,"geniusUnitPricePerLabel":null,"banner":null,"discountLabel":null,"geniusDiscountLabel":null,"badge":null},{"code":"100091467","variantCode":"100091467","name":"Absorbante Platinum night 12 buc","slug":"100091467-always-absorbante-platinum-night-12-buc","unitPriceLabel":"","brand":"Always","brandCode":"669","brandFilterCode":"always-b670","sku":"100091467","price":18.9,"originalPrice":null,"currencyCode":"RON","currency":"Lei","image":{"thumbnail":{"default":"https://cdn.freshful.ro/media/cache/sylius_shop_product_thumbnail/b9/0b/950110aa939dc6d50156bb9c1ea2.jpg"},"large":{"default":"https://cdn.freshful.ro/media/cache/freshful_large/b9/0b/950110aa939dc6d50156bb9c1ea2.jpg"},"extralarge":{"default":"https://cdn.freshful.ro/media/cache/sylius_shop_product_original/b9/0b/950110aa939dc6d50156bb9c1ea2.jpg"}},"label":null,"tags":[],"isAvailable":true,"maxAvailableQuantity":100,"maxAllowedQuantity":100,"breadcrumbs":[{"code":"11","name":"Cosmetice","slug":"11-cosmetice-si-ingrijire-personala"},{"code":"1108","name":"Igienă intimă","slug":"1108-igienta-inima"},{"code":"110802","name":"Igienă feminină","slug":"110802-igiena-feminina"},{"code":"100091467","name":"Absorbante Platinum night 12 buc","slug":"100091467-always-absorbante-platinum-night-12-buc"}],"activePromotion":null,"saveMe":null,"labels":[],"geniusPrice":null,"geniusUnitPricePerLabel":null,"banner":null,"discountLabel":null,"geniusDiscountLabel":null,"badge":null},{"code":"100086100","variantCode":"100086100","name":"Tampoane ProComfort normal 16 buc","slug":"100086100-ob-tampoane-procomfort-normal-16-buc","unitPriceLabel":"","brand":"OB","brandCode":"549","brandFilterCode":"ob-b550","sku":"100086100","price":12.5,"originalPrice":null,"currencyCode":"RON","currency":"Lei","image":{"thumbnail":{"default":"https://cdn.freshful.ro/media/cache/sylius_shop_product_thumbnail/66/67/25f5fd7a68d24556ae30400f152b.jpg"},"large":{"default":"https://cdn.freshful.ro/media/cache/freshful_large/66/67/25f5fd7a68d24556ae30400f152b.jpg"},"extralarge":{"default":"https://cdn.freshful.ro/media/cache/sylius_shop_product_original/66/67/25f5fd7a68d24556ae30400f152b.jpg"}},"label":null,"tags":[],"isAvailable":true,"maxAvailableQuantity":100,"maxAllowedQuantity":100,"breadcrumbs":[{"code":"11","name":"Cosmetice","slug":"11-cosmetice-si-ingrijire-personala"},{"code":"1108","name":"Igienă intimă","slug":"1108-igienta-inima"},{"code":"110802","name":"Igienă feminină","slug":"110802-igiena-feminina"},{"code":"100086100","name":"Tampoane ProComfort normal 16 buc","slug":"100086100-ob-tampoane-procomfort-normal-16-buc"}],"activePromotion":null,"saveMe":null,"labels":[],"geniusPrice":null,"geniusUnitPricePerLabel":null,"banner":null,"discountLabel":null,"geniusDiscountLabel":null,"badge":null}],"filters":{"countSelected":0,"items":[{"code":"promotion","name":"Promoții","countSelected":0,"values":[{"code":"oferte-dph-21feb-8mar23","name":"Curățenie și îngrijire personală","isSelected":false,"count":5}]},{"code":"brand","name":"Brand","countSelected":0,"values":[{"code":"always-b670","name":"Always","isSelected":false,"count":34},{"code":"bella-b322","name":"Bella","isSelected":false,"count":16},{"code":"carefree-b547","name":"Carefree","isSelected":false,"count":7},{"code":"discreet-b669","name":"Discreet","isSelected":false,"count":10},{"code":"expert-wipes-b1639","name":"Expert Wipes","isSelected":false,"count":2},{"code":"intermed-b2347","name":"Intermed","isSelected":false,"count":4},{"code":"intima-plus-b346","name":"Intima Plus","isSelected":false,"count":1},{"code":"kotex-b1695","name":"Kotex","isSelected":false,"count":17},{"code":"lactacyd-b1189","name":"Lactacyd","isSelected":false,"count":5},{"code":"libresse-b375","name":"Libresse","isSelected":false,"count":20},{"code":"lifestyles-b1011","name":"LifeStyles","isSelected":false,"count":8},{"code":"masculan-b1190","name":"Masculan","isSelected":false,"count":6},{"code":"nivea-b317","name":"Nivea","isSelected":false,"count":5},{"code":"ob-b550","name":"OB","isSelected":false,"count":8},{"code":"ritex-b360","name":"Ritex","isSelected":false,"count":4},{"code":"seni-b325","name":"Seni","isSelected":false,"count":16},{"code":"skyn-b1010","name":"Skyn","isSelected":false,"count":5},{"code":"synek-b1687","name":"Synek","isSelected":false,"count":1},{"code":"tampax-b2488","name":"Tampax","isSelected":false,"count":3},{"code":"tena-b374","name":"Tena","isSelected":false,"count":17}]},{"code":"diet_lifestyle","name":"Dietă și lifestyle","countSelected":0,"values":[{"code":"bio-a26","name":"Bio","isSelected":false,"count":1}]}]},"orderBy":[{"field":"price","direction":"asc","name":"Preț crescător","isSelected":false},{"field":"price","direction":"desc","name":"Preț descrescător","isSelected":false},{"field":"popularity","direction":"desc","name":"Cele mai populare","isSelected":true},{"field":"category","direction":"asc","name":"Categorie","isSelected":false}],"metaTitle":"Igienă intimă - Gamă variată","metaDescription":"Vrei Igienă intimă? Alege dintr-o gamă variată. Comanzi simplu și ai livrare rapidă, calitate și prospețime. Hai pe Freshful.ro","metaKeywords":null,"banners":[]}}