{"type":"subcategory","payload":{"analyticsListId":"category_110803-protectie-sexuala","analyticsListName":"Category - Protecție sexuală","name":"Protecție sexuală","slug":"110803-protectie-sexuala","image":null,"breadcrumbs":[{"code":"11","name":"Cosmetice","slug":"11-cosmetice-si-ingrijire-personala"},{"code":"1108","name":"Igienă intimă","slug":"1108-igienta-inima"},{"code":"110803","name":"Protecție sexuală","slug":"110803-protectie-sexuala"}],"slots":[],"page":1,"limit":10,"pages":3,"count":23,"siblings":[{"name":"Deodorante și parfumuri","slug":"1101-deodorante-si-parfumuri","selected":false},{"name":"Bărbierit și îngrijire ten","slug":"1102-produse-pentru-barbierit-si-ingrijit-ten","selected":false},{"name":"Demachiante și creme","slug":"1103-creme-intretinere-si-demachiante","selected":false},{"name":"Protecție solară","slug":"1104-produse-cu-protectie-solara","selected":false},{"name":"Ceară, benzi și creme depilatoare","slug":"1105-ceara-benzi-si-creme-depliatoare","selected":false},{"name":"Seturi cadou","slug":"1106-seturi-cadou","selected":false},{"name":"Îngrijirea părului","slug":"1107-ingrijirea-parului","selected":false},{"name":"Igienă intimă","slug":"1108-igienta-inima","selected":true},{"name":"Igienă dentară","slug":"1109-igiena-dentara","selected":false},{"name":"Săpunuri și geluri de duș","slug":"1110-sapunuri-si-geluri-de-dus","selected":false},{"name":"Dermatocosmetice și parafarmacie","slug":"1111-dermatocosmetice-si-parafarmacie","selected":false},{"name":"Repelent","slug":"repelent","selected":false}],"children":[{"name":"Toate produsele","slug":"1108-igienta-inima","selected":false},{"name":"Absorbante adulți","slug":"110801-absorbante-adulti","selected":false},{"name":"Igienă feminină","slug":"110802-igiena-feminina","selected":false},{"name":"Protecție sexuală","slug":"110803-protectie-sexuala","selected":true}],"products":[{"code":"100067259","variantCode":"100067259","name":"Gel lubrifiant Hydro Sensitive 50ml","slug":"100067259-ritex-gel-lubrifiant-hydro-sensitive-50ml","unitPriceLabel":"","brand":"Ritex","brandCode":"359","brandFilterCode":"ritex-b360","sku":"100067259","price":28.99,"originalPrice":null,"currencyCode":"RON","currency":"Lei","image":{"thumbnail":{"default":"https://cdn.freshful.ro/media/cache/sylius_shop_product_thumbnail/67/96/80cfe640b1bfe7cefdb65fbdfed8.jpg"},"large":{"default":"https://cdn.freshful.ro/media/cache/freshful_large/67/96/80cfe640b1bfe7cefdb65fbdfed8.jpg"},"extralarge":{"default":"https://cdn.freshful.ro/media/cache/sylius_shop_product_original/67/96/80cfe640b1bfe7cefdb65fbdfed8.jpg"}},"label":null,"tags":[],"isAvailable":true,"maxAvailableQuantity":22,"maxAllowedQuantity":100,"breadcrumbs":[{"code":"11","name":"Cosmetice","slug":"11-cosmetice-si-ingrijire-personala"},{"code":"1108","name":"Igienă intimă","slug":"1108-igienta-inima"},{"code":"110803","name":"Protecție sexuală","slug":"110803-protectie-sexuala"},{"code":"100067259","name":"Gel lubrifiant Hydro Sensitive 50ml","slug":"100067259-ritex-gel-lubrifiant-hydro-sensitive-50ml"}],"activePromotion":null,"saveMe":null,"labels":[],"geniusPrice":null,"geniusUnitPricePerLabel":null,"banner":null,"discountLabel":null,"geniusDiscountLabel":null,"badge":null},{"code":"100064010","variantCode":"100064010","name":"Prezervative Elite 3 buc","slug":"100064010-skyn-prezervative-elite-3-buc","unitPriceLabel":"","brand":"Skyn","brandCode":"996","brandFilterCode":"skyn-b1010","sku":"100064010","price":15.79,"originalPrice":null,"currencyCode":"RON","currency":"Lei","image":{"thumbnail":{"default":"https://cdn.freshful.ro/media/cache/sylius_shop_product_thumbnail/7c/2f/bab2689d685f7d08dd6755718d6d.jpg"},"large":{"default":"https://cdn.freshful.ro/media/cache/freshful_large/7c/2f/bab2689d685f7d08dd6755718d6d.jpg"},"extralarge":{"default":"https://cdn.freshful.ro/media/cache/sylius_shop_product_original/7c/2f/bab2689d685f7d08dd6755718d6d.jpg"}},"label":null,"tags":[],"isAvailable":true,"maxAvailableQuantity":7,"maxAllowedQuantity":100,"breadcrumbs":[{"code":"11","name":"Cosmetice","slug":"11-cosmetice-si-ingrijire-personala"},{"code":"1108","name":"Igienă intimă","slug":"1108-igienta-inima"},{"code":"110803","name":"Protecție sexuală","slug":"110803-protectie-sexuala"},{"code":"100064010","name":"Prezervative Elite 3 buc","slug":"100064010-skyn-prezervative-elite-3-buc"}],"activePromotion":null,"saveMe":null,"labels":[],"geniusPrice":null,"geniusUnitPricePerLabel":null,"banner":null,"discountLabel":null,"geniusDiscountLabel":null,"badge":null},{"code":"100064019","variantCode":"100064019","name":"Prezervative UltraThin Sensitive 16 buc","slug":"100064019-lifestyles-prezervative-ultrathin-sensitive-16-buc","unitPriceLabel":"","brand":"LifeStyles","brandCode":"997","brandFilterCode":"lifestyles-b1011","sku":"100064019","price":29.29,"originalPrice":null,"currencyCode":"RON","currency":"Lei","image":{"thumbnail":{"default":"https://cdn.freshful.ro/media/cache/sylius_shop_product_thumbnail/f7/fb/4fabe65085ef020c3528ccb1c9d0.jpg"},"large":{"default":"https://cdn.freshful.ro/media/cache/freshful_large/f7/fb/4fabe65085ef020c3528ccb1c9d0.jpg"},"extralarge":{"default":"https://cdn.freshful.ro/media/cache/sylius_shop_product_original/f7/fb/4fabe65085ef020c3528ccb1c9d0.jpg"}},"label":null,"tags":[],"isAvailable":true,"maxAvailableQuantity":7,"maxAllowedQuantity":100,"breadcrumbs":[{"code":"11","name":"Cosmetice","slug":"11-cosmetice-si-ingrijire-personala"},{"code":"1108","name":"Igienă intimă","slug":"1108-igienta-inima"},{"code":"110803","name":"Protecție sexuală","slug":"110803-protectie-sexuala"},{"code":"100064019","name":"Prezervative UltraThin Sensitive 16 buc","slug":"100064019-lifestyles-prezervative-ultrathin-sensitive-16-buc"}],"activePromotion":null,"saveMe":null,"labels":[],"geniusPrice":null,"geniusUnitPricePerLabel":null,"banner":null,"discountLabel":null,"geniusDiscountLabel":null,"badge":null},{"code":"100074286","variantCode":"100074286","name":"Prezervative Sensitive 3 buc","slug":"100074286-masculan-prezervative-sensitive-3-buc","unitPriceLabel":"","brand":"Masculan","brandCode":"1189","brandFilterCode":"masculan-b1190","sku":"100074286","price":10.99,"originalPrice":null,"currencyCode":"RON","currency":"Lei","image":{"thumbnail":{"default":"https://cdn.freshful.ro/media/cache/sylius_shop_product_thumbnail/db/8d/cd9b136a6474b7a2d43a42f5cdc9.jpg"},"large":{"default":"https://cdn.freshful.ro/media/cache/freshful_large/db/8d/cd9b136a6474b7a2d43a42f5cdc9.jpg"},"extralarge":{"default":"https://cdn.freshful.ro/media/cache/sylius_shop_product_original/db/8d/cd9b136a6474b7a2d43a42f5cdc9.jpg"}},"label":null,"tags":[],"isAvailable":true,"maxAvailableQuantity":52,"maxAllowedQuantity":100,"breadcrumbs":[{"code":"11","name":"Cosmetice","slug":"11-cosmetice-si-ingrijire-personala"},{"code":"1108","name":"Igienă intimă","slug":"1108-igienta-inima"},{"code":"110803","name":"Protecție sexuală","slug":"110803-protectie-sexuala"},{"code":"100074286","name":"Prezervative Sensitive 3 buc","slug":"100074286-masculan-prezervative-sensitive-3-buc"}],"activePromotion":null,"saveMe":null,"labels":[],"geniusPrice":null,"geniusUnitPricePerLabel":null,"banner":null,"discountLabel":null,"geniusDiscountLabel":null,"badge":null},{"code":"100074289","variantCode":"100074289","name":"Prezervative Anatomic 3 buc","slug":"100074289-masculan-prezervative-anatomic-3-buc","unitPriceLabel":"","brand":"Masculan","brandCode":"1189","brandFilterCode":"masculan-b1190","sku":"100074289","price":11.99,"originalPrice":null,"currencyCode":"RON","currency":"Lei","image":{"thumbnail":{"default":"https://cdn.freshful.ro/media/cache/sylius_shop_product_thumbnail/2e/a3/da8e974d6e1a27e6a40c1961a868.jpg"},"large":{"default":"https://cdn.freshful.ro/media/cache/freshful_large/2e/a3/da8e974d6e1a27e6a40c1961a868.jpg"},"extralarge":{"default":"https://cdn.freshful.ro/media/cache/sylius_shop_product_original/2e/a3/da8e974d6e1a27e6a40c1961a868.jpg"}},"label":null,"tags":[],"isAvailable":true,"maxAvailableQuantity":46,"maxAllowedQuantity":100,"breadcrumbs":[{"code":"11","name":"Cosmetice","slug":"11-cosmetice-si-ingrijire-personala"},{"code":"1108","name":"Igienă intimă","slug":"1108-igienta-inima"},{"code":"110803","name":"Protecție sexuală","slug":"110803-protectie-sexuala"},{"code":"100074289","name":"Prezervative Anatomic 3 buc","slug":"100074289-masculan-prezervative-anatomic-3-buc"}],"activePromotion":null,"saveMe":null,"labels":[],"geniusPrice":null,"geniusUnitPricePerLabel":null,"banner":null,"discountLabel":null,"geniusDiscountLabel":null,"badge":null},{"code":"100067251","variantCode":"4001669183246","name":"Prezervative Lust 3 buc","slug":"100067251-ritex-prezervative-lust-3-buc","unitPriceLabel":"","brand":"Ritex","brandCode":"359","brandFilterCode":"ritex-b360","sku":"100067251","price":12.19,"originalPrice":null,"currencyCode":"RON","currency":"Lei","image":{"thumbnail":{"default":"https://cdn.freshful.ro/media/cache/sylius_shop_product_thumbnail/75/45/363d5e62762043474aa46bacae07.jpg"},"large":{"default":"https://cdn.freshful.ro/media/cache/freshful_large/75/45/363d5e62762043474aa46bacae07.jpg"},"extralarge":{"default":"https://cdn.freshful.ro/media/cache/sylius_shop_product_original/75/45/363d5e62762043474aa46bacae07.jpg"}},"label":null,"tags":[],"isAvailable":true,"maxAvailableQuantity":18,"maxAllowedQuantity":100,"breadcrumbs":[{"code":"11","name":"Cosmetice","slug":"11-cosmetice-si-ingrijire-personala"},{"code":"1108","name":"Igienă intimă","slug":"1108-igienta-inima"},{"code":"110803","name":"Protecție sexuală","slug":"110803-protectie-sexuala"},{"code":"100067251","name":"Prezervative Lust 3 buc","slug":"100067251-ritex-prezervative-lust-3-buc"}],"activePromotion":null,"saveMe":null,"labels":[],"geniusPrice":null,"geniusUnitPricePerLabel":null,"banner":null,"discountLabel":null,"geniusDiscountLabel":null,"badge":null},{"code":"100074288","variantCode":"100074288","name":"Prezervative Gold 3 buc","slug":"100074288-masculan-prezervative-gold-3-buc","unitPriceLabel":"","brand":"Masculan","brandCode":"1189","brandFilterCode":"masculan-b1190","sku":"100074288","price":11.99,"originalPrice":null,"currencyCode":"RON","currency":"Lei","image":{"thumbnail":{"default":"https://cdn.freshful.ro/media/cache/sylius_shop_product_thumbnail/9d/ab/72d231eabf3260d5fba4a434938a.jpg"},"large":{"default":"https://cdn.freshful.ro/media/cache/freshful_large/9d/ab/72d231eabf3260d5fba4a434938a.jpg"},"extralarge":{"default":"https://cdn.freshful.ro/media/cache/sylius_shop_product_original/9d/ab/72d231eabf3260d5fba4a434938a.jpg"}},"label":null,"tags":[],"isAvailable":true,"maxAvailableQuantity":19,"maxAllowedQuantity":100,"breadcrumbs":[{"code":"11","name":"Cosmetice","slug":"11-cosmetice-si-ingrijire-personala"},{"code":"1108","name":"Igienă intimă","slug":"1108-igienta-inima"},{"code":"110803","name":"Protecție sexuală","slug":"110803-protectie-sexuala"},{"code":"100074288","name":"Prezervative Gold 3 buc","slug":"100074288-masculan-prezervative-gold-3-buc"}],"activePromotion":null,"saveMe":null,"labels":[],"geniusPrice":null,"geniusUnitPricePerLabel":null,"banner":null,"discountLabel":null,"geniusDiscountLabel":null,"badge":null},{"code":"100064005","variantCode":"100064005","name":"Prezervative Extra Lubricated 3 buc","slug":"100064005-skyn-prezervative-extra-lubricated-3-buc","unitPriceLabel":"","brand":"Skyn","brandCode":"996","brandFilterCode":"skyn-b1010","sku":"100064005","price":15.79,"originalPrice":null,"currencyCode":"RON","currency":"Lei","image":{"thumbnail":{"default":"https://cdn.freshful.ro/media/cache/sylius_shop_product_thumbnail/a7/79/7b64b5b0515ffeab64446d2d0e50.jpg"},"large":{"default":"https://cdn.freshful.ro/media/cache/freshful_large/a7/79/7b64b5b0515ffeab64446d2d0e50.jpg"},"extralarge":{"default":"https://cdn.freshful.ro/media/cache/sylius_shop_product_original/a7/79/7b64b5b0515ffeab64446d2d0e50.jpg"}},"label":null,"tags":[],"isAvailable":true,"maxAvailableQuantity":15,"maxAllowedQuantity":100,"breadcrumbs":[{"code":"11","name":"Cosmetice","slug":"11-cosmetice-si-ingrijire-personala"},{"code":"1108","name":"Igienă intimă","slug":"1108-igienta-inima"},{"code":"110803","name":"Protecție sexuală","slug":"110803-protectie-sexuala"},{"code":"100064005","name":"Prezervative Extra Lubricated 3 buc","slug":"100064005-skyn-prezervative-extra-lubricated-3-buc"}],"activePromotion":null,"saveMe":null,"labels":[],"geniusPrice":null,"geniusUnitPricePerLabel":null,"banner":null,"discountLabel":null,"geniusDiscountLabel":null,"badge":null},{"code":"100067246","variantCode":"100067246","name":"Prezervative Delay Natural Endurance 3 buc","slug":"100067246-ritex-prezervative-delay-natural-endurance-3-buc","unitPriceLabel":"","brand":"Ritex","brandCode":"359","brandFilterCode":"ritex-b360","sku":"100067246","price":12.19,"originalPrice":null,"currencyCode":"RON","currency":"Lei","image":{"thumbnail":{"default":"https://cdn.freshful.ro/media/cache/sylius_shop_product_thumbnail/2e/fa/14b921fa5003e7f2536e9db95b8b.jpg"},"large":{"default":"https://cdn.freshful.ro/media/cache/freshful_large/2e/fa/14b921fa5003e7f2536e9db95b8b.jpg"},"extralarge":{"default":"https://cdn.freshful.ro/media/cache/sylius_shop_product_original/2e/fa/14b921fa5003e7f2536e9db95b8b.jpg"}},"label":null,"tags":[],"isAvailable":true,"maxAvailableQuantity":21,"maxAllowedQuantity":100,"breadcrumbs":[{"code":"11","name":"Cosmetice","slug":"11-cosmetice-si-ingrijire-personala"},{"code":"1108","name":"Igienă intimă","slug":"1108-igienta-inima"},{"code":"110803","name":"Protecție sexuală","slug":"110803-protectie-sexuala"},{"code":"100067246","name":"Prezervative Delay Natural Endurance 3 buc","slug":"100067246-ritex-prezervative-delay-natural-endurance-3-buc"}],"activePromotion":null,"saveMe":null,"labels":[],"geniusPrice":null,"geniusUnitPricePerLabel":null,"banner":null,"discountLabel":null,"geniusDiscountLabel":null,"badge":null},{"code":"100064017","variantCode":"100064017","name":"Prezervative UltraThin Sensitive 3 buc","slug":"100064017-lifestyles-prezervative-ultrathin-sensitive-3-buc","unitPriceLabel":"","brand":"LifeStyles","brandCode":"997","brandFilterCode":"lifestyles-b1011","sku":"100064017","price":9.99,"originalPrice":null,"currencyCode":"RON","currency":"Lei","image":{"thumbnail":{"default":"https://cdn.freshful.ro/media/cache/sylius_shop_product_thumbnail/73/af/8b1b704c2085d28e41a0a24e4589.jpg"},"large":{"default":"https://cdn.freshful.ro/media/cache/freshful_large/73/af/8b1b704c2085d28e41a0a24e4589.jpg"},"extralarge":{"default":"https://cdn.freshful.ro/media/cache/sylius_shop_product_original/73/af/8b1b704c2085d28e41a0a24e4589.jpg"}},"label":null,"tags":[],"isAvailable":true,"maxAvailableQuantity":15,"maxAllowedQuantity":100,"breadcrumbs":[{"code":"11","name":"Cosmetice","slug":"11-cosmetice-si-ingrijire-personala"},{"code":"1108","name":"Igienă intimă","slug":"1108-igienta-inima"},{"code":"110803","name":"Protecție sexuală","slug":"110803-protectie-sexuala"},{"code":"100064017","name":"Prezervative UltraThin Sensitive 3 buc","slug":"100064017-lifestyles-prezervative-ultrathin-sensitive-3-buc"}],"activePromotion":null,"saveMe":null,"labels":[],"geniusPrice":null,"geniusUnitPricePerLabel":null,"banner":null,"discountLabel":null,"geniusDiscountLabel":null,"badge":null}],"filters":{"countSelected":0,"items":[{"code":"brand","name":"Brand","countSelected":0,"values":[{"code":"lifestyles-b1011","name":"LifeStyles","isSelected":false,"count":8},{"code":"masculan-b1190","name":"Masculan","isSelected":false,"count":6},{"code":"ritex-b360","name":"Ritex","isSelected":false,"count":4},{"code":"skyn-b1010","name":"Skyn","isSelected":false,"count":5}]}]},"orderBy":[{"field":"price","direction":"asc","name":"Preț crescător","isSelected":false},{"field":"price","direction":"desc","name":"Preț descrescător","isSelected":false},{"field":"popularity","direction":"desc","name":"Cele mai populare","isSelected":true},{"field":"category","direction":"asc","name":"Categorie","isSelected":false}],"metaTitle":"Protecție sexuală - Gamă variată","metaDescription":"Vrei Protecție sexuală? Alege dintr-o gamă variată. Comanzi simplu și ai livrare rapidă, calitate și prospețime. Hai pe Freshful.ro","metaKeywords":null,"banners":[]}}