{"type":"subcategory","payload":{"analyticsListId":"category_110801-absorbante-adulti","analyticsListName":"Category - Absorbante adulți","name":"Absorbante adulți","slug":"110801-absorbante-adulti","image":null,"breadcrumbs":[{"code":"11","name":"Cosmetice","slug":"11-cosmetice-si-ingrijire-personala"},{"code":"1108","name":"Igienă intimă","slug":"1108-igienta-inima"},{"code":"110801","name":"Absorbante adulți","slug":"110801-absorbante-adulti"}],"slots":[],"page":1,"limit":10,"pages":5,"count":43,"siblings":[{"name":"Deodorante și parfumuri","slug":"1101-deodorante-si-parfumuri","selected":false},{"name":"Bărbierit și îngrijire ten","slug":"1102-produse-pentru-barbierit-si-ingrijit-ten","selected":false},{"name":"Demachiante și creme","slug":"1103-creme-intretinere-si-demachiante","selected":false},{"name":"Protecție solară","slug":"1104-produse-cu-protectie-solara","selected":false},{"name":"Ceară, benzi și creme depilatoare","slug":"1105-ceara-benzi-si-creme-depliatoare","selected":false},{"name":"Seturi cadou","slug":"1106-seturi-cadou","selected":false},{"name":"Îngrijirea părului","slug":"1107-ingrijirea-parului","selected":false},{"name":"Igienă intimă","slug":"1108-igienta-inima","selected":true},{"name":"Igienă dentară","slug":"1109-igiena-dentara","selected":false},{"name":"Săpunuri și geluri de duș","slug":"1110-sapunuri-si-geluri-de-dus","selected":false},{"name":"Dermatocosmetice și parafarmacie","slug":"1111-dermatocosmetice-si-parafarmacie","selected":false},{"name":"Repelent","slug":"repelent","selected":false}],"children":[{"name":"Toate produsele","slug":"1108-igienta-inima","selected":false},{"name":"Absorbante adulți","slug":"110801-absorbante-adulti","selected":true},{"name":"Igienă feminină","slug":"110802-igiena-feminina","selected":false},{"name":"Protecție sexuală","slug":"110803-protectie-sexuala","selected":false}],"products":[{"code":"100030917","variantCode":"100030917","name":"Șervețele umede XXL 80 buc","slug":"100030917-seni-servetele-umede-xxl-80-buc","unitPriceLabel":"0,26 Lei/buc","brand":"Seni","brandCode":"324","brandFilterCode":"seni-b325","sku":"100030917","price":20.89,"originalPrice":null,"currencyCode":"RON","currency":"Lei","image":{"thumbnail":{"default":"https://cdn.freshful.ro/media/cache/sylius_shop_product_thumbnail/71/a1/6c74c6b5e12b8f13b93620766d53.jpg"},"large":{"default":"https://cdn.freshful.ro/media/cache/freshful_large/71/a1/6c74c6b5e12b8f13b93620766d53.jpg"},"extralarge":{"default":"https://cdn.freshful.ro/media/cache/sylius_shop_product_original/71/a1/6c74c6b5e12b8f13b93620766d53.jpg"}},"label":null,"tags":[],"isAvailable":true,"maxAvailableQuantity":18,"maxAllowedQuantity":100,"breadcrumbs":[{"code":"11","name":"Cosmetice","slug":"11-cosmetice-si-ingrijire-personala"},{"code":"1108","name":"Igienă intimă","slug":"1108-igienta-inima"},{"code":"110801","name":"Absorbante adulți","slug":"110801-absorbante-adulti"},{"code":"100030917","name":"Șervețele umede XXL 80 buc","slug":"100030917-seni-servetele-umede-xxl-80-buc"}],"activePromotion":null,"saveMe":null,"labels":[],"geniusPrice":null,"geniusUnitPricePerLabel":null,"banner":null,"discountLabel":null,"geniusDiscountLabel":null,"badge":null},{"code":"100092011","variantCode":"100092011","name":"Absorbante zilnice pentru incontinența urinară Liners large 40 buc","slug":"100092011-always-absorbante-zilnice-pentru-incontinenta-urinara-liners-large-40-buc","unitPriceLabel":"","brand":"Always","brandCode":"669","brandFilterCode":"always-b670","sku":"100092011","price":14.9,"originalPrice":null,"currencyCode":"RON","currency":"Lei","image":{"thumbnail":{"default":"https://cdn.freshful.ro/media/cache/sylius_shop_product_thumbnail/75/2d/b2619ca650b31d879c2cb6051aab.jpg"},"large":{"default":"https://cdn.freshful.ro/media/cache/freshful_large/75/2d/b2619ca650b31d879c2cb6051aab.jpg"},"extralarge":{"default":"https://cdn.freshful.ro/media/cache/sylius_shop_product_original/75/2d/b2619ca650b31d879c2cb6051aab.jpg"}},"label":null,"tags":[],"isAvailable":true,"maxAvailableQuantity":52,"maxAllowedQuantity":100,"breadcrumbs":[{"code":"11","name":"Cosmetice","slug":"11-cosmetice-si-ingrijire-personala"},{"code":"1108","name":"Igienă intimă","slug":"1108-igienta-inima"},{"code":"110801","name":"Absorbante adulți","slug":"110801-absorbante-adulti"},{"code":"100092011","name":"Absorbante zilnice pentru incontinența urinară Liners large 40 buc","slug":"100092011-always-absorbante-zilnice-pentru-incontinenta-urinara-liners-large-40-buc"}],"activePromotion":null,"saveMe":null,"labels":[],"geniusPrice":null,"geniusUnitPricePerLabel":null,"banner":null,"discountLabel":null,"geniusDiscountLabel":null,"badge":null},{"code":"100030900","variantCode":"5900516691295","name":"Aleze igenice de protecție 90x60 cm 30 buc","slug":"100030900-seni-aleze-igenice-de-protectie-90x60-cm-30-buc","unitPriceLabel":"3 Lei/buc","brand":"Seni","brandCode":"324","brandFilterCode":"seni-b325","sku":"100030900","price":89.99,"originalPrice":null,"currencyCode":"RON","currency":"Lei","image":{"thumbnail":{"default":"https://cdn.freshful.ro/media/cache/sylius_shop_product_thumbnail/0c/cc/2176613a7b982e8a483653eebfaa.jpg"},"large":{"default":"https://cdn.freshful.ro/media/cache/freshful_large/0c/cc/2176613a7b982e8a483653eebfaa.jpg"},"extralarge":{"default":"https://cdn.freshful.ro/media/cache/sylius_shop_product_original/0c/cc/2176613a7b982e8a483653eebfaa.jpg"}},"label":null,"tags":[],"isAvailable":true,"maxAvailableQuantity":7,"maxAllowedQuantity":100,"breadcrumbs":[{"code":"11","name":"Cosmetice","slug":"11-cosmetice-si-ingrijire-personala"},{"code":"1108","name":"Igienă intimă","slug":"1108-igienta-inima"},{"code":"110801","name":"Absorbante adulți","slug":"110801-absorbante-adulti"},{"code":"100030900","name":"Aleze igenice de protecție 90x60 cm 30 buc","slug":"100030900-seni-aleze-igenice-de-protectie-90x60-cm-30-buc"}],"activePromotion":null,"saveMe":null,"labels":[],"geniusPrice":null,"geniusUnitPricePerLabel":null,"banner":null,"discountLabel":null,"geniusDiscountLabel":null,"badge":null},{"code":"100092012","variantCode":"100092012","name":"Absorbante zilnice pentru incontinență urinară Discreet liners long plus 28 buc","slug":"100092012-always-absorbante-zilnice-pentru-incontinenta-urinara-discreet-liners-long-plus-28-buc","unitPriceLabel":"","brand":"Always","brandCode":"669","brandFilterCode":"always-b670","sku":"100092012","price":14.5,"originalPrice":null,"currencyCode":"RON","currency":"Lei","image":{"thumbnail":{"default":"https://cdn.freshful.ro/media/cache/sylius_shop_product_thumbnail/29/d3/5a0984ef4598db18ee9762178882.jpg"},"large":{"default":"https://cdn.freshful.ro/media/cache/freshful_large/29/d3/5a0984ef4598db18ee9762178882.jpg"},"extralarge":{"default":"https://cdn.freshful.ro/media/cache/sylius_shop_product_original/29/d3/5a0984ef4598db18ee9762178882.jpg"}},"label":null,"tags":[],"isAvailable":true,"maxAvailableQuantity":99,"maxAllowedQuantity":100,"breadcrumbs":[{"code":"11","name":"Cosmetice","slug":"11-cosmetice-si-ingrijire-personala"},{"code":"1108","name":"Igienă intimă","slug":"1108-igienta-inima"},{"code":"110801","name":"Absorbante adulți","slug":"110801-absorbante-adulti"},{"code":"100092012","name":"Absorbante zilnice pentru incontinență urinară Discreet liners long plus 28 buc","slug":"100092012-always-absorbante-zilnice-pentru-incontinenta-urinara-discreet-liners-long-plus-28-buc"}],"activePromotion":null,"saveMe":null,"labels":[],"geniusPrice":null,"geniusUnitPricePerLabel":null,"banner":null,"discountLabel":null,"geniusDiscountLabel":null,"badge":null},{"code":"100127236","variantCode":"100127236","name":"Absorbante incontinență Lady Slim Normal 12 buc","slug":"100127236-tena-absorbante-incontinenta-lady-slim-normal-12-buc","unitPriceLabel":"1,33 Lei/buc","brand":"Tena","brandCode":"373","brandFilterCode":"tena-b374","sku":"100127236","price":15.9,"originalPrice":null,"currencyCode":"RON","currency":"Lei","image":{"thumbnail":{"default":"https://cdn.freshful.ro/media/cache/sylius_shop_product_thumbnail/eb/ae/ffabc934988082986f698a65ce77.jpg"},"large":{"default":"https://cdn.freshful.ro/media/cache/freshful_large/eb/ae/ffabc934988082986f698a65ce77.jpg"},"extralarge":{"default":"https://cdn.freshful.ro/media/cache/sylius_shop_product_original/eb/ae/ffabc934988082986f698a65ce77.jpg"}},"label":null,"tags":[],"isAvailable":true,"maxAvailableQuantity":45,"maxAllowedQuantity":100,"breadcrumbs":[{"code":"11","name":"Cosmetice","slug":"11-cosmetice-si-ingrijire-personala"},{"code":"1108","name":"Igienă intimă","slug":"1108-igienta-inima"},{"code":"110801","name":"Absorbante adulți","slug":"110801-absorbante-adulti"},{"code":"100127236","name":"Absorbante incontinență Lady Slim Normal 12 buc","slug":"100127236-tena-absorbante-incontinenta-lady-slim-normal-12-buc"}],"activePromotion":null,"saveMe":null,"labels":[],"geniusPrice":null,"geniusUnitPricePerLabel":null,"banner":null,"discountLabel":null,"geniusDiscountLabel":null,"badge":null},{"code":"100127241","variantCode":"100127241","name":"Absorbante incontinență Lady Maxi Night 6 buc","slug":"100127241-tena-absorbante-incontinenta-lady-maxi-night-6-buc","unitPriceLabel":"3,98 Lei/buc","brand":"Tena","brandCode":"373","brandFilterCode":"tena-b374","sku":"100127241","price":23.9,"originalPrice":null,"currencyCode":"RON","currency":"Lei","image":{"thumbnail":{"default":"https://cdn.freshful.ro/media/cache/sylius_shop_product_thumbnail/ed/aa/14eb1bd038b3b672664a0f07ffe4.jpg"},"large":{"default":"https://cdn.freshful.ro/media/cache/freshful_large/ed/aa/14eb1bd038b3b672664a0f07ffe4.jpg"},"extralarge":{"default":"https://cdn.freshful.ro/media/cache/sylius_shop_product_original/ed/aa/14eb1bd038b3b672664a0f07ffe4.jpg"}},"label":null,"tags":[],"isAvailable":true,"maxAvailableQuantity":35,"maxAllowedQuantity":100,"breadcrumbs":[{"code":"11","name":"Cosmetice","slug":"11-cosmetice-si-ingrijire-personala"},{"code":"1108","name":"Igienă intimă","slug":"1108-igienta-inima"},{"code":"110801","name":"Absorbante adulți","slug":"110801-absorbante-adulti"},{"code":"100127241","name":"Absorbante incontinență Lady Maxi Night 6 buc","slug":"100127241-tena-absorbante-incontinenta-lady-maxi-night-6-buc"}],"activePromotion":null,"saveMe":null,"labels":[],"geniusPrice":null,"geniusUnitPricePerLabel":null,"banner":null,"discountLabel":null,"geniusDiscountLabel":null,"badge":null},{"code":"100030913","variantCode":"5900516695927","name":"Scutec tip chilot mărime M 30buc","slug":"100030913-seni-scutec-tip-chilot-marime-m-30buc","unitPriceLabel":"3,67 Lei/buc","brand":"Seni","brandCode":"324","brandFilterCode":"seni-b325","sku":"100030913","price":109.99,"originalPrice":null,"currencyCode":"RON","currency":"Lei","image":{"thumbnail":{"default":"https://cdn.freshful.ro/media/cache/sylius_shop_product_thumbnail/e9/c3/16de55f4191810d2d9c49fd0b2e2.jpg"},"large":{"default":"https://cdn.freshful.ro/media/cache/freshful_large/e9/c3/16de55f4191810d2d9c49fd0b2e2.jpg"},"extralarge":{"default":"https://cdn.freshful.ro/media/cache/sylius_shop_product_original/e9/c3/16de55f4191810d2d9c49fd0b2e2.jpg"}},"label":null,"tags":[],"isAvailable":true,"maxAvailableQuantity":7,"maxAllowedQuantity":100,"breadcrumbs":[{"code":"11","name":"Cosmetice","slug":"11-cosmetice-si-ingrijire-personala"},{"code":"1108","name":"Igienă intimă","slug":"1108-igienta-inima"},{"code":"110801","name":"Absorbante adulți","slug":"110801-absorbante-adulti"},{"code":"100030913","name":"Scutec tip chilot mărime M 30buc","slug":"100030913-seni-scutec-tip-chilot-marime-m-30buc"}],"activePromotion":null,"saveMe":null,"labels":[],"geniusPrice":null,"geniusUnitPricePerLabel":null,"banner":null,"discountLabel":null,"geniusDiscountLabel":null,"badge":null},{"code":"100127235","variantCode":"100127235","name":"Absorbante incontinență Lady Slim Mini 10 buc","slug":"100127235-tena-absorbante-incontinenta-lady-slim-mini-10-buc","unitPriceLabel":"1,05 Lei/buc","brand":"Tena","brandCode":"373","brandFilterCode":"tena-b374","sku":"100127235","price":10.5,"originalPrice":null,"currencyCode":"RON","currency":"Lei","image":{"thumbnail":{"default":"https://cdn.freshful.ro/media/cache/sylius_shop_product_thumbnail/fe/ab/47e6812846b160037f33f7b9725c.jpg"},"large":{"default":"https://cdn.freshful.ro/media/cache/freshful_large/fe/ab/47e6812846b160037f33f7b9725c.jpg"},"extralarge":{"default":"https://cdn.freshful.ro/media/cache/sylius_shop_product_original/fe/ab/47e6812846b160037f33f7b9725c.jpg"}},"label":null,"tags":[],"isAvailable":true,"maxAvailableQuantity":43,"maxAllowedQuantity":100,"breadcrumbs":[{"code":"11","name":"Cosmetice","slug":"11-cosmetice-si-ingrijire-personala"},{"code":"1108","name":"Igienă intimă","slug":"1108-igienta-inima"},{"code":"110801","name":"Absorbante adulți","slug":"110801-absorbante-adulti"},{"code":"100127235","name":"Absorbante incontinență Lady Slim Mini 10 buc","slug":"100127235-tena-absorbante-incontinenta-lady-slim-mini-10-buc"}],"activePromotion":null,"saveMe":null,"labels":[],"geniusPrice":null,"geniusUnitPricePerLabel":null,"banner":null,"discountLabel":null,"geniusDiscountLabel":null,"badge":null},{"code":"100127240","variantCode":"100127240","name":"Absorbante incontinență Lady Maxi 6 buc","slug":"100127240-tena-absorbante-incontinenta-lady-maxi-6-buc","unitPriceLabel":"3,17 Lei/buc","brand":"Tena","brandCode":"373","brandFilterCode":"tena-b374","sku":"100127240","price":18.99,"originalPrice":null,"currencyCode":"RON","currency":"Lei","image":{"thumbnail":{"default":"https://cdn.freshful.ro/media/cache/sylius_shop_product_thumbnail/5a/ae/e2bea8f021948f8085f59bc7bbda.jpg"},"large":{"default":"https://cdn.freshful.ro/media/cache/freshful_large/5a/ae/e2bea8f021948f8085f59bc7bbda.jpg"},"extralarge":{"default":"https://cdn.freshful.ro/media/cache/sylius_shop_product_original/5a/ae/e2bea8f021948f8085f59bc7bbda.jpg"}},"label":null,"tags":[],"isAvailable":true,"maxAvailableQuantity":95,"maxAllowedQuantity":100,"breadcrumbs":[{"code":"11","name":"Cosmetice","slug":"11-cosmetice-si-ingrijire-personala"},{"code":"1108","name":"Igienă intimă","slug":"1108-igienta-inima"},{"code":"110801","name":"Absorbante adulți","slug":"110801-absorbante-adulti"},{"code":"100127240","name":"Absorbante incontinență Lady Maxi 6 buc","slug":"100127240-tena-absorbante-incontinenta-lady-maxi-6-buc"}],"activePromotion":null,"saveMe":null,"labels":[],"geniusPrice":null,"geniusUnitPricePerLabel":null,"banner":null,"discountLabel":null,"geniusDiscountLabel":null,"badge":null},{"code":"100030911","variantCode":"5900516695934","name":"Scutec tip chilot mărime L 30buc","slug":"100030911-seni-scutec-tip-chilot-marime-l-30buc","unitPriceLabel":"4 Lei/buc","brand":"Seni","brandCode":"324","brandFilterCode":"seni-b325","sku":"100030911","price":119.99,"originalPrice":null,"currencyCode":"RON","currency":"Lei","image":{"thumbnail":{"default":"https://cdn.freshful.ro/media/cache/sylius_shop_product_thumbnail/79/98/86dc42272bcd0b46b57dc898f2a5.jpg"},"large":{"default":"https://cdn.freshful.ro/media/cache/freshful_large/79/98/86dc42272bcd0b46b57dc898f2a5.jpg"},"extralarge":{"default":"https://cdn.freshful.ro/media/cache/sylius_shop_product_original/79/98/86dc42272bcd0b46b57dc898f2a5.jpg"}},"label":null,"tags":[],"isAvailable":true,"maxAvailableQuantity":7,"maxAllowedQuantity":100,"breadcrumbs":[{"code":"11","name":"Cosmetice","slug":"11-cosmetice-si-ingrijire-personala"},{"code":"1108","name":"Igienă intimă","slug":"1108-igienta-inima"},{"code":"110801","name":"Absorbante adulți","slug":"110801-absorbante-adulti"},{"code":"100030911","name":"Scutec tip chilot mărime L 30buc","slug":"100030911-seni-scutec-tip-chilot-marime-l-30buc"}],"activePromotion":null,"saveMe":null,"labels":[],"geniusPrice":null,"geniusUnitPricePerLabel":null,"banner":null,"discountLabel":null,"geniusDiscountLabel":null,"badge":null}],"filters":{"countSelected":0,"items":[{"code":"brand","name":"Brand","countSelected":0,"values":[{"code":"always-b670","name":"Always","isSelected":false,"count":7},{"code":"discreet-b669","name":"Discreet","isSelected":false,"count":1},{"code":"expert-wipes-b1639","name":"Expert Wipes","isSelected":false,"count":1},{"code":"seni-b325","name":"Seni","isSelected":false,"count":16},{"code":"synek-b1687","name":"Synek","isSelected":false,"count":1},{"code":"tena-b374","name":"Tena","isSelected":false,"count":17}]}]},"orderBy":[{"field":"price","direction":"asc","name":"Preț crescător","isSelected":false},{"field":"price","direction":"desc","name":"Preț descrescător","isSelected":false},{"field":"popularity","direction":"desc","name":"Cele mai populare","isSelected":true},{"field":"category","direction":"asc","name":"Categorie","isSelected":false}],"metaTitle":"Absorbante adulți - Gamă variată","metaDescription":"Vrei Absorbante adulți? Alege dintr-o gamă variată. Comanzi simplu și ai livrare rapidă, calitate și prospețime. Hai pe Freshful.ro","metaKeywords":null,"banners":[]}}