{"type":"subcategory","payload":{"analyticsListId":"category_110901-pasta-de-dinti","analyticsListName":"Category - Pastă de dinți","name":"Pastă de dinți","slug":"110901-pasta-de-dinti","image":null,"breadcrumbs":[{"code":"11","name":"Cosmetice","slug":"11-cosmetice-si-ingrijire-personala"},{"code":"1109","name":"Igienă dentară","slug":"1109-igiena-dentara"},{"code":"110901","name":"Pastă de dinți","slug":"110901-pasta-de-dinti"}],"slots":[],"page":1,"limit":10,"pages":14,"count":133,"siblings":[{"name":"Deodorante și parfumuri","slug":"1101-deodorante-si-parfumuri","selected":false},{"name":"Bărbierit și îngrijire ten","slug":"1102-produse-pentru-barbierit-si-ingrijit-ten","selected":false},{"name":"Demachiante și creme","slug":"1103-creme-intretinere-si-demachiante","selected":false},{"name":"Protecție solară","slug":"1104-produse-cu-protectie-solara","selected":false},{"name":"Ceară, benzi și creme depilatoare","slug":"1105-ceara-benzi-si-creme-depliatoare","selected":false},{"name":"Seturi cadou","slug":"1106-seturi-cadou","selected":false},{"name":"Îngrijirea părului","slug":"1107-ingrijirea-parului","selected":false},{"name":"Igienă intimă","slug":"1108-igienta-inima","selected":false},{"name":"Igienă dentară","slug":"1109-igiena-dentara","selected":true},{"name":"Săpunuri și geluri de duș","slug":"1110-sapunuri-si-geluri-de-dus","selected":false},{"name":"Dermatocosmetice și parafarmacie","slug":"1111-dermatocosmetice-si-parafarmacie","selected":false},{"name":"Repelent","slug":"repelent","selected":false}],"children":[{"name":"Toate produsele","slug":"1109-igiena-dentara","selected":false},{"name":"Pastă de dinți","slug":"110901-pasta-de-dinti","selected":true},{"name":"Periuțe de dinți","slug":"110902-periute-de-dinti","selected":false},{"name":"Întreținere dentară","slug":"110903-intretinere-dentara","selected":false}],"products":[{"code":"100035993","variantCode":"100035993","name":"Pastă de dinți pentru albire Advanced White Charcoal 100ml","slug":"100035993-colgate-pasta-de-dinti-pentru-albire-advanced-white-charcoal-100ml","unitPriceLabel":"119,9 Lei/l","brand":"Colgate","brandCode":"329","brandFilterCode":"colgate-b330","sku":"100035993","price":11.99,"originalPrice":null,"currencyCode":"RON","currency":"Lei","image":{"thumbnail":{"default":"https://cdn.freshful.ro/media/cache/sylius_shop_product_thumbnail/6a/6a/0ee093f3001c866f8cf9ee4c7aeb.jpg"},"large":{"default":"https://cdn.freshful.ro/media/cache/freshful_large/6a/6a/0ee093f3001c866f8cf9ee4c7aeb.jpg"},"extralarge":{"default":"https://cdn.freshful.ro/media/cache/sylius_shop_product_original/6a/6a/0ee093f3001c866f8cf9ee4c7aeb.jpg"}},"label":{"text":"Profită acum","backgroundColor":"#FF9903","textColor":"#FFFFFF"},"tags":[],"isAvailable":true,"maxAvailableQuantity":100,"maxAllowedQuantity":100,"breadcrumbs":[{"code":"11","name":"Cosmetice","slug":"11-cosmetice-si-ingrijire-personala"},{"code":"1109","name":"Igienă dentară","slug":"1109-igiena-dentara"},{"code":"110901","name":"Pastă de dinți","slug":"110901-pasta-de-dinti"},{"code":"100035993","name":"Pastă de dinți pentru albire Advanced White Charcoal 100ml","slug":"100035993-colgate-pasta-de-dinti-pentru-albire-advanced-white-charcoal-100ml"}],"activePromotion":{"code":"freshful-top-deals-2023","name":"Preț avantajos","targetQuantity":null},"saveMe":null,"labels":[{"type":"v1","items":[{"text":"Profită acum","backgroundColor":"#FF9903","textColor":"#FFFFFF"}]}],"geniusPrice":null,"geniusUnitPricePerLabel":null,"banner":{"text":"Preț avantajos","textColor":"#F95510","bgColor":"#FEF1CD","icon":null,"link":"https://www.freshful.ro/oferte/freshful-top-deals-2023","type":"promo","analyticsEventType":"select_promotion","analyticsEventPayload":{"promotion_id":"freshful-top-deals-2023","promotion_name":"Profită de Top Deals"}},"discountLabel":null,"geniusDiscountLabel":null,"badge":null},{"code":"100091564","variantCode":"100091564","name":"Pastă de dinți Gum&Ennamel Repair Original 75ml","slug":"100091564-oral-b-pasta-de-dinti-gum-ennamel-repair-original-75ml","unitPriceLabel":"213,2 Lei/l","brand":"Oral-B","brandCode":"665","brandFilterCode":"oral-b-b666","sku":"100091564","price":15.99,"originalPrice":18.99,"currencyCode":"RON","currency":"Lei","image":{"thumbnail":{"default":"https://cdn.freshful.ro/media/cache/sylius_shop_product_thumbnail/56/58/113a122b02048fc58aeb15d83e51.jpg"},"large":{"default":"https://cdn.freshful.ro/media/cache/freshful_large/56/58/113a122b02048fc58aeb15d83e51.jpg"},"extralarge":{"default":"https://cdn.freshful.ro/media/cache/sylius_shop_product_original/56/58/113a122b02048fc58aeb15d83e51.jpg"}},"label":{"text":"-15%","backgroundColor":"#FF9903","textColor":"#FFFFFF"},"tags":[],"isAvailable":true,"maxAvailableQuantity":24,"maxAllowedQuantity":100,"breadcrumbs":[{"code":"11","name":"Cosmetice","slug":"11-cosmetice-si-ingrijire-personala"},{"code":"1109","name":"Igienă dentară","slug":"1109-igiena-dentara"},{"code":"110901","name":"Pastă de dinți","slug":"110901-pasta-de-dinti"},{"code":"100091564","name":"Pastă de dinți Gum&Ennamel Repair Original 75ml","slug":"100091564-oral-b-pasta-de-dinti-gum-ennamel-repair-original-75ml"}],"activePromotion":{"code":"oferte-dph-21feb-8mar23","name":"Preț redus","targetQuantity":null},"saveMe":null,"labels":[{"type":"v1","items":[{"text":"-15%","backgroundColor":"#FF9903","textColor":"#FFFFFF"}]}],"geniusPrice":null,"geniusUnitPricePerLabel":null,"banner":{"text":"Super preț","textColor":"#FF0000","bgColor":"#FFF2EC","icon":null,"link":"https://www.freshful.ro/oferte/oferte-dph-21feb-8mar23","type":"promo","analyticsEventType":"select_promotion","analyticsEventPayload":{"promotion_id":"oferte-dph-21feb-8mar23","promotion_name":"Curățenie și îngrijire personală"}},"discountLabel":"Economisești 15%","geniusDiscountLabel":null,"badge":null},{"code":"100150863","variantCode":"100150863","name":"Pastă de dinți pentru albire Max White Purple Reveal 75ml","slug":"100150863-colgate-pasta-de-dinti-pentru-albire-max-white-purple-reveal-75ml","unitPriceLabel":"259,33 Lei/l","brand":"Colgate","brandCode":"329","brandFilterCode":"colgate-b330","sku":"100150863","price":19.45,"originalPrice":null,"currencyCode":"RON","currency":"Lei","image":{"thumbnail":{"default":"https://cdn.freshful.ro/media/cache/sylius_shop_product_thumbnail/bb/37/c1cd91de8bd9c18e074f7a36114e.jpg"},"large":{"default":"https://cdn.freshful.ro/media/cache/freshful_large/bb/37/c1cd91de8bd9c18e074f7a36114e.jpg"},"extralarge":{"default":"https://cdn.freshful.ro/media/cache/sylius_shop_product_original/bb/37/c1cd91de8bd9c18e074f7a36114e.jpg"}},"label":{"text":"Profită acum","backgroundColor":"#FF9903","textColor":"#FFFFFF"},"tags":[],"isAvailable":true,"maxAvailableQuantity":61,"maxAllowedQuantity":100,"breadcrumbs":[{"code":"11","name":"Cosmetice","slug":"11-cosmetice-si-ingrijire-personala"},{"code":"1109","name":"Igienă dentară","slug":"1109-igiena-dentara"},{"code":"110901","name":"Pastă de dinți","slug":"110901-pasta-de-dinti"},{"code":"100150863","name":"Pastă de dinți pentru albire Max White Purple Reveal 75ml","slug":"100150863-colgate-pasta-de-dinti-pentru-albire-max-white-purple-reveal-75ml"}],"activePromotion":{"code":"freshful-top-deals-2023","name":"Preț avantajos","targetQuantity":null},"saveMe":null,"labels":[{"type":"v1","items":[{"text":"Profită acum","backgroundColor":"#FF9903","textColor":"#FFFFFF"}]}],"geniusPrice":null,"geniusUnitPricePerLabel":null,"banner":{"text":"Preț avantajos","textColor":"#F95510","bgColor":"#FEF1CD","icon":null,"link":"https://www.freshful.ro/oferte/freshful-top-deals-2023","type":"promo","analyticsEventType":"select_promotion","analyticsEventPayload":{"promotion_id":"freshful-top-deals-2023","promotion_name":"Profită de Top Deals"}},"discountLabel":null,"geniusDiscountLabel":null,"badge":null},{"code":"100091561","variantCode":"100091561","name":"Pastă de dinți Professional gum & enamel pro-repair gentle whitening 75ml ","slug":"100091561-oral-b-pasta-de-dinti-professional-gum-enamel-pro-repair-gentle-whitening-75ml","unitPriceLabel":"253,2 Lei/l","brand":"Oral-B","brandCode":"665","brandFilterCode":"oral-b-b666","sku":"100091561","price":18.99,"originalPrice":22.49,"currencyCode":"RON","currency":"Lei","image":{"thumbnail":{"default":"https://cdn.freshful.ro/media/cache/sylius_shop_product_thumbnail/e7/d9/6e0de31349500b7d1e3357a2da38.jpg"},"large":{"default":"https://cdn.freshful.ro/media/cache/freshful_large/e7/d9/6e0de31349500b7d1e3357a2da38.jpg"},"extralarge":{"default":"https://cdn.freshful.ro/media/cache/sylius_shop_product_original/e7/d9/6e0de31349500b7d1e3357a2da38.jpg"}},"label":{"text":"-15%","backgroundColor":"#FF9903","textColor":"#FFFFFF"},"tags":[],"isAvailable":true,"maxAvailableQuantity":15,"maxAllowedQuantity":100,"breadcrumbs":[{"code":"11","name":"Cosmetice","slug":"11-cosmetice-si-ingrijire-personala"},{"code":"1109","name":"Igienă dentară","slug":"1109-igiena-dentara"},{"code":"110901","name":"Pastă de dinți","slug":"110901-pasta-de-dinti"},{"code":"100091561","name":"Pastă de dinți Professional gum & enamel pro-repair gentle whitening 75ml ","slug":"100091561-oral-b-pasta-de-dinti-professional-gum-enamel-pro-repair-gentle-whitening-75ml"}],"activePromotion":{"code":"oferte-dph-21feb-8mar23","name":"Preț redus","targetQuantity":null},"saveMe":null,"labels":[{"type":"v1","items":[{"text":"-15%","backgroundColor":"#FF9903","textColor":"#FFFFFF"}]}],"geniusPrice":null,"geniusUnitPricePerLabel":null,"banner":{"text":"Super preț","textColor":"#FF0000","bgColor":"#FFF2EC","icon":null,"link":"https://www.freshful.ro/oferte/oferte-dph-21feb-8mar23","type":"promo","analyticsEventType":"select_promotion","analyticsEventPayload":{"promotion_id":"oferte-dph-21feb-8mar23","promotion_name":"Curățenie și îngrijire personală"}},"discountLabel":"Economisești 15%","geniusDiscountLabel":null,"badge":null},{"code":"100091426","variantCode":"100091426","name":"Pastă de dinți 3D White Whitening Therapy Deep Clean 75ml","slug":"100091426-blend-a-med-pasta-de-dinti-3d-white-whitening-therapy-deep-clean-75ml","unitPriceLabel":"239,87 Lei/l","brand":"Blend-A-Med","brandCode":"666","brandFilterCode":"blend-a-med-b667","sku":"100091426","price":17.99,"originalPrice":22.19,"currencyCode":"RON","currency":"Lei","image":{"thumbnail":{"default":"https://cdn.freshful.ro/media/cache/sylius_shop_product_thumbnail/9b/9b/929916ff58a0b6ddbec3f6da09cb.jpg"},"large":{"default":"https://cdn.freshful.ro/media/cache/freshful_large/9b/9b/929916ff58a0b6ddbec3f6da09cb.jpg"},"extralarge":{"default":"https://cdn.freshful.ro/media/cache/sylius_shop_product_original/9b/9b/929916ff58a0b6ddbec3f6da09cb.jpg"}},"label":{"text":"-18%","backgroundColor":"#FF9903","textColor":"#FFFFFF"},"tags":[],"isAvailable":true,"maxAvailableQuantity":16,"maxAllowedQuantity":100,"breadcrumbs":[{"code":"11","name":"Cosmetice","slug":"11-cosmetice-si-ingrijire-personala"},{"code":"1109","name":"Igienă dentară","slug":"1109-igiena-dentara"},{"code":"110901","name":"Pastă de dinți","slug":"110901-pasta-de-dinti"},{"code":"100091426","name":"Pastă de dinți 3D White Whitening Therapy Deep Clean 75ml","slug":"100091426-blend-a-med-pasta-de-dinti-3d-white-whitening-therapy-deep-clean-75ml"}],"activePromotion":{"code":"oferte-dph-21feb-8mar23","name":"Preț redus","targetQuantity":null},"saveMe":null,"labels":[{"type":"v1","items":[{"text":"-18%","backgroundColor":"#FF9903","textColor":"#FFFFFF"}]}],"geniusPrice":null,"geniusUnitPricePerLabel":null,"banner":{"text":"Super preț","textColor":"#FF0000","bgColor":"#FFF2EC","icon":null,"link":"https://www.freshful.ro/oferte/oferte-dph-21feb-8mar23","type":"promo","analyticsEventType":"select_promotion","analyticsEventPayload":{"promotion_id":"oferte-dph-21feb-8mar23","promotion_name":"Curățenie și îngrijire personală"}},"discountLabel":"Economisești 18%","geniusDiscountLabel":null,"badge":null},{"code":"100091562","variantCode":"100091562","name":"Pastă de dinți Sensitivity & Gum calm gentle whitening 75ml","slug":"100091562-oral-b-pasta-de-dinti-sensitivity-gum-calm-gentle-whitening-75ml","unitPriceLabel":"253,2 Lei/l","brand":"Oral-B","brandCode":"665","brandFilterCode":"oral-b-b666","sku":"100091562","price":18.99,"originalPrice":23.99,"currencyCode":"RON","currency":"Lei","image":{"thumbnail":{"default":"https://cdn.freshful.ro/media/cache/sylius_shop_product_thumbnail/09/3a/71a5571b1c77e9ab1072c8d770bc.jpg"},"large":{"default":"https://cdn.freshful.ro/media/cache/freshful_large/09/3a/71a5571b1c77e9ab1072c8d770bc.jpg"},"extralarge":{"default":"https://cdn.freshful.ro/media/cache/sylius_shop_product_original/09/3a/71a5571b1c77e9ab1072c8d770bc.jpg"}},"label":{"text":"-20%","backgroundColor":"#FF9903","textColor":"#FFFFFF"},"tags":[],"isAvailable":true,"maxAvailableQuantity":11,"maxAllowedQuantity":100,"breadcrumbs":[{"code":"11","name":"Cosmetice","slug":"11-cosmetice-si-ingrijire-personala"},{"code":"1109","name":"Igienă dentară","slug":"1109-igiena-dentara"},{"code":"110901","name":"Pastă de dinți","slug":"110901-pasta-de-dinti"},{"code":"100091562","name":"Pastă de dinți Sensitivity & Gum calm gentle whitening 75ml","slug":"100091562-oral-b-pasta-de-dinti-sensitivity-gum-calm-gentle-whitening-75ml"}],"activePromotion":{"code":"oferte-dph-21feb-8mar23","name":"Preț redus","targetQuantity":null},"saveMe":null,"labels":[{"type":"v1","items":[{"text":"-20%","backgroundColor":"#FF9903","textColor":"#FFFFFF"}]}],"geniusPrice":null,"geniusUnitPricePerLabel":null,"banner":{"text":"Super preț","textColor":"#FF0000","bgColor":"#FFF2EC","icon":null,"link":"https://www.freshful.ro/oferte/oferte-dph-21feb-8mar23","type":"promo","analyticsEventType":"select_promotion","analyticsEventPayload":{"promotion_id":"oferte-dph-21feb-8mar23","promotion_name":"Curățenie și îngrijire personală"}},"discountLabel":"Economisești 20%","geniusDiscountLabel":null,"badge":null},{"code":"100091563","variantCode":"100091563","name":"Pastă de dinți Sensitivity&Gum Calm Original pentru albire 75ml","slug":"100091563-oral-b-pasta-de-dinti-sensitivity-gum-calm-original-pentru-albire-75ml","unitPriceLabel":"253,2 Lei/l","brand":"Oral-B","brandCode":"665","brandFilterCode":"oral-b-b666","sku":"100091563","price":18.99,"originalPrice":20.99,"currencyCode":"RON","currency":"Lei","image":{"thumbnail":{"default":"https://cdn.freshful.ro/media/cache/sylius_shop_product_thumbnail/1e/8d/9054dc0d7a3cd9f612280f68d56b.jpg"},"large":{"default":"https://cdn.freshful.ro/media/cache/freshful_large/1e/8d/9054dc0d7a3cd9f612280f68d56b.jpg"},"extralarge":{"default":"https://cdn.freshful.ro/media/cache/sylius_shop_product_original/1e/8d/9054dc0d7a3cd9f612280f68d56b.jpg"}},"label":{"text":"-9%","backgroundColor":"#FF9903","textColor":"#FFFFFF"},"tags":[],"isAvailable":true,"maxAvailableQuantity":34,"maxAllowedQuantity":100,"breadcrumbs":[{"code":"11","name":"Cosmetice","slug":"11-cosmetice-si-ingrijire-personala"},{"code":"1109","name":"Igienă dentară","slug":"1109-igiena-dentara"},{"code":"110901","name":"Pastă de dinți","slug":"110901-pasta-de-dinti"},{"code":"100091563","name":"Pastă de dinți Sensitivity&Gum Calm Original pentru albire 75ml","slug":"100091563-oral-b-pasta-de-dinti-sensitivity-gum-calm-original-pentru-albire-75ml"}],"activePromotion":{"code":"oferte-dph-21feb-8mar23","name":"Preț redus","targetQuantity":null},"saveMe":null,"labels":[{"type":"v1","items":[{"text":"-9%","backgroundColor":"#FF9903","textColor":"#FFFFFF"}]}],"geniusPrice":null,"geniusUnitPricePerLabel":null,"banner":{"text":"Super preț","textColor":"#FF0000","bgColor":"#FFF2EC","icon":null,"link":"https://www.freshful.ro/oferte/oferte-dph-21feb-8mar23","type":"promo","analyticsEventType":"select_promotion","analyticsEventPayload":{"promotion_id":"oferte-dph-21feb-8mar23","promotion_name":"Curățenie și îngrijire personală"}},"discountLabel":"Economisești 9%","geniusDiscountLabel":null,"badge":null},{"code":"100036305","variantCode":"100036305","name":"Pastă de dinți Extra Whitening 100ml","slug":"100036305-sensodyne-pasta-de-dinti-extra-whitening-100ml","unitPriceLabel":"199,9 Lei/l","brand":"Sensodyne","brandCode":"414","brandFilterCode":"sensodyne-b415","sku":"100036305","price":19.99,"originalPrice":null,"currencyCode":"RON","currency":"Lei","image":{"thumbnail":{"default":"https://cdn.freshful.ro/media/cache/sylius_shop_product_thumbnail/b4/17/f658aaab7a4e688f04e3ba57dec6.jpg"},"large":{"default":"https://cdn.freshful.ro/media/cache/freshful_large/b4/17/f658aaab7a4e688f04e3ba57dec6.jpg"},"extralarge":{"default":"https://cdn.freshful.ro/media/cache/sylius_shop_product_original/b4/17/f658aaab7a4e688f04e3ba57dec6.jpg"}},"label":null,"tags":[],"isAvailable":true,"maxAvailableQuantity":61,"maxAllowedQuantity":100,"breadcrumbs":[{"code":"11","name":"Cosmetice","slug":"11-cosmetice-si-ingrijire-personala"},{"code":"1109","name":"Igienă dentară","slug":"1109-igiena-dentara"},{"code":"110901","name":"Pastă de dinți","slug":"110901-pasta-de-dinti"},{"code":"100036305","name":"Pastă de dinți Extra Whitening 100ml","slug":"100036305-sensodyne-pasta-de-dinti-extra-whitening-100ml"}],"activePromotion":null,"saveMe":null,"labels":[],"geniusPrice":null,"geniusUnitPricePerLabel":null,"banner":null,"discountLabel":null,"geniusDiscountLabel":null,"badge":null},{"code":"100150862","variantCode":"100150862","name":"Pastă de dinți Elixir Sensitive Care 80ml","slug":"100150862-colgate-pasta-de-dinti-elixir-sensitive-care-80ml","unitPriceLabel":"499,88 Lei/l","brand":"Colgate","brandCode":"329","brandFilterCode":"colgate-b330","sku":"100150862","price":39.99,"originalPrice":null,"currencyCode":"RON","currency":"Lei","image":{"thumbnail":{"default":"https://cdn.freshful.ro/media/cache/sylius_shop_product_thumbnail/a7/e9/d8df94acd99efa1c15ef527895e9.jpg"},"large":{"default":"https://cdn.freshful.ro/media/cache/freshful_large/a7/e9/d8df94acd99efa1c15ef527895e9.jpg"},"extralarge":{"default":"https://cdn.freshful.ro/media/cache/sylius_shop_product_original/a7/e9/d8df94acd99efa1c15ef527895e9.jpg"}},"label":null,"tags":[],"isAvailable":true,"maxAvailableQuantity":29,"maxAllowedQuantity":100,"breadcrumbs":[{"code":"11","name":"Cosmetice","slug":"11-cosmetice-si-ingrijire-personala"},{"code":"1109","name":"Igienă dentară","slug":"1109-igiena-dentara"},{"code":"110901","name":"Pastă de dinți","slug":"110901-pasta-de-dinti"},{"code":"100150862","name":"Pastă de dinți Elixir Sensitive Care 80ml","slug":"100150862-colgate-pasta-de-dinti-elixir-sensitive-care-80ml"}],"activePromotion":null,"saveMe":null,"labels":[],"geniusPrice":null,"geniusUnitPricePerLabel":null,"banner":null,"discountLabel":null,"geniusDiscountLabel":null,"badge":null},{"code":"100035994","variantCode":"100035994","name":"Pastă de dinți pentru albire Elixir Cool Detox, 80ml","slug":"100035994-colgate-pasta-de-dinti-pentru-albire-elixir-cool-detox-80ml","unitPriceLabel":"461,25 Lei/l","brand":"Colgate","brandCode":"329","brandFilterCode":"colgate-b330","sku":"100035994","price":36.9,"originalPrice":null,"currencyCode":"RON","currency":"Lei","image":{"thumbnail":{"default":"https://cdn.freshful.ro/media/cache/sylius_shop_product_thumbnail/cc/25/e965e597ed3e57fae83f6ecf4442.jpg"},"large":{"default":"https://cdn.freshful.ro/media/cache/freshful_large/cc/25/e965e597ed3e57fae83f6ecf4442.jpg"},"extralarge":{"default":"https://cdn.freshful.ro/media/cache/sylius_shop_product_original/cc/25/e965e597ed3e57fae83f6ecf4442.jpg"}},"label":null,"tags":[],"isAvailable":true,"maxAvailableQuantity":1,"maxAllowedQuantity":100,"breadcrumbs":[{"code":"11","name":"Cosmetice","slug":"11-cosmetice-si-ingrijire-personala"},{"code":"1109","name":"Igienă dentară","slug":"1109-igiena-dentara"},{"code":"110901","name":"Pastă de dinți","slug":"110901-pasta-de-dinti"},{"code":"100035994","name":"Pastă de dinți pentru albire Elixir Cool Detox, 80ml","slug":"100035994-colgate-pasta-de-dinti-pentru-albire-elixir-cool-detox-80ml"}],"activePromotion":null,"saveMe":null,"labels":[],"geniusPrice":null,"geniusUnitPricePerLabel":null,"banner":null,"discountLabel":null,"geniusDiscountLabel":null,"badge":null}],"filters":{"countSelected":0,"items":[{"code":"promotion","name":"Promoții","countSelected":0,"values":[{"code":"oferte-dph-21feb-8mar23","name":"Curățenie și îngrijire personală","isSelected":false,"count":6},{"code":"freshful-top-deals-2023","name":"Profită de Top Deals","isSelected":false,"count":2}]},{"code":"brand","name":"Brand","countSelected":0,"values":[{"code":"aquafresh-b418","name":"Aquafresh","isSelected":false,"count":10},{"code":"blend-a-med-b667","name":"Blend-A-Med","isSelected":false,"count":3},{"code":"buccotherm-b1483","name":"Buccotherm","isSelected":false,"count":2},{"code":"colgate-b330","name":"Colgate","isSelected":false,"count":36},{"code":"dental-b1642","name":"Dental","isSelected":false,"count":1},{"code":"dentistar-b1740","name":"Dentistar","isSelected":false,"count":1},{"code":"elmex-b1678","name":"Elmex","isSelected":false,"count":8},{"code":"intermed-b2347","name":"Intermed","isSelected":false,"count":2},{"code":"lacalut-b933","name":"Lacalut","isSelected":false,"count":19},{"code":"natura-verde-b340","name":"Natura Verde","isSelected":false,"count":2},{"code":"nordics-b1685","name":"Nordics","isSelected":false,"count":4},{"code":"oral-b-b666","name":"Oral-B","isSelected":false,"count":7},{"code":"parodontax-b416","name":"Parodontax","isSelected":false,"count":8},{"code":"pearl-drops-b544","name":"Pearl Drops","isSelected":false,"count":3},{"code":"pierrot-b1749","name":"Pierrot","isSelected":false,"count":3},{"code":"sensodyne-b415","name":"Sensodyne","isSelected":false,"count":13},{"code":"vademecum-b1766","name":"Vademecum","isSelected":false,"count":11}]},{"code":"diet_lifestyle","name":"Dietă și lifestyle","countSelected":0,"values":[{"code":"bio-a26","name":"Bio","isSelected":false,"count":8},{"code":"vegan-a24","name":"Vegan","isSelected":false,"count":6}]}]},"orderBy":[{"field":"price","direction":"asc","name":"Preț crescător","isSelected":false},{"field":"price","direction":"desc","name":"Preț descrescător","isSelected":false},{"field":"popularity","direction":"desc","name":"Cele mai populare","isSelected":true},{"field":"category","direction":"asc","name":"Categorie","isSelected":false}],"metaTitle":"Pastă de dinți - Gamă variată","metaDescription":"Vrei Pastă de dinți? Alege dintr-o gamă variată. Comanzi simplu și ai livrare rapidă, calitate și prospețime. Hai pe Freshful.ro","metaKeywords":null,"banners":[]}}