{"type":"subcategory","payload":{"analyticsListId":"category_110902-periute-de-dinti","analyticsListName":"Category - Periuțe de dinți","name":"Periuțe de dinți","slug":"110902-periute-de-dinti","image":null,"breadcrumbs":[{"code":"11","name":"Cosmetice","slug":"11-cosmetice-si-ingrijire-personala"},{"code":"1109","name":"Igienă dentară","slug":"1109-igiena-dentara"},{"code":"110902","name":"Periuțe de dinți","slug":"110902-periute-de-dinti"}],"slots":[],"page":1,"limit":10,"pages":8,"count":78,"siblings":[{"name":"Deodorante și parfumuri","slug":"1101-deodorante-si-parfumuri","selected":false},{"name":"Bărbierit și îngrijire ten","slug":"1102-produse-pentru-barbierit-si-ingrijit-ten","selected":false},{"name":"Demachiante și creme","slug":"1103-creme-intretinere-si-demachiante","selected":false},{"name":"Protecție solară","slug":"1104-produse-cu-protectie-solara","selected":false},{"name":"Ceară, benzi și creme depilatoare","slug":"1105-ceara-benzi-si-creme-depliatoare","selected":false},{"name":"Seturi cadou","slug":"1106-seturi-cadou","selected":false},{"name":"Îngrijirea părului","slug":"1107-ingrijirea-parului","selected":false},{"name":"Igienă intimă","slug":"1108-igienta-inima","selected":false},{"name":"Igienă dentară","slug":"1109-igiena-dentara","selected":true},{"name":"Săpunuri și geluri de duș","slug":"1110-sapunuri-si-geluri-de-dus","selected":false},{"name":"Dermatocosmetice și parafarmacie","slug":"1111-dermatocosmetice-si-parafarmacie","selected":false},{"name":"Repelent","slug":"repelent","selected":false}],"children":[{"name":"Toate produsele","slug":"1109-igiena-dentara","selected":false},{"name":"Pastă de dinți","slug":"110901-pasta-de-dinti","selected":false},{"name":"Periuțe de dinți","slug":"110902-periute-de-dinti","selected":true},{"name":"Întreținere dentară","slug":"110903-intretinere-dentara","selected":false}],"products":[{"code":"100091423","variantCode":"100091423","name":"Periuță de dinți 3D White Luxe Pro-flex ","slug":"100091423-oral-b-periuta-de-dinti-3d-white-luxe-pro-flex","unitPriceLabel":"","brand":"Oral-B","brandCode":"665","brandFilterCode":"oral-b-b666","sku":"100091423","price":19.89,"originalPrice":24.9,"currencyCode":"RON","currency":"Lei","image":{"thumbnail":{"default":"https://cdn.freshful.ro/media/cache/sylius_shop_product_thumbnail/63/6a/510ca4d0dcac627225dde4d847d3.jpg"},"large":{"default":"https://cdn.freshful.ro/media/cache/freshful_large/63/6a/510ca4d0dcac627225dde4d847d3.jpg"},"extralarge":{"default":"https://cdn.freshful.ro/media/cache/sylius_shop_product_original/63/6a/510ca4d0dcac627225dde4d847d3.jpg"}},"label":{"text":"-20%","backgroundColor":"#FF9903","textColor":"#FFFFFF"},"tags":[],"isAvailable":true,"maxAvailableQuantity":48,"maxAllowedQuantity":100,"breadcrumbs":[{"code":"11","name":"Cosmetice","slug":"11-cosmetice-si-ingrijire-personala"},{"code":"1109","name":"Igienă dentară","slug":"1109-igiena-dentara"},{"code":"110902","name":"Periuțe de dinți","slug":"110902-periute-de-dinti"},{"code":"100091423","name":"Periuță de dinți 3D White Luxe Pro-flex ","slug":"100091423-oral-b-periuta-de-dinti-3d-white-luxe-pro-flex"}],"activePromotion":{"code":"oferte-dph-21feb-8mar23","name":"Preț redus","targetQuantity":null},"saveMe":null,"labels":[{"type":"v1","items":[{"text":"-20%","backgroundColor":"#FF9903","textColor":"#FFFFFF"}]}],"geniusPrice":null,"geniusUnitPricePerLabel":null,"banner":{"text":"Super preț","textColor":"#FF0000","bgColor":"#FFF2EC","icon":null,"link":"https://www.freshful.ro/oferte/oferte-dph-21feb-8mar23","type":"promo","analyticsEventType":"select_promotion","analyticsEventPayload":{"promotion_id":"oferte-dph-21feb-8mar23","promotion_name":"Curățenie și îngrijire personală"}},"discountLabel":"Economisești 20%","geniusDiscountLabel":null,"badge":null},{"code":"100036026","variantCode":"100036026","name":"Pachet: 2x Periuță de dinți cu peri de duritate medie ZigZag Medium","slug":"100036026-colgate-pachet-2x-periuta-de-dinti-cu-peri-de-duritate-medie-zigzag-medium","unitPriceLabel":"","brand":"Colgate","brandCode":"329","brandFilterCode":"colgate-b330","sku":"100036026","price":8.75,"originalPrice":null,"currencyCode":"RON","currency":"Lei","image":{"thumbnail":{"default":"https://cdn.freshful.ro/media/cache/sylius_shop_product_thumbnail/f4/6e/1951f0083f0ca8eb48a007ec3929.jpg"},"large":{"default":"https://cdn.freshful.ro/media/cache/freshful_large/f4/6e/1951f0083f0ca8eb48a007ec3929.jpg"},"extralarge":{"default":"https://cdn.freshful.ro/media/cache/sylius_shop_product_original/f4/6e/1951f0083f0ca8eb48a007ec3929.jpg"}},"label":null,"tags":[],"isAvailable":true,"maxAvailableQuantity":75,"maxAllowedQuantity":100,"breadcrumbs":[{"code":"11","name":"Cosmetice","slug":"11-cosmetice-si-ingrijire-personala"},{"code":"1109","name":"Igienă dentară","slug":"1109-igiena-dentara"},{"code":"110902","name":"Periuțe de dinți","slug":"110902-periute-de-dinti"},{"code":"100036026","name":"Pachet: 2x Periuță de dinți cu peri de duritate medie ZigZag Medium","slug":"100036026-colgate-pachet-2x-periuta-de-dinti-cu-peri-de-duritate-medie-zigzag-medium"}],"activePromotion":null,"saveMe":null,"labels":[],"geniusPrice":null,"geniusUnitPricePerLabel":null,"banner":null,"discountLabel":null,"geniusDiscountLabel":null,"badge":null},{"code":"100036035","variantCode":"100036035","name":"Periuță de dinți cu peri moi Recyclean Soft","slug":"100036035-colgate-periuta-de-dinti-cu-peri-moi-recyclean-soft","unitPriceLabel":"","brand":"Colgate","brandCode":"329","brandFilterCode":"colgate-b330","sku":"100036035","price":26.5,"originalPrice":null,"currencyCode":"RON","currency":"Lei","image":{"thumbnail":{"default":"https://cdn.freshful.ro/media/cache/sylius_shop_product_thumbnail/e8/fc/09771af14cc1535bc14e317b26fd.jpg"},"large":{"default":"https://cdn.freshful.ro/media/cache/freshful_large/e8/fc/09771af14cc1535bc14e317b26fd.jpg"},"extralarge":{"default":"https://cdn.freshful.ro/media/cache/sylius_shop_product_original/e8/fc/09771af14cc1535bc14e317b26fd.jpg"}},"label":null,"tags":[],"isAvailable":true,"maxAvailableQuantity":100,"maxAllowedQuantity":100,"breadcrumbs":[{"code":"11","name":"Cosmetice","slug":"11-cosmetice-si-ingrijire-personala"},{"code":"1109","name":"Igienă dentară","slug":"1109-igiena-dentara"},{"code":"110902","name":"Periuțe de dinți","slug":"110902-periute-de-dinti"},{"code":"100036035","name":"Periuță de dinți cu peri moi Recyclean Soft","slug":"100036035-colgate-periuta-de-dinti-cu-peri-moi-recyclean-soft"}],"activePromotion":null,"saveMe":null,"labels":[],"geniusPrice":null,"geniusUnitPricePerLabel":null,"banner":null,"discountLabel":null,"geniusDiscountLabel":null,"badge":null},{"code":"100036334","variantCode":"100036334","name":"Periuță de dinți Advanced Clean ","slug":"100036334-sensodyne-periuta-de-dinti-advanced-clean","unitPriceLabel":"","brand":"Sensodyne","brandCode":"414","brandFilterCode":"sensodyne-b415","sku":"100036334","price":14.5,"originalPrice":null,"currencyCode":"RON","currency":"Lei","image":{"thumbnail":{"default":"https://cdn.freshful.ro/media/cache/sylius_shop_product_thumbnail/1e/3d/f52304a018a28cf5fdb940e998dd.jpg"},"large":{"default":"https://cdn.freshful.ro/media/cache/freshful_large/1e/3d/f52304a018a28cf5fdb940e998dd.jpg"},"extralarge":{"default":"https://cdn.freshful.ro/media/cache/sylius_shop_product_original/1e/3d/f52304a018a28cf5fdb940e998dd.jpg"}},"label":null,"tags":[],"isAvailable":true,"maxAvailableQuantity":100,"maxAllowedQuantity":100,"breadcrumbs":[{"code":"11","name":"Cosmetice","slug":"11-cosmetice-si-ingrijire-personala"},{"code":"1109","name":"Igienă dentară","slug":"1109-igiena-dentara"},{"code":"110902","name":"Periuțe de dinți","slug":"110902-periute-de-dinti"},{"code":"100036334","name":"Periuță de dinți Advanced Clean ","slug":"100036334-sensodyne-periuta-de-dinti-advanced-clean"}],"activePromotion":null,"saveMe":null,"labels":[],"geniusPrice":null,"geniusUnitPricePerLabel":null,"banner":null,"discountLabel":null,"geniusDiscountLabel":null,"badge":null},{"code":"100036025","variantCode":"100036025","name":"Pachet: 2x Periuță de dinți cu peri de duritate medie Extra Clean Medium","slug":"100036025-colgate-pachet-2x-periuta-de-dinti-cu-peri-de-duritate-medie-extra-clean-medium","unitPriceLabel":"","brand":"Colgate","brandCode":"329","brandFilterCode":"colgate-b330","sku":"100036025","price":7.25,"originalPrice":null,"currencyCode":"RON","currency":"Lei","image":{"thumbnail":{"default":"https://cdn.freshful.ro/media/cache/sylius_shop_product_thumbnail/fd/22/cf076f6f965580cfb69657b9826d.jpg"},"large":{"default":"https://cdn.freshful.ro/media/cache/freshful_large/fd/22/cf076f6f965580cfb69657b9826d.jpg"},"extralarge":{"default":"https://cdn.freshful.ro/media/cache/sylius_shop_product_original/fd/22/cf076f6f965580cfb69657b9826d.jpg"}},"label":null,"tags":[],"isAvailable":true,"maxAvailableQuantity":23,"maxAllowedQuantity":100,"breadcrumbs":[{"code":"11","name":"Cosmetice","slug":"11-cosmetice-si-ingrijire-personala"},{"code":"1109","name":"Igienă dentară","slug":"1109-igiena-dentara"},{"code":"110902","name":"Periuțe de dinți","slug":"110902-periute-de-dinti"},{"code":"100036025","name":"Pachet: 2x Periuță de dinți cu peri de duritate medie Extra Clean Medium","slug":"100036025-colgate-pachet-2x-periuta-de-dinti-cu-peri-de-duritate-medie-extra-clean-medium"}],"activePromotion":null,"saveMe":null,"labels":[],"geniusPrice":null,"geniusUnitPricePerLabel":null,"banner":null,"discountLabel":null,"geniusDiscountLabel":null,"badge":null},{"code":"100036031","variantCode":"100036031","name":"Pachet promo: 2x Periuță de dinți pentru copii cu peri foarte moi Minions / Trolls, vârstă 2-6 ani, Extra Soft","slug":"100036031-colgate-pachet-promo-2x-periuta-de-dinti-pentru-copii-cu-peri-foarte-moi-minions-trolls-varsta-2-6-ani-extra-soft","unitPriceLabel":"","brand":"Colgate","brandCode":"329","brandFilterCode":"colgate-b330","sku":"100036031","price":9.99,"originalPrice":null,"currencyCode":"RON","currency":"Lei","image":{"thumbnail":{"default":"https://cdn.freshful.ro/media/cache/sylius_shop_product_thumbnail/65/4c/62995ea0056de1d64cb7870292ba.jpg"},"large":{"default":"https://cdn.freshful.ro/media/cache/freshful_large/65/4c/62995ea0056de1d64cb7870292ba.jpg"},"extralarge":{"default":"https://cdn.freshful.ro/media/cache/sylius_shop_product_original/65/4c/62995ea0056de1d64cb7870292ba.jpg"}},"label":null,"tags":[],"isAvailable":true,"maxAvailableQuantity":31,"maxAllowedQuantity":100,"breadcrumbs":[{"code":"11","name":"Cosmetice","slug":"11-cosmetice-si-ingrijire-personala"},{"code":"1109","name":"Igienă dentară","slug":"1109-igiena-dentara"},{"code":"110902","name":"Periuțe de dinți","slug":"110902-periute-de-dinti"},{"code":"100036031","name":"Pachet promo: 2x Periuță de dinți pentru copii cu peri foarte moi Minions / Trolls, vârstă 2-6 ani, Extra Soft","slug":"100036031-colgate-pachet-promo-2x-periuta-de-dinti-pentru-copii-cu-peri-foarte-moi-minions-trolls-varsta-2-6-ani-extra-soft"}],"activePromotion":null,"saveMe":null,"labels":[],"geniusPrice":null,"geniusUnitPricePerLabel":null,"banner":null,"discountLabel":null,"geniusDiscountLabel":null,"badge":null},{"code":"100036300","variantCode":"100036300","name":"Periuță de dinți Expert","slug":"100036300-sensodyne-periuta-de-dinti-expert","unitPriceLabel":"","brand":"Sensodyne","brandCode":"414","brandFilterCode":"sensodyne-b415","sku":"100036300","price":14.5,"originalPrice":null,"currencyCode":"RON","currency":"Lei","image":{"thumbnail":{"default":"https://cdn.freshful.ro/media/cache/sylius_shop_product_thumbnail/80/f3/e1344ea0a02a7a4a8fdf344edbb1.jpg"},"large":{"default":"https://cdn.freshful.ro/media/cache/freshful_large/80/f3/e1344ea0a02a7a4a8fdf344edbb1.jpg"},"extralarge":{"default":"https://cdn.freshful.ro/media/cache/sylius_shop_product_original/80/f3/e1344ea0a02a7a4a8fdf344edbb1.jpg"}},"label":null,"tags":[],"isAvailable":true,"maxAvailableQuantity":100,"maxAllowedQuantity":100,"breadcrumbs":[{"code":"11","name":"Cosmetice","slug":"11-cosmetice-si-ingrijire-personala"},{"code":"1109","name":"Igienă dentară","slug":"1109-igiena-dentara"},{"code":"110902","name":"Periuțe de dinți","slug":"110902-periute-de-dinti"},{"code":"100036300","name":"Periuță de dinți Expert","slug":"100036300-sensodyne-periuta-de-dinti-expert"}],"activePromotion":null,"saveMe":null,"labels":[],"geniusPrice":null,"geniusUnitPricePerLabel":null,"banner":null,"discountLabel":null,"geniusDiscountLabel":null,"badge":null},{"code":"100036027","variantCode":"100036027","name":"Pachet: 3x Periuță de dinți cu peri de duritate medie ZigZag Charcoal","slug":"100036027-colgate-pachet-3x-periuta-de-dinti-cu-peri-de-duritate-medie-zigzag-charcoal","unitPriceLabel":"","brand":"Colgate","brandCode":"329","brandFilterCode":"colgate-b330","sku":"100036027","price":15.5,"originalPrice":null,"currencyCode":"RON","currency":"Lei","image":{"thumbnail":{"default":"https://cdn.freshful.ro/media/cache/sylius_shop_product_thumbnail/2d/21/bd6ecd8a51606ac4893b9db0bd6c.jpg"},"large":{"default":"https://cdn.freshful.ro/media/cache/freshful_large/2d/21/bd6ecd8a51606ac4893b9db0bd6c.jpg"},"extralarge":{"default":"https://cdn.freshful.ro/media/cache/sylius_shop_product_original/2d/21/bd6ecd8a51606ac4893b9db0bd6c.jpg"}},"label":null,"tags":[],"isAvailable":true,"maxAvailableQuantity":19,"maxAllowedQuantity":100,"breadcrumbs":[{"code":"11","name":"Cosmetice","slug":"11-cosmetice-si-ingrijire-personala"},{"code":"1109","name":"Igienă dentară","slug":"1109-igiena-dentara"},{"code":"110902","name":"Periuțe de dinți","slug":"110902-periute-de-dinti"},{"code":"100036027","name":"Pachet: 3x Periuță de dinți cu peri de duritate medie ZigZag Charcoal","slug":"100036027-colgate-pachet-3x-periuta-de-dinti-cu-peri-de-duritate-medie-zigzag-charcoal"}],"activePromotion":null,"saveMe":null,"labels":[],"geniusPrice":null,"geniusUnitPricePerLabel":null,"banner":null,"discountLabel":null,"geniusDiscountLabel":null,"badge":null},{"code":"100150576","variantCode":"100150576","name":"Periuță de dinți cu peri medii Classic Deep Clean ","slug":"100150576-colgate-periuta-de-dinti-cu-peri-medii-classic-deep-clean","unitPriceLabel":"","brand":"Colgate","brandCode":"329","brandFilterCode":"colgate-b330","sku":"100150576","price":3.99,"originalPrice":null,"currencyCode":"RON","currency":"Lei","image":{"thumbnail":{"default":"https://cdn.freshful.ro/media/cache/sylius_shop_product_thumbnail/b0/db/38da4aeb75d26832ca9f46bf899a.jpg"},"large":{"default":"https://cdn.freshful.ro/media/cache/freshful_large/b0/db/38da4aeb75d26832ca9f46bf899a.jpg"},"extralarge":{"default":"https://cdn.freshful.ro/media/cache/sylius_shop_product_original/b0/db/38da4aeb75d26832ca9f46bf899a.jpg"}},"label":null,"tags":[],"isAvailable":true,"maxAvailableQuantity":37,"maxAllowedQuantity":100,"breadcrumbs":[{"code":"11","name":"Cosmetice","slug":"11-cosmetice-si-ingrijire-personala"},{"code":"1109","name":"Igienă dentară","slug":"1109-igiena-dentara"},{"code":"110902","name":"Periuțe de dinți","slug":"110902-periute-de-dinti"},{"code":"100150576","name":"Periuță de dinți cu peri medii Classic Deep Clean ","slug":"100150576-colgate-periuta-de-dinti-cu-peri-medii-classic-deep-clean"}],"activePromotion":null,"saveMe":null,"labels":[],"geniusPrice":null,"geniusUnitPricePerLabel":null,"banner":null,"discountLabel":null,"geniusDiscountLabel":null,"badge":null},{"code":"100099120","variantCode":"100099120","name":"Periuță de dinți cu peri moi Sensitive","slug":"100099120-elmex-periuta-de-dinti-cu-peri-moi-sensitive","unitPriceLabel":"","brand":"Elmex","brandCode":"1681","brandFilterCode":"elmex-b1678","sku":"100099120","price":17.49,"originalPrice":null,"currencyCode":"RON","currency":"Lei","image":{"thumbnail":{"default":"https://cdn.freshful.ro/media/cache/sylius_shop_product_thumbnail/84/21/101f5f94bd398c00aa17cbb46c66.jpg"},"large":{"default":"https://cdn.freshful.ro/media/cache/freshful_large/84/21/101f5f94bd398c00aa17cbb46c66.jpg"},"extralarge":{"default":"https://cdn.freshful.ro/media/cache/sylius_shop_product_original/84/21/101f5f94bd398c00aa17cbb46c66.jpg"}},"label":null,"tags":[],"isAvailable":true,"maxAvailableQuantity":7,"maxAllowedQuantity":100,"breadcrumbs":[{"code":"11","name":"Cosmetice","slug":"11-cosmetice-si-ingrijire-personala"},{"code":"1109","name":"Igienă dentară","slug":"1109-igiena-dentara"},{"code":"110902","name":"Periuțe de dinți","slug":"110902-periute-de-dinti"},{"code":"100099120","name":"Periuță de dinți cu peri moi Sensitive","slug":"100099120-elmex-periuta-de-dinti-cu-peri-moi-sensitive"}],"activePromotion":null,"saveMe":null,"labels":[],"geniusPrice":null,"geniusUnitPricePerLabel":null,"banner":null,"discountLabel":null,"geniusDiscountLabel":null,"badge":null}],"filters":{"countSelected":0,"items":[{"code":"promotion","name":"Promoții","countSelected":0,"values":[{"code":"oferte-dph-21feb-8mar23","name":"Curățenie și îngrijire personală","isSelected":false,"count":1}]},{"code":"brand","name":"Brand","countSelected":0,"values":[{"code":"aquafresh-b418","name":"Aquafresh","isSelected":false,"count":6},{"code":"chicco-b659","name":"Chicco","isSelected":false,"count":2},{"code":"colgate-b330","name":"Colgate","isSelected":false,"count":24},{"code":"elmex-b1678","name":"Elmex","isSelected":false,"count":6},{"code":"lacalut-b933","name":"Lacalut","isSelected":false,"count":11},{"code":"natura-verde-b340","name":"Natura Verde","isSelected":false,"count":2},{"code":"nordics-b1685","name":"Nordics","isSelected":false,"count":4},{"code":"oral-b-b666","name":"Oral-B","isSelected":false,"count":13},{"code":"parodontax-b416","name":"Parodontax","isSelected":false,"count":3},{"code":"pierrot-b1749","name":"Pierrot","isSelected":false,"count":3},{"code":"sensodyne-b415","name":"Sensodyne","isSelected":false,"count":4}]},{"code":"diet_lifestyle","name":"Dietă și lifestyle","countSelected":0,"values":[{"code":"vegan-a24","name":"Vegan","isSelected":false,"count":1}]}]},"orderBy":[{"field":"price","direction":"asc","name":"Preț crescător","isSelected":false},{"field":"price","direction":"desc","name":"Preț descrescător","isSelected":false},{"field":"popularity","direction":"desc","name":"Cele mai populare","isSelected":true},{"field":"category","direction":"asc","name":"Categorie","isSelected":false}],"metaTitle":"Periuțe de dinți - Gamă variată","metaDescription":"Vrei Periuțe de dinți? Alege dintr-o gamă variată. Comanzi simplu și ai livrare rapidă, calitate și prospețime. Hai pe Freshful.ro","metaKeywords":null,"banners":[]}}