{"type":"subcategory","payload":{"analyticsListId":"category_110903-intretinere-dentara","analyticsListName":"Category - Întreținere dentară","name":"Întreținere dentară","slug":"110903-intretinere-dentara","image":null,"breadcrumbs":[{"code":"11","name":"Cosmetice","slug":"11-cosmetice-si-ingrijire-personala"},{"code":"1109","name":"Igienă dentară","slug":"1109-igiena-dentara"},{"code":"110903","name":"Întreținere dentară","slug":"110903-intretinere-dentara"}],"slots":[],"page":1,"limit":10,"pages":7,"count":62,"siblings":[{"name":"Deodorante și parfumuri","slug":"1101-deodorante-si-parfumuri","selected":false},{"name":"Bărbierit și îngrijire ten","slug":"1102-produse-pentru-barbierit-si-ingrijit-ten","selected":false},{"name":"Demachiante și creme","slug":"1103-creme-intretinere-si-demachiante","selected":false},{"name":"Protecție solară","slug":"1104-produse-cu-protectie-solara","selected":false},{"name":"Ceară, benzi și creme depilatoare","slug":"1105-ceara-benzi-si-creme-depliatoare","selected":false},{"name":"Seturi cadou","slug":"1106-seturi-cadou","selected":false},{"name":"Îngrijirea părului","slug":"1107-ingrijirea-parului","selected":false},{"name":"Igienă intimă","slug":"1108-igienta-inima","selected":false},{"name":"Igienă dentară","slug":"1109-igiena-dentara","selected":true},{"name":"Săpunuri și geluri de duș","slug":"1110-sapunuri-si-geluri-de-dus","selected":false},{"name":"Dermatocosmetice și parafarmacie","slug":"1111-dermatocosmetice-si-parafarmacie","selected":false},{"name":"Repelent","slug":"repelent","selected":false}],"children":[{"name":"Toate produsele","slug":"1109-igiena-dentara","selected":false},{"name":"Pastă de dinți","slug":"110901-pasta-de-dinti","selected":false},{"name":"Periuțe de dinți","slug":"110902-periute-de-dinti","selected":false},{"name":"Întreținere dentară","slug":"110903-intretinere-dentara","selected":true}],"products":[{"code":"100035991","variantCode":"100035991","name":"Apă de gură fără alcool Plax Cool Mint 500ml","slug":"100035991-colgate-apa-de-gura-fara-alcool-plax-cool-mint-500ml","unitPriceLabel":"35,78 Lei/l","brand":"Colgate","brandCode":"329","brandFilterCode":"colgate-b330","sku":"100035991","price":17.89,"originalPrice":22.9,"currencyCode":"RON","currency":"Lei","image":{"thumbnail":{"default":"https://cdn.freshful.ro/media/cache/sylius_shop_product_thumbnail/1a/3e/2ae75fbeddf7997a06e6a2b7040d.jpg"},"large":{"default":"https://cdn.freshful.ro/media/cache/freshful_large/1a/3e/2ae75fbeddf7997a06e6a2b7040d.jpg"},"extralarge":{"default":"https://cdn.freshful.ro/media/cache/sylius_shop_product_original/1a/3e/2ae75fbeddf7997a06e6a2b7040d.jpg"}},"label":{"text":"-21%","backgroundColor":"#FF9903","textColor":"#FFFFFF"},"tags":[],"isAvailable":true,"maxAvailableQuantity":54,"maxAllowedQuantity":100,"breadcrumbs":[{"code":"11","name":"Cosmetice","slug":"11-cosmetice-si-ingrijire-personala"},{"code":"1109","name":"Igienă dentară","slug":"1109-igiena-dentara"},{"code":"110903","name":"Întreținere dentară","slug":"110903-intretinere-dentara"},{"code":"100035991","name":"Apă de gură fără alcool Plax Cool Mint 500ml","slug":"100035991-colgate-apa-de-gura-fara-alcool-plax-cool-mint-500ml"}],"activePromotion":{"code":"oferte-dph-21feb-8mar23","name":"Preț redus","targetQuantity":null},"saveMe":null,"labels":[{"type":"v1","items":[{"text":"-21%","backgroundColor":"#FF9903","textColor":"#FFFFFF"}]}],"geniusPrice":null,"geniusUnitPricePerLabel":null,"banner":{"text":"Super preț","textColor":"#FF0000","bgColor":"#FFF2EC","icon":null,"link":"https://www.freshful.ro/oferte/oferte-dph-21feb-8mar23","type":"promo","analyticsEventType":"select_promotion","analyticsEventPayload":{"promotion_id":"oferte-dph-21feb-8mar23","promotion_name":"Curățenie și îngrijire personală"}},"discountLabel":"Economisești 21%","geniusDiscountLabel":null,"badge":null},{"code":"100086272","variantCode":"100086272","name":"Apă de gură pentru copii Smart Rinse 250ml","slug":"100086272-listerine-apa-de-gura-pentru-copii-smart-rinse-250ml","unitPriceLabel":"47,96 Lei/l","brand":"Listerine","brandCode":"559","brandFilterCode":"listerine-b560","sku":"100086272","price":11.99,"originalPrice":14.9,"currencyCode":"RON","currency":"Lei","image":{"thumbnail":{"default":"https://cdn.freshful.ro/media/cache/sylius_shop_product_thumbnail/4e/f0/b8eac5a223785a0e9fc78bc1acdb.jpg"},"large":{"default":"https://cdn.freshful.ro/media/cache/freshful_large/4e/f0/b8eac5a223785a0e9fc78bc1acdb.jpg"},"extralarge":{"default":"https://cdn.freshful.ro/media/cache/sylius_shop_product_original/4e/f0/b8eac5a223785a0e9fc78bc1acdb.jpg"}},"label":{"text":"-19%","backgroundColor":"#FF9903","textColor":"#FFFFFF"},"tags":[],"isAvailable":true,"maxAvailableQuantity":48,"maxAllowedQuantity":100,"breadcrumbs":[{"code":"11","name":"Cosmetice","slug":"11-cosmetice-si-ingrijire-personala"},{"code":"1109","name":"Igienă dentară","slug":"1109-igiena-dentara"},{"code":"110903","name":"Întreținere dentară","slug":"110903-intretinere-dentara"},{"code":"100086272","name":"Apă de gură pentru copii Smart Rinse 250ml","slug":"100086272-listerine-apa-de-gura-pentru-copii-smart-rinse-250ml"}],"activePromotion":{"code":"oferte-dph-21feb-8mar23","name":"Preț redus","targetQuantity":null},"saveMe":null,"labels":[{"type":"v1","items":[{"text":"-19%","backgroundColor":"#FF9903","textColor":"#FFFFFF"}]}],"geniusPrice":null,"geniusUnitPricePerLabel":null,"banner":{"text":"Super preț","textColor":"#FF0000","bgColor":"#FFF2EC","icon":null,"link":"https://www.freshful.ro/oferte/oferte-dph-21feb-8mar23","type":"promo","analyticsEventType":"select_promotion","analyticsEventPayload":{"promotion_id":"oferte-dph-21feb-8mar23","promotion_name":"Curățenie și îngrijire personală"}},"discountLabel":"Economisești 19%","geniusDiscountLabel":null,"badge":null},{"code":"100086270","variantCode":"100086270","name":"Apă de gură Total Care 500ml","slug":"100086270-listerine-apa-de-gura-total-care-500ml","unitPriceLabel":"43,98 Lei/l","brand":"Listerine","brandCode":"559","brandFilterCode":"listerine-b560","sku":"100086270","price":21.99,"originalPrice":23.5,"currencyCode":"RON","currency":"Lei","image":{"thumbnail":{"default":"https://cdn.freshful.ro/media/cache/sylius_shop_product_thumbnail/5b/39/a0f6498c4908e471fbc3e9e00fe8.jpg"},"large":{"default":"https://cdn.freshful.ro/media/cache/freshful_large/5b/39/a0f6498c4908e471fbc3e9e00fe8.jpg"},"extralarge":{"default":"https://cdn.freshful.ro/media/cache/sylius_shop_product_original/5b/39/a0f6498c4908e471fbc3e9e00fe8.jpg"}},"label":{"text":"-6%","backgroundColor":"#FF9903","textColor":"#FFFFFF"},"tags":[],"isAvailable":true,"maxAvailableQuantity":35,"maxAllowedQuantity":100,"breadcrumbs":[{"code":"11","name":"Cosmetice","slug":"11-cosmetice-si-ingrijire-personala"},{"code":"1109","name":"Igienă dentară","slug":"1109-igiena-dentara"},{"code":"110903","name":"Întreținere dentară","slug":"110903-intretinere-dentara"},{"code":"100086270","name":"Apă de gură Total Care 500ml","slug":"100086270-listerine-apa-de-gura-total-care-500ml"}],"activePromotion":{"code":"oferte-dph-21feb-8mar23","name":"Preț redus","targetQuantity":null},"saveMe":null,"labels":[{"type":"v1","items":[{"text":"-6%","backgroundColor":"#FF9903","textColor":"#FFFFFF"}]}],"geniusPrice":null,"geniusUnitPricePerLabel":null,"banner":{"text":"Super preț","textColor":"#FF0000","bgColor":"#FFF2EC","icon":null,"link":"https://www.freshful.ro/oferte/oferte-dph-21feb-8mar23","type":"promo","analyticsEventType":"select_promotion","analyticsEventPayload":{"promotion_id":"oferte-dph-21feb-8mar23","promotion_name":"Curățenie și îngrijire personală"}},"discountLabel":"Economisești 6%","geniusDiscountLabel":null,"badge":null},{"code":"100143833","variantCode":"100143833","name":"Apă de gură protecție pentru gingii 500ml ","slug":"100143833-listerine-apa-de-gura-protectie-pentru-gingii-500ml","unitPriceLabel":"47,58 Lei/l","brand":"Listerine","brandCode":"559","brandFilterCode":"listerine-b560","sku":"100143833","price":23.79,"originalPrice":null,"currencyCode":"RON","currency":"Lei","image":{"thumbnail":{"default":"https://cdn.freshful.ro/media/cache/sylius_shop_product_thumbnail/fd/cd/1134f79a323e7475b237aa000ee0.jpg"},"large":{"default":"https://cdn.freshful.ro/media/cache/freshful_large/fd/cd/1134f79a323e7475b237aa000ee0.jpg"},"extralarge":{"default":"https://cdn.freshful.ro/media/cache/sylius_shop_product_original/fd/cd/1134f79a323e7475b237aa000ee0.jpg"}},"label":{"text":"Profită acum","backgroundColor":"#FF9903","textColor":"#FFFFFF"},"tags":[{"type":"vegan","text":"Vegan","icon":"https://cdn.freshful.ro/assets/product_tags/vegan.svg","iconPng":"https://cdn.freshful.ro/assets/product_tags/vegan.png","backgroundColor":"#ECF9F8","textColor":"#33A39C"}],"isAvailable":true,"maxAvailableQuantity":16,"maxAllowedQuantity":100,"breadcrumbs":[{"code":"11","name":"Cosmetice","slug":"11-cosmetice-si-ingrijire-personala"},{"code":"1109","name":"Igienă dentară","slug":"1109-igiena-dentara"},{"code":"110903","name":"Întreținere dentară","slug":"110903-intretinere-dentara"},{"code":"100143833","name":"Apă de gură protecție pentru gingii 500ml ","slug":"100143833-listerine-apa-de-gura-protectie-pentru-gingii-500ml"}],"activePromotion":{"code":"freshful-top-deals-2023","name":"Preț avantajos","targetQuantity":null},"saveMe":null,"labels":[{"type":"v1","items":[{"text":"Profită acum","backgroundColor":"#FF9903","textColor":"#FFFFFF"}]}],"geniusPrice":null,"geniusUnitPricePerLabel":null,"banner":{"text":"Preț avantajos","textColor":"#F95510","bgColor":"#FEF1CD","icon":null,"link":"https://www.freshful.ro/oferte/freshful-top-deals-2023","type":"promo","analyticsEventType":"select_promotion","analyticsEventPayload":{"promotion_id":"freshful-top-deals-2023","promotion_name":"Profită de Top Deals"}},"discountLabel":null,"geniusDiscountLabel":null,"badge":null},{"code":"100086271","variantCode":"100086271","name":"Apă de gură Total Care 500ml","slug":"100086271-listerine-apa-de-gura-total-care-500ml","unitPriceLabel":"43,98 Lei/l","brand":"Listerine","brandCode":"559","brandFilterCode":"listerine-b560","sku":"100086271","price":21.99,"originalPrice":23.89,"currencyCode":"RON","currency":"Lei","image":{"thumbnail":{"default":"https://cdn.freshful.ro/media/cache/sylius_shop_product_thumbnail/33/9c/1e26b084db710999f48c52f2b0f8.jpg"},"large":{"default":"https://cdn.freshful.ro/media/cache/freshful_large/33/9c/1e26b084db710999f48c52f2b0f8.jpg"},"extralarge":{"default":"https://cdn.freshful.ro/media/cache/sylius_shop_product_original/33/9c/1e26b084db710999f48c52f2b0f8.jpg"}},"label":{"text":"-7%","backgroundColor":"#FF9903","textColor":"#FFFFFF"},"tags":[],"isAvailable":true,"maxAvailableQuantity":23,"maxAllowedQuantity":100,"breadcrumbs":[{"code":"11","name":"Cosmetice","slug":"11-cosmetice-si-ingrijire-personala"},{"code":"1109","name":"Igienă dentară","slug":"1109-igiena-dentara"},{"code":"110903","name":"Întreținere dentară","slug":"110903-intretinere-dentara"},{"code":"100086271","name":"Apă de gură Total Care 500ml","slug":"100086271-listerine-apa-de-gura-total-care-500ml"}],"activePromotion":{"code":"oferte-dph-21feb-8mar23","name":"Preț redus","targetQuantity":null},"saveMe":null,"labels":[{"type":"v1","items":[{"text":"-7%","backgroundColor":"#FF9903","textColor":"#FFFFFF"}]}],"geniusPrice":null,"geniusUnitPricePerLabel":null,"banner":{"text":"Super preț","textColor":"#FF0000","bgColor":"#FFF2EC","icon":null,"link":"https://www.freshful.ro/oferte/oferte-dph-21feb-8mar23","type":"promo","analyticsEventType":"select_promotion","analyticsEventPayload":{"promotion_id":"oferte-dph-21feb-8mar23","promotion_name":"Curățenie și îngrijire personală"}},"discountLabel":"Economisești 7%","geniusDiscountLabel":null,"badge":null},{"code":"100143832","variantCode":"100143832","name":"Apă de gură protecție pentru smalț cu mentă 500ml","slug":"100143832-listerine-apa-de-gura-protectie-pentru-smalt-cu-menta-500ml","unitPriceLabel":"47,58 Lei/l","brand":"Listerine","brandCode":"559","brandFilterCode":"listerine-b560","sku":"100143832","price":23.79,"originalPrice":null,"currencyCode":"RON","currency":"Lei","image":{"thumbnail":{"default":"https://cdn.freshful.ro/media/cache/sylius_shop_product_thumbnail/f9/a9/ec9fee565010565c1c86bbe2da1e.jpg"},"large":{"default":"https://cdn.freshful.ro/media/cache/freshful_large/f9/a9/ec9fee565010565c1c86bbe2da1e.jpg"},"extralarge":{"default":"https://cdn.freshful.ro/media/cache/sylius_shop_product_original/f9/a9/ec9fee565010565c1c86bbe2da1e.jpg"}},"label":{"text":"Profită acum","backgroundColor":"#FF9903","textColor":"#FFFFFF"},"tags":[{"type":"vegan","text":"Vegan","icon":"https://cdn.freshful.ro/assets/product_tags/vegan.svg","iconPng":"https://cdn.freshful.ro/assets/product_tags/vegan.png","backgroundColor":"#ECF9F8","textColor":"#33A39C"}],"isAvailable":true,"maxAvailableQuantity":21,"maxAllowedQuantity":100,"breadcrumbs":[{"code":"11","name":"Cosmetice","slug":"11-cosmetice-si-ingrijire-personala"},{"code":"1109","name":"Igienă dentară","slug":"1109-igiena-dentara"},{"code":"110903","name":"Întreținere dentară","slug":"110903-intretinere-dentara"},{"code":"100143832","name":"Apă de gură protecție pentru smalț cu mentă 500ml","slug":"100143832-listerine-apa-de-gura-protectie-pentru-smalt-cu-menta-500ml"}],"activePromotion":{"code":"freshful-top-deals-2023","name":"Preț avantajos","targetQuantity":null},"saveMe":null,"labels":[{"type":"v1","items":[{"text":"Profită acum","backgroundColor":"#FF9903","textColor":"#FFFFFF"}]}],"geniusPrice":null,"geniusUnitPricePerLabel":null,"banner":{"text":"Preț avantajos","textColor":"#F95510","bgColor":"#FEF1CD","icon":null,"link":"https://www.freshful.ro/oferte/freshful-top-deals-2023","type":"promo","analyticsEventType":"select_promotion","analyticsEventPayload":{"promotion_id":"freshful-top-deals-2023","promotion_name":"Profită de Top Deals"}},"discountLabel":null,"geniusDiscountLabel":null,"badge":null},{"code":"100143834","variantCode":"100143834","name":"Apă de gură Total Care protecție împotrivă tartului 500ml","slug":"100143834-listerine-apa-de-gura-total-care-protectie-impotriva-tartului-500ml","unitPriceLabel":"56,98 Lei/l","brand":"Listerine","brandCode":"559","brandFilterCode":"listerine-b560","sku":"100143834","price":28.49,"originalPrice":null,"currencyCode":"RON","currency":"Lei","image":{"thumbnail":{"default":"https://cdn.freshful.ro/media/cache/sylius_shop_product_thumbnail/6e/7e/0a3171ff23e3d2d7c47332084291.jpg"},"large":{"default":"https://cdn.freshful.ro/media/cache/freshful_large/6e/7e/0a3171ff23e3d2d7c47332084291.jpg"},"extralarge":{"default":"https://cdn.freshful.ro/media/cache/sylius_shop_product_original/6e/7e/0a3171ff23e3d2d7c47332084291.jpg"}},"label":null,"tags":[],"isAvailable":true,"maxAvailableQuantity":100,"maxAllowedQuantity":100,"breadcrumbs":[{"code":"11","name":"Cosmetice","slug":"11-cosmetice-si-ingrijire-personala"},{"code":"1109","name":"Igienă dentară","slug":"1109-igiena-dentara"},{"code":"110903","name":"Întreținere dentară","slug":"110903-intretinere-dentara"},{"code":"100143834","name":"Apă de gură Total Care protecție împotrivă tartului 500ml","slug":"100143834-listerine-apa-de-gura-total-care-protectie-impotriva-tartului-500ml"}],"activePromotion":null,"saveMe":null,"labels":[],"geniusPrice":null,"geniusUnitPricePerLabel":null,"banner":null,"discountLabel":null,"geniusDiscountLabel":null,"badge":null},{"code":"100091431","variantCode":"100091431","name":"Ață dentară Satin 25m","slug":"100091431-oral-b-ata-dentara-satin-25m","unitPriceLabel":"","brand":"Oral-B","brandCode":"665","brandFilterCode":"oral-b-b666","sku":"100091431","price":14.9,"originalPrice":null,"currencyCode":"RON","currency":"Lei","image":{"thumbnail":{"default":"https://cdn.freshful.ro/media/cache/sylius_shop_product_thumbnail/ef/d3/1764ce77d62f4666d19af5f41fc8.jpg"},"large":{"default":"https://cdn.freshful.ro/media/cache/freshful_large/ef/d3/1764ce77d62f4666d19af5f41fc8.jpg"},"extralarge":{"default":"https://cdn.freshful.ro/media/cache/sylius_shop_product_original/ef/d3/1764ce77d62f4666d19af5f41fc8.jpg"}},"label":null,"tags":[],"isAvailable":true,"maxAvailableQuantity":100,"maxAllowedQuantity":100,"breadcrumbs":[{"code":"11","name":"Cosmetice","slug":"11-cosmetice-si-ingrijire-personala"},{"code":"1109","name":"Igienă dentară","slug":"1109-igiena-dentara"},{"code":"110903","name":"Întreținere dentară","slug":"110903-intretinere-dentara"},{"code":"100091431","name":"Ață dentară Satin 25m","slug":"100091431-oral-b-ata-dentara-satin-25m"}],"activePromotion":null,"saveMe":null,"labels":[],"geniusPrice":null,"geniusUnitPricePerLabel":null,"banner":null,"discountLabel":null,"geniusDiscountLabel":null,"badge":null},{"code":"100086266","variantCode":"100086266","name":"Apă de gură Cool Mint 1000ml","slug":"100086266-listerine-apa-de-gura-cool-mint-1000ml","unitPriceLabel":"25,7 Lei/l","brand":"Listerine","brandCode":"559","brandFilterCode":"listerine-b560","sku":"100086266","price":25.7,"originalPrice":null,"currencyCode":"RON","currency":"Lei","image":{"thumbnail":{"default":"https://cdn.freshful.ro/media/cache/sylius_shop_product_thumbnail/05/92/42cc54b80fb098a67c7ce7343e34.jpg"},"large":{"default":"https://cdn.freshful.ro/media/cache/freshful_large/05/92/42cc54b80fb098a67c7ce7343e34.jpg"},"extralarge":{"default":"https://cdn.freshful.ro/media/cache/sylius_shop_product_original/05/92/42cc54b80fb098a67c7ce7343e34.jpg"}},"label":null,"tags":[],"isAvailable":true,"maxAvailableQuantity":100,"maxAllowedQuantity":100,"breadcrumbs":[{"code":"11","name":"Cosmetice","slug":"11-cosmetice-si-ingrijire-personala"},{"code":"1109","name":"Igienă dentară","slug":"1109-igiena-dentara"},{"code":"110903","name":"Întreținere dentară","slug":"110903-intretinere-dentara"},{"code":"100086266","name":"Apă de gură Cool Mint 1000ml","slug":"100086266-listerine-apa-de-gura-cool-mint-1000ml"}],"activePromotion":null,"saveMe":null,"labels":[],"geniusPrice":null,"geniusUnitPricePerLabel":null,"banner":null,"discountLabel":null,"geniusDiscountLabel":null,"badge":null},{"code":"100091430","variantCode":"100091430","name":"Ață dentară Essential 50m","slug":"100091430-oral-b-ata-dentara-essential-50m","unitPriceLabel":"","brand":"Oral-B","brandCode":"665","brandFilterCode":"oral-b-b666","sku":"100091430","price":11.9,"originalPrice":null,"currencyCode":"RON","currency":"Lei","image":{"thumbnail":{"default":"https://cdn.freshful.ro/media/cache/sylius_shop_product_thumbnail/e7/21/65951e706f1f8695540c263410fe.jpg"},"large":{"default":"https://cdn.freshful.ro/media/cache/freshful_large/e7/21/65951e706f1f8695540c263410fe.jpg"},"extralarge":{"default":"https://cdn.freshful.ro/media/cache/sylius_shop_product_original/e7/21/65951e706f1f8695540c263410fe.jpg"}},"label":null,"tags":[],"isAvailable":true,"maxAvailableQuantity":81,"maxAllowedQuantity":100,"breadcrumbs":[{"code":"11","name":"Cosmetice","slug":"11-cosmetice-si-ingrijire-personala"},{"code":"1109","name":"Igienă dentară","slug":"1109-igiena-dentara"},{"code":"110903","name":"Întreținere dentară","slug":"110903-intretinere-dentara"},{"code":"100091430","name":"Ață dentară Essential 50m","slug":"100091430-oral-b-ata-dentara-essential-50m"}],"activePromotion":null,"saveMe":null,"labels":[],"geniusPrice":null,"geniusUnitPricePerLabel":null,"banner":null,"discountLabel":null,"geniusDiscountLabel":null,"badge":null}],"filters":{"countSelected":0,"items":[{"code":"promotion","name":"Promoții","countSelected":0,"values":[{"code":"oferte-dph-21feb-8mar23","name":"Curățenie și îngrijire personală","isSelected":false,"count":4},{"code":"freshful-top-deals-2023","name":"Profită de Top Deals","isSelected":false,"count":2}]},{"code":"brand","name":"Brand","countSelected":0,"values":[{"code":"apidava-cosmetic-line-b1871","name":"Apidava Cosmetic Line","isSelected":false,"count":2},{"code":"aquafresh-b418","name":"Aquafresh","isSelected":false,"count":2},{"code":"blend-a-med-b667","name":"Blend-A-Med","isSelected":false,"count":1},{"code":"colgate-b330","name":"Colgate","isSelected":false,"count":8},{"code":"corega-b417","name":"Corega","isSelected":false,"count":4},{"code":"eliah-sahil-b1684","name":"Eliah Sahil","isSelected":false,"count":1},{"code":"elmex-b1678","name":"Elmex","isSelected":false,"count":4},{"code":"fixodent-b668","name":"Fixodent","isSelected":false,"count":5},{"code":"lacalut-b933","name":"Lacalut","isSelected":false,"count":9},{"code":"listerine-b560","name":"Listerine","isSelected":false,"count":12},{"code":"nordics-b1685","name":"Nordics","isSelected":false,"count":1},{"code":"oral-b-b666","name":"Oral-B","isSelected":false,"count":6},{"code":"parodontax-b416","name":"Parodontax","isSelected":false,"count":2},{"code":"pierrot-b1749","name":"Pierrot","isSelected":false,"count":3},{"code":"sensodyne-b415","name":"Sensodyne","isSelected":false,"count":2}]},{"code":"diet_lifestyle","name":"Dietă și lifestyle","countSelected":0,"values":[{"code":"bio-a26","name":"Bio","isSelected":false,"count":1},{"code":"natural-a27","name":"Natural","isSelected":false,"count":1},{"code":"vegan-a24","name":"Vegan","isSelected":false,"count":4}]}]},"orderBy":[{"field":"price","direction":"asc","name":"Preț crescător","isSelected":false},{"field":"price","direction":"desc","name":"Preț descrescător","isSelected":false},{"field":"popularity","direction":"desc","name":"Cele mai populare","isSelected":true},{"field":"category","direction":"asc","name":"Categorie","isSelected":false}],"metaTitle":"Întreținere dentară - Gamă variată","metaDescription":"Vrei Întreținere dentară? Alege dintr-o gamă variată. Comanzi simplu și ai livrare rapidă, calitate și prospețime. Hai pe Freshful.ro","metaKeywords":null,"banners":[]}}