{"type":"subcategory","payload":{"analyticsListId":"category_111001-sapun-solid","analyticsListName":"Category - Săpun solid","name":"Săpun solid","slug":"111001-sapun-solid","image":null,"breadcrumbs":[{"code":"11","name":"Cosmetice","slug":"11-cosmetice-si-ingrijire-personala"},{"code":"1110","name":"Săpunuri și geluri de duș","slug":"1110-sapunuri-si-geluri-de-dus"},{"code":"111001","name":"Săpun solid","slug":"111001-sapun-solid"}],"slots":[],"page":1,"limit":10,"pages":4,"count":36,"siblings":[{"name":"Deodorante și parfumuri","slug":"1101-deodorante-si-parfumuri","selected":false},{"name":"Bărbierit și îngrijire ten","slug":"1102-produse-pentru-barbierit-si-ingrijit-ten","selected":false},{"name":"Demachiante și creme","slug":"1103-creme-intretinere-si-demachiante","selected":false},{"name":"Protecție solară","slug":"1104-produse-cu-protectie-solara","selected":false},{"name":"Ceară, benzi și creme depilatoare","slug":"1105-ceara-benzi-si-creme-depliatoare","selected":false},{"name":"Seturi cadou","slug":"1106-seturi-cadou","selected":false},{"name":"Îngrijirea părului","slug":"1107-ingrijirea-parului","selected":false},{"name":"Igienă intimă","slug":"1108-igienta-inima","selected":false},{"name":"Igienă dentară","slug":"1109-igiena-dentara","selected":false},{"name":"Săpunuri și geluri de duș","slug":"1110-sapunuri-si-geluri-de-dus","selected":true},{"name":"Dermatocosmetice și parafarmacie","slug":"1111-dermatocosmetice-si-parafarmacie","selected":false},{"name":"Repelent","slug":"repelent","selected":false}],"children":[{"name":"Toate produsele","slug":"1110-sapunuri-si-geluri-de-dus","selected":false},{"name":"Săpun solid","slug":"111001-sapun-solid","selected":true},{"name":"Săpun lichid","slug":"111002-sapun-lichid","selected":false},{"name":"Gel hydroalcoolica","slug":"111003-gel-hydroalcoolica","selected":false},{"name":"Gel de duș și sare de baie","slug":"111004-gel-de-dus-si-sare-de-baie","selected":false},{"name":"Bureți de baie și bețișoare de urechi","slug":"111005-bureti-de-baie-si-betisoare-de-urechi","selected":false}],"products":[{"code":"100036066","variantCode":"100036066","name":"Săpun solid antibacterian Ultra 90g","slug":"100036066-protex-sapun-solid-antibacterian-ultra-90g","unitPriceLabel":"35,44 Lei/kg","brand":"Protex","brandCode":"331","brandFilterCode":"protex-b332","sku":"100036066","price":3.19,"originalPrice":null,"currencyCode":"RON","currency":"Lei","image":{"thumbnail":{"default":"https://cdn.freshful.ro/media/cache/sylius_shop_product_thumbnail/24/23/b44b7717ac1b54225f3a5b1428ae.jpg"},"large":{"default":"https://cdn.freshful.ro/media/cache/freshful_large/24/23/b44b7717ac1b54225f3a5b1428ae.jpg"},"extralarge":{"default":"https://cdn.freshful.ro/media/cache/sylius_shop_product_original/24/23/b44b7717ac1b54225f3a5b1428ae.jpg"}},"label":{"text":"Profită acum","backgroundColor":"#FF9903","textColor":"#FFFFFF"},"tags":[],"isAvailable":true,"maxAvailableQuantity":100,"maxAllowedQuantity":100,"breadcrumbs":[{"code":"11","name":"Cosmetice","slug":"11-cosmetice-si-ingrijire-personala"},{"code":"1110","name":"Săpunuri și geluri de duș","slug":"1110-sapunuri-si-geluri-de-dus"},{"code":"111001","name":"Săpun solid","slug":"111001-sapun-solid"},{"code":"100036066","name":"Săpun solid antibacterian Ultra 90g","slug":"100036066-protex-sapun-solid-antibacterian-ultra-90g"}],"activePromotion":{"code":"freshful-top-deals-2023","name":"Preț avantajos","targetQuantity":null},"saveMe":null,"labels":[{"type":"v1","items":[{"text":"Profită acum","backgroundColor":"#FF9903","textColor":"#FFFFFF"}]}],"geniusPrice":null,"geniusUnitPricePerLabel":null,"banner":{"text":"Preț avantajos","textColor":"#F95510","bgColor":"#FEF1CD","icon":null,"link":"https://www.freshful.ro/oferte/freshful-top-deals-2023","type":"promo","analyticsEventType":"select_promotion","analyticsEventPayload":{"promotion_id":"freshful-top-deals-2023","promotion_name":"Profită de Top Deals"}},"discountLabel":null,"geniusDiscountLabel":null,"badge":null},{"code":"100036070","variantCode":"100036070","name":"Săpun solid antibacterian Deep Clean 90g","slug":"100036070-protex-sapun-solid-antibacterian-deep-clean-90g","unitPriceLabel":"35,44 Lei/kg","brand":"Protex","brandCode":"331","brandFilterCode":"protex-b332","sku":"100036070","price":3.19,"originalPrice":null,"currencyCode":"RON","currency":"Lei","image":{"thumbnail":{"default":"https://cdn.freshful.ro/media/cache/sylius_shop_product_thumbnail/90/04/fa1294d327f40517be7737882878.jpg"},"large":{"default":"https://cdn.freshful.ro/media/cache/freshful_large/90/04/fa1294d327f40517be7737882878.jpg"},"extralarge":{"default":"https://cdn.freshful.ro/media/cache/sylius_shop_product_original/90/04/fa1294d327f40517be7737882878.jpg"}},"label":{"text":"Profită acum","backgroundColor":"#FF9903","textColor":"#FFFFFF"},"tags":[],"isAvailable":true,"maxAvailableQuantity":54,"maxAllowedQuantity":100,"breadcrumbs":[{"code":"11","name":"Cosmetice","slug":"11-cosmetice-si-ingrijire-personala"},{"code":"1110","name":"Săpunuri și geluri de duș","slug":"1110-sapunuri-si-geluri-de-dus"},{"code":"111001","name":"Săpun solid","slug":"111001-sapun-solid"},{"code":"100036070","name":"Săpun solid antibacterian Deep Clean 90g","slug":"100036070-protex-sapun-solid-antibacterian-deep-clean-90g"}],"activePromotion":{"code":"freshful-top-deals-2023","name":"Preț avantajos","targetQuantity":null},"saveMe":null,"labels":[{"type":"v1","items":[{"text":"Profită acum","backgroundColor":"#FF9903","textColor":"#FFFFFF"}]}],"geniusPrice":null,"geniusUnitPricePerLabel":null,"banner":{"text":"Preț avantajos","textColor":"#F95510","bgColor":"#FEF1CD","icon":null,"link":"https://www.freshful.ro/oferte/freshful-top-deals-2023","type":"promo","analyticsEventType":"select_promotion","analyticsEventPayload":{"promotion_id":"freshful-top-deals-2023","promotion_name":"Profită de Top Deals"}},"discountLabel":null,"geniusDiscountLabel":null,"badge":null},{"code":"100140642","variantCode":"100140642","name":"Săpun Crema Beauty 90g","slug":"100140642-dove-sapun-crema-beauty-90g","unitPriceLabel":"65,44 Lei/kg","brand":"Dove","brandCode":"763","brandFilterCode":"dove-b764","sku":"100140642","price":5.89,"originalPrice":null,"currencyCode":"RON","currency":"Lei","image":{"thumbnail":{"default":"https://cdn.freshful.ro/media/cache/sylius_shop_product_thumbnail/03/c7/df59438f98b4dd0b17f16d7e013a.jpg"},"large":{"default":"https://cdn.freshful.ro/media/cache/freshful_large/03/c7/df59438f98b4dd0b17f16d7e013a.jpg"},"extralarge":{"default":"https://cdn.freshful.ro/media/cache/sylius_shop_product_original/03/c7/df59438f98b4dd0b17f16d7e013a.jpg"}},"label":null,"tags":[],"isAvailable":true,"maxAvailableQuantity":100,"maxAllowedQuantity":100,"breadcrumbs":[{"code":"11","name":"Cosmetice","slug":"11-cosmetice-si-ingrijire-personala"},{"code":"1110","name":"Săpunuri și geluri de duș","slug":"1110-sapunuri-si-geluri-de-dus"},{"code":"111001","name":"Săpun solid","slug":"111001-sapun-solid"},{"code":"100140642","name":"Săpun Crema Beauty 90g","slug":"100140642-dove-sapun-crema-beauty-90g"}],"activePromotion":null,"saveMe":null,"labels":[],"geniusPrice":null,"geniusUnitPricePerLabel":null,"banner":null,"discountLabel":null,"geniusDiscountLabel":null,"badge":null},{"code":"100036065","variantCode":"100036065","name":"Săpun solid antibacterian Fresh 90g","slug":"100036065-protex-sapun-solid-antibacterian-fresh-90g","unitPriceLabel":"35,44 Lei/kg","brand":"Protex","brandCode":"331","brandFilterCode":"protex-b332","sku":"100036065","price":3.19,"originalPrice":null,"currencyCode":"RON","currency":"Lei","image":{"thumbnail":{"default":"https://cdn.freshful.ro/media/cache/sylius_shop_product_thumbnail/da/60/d89428f55a23fa598dd712ee045e.jpg"},"large":{"default":"https://cdn.freshful.ro/media/cache/freshful_large/da/60/d89428f55a23fa598dd712ee045e.jpg"},"extralarge":{"default":"https://cdn.freshful.ro/media/cache/sylius_shop_product_original/da/60/d89428f55a23fa598dd712ee045e.jpg"}},"label":null,"tags":[],"isAvailable":true,"maxAvailableQuantity":100,"maxAllowedQuantity":100,"breadcrumbs":[{"code":"11","name":"Cosmetice","slug":"11-cosmetice-si-ingrijire-personala"},{"code":"1110","name":"Săpunuri și geluri de duș","slug":"1110-sapunuri-si-geluri-de-dus"},{"code":"111001","name":"Săpun solid","slug":"111001-sapun-solid"},{"code":"100036065","name":"Săpun solid antibacterian Fresh 90g","slug":"100036065-protex-sapun-solid-antibacterian-fresh-90g"}],"activePromotion":null,"saveMe":null,"labels":[],"geniusPrice":null,"geniusUnitPricePerLabel":null,"banner":null,"discountLabel":null,"geniusDiscountLabel":null,"badge":null},{"code":"100140644","variantCode":"100140644","name":"Săpun Cream Oil 90g","slug":"100140644-dove-sapun-cream-oil-90g","unitPriceLabel":"68,44 Lei/kg","brand":"Dove","brandCode":"763","brandFilterCode":"dove-b764","sku":"100140644","price":6.16,"originalPrice":null,"currencyCode":"RON","currency":"Lei","image":{"thumbnail":{"default":"https://cdn.freshful.ro/media/cache/sylius_shop_product_thumbnail/9e/f9/765dca18ccb56145892f91ed123b.jpg"},"large":{"default":"https://cdn.freshful.ro/media/cache/freshful_large/9e/f9/765dca18ccb56145892f91ed123b.jpg"},"extralarge":{"default":"https://cdn.freshful.ro/media/cache/sylius_shop_product_original/9e/f9/765dca18ccb56145892f91ed123b.jpg"}},"label":null,"tags":[],"isAvailable":true,"maxAvailableQuantity":100,"maxAllowedQuantity":100,"breadcrumbs":[{"code":"11","name":"Cosmetice","slug":"11-cosmetice-si-ingrijire-personala"},{"code":"1110","name":"Săpunuri și geluri de duș","slug":"1110-sapunuri-si-geluri-de-dus"},{"code":"111001","name":"Săpun solid","slug":"111001-sapun-solid"},{"code":"100140644","name":"Săpun Cream Oil 90g","slug":"100140644-dove-sapun-cream-oil-90g"}],"activePromotion":null,"saveMe":null,"labels":[],"geniusPrice":null,"geniusUnitPricePerLabel":null,"banner":null,"discountLabel":null,"geniusDiscountLabel":null,"badge":null},{"code":"100036068","variantCode":"100036068","name":"Săpun solid antibacterian Cream 90g","slug":"100036068-protex-sapun-solid-antibacterian-cream-90g","unitPriceLabel":"35,44 Lei/kg","brand":"Protex","brandCode":"331","brandFilterCode":"protex-b332","sku":"100036068","price":3.19,"originalPrice":null,"currencyCode":"RON","currency":"Lei","image":{"thumbnail":{"default":"https://cdn.freshful.ro/media/cache/sylius_shop_product_thumbnail/e3/93/27ddf5be39c79d0ed389c43c316a.jpg"},"large":{"default":"https://cdn.freshful.ro/media/cache/freshful_large/e3/93/27ddf5be39c79d0ed389c43c316a.jpg"},"extralarge":{"default":"https://cdn.freshful.ro/media/cache/sylius_shop_product_original/e3/93/27ddf5be39c79d0ed389c43c316a.jpg"}},"label":null,"tags":[],"isAvailable":true,"maxAvailableQuantity":100,"maxAllowedQuantity":100,"breadcrumbs":[{"code":"11","name":"Cosmetice","slug":"11-cosmetice-si-ingrijire-personala"},{"code":"1110","name":"Săpunuri și geluri de duș","slug":"1110-sapunuri-si-geluri-de-dus"},{"code":"111001","name":"Săpun solid","slug":"111001-sapun-solid"},{"code":"100036068","name":"Săpun solid antibacterian Cream 90g","slug":"100036068-protex-sapun-solid-antibacterian-cream-90g"}],"activePromotion":null,"saveMe":null,"labels":[],"geniusPrice":null,"geniusUnitPricePerLabel":null,"banner":null,"discountLabel":null,"geniusDiscountLabel":null,"badge":null},{"code":"100140643","variantCode":"100140643","name":"Săpun Crema Sensitive 90g","slug":"100140643-dove-sapun-crema-sensitive-90g","unitPriceLabel":"65,44 Lei/kg","brand":"Dove","brandCode":"763","brandFilterCode":"dove-b764","sku":"100140643","price":5.89,"originalPrice":null,"currencyCode":"RON","currency":"Lei","image":{"thumbnail":{"default":"https://cdn.freshful.ro/media/cache/sylius_shop_product_thumbnail/f2/92/fde59765f08e0ef34fa8281bfd94.jpg"},"large":{"default":"https://cdn.freshful.ro/media/cache/freshful_large/f2/92/fde59765f08e0ef34fa8281bfd94.jpg"},"extralarge":{"default":"https://cdn.freshful.ro/media/cache/sylius_shop_product_original/f2/92/fde59765f08e0ef34fa8281bfd94.jpg"}},"label":null,"tags":[],"isAvailable":true,"maxAvailableQuantity":100,"maxAllowedQuantity":100,"breadcrumbs":[{"code":"11","name":"Cosmetice","slug":"11-cosmetice-si-ingrijire-personala"},{"code":"1110","name":"Săpunuri și geluri de duș","slug":"1110-sapunuri-si-geluri-de-dus"},{"code":"111001","name":"Săpun solid","slug":"111001-sapun-solid"},{"code":"100140643","name":"Săpun Crema Sensitive 90g","slug":"100140643-dove-sapun-crema-sensitive-90g"}],"activePromotion":null,"saveMe":null,"labels":[],"geniusPrice":null,"geniusUnitPricePerLabel":null,"banner":null,"discountLabel":null,"geniusDiscountLabel":null,"badge":null},{"code":"100036067","variantCode":"100036067","name":"Săpun solid antibacterian Propolis 90g","slug":"100036067-protex-sapun-solid-antibacterian-propolis-90g","unitPriceLabel":"35,44 Lei/kg","brand":"Protex","brandCode":"331","brandFilterCode":"protex-b332","sku":"100036067","price":3.19,"originalPrice":null,"currencyCode":"RON","currency":"Lei","image":{"thumbnail":{"default":"https://cdn.freshful.ro/media/cache/sylius_shop_product_thumbnail/66/9a/49df559846720f3887ea097a8810.jpg"},"large":{"default":"https://cdn.freshful.ro/media/cache/freshful_large/66/9a/49df559846720f3887ea097a8810.jpg"},"extralarge":{"default":"https://cdn.freshful.ro/media/cache/sylius_shop_product_original/66/9a/49df559846720f3887ea097a8810.jpg"}},"label":null,"tags":[],"isAvailable":true,"maxAvailableQuantity":100,"maxAllowedQuantity":100,"breadcrumbs":[{"code":"11","name":"Cosmetice","slug":"11-cosmetice-si-ingrijire-personala"},{"code":"1110","name":"Săpunuri și geluri de duș","slug":"1110-sapunuri-si-geluri-de-dus"},{"code":"111001","name":"Săpun solid","slug":"111001-sapun-solid"},{"code":"100036067","name":"Săpun solid antibacterian Propolis 90g","slug":"100036067-protex-sapun-solid-antibacterian-propolis-90g"}],"activePromotion":null,"saveMe":null,"labels":[],"geniusPrice":null,"geniusUnitPricePerLabel":null,"banner":null,"discountLabel":null,"geniusDiscountLabel":null,"badge":null},{"code":"100036075","variantCode":"100036075","name":"Săpun solid Naturals Moisture Care Olive & Milk 90g","slug":"100036075-palmolive-sapun-solid-naturals-moisture-care-olive-milk-90g","unitPriceLabel":"33,22 Lei/kg","brand":"Palmolive","brandCode":"330","brandFilterCode":"palmolive-b331","sku":"100036075","price":2.99,"originalPrice":null,"currencyCode":"RON","currency":"Lei","image":{"thumbnail":{"default":"https://cdn.freshful.ro/media/cache/sylius_shop_product_thumbnail/f8/0f/33488905b60754d5d2b9c0d6495e.jpg"},"large":{"default":"https://cdn.freshful.ro/media/cache/freshful_large/f8/0f/33488905b60754d5d2b9c0d6495e.jpg"},"extralarge":{"default":"https://cdn.freshful.ro/media/cache/sylius_shop_product_original/f8/0f/33488905b60754d5d2b9c0d6495e.jpg"}},"label":null,"tags":[],"isAvailable":true,"maxAvailableQuantity":84,"maxAllowedQuantity":100,"breadcrumbs":[{"code":"11","name":"Cosmetice","slug":"11-cosmetice-si-ingrijire-personala"},{"code":"1110","name":"Săpunuri și geluri de duș","slug":"1110-sapunuri-si-geluri-de-dus"},{"code":"111001","name":"Săpun solid","slug":"111001-sapun-solid"},{"code":"100036075","name":"Săpun solid Naturals Moisture Care Olive & Milk 90g","slug":"100036075-palmolive-sapun-solid-naturals-moisture-care-olive-milk-90g"}],"activePromotion":null,"saveMe":null,"labels":[],"geniusPrice":null,"geniusUnitPricePerLabel":null,"banner":null,"discountLabel":null,"geniusDiscountLabel":null,"badge":null},{"code":"100036076","variantCode":"100036076","name":"Săpun solid Naturals Nourishing Sensation Milk & Rose 90g","slug":"100036076-palmolive-sapun-solid-naturals-nourishing-sensation-milk-rose-90g","unitPriceLabel":"33,22 Lei/kg","brand":"Palmolive","brandCode":"330","brandFilterCode":"palmolive-b331","sku":"100036076","price":2.99,"originalPrice":null,"currencyCode":"RON","currency":"Lei","image":{"thumbnail":{"default":"https://cdn.freshful.ro/media/cache/sylius_shop_product_thumbnail/0c/db/bffda55dee3f9e67a4e79b9f652c.jpg"},"large":{"default":"https://cdn.freshful.ro/media/cache/freshful_large/0c/db/bffda55dee3f9e67a4e79b9f652c.jpg"},"extralarge":{"default":"https://cdn.freshful.ro/media/cache/sylius_shop_product_original/0c/db/bffda55dee3f9e67a4e79b9f652c.jpg"}},"label":null,"tags":[],"isAvailable":true,"maxAvailableQuantity":100,"maxAllowedQuantity":100,"breadcrumbs":[{"code":"11","name":"Cosmetice","slug":"11-cosmetice-si-ingrijire-personala"},{"code":"1110","name":"Săpunuri și geluri de duș","slug":"1110-sapunuri-si-geluri-de-dus"},{"code":"111001","name":"Săpun solid","slug":"111001-sapun-solid"},{"code":"100036076","name":"Săpun solid Naturals Nourishing Sensation Milk & Rose 90g","slug":"100036076-palmolive-sapun-solid-naturals-nourishing-sensation-milk-rose-90g"}],"activePromotion":null,"saveMe":null,"labels":[],"geniusPrice":null,"geniusUnitPricePerLabel":null,"banner":null,"discountLabel":null,"geniusDiscountLabel":null,"badge":null}],"filters":{"countSelected":0,"items":[{"code":"promotion","name":"Promoții","countSelected":0,"values":[{"code":"freshful-top-deals-2023","name":"Profită de Top Deals","isSelected":false,"count":2}]},{"code":"brand","name":"Brand","countSelected":0,"values":[{"code":"apidava-cosmetic-line-b1871","name":"Apidava Cosmetic Line","isSelected":false,"count":9},{"code":"dove-b764","name":"Dove","isSelected":false,"count":4},{"code":"le-petit-olivier-b1746","name":"Le Petit Olivier","isSelected":false,"count":4},{"code":"palmolive-b331","name":"Palmolive","isSelected":false,"count":7},{"code":"protex-b332","name":"Protex","isSelected":false,"count":8},{"code":"safeguard-b665","name":"Safeguard","isSelected":false,"count":1},{"code":"sonett-b1681","name":"Sonett","isSelected":false,"count":1}]},{"code":"diet_lifestyle","name":"Dietă și lifestyle","countSelected":0,"values":[{"code":"bio-a26","name":"Bio","isSelected":false,"count":1},{"code":"vegan-a24","name":"Vegan","isSelected":false,"count":1}]}]},"orderBy":[{"field":"price","direction":"asc","name":"Preț crescător","isSelected":false},{"field":"price","direction":"desc","name":"Preț descrescător","isSelected":false},{"field":"popularity","direction":"desc","name":"Cele mai populare","isSelected":true},{"field":"category","direction":"asc","name":"Categorie","isSelected":false}],"metaTitle":"Săpun solid - Gamă variată","metaDescription":"Vrei Săpun solid? Alege dintr-o gamă variată. Comanzi simplu și ai livrare rapidă, calitate și prospețime. Hai pe Freshful.ro","metaKeywords":null,"banners":[]}}