{"type":"subcategory","payload":{"analyticsListId":"category_111005-bureti-de-baie-si-betisoare-de-urechi","analyticsListName":"Category - Bureți de baie și bețișoare de urechi","name":"Bureți de baie și bețișoare de urechi","slug":"111005-bureti-de-baie-si-betisoare-de-urechi","image":null,"breadcrumbs":[{"code":"11","name":"Cosmetice","slug":"11-cosmetice-si-ingrijire-personala"},{"code":"1110","name":"Săpunuri și geluri de duș","slug":"1110-sapunuri-si-geluri-de-dus"},{"code":"111005","name":"Bureți de baie și bețișoare de urechi","slug":"111005-bureti-de-baie-si-betisoare-de-urechi"}],"slots":[],"page":1,"limit":10,"pages":2,"count":13,"siblings":[{"name":"Deodorante și parfumuri","slug":"1101-deodorante-si-parfumuri","selected":false},{"name":"Bărbierit și îngrijire ten","slug":"1102-produse-pentru-barbierit-si-ingrijit-ten","selected":false},{"name":"Demachiante și creme","slug":"1103-creme-intretinere-si-demachiante","selected":false},{"name":"Protecție solară","slug":"1104-produse-cu-protectie-solara","selected":false},{"name":"Ceară, benzi și creme depilatoare","slug":"1105-ceara-benzi-si-creme-depliatoare","selected":false},{"name":"Seturi cadou","slug":"1106-seturi-cadou","selected":false},{"name":"Îngrijirea părului","slug":"1107-ingrijirea-parului","selected":false},{"name":"Igienă intimă","slug":"1108-igienta-inima","selected":false},{"name":"Igienă dentară","slug":"1109-igiena-dentara","selected":false},{"name":"Săpunuri și geluri de duș","slug":"1110-sapunuri-si-geluri-de-dus","selected":true},{"name":"Dermatocosmetice și parafarmacie","slug":"1111-dermatocosmetice-si-parafarmacie","selected":false},{"name":"Repelent","slug":"repelent","selected":false}],"children":[{"name":"Toate produsele","slug":"1110-sapunuri-si-geluri-de-dus","selected":false},{"name":"Săpun solid","slug":"111001-sapun-solid","selected":false},{"name":"Săpun lichid","slug":"111002-sapun-lichid","selected":false},{"name":"Gel hydroalcoolica","slug":"111003-gel-hydroalcoolica","selected":false},{"name":"Gel de duș și sare de baie","slug":"111004-gel-de-dus-si-sare-de-baie","selected":false},{"name":"Bureți de baie și bețișoare de urechi","slug":"111005-bureti-de-baie-si-betisoare-de-urechi","selected":true}],"products":[{"code":"100030918","variantCode":"5900516400040","name":"Bețișoare igienice din hârtie cutie 200 buc","slug":"100030918-bella-betisoare-igienice-din-hartie-cutie-200-buc","unitPriceLabel":"","brand":"Bella","brandCode":"321","brandFilterCode":"bella-b322","sku":"100030918","price":7.59,"originalPrice":null,"currencyCode":"RON","currency":"Lei","image":{"thumbnail":{"default":"https://cdn.freshful.ro/media/cache/sylius_shop_product_thumbnail/4a/8d/0f3a75a6abb81eccc11f2c5dfb42.jpg"},"large":{"default":"https://cdn.freshful.ro/media/cache/freshful_large/4a/8d/0f3a75a6abb81eccc11f2c5dfb42.jpg"},"extralarge":{"default":"https://cdn.freshful.ro/media/cache/sylius_shop_product_original/4a/8d/0f3a75a6abb81eccc11f2c5dfb42.jpg"}},"label":null,"tags":[],"isAvailable":true,"maxAvailableQuantity":100,"maxAllowedQuantity":100,"breadcrumbs":[{"code":"11","name":"Cosmetice","slug":"11-cosmetice-si-ingrijire-personala"},{"code":"1110","name":"Săpunuri și geluri de duș","slug":"1110-sapunuri-si-geluri-de-dus"},{"code":"111005","name":"Bureți de baie și bețișoare de urechi","slug":"111005-bureti-de-baie-si-betisoare-de-urechi"},{"code":"100030918","name":"Bețișoare igienice din hârtie cutie 200 buc","slug":"100030918-bella-betisoare-igienice-din-hartie-cutie-200-buc"}],"activePromotion":null,"saveMe":null,"labels":[],"geniusPrice":null,"geniusUnitPricePerLabel":null,"banner":null,"discountLabel":null,"geniusDiscountLabel":null,"badge":null},{"code":"100030880","variantCode":"5900516400170","name":" Cotton bețișoare igienice rezervă 160 buc","slug":"100030880-bella-cotton-betisoare-igienice-rezerva-160-buc","unitPriceLabel":"","brand":"Bella","brandCode":"321","brandFilterCode":"bella-b322","sku":"100030880","price":4.99,"originalPrice":null,"currencyCode":"RON","currency":"Lei","image":{"thumbnail":{"default":"https://cdn.freshful.ro/media/cache/sylius_shop_product_thumbnail/ff/58/3656d9fa619e4cb2040e87ba5d25.jpg"},"large":{"default":"https://cdn.freshful.ro/media/cache/freshful_large/ff/58/3656d9fa619e4cb2040e87ba5d25.jpg"},"extralarge":{"default":"https://cdn.freshful.ro/media/cache/sylius_shop_product_original/ff/58/3656d9fa619e4cb2040e87ba5d25.jpg"}},"label":null,"tags":[],"isAvailable":true,"maxAvailableQuantity":100,"maxAllowedQuantity":100,"breadcrumbs":[{"code":"11","name":"Cosmetice","slug":"11-cosmetice-si-ingrijire-personala"},{"code":"1110","name":"Săpunuri și geluri de duș","slug":"1110-sapunuri-si-geluri-de-dus"},{"code":"111005","name":"Bureți de baie și bețișoare de urechi","slug":"111005-bureti-de-baie-si-betisoare-de-urechi"},{"code":"100030880","name":" Cotton bețișoare igienice rezervă 160 buc","slug":"100030880-bella-cotton-betisoare-igienice-rezerva-160-buc"}],"activePromotion":null,"saveMe":null,"labels":[],"geniusPrice":null,"geniusUnitPricePerLabel":null,"banner":null,"discountLabel":null,"geniusDiscountLabel":null,"badge":null},{"code":"100106236","variantCode":"100106236","name":"Rezervă bețișoare 160 buc","slug":"100106236-family-rezerva-betisoare-160-buc","unitPriceLabel":"","brand":"Family","brandCode":"1743","brandFilterCode":"family-b1747","sku":"100106236","price":3.69,"originalPrice":null,"currencyCode":"RON","currency":"Lei","image":{"thumbnail":{"default":"https://cdn.freshful.ro/media/cache/sylius_shop_product_thumbnail/11/10/bb68773f44106b2077f3d3955cf0.jpg"},"large":{"default":"https://cdn.freshful.ro/media/cache/freshful_large/11/10/bb68773f44106b2077f3d3955cf0.jpg"},"extralarge":{"default":"https://cdn.freshful.ro/media/cache/sylius_shop_product_original/11/10/bb68773f44106b2077f3d3955cf0.jpg"}},"label":null,"tags":[],"isAvailable":true,"maxAvailableQuantity":100,"maxAllowedQuantity":100,"breadcrumbs":[{"code":"11","name":"Cosmetice","slug":"11-cosmetice-si-ingrijire-personala"},{"code":"1110","name":"Săpunuri și geluri de duș","slug":"1110-sapunuri-si-geluri-de-dus"},{"code":"111005","name":"Bureți de baie și bețișoare de urechi","slug":"111005-bureti-de-baie-si-betisoare-de-urechi"},{"code":"100106236","name":"Rezervă bețișoare 160 buc","slug":"100106236-family-rezerva-betisoare-160-buc"}],"activePromotion":null,"saveMe":null,"labels":[],"geniusPrice":null,"geniusUnitPricePerLabel":null,"banner":null,"discountLabel":null,"geniusDiscountLabel":null,"badge":null},{"code":"100150571","variantCode":"100150571","name":"Burete de baie pentru masaj 1 buc","slug":"100150571-no-brand-burete-de-baie-pentru-masaj-1-buc","unitPriceLabel":"","brand":"Sana","brandCode":"2995","brandFilterCode":"sana-b3089","sku":"100150571","price":7.99,"originalPrice":null,"currencyCode":"RON","currency":"Lei","image":{"thumbnail":{"default":"https://cdn.freshful.ro/media/cache/sylius_shop_product_thumbnail/5e/64/9c7cfbaf455a637bdf5b5ab90292.jpg"},"large":{"default":"https://cdn.freshful.ro/media/cache/freshful_large/5e/64/9c7cfbaf455a637bdf5b5ab90292.jpg"},"extralarge":{"default":"https://cdn.freshful.ro/media/cache/sylius_shop_product_original/5e/64/9c7cfbaf455a637bdf5b5ab90292.jpg"}},"label":null,"tags":[],"isAvailable":true,"maxAvailableQuantity":100,"maxAllowedQuantity":100,"breadcrumbs":[{"code":"11","name":"Cosmetice","slug":"11-cosmetice-si-ingrijire-personala"},{"code":"1110","name":"Săpunuri și geluri de duș","slug":"1110-sapunuri-si-geluri-de-dus"},{"code":"111005","name":"Bureți de baie și bețișoare de urechi","slug":"111005-bureti-de-baie-si-betisoare-de-urechi"},{"code":"100150571","name":"Burete de baie pentru masaj 1 buc","slug":"100150571-no-brand-burete-de-baie-pentru-masaj-1-buc"}],"activePromotion":null,"saveMe":null,"labels":[],"geniusPrice":null,"geniusUnitPricePerLabel":null,"banner":null,"discountLabel":null,"geniusDiscountLabel":null,"badge":null},{"code":"100106221","variantCode":"100106221","name":"Burete exfoliant & parfumat cu extract de bambus ","slug":"100106221-martini-burete-exfoliant-parfumat-cu-extract-de-bambus","unitPriceLabel":"","brand":"Martini","brandCode":"1744","brandFilterCode":"martini-b1748","sku":"100106221","price":22.9,"originalPrice":null,"currencyCode":"RON","currency":"Lei","image":{"thumbnail":{"default":"https://cdn.freshful.ro/media/cache/sylius_shop_product_thumbnail/44/a3/0edff12e431b00816bfa687199b7.jpg"},"large":{"default":"https://cdn.freshful.ro/media/cache/freshful_large/44/a3/0edff12e431b00816bfa687199b7.jpg"},"extralarge":{"default":"https://cdn.freshful.ro/media/cache/sylius_shop_product_original/44/a3/0edff12e431b00816bfa687199b7.jpg"}},"label":null,"tags":[],"isAvailable":true,"maxAvailableQuantity":55,"maxAllowedQuantity":100,"breadcrumbs":[{"code":"11","name":"Cosmetice","slug":"11-cosmetice-si-ingrijire-personala"},{"code":"1110","name":"Săpunuri și geluri de duș","slug":"1110-sapunuri-si-geluri-de-dus"},{"code":"111005","name":"Bureți de baie și bețișoare de urechi","slug":"111005-bureti-de-baie-si-betisoare-de-urechi"},{"code":"100106221","name":"Burete exfoliant & parfumat cu extract de bambus ","slug":"100106221-martini-burete-exfoliant-parfumat-cu-extract-de-bambus"}],"activePromotion":null,"saveMe":null,"labels":[],"geniusPrice":null,"geniusUnitPricePerLabel":null,"banner":null,"discountLabel":null,"geniusDiscountLabel":null,"badge":null},{"code":"100106212","variantCode":"100106212","name":"Palmăr lufă","slug":"100106212-martini-palmar-lufa","unitPriceLabel":"","brand":"Martini","brandCode":"1744","brandFilterCode":"martini-b1748","sku":"100106212","price":20.69,"originalPrice":null,"currencyCode":"RON","currency":"Lei","image":{"thumbnail":{"default":"https://cdn.freshful.ro/media/cache/sylius_shop_product_thumbnail/c4/7a/82e240444070385f06cf844bc8c2.jpg"},"large":{"default":"https://cdn.freshful.ro/media/cache/freshful_large/c4/7a/82e240444070385f06cf844bc8c2.jpg"},"extralarge":{"default":"https://cdn.freshful.ro/media/cache/sylius_shop_product_original/c4/7a/82e240444070385f06cf844bc8c2.jpg"}},"label":null,"tags":[],"isAvailable":true,"maxAvailableQuantity":48,"maxAllowedQuantity":100,"breadcrumbs":[{"code":"11","name":"Cosmetice","slug":"11-cosmetice-si-ingrijire-personala"},{"code":"1110","name":"Săpunuri și geluri de duș","slug":"1110-sapunuri-si-geluri-de-dus"},{"code":"111005","name":"Bureți de baie și bețișoare de urechi","slug":"111005-bureti-de-baie-si-betisoare-de-urechi"},{"code":"100106212","name":"Palmăr lufă","slug":"100106212-martini-palmar-lufa"}],"activePromotion":null,"saveMe":null,"labels":[],"geniusPrice":null,"geniusUnitPricePerLabel":null,"banner":null,"discountLabel":null,"geniusDiscountLabel":null,"badge":null},{"code":"100102040","variantCode":"100102040","name":"Bețișoare din bumbac și bambus, alb 100 buc","slug":"100102040-nordics-betisoare-din-bumbac-si-bambus-alb-100-buc","unitPriceLabel":"","brand":"Nordics","brandCode":"1680","brandFilterCode":"nordics-b1685","sku":"100102040","price":11.99,"originalPrice":null,"currencyCode":"RON","currency":"Lei","image":{"thumbnail":{"default":"https://cdn.freshful.ro/media/cache/sylius_shop_product_thumbnail/4b/f1/616d77b0c594397ea7703eee8f9d.jpg"},"large":{"default":"https://cdn.freshful.ro/media/cache/freshful_large/4b/f1/616d77b0c594397ea7703eee8f9d.jpg"},"extralarge":{"default":"https://cdn.freshful.ro/media/cache/sylius_shop_product_original/4b/f1/616d77b0c594397ea7703eee8f9d.jpg"}},"label":null,"tags":[{"type":"vegan","text":"Vegan","icon":"https://cdn.freshful.ro/assets/product_tags/vegan.svg","iconPng":"https://cdn.freshful.ro/assets/product_tags/vegan.png","backgroundColor":"#ECF9F8","textColor":"#33A39C"}],"isAvailable":true,"maxAvailableQuantity":19,"maxAllowedQuantity":100,"breadcrumbs":[{"code":"11","name":"Cosmetice","slug":"11-cosmetice-si-ingrijire-personala"},{"code":"1110","name":"Săpunuri și geluri de duș","slug":"1110-sapunuri-si-geluri-de-dus"},{"code":"111005","name":"Bureți de baie și bețișoare de urechi","slug":"111005-bureti-de-baie-si-betisoare-de-urechi"},{"code":"100102040","name":"Bețișoare din bumbac și bambus, alb 100 buc","slug":"100102040-nordics-betisoare-din-bumbac-si-bambus-alb-100-buc"}],"activePromotion":null,"saveMe":null,"labels":[],"geniusPrice":null,"geniusUnitPricePerLabel":null,"banner":null,"discountLabel":null,"geniusDiscountLabel":null,"badge":null},{"code":"100106223","variantCode":"100106223","name":"Burete fin din celuloză ","slug":"100106223-martini-burete-fin-din-celuloza","unitPriceLabel":"","brand":"Martini","brandCode":"1744","brandFilterCode":"martini-b1748","sku":"100106223","price":14.19,"originalPrice":null,"currencyCode":"RON","currency":"Lei","image":{"thumbnail":{"default":"https://cdn.freshful.ro/media/cache/sylius_shop_product_thumbnail/62/fd/34e55359dbf29256c0664560002b.jpg"},"large":{"default":"https://cdn.freshful.ro/media/cache/freshful_large/62/fd/34e55359dbf29256c0664560002b.jpg"},"extralarge":{"default":"https://cdn.freshful.ro/media/cache/sylius_shop_product_original/62/fd/34e55359dbf29256c0664560002b.jpg"}},"label":null,"tags":[{"type":"Eco","text":"Eco","icon":"https://cdn.freshful.ro/assets/product_tags/eco.svg","iconPng":"https://cdn.freshful.ro/assets/product_tags/eco.png","backgroundColor":"#EFFBE4","textColor":"#66BB1B"}],"isAvailable":true,"maxAvailableQuantity":19,"maxAllowedQuantity":100,"breadcrumbs":[{"code":"11","name":"Cosmetice","slug":"11-cosmetice-si-ingrijire-personala"},{"code":"1110","name":"Săpunuri și geluri de duș","slug":"1110-sapunuri-si-geluri-de-dus"},{"code":"111005","name":"Bureți de baie și bețișoare de urechi","slug":"111005-bureti-de-baie-si-betisoare-de-urechi"},{"code":"100106223","name":"Burete fin din celuloză ","slug":"100106223-martini-burete-fin-din-celuloza"}],"activePromotion":null,"saveMe":null,"labels":[],"geniusPrice":null,"geniusUnitPricePerLabel":null,"banner":null,"discountLabel":null,"geniusDiscountLabel":null,"badge":null},{"code":"100106216","variantCode":"100106216","name":"Burete pentru piele sensibilă ","slug":"100106216-martini-burete-pentru-piele-sensibila","unitPriceLabel":"","brand":"Martini","brandCode":"1744","brandFilterCode":"martini-b1748","sku":"100106216","price":14.79,"originalPrice":null,"currencyCode":"RON","currency":"Lei","image":{"thumbnail":{"default":"https://cdn.freshful.ro/media/cache/sylius_shop_product_thumbnail/1b/23/2a10c94c138f6c7be09e82a2f826.jpg"},"large":{"default":"https://cdn.freshful.ro/media/cache/freshful_large/1b/23/2a10c94c138f6c7be09e82a2f826.jpg"},"extralarge":{"default":"https://cdn.freshful.ro/media/cache/sylius_shop_product_original/1b/23/2a10c94c138f6c7be09e82a2f826.jpg"}},"label":null,"tags":[],"isAvailable":true,"maxAvailableQuantity":12,"maxAllowedQuantity":100,"breadcrumbs":[{"code":"11","name":"Cosmetice","slug":"11-cosmetice-si-ingrijire-personala"},{"code":"1110","name":"Săpunuri și geluri de duș","slug":"1110-sapunuri-si-geluri-de-dus"},{"code":"111005","name":"Bureți de baie și bețișoare de urechi","slug":"111005-bureti-de-baie-si-betisoare-de-urechi"},{"code":"100106216","name":"Burete pentru piele sensibilă ","slug":"100106216-martini-burete-pentru-piele-sensibila"}],"activePromotion":null,"saveMe":null,"labels":[],"geniusPrice":null,"geniusUnitPricePerLabel":null,"banner":null,"discountLabel":null,"geniusDiscountLabel":null,"badge":null},{"code":"100106228","variantCode":"100106228","name":"Mănușă masaj 2 fețe ","slug":"100106228-martini-manusa-masaj-2-fete","unitPriceLabel":"","brand":"Martini","brandCode":"1744","brandFilterCode":"martini-b1748","sku":"100106228","price":15.64,"originalPrice":null,"currencyCode":"RON","currency":"Lei","image":{"thumbnail":{"default":"https://cdn.freshful.ro/media/cache/sylius_shop_product_thumbnail/61/d0/2e05d6becff596428c67f6799c4f.jpg"},"large":{"default":"https://cdn.freshful.ro/media/cache/freshful_large/61/d0/2e05d6becff596428c67f6799c4f.jpg"},"extralarge":{"default":"https://cdn.freshful.ro/media/cache/sylius_shop_product_original/61/d0/2e05d6becff596428c67f6799c4f.jpg"}},"label":null,"tags":[],"isAvailable":true,"maxAvailableQuantity":13,"maxAllowedQuantity":100,"breadcrumbs":[{"code":"11","name":"Cosmetice","slug":"11-cosmetice-si-ingrijire-personala"},{"code":"1110","name":"Săpunuri și geluri de duș","slug":"1110-sapunuri-si-geluri-de-dus"},{"code":"111005","name":"Bureți de baie și bețișoare de urechi","slug":"111005-bureti-de-baie-si-betisoare-de-urechi"},{"code":"100106228","name":"Mănușă masaj 2 fețe ","slug":"100106228-martini-manusa-masaj-2-fete"}],"activePromotion":null,"saveMe":null,"labels":[],"geniusPrice":null,"geniusUnitPricePerLabel":null,"banner":null,"discountLabel":null,"geniusDiscountLabel":null,"badge":null}],"filters":{"countSelected":0,"items":[{"code":"brand","name":"Brand","countSelected":0,"values":[{"code":"bella-b322","name":"Bella","isSelected":false,"count":2},{"code":"family-b1747","name":"Family","isSelected":false,"count":1},{"code":"martini-b1748","name":"Martini","isSelected":false,"count":7},{"code":"nordics-b1685","name":"Nordics","isSelected":false,"count":2},{"code":"sana-b3089","name":"Sana","isSelected":false,"count":1}]},{"code":"diet_lifestyle","name":"Dietă și lifestyle","countSelected":0,"values":[{"code":"bio-a26","name":"Bio","isSelected":false,"count":1},{"code":"eco-a83","name":"Eco","isSelected":false,"count":1},{"code":"vegan-a24","name":"Vegan","isSelected":false,"count":2}]}]},"orderBy":[{"field":"price","direction":"asc","name":"Preț crescător","isSelected":false},{"field":"price","direction":"desc","name":"Preț descrescător","isSelected":false},{"field":"popularity","direction":"desc","name":"Cele mai populare","isSelected":true},{"field":"category","direction":"asc","name":"Categorie","isSelected":false}],"metaTitle":"Bureți de baie și bețișoare de urechi - Gamă variată","metaDescription":"Vrei Bureți de baie și bețișoare de urechi? Alege dintr-o gamă variată. Comanzi simplu și ai livrare rapidă, calitate și prospețime. Hai pe Freshful.ro","metaKeywords":null,"banners":[]}}