{"type":"subcategory","payload":{"analyticsListId":"category_1110-sapunuri-si-geluri-de-dus","analyticsListName":"Category - Săpunuri și geluri de duș","name":"Săpunuri și geluri de duș","slug":"1110-sapunuri-si-geluri-de-dus","image":null,"breadcrumbs":[{"code":"11","name":"Cosmetice","slug":"11-cosmetice-si-ingrijire-personala"},{"code":"1110","name":"Săpunuri și geluri de duș","slug":"1110-sapunuri-si-geluri-de-dus"}],"slots":[],"page":1,"limit":10,"pages":33,"count":322,"siblings":[{"name":"Deodorante și parfumuri","slug":"1101-deodorante-si-parfumuri","selected":false},{"name":"Bărbierit și îngrijire ten","slug":"1102-produse-pentru-barbierit-si-ingrijit-ten","selected":false},{"name":"Demachiante și creme","slug":"1103-creme-intretinere-si-demachiante","selected":false},{"name":"Protecție solară","slug":"1104-produse-cu-protectie-solara","selected":false},{"name":"Ceară, benzi și creme depilatoare","slug":"1105-ceara-benzi-si-creme-depliatoare","selected":false},{"name":"Seturi cadou","slug":"1106-seturi-cadou","selected":false},{"name":"Îngrijirea părului","slug":"1107-ingrijirea-parului","selected":false},{"name":"Igienă intimă","slug":"1108-igienta-inima","selected":false},{"name":"Igienă dentară","slug":"1109-igiena-dentara","selected":false},{"name":"Săpunuri și geluri de duș","slug":"1110-sapunuri-si-geluri-de-dus","selected":true},{"name":"Dermatocosmetice și parafarmacie","slug":"1111-dermatocosmetice-si-parafarmacie","selected":false},{"name":"Repelent","slug":"repelent","selected":false}],"children":[{"name":"Toate produsele","slug":"1110-sapunuri-si-geluri-de-dus","selected":true},{"name":"Săpun solid","slug":"111001-sapun-solid","selected":false},{"name":"Săpun lichid","slug":"111002-sapun-lichid","selected":false},{"name":"Gel hydroalcoolica","slug":"111003-gel-hydroalcoolica","selected":false},{"name":"Gel de duș și sare de baie","slug":"111004-gel-de-dus-si-sare-de-baie","selected":false},{"name":"Bureți de baie și bețișoare de urechi","slug":"111005-bureti-de-baie-si-betisoare-de-urechi","selected":false}],"products":[{"code":"100062055","variantCode":"100062055","name":"Gel de duș Sweet Peony 500ml","slug":"100062055-dove-gel-de-dus-sweet-peony-500ml","unitPriceLabel":"33,98 Lei/l","brand":"Dove","brandCode":"763","brandFilterCode":"dove-b764","sku":"100062055","price":16.99,"originalPrice":null,"currencyCode":"RON","currency":"Lei","image":{"thumbnail":{"default":"https://cdn.freshful.ro/media/cache/sylius_shop_product_thumbnail/c9/49/e3c488613f229d9b9c0f141c3ef7.jpg"},"large":{"default":"https://cdn.freshful.ro/media/cache/freshful_large/c9/49/e3c488613f229d9b9c0f141c3ef7.jpg"},"extralarge":{"default":"https://cdn.freshful.ro/media/cache/sylius_shop_product_original/c9/49/e3c488613f229d9b9c0f141c3ef7.jpg"}},"label":{"text":"Profită acum","backgroundColor":"#FF9903","textColor":"#FFFFFF"},"tags":[],"isAvailable":true,"maxAvailableQuantity":6,"maxAllowedQuantity":6,"breadcrumbs":[{"code":"11","name":"Cosmetice","slug":"11-cosmetice-si-ingrijire-personala"},{"code":"1110","name":"Săpunuri și geluri de duș","slug":"1110-sapunuri-si-geluri-de-dus"},{"code":"111004","name":"Gel de duș și sare de baie","slug":"111004-gel-de-dus-si-sare-de-baie"},{"code":"100062055","name":"Gel de duș Sweet Peony 500ml","slug":"100062055-dove-gel-de-dus-sweet-peony-500ml"}],"activePromotion":{"code":"oferte-dph-21feb-8mar23","name":"Preț avantajos","targetQuantity":null},"saveMe":null,"labels":[{"type":"v1","items":[{"text":"Profită acum","backgroundColor":"#FF9903","textColor":"#FFFFFF"}]}],"geniusPrice":null,"geniusUnitPricePerLabel":null,"banner":{"text":"Preț avantajos","textColor":"#F95510","bgColor":"#FEF1CD","icon":null,"link":"https://www.freshful.ro/oferte/oferte-dph-21feb-8mar23","type":"promo","analyticsEventType":"select_promotion","analyticsEventPayload":{"promotion_id":"oferte-dph-21feb-8mar23","promotion_name":"Curățenie și îngrijire personală"}},"discountLabel":null,"geniusDiscountLabel":null,"badge":null},{"code":"100062058","variantCode":"100062058","name":"Gel de duș Shea Butter & Vanilla 500ml","slug":"100062058-dove-gel-de-dus-shea-butter-vanilla-500ml","unitPriceLabel":"33,98 Lei/l","brand":"Dove","brandCode":"763","brandFilterCode":"dove-b764","sku":"100062058","price":16.99,"originalPrice":null,"currencyCode":"RON","currency":"Lei","image":{"thumbnail":{"default":"https://cdn.freshful.ro/media/cache/sylius_shop_product_thumbnail/df/7d/1d60a9163a2218d631f0316806ff.jpg"},"large":{"default":"https://cdn.freshful.ro/media/cache/freshful_large/df/7d/1d60a9163a2218d631f0316806ff.jpg"},"extralarge":{"default":"https://cdn.freshful.ro/media/cache/sylius_shop_product_original/df/7d/1d60a9163a2218d631f0316806ff.jpg"}},"label":{"text":"Profită acum","backgroundColor":"#FF9903","textColor":"#FFFFFF"},"tags":[],"isAvailable":true,"maxAvailableQuantity":6,"maxAllowedQuantity":6,"breadcrumbs":[{"code":"11","name":"Cosmetice","slug":"11-cosmetice-si-ingrijire-personala"},{"code":"1110","name":"Săpunuri și geluri de duș","slug":"1110-sapunuri-si-geluri-de-dus"},{"code":"111004","name":"Gel de duș și sare de baie","slug":"111004-gel-de-dus-si-sare-de-baie"},{"code":"100062058","name":"Gel de duș Shea Butter & Vanilla 500ml","slug":"100062058-dove-gel-de-dus-shea-butter-vanilla-500ml"}],"activePromotion":{"code":"oferte-dph-21feb-8mar23","name":"Preț avantajos","targetQuantity":null},"saveMe":null,"labels":[{"type":"v1","items":[{"text":"Profită acum","backgroundColor":"#FF9903","textColor":"#FFFFFF"}]}],"geniusPrice":null,"geniusUnitPricePerLabel":null,"banner":{"text":"Preț avantajos","textColor":"#F95510","bgColor":"#FEF1CD","icon":null,"link":"https://www.freshful.ro/oferte/oferte-dph-21feb-8mar23","type":"promo","analyticsEventType":"select_promotion","analyticsEventPayload":{"promotion_id":"oferte-dph-21feb-8mar23","promotion_name":"Curățenie și îngrijire personală"}},"discountLabel":null,"geniusDiscountLabel":null,"badge":null},{"code":"100036061","variantCode":"100036061","name":"Rezervă săpun lichid antibacterian Cream 700ml","slug":"100036061-protex-rezerva-sapun-lichid-antibacterian-cream-700ml","unitPriceLabel":"31,04 Lei/l","brand":"Protex","brandCode":"331","brandFilterCode":"protex-b332","sku":"100036061","price":21.73,"originalPrice":null,"currencyCode":"RON","currency":"Lei","image":{"thumbnail":{"default":"https://cdn.freshful.ro/media/cache/sylius_shop_product_thumbnail/5f/2e/bc3f3fb3e1acd5c42db76d7b1ef7.jpg"},"large":{"default":"https://cdn.freshful.ro/media/cache/freshful_large/5f/2e/bc3f3fb3e1acd5c42db76d7b1ef7.jpg"},"extralarge":{"default":"https://cdn.freshful.ro/media/cache/sylius_shop_product_original/5f/2e/bc3f3fb3e1acd5c42db76d7b1ef7.jpg"}},"label":{"text":"Profită acum","backgroundColor":"#FF9903","textColor":"#FFFFFF"},"tags":[],"isAvailable":true,"maxAvailableQuantity":100,"maxAllowedQuantity":100,"breadcrumbs":[{"code":"11","name":"Cosmetice","slug":"11-cosmetice-si-ingrijire-personala"},{"code":"1110","name":"Săpunuri și geluri de duș","slug":"1110-sapunuri-si-geluri-de-dus"},{"code":"111002","name":"Săpun lichid","slug":"111002-sapun-lichid"},{"code":"100036061","name":"Rezervă săpun lichid antibacterian Cream 700ml","slug":"100036061-protex-rezerva-sapun-lichid-antibacterian-cream-700ml"}],"activePromotion":{"code":"freshful-top-deals-2023","name":"Preț avantajos","targetQuantity":null},"saveMe":null,"labels":[{"type":"v1","items":[{"text":"Profită acum","backgroundColor":"#FF9903","textColor":"#FFFFFF"}]}],"geniusPrice":null,"geniusUnitPricePerLabel":null,"banner":{"text":"Preț avantajos","textColor":"#F95510","bgColor":"#FEF1CD","icon":null,"link":"https://www.freshful.ro/oferte/freshful-top-deals-2023","type":"promo","analyticsEventType":"select_promotion","analyticsEventPayload":{"promotion_id":"freshful-top-deals-2023","promotion_name":"Profită de Top Deals"}},"discountLabel":null,"geniusDiscountLabel":null,"badge":null},{"code":"100062072","variantCode":"100062072","name":"Gel de duș Men+Care Clean Comfort 400ml","slug":"100062072-dove-gel-de-dus-men-care-clean-comfort-400ml","unitPriceLabel":"42,48 Lei/l","brand":"Dove","brandCode":"763","brandFilterCode":"dove-b764","sku":"100062072","price":16.99,"originalPrice":null,"currencyCode":"RON","currency":"Lei","image":{"thumbnail":{"default":"https://cdn.freshful.ro/media/cache/sylius_shop_product_thumbnail/79/40/1ed0e103f48d97ee7b94e5b36103.jpg"},"large":{"default":"https://cdn.freshful.ro/media/cache/freshful_large/79/40/1ed0e103f48d97ee7b94e5b36103.jpg"},"extralarge":{"default":"https://cdn.freshful.ro/media/cache/sylius_shop_product_original/79/40/1ed0e103f48d97ee7b94e5b36103.jpg"}},"label":{"text":"Profită acum","backgroundColor":"#FF9903","textColor":"#FFFFFF"},"tags":[],"isAvailable":true,"maxAvailableQuantity":6,"maxAllowedQuantity":6,"breadcrumbs":[{"code":"11","name":"Cosmetice","slug":"11-cosmetice-si-ingrijire-personala"},{"code":"1110","name":"Săpunuri și geluri de duș","slug":"1110-sapunuri-si-geluri-de-dus"},{"code":"111004","name":"Gel de duș și sare de baie","slug":"111004-gel-de-dus-si-sare-de-baie"},{"code":"100062072","name":"Gel de duș Men+Care Clean Comfort 400ml","slug":"100062072-dove-gel-de-dus-men-care-clean-comfort-400ml"}],"activePromotion":{"code":"oferte-dph-21feb-8mar23","name":"Preț avantajos","targetQuantity":null},"saveMe":null,"labels":[{"type":"v1","items":[{"text":"Profită acum","backgroundColor":"#FF9903","textColor":"#FFFFFF"}]}],"geniusPrice":null,"geniusUnitPricePerLabel":null,"banner":{"text":"Preț avantajos","textColor":"#F95510","bgColor":"#FEF1CD","icon":null,"link":"https://www.freshful.ro/oferte/oferte-dph-21feb-8mar23","type":"promo","analyticsEventType":"select_promotion","analyticsEventPayload":{"promotion_id":"oferte-dph-21feb-8mar23","promotion_name":"Curățenie și îngrijire personală"}},"discountLabel":null,"geniusDiscountLabel":null,"badge":null},{"code":"100036066","variantCode":"100036066","name":"Săpun solid antibacterian Ultra 90g","slug":"100036066-protex-sapun-solid-antibacterian-ultra-90g","unitPriceLabel":"35,44 Lei/kg","brand":"Protex","brandCode":"331","brandFilterCode":"protex-b332","sku":"100036066","price":3.19,"originalPrice":null,"currencyCode":"RON","currency":"Lei","image":{"thumbnail":{"default":"https://cdn.freshful.ro/media/cache/sylius_shop_product_thumbnail/24/23/b44b7717ac1b54225f3a5b1428ae.jpg"},"large":{"default":"https://cdn.freshful.ro/media/cache/freshful_large/24/23/b44b7717ac1b54225f3a5b1428ae.jpg"},"extralarge":{"default":"https://cdn.freshful.ro/media/cache/sylius_shop_product_original/24/23/b44b7717ac1b54225f3a5b1428ae.jpg"}},"label":{"text":"Profită acum","backgroundColor":"#FF9903","textColor":"#FFFFFF"},"tags":[],"isAvailable":true,"maxAvailableQuantity":100,"maxAllowedQuantity":100,"breadcrumbs":[{"code":"11","name":"Cosmetice","slug":"11-cosmetice-si-ingrijire-personala"},{"code":"1110","name":"Săpunuri și geluri de duș","slug":"1110-sapunuri-si-geluri-de-dus"},{"code":"111001","name":"Săpun solid","slug":"111001-sapun-solid"},{"code":"100036066","name":"Săpun solid antibacterian Ultra 90g","slug":"100036066-protex-sapun-solid-antibacterian-ultra-90g"}],"activePromotion":{"code":"freshful-top-deals-2023","name":"Preț avantajos","targetQuantity":null},"saveMe":null,"labels":[{"type":"v1","items":[{"text":"Profită acum","backgroundColor":"#FF9903","textColor":"#FFFFFF"}]}],"geniusPrice":null,"geniusUnitPricePerLabel":null,"banner":{"text":"Preț avantajos","textColor":"#F95510","bgColor":"#FEF1CD","icon":null,"link":"https://www.freshful.ro/oferte/freshful-top-deals-2023","type":"promo","analyticsEventType":"select_promotion","analyticsEventPayload":{"promotion_id":"freshful-top-deals-2023","promotion_name":"Profită de Top Deals"}},"discountLabel":null,"geniusDiscountLabel":null,"badge":null},{"code":"100036060","variantCode":"100036060","name":"Rezervă săpun lichid antibacterian Ultra 700ml","slug":"100036060-protex-rezerva-sapun-lichid-antibacterian-ultra-700ml","unitPriceLabel":"31,04 Lei/l","brand":"Protex","brandCode":"331","brandFilterCode":"protex-b332","sku":"100036060","price":21.73,"originalPrice":null,"currencyCode":"RON","currency":"Lei","image":{"thumbnail":{"default":"https://cdn.freshful.ro/media/cache/sylius_shop_product_thumbnail/79/cd/fef883898aee27111beac85dde46.jpg"},"large":{"default":"https://cdn.freshful.ro/media/cache/freshful_large/79/cd/fef883898aee27111beac85dde46.jpg"},"extralarge":{"default":"https://cdn.freshful.ro/media/cache/sylius_shop_product_original/79/cd/fef883898aee27111beac85dde46.jpg"}},"label":{"text":"Profită acum","backgroundColor":"#FF9903","textColor":"#FFFFFF"},"tags":[],"isAvailable":true,"maxAvailableQuantity":100,"maxAllowedQuantity":100,"breadcrumbs":[{"code":"11","name":"Cosmetice","slug":"11-cosmetice-si-ingrijire-personala"},{"code":"1110","name":"Săpunuri și geluri de duș","slug":"1110-sapunuri-si-geluri-de-dus"},{"code":"111002","name":"Săpun lichid","slug":"111002-sapun-lichid"},{"code":"100036060","name":"Rezervă săpun lichid antibacterian Ultra 700ml","slug":"100036060-protex-rezerva-sapun-lichid-antibacterian-ultra-700ml"}],"activePromotion":{"code":"freshful-top-deals-2023","name":"Preț avantajos","targetQuantity":null},"saveMe":null,"labels":[{"type":"v1","items":[{"text":"Profită acum","backgroundColor":"#FF9903","textColor":"#FFFFFF"}]}],"geniusPrice":null,"geniusUnitPricePerLabel":null,"banner":{"text":"Preț avantajos","textColor":"#F95510","bgColor":"#FEF1CD","icon":null,"link":"https://www.freshful.ro/oferte/freshful-top-deals-2023","type":"promo","analyticsEventType":"select_promotion","analyticsEventPayload":{"promotion_id":"freshful-top-deals-2023","promotion_name":"Profită de Top Deals"}},"discountLabel":null,"geniusDiscountLabel":null,"badge":null},{"code":"100062071","variantCode":"100062071","name":"Gel de duș Men+Care Extra Fresh 400ml","slug":"100062071-dove-gel-de-dus-men-care-extra-fresh-400ml","unitPriceLabel":"42,48 Lei/l","brand":"Dove","brandCode":"763","brandFilterCode":"dove-b764","sku":"100062071","price":16.99,"originalPrice":null,"currencyCode":"RON","currency":"Lei","image":{"thumbnail":{"default":"https://cdn.freshful.ro/media/cache/sylius_shop_product_thumbnail/ec/7a/89f821f109b455aba9c9bd816aae.jpg"},"large":{"default":"https://cdn.freshful.ro/media/cache/freshful_large/ec/7a/89f821f109b455aba9c9bd816aae.jpg"},"extralarge":{"default":"https://cdn.freshful.ro/media/cache/sylius_shop_product_original/ec/7a/89f821f109b455aba9c9bd816aae.jpg"}},"label":{"text":"Profită acum","backgroundColor":"#FF9903","textColor":"#FFFFFF"},"tags":[],"isAvailable":true,"maxAvailableQuantity":6,"maxAllowedQuantity":6,"breadcrumbs":[{"code":"11","name":"Cosmetice","slug":"11-cosmetice-si-ingrijire-personala"},{"code":"1110","name":"Săpunuri și geluri de duș","slug":"1110-sapunuri-si-geluri-de-dus"},{"code":"111004","name":"Gel de duș și sare de baie","slug":"111004-gel-de-dus-si-sare-de-baie"},{"code":"100062071","name":"Gel de duș Men+Care Extra Fresh 400ml","slug":"100062071-dove-gel-de-dus-men-care-extra-fresh-400ml"}],"activePromotion":{"code":"oferte-dph-21feb-8mar23","name":"Preț avantajos","targetQuantity":null},"saveMe":null,"labels":[{"type":"v1","items":[{"text":"Profită acum","backgroundColor":"#FF9903","textColor":"#FFFFFF"}]}],"geniusPrice":null,"geniusUnitPricePerLabel":null,"banner":{"text":"Preț avantajos","textColor":"#F95510","bgColor":"#FEF1CD","icon":null,"link":"https://www.freshful.ro/oferte/oferte-dph-21feb-8mar23","type":"promo","analyticsEventType":"select_promotion","analyticsEventPayload":{"promotion_id":"oferte-dph-21feb-8mar23","promotion_name":"Curățenie și îngrijire personală"}},"discountLabel":null,"geniusDiscountLabel":null,"badge":null},{"code":"100086219","variantCode":"8008970043647","name":"Gel de duș Ayurveda 250ml","slug":"100086219-tesori-d-oriente-gel-de-dus-ayurveda-250ml","unitPriceLabel":"53,28 Lei/l","brand":"Tesori d'Oriente","brandCode":"554","brandFilterCode":"tesori-d-oriente-b555","sku":"100086219","price":13.32,"originalPrice":null,"currencyCode":"RON","currency":"Lei","image":{"thumbnail":{"default":"https://cdn.freshful.ro/media/cache/sylius_shop_product_thumbnail/cc/d2/a58d42bfdc762c7082e55c597d07.jpg"},"large":{"default":"https://cdn.freshful.ro/media/cache/freshful_large/cc/d2/a58d42bfdc762c7082e55c597d07.jpg"},"extralarge":{"default":"https://cdn.freshful.ro/media/cache/sylius_shop_product_original/cc/d2/a58d42bfdc762c7082e55c597d07.jpg"}},"label":{"text":"Profită acum","backgroundColor":"#FF9903","textColor":"#FFFFFF"},"tags":[],"isAvailable":true,"maxAvailableQuantity":6,"maxAllowedQuantity":6,"breadcrumbs":[{"code":"11","name":"Cosmetice","slug":"11-cosmetice-si-ingrijire-personala"},{"code":"1110","name":"Săpunuri și geluri de duș","slug":"1110-sapunuri-si-geluri-de-dus"},{"code":"111004","name":"Gel de duș și sare de baie","slug":"111004-gel-de-dus-si-sare-de-baie"},{"code":"100086219","name":"Gel de duș Ayurveda 250ml","slug":"100086219-tesori-d-oriente-gel-de-dus-ayurveda-250ml"}],"activePromotion":{"code":"freshful-top-deals-2023","name":"Preț avantajos","targetQuantity":null},"saveMe":null,"labels":[{"type":"v1","items":[{"text":"Profită acum","backgroundColor":"#FF9903","textColor":"#FFFFFF"}]}],"geniusPrice":null,"geniusUnitPricePerLabel":null,"banner":{"text":"Preț avantajos","textColor":"#F95510","bgColor":"#FEF1CD","icon":null,"link":"https://www.freshful.ro/oferte/freshful-top-deals-2023","type":"promo","analyticsEventType":"select_promotion","analyticsEventPayload":{"promotion_id":"freshful-top-deals-2023","promotion_name":"Profită de Top Deals"}},"discountLabel":null,"geniusDiscountLabel":null,"badge":null},{"code":"100036059","variantCode":"100036059","name":"Rezervă săpun lichid antibacterian Fresh 700ml","slug":"100036059-protex-rezerva-sapun-lichid-antibacterian-fresh-700ml","unitPriceLabel":"31,04 Lei/l","brand":"Protex","brandCode":"331","brandFilterCode":"protex-b332","sku":"100036059","price":21.73,"originalPrice":null,"currencyCode":"RON","currency":"Lei","image":{"thumbnail":{"default":"https://cdn.freshful.ro/media/cache/sylius_shop_product_thumbnail/ec/03/6e56f6af97de7b71a5cee90cc811.jpg"},"large":{"default":"https://cdn.freshful.ro/media/cache/freshful_large/ec/03/6e56f6af97de7b71a5cee90cc811.jpg"},"extralarge":{"default":"https://cdn.freshful.ro/media/cache/sylius_shop_product_original/ec/03/6e56f6af97de7b71a5cee90cc811.jpg"}},"label":{"text":"Profită acum","backgroundColor":"#FF9903","textColor":"#FFFFFF"},"tags":[],"isAvailable":true,"maxAvailableQuantity":100,"maxAllowedQuantity":100,"breadcrumbs":[{"code":"11","name":"Cosmetice","slug":"11-cosmetice-si-ingrijire-personala"},{"code":"1110","name":"Săpunuri și geluri de duș","slug":"1110-sapunuri-si-geluri-de-dus"},{"code":"111002","name":"Săpun lichid","slug":"111002-sapun-lichid"},{"code":"100036059","name":"Rezervă săpun lichid antibacterian Fresh 700ml","slug":"100036059-protex-rezerva-sapun-lichid-antibacterian-fresh-700ml"}],"activePromotion":{"code":"freshful-top-deals-2023","name":"Preț avantajos","targetQuantity":null},"saveMe":null,"labels":[{"type":"v1","items":[{"text":"Profită acum","backgroundColor":"#FF9903","textColor":"#FFFFFF"}]}],"geniusPrice":null,"geniusUnitPricePerLabel":null,"banner":{"text":"Preț avantajos","textColor":"#F95510","bgColor":"#FEF1CD","icon":null,"link":"https://www.freshful.ro/oferte/freshful-top-deals-2023","type":"promo","analyticsEventType":"select_promotion","analyticsEventPayload":{"promotion_id":"freshful-top-deals-2023","promotion_name":"Profită de Top Deals"}},"discountLabel":null,"geniusDiscountLabel":null,"badge":null},{"code":"100086227","variantCode":"100086227","name":"Săpun lichid Hammam 300ml","slug":"100086227-tesori-d-oriente-sapun-lichid-hammam-300ml","unitPriceLabel":"44,97 Lei/l","brand":"Tesori d'Oriente","brandCode":"554","brandFilterCode":"tesori-d-oriente-b555","sku":"100086227","price":13.49,"originalPrice":16.5,"currencyCode":"RON","currency":"Lei","image":{"thumbnail":{"default":"https://cdn.freshful.ro/media/cache/sylius_shop_product_thumbnail/a1/cc/5f698879c2c363675b61e9d0b7fb.jpg"},"large":{"default":"https://cdn.freshful.ro/media/cache/freshful_large/a1/cc/5f698879c2c363675b61e9d0b7fb.jpg"},"extralarge":{"default":"https://cdn.freshful.ro/media/cache/sylius_shop_product_original/a1/cc/5f698879c2c363675b61e9d0b7fb.jpg"}},"label":{"text":"-18%","backgroundColor":"#FF9903","textColor":"#FFFFFF"},"tags":[],"isAvailable":true,"maxAvailableQuantity":34,"maxAllowedQuantity":100,"breadcrumbs":[{"code":"11","name":"Cosmetice","slug":"11-cosmetice-si-ingrijire-personala"},{"code":"1110","name":"Săpunuri și geluri de duș","slug":"1110-sapunuri-si-geluri-de-dus"},{"code":"111002","name":"Săpun lichid","slug":"111002-sapun-lichid"},{"code":"100086227","name":"Săpun lichid Hammam 300ml","slug":"100086227-tesori-d-oriente-sapun-lichid-hammam-300ml"}],"activePromotion":{"code":"oferte-dph-21feb-8mar23","name":"Preț redus","targetQuantity":null},"saveMe":null,"labels":[{"type":"v1","items":[{"text":"-18%","backgroundColor":"#FF9903","textColor":"#FFFFFF"}]}],"geniusPrice":null,"geniusUnitPricePerLabel":null,"banner":{"text":"Super preț","textColor":"#FF0000","bgColor":"#FFF2EC","icon":null,"link":"https://www.freshful.ro/oferte/oferte-dph-21feb-8mar23","type":"promo","analyticsEventType":"select_promotion","analyticsEventPayload":{"promotion_id":"oferte-dph-21feb-8mar23","promotion_name":"Curățenie și îngrijire personală"}},"discountLabel":"Economisești 18%","geniusDiscountLabel":null,"badge":null}],"filters":{"countSelected":0,"items":[{"code":"promotion","name":"Promoții","countSelected":0,"values":[{"code":"oferte-dph-21feb-8mar23","name":"Curățenie și îngrijire personală","isSelected":false,"count":15},{"code":"freshful-top-deals-2023","name":"Profită de Top Deals","isSelected":false,"count":16}]},{"code":"brand","name":"Brand","countSelected":0,"values":[{"code":"apidava-cosmetic-line-b1871","name":"Apidava Cosmetic Line","isSelected":false,"count":9},{"code":"barnangen-b1757","name":"Barnängen","isSelected":false,"count":7},{"code":"bella-b322","name":"Bella","isSelected":false,"count":2},{"code":"betres-b1752","name":"Betres","isSelected":false,"count":1},{"code":"biopha-b1420","name":"Biopha","isSelected":false,"count":1},{"code":"borotalco-b690","name":"Borotalco","isSelected":false,"count":6},{"code":"careline-b2559","name":"Careline","isSelected":false,"count":2},{"code":"clineo-b1744","name":"Clineo","isSelected":false,"count":5},{"code":"cottage-b705","name":"Cottage","isSelected":false,"count":11},{"code":"dove-b764","name":"Dove","isSelected":false,"count":34},{"code":"elmiplant-b551","name":"Elmiplant","isSelected":false,"count":12},{"code":"essere-b1365","name":"Essere","isSelected":false,"count":2},{"code":"expert-wipes-b1639","name":"Expert Wipes","isSelected":false,"count":2},{"code":"family-b1747","name":"Family","isSelected":false,"count":1},{"code":"gerovital-b1837","name":"Gerovital","isSelected":false,"count":2},{"code":"igienol-b428","name":"Igienol","isSelected":false,"count":2},{"code":"keff-b2560","name":"Keff","isSelected":false,"count":4},{"code":"lactovit-b302","name":"Lactovit","isSelected":false,"count":4},{"code":"le-petit-olivier-b1746","name":"Le Petit Olivier","isSelected":false,"count":14},{"code":"lifebuoy-b768","name":"Lifebuoy","isSelected":false,"count":2},{"code":"lux-b2717","name":"Lux","isSelected":false,"count":8},{"code":"martini-b1748","name":"Martini","isSelected":false,"count":7},{"code":"milmil-b343","name":"Milmil","isSelected":false,"count":6},{"code":"natura-verde-b340","name":"Natura Verde","isSelected":false,"count":3},{"code":"nature-box-b1763","name":"Nature Box","isSelected":false,"count":6},{"code":"nivea-b317","name":"Nivea","isSelected":false,"count":33},{"code":"nordics-b1685","name":"Nordics","isSelected":false,"count":2},{"code":"old-spice-b663","name":"Old Spice","isSelected":false,"count":6},{"code":"on-line-b2075","name":"On Line","isSelected":false,"count":2},{"code":"palmolive-b331","name":"Palmolive","isSelected":false,"count":42},{"code":"protex-b332","name":"Protex","isSelected":false,"count":23},{"code":"puressentiel-b2348","name":"Puressentiel","isSelected":false,"count":1},{"code":"rituals-b2992","name":"Rituals","isSelected":false,"count":4},{"code":"safeguard-b665","name":"Safeguard","isSelected":false,"count":4},{"code":"sana-b3089","name":"Sana","isSelected":false,"count":1},{"code":"sanytol-b301","name":"Sanytol","isSelected":false,"count":2},{"code":"sonett-b1681","name":"Sonett","isSelected":false,"count":9},{"code":"str8-b540","name":"STR8","isSelected":false,"count":1},{"code":"tesori-d-oriente-b555","name":"Tesori d'Oriente","isSelected":false,"count":13},{"code":"tiama-b1683","name":"Tiama","isSelected":false,"count":1},{"code":"touch-b579","name":"Touch","isSelected":false,"count":17},{"code":"yope-b1617","name":"Yope","isSelected":false,"count":6}]},{"code":"diet_lifestyle","name":"Dietă și lifestyle","countSelected":0,"values":[{"code":"bio-a26","name":"Bio","isSelected":false,"count":24},{"code":"eco-a83","name":"Eco","isSelected":false,"count":8},{"code":"natural-a27","name":"Natural","isSelected":false,"count":6},{"code":"vegan-a24","name":"Vegan","isSelected":false,"count":42}]}]},"orderBy":[{"field":"price","direction":"asc","name":"Preț crescător","isSelected":false},{"field":"price","direction":"desc","name":"Preț descrescător","isSelected":false},{"field":"popularity","direction":"desc","name":"Cele mai populare","isSelected":true},{"field":"category","direction":"asc","name":"Categorie","isSelected":false}],"metaTitle":"Săpunuri și geluri de duș - Gamă variată","metaDescription":"Vrei Săpunuri și geluri de duș? Alege dintr-o gamă variată. Comanzi simplu și ai livrare rapidă, calitate și prospețime. Hai pe Freshful.ro","metaKeywords":null,"banners":[]}}