{"type":"subcategory","payload":{"analyticsListId":"category_111004-gel-de-dus-si-sare-de-baie","analyticsListName":"Category - Gel de duș și sare de baie","name":"Gel de duș și sare de baie","slug":"111004-gel-de-dus-si-sare-de-baie","image":null,"breadcrumbs":[{"code":"11","name":"Cosmetice","slug":"11-cosmetice-si-ingrijire-personala"},{"code":"1110","name":"Săpunuri și geluri de duș","slug":"1110-sapunuri-si-geluri-de-dus"},{"code":"111004","name":"Gel de duș și sare de baie","slug":"111004-gel-de-dus-si-sare-de-baie"}],"slots":[],"page":1,"limit":10,"pages":18,"count":171,"siblings":[{"name":"Deodorante și parfumuri","slug":"1101-deodorante-si-parfumuri","selected":false},{"name":"Bărbierit și îngrijire ten","slug":"1102-produse-pentru-barbierit-si-ingrijit-ten","selected":false},{"name":"Demachiante și creme","slug":"1103-creme-intretinere-si-demachiante","selected":false},{"name":"Protecție solară","slug":"1104-produse-cu-protectie-solara","selected":false},{"name":"Ceară, benzi și creme depilatoare","slug":"1105-ceara-benzi-si-creme-depliatoare","selected":false},{"name":"Seturi cadou","slug":"1106-seturi-cadou","selected":false},{"name":"Îngrijirea părului","slug":"1107-ingrijirea-parului","selected":false},{"name":"Igienă intimă","slug":"1108-igienta-inima","selected":false},{"name":"Igienă dentară","slug":"1109-igiena-dentara","selected":false},{"name":"Săpunuri și geluri de duș","slug":"1110-sapunuri-si-geluri-de-dus","selected":true},{"name":"Dermatocosmetice și parafarmacie","slug":"1111-dermatocosmetice-si-parafarmacie","selected":false},{"name":"Repelent","slug":"repelent","selected":false}],"children":[{"name":"Toate produsele","slug":"1110-sapunuri-si-geluri-de-dus","selected":false},{"name":"Săpun solid","slug":"111001-sapun-solid","selected":false},{"name":"Săpun lichid","slug":"111002-sapun-lichid","selected":false},{"name":"Gel hydroalcoolica","slug":"111003-gel-hydroalcoolica","selected":false},{"name":"Gel de duș și sare de baie","slug":"111004-gel-de-dus-si-sare-de-baie","selected":true},{"name":"Bureți de baie și bețișoare de urechi","slug":"111005-bureti-de-baie-si-betisoare-de-urechi","selected":false}],"products":[{"code":"100062055","variantCode":"100062055","name":"Gel de duș Sweet Peony 500ml","slug":"100062055-dove-gel-de-dus-sweet-peony-500ml","unitPriceLabel":"33,98 Lei/l","brand":"Dove","brandCode":"763","brandFilterCode":"dove-b764","sku":"100062055","price":16.99,"originalPrice":null,"currencyCode":"RON","currency":"Lei","image":{"thumbnail":{"default":"https://cdn.freshful.ro/media/cache/sylius_shop_product_thumbnail/c9/49/e3c488613f229d9b9c0f141c3ef7.jpg"},"large":{"default":"https://cdn.freshful.ro/media/cache/freshful_large/c9/49/e3c488613f229d9b9c0f141c3ef7.jpg"},"extralarge":{"default":"https://cdn.freshful.ro/media/cache/sylius_shop_product_original/c9/49/e3c488613f229d9b9c0f141c3ef7.jpg"}},"label":{"text":"Profită acum","backgroundColor":"#FF9903","textColor":"#FFFFFF"},"tags":[],"isAvailable":true,"maxAvailableQuantity":6,"maxAllowedQuantity":6,"breadcrumbs":[{"code":"11","name":"Cosmetice","slug":"11-cosmetice-si-ingrijire-personala"},{"code":"1110","name":"Săpunuri și geluri de duș","slug":"1110-sapunuri-si-geluri-de-dus"},{"code":"111004","name":"Gel de duș și sare de baie","slug":"111004-gel-de-dus-si-sare-de-baie"},{"code":"100062055","name":"Gel de duș Sweet Peony 500ml","slug":"100062055-dove-gel-de-dus-sweet-peony-500ml"}],"activePromotion":{"code":"oferte-dph-21feb-8mar23","name":"Preț avantajos","targetQuantity":null},"saveMe":null,"labels":[{"type":"v1","items":[{"text":"Profită acum","backgroundColor":"#FF9903","textColor":"#FFFFFF"}]}],"geniusPrice":null,"geniusUnitPricePerLabel":null,"banner":{"text":"Preț avantajos","textColor":"#F95510","bgColor":"#FEF1CD","icon":null,"link":"https://www.freshful.ro/oferte/oferte-dph-21feb-8mar23","type":"promo","analyticsEventType":"select_promotion","analyticsEventPayload":{"promotion_id":"oferte-dph-21feb-8mar23","promotion_name":"Curățenie și îngrijire personală"}},"discountLabel":null,"geniusDiscountLabel":null,"badge":null},{"code":"100062058","variantCode":"100062058","name":"Gel de duș Shea Butter & Vanilla 500ml","slug":"100062058-dove-gel-de-dus-shea-butter-vanilla-500ml","unitPriceLabel":"33,98 Lei/l","brand":"Dove","brandCode":"763","brandFilterCode":"dove-b764","sku":"100062058","price":16.99,"originalPrice":null,"currencyCode":"RON","currency":"Lei","image":{"thumbnail":{"default":"https://cdn.freshful.ro/media/cache/sylius_shop_product_thumbnail/df/7d/1d60a9163a2218d631f0316806ff.jpg"},"large":{"default":"https://cdn.freshful.ro/media/cache/freshful_large/df/7d/1d60a9163a2218d631f0316806ff.jpg"},"extralarge":{"default":"https://cdn.freshful.ro/media/cache/sylius_shop_product_original/df/7d/1d60a9163a2218d631f0316806ff.jpg"}},"label":{"text":"Profită acum","backgroundColor":"#FF9903","textColor":"#FFFFFF"},"tags":[],"isAvailable":true,"maxAvailableQuantity":6,"maxAllowedQuantity":6,"breadcrumbs":[{"code":"11","name":"Cosmetice","slug":"11-cosmetice-si-ingrijire-personala"},{"code":"1110","name":"Săpunuri și geluri de duș","slug":"1110-sapunuri-si-geluri-de-dus"},{"code":"111004","name":"Gel de duș și sare de baie","slug":"111004-gel-de-dus-si-sare-de-baie"},{"code":"100062058","name":"Gel de duș Shea Butter & Vanilla 500ml","slug":"100062058-dove-gel-de-dus-shea-butter-vanilla-500ml"}],"activePromotion":{"code":"oferte-dph-21feb-8mar23","name":"Preț avantajos","targetQuantity":null},"saveMe":null,"labels":[{"type":"v1","items":[{"text":"Profită acum","backgroundColor":"#FF9903","textColor":"#FFFFFF"}]}],"geniusPrice":null,"geniusUnitPricePerLabel":null,"banner":{"text":"Preț avantajos","textColor":"#F95510","bgColor":"#FEF1CD","icon":null,"link":"https://www.freshful.ro/oferte/oferte-dph-21feb-8mar23","type":"promo","analyticsEventType":"select_promotion","analyticsEventPayload":{"promotion_id":"oferte-dph-21feb-8mar23","promotion_name":"Curățenie și îngrijire personală"}},"discountLabel":null,"geniusDiscountLabel":null,"badge":null},{"code":"100062072","variantCode":"100062072","name":"Gel de duș Men+Care Clean Comfort 400ml","slug":"100062072-dove-gel-de-dus-men-care-clean-comfort-400ml","unitPriceLabel":"42,48 Lei/l","brand":"Dove","brandCode":"763","brandFilterCode":"dove-b764","sku":"100062072","price":16.99,"originalPrice":null,"currencyCode":"RON","currency":"Lei","image":{"thumbnail":{"default":"https://cdn.freshful.ro/media/cache/sylius_shop_product_thumbnail/79/40/1ed0e103f48d97ee7b94e5b36103.jpg"},"large":{"default":"https://cdn.freshful.ro/media/cache/freshful_large/79/40/1ed0e103f48d97ee7b94e5b36103.jpg"},"extralarge":{"default":"https://cdn.freshful.ro/media/cache/sylius_shop_product_original/79/40/1ed0e103f48d97ee7b94e5b36103.jpg"}},"label":{"text":"Profită acum","backgroundColor":"#FF9903","textColor":"#FFFFFF"},"tags":[],"isAvailable":true,"maxAvailableQuantity":6,"maxAllowedQuantity":6,"breadcrumbs":[{"code":"11","name":"Cosmetice","slug":"11-cosmetice-si-ingrijire-personala"},{"code":"1110","name":"Săpunuri și geluri de duș","slug":"1110-sapunuri-si-geluri-de-dus"},{"code":"111004","name":"Gel de duș și sare de baie","slug":"111004-gel-de-dus-si-sare-de-baie"},{"code":"100062072","name":"Gel de duș Men+Care Clean Comfort 400ml","slug":"100062072-dove-gel-de-dus-men-care-clean-comfort-400ml"}],"activePromotion":{"code":"oferte-dph-21feb-8mar23","name":"Preț avantajos","targetQuantity":null},"saveMe":null,"labels":[{"type":"v1","items":[{"text":"Profită acum","backgroundColor":"#FF9903","textColor":"#FFFFFF"}]}],"geniusPrice":null,"geniusUnitPricePerLabel":null,"banner":{"text":"Preț avantajos","textColor":"#F95510","bgColor":"#FEF1CD","icon":null,"link":"https://www.freshful.ro/oferte/oferte-dph-21feb-8mar23","type":"promo","analyticsEventType":"select_promotion","analyticsEventPayload":{"promotion_id":"oferte-dph-21feb-8mar23","promotion_name":"Curățenie și îngrijire personală"}},"discountLabel":null,"geniusDiscountLabel":null,"badge":null},{"code":"100062071","variantCode":"100062071","name":"Gel de duș Men+Care Extra Fresh 400ml","slug":"100062071-dove-gel-de-dus-men-care-extra-fresh-400ml","unitPriceLabel":"42,48 Lei/l","brand":"Dove","brandCode":"763","brandFilterCode":"dove-b764","sku":"100062071","price":16.99,"originalPrice":null,"currencyCode":"RON","currency":"Lei","image":{"thumbnail":{"default":"https://cdn.freshful.ro/media/cache/sylius_shop_product_thumbnail/ec/7a/89f821f109b455aba9c9bd816aae.jpg"},"large":{"default":"https://cdn.freshful.ro/media/cache/freshful_large/ec/7a/89f821f109b455aba9c9bd816aae.jpg"},"extralarge":{"default":"https://cdn.freshful.ro/media/cache/sylius_shop_product_original/ec/7a/89f821f109b455aba9c9bd816aae.jpg"}},"label":{"text":"Profită acum","backgroundColor":"#FF9903","textColor":"#FFFFFF"},"tags":[],"isAvailable":true,"maxAvailableQuantity":6,"maxAllowedQuantity":6,"breadcrumbs":[{"code":"11","name":"Cosmetice","slug":"11-cosmetice-si-ingrijire-personala"},{"code":"1110","name":"Săpunuri și geluri de duș","slug":"1110-sapunuri-si-geluri-de-dus"},{"code":"111004","name":"Gel de duș și sare de baie","slug":"111004-gel-de-dus-si-sare-de-baie"},{"code":"100062071","name":"Gel de duș Men+Care Extra Fresh 400ml","slug":"100062071-dove-gel-de-dus-men-care-extra-fresh-400ml"}],"activePromotion":{"code":"oferte-dph-21feb-8mar23","name":"Preț avantajos","targetQuantity":null},"saveMe":null,"labels":[{"type":"v1","items":[{"text":"Profită acum","backgroundColor":"#FF9903","textColor":"#FFFFFF"}]}],"geniusPrice":null,"geniusUnitPricePerLabel":null,"banner":{"text":"Preț avantajos","textColor":"#F95510","bgColor":"#FEF1CD","icon":null,"link":"https://www.freshful.ro/oferte/oferte-dph-21feb-8mar23","type":"promo","analyticsEventType":"select_promotion","analyticsEventPayload":{"promotion_id":"oferte-dph-21feb-8mar23","promotion_name":"Curățenie și îngrijire personală"}},"discountLabel":null,"geniusDiscountLabel":null,"badge":null},{"code":"100086219","variantCode":"8008970043647","name":"Gel de duș Ayurveda 250ml","slug":"100086219-tesori-d-oriente-gel-de-dus-ayurveda-250ml","unitPriceLabel":"53,28 Lei/l","brand":"Tesori d'Oriente","brandCode":"554","brandFilterCode":"tesori-d-oriente-b555","sku":"100086219","price":13.32,"originalPrice":null,"currencyCode":"RON","currency":"Lei","image":{"thumbnail":{"default":"https://cdn.freshful.ro/media/cache/sylius_shop_product_thumbnail/cc/d2/a58d42bfdc762c7082e55c597d07.jpg"},"large":{"default":"https://cdn.freshful.ro/media/cache/freshful_large/cc/d2/a58d42bfdc762c7082e55c597d07.jpg"},"extralarge":{"default":"https://cdn.freshful.ro/media/cache/sylius_shop_product_original/cc/d2/a58d42bfdc762c7082e55c597d07.jpg"}},"label":{"text":"Profită acum","backgroundColor":"#FF9903","textColor":"#FFFFFF"},"tags":[],"isAvailable":true,"maxAvailableQuantity":6,"maxAllowedQuantity":6,"breadcrumbs":[{"code":"11","name":"Cosmetice","slug":"11-cosmetice-si-ingrijire-personala"},{"code":"1110","name":"Săpunuri și geluri de duș","slug":"1110-sapunuri-si-geluri-de-dus"},{"code":"111004","name":"Gel de duș și sare de baie","slug":"111004-gel-de-dus-si-sare-de-baie"},{"code":"100086219","name":"Gel de duș Ayurveda 250ml","slug":"100086219-tesori-d-oriente-gel-de-dus-ayurveda-250ml"}],"activePromotion":{"code":"freshful-top-deals-2023","name":"Preț avantajos","targetQuantity":null},"saveMe":null,"labels":[{"type":"v1","items":[{"text":"Profită acum","backgroundColor":"#FF9903","textColor":"#FFFFFF"}]}],"geniusPrice":null,"geniusUnitPricePerLabel":null,"banner":{"text":"Preț avantajos","textColor":"#F95510","bgColor":"#FEF1CD","icon":null,"link":"https://www.freshful.ro/oferte/freshful-top-deals-2023","type":"promo","analyticsEventType":"select_promotion","analyticsEventPayload":{"promotion_id":"freshful-top-deals-2023","promotion_name":"Profită de Top Deals"}},"discountLabel":null,"geniusDiscountLabel":null,"badge":null},{"code":"100062064","variantCode":"100062064","name":"Gel de duș Care&Protect 500ml","slug":"100062064-dove-gel-de-dus-care-protect-500ml","unitPriceLabel":"37,38 Lei/l","brand":"Dove","brandCode":"763","brandFilterCode":"dove-b764","sku":"100062064","price":18.69,"originalPrice":null,"currencyCode":"RON","currency":"Lei","image":{"thumbnail":{"default":"https://cdn.freshful.ro/media/cache/sylius_shop_product_thumbnail/a7/72/149deda324b518fb5f7aaf19d05a.jpg"},"large":{"default":"https://cdn.freshful.ro/media/cache/freshful_large/a7/72/149deda324b518fb5f7aaf19d05a.jpg"},"extralarge":{"default":"https://cdn.freshful.ro/media/cache/sylius_shop_product_original/a7/72/149deda324b518fb5f7aaf19d05a.jpg"}},"label":{"text":"Profită acum","backgroundColor":"#FF9903","textColor":"#FFFFFF"},"tags":[],"isAvailable":true,"maxAvailableQuantity":6,"maxAllowedQuantity":6,"breadcrumbs":[{"code":"11","name":"Cosmetice","slug":"11-cosmetice-si-ingrijire-personala"},{"code":"1110","name":"Săpunuri și geluri de duș","slug":"1110-sapunuri-si-geluri-de-dus"},{"code":"111004","name":"Gel de duș și sare de baie","slug":"111004-gel-de-dus-si-sare-de-baie"},{"code":"100062064","name":"Gel de duș Care&Protect 500ml","slug":"100062064-dove-gel-de-dus-care-protect-500ml"}],"activePromotion":{"code":"freshful-top-deals-2023","name":"Preț avantajos","targetQuantity":null},"saveMe":null,"labels":[{"type":"v1","items":[{"text":"Profită acum","backgroundColor":"#FF9903","textColor":"#FFFFFF"}]}],"geniusPrice":null,"geniusUnitPricePerLabel":null,"banner":{"text":"Preț avantajos","textColor":"#F95510","bgColor":"#FEF1CD","icon":null,"link":"https://www.freshful.ro/oferte/freshful-top-deals-2023","type":"promo","analyticsEventType":"select_promotion","analyticsEventPayload":{"promotion_id":"freshful-top-deals-2023","promotion_name":"Profită de Top Deals"}},"discountLabel":null,"geniusDiscountLabel":null,"badge":null},{"code":"100062057","variantCode":"100062057","name":"Gel de duș Deeply Nourishing 500ml","slug":"100062057-dove-gel-de-dus-deeply-nourishing-500ml","unitPriceLabel":"33,98 Lei/l","brand":"Dove","brandCode":"763","brandFilterCode":"dove-b764","sku":"100062057","price":16.99,"originalPrice":null,"currencyCode":"RON","currency":"Lei","image":{"thumbnail":{"default":"https://cdn.freshful.ro/media/cache/sylius_shop_product_thumbnail/2c/ae/18dfffdc844c20018443c28b1aa2.jpg"},"large":{"default":"https://cdn.freshful.ro/media/cache/freshful_large/2c/ae/18dfffdc844c20018443c28b1aa2.jpg"},"extralarge":{"default":"https://cdn.freshful.ro/media/cache/sylius_shop_product_original/2c/ae/18dfffdc844c20018443c28b1aa2.jpg"}},"label":{"text":"Profită acum","backgroundColor":"#FF9903","textColor":"#FFFFFF"},"tags":[],"isAvailable":true,"maxAvailableQuantity":6,"maxAllowedQuantity":6,"breadcrumbs":[{"code":"11","name":"Cosmetice","slug":"11-cosmetice-si-ingrijire-personala"},{"code":"1110","name":"Săpunuri și geluri de duș","slug":"1110-sapunuri-si-geluri-de-dus"},{"code":"111004","name":"Gel de duș și sare de baie","slug":"111004-gel-de-dus-si-sare-de-baie"},{"code":"100062057","name":"Gel de duș Deeply Nourishing 500ml","slug":"100062057-dove-gel-de-dus-deeply-nourishing-500ml"}],"activePromotion":{"code":"oferte-dph-21feb-8mar23","name":"Preț avantajos","targetQuantity":null},"saveMe":null,"labels":[{"type":"v1","items":[{"text":"Profită acum","backgroundColor":"#FF9903","textColor":"#FFFFFF"}]}],"geniusPrice":null,"geniusUnitPricePerLabel":null,"banner":{"text":"Preț avantajos","textColor":"#F95510","bgColor":"#FEF1CD","icon":null,"link":"https://www.freshful.ro/oferte/oferte-dph-21feb-8mar23","type":"promo","analyticsEventType":"select_promotion","analyticsEventPayload":{"promotion_id":"oferte-dph-21feb-8mar23","promotion_name":"Curățenie și îngrijire personală"}},"discountLabel":null,"geniusDiscountLabel":null,"badge":null},{"code":"100142155","variantCode":"100142155","name":"Gel de duș Forest Ritual 250ml","slug":"100142155-tesori-d-oriente-gel-de-dus-forest-ritual-250ml","unitPriceLabel":"53,28 Lei/l","brand":"Tesori d'Oriente","brandCode":"554","brandFilterCode":"tesori-d-oriente-b555","sku":"100142155","price":13.32,"originalPrice":null,"currencyCode":"RON","currency":"Lei","image":{"thumbnail":{"default":"https://cdn.freshful.ro/media/cache/sylius_shop_product_thumbnail/06/1c/58cac891504780f1eba8d01e7114.jpg"},"large":{"default":"https://cdn.freshful.ro/media/cache/freshful_large/06/1c/58cac891504780f1eba8d01e7114.jpg"},"extralarge":{"default":"https://cdn.freshful.ro/media/cache/sylius_shop_product_original/06/1c/58cac891504780f1eba8d01e7114.jpg"}},"label":{"text":"Profită acum","backgroundColor":"#FF9903","textColor":"#FFFFFF"},"tags":[],"isAvailable":true,"maxAvailableQuantity":6,"maxAllowedQuantity":6,"breadcrumbs":[{"code":"11","name":"Cosmetice","slug":"11-cosmetice-si-ingrijire-personala"},{"code":"1110","name":"Săpunuri și geluri de duș","slug":"1110-sapunuri-si-geluri-de-dus"},{"code":"111004","name":"Gel de duș și sare de baie","slug":"111004-gel-de-dus-si-sare-de-baie"},{"code":"100142155","name":"Gel de duș Forest Ritual 250ml","slug":"100142155-tesori-d-oriente-gel-de-dus-forest-ritual-250ml"}],"activePromotion":{"code":"freshful-top-deals-2023","name":"Preț avantajos","targetQuantity":null},"saveMe":null,"labels":[{"type":"v1","items":[{"text":"Profită acum","backgroundColor":"#FF9903","textColor":"#FFFFFF"}]}],"geniusPrice":null,"geniusUnitPricePerLabel":null,"banner":{"text":"Preț avantajos","textColor":"#F95510","bgColor":"#FEF1CD","icon":null,"link":"https://www.freshful.ro/oferte/freshful-top-deals-2023","type":"promo","analyticsEventType":"select_promotion","analyticsEventPayload":{"promotion_id":"freshful-top-deals-2023","promotion_name":"Profită de Top Deals"}},"discountLabel":null,"geniusDiscountLabel":null,"badge":null},{"code":"100036052","variantCode":"100036052","name":"Gel de duș antibacterian Deep Clean 500ml","slug":"100036052-protex-gel-de-dus-antibacterian-deep-clean-500ml","unitPriceLabel":"30,88 Lei/l","brand":"Protex","brandCode":"331","brandFilterCode":"protex-b332","sku":"100036052","price":15.44,"originalPrice":null,"currencyCode":"RON","currency":"Lei","image":{"thumbnail":{"default":"https://cdn.freshful.ro/media/cache/sylius_shop_product_thumbnail/bb/2c/d8103556c93e2bac060eaa127aa1.jpg"},"large":{"default":"https://cdn.freshful.ro/media/cache/freshful_large/bb/2c/d8103556c93e2bac060eaa127aa1.jpg"},"extralarge":{"default":"https://cdn.freshful.ro/media/cache/sylius_shop_product_original/bb/2c/d8103556c93e2bac060eaa127aa1.jpg"}},"label":{"text":"Profită acum","backgroundColor":"#FF9903","textColor":"#FFFFFF"},"tags":[],"isAvailable":true,"maxAvailableQuantity":6,"maxAllowedQuantity":6,"breadcrumbs":[{"code":"11","name":"Cosmetice","slug":"11-cosmetice-si-ingrijire-personala"},{"code":"1110","name":"Săpunuri și geluri de duș","slug":"1110-sapunuri-si-geluri-de-dus"},{"code":"111004","name":"Gel de duș și sare de baie","slug":"111004-gel-de-dus-si-sare-de-baie"},{"code":"100036052","name":"Gel de duș antibacterian Deep Clean 500ml","slug":"100036052-protex-gel-de-dus-antibacterian-deep-clean-500ml"}],"activePromotion":{"code":"freshful-top-deals-2023","name":"Preț avantajos","targetQuantity":null},"saveMe":null,"labels":[{"type":"v1","items":[{"text":"Profită acum","backgroundColor":"#FF9903","textColor":"#FFFFFF"}]}],"geniusPrice":null,"geniusUnitPricePerLabel":null,"banner":{"text":"Preț avantajos","textColor":"#F95510","bgColor":"#FEF1CD","icon":null,"link":"https://www.freshful.ro/oferte/freshful-top-deals-2023","type":"promo","analyticsEventType":"select_promotion","analyticsEventPayload":{"promotion_id":"freshful-top-deals-2023","promotion_name":"Profită de Top Deals"}},"discountLabel":null,"geniusDiscountLabel":null,"badge":null},{"code":"100062070","variantCode":"100062070","name":"Gel de duș Men+Care Hydration Balance 400ml","slug":"100062070-dove-gel-de-dus-men-care-hydration-balance-400ml","unitPriceLabel":"42,48 Lei/l","brand":"Dove","brandCode":"763","brandFilterCode":"dove-b764","sku":"100062070","price":16.99,"originalPrice":null,"currencyCode":"RON","currency":"Lei","image":{"thumbnail":{"default":"https://cdn.freshful.ro/media/cache/sylius_shop_product_thumbnail/d0/e7/6617eb2e24b1ce191a06454080cf.jpg"},"large":{"default":"https://cdn.freshful.ro/media/cache/freshful_large/d0/e7/6617eb2e24b1ce191a06454080cf.jpg"},"extralarge":{"default":"https://cdn.freshful.ro/media/cache/sylius_shop_product_original/d0/e7/6617eb2e24b1ce191a06454080cf.jpg"}},"label":{"text":"Profită acum","backgroundColor":"#FF9903","textColor":"#FFFFFF"},"tags":[],"isAvailable":true,"maxAvailableQuantity":6,"maxAllowedQuantity":6,"breadcrumbs":[{"code":"11","name":"Cosmetice","slug":"11-cosmetice-si-ingrijire-personala"},{"code":"1110","name":"Săpunuri și geluri de duș","slug":"1110-sapunuri-si-geluri-de-dus"},{"code":"111004","name":"Gel de duș și sare de baie","slug":"111004-gel-de-dus-si-sare-de-baie"},{"code":"100062070","name":"Gel de duș Men+Care Hydration Balance 400ml","slug":"100062070-dove-gel-de-dus-men-care-hydration-balance-400ml"}],"activePromotion":{"code":"oferte-dph-21feb-8mar23","name":"Preț avantajos","targetQuantity":null},"saveMe":null,"labels":[{"type":"v1","items":[{"text":"Profită acum","backgroundColor":"#FF9903","textColor":"#FFFFFF"}]}],"geniusPrice":null,"geniusUnitPricePerLabel":null,"banner":{"text":"Preț avantajos","textColor":"#F95510","bgColor":"#FEF1CD","icon":null,"link":"https://www.freshful.ro/oferte/oferte-dph-21feb-8mar23","type":"promo","analyticsEventType":"select_promotion","analyticsEventPayload":{"promotion_id":"oferte-dph-21feb-8mar23","promotion_name":"Curățenie și îngrijire personală"}},"discountLabel":null,"geniusDiscountLabel":null,"badge":null}],"filters":{"countSelected":0,"items":[{"code":"promotion","name":"Promoții","countSelected":0,"values":[{"code":"oferte-dph-21feb-8mar23","name":"Curățenie și îngrijire personală","isSelected":false,"count":12},{"code":"freshful-top-deals-2023","name":"Profită de Top Deals","isSelected":false,"count":10}]},{"code":"brand","name":"Brand","countSelected":0,"values":[{"code":"barnangen-b1757","name":"Barnängen","isSelected":false,"count":7},{"code":"betres-b1752","name":"Betres","isSelected":false,"count":1},{"code":"biopha-b1420","name":"Biopha","isSelected":false,"count":1},{"code":"borotalco-b690","name":"Borotalco","isSelected":false,"count":4},{"code":"cottage-b705","name":"Cottage","isSelected":false,"count":11},{"code":"dove-b764","name":"Dove","isSelected":false,"count":24},{"code":"elmiplant-b551","name":"Elmiplant","isSelected":false,"count":6},{"code":"essere-b1365","name":"Essere","isSelected":false,"count":1},{"code":"gerovital-b1837","name":"Gerovital","isSelected":false,"count":2},{"code":"keff-b2560","name":"Keff","isSelected":false,"count":4},{"code":"lactovit-b302","name":"Lactovit","isSelected":false,"count":4},{"code":"le-petit-olivier-b1746","name":"Le Petit Olivier","isSelected":false,"count":8},{"code":"lux-b2717","name":"Lux","isSelected":false,"count":5},{"code":"milmil-b343","name":"Milmil","isSelected":false,"count":4},{"code":"natura-verde-b340","name":"Natura Verde","isSelected":false,"count":1},{"code":"nature-box-b1763","name":"Nature Box","isSelected":false,"count":6},{"code":"nivea-b317","name":"Nivea","isSelected":false,"count":30},{"code":"old-spice-b663","name":"Old Spice","isSelected":false,"count":6},{"code":"on-line-b2075","name":"On Line","isSelected":false,"count":2},{"code":"palmolive-b331","name":"Palmolive","isSelected":false,"count":22},{"code":"protex-b332","name":"Protex","isSelected":false,"count":4},{"code":"rituals-b2992","name":"Rituals","isSelected":false,"count":4},{"code":"str8-b540","name":"STR8","isSelected":false,"count":1},{"code":"tesori-d-oriente-b555","name":"Tesori d'Oriente","isSelected":false,"count":10},{"code":"tiama-b1683","name":"Tiama","isSelected":false,"count":1},{"code":"yope-b1617","name":"Yope","isSelected":false,"count":2}]},{"code":"diet_lifestyle","name":"Dietă și lifestyle","countSelected":0,"values":[{"code":"bio-a26","name":"Bio","isSelected":false,"count":11},{"code":"natural-a27","name":"Natural","isSelected":false,"count":2},{"code":"vegan-a24","name":"Vegan","isSelected":false,"count":23}]}]},"orderBy":[{"field":"price","direction":"asc","name":"Preț crescător","isSelected":false},{"field":"price","direction":"desc","name":"Preț descrescător","isSelected":false},{"field":"popularity","direction":"desc","name":"Cele mai populare","isSelected":true},{"field":"category","direction":"asc","name":"Categorie","isSelected":false}],"metaTitle":"Gel de duș și sare de baie - Gamă variată","metaDescription":"Vrei Gel de duș și sare de baie? Alege dintr-o gamă variată. Comanzi simplu și ai livrare rapidă, calitate și prospețime. Hai pe Freshful.ro","metaKeywords":null,"banners":[]}}