{"type":"subcategory","payload":{"analyticsListId":"category_111003-gel-hydroalcoolica","analyticsListName":"Category - Gel hydroalcoolica","name":"Gel hydroalcoolica","slug":"111003-gel-hydroalcoolica","image":null,"breadcrumbs":[{"code":"11","name":"Cosmetice","slug":"11-cosmetice-si-ingrijire-personala"},{"code":"1110","name":"Săpunuri și geluri de duș","slug":"1110-sapunuri-si-geluri-de-dus"},{"code":"111003","name":"Gel hydroalcoolica","slug":"111003-gel-hydroalcoolica"}],"slots":[],"page":1,"limit":10,"pages":3,"count":21,"siblings":[{"name":"Deodorante și parfumuri","slug":"1101-deodorante-si-parfumuri","selected":false},{"name":"Bărbierit și îngrijire ten","slug":"1102-produse-pentru-barbierit-si-ingrijit-ten","selected":false},{"name":"Demachiante și creme","slug":"1103-creme-intretinere-si-demachiante","selected":false},{"name":"Protecție solară","slug":"1104-produse-cu-protectie-solara","selected":false},{"name":"Ceară, benzi și creme depilatoare","slug":"1105-ceara-benzi-si-creme-depliatoare","selected":false},{"name":"Seturi cadou","slug":"1106-seturi-cadou","selected":false},{"name":"Îngrijirea părului","slug":"1107-ingrijirea-parului","selected":false},{"name":"Igienă intimă","slug":"1108-igienta-inima","selected":false},{"name":"Igienă dentară","slug":"1109-igiena-dentara","selected":false},{"name":"Săpunuri și geluri de duș","slug":"1110-sapunuri-si-geluri-de-dus","selected":true},{"name":"Dermatocosmetice și parafarmacie","slug":"1111-dermatocosmetice-si-parafarmacie","selected":false},{"name":"Repelent","slug":"repelent","selected":false}],"children":[{"name":"Toate produsele","slug":"1110-sapunuri-si-geluri-de-dus","selected":false},{"name":"Săpun solid","slug":"111001-sapun-solid","selected":false},{"name":"Săpun lichid","slug":"111002-sapun-lichid","selected":false},{"name":"Gel hydroalcoolica","slug":"111003-gel-hydroalcoolica","selected":true},{"name":"Gel de duș și sare de baie","slug":"111004-gel-de-dus-si-sare-de-baie","selected":false},{"name":"Bureți de baie și bețișoare de urechi","slug":"111005-bureti-de-baie-si-betisoare-de-urechi","selected":false}],"products":[{"code":"100043041","variantCode":"100043041","name":"Gel antibacterian Violet 59ml","slug":"100043041-touch-gel-antibacterian-violet-59ml","unitPriceLabel":"186,27 Lei/l","brand":"Touch","brandCode":"578","brandFilterCode":"touch-b579","sku":"100043041","price":10.99,"originalPrice":null,"currencyCode":"RON","currency":"Lei","image":{"thumbnail":{"default":"https://cdn.freshful.ro/media/cache/sylius_shop_product_thumbnail/fd/38/403ddc4d1d561d58469d3ababc18.jpg"},"large":{"default":"https://cdn.freshful.ro/media/cache/freshful_large/fd/38/403ddc4d1d561d58469d3ababc18.jpg"},"extralarge":{"default":"https://cdn.freshful.ro/media/cache/sylius_shop_product_original/fd/38/403ddc4d1d561d58469d3ababc18.jpg"}},"label":null,"tags":[],"isAvailable":true,"maxAvailableQuantity":94,"maxAllowedQuantity":100,"breadcrumbs":[{"code":"11","name":"Cosmetice","slug":"11-cosmetice-si-ingrijire-personala"},{"code":"1110","name":"Săpunuri și geluri de duș","slug":"1110-sapunuri-si-geluri-de-dus"},{"code":"111003","name":"Gel hydroalcoolica","slug":"111003-gel-hydroalcoolica"},{"code":"100043041","name":"Gel antibacterian Violet 59ml","slug":"100043041-touch-gel-antibacterian-violet-59ml"}],"activePromotion":null,"saveMe":null,"labels":[],"geniusPrice":null,"geniusUnitPricePerLabel":null,"banner":null,"discountLabel":null,"geniusDiscountLabel":null,"badge":null},{"code":"100043040","variantCode":"100043040","name":"Gel antibacterian Kids 59ml","slug":"100043040-touch-gel-antibacterian-kids-59ml","unitPriceLabel":"186.271,19 Lei/l","brand":"Touch","brandCode":"578","brandFilterCode":"touch-b579","sku":"100043040","price":10.99,"originalPrice":null,"currencyCode":"RON","currency":"Lei","image":{"thumbnail":{"default":"https://cdn.freshful.ro/media/cache/sylius_shop_product_thumbnail/bf/4f/975bfbf92d0c72b4a7f38563a7b9.jpg"},"large":{"default":"https://cdn.freshful.ro/media/cache/freshful_large/bf/4f/975bfbf92d0c72b4a7f38563a7b9.jpg"},"extralarge":{"default":"https://cdn.freshful.ro/media/cache/sylius_shop_product_original/bf/4f/975bfbf92d0c72b4a7f38563a7b9.jpg"}},"label":null,"tags":[],"isAvailable":true,"maxAvailableQuantity":13,"maxAllowedQuantity":100,"breadcrumbs":[{"code":"11","name":"Cosmetice","slug":"11-cosmetice-si-ingrijire-personala"},{"code":"1110","name":"Săpunuri și geluri de duș","slug":"1110-sapunuri-si-geluri-de-dus"},{"code":"111003","name":"Gel hydroalcoolica","slug":"111003-gel-hydroalcoolica"},{"code":"100043040","name":"Gel antibacterian Kids 59ml","slug":"100043040-touch-gel-antibacterian-kids-59ml"}],"activePromotion":null,"saveMe":null,"labels":[],"geniusPrice":null,"geniusUnitPricePerLabel":null,"banner":null,"discountLabel":null,"geniusDiscountLabel":null,"badge":null},{"code":"100043078","variantCode":"100043078","name":"Gel antibacterian Classic 220ml","slug":"100043078-touch-gel-antibacterian-classic-220ml","unitPriceLabel":"121.772,73 Lei/l","brand":"Touch","brandCode":"578","brandFilterCode":"touch-b579","sku":"100043078","price":26.79,"originalPrice":null,"currencyCode":"RON","currency":"Lei","image":{"thumbnail":{"default":"https://cdn.freshful.ro/media/cache/sylius_shop_product_thumbnail/15/4a/f025fc8894ff10bef4ae921faf0f.jpg"},"large":{"default":"https://cdn.freshful.ro/media/cache/freshful_large/15/4a/f025fc8894ff10bef4ae921faf0f.jpg"},"extralarge":{"default":"https://cdn.freshful.ro/media/cache/sylius_shop_product_original/15/4a/f025fc8894ff10bef4ae921faf0f.jpg"}},"label":null,"tags":[],"isAvailable":true,"maxAvailableQuantity":42,"maxAllowedQuantity":100,"breadcrumbs":[{"code":"11","name":"Cosmetice","slug":"11-cosmetice-si-ingrijire-personala"},{"code":"1110","name":"Săpunuri și geluri de duș","slug":"1110-sapunuri-si-geluri-de-dus"},{"code":"111003","name":"Gel hydroalcoolica","slug":"111003-gel-hydroalcoolica"},{"code":"100043078","name":"Gel antibacterian Classic 220ml","slug":"100043078-touch-gel-antibacterian-classic-220ml"}],"activePromotion":null,"saveMe":null,"labels":[],"geniusPrice":null,"geniusUnitPricePerLabel":null,"banner":null,"discountLabel":null,"geniusDiscountLabel":null,"badge":null},{"code":"100043075","variantCode":"100043075","name":"Spray antibacterian Classic 112ml","slug":"100043075-touch-spray-antibacterian-classic-112ml","unitPriceLabel":"152.589,29 Lei/l","brand":"Touch","brandCode":"578","brandFilterCode":"touch-b579","sku":"100043075","price":17.09,"originalPrice":null,"currencyCode":"RON","currency":"Lei","image":{"thumbnail":{"default":"https://cdn.freshful.ro/media/cache/sylius_shop_product_thumbnail/2f/ab/bf2257034c45ffe374c7a83ce805.jpg"},"large":{"default":"https://cdn.freshful.ro/media/cache/freshful_large/2f/ab/bf2257034c45ffe374c7a83ce805.jpg"},"extralarge":{"default":"https://cdn.freshful.ro/media/cache/sylius_shop_product_original/2f/ab/bf2257034c45ffe374c7a83ce805.jpg"}},"label":null,"tags":[],"isAvailable":true,"maxAvailableQuantity":60,"maxAllowedQuantity":100,"breadcrumbs":[{"code":"11","name":"Cosmetice","slug":"11-cosmetice-si-ingrijire-personala"},{"code":"1110","name":"Săpunuri și geluri de duș","slug":"1110-sapunuri-si-geluri-de-dus"},{"code":"111003","name":"Gel hydroalcoolica","slug":"111003-gel-hydroalcoolica"},{"code":"100043075","name":"Spray antibacterian Classic 112ml","slug":"100043075-touch-spray-antibacterian-classic-112ml"}],"activePromotion":null,"saveMe":null,"labels":[],"geniusPrice":null,"geniusUnitPricePerLabel":null,"banner":null,"discountLabel":null,"geniusDiscountLabel":null,"badge":null},{"code":"100086187","variantCode":"100086187","name":"Gel curățare mâini cu aloe vera 80ml ","slug":"100086187-elmiplant-gel-curatare-maini-cu-aloe-vera-80ml","unitPriceLabel":"98,63 Lei/l","brand":"Elmiplant","brandCode":"550","brandFilterCode":"elmiplant-b551","sku":"100086187","price":7.89,"originalPrice":null,"currencyCode":"RON","currency":"Lei","image":{"thumbnail":{"default":"https://cdn.freshful.ro/media/cache/sylius_shop_product_thumbnail/7f/e0/3302f539de9654a2a09f2c554015.jpg"},"large":{"default":"https://cdn.freshful.ro/media/cache/freshful_large/7f/e0/3302f539de9654a2a09f2c554015.jpg"},"extralarge":{"default":"https://cdn.freshful.ro/media/cache/sylius_shop_product_original/7f/e0/3302f539de9654a2a09f2c554015.jpg"}},"label":null,"tags":[],"isAvailable":true,"maxAvailableQuantity":52,"maxAllowedQuantity":100,"breadcrumbs":[{"code":"11","name":"Cosmetice","slug":"11-cosmetice-si-ingrijire-personala"},{"code":"1110","name":"Săpunuri și geluri de duș","slug":"1110-sapunuri-si-geluri-de-dus"},{"code":"111003","name":"Gel hydroalcoolica","slug":"111003-gel-hydroalcoolica"},{"code":"100086187","name":"Gel curățare mâini cu aloe vera 80ml ","slug":"100086187-elmiplant-gel-curatare-maini-cu-aloe-vera-80ml"}],"activePromotion":null,"saveMe":null,"labels":[],"geniusPrice":null,"geniusUnitPricePerLabel":null,"banner":null,"discountLabel":null,"geniusDiscountLabel":null,"badge":null},{"code":"100043081","variantCode":"100043081","name":"Spray antibacterian Violet 220ml","slug":"100043081-touch-spray-antibacterian-violet-220ml","unitPriceLabel":"129.500 Lei/l","brand":"Touch","brandCode":"578","brandFilterCode":"touch-b579","sku":"100043081","price":28.49,"originalPrice":null,"currencyCode":"RON","currency":"Lei","image":{"thumbnail":{"default":"https://cdn.freshful.ro/media/cache/sylius_shop_product_thumbnail/c4/bc/7146fb816cb5c4f79103e6797298.jpg"},"large":{"default":"https://cdn.freshful.ro/media/cache/freshful_large/c4/bc/7146fb816cb5c4f79103e6797298.jpg"},"extralarge":{"default":"https://cdn.freshful.ro/media/cache/sylius_shop_product_original/c4/bc/7146fb816cb5c4f79103e6797298.jpg"}},"label":null,"tags":[],"isAvailable":true,"maxAvailableQuantity":63,"maxAllowedQuantity":100,"breadcrumbs":[{"code":"11","name":"Cosmetice","slug":"11-cosmetice-si-ingrijire-personala"},{"code":"1110","name":"Săpunuri și geluri de duș","slug":"1110-sapunuri-si-geluri-de-dus"},{"code":"111003","name":"Gel hydroalcoolica","slug":"111003-gel-hydroalcoolica"},{"code":"100043081","name":"Spray antibacterian Violet 220ml","slug":"100043081-touch-spray-antibacterian-violet-220ml"}],"activePromotion":null,"saveMe":null,"labels":[],"geniusPrice":null,"geniusUnitPricePerLabel":null,"banner":null,"discountLabel":null,"geniusDiscountLabel":null,"badge":null},{"code":"100043079","variantCode":"100043079","name":"Gel antibacterian Kids 220ml","slug":"100043079-touch-gel-antibacterian-kids-220ml","unitPriceLabel":"121.772,73 Lei/l","brand":"Touch","brandCode":"578","brandFilterCode":"touch-b579","sku":"100043079","price":26.79,"originalPrice":null,"currencyCode":"RON","currency":"Lei","image":{"thumbnail":{"default":"https://cdn.freshful.ro/media/cache/sylius_shop_product_thumbnail/21/bc/cf6ea7eb682185a92c475b11981b.jpg"},"large":{"default":"https://cdn.freshful.ro/media/cache/freshful_large/21/bc/cf6ea7eb682185a92c475b11981b.jpg"},"extralarge":{"default":"https://cdn.freshful.ro/media/cache/sylius_shop_product_original/21/bc/cf6ea7eb682185a92c475b11981b.jpg"}},"label":null,"tags":[],"isAvailable":true,"maxAvailableQuantity":64,"maxAllowedQuantity":100,"breadcrumbs":[{"code":"11","name":"Cosmetice","slug":"11-cosmetice-si-ingrijire-personala"},{"code":"1110","name":"Săpunuri și geluri de duș","slug":"1110-sapunuri-si-geluri-de-dus"},{"code":"111003","name":"Gel hydroalcoolica","slug":"111003-gel-hydroalcoolica"},{"code":"100043079","name":"Gel antibacterian Kids 220ml","slug":"100043079-touch-gel-antibacterian-kids-220ml"}],"activePromotion":null,"saveMe":null,"labels":[],"geniusPrice":null,"geniusUnitPricePerLabel":null,"banner":null,"discountLabel":null,"geniusDiscountLabel":null,"badge":null},{"code":"100043083","variantCode":"100043083","name":"Spray antibacterian Classic 220ml","slug":"100043083-touch-spray-antibacterian-classic-220ml","unitPriceLabel":"129.500 Lei/l","brand":"Touch","brandCode":"578","brandFilterCode":"touch-b579","sku":"100043083","price":28.49,"originalPrice":null,"currencyCode":"RON","currency":"Lei","image":{"thumbnail":{"default":"https://cdn.freshful.ro/media/cache/sylius_shop_product_thumbnail/52/4d/6f0bb76d3f9b018525d778eceafc.jpg"},"large":{"default":"https://cdn.freshful.ro/media/cache/freshful_large/52/4d/6f0bb76d3f9b018525d778eceafc.jpg"},"extralarge":{"default":"https://cdn.freshful.ro/media/cache/sylius_shop_product_original/52/4d/6f0bb76d3f9b018525d778eceafc.jpg"}},"label":null,"tags":[],"isAvailable":true,"maxAvailableQuantity":58,"maxAllowedQuantity":100,"breadcrumbs":[{"code":"11","name":"Cosmetice","slug":"11-cosmetice-si-ingrijire-personala"},{"code":"1110","name":"Săpunuri și geluri de duș","slug":"1110-sapunuri-si-geluri-de-dus"},{"code":"111003","name":"Gel hydroalcoolica","slug":"111003-gel-hydroalcoolica"},{"code":"100043083","name":"Spray antibacterian Classic 220ml","slug":"100043083-touch-spray-antibacterian-classic-220ml"}],"activePromotion":null,"saveMe":null,"labels":[],"geniusPrice":null,"geniusUnitPricePerLabel":null,"banner":null,"discountLabel":null,"geniusDiscountLabel":null,"badge":null},{"code":"100043071","variantCode":"100043071","name":"Gel antibacterian Classic 500ml","slug":"100043071-touch-gel-antibacterian-classic-500ml","unitPriceLabel":"75.780 Lei/l","brand":"Touch","brandCode":"578","brandFilterCode":"touch-b579","sku":"100043071","price":37.89,"originalPrice":null,"currencyCode":"RON","currency":"Lei","image":{"thumbnail":{"default":"https://cdn.freshful.ro/media/cache/sylius_shop_product_thumbnail/e1/d8/55f233e26a505e57a54470a3c647.jpg"},"large":{"default":"https://cdn.freshful.ro/media/cache/freshful_large/e1/d8/55f233e26a505e57a54470a3c647.jpg"},"extralarge":{"default":"https://cdn.freshful.ro/media/cache/sylius_shop_product_original/e1/d8/55f233e26a505e57a54470a3c647.jpg"}},"label":null,"tags":[],"isAvailable":true,"maxAvailableQuantity":94,"maxAllowedQuantity":100,"breadcrumbs":[{"code":"11","name":"Cosmetice","slug":"11-cosmetice-si-ingrijire-personala"},{"code":"1110","name":"Săpunuri și geluri de duș","slug":"1110-sapunuri-si-geluri-de-dus"},{"code":"111003","name":"Gel hydroalcoolica","slug":"111003-gel-hydroalcoolica"},{"code":"100043071","name":"Gel antibacterian Classic 500ml","slug":"100043071-touch-gel-antibacterian-classic-500ml"}],"activePromotion":null,"saveMe":null,"labels":[],"geniusPrice":null,"geniusUnitPricePerLabel":null,"banner":null,"discountLabel":null,"geniusDiscountLabel":null,"badge":null},{"code":"100043072","variantCode":"100043072","name":"Gel antibacterian Classic 112ml","slug":"100043072-touch-gel-antibacterian-classic-112ml","unitPriceLabel":"140.982,14 Lei/l","brand":"Touch","brandCode":"578","brandFilterCode":"touch-b579","sku":"100043072","price":15.79,"originalPrice":null,"currencyCode":"RON","currency":"Lei","image":{"thumbnail":{"default":"https://cdn.freshful.ro/media/cache/sylius_shop_product_thumbnail/af/b3/35026b8478e01e3c078d04746e28.jpg"},"large":{"default":"https://cdn.freshful.ro/media/cache/freshful_large/af/b3/35026b8478e01e3c078d04746e28.jpg"},"extralarge":{"default":"https://cdn.freshful.ro/media/cache/sylius_shop_product_original/af/b3/35026b8478e01e3c078d04746e28.jpg"}},"label":null,"tags":[],"isAvailable":true,"maxAvailableQuantity":76,"maxAllowedQuantity":100,"breadcrumbs":[{"code":"11","name":"Cosmetice","slug":"11-cosmetice-si-ingrijire-personala"},{"code":"1110","name":"Săpunuri și geluri de duș","slug":"1110-sapunuri-si-geluri-de-dus"},{"code":"111003","name":"Gel hydroalcoolica","slug":"111003-gel-hydroalcoolica"},{"code":"100043072","name":"Gel antibacterian Classic 112ml","slug":"100043072-touch-gel-antibacterian-classic-112ml"}],"activePromotion":null,"saveMe":null,"labels":[],"geniusPrice":null,"geniusUnitPricePerLabel":null,"banner":null,"discountLabel":null,"geniusDiscountLabel":null,"badge":null}],"filters":{"countSelected":0,"items":[{"code":"brand","name":"Brand","countSelected":0,"values":[{"code":"clineo-b1744","name":"Clineo","isSelected":false,"count":3},{"code":"elmiplant-b551","name":"Elmiplant","isSelected":false,"count":2},{"code":"essere-b1365","name":"Essere","isSelected":false,"count":1},{"code":"puressentiel-b2348","name":"Puressentiel","isSelected":false,"count":1},{"code":"sanytol-b301","name":"Sanytol","isSelected":false,"count":1},{"code":"touch-b579","name":"Touch","isSelected":false,"count":13}]},{"code":"diet_lifestyle","name":"Dietă și lifestyle","countSelected":0,"values":[{"code":"bio-a26","name":"Bio","isSelected":false,"count":1}]}]},"orderBy":[{"field":"price","direction":"asc","name":"Preț crescător","isSelected":false},{"field":"price","direction":"desc","name":"Preț descrescător","isSelected":false},{"field":"popularity","direction":"desc","name":"Cele mai populare","isSelected":true},{"field":"category","direction":"asc","name":"Categorie","isSelected":false}],"metaTitle":"Gel hydroalcoolica - Gamă variată","metaDescription":"Vrei Gel hydroalcoolica? Alege dintr-o gamă variată. Comanzi simplu și ai livrare rapidă, calitate și prospețime. Hai pe Freshful.ro","metaKeywords":null,"banners":[]}}