{"type":"subcategory","payload":{"analyticsListId":"category_111002-sapun-lichid","analyticsListName":"Category - Săpun lichid","name":"Săpun lichid","slug":"111002-sapun-lichid","image":null,"breadcrumbs":[{"code":"11","name":"Cosmetice","slug":"11-cosmetice-si-ingrijire-personala"},{"code":"1110","name":"Săpunuri și geluri de duș","slug":"1110-sapunuri-si-geluri-de-dus"},{"code":"111002","name":"Săpun lichid","slug":"111002-sapun-lichid"}],"slots":[],"page":1,"limit":10,"pages":9,"count":81,"siblings":[{"name":"Deodorante și parfumuri","slug":"1101-deodorante-si-parfumuri","selected":false},{"name":"Bărbierit și îngrijire ten","slug":"1102-produse-pentru-barbierit-si-ingrijit-ten","selected":false},{"name":"Demachiante și creme","slug":"1103-creme-intretinere-si-demachiante","selected":false},{"name":"Protecție solară","slug":"1104-produse-cu-protectie-solara","selected":false},{"name":"Ceară, benzi și creme depilatoare","slug":"1105-ceara-benzi-si-creme-depliatoare","selected":false},{"name":"Seturi cadou","slug":"1106-seturi-cadou","selected":false},{"name":"Îngrijirea părului","slug":"1107-ingrijirea-parului","selected":false},{"name":"Igienă intimă","slug":"1108-igienta-inima","selected":false},{"name":"Igienă dentară","slug":"1109-igiena-dentara","selected":false},{"name":"Săpunuri și geluri de duș","slug":"1110-sapunuri-si-geluri-de-dus","selected":true},{"name":"Dermatocosmetice și parafarmacie","slug":"1111-dermatocosmetice-si-parafarmacie","selected":false},{"name":"Repelent","slug":"repelent","selected":false}],"children":[{"name":"Toate produsele","slug":"1110-sapunuri-si-geluri-de-dus","selected":false},{"name":"Săpun solid","slug":"111001-sapun-solid","selected":false},{"name":"Săpun lichid","slug":"111002-sapun-lichid","selected":true},{"name":"Gel hydroalcoolica","slug":"111003-gel-hydroalcoolica","selected":false},{"name":"Gel de duș și sare de baie","slug":"111004-gel-de-dus-si-sare-de-baie","selected":false},{"name":"Bureți de baie și bețișoare de urechi","slug":"111005-bureti-de-baie-si-betisoare-de-urechi","selected":false}],"products":[{"code":"100036061","variantCode":"100036061","name":"Rezervă săpun lichid antibacterian Cream 700ml","slug":"100036061-protex-rezerva-sapun-lichid-antibacterian-cream-700ml","unitPriceLabel":"31,04 Lei/l","brand":"Protex","brandCode":"331","brandFilterCode":"protex-b332","sku":"100036061","price":21.73,"originalPrice":null,"currencyCode":"RON","currency":"Lei","image":{"thumbnail":{"default":"https://cdn.freshful.ro/media/cache/sylius_shop_product_thumbnail/5f/2e/bc3f3fb3e1acd5c42db76d7b1ef7.jpg"},"large":{"default":"https://cdn.freshful.ro/media/cache/freshful_large/5f/2e/bc3f3fb3e1acd5c42db76d7b1ef7.jpg"},"extralarge":{"default":"https://cdn.freshful.ro/media/cache/sylius_shop_product_original/5f/2e/bc3f3fb3e1acd5c42db76d7b1ef7.jpg"}},"label":{"text":"Profită acum","backgroundColor":"#FF9903","textColor":"#FFFFFF"},"tags":[],"isAvailable":true,"maxAvailableQuantity":100,"maxAllowedQuantity":100,"breadcrumbs":[{"code":"11","name":"Cosmetice","slug":"11-cosmetice-si-ingrijire-personala"},{"code":"1110","name":"Săpunuri și geluri de duș","slug":"1110-sapunuri-si-geluri-de-dus"},{"code":"111002","name":"Săpun lichid","slug":"111002-sapun-lichid"},{"code":"100036061","name":"Rezervă săpun lichid antibacterian Cream 700ml","slug":"100036061-protex-rezerva-sapun-lichid-antibacterian-cream-700ml"}],"activePromotion":{"code":"freshful-top-deals-2023","name":"Preț avantajos","targetQuantity":null},"saveMe":null,"labels":[{"type":"v1","items":[{"text":"Profită acum","backgroundColor":"#FF9903","textColor":"#FFFFFF"}]}],"geniusPrice":null,"geniusUnitPricePerLabel":null,"banner":{"text":"Preț avantajos","textColor":"#F95510","bgColor":"#FEF1CD","icon":null,"link":"https://www.freshful.ro/oferte/freshful-top-deals-2023","type":"promo","analyticsEventType":"select_promotion","analyticsEventPayload":{"promotion_id":"freshful-top-deals-2023","promotion_name":"Profită de Top Deals"}},"discountLabel":null,"geniusDiscountLabel":null,"badge":null},{"code":"100036060","variantCode":"100036060","name":"Rezervă săpun lichid antibacterian Ultra 700ml","slug":"100036060-protex-rezerva-sapun-lichid-antibacterian-ultra-700ml","unitPriceLabel":"31,04 Lei/l","brand":"Protex","brandCode":"331","brandFilterCode":"protex-b332","sku":"100036060","price":21.73,"originalPrice":null,"currencyCode":"RON","currency":"Lei","image":{"thumbnail":{"default":"https://cdn.freshful.ro/media/cache/sylius_shop_product_thumbnail/79/cd/fef883898aee27111beac85dde46.jpg"},"large":{"default":"https://cdn.freshful.ro/media/cache/freshful_large/79/cd/fef883898aee27111beac85dde46.jpg"},"extralarge":{"default":"https://cdn.freshful.ro/media/cache/sylius_shop_product_original/79/cd/fef883898aee27111beac85dde46.jpg"}},"label":{"text":"Profită acum","backgroundColor":"#FF9903","textColor":"#FFFFFF"},"tags":[],"isAvailable":true,"maxAvailableQuantity":100,"maxAllowedQuantity":100,"breadcrumbs":[{"code":"11","name":"Cosmetice","slug":"11-cosmetice-si-ingrijire-personala"},{"code":"1110","name":"Săpunuri și geluri de duș","slug":"1110-sapunuri-si-geluri-de-dus"},{"code":"111002","name":"Săpun lichid","slug":"111002-sapun-lichid"},{"code":"100036060","name":"Rezervă săpun lichid antibacterian Ultra 700ml","slug":"100036060-protex-rezerva-sapun-lichid-antibacterian-ultra-700ml"}],"activePromotion":{"code":"freshful-top-deals-2023","name":"Preț avantajos","targetQuantity":null},"saveMe":null,"labels":[{"type":"v1","items":[{"text":"Profită acum","backgroundColor":"#FF9903","textColor":"#FFFFFF"}]}],"geniusPrice":null,"geniusUnitPricePerLabel":null,"banner":{"text":"Preț avantajos","textColor":"#F95510","bgColor":"#FEF1CD","icon":null,"link":"https://www.freshful.ro/oferte/freshful-top-deals-2023","type":"promo","analyticsEventType":"select_promotion","analyticsEventPayload":{"promotion_id":"freshful-top-deals-2023","promotion_name":"Profită de Top Deals"}},"discountLabel":null,"geniusDiscountLabel":null,"badge":null},{"code":"100036059","variantCode":"100036059","name":"Rezervă săpun lichid antibacterian Fresh 700ml","slug":"100036059-protex-rezerva-sapun-lichid-antibacterian-fresh-700ml","unitPriceLabel":"31,04 Lei/l","brand":"Protex","brandCode":"331","brandFilterCode":"protex-b332","sku":"100036059","price":21.73,"originalPrice":null,"currencyCode":"RON","currency":"Lei","image":{"thumbnail":{"default":"https://cdn.freshful.ro/media/cache/sylius_shop_product_thumbnail/ec/03/6e56f6af97de7b71a5cee90cc811.jpg"},"large":{"default":"https://cdn.freshful.ro/media/cache/freshful_large/ec/03/6e56f6af97de7b71a5cee90cc811.jpg"},"extralarge":{"default":"https://cdn.freshful.ro/media/cache/sylius_shop_product_original/ec/03/6e56f6af97de7b71a5cee90cc811.jpg"}},"label":{"text":"Profită acum","backgroundColor":"#FF9903","textColor":"#FFFFFF"},"tags":[],"isAvailable":true,"maxAvailableQuantity":100,"maxAllowedQuantity":100,"breadcrumbs":[{"code":"11","name":"Cosmetice","slug":"11-cosmetice-si-ingrijire-personala"},{"code":"1110","name":"Săpunuri și geluri de duș","slug":"1110-sapunuri-si-geluri-de-dus"},{"code":"111002","name":"Săpun lichid","slug":"111002-sapun-lichid"},{"code":"100036059","name":"Rezervă săpun lichid antibacterian Fresh 700ml","slug":"100036059-protex-rezerva-sapun-lichid-antibacterian-fresh-700ml"}],"activePromotion":{"code":"freshful-top-deals-2023","name":"Preț avantajos","targetQuantity":null},"saveMe":null,"labels":[{"type":"v1","items":[{"text":"Profită acum","backgroundColor":"#FF9903","textColor":"#FFFFFF"}]}],"geniusPrice":null,"geniusUnitPricePerLabel":null,"banner":{"text":"Preț avantajos","textColor":"#F95510","bgColor":"#FEF1CD","icon":null,"link":"https://www.freshful.ro/oferte/freshful-top-deals-2023","type":"promo","analyticsEventType":"select_promotion","analyticsEventPayload":{"promotion_id":"freshful-top-deals-2023","promotion_name":"Profită de Top Deals"}},"discountLabel":null,"geniusDiscountLabel":null,"badge":null},{"code":"100086227","variantCode":"100086227","name":"Săpun lichid Hammam 300ml","slug":"100086227-tesori-d-oriente-sapun-lichid-hammam-300ml","unitPriceLabel":"44,97 Lei/l","brand":"Tesori d'Oriente","brandCode":"554","brandFilterCode":"tesori-d-oriente-b555","sku":"100086227","price":13.49,"originalPrice":16.5,"currencyCode":"RON","currency":"Lei","image":{"thumbnail":{"default":"https://cdn.freshful.ro/media/cache/sylius_shop_product_thumbnail/a1/cc/5f698879c2c363675b61e9d0b7fb.jpg"},"large":{"default":"https://cdn.freshful.ro/media/cache/freshful_large/a1/cc/5f698879c2c363675b61e9d0b7fb.jpg"},"extralarge":{"default":"https://cdn.freshful.ro/media/cache/sylius_shop_product_original/a1/cc/5f698879c2c363675b61e9d0b7fb.jpg"}},"label":{"text":"-18%","backgroundColor":"#FF9903","textColor":"#FFFFFF"},"tags":[],"isAvailable":true,"maxAvailableQuantity":34,"maxAllowedQuantity":100,"breadcrumbs":[{"code":"11","name":"Cosmetice","slug":"11-cosmetice-si-ingrijire-personala"},{"code":"1110","name":"Săpunuri și geluri de duș","slug":"1110-sapunuri-si-geluri-de-dus"},{"code":"111002","name":"Săpun lichid","slug":"111002-sapun-lichid"},{"code":"100086227","name":"Săpun lichid Hammam 300ml","slug":"100086227-tesori-d-oriente-sapun-lichid-hammam-300ml"}],"activePromotion":{"code":"oferte-dph-21feb-8mar23","name":"Preț redus","targetQuantity":null},"saveMe":null,"labels":[{"type":"v1","items":[{"text":"-18%","backgroundColor":"#FF9903","textColor":"#FFFFFF"}]}],"geniusPrice":null,"geniusUnitPricePerLabel":null,"banner":{"text":"Super preț","textColor":"#FF0000","bgColor":"#FFF2EC","icon":null,"link":"https://www.freshful.ro/oferte/oferte-dph-21feb-8mar23","type":"promo","analyticsEventType":"select_promotion","analyticsEventPayload":{"promotion_id":"oferte-dph-21feb-8mar23","promotion_name":"Curățenie și îngrijire personală"}},"discountLabel":"Economisești 18%","geniusDiscountLabel":null,"badge":null},{"code":"100086228","variantCode":"100086228","name":"Săpun lichid mosc alb 300ml ","slug":"100086228-tesori-d-oriente-sapun-lichid-mosc-alb-300ml","unitPriceLabel":"44,97 Lei/l","brand":"Tesori d'Oriente","brandCode":"554","brandFilterCode":"tesori-d-oriente-b555","sku":"100086228","price":13.49,"originalPrice":16.5,"currencyCode":"RON","currency":"Lei","image":{"thumbnail":{"default":"https://cdn.freshful.ro/media/cache/sylius_shop_product_thumbnail/7d/5e/b8559cfe1b61ec8bcba10827befd.jpg"},"large":{"default":"https://cdn.freshful.ro/media/cache/freshful_large/7d/5e/b8559cfe1b61ec8bcba10827befd.jpg"},"extralarge":{"default":"https://cdn.freshful.ro/media/cache/sylius_shop_product_original/7d/5e/b8559cfe1b61ec8bcba10827befd.jpg"}},"label":{"text":"-18%","backgroundColor":"#FF9903","textColor":"#FFFFFF"},"tags":[],"isAvailable":true,"maxAvailableQuantity":20,"maxAllowedQuantity":100,"breadcrumbs":[{"code":"11","name":"Cosmetice","slug":"11-cosmetice-si-ingrijire-personala"},{"code":"1110","name":"Săpunuri și geluri de duș","slug":"1110-sapunuri-si-geluri-de-dus"},{"code":"111002","name":"Săpun lichid","slug":"111002-sapun-lichid"},{"code":"100086228","name":"Săpun lichid mosc alb 300ml ","slug":"100086228-tesori-d-oriente-sapun-lichid-mosc-alb-300ml"}],"activePromotion":{"code":"oferte-dph-21feb-8mar23","name":"Preț redus","targetQuantity":null},"saveMe":null,"labels":[{"type":"v1","items":[{"text":"-18%","backgroundColor":"#FF9903","textColor":"#FFFFFF"}]}],"geniusPrice":null,"geniusUnitPricePerLabel":null,"banner":{"text":"Super preț","textColor":"#FF0000","bgColor":"#FFF2EC","icon":null,"link":"https://www.freshful.ro/oferte/oferte-dph-21feb-8mar23","type":"promo","analyticsEventType":"select_promotion","analyticsEventPayload":{"promotion_id":"oferte-dph-21feb-8mar23","promotion_name":"Curățenie și îngrijire personală"}},"discountLabel":"Economisești 18%","geniusDiscountLabel":null,"badge":null},{"code":"100036062","variantCode":"100036062","name":"Rezervă săpun lichid antibacterian Herbal 700ml","slug":"100036062-protex-rezerva-sapun-lichid-antibacterian-herbal-700ml","unitPriceLabel":"31,04 Lei/l","brand":"Protex","brandCode":"331","brandFilterCode":"protex-b332","sku":"100036062","price":21.73,"originalPrice":null,"currencyCode":"RON","currency":"Lei","image":{"thumbnail":{"default":"https://cdn.freshful.ro/media/cache/sylius_shop_product_thumbnail/52/12/63669b6e0acdf10f6e3100ac3dfb.jpg"},"large":{"default":"https://cdn.freshful.ro/media/cache/freshful_large/52/12/63669b6e0acdf10f6e3100ac3dfb.jpg"},"extralarge":{"default":"https://cdn.freshful.ro/media/cache/sylius_shop_product_original/52/12/63669b6e0acdf10f6e3100ac3dfb.jpg"}},"label":{"text":"Profită acum","backgroundColor":"#FF9903","textColor":"#FFFFFF"},"tags":[],"isAvailable":true,"maxAvailableQuantity":100,"maxAllowedQuantity":100,"breadcrumbs":[{"code":"11","name":"Cosmetice","slug":"11-cosmetice-si-ingrijire-personala"},{"code":"1110","name":"Săpunuri și geluri de duș","slug":"1110-sapunuri-si-geluri-de-dus"},{"code":"111002","name":"Săpun lichid","slug":"111002-sapun-lichid"},{"code":"100036062","name":"Rezervă săpun lichid antibacterian Herbal 700ml","slug":"100036062-protex-rezerva-sapun-lichid-antibacterian-herbal-700ml"}],"activePromotion":{"code":"freshful-top-deals-2023","name":"Preț avantajos","targetQuantity":null},"saveMe":null,"labels":[{"type":"v1","items":[{"text":"Profită acum","backgroundColor":"#FF9903","textColor":"#FFFFFF"}]}],"geniusPrice":null,"geniusUnitPricePerLabel":null,"banner":{"text":"Preț avantajos","textColor":"#F95510","bgColor":"#FEF1CD","icon":null,"link":"https://www.freshful.ro/oferte/freshful-top-deals-2023","type":"promo","analyticsEventType":"select_promotion","analyticsEventPayload":{"promotion_id":"freshful-top-deals-2023","promotion_name":"Profită de Top Deals"}},"discountLabel":null,"geniusDiscountLabel":null,"badge":null},{"code":"100062092","variantCode":"100062092","name":"Rezervă săpun lichid Caring 500ml","slug":"100062092-dove-rezerva-sapun-lichid-caring-500ml","unitPriceLabel":"30,98 Lei/l","brand":"Dove","brandCode":"763","brandFilterCode":"dove-b764","sku":"100062092","price":15.49,"originalPrice":null,"currencyCode":"RON","currency":"Lei","image":{"thumbnail":{"default":"https://cdn.freshful.ro/media/cache/sylius_shop_product_thumbnail/30/b0/829c024faa9feac4c7dce0200aa7.jpg"},"large":{"default":"https://cdn.freshful.ro/media/cache/freshful_large/30/b0/829c024faa9feac4c7dce0200aa7.jpg"},"extralarge":{"default":"https://cdn.freshful.ro/media/cache/sylius_shop_product_original/30/b0/829c024faa9feac4c7dce0200aa7.jpg"}},"label":null,"tags":[],"isAvailable":true,"maxAvailableQuantity":100,"maxAllowedQuantity":100,"breadcrumbs":[{"code":"11","name":"Cosmetice","slug":"11-cosmetice-si-ingrijire-personala"},{"code":"1110","name":"Săpunuri și geluri de duș","slug":"1110-sapunuri-si-geluri-de-dus"},{"code":"111002","name":"Săpun lichid","slug":"111002-sapun-lichid"},{"code":"100062092","name":"Rezervă săpun lichid Caring 500ml","slug":"100062092-dove-rezerva-sapun-lichid-caring-500ml"}],"activePromotion":null,"saveMe":null,"labels":[],"geniusPrice":null,"geniusUnitPricePerLabel":null,"banner":null,"discountLabel":null,"geniusDiscountLabel":null,"badge":null},{"code":"100086154","variantCode":"5943048002337","name":"Săpun lichid Marigold Protect 500ml","slug":"100086154-elmiplant-sapun-lichid-marigold-protect-500ml","unitPriceLabel":"21,8 Lei/l","brand":"Elmiplant","brandCode":"550","brandFilterCode":"elmiplant-b551","sku":"100086154","price":10.9,"originalPrice":null,"currencyCode":"RON","currency":"Lei","image":{"thumbnail":{"default":"https://cdn.freshful.ro/media/cache/sylius_shop_product_thumbnail/96/01/14ee9ee12f2fe4b286d42d21ec3e.jpg"},"large":{"default":"https://cdn.freshful.ro/media/cache/freshful_large/96/01/14ee9ee12f2fe4b286d42d21ec3e.jpg"},"extralarge":{"default":"https://cdn.freshful.ro/media/cache/sylius_shop_product_original/96/01/14ee9ee12f2fe4b286d42d21ec3e.jpg"}},"label":null,"tags":[{"type":"vegan","text":"Vegan","icon":"https://cdn.freshful.ro/assets/product_tags/vegan.svg","iconPng":"https://cdn.freshful.ro/assets/product_tags/vegan.png","backgroundColor":"#ECF9F8","textColor":"#33A39C"}],"isAvailable":true,"maxAvailableQuantity":100,"maxAllowedQuantity":100,"breadcrumbs":[{"code":"11","name":"Cosmetice","slug":"11-cosmetice-si-ingrijire-personala"},{"code":"1110","name":"Săpunuri și geluri de duș","slug":"1110-sapunuri-si-geluri-de-dus"},{"code":"111002","name":"Săpun lichid","slug":"111002-sapun-lichid"},{"code":"100086154","name":"Săpun lichid Marigold Protect 500ml","slug":"100086154-elmiplant-sapun-lichid-marigold-protect-500ml"}],"activePromotion":null,"saveMe":null,"labels":[],"geniusPrice":null,"geniusUnitPricePerLabel":null,"banner":null,"discountLabel":null,"geniusDiscountLabel":null,"badge":null},{"code":"100036117","variantCode":"100036117","name":"Rezervă săpun lichid eco Naturals Milk&Orchid 750ml","slug":"100036117-palmolive-rezerva-sapun-lichid-eco-naturals-milk-orchid-750ml","unitPriceLabel":"26,64 Lei/l","brand":"Palmolive","brandCode":"330","brandFilterCode":"palmolive-b331","sku":"100036117","price":19.98,"originalPrice":null,"currencyCode":"RON","currency":"Lei","image":{"thumbnail":{"default":"https://cdn.freshful.ro/media/cache/sylius_shop_product_thumbnail/f2/b7/769b382ff1889e406d6f65d539b3.jpg"},"large":{"default":"https://cdn.freshful.ro/media/cache/freshful_large/f2/b7/769b382ff1889e406d6f65d539b3.jpg"},"extralarge":{"default":"https://cdn.freshful.ro/media/cache/sylius_shop_product_original/f2/b7/769b382ff1889e406d6f65d539b3.jpg"}},"label":null,"tags":[{"type":"Eco","text":"Eco","icon":"https://cdn.freshful.ro/assets/product_tags/eco.svg","iconPng":"https://cdn.freshful.ro/assets/product_tags/eco.png","backgroundColor":"#EFFBE4","textColor":"#66BB1B"}],"isAvailable":true,"maxAvailableQuantity":100,"maxAllowedQuantity":100,"breadcrumbs":[{"code":"11","name":"Cosmetice","slug":"11-cosmetice-si-ingrijire-personala"},{"code":"1110","name":"Săpunuri și geluri de duș","slug":"1110-sapunuri-si-geluri-de-dus"},{"code":"111002","name":"Săpun lichid","slug":"111002-sapun-lichid"},{"code":"100036117","name":"Rezervă săpun lichid eco Naturals Milk&Orchid 750ml","slug":"100036117-palmolive-rezerva-sapun-lichid-eco-naturals-milk-orchid-750ml"}],"activePromotion":null,"saveMe":null,"labels":[],"geniusPrice":null,"geniusUnitPricePerLabel":null,"banner":null,"discountLabel":null,"geniusDiscountLabel":null,"badge":null},{"code":"100036112","variantCode":"100036112","name":"Rezervă săpun lichid Naturals Milk&Almond 500ml","slug":"100036112-palmolive-rezerva-sapun-lichid-naturals-milk-almond-500ml","unitPriceLabel":"20,58 Lei/l","brand":"Palmolive","brandCode":"330","brandFilterCode":"palmolive-b331","sku":"100036112","price":10.29,"originalPrice":null,"currencyCode":"RON","currency":"Lei","image":{"thumbnail":{"default":"https://cdn.freshful.ro/media/cache/sylius_shop_product_thumbnail/1b/7c/51bccf31386cde4580c0e4e1663a.jpg"},"large":{"default":"https://cdn.freshful.ro/media/cache/freshful_large/1b/7c/51bccf31386cde4580c0e4e1663a.jpg"},"extralarge":{"default":"https://cdn.freshful.ro/media/cache/sylius_shop_product_original/1b/7c/51bccf31386cde4580c0e4e1663a.jpg"}},"label":null,"tags":[],"isAvailable":true,"maxAvailableQuantity":100,"maxAllowedQuantity":100,"breadcrumbs":[{"code":"11","name":"Cosmetice","slug":"11-cosmetice-si-ingrijire-personala"},{"code":"1110","name":"Săpunuri și geluri de duș","slug":"1110-sapunuri-si-geluri-de-dus"},{"code":"111002","name":"Săpun lichid","slug":"111002-sapun-lichid"},{"code":"100036112","name":"Rezervă săpun lichid Naturals Milk&Almond 500ml","slug":"100036112-palmolive-rezerva-sapun-lichid-naturals-milk-almond-500ml"}],"activePromotion":null,"saveMe":null,"labels":[],"geniusPrice":null,"geniusUnitPricePerLabel":null,"banner":null,"discountLabel":null,"geniusDiscountLabel":null,"badge":null}],"filters":{"countSelected":0,"items":[{"code":"promotion","name":"Promoții","countSelected":0,"values":[{"code":"oferte-dph-21feb-8mar23","name":"Curățenie și îngrijire personală","isSelected":false,"count":3},{"code":"freshful-top-deals-2023","name":"Profită de Top Deals","isSelected":false,"count":4}]},{"code":"brand","name":"Brand","countSelected":0,"values":[{"code":"borotalco-b690","name":"Borotalco","isSelected":false,"count":2},{"code":"careline-b2559","name":"Careline","isSelected":false,"count":2},{"code":"clineo-b1744","name":"Clineo","isSelected":false,"count":2},{"code":"dove-b764","name":"Dove","isSelected":false,"count":6},{"code":"elmiplant-b551","name":"Elmiplant","isSelected":false,"count":4},{"code":"expert-wipes-b1639","name":"Expert Wipes","isSelected":false,"count":2},{"code":"igienol-b428","name":"Igienol","isSelected":false,"count":2},{"code":"le-petit-olivier-b1746","name":"Le Petit Olivier","isSelected":false,"count":2},{"code":"lifebuoy-b768","name":"Lifebuoy","isSelected":false,"count":2},{"code":"lux-b2717","name":"Lux","isSelected":false,"count":3},{"code":"milmil-b343","name":"Milmil","isSelected":false,"count":2},{"code":"natura-verde-b340","name":"Natura Verde","isSelected":false,"count":2},{"code":"nivea-b317","name":"Nivea","isSelected":false,"count":3},{"code":"palmolive-b331","name":"Palmolive","isSelected":false,"count":13},{"code":"protex-b332","name":"Protex","isSelected":false,"count":11},{"code":"safeguard-b665","name":"Safeguard","isSelected":false,"count":3},{"code":"sanytol-b301","name":"Sanytol","isSelected":false,"count":1},{"code":"sonett-b1681","name":"Sonett","isSelected":false,"count":8},{"code":"tesori-d-oriente-b555","name":"Tesori d'Oriente","isSelected":false,"count":3},{"code":"touch-b579","name":"Touch","isSelected":false,"count":4},{"code":"yope-b1617","name":"Yope","isSelected":false,"count":4}]},{"code":"diet_lifestyle","name":"Dietă și lifestyle","countSelected":0,"values":[{"code":"bio-a26","name":"Bio","isSelected":false,"count":10},{"code":"eco-a83","name":"Eco","isSelected":false,"count":7},{"code":"natural-a27","name":"Natural","isSelected":false,"count":4},{"code":"vegan-a24","name":"Vegan","isSelected":false,"count":16}]}]},"orderBy":[{"field":"price","direction":"asc","name":"Preț crescător","isSelected":false},{"field":"price","direction":"desc","name":"Preț descrescător","isSelected":false},{"field":"popularity","direction":"desc","name":"Cele mai populare","isSelected":true},{"field":"category","direction":"asc","name":"Categorie","isSelected":false}],"metaTitle":"Săpun lichid - Gamă variată","metaDescription":"Vrei Săpun lichid? Alege dintr-o gamă variată. Comanzi simplu și ai livrare rapidă, calitate și prospețime. Hai pe Freshful.ro","metaKeywords":null,"banners":[]}}