{"type":"subcategory","payload":{"analyticsListId":"category_111102-dermato-cosmetice","analyticsListName":"Category - Dermatocosmetice","name":"Dermatocosmetice","slug":"111102-dermato-cosmetice","image":null,"breadcrumbs":[{"code":"11","name":"Cosmetice","slug":"11-cosmetice-si-ingrijire-personala"},{"code":"1111","name":"Dermatocosmetice și parafarmacie","slug":"1111-dermatocosmetice-si-parafarmacie"},{"code":"111102","name":"Dermatocosmetice","slug":"111102-dermato-cosmetice"}],"slots":[],"page":1,"limit":10,"pages":8,"count":78,"siblings":[{"name":"Deodorante și parfumuri","slug":"1101-deodorante-si-parfumuri","selected":false},{"name":"Bărbierit și îngrijire ten","slug":"1102-produse-pentru-barbierit-si-ingrijit-ten","selected":false},{"name":"Demachiante și creme","slug":"1103-creme-intretinere-si-demachiante","selected":false},{"name":"Protecție solară","slug":"1104-produse-cu-protectie-solara","selected":false},{"name":"Ceară, benzi și creme depilatoare","slug":"1105-ceara-benzi-si-creme-depliatoare","selected":false},{"name":"Seturi cadou","slug":"1106-seturi-cadou","selected":false},{"name":"Îngrijirea părului","slug":"1107-ingrijirea-parului","selected":false},{"name":"Igienă intimă","slug":"1108-igienta-inima","selected":false},{"name":"Igienă dentară","slug":"1109-igiena-dentara","selected":false},{"name":"Săpunuri și geluri de duș","slug":"1110-sapunuri-si-geluri-de-dus","selected":false},{"name":"Dermatocosmetice și parafarmacie","slug":"1111-dermatocosmetice-si-parafarmacie","selected":true},{"name":"Repelent","slug":"repelent","selected":false}],"children":[{"name":"Toate produsele","slug":"1111-dermatocosmetice-si-parafarmacie","selected":false},{"name":"Măști","slug":"111101-masti","selected":false},{"name":"Dermatocosmetice","slug":"111102-dermato-cosmetice","selected":true},{"name":"Alcool sanitar și plasturi","slug":"111103-alcool-sanitar-si-plasturi","selected":false},{"name":"Îngrijire unghii","slug":"111105-produse-ingrijire-unghii","selected":false},{"name":"Îngrijire picioare","slug":"111106-produse-intretinere-picioare","selected":false},{"name":"Test de sarcină","slug":"test-de-sarcina","selected":false}],"products":[{"code":"100115420","variantCode":"3600550368512","name":"Gel de duș fără săpun pentru bebeluși/copii  400ml","slug":"100115420-mixa-gel-de-dus-fara-sapun-pentru-bebelusi-copii-400ml","unitPriceLabel":"66,23 Lei/l","brand":"Mixa","brandCode":"445","brandFilterCode":"mixa-b446","sku":"100115420","price":26.49,"originalPrice":33.19,"currencyCode":"RON","currency":"Lei","image":{"thumbnail":{"default":"https://cdn.freshful.ro/media/cache/sylius_shop_product_thumbnail/cd/46/1f2bab27f6035b4dec26b5439e54.jpg"},"large":{"default":"https://cdn.freshful.ro/media/cache/freshful_large/cd/46/1f2bab27f6035b4dec26b5439e54.jpg"},"extralarge":{"default":"https://cdn.freshful.ro/media/cache/sylius_shop_product_original/cd/46/1f2bab27f6035b4dec26b5439e54.jpg"}},"label":{"text":"-20%","backgroundColor":"#FF9903","textColor":"#FFFFFF"},"tags":[],"isAvailable":true,"maxAvailableQuantity":4,"maxAllowedQuantity":100,"breadcrumbs":[{"code":"11","name":"Cosmetice","slug":"11-cosmetice-si-ingrijire-personala"},{"code":"1111","name":"Dermatocosmetice și parafarmacie","slug":"1111-dermatocosmetice-si-parafarmacie"},{"code":"111102","name":"Dermatocosmetice","slug":"111102-dermato-cosmetice"},{"code":"100115420","name":"Gel de duș fără săpun pentru bebeluși/copii  400ml","slug":"100115420-mixa-gel-de-dus-fara-sapun-pentru-bebelusi-copii-400ml"}],"activePromotion":{"code":"oferte-dph-21feb-8mar23","name":"Preț redus","targetQuantity":null},"saveMe":null,"labels":[{"type":"v1","items":[{"text":"-20%","backgroundColor":"#FF9903","textColor":"#FFFFFF"}]}],"geniusPrice":null,"geniusUnitPricePerLabel":null,"banner":{"text":"Super preț","textColor":"#FF0000","bgColor":"#FFF2EC","icon":null,"link":"https://www.freshful.ro/oferte/oferte-dph-21feb-8mar23","type":"promo","analyticsEventType":"select_promotion","analyticsEventPayload":{"promotion_id":"oferte-dph-21feb-8mar23","promotion_name":"Curățenie și îngrijire personală"}},"discountLabel":"Economisești 20%","geniusDiscountLabel":null,"badge":null},{"code":"100128393","variantCode":"100128393","name":"Cremă contur de ochi Eau Thermale 15ml","slug":"100128393-uriage-crema-contur-de-ochi-eau-thermale-15ml","unitPriceLabel":"","brand":"Uriage","brandCode":"2336","brandFilterCode":"uriage-b2349","sku":"100128393","price":39.99,"originalPrice":42.29,"currencyCode":"RON","currency":"Lei","image":{"thumbnail":{"default":"https://cdn.freshful.ro/media/cache/sylius_shop_product_thumbnail/28/db/4ce7eeb0db238f7176d6acc5cb70.jpg"},"large":{"default":"https://cdn.freshful.ro/media/cache/freshful_large/28/db/4ce7eeb0db238f7176d6acc5cb70.jpg"},"extralarge":{"default":"https://cdn.freshful.ro/media/cache/sylius_shop_product_original/28/db/4ce7eeb0db238f7176d6acc5cb70.jpg"}},"label":{"text":"-5%","backgroundColor":"#FF9903","textColor":"#FFFFFF"},"tags":[],"isAvailable":true,"maxAvailableQuantity":6,"maxAllowedQuantity":100,"breadcrumbs":[{"code":"11","name":"Cosmetice","slug":"11-cosmetice-si-ingrijire-personala"},{"code":"1111","name":"Dermatocosmetice și parafarmacie","slug":"1111-dermatocosmetice-si-parafarmacie"},{"code":"111102","name":"Dermatocosmetice","slug":"111102-dermato-cosmetice"},{"code":"100128393","name":"Cremă contur de ochi Eau Thermale 15ml","slug":"100128393-uriage-crema-contur-de-ochi-eau-thermale-15ml"}],"activePromotion":{"code":"special-cosmetice-21feb-8mar23","name":"Preț redus","targetQuantity":null},"saveMe":null,"labels":[{"type":"v1","items":[{"text":"-5%","backgroundColor":"#FF9903","textColor":"#FFFFFF"}]}],"geniusPrice":null,"geniusUnitPricePerLabel":null,"banner":{"text":"Super preț","textColor":"#FF0000","bgColor":"#FFF2EC","icon":null,"link":"https://www.freshful.ro/oferte/special-cosmetice-21feb-8mar23","type":"promo","analyticsEventType":"select_promotion","analyticsEventPayload":{"promotion_id":"special-cosmetice-21feb-8mar23","promotion_name":"Cadouri pentru sărbătoritele lunii martie"}},"discountLabel":"Economisești 5%","geniusDiscountLabel":null,"badge":null},{"code":"100115415","variantCode":"3600550958430","name":"Lapte de corp cu acid hialuronic pentru ten deshidratat 400ml","slug":"100115415-mixa-lapte-de-corp-cu-acid-hialuronic-pentru-ten-deshidratat-400ml","unitPriceLabel":"63,98 Lei/l","brand":"Mixa","brandCode":"445","brandFilterCode":"mixa-b446","sku":"100115415","price":25.59,"originalPrice":33.19,"currencyCode":"RON","currency":"Lei","image":{"thumbnail":{"default":"https://cdn.freshful.ro/media/cache/sylius_shop_product_thumbnail/d5/39/78ca9bed3defc34bfcecbb04fa9c.jpg"},"large":{"default":"https://cdn.freshful.ro/media/cache/freshful_large/d5/39/78ca9bed3defc34bfcecbb04fa9c.jpg"},"extralarge":{"default":"https://cdn.freshful.ro/media/cache/sylius_shop_product_original/d5/39/78ca9bed3defc34bfcecbb04fa9c.jpg"}},"label":{"text":"-22%","backgroundColor":"#FF9903","textColor":"#FFFFFF"},"tags":[],"isAvailable":true,"maxAvailableQuantity":7,"maxAllowedQuantity":100,"breadcrumbs":[{"code":"11","name":"Cosmetice","slug":"11-cosmetice-si-ingrijire-personala"},{"code":"1111","name":"Dermatocosmetice și parafarmacie","slug":"1111-dermatocosmetice-si-parafarmacie"},{"code":"111102","name":"Dermatocosmetice","slug":"111102-dermato-cosmetice"},{"code":"100115415","name":"Lapte de corp cu acid hialuronic pentru ten deshidratat 400ml","slug":"100115415-mixa-lapte-de-corp-cu-acid-hialuronic-pentru-ten-deshidratat-400ml"}],"activePromotion":{"code":"special-cosmetice-21feb-8mar23","name":"Preț redus","targetQuantity":null},"saveMe":null,"labels":[{"type":"v1","items":[{"text":"-22%","backgroundColor":"#FF9903","textColor":"#FFFFFF"}]}],"geniusPrice":null,"geniusUnitPricePerLabel":null,"banner":{"text":"Super preț","textColor":"#FF0000","bgColor":"#FFF2EC","icon":null,"link":"https://www.freshful.ro/oferte/special-cosmetice-21feb-8mar23","type":"promo","analyticsEventType":"select_promotion","analyticsEventPayload":{"promotion_id":"special-cosmetice-21feb-8mar23","promotion_name":"Cadouri pentru sărbătoritele lunii martie"}},"discountLabel":"Economisești 22%","geniusDiscountLabel":null,"badge":null},{"code":"100115401","variantCode":"3600550934922","name":"Cremă hidratantă cu acid hialuronic pentru ten uscat 50ml","slug":"100115401-mixa-crema-hidratanta-cu-acid-hialuronic-pentru-ten-uscat-50ml","unitPriceLabel":"511,8 Lei/l","brand":"Mixa","brandCode":"445","brandFilterCode":"mixa-b446","sku":"100115401","price":25.59,"originalPrice":33.19,"currencyCode":"RON","currency":"Lei","image":{"thumbnail":{"default":"https://cdn.freshful.ro/media/cache/sylius_shop_product_thumbnail/2e/0e/2cd115ba48c88164b79bb46a13b4.jpg"},"large":{"default":"https://cdn.freshful.ro/media/cache/freshful_large/2e/0e/2cd115ba48c88164b79bb46a13b4.jpg"},"extralarge":{"default":"https://cdn.freshful.ro/media/cache/sylius_shop_product_original/2e/0e/2cd115ba48c88164b79bb46a13b4.jpg"}},"label":{"text":"-22%","backgroundColor":"#FF9903","textColor":"#FFFFFF"},"tags":[],"isAvailable":true,"maxAvailableQuantity":10,"maxAllowedQuantity":100,"breadcrumbs":[{"code":"11","name":"Cosmetice","slug":"11-cosmetice-si-ingrijire-personala"},{"code":"1111","name":"Dermatocosmetice și parafarmacie","slug":"1111-dermatocosmetice-si-parafarmacie"},{"code":"111102","name":"Dermatocosmetice","slug":"111102-dermato-cosmetice"},{"code":"100115401","name":"Cremă hidratantă cu acid hialuronic pentru ten uscat 50ml","slug":"100115401-mixa-crema-hidratanta-cu-acid-hialuronic-pentru-ten-uscat-50ml"}],"activePromotion":{"code":"special-cosmetice-21feb-8mar23","name":"Preț redus","targetQuantity":null},"saveMe":null,"labels":[{"type":"v1","items":[{"text":"-22%","backgroundColor":"#FF9903","textColor":"#FFFFFF"}]}],"geniusPrice":null,"geniusUnitPricePerLabel":null,"banner":{"text":"Super preț","textColor":"#FF0000","bgColor":"#FFF2EC","icon":null,"link":"https://www.freshful.ro/oferte/special-cosmetice-21feb-8mar23","type":"promo","analyticsEventType":"select_promotion","analyticsEventPayload":{"promotion_id":"special-cosmetice-21feb-8mar23","promotion_name":"Cadouri pentru sărbătoritele lunii martie"}},"discountLabel":"Economisești 22%","geniusDiscountLabel":null,"badge":null},{"code":"100115417","variantCode":"3600550932706","name":"Cremă de mâini reparatoare Surgras 100ml","slug":"100115417-mixa-crema-de-maini-reparatoare-surgras-100ml","unitPriceLabel":"209,9 Lei/l","brand":"Mixa","brandCode":"445","brandFilterCode":"mixa-b446","sku":"100115417","price":20.99,"originalPrice":26.49,"currencyCode":"RON","currency":"Lei","image":{"thumbnail":{"default":"https://cdn.freshful.ro/media/cache/sylius_shop_product_thumbnail/14/3b/28d478b158ee85ededa2b5beb6d8.jpg"},"large":{"default":"https://cdn.freshful.ro/media/cache/freshful_large/14/3b/28d478b158ee85ededa2b5beb6d8.jpg"},"extralarge":{"default":"https://cdn.freshful.ro/media/cache/sylius_shop_product_original/14/3b/28d478b158ee85ededa2b5beb6d8.jpg"}},"label":{"text":"-20%","backgroundColor":"#FF9903","textColor":"#FFFFFF"},"tags":[],"isAvailable":true,"maxAvailableQuantity":8,"maxAllowedQuantity":100,"breadcrumbs":[{"code":"11","name":"Cosmetice","slug":"11-cosmetice-si-ingrijire-personala"},{"code":"1111","name":"Dermatocosmetice și parafarmacie","slug":"1111-dermatocosmetice-si-parafarmacie"},{"code":"111102","name":"Dermatocosmetice","slug":"111102-dermato-cosmetice"},{"code":"100115417","name":"Cremă de mâini reparatoare Surgras 100ml","slug":"100115417-mixa-crema-de-maini-reparatoare-surgras-100ml"}],"activePromotion":{"code":"special-cosmetice-21feb-8mar23","name":"Preț redus","targetQuantity":null},"saveMe":null,"labels":[{"type":"v1","items":[{"text":"-20%","backgroundColor":"#FF9903","textColor":"#FFFFFF"}]}],"geniusPrice":null,"geniusUnitPricePerLabel":null,"banner":{"text":"Super preț","textColor":"#FF0000","bgColor":"#FFF2EC","icon":null,"link":"https://www.freshful.ro/oferte/special-cosmetice-21feb-8mar23","type":"promo","analyticsEventType":"select_promotion","analyticsEventPayload":{"promotion_id":"special-cosmetice-21feb-8mar23","promotion_name":"Cadouri pentru sărbătoritele lunii martie"}},"discountLabel":"Economisești 20%","geniusDiscountLabel":null,"badge":null},{"code":"100128384","variantCode":"100128384","name":"Mască purifiantă peel-off Hyseac 50ml","slug":"100128384-uriage-masca-purifianta-peel-off-hyseac-50ml","unitPriceLabel":"799,8 Lei/l","brand":"Uriage","brandCode":"2336","brandFilterCode":"uriage-b2349","sku":"100128384","price":39.99,"originalPrice":50.29,"currencyCode":"RON","currency":"Lei","image":{"thumbnail":{"default":"https://cdn.freshful.ro/media/cache/sylius_shop_product_thumbnail/a3/14/8ff11019e501b4d6e02e8fcc37ac.jpg"},"large":{"default":"https://cdn.freshful.ro/media/cache/freshful_large/a3/14/8ff11019e501b4d6e02e8fcc37ac.jpg"},"extralarge":{"default":"https://cdn.freshful.ro/media/cache/sylius_shop_product_original/a3/14/8ff11019e501b4d6e02e8fcc37ac.jpg"}},"label":{"text":"-20%","backgroundColor":"#FF9903","textColor":"#FFFFFF"},"tags":[],"isAvailable":true,"maxAvailableQuantity":8,"maxAllowedQuantity":100,"breadcrumbs":[{"code":"11","name":"Cosmetice","slug":"11-cosmetice-si-ingrijire-personala"},{"code":"1111","name":"Dermatocosmetice și parafarmacie","slug":"1111-dermatocosmetice-si-parafarmacie"},{"code":"111102","name":"Dermatocosmetice","slug":"111102-dermato-cosmetice"},{"code":"100128384","name":"Mască purifiantă peel-off Hyseac 50ml","slug":"100128384-uriage-masca-purifianta-peel-off-hyseac-50ml"}],"activePromotion":{"code":"special-cosmetice-21feb-8mar23","name":"Preț redus","targetQuantity":null},"saveMe":null,"labels":[{"type":"v1","items":[{"text":"-20%","backgroundColor":"#FF9903","textColor":"#FFFFFF"}]}],"geniusPrice":null,"geniusUnitPricePerLabel":null,"banner":{"text":"Super preț","textColor":"#FF0000","bgColor":"#FFF2EC","icon":null,"link":"https://www.freshful.ro/oferte/special-cosmetice-21feb-8mar23","type":"promo","analyticsEventType":"select_promotion","analyticsEventPayload":{"promotion_id":"special-cosmetice-21feb-8mar23","promotion_name":"Cadouri pentru sărbătoritele lunii martie"}},"discountLabel":"Economisești 20%","geniusDiscountLabel":null,"badge":null},{"code":"100128398","variantCode":"100128398","name":"Cremă hidratantă textură bogată pentru hidratarea tenului normal cu tendință de uscare Eau Thermale 40ml","slug":"100128398-uriage-crema-hidratanta-textura-bogata-pentru-hidratarea-tenului-normal-cu-tendinta-de-uscare-eau-thermale-40ml","unitPriceLabel":"","brand":"Uriage","brandCode":"2336","brandFilterCode":"uriage-b2349","sku":"100128398","price":44.99,"originalPrice":49.99,"currencyCode":"RON","currency":"Lei","image":{"thumbnail":{"default":"https://cdn.freshful.ro/media/cache/sylius_shop_product_thumbnail/d0/8a/97bfe52a794d2f1733bcdc72024c.jpg"},"large":{"default":"https://cdn.freshful.ro/media/cache/freshful_large/d0/8a/97bfe52a794d2f1733bcdc72024c.jpg"},"extralarge":{"default":"https://cdn.freshful.ro/media/cache/sylius_shop_product_original/d0/8a/97bfe52a794d2f1733bcdc72024c.jpg"}},"label":{"text":"-10%","backgroundColor":"#FF9903","textColor":"#FFFFFF"},"tags":[],"isAvailable":true,"maxAvailableQuantity":7,"maxAllowedQuantity":100,"breadcrumbs":[{"code":"11","name":"Cosmetice","slug":"11-cosmetice-si-ingrijire-personala"},{"code":"1111","name":"Dermatocosmetice și parafarmacie","slug":"1111-dermatocosmetice-si-parafarmacie"},{"code":"111102","name":"Dermatocosmetice","slug":"111102-dermato-cosmetice"},{"code":"100128398","name":"Cremă hidratantă textură bogată pentru hidratarea tenului normal cu tendință de uscare Eau Thermale 40ml","slug":"100128398-uriage-crema-hidratanta-textura-bogata-pentru-hidratarea-tenului-normal-cu-tendinta-de-uscare-eau-thermale-40ml"}],"activePromotion":{"code":"special-cosmetice-21feb-8mar23","name":"Preț redus","targetQuantity":null},"saveMe":null,"labels":[{"type":"v1","items":[{"text":"-10%","backgroundColor":"#FF9903","textColor":"#FFFFFF"}]}],"geniusPrice":null,"geniusUnitPricePerLabel":null,"banner":{"text":"Super preț","textColor":"#FF0000","bgColor":"#FFF2EC","icon":null,"link":"https://www.freshful.ro/oferte/special-cosmetice-21feb-8mar23","type":"promo","analyticsEventType":"select_promotion","analyticsEventPayload":{"promotion_id":"special-cosmetice-21feb-8mar23","promotion_name":"Cadouri pentru sărbătoritele lunii martie"}},"discountLabel":"Economisești 10%","geniusDiscountLabel":null,"badge":null},{"code":"100128386","variantCode":"100128386","name":"Pastă SOS Hyseac 15g","slug":"100128386-uriage-pasta-sos-hyseac-15g","unitPriceLabel":"","brand":"Uriage","brandCode":"2336","brandFilterCode":"uriage-b2349","sku":"100128386","price":41.99,"originalPrice":51.99,"currencyCode":"RON","currency":"Lei","image":{"thumbnail":{"default":"https://cdn.freshful.ro/media/cache/sylius_shop_product_thumbnail/e1/10/8f566aa4c6656c2cb090caa9a2b4.jpg"},"large":{"default":"https://cdn.freshful.ro/media/cache/freshful_large/e1/10/8f566aa4c6656c2cb090caa9a2b4.jpg"},"extralarge":{"default":"https://cdn.freshful.ro/media/cache/sylius_shop_product_original/e1/10/8f566aa4c6656c2cb090caa9a2b4.jpg"}},"label":{"text":"-19%","backgroundColor":"#FF9903","textColor":"#FFFFFF"},"tags":[],"isAvailable":true,"maxAvailableQuantity":5,"maxAllowedQuantity":100,"breadcrumbs":[{"code":"11","name":"Cosmetice","slug":"11-cosmetice-si-ingrijire-personala"},{"code":"1111","name":"Dermatocosmetice și parafarmacie","slug":"1111-dermatocosmetice-si-parafarmacie"},{"code":"111102","name":"Dermatocosmetice","slug":"111102-dermato-cosmetice"},{"code":"100128386","name":"Pastă SOS Hyseac 15g","slug":"100128386-uriage-pasta-sos-hyseac-15g"}],"activePromotion":{"code":"special-cosmetice-21feb-8mar23","name":"Preț redus","targetQuantity":null},"saveMe":null,"labels":[{"type":"v1","items":[{"text":"-19%","backgroundColor":"#FF9903","textColor":"#FFFFFF"}]}],"geniusPrice":null,"geniusUnitPricePerLabel":null,"banner":{"text":"Super preț","textColor":"#FF0000","bgColor":"#FFF2EC","icon":null,"link":"https://www.freshful.ro/oferte/special-cosmetice-21feb-8mar23","type":"promo","analyticsEventType":"select_promotion","analyticsEventPayload":{"promotion_id":"special-cosmetice-21feb-8mar23","promotion_name":"Cadouri pentru sărbătoritele lunii martie"}},"discountLabel":"Economisești 19%","geniusDiscountLabel":null,"badge":null},{"code":"100115416","variantCode":"3600550932690","name":"Cremă de mâini Intense Nourishment 100ml","slug":"100115416-mixa-crema-de-maini-intense-nourishment-100ml","unitPriceLabel":"209,9 Lei/l","brand":"Mixa","brandCode":"445","brandFilterCode":"mixa-b446","sku":"100115416","price":20.99,"originalPrice":26.49,"currencyCode":"RON","currency":"Lei","image":{"thumbnail":{"default":"https://cdn.freshful.ro/media/cache/sylius_shop_product_thumbnail/13/31/2363d3f38594717b39dddb395aff.jpg"},"large":{"default":"https://cdn.freshful.ro/media/cache/freshful_large/13/31/2363d3f38594717b39dddb395aff.jpg"},"extralarge":{"default":"https://cdn.freshful.ro/media/cache/sylius_shop_product_original/13/31/2363d3f38594717b39dddb395aff.jpg"}},"label":{"text":"-20%","backgroundColor":"#FF9903","textColor":"#FFFFFF"},"tags":[],"isAvailable":true,"maxAvailableQuantity":11,"maxAllowedQuantity":100,"breadcrumbs":[{"code":"11","name":"Cosmetice","slug":"11-cosmetice-si-ingrijire-personala"},{"code":"1111","name":"Dermatocosmetice și parafarmacie","slug":"1111-dermatocosmetice-si-parafarmacie"},{"code":"111102","name":"Dermatocosmetice","slug":"111102-dermato-cosmetice"},{"code":"100115416","name":"Cremă de mâini Intense Nourishment 100ml","slug":"100115416-mixa-crema-de-maini-intense-nourishment-100ml"}],"activePromotion":{"code":"special-cosmetice-21feb-8mar23","name":"Preț redus","targetQuantity":null},"saveMe":null,"labels":[{"type":"v1","items":[{"text":"-20%","backgroundColor":"#FF9903","textColor":"#FFFFFF"}]}],"geniusPrice":null,"geniusUnitPricePerLabel":null,"banner":{"text":"Super preț","textColor":"#FF0000","bgColor":"#FFF2EC","icon":null,"link":"https://www.freshful.ro/oferte/special-cosmetice-21feb-8mar23","type":"promo","analyticsEventType":"select_promotion","analyticsEventPayload":{"promotion_id":"special-cosmetice-21feb-8mar23","promotion_name":"Cadouri pentru sărbătoritele lunii martie"}},"discountLabel":"Economisești 20%","geniusDiscountLabel":null,"badge":null},{"code":"100115402","variantCode":"3600550950694","name":"Cremă hidratantă de noapte 50ml","slug":"100115402-mixa-crema-hidratanta-de-noapte-50ml","unitPriceLabel":"511,8 Lei/l","brand":"Mixa","brandCode":"445","brandFilterCode":"mixa-b446","sku":"100115402","price":25.59,"originalPrice":33.19,"currencyCode":"RON","currency":"Lei","image":{"thumbnail":{"default":"https://cdn.freshful.ro/media/cache/sylius_shop_product_thumbnail/34/ab/c7c5ebb4b5b3f307ee5d2004a52e.jpg"},"large":{"default":"https://cdn.freshful.ro/media/cache/freshful_large/34/ab/c7c5ebb4b5b3f307ee5d2004a52e.jpg"},"extralarge":{"default":"https://cdn.freshful.ro/media/cache/sylius_shop_product_original/34/ab/c7c5ebb4b5b3f307ee5d2004a52e.jpg"}},"label":{"text":"-22%","backgroundColor":"#FF9903","textColor":"#FFFFFF"},"tags":[],"isAvailable":true,"maxAvailableQuantity":12,"maxAllowedQuantity":100,"breadcrumbs":[{"code":"11","name":"Cosmetice","slug":"11-cosmetice-si-ingrijire-personala"},{"code":"1111","name":"Dermatocosmetice și parafarmacie","slug":"1111-dermatocosmetice-si-parafarmacie"},{"code":"111102","name":"Dermatocosmetice","slug":"111102-dermato-cosmetice"},{"code":"100115402","name":"Cremă hidratantă de noapte 50ml","slug":"100115402-mixa-crema-hidratanta-de-noapte-50ml"}],"activePromotion":{"code":"special-cosmetice-21feb-8mar23","name":"Preț redus","targetQuantity":null},"saveMe":null,"labels":[{"type":"v1","items":[{"text":"-22%","backgroundColor":"#FF9903","textColor":"#FFFFFF"}]}],"geniusPrice":null,"geniusUnitPricePerLabel":null,"banner":{"text":"Super preț","textColor":"#FF0000","bgColor":"#FFF2EC","icon":null,"link":"https://www.freshful.ro/oferte/special-cosmetice-21feb-8mar23","type":"promo","analyticsEventType":"select_promotion","analyticsEventPayload":{"promotion_id":"special-cosmetice-21feb-8mar23","promotion_name":"Cadouri pentru sărbătoritele lunii martie"}},"discountLabel":"Economisești 22%","geniusDiscountLabel":null,"badge":null}],"filters":{"countSelected":0,"items":[{"code":"promotion","name":"Promoții","countSelected":0,"values":[{"code":"special-cosmetice-21feb-8mar23","name":"Cadouri pentru sărbătoritele lunii martie","isSelected":false,"count":21},{"code":"oferte-dph-21feb-8mar23","name":"Curățenie și îngrijire personală","isSelected":false,"count":3}]},{"code":"brand","name":"Brand","countSelected":0,"values":[{"code":"cetaphil-b2405","name":"Cetaphil","isSelected":false,"count":1},{"code":"dermedic-b2346","name":"Dermedic","isSelected":false,"count":1},{"code":"gamarde-b1101","name":"GamARde","isSelected":false,"count":12},{"code":"mixa-b446","name":"Mixa","isSelected":false,"count":21},{"code":"noreva-b2008","name":"Noreva","isSelected":false,"count":4},{"code":"sebamed-b2009","name":"Sebamed","isSelected":false,"count":7},{"code":"uriage-b2349","name":"Uriage","isSelected":false,"count":32}]},{"code":"diet_lifestyle","name":"Dietă și lifestyle","countSelected":0,"values":[{"code":"bio-a26","name":"Bio","isSelected":false,"count":12},{"code":"natural-a27","name":"Natural","isSelected":false,"count":1}]}]},"orderBy":[{"field":"price","direction":"asc","name":"Preț crescător","isSelected":false},{"field":"price","direction":"desc","name":"Preț descrescător","isSelected":false},{"field":"popularity","direction":"desc","name":"Cele mai populare","isSelected":true},{"field":"category","direction":"asc","name":"Categorie","isSelected":false}],"metaTitle":"Dermatocosmetice - Gamă variată","metaDescription":"Vrei Dermatocosmetice? Alege dintr-o gamă variată. Comanzi simplu și ai livrare rapidă, calitate și prospețime. Hai pe Freshful.ro","metaKeywords":null,"banners":[]}}