{"type":"subcategory","payload":{"analyticsListId":"category_111103-alcool-sanitar-si-plasturi","analyticsListName":"Category - Alcool sanitar și plasturi","name":"Alcool sanitar și plasturi","slug":"111103-alcool-sanitar-si-plasturi","image":null,"breadcrumbs":[{"code":"11","name":"Cosmetice","slug":"11-cosmetice-si-ingrijire-personala"},{"code":"1111","name":"Dermatocosmetice și parafarmacie","slug":"1111-dermatocosmetice-si-parafarmacie"},{"code":"111103","name":"Alcool sanitar și plasturi","slug":"111103-alcool-sanitar-si-plasturi"}],"slots":[],"page":1,"limit":10,"pages":2,"count":14,"siblings":[{"name":"Deodorante și parfumuri","slug":"1101-deodorante-si-parfumuri","selected":false},{"name":"Bărbierit și îngrijire ten","slug":"1102-produse-pentru-barbierit-si-ingrijit-ten","selected":false},{"name":"Demachiante și creme","slug":"1103-creme-intretinere-si-demachiante","selected":false},{"name":"Protecție solară","slug":"1104-produse-cu-protectie-solara","selected":false},{"name":"Ceară, benzi și creme depilatoare","slug":"1105-ceara-benzi-si-creme-depliatoare","selected":false},{"name":"Seturi cadou","slug":"1106-seturi-cadou","selected":false},{"name":"Îngrijirea părului","slug":"1107-ingrijirea-parului","selected":false},{"name":"Igienă intimă","slug":"1108-igienta-inima","selected":false},{"name":"Igienă dentară","slug":"1109-igiena-dentara","selected":false},{"name":"Săpunuri și geluri de duș","slug":"1110-sapunuri-si-geluri-de-dus","selected":false},{"name":"Dermatocosmetice și parafarmacie","slug":"1111-dermatocosmetice-si-parafarmacie","selected":true},{"name":"Repelent","slug":"repelent","selected":false}],"children":[{"name":"Toate produsele","slug":"1111-dermatocosmetice-si-parafarmacie","selected":false},{"name":"Măști","slug":"111101-masti","selected":false},{"name":"Dermatocosmetice","slug":"111102-dermato-cosmetice","selected":false},{"name":"Alcool sanitar și plasturi","slug":"111103-alcool-sanitar-si-plasturi","selected":true},{"name":"Îngrijire unghii","slug":"111105-produse-ingrijire-unghii","selected":false},{"name":"Îngrijire picioare","slug":"111106-produse-intretinere-picioare","selected":false},{"name":"Test de sarcină","slug":"test-de-sarcina","selected":false}],"products":[{"code":"100083336","variantCode":"100083336","name":"Alcool sanitar 70% 0.50l","slug":"100083336-alcosan-alcool-sanitar-70-0-50l","unitPriceLabel":"13,86 Lei/l","brand":"Alcosan","brandCode":"1472","brandFilterCode":"alcosan-b1465","sku":"100083336","price":6.93,"originalPrice":null,"currencyCode":"RON","currency":"Lei","image":{"thumbnail":{"default":"https://cdn.freshful.ro/media/cache/sylius_shop_product_thumbnail/7d/e2/867e3b723b39e119a215bf023e46.jpg"},"large":{"default":"https://cdn.freshful.ro/media/cache/freshful_large/7d/e2/867e3b723b39e119a215bf023e46.jpg"},"extralarge":{"default":"https://cdn.freshful.ro/media/cache/sylius_shop_product_original/7d/e2/867e3b723b39e119a215bf023e46.jpg"}},"label":null,"tags":[],"isAvailable":true,"maxAvailableQuantity":100,"maxAllowedQuantity":100,"breadcrumbs":[{"code":"11","name":"Cosmetice","slug":"11-cosmetice-si-ingrijire-personala"},{"code":"1111","name":"Dermatocosmetice și parafarmacie","slug":"1111-dermatocosmetice-si-parafarmacie"},{"code":"111103","name":"Alcool sanitar și plasturi","slug":"111103-alcool-sanitar-si-plasturi"},{"code":"100083336","name":"Alcool sanitar 70% 0.50l","slug":"100083336-alcosan-alcool-sanitar-70-0-50l"}],"activePromotion":null,"saveMe":null,"labels":[],"geniusPrice":null,"geniusUnitPricePerLabel":null,"banner":null,"discountLabel":null,"geniusDiscountLabel":null,"badge":null},{"code":"100043069","variantCode":"100043069","name":"Alcool sanitar spray 220ml","slug":"100043069-touch-alcool-sanitar-spray-220ml","unitPriceLabel":"44,45 Lei/l","brand":"Touch","brandCode":"578","brandFilterCode":"touch-b579","sku":"100043069","price":9.78,"originalPrice":null,"currencyCode":"RON","currency":"Lei","image":{"thumbnail":{"default":"https://cdn.freshful.ro/media/cache/sylius_shop_product_thumbnail/4d/1f/0e0e9b49f474aa07e82236165ac2.jpg"},"large":{"default":"https://cdn.freshful.ro/media/cache/freshful_large/4d/1f/0e0e9b49f474aa07e82236165ac2.jpg"},"extralarge":{"default":"https://cdn.freshful.ro/media/cache/sylius_shop_product_original/4d/1f/0e0e9b49f474aa07e82236165ac2.jpg"}},"label":null,"tags":[],"isAvailable":true,"maxAvailableQuantity":85,"maxAllowedQuantity":100,"breadcrumbs":[{"code":"11","name":"Cosmetice","slug":"11-cosmetice-si-ingrijire-personala"},{"code":"1111","name":"Dermatocosmetice și parafarmacie","slug":"1111-dermatocosmetice-si-parafarmacie"},{"code":"111103","name":"Alcool sanitar și plasturi","slug":"111103-alcool-sanitar-si-plasturi"},{"code":"100043069","name":"Alcool sanitar spray 220ml","slug":"100043069-touch-alcool-sanitar-spray-220ml"}],"activePromotion":null,"saveMe":null,"labels":[],"geniusPrice":null,"geniusUnitPricePerLabel":null,"banner":null,"discountLabel":null,"geniusDiscountLabel":null,"badge":null},{"code":"100030899","variantCode":"100030899","name":"Set de plasturi 12 buc","slug":"100030899-matopat-set-de-plasturi-12-buc","unitPriceLabel":"","brand":"Matopat","brandCode":"323","brandFilterCode":"matopat-b324","sku":"100030899","price":5.39,"originalPrice":null,"currencyCode":"RON","currency":"Lei","image":{"thumbnail":{"default":"https://cdn.freshful.ro/media/cache/sylius_shop_product_thumbnail/69/06/9b311051a13aafbbfd9c3edabf90.jpg"},"large":{"default":"https://cdn.freshful.ro/media/cache/freshful_large/69/06/9b311051a13aafbbfd9c3edabf90.jpg"},"extralarge":{"default":"https://cdn.freshful.ro/media/cache/sylius_shop_product_original/69/06/9b311051a13aafbbfd9c3edabf90.jpg"}},"label":null,"tags":[],"isAvailable":true,"maxAvailableQuantity":31,"maxAllowedQuantity":100,"breadcrumbs":[{"code":"11","name":"Cosmetice","slug":"11-cosmetice-si-ingrijire-personala"},{"code":"1111","name":"Dermatocosmetice și parafarmacie","slug":"1111-dermatocosmetice-si-parafarmacie"},{"code":"111103","name":"Alcool sanitar și plasturi","slug":"111103-alcool-sanitar-si-plasturi"},{"code":"100030899","name":"Set de plasturi 12 buc","slug":"100030899-matopat-set-de-plasturi-12-buc"}],"activePromotion":null,"saveMe":null,"labels":[],"geniusPrice":null,"geniusUnitPricePerLabel":null,"banner":null,"discountLabel":null,"geniusDiscountLabel":null,"badge":null},{"code":"100106218","variantCode":"100106218","name":"Plasturi anti-acneici 30 buc","slug":"100106218-pharmadoct-plasturi-anti-acneici-30-buc","unitPriceLabel":"","brand":"Pharmadoct","brandCode":"1746","brandFilterCode":"pharmadoct-b1750","sku":"100106218","price":8.09,"originalPrice":null,"currencyCode":"RON","currency":"Lei","image":{"thumbnail":{"default":"https://cdn.freshful.ro/media/cache/sylius_shop_product_thumbnail/93/2c/148c0e35b162bd6577cf725f613d.jpg"},"large":{"default":"https://cdn.freshful.ro/media/cache/freshful_large/93/2c/148c0e35b162bd6577cf725f613d.jpg"},"extralarge":{"default":"https://cdn.freshful.ro/media/cache/sylius_shop_product_original/93/2c/148c0e35b162bd6577cf725f613d.jpg"}},"label":null,"tags":[],"isAvailable":true,"maxAvailableQuantity":24,"maxAllowedQuantity":100,"breadcrumbs":[{"code":"11","name":"Cosmetice","slug":"11-cosmetice-si-ingrijire-personala"},{"code":"1111","name":"Dermatocosmetice și parafarmacie","slug":"1111-dermatocosmetice-si-parafarmacie"},{"code":"111103","name":"Alcool sanitar și plasturi","slug":"111103-alcool-sanitar-si-plasturi"},{"code":"100106218","name":"Plasturi anti-acneici 30 buc","slug":"100106218-pharmadoct-plasturi-anti-acneici-30-buc"}],"activePromotion":null,"saveMe":null,"labels":[],"geniusPrice":null,"geniusUnitPricePerLabel":null,"banner":null,"discountLabel":null,"geniusDiscountLabel":null,"badge":null},{"code":"100106230","variantCode":"100106230","name":"Plasture super rezistent 20 buc","slug":"100106230-pharmadoct-plasture-super-rezistent-20-buc","unitPriceLabel":"","brand":"Pharmadoct","brandCode":"1746","brandFilterCode":"pharmadoct-b1750","sku":"100106230","price":9.99,"originalPrice":null,"currencyCode":"RON","currency":"Lei","image":{"thumbnail":{"default":"https://cdn.freshful.ro/media/cache/sylius_shop_product_thumbnail/a7/f7/b9d5d9ea87dd3637cf933951828b.jpg"},"large":{"default":"https://cdn.freshful.ro/media/cache/freshful_large/a7/f7/b9d5d9ea87dd3637cf933951828b.jpg"},"extralarge":{"default":"https://cdn.freshful.ro/media/cache/sylius_shop_product_original/a7/f7/b9d5d9ea87dd3637cf933951828b.jpg"}},"label":null,"tags":[],"isAvailable":true,"maxAvailableQuantity":20,"maxAllowedQuantity":100,"breadcrumbs":[{"code":"11","name":"Cosmetice","slug":"11-cosmetice-si-ingrijire-personala"},{"code":"1111","name":"Dermatocosmetice și parafarmacie","slug":"1111-dermatocosmetice-si-parafarmacie"},{"code":"111103","name":"Alcool sanitar și plasturi","slug":"111103-alcool-sanitar-si-plasturi"},{"code":"100106230","name":"Plasture super rezistent 20 buc","slug":"100106230-pharmadoct-plasture-super-rezistent-20-buc"}],"activePromotion":null,"saveMe":null,"labels":[],"geniusPrice":null,"geniusUnitPricePerLabel":null,"banner":null,"discountLabel":null,"geniusDiscountLabel":null,"badge":null},{"code":"100106247","variantCode":"100106247","name":"Plasturi pentru nas Respirație Ușoară PH 10 buc","slug":"100106247-pharmadoct-plasturi-pentru-nas-respiratie-usoara-ph-10-buc","unitPriceLabel":"","brand":"Pharmadoct","brandCode":"1746","brandFilterCode":"pharmadoct-b1750","sku":"100106247","price":10.5,"originalPrice":null,"currencyCode":"RON","currency":"Lei","image":{"thumbnail":{"default":"https://cdn.freshful.ro/media/cache/sylius_shop_product_thumbnail/04/f5/f488a8fa80ccdb339159aa3db7f2.jpg"},"large":{"default":"https://cdn.freshful.ro/media/cache/freshful_large/04/f5/f488a8fa80ccdb339159aa3db7f2.jpg"},"extralarge":{"default":"https://cdn.freshful.ro/media/cache/sylius_shop_product_original/04/f5/f488a8fa80ccdb339159aa3db7f2.jpg"}},"label":null,"tags":[],"isAvailable":true,"maxAvailableQuantity":20,"maxAllowedQuantity":100,"breadcrumbs":[{"code":"11","name":"Cosmetice","slug":"11-cosmetice-si-ingrijire-personala"},{"code":"1111","name":"Dermatocosmetice și parafarmacie","slug":"1111-dermatocosmetice-si-parafarmacie"},{"code":"111103","name":"Alcool sanitar și plasturi","slug":"111103-alcool-sanitar-si-plasturi"},{"code":"100106247","name":"Plasturi pentru nas Respirație Ușoară PH 10 buc","slug":"100106247-pharmadoct-plasturi-pentru-nas-respiratie-usoara-ph-10-buc"}],"activePromotion":null,"saveMe":null,"labels":[],"geniusPrice":null,"geniusUnitPricePerLabel":null,"banner":null,"discountLabel":null,"geniusDiscountLabel":null,"badge":null},{"code":"100150567","variantCode":"100150567","name":"Plasturi pentru copii 16 buc","slug":"100150567-no-brand-plasturi-pentru-copii-16-buc","unitPriceLabel":"","brand":"Qplaster","brandCode":"2994","brandFilterCode":"qplaster-b3088","sku":"100150567","price":7.99,"originalPrice":null,"currencyCode":"RON","currency":"Lei","image":{"thumbnail":{"default":"https://cdn.freshful.ro/media/cache/sylius_shop_product_thumbnail/d8/85/c707d5560781beed4ef5b9b3f4eb.jpg"},"large":{"default":"https://cdn.freshful.ro/media/cache/freshful_large/d8/85/c707d5560781beed4ef5b9b3f4eb.jpg"},"extralarge":{"default":"https://cdn.freshful.ro/media/cache/sylius_shop_product_original/d8/85/c707d5560781beed4ef5b9b3f4eb.jpg"}},"label":null,"tags":[],"isAvailable":true,"maxAvailableQuantity":25,"maxAllowedQuantity":100,"breadcrumbs":[{"code":"11","name":"Cosmetice","slug":"11-cosmetice-si-ingrijire-personala"},{"code":"1111","name":"Dermatocosmetice și parafarmacie","slug":"1111-dermatocosmetice-si-parafarmacie"},{"code":"111103","name":"Alcool sanitar și plasturi","slug":"111103-alcool-sanitar-si-plasturi"},{"code":"100150567","name":"Plasturi pentru copii 16 buc","slug":"100150567-no-brand-plasturi-pentru-copii-16-buc"}],"activePromotion":null,"saveMe":null,"labels":[],"geniusPrice":null,"geniusUnitPricePerLabel":null,"banner":null,"discountLabel":null,"geniusDiscountLabel":null,"badge":null},{"code":"100150566","variantCode":"100150566","name":"Plasturi rezistenți la apă 16 buc","slug":"100150566-no-brand-plasturi-rezistenti-la-apa-16-buc","unitPriceLabel":"","brand":"Qplaster","brandCode":"2994","brandFilterCode":"qplaster-b3088","sku":"100150566","price":7.99,"originalPrice":null,"currencyCode":"RON","currency":"Lei","image":{"thumbnail":{"default":"https://cdn.freshful.ro/media/cache/sylius_shop_product_thumbnail/43/2a/9028b0b7a91480198dcba8a83a0a.jpg"},"large":{"default":"https://cdn.freshful.ro/media/cache/freshful_large/43/2a/9028b0b7a91480198dcba8a83a0a.jpg"},"extralarge":{"default":"https://cdn.freshful.ro/media/cache/sylius_shop_product_original/43/2a/9028b0b7a91480198dcba8a83a0a.jpg"}},"label":null,"tags":[],"isAvailable":true,"maxAvailableQuantity":22,"maxAllowedQuantity":100,"breadcrumbs":[{"code":"11","name":"Cosmetice","slug":"11-cosmetice-si-ingrijire-personala"},{"code":"1111","name":"Dermatocosmetice și parafarmacie","slug":"1111-dermatocosmetice-si-parafarmacie"},{"code":"111103","name":"Alcool sanitar și plasturi","slug":"111103-alcool-sanitar-si-plasturi"},{"code":"100150566","name":"Plasturi rezistenți la apă 16 buc","slug":"100150566-no-brand-plasturi-rezistenti-la-apa-16-buc"}],"activePromotion":null,"saveMe":null,"labels":[],"geniusPrice":null,"geniusUnitPricePerLabel":null,"banner":null,"discountLabel":null,"geniusDiscountLabel":null,"badge":null},{"code":"100030898","variantCode":"100030898","name":"Set de plasturi 20 buc","slug":"100030898-matopat-set-de-plasturi-20-buc","unitPriceLabel":"","brand":"Matopat","brandCode":"323","brandFilterCode":"matopat-b324","sku":"100030898","price":7.29,"originalPrice":null,"currencyCode":"RON","currency":"Lei","image":{"thumbnail":{"default":"https://cdn.freshful.ro/media/cache/sylius_shop_product_thumbnail/91/46/b3d6cbf8335b07f44c5d3851ecbe.jpg"},"large":{"default":"https://cdn.freshful.ro/media/cache/freshful_large/91/46/b3d6cbf8335b07f44c5d3851ecbe.jpg"},"extralarge":{"default":"https://cdn.freshful.ro/media/cache/sylius_shop_product_original/91/46/b3d6cbf8335b07f44c5d3851ecbe.jpg"}},"label":null,"tags":[],"isAvailable":true,"maxAvailableQuantity":12,"maxAllowedQuantity":100,"breadcrumbs":[{"code":"11","name":"Cosmetice","slug":"11-cosmetice-si-ingrijire-personala"},{"code":"1111","name":"Dermatocosmetice și parafarmacie","slug":"1111-dermatocosmetice-si-parafarmacie"},{"code":"111103","name":"Alcool sanitar și plasturi","slug":"111103-alcool-sanitar-si-plasturi"},{"code":"100030898","name":"Set de plasturi 20 buc","slug":"100030898-matopat-set-de-plasturi-20-buc"}],"activePromotion":null,"saveMe":null,"labels":[],"geniusPrice":null,"geniusUnitPricePerLabel":null,"banner":null,"discountLabel":null,"geniusDiscountLabel":null,"badge":null},{"code":"100106249","variantCode":"100106249","name":"Plasturi anti-herpetici 15 buc","slug":"100106249-pharmadoct-plasturi-anti-herpetici-15-buc","unitPriceLabel":"","brand":"Pharmadoct","brandCode":"1746","brandFilterCode":"pharmadoct-b1750","sku":"100106249","price":12.5,"originalPrice":null,"currencyCode":"RON","currency":"Lei","image":{"thumbnail":{"default":"https://cdn.freshful.ro/media/cache/sylius_shop_product_thumbnail/05/0b/14c7f20280e9a8fd4b72d3f1b67f.jpg"},"large":{"default":"https://cdn.freshful.ro/media/cache/freshful_large/05/0b/14c7f20280e9a8fd4b72d3f1b67f.jpg"},"extralarge":{"default":"https://cdn.freshful.ro/media/cache/sylius_shop_product_original/05/0b/14c7f20280e9a8fd4b72d3f1b67f.jpg"}},"label":null,"tags":[],"isAvailable":true,"maxAvailableQuantity":24,"maxAllowedQuantity":100,"breadcrumbs":[{"code":"11","name":"Cosmetice","slug":"11-cosmetice-si-ingrijire-personala"},{"code":"1111","name":"Dermatocosmetice și parafarmacie","slug":"1111-dermatocosmetice-si-parafarmacie"},{"code":"111103","name":"Alcool sanitar și plasturi","slug":"111103-alcool-sanitar-si-plasturi"},{"code":"100106249","name":"Plasturi anti-herpetici 15 buc","slug":"100106249-pharmadoct-plasturi-anti-herpetici-15-buc"}],"activePromotion":null,"saveMe":null,"labels":[],"geniusPrice":null,"geniusUnitPricePerLabel":null,"banner":null,"discountLabel":null,"geniusDiscountLabel":null,"badge":null}],"filters":{"countSelected":0,"items":[{"code":"brand","name":"Brand","countSelected":0,"values":[{"code":"alcosan-b1465","name":"Alcosan","isSelected":false,"count":1},{"code":"matopat-b324","name":"Matopat","isSelected":false,"count":2},{"code":"pharmadoct-b1750","name":"Pharmadoct","isSelected":false,"count":4},{"code":"qplaster-b3088","name":"Qplaster","isSelected":false,"count":6},{"code":"touch-b579","name":"Touch","isSelected":false,"count":1}]}]},"orderBy":[{"field":"price","direction":"asc","name":"Preț crescător","isSelected":false},{"field":"price","direction":"desc","name":"Preț descrescător","isSelected":false},{"field":"popularity","direction":"desc","name":"Cele mai populare","isSelected":true},{"field":"category","direction":"asc","name":"Categorie","isSelected":false}],"metaTitle":"Alcool sanitar și plasturi - Gamă variată","metaDescription":"Vrei Alcool sanitar și plasturi? Alege dintr-o gamă variată. Comanzi simplu și ai livrare rapidă, calitate și prospețime. Hai pe Freshful.ro","metaKeywords":null,"banners":[]}}