{"type":"subcategory","payload":{"analyticsListId":"category_120101-formule-de-lapte","analyticsListName":"Category - Formule de lapte","name":"Formule de lapte","slug":"120101-formule-de-lapte","image":null,"breadcrumbs":[{"code":"12","name":"Mama & copilul","slug":"12-mama-si-copilul"},{"code":"1201","name":"Alimente bebe","slug":"1201-alimente-bebelusi"},{"code":"120101","name":"Formule de lapte","slug":"120101-formule-de-lapte"}],"slots":[],"page":1,"limit":10,"pages":3,"count":25,"siblings":[{"name":"Alimente bebe","slug":"1201-alimente-bebelusi","selected":true},{"name":"Igienă bebe","slug":"1202-igiena-bebe","selected":false},{"name":"Puericultură","slug":"1203-puericultura","selected":false}],"children":[{"name":"Toate produsele","slug":"1201-alimente-bebelusi","selected":false},{"name":"Formule de lapte","slug":"120101-formule-de-lapte","selected":true},{"name":"Lapte de creștere","slug":"120102-lapte-de-crestere","selected":false},{"name":"Cereale bebe","slug":"120103-mancare-bebe-cereale","selected":false},{"name":"Lichide","slug":"120104-mancare-bebe-lichide","selected":false},{"name":"Meniuri bebe","slug":"120105-mancare-bebe-meniuri","selected":false}],"products":[{"code":"100086575","variantCode":"100086575","name":"Lapte de început Nutri-Biotik 1, 0-6 luni, 800g","slug":"100086575-aptamil-lapte-de-inceput-nutri-biotik-1-0-6-luni-800g","unitPriceLabel":"84,88 Lei/kg","brand":"Aptamil","brandCode":"999","brandFilterCode":"aptamil-b1013","sku":"100086575","price":67.9,"originalPrice":null,"currencyCode":"RON","currency":"Lei","image":{"thumbnail":{"default":"https://cdn.freshful.ro/media/cache/sylius_shop_product_thumbnail/29/ed/2144318b0aa128cd8cc81f8a61f2.jpg"},"large":{"default":"https://cdn.freshful.ro/media/cache/freshful_large/29/ed/2144318b0aa128cd8cc81f8a61f2.jpg"},"extralarge":{"default":"https://cdn.freshful.ro/media/cache/sylius_shop_product_original/29/ed/2144318b0aa128cd8cc81f8a61f2.jpg"}},"label":null,"tags":[],"isAvailable":true,"maxAvailableQuantity":100,"maxAllowedQuantity":100,"breadcrumbs":[{"code":"12","name":"Mama & copilul","slug":"12-mama-si-copilul"},{"code":"1201","name":"Alimente bebe","slug":"1201-alimente-bebelusi"},{"code":"120101","name":"Formule de lapte","slug":"120101-formule-de-lapte"},{"code":"100086575","name":"Lapte de început Nutri-Biotik 1, 0-6 luni, 800g","slug":"100086575-aptamil-lapte-de-inceput-nutri-biotik-1-0-6-luni-800g"}],"activePromotion":null,"saveMe":null,"labels":[],"geniusPrice":null,"geniusUnitPricePerLabel":null,"banner":null,"discountLabel":null,"geniusDiscountLabel":null,"badge":null},{"code":"100086574","variantCode":"100086574","name":"Lapte de continuare Nutri-Biotik 2, 6-12 luni, 800g","slug":"100086574-aptamil-lapte-de-continuare-nutri-biotik-2-6-12-luni-800g","unitPriceLabel":"83,13 Lei/kg","brand":"Aptamil","brandCode":"999","brandFilterCode":"aptamil-b1013","sku":"100086574","price":66.5,"originalPrice":null,"currencyCode":"RON","currency":"Lei","image":{"thumbnail":{"default":"https://cdn.freshful.ro/media/cache/sylius_shop_product_thumbnail/c7/da/e82d0792b654103e37061b654560.jpg"},"large":{"default":"https://cdn.freshful.ro/media/cache/freshful_large/c7/da/e82d0792b654103e37061b654560.jpg"},"extralarge":{"default":"https://cdn.freshful.ro/media/cache/sylius_shop_product_original/c7/da/e82d0792b654103e37061b654560.jpg"}},"label":null,"tags":[],"isAvailable":true,"maxAvailableQuantity":48,"maxAllowedQuantity":100,"breadcrumbs":[{"code":"12","name":"Mama & copilul","slug":"12-mama-si-copilul"},{"code":"1201","name":"Alimente bebe","slug":"1201-alimente-bebelusi"},{"code":"120101","name":"Formule de lapte","slug":"120101-formule-de-lapte"},{"code":"100086574","name":"Lapte de continuare Nutri-Biotik 2, 6-12 luni, 800g","slug":"100086574-aptamil-lapte-de-continuare-nutri-biotik-2-6-12-luni-800g"}],"activePromotion":null,"saveMe":null,"labels":[],"geniusPrice":null,"geniusUnitPricePerLabel":null,"banner":null,"discountLabel":null,"geniusDiscountLabel":null,"badge":null},{"code":"100082195","variantCode":"9062300139461","name":"Formulă de lapte praf specială, Anti-Reflux AR, +0 luni, 300g","slug":"100082195-hipp-formula-de-lapte-praf-speciala-anti-reflux-ar-0-luni-300g","unitPriceLabel":"133,3 Lei/kg","brand":"HiPP","brandCode":"848","brandFilterCode":"hipp-b849","sku":"100082195","price":39.99,"originalPrice":null,"currencyCode":"RON","currency":"Lei","image":{"thumbnail":{"default":"https://cdn.freshful.ro/media/cache/sylius_shop_product_thumbnail/3e/fa/49e2853baf9bde95e5e08f1c3e79.jpg"},"large":{"default":"https://cdn.freshful.ro/media/cache/freshful_large/3e/fa/49e2853baf9bde95e5e08f1c3e79.jpg"},"extralarge":{"default":"https://cdn.freshful.ro/media/cache/sylius_shop_product_original/3e/fa/49e2853baf9bde95e5e08f1c3e79.jpg"}},"label":null,"tags":[],"isAvailable":true,"maxAvailableQuantity":41,"maxAllowedQuantity":100,"breadcrumbs":[{"code":"12","name":"Mama & copilul","slug":"12-mama-si-copilul"},{"code":"1201","name":"Alimente bebe","slug":"1201-alimente-bebelusi"},{"code":"120101","name":"Formule de lapte","slug":"120101-formule-de-lapte"},{"code":"100082195","name":"Formulă de lapte praf specială, Anti-Reflux AR, +0 luni, 300g","slug":"100082195-hipp-formula-de-lapte-praf-speciala-anti-reflux-ar-0-luni-300g"}],"activePromotion":null,"saveMe":null,"labels":[],"geniusPrice":null,"geniusUnitPricePerLabel":null,"banner":null,"discountLabel":null,"geniusDiscountLabel":null,"badge":null},{"code":"100082124","variantCode":"9062300139232","name":"Formulă de lapte praf eco 1, +0 luni, 300g","slug":"100082124-hipp-formula-de-lapte-praf-eco-1-0-luni-300g","unitPriceLabel":"83,3 Lei/kg","brand":"HiPP","brandCode":"848","brandFilterCode":"hipp-b849","sku":"100082124","price":24.99,"originalPrice":null,"currencyCode":"RON","currency":"Lei","image":{"thumbnail":{"default":"https://cdn.freshful.ro/media/cache/sylius_shop_product_thumbnail/7b/d6/d613c1d681a97a403447308e0e90.jpg"},"large":{"default":"https://cdn.freshful.ro/media/cache/freshful_large/7b/d6/d613c1d681a97a403447308e0e90.jpg"},"extralarge":{"default":"https://cdn.freshful.ro/media/cache/sylius_shop_product_original/7b/d6/d613c1d681a97a403447308e0e90.jpg"}},"label":null,"tags":[{"type":"Eco","text":"Eco","icon":"https://cdn.freshful.ro/assets/product_tags/eco.svg","iconPng":"https://cdn.freshful.ro/assets/product_tags/eco.png","backgroundColor":"#EFFBE4","textColor":"#66BB1B"}],"isAvailable":true,"maxAvailableQuantity":44,"maxAllowedQuantity":100,"breadcrumbs":[{"code":"12","name":"Mama & copilul","slug":"12-mama-si-copilul"},{"code":"1201","name":"Alimente bebe","slug":"1201-alimente-bebelusi"},{"code":"120101","name":"Formule de lapte","slug":"120101-formule-de-lapte"},{"code":"100082124","name":"Formulă de lapte praf eco 1, +0 luni, 300g","slug":"100082124-hipp-formula-de-lapte-praf-eco-1-0-luni-300g"}],"activePromotion":null,"saveMe":null,"labels":[],"geniusPrice":null,"geniusUnitPricePerLabel":null,"banner":null,"discountLabel":null,"geniusDiscountLabel":null,"badge":null},{"code":"100082128","variantCode":"9062300139386","name":"Formulă de lapte praf eco Combiotic 1, +0 luni, 800g","slug":"100082128-hipp-formula-de-lapte-praf-eco-combiotic-1-0-luni-800g","unitPriceLabel":"91,13 Lei/kg","brand":"HiPP","brandCode":"848","brandFilterCode":"hipp-b849","sku":"100082128","price":72.9,"originalPrice":null,"currencyCode":"RON","currency":"Lei","image":{"thumbnail":{"default":"https://cdn.freshful.ro/media/cache/sylius_shop_product_thumbnail/79/bf/8c87c1965a529c0fa6b61d66283e.jpg"},"large":{"default":"https://cdn.freshful.ro/media/cache/freshful_large/79/bf/8c87c1965a529c0fa6b61d66283e.jpg"},"extralarge":{"default":"https://cdn.freshful.ro/media/cache/sylius_shop_product_original/79/bf/8c87c1965a529c0fa6b61d66283e.jpg"}},"label":null,"tags":[{"type":"Eco","text":"Eco","icon":"https://cdn.freshful.ro/assets/product_tags/eco.svg","iconPng":"https://cdn.freshful.ro/assets/product_tags/eco.png","backgroundColor":"#EFFBE4","textColor":"#66BB1B"}],"isAvailable":true,"maxAvailableQuantity":24,"maxAllowedQuantity":100,"breadcrumbs":[{"code":"12","name":"Mama & copilul","slug":"12-mama-si-copilul"},{"code":"1201","name":"Alimente bebe","slug":"1201-alimente-bebelusi"},{"code":"120101","name":"Formule de lapte","slug":"120101-formule-de-lapte"},{"code":"100082128","name":"Formulă de lapte praf eco Combiotic 1, +0 luni, 800g","slug":"100082128-hipp-formula-de-lapte-praf-eco-combiotic-1-0-luni-800g"}],"activePromotion":null,"saveMe":null,"labels":[],"geniusPrice":null,"geniusUnitPricePerLabel":null,"banner":null,"discountLabel":null,"geniusDiscountLabel":null,"badge":null},{"code":"100082127","variantCode":"9062300139362","name":"Formulă de lapte praf eco Combiotic 1, +0 luni, 300g ","slug":"100082127-hipp-formula-de-lapte-praf-eco-combiotic-1-0-luni-300g","unitPriceLabel":"99,67 Lei/kg","brand":"HiPP","brandCode":"848","brandFilterCode":"hipp-b849","sku":"100082127","price":29.9,"originalPrice":null,"currencyCode":"RON","currency":"Lei","image":{"thumbnail":{"default":"https://cdn.freshful.ro/media/cache/sylius_shop_product_thumbnail/f3/7d/19c491077a8e9995134a55854678.jpg"},"large":{"default":"https://cdn.freshful.ro/media/cache/freshful_large/f3/7d/19c491077a8e9995134a55854678.jpg"},"extralarge":{"default":"https://cdn.freshful.ro/media/cache/sylius_shop_product_original/f3/7d/19c491077a8e9995134a55854678.jpg"}},"label":null,"tags":[{"type":"Eco","text":"Eco","icon":"https://cdn.freshful.ro/assets/product_tags/eco.svg","iconPng":"https://cdn.freshful.ro/assets/product_tags/eco.png","backgroundColor":"#EFFBE4","textColor":"#66BB1B"}],"isAvailable":true,"maxAvailableQuantity":79,"maxAllowedQuantity":100,"breadcrumbs":[{"code":"12","name":"Mama & copilul","slug":"12-mama-si-copilul"},{"code":"1201","name":"Alimente bebe","slug":"1201-alimente-bebelusi"},{"code":"120101","name":"Formule de lapte","slug":"120101-formule-de-lapte"},{"code":"100082127","name":"Formulă de lapte praf eco Combiotic 1, +0 luni, 300g ","slug":"100082127-hipp-formula-de-lapte-praf-eco-combiotic-1-0-luni-300g"}],"activePromotion":null,"saveMe":null,"labels":[],"geniusPrice":null,"geniusUnitPricePerLabel":null,"banner":null,"discountLabel":null,"geniusDiscountLabel":null,"badge":null},{"code":"100044659","variantCode":"7613036362238","name":"Formulă de lapte praf Optipro 1 HMO, +0 luni, 800g","slug":"100044659-nan-formula-de-lapte-praf-optipro-1-hmo-0-luni-800g","unitPriceLabel":"93,8 Lei/kg","brand":"Nan","brandCode":"695","brandFilterCode":"nan-b696","sku":"100044659","price":75.04,"originalPrice":null,"currencyCode":"RON","currency":"Lei","image":{"thumbnail":{"default":"https://cdn.freshful.ro/media/cache/sylius_shop_product_thumbnail/87/9e/88ec422d1c1695ba49d836dd5b44.jpg"},"large":{"default":"https://cdn.freshful.ro/media/cache/freshful_large/87/9e/88ec422d1c1695ba49d836dd5b44.jpg"},"extralarge":{"default":"https://cdn.freshful.ro/media/cache/sylius_shop_product_original/87/9e/88ec422d1c1695ba49d836dd5b44.jpg"}},"label":null,"tags":[],"isAvailable":true,"maxAvailableQuantity":27,"maxAllowedQuantity":100,"breadcrumbs":[{"code":"12","name":"Mama & copilul","slug":"12-mama-si-copilul"},{"code":"1201","name":"Alimente bebe","slug":"1201-alimente-bebelusi"},{"code":"120101","name":"Formule de lapte","slug":"120101-formule-de-lapte"},{"code":"100044659","name":"Formulă de lapte praf Optipro 1 HMO, +0 luni, 800g","slug":"100044659-nan-formula-de-lapte-praf-optipro-1-hmo-0-luni-800g"}],"activePromotion":null,"saveMe":null,"labels":[],"geniusPrice":null,"geniusUnitPricePerLabel":null,"banner":null,"discountLabel":null,"geniusDiscountLabel":null,"badge":null},{"code":"100046916","variantCode":"7613036056434","name":"Formulă de lapte praf ExpertPro HA, +0 luni, 400g","slug":"100046916-nan-formula-de-lapte-praf-expertpro-ha-0-luni-400g","unitPriceLabel":"117,48 Lei/kg","brand":"Nan","brandCode":"695","brandFilterCode":"nan-b696","sku":"100046916","price":46.99,"originalPrice":null,"currencyCode":"RON","currency":"Lei","image":{"thumbnail":{"default":"https://cdn.freshful.ro/media/cache/sylius_shop_product_thumbnail/dc/ce/6be39c12a21ceeee07f6c02ab34f.jpg"},"large":{"default":"https://cdn.freshful.ro/media/cache/freshful_large/dc/ce/6be39c12a21ceeee07f6c02ab34f.jpg"},"extralarge":{"default":"https://cdn.freshful.ro/media/cache/sylius_shop_product_original/dc/ce/6be39c12a21ceeee07f6c02ab34f.jpg"}},"label":null,"tags":[],"isAvailable":true,"maxAvailableQuantity":61,"maxAllowedQuantity":100,"breadcrumbs":[{"code":"12","name":"Mama & copilul","slug":"12-mama-si-copilul"},{"code":"1201","name":"Alimente bebe","slug":"1201-alimente-bebelusi"},{"code":"120101","name":"Formule de lapte","slug":"120101-formule-de-lapte"},{"code":"100046916","name":"Formulă de lapte praf ExpertPro HA, +0 luni, 400g","slug":"100046916-nan-formula-de-lapte-praf-expertpro-ha-0-luni-400g"}],"activePromotion":null,"saveMe":null,"labels":[],"geniusPrice":null,"geniusUnitPricePerLabel":null,"banner":null,"discountLabel":null,"geniusDiscountLabel":null,"badge":null},{"code":"100044660","variantCode":"7613034965790","name":"Formulă de lapte praf Comfortis 1, de la naștere, 800g","slug":"100044660-nan-formula-de-lapte-praf-comfortis-1-de-la-nastere-800g","unitPriceLabel":"79,55 Lei/kg","brand":"Nan","brandCode":"695","brandFilterCode":"nan-b696","sku":"100044660","price":63.64,"originalPrice":null,"currencyCode":"RON","currency":"Lei","image":{"thumbnail":{"default":"https://cdn.freshful.ro/media/cache/sylius_shop_product_thumbnail/d6/86/a482f6bf5297c89d98ea5f073283.jpg"},"large":{"default":"https://cdn.freshful.ro/media/cache/freshful_large/d6/86/a482f6bf5297c89d98ea5f073283.jpg"},"extralarge":{"default":"https://cdn.freshful.ro/media/cache/sylius_shop_product_original/d6/86/a482f6bf5297c89d98ea5f073283.jpg"}},"label":null,"tags":[],"isAvailable":true,"maxAvailableQuantity":24,"maxAllowedQuantity":100,"breadcrumbs":[{"code":"12","name":"Mama & copilul","slug":"12-mama-si-copilul"},{"code":"1201","name":"Alimente bebe","slug":"1201-alimente-bebelusi"},{"code":"120101","name":"Formule de lapte","slug":"120101-formule-de-lapte"},{"code":"100044660","name":"Formulă de lapte praf Comfortis 1, de la naștere, 800g","slug":"100044660-nan-formula-de-lapte-praf-comfortis-1-de-la-nastere-800g"}],"activePromotion":null,"saveMe":null,"labels":[],"geniusPrice":null,"geniusUnitPricePerLabel":null,"banner":null,"discountLabel":null,"geniusDiscountLabel":null,"badge":null},{"code":"100046918","variantCode":"7613035091580","name":"Optifibre pentru reglarea tranzitului intestinal 125g","slug":"100046918-optifibre-optifibre-pentru-reglarea-tranzitului-intestinal-125g","unitPriceLabel":"431,2 Lei/kg","brand":"Optifibre","brandCode":"696","brandFilterCode":"optifibre-b697","sku":"100046918","price":53.9,"originalPrice":null,"currencyCode":"RON","currency":"Lei","image":{"thumbnail":{"default":"https://cdn.freshful.ro/media/cache/sylius_shop_product_thumbnail/44/7b/ae0822dc5b9c9cb4ee7baa3f2cb6.jpg"},"large":{"default":"https://cdn.freshful.ro/media/cache/freshful_large/44/7b/ae0822dc5b9c9cb4ee7baa3f2cb6.jpg"},"extralarge":{"default":"https://cdn.freshful.ro/media/cache/sylius_shop_product_original/44/7b/ae0822dc5b9c9cb4ee7baa3f2cb6.jpg"}},"label":null,"tags":[{"type":"NoAddedSugar","text":"Fara zahar adaugat","icon":"https://cdn.freshful.ro/assets/product_tags/fara_zahar_adaugat.svg","iconPng":"https://cdn.freshful.ro/assets/product_tags/fara_zahar_adaugat.png","backgroundColor":"#F8EDF7","textColor":"#C05EBC"}],"isAvailable":true,"maxAvailableQuantity":8,"maxAllowedQuantity":100,"breadcrumbs":[{"code":"12","name":"Mama & copilul","slug":"12-mama-si-copilul"},{"code":"1201","name":"Alimente bebe","slug":"1201-alimente-bebelusi"},{"code":"120101","name":"Formule de lapte","slug":"120101-formule-de-lapte"},{"code":"100046918","name":"Optifibre pentru reglarea tranzitului intestinal 125g","slug":"100046918-optifibre-optifibre-pentru-reglarea-tranzitului-intestinal-125g"}],"activePromotion":null,"saveMe":null,"labels":[],"geniusPrice":null,"geniusUnitPricePerLabel":null,"banner":null,"discountLabel":null,"geniusDiscountLabel":null,"badge":null}],"filters":{"countSelected":0,"items":[{"code":"brand","name":"Brand","countSelected":0,"values":[{"code":"aptamil-b1013","name":"Aptamil","isSelected":false,"count":9},{"code":"hipp-b849","name":"HiPP","isSelected":false,"count":6},{"code":"humana-b2532","name":"Humana","isSelected":false,"count":1},{"code":"little-steps-b695","name":"Little Steps","isSelected":false,"count":1},{"code":"milumil-b950","name":"Milumil","isSelected":false,"count":1},{"code":"nan-b696","name":"Nan","isSelected":false,"count":6},{"code":"optifibre-b697","name":"Optifibre","isSelected":false,"count":1}]},{"code":"diet_lifestyle","name":"Dietă și lifestyle","countSelected":0,"values":[{"code":"eco-a83","name":"Eco","isSelected":false,"count":3},{"code":"fara-conservanti-a37","name":"Fara conservanti","isSelected":false,"count":1},{"code":"fara-lactoza-a38","name":"Fara lactoza","isSelected":false,"count":1},{"code":"fara-zahar-adaugat-a29","name":"Fara zahar adaugat","isSelected":false,"count":1}]}]},"orderBy":[{"field":"price","direction":"asc","name":"Preț crescător","isSelected":false},{"field":"price","direction":"desc","name":"Preț descrescător","isSelected":false},{"field":"popularity","direction":"desc","name":"Cele mai populare","isSelected":true},{"field":"category","direction":"asc","name":"Categorie","isSelected":false}],"metaTitle":"Formule de lapte - Gamă variată","metaDescription":"Vrei Formule de lapte? Alege dintr-o gamă variată. Comanzi simplu și ai livrare rapidă, calitate și prospețime. Hai pe Freshful.ro","metaKeywords":null,"banners":[]}}