{"type":"subcategory","payload":{"analyticsListId":"category_120102-lapte-de-crestere","analyticsListName":"Category - Lapte de creștere","name":"Lapte de creștere","slug":"120102-lapte-de-crestere","image":null,"breadcrumbs":[{"code":"12","name":"Mama & copilul","slug":"12-mama-si-copilul"},{"code":"1201","name":"Alimente bebe","slug":"1201-alimente-bebelusi"},{"code":"120102","name":"Lapte de creștere","slug":"120102-lapte-de-crestere"}],"slots":[],"page":1,"limit":10,"pages":4,"count":33,"siblings":[{"name":"Alimente bebe","slug":"1201-alimente-bebelusi","selected":true},{"name":"Igienă bebe","slug":"1202-igiena-bebe","selected":false},{"name":"Puericultură","slug":"1203-puericultura","selected":false}],"children":[{"name":"Toate produsele","slug":"1201-alimente-bebelusi","selected":false},{"name":"Formule de lapte","slug":"120101-formule-de-lapte","selected":false},{"name":"Lapte de creștere","slug":"120102-lapte-de-crestere","selected":true},{"name":"Cereale bebe","slug":"120103-mancare-bebe-cereale","selected":false},{"name":"Lichide","slug":"120104-mancare-bebe-lichide","selected":false},{"name":"Meniuri bebe","slug":"120105-mancare-bebe-meniuri","selected":false}],"products":[{"code":"100086579","variantCode":"100086579","name":"Lapte pentru copii de vârstă mică Nutri-Biotik 1+, 1-2 ani, 800g","slug":"100086579-aptamil-lapte-pentru-copii-de-varsta-mica-nutri-biotik-1-1-2-ani-800g","unitPriceLabel":"79,43 Lei/kg","brand":"Aptamil","brandCode":"999","brandFilterCode":"aptamil-b1013","sku":"100086579","price":63.54,"originalPrice":null,"currencyCode":"RON","currency":"Lei","image":{"thumbnail":{"default":"https://cdn.freshful.ro/media/cache/sylius_shop_product_thumbnail/87/8e/33b43e41fabaf4196cbbf17f0cca.jpg"},"large":{"default":"https://cdn.freshful.ro/media/cache/freshful_large/87/8e/33b43e41fabaf4196cbbf17f0cca.jpg"},"extralarge":{"default":"https://cdn.freshful.ro/media/cache/sylius_shop_product_original/87/8e/33b43e41fabaf4196cbbf17f0cca.jpg"}},"label":null,"tags":[{"type":"NoPreservatives","text":"Fara conservanti","icon":"https://cdn.freshful.ro/assets/product_tags/fara_conservanti.svg","iconPng":"https://cdn.freshful.ro/assets/product_tags/fara_conservanti.png","backgroundColor":"#F0F2FF","textColor":"#7889DD"}],"isAvailable":true,"maxAvailableQuantity":8,"maxAllowedQuantity":100,"breadcrumbs":[{"code":"12","name":"Mama & copilul","slug":"12-mama-si-copilul"},{"code":"1201","name":"Alimente bebe","slug":"1201-alimente-bebelusi"},{"code":"120102","name":"Lapte de creștere","slug":"120102-lapte-de-crestere"},{"code":"100086579","name":"Lapte pentru copii de vârstă mică Nutri-Biotik 1+, 1-2 ani, 800g","slug":"100086579-aptamil-lapte-pentru-copii-de-varsta-mica-nutri-biotik-1-1-2-ani-800g"}],"activePromotion":null,"saveMe":null,"labels":[],"geniusPrice":null,"geniusUnitPricePerLabel":null,"banner":null,"discountLabel":null,"geniusDiscountLabel":null,"badge":null},{"code":"100082126","variantCode":"9062300139348","name":"Formulă de lapte praf eco Junior 3, +12 luni, 500g","slug":"100082126-hipp-formula-de-lapte-praf-eco-junior-3-12-luni-500g","unitPriceLabel":"75,98 Lei/kg","brand":"HiPP","brandCode":"848","brandFilterCode":"hipp-b849","sku":"100082126","price":37.99,"originalPrice":null,"currencyCode":"RON","currency":"Lei","image":{"thumbnail":{"default":"https://cdn.freshful.ro/media/cache/sylius_shop_product_thumbnail/0b/dc/7c87f64aebff97b75578d09f4e5b.jpg"},"large":{"default":"https://cdn.freshful.ro/media/cache/freshful_large/0b/dc/7c87f64aebff97b75578d09f4e5b.jpg"},"extralarge":{"default":"https://cdn.freshful.ro/media/cache/sylius_shop_product_original/0b/dc/7c87f64aebff97b75578d09f4e5b.jpg"}},"label":null,"tags":[{"type":"Eco","text":"Eco","icon":"https://cdn.freshful.ro/assets/product_tags/eco.svg","iconPng":"https://cdn.freshful.ro/assets/product_tags/eco.png","backgroundColor":"#EFFBE4","textColor":"#66BB1B"}],"isAvailable":true,"maxAvailableQuantity":42,"maxAllowedQuantity":100,"breadcrumbs":[{"code":"12","name":"Mama & copilul","slug":"12-mama-si-copilul"},{"code":"1201","name":"Alimente bebe","slug":"1201-alimente-bebelusi"},{"code":"120102","name":"Lapte de creștere","slug":"120102-lapte-de-crestere"},{"code":"100082126","name":"Formulă de lapte praf eco Junior 3, +12 luni, 500g","slug":"100082126-hipp-formula-de-lapte-praf-eco-junior-3-12-luni-500g"}],"activePromotion":null,"saveMe":null,"labels":[],"geniusPrice":null,"geniusUnitPricePerLabel":null,"banner":null,"discountLabel":null,"geniusDiscountLabel":null,"badge":null},{"code":"100046922","variantCode":"7613034090010","name":"Formulă de lapte praf Optipro 3 HMO, +12 luni 800g","slug":"100046922-nan-formula-de-lapte-praf-optipro-3-hmo-12-luni-800g","unitPriceLabel":"89,05 Lei/kg","brand":"Nan","brandCode":"695","brandFilterCode":"nan-b696","sku":"100046922","price":71.24,"originalPrice":null,"currencyCode":"RON","currency":"Lei","image":{"thumbnail":{"default":"https://cdn.freshful.ro/media/cache/sylius_shop_product_thumbnail/b3/24/04517cf80350c92327d6ff67d583.jpg"},"large":{"default":"https://cdn.freshful.ro/media/cache/freshful_large/b3/24/04517cf80350c92327d6ff67d583.jpg"},"extralarge":{"default":"https://cdn.freshful.ro/media/cache/sylius_shop_product_original/b3/24/04517cf80350c92327d6ff67d583.jpg"}},"label":null,"tags":[],"isAvailable":true,"maxAvailableQuantity":45,"maxAllowedQuantity":100,"breadcrumbs":[{"code":"12","name":"Mama & copilul","slug":"12-mama-si-copilul"},{"code":"1201","name":"Alimente bebe","slug":"1201-alimente-bebelusi"},{"code":"120102","name":"Lapte de creștere","slug":"120102-lapte-de-crestere"},{"code":"100046922","name":"Formulă de lapte praf Optipro 3 HMO, +12 luni 800g","slug":"100046922-nan-formula-de-lapte-praf-optipro-3-hmo-12-luni-800g"}],"activePromotion":null,"saveMe":null,"labels":[],"geniusPrice":null,"geniusUnitPricePerLabel":null,"banner":null,"discountLabel":null,"geniusDiscountLabel":null,"badge":null},{"code":"100082130","variantCode":"9062300139164","name":"Formulă de lapte praf Junior Combiotic 3, +1 an, 500g","slug":"100082130-hipp-formula-de-lapte-praf-junior-combiotic-3-1-an-500g","unitPriceLabel":"79,8 Lei/kg","brand":"HiPP","brandCode":"848","brandFilterCode":"hipp-b849","sku":"100082130","price":39.9,"originalPrice":null,"currencyCode":"RON","currency":"Lei","image":{"thumbnail":{"default":"https://cdn.freshful.ro/media/cache/sylius_shop_product_thumbnail/4b/a1/e8043e07497bc8cb0ffb333a0494.jpg"},"large":{"default":"https://cdn.freshful.ro/media/cache/freshful_large/4b/a1/e8043e07497bc8cb0ffb333a0494.jpg"},"extralarge":{"default":"https://cdn.freshful.ro/media/cache/sylius_shop_product_original/4b/a1/e8043e07497bc8cb0ffb333a0494.jpg"}},"label":null,"tags":[],"isAvailable":true,"maxAvailableQuantity":82,"maxAllowedQuantity":100,"breadcrumbs":[{"code":"12","name":"Mama & copilul","slug":"12-mama-si-copilul"},{"code":"1201","name":"Alimente bebe","slug":"1201-alimente-bebelusi"},{"code":"120102","name":"Lapte de creștere","slug":"120102-lapte-de-crestere"},{"code":"100082130","name":"Formulă de lapte praf Junior Combiotic 3, +1 an, 500g","slug":"100082130-hipp-formula-de-lapte-praf-junior-combiotic-3-1-an-500g"}],"activePromotion":null,"saveMe":null,"labels":[],"geniusPrice":null,"geniusUnitPricePerLabel":null,"banner":null,"discountLabel":null,"geniusDiscountLabel":null,"badge":null},{"code":"100082125","variantCode":"9062300139287","name":"Formulă de lapte praf eco 2, +6 luni, 300g","slug":"100082125-hipp-formula-de-lapte-praf-eco-2-6-luni-300g","unitPriceLabel":"72,02 Lei/kg","brand":"HiPP","brandCode":"848","brandFilterCode":"hipp-b849","sku":"100082125","price":24.99,"originalPrice":null,"currencyCode":"RON","currency":"Lei","image":{"thumbnail":{"default":"https://cdn.freshful.ro/media/cache/sylius_shop_product_thumbnail/0d/16/d36fafe008ebdbfc81b0f8f4211f.jpg"},"large":{"default":"https://cdn.freshful.ro/media/cache/freshful_large/0d/16/d36fafe008ebdbfc81b0f8f4211f.jpg"},"extralarge":{"default":"https://cdn.freshful.ro/media/cache/sylius_shop_product_original/0d/16/d36fafe008ebdbfc81b0f8f4211f.jpg"}},"label":null,"tags":[{"type":"Eco","text":"Eco","icon":"https://cdn.freshful.ro/assets/product_tags/eco.svg","iconPng":"https://cdn.freshful.ro/assets/product_tags/eco.png","backgroundColor":"#EFFBE4","textColor":"#66BB1B"}],"isAvailable":true,"maxAvailableQuantity":98,"maxAllowedQuantity":100,"breadcrumbs":[{"code":"12","name":"Mama & copilul","slug":"12-mama-si-copilul"},{"code":"1201","name":"Alimente bebe","slug":"1201-alimente-bebelusi"},{"code":"120102","name":"Lapte de creștere","slug":"120102-lapte-de-crestere"},{"code":"100082125","name":"Formulă de lapte praf eco 2, +6 luni, 300g","slug":"100082125-hipp-formula-de-lapte-praf-eco-2-6-luni-300g"}],"activePromotion":null,"saveMe":null,"labels":[],"geniusPrice":null,"geniusUnitPricePerLabel":null,"banner":null,"discountLabel":null,"geniusDiscountLabel":null,"badge":null},{"code":"100046915","variantCode":"7613034965769","name":"Formulă de lapte praf Comfortis 2, +6 luni, 800g","slug":"100046915-nan-formula-de-lapte-praf-comfortis-2-6-luni-800g","unitPriceLabel":"82,49 Lei/kg","brand":"Nan","brandCode":"695","brandFilterCode":"nan-b696","sku":"100046915","price":65.99,"originalPrice":null,"currencyCode":"RON","currency":"Lei","image":{"thumbnail":{"default":"https://cdn.freshful.ro/media/cache/sylius_shop_product_thumbnail/48/be/6470dc3e4e56358339ef9e138c6e.jpg"},"large":{"default":"https://cdn.freshful.ro/media/cache/freshful_large/48/be/6470dc3e4e56358339ef9e138c6e.jpg"},"extralarge":{"default":"https://cdn.freshful.ro/media/cache/sylius_shop_product_original/48/be/6470dc3e4e56358339ef9e138c6e.jpg"}},"label":null,"tags":[],"isAvailable":true,"maxAvailableQuantity":73,"maxAllowedQuantity":100,"breadcrumbs":[{"code":"12","name":"Mama & copilul","slug":"12-mama-si-copilul"},{"code":"1201","name":"Alimente bebe","slug":"1201-alimente-bebelusi"},{"code":"120102","name":"Lapte de creștere","slug":"120102-lapte-de-crestere"},{"code":"100046915","name":"Formulă de lapte praf Comfortis 2, +6 luni, 800g","slug":"100046915-nan-formula-de-lapte-praf-comfortis-2-6-luni-800g"}],"activePromotion":null,"saveMe":null,"labels":[],"geniusPrice":null,"geniusUnitPricePerLabel":null,"banner":null,"discountLabel":null,"geniusDiscountLabel":null,"badge":null},{"code":"100086582","variantCode":"100086582","name":"Lapte pentru copii de vârstă mică Nutri-Biotik 2+, 2-3 ani, 800g","slug":"100086582-aptamil-lapte-pentru-copii-de-varsta-mica-nutri-biotik-2-2-3-ani-800g","unitPriceLabel":"83,63 Lei/kg","brand":"Aptamil","brandCode":"999","brandFilterCode":"aptamil-b1013","sku":"100086582","price":66.9,"originalPrice":null,"currencyCode":"RON","currency":"Lei","image":{"thumbnail":{"default":"https://cdn.freshful.ro/media/cache/sylius_shop_product_thumbnail/bb/b6/43a14b7219185a669f9f072d07ce.jpg"},"large":{"default":"https://cdn.freshful.ro/media/cache/freshful_large/bb/b6/43a14b7219185a669f9f072d07ce.jpg"},"extralarge":{"default":"https://cdn.freshful.ro/media/cache/sylius_shop_product_original/bb/b6/43a14b7219185a669f9f072d07ce.jpg"}},"label":{"text":"Premium","backgroundColor":"#2D2D2D","textColor":"#FFFFFF"},"tags":[{"type":"NoPreservatives","text":"Fara conservanti","icon":"https://cdn.freshful.ro/assets/product_tags/fara_conservanti.svg","iconPng":"https://cdn.freshful.ro/assets/product_tags/fara_conservanti.png","backgroundColor":"#F0F2FF","textColor":"#7889DD"}],"isAvailable":true,"maxAvailableQuantity":55,"maxAllowedQuantity":100,"breadcrumbs":[{"code":"12","name":"Mama & copilul","slug":"12-mama-si-copilul"},{"code":"1201","name":"Alimente bebe","slug":"1201-alimente-bebelusi"},{"code":"120102","name":"Lapte de creștere","slug":"120102-lapte-de-crestere"},{"code":"100086582","name":"Lapte pentru copii de vârstă mică Nutri-Biotik 2+, 2-3 ani, 800g","slug":"100086582-aptamil-lapte-pentru-copii-de-varsta-mica-nutri-biotik-2-2-3-ani-800g"}],"activePromotion":null,"saveMe":null,"labels":[{"type":"v1","items":[{"text":"Premium","backgroundColor":"#2D2D2D","textColor":"#FFFFFF"}]}],"geniusPrice":null,"geniusUnitPricePerLabel":null,"banner":null,"discountLabel":null,"geniusDiscountLabel":null,"badge":null},{"code":"100133155","variantCode":"100133155","name":"Formulă de lapte praf Junior Combiotic 4, +2 ani, 500g","slug":"100133155-hipp-formula-de-lapte-praf-junior-combiotic-4-2-ani-500g","unitPriceLabel":"103,8 Lei/kg","brand":"HiPP","brandCode":"848","brandFilterCode":"hipp-b849","sku":"100133155","price":51.9,"originalPrice":null,"currencyCode":"RON","currency":"Lei","image":{"thumbnail":{"default":"https://cdn.freshful.ro/media/cache/sylius_shop_product_thumbnail/d6/bf/87d5e8a95963362ec48faa5b3ed7.jpg"},"large":{"default":"https://cdn.freshful.ro/media/cache/freshful_large/d6/bf/87d5e8a95963362ec48faa5b3ed7.jpg"},"extralarge":{"default":"https://cdn.freshful.ro/media/cache/sylius_shop_product_original/d6/bf/87d5e8a95963362ec48faa5b3ed7.jpg"}},"label":null,"tags":[],"isAvailable":true,"maxAvailableQuantity":62,"maxAllowedQuantity":100,"breadcrumbs":[{"code":"12","name":"Mama & copilul","slug":"12-mama-si-copilul"},{"code":"1201","name":"Alimente bebe","slug":"1201-alimente-bebelusi"},{"code":"120102","name":"Lapte de creștere","slug":"120102-lapte-de-crestere"},{"code":"100133155","name":"Formulă de lapte praf Junior Combiotic 4, +2 ani, 500g","slug":"100133155-hipp-formula-de-lapte-praf-junior-combiotic-4-2-ani-500g"}],"activePromotion":null,"saveMe":null,"labels":[],"geniusPrice":null,"geniusUnitPricePerLabel":null,"banner":null,"discountLabel":null,"geniusDiscountLabel":null,"badge":null},{"code":"100082129","variantCode":"9062300139409","name":"Formulă de lapte praf eco Combiotic 2, +6 luni 300g","slug":"100082129-hipp-formula-de-lapte-praf-eco-combiotic-2-6-luni-300g","unitPriceLabel":"99,67 Lei/kg","brand":"HiPP","brandCode":"848","brandFilterCode":"hipp-b849","sku":"100082129","price":29.9,"originalPrice":null,"currencyCode":"RON","currency":"Lei","image":{"thumbnail":{"default":"https://cdn.freshful.ro/media/cache/sylius_shop_product_thumbnail/e6/90/2763852abd110f4084fa846188d4.jpg"},"large":{"default":"https://cdn.freshful.ro/media/cache/freshful_large/e6/90/2763852abd110f4084fa846188d4.jpg"},"extralarge":{"default":"https://cdn.freshful.ro/media/cache/sylius_shop_product_original/e6/90/2763852abd110f4084fa846188d4.jpg"}},"label":null,"tags":[{"type":"Eco","text":"Eco","icon":"https://cdn.freshful.ro/assets/product_tags/eco.svg","iconPng":"https://cdn.freshful.ro/assets/product_tags/eco.png","backgroundColor":"#EFFBE4","textColor":"#66BB1B"}],"isAvailable":true,"maxAvailableQuantity":54,"maxAllowedQuantity":100,"breadcrumbs":[{"code":"12","name":"Mama & copilul","slug":"12-mama-si-copilul"},{"code":"1201","name":"Alimente bebe","slug":"1201-alimente-bebelusi"},{"code":"120102","name":"Lapte de creștere","slug":"120102-lapte-de-crestere"},{"code":"100082129","name":"Formulă de lapte praf eco Combiotic 2, +6 luni 300g","slug":"100082129-hipp-formula-de-lapte-praf-eco-combiotic-2-6-luni-300g"}],"activePromotion":null,"saveMe":null,"labels":[],"geniusPrice":null,"geniusUnitPricePerLabel":null,"banner":null,"discountLabel":null,"geniusDiscountLabel":null,"badge":null},{"code":"100086586","variantCode":"100086586","name":"Aliment destinat unui scop medical special Pepti SYNEO 2, de la 6 luni, 400g ","slug":"100086586-aptamil-aliment-destinat-unui-scop-medical-special-pepti-syneo-2-de-la-6-luni-400g","unitPriceLabel":"263,6 Lei/kg","brand":"Aptamil","brandCode":"999","brandFilterCode":"aptamil-b1013","sku":"100086586","price":105.44,"originalPrice":null,"currencyCode":"RON","currency":"Lei","image":{"thumbnail":{"default":"https://cdn.freshful.ro/media/cache/sylius_shop_product_thumbnail/82/38/f13a237951548687e8bf04137e6c.jpg"},"large":{"default":"https://cdn.freshful.ro/media/cache/freshful_large/82/38/f13a237951548687e8bf04137e6c.jpg"},"extralarge":{"default":"https://cdn.freshful.ro/media/cache/sylius_shop_product_original/82/38/f13a237951548687e8bf04137e6c.jpg"}},"label":null,"tags":[],"isAvailable":true,"maxAvailableQuantity":40,"maxAllowedQuantity":100,"breadcrumbs":[{"code":"12","name":"Mama & copilul","slug":"12-mama-si-copilul"},{"code":"1201","name":"Alimente bebe","slug":"1201-alimente-bebelusi"},{"code":"120102","name":"Lapte de creștere","slug":"120102-lapte-de-crestere"},{"code":"100086586","name":"Aliment destinat unui scop medical special Pepti SYNEO 2, de la 6 luni, 400g ","slug":"100086586-aptamil-aliment-destinat-unui-scop-medical-special-pepti-syneo-2-de-la-6-luni-400g"}],"activePromotion":null,"saveMe":null,"labels":[],"geniusPrice":null,"geniusUnitPricePerLabel":null,"banner":null,"discountLabel":null,"geniusDiscountLabel":null,"badge":null}],"filters":{"countSelected":0,"items":[{"code":"brand","name":"Brand","countSelected":0,"values":[{"code":"aptamil-b1013","name":"Aptamil","isSelected":false,"count":7},{"code":"hipp-b849","name":"HiPP","isSelected":false,"count":7},{"code":"humana-b2532","name":"Humana","isSelected":false,"count":1},{"code":"little-steps-b695","name":"Little Steps","isSelected":false,"count":1},{"code":"milumil-b950","name":"Milumil","isSelected":false,"count":9},{"code":"nan-b696","name":"Nan","isSelected":false,"count":8}]},{"code":"diet_lifestyle","name":"Dietă și lifestyle","countSelected":0,"values":[{"code":"eco-a83","name":"Eco","isSelected":false,"count":4},{"code":"fara-conservanti-a37","name":"Fara conservanti","isSelected":false,"count":4},{"code":"fara-gluten-a16","name":"Fara gluten","isSelected":false,"count":3}]}]},"orderBy":[{"field":"price","direction":"asc","name":"Preț crescător","isSelected":false},{"field":"price","direction":"desc","name":"Preț descrescător","isSelected":false},{"field":"popularity","direction":"desc","name":"Cele mai populare","isSelected":true},{"field":"category","direction":"asc","name":"Categorie","isSelected":false}],"metaTitle":"Lapte de creștere - Gamă variată","metaDescription":"Vrei Lapte de creștere? Alege dintr-o gamă variată. Comanzi simplu și ai livrare rapidă, calitate și prospețime. Hai pe Freshful.ro","metaKeywords":null,"banners":[]}}