{"type":"subcategory","payload":{"analyticsListId":"category_120103-mancare-bebe-cereale","analyticsListName":"Category - Cereale bebe","name":"Cereale bebe","slug":"120103-mancare-bebe-cereale","image":null,"breadcrumbs":[{"code":"12","name":"Mama & copilul","slug":"12-mama-si-copilul"},{"code":"1201","name":"Alimente bebe","slug":"1201-alimente-bebelusi"},{"code":"120103","name":"Cereale bebe","slug":"120103-mancare-bebe-cereale"}],"slots":[],"page":1,"limit":10,"pages":5,"count":43,"siblings":[{"name":"Alimente bebe","slug":"1201-alimente-bebelusi","selected":true},{"name":"Igienă bebe","slug":"1202-igiena-bebe","selected":false},{"name":"Puericultură","slug":"1203-puericultura","selected":false}],"children":[{"name":"Toate produsele","slug":"1201-alimente-bebelusi","selected":false},{"name":"Formule de lapte","slug":"120101-formule-de-lapte","selected":false},{"name":"Lapte de creștere","slug":"120102-lapte-de-crestere","selected":false},{"name":"Cereale bebe","slug":"120103-mancare-bebe-cereale","selected":true},{"name":"Lichide","slug":"120104-mancare-bebe-lichide","selected":false},{"name":"Meniuri bebe","slug":"120105-mancare-bebe-meniuri","selected":false}],"products":[{"code":"100082211","variantCode":"9062300139027","name":"Baton eco măr, banană și zmeură 23g ","slug":"100082211-hipp-baton-eco-mar-banana-si-zmeura-23g","unitPriceLabel":"232,61 Lei/kg","brand":"HiPP","brandCode":"848","brandFilterCode":"hipp-b849","sku":"100082211","price":5.35,"originalPrice":null,"currencyCode":"RON","currency":"Lei","image":{"thumbnail":{"default":"https://cdn.freshful.ro/media/cache/sylius_shop_product_thumbnail/31/68/128d8401dc1c05315d68ddef24d9.jpg"},"large":{"default":"https://cdn.freshful.ro/media/cache/freshful_large/31/68/128d8401dc1c05315d68ddef24d9.jpg"},"extralarge":{"default":"https://cdn.freshful.ro/media/cache/sylius_shop_product_original/31/68/128d8401dc1c05315d68ddef24d9.jpg"}},"label":null,"tags":[{"type":"Eco","text":"Eco","icon":"https://cdn.freshful.ro/assets/product_tags/eco.svg","iconPng":"https://cdn.freshful.ro/assets/product_tags/eco.png","backgroundColor":"#EFFBE4","textColor":"#66BB1B"}],"isAvailable":true,"maxAvailableQuantity":73,"maxAllowedQuantity":100,"breadcrumbs":[{"code":"12","name":"Mama & copilul","slug":"12-mama-si-copilul"},{"code":"1201","name":"Alimente bebe","slug":"1201-alimente-bebelusi"},{"code":"120103","name":"Cereale bebe","slug":"120103-mancare-bebe-cereale"},{"code":"100082211","name":"Baton eco măr, banană și zmeură 23g ","slug":"100082211-hipp-baton-eco-mar-banana-si-zmeura-23g"}],"activePromotion":null,"saveMe":null,"labels":[],"geniusPrice":null,"geniusUnitPricePerLabel":null,"banner":null,"discountLabel":null,"geniusDiscountLabel":null,"badge":null},{"code":"100082212","variantCode":"9062300139034","name":"Baton eco iaurt, cireșe și banană 23g ","slug":"100082212-hipp-baton-eco-iaurt-cirese-si-banana-23g","unitPriceLabel":"234,35 Lei/kg","brand":"HiPP","brandCode":"848","brandFilterCode":"hipp-b849","sku":"100082212","price":5.39,"originalPrice":null,"currencyCode":"RON","currency":"Lei","image":{"thumbnail":{"default":"https://cdn.freshful.ro/media/cache/sylius_shop_product_thumbnail/05/2f/7289dfbee6b69ddbf8c10dcccc1f.jpg"},"large":{"default":"https://cdn.freshful.ro/media/cache/freshful_large/05/2f/7289dfbee6b69ddbf8c10dcccc1f.jpg"},"extralarge":{"default":"https://cdn.freshful.ro/media/cache/sylius_shop_product_original/05/2f/7289dfbee6b69ddbf8c10dcccc1f.jpg"}},"label":null,"tags":[{"type":"Eco","text":"Eco","icon":"https://cdn.freshful.ro/assets/product_tags/eco.svg","iconPng":"https://cdn.freshful.ro/assets/product_tags/eco.png","backgroundColor":"#EFFBE4","textColor":"#66BB1B"}],"isAvailable":true,"maxAvailableQuantity":62,"maxAllowedQuantity":100,"breadcrumbs":[{"code":"12","name":"Mama & copilul","slug":"12-mama-si-copilul"},{"code":"1201","name":"Alimente bebe","slug":"1201-alimente-bebelusi"},{"code":"120103","name":"Cereale bebe","slug":"120103-mancare-bebe-cereale"},{"code":"100082212","name":"Baton eco iaurt, cireșe și banană 23g ","slug":"100082212-hipp-baton-eco-iaurt-cirese-si-banana-23g"}],"activePromotion":null,"saveMe":null,"labels":[],"geniusPrice":null,"geniusUnitPricePerLabel":null,"banner":null,"discountLabel":null,"geniusDiscountLabel":null,"badge":null},{"code":"100082210","variantCode":"9062300139010","name":"Baton eco măr, banană și ovăz 23g ","slug":"100082210-hipp-baton-eco-mar-banana-si-ovaz-23g","unitPriceLabel":"232,61 Lei/kg","brand":"HiPP","brandCode":"848","brandFilterCode":"hipp-b849","sku":"100082210","price":5.35,"originalPrice":null,"currencyCode":"RON","currency":"Lei","image":{"thumbnail":{"default":"https://cdn.freshful.ro/media/cache/sylius_shop_product_thumbnail/53/74/4bd4de1c3a42862839f0a347d45f.jpg"},"large":{"default":"https://cdn.freshful.ro/media/cache/freshful_large/53/74/4bd4de1c3a42862839f0a347d45f.jpg"},"extralarge":{"default":"https://cdn.freshful.ro/media/cache/sylius_shop_product_original/53/74/4bd4de1c3a42862839f0a347d45f.jpg"}},"label":null,"tags":[{"type":"Eco","text":"Eco","icon":"https://cdn.freshful.ro/assets/product_tags/eco.svg","iconPng":"https://cdn.freshful.ro/assets/product_tags/eco.png","backgroundColor":"#EFFBE4","textColor":"#66BB1B"}],"isAvailable":true,"maxAvailableQuantity":33,"maxAllowedQuantity":100,"breadcrumbs":[{"code":"12","name":"Mama & copilul","slug":"12-mama-si-copilul"},{"code":"1201","name":"Alimente bebe","slug":"1201-alimente-bebelusi"},{"code":"120103","name":"Cereale bebe","slug":"120103-mancare-bebe-cereale"},{"code":"100082210","name":"Baton eco măr, banană și ovăz 23g ","slug":"100082210-hipp-baton-eco-mar-banana-si-ovaz-23g"}],"activePromotion":null,"saveMe":null,"labels":[],"geniusPrice":null,"geniusUnitPricePerLabel":null,"banner":null,"discountLabel":null,"geniusDiscountLabel":null,"badge":null},{"code":"100082205","variantCode":"9062300132721","name":"Fulgi de cereale eco 7 cereale, +10 luni, 200g","slug":"100082205-hipp-fulgi-de-cereale-eco-7-cereale-10-luni-200g","unitPriceLabel":"66,45 Lei/kg","brand":"HiPP","brandCode":"848","brandFilterCode":"hipp-b849","sku":"100082205","price":13.29,"originalPrice":null,"currencyCode":"RON","currency":"Lei","image":{"thumbnail":{"default":"https://cdn.freshful.ro/media/cache/sylius_shop_product_thumbnail/48/4c/d2d30c1a9ee35eee0b50ddc66dca.jpg"},"large":{"default":"https://cdn.freshful.ro/media/cache/freshful_large/48/4c/d2d30c1a9ee35eee0b50ddc66dca.jpg"},"extralarge":{"default":"https://cdn.freshful.ro/media/cache/sylius_shop_product_original/48/4c/d2d30c1a9ee35eee0b50ddc66dca.jpg"}},"label":null,"tags":[{"type":"Eco","text":"Eco","icon":"https://cdn.freshful.ro/assets/product_tags/eco.svg","iconPng":"https://cdn.freshful.ro/assets/product_tags/eco.png","backgroundColor":"#EFFBE4","textColor":"#66BB1B"},{"type":"NoAddedSugar","text":"Fara zahar adaugat","icon":"https://cdn.freshful.ro/assets/product_tags/fara_zahar_adaugat.svg","iconPng":"https://cdn.freshful.ro/assets/product_tags/fara_zahar_adaugat.png","backgroundColor":"#F8EDF7","textColor":"#C05EBC"}],"isAvailable":true,"maxAvailableQuantity":19,"maxAllowedQuantity":100,"breadcrumbs":[{"code":"12","name":"Mama & copilul","slug":"12-mama-si-copilul"},{"code":"1201","name":"Alimente bebe","slug":"1201-alimente-bebelusi"},{"code":"120103","name":"Cereale bebe","slug":"120103-mancare-bebe-cereale"},{"code":"100082205","name":"Fulgi de cereale eco 7 cereale, +10 luni, 200g","slug":"100082205-hipp-fulgi-de-cereale-eco-7-cereale-10-luni-200g"}],"activePromotion":null,"saveMe":null,"labels":[],"geniusPrice":null,"geniusUnitPricePerLabel":null,"banner":null,"discountLabel":null,"geniusDiscountLabel":null,"badge":null},{"code":"100086555","variantCode":"100086555","name":"7 cereale cu 5 fructe Junior de la 1 an 250g","slug":"100086555-milupa-7-cereale-cu-5-fructe-junior-de-la-1-an-250g","unitPriceLabel":"71,6 Lei/kg","brand":"Milupa","brandCode":"1001","brandFilterCode":"milupa-b951","sku":"100086555","price":17.9,"originalPrice":null,"currencyCode":"RON","currency":"Lei","image":{"thumbnail":{"default":"https://cdn.freshful.ro/media/cache/sylius_shop_product_thumbnail/6c/23/1f86a253cb17f59ce40d570d8a24.jpg"},"large":{"default":"https://cdn.freshful.ro/media/cache/freshful_large/6c/23/1f86a253cb17f59ce40d570d8a24.jpg"},"extralarge":{"default":"https://cdn.freshful.ro/media/cache/sylius_shop_product_original/6c/23/1f86a253cb17f59ce40d570d8a24.jpg"}},"label":null,"tags":[{"type":"LactoseFree","text":"Fara lactoza","icon":"https://cdn.freshful.ro/assets/product_tags/fara_lactoza.svg","iconPng":"https://cdn.freshful.ro/assets/product_tags/fara_lactoza.png","backgroundColor":"#E9F7FB","textColor":"#25A6D0"},{"type":"NoAddedSugar","text":"Fara zahar adaugat","icon":"https://cdn.freshful.ro/assets/product_tags/fara_zahar_adaugat.svg","iconPng":"https://cdn.freshful.ro/assets/product_tags/fara_zahar_adaugat.png","backgroundColor":"#F8EDF7","textColor":"#C05EBC"}],"isAvailable":true,"maxAvailableQuantity":100,"maxAllowedQuantity":100,"breadcrumbs":[{"code":"12","name":"Mama & copilul","slug":"12-mama-si-copilul"},{"code":"1201","name":"Alimente bebe","slug":"1201-alimente-bebelusi"},{"code":"120103","name":"Cereale bebe","slug":"120103-mancare-bebe-cereale"},{"code":"100086555","name":"7 cereale cu 5 fructe Junior de la 1 an 250g","slug":"100086555-milupa-7-cereale-cu-5-fructe-junior-de-la-1-an-250g"}],"activePromotion":null,"saveMe":null,"labels":[],"geniusPrice":null,"geniusUnitPricePerLabel":null,"banner":null,"discountLabel":null,"geniusDiscountLabel":null,"badge":null},{"code":"100082139","variantCode":"9062300139744","name":"Multicereale 100% eco +6 luni, 200g","slug":"100082139-hipp-multicereale-100-eco-6-luni-200g","unitPriceLabel":"72,5 Lei/kg","brand":"HiPP","brandCode":"848","brandFilterCode":"hipp-b849","sku":"100082139","price":14.5,"originalPrice":null,"currencyCode":"RON","currency":"Lei","image":{"thumbnail":{"default":"https://cdn.freshful.ro/media/cache/sylius_shop_product_thumbnail/ba/16/188d332b3b35057ce51b5414f498.jpg"},"large":{"default":"https://cdn.freshful.ro/media/cache/freshful_large/ba/16/188d332b3b35057ce51b5414f498.jpg"},"extralarge":{"default":"https://cdn.freshful.ro/media/cache/sylius_shop_product_original/ba/16/188d332b3b35057ce51b5414f498.jpg"}},"label":null,"tags":[{"type":"Eco","text":"Eco","icon":"https://cdn.freshful.ro/assets/product_tags/eco.svg","iconPng":"https://cdn.freshful.ro/assets/product_tags/eco.png","backgroundColor":"#EFFBE4","textColor":"#66BB1B"},{"type":"NoAddedSugar","text":"Fara zahar adaugat","icon":"https://cdn.freshful.ro/assets/product_tags/fara_zahar_adaugat.svg","iconPng":"https://cdn.freshful.ro/assets/product_tags/fara_zahar_adaugat.png","backgroundColor":"#F8EDF7","textColor":"#C05EBC"}],"isAvailable":true,"maxAvailableQuantity":26,"maxAllowedQuantity":100,"breadcrumbs":[{"code":"12","name":"Mama & copilul","slug":"12-mama-si-copilul"},{"code":"1201","name":"Alimente bebe","slug":"1201-alimente-bebelusi"},{"code":"120103","name":"Cereale bebe","slug":"120103-mancare-bebe-cereale"},{"code":"100082139","name":"Multicereale 100% eco +6 luni, 200g","slug":"100082139-hipp-multicereale-100-eco-6-luni-200g"}],"activePromotion":null,"saveMe":null,"labels":[],"geniusPrice":null,"geniusUnitPricePerLabel":null,"banner":null,"discountLabel":null,"geniusDiscountLabel":null,"badge":null},{"code":"100086553","variantCode":"100086553","name":"7 cereale eco de la 8 luni 250g","slug":"100086553-milupa-7-cereale-eco-de-la-8-luni-250g","unitPriceLabel":"78 Lei/kg","brand":"Milupa","brandCode":"1001","brandFilterCode":"milupa-b951","sku":"100086553","price":19.5,"originalPrice":null,"currencyCode":"RON","currency":"Lei","image":{"thumbnail":{"default":"https://cdn.freshful.ro/media/cache/sylius_shop_product_thumbnail/a5/06/c9af6eaca705f4ce818790f49fd6.jpg"},"large":{"default":"https://cdn.freshful.ro/media/cache/freshful_large/a5/06/c9af6eaca705f4ce818790f49fd6.jpg"},"extralarge":{"default":"https://cdn.freshful.ro/media/cache/sylius_shop_product_original/a5/06/c9af6eaca705f4ce818790f49fd6.jpg"}},"label":null,"tags":[{"type":"Eco","text":"Eco","icon":"https://cdn.freshful.ro/assets/product_tags/eco.svg","iconPng":"https://cdn.freshful.ro/assets/product_tags/eco.png","backgroundColor":"#EFFBE4","textColor":"#66BB1B"},{"type":"NoAddedSugar","text":"Fara zahar adaugat","icon":"https://cdn.freshful.ro/assets/product_tags/fara_zahar_adaugat.svg","iconPng":"https://cdn.freshful.ro/assets/product_tags/fara_zahar_adaugat.png","backgroundColor":"#F8EDF7","textColor":"#C05EBC"},{"type":"NoPreservatives","text":"Fara conservanti","icon":"https://cdn.freshful.ro/assets/product_tags/fara_conservanti.svg","iconPng":"https://cdn.freshful.ro/assets/product_tags/fara_conservanti.png","backgroundColor":"#F0F2FF","textColor":"#7889DD"}],"isAvailable":true,"maxAvailableQuantity":100,"maxAllowedQuantity":100,"breadcrumbs":[{"code":"12","name":"Mama & copilul","slug":"12-mama-si-copilul"},{"code":"1201","name":"Alimente bebe","slug":"1201-alimente-bebelusi"},{"code":"120103","name":"Cereale bebe","slug":"120103-mancare-bebe-cereale"},{"code":"100086553","name":"7 cereale eco de la 8 luni 250g","slug":"100086553-milupa-7-cereale-eco-de-la-8-luni-250g"}],"activePromotion":null,"saveMe":null,"labels":[],"geniusPrice":null,"geniusUnitPricePerLabel":null,"banner":null,"discountLabel":null,"geniusDiscountLabel":null,"badge":null},{"code":"100086563","variantCode":"100086563","name":"Cereale integrale cu mere Vise plăcute de la 8 luni 250g","slug":"100086563-milupa-cereale-integrale-cu-mere-vise-placute-de-la-8-luni-250g","unitPriceLabel":"77,84 Lei/kg","brand":"Milupa","brandCode":"1001","brandFilterCode":"milupa-b951","sku":"100086563","price":19.46,"originalPrice":null,"currencyCode":"RON","currency":"Lei","image":{"thumbnail":{"default":"https://cdn.freshful.ro/media/cache/sylius_shop_product_thumbnail/48/b2/53272b54c3f12d51c0e2c9a51ed0.jpg"},"large":{"default":"https://cdn.freshful.ro/media/cache/freshful_large/48/b2/53272b54c3f12d51c0e2c9a51ed0.jpg"},"extralarge":{"default":"https://cdn.freshful.ro/media/cache/sylius_shop_product_original/48/b2/53272b54c3f12d51c0e2c9a51ed0.jpg"}},"label":null,"tags":[{"type":"NoAddedSugar","text":"Fara zahar adaugat","icon":"https://cdn.freshful.ro/assets/product_tags/fara_zahar_adaugat.svg","iconPng":"https://cdn.freshful.ro/assets/product_tags/fara_zahar_adaugat.png","backgroundColor":"#F8EDF7","textColor":"#C05EBC"},{"type":"NoPreservatives","text":"Fara conservanti","icon":"https://cdn.freshful.ro/assets/product_tags/fara_conservanti.svg","iconPng":"https://cdn.freshful.ro/assets/product_tags/fara_conservanti.png","backgroundColor":"#F0F2FF","textColor":"#7889DD"}],"isAvailable":true,"maxAvailableQuantity":80,"maxAllowedQuantity":100,"breadcrumbs":[{"code":"12","name":"Mama & copilul","slug":"12-mama-si-copilul"},{"code":"1201","name":"Alimente bebe","slug":"1201-alimente-bebelusi"},{"code":"120103","name":"Cereale bebe","slug":"120103-mancare-bebe-cereale"},{"code":"100086563","name":"Cereale integrale cu mere Vise plăcute de la 8 luni 250g","slug":"100086563-milupa-cereale-integrale-cu-mere-vise-placute-de-la-8-luni-250g"}],"activePromotion":null,"saveMe":null,"labels":[],"geniusPrice":null,"geniusUnitPricePerLabel":null,"banner":null,"discountLabel":null,"geniusDiscountLabel":null,"badge":null},{"code":"100082136","variantCode":"9062300140221","name":"Cereale ecologice „Noapte bună” cu măr, +4 luni, 250g","slug":"100082136-hipp-cereale-ecologice-noapte-buna-cu-mar-4-luni-250g","unitPriceLabel":"69,16 Lei/kg","brand":"HiPP","brandCode":"848","brandFilterCode":"hipp-b849","sku":"100082136","price":17.29,"originalPrice":null,"currencyCode":"RON","currency":"Lei","image":{"thumbnail":{"default":"https://cdn.freshful.ro/media/cache/sylius_shop_product_thumbnail/b4/6e/88de042c9b725ab9993510bdcd73.jpg"},"large":{"default":"https://cdn.freshful.ro/media/cache/freshful_large/b4/6e/88de042c9b725ab9993510bdcd73.jpg"},"extralarge":{"default":"https://cdn.freshful.ro/media/cache/sylius_shop_product_original/b4/6e/88de042c9b725ab9993510bdcd73.jpg"}},"label":null,"tags":[{"type":"Eco","text":"Eco","icon":"https://cdn.freshful.ro/assets/product_tags/eco.svg","iconPng":"https://cdn.freshful.ro/assets/product_tags/eco.png","backgroundColor":"#EFFBE4","textColor":"#66BB1B"},{"type":"NoGluten","text":"Fara gluten","icon":"https://cdn.freshful.ro/assets/product_tags/fara_gluten.svg","iconPng":"https://cdn.freshful.ro/assets/product_tags/fara_gluten.png","backgroundColor":"#FFF2E5","textColor":"#F07900"},{"type":"NoAddedSugar","text":"Fara zahar adaugat","icon":"https://cdn.freshful.ro/assets/product_tags/fara_zahar_adaugat.svg","iconPng":"https://cdn.freshful.ro/assets/product_tags/fara_zahar_adaugat.png","backgroundColor":"#F8EDF7","textColor":"#C05EBC"}],"isAvailable":true,"maxAvailableQuantity":26,"maxAllowedQuantity":100,"breadcrumbs":[{"code":"12","name":"Mama & copilul","slug":"12-mama-si-copilul"},{"code":"1201","name":"Alimente bebe","slug":"1201-alimente-bebelusi"},{"code":"120103","name":"Cereale bebe","slug":"120103-mancare-bebe-cereale"},{"code":"100082136","name":"Cereale ecologice „Noapte bună” cu măr, +4 luni, 250g","slug":"100082136-hipp-cereale-ecologice-noapte-buna-cu-mar-4-luni-250g"}],"activePromotion":null,"saveMe":null,"labels":[],"geniusPrice":null,"geniusUnitPricePerLabel":null,"banner":null,"discountLabel":null,"geniusDiscountLabel":null,"badge":null},{"code":"100086556","variantCode":"100086556","name":"Cereale griș cu banane și piersici Vise plăcute de la 6 luni 250g","slug":"100086556-milupa-cereale-gris-cu-banane-si-piersici-vise-placute-de-la-6-luni-250g","unitPriceLabel":"77,84 Lei/kg","brand":"Milupa","brandCode":"1001","brandFilterCode":"milupa-b951","sku":"100086556","price":19.46,"originalPrice":null,"currencyCode":"RON","currency":"Lei","image":{"thumbnail":{"default":"https://cdn.freshful.ro/media/cache/sylius_shop_product_thumbnail/dd/6f/10e97e56f6f7cd49259c396ef0c4.jpg"},"large":{"default":"https://cdn.freshful.ro/media/cache/freshful_large/dd/6f/10e97e56f6f7cd49259c396ef0c4.jpg"},"extralarge":{"default":"https://cdn.freshful.ro/media/cache/sylius_shop_product_original/dd/6f/10e97e56f6f7cd49259c396ef0c4.jpg"}},"label":null,"tags":[{"type":"NoAddedSugar","text":"Fara zahar adaugat","icon":"https://cdn.freshful.ro/assets/product_tags/fara_zahar_adaugat.svg","iconPng":"https://cdn.freshful.ro/assets/product_tags/fara_zahar_adaugat.png","backgroundColor":"#F8EDF7","textColor":"#C05EBC"},{"type":"NoPreservatives","text":"Fara conservanti","icon":"https://cdn.freshful.ro/assets/product_tags/fara_conservanti.svg","iconPng":"https://cdn.freshful.ro/assets/product_tags/fara_conservanti.png","backgroundColor":"#F0F2FF","textColor":"#7889DD"}],"isAvailable":true,"maxAvailableQuantity":20,"maxAllowedQuantity":100,"breadcrumbs":[{"code":"12","name":"Mama & copilul","slug":"12-mama-si-copilul"},{"code":"1201","name":"Alimente bebe","slug":"1201-alimente-bebelusi"},{"code":"120103","name":"Cereale bebe","slug":"120103-mancare-bebe-cereale"},{"code":"100086556","name":"Cereale griș cu banane și piersici Vise plăcute de la 6 luni 250g","slug":"100086556-milupa-cereale-gris-cu-banane-si-piersici-vise-placute-de-la-6-luni-250g"}],"activePromotion":null,"saveMe":null,"labels":[],"geniusPrice":null,"geniusUnitPricePerLabel":null,"banner":null,"discountLabel":null,"geniusDiscountLabel":null,"badge":null}],"filters":{"countSelected":0,"items":[{"code":"brand","name":"Brand","countSelected":0,"values":[{"code":"hero-b2190","name":"Hero","isSelected":false,"count":2},{"code":"hipp-b849","name":"HiPP","isSelected":false,"count":14},{"code":"milupa-b951","name":"Milupa","isSelected":false,"count":6},{"code":"nestle-b698","name":"Nestlé","isSelected":false,"count":12},{"code":"organix-b2189","name":"Organix","isSelected":false,"count":7},{"code":"smileat-b867","name":"Smileat","isSelected":false,"count":2}]},{"code":"diet_lifestyle","name":"Dietă și lifestyle","countSelected":0,"values":[{"code":"bio-a26","name":"Bio","isSelected":false,"count":1},{"code":"eco-a83","name":"Eco","isSelected":false,"count":20},{"code":"fara-conservanti-a37","name":"Fara conservanti","isSelected":false,"count":17},{"code":"fara-gluten-a16","name":"Fara gluten","isSelected":false,"count":10},{"code":"fara-lactoza-a38","name":"Fara lactoza","isSelected":false,"count":4},{"code":"fara-zahar-adaugat-a29","name":"Fara zahar adaugat","isSelected":false,"count":33},{"code":"vegan-a24","name":"Vegan","isSelected":false,"count":7},{"code":"vegetarian-a28","name":"Vegetarian","isSelected":false,"count":7}]}]},"orderBy":[{"field":"price","direction":"asc","name":"Preț crescător","isSelected":false},{"field":"price","direction":"desc","name":"Preț descrescător","isSelected":false},{"field":"popularity","direction":"desc","name":"Cele mai populare","isSelected":true},{"field":"category","direction":"asc","name":"Categorie","isSelected":false}],"metaTitle":"Cereale bebe - Gamă variată","metaDescription":"Vrei Cereale bebe? Alege dintr-o gamă variată. Comanzi simplu și ai livrare rapidă, calitate și prospețime. Hai pe Freshful.ro","metaKeywords":null,"banners":[]}}