{"type":"subcategory","payload":{"analyticsListId":"category_1201-alimente-bebelusi","analyticsListName":"Category - Alimente bebe","name":"Alimente bebe","slug":"1201-alimente-bebelusi","image":null,"breadcrumbs":[{"code":"12","name":"Mama & copilul","slug":"12-mama-si-copilul"},{"code":"1201","name":"Alimente bebe","slug":"1201-alimente-bebelusi"}],"slots":[],"page":1,"limit":10,"pages":32,"count":319,"siblings":[{"name":"Alimente bebe","slug":"1201-alimente-bebelusi","selected":true},{"name":"Igienă bebe","slug":"1202-igiena-bebe","selected":false},{"name":"Puericultură","slug":"1203-puericultura","selected":false}],"children":[{"name":"Toate produsele","slug":"1201-alimente-bebelusi","selected":true},{"name":"Formule de lapte","slug":"120101-formule-de-lapte","selected":false},{"name":"Lapte de creștere","slug":"120102-lapte-de-crestere","selected":false},{"name":"Cereale bebe","slug":"120103-mancare-bebe-cereale","selected":false},{"name":"Lichide","slug":"120104-mancare-bebe-lichide","selected":false},{"name":"Meniuri bebe","slug":"120105-mancare-bebe-meniuri","selected":false}],"products":[{"code":"100067353","variantCode":"100067353","name":"Piure din măr și afine, +6 luni, 100g","slug":"100067353-plasmon-piure-din-mar-si-afine-6-luni-100g","unitPriceLabel":"7,49 Lei/buc","brand":"Plasmon","brandCode":"1133","brandFilterCode":"plasmon-b1134","sku":"100067353","price":7.49,"originalPrice":null,"currencyCode":"RON","currency":"Lei","image":{"thumbnail":{"default":"https://cdn.freshful.ro/media/cache/sylius_shop_product_thumbnail/bf/05/6033267c3d5a9eff2c51b453b005.jpg"},"large":{"default":"https://cdn.freshful.ro/media/cache/freshful_large/bf/05/6033267c3d5a9eff2c51b453b005.jpg"},"extralarge":{"default":"https://cdn.freshful.ro/media/cache/sylius_shop_product_original/bf/05/6033267c3d5a9eff2c51b453b005.jpg"}},"label":{"text":"Profită acum","backgroundColor":"#FF9903","textColor":"#FFFFFF"},"tags":[],"isAvailable":true,"maxAvailableQuantity":17,"maxAllowedQuantity":100,"breadcrumbs":[{"code":"12","name":"Mama & copilul","slug":"12-mama-si-copilul"},{"code":"1201","name":"Alimente bebe","slug":"1201-alimente-bebelusi"},{"code":"120105","name":"Meniuri bebe","slug":"120105-mancare-bebe-meniuri"},{"code":"100067353","name":"Piure din măr și afine, +6 luni, 100g","slug":"100067353-plasmon-piure-din-mar-si-afine-6-luni-100g"}],"activePromotion":{"code":"oferte-bacanie-bauturi-21feb-8mar23","name":"Preț avantajos","targetQuantity":null},"saveMe":null,"labels":[{"type":"v1","items":[{"text":"Profită acum","backgroundColor":"#FF9903","textColor":"#FFFFFF"}]}],"geniusPrice":null,"geniusUnitPricePerLabel":null,"banner":{"text":"Preț avantajos","textColor":"#F95510","bgColor":"#FEF1CD","icon":null,"link":"https://www.freshful.ro/oferte/oferte-bacanie-bauturi-21feb-8mar23","type":"promo","analyticsEventType":"select_promotion","analyticsEventPayload":{"promotion_id":"oferte-bacanie-bauturi-21feb-8mar23","promotion_name":"Cămara cu băuturi și bunătăți"}},"discountLabel":null,"geniusDiscountLabel":null,"badge":null},{"code":"100067335","variantCode":"100067335","name":"Piure omogenizat brânzică Formaggino, +4 luni, 2x80g","slug":"100067335-plasmon-piure-omogenizat-branzica-formaggino-4-luni-2x80g","unitPriceLabel":"18,49 Lei/buc","brand":"Plasmon","brandCode":"1133","brandFilterCode":"plasmon-b1134","sku":"100067335","price":18.49,"originalPrice":null,"currencyCode":"RON","currency":"Lei","image":{"thumbnail":{"default":"https://cdn.freshful.ro/media/cache/sylius_shop_product_thumbnail/8d/39/5fb831263ec9e84fcfc0398449ef.jpg"},"large":{"default":"https://cdn.freshful.ro/media/cache/freshful_large/8d/39/5fb831263ec9e84fcfc0398449ef.jpg"},"extralarge":{"default":"https://cdn.freshful.ro/media/cache/sylius_shop_product_original/8d/39/5fb831263ec9e84fcfc0398449ef.jpg"}},"label":{"text":"Profită acum","backgroundColor":"#FF9903","textColor":"#FFFFFF"},"tags":[{"type":"NoGluten","text":"Fara gluten","icon":"https://cdn.freshful.ro/assets/product_tags/fara_gluten.svg","iconPng":"https://cdn.freshful.ro/assets/product_tags/fara_gluten.png","backgroundColor":"#FFF2E5","textColor":"#F07900"}],"isAvailable":true,"maxAvailableQuantity":43,"maxAllowedQuantity":100,"breadcrumbs":[{"code":"12","name":"Mama & copilul","slug":"12-mama-si-copilul"},{"code":"1201","name":"Alimente bebe","slug":"1201-alimente-bebelusi"},{"code":"120105","name":"Meniuri bebe","slug":"120105-mancare-bebe-meniuri"},{"code":"100067335","name":"Piure omogenizat brânzică Formaggino, +4 luni, 2x80g","slug":"100067335-plasmon-piure-omogenizat-branzica-formaggino-4-luni-2x80g"}],"activePromotion":{"code":"oferte-bacanie-bauturi-21feb-8mar23","name":"Preț avantajos","targetQuantity":null},"saveMe":null,"labels":[{"type":"v1","items":[{"text":"Profită acum","backgroundColor":"#FF9903","textColor":"#FFFFFF"}]}],"geniusPrice":null,"geniusUnitPricePerLabel":null,"banner":{"text":"Preț avantajos","textColor":"#F95510","bgColor":"#FEF1CD","icon":null,"link":"https://www.freshful.ro/oferte/oferte-bacanie-bauturi-21feb-8mar23","type":"promo","analyticsEventType":"select_promotion","analyticsEventPayload":{"promotion_id":"oferte-bacanie-bauturi-21feb-8mar23","promotion_name":"Cămara cu băuturi și bunătăți"}},"discountLabel":null,"geniusDiscountLabel":null,"badge":null},{"code":"100067361","variantCode":"100067361","name":"Piure broccoli 2x80g","slug":"100067361-plasmon-piure-broccoli-2x80g","unitPriceLabel":"12,99 Lei/buc","brand":"Plasmon","brandCode":"1133","brandFilterCode":"plasmon-b1134","sku":"100067361","price":12.99,"originalPrice":null,"currencyCode":"RON","currency":"Lei","image":{"thumbnail":{"default":"https://cdn.freshful.ro/media/cache/sylius_shop_product_thumbnail/e7/5e/161385ecbcc0552ce879a23080f2.jpg"},"large":{"default":"https://cdn.freshful.ro/media/cache/freshful_large/e7/5e/161385ecbcc0552ce879a23080f2.jpg"},"extralarge":{"default":"https://cdn.freshful.ro/media/cache/sylius_shop_product_original/e7/5e/161385ecbcc0552ce879a23080f2.jpg"}},"label":{"text":"Profită acum","backgroundColor":"#FF9903","textColor":"#FFFFFF"},"tags":[{"type":"NoGluten","text":"Fara gluten","icon":"https://cdn.freshful.ro/assets/product_tags/fara_gluten.svg","iconPng":"https://cdn.freshful.ro/assets/product_tags/fara_gluten.png","backgroundColor":"#FFF2E5","textColor":"#F07900"},{"type":"Natural","text":"Natural","icon":"https://cdn.freshful.ro/assets/product_tags/natural.svg","iconPng":"https://cdn.freshful.ro/assets/product_tags/natural.png","backgroundColor":"#E9FCF2","textColor":"#18AF62"}],"isAvailable":true,"maxAvailableQuantity":9,"maxAllowedQuantity":100,"breadcrumbs":[{"code":"12","name":"Mama & copilul","slug":"12-mama-si-copilul"},{"code":"1201","name":"Alimente bebe","slug":"1201-alimente-bebelusi"},{"code":"120105","name":"Meniuri bebe","slug":"120105-mancare-bebe-meniuri"},{"code":"100067361","name":"Piure broccoli 2x80g","slug":"100067361-plasmon-piure-broccoli-2x80g"}],"activePromotion":{"code":"oferte-bacanie-bauturi-21feb-8mar23","name":"Preț avantajos","targetQuantity":null},"saveMe":null,"labels":[{"type":"v1","items":[{"text":"Profită acum","backgroundColor":"#FF9903","textColor":"#FFFFFF"}]}],"geniusPrice":null,"geniusUnitPricePerLabel":null,"banner":{"text":"Preț avantajos","textColor":"#F95510","bgColor":"#FEF1CD","icon":null,"link":"https://www.freshful.ro/oferte/oferte-bacanie-bauturi-21feb-8mar23","type":"promo","analyticsEventType":"select_promotion","analyticsEventPayload":{"promotion_id":"oferte-bacanie-bauturi-21feb-8mar23","promotion_name":"Cămara cu băuturi și bunătăți"}},"discountLabel":null,"geniusDiscountLabel":null,"badge":null},{"code":"100067338","variantCode":"100067338","name":"Piure omogenizat din păstrăv cu legume, +6 luni, 2x80g","slug":"100067338-plasmon-piure-omogenizat-din-pastrav-cu-legume-6-luni-2x80g","unitPriceLabel":"17,99 Lei/buc","brand":"Plasmon","brandCode":"1133","brandFilterCode":"plasmon-b1134","sku":"100067338","price":17.99,"originalPrice":null,"currencyCode":"RON","currency":"Lei","image":{"thumbnail":{"default":"https://cdn.freshful.ro/media/cache/sylius_shop_product_thumbnail/ef/01/01a59f4bf768df2e335c0879a83b.jpg"},"large":{"default":"https://cdn.freshful.ro/media/cache/freshful_large/ef/01/01a59f4bf768df2e335c0879a83b.jpg"},"extralarge":{"default":"https://cdn.freshful.ro/media/cache/sylius_shop_product_original/ef/01/01a59f4bf768df2e335c0879a83b.jpg"}},"label":{"text":"Profită acum","backgroundColor":"#FF9903","textColor":"#FFFFFF"},"tags":[{"type":"NoPreservatives","text":"Fara conservanti","icon":"https://cdn.freshful.ro/assets/product_tags/fara_conservanti.svg","iconPng":"https://cdn.freshful.ro/assets/product_tags/fara_conservanti.png","backgroundColor":"#F0F2FF","textColor":"#7889DD"}],"isAvailable":true,"maxAvailableQuantity":4,"maxAllowedQuantity":100,"breadcrumbs":[{"code":"12","name":"Mama & copilul","slug":"12-mama-si-copilul"},{"code":"1201","name":"Alimente bebe","slug":"1201-alimente-bebelusi"},{"code":"120105","name":"Meniuri bebe","slug":"120105-mancare-bebe-meniuri"},{"code":"100067338","name":"Piure omogenizat din păstrăv cu legume, +6 luni, 2x80g","slug":"100067338-plasmon-piure-omogenizat-din-pastrav-cu-legume-6-luni-2x80g"}],"activePromotion":{"code":"oferte-bacanie-bauturi-21feb-8mar23","name":"Preț avantajos","targetQuantity":null},"saveMe":null,"labels":[{"type":"v1","items":[{"text":"Profită acum","backgroundColor":"#FF9903","textColor":"#FFFFFF"}]}],"geniusPrice":null,"geniusUnitPricePerLabel":null,"banner":{"text":"Preț avantajos","textColor":"#F95510","bgColor":"#FEF1CD","icon":null,"link":"https://www.freshful.ro/oferte/oferte-bacanie-bauturi-21feb-8mar23","type":"promo","analyticsEventType":"select_promotion","analyticsEventPayload":{"promotion_id":"oferte-bacanie-bauturi-21feb-8mar23","promotion_name":"Cămara cu băuturi și bunătăți"}},"discountLabel":null,"geniusDiscountLabel":null,"badge":null},{"code":"100067343","variantCode":"100067343","name":"Piure din carne de vițel și pui de la 6 luni 2x80g","slug":"100067343-plasmon-piure-din-carne-de-vitel-si-pui-de-la-6-luni-2x80g","unitPriceLabel":"18,49 Lei/buc","brand":"Plasmon","brandCode":"1133","brandFilterCode":"plasmon-b1134","sku":"100067343","price":18.49,"originalPrice":null,"currencyCode":"RON","currency":"Lei","image":{"thumbnail":{"default":"https://cdn.freshful.ro/media/cache/sylius_shop_product_thumbnail/88/60/fab0ec6a96cac17f2999f36d6cf4.jpg"},"large":{"default":"https://cdn.freshful.ro/media/cache/freshful_large/88/60/fab0ec6a96cac17f2999f36d6cf4.jpg"},"extralarge":{"default":"https://cdn.freshful.ro/media/cache/sylius_shop_product_original/88/60/fab0ec6a96cac17f2999f36d6cf4.jpg"}},"label":{"text":"Profită acum","backgroundColor":"#FF9903","textColor":"#FFFFFF"},"tags":[{"type":"NoGluten","text":"Fara gluten","icon":"https://cdn.freshful.ro/assets/product_tags/fara_gluten.svg","iconPng":"https://cdn.freshful.ro/assets/product_tags/fara_gluten.png","backgroundColor":"#FFF2E5","textColor":"#F07900"},{"type":"Natural","text":"Natural","icon":"https://cdn.freshful.ro/assets/product_tags/natural.svg","iconPng":"https://cdn.freshful.ro/assets/product_tags/natural.png","backgroundColor":"#E9FCF2","textColor":"#18AF62"}],"isAvailable":true,"maxAvailableQuantity":28,"maxAllowedQuantity":100,"breadcrumbs":[{"code":"12","name":"Mama & copilul","slug":"12-mama-si-copilul"},{"code":"1201","name":"Alimente bebe","slug":"1201-alimente-bebelusi"},{"code":"120105","name":"Meniuri bebe","slug":"120105-mancare-bebe-meniuri"},{"code":"100067343","name":"Piure din carne de vițel și pui de la 6 luni 2x80g","slug":"100067343-plasmon-piure-din-carne-de-vitel-si-pui-de-la-6-luni-2x80g"}],"activePromotion":{"code":"oferte-bacanie-bauturi-21feb-8mar23","name":"Preț avantajos","targetQuantity":null},"saveMe":null,"labels":[{"type":"v1","items":[{"text":"Profită acum","backgroundColor":"#FF9903","textColor":"#FFFFFF"}]}],"geniusPrice":null,"geniusUnitPricePerLabel":null,"banner":{"text":"Preț avantajos","textColor":"#F95510","bgColor":"#FEF1CD","icon":null,"link":"https://www.freshful.ro/oferte/oferte-bacanie-bauturi-21feb-8mar23","type":"promo","analyticsEventType":"select_promotion","analyticsEventPayload":{"promotion_id":"oferte-bacanie-bauturi-21feb-8mar23","promotion_name":"Cămara cu băuturi și bunătăți"}},"discountLabel":null,"geniusDiscountLabel":null,"badge":null},{"code":"100124436","variantCode":"100124436","name":"Piure ecologic de prune, +4 luni, 70g","slug":"100124436-ella-s-kitchen-piure-ecologic-de-prune-4-luni-70g","unitPriceLabel":"7,15 Lei/buc","brand":"Ella's Kitchen","brandCode":"1129","brandFilterCode":"ella-s-kitchen-b1130","sku":"100124436","price":7.15,"originalPrice":null,"currencyCode":"RON","currency":"Lei","image":{"thumbnail":{"default":"https://cdn.freshful.ro/media/cache/sylius_shop_product_thumbnail/c2/da/57f0bfe38742c00589ea79300e1d.jpg"},"large":{"default":"https://cdn.freshful.ro/media/cache/freshful_large/c2/da/57f0bfe38742c00589ea79300e1d.jpg"},"extralarge":{"default":"https://cdn.freshful.ro/media/cache/sylius_shop_product_original/c2/da/57f0bfe38742c00589ea79300e1d.jpg"}},"label":null,"tags":[{"type":"NoAddedSugar","text":"Fara zahar adaugat","icon":"https://cdn.freshful.ro/assets/product_tags/fara_zahar_adaugat.svg","iconPng":"https://cdn.freshful.ro/assets/product_tags/fara_zahar_adaugat.png","backgroundColor":"#F8EDF7","textColor":"#C05EBC"},{"type":"Eco","text":"Eco","icon":"https://cdn.freshful.ro/assets/product_tags/eco.svg","iconPng":"https://cdn.freshful.ro/assets/product_tags/eco.png","backgroundColor":"#EFFBE4","textColor":"#66BB1B"}],"isAvailable":true,"maxAvailableQuantity":100,"maxAllowedQuantity":100,"breadcrumbs":[{"code":"12","name":"Mama & copilul","slug":"12-mama-si-copilul"},{"code":"1201","name":"Alimente bebe","slug":"1201-alimente-bebelusi"},{"code":"120105","name":"Meniuri bebe","slug":"120105-mancare-bebe-meniuri"},{"code":"100124436","name":"Piure ecologic de prune, +4 luni, 70g","slug":"100124436-ella-s-kitchen-piure-ecologic-de-prune-4-luni-70g"}],"activePromotion":null,"saveMe":null,"labels":[],"geniusPrice":null,"geniusUnitPricePerLabel":null,"banner":null,"discountLabel":null,"geniusDiscountLabel":null,"badge":null},{"code":"100067358","variantCode":"100067358","name":"Biscuiți pentru copii, cu cereale, +6 luni, 120g","slug":"100067358-plasmon-biscuiti-pentru-copii-cu-cereale-6-luni-120g","unitPriceLabel":"10,5 Lei/buc","brand":"Plasmon","brandCode":"1133","brandFilterCode":"plasmon-b1134","sku":"100067358","price":10.5,"originalPrice":null,"currencyCode":"RON","currency":"Lei","image":{"thumbnail":{"default":"https://cdn.freshful.ro/media/cache/sylius_shop_product_thumbnail/5d/f7/acbb7b8b5fa1d07a4697bd4402f9.jpg"},"large":{"default":"https://cdn.freshful.ro/media/cache/freshful_large/5d/f7/acbb7b8b5fa1d07a4697bd4402f9.jpg"},"extralarge":{"default":"https://cdn.freshful.ro/media/cache/sylius_shop_product_original/5d/f7/acbb7b8b5fa1d07a4697bd4402f9.jpg"}},"label":null,"tags":[],"isAvailable":true,"maxAvailableQuantity":95,"maxAllowedQuantity":100,"breadcrumbs":[{"code":"12","name":"Mama & copilul","slug":"12-mama-si-copilul"},{"code":"1201","name":"Alimente bebe","slug":"1201-alimente-bebelusi"},{"code":"120105","name":"Meniuri bebe","slug":"120105-mancare-bebe-meniuri"},{"code":"100067358","name":"Biscuiți pentru copii, cu cereale, +6 luni, 120g","slug":"100067358-plasmon-biscuiti-pentru-copii-cu-cereale-6-luni-120g"}],"activePromotion":null,"saveMe":null,"labels":[],"geniusPrice":null,"geniusUnitPricePerLabel":null,"banner":null,"discountLabel":null,"geniusDiscountLabel":null,"badge":null},{"code":"100141118","variantCode":"100141118","name":"Biscuiți eco, fără zahăr pentru copii, cu banane, +6 luni 120g","slug":"100141118-biskids-biscuiti-eco-fara-zahar-pentru-copii-cu-banane-6-luni-120g","unitPriceLabel":"152,42 Lei/kg","brand":"Biskids","brandCode":"2705","brandFilterCode":"biskids-b2711","sku":"100141118","price":18.29,"originalPrice":null,"currencyCode":"RON","currency":"Lei","image":{"thumbnail":{"default":"https://cdn.freshful.ro/media/cache/sylius_shop_product_thumbnail/1a/57/173c9395109a34a80e9ff72da6a1.jpg"},"large":{"default":"https://cdn.freshful.ro/media/cache/freshful_large/1a/57/173c9395109a34a80e9ff72da6a1.jpg"},"extralarge":{"default":"https://cdn.freshful.ro/media/cache/sylius_shop_product_original/1a/57/173c9395109a34a80e9ff72da6a1.jpg"}},"label":null,"tags":[{"type":"NoAddedSugar","text":"Fara zahar adaugat","icon":"https://cdn.freshful.ro/assets/product_tags/fara_zahar_adaugat.svg","iconPng":"https://cdn.freshful.ro/assets/product_tags/fara_zahar_adaugat.png","backgroundColor":"#F8EDF7","textColor":"#C05EBC"},{"type":"Eco","text":"Eco","icon":"https://cdn.freshful.ro/assets/product_tags/eco.svg","iconPng":"https://cdn.freshful.ro/assets/product_tags/eco.png","backgroundColor":"#EFFBE4","textColor":"#66BB1B"}],"isAvailable":true,"maxAvailableQuantity":100,"maxAllowedQuantity":100,"breadcrumbs":[{"code":"12","name":"Mama & copilul","slug":"12-mama-si-copilul"},{"code":"1201","name":"Alimente bebe","slug":"1201-alimente-bebelusi"},{"code":"120105","name":"Meniuri bebe","slug":"120105-mancare-bebe-meniuri"},{"code":"100141118","name":"Biscuiți eco, fără zahăr pentru copii, cu banane, +6 luni 120g","slug":"100141118-biskids-biscuiti-eco-fara-zahar-pentru-copii-cu-banane-6-luni-120g"}],"activePromotion":null,"saveMe":null,"labels":[],"geniusPrice":null,"geniusUnitPricePerLabel":null,"banner":null,"discountLabel":null,"geniusDiscountLabel":null,"badge":null},{"code":"100123461","variantCode":"100123461","name":"Sticksuri eco din porumb cu legume, 7+ luni, 15g","slug":"100123461-organix-sticksuri-eco-din-porumb-cu-legume-7-luni-15g","unitPriceLabel":"10,06 Lei/buc","brand":"Organix","brandCode":"2184","brandFilterCode":"organix-b2189","sku":"100123461","price":10.06,"originalPrice":null,"currencyCode":"RON","currency":"Lei","image":{"thumbnail":{"default":"https://cdn.freshful.ro/media/cache/sylius_shop_product_thumbnail/84/64/89e854798c887ef2d2cc3377e2ff.jpg"},"large":{"default":"https://cdn.freshful.ro/media/cache/freshful_large/84/64/89e854798c887ef2d2cc3377e2ff.jpg"},"extralarge":{"default":"https://cdn.freshful.ro/media/cache/sylius_shop_product_original/84/64/89e854798c887ef2d2cc3377e2ff.jpg"}},"label":null,"tags":[{"type":"Eco","text":"Eco","icon":"https://cdn.freshful.ro/assets/product_tags/eco.svg","iconPng":"https://cdn.freshful.ro/assets/product_tags/eco.png","backgroundColor":"#EFFBE4","textColor":"#66BB1B"},{"type":"saltFree","text":"Fara sare","icon":"https://cdn.freshful.ro/assets/product_tags/salt_free.svg","iconPng":"https://cdn.freshful.ro/assets/product_tags/salt_free.png","backgroundColor":"#E9F6F1","textColor":"#46AB86"},{"type":"vegan","text":"Vegan","icon":"https://cdn.freshful.ro/assets/product_tags/vegan.svg","iconPng":"https://cdn.freshful.ro/assets/product_tags/vegan.png","backgroundColor":"#ECF9F8","textColor":"#33A39C"}],"isAvailable":true,"maxAvailableQuantity":100,"maxAllowedQuantity":100,"breadcrumbs":[{"code":"12","name":"Mama & copilul","slug":"12-mama-si-copilul"},{"code":"1201","name":"Alimente bebe","slug":"1201-alimente-bebelusi"},{"code":"120105","name":"Meniuri bebe","slug":"120105-mancare-bebe-meniuri"},{"code":"100123461","name":"Sticksuri eco din porumb cu legume, 7+ luni, 15g","slug":"100123461-organix-sticksuri-eco-din-porumb-cu-legume-7-luni-15g"}],"activePromotion":null,"saveMe":null,"labels":[],"geniusPrice":null,"geniusUnitPricePerLabel":null,"banner":null,"discountLabel":null,"geniusDiscountLabel":null,"badge":null},{"code":"100141117","variantCode":"100141117","name":"Biscuiți eco, fără zahăr pentru copii, +6 luni 120g","slug":"100141117-biskids-biscuiti-eco-fara-zahar-pentru-copii-6-luni-120g","unitPriceLabel":"152,42 Lei/kg","brand":"Biskids","brandCode":"2705","brandFilterCode":"biskids-b2711","sku":"100141117","price":18.29,"originalPrice":null,"currencyCode":"RON","currency":"Lei","image":{"thumbnail":{"default":"https://cdn.freshful.ro/media/cache/sylius_shop_product_thumbnail/ae/ec/50e42322271206240647d97f9a06.jpg"},"large":{"default":"https://cdn.freshful.ro/media/cache/freshful_large/ae/ec/50e42322271206240647d97f9a06.jpg"},"extralarge":{"default":"https://cdn.freshful.ro/media/cache/sylius_shop_product_original/ae/ec/50e42322271206240647d97f9a06.jpg"}},"label":null,"tags":[{"type":"NoAddedSugar","text":"Fara zahar adaugat","icon":"https://cdn.freshful.ro/assets/product_tags/fara_zahar_adaugat.svg","iconPng":"https://cdn.freshful.ro/assets/product_tags/fara_zahar_adaugat.png","backgroundColor":"#F8EDF7","textColor":"#C05EBC"},{"type":"Eco","text":"Eco","icon":"https://cdn.freshful.ro/assets/product_tags/eco.svg","iconPng":"https://cdn.freshful.ro/assets/product_tags/eco.png","backgroundColor":"#EFFBE4","textColor":"#66BB1B"}],"isAvailable":true,"maxAvailableQuantity":79,"maxAllowedQuantity":100,"breadcrumbs":[{"code":"12","name":"Mama & copilul","slug":"12-mama-si-copilul"},{"code":"1201","name":"Alimente bebe","slug":"1201-alimente-bebelusi"},{"code":"120105","name":"Meniuri bebe","slug":"120105-mancare-bebe-meniuri"},{"code":"100141117","name":"Biscuiți eco, fără zahăr pentru copii, +6 luni 120g","slug":"100141117-biskids-biscuiti-eco-fara-zahar-pentru-copii-6-luni-120g"}],"activePromotion":null,"saveMe":null,"labels":[],"geniusPrice":null,"geniusUnitPricePerLabel":null,"banner":null,"discountLabel":null,"geniusDiscountLabel":null,"badge":null}],"filters":{"countSelected":0,"items":[{"code":"promotion","name":"Promoții","countSelected":0,"values":[{"code":"oferte-bacanie-bauturi-21feb-8mar23","name":"Cămara cu băuturi și bunătăți","isSelected":false,"count":6}]},{"code":"brand","name":"Brand","countSelected":0,"values":[{"code":"alce-nero-b2016","name":"Alce Nero","isSelected":false,"count":1},{"code":"aptamil-b1013","name":"Aptamil","isSelected":false,"count":16},{"code":"biskids-b2711","name":"Biskids","isSelected":false,"count":4},{"code":"bob-snail-b132","name":"Bob Snail","isSelected":false,"count":2},{"code":"cuore-di-frutta-b2525","name":"Cuore di Frutta","isSelected":false,"count":1},{"code":"ella-s-kitchen-b1130","name":"Ella's Kitchen","isSelected":false,"count":17},{"code":"gerber-b2728","name":"Gerber","isSelected":false,"count":11},{"code":"hero-b2190","name":"Hero","isSelected":false,"count":16},{"code":"hipp-b849","name":"HiPP","isSelected":false,"count":90},{"code":"humana-b2532","name":"Humana","isSelected":false,"count":8},{"code":"little-steps-b695","name":"Little Steps","isSelected":false,"count":2},{"code":"milumil-b950","name":"Milumil","isSelected":false,"count":10},{"code":"milupa-b951","name":"Milupa","isSelected":false,"count":12},{"code":"nan-b696","name":"Nan","isSelected":false,"count":14},{"code":"nestle-b698","name":"Nestlé","isSelected":false,"count":21},{"code":"nipiol-b1135","name":"Nipiol","isSelected":false,"count":1},{"code":"optifibre-b697","name":"Optifibre","isSelected":false,"count":1},{"code":"organix-b2189","name":"Organix","isSelected":false,"count":46},{"code":"plasmon-b1134","name":"Plasmon","isSelected":false,"count":19},{"code":"smileat-b867","name":"Smileat","isSelected":false,"count":21},{"code":"yogolino-b700","name":"Yogolino","isSelected":false,"count":6}]},{"code":"diet_lifestyle","name":"Dietă și lifestyle","countSelected":0,"values":[{"code":"bio-a26","name":"Bio","isSelected":false,"count":18},{"code":"eco-a83","name":"Eco","isSelected":false,"count":174},{"code":"fara-conservanti-a37","name":"Fara conservanti","isSelected":false,"count":54},{"code":"fara-gluten-a16","name":"Fara gluten","isSelected":false,"count":78},{"code":"fara-lactoza-a38","name":"Fara lactoza","isSelected":false,"count":8},{"code":"fara-sare-a52","name":"Fara sare","isSelected":false,"count":21},{"code":"fara-zahar-adaugat-a29","name":"Fara zahar adaugat","isSelected":false,"count":109},{"code":"natural-a27","name":"Natural","isSelected":false,"count":8},{"code":"vegan-a24","name":"Vegan","isSelected":false,"count":19},{"code":"vegetarian-a28","name":"Vegetarian","isSelected":false,"count":17}]}]},"orderBy":[{"field":"price","direction":"asc","name":"Preț crescător","isSelected":false},{"field":"price","direction":"desc","name":"Preț descrescător","isSelected":false},{"field":"popularity","direction":"desc","name":"Cele mai populare","isSelected":true},{"field":"category","direction":"asc","name":"Categorie","isSelected":false}],"metaTitle":"Alimente bebe - Gamă variată","metaDescription":"Vrei Alimente bebe? Alege dintr-o gamă variată. Comanzi simplu și ai livrare rapidă, calitate și prospețime. Hai pe Freshful.ro","metaKeywords":null,"banners":[]}}