{"type":"subcategory","payload":{"analyticsListId":"category_120104-mancare-bebe-lichide","analyticsListName":"Category - Lichide","name":"Lichide","slug":"120104-mancare-bebe-lichide","image":null,"breadcrumbs":[{"code":"12","name":"Mama & copilul","slug":"12-mama-si-copilul"},{"code":"1201","name":"Alimente bebe","slug":"1201-alimente-bebelusi"},{"code":"120104","name":"Lichide","slug":"120104-mancare-bebe-lichide"}],"slots":[],"page":1,"limit":10,"pages":2,"count":13,"siblings":[{"name":"Alimente bebe","slug":"1201-alimente-bebelusi","selected":true},{"name":"Igienă bebe","slug":"1202-igiena-bebe","selected":false},{"name":"Puericultură","slug":"1203-puericultura","selected":false}],"children":[{"name":"Toate produsele","slug":"1201-alimente-bebelusi","selected":false},{"name":"Formule de lapte","slug":"120101-formule-de-lapte","selected":false},{"name":"Lapte de creștere","slug":"120102-lapte-de-crestere","selected":false},{"name":"Cereale bebe","slug":"120103-mancare-bebe-cereale","selected":false},{"name":"Lichide","slug":"120104-mancare-bebe-lichide","selected":true},{"name":"Meniuri bebe","slug":"120105-mancare-bebe-meniuri","selected":false}],"products":[{"code":"100082142","variantCode":"100082142","name":"Ceai ecologic pentru ajutarea lactației 20 plicuri","slug":"100082142-hipp-ceai-ecologic-pentru-ajutarea-lactatiei-20-plicuri","unitPriceLabel":"636,33 Lei/kg","brand":"HiPP","brandCode":"848","brandFilterCode":"hipp-b849","sku":"100082142","price":19.09,"originalPrice":null,"currencyCode":"RON","currency":"Lei","image":{"thumbnail":{"default":"https://cdn.freshful.ro/media/cache/sylius_shop_product_thumbnail/aa/41/21e9e8c204c01097726babddabe5.jpg"},"large":{"default":"https://cdn.freshful.ro/media/cache/freshful_large/aa/41/21e9e8c204c01097726babddabe5.jpg"},"extralarge":{"default":"https://cdn.freshful.ro/media/cache/sylius_shop_product_original/aa/41/21e9e8c204c01097726babddabe5.jpg"}},"label":null,"tags":[{"type":"Eco","text":"Eco","icon":"https://cdn.freshful.ro/assets/product_tags/eco.svg","iconPng":"https://cdn.freshful.ro/assets/product_tags/eco.png","backgroundColor":"#EFFBE4","textColor":"#66BB1B"},{"type":"NoAddedSugar","text":"Fara zahar adaugat","icon":"https://cdn.freshful.ro/assets/product_tags/fara_zahar_adaugat.svg","iconPng":"https://cdn.freshful.ro/assets/product_tags/fara_zahar_adaugat.png","backgroundColor":"#F8EDF7","textColor":"#C05EBC"}],"isAvailable":true,"maxAvailableQuantity":22,"maxAllowedQuantity":100,"breadcrumbs":[{"code":"12","name":"Mama & copilul","slug":"12-mama-si-copilul"},{"code":"1201","name":"Alimente bebe","slug":"1201-alimente-bebelusi"},{"code":"120104","name":"Lichide","slug":"120104-mancare-bebe-lichide"},{"code":"100082142","name":"Ceai ecologic pentru ajutarea lactației 20 plicuri","slug":"100082142-hipp-ceai-ecologic-pentru-ajutarea-lactatiei-20-plicuri"}],"activePromotion":null,"saveMe":null,"labels":[],"geniusPrice":null,"geniusUnitPricePerLabel":null,"banner":null,"discountLabel":null,"geniusDiscountLabel":null,"badge":null},{"code":"100082178","variantCode":"100082178","name":"Suc  eco de mere cu banană și ananas, +4 luni, 200ml","slug":"100082178-hipp-suc-eco-de-mere-cu-banana-si-ananas-4-luni-200ml","unitPriceLabel":"28,97 Lei/kg","brand":"HiPP","brandCode":"848","brandFilterCode":"hipp-b849","sku":"100082178","price":9.85,"originalPrice":null,"currencyCode":"RON","currency":"Lei","image":{"thumbnail":{"default":"https://cdn.freshful.ro/media/cache/sylius_shop_product_thumbnail/ea/7f/442460b60c11c5d74dfcc763db59.jpg"},"large":{"default":"https://cdn.freshful.ro/media/cache/freshful_large/ea/7f/442460b60c11c5d74dfcc763db59.jpg"},"extralarge":{"default":"https://cdn.freshful.ro/media/cache/sylius_shop_product_original/ea/7f/442460b60c11c5d74dfcc763db59.jpg"}},"label":null,"tags":[{"type":"Eco","text":"Eco","icon":"https://cdn.freshful.ro/assets/product_tags/eco.svg","iconPng":"https://cdn.freshful.ro/assets/product_tags/eco.png","backgroundColor":"#EFFBE4","textColor":"#66BB1B"}],"isAvailable":true,"maxAvailableQuantity":7,"maxAllowedQuantity":100,"breadcrumbs":[{"code":"12","name":"Mama & copilul","slug":"12-mama-si-copilul"},{"code":"1201","name":"Alimente bebe","slug":"1201-alimente-bebelusi"},{"code":"120104","name":"Lichide","slug":"120104-mancare-bebe-lichide"},{"code":"100082178","name":"Suc  eco de mere cu banană și ananas, +4 luni, 200ml","slug":"100082178-hipp-suc-eco-de-mere-cu-banana-si-ananas-4-luni-200ml"}],"activePromotion":null,"saveMe":null,"labels":[],"geniusPrice":null,"geniusUnitPricePerLabel":null,"banner":null,"discountLabel":null,"geniusDiscountLabel":null,"badge":null},{"code":"100082189","variantCode":"9062300132141","name":"Ceai ecologic de fructe 40g","slug":"100082189-hipp-ceai-ecologic-de-fructe-40g","unitPriceLabel":"468,75 Lei/kg","brand":"HiPP","brandCode":"848","brandFilterCode":"hipp-b849","sku":"100082189","price":18.75,"originalPrice":null,"currencyCode":"RON","currency":"Lei","image":{"thumbnail":{"default":"https://cdn.freshful.ro/media/cache/sylius_shop_product_thumbnail/7f/b4/6b80c2e65874762a1f255859e5ec.jpg"},"large":{"default":"https://cdn.freshful.ro/media/cache/freshful_large/7f/b4/6b80c2e65874762a1f255859e5ec.jpg"},"extralarge":{"default":"https://cdn.freshful.ro/media/cache/sylius_shop_product_original/7f/b4/6b80c2e65874762a1f255859e5ec.jpg"}},"label":null,"tags":[{"type":"Eco","text":"Eco","icon":"https://cdn.freshful.ro/assets/product_tags/eco.svg","iconPng":"https://cdn.freshful.ro/assets/product_tags/eco.png","backgroundColor":"#EFFBE4","textColor":"#66BB1B"},{"type":"NoAddedSugar","text":"Fara zahar adaugat","icon":"https://cdn.freshful.ro/assets/product_tags/fara_zahar_adaugat.svg","iconPng":"https://cdn.freshful.ro/assets/product_tags/fara_zahar_adaugat.png","backgroundColor":"#F8EDF7","textColor":"#C05EBC"},{"type":"NoGluten","text":"Fara gluten","icon":"https://cdn.freshful.ro/assets/product_tags/fara_gluten.svg","iconPng":"https://cdn.freshful.ro/assets/product_tags/fara_gluten.png","backgroundColor":"#FFF2E5","textColor":"#F07900"},{"type":"NoPreservatives","text":"Fara conservanti","icon":"https://cdn.freshful.ro/assets/product_tags/fara_conservanti.svg","iconPng":"https://cdn.freshful.ro/assets/product_tags/fara_conservanti.png","backgroundColor":"#F0F2FF","textColor":"#7889DD"}],"isAvailable":true,"maxAvailableQuantity":10,"maxAllowedQuantity":100,"breadcrumbs":[{"code":"12","name":"Mama & copilul","slug":"12-mama-si-copilul"},{"code":"1201","name":"Alimente bebe","slug":"1201-alimente-bebelusi"},{"code":"120104","name":"Lichide","slug":"120104-mancare-bebe-lichide"},{"code":"100082189","name":"Ceai ecologic de fructe 40g","slug":"100082189-hipp-ceai-ecologic-de-fructe-40g"}],"activePromotion":null,"saveMe":null,"labels":[],"geniusPrice":null,"geniusUnitPricePerLabel":null,"banner":null,"discountLabel":null,"geniusDiscountLabel":null,"badge":null},{"code":"100082143","variantCode":"9062300133360","name":"Ceai de plante pentru ajutarea lactației 200g","slug":"100082143-hipp-ceai-de-plante-pentru-ajutarea-lactatiei-200g","unitPriceLabel":"169,45 Lei/kg","brand":"HiPP","brandCode":"848","brandFilterCode":"hipp-b849","sku":"100082143","price":33.89,"originalPrice":null,"currencyCode":"RON","currency":"Lei","image":{"thumbnail":{"default":"https://cdn.freshful.ro/media/cache/sylius_shop_product_thumbnail/01/bf/f3226d606eb24782a86eba31e105.jpg"},"large":{"default":"https://cdn.freshful.ro/media/cache/freshful_large/01/bf/f3226d606eb24782a86eba31e105.jpg"},"extralarge":{"default":"https://cdn.freshful.ro/media/cache/sylius_shop_product_original/01/bf/f3226d606eb24782a86eba31e105.jpg"}},"label":null,"tags":[],"isAvailable":true,"maxAvailableQuantity":10,"maxAllowedQuantity":100,"breadcrumbs":[{"code":"12","name":"Mama & copilul","slug":"12-mama-si-copilul"},{"code":"1201","name":"Alimente bebe","slug":"1201-alimente-bebelusi"},{"code":"120104","name":"Lichide","slug":"120104-mancare-bebe-lichide"},{"code":"100082143","name":"Ceai de plante pentru ajutarea lactației 200g","slug":"100082143-hipp-ceai-de-plante-pentru-ajutarea-lactatiei-200g"}],"activePromotion":null,"saveMe":null,"labels":[],"geniusPrice":null,"geniusUnitPricePerLabel":null,"banner":null,"discountLabel":null,"geniusDiscountLabel":null,"badge":null},{"code":"100082174","variantCode":"100082174","name":"Suc eco de pere, +4 luni, 200ml","slug":"100082174-hipp-suc-eco-de-pere-4-luni-200ml","unitPriceLabel":"51,5 Lei/kg","brand":"HiPP","brandCode":"848","brandFilterCode":"hipp-b849","sku":"100082174","price":10.3,"originalPrice":null,"currencyCode":"RON","currency":"Lei","image":{"thumbnail":{"default":"https://cdn.freshful.ro/media/cache/sylius_shop_product_thumbnail/bf/a6/f4315f57ed0bf49372b8fa24caca.jpg"},"large":{"default":"https://cdn.freshful.ro/media/cache/freshful_large/bf/a6/f4315f57ed0bf49372b8fa24caca.jpg"},"extralarge":{"default":"https://cdn.freshful.ro/media/cache/sylius_shop_product_original/bf/a6/f4315f57ed0bf49372b8fa24caca.jpg"}},"label":null,"tags":[{"type":"Eco","text":"Eco","icon":"https://cdn.freshful.ro/assets/product_tags/eco.svg","iconPng":"https://cdn.freshful.ro/assets/product_tags/eco.png","backgroundColor":"#EFFBE4","textColor":"#66BB1B"},{"type":"NoPreservatives","text":"Fara conservanti","icon":"https://cdn.freshful.ro/assets/product_tags/fara_conservanti.svg","iconPng":"https://cdn.freshful.ro/assets/product_tags/fara_conservanti.png","backgroundColor":"#F0F2FF","textColor":"#7889DD"},{"type":"NoGluten","text":"Fara gluten","icon":"https://cdn.freshful.ro/assets/product_tags/fara_gluten.svg","iconPng":"https://cdn.freshful.ro/assets/product_tags/fara_gluten.png","backgroundColor":"#FFF2E5","textColor":"#F07900"}],"isAvailable":true,"maxAvailableQuantity":3,"maxAllowedQuantity":100,"breadcrumbs":[{"code":"12","name":"Mama & copilul","slug":"12-mama-si-copilul"},{"code":"1201","name":"Alimente bebe","slug":"1201-alimente-bebelusi"},{"code":"120104","name":"Lichide","slug":"120104-mancare-bebe-lichide"},{"code":"100082174","name":"Suc eco de pere, +4 luni, 200ml","slug":"100082174-hipp-suc-eco-de-pere-4-luni-200ml"}],"activePromotion":null,"saveMe":null,"labels":[],"geniusPrice":null,"geniusUnitPricePerLabel":null,"banner":null,"discountLabel":null,"geniusDiscountLabel":null,"badge":null},{"code":"100082175","variantCode":"100082175","name":"Suc de fructe roșii eco, +4 luni, 200ml","slug":"100082175-hipp-suc-de-fructe-rosii-eco-4-luni-200ml","unitPriceLabel":"43,25 Lei/kg","brand":"HiPP","brandCode":"848","brandFilterCode":"hipp-b849","sku":"100082175","price":8.65,"originalPrice":null,"currencyCode":"RON","currency":"Lei","image":{"thumbnail":{"default":"https://cdn.freshful.ro/media/cache/sylius_shop_product_thumbnail/89/d3/5c82e52d273ba5d6475b952f89ec.jpg"},"large":{"default":"https://cdn.freshful.ro/media/cache/freshful_large/89/d3/5c82e52d273ba5d6475b952f89ec.jpg"},"extralarge":{"default":"https://cdn.freshful.ro/media/cache/sylius_shop_product_original/89/d3/5c82e52d273ba5d6475b952f89ec.jpg"}},"label":null,"tags":[{"type":"Eco","text":"Eco","icon":"https://cdn.freshful.ro/assets/product_tags/eco.svg","iconPng":"https://cdn.freshful.ro/assets/product_tags/eco.png","backgroundColor":"#EFFBE4","textColor":"#66BB1B"}],"isAvailable":true,"maxAvailableQuantity":10,"maxAllowedQuantity":100,"breadcrumbs":[{"code":"12","name":"Mama & copilul","slug":"12-mama-si-copilul"},{"code":"1201","name":"Alimente bebe","slug":"1201-alimente-bebelusi"},{"code":"120104","name":"Lichide","slug":"120104-mancare-bebe-lichide"},{"code":"100082175","name":"Suc de fructe roșii eco, +4 luni, 200ml","slug":"100082175-hipp-suc-de-fructe-rosii-eco-4-luni-200ml"}],"activePromotion":null,"saveMe":null,"labels":[],"geniusPrice":null,"geniusUnitPricePerLabel":null,"banner":null,"discountLabel":null,"geniusDiscountLabel":null,"badge":null},{"code":"100082177","variantCode":"100082177","name":"Nectar eco de prune, +4 luni, 200ml","slug":"100082177-hipp-nectar-eco-de-prune-4-luni-200ml","unitPriceLabel":"51,5 Lei/kg","brand":"HiPP","brandCode":"848","brandFilterCode":"hipp-b849","sku":"100082177","price":10.3,"originalPrice":null,"currencyCode":"RON","currency":"Lei","image":{"thumbnail":{"default":"https://cdn.freshful.ro/media/cache/sylius_shop_product_thumbnail/9b/51/a6b678ec2a7d01dfe8f88b3715f3.jpg"},"large":{"default":"https://cdn.freshful.ro/media/cache/freshful_large/9b/51/a6b678ec2a7d01dfe8f88b3715f3.jpg"},"extralarge":{"default":"https://cdn.freshful.ro/media/cache/sylius_shop_product_original/9b/51/a6b678ec2a7d01dfe8f88b3715f3.jpg"}},"label":null,"tags":[{"type":"Eco","text":"Eco","icon":"https://cdn.freshful.ro/assets/product_tags/eco.svg","iconPng":"https://cdn.freshful.ro/assets/product_tags/eco.png","backgroundColor":"#EFFBE4","textColor":"#66BB1B"},{"type":"NoGluten","text":"Fara gluten","icon":"https://cdn.freshful.ro/assets/product_tags/fara_gluten.svg","iconPng":"https://cdn.freshful.ro/assets/product_tags/fara_gluten.png","backgroundColor":"#FFF2E5","textColor":"#F07900"}],"isAvailable":true,"maxAvailableQuantity":1,"maxAllowedQuantity":100,"breadcrumbs":[{"code":"12","name":"Mama & copilul","slug":"12-mama-si-copilul"},{"code":"1201","name":"Alimente bebe","slug":"1201-alimente-bebelusi"},{"code":"120104","name":"Lichide","slug":"120104-mancare-bebe-lichide"},{"code":"100082177","name":"Nectar eco de prune, +4 luni, 200ml","slug":"100082177-hipp-nectar-eco-de-prune-4-luni-200ml"}],"activePromotion":null,"saveMe":null,"labels":[],"geniusPrice":null,"geniusUnitPricePerLabel":null,"banner":null,"discountLabel":null,"geniusDiscountLabel":null,"badge":null},{"code":"100082197","variantCode":"9062300112808","name":"Suc de mere ecologic, +4 luni 0.2l","slug":"100082197-hipp-suc-de-mere-ecologic-4-luni-0-2l","unitPriceLabel":"37,95 Lei/kg","brand":"HiPP","brandCode":"848","brandFilterCode":"hipp-b849","sku":"100082197","price":7.59,"originalPrice":null,"currencyCode":"RON","currency":"Lei","image":{"thumbnail":{"default":"https://cdn.freshful.ro/media/cache/sylius_shop_product_thumbnail/a8/48/083921d0a9c8322456c3e8704b09.jpg"},"large":{"default":"https://cdn.freshful.ro/media/cache/freshful_large/a8/48/083921d0a9c8322456c3e8704b09.jpg"},"extralarge":{"default":"https://cdn.freshful.ro/media/cache/sylius_shop_product_original/a8/48/083921d0a9c8322456c3e8704b09.jpg"}},"label":null,"tags":[{"type":"Eco","text":"Eco","icon":"https://cdn.freshful.ro/assets/product_tags/eco.svg","iconPng":"https://cdn.freshful.ro/assets/product_tags/eco.png","backgroundColor":"#EFFBE4","textColor":"#66BB1B"}],"isAvailable":true,"maxAvailableQuantity":11,"maxAllowedQuantity":100,"breadcrumbs":[{"code":"12","name":"Mama & copilul","slug":"12-mama-si-copilul"},{"code":"1201","name":"Alimente bebe","slug":"1201-alimente-bebelusi"},{"code":"120104","name":"Lichide","slug":"120104-mancare-bebe-lichide"},{"code":"100082197","name":"Suc de mere ecologic, +4 luni 0.2l","slug":"100082197-hipp-suc-de-mere-ecologic-4-luni-0-2l"}],"activePromotion":null,"saveMe":null,"labels":[],"geniusPrice":null,"geniusUnitPricePerLabel":null,"banner":null,"discountLabel":null,"geniusDiscountLabel":null,"badge":null},{"code":"100082187","variantCode":"100082187","name":"Soluție rehidratare orală măr, +6 luni, 200ml","slug":"100082187-hipp-solutie-rehidratare-orala-mar-6-luni-200ml","unitPriceLabel":"58,85 Lei/kg","brand":"HiPP","brandCode":"848","brandFilterCode":"hipp-b849","sku":"100082187","price":11.77,"originalPrice":null,"currencyCode":"RON","currency":"Lei","image":{"thumbnail":{"default":"https://cdn.freshful.ro/media/cache/sylius_shop_product_thumbnail/c3/60/f00e15b63fc9132614c30cf00e9f.jpg"},"large":{"default":"https://cdn.freshful.ro/media/cache/freshful_large/c3/60/f00e15b63fc9132614c30cf00e9f.jpg"},"extralarge":{"default":"https://cdn.freshful.ro/media/cache/sylius_shop_product_original/c3/60/f00e15b63fc9132614c30cf00e9f.jpg"}},"label":null,"tags":[],"isAvailable":true,"maxAvailableQuantity":3,"maxAllowedQuantity":100,"breadcrumbs":[{"code":"12","name":"Mama & copilul","slug":"12-mama-si-copilul"},{"code":"1201","name":"Alimente bebe","slug":"1201-alimente-bebelusi"},{"code":"120104","name":"Lichide","slug":"120104-mancare-bebe-lichide"},{"code":"100082187","name":"Soluție rehidratare orală măr, +6 luni, 200ml","slug":"100082187-hipp-solutie-rehidratare-orala-mar-6-luni-200ml"}],"activePromotion":null,"saveMe":null,"labels":[],"geniusPrice":null,"geniusUnitPricePerLabel":null,"banner":null,"discountLabel":null,"geniusDiscountLabel":null,"badge":null},{"code":"100082188","variantCode":"9062300132127","name":"Ceai ecologic de fenicul 30g","slug":"100082188-hipp-ceai-ecologic-de-fenicul-30g","unitPriceLabel":"466,33 Lei/kg","brand":"HiPP","brandCode":"848","brandFilterCode":"hipp-b849","sku":"100082188","price":13.99,"originalPrice":null,"currencyCode":"RON","currency":"Lei","image":{"thumbnail":{"default":"https://cdn.freshful.ro/media/cache/sylius_shop_product_thumbnail/ff/1d/d0357f58c662869400e9d75b6ca8.jpg"},"large":{"default":"https://cdn.freshful.ro/media/cache/freshful_large/ff/1d/d0357f58c662869400e9d75b6ca8.jpg"},"extralarge":{"default":"https://cdn.freshful.ro/media/cache/sylius_shop_product_original/ff/1d/d0357f58c662869400e9d75b6ca8.jpg"}},"label":null,"tags":[{"type":"NoAddedSugar","text":"Fara zahar adaugat","icon":"https://cdn.freshful.ro/assets/product_tags/fara_zahar_adaugat.svg","iconPng":"https://cdn.freshful.ro/assets/product_tags/fara_zahar_adaugat.png","backgroundColor":"#F8EDF7","textColor":"#C05EBC"},{"type":"Eco","text":"Eco","icon":"https://cdn.freshful.ro/assets/product_tags/eco.svg","iconPng":"https://cdn.freshful.ro/assets/product_tags/eco.png","backgroundColor":"#EFFBE4","textColor":"#66BB1B"}],"isAvailable":true,"maxAvailableQuantity":7,"maxAllowedQuantity":100,"breadcrumbs":[{"code":"12","name":"Mama & copilul","slug":"12-mama-si-copilul"},{"code":"1201","name":"Alimente bebe","slug":"1201-alimente-bebelusi"},{"code":"120104","name":"Lichide","slug":"120104-mancare-bebe-lichide"},{"code":"100082188","name":"Ceai ecologic de fenicul 30g","slug":"100082188-hipp-ceai-ecologic-de-fenicul-30g"}],"activePromotion":null,"saveMe":null,"labels":[],"geniusPrice":null,"geniusUnitPricePerLabel":null,"banner":null,"discountLabel":null,"geniusDiscountLabel":null,"badge":null}],"filters":{"countSelected":0,"items":[{"code":"brand","name":"Brand","countSelected":0,"values":[{"code":"hipp-b849","name":"HiPP","isSelected":false,"count":12},{"code":"smileat-b867","name":"Smileat","isSelected":false,"count":1}]},{"code":"diet_lifestyle","name":"Dietă și lifestyle","countSelected":0,"values":[{"code":"eco-a83","name":"Eco","isSelected":false,"count":10},{"code":"fara-conservanti-a37","name":"Fara conservanti","isSelected":false,"count":2},{"code":"fara-gluten-a16","name":"Fara gluten","isSelected":false,"count":5},{"code":"fara-lactoza-a38","name":"Fara lactoza","isSelected":false,"count":1},{"code":"fara-zahar-adaugat-a29","name":"Fara zahar adaugat","isSelected":false,"count":3}]}]},"orderBy":[{"field":"price","direction":"asc","name":"Preț crescător","isSelected":false},{"field":"price","direction":"desc","name":"Preț descrescător","isSelected":false},{"field":"popularity","direction":"desc","name":"Cele mai populare","isSelected":true},{"field":"category","direction":"asc","name":"Categorie","isSelected":false}],"metaTitle":"Lichide - Gamă variată","metaDescription":"Vrei Lichide? Alege dintr-o gamă variată. Comanzi simplu și ai livrare rapidă, calitate și prospețime. Hai pe Freshful.ro","metaKeywords":null,"banners":[]}}