{"type":"subcategory","payload":{"analyticsListId":"category_120206-creme-ulei-si-lotiuni","analyticsListName":"Category - Creme, uleiuri și loțiuni","name":"Creme, uleiuri și loțiuni","slug":"120206-creme-ulei-si-lotiuni","image":null,"breadcrumbs":[{"code":"12","name":"Mama & copilul","slug":"12-mama-si-copilul"},{"code":"1202","name":"Igienă bebe","slug":"1202-igiena-bebe"},{"code":"120206","name":"Creme, uleiuri și loțiuni","slug":"120206-creme-ulei-si-lotiuni"}],"slots":[],"page":1,"limit":10,"pages":3,"count":23,"siblings":[{"name":"Alimente bebe","slug":"1201-alimente-bebelusi","selected":false},{"name":"Igienă bebe","slug":"1202-igiena-bebe","selected":true},{"name":"Puericultură","slug":"1203-puericultura","selected":false}],"children":[{"name":"Toate produsele","slug":"1202-igiena-bebe","selected":false},{"name":"Scutece","slug":"120201-scutece","selected":false},{"name":"Șervețele umede","slug":"120202-servetele-umede","selected":false},{"name":"Detergent bebe","slug":"120203-detergent-bebelusi","selected":false},{"name":"Șampon, săpunuri și geluri de duș","slug":"120205-sampon-sapunuri-si-geluri-de-dus","selected":false},{"name":"Creme, uleiuri și loțiuni","slug":"120206-creme-ulei-si-lotiuni","selected":true},{"name":"Pudră de talc","slug":"120207-talc","selected":false},{"name":"Bețișoare, dischete și ser fiziologic","slug":"120208-betisoare-dischete-si-ser-fiziologic","selected":false}],"products":[{"code":"100114728","variantCode":"100114728","name":"Loțiune bio de corp pentru copii 100ml","slug":"100114728-bambo-nature-lotiune-bio-de-corp-pentru-copii-100ml","unitPriceLabel":"345 Lei/l","brand":"Bambo Nature","brandCode":"1858","brandFilterCode":"bambo-nature-b1862","sku":"100114728","price":34.5,"originalPrice":null,"currencyCode":"RON","currency":"Lei","image":{"thumbnail":{"default":"https://cdn.freshful.ro/media/cache/sylius_shop_product_thumbnail/08/ef/d6e508d4c8afd7a2ce7151cde6e6.jpg"},"large":{"default":"https://cdn.freshful.ro/media/cache/freshful_large/08/ef/d6e508d4c8afd7a2ce7151cde6e6.jpg"},"extralarge":{"default":"https://cdn.freshful.ro/media/cache/sylius_shop_product_original/08/ef/d6e508d4c8afd7a2ce7151cde6e6.jpg"}},"label":null,"tags":[{"type":"vegan","text":"Vegan","icon":"https://cdn.freshful.ro/assets/product_tags/vegan.svg","iconPng":"https://cdn.freshful.ro/assets/product_tags/vegan.png","backgroundColor":"#ECF9F8","textColor":"#33A39C"},{"type":"bio","text":"Bio","icon":"https://cdn.freshful.ro/assets/product_tags/bio.svg","iconPng":"https://cdn.freshful.ro/assets/product_tags/bio.png","backgroundColor":"#ECF6E9","textColor":"#399225"}],"isAvailable":true,"maxAvailableQuantity":76,"maxAllowedQuantity":100,"breadcrumbs":[{"code":"12","name":"Mama & copilul","slug":"12-mama-si-copilul"},{"code":"1202","name":"Igienă bebe","slug":"1202-igiena-bebe"},{"code":"120206","name":"Creme, uleiuri și loțiuni","slug":"120206-creme-ulei-si-lotiuni"},{"code":"100114728","name":"Loțiune bio de corp pentru copii 100ml","slug":"100114728-bambo-nature-lotiune-bio-de-corp-pentru-copii-100ml"}],"activePromotion":null,"saveMe":null,"labels":[],"geniusPrice":null,"geniusUnitPricePerLabel":null,"banner":null,"discountLabel":null,"geniusDiscountLabel":null,"badge":null},{"code":"100085624","variantCode":"100085624","name":"Ulei Bedtime 300ml","slug":"100085624-johnsons-baby-ulei-bedtime-300ml","unitPriceLabel":"73 Lei/l","brand":"Johnson’s Baby","brandCode":"547","brandFilterCode":"johnson-s-baby-b548","sku":"100085624","price":21.9,"originalPrice":null,"currencyCode":"RON","currency":"Lei","image":{"thumbnail":{"default":"https://cdn.freshful.ro/media/cache/sylius_shop_product_thumbnail/da/28/910e5cd46ce688a63e0a6a236244.jpg"},"large":{"default":"https://cdn.freshful.ro/media/cache/freshful_large/da/28/910e5cd46ce688a63e0a6a236244.jpg"},"extralarge":{"default":"https://cdn.freshful.ro/media/cache/sylius_shop_product_original/da/28/910e5cd46ce688a63e0a6a236244.jpg"}},"label":null,"tags":[],"isAvailable":true,"maxAvailableQuantity":38,"maxAllowedQuantity":100,"breadcrumbs":[{"code":"12","name":"Mama & copilul","slug":"12-mama-si-copilul"},{"code":"1202","name":"Igienă bebe","slug":"1202-igiena-bebe"},{"code":"120206","name":"Creme, uleiuri și loțiuni","slug":"120206-creme-ulei-si-lotiuni"},{"code":"100085624","name":"Ulei Bedtime 300ml","slug":"100085624-johnsons-baby-ulei-bedtime-300ml"}],"activePromotion":null,"saveMe":null,"labels":[],"geniusPrice":null,"geniusUnitPricePerLabel":null,"banner":null,"discountLabel":null,"geniusDiscountLabel":null,"badge":null},{"code":"100114729","variantCode":"100114729","name":"Ulei de baie bio pentru copii 145ml","slug":"100114729-bambo-nature-ulei-de-baie-bio-pentru-copii-145ml","unitPriceLabel":"270,97 Lei/l","brand":"Bambo Nature","brandCode":"1858","brandFilterCode":"bambo-nature-b1862","sku":"100114729","price":39.29,"originalPrice":null,"currencyCode":"RON","currency":"Lei","image":{"thumbnail":{"default":"https://cdn.freshful.ro/media/cache/sylius_shop_product_thumbnail/cb/8b/e31f7e5ca6287519ff5d9a6ba99c.jpg"},"large":{"default":"https://cdn.freshful.ro/media/cache/freshful_large/cb/8b/e31f7e5ca6287519ff5d9a6ba99c.jpg"},"extralarge":{"default":"https://cdn.freshful.ro/media/cache/sylius_shop_product_original/cb/8b/e31f7e5ca6287519ff5d9a6ba99c.jpg"}},"label":null,"tags":[{"type":"vegan","text":"Vegan","icon":"https://cdn.freshful.ro/assets/product_tags/vegan.svg","iconPng":"https://cdn.freshful.ro/assets/product_tags/vegan.png","backgroundColor":"#ECF9F8","textColor":"#33A39C"},{"type":"bio","text":"Bio","icon":"https://cdn.freshful.ro/assets/product_tags/bio.svg","iconPng":"https://cdn.freshful.ro/assets/product_tags/bio.png","backgroundColor":"#ECF6E9","textColor":"#399225"}],"isAvailable":true,"maxAvailableQuantity":67,"maxAllowedQuantity":100,"breadcrumbs":[{"code":"12","name":"Mama & copilul","slug":"12-mama-si-copilul"},{"code":"1202","name":"Igienă bebe","slug":"1202-igiena-bebe"},{"code":"120206","name":"Creme, uleiuri și loțiuni","slug":"120206-creme-ulei-si-lotiuni"},{"code":"100114729","name":"Ulei de baie bio pentru copii 145ml","slug":"100114729-bambo-nature-ulei-de-baie-bio-pentru-copii-145ml"}],"activePromotion":null,"saveMe":null,"labels":[],"geniusPrice":null,"geniusUnitPricePerLabel":null,"banner":null,"discountLabel":null,"geniusDiscountLabel":null,"badge":null},{"code":"100085622","variantCode":"100085622","name":"Ulei pentru bebeluși 300ml","slug":"100085622-johnsons-baby-ulei-pentru-bebelusi-300ml","unitPriceLabel":"73 Lei/l","brand":"Johnson’s Baby","brandCode":"547","brandFilterCode":"johnson-s-baby-b548","sku":"100085622","price":21.9,"originalPrice":null,"currencyCode":"RON","currency":"Lei","image":{"thumbnail":{"default":"https://cdn.freshful.ro/media/cache/sylius_shop_product_thumbnail/53/b4/8e82f871623e02fa8527b168fd93.jpg"},"large":{"default":"https://cdn.freshful.ro/media/cache/freshful_large/53/b4/8e82f871623e02fa8527b168fd93.jpg"},"extralarge":{"default":"https://cdn.freshful.ro/media/cache/sylius_shop_product_original/53/b4/8e82f871623e02fa8527b168fd93.jpg"}},"label":null,"tags":[],"isAvailable":true,"maxAvailableQuantity":25,"maxAllowedQuantity":100,"breadcrumbs":[{"code":"12","name":"Mama & copilul","slug":"12-mama-si-copilul"},{"code":"1202","name":"Igienă bebe","slug":"1202-igiena-bebe"},{"code":"120206","name":"Creme, uleiuri și loțiuni","slug":"120206-creme-ulei-si-lotiuni"},{"code":"100085622","name":"Ulei pentru bebeluși 300ml","slug":"100085622-johnsons-baby-ulei-pentru-bebelusi-300ml"}],"activePromotion":null,"saveMe":null,"labels":[],"geniusPrice":null,"geniusUnitPricePerLabel":null,"banner":null,"discountLabel":null,"geniusDiscountLabel":null,"badge":null},{"code":"100102415","variantCode":"100102415","name":"Cremă hidratantă bebeluși pentru față și corp 100ml","slug":"100102415-gamarde-crema-hidratanta-bebelusi-pentru-fata-si-corp-100ml","unitPriceLabel":"699,8 Lei/l","brand":"GamARde","brandCode":"1100","brandFilterCode":"gamarde-b1101","sku":"100102415","price":69.98,"originalPrice":null,"currencyCode":"RON","currency":"Lei","image":{"thumbnail":{"default":"https://cdn.freshful.ro/media/cache/sylius_shop_product_thumbnail/82/92/2bdc8802f57bbe591607ec786db0.jpg"},"large":{"default":"https://cdn.freshful.ro/media/cache/freshful_large/82/92/2bdc8802f57bbe591607ec786db0.jpg"},"extralarge":{"default":"https://cdn.freshful.ro/media/cache/sylius_shop_product_original/82/92/2bdc8802f57bbe591607ec786db0.jpg"}},"label":null,"tags":[{"type":"bio","text":"Bio","icon":"https://cdn.freshful.ro/assets/product_tags/bio.svg","iconPng":"https://cdn.freshful.ro/assets/product_tags/bio.png","backgroundColor":"#ECF6E9","textColor":"#399225"},{"type":"Natural","text":"Natural","icon":"https://cdn.freshful.ro/assets/product_tags/natural.svg","iconPng":"https://cdn.freshful.ro/assets/product_tags/natural.png","backgroundColor":"#E9FCF2","textColor":"#18AF62"}],"isAvailable":true,"maxAvailableQuantity":10,"maxAllowedQuantity":100,"breadcrumbs":[{"code":"12","name":"Mama & copilul","slug":"12-mama-si-copilul"},{"code":"1202","name":"Igienă bebe","slug":"1202-igiena-bebe"},{"code":"120206","name":"Creme, uleiuri și loțiuni","slug":"120206-creme-ulei-si-lotiuni"},{"code":"100102415","name":"Cremă hidratantă bebeluși pentru față și corp 100ml","slug":"100102415-gamarde-crema-hidratanta-bebelusi-pentru-fata-si-corp-100ml"}],"activePromotion":null,"saveMe":null,"labels":[],"geniusPrice":null,"geniusUnitPricePerLabel":null,"banner":null,"discountLabel":null,"geniusDiscountLabel":null,"badge":null},{"code":"100093104","variantCode":"8003670743651","name":"Pastă de dinți căpșuni 1-5 ani, 50ml","slug":"100093104-chicco-pasta-de-dinti-capsuni-1-5-ani-50ml","unitPriceLabel":"527,8 Lei/l","brand":"Chicco","brandCode":"658","brandFilterCode":"chicco-b659","sku":"100093104","price":26.39,"originalPrice":null,"currencyCode":"RON","currency":"Lei","image":{"thumbnail":{"default":"https://cdn.freshful.ro/media/cache/sylius_shop_product_thumbnail/33/0e/f81796ef7c78fb19351ccca02557.jpg"},"large":{"default":"https://cdn.freshful.ro/media/cache/freshful_large/33/0e/f81796ef7c78fb19351ccca02557.jpg"},"extralarge":{"default":"https://cdn.freshful.ro/media/cache/sylius_shop_product_original/33/0e/f81796ef7c78fb19351ccca02557.jpg"}},"label":null,"tags":[{"type":"NoPreservatives","text":"Fara conservanti","icon":"https://cdn.freshful.ro/assets/product_tags/fara_conservanti.svg","iconPng":"https://cdn.freshful.ro/assets/product_tags/fara_conservanti.png","backgroundColor":"#F0F2FF","textColor":"#7889DD"}],"isAvailable":true,"maxAvailableQuantity":21,"maxAllowedQuantity":100,"breadcrumbs":[{"code":"12","name":"Mama & copilul","slug":"12-mama-si-copilul"},{"code":"1202","name":"Igienă bebe","slug":"1202-igiena-bebe"},{"code":"120206","name":"Creme, uleiuri și loțiuni","slug":"120206-creme-ulei-si-lotiuni"},{"code":"100093104","name":"Pastă de dinți căpșuni 1-5 ani, 50ml","slug":"100093104-chicco-pasta-de-dinti-capsuni-1-5-ani-50ml"}],"activePromotion":null,"saveMe":null,"labels":[],"geniusPrice":null,"geniusUnitPricePerLabel":null,"banner":null,"discountLabel":null,"geniusDiscountLabel":null,"badge":null},{"code":"100033585","variantCode":"4005808361946","name":"Baby cremă Soft 200ml","slug":"100033585-nivea-baby-crema-soft-200ml","unitPriceLabel":"97,5 Lei/l","brand":"Nivea","brandCode":"316","brandFilterCode":"nivea-b317","sku":"100033585","price":19.5,"originalPrice":null,"currencyCode":"RON","currency":"Lei","image":{"thumbnail":{"default":"https://cdn.freshful.ro/media/cache/sylius_shop_product_thumbnail/c2/d8/10cca32c85945cd95df962b92e52.jpg"},"large":{"default":"https://cdn.freshful.ro/media/cache/freshful_large/c2/d8/10cca32c85945cd95df962b92e52.jpg"},"extralarge":{"default":"https://cdn.freshful.ro/media/cache/sylius_shop_product_original/c2/d8/10cca32c85945cd95df962b92e52.jpg"}},"label":null,"tags":[],"isAvailable":true,"maxAvailableQuantity":16,"maxAllowedQuantity":100,"breadcrumbs":[{"code":"12","name":"Mama & copilul","slug":"12-mama-si-copilul"},{"code":"1202","name":"Igienă bebe","slug":"1202-igiena-bebe"},{"code":"120206","name":"Creme, uleiuri și loțiuni","slug":"120206-creme-ulei-si-lotiuni"},{"code":"100033585","name":"Baby cremă Soft 200ml","slug":"100033585-nivea-baby-crema-soft-200ml"}],"activePromotion":null,"saveMe":null,"labels":[],"geniusPrice":null,"geniusUnitPricePerLabel":null,"banner":null,"discountLabel":null,"geniusDiscountLabel":null,"badge":null},{"code":"100033587","variantCode":"4005808364442","name":"Baby ulei de corp 200ml","slug":"100033587-nivea-baby-ulei-de-corp-200ml","unitPriceLabel":"124,95 Lei/l","brand":"Nivea","brandCode":"316","brandFilterCode":"nivea-b317","sku":"100033587","price":24.99,"originalPrice":null,"currencyCode":"RON","currency":"Lei","image":{"thumbnail":{"default":"https://cdn.freshful.ro/media/cache/sylius_shop_product_thumbnail/dd/9d/5a3e12d1365b563f8a02e04f0785.jpg"},"large":{"default":"https://cdn.freshful.ro/media/cache/freshful_large/dd/9d/5a3e12d1365b563f8a02e04f0785.jpg"},"extralarge":{"default":"https://cdn.freshful.ro/media/cache/sylius_shop_product_original/dd/9d/5a3e12d1365b563f8a02e04f0785.jpg"}},"label":null,"tags":[],"isAvailable":true,"maxAvailableQuantity":37,"maxAllowedQuantity":100,"breadcrumbs":[{"code":"12","name":"Mama & copilul","slug":"12-mama-si-copilul"},{"code":"1202","name":"Igienă bebe","slug":"1202-igiena-bebe"},{"code":"120206","name":"Creme, uleiuri și loțiuni","slug":"120206-creme-ulei-si-lotiuni"},{"code":"100033587","name":"Baby ulei de corp 200ml","slug":"100033587-nivea-baby-ulei-de-corp-200ml"}],"activePromotion":null,"saveMe":null,"labels":[],"geniusPrice":null,"geniusUnitPricePerLabel":null,"banner":null,"discountLabel":null,"geniusDiscountLabel":null,"badge":null},{"code":"100082184","variantCode":"100082184","name":"Ulei de corp 200ml","slug":"100082184-hipp-ulei-de-corp-200ml","unitPriceLabel":"99,95 Lei/kg","brand":"HiPP","brandCode":"848","brandFilterCode":"hipp-b849","sku":"100082184","price":19.99,"originalPrice":null,"currencyCode":"RON","currency":"Lei","image":{"thumbnail":{"default":"https://cdn.freshful.ro/media/cache/sylius_shop_product_thumbnail/ba/8c/d436866d1b73304ce9d42f73a056.jpg"},"large":{"default":"https://cdn.freshful.ro/media/cache/freshful_large/ba/8c/d436866d1b73304ce9d42f73a056.jpg"},"extralarge":{"default":"https://cdn.freshful.ro/media/cache/sylius_shop_product_original/ba/8c/d436866d1b73304ce9d42f73a056.jpg"}},"label":null,"tags":[{"type":"vegan","text":"Vegan","icon":"https://cdn.freshful.ro/assets/product_tags/vegan.svg","iconPng":"https://cdn.freshful.ro/assets/product_tags/vegan.png","backgroundColor":"#ECF9F8","textColor":"#33A39C"}],"isAvailable":true,"maxAvailableQuantity":10,"maxAllowedQuantity":100,"breadcrumbs":[{"code":"12","name":"Mama & copilul","slug":"12-mama-si-copilul"},{"code":"1202","name":"Igienă bebe","slug":"1202-igiena-bebe"},{"code":"120206","name":"Creme, uleiuri și loțiuni","slug":"120206-creme-ulei-si-lotiuni"},{"code":"100082184","name":"Ulei de corp 200ml","slug":"100082184-hipp-ulei-de-corp-200ml"}],"activePromotion":null,"saveMe":null,"labels":[],"geniusPrice":null,"geniusUnitPricePerLabel":null,"banner":null,"discountLabel":null,"geniusDiscountLabel":null,"badge":null},{"code":"100114727","variantCode":"100114727","name":"Cremă hidratantă bio pentru copii 100ml","slug":"100114727-bambo-nature-crema-hidratanta-bio-pentru-copii-100ml","unitPriceLabel":"302,9 Lei/l","brand":"Bambo Nature","brandCode":"1858","brandFilterCode":"bambo-nature-b1862","sku":"100114727","price":30.29,"originalPrice":null,"currencyCode":"RON","currency":"Lei","image":{"thumbnail":{"default":"https://cdn.freshful.ro/media/cache/sylius_shop_product_thumbnail/1c/85/7f279dbed1d26ce8f6720e6053f5.jpg"},"large":{"default":"https://cdn.freshful.ro/media/cache/freshful_large/1c/85/7f279dbed1d26ce8f6720e6053f5.jpg"},"extralarge":{"default":"https://cdn.freshful.ro/media/cache/sylius_shop_product_original/1c/85/7f279dbed1d26ce8f6720e6053f5.jpg"}},"label":null,"tags":[{"type":"vegan","text":"Vegan","icon":"https://cdn.freshful.ro/assets/product_tags/vegan.svg","iconPng":"https://cdn.freshful.ro/assets/product_tags/vegan.png","backgroundColor":"#ECF9F8","textColor":"#33A39C"},{"type":"bio","text":"Bio","icon":"https://cdn.freshful.ro/assets/product_tags/bio.svg","iconPng":"https://cdn.freshful.ro/assets/product_tags/bio.png","backgroundColor":"#ECF6E9","textColor":"#399225"}],"isAvailable":true,"maxAvailableQuantity":16,"maxAllowedQuantity":100,"breadcrumbs":[{"code":"12","name":"Mama & copilul","slug":"12-mama-si-copilul"},{"code":"1202","name":"Igienă bebe","slug":"1202-igiena-bebe"},{"code":"120206","name":"Creme, uleiuri și loțiuni","slug":"120206-creme-ulei-si-lotiuni"},{"code":"100114727","name":"Cremă hidratantă bio pentru copii 100ml","slug":"100114727-bambo-nature-crema-hidratanta-bio-pentru-copii-100ml"}],"activePromotion":null,"saveMe":null,"labels":[],"geniusPrice":null,"geniusUnitPricePerLabel":null,"banner":null,"discountLabel":null,"geniusDiscountLabel":null,"badge":null}],"filters":{"countSelected":0,"items":[{"code":"brand","name":"Brand","countSelected":0,"values":[{"code":"bambo-nature-b1862","name":"Bambo Nature","isSelected":false,"count":3},{"code":"chicco-b659","name":"Chicco","isSelected":false,"count":4},{"code":"dove-b764","name":"Dove","isSelected":false,"count":1},{"code":"essere-b1365","name":"Essere","isSelected":false,"count":1},{"code":"gamarde-b1101","name":"GamARde","isSelected":false,"count":4},{"code":"hipp-b849","name":"HiPP","isSelected":false,"count":1},{"code":"johnson-s-baby-b548","name":"Johnson’s Baby","isSelected":false,"count":3},{"code":"nivea-b317","name":"Nivea","isSelected":false,"count":5},{"code":"nuby-b1741","name":"Nuby","isSelected":false,"count":1}]},{"code":"diet_lifestyle","name":"Dietă și lifestyle","countSelected":0,"values":[{"code":"bio-a26","name":"Bio","isSelected":false,"count":8},{"code":"fara-conservanti-a37","name":"Fara conservanti","isSelected":false,"count":1},{"code":"natural-a27","name":"Natural","isSelected":false,"count":4},{"code":"vegan-a24","name":"Vegan","isSelected":false,"count":4}]}]},"orderBy":[{"field":"price","direction":"asc","name":"Preț crescător","isSelected":false},{"field":"price","direction":"desc","name":"Preț descrescător","isSelected":false},{"field":"popularity","direction":"desc","name":"Cele mai populare","isSelected":true},{"field":"category","direction":"asc","name":"Categorie","isSelected":false}],"metaTitle":"Creme, uleiuri și loțiuni - Gamă variată","metaDescription":"Vrei Creme, uleiuri și loțiuni? Alege dintr-o gamă variată. Comanzi simplu și ai livrare rapidă, calitate și prospețime. Hai pe Freshful.ro","metaKeywords":null,"banners":[]}}