{"type":"subcategory","payload":{"analyticsListId":"category_1202-igiena-bebe","analyticsListName":"Category - Igienă bebe","name":"Igienă bebe","slug":"1202-igiena-bebe","image":null,"breadcrumbs":[{"code":"12","name":"Mama & copilul","slug":"12-mama-si-copilul"},{"code":"1202","name":"Igienă bebe","slug":"1202-igiena-bebe"}],"slots":[],"page":1,"limit":10,"pages":28,"count":275,"siblings":[{"name":"Alimente bebe","slug":"1201-alimente-bebelusi","selected":false},{"name":"Igienă bebe","slug":"1202-igiena-bebe","selected":true},{"name":"Puericultură","slug":"1203-puericultura","selected":false}],"children":[{"name":"Toate produsele","slug":"1202-igiena-bebe","selected":true},{"name":"Scutece","slug":"120201-scutece","selected":false},{"name":"Șervețele umede","slug":"120202-servetele-umede","selected":false},{"name":"Detergent bebe","slug":"120203-detergent-bebelusi","selected":false},{"name":"Șampon, săpunuri și geluri de duș","slug":"120205-sampon-sapunuri-si-geluri-de-dus","selected":false},{"name":"Creme, uleiuri și loțiuni","slug":"120206-creme-ulei-si-lotiuni","selected":false},{"name":"Pudră de talc","slug":"120207-talc","selected":false},{"name":"Bețișoare, dischete și ser fiziologic","slug":"120208-betisoare-dischete-si-ser-fiziologic","selected":false}],"products":[{"code":"100103553","variantCode":"100103553","name":"Șervețele umede bebeluși All Over Clean 56 buc","slug":"100103553-huggies-servetele-umede-bebelusi-all-over-clean-56-buc","unitPriceLabel":"","brand":"Huggies","brandCode":"537","brandFilterCode":"huggies-b538","sku":"100103553","price":5.69,"originalPrice":7.25,"currencyCode":"RON","currency":"Lei","image":{"thumbnail":{"default":"https://cdn.freshful.ro/media/cache/sylius_shop_product_thumbnail/68/8f/cb5e7a8b02080224741d43bbb65b.jpg"},"large":{"default":"https://cdn.freshful.ro/media/cache/freshful_large/68/8f/cb5e7a8b02080224741d43bbb65b.jpg"},"extralarge":{"default":"https://cdn.freshful.ro/media/cache/sylius_shop_product_original/68/8f/cb5e7a8b02080224741d43bbb65b.jpg"}},"label":{"text":"-21%","backgroundColor":"#FF9903","textColor":"#FFFFFF"},"tags":[],"isAvailable":true,"maxAvailableQuantity":100,"maxAllowedQuantity":100,"breadcrumbs":[{"code":"12","name":"Mama & copilul","slug":"12-mama-si-copilul"},{"code":"1202","name":"Igienă bebe","slug":"1202-igiena-bebe"},{"code":"120202","name":"Șervețele umede","slug":"120202-servetele-umede"},{"code":"100103553","name":"Șervețele umede bebeluși All Over Clean 56 buc","slug":"100103553-huggies-servetele-umede-bebelusi-all-over-clean-56-buc"}],"activePromotion":{"code":"oferte-dph-21feb-8mar23","name":"Preț redus","targetQuantity":null},"saveMe":null,"labels":[{"type":"v1","items":[{"text":"-21%","backgroundColor":"#FF9903","textColor":"#FFFFFF"}]}],"geniusPrice":null,"geniusUnitPricePerLabel":null,"banner":{"text":"Super preț","textColor":"#FF0000","bgColor":"#FFF2EC","icon":null,"link":"https://www.freshful.ro/oferte/oferte-dph-21feb-8mar23","type":"promo","analyticsEventType":"select_promotion","analyticsEventPayload":{"promotion_id":"oferte-dph-21feb-8mar23","promotion_name":"Curățenie și îngrijire personală"}},"discountLabel":"Economisești 21%","geniusDiscountLabel":null,"badge":null},{"code":"100103555","variantCode":"100103555","name":"Șervețele umede bebeluși Pure Extra Care 56 buc","slug":"100103555-huggies-servetele-umede-bebelusi-pure-extra-care-56-buc","unitPriceLabel":"","brand":"Huggies","brandCode":"537","brandFilterCode":"huggies-b538","sku":"100103555","price":7.79,"originalPrice":8.95,"currencyCode":"RON","currency":"Lei","image":{"thumbnail":{"default":"https://cdn.freshful.ro/media/cache/sylius_shop_product_thumbnail/e0/52/5fc8d45380537a2793726451cd63.jpg"},"large":{"default":"https://cdn.freshful.ro/media/cache/freshful_large/e0/52/5fc8d45380537a2793726451cd63.jpg"},"extralarge":{"default":"https://cdn.freshful.ro/media/cache/sylius_shop_product_original/e0/52/5fc8d45380537a2793726451cd63.jpg"}},"label":{"text":"-12%","backgroundColor":"#FF9903","textColor":"#FFFFFF"},"tags":[],"isAvailable":true,"maxAvailableQuantity":38,"maxAllowedQuantity":100,"breadcrumbs":[{"code":"12","name":"Mama & copilul","slug":"12-mama-si-copilul"},{"code":"1202","name":"Igienă bebe","slug":"1202-igiena-bebe"},{"code":"120202","name":"Șervețele umede","slug":"120202-servetele-umede"},{"code":"100103555","name":"Șervețele umede bebeluși Pure Extra Care 56 buc","slug":"100103555-huggies-servetele-umede-bebelusi-pure-extra-care-56-buc"}],"activePromotion":{"code":"oferte-dph-21feb-8mar23","name":"Preț redus","targetQuantity":null},"saveMe":null,"labels":[{"type":"v1","items":[{"text":"-12%","backgroundColor":"#FF9903","textColor":"#FFFFFF"}]}],"geniusPrice":null,"geniusUnitPricePerLabel":null,"banner":{"text":"Super preț","textColor":"#FF0000","bgColor":"#FFF2EC","icon":null,"link":"https://www.freshful.ro/oferte/oferte-dph-21feb-8mar23","type":"promo","analyticsEventType":"select_promotion","analyticsEventPayload":{"promotion_id":"oferte-dph-21feb-8mar23","promotion_name":"Curățenie și îngrijire personală"}},"discountLabel":"Economisești 12%","geniusDiscountLabel":null,"badge":null},{"code":"100139440","variantCode":"100139440","name":"Scutece elite soft mega mărimea 4, 60 buc","slug":"100139440-huggies-scutece-elite-soft-mega-marimea-4-60-buc","unitPriceLabel":"","brand":"Huggies","brandCode":"537","brandFilterCode":"huggies-b538","sku":"100139440","price":78.39,"originalPrice":86.99,"currencyCode":"RON","currency":"Lei","image":{"thumbnail":{"default":"https://cdn.freshful.ro/media/cache/sylius_shop_product_thumbnail/81/97/83effd6627f328480b4b6b3efc84.jpg"},"large":{"default":"https://cdn.freshful.ro/media/cache/freshful_large/81/97/83effd6627f328480b4b6b3efc84.jpg"},"extralarge":{"default":"https://cdn.freshful.ro/media/cache/sylius_shop_product_original/81/97/83effd6627f328480b4b6b3efc84.jpg"}},"label":{"text":"-9%","backgroundColor":"#FF9903","textColor":"#FFFFFF"},"tags":[],"isAvailable":true,"maxAvailableQuantity":1,"maxAllowedQuantity":100,"breadcrumbs":[{"code":"12","name":"Mama & copilul","slug":"12-mama-si-copilul"},{"code":"1202","name":"Igienă bebe","slug":"1202-igiena-bebe"},{"code":"120201","name":"Scutece","slug":"120201-scutece"},{"code":"100139440","name":"Scutece elite soft mega mărimea 4, 60 buc","slug":"100139440-huggies-scutece-elite-soft-mega-marimea-4-60-buc"}],"activePromotion":{"code":"oferte-dph-21feb-8mar23","name":"Preț redus","targetQuantity":null},"saveMe":null,"labels":[{"type":"v1","items":[{"text":"-9%","backgroundColor":"#FF9903","textColor":"#FFFFFF"}]}],"geniusPrice":null,"geniusUnitPricePerLabel":null,"banner":{"text":"Super preț","textColor":"#FF0000","bgColor":"#FFF2EC","icon":null,"link":"https://www.freshful.ro/oferte/oferte-dph-21feb-8mar23","type":"promo","analyticsEventType":"select_promotion","analyticsEventPayload":{"promotion_id":"oferte-dph-21feb-8mar23","promotion_name":"Curățenie și îngrijire personală"}},"discountLabel":"Economisești 9%","geniusDiscountLabel":null,"badge":null},{"code":"100139439","variantCode":"100139439","name":"Scutece elite soft mega mărimea 3, 72 buc","slug":"100139439-huggies-scutece-elite-soft-mega-marimea-3-72-buc","unitPriceLabel":"","brand":"Huggies","brandCode":"537","brandFilterCode":"huggies-b538","sku":"100139439","price":78.39,"originalPrice":89.99,"currencyCode":"RON","currency":"Lei","image":{"thumbnail":{"default":"https://cdn.freshful.ro/media/cache/sylius_shop_product_thumbnail/7b/7a/7d80ddb48261cc54ace03ecd7be4.jpg"},"large":{"default":"https://cdn.freshful.ro/media/cache/freshful_large/7b/7a/7d80ddb48261cc54ace03ecd7be4.jpg"},"extralarge":{"default":"https://cdn.freshful.ro/media/cache/sylius_shop_product_original/7b/7a/7d80ddb48261cc54ace03ecd7be4.jpg"}},"label":{"text":"-12%","backgroundColor":"#FF9903","textColor":"#FFFFFF"},"tags":[],"isAvailable":true,"maxAvailableQuantity":25,"maxAllowedQuantity":100,"breadcrumbs":[{"code":"12","name":"Mama & copilul","slug":"12-mama-si-copilul"},{"code":"1202","name":"Igienă bebe","slug":"1202-igiena-bebe"},{"code":"120201","name":"Scutece","slug":"120201-scutece"},{"code":"100139439","name":"Scutece elite soft mega mărimea 3, 72 buc","slug":"100139439-huggies-scutece-elite-soft-mega-marimea-3-72-buc"}],"activePromotion":{"code":"oferte-dph-21feb-8mar23","name":"Preț redus","targetQuantity":null},"saveMe":null,"labels":[{"type":"v1","items":[{"text":"-12%","backgroundColor":"#FF9903","textColor":"#FFFFFF"}]}],"geniusPrice":null,"geniusUnitPricePerLabel":null,"banner":{"text":"Super preț","textColor":"#FF0000","bgColor":"#FFF2EC","icon":null,"link":"https://www.freshful.ro/oferte/oferte-dph-21feb-8mar23","type":"promo","analyticsEventType":"select_promotion","analyticsEventPayload":{"promotion_id":"oferte-dph-21feb-8mar23","promotion_name":"Curățenie și îngrijire personală"}},"discountLabel":"Economisești 12%","geniusDiscountLabel":null,"badge":null},{"code":"100139438","variantCode":"100139438","name":"Scutece elite soft mega mărimea 2, 82 buc","slug":"100139438-huggies-scutece-elite-soft-mega-marimea-2-82-buc","unitPriceLabel":"","brand":"Huggies","brandCode":"537","brandFilterCode":"huggies-b538","sku":"100139438","price":75.59,"originalPrice":86.99,"currencyCode":"RON","currency":"Lei","image":{"thumbnail":{"default":"https://cdn.freshful.ro/media/cache/sylius_shop_product_thumbnail/de/8c/7db19fcb863c29c10be7456b2fe9.jpg"},"large":{"default":"https://cdn.freshful.ro/media/cache/freshful_large/de/8c/7db19fcb863c29c10be7456b2fe9.jpg"},"extralarge":{"default":"https://cdn.freshful.ro/media/cache/sylius_shop_product_original/de/8c/7db19fcb863c29c10be7456b2fe9.jpg"}},"label":{"text":"-13%","backgroundColor":"#FF9903","textColor":"#FFFFFF"},"tags":[],"isAvailable":true,"maxAvailableQuantity":13,"maxAllowedQuantity":100,"breadcrumbs":[{"code":"12","name":"Mama & copilul","slug":"12-mama-si-copilul"},{"code":"1202","name":"Igienă bebe","slug":"1202-igiena-bebe"},{"code":"120201","name":"Scutece","slug":"120201-scutece"},{"code":"100139438","name":"Scutece elite soft mega mărimea 2, 82 buc","slug":"100139438-huggies-scutece-elite-soft-mega-marimea-2-82-buc"}],"activePromotion":{"code":"oferte-dph-21feb-8mar23","name":"Preț redus","targetQuantity":null},"saveMe":null,"labels":[{"type":"v1","items":[{"text":"-13%","backgroundColor":"#FF9903","textColor":"#FFFFFF"}]}],"geniusPrice":null,"geniusUnitPricePerLabel":null,"banner":{"text":"Super preț","textColor":"#FF0000","bgColor":"#FFF2EC","icon":null,"link":"https://www.freshful.ro/oferte/oferte-dph-21feb-8mar23","type":"promo","analyticsEventType":"select_promotion","analyticsEventPayload":{"promotion_id":"oferte-dph-21feb-8mar23","promotion_name":"Curățenie și îngrijire personală"}},"discountLabel":"Economisești 13%","geniusDiscountLabel":null,"badge":null},{"code":"100141243","variantCode":"100141243","name":"Șervețele umede bebeluși 100% natural 48 buc","slug":"100141243-huggies-servetele-umede-bebelusi-100-natural-48-buc","unitPriceLabel":"","brand":"Huggies","brandCode":"537","brandFilterCode":"huggies-b538","sku":"100141243","price":7.99,"originalPrice":10.29,"currencyCode":"RON","currency":"Lei","image":{"thumbnail":{"default":"https://cdn.freshful.ro/media/cache/sylius_shop_product_thumbnail/ca/df/3c0c545eaaeb37f23c1b4b6e5070.jpg"},"large":{"default":"https://cdn.freshful.ro/media/cache/freshful_large/ca/df/3c0c545eaaeb37f23c1b4b6e5070.jpg"},"extralarge":{"default":"https://cdn.freshful.ro/media/cache/sylius_shop_product_original/ca/df/3c0c545eaaeb37f23c1b4b6e5070.jpg"}},"label":{"text":"-22%","backgroundColor":"#FF9903","textColor":"#FFFFFF"},"tags":[],"isAvailable":true,"maxAvailableQuantity":27,"maxAllowedQuantity":100,"breadcrumbs":[{"code":"12","name":"Mama & copilul","slug":"12-mama-si-copilul"},{"code":"1202","name":"Igienă bebe","slug":"1202-igiena-bebe"},{"code":"120202","name":"Șervețele umede","slug":"120202-servetele-umede"},{"code":"100141243","name":"Șervețele umede bebeluși 100% natural 48 buc","slug":"100141243-huggies-servetele-umede-bebelusi-100-natural-48-buc"}],"activePromotion":{"code":"oferte-dph-21feb-8mar23","name":"Preț redus","targetQuantity":null},"saveMe":null,"labels":[{"type":"v1","items":[{"text":"-22%","backgroundColor":"#FF9903","textColor":"#FFFFFF"}]}],"geniusPrice":null,"geniusUnitPricePerLabel":null,"banner":{"text":"Super preț","textColor":"#FF0000","bgColor":"#FFF2EC","icon":null,"link":"https://www.freshful.ro/oferte/oferte-dph-21feb-8mar23","type":"promo","analyticsEventType":"select_promotion","analyticsEventPayload":{"promotion_id":"oferte-dph-21feb-8mar23","promotion_name":"Curățenie și îngrijire personală"}},"discountLabel":"Economisești 22%","geniusDiscountLabel":null,"badge":null},{"code":"100092510","variantCode":"100092510","name":"Scutece Premium Care XXL Box mărimea 3, 6-10kg, 204 buc","slug":"100092510-pampers-scutece-premium-care-xxl-box-marimea-3-6-10kg-204-buc","unitPriceLabel":"0,98 Lei/buc","brand":"Pampers","brandCode":"680","brandFilterCode":"pampers-b681","sku":"100092510","price":199.99,"originalPrice":248.79,"currencyCode":"RON","currency":"Lei","image":{"thumbnail":{"default":"https://cdn.freshful.ro/media/cache/sylius_shop_product_thumbnail/72/85/6e47b40bd790b7d4d955bb3488ef.jpg"},"large":{"default":"https://cdn.freshful.ro/media/cache/freshful_large/72/85/6e47b40bd790b7d4d955bb3488ef.jpg"},"extralarge":{"default":"https://cdn.freshful.ro/media/cache/sylius_shop_product_original/72/85/6e47b40bd790b7d4d955bb3488ef.jpg"}},"label":{"text":"-19%","backgroundColor":"#FF9903","textColor":"#FFFFFF"},"tags":[],"isAvailable":true,"maxAvailableQuantity":100,"maxAllowedQuantity":100,"breadcrumbs":[{"code":"12","name":"Mama & copilul","slug":"12-mama-si-copilul"},{"code":"1202","name":"Igienă bebe","slug":"1202-igiena-bebe"},{"code":"120201","name":"Scutece","slug":"120201-scutece"},{"code":"100092510","name":"Scutece Premium Care XXL Box mărimea 3, 6-10kg, 204 buc","slug":"100092510-pampers-scutece-premium-care-xxl-box-marimea-3-6-10kg-204-buc"}],"activePromotion":{"code":"oferte-dph-21feb-8mar23","name":"Preț redus","targetQuantity":null},"saveMe":null,"labels":[{"type":"v1","items":[{"text":"-19%","backgroundColor":"#FF9903","textColor":"#FFFFFF"}]}],"geniusPrice":null,"geniusUnitPricePerLabel":null,"banner":{"text":"Super preț","textColor":"#FF0000","bgColor":"#FFF2EC","icon":null,"link":"https://www.freshful.ro/oferte/oferte-dph-21feb-8mar23","type":"promo","analyticsEventType":"select_promotion","analyticsEventPayload":{"promotion_id":"oferte-dph-21feb-8mar23","promotion_name":"Curățenie și îngrijire personală"}},"discountLabel":"Economisești 19%","geniusDiscountLabel":null,"badge":null},{"code":"100092531","variantCode":"100092531","name":"Scutece chiloțel Harmonie mărimea 5, 12-17kg, 20 buc","slug":"100092531-pampers-scutece-chilotel-harmonie-marimea-5-12-17kg-20-buc","unitPriceLabel":"3,25 Lei/buc","brand":"Pampers","brandCode":"680","brandFilterCode":"pampers-b681","sku":"100092531","price":64.99,"originalPrice":76.47,"currencyCode":"RON","currency":"Lei","image":{"thumbnail":{"default":"https://cdn.freshful.ro/media/cache/sylius_shop_product_thumbnail/74/a4/e75e966077896657626f397da30e.jpg"},"large":{"default":"https://cdn.freshful.ro/media/cache/freshful_large/74/a4/e75e966077896657626f397da30e.jpg"},"extralarge":{"default":"https://cdn.freshful.ro/media/cache/sylius_shop_product_original/74/a4/e75e966077896657626f397da30e.jpg"}},"label":{"text":"-15%","backgroundColor":"#FF9903","textColor":"#FFFFFF"},"tags":[],"isAvailable":true,"maxAvailableQuantity":68,"maxAllowedQuantity":100,"breadcrumbs":[{"code":"12","name":"Mama & copilul","slug":"12-mama-si-copilul"},{"code":"1202","name":"Igienă bebe","slug":"1202-igiena-bebe"},{"code":"120201","name":"Scutece","slug":"120201-scutece"},{"code":"100092531","name":"Scutece chiloțel Harmonie mărimea 5, 12-17kg, 20 buc","slug":"100092531-pampers-scutece-chilotel-harmonie-marimea-5-12-17kg-20-buc"}],"activePromotion":{"code":"oferte-dph-21feb-8mar23","name":"Preț redus","targetQuantity":null},"saveMe":null,"labels":[{"type":"v1","items":[{"text":"-15%","backgroundColor":"#FF9903","textColor":"#FFFFFF"}]}],"geniusPrice":null,"geniusUnitPricePerLabel":null,"banner":{"text":"Super preț","textColor":"#FF0000","bgColor":"#FFF2EC","icon":null,"link":"https://www.freshful.ro/oferte/oferte-dph-21feb-8mar23","type":"promo","analyticsEventType":"select_promotion","analyticsEventPayload":{"promotion_id":"oferte-dph-21feb-8mar23","promotion_name":"Curățenie și îngrijire personală"}},"discountLabel":"Economisești 15%","geniusDiscountLabel":null,"badge":null},{"code":"100092512","variantCode":"100092512","name":"Scutece Premium Care XXL Box mărimea 5, 11-16kg, 136 buc","slug":"100092512-pampers-scutece-premium-care-xxl-box-marimea-5-11-16kg-136-buc","unitPriceLabel":"1,47 Lei/buc","brand":"Pampers","brandCode":"680","brandFilterCode":"pampers-b681","sku":"100092512","price":199.99,"originalPrice":257.79,"currencyCode":"RON","currency":"Lei","image":{"thumbnail":{"default":"https://cdn.freshful.ro/media/cache/sylius_shop_product_thumbnail/27/b3/9cc238524029482e883e6f3c46b3.jpg"},"large":{"default":"https://cdn.freshful.ro/media/cache/freshful_large/27/b3/9cc238524029482e883e6f3c46b3.jpg"},"extralarge":{"default":"https://cdn.freshful.ro/media/cache/sylius_shop_product_original/27/b3/9cc238524029482e883e6f3c46b3.jpg"}},"label":{"text":"-22%","backgroundColor":"#FF9903","textColor":"#FFFFFF"},"tags":[],"isAvailable":true,"maxAvailableQuantity":10,"maxAllowedQuantity":100,"breadcrumbs":[{"code":"12","name":"Mama & copilul","slug":"12-mama-si-copilul"},{"code":"1202","name":"Igienă bebe","slug":"1202-igiena-bebe"},{"code":"120201","name":"Scutece","slug":"120201-scutece"},{"code":"100092512","name":"Scutece Premium Care XXL Box mărimea 5, 11-16kg, 136 buc","slug":"100092512-pampers-scutece-premium-care-xxl-box-marimea-5-11-16kg-136-buc"}],"activePromotion":{"code":"oferte-dph-21feb-8mar23","name":"Preț redus","targetQuantity":null},"saveMe":null,"labels":[{"type":"v1","items":[{"text":"-22%","backgroundColor":"#FF9903","textColor":"#FFFFFF"}]}],"geniusPrice":null,"geniusUnitPricePerLabel":null,"banner":{"text":"Super preț","textColor":"#FF0000","bgColor":"#FFF2EC","icon":null,"link":"https://www.freshful.ro/oferte/oferte-dph-21feb-8mar23","type":"promo","analyticsEventType":"select_promotion","analyticsEventPayload":{"promotion_id":"oferte-dph-21feb-8mar23","promotion_name":"Curățenie și îngrijire personală"}},"discountLabel":"Economisești 22%","geniusDiscountLabel":null,"badge":null},{"code":"100103563","variantCode":"100103563","name":"Scutece Elite Soft Jumbo mărimea 3, 5-9kg, 40 buc","slug":"100103563-huggies-scutece-elite-soft-jumbo-marimea-3-5-9kg-40-buc","unitPriceLabel":"1,05 Lei/buc","brand":"Huggies","brandCode":"537","brandFilterCode":"huggies-b538","sku":"100103563","price":41.99,"originalPrice":44.99,"currencyCode":"RON","currency":"Lei","image":{"thumbnail":{"default":"https://cdn.freshful.ro/media/cache/sylius_shop_product_thumbnail/99/86/498a4d3080c44d8ee2292bbfafd0.jpg"},"large":{"default":"https://cdn.freshful.ro/media/cache/freshful_large/99/86/498a4d3080c44d8ee2292bbfafd0.jpg"},"extralarge":{"default":"https://cdn.freshful.ro/media/cache/sylius_shop_product_original/99/86/498a4d3080c44d8ee2292bbfafd0.jpg"}},"label":{"text":"-6%","backgroundColor":"#FF9903","textColor":"#FFFFFF"},"tags":[],"isAvailable":true,"maxAvailableQuantity":4,"maxAllowedQuantity":100,"breadcrumbs":[{"code":"12","name":"Mama & copilul","slug":"12-mama-si-copilul"},{"code":"1202","name":"Igienă bebe","slug":"1202-igiena-bebe"},{"code":"120201","name":"Scutece","slug":"120201-scutece"},{"code":"100103563","name":"Scutece Elite Soft Jumbo mărimea 3, 5-9kg, 40 buc","slug":"100103563-huggies-scutece-elite-soft-jumbo-marimea-3-5-9kg-40-buc"}],"activePromotion":{"code":"oferte-dph-21feb-8mar23","name":"Preț redus","targetQuantity":null},"saveMe":null,"labels":[{"type":"v1","items":[{"text":"-6%","backgroundColor":"#FF9903","textColor":"#FFFFFF"}]}],"geniusPrice":null,"geniusUnitPricePerLabel":null,"banner":{"text":"Super preț","textColor":"#FF0000","bgColor":"#FFF2EC","icon":null,"link":"https://www.freshful.ro/oferte/oferte-dph-21feb-8mar23","type":"promo","analyticsEventType":"select_promotion","analyticsEventPayload":{"promotion_id":"oferte-dph-21feb-8mar23","promotion_name":"Curățenie și îngrijire personală"}},"discountLabel":"Economisești 6%","geniusDiscountLabel":null,"badge":null}],"filters":{"countSelected":0,"items":[{"code":"promotion","name":"Promoții","countSelected":0,"values":[{"code":"oferte-dph-21feb-8mar23","name":"Curățenie și îngrijire personală","isSelected":false,"count":30}]},{"code":"brand","name":"Brand","countSelected":0,"values":[{"code":"aleva-naturals-b1736","name":"Aleva Naturals","isSelected":false,"count":3},{"code":"aquaint-b1737","name":"Aquaint","isSelected":false,"count":1},{"code":"baby-works-b1738","name":"Baby Works","isSelected":false,"count":2},{"code":"bambo-nature-b1862","name":"Bambo Nature","isSelected":false,"count":25},{"code":"borotalco-b690","name":"Borotalco","isSelected":false,"count":1},{"code":"chicco-b659","name":"Chicco","isSelected":false,"count":10},{"code":"dove-b764","name":"Dove","isSelected":false,"count":3},{"code":"essere-b1365","name":"Essere","isSelected":false,"count":4},{"code":"expert-wipes-b1639","name":"Expert Wipes","isSelected":false,"count":1},{"code":"frosch-b316","name":"Frosch","isSelected":false,"count":1},{"code":"gamarde-b1101","name":"GamARde","isSelected":false,"count":4},{"code":"happy-b323","name":"Happy","isSelected":false,"count":14},{"code":"hipp-b849","name":"HiPP","isSelected":false,"count":4},{"code":"huggies-b538","name":"Huggies","isSelected":false,"count":62},{"code":"johnson-s-baby-b548","name":"Johnson’s Baby","isSelected":false,"count":11},{"code":"laboratoires-de-biarritz-b1419","name":"Laboratoires de Biarritz","isSelected":false,"count":1},{"code":"natura-verde-b340","name":"Natura Verde","isSelected":false,"count":6},{"code":"nivea-b317","name":"Nivea","isSelected":false,"count":20},{"code":"nuby-b1741","name":"Nuby","isSelected":false,"count":1},{"code":"ok-mama-b1640","name":"Ok Mama","isSelected":false,"count":2},{"code":"pampers-b681","name":"Pampers","isSelected":false,"count":78},{"code":"pufies-b391","name":"Pufies","isSelected":false,"count":19},{"code":"synek-b1687","name":"Synek","isSelected":false,"count":2}]},{"code":"diet_lifestyle","name":"Dietă și lifestyle","countSelected":0,"values":[{"code":"bio-a26","name":"Bio","isSelected":false,"count":24},{"code":"eco-a83","name":"Eco","isSelected":false,"count":16},{"code":"fara-conservanti-a37","name":"Fara conservanti","isSelected":false,"count":2},{"code":"natural-a27","name":"Natural","isSelected":false,"count":4},{"code":"vegan-a24","name":"Vegan","isSelected":false,"count":9}]}]},"orderBy":[{"field":"price","direction":"asc","name":"Preț crescător","isSelected":false},{"field":"price","direction":"desc","name":"Preț descrescător","isSelected":false},{"field":"popularity","direction":"desc","name":"Cele mai populare","isSelected":true},{"field":"category","direction":"asc","name":"Categorie","isSelected":false}],"metaTitle":"Igienă bebe - Gamă variată","metaDescription":"Vrei Igienă bebe? Alege dintr-o gamă variată. Comanzi simplu și ai livrare rapidă, calitate și prospețime. Hai pe Freshful.ro","metaKeywords":null,"banners":[]}}