{"type":"subcategory","payload":{"analyticsListId":"category_120205-sampon-sapunuri-si-geluri-de-dus","analyticsListName":"Category - Șampon, săpunuri și geluri de duș","name":"Șampon, săpunuri și geluri de duș","slug":"120205-sampon-sapunuri-si-geluri-de-dus","image":null,"breadcrumbs":[{"code":"12","name":"Mama & copilul","slug":"12-mama-si-copilul"},{"code":"1202","name":"Igienă bebe","slug":"1202-igiena-bebe"},{"code":"120205","name":"Șampon, săpunuri și geluri de duș","slug":"120205-sampon-sapunuri-si-geluri-de-dus"}],"slots":[],"page":1,"limit":10,"pages":4,"count":33,"siblings":[{"name":"Alimente bebe","slug":"1201-alimente-bebelusi","selected":false},{"name":"Igienă bebe","slug":"1202-igiena-bebe","selected":true},{"name":"Puericultură","slug":"1203-puericultura","selected":false}],"children":[{"name":"Toate produsele","slug":"1202-igiena-bebe","selected":false},{"name":"Scutece","slug":"120201-scutece","selected":false},{"name":"Șervețele umede","slug":"120202-servetele-umede","selected":false},{"name":"Detergent bebe","slug":"120203-detergent-bebelusi","selected":false},{"name":"Șampon, săpunuri și geluri de duș","slug":"120205-sampon-sapunuri-si-geluri-de-dus","selected":true},{"name":"Creme, uleiuri și loțiuni","slug":"120206-creme-ulei-si-lotiuni","selected":false},{"name":"Pudră de talc","slug":"120207-talc","selected":false},{"name":"Bețișoare, dischete și ser fiziologic","slug":"120208-betisoare-dischete-si-ser-fiziologic","selected":false}],"products":[{"code":"100033716","variantCode":"4005808359868","name":"Baby săpun cremă 100g","slug":"100033716-nivea-baby-sapun-crema-100g","unitPriceLabel":"49,5 Lei/kg","brand":"Nivea","brandCode":"316","brandFilterCode":"nivea-b317","sku":"100033716","price":4.95,"originalPrice":null,"currencyCode":"RON","currency":"Lei","image":{"thumbnail":{"default":"https://cdn.freshful.ro/media/cache/sylius_shop_product_thumbnail/25/90/c0f58ba650c5e4e745832f4af8be.jpg"},"large":{"default":"https://cdn.freshful.ro/media/cache/freshful_large/25/90/c0f58ba650c5e4e745832f4af8be.jpg"},"extralarge":{"default":"https://cdn.freshful.ro/media/cache/sylius_shop_product_original/25/90/c0f58ba650c5e4e745832f4af8be.jpg"}},"label":null,"tags":[],"isAvailable":true,"maxAvailableQuantity":66,"maxAllowedQuantity":100,"breadcrumbs":[{"code":"12","name":"Mama & copilul","slug":"12-mama-si-copilul"},{"code":"1202","name":"Igienă bebe","slug":"1202-igiena-bebe"},{"code":"120205","name":"Șampon, săpunuri și geluri de duș","slug":"120205-sampon-sapunuri-si-geluri-de-dus"},{"code":"100033716","name":"Baby săpun cremă 100g","slug":"100033716-nivea-baby-sapun-crema-100g"}],"activePromotion":null,"saveMe":null,"labels":[],"geniusPrice":null,"geniusUnitPricePerLabel":null,"banner":null,"discountLabel":null,"geniusDiscountLabel":null,"badge":null},{"code":"100062081","variantCode":"100062081","name":"Loțiune spălare Sensitive Moisture 400ml","slug":"100062081-baby-lotiune-spalare-sensitive-moisture-400ml","unitPriceLabel":"58,75 Lei/l","brand":"Dove","brandCode":"763","brandFilterCode":"dove-b764","sku":"100062081","price":23.5,"originalPrice":null,"currencyCode":"RON","currency":"Lei","image":{"thumbnail":{"default":"https://cdn.freshful.ro/media/cache/sylius_shop_product_thumbnail/49/f9/8bd8e03c65ddd0958432e3fdcde9.jpg"},"large":{"default":"https://cdn.freshful.ro/media/cache/freshful_large/49/f9/8bd8e03c65ddd0958432e3fdcde9.jpg"},"extralarge":{"default":"https://cdn.freshful.ro/media/cache/sylius_shop_product_original/49/f9/8bd8e03c65ddd0958432e3fdcde9.jpg"}},"label":null,"tags":[],"isAvailable":true,"maxAvailableQuantity":23,"maxAllowedQuantity":100,"breadcrumbs":[{"code":"12","name":"Mama & copilul","slug":"12-mama-si-copilul"},{"code":"1202","name":"Igienă bebe","slug":"1202-igiena-bebe"},{"code":"120205","name":"Șampon, săpunuri și geluri de duș","slug":"120205-sampon-sapunuri-si-geluri-de-dus"},{"code":"100062081","name":"Loțiune spălare Sensitive Moisture 400ml","slug":"100062081-baby-lotiune-spalare-sensitive-moisture-400ml"}],"activePromotion":null,"saveMe":null,"labels":[],"geniusPrice":null,"geniusUnitPricePerLabel":null,"banner":null,"discountLabel":null,"geniusDiscountLabel":null,"badge":null},{"code":"100085628","variantCode":"100085628","name":"Şampon pentru copii No More Tangles 500ml","slug":"100085628-johnsons-baby-sampon-pentru-copii-no-more-tangles-500ml","unitPriceLabel":"45,8 Lei/l","brand":"Johnson’s Baby","brandCode":"547","brandFilterCode":"johnson-s-baby-b548","sku":"100085628","price":22.9,"originalPrice":null,"currencyCode":"RON","currency":"Lei","image":{"thumbnail":{"default":"https://cdn.freshful.ro/media/cache/sylius_shop_product_thumbnail/ea/a3/df053118d402cd3a48a713083fde.jpg"},"large":{"default":"https://cdn.freshful.ro/media/cache/freshful_large/ea/a3/df053118d402cd3a48a713083fde.jpg"},"extralarge":{"default":"https://cdn.freshful.ro/media/cache/sylius_shop_product_original/ea/a3/df053118d402cd3a48a713083fde.jpg"}},"label":null,"tags":[],"isAvailable":true,"maxAvailableQuantity":54,"maxAllowedQuantity":100,"breadcrumbs":[{"code":"12","name":"Mama & copilul","slug":"12-mama-si-copilul"},{"code":"1202","name":"Igienă bebe","slug":"1202-igiena-bebe"},{"code":"120205","name":"Șampon, săpunuri și geluri de duș","slug":"120205-sampon-sapunuri-si-geluri-de-dus"},{"code":"100085628","name":"Şampon pentru copii No More Tangles 500ml","slug":"100085628-johnsons-baby-sampon-pentru-copii-no-more-tangles-500ml"}],"activePromotion":null,"saveMe":null,"labels":[],"geniusPrice":null,"geniusUnitPricePerLabel":null,"banner":null,"discountLabel":null,"geniusDiscountLabel":null,"badge":null},{"code":"100085626","variantCode":"100085626","name":"Șampon Bedtime 500ml","slug":"100085626-johnsons-baby-sampon-bedtime-500ml","unitPriceLabel":"45 Lei/l","brand":"Johnson’s Baby","brandCode":"547","brandFilterCode":"johnson-s-baby-b548","sku":"100085626","price":22.5,"originalPrice":null,"currencyCode":"RON","currency":"Lei","image":{"thumbnail":{"default":"https://cdn.freshful.ro/media/cache/sylius_shop_product_thumbnail/6a/3a/2268a9e9536ef292bcffd0f2e2d6.jpg"},"large":{"default":"https://cdn.freshful.ro/media/cache/freshful_large/6a/3a/2268a9e9536ef292bcffd0f2e2d6.jpg"},"extralarge":{"default":"https://cdn.freshful.ro/media/cache/sylius_shop_product_original/6a/3a/2268a9e9536ef292bcffd0f2e2d6.jpg"}},"label":null,"tags":[],"isAvailable":true,"maxAvailableQuantity":14,"maxAllowedQuantity":100,"breadcrumbs":[{"code":"12","name":"Mama & copilul","slug":"12-mama-si-copilul"},{"code":"1202","name":"Igienă bebe","slug":"1202-igiena-bebe"},{"code":"120205","name":"Șampon, săpunuri și geluri de duș","slug":"120205-sampon-sapunuri-si-geluri-de-dus"},{"code":"100085626","name":"Șampon Bedtime 500ml","slug":"100085626-johnsons-baby-sampon-bedtime-500ml"}],"activePromotion":null,"saveMe":null,"labels":[],"geniusPrice":null,"geniusUnitPricePerLabel":null,"banner":null,"discountLabel":null,"geniusDiscountLabel":null,"badge":null},{"code":"100047911","variantCode":"8029241108964","name":"Șampon și gel de duș bio pentru copii 400 ml","slug":"100047911-natura-verde-sampon-si-gel-de-dus-bio-pentru-copii-400-ml","unitPriceLabel":"89,98 Lei/l","brand":"Natura Verde","brandCode":"339","brandFilterCode":"natura-verde-b340","sku":"100047911","price":35.99,"originalPrice":null,"currencyCode":"RON","currency":"Lei","image":{"thumbnail":{"default":"https://cdn.freshful.ro/media/cache/sylius_shop_product_thumbnail/db/67/d47b2a1556d9813b63ce9575d1a9.jpg"},"large":{"default":"https://cdn.freshful.ro/media/cache/freshful_large/db/67/d47b2a1556d9813b63ce9575d1a9.jpg"},"extralarge":{"default":"https://cdn.freshful.ro/media/cache/sylius_shop_product_original/db/67/d47b2a1556d9813b63ce9575d1a9.jpg"}},"label":null,"tags":[{"type":"bio","text":"Bio","icon":"https://cdn.freshful.ro/assets/product_tags/bio.svg","iconPng":"https://cdn.freshful.ro/assets/product_tags/bio.png","backgroundColor":"#ECF6E9","textColor":"#399225"}],"isAvailable":true,"maxAvailableQuantity":34,"maxAllowedQuantity":100,"breadcrumbs":[{"code":"12","name":"Mama & copilul","slug":"12-mama-si-copilul"},{"code":"1202","name":"Igienă bebe","slug":"1202-igiena-bebe"},{"code":"120205","name":"Șampon, săpunuri și geluri de duș","slug":"120205-sampon-sapunuri-si-geluri-de-dus"},{"code":"100047911","name":"Șampon și gel de duș bio pentru copii 400 ml","slug":"100047911-natura-verde-sampon-si-gel-de-dus-bio-pentru-copii-400-ml"}],"activePromotion":null,"saveMe":null,"labels":[],"geniusPrice":null,"geniusUnitPricePerLabel":null,"banner":null,"discountLabel":null,"geniusDiscountLabel":null,"badge":null},{"code":"100085637","variantCode":"100085637","name":"Săpun lichid pentru copii Pure Protect 300ml","slug":"100085637-johnsons-baby-sapun-lichid-pentru-copii-pure-protect-300ml","unitPriceLabel":"68,33 Lei/l","brand":"Johnson’s Baby","brandCode":"547","brandFilterCode":"johnson-s-baby-b548","sku":"100085637","price":20.5,"originalPrice":null,"currencyCode":"RON","currency":"Lei","image":{"thumbnail":{"default":"https://cdn.freshful.ro/media/cache/sylius_shop_product_thumbnail/54/86/829fcd2c3558a0c1822de00e29f8.jpg"},"large":{"default":"https://cdn.freshful.ro/media/cache/freshful_large/54/86/829fcd2c3558a0c1822de00e29f8.jpg"},"extralarge":{"default":"https://cdn.freshful.ro/media/cache/sylius_shop_product_original/54/86/829fcd2c3558a0c1822de00e29f8.jpg"}},"label":null,"tags":[],"isAvailable":true,"maxAvailableQuantity":51,"maxAllowedQuantity":100,"breadcrumbs":[{"code":"12","name":"Mama & copilul","slug":"12-mama-si-copilul"},{"code":"1202","name":"Igienă bebe","slug":"1202-igiena-bebe"},{"code":"120205","name":"Șampon, săpunuri și geluri de duș","slug":"120205-sampon-sapunuri-si-geluri-de-dus"},{"code":"100085637","name":"Săpun lichid pentru copii Pure Protect 300ml","slug":"100085637-johnsons-baby-sapun-lichid-pentru-copii-pure-protect-300ml"}],"activePromotion":null,"saveMe":null,"labels":[],"geniusPrice":null,"geniusUnitPricePerLabel":null,"banner":null,"discountLabel":null,"geniusDiscountLabel":null,"badge":null},{"code":"100062080","variantCode":"100062080","name":"Loțiune spălare Rich Moisture 400ml","slug":"100062080-baby-lotiune-spalare-rich-moisture-400ml","unitPriceLabel":"71,25 Lei/l","brand":"Dove","brandCode":"763","brandFilterCode":"dove-b764","sku":"100062080","price":28.5,"originalPrice":null,"currencyCode":"RON","currency":"Lei","image":{"thumbnail":{"default":"https://cdn.freshful.ro/media/cache/sylius_shop_product_thumbnail/bb/43/0764e898e51dc516dbd614b72912.jpg"},"large":{"default":"https://cdn.freshful.ro/media/cache/freshful_large/bb/43/0764e898e51dc516dbd614b72912.jpg"},"extralarge":{"default":"https://cdn.freshful.ro/media/cache/sylius_shop_product_original/bb/43/0764e898e51dc516dbd614b72912.jpg"}},"label":null,"tags":[],"isAvailable":true,"maxAvailableQuantity":11,"maxAllowedQuantity":100,"breadcrumbs":[{"code":"12","name":"Mama & copilul","slug":"12-mama-si-copilul"},{"code":"1202","name":"Igienă bebe","slug":"1202-igiena-bebe"},{"code":"120205","name":"Șampon, săpunuri și geluri de duș","slug":"120205-sampon-sapunuri-si-geluri-de-dus"},{"code":"100062080","name":"Loțiune spălare Rich Moisture 400ml","slug":"100062080-baby-lotiune-spalare-rich-moisture-400ml"}],"activePromotion":null,"saveMe":null,"labels":[],"geniusPrice":null,"geniusUnitPricePerLabel":null,"banner":null,"discountLabel":null,"geniusDiscountLabel":null,"badge":null},{"code":"100082183","variantCode":"100082183","name":"Șampon pentru copii 200ml","slug":"100082183-hipp-sampon-pentru-copii-200ml","unitPriceLabel":"64,4 Lei/kg","brand":"HiPP","brandCode":"848","brandFilterCode":"hipp-b849","sku":"100082183","price":14.49,"originalPrice":null,"currencyCode":"RON","currency":"Lei","image":{"thumbnail":{"default":"https://cdn.freshful.ro/media/cache/sylius_shop_product_thumbnail/d9/2f/0c81c58a6ac6c8457fe28cea9d60.jpg"},"large":{"default":"https://cdn.freshful.ro/media/cache/freshful_large/d9/2f/0c81c58a6ac6c8457fe28cea9d60.jpg"},"extralarge":{"default":"https://cdn.freshful.ro/media/cache/sylius_shop_product_original/d9/2f/0c81c58a6ac6c8457fe28cea9d60.jpg"}},"label":null,"tags":[{"type":"NoPreservatives","text":"Fara conservanti","icon":"https://cdn.freshful.ro/assets/product_tags/fara_conservanti.svg","iconPng":"https://cdn.freshful.ro/assets/product_tags/fara_conservanti.png","backgroundColor":"#F0F2FF","textColor":"#7889DD"}],"isAvailable":true,"maxAvailableQuantity":30,"maxAllowedQuantity":100,"breadcrumbs":[{"code":"12","name":"Mama & copilul","slug":"12-mama-si-copilul"},{"code":"1202","name":"Igienă bebe","slug":"1202-igiena-bebe"},{"code":"120205","name":"Șampon, săpunuri și geluri de duș","slug":"120205-sampon-sapunuri-si-geluri-de-dus"},{"code":"100082183","name":"Șampon pentru copii 200ml","slug":"100082183-hipp-sampon-pentru-copii-200ml"}],"activePromotion":null,"saveMe":null,"labels":[],"geniusPrice":null,"geniusUnitPricePerLabel":null,"banner":null,"discountLabel":null,"geniusDiscountLabel":null,"badge":null},{"code":"100085631","variantCode":"100085631","name":"Loțiune de spălare 2 în 1 Cottontouch 500ml","slug":"100085631-johnsons-baby-lotiune-de-spalare-2-in-1-cottontouch-500ml","unitPriceLabel":"57 Lei/l","brand":"Johnson’s Baby","brandCode":"547","brandFilterCode":"johnson-s-baby-b548","sku":"100085631","price":28.5,"originalPrice":null,"currencyCode":"RON","currency":"Lei","image":{"thumbnail":{"default":"https://cdn.freshful.ro/media/cache/sylius_shop_product_thumbnail/bf/74/25766e0564cd1fa41f326722a987.jpg"},"large":{"default":"https://cdn.freshful.ro/media/cache/freshful_large/bf/74/25766e0564cd1fa41f326722a987.jpg"},"extralarge":{"default":"https://cdn.freshful.ro/media/cache/sylius_shop_product_original/bf/74/25766e0564cd1fa41f326722a987.jpg"}},"label":null,"tags":[],"isAvailable":true,"maxAvailableQuantity":48,"maxAllowedQuantity":100,"breadcrumbs":[{"code":"12","name":"Mama & copilul","slug":"12-mama-si-copilul"},{"code":"1202","name":"Igienă bebe","slug":"1202-igiena-bebe"},{"code":"120205","name":"Șampon, săpunuri și geluri de duș","slug":"120205-sampon-sapunuri-si-geluri-de-dus"},{"code":"100085631","name":"Loțiune de spălare 2 în 1 Cottontouch 500ml","slug":"100085631-johnsons-baby-lotiune-de-spalare-2-in-1-cottontouch-500ml"}],"activePromotion":null,"saveMe":null,"labels":[],"geniusPrice":null,"geniusUnitPricePerLabel":null,"banner":null,"discountLabel":null,"geniusDiscountLabel":null,"badge":null},{"code":"100085632","variantCode":"100085632","name":"Șampon pentru copii Strenght Drops 500ml","slug":"100085632-johnsons-baby-sampon-pentru-copii-strenght-drops-500ml","unitPriceLabel":"43 Lei/l","brand":"Johnson’s Baby","brandCode":"547","brandFilterCode":"johnson-s-baby-b548","sku":"100085632","price":21.5,"originalPrice":null,"currencyCode":"RON","currency":"Lei","image":{"thumbnail":{"default":"https://cdn.freshful.ro/media/cache/sylius_shop_product_thumbnail/1c/be/2a84d18c4be67e6d917ea1efd06f.jpg"},"large":{"default":"https://cdn.freshful.ro/media/cache/freshful_large/1c/be/2a84d18c4be67e6d917ea1efd06f.jpg"},"extralarge":{"default":"https://cdn.freshful.ro/media/cache/sylius_shop_product_original/1c/be/2a84d18c4be67e6d917ea1efd06f.jpg"}},"label":null,"tags":[],"isAvailable":true,"maxAvailableQuantity":15,"maxAllowedQuantity":100,"breadcrumbs":[{"code":"12","name":"Mama & copilul","slug":"12-mama-si-copilul"},{"code":"1202","name":"Igienă bebe","slug":"1202-igiena-bebe"},{"code":"120205","name":"Șampon, săpunuri și geluri de duș","slug":"120205-sampon-sapunuri-si-geluri-de-dus"},{"code":"100085632","name":"Șampon pentru copii Strenght Drops 500ml","slug":"100085632-johnsons-baby-sampon-pentru-copii-strenght-drops-500ml"}],"activePromotion":null,"saveMe":null,"labels":[],"geniusPrice":null,"geniusUnitPricePerLabel":null,"banner":null,"discountLabel":null,"geniusDiscountLabel":null,"badge":null}],"filters":{"countSelected":0,"items":[{"code":"brand","name":"Brand","countSelected":0,"values":[{"code":"bambo-nature-b1862","name":"Bambo Nature","isSelected":false,"count":1},{"code":"chicco-b659","name":"Chicco","isSelected":false,"count":4},{"code":"dove-b764","name":"Dove","isSelected":false,"count":2},{"code":"essere-b1365","name":"Essere","isSelected":false,"count":3},{"code":"hipp-b849","name":"HiPP","isSelected":false,"count":2},{"code":"johnson-s-baby-b548","name":"Johnson’s Baby","isSelected":false,"count":7},{"code":"laboratoires-de-biarritz-b1419","name":"Laboratoires de Biarritz","isSelected":false,"count":1},{"code":"natura-verde-b340","name":"Natura Verde","isSelected":false,"count":4},{"code":"nivea-b317","name":"Nivea","isSelected":false,"count":9}]},{"code":"diet_lifestyle","name":"Dietă și lifestyle","countSelected":0,"values":[{"code":"bio-a26","name":"Bio","isSelected":false,"count":9},{"code":"fara-conservanti-a37","name":"Fara conservanti","isSelected":false,"count":1},{"code":"vegan-a24","name":"Vegan","isSelected":false,"count":2}]}]},"orderBy":[{"field":"price","direction":"asc","name":"Preț crescător","isSelected":false},{"field":"price","direction":"desc","name":"Preț descrescător","isSelected":false},{"field":"popularity","direction":"desc","name":"Cele mai populare","isSelected":true},{"field":"category","direction":"asc","name":"Categorie","isSelected":false}],"metaTitle":"Șampon, săpunuri și geluri de duș - Gamă variată","metaDescription":"Vrei Șampon, săpunuri și geluri de duș? Alege dintr-o gamă variată. Comanzi simplu și ai livrare rapidă, calitate și prospețime. Hai pe Freshful.ro","metaKeywords":null,"banners":[]}}