{"type":"subcategory","payload":{"analyticsListId":"category_120301-biberoane-si-tetine","analyticsListName":"Category - Biberoane și tetine","name":"Biberoane și tetine","slug":"120301-biberoane-si-tetine","image":null,"breadcrumbs":[{"code":"12","name":"Mama & copilul","slug":"12-mama-si-copilul"},{"code":"1203","name":"Puericultură","slug":"1203-puericultura"},{"code":"120301","name":"Biberoane și tetine","slug":"120301-biberoane-si-tetine"}],"slots":[],"page":1,"limit":10,"pages":5,"count":50,"siblings":[{"name":"Alimente bebe","slug":"1201-alimente-bebelusi","selected":false},{"name":"Igienă bebe","slug":"1202-igiena-bebe","selected":false},{"name":"Puericultură","slug":"1203-puericultura","selected":true}],"children":[{"name":"Toate produsele","slug":"1203-puericultura","selected":false},{"name":"Biberoane și tetine","slug":"120301-biberoane-si-tetine","selected":true},{"name":"Suzete","slug":"120302-suzete","selected":false},{"name":"Veselă bebeluși și bavete","slug":"120303-vesela-bebelusi-si-bavete","selected":false},{"name":"Jucării bebeluși","slug":"120304-jucarii-bebelusi","selected":false},{"name":"Accesorii pentru baie","slug":"120305-accesorii-baie","selected":false},{"name":"Somn","slug":"120308-somn","selected":false},{"name":"Siguranță","slug":"siguranta","selected":false},{"name":"Curățare veselă și biberoane","slug":"curatare-vesela-si-biberoane","selected":false}],"products":[{"code":"100122631","variantCode":"100122631","name":"Inel dentiție formă stea, bleu, 3 luni+ ","slug":"100122631-primii-pasi-inel-dentitie-forma-stea-bleu-3-luni","unitPriceLabel":"","brand":"Primii Pași","brandCode":"2073","brandFilterCode":"primii-pasi-b2077","sku":"100122631","price":6.99,"originalPrice":null,"currencyCode":"RON","currency":"Lei","image":{"thumbnail":{"default":"https://cdn.freshful.ro/media/cache/sylius_shop_product_thumbnail/65/9f/0d78717bc0edc4fa7de84c769ced.jpg"},"large":{"default":"https://cdn.freshful.ro/media/cache/freshful_large/65/9f/0d78717bc0edc4fa7de84c769ced.jpg"},"extralarge":{"default":"https://cdn.freshful.ro/media/cache/sylius_shop_product_original/65/9f/0d78717bc0edc4fa7de84c769ced.jpg"}},"label":null,"tags":[],"isAvailable":true,"maxAvailableQuantity":47,"maxAllowedQuantity":100,"breadcrumbs":[{"code":"12","name":"Mama & copilul","slug":"12-mama-si-copilul"},{"code":"1203","name":"Puericultură","slug":"1203-puericultura"},{"code":"120301","name":"Biberoane și tetine","slug":"120301-biberoane-si-tetine"},{"code":"100122631","name":"Inel dentiție formă stea, bleu, 3 luni+ ","slug":"100122631-primii-pasi-inel-dentitie-forma-stea-bleu-3-luni"}],"activePromotion":null,"saveMe":null,"labels":[],"geniusPrice":null,"geniusUnitPricePerLabel":null,"banner":null,"discountLabel":null,"geniusDiscountLabel":null,"badge":null},{"code":"100108108","variantCode":"100108108","name":"Apă sanitară electrolizată, +0 luni, 500ml ","slug":"100108108-aquaint-apa-sanitara-electrolizata-0-luni-500ml","unitPriceLabel":"","brand":"Aquaint","brandCode":"1733","brandFilterCode":"aquaint-b1737","sku":"100108108","price":41.19,"originalPrice":null,"currencyCode":"RON","currency":"Lei","image":{"thumbnail":{"default":"https://cdn.freshful.ro/media/cache/sylius_shop_product_thumbnail/58/28/80e99f912150e73be8265cb3169c.jpg"},"large":{"default":"https://cdn.freshful.ro/media/cache/freshful_large/58/28/80e99f912150e73be8265cb3169c.jpg"},"extralarge":{"default":"https://cdn.freshful.ro/media/cache/sylius_shop_product_original/58/28/80e99f912150e73be8265cb3169c.jpg"}},"label":null,"tags":[{"type":"NoPreservatives","text":"Fara conservanti","icon":"https://cdn.freshful.ro/assets/product_tags/fara_conservanti.svg","iconPng":"https://cdn.freshful.ro/assets/product_tags/fara_conservanti.png","backgroundColor":"#F0F2FF","textColor":"#7889DD"}],"isAvailable":true,"maxAvailableQuantity":27,"maxAllowedQuantity":100,"breadcrumbs":[{"code":"12","name":"Mama & copilul","slug":"12-mama-si-copilul"},{"code":"1203","name":"Puericultură","slug":"1203-puericultura"},{"code":"120301","name":"Biberoane și tetine","slug":"120301-biberoane-si-tetine"},{"code":"100108108","name":"Apă sanitară electrolizată, +0 luni, 500ml ","slug":"100108108-aquaint-apa-sanitara-electrolizata-0-luni-500ml"}],"activePromotion":null,"saveMe":null,"labels":[],"geniusPrice":null,"geniusUnitPricePerLabel":null,"banner":null,"discountLabel":null,"geniusDiscountLabel":null,"badge":null},{"code":"100122632","variantCode":"100122632","name":"Inel dentiție formă stea, galben, 3 luni+ ","slug":"100122632-primii-pasi-inel-dentitie-forma-stea-galben-3-luni","unitPriceLabel":"","brand":"Primii Pași","brandCode":"2073","brandFilterCode":"primii-pasi-b2077","sku":"100122632","price":6.99,"originalPrice":null,"currencyCode":"RON","currency":"Lei","image":{"thumbnail":{"default":"https://cdn.freshful.ro/media/cache/sylius_shop_product_thumbnail/68/0f/75a4ac525693827d29ca27c60403.jpg"},"large":{"default":"https://cdn.freshful.ro/media/cache/freshful_large/68/0f/75a4ac525693827d29ca27c60403.jpg"},"extralarge":{"default":"https://cdn.freshful.ro/media/cache/sylius_shop_product_original/68/0f/75a4ac525693827d29ca27c60403.jpg"}},"label":null,"tags":[],"isAvailable":true,"maxAvailableQuantity":11,"maxAllowedQuantity":100,"breadcrumbs":[{"code":"12","name":"Mama & copilul","slug":"12-mama-si-copilul"},{"code":"1203","name":"Puericultură","slug":"1203-puericultura"},{"code":"120301","name":"Biberoane și tetine","slug":"120301-biberoane-si-tetine"},{"code":"100122632","name":"Inel dentiție formă stea, galben, 3 luni+ ","slug":"100122632-primii-pasi-inel-dentitie-forma-stea-galben-3-luni"}],"activePromotion":null,"saveMe":null,"labels":[],"geniusPrice":null,"geniusUnitPricePerLabel":null,"banner":null,"discountLabel":null,"geniusDiscountLabel":null,"badge":null},{"code":"100108154","variantCode":"100108154","name":"Degetar antibacterian pentru igienă orală, +0 luni","slug":"100108154-dentistar-degetar-antibacterian-pentru-igiena-orala-0-luni","unitPriceLabel":"","brand":"Dentistar","brandCode":"1736","brandFilterCode":"dentistar-b1740","sku":"100108154","price":26.99,"originalPrice":null,"currencyCode":"RON","currency":"Lei","image":{"thumbnail":{"default":"https://cdn.freshful.ro/media/cache/sylius_shop_product_thumbnail/6d/71/86d526ec3b6787870f7a3102d6c2.jpg"},"large":{"default":"https://cdn.freshful.ro/media/cache/freshful_large/6d/71/86d526ec3b6787870f7a3102d6c2.jpg"},"extralarge":{"default":"https://cdn.freshful.ro/media/cache/sylius_shop_product_original/6d/71/86d526ec3b6787870f7a3102d6c2.jpg"}},"label":null,"tags":[],"isAvailable":true,"maxAvailableQuantity":24,"maxAllowedQuantity":100,"breadcrumbs":[{"code":"12","name":"Mama & copilul","slug":"12-mama-si-copilul"},{"code":"1203","name":"Puericultură","slug":"1203-puericultura"},{"code":"120301","name":"Biberoane și tetine","slug":"120301-biberoane-si-tetine"},{"code":"100108154","name":"Degetar antibacterian pentru igienă orală, +0 luni","slug":"100108154-dentistar-degetar-antibacterian-pentru-igiena-orala-0-luni"}],"activePromotion":null,"saveMe":null,"labels":[],"geniusPrice":null,"geniusUnitPricePerLabel":null,"banner":null,"discountLabel":null,"geniusDiscountLabel":null,"badge":null},{"code":"100066591","variantCode":"100066591","name":"Biberon cu tetină de silicon, albastru, 6-18 luni, 300ml","slug":"100066591-nuk-biberon-cu-tetina-de-silicon-albastru-6-18-luni-300ml","unitPriceLabel":"","brand":"Nuk","brandCode":"1104","brandFilterCode":"nuk-b1105","sku":"100066591","price":34.79,"originalPrice":null,"currencyCode":"RON","currency":"Lei","image":{"thumbnail":{"default":"https://cdn.freshful.ro/media/cache/sylius_shop_product_thumbnail/64/4b/28b4b65613f48a67d13f9da4090c.jpg"},"large":{"default":"https://cdn.freshful.ro/media/cache/freshful_large/64/4b/28b4b65613f48a67d13f9da4090c.jpg"},"extralarge":{"default":"https://cdn.freshful.ro/media/cache/sylius_shop_product_original/64/4b/28b4b65613f48a67d13f9da4090c.jpg"}},"label":null,"tags":[],"isAvailable":true,"maxAvailableQuantity":2,"maxAllowedQuantity":100,"breadcrumbs":[{"code":"12","name":"Mama & copilul","slug":"12-mama-si-copilul"},{"code":"1203","name":"Puericultură","slug":"1203-puericultura"},{"code":"120301","name":"Biberoane și tetine","slug":"120301-biberoane-si-tetine"},{"code":"100066591","name":"Biberon cu tetină de silicon, albastru, 6-18 luni, 300ml","slug":"100066591-nuk-biberon-cu-tetina-de-silicon-albastru-6-18-luni-300ml"}],"activePromotion":null,"saveMe":null,"labels":[],"geniusPrice":null,"geniusUnitPricePerLabel":null,"banner":null,"discountLabel":null,"geniusDiscountLabel":null,"badge":null},{"code":"100108116","variantCode":"100108116","name":"Tetine rotunde din silicon pentru ceai măsura L, 6-24 luni ","slug":"100108116-baby-nova-tetine-rotunde-din-silicon-pentru-ceai-masura-l-6-24-luni","unitPriceLabel":"","brand":"Baby Nova","brandCode":"1735","brandFilterCode":"baby-nova-b1739","sku":"100108116","price":9.99,"originalPrice":null,"currencyCode":"RON","currency":"Lei","image":{"thumbnail":{"default":"https://cdn.freshful.ro/media/cache/sylius_shop_product_thumbnail/45/2f/79c7be5e66d7290685cf0b772a10.jpg"},"large":{"default":"https://cdn.freshful.ro/media/cache/freshful_large/45/2f/79c7be5e66d7290685cf0b772a10.jpg"},"extralarge":{"default":"https://cdn.freshful.ro/media/cache/sylius_shop_product_original/45/2f/79c7be5e66d7290685cf0b772a10.jpg"}},"label":null,"tags":[],"isAvailable":true,"maxAvailableQuantity":5,"maxAllowedQuantity":100,"breadcrumbs":[{"code":"12","name":"Mama & copilul","slug":"12-mama-si-copilul"},{"code":"1203","name":"Puericultură","slug":"1203-puericultura"},{"code":"120301","name":"Biberoane și tetine","slug":"120301-biberoane-si-tetine"},{"code":"100108116","name":"Tetine rotunde din silicon pentru ceai măsura L, 6-24 luni ","slug":"100108116-baby-nova-tetine-rotunde-din-silicon-pentru-ceai-masura-l-6-24-luni"}],"activePromotion":null,"saveMe":null,"labels":[],"geniusPrice":null,"geniusUnitPricePerLabel":null,"banner":null,"discountLabel":null,"geniusDiscountLabel":null,"badge":null},{"code":"100108185","variantCode":"100108185","name":"Degetar din silicon, +3 luni","slug":"100108185-nuby-degetar-din-silicon-3-luni","unitPriceLabel":"","brand":"Nuby","brandCode":"1737","brandFilterCode":"nuby-b1741","sku":"100108185","price":20.79,"originalPrice":null,"currencyCode":"RON","currency":"Lei","image":{"thumbnail":{"default":"https://cdn.freshful.ro/media/cache/sylius_shop_product_thumbnail/a1/87/d23073941135f409da3dfc28d3fc.jpg"},"large":{"default":"https://cdn.freshful.ro/media/cache/freshful_large/a1/87/d23073941135f409da3dfc28d3fc.jpg"},"extralarge":{"default":"https://cdn.freshful.ro/media/cache/sylius_shop_product_original/a1/87/d23073941135f409da3dfc28d3fc.jpg"}},"label":null,"tags":[],"isAvailable":true,"maxAvailableQuantity":14,"maxAllowedQuantity":100,"breadcrumbs":[{"code":"12","name":"Mama & copilul","slug":"12-mama-si-copilul"},{"code":"1203","name":"Puericultură","slug":"1203-puericultura"},{"code":"120301","name":"Biberoane și tetine","slug":"120301-biberoane-si-tetine"},{"code":"100108185","name":"Degetar din silicon, +3 luni","slug":"100108185-nuby-degetar-din-silicon-3-luni"}],"activePromotion":null,"saveMe":null,"labels":[],"geniusPrice":null,"geniusUnitPricePerLabel":null,"banner":null,"discountLabel":null,"geniusDiscountLabel":null,"badge":null},{"code":"100122600","variantCode":"100122600","name":"Biberon polipropilenă gât larg bleu, +0 luni, 250ml ","slug":"100122600-primii-pasi-biberon-polipropilena-gat-larg-bleu-0-luni-250ml","unitPriceLabel":"","brand":"Primii Pași","brandCode":"2073","brandFilterCode":"primii-pasi-b2077","sku":"100122600","price":11.19,"originalPrice":null,"currencyCode":"RON","currency":"Lei","image":{"thumbnail":{"default":"https://cdn.freshful.ro/media/cache/sylius_shop_product_thumbnail/de/9e/c0f66406f5f50c0669ab201a9999.jpg"},"large":{"default":"https://cdn.freshful.ro/media/cache/freshful_large/de/9e/c0f66406f5f50c0669ab201a9999.jpg"},"extralarge":{"default":"https://cdn.freshful.ro/media/cache/sylius_shop_product_original/de/9e/c0f66406f5f50c0669ab201a9999.jpg"}},"label":null,"tags":[],"isAvailable":true,"maxAvailableQuantity":6,"maxAllowedQuantity":100,"breadcrumbs":[{"code":"12","name":"Mama & copilul","slug":"12-mama-si-copilul"},{"code":"1203","name":"Puericultură","slug":"1203-puericultura"},{"code":"120301","name":"Biberoane și tetine","slug":"120301-biberoane-si-tetine"},{"code":"100122600","name":"Biberon polipropilenă gât larg bleu, +0 luni, 250ml ","slug":"100122600-primii-pasi-biberon-polipropilena-gat-larg-bleu-0-luni-250ml"}],"activePromotion":null,"saveMe":null,"labels":[],"geniusPrice":null,"geniusUnitPricePerLabel":null,"banner":null,"discountLabel":null,"geniusDiscountLabel":null,"badge":null},{"code":"100108142","variantCode":"100108142","name":"Biberon tetină rotundă Slow 0-24 luni, 120ml","slug":"100108142-baby-nova-biberon-tetina-rotunda-slow-0-24-luni-120ml","unitPriceLabel":"","brand":"Baby Nova","brandCode":"1735","brandFilterCode":"baby-nova-b1739","sku":"100108142","price":19.48,"originalPrice":null,"currencyCode":"RON","currency":"Lei","image":{"thumbnail":{"default":"https://cdn.freshful.ro/media/cache/sylius_shop_product_thumbnail/86/8d/df1f4d417925390828d62d3cb1f4.jpg"},"large":{"default":"https://cdn.freshful.ro/media/cache/freshful_large/86/8d/df1f4d417925390828d62d3cb1f4.jpg"},"extralarge":{"default":"https://cdn.freshful.ro/media/cache/sylius_shop_product_original/86/8d/df1f4d417925390828d62d3cb1f4.jpg"}},"label":null,"tags":[],"isAvailable":true,"maxAvailableQuantity":4,"maxAllowedQuantity":100,"breadcrumbs":[{"code":"12","name":"Mama & copilul","slug":"12-mama-si-copilul"},{"code":"1203","name":"Puericultură","slug":"1203-puericultura"},{"code":"120301","name":"Biberoane și tetine","slug":"120301-biberoane-si-tetine"},{"code":"100108142","name":"Biberon tetină rotundă Slow 0-24 luni, 120ml","slug":"100108142-baby-nova-biberon-tetina-rotunda-slow-0-24-luni-120ml"}],"activePromotion":null,"saveMe":null,"labels":[],"geniusPrice":null,"geniusUnitPricePerLabel":null,"banner":null,"discountLabel":null,"geniusDiscountLabel":null,"badge":null},{"code":"100108150","variantCode":"100108150","name":"Inel dentiție cu apă pură, +3 luni","slug":"100108150-dentistar-inel-dentitie-cu-apa-pura-3-luni","unitPriceLabel":"","brand":"Dentistar","brandCode":"1736","brandFilterCode":"dentistar-b1740","sku":"100108150","price":31.69,"originalPrice":null,"currencyCode":"RON","currency":"Lei","image":{"thumbnail":{"default":"https://cdn.freshful.ro/media/cache/sylius_shop_product_thumbnail/06/11/3ac043881ecdfc884d6a6ccf77cb.jpg"},"large":{"default":"https://cdn.freshful.ro/media/cache/freshful_large/06/11/3ac043881ecdfc884d6a6ccf77cb.jpg"},"extralarge":{"default":"https://cdn.freshful.ro/media/cache/sylius_shop_product_original/06/11/3ac043881ecdfc884d6a6ccf77cb.jpg"}},"label":null,"tags":[],"isAvailable":true,"maxAvailableQuantity":9,"maxAllowedQuantity":100,"breadcrumbs":[{"code":"12","name":"Mama & copilul","slug":"12-mama-si-copilul"},{"code":"1203","name":"Puericultură","slug":"1203-puericultura"},{"code":"120301","name":"Biberoane și tetine","slug":"120301-biberoane-si-tetine"},{"code":"100108150","name":"Inel dentiție cu apă pură, +3 luni","slug":"100108150-dentistar-inel-dentitie-cu-apa-pura-3-luni"}],"activePromotion":null,"saveMe":null,"labels":[],"geniusPrice":null,"geniusUnitPricePerLabel":null,"banner":null,"discountLabel":null,"geniusDiscountLabel":null,"badge":null}],"filters":{"countSelected":0,"items":[{"code":"brand","name":"Brand","countSelected":0,"values":[{"code":"aquaint-b1737","name":"Aquaint","isSelected":false,"count":1},{"code":"baby-nova-b1739","name":"Baby Nova","isSelected":false,"count":8},{"code":"dentistar-b1740","name":"Dentistar","isSelected":false,"count":4},{"code":"nuby-b1741","name":"Nuby","isSelected":false,"count":5},{"code":"nuk-b1105","name":"Nuk","isSelected":false,"count":10},{"code":"primii-pasi-b2077","name":"Primii Pași","isSelected":false,"count":22}]},{"code":"diet_lifestyle","name":"Dietă și lifestyle","countSelected":0,"values":[{"code":"fara-conservanti-a37","name":"Fara conservanti","isSelected":false,"count":1},{"code":"vegan-a24","name":"Vegan","isSelected":false,"count":1}]}]},"orderBy":[{"field":"price","direction":"asc","name":"Preț crescător","isSelected":false},{"field":"price","direction":"desc","name":"Preț descrescător","isSelected":false},{"field":"popularity","direction":"desc","name":"Cele mai populare","isSelected":true},{"field":"category","direction":"asc","name":"Categorie","isSelected":false}],"metaTitle":"Biberoane și tetine - Gamă variată","metaDescription":"Vrei Biberoane și tetine? Alege dintr-o gamă variată. Comanzi simplu și ai livrare rapidă, calitate și prospețime. Hai pe Freshful.ro","metaKeywords":null,"banners":[]}}