{"type":"subcategory","payload":{"analyticsListId":"category_120303-vesela-bebelusi-si-bavete","analyticsListName":"Category - Veselă bebeluși și bavete","name":"Veselă bebeluși și bavete","slug":"120303-vesela-bebelusi-si-bavete","image":null,"breadcrumbs":[{"code":"12","name":"Mama & copilul","slug":"12-mama-si-copilul"},{"code":"1203","name":"Puericultură","slug":"1203-puericultura"},{"code":"120303","name":"Veselă bebeluși și bavete","slug":"120303-vesela-bebelusi-si-bavete"}],"slots":[],"page":1,"limit":10,"pages":4,"count":32,"siblings":[{"name":"Alimente bebe","slug":"1201-alimente-bebelusi","selected":false},{"name":"Igienă bebe","slug":"1202-igiena-bebe","selected":false},{"name":"Puericultură","slug":"1203-puericultura","selected":true}],"children":[{"name":"Toate produsele","slug":"1203-puericultura","selected":false},{"name":"Biberoane și tetine","slug":"120301-biberoane-si-tetine","selected":false},{"name":"Suzete","slug":"120302-suzete","selected":false},{"name":"Veselă bebeluși și bavete","slug":"120303-vesela-bebelusi-si-bavete","selected":true},{"name":"Jucării bebeluși","slug":"120304-jucarii-bebelusi","selected":false},{"name":"Accesorii pentru baie","slug":"120305-accesorii-baie","selected":false},{"name":"Somn","slug":"120308-somn","selected":false},{"name":"Siguranță","slug":"siguranta","selected":false},{"name":"Curățare veselă și biberoane","slug":"curatare-vesela-si-biberoane","selected":false}],"products":[{"code":"100108109","variantCode":"100108109","name":"Bavețele de unică folosință 24 buc ","slug":"100108109-baby-works-bavetele-de-unica-folosinta-24-buc","unitPriceLabel":"","brand":"Baby Works","brandCode":"1734","brandFilterCode":"baby-works-b1738","sku":"100108109","price":28.49,"originalPrice":null,"currencyCode":"RON","currency":"Lei","image":{"thumbnail":{"default":"https://cdn.freshful.ro/media/cache/sylius_shop_product_thumbnail/63/8d/827c963056cbccc38e940b7a1aa1.jpg"},"large":{"default":"https://cdn.freshful.ro/media/cache/freshful_large/63/8d/827c963056cbccc38e940b7a1aa1.jpg"},"extralarge":{"default":"https://cdn.freshful.ro/media/cache/sylius_shop_product_original/63/8d/827c963056cbccc38e940b7a1aa1.jpg"}},"label":null,"tags":[],"isAvailable":true,"maxAvailableQuantity":40,"maxAllowedQuantity":100,"breadcrumbs":[{"code":"12","name":"Mama & copilul","slug":"12-mama-si-copilul"},{"code":"1203","name":"Puericultură","slug":"1203-puericultura"},{"code":"120303","name":"Veselă bebeluși și bavete","slug":"120303-vesela-bebelusi-si-bavete"},{"code":"100108109","name":"Bavețele de unică folosință 24 buc ","slug":"100108109-baby-works-bavetele-de-unica-folosinta-24-buc"}],"activePromotion":null,"saveMe":null,"labels":[],"geniusPrice":null,"geniusUnitPricePerLabel":null,"banner":null,"discountLabel":null,"geniusDiscountLabel":null,"badge":null},{"code":"100122630","variantCode":"100122630","name":"Cană termos bleu cu pai și capac portocaliu, 9+ luni, 300ml","slug":"100122630-primii-pasi-cana-termos-bleu-cu-pai-si-capac-portocaliu-9-luni-300ml","unitPriceLabel":"","brand":"Primii Pași","brandCode":"2073","brandFilterCode":"primii-pasi-b2077","sku":"100122630","price":16.49,"originalPrice":null,"currencyCode":"RON","currency":"Lei","image":{"thumbnail":{"default":"https://cdn.freshful.ro/media/cache/sylius_shop_product_thumbnail/e2/be/67924d7d45266710debfd1c2c4e0.jpg"},"large":{"default":"https://cdn.freshful.ro/media/cache/freshful_large/e2/be/67924d7d45266710debfd1c2c4e0.jpg"},"extralarge":{"default":"https://cdn.freshful.ro/media/cache/sylius_shop_product_original/e2/be/67924d7d45266710debfd1c2c4e0.jpg"}},"label":null,"tags":[],"isAvailable":true,"maxAvailableQuantity":15,"maxAllowedQuantity":100,"breadcrumbs":[{"code":"12","name":"Mama & copilul","slug":"12-mama-si-copilul"},{"code":"1203","name":"Puericultură","slug":"1203-puericultura"},{"code":"120303","name":"Veselă bebeluși și bavete","slug":"120303-vesela-bebelusi-si-bavete"},{"code":"100122630","name":"Cană termos bleu cu pai și capac portocaliu, 9+ luni, 300ml","slug":"100122630-primii-pasi-cana-termos-bleu-cu-pai-si-capac-portocaliu-9-luni-300ml"}],"activePromotion":null,"saveMe":null,"labels":[],"geniusPrice":null,"geniusUnitPricePerLabel":null,"banner":null,"discountLabel":null,"geniusDiscountLabel":null,"badge":null},{"code":"100101246","variantCode":"100101246","name":"Bavete de unică folosință 0.5-3 ani, 4 pachete x 5 buc (20 buc)","slug":"100101246-synek-bavete-de-unica-folosinta-0-5-3-ani-4-pachete-x-5-buc-20-buc","unitPriceLabel":"","brand":"Synek","brandCode":"1683","brandFilterCode":"synek-b1687","sku":"100101246","price":21.99,"originalPrice":null,"currencyCode":"RON","currency":"Lei","image":{"thumbnail":{"default":"https://cdn.freshful.ro/media/cache/sylius_shop_product_thumbnail/d6/53/4fce28f28ddc053b8dd0b301581e.jpg"},"large":{"default":"https://cdn.freshful.ro/media/cache/freshful_large/d6/53/4fce28f28ddc053b8dd0b301581e.jpg"},"extralarge":{"default":"https://cdn.freshful.ro/media/cache/sylius_shop_product_original/d6/53/4fce28f28ddc053b8dd0b301581e.jpg"}},"label":null,"tags":[],"isAvailable":true,"maxAvailableQuantity":7,"maxAllowedQuantity":100,"breadcrumbs":[{"code":"12","name":"Mama & copilul","slug":"12-mama-si-copilul"},{"code":"1203","name":"Puericultură","slug":"1203-puericultura"},{"code":"120303","name":"Veselă bebeluși și bavete","slug":"120303-vesela-bebelusi-si-bavete"},{"code":"100101246","name":"Bavete de unică folosință 0.5-3 ani, 4 pachete x 5 buc (20 buc)","slug":"100101246-synek-bavete-de-unica-folosinta-0-5-3-ani-4-pachete-x-5-buc-20-buc"}],"activePromotion":null,"saveMe":null,"labels":[],"geniusPrice":null,"geniusUnitPricePerLabel":null,"banner":null,"discountLabel":null,"geniusDiscountLabel":null,"badge":null},{"code":"100108136","variantCode":"100108136","name":"Set 5 lingurițe (plastic)","slug":"100108136-baby-nova-set-5-lingurite-plastic","unitPriceLabel":"","brand":"Baby Nova","brandCode":"1735","brandFilterCode":"baby-nova-b1739","sku":"100108136","price":13.19,"originalPrice":null,"currencyCode":"RON","currency":"Lei","image":{"thumbnail":{"default":"https://cdn.freshful.ro/media/cache/sylius_shop_product_thumbnail/39/af/aa94f784508f5374738d071bd053.jpg"},"large":{"default":"https://cdn.freshful.ro/media/cache/freshful_large/39/af/aa94f784508f5374738d071bd053.jpg"},"extralarge":{"default":"https://cdn.freshful.ro/media/cache/sylius_shop_product_original/39/af/aa94f784508f5374738d071bd053.jpg"}},"label":null,"tags":[],"isAvailable":true,"maxAvailableQuantity":21,"maxAllowedQuantity":100,"breadcrumbs":[{"code":"12","name":"Mama & copilul","slug":"12-mama-si-copilul"},{"code":"1203","name":"Puericultură","slug":"1203-puericultura"},{"code":"120303","name":"Veselă bebeluși și bavete","slug":"120303-vesela-bebelusi-si-bavete"},{"code":"100108136","name":"Set 5 lingurițe (plastic)","slug":"100108136-baby-nova-set-5-lingurite-plastic"}],"activePromotion":null,"saveMe":null,"labels":[],"geniusPrice":null,"geniusUnitPricePerLabel":null,"banner":null,"discountLabel":null,"geniusDiscountLabel":null,"badge":null},{"code":"100122460","variantCode":"100122460","name":"Set 5 recipiente pentru păstrarea hranei ","slug":"100122460-lorelli-set-5-recipiente-pentru-pastrarea-hranei","unitPriceLabel":"","brand":"Lorelli","brandCode":"2062","brandFilterCode":"lorelli-b2066","sku":"100122460","price":33.99,"originalPrice":null,"currencyCode":"RON","currency":"Lei","image":{"thumbnail":{"default":"https://cdn.freshful.ro/media/cache/sylius_shop_product_thumbnail/20/e2/cc78237d314694cc74fcb6f6f792.jpg"},"large":{"default":"https://cdn.freshful.ro/media/cache/freshful_large/20/e2/cc78237d314694cc74fcb6f6f792.jpg"},"extralarge":{"default":"https://cdn.freshful.ro/media/cache/sylius_shop_product_original/20/e2/cc78237d314694cc74fcb6f6f792.jpg"}},"label":null,"tags":[],"isAvailable":true,"maxAvailableQuantity":17,"maxAllowedQuantity":100,"breadcrumbs":[{"code":"12","name":"Mama & copilul","slug":"12-mama-si-copilul"},{"code":"1203","name":"Puericultură","slug":"1203-puericultura"},{"code":"120303","name":"Veselă bebeluși și bavete","slug":"120303-vesela-bebelusi-si-bavete"},{"code":"100122460","name":"Set 5 recipiente pentru păstrarea hranei ","slug":"100122460-lorelli-set-5-recipiente-pentru-pastrarea-hranei"}],"activePromotion":null,"saveMe":null,"labels":[],"geniusPrice":null,"geniusUnitPricePerLabel":null,"banner":null,"discountLabel":null,"geniusDiscountLabel":null,"badge":null},{"code":"100108137","variantCode":"100108137","name":"Set lingurițe termosensibile +6 luni","slug":"100108137-baby-nova-set-lingurite-termosensibile-6-luni","unitPriceLabel":"","brand":"Baby Nova","brandCode":"1735","brandFilterCode":"baby-nova-b1739","sku":"100108137","price":21.99,"originalPrice":null,"currencyCode":"RON","currency":"Lei","image":{"thumbnail":{"default":"https://cdn.freshful.ro/media/cache/sylius_shop_product_thumbnail/dc/a6/088e50687b2a74da8f92134c9511.jpg"},"large":{"default":"https://cdn.freshful.ro/media/cache/freshful_large/dc/a6/088e50687b2a74da8f92134c9511.jpg"},"extralarge":{"default":"https://cdn.freshful.ro/media/cache/sylius_shop_product_original/dc/a6/088e50687b2a74da8f92134c9511.jpg"}},"label":null,"tags":[],"isAvailable":true,"maxAvailableQuantity":13,"maxAllowedQuantity":100,"breadcrumbs":[{"code":"12","name":"Mama & copilul","slug":"12-mama-si-copilul"},{"code":"1203","name":"Puericultură","slug":"1203-puericultura"},{"code":"120303","name":"Veselă bebeluși și bavete","slug":"120303-vesela-bebelusi-si-bavete"},{"code":"100108137","name":"Set lingurițe termosensibile +6 luni","slug":"100108137-baby-nova-set-lingurite-termosensibile-6-luni"}],"activePromotion":null,"saveMe":null,"labels":[],"geniusPrice":null,"geniusUnitPricePerLabel":null,"banner":null,"discountLabel":null,"geniusDiscountLabel":null,"badge":null},{"code":"100108180","variantCode":"100108180","name":"Linguriță din silicon flexibilă +cutie, 6+ luni","slug":"100108180-nuby-lingurita-din-silicon-flexibila-cutie-6-luni","unitPriceLabel":"","brand":"Nuby","brandCode":"1737","brandFilterCode":"nuby-b1741","sku":"100108180","price":24.29,"originalPrice":null,"currencyCode":"RON","currency":"Lei","image":{"thumbnail":{"default":"https://cdn.freshful.ro/media/cache/sylius_shop_product_thumbnail/74/6f/8b5a7f2cd0838071e1efb6d4e12f.jpg"},"large":{"default":"https://cdn.freshful.ro/media/cache/freshful_large/74/6f/8b5a7f2cd0838071e1efb6d4e12f.jpg"},"extralarge":{"default":"https://cdn.freshful.ro/media/cache/sylius_shop_product_original/74/6f/8b5a7f2cd0838071e1efb6d4e12f.jpg"}},"label":null,"tags":[],"isAvailable":true,"maxAvailableQuantity":26,"maxAllowedQuantity":100,"breadcrumbs":[{"code":"12","name":"Mama & copilul","slug":"12-mama-si-copilul"},{"code":"1203","name":"Puericultură","slug":"1203-puericultura"},{"code":"120303","name":"Veselă bebeluși și bavete","slug":"120303-vesela-bebelusi-si-bavete"},{"code":"100108180","name":"Linguriță din silicon flexibilă +cutie, 6+ luni","slug":"100108180-nuby-lingurita-din-silicon-flexibila-cutie-6-luni"}],"activePromotion":null,"saveMe":null,"labels":[],"geniusPrice":null,"geniusUnitPricePerLabel":null,"banner":null,"discountLabel":null,"geniusDiscountLabel":null,"badge":null},{"code":"100101247","variantCode":"100101247","name":"Bavete de unică folosință 0.5-5 ani, 4 pachete x 5 buc (20 buc)","slug":"100101247-synek-bavete-de-unica-folosinta-0-5-5-ani-4-pachete-x-5-buc-20-buc","unitPriceLabel":"","brand":"Synek","brandCode":"1683","brandFilterCode":"synek-b1687","sku":"100101247","price":23.99,"originalPrice":null,"currencyCode":"RON","currency":"Lei","image":{"thumbnail":{"default":"https://cdn.freshful.ro/media/cache/sylius_shop_product_thumbnail/1f/69/f3e6352f330d16a844b79cb1ee42.jpg"},"large":{"default":"https://cdn.freshful.ro/media/cache/freshful_large/1f/69/f3e6352f330d16a844b79cb1ee42.jpg"},"extralarge":{"default":"https://cdn.freshful.ro/media/cache/sylius_shop_product_original/1f/69/f3e6352f330d16a844b79cb1ee42.jpg"}},"label":null,"tags":[],"isAvailable":true,"maxAvailableQuantity":40,"maxAllowedQuantity":100,"breadcrumbs":[{"code":"12","name":"Mama & copilul","slug":"12-mama-si-copilul"},{"code":"1203","name":"Puericultură","slug":"1203-puericultura"},{"code":"120303","name":"Veselă bebeluși și bavete","slug":"120303-vesela-bebelusi-si-bavete"},{"code":"100101247","name":"Bavete de unică folosință 0.5-5 ani, 4 pachete x 5 buc (20 buc)","slug":"100101247-synek-bavete-de-unica-folosinta-0-5-5-ani-4-pachete-x-5-buc-20-buc"}],"activePromotion":null,"saveMe":null,"labels":[],"geniusPrice":null,"geniusUnitPricePerLabel":null,"banner":null,"discountLabel":null,"geniusDiscountLabel":null,"badge":null},{"code":"100066597","variantCode":"100066597","name":"Cană magică roșie, 8+ luni, 230ml","slug":"100066597-nuk-cana-magica-rosie-8-luni-230ml","unitPriceLabel":"","brand":"Nuk","brandCode":"1104","brandFilterCode":"nuk-b1105","sku":"100066597","price":41.89,"originalPrice":null,"currencyCode":"RON","currency":"Lei","image":{"thumbnail":{"default":"https://cdn.freshful.ro/media/cache/sylius_shop_product_thumbnail/8b/3b/0075cdc9430c9becb9a9d56619d4.jpg"},"large":{"default":"https://cdn.freshful.ro/media/cache/freshful_large/8b/3b/0075cdc9430c9becb9a9d56619d4.jpg"},"extralarge":{"default":"https://cdn.freshful.ro/media/cache/sylius_shop_product_original/8b/3b/0075cdc9430c9becb9a9d56619d4.jpg"}},"label":null,"tags":[],"isAvailable":true,"maxAvailableQuantity":14,"maxAllowedQuantity":100,"breadcrumbs":[{"code":"12","name":"Mama & copilul","slug":"12-mama-si-copilul"},{"code":"1203","name":"Puericultură","slug":"1203-puericultura"},{"code":"120303","name":"Veselă bebeluși și bavete","slug":"120303-vesela-bebelusi-si-bavete"},{"code":"100066597","name":"Cană magică roșie, 8+ luni, 230ml","slug":"100066597-nuk-cana-magica-rosie-8-luni-230ml"}],"activePromotion":null,"saveMe":null,"labels":[],"geniusPrice":null,"geniusUnitPricePerLabel":null,"banner":null,"discountLabel":null,"geniusDiscountLabel":null,"badge":null},{"code":"100066600","variantCode":"100066600","name":"Cană Trainer albastră, 6+ luni, 230ml","slug":"100066600-nuk-cana-trainer-albastra-6-luni-230ml","unitPriceLabel":"","brand":"Nuk","brandCode":"1104","brandFilterCode":"nuk-b1105","sku":"100066600","price":47.99,"originalPrice":null,"currencyCode":"RON","currency":"Lei","image":{"thumbnail":{"default":"https://cdn.freshful.ro/media/cache/sylius_shop_product_thumbnail/bf/62/d41a85cb9774351f27b39bbd6ee0.jpg"},"large":{"default":"https://cdn.freshful.ro/media/cache/freshful_large/bf/62/d41a85cb9774351f27b39bbd6ee0.jpg"},"extralarge":{"default":"https://cdn.freshful.ro/media/cache/sylius_shop_product_original/bf/62/d41a85cb9774351f27b39bbd6ee0.jpg"}},"label":null,"tags":[],"isAvailable":true,"maxAvailableQuantity":14,"maxAllowedQuantity":100,"breadcrumbs":[{"code":"12","name":"Mama & copilul","slug":"12-mama-si-copilul"},{"code":"1203","name":"Puericultură","slug":"1203-puericultura"},{"code":"120303","name":"Veselă bebeluși și bavete","slug":"120303-vesela-bebelusi-si-bavete"},{"code":"100066600","name":"Cană Trainer albastră, 6+ luni, 230ml","slug":"100066600-nuk-cana-trainer-albastra-6-luni-230ml"}],"activePromotion":null,"saveMe":null,"labels":[],"geniusPrice":null,"geniusUnitPricePerLabel":null,"banner":null,"discountLabel":null,"geniusDiscountLabel":null,"badge":null}],"filters":{"countSelected":0,"items":[{"code":"brand","name":"Brand","countSelected":0,"values":[{"code":"baby-nova-b1739","name":"Baby Nova","isSelected":false,"count":3},{"code":"baby-works-b1738","name":"Baby Works","isSelected":false,"count":1},{"code":"lorelli-b2066","name":"Lorelli","isSelected":false,"count":1},{"code":"nuby-b1741","name":"Nuby","isSelected":false,"count":14},{"code":"nuk-b1105","name":"Nuk","isSelected":false,"count":9},{"code":"primii-pasi-b2077","name":"Primii Pași","isSelected":false,"count":1},{"code":"synek-b1687","name":"Synek","isSelected":false,"count":3}]}]},"orderBy":[{"field":"price","direction":"asc","name":"Preț crescător","isSelected":false},{"field":"price","direction":"desc","name":"Preț descrescător","isSelected":false},{"field":"popularity","direction":"desc","name":"Cele mai populare","isSelected":true},{"field":"category","direction":"asc","name":"Categorie","isSelected":false}],"metaTitle":"Veselă bebeluși și bavete - Gamă variată","metaDescription":"Vrei Veselă bebeluși și bavete? Alege dintr-o gamă variată. Comanzi simplu și ai livrare rapidă, calitate și prospețime. Hai pe Freshful.ro","metaKeywords":null,"banners":[]}}