{"type":"subcategory","payload":{"analyticsListId":"category_1203-puericultura","analyticsListName":"Category - Puericultură","name":"Puericultură","slug":"1203-puericultura","image":null,"breadcrumbs":[{"code":"12","name":"Mama & copilul","slug":"12-mama-si-copilul"},{"code":"1203","name":"Puericultură","slug":"1203-puericultura"}],"slots":[],"page":1,"limit":10,"pages":18,"count":174,"siblings":[{"name":"Alimente bebe","slug":"1201-alimente-bebelusi","selected":false},{"name":"Igienă bebe","slug":"1202-igiena-bebe","selected":false},{"name":"Puericultură","slug":"1203-puericultura","selected":true}],"children":[{"name":"Toate produsele","slug":"1203-puericultura","selected":true},{"name":"Biberoane și tetine","slug":"120301-biberoane-si-tetine","selected":false},{"name":"Suzete","slug":"120302-suzete","selected":false},{"name":"Veselă bebeluși și bavete","slug":"120303-vesela-bebelusi-si-bavete","selected":false},{"name":"Jucării bebeluși","slug":"120304-jucarii-bebelusi","selected":false},{"name":"Accesorii pentru baie","slug":"120305-accesorii-baie","selected":false},{"name":"Somn","slug":"120308-somn","selected":false},{"name":"Siguranță","slug":"siguranta","selected":false},{"name":"Curățare veselă și biberoane","slug":"curatare-vesela-si-biberoane","selected":false}],"products":[{"code":"100093105","variantCode":"8058664095186","name":"Detergent pentru biberoane și vesela bebelușului Sensitive 300ml","slug":"100093105-chicco-detergent-pentru-biberoane-si-vesela-bebelusului-sensitive-300ml","unitPriceLabel":"69,97 Lei/l","brand":"Chicco","brandCode":"658","brandFilterCode":"chicco-b659","sku":"100093105","price":20.99,"originalPrice":29.99,"currencyCode":"RON","currency":"Lei","image":{"thumbnail":{"default":"https://cdn.freshful.ro/media/cache/sylius_shop_product_thumbnail/ee/77/d60286b367b044cbb51938697ae5.jpg"},"large":{"default":"https://cdn.freshful.ro/media/cache/freshful_large/ee/77/d60286b367b044cbb51938697ae5.jpg"},"extralarge":{"default":"https://cdn.freshful.ro/media/cache/sylius_shop_product_original/ee/77/d60286b367b044cbb51938697ae5.jpg"}},"label":{"text":"-30%","backgroundColor":"#FF9903","textColor":"#FFFFFF"},"tags":[],"isAvailable":true,"maxAvailableQuantity":32,"maxAllowedQuantity":100,"breadcrumbs":[{"code":"12","name":"Mama & copilul","slug":"12-mama-si-copilul"},{"code":"1203","name":"Puericultură","slug":"1203-puericultura"},{"code":"120309","name":"Curățare veselă și biberoane","slug":"curatare-vesela-si-biberoane"},{"code":"100093105","name":"Detergent pentru biberoane și vesela bebelușului Sensitive 300ml","slug":"100093105-chicco-detergent-pentru-biberoane-si-vesela-bebelusului-sensitive-300ml"}],"activePromotion":{"code":"oferte-dph-21feb-8mar23","name":"Preț redus","targetQuantity":null},"saveMe":null,"labels":[{"type":"v1","items":[{"text":"-30%","backgroundColor":"#FF9903","textColor":"#FFFFFF"}]}],"geniusPrice":null,"geniusUnitPricePerLabel":null,"banner":{"text":"Super preț","textColor":"#FF0000","bgColor":"#FFF2EC","icon":null,"link":"https://www.freshful.ro/oferte/oferte-dph-21feb-8mar23","type":"promo","analyticsEventType":"select_promotion","analyticsEventPayload":{"promotion_id":"oferte-dph-21feb-8mar23","promotion_name":"Curățenie și îngrijire personală"}},"discountLabel":"Economisești 30%","geniusDiscountLabel":null,"badge":null},{"code":"100060775","variantCode":"100060775","name":"Soluție hipoalergenică de curățare pentru vase și biberoane 500ml","slug":"100060775-frosch-solutie-hipoalergenica-de-curatare-pentru-vase-si-biberoane-500ml","unitPriceLabel":"32,58 Lei/l","brand":"Frosch","brandCode":"315","brandFilterCode":"frosch-b316","sku":"100060775","price":16.29,"originalPrice":null,"currencyCode":"RON","currency":"Lei","image":{"thumbnail":{"default":"https://cdn.freshful.ro/media/cache/sylius_shop_product_thumbnail/68/38/24837581e087b4c0df21a41491d6.jpg"},"large":{"default":"https://cdn.freshful.ro/media/cache/freshful_large/68/38/24837581e087b4c0df21a41491d6.jpg"},"extralarge":{"default":"https://cdn.freshful.ro/media/cache/sylius_shop_product_original/68/38/24837581e087b4c0df21a41491d6.jpg"}},"label":null,"tags":[],"isAvailable":true,"maxAvailableQuantity":73,"maxAllowedQuantity":100,"breadcrumbs":[{"code":"12","name":"Mama & copilul","slug":"12-mama-si-copilul"},{"code":"1203","name":"Puericultură","slug":"1203-puericultura"},{"code":"120309","name":"Curățare veselă și biberoane","slug":"curatare-vesela-si-biberoane"},{"code":"100060775","name":"Soluție hipoalergenică de curățare pentru vase și biberoane 500ml","slug":"100060775-frosch-solutie-hipoalergenica-de-curatare-pentru-vase-si-biberoane-500ml"}],"activePromotion":null,"saveMe":null,"labels":[],"geniusPrice":null,"geniusUnitPricePerLabel":null,"banner":null,"discountLabel":null,"geniusDiscountLabel":null,"badge":null},{"code":"100122631","variantCode":"100122631","name":"Inel dentiție formă stea, bleu, 3 luni+ ","slug":"100122631-primii-pasi-inel-dentitie-forma-stea-bleu-3-luni","unitPriceLabel":"","brand":"Primii Pași","brandCode":"2073","brandFilterCode":"primii-pasi-b2077","sku":"100122631","price":6.99,"originalPrice":null,"currencyCode":"RON","currency":"Lei","image":{"thumbnail":{"default":"https://cdn.freshful.ro/media/cache/sylius_shop_product_thumbnail/65/9f/0d78717bc0edc4fa7de84c769ced.jpg"},"large":{"default":"https://cdn.freshful.ro/media/cache/freshful_large/65/9f/0d78717bc0edc4fa7de84c769ced.jpg"},"extralarge":{"default":"https://cdn.freshful.ro/media/cache/sylius_shop_product_original/65/9f/0d78717bc0edc4fa7de84c769ced.jpg"}},"label":null,"tags":[],"isAvailable":true,"maxAvailableQuantity":47,"maxAllowedQuantity":100,"breadcrumbs":[{"code":"12","name":"Mama & copilul","slug":"12-mama-si-copilul"},{"code":"1203","name":"Puericultură","slug":"1203-puericultura"},{"code":"120301","name":"Biberoane și tetine","slug":"120301-biberoane-si-tetine"},{"code":"100122631","name":"Inel dentiție formă stea, bleu, 3 luni+ ","slug":"100122631-primii-pasi-inel-dentitie-forma-stea-bleu-3-luni"}],"activePromotion":null,"saveMe":null,"labels":[],"geniusPrice":null,"geniusUnitPricePerLabel":null,"banner":null,"discountLabel":null,"geniusDiscountLabel":null,"badge":null},{"code":"100122643","variantCode":"100122643","name":"Siguranțe universale lungi 2 buc ","slug":"100122643-primii-pasi-sigurante-universale-lungi-2-buc","unitPriceLabel":"","brand":"Primii Pași","brandCode":"2073","brandFilterCode":"primii-pasi-b2077","sku":"100122643","price":8.49,"originalPrice":null,"currencyCode":"RON","currency":"Lei","image":{"thumbnail":{"default":"https://cdn.freshful.ro/media/cache/sylius_shop_product_thumbnail/79/b7/e7ca618744aebfb3247a55778eef.jpg"},"large":{"default":"https://cdn.freshful.ro/media/cache/freshful_large/79/b7/e7ca618744aebfb3247a55778eef.jpg"},"extralarge":{"default":"https://cdn.freshful.ro/media/cache/sylius_shop_product_original/79/b7/e7ca618744aebfb3247a55778eef.jpg"}},"label":null,"tags":[],"isAvailable":true,"maxAvailableQuantity":35,"maxAllowedQuantity":100,"breadcrumbs":[{"code":"12","name":"Mama & copilul","slug":"12-mama-si-copilul"},{"code":"1203","name":"Puericultură","slug":"1203-puericultura"},{"code":"120306","name":"Siguranță","slug":"siguranta"},{"code":"100122643","name":"Siguranțe universale lungi 2 buc ","slug":"100122643-primii-pasi-sigurante-universale-lungi-2-buc"}],"activePromotion":null,"saveMe":null,"labels":[],"geniusPrice":null,"geniusUnitPricePerLabel":null,"banner":null,"discountLabel":null,"geniusDiscountLabel":null,"badge":null},{"code":"100122645","variantCode":"100122645","name":"Apărători colțuri transparente 4 buc","slug":"100122645-primii-pasi-aparatori-colturi-transparente-4-buc","unitPriceLabel":"","brand":"Primii Pași","brandCode":"2073","brandFilterCode":"primii-pasi-b2077","sku":"100122645","price":6.99,"originalPrice":null,"currencyCode":"RON","currency":"Lei","image":{"thumbnail":{"default":"https://cdn.freshful.ro/media/cache/sylius_shop_product_thumbnail/5b/09/7dd0d0206469f40d1f64c59ebdea.jpg"},"large":{"default":"https://cdn.freshful.ro/media/cache/freshful_large/5b/09/7dd0d0206469f40d1f64c59ebdea.jpg"},"extralarge":{"default":"https://cdn.freshful.ro/media/cache/sylius_shop_product_original/5b/09/7dd0d0206469f40d1f64c59ebdea.jpg"}},"label":null,"tags":[],"isAvailable":true,"maxAvailableQuantity":33,"maxAllowedQuantity":100,"breadcrumbs":[{"code":"12","name":"Mama & copilul","slug":"12-mama-si-copilul"},{"code":"1203","name":"Puericultură","slug":"1203-puericultura"},{"code":"120306","name":"Siguranță","slug":"siguranta"},{"code":"100122645","name":"Apărători colțuri transparente 4 buc","slug":"100122645-primii-pasi-aparatori-colturi-transparente-4-buc"}],"activePromotion":null,"saveMe":null,"labels":[],"geniusPrice":null,"geniusUnitPricePerLabel":null,"banner":null,"discountLabel":null,"geniusDiscountLabel":null,"badge":null},{"code":"100108109","variantCode":"100108109","name":"Bavețele de unică folosință 24 buc ","slug":"100108109-baby-works-bavetele-de-unica-folosinta-24-buc","unitPriceLabel":"","brand":"Baby Works","brandCode":"1734","brandFilterCode":"baby-works-b1738","sku":"100108109","price":28.49,"originalPrice":null,"currencyCode":"RON","currency":"Lei","image":{"thumbnail":{"default":"https://cdn.freshful.ro/media/cache/sylius_shop_product_thumbnail/63/8d/827c963056cbccc38e940b7a1aa1.jpg"},"large":{"default":"https://cdn.freshful.ro/media/cache/freshful_large/63/8d/827c963056cbccc38e940b7a1aa1.jpg"},"extralarge":{"default":"https://cdn.freshful.ro/media/cache/sylius_shop_product_original/63/8d/827c963056cbccc38e940b7a1aa1.jpg"}},"label":null,"tags":[],"isAvailable":true,"maxAvailableQuantity":40,"maxAllowedQuantity":100,"breadcrumbs":[{"code":"12","name":"Mama & copilul","slug":"12-mama-si-copilul"},{"code":"1203","name":"Puericultură","slug":"1203-puericultura"},{"code":"120303","name":"Veselă bebeluși și bavete","slug":"120303-vesela-bebelusi-si-bavete"},{"code":"100108109","name":"Bavețele de unică folosință 24 buc ","slug":"100108109-baby-works-bavetele-de-unica-folosinta-24-buc"}],"activePromotion":null,"saveMe":null,"labels":[],"geniusPrice":null,"geniusUnitPricePerLabel":null,"banner":null,"discountLabel":null,"geniusDiscountLabel":null,"badge":null},{"code":"100122639","variantCode":"100122639","name":"Mănușă textilă pentru baie, galbenă, formă animale, +0 luni","slug":"100122639-primii-pasi-manusa-textila-pentru-baie-galbena-forma-animale-0-luni","unitPriceLabel":"","brand":"Primii Pași","brandCode":"2073","brandFilterCode":"primii-pasi-b2077","sku":"100122639","price":7.79,"originalPrice":null,"currencyCode":"RON","currency":"Lei","image":{"thumbnail":{"default":"https://cdn.freshful.ro/media/cache/sylius_shop_product_thumbnail/5b/92/47c1eeae5b3dc95e2d1ba696c117.jpg"},"large":{"default":"https://cdn.freshful.ro/media/cache/freshful_large/5b/92/47c1eeae5b3dc95e2d1ba696c117.jpg"},"extralarge":{"default":"https://cdn.freshful.ro/media/cache/sylius_shop_product_original/5b/92/47c1eeae5b3dc95e2d1ba696c117.jpg"}},"label":null,"tags":[],"isAvailable":true,"maxAvailableQuantity":18,"maxAllowedQuantity":100,"breadcrumbs":[{"code":"12","name":"Mama & copilul","slug":"12-mama-si-copilul"},{"code":"1203","name":"Puericultură","slug":"1203-puericultura"},{"code":"120305","name":"Accesorii pentru baie","slug":"120305-accesorii-baie"},{"code":"100122639","name":"Mănușă textilă pentru baie, galbenă, formă animale, +0 luni","slug":"100122639-primii-pasi-manusa-textila-pentru-baie-galbena-forma-animale-0-luni"}],"activePromotion":null,"saveMe":null,"labels":[],"geniusPrice":null,"geniusUnitPricePerLabel":null,"banner":null,"discountLabel":null,"geniusDiscountLabel":null,"badge":null},{"code":"100122640","variantCode":"100122640","name":"Mănușă textilă pentru baie, verde, formă animale, +0 luni","slug":"100122640-primii-pasi-manusa-textila-pentru-baie-verde-forma-animale-0-luni","unitPriceLabel":"","brand":"Primii Pași","brandCode":"2073","brandFilterCode":"primii-pasi-b2077","sku":"100122640","price":7.79,"originalPrice":null,"currencyCode":"RON","currency":"Lei","image":{"thumbnail":{"default":"https://cdn.freshful.ro/media/cache/sylius_shop_product_thumbnail/02/2e/841b49c522266beb120a603b72cc.jpg"},"large":{"default":"https://cdn.freshful.ro/media/cache/freshful_large/02/2e/841b49c522266beb120a603b72cc.jpg"},"extralarge":{"default":"https://cdn.freshful.ro/media/cache/sylius_shop_product_original/02/2e/841b49c522266beb120a603b72cc.jpg"}},"label":null,"tags":[],"isAvailable":true,"maxAvailableQuantity":16,"maxAllowedQuantity":100,"breadcrumbs":[{"code":"12","name":"Mama & copilul","slug":"12-mama-si-copilul"},{"code":"1203","name":"Puericultură","slug":"1203-puericultura"},{"code":"120305","name":"Accesorii pentru baie","slug":"120305-accesorii-baie"},{"code":"100122640","name":"Mănușă textilă pentru baie, verde, formă animale, +0 luni","slug":"100122640-primii-pasi-manusa-textila-pentru-baie-verde-forma-animale-0-luni"}],"activePromotion":null,"saveMe":null,"labels":[],"geniusPrice":null,"geniusUnitPricePerLabel":null,"banner":null,"discountLabel":null,"geniusDiscountLabel":null,"badge":null},{"code":"100122644","variantCode":"100122644","name":"Siguranță sertare 2 buc  ","slug":"100122644-primii-pasi-siguranta-sertare-2-buc","unitPriceLabel":"","brand":"Primii Pași","brandCode":"2073","brandFilterCode":"primii-pasi-b2077","sku":"100122644","price":7.99,"originalPrice":null,"currencyCode":"RON","currency":"Lei","image":{"thumbnail":{"default":"https://cdn.freshful.ro/media/cache/sylius_shop_product_thumbnail/b3/04/b61b569fba0ca4aff37561e1b167.jpg"},"large":{"default":"https://cdn.freshful.ro/media/cache/freshful_large/b3/04/b61b569fba0ca4aff37561e1b167.jpg"},"extralarge":{"default":"https://cdn.freshful.ro/media/cache/sylius_shop_product_original/b3/04/b61b569fba0ca4aff37561e1b167.jpg"}},"label":null,"tags":[],"isAvailable":true,"maxAvailableQuantity":1,"maxAllowedQuantity":100,"breadcrumbs":[{"code":"12","name":"Mama & copilul","slug":"12-mama-si-copilul"},{"code":"1203","name":"Puericultură","slug":"1203-puericultura"},{"code":"120306","name":"Siguranță","slug":"siguranta"},{"code":"100122644","name":"Siguranță sertare 2 buc  ","slug":"100122644-primii-pasi-siguranta-sertare-2-buc"}],"activePromotion":null,"saveMe":null,"labels":[],"geniusPrice":null,"geniusUnitPricePerLabel":null,"banner":null,"discountLabel":null,"geniusDiscountLabel":null,"badge":null},{"code":"100108134","variantCode":"100108134","name":"Lanț pentru suzetă","slug":"100108134-baby-nova-lant-pentru-suzeta","unitPriceLabel":"","brand":"Baby Nova","brandCode":"1735","brandFilterCode":"baby-nova-b1739","sku":"100108134","price":19.98,"originalPrice":null,"currencyCode":"RON","currency":"Lei","image":{"thumbnail":{"default":"https://cdn.freshful.ro/media/cache/sylius_shop_product_thumbnail/97/13/63456c7bd9a334b5288e03055b51.jpg"},"large":{"default":"https://cdn.freshful.ro/media/cache/freshful_large/97/13/63456c7bd9a334b5288e03055b51.jpg"},"extralarge":{"default":"https://cdn.freshful.ro/media/cache/sylius_shop_product_original/97/13/63456c7bd9a334b5288e03055b51.jpg"}},"label":null,"tags":[],"isAvailable":true,"maxAvailableQuantity":17,"maxAllowedQuantity":100,"breadcrumbs":[{"code":"12","name":"Mama & copilul","slug":"12-mama-si-copilul"},{"code":"1203","name":"Puericultură","slug":"1203-puericultura"},{"code":"120302","name":"Suzete","slug":"120302-suzete"},{"code":"100108134","name":"Lanț pentru suzetă","slug":"100108134-baby-nova-lant-pentru-suzeta"}],"activePromotion":null,"saveMe":null,"labels":[],"geniusPrice":null,"geniusUnitPricePerLabel":null,"banner":null,"discountLabel":null,"geniusDiscountLabel":null,"badge":null}],"filters":{"countSelected":0,"items":[{"code":"promotion","name":"Promoții","countSelected":0,"values":[{"code":"oferte-dph-21feb-8mar23","name":"Curățenie și îngrijire personală","isSelected":false,"count":1}]},{"code":"brand","name":"Brand","countSelected":0,"values":[{"code":"aquaint-b1737","name":"Aquaint","isSelected":false,"count":1},{"code":"baby-nova-b1739","name":"Baby Nova","isSelected":false,"count":24},{"code":"baby-works-b1738","name":"Baby Works","isSelected":false,"count":1},{"code":"chicco-b659","name":"Chicco","isSelected":false,"count":6},{"code":"clementoni-b2288","name":"Clementoni","isSelected":false,"count":7},{"code":"dentistar-b1740","name":"Dentistar","isSelected":false,"count":8},{"code":"dreambaby-b1742","name":"Dreambaby","isSelected":false,"count":4},{"code":"frosch-b316","name":"Frosch","isSelected":false,"count":1},{"code":"hola-b2471","name":"Hola","isSelected":false,"count":6},{"code":"lamaze-b2916","name":"Lamaze","isSelected":false,"count":2},{"code":"laugh-learn-b2042","name":"Laugh&Learn","isSelected":false,"count":5},{"code":"lorelli-b2066","name":"Lorelli","isSelected":false,"count":20},{"code":"nuby-b1741","name":"Nuby","isSelected":false,"count":26},{"code":"nuk-b1105","name":"Nuk","isSelected":false,"count":23},{"code":"primii-pasi-b2077","name":"Primii Pași","isSelected":false,"count":37},{"code":"synek-b1687","name":"Synek","isSelected":false,"count":3}]},{"code":"diet_lifestyle","name":"Dietă și lifestyle","countSelected":0,"values":[{"code":"fara-conservanti-a37","name":"Fara conservanti","isSelected":false,"count":1},{"code":"vegan-a24","name":"Vegan","isSelected":false,"count":1}]}]},"orderBy":[{"field":"price","direction":"asc","name":"Preț crescător","isSelected":false},{"field":"price","direction":"desc","name":"Preț descrescător","isSelected":false},{"field":"popularity","direction":"desc","name":"Cele mai populare","isSelected":true},{"field":"category","direction":"asc","name":"Categorie","isSelected":false}],"metaTitle":"Puericultură - Gamă variată","metaDescription":"Vrei Puericultură? Alege dintr-o gamă variată. Comanzi simplu și ai livrare rapidă, calitate și prospețime. Hai pe Freshful.ro","metaKeywords":null,"banners":[]}}