{"type":"subcategory","payload":{"analyticsListId":"category_120304-jucarii-bebelusi","analyticsListName":"Category - Jucării bebeluși","name":"Jucării bebeluși","slug":"120304-jucarii-bebelusi","image":null,"breadcrumbs":[{"code":"12","name":"Mama & copilul","slug":"12-mama-si-copilul"},{"code":"1203","name":"Puericultură","slug":"1203-puericultura"},{"code":"120304","name":"Jucării bebeluși","slug":"120304-jucarii-bebelusi"}],"slots":[],"page":1,"limit":10,"pages":3,"count":29,"siblings":[{"name":"Alimente bebe","slug":"1201-alimente-bebelusi","selected":false},{"name":"Igienă bebe","slug":"1202-igiena-bebe","selected":false},{"name":"Puericultură","slug":"1203-puericultura","selected":true}],"children":[{"name":"Toate produsele","slug":"1203-puericultura","selected":false},{"name":"Biberoane și tetine","slug":"120301-biberoane-si-tetine","selected":false},{"name":"Suzete","slug":"120302-suzete","selected":false},{"name":"Veselă bebeluși și bavete","slug":"120303-vesela-bebelusi-si-bavete","selected":false},{"name":"Jucării bebeluși","slug":"120304-jucarii-bebelusi","selected":true},{"name":"Accesorii pentru baie","slug":"120305-accesorii-baie","selected":false},{"name":"Somn","slug":"120308-somn","selected":false},{"name":"Siguranță","slug":"siguranta","selected":false},{"name":"Curățare veselă și biberoane","slug":"curatare-vesela-si-biberoane","selected":false}],"products":[{"code":"100122475","variantCode":"100122475","name":"Jucărie de pluș șoricel, 0+ luni, 16cm","slug":"100122475-lorelli-jucarie-de-plus-soricel-0-luni-16cm","unitPriceLabel":"","brand":"Lorelli","brandCode":"2062","brandFilterCode":"lorelli-b2066","sku":"100122475","price":40.89,"originalPrice":null,"currencyCode":"RON","currency":"Lei","image":{"thumbnail":{"default":"https://cdn.freshful.ro/media/cache/sylius_shop_product_thumbnail/f3/b7/d829ff90fda85695e2ee851457c2.jpg"},"large":{"default":"https://cdn.freshful.ro/media/cache/freshful_large/f3/b7/d829ff90fda85695e2ee851457c2.jpg"},"extralarge":{"default":"https://cdn.freshful.ro/media/cache/sylius_shop_product_original/f3/b7/d829ff90fda85695e2ee851457c2.jpg"}},"label":null,"tags":[],"isAvailable":true,"maxAvailableQuantity":11,"maxAllowedQuantity":100,"breadcrumbs":[{"code":"12","name":"Mama & copilul","slug":"12-mama-si-copilul"},{"code":"1203","name":"Puericultură","slug":"1203-puericultura"},{"code":"120304","name":"Jucării bebeluși","slug":"120304-jucarii-bebelusi"},{"code":"100122475","name":"Jucărie de pluș șoricel, 0+ luni, 16cm","slug":"100122475-lorelli-jucarie-de-plus-soricel-0-luni-16cm"}],"activePromotion":null,"saveMe":null,"labels":[],"geniusPrice":null,"geniusUnitPricePerLabel":null,"banner":null,"discountLabel":null,"geniusDiscountLabel":null,"badge":null},{"code":"100131514","variantCode":"100131514","name":"Tobă interactivă, 10-36 luni","slug":"100131514-clementoni-toba-interactiva-10-36-luni","unitPriceLabel":"","brand":"Clementoni","brandCode":"2286","brandFilterCode":"clementoni-b2288","sku":"100131514","price":145.99,"originalPrice":null,"currencyCode":"RON","currency":"Lei","image":{"thumbnail":{"default":"https://cdn.freshful.ro/media/cache/sylius_shop_product_thumbnail/f3/a0/dd7413a58d253a5e76f436ec90d1.jpg"},"large":{"default":"https://cdn.freshful.ro/media/cache/freshful_large/f3/a0/dd7413a58d253a5e76f436ec90d1.jpg"},"extralarge":{"default":"https://cdn.freshful.ro/media/cache/sylius_shop_product_original/f3/a0/dd7413a58d253a5e76f436ec90d1.jpg"}},"label":null,"tags":[],"isAvailable":true,"maxAvailableQuantity":1,"maxAllowedQuantity":100,"breadcrumbs":[{"code":"12","name":"Mama & copilul","slug":"12-mama-si-copilul"},{"code":"1203","name":"Puericultură","slug":"1203-puericultura"},{"code":"120304","name":"Jucării bebeluși","slug":"120304-jucarii-bebelusi"},{"code":"100131514","name":"Tobă interactivă, 10-36 luni","slug":"100131514-clementoni-toba-interactiva-10-36-luni"}],"activePromotion":null,"saveMe":null,"labels":[],"geniusPrice":null,"geniusUnitPricePerLabel":null,"banner":null,"discountLabel":null,"geniusDiscountLabel":null,"badge":null},{"code":"100132304","variantCode":"100132304","name":"Pianina animăluțelor vesele cu lumini și sunete, +6 luni","slug":"100132304-hola-pianina-animalutelor-vesele-cu-lumini-si-sunete-6-luni","unitPriceLabel":"","brand":"Hola","brandCode":"2467","brandFilterCode":"hola-b2471","sku":"100132304","price":81.99,"originalPrice":null,"currencyCode":"RON","currency":"Lei","image":{"thumbnail":{"default":"https://cdn.freshful.ro/media/cache/sylius_shop_product_thumbnail/d0/6e/ff463350deaf8ca3463c478ca65f.jpg"},"large":{"default":"https://cdn.freshful.ro/media/cache/freshful_large/d0/6e/ff463350deaf8ca3463c478ca65f.jpg"},"extralarge":{"default":"https://cdn.freshful.ro/media/cache/sylius_shop_product_original/d0/6e/ff463350deaf8ca3463c478ca65f.jpg"}},"label":null,"tags":[],"isAvailable":true,"maxAvailableQuantity":22,"maxAllowedQuantity":100,"breadcrumbs":[{"code":"12","name":"Mama & copilul","slug":"12-mama-si-copilul"},{"code":"1203","name":"Puericultură","slug":"1203-puericultura"},{"code":"120304","name":"Jucării bebeluși","slug":"120304-jucarii-bebelusi"},{"code":"100132304","name":"Pianina animăluțelor vesele cu lumini și sunete, +6 luni","slug":"100132304-hola-pianina-animalutelor-vesele-cu-lumini-si-sunete-6-luni"}],"activePromotion":null,"saveMe":null,"labels":[],"geniusPrice":null,"geniusUnitPricePerLabel":null,"banner":null,"discountLabel":null,"geniusDiscountLabel":null,"badge":null},{"code":"100122473","variantCode":"100122473","name":"Jucărie de pluș maimuțică, 0+ luni, 13cm ","slug":"100122473-lorelli-jucarie-de-plus-maimutica-0-luni-13cm","unitPriceLabel":"","brand":"Lorelli","brandCode":"2062","brandFilterCode":"lorelli-b2066","sku":"100122473","price":39.39,"originalPrice":null,"currencyCode":"RON","currency":"Lei","image":{"thumbnail":{"default":"https://cdn.freshful.ro/media/cache/sylius_shop_product_thumbnail/a8/a9/c9f7514c4cfd7191707b11473d4f.jpg"},"large":{"default":"https://cdn.freshful.ro/media/cache/freshful_large/a8/a9/c9f7514c4cfd7191707b11473d4f.jpg"},"extralarge":{"default":"https://cdn.freshful.ro/media/cache/sylius_shop_product_original/a8/a9/c9f7514c4cfd7191707b11473d4f.jpg"}},"label":null,"tags":[],"isAvailable":true,"maxAvailableQuantity":21,"maxAllowedQuantity":100,"breadcrumbs":[{"code":"12","name":"Mama & copilul","slug":"12-mama-si-copilul"},{"code":"1203","name":"Puericultură","slug":"1203-puericultura"},{"code":"120304","name":"Jucării bebeluși","slug":"120304-jucarii-bebelusi"},{"code":"100122473","name":"Jucărie de pluș maimuțică, 0+ luni, 13cm ","slug":"100122473-lorelli-jucarie-de-plus-maimutica-0-luni-13cm"}],"activePromotion":null,"saveMe":null,"labels":[],"geniusPrice":null,"geniusUnitPricePerLabel":null,"banner":null,"discountLabel":null,"geniusDiscountLabel":null,"badge":null},{"code":"100132307","variantCode":"100132307","name":"Xilofon cu mingiuțe și ciocănel, +18 luni","slug":"100132307-hola-xilofon-cu-mingiute-si-ciocanel-18-luni","unitPriceLabel":"","brand":"Hola","brandCode":"2467","brandFilterCode":"hola-b2471","sku":"100132307","price":92.59,"originalPrice":null,"currencyCode":"RON","currency":"Lei","image":{"thumbnail":{"default":"https://cdn.freshful.ro/media/cache/sylius_shop_product_thumbnail/c4/83/87359fe6c3ebaae153827ee3891e.jpg"},"large":{"default":"https://cdn.freshful.ro/media/cache/freshful_large/c4/83/87359fe6c3ebaae153827ee3891e.jpg"},"extralarge":{"default":"https://cdn.freshful.ro/media/cache/sylius_shop_product_original/c4/83/87359fe6c3ebaae153827ee3891e.jpg"}},"label":null,"tags":[],"isAvailable":true,"maxAvailableQuantity":1,"maxAllowedQuantity":100,"breadcrumbs":[{"code":"12","name":"Mama & copilul","slug":"12-mama-si-copilul"},{"code":"1203","name":"Puericultură","slug":"1203-puericultura"},{"code":"120304","name":"Jucării bebeluși","slug":"120304-jucarii-bebelusi"},{"code":"100132307","name":"Xilofon cu mingiuțe și ciocănel, +18 luni","slug":"100132307-hola-xilofon-cu-mingiute-si-ciocanel-18-luni"}],"activePromotion":null,"saveMe":null,"labels":[],"geniusPrice":null,"geniusUnitPricePerLabel":null,"banner":null,"discountLabel":null,"geniusDiscountLabel":null,"badge":null},{"code":"100146664","variantCode":"100146664","name":"Turnulețul cu pahare, 6+ luni","slug":"100146664-lamaze-turnuletul-cu-pahare-6-luni","unitPriceLabel":"","brand":"Lamaze","brandCode":"2840","brandFilterCode":"lamaze-b2916","sku":"100146664","price":39.99,"originalPrice":null,"currencyCode":"RON","currency":"Lei","image":{"thumbnail":{"default":"https://cdn.freshful.ro/media/cache/sylius_shop_product_thumbnail/f9/f6/afe566f56ec0fafa84a16d35eb2c.jpg"},"large":{"default":"https://cdn.freshful.ro/media/cache/freshful_large/f9/f6/afe566f56ec0fafa84a16d35eb2c.jpg"},"extralarge":{"default":"https://cdn.freshful.ro/media/cache/sylius_shop_product_original/f9/f6/afe566f56ec0fafa84a16d35eb2c.jpg"}},"label":null,"tags":[],"isAvailable":true,"maxAvailableQuantity":4,"maxAllowedQuantity":100,"breadcrumbs":[{"code":"12","name":"Mama & copilul","slug":"12-mama-si-copilul"},{"code":"1203","name":"Puericultură","slug":"1203-puericultura"},{"code":"120304","name":"Jucării bebeluși","slug":"120304-jucarii-bebelusi"},{"code":"100146664","name":"Turnulețul cu pahare, 6+ luni","slug":"100146664-lamaze-turnuletul-cu-pahare-6-luni"}],"activePromotion":null,"saveMe":null,"labels":[],"geniusPrice":null,"geniusUnitPricePerLabel":null,"banner":null,"discountLabel":null,"geniusDiscountLabel":null,"badge":null},{"code":"100122798","variantCode":"100122798","name":"Jucărie - Tabletă educativă, +12-36 luni","slug":"100122798-laugh-learn-jucarie-tableta-educativa-12-36-luni","unitPriceLabel":"","brand":"Laugh&Learn","brandCode":"2038","brandFilterCode":"laugh-learn-b2042","sku":"100122798","price":168.99,"originalPrice":null,"currencyCode":"RON","currency":"Lei","image":{"thumbnail":{"default":"https://cdn.freshful.ro/media/cache/sylius_shop_product_thumbnail/69/e9/4f133849d78c45be523d50f23155.jpg"},"large":{"default":"https://cdn.freshful.ro/media/cache/freshful_large/69/e9/4f133849d78c45be523d50f23155.jpg"},"extralarge":{"default":"https://cdn.freshful.ro/media/cache/sylius_shop_product_original/69/e9/4f133849d78c45be523d50f23155.jpg"}},"label":null,"tags":[],"isAvailable":true,"maxAvailableQuantity":12,"maxAllowedQuantity":100,"breadcrumbs":[{"code":"12","name":"Mama & copilul","slug":"12-mama-si-copilul"},{"code":"1203","name":"Puericultură","slug":"1203-puericultura"},{"code":"120304","name":"Jucării bebeluși","slug":"120304-jucarii-bebelusi"},{"code":"100122798","name":"Jucărie - Tabletă educativă, +12-36 luni","slug":"100122798-laugh-learn-jucarie-tableta-educativa-12-36-luni"}],"activePromotion":null,"saveMe":null,"labels":[],"geniusPrice":null,"geniusUnitPricePerLabel":null,"banner":null,"discountLabel":null,"geniusDiscountLabel":null,"badge":null},{"code":"100122799","variantCode":"100122799","name":"Jucărie cățelul vorbitor în lb. română, +6-36 luni ","slug":"100122799-laugh-learn-jucarie-catelul-vorbitor-in-lb-romana-6-36-luni","unitPriceLabel":"","brand":"Laugh&Learn","brandCode":"2038","brandFilterCode":"laugh-learn-b2042","sku":"100122799","price":248.99,"originalPrice":null,"currencyCode":"RON","currency":"Lei","image":{"thumbnail":{"default":"https://cdn.freshful.ro/media/cache/sylius_shop_product_thumbnail/bb/c1/187e2eb2f1d19b252b84317afbaa.jpg"},"large":{"default":"https://cdn.freshful.ro/media/cache/freshful_large/bb/c1/187e2eb2f1d19b252b84317afbaa.jpg"},"extralarge":{"default":"https://cdn.freshful.ro/media/cache/sylius_shop_product_original/bb/c1/187e2eb2f1d19b252b84317afbaa.jpg"}},"label":null,"tags":[],"isAvailable":true,"maxAvailableQuantity":17,"maxAllowedQuantity":100,"breadcrumbs":[{"code":"12","name":"Mama & copilul","slug":"12-mama-si-copilul"},{"code":"1203","name":"Puericultură","slug":"1203-puericultura"},{"code":"120304","name":"Jucării bebeluși","slug":"120304-jucarii-bebelusi"},{"code":"100122799","name":"Jucărie cățelul vorbitor în lb. română, +6-36 luni ","slug":"100122799-laugh-learn-jucarie-catelul-vorbitor-in-lb-romana-6-36-luni"}],"activePromotion":null,"saveMe":null,"labels":[],"geniusPrice":null,"geniusUnitPricePerLabel":null,"banner":null,"discountLabel":null,"geniusDiscountLabel":null,"badge":null},{"code":"100131510","variantCode":"100131510","name":"Jucărie interactivă cu animale, +6 luni","slug":"100131510-clementoni-jucarie-interactiva-cu-animale-6-luni","unitPriceLabel":"","brand":"Clementoni","brandCode":"2286","brandFilterCode":"clementoni-b2288","sku":"100131510","price":93.39,"originalPrice":null,"currencyCode":"RON","currency":"Lei","image":{"thumbnail":{"default":"https://cdn.freshful.ro/media/cache/sylius_shop_product_thumbnail/4d/0a/57bb999d46b605d586e263cf98a9.jpg"},"large":{"default":"https://cdn.freshful.ro/media/cache/freshful_large/4d/0a/57bb999d46b605d586e263cf98a9.jpg"},"extralarge":{"default":"https://cdn.freshful.ro/media/cache/sylius_shop_product_original/4d/0a/57bb999d46b605d586e263cf98a9.jpg"}},"label":null,"tags":[],"isAvailable":true,"maxAvailableQuantity":5,"maxAllowedQuantity":100,"breadcrumbs":[{"code":"12","name":"Mama & copilul","slug":"12-mama-si-copilul"},{"code":"1203","name":"Puericultură","slug":"1203-puericultura"},{"code":"120304","name":"Jucării bebeluși","slug":"120304-jucarii-bebelusi"},{"code":"100131510","name":"Jucărie interactivă cu animale, +6 luni","slug":"100131510-clementoni-jucarie-interactiva-cu-animale-6-luni"}],"activePromotion":null,"saveMe":null,"labels":[],"geniusPrice":null,"geniusUnitPricePerLabel":null,"banner":null,"discountLabel":null,"geniusDiscountLabel":null,"badge":null},{"code":"100131520","variantCode":"100131520","name":"Jucărie de baie Caracatiță, 10+ luni","slug":"100131520-clementoni-jucarie-de-baie-caracatita-10-luni","unitPriceLabel":"","brand":"Clementoni","brandCode":"2286","brandFilterCode":"clementoni-b2288","sku":"100131520","price":99.99,"originalPrice":null,"currencyCode":"RON","currency":"Lei","image":{"thumbnail":{"default":"https://cdn.freshful.ro/media/cache/sylius_shop_product_thumbnail/9f/40/47e1a318346bd81f74c63e5908a4.jpg"},"large":{"default":"https://cdn.freshful.ro/media/cache/freshful_large/9f/40/47e1a318346bd81f74c63e5908a4.jpg"},"extralarge":{"default":"https://cdn.freshful.ro/media/cache/sylius_shop_product_original/9f/40/47e1a318346bd81f74c63e5908a4.jpg"}},"label":null,"tags":[],"isAvailable":true,"maxAvailableQuantity":5,"maxAllowedQuantity":100,"breadcrumbs":[{"code":"12","name":"Mama & copilul","slug":"12-mama-si-copilul"},{"code":"1203","name":"Puericultură","slug":"1203-puericultura"},{"code":"120304","name":"Jucării bebeluși","slug":"120304-jucarii-bebelusi"},{"code":"100131520","name":"Jucărie de baie Caracatiță, 10+ luni","slug":"100131520-clementoni-jucarie-de-baie-caracatita-10-luni"}],"activePromotion":null,"saveMe":null,"labels":[],"geniusPrice":null,"geniusUnitPricePerLabel":null,"banner":null,"discountLabel":null,"geniusDiscountLabel":null,"badge":null}],"filters":{"countSelected":0,"items":[{"code":"brand","name":"Brand","countSelected":0,"values":[{"code":"baby-nova-b1739","name":"Baby Nova","isSelected":false,"count":1},{"code":"clementoni-b2288","name":"Clementoni","isSelected":false,"count":7},{"code":"hola-b2471","name":"Hola","isSelected":false,"count":6},{"code":"lamaze-b2916","name":"Lamaze","isSelected":false,"count":2},{"code":"laugh-learn-b2042","name":"Laugh&Learn","isSelected":false,"count":5},{"code":"lorelli-b2066","name":"Lorelli","isSelected":false,"count":4},{"code":"nuby-b1741","name":"Nuby","isSelected":false,"count":4}]}]},"orderBy":[{"field":"price","direction":"asc","name":"Preț crescător","isSelected":false},{"field":"price","direction":"desc","name":"Preț descrescător","isSelected":false},{"field":"popularity","direction":"desc","name":"Cele mai populare","isSelected":true},{"field":"category","direction":"asc","name":"Categorie","isSelected":false}],"metaTitle":"Jucării bebeluși - Gamă variată","metaDescription":"Vrei Jucării bebeluși? Alege dintr-o gamă variată. Comanzi simplu și ai livrare rapidă, calitate și prospețime. Hai pe Freshful.ro","metaKeywords":null,"banners":[]}}