{"type":"subcategory","payload":{"analyticsListId":"category_120302-suzete","analyticsListName":"Category - Suzete","name":"Suzete","slug":"120302-suzete","image":null,"breadcrumbs":[{"code":"12","name":"Mama & copilul","slug":"12-mama-si-copilul"},{"code":"1203","name":"Puericultură","slug":"1203-puericultura"},{"code":"120302","name":"Suzete","slug":"120302-suzete"}],"slots":[],"page":1,"limit":10,"pages":2,"count":15,"siblings":[{"name":"Alimente bebe","slug":"1201-alimente-bebelusi","selected":false},{"name":"Igienă bebe","slug":"1202-igiena-bebe","selected":false},{"name":"Puericultură","slug":"1203-puericultura","selected":true}],"children":[{"name":"Toate produsele","slug":"1203-puericultura","selected":false},{"name":"Biberoane și tetine","slug":"120301-biberoane-si-tetine","selected":false},{"name":"Suzete","slug":"120302-suzete","selected":true},{"name":"Veselă bebeluși și bavete","slug":"120303-vesela-bebelusi-si-bavete","selected":false},{"name":"Jucării bebeluși","slug":"120304-jucarii-bebelusi","selected":false},{"name":"Accesorii pentru baie","slug":"120305-accesorii-baie","selected":false},{"name":"Somn","slug":"120308-somn","selected":false},{"name":"Siguranță","slug":"siguranta","selected":false},{"name":"Curățare veselă și biberoane","slug":"curatare-vesela-si-biberoane","selected":false}],"products":[{"code":"100108134","variantCode":"100108134","name":"Lanț pentru suzetă","slug":"100108134-baby-nova-lant-pentru-suzeta","unitPriceLabel":"","brand":"Baby Nova","brandCode":"1735","brandFilterCode":"baby-nova-b1739","sku":"100108134","price":19.98,"originalPrice":null,"currencyCode":"RON","currency":"Lei","image":{"thumbnail":{"default":"https://cdn.freshful.ro/media/cache/sylius_shop_product_thumbnail/97/13/63456c7bd9a334b5288e03055b51.jpg"},"large":{"default":"https://cdn.freshful.ro/media/cache/freshful_large/97/13/63456c7bd9a334b5288e03055b51.jpg"},"extralarge":{"default":"https://cdn.freshful.ro/media/cache/sylius_shop_product_original/97/13/63456c7bd9a334b5288e03055b51.jpg"}},"label":null,"tags":[],"isAvailable":true,"maxAvailableQuantity":17,"maxAllowedQuantity":100,"breadcrumbs":[{"code":"12","name":"Mama & copilul","slug":"12-mama-si-copilul"},{"code":"1203","name":"Puericultură","slug":"1203-puericultura"},{"code":"120302","name":"Suzete","slug":"120302-suzete"},{"code":"100108134","name":"Lanț pentru suzetă","slug":"100108134-baby-nova-lant-pentru-suzeta"}],"activePromotion":null,"saveMe":null,"labels":[],"geniusPrice":null,"geniusUnitPricePerLabel":null,"banner":null,"discountLabel":null,"geniusDiscountLabel":null,"badge":null},{"code":"100108121","variantCode":"100108121","name":"Suzetă cu tetină din latex rotundă, multicoloră cu inel, 0-24 luni","slug":"100108121-baby-nova-suzeta-cu-tetina-din-latex-rotunda-multicolora-cu-inel-0-24-luni","unitPriceLabel":"","brand":"Baby Nova","brandCode":"1735","brandFilterCode":"baby-nova-b1739","sku":"100108121","price":17.99,"originalPrice":null,"currencyCode":"RON","currency":"Lei","image":{"thumbnail":{"default":"https://cdn.freshful.ro/media/cache/sylius_shop_product_thumbnail/fa/e8/b48087a75fb44f8b876b104ab343.jpg"},"large":{"default":"https://cdn.freshful.ro/media/cache/freshful_large/fa/e8/b48087a75fb44f8b876b104ab343.jpg"},"extralarge":{"default":"https://cdn.freshful.ro/media/cache/sylius_shop_product_original/fa/e8/b48087a75fb44f8b876b104ab343.jpg"}},"label":null,"tags":[],"isAvailable":true,"maxAvailableQuantity":10,"maxAllowedQuantity":100,"breadcrumbs":[{"code":"12","name":"Mama & copilul","slug":"12-mama-si-copilul"},{"code":"1203","name":"Puericultură","slug":"1203-puericultura"},{"code":"120302","name":"Suzete","slug":"120302-suzete"},{"code":"100108121","name":"Suzetă cu tetină din latex rotundă, multicoloră cu inel, 0-24 luni","slug":"100108121-baby-nova-suzeta-cu-tetina-din-latex-rotunda-multicolora-cu-inel-0-24-luni"}],"activePromotion":null,"saveMe":null,"labels":[],"geniusPrice":null,"geniusUnitPricePerLabel":null,"banner":null,"discountLabel":null,"geniusDiscountLabel":null,"badge":null},{"code":"100122614","variantCode":"100122614","name":"Suzetă silicon fețe animale țestoasă, 6+ luni","slug":"100122614-primii-pasi-suzeta-silicon-fete-animale-testoasa-6-luni","unitPriceLabel":"","brand":"Primii Pași","brandCode":"2073","brandFilterCode":"primii-pasi-b2077","sku":"100122614","price":4.99,"originalPrice":null,"currencyCode":"RON","currency":"Lei","image":{"thumbnail":{"default":"https://cdn.freshful.ro/media/cache/sylius_shop_product_thumbnail/1d/f0/aa87fb21193d50e94da23021538e.jpg"},"large":{"default":"https://cdn.freshful.ro/media/cache/freshful_large/1d/f0/aa87fb21193d50e94da23021538e.jpg"},"extralarge":{"default":"https://cdn.freshful.ro/media/cache/sylius_shop_product_original/1d/f0/aa87fb21193d50e94da23021538e.jpg"}},"label":null,"tags":[],"isAvailable":true,"maxAvailableQuantity":14,"maxAllowedQuantity":100,"breadcrumbs":[{"code":"12","name":"Mama & copilul","slug":"12-mama-si-copilul"},{"code":"1203","name":"Puericultură","slug":"1203-puericultura"},{"code":"120302","name":"Suzete","slug":"120302-suzete"},{"code":"100122614","name":"Suzetă silicon fețe animale țestoasă, 6+ luni","slug":"100122614-primii-pasi-suzeta-silicon-fete-animale-testoasa-6-luni"}],"activePromotion":null,"saveMe":null,"labels":[],"geniusPrice":null,"geniusUnitPricePerLabel":null,"banner":null,"discountLabel":null,"geniusDiscountLabel":null,"badge":null},{"code":"100108117","variantCode":"100108117","name":"Suzete ortodontice multicolore cu inel, talia 1, 0-6 luni, 2 buc","slug":"100108117-baby-nova-suzete-ortodontice-multicolore-cu-inel-talia-1-0-6-luni-2-buc","unitPriceLabel":"","brand":"Baby Nova","brandCode":"1735","brandFilterCode":"baby-nova-b1739","sku":"100108117","price":21.59,"originalPrice":null,"currencyCode":"RON","currency":"Lei","image":{"thumbnail":{"default":"https://cdn.freshful.ro/media/cache/sylius_shop_product_thumbnail/2d/65/a90ccb78576340f5da455017ae2c.jpg"},"large":{"default":"https://cdn.freshful.ro/media/cache/freshful_large/2d/65/a90ccb78576340f5da455017ae2c.jpg"},"extralarge":{"default":"https://cdn.freshful.ro/media/cache/sylius_shop_product_original/2d/65/a90ccb78576340f5da455017ae2c.jpg"}},"label":null,"tags":[],"isAvailable":true,"maxAvailableQuantity":14,"maxAllowedQuantity":100,"breadcrumbs":[{"code":"12","name":"Mama & copilul","slug":"12-mama-si-copilul"},{"code":"1203","name":"Puericultură","slug":"1203-puericultura"},{"code":"120302","name":"Suzete","slug":"120302-suzete"},{"code":"100108117","name":"Suzete ortodontice multicolore cu inel, talia 1, 0-6 luni, 2 buc","slug":"100108117-baby-nova-suzete-ortodontice-multicolore-cu-inel-talia-1-0-6-luni-2-buc"}],"activePromotion":null,"saveMe":null,"labels":[],"geniusPrice":null,"geniusUnitPricePerLabel":null,"banner":null,"discountLabel":null,"geniusDiscountLabel":null,"badge":null},{"code":"100108118","variantCode":"100108118","name":"Suzete ortodontice multicolore cu inel, talia 2, 6-18 luni, 2 buc","slug":"100108118-baby-nova-suzete-ortodontice-multicolore-cu-inel-talia-2-6-18-luni-2-buc","unitPriceLabel":"","brand":"Baby Nova","brandCode":"1735","brandFilterCode":"baby-nova-b1739","sku":"100108118","price":21.59,"originalPrice":null,"currencyCode":"RON","currency":"Lei","image":{"thumbnail":{"default":"https://cdn.freshful.ro/media/cache/sylius_shop_product_thumbnail/c8/85/6790ae475e707502d70f157c9c38.jpg"},"large":{"default":"https://cdn.freshful.ro/media/cache/freshful_large/c8/85/6790ae475e707502d70f157c9c38.jpg"},"extralarge":{"default":"https://cdn.freshful.ro/media/cache/sylius_shop_product_original/c8/85/6790ae475e707502d70f157c9c38.jpg"}},"label":null,"tags":[],"isAvailable":true,"maxAvailableQuantity":15,"maxAllowedQuantity":100,"breadcrumbs":[{"code":"12","name":"Mama & copilul","slug":"12-mama-si-copilul"},{"code":"1203","name":"Puericultură","slug":"1203-puericultura"},{"code":"120302","name":"Suzete","slug":"120302-suzete"},{"code":"100108118","name":"Suzete ortodontice multicolore cu inel, talia 2, 6-18 luni, 2 buc","slug":"100108118-baby-nova-suzete-ortodontice-multicolore-cu-inel-talia-2-6-18-luni-2-buc"}],"activePromotion":null,"saveMe":null,"labels":[],"geniusPrice":null,"geniusUnitPricePerLabel":null,"banner":null,"discountLabel":null,"geniusDiscountLabel":null,"badge":null},{"code":"100108119","variantCode":"100108119","name":"Suzete ortodontice multicolore cu inel, talia 3, +18 luni, 2 buc","slug":"100108119-baby-nova-suzete-ortodontice-multicolore-cu-inel-talia-3-18-luni-2-buc","unitPriceLabel":"","brand":"Baby Nova","brandCode":"1735","brandFilterCode":"baby-nova-b1739","sku":"100108119","price":20.59,"originalPrice":null,"currencyCode":"RON","currency":"Lei","image":{"thumbnail":{"default":"https://cdn.freshful.ro/media/cache/sylius_shop_product_thumbnail/8a/b8/b508cd365ef58238669fc910bb28.jpg"},"large":{"default":"https://cdn.freshful.ro/media/cache/freshful_large/8a/b8/b508cd365ef58238669fc910bb28.jpg"},"extralarge":{"default":"https://cdn.freshful.ro/media/cache/sylius_shop_product_original/8a/b8/b508cd365ef58238669fc910bb28.jpg"}},"label":null,"tags":[],"isAvailable":true,"maxAvailableQuantity":3,"maxAllowedQuantity":100,"breadcrumbs":[{"code":"12","name":"Mama & copilul","slug":"12-mama-si-copilul"},{"code":"1203","name":"Puericultură","slug":"1203-puericultura"},{"code":"120302","name":"Suzete","slug":"120302-suzete"},{"code":"100108119","name":"Suzete ortodontice multicolore cu inel, talia 3, +18 luni, 2 buc","slug":"100108119-baby-nova-suzete-ortodontice-multicolore-cu-inel-talia-3-18-luni-2-buc"}],"activePromotion":null,"saveMe":null,"labels":[],"geniusPrice":null,"geniusUnitPricePerLabel":null,"banner":null,"discountLabel":null,"geniusDiscountLabel":null,"badge":null},{"code":"100108122","variantCode":"100108122","name":"Suzete silicon cu inel 0-18+ luni, 2 buc","slug":"100108122-baby-nova-suzete-silicon-cu-inel-0-18-luni-2-buc","unitPriceLabel":"","brand":"Baby Nova","brandCode":"1735","brandFilterCode":"baby-nova-b1739","sku":"100108122","price":19.99,"originalPrice":null,"currencyCode":"RON","currency":"Lei","image":{"thumbnail":{"default":"https://cdn.freshful.ro/media/cache/sylius_shop_product_thumbnail/a8/63/5b06124abb07c6c68ae426c3062b.jpg"},"large":{"default":"https://cdn.freshful.ro/media/cache/freshful_large/a8/63/5b06124abb07c6c68ae426c3062b.jpg"},"extralarge":{"default":"https://cdn.freshful.ro/media/cache/sylius_shop_product_original/a8/63/5b06124abb07c6c68ae426c3062b.jpg"}},"label":null,"tags":[],"isAvailable":true,"maxAvailableQuantity":11,"maxAllowedQuantity":100,"breadcrumbs":[{"code":"12","name":"Mama & copilul","slug":"12-mama-si-copilul"},{"code":"1203","name":"Puericultură","slug":"1203-puericultura"},{"code":"120302","name":"Suzete","slug":"120302-suzete"},{"code":"100108122","name":"Suzete silicon cu inel 0-18+ luni, 2 buc","slug":"100108122-baby-nova-suzete-silicon-cu-inel-0-18-luni-2-buc"}],"activePromotion":null,"saveMe":null,"labels":[],"geniusPrice":null,"geniusUnitPricePerLabel":null,"banner":null,"discountLabel":null,"geniusDiscountLabel":null,"badge":null},{"code":"100108149","variantCode":"100108149","name":"STOPPi dispozitiv pentru renunțarea la suzetă, +2 ani","slug":"100108149-dentistar-stoppi-dispozitiv-pentru-renuntarea-la-suzeta-2-ani","unitPriceLabel":"","brand":"Dentistar","brandCode":"1736","brandFilterCode":"dentistar-b1740","sku":"100108149","price":38.99,"originalPrice":null,"currencyCode":"RON","currency":"Lei","image":{"thumbnail":{"default":"https://cdn.freshful.ro/media/cache/sylius_shop_product_thumbnail/0d/af/4507e4ff095318d7a70c809681a6.jpg"},"large":{"default":"https://cdn.freshful.ro/media/cache/freshful_large/0d/af/4507e4ff095318d7a70c809681a6.jpg"},"extralarge":{"default":"https://cdn.freshful.ro/media/cache/sylius_shop_product_original/0d/af/4507e4ff095318d7a70c809681a6.jpg"}},"label":null,"tags":[],"isAvailable":true,"maxAvailableQuantity":7,"maxAllowedQuantity":100,"breadcrumbs":[{"code":"12","name":"Mama & copilul","slug":"12-mama-si-copilul"},{"code":"1203","name":"Puericultură","slug":"1203-puericultura"},{"code":"120302","name":"Suzete","slug":"120302-suzete"},{"code":"100108149","name":"STOPPi dispozitiv pentru renunțarea la suzetă, +2 ani","slug":"100108149-dentistar-stoppi-dispozitiv-pentru-renuntarea-la-suzeta-2-ani"}],"activePromotion":null,"saveMe":null,"labels":[],"geniusPrice":null,"geniusUnitPricePerLabel":null,"banner":null,"discountLabel":null,"geniusDiscountLabel":null,"badge":null},{"code":"100108147","variantCode":"100108147","name":"Suzete cu inel talia 3, +14 luni","slug":"100108147-dentistar-suzete-cu-inel-talia-3-14-luni","unitPriceLabel":"","brand":"Dentistar","brandCode":"1736","brandFilterCode":"dentistar-b1740","sku":"100108147","price":34.19,"originalPrice":null,"currencyCode":"RON","currency":"Lei","image":{"thumbnail":{"default":"https://cdn.freshful.ro/media/cache/sylius_shop_product_thumbnail/c6/71/b8b765c4d3c2f5da3735fca60125.jpg"},"large":{"default":"https://cdn.freshful.ro/media/cache/freshful_large/c6/71/b8b765c4d3c2f5da3735fca60125.jpg"},"extralarge":{"default":"https://cdn.freshful.ro/media/cache/sylius_shop_product_original/c6/71/b8b765c4d3c2f5da3735fca60125.jpg"}},"label":null,"tags":[],"isAvailable":true,"maxAvailableQuantity":3,"maxAllowedQuantity":100,"breadcrumbs":[{"code":"12","name":"Mama & copilul","slug":"12-mama-si-copilul"},{"code":"1203","name":"Puericultură","slug":"1203-puericultura"},{"code":"120302","name":"Suzete","slug":"120302-suzete"},{"code":"100108147","name":"Suzete cu inel talia 3, +14 luni","slug":"100108147-dentistar-suzete-cu-inel-talia-3-14-luni"}],"activePromotion":null,"saveMe":null,"labels":[],"geniusPrice":null,"geniusUnitPricePerLabel":null,"banner":null,"discountLabel":null,"geniusDiscountLabel":null,"badge":null},{"code":"100108148","variantCode":"100108148","name":"Suzete cu inel talia 1, 0-6 luni","slug":"100108148-dentistar-suzete-cu-inel-talia-1-0-6-luni","unitPriceLabel":"","brand":"Dentistar","brandCode":"1736","brandFilterCode":"dentistar-b1740","sku":"100108148","price":34.19,"originalPrice":null,"currencyCode":"RON","currency":"Lei","image":{"thumbnail":{"default":"https://cdn.freshful.ro/media/cache/sylius_shop_product_thumbnail/60/f7/104c57f7bd150a37769ed53d81f4.jpg"},"large":{"default":"https://cdn.freshful.ro/media/cache/freshful_large/60/f7/104c57f7bd150a37769ed53d81f4.jpg"},"extralarge":{"default":"https://cdn.freshful.ro/media/cache/sylius_shop_product_original/60/f7/104c57f7bd150a37769ed53d81f4.jpg"}},"label":null,"tags":[],"isAvailable":true,"maxAvailableQuantity":4,"maxAllowedQuantity":100,"breadcrumbs":[{"code":"12","name":"Mama & copilul","slug":"12-mama-si-copilul"},{"code":"1203","name":"Puericultură","slug":"1203-puericultura"},{"code":"120302","name":"Suzete","slug":"120302-suzete"},{"code":"100108148","name":"Suzete cu inel talia 1, 0-6 luni","slug":"100108148-dentistar-suzete-cu-inel-talia-1-0-6-luni"}],"activePromotion":null,"saveMe":null,"labels":[],"geniusPrice":null,"geniusUnitPricePerLabel":null,"banner":null,"discountLabel":null,"geniusDiscountLabel":null,"badge":null}],"filters":{"countSelected":0,"items":[{"code":"brand","name":"Brand","countSelected":0,"values":[{"code":"baby-nova-b1739","name":"Baby Nova","isSelected":false,"count":8},{"code":"dentistar-b1740","name":"Dentistar","isSelected":false,"count":4},{"code":"primii-pasi-b2077","name":"Primii Pași","isSelected":false,"count":3}]}]},"orderBy":[{"field":"price","direction":"asc","name":"Preț crescător","isSelected":false},{"field":"price","direction":"desc","name":"Preț descrescător","isSelected":false},{"field":"popularity","direction":"desc","name":"Cele mai populare","isSelected":true},{"field":"category","direction":"asc","name":"Categorie","isSelected":false}],"metaTitle":"Suzete - Gamă variată","metaDescription":"Vrei Suzete? Alege dintr-o gamă variată. Comanzi simplu și ai livrare rapidă, calitate și prospețime. Hai pe Freshful.ro","metaKeywords":null,"banners":[]}}