{"type":"subcategory","payload":{"analyticsListId":"category_130103-anticalcar","analyticsListName":"Category - Anticalcar","name":"Anticalcar","slug":"130103-anticalcar","image":null,"breadcrumbs":[{"code":"13","name":"Detergenți & igienizare","slug":"13-detergent-si-igienizare"},{"code":"1301","name":"Spălare și întreținere rufe","slug":"1301-spalare-si-intretinere-rufe"},{"code":"130103","name":"Anticalcar","slug":"130103-anticalcar"}],"slots":[],"page":1,"limit":10,"pages":2,"count":14,"siblings":[{"name":"Spălare și întreținere rufe","slug":"1301-spalare-si-intretinere-rufe","selected":true},{"name":"Curățenie și întreținerea casei","slug":"1302-igienizarea-casei","selected":false},{"name":"Hârtie igienică, șervețele și prosoape","slug":"1303-hartie-igienica-si-servetele","selected":false}],"children":[{"name":"Toate produsele","slug":"1301-spalare-si-intretinere-rufe","selected":false},{"name":"Balsam de rufe","slug":"130101-balsam-rufe","selected":false},{"name":"Înălbitor și soluții pentru pete","slug":"130102-inalbitor-si-soluti-pete","selected":false},{"name":"Anticalcar","slug":"130103-anticalcar","selected":true},{"name":"Detergent pudră","slug":"130104-detergenti-pudra","selected":false},{"name":"Detergent lichid","slug":"130105-detergent-lichid","selected":false},{"name":"Detergent capsule","slug":"130106-detergent-capsule","selected":false},{"name":"Accesorii pentru rufe","slug":"accesorii-pentru-rufe","selected":false}],"products":[{"code":"100129316","variantCode":"100129316","name":"Detergent pentru curățarea mașinii de spălat 500ml","slug":"100129316-sano-detergent-pentru-curatarea-masinii-de-spalat-500ml","unitPriceLabel":"27,78 Lei/l","brand":"Sano","brandCode":"579","brandFilterCode":"sano-b580","sku":"100129316","price":13.89,"originalPrice":null,"currencyCode":"RON","currency":"Lei","image":{"thumbnail":{"default":"https://cdn.freshful.ro/media/cache/sylius_shop_product_thumbnail/5e/d8/488626126fcf4aa5dcf69f10c424.jpg"},"large":{"default":"https://cdn.freshful.ro/media/cache/freshful_large/5e/d8/488626126fcf4aa5dcf69f10c424.jpg"},"extralarge":{"default":"https://cdn.freshful.ro/media/cache/sylius_shop_product_original/5e/d8/488626126fcf4aa5dcf69f10c424.jpg"}},"label":null,"tags":[],"isAvailable":true,"maxAvailableQuantity":100,"maxAllowedQuantity":100,"breadcrumbs":[{"code":"13","name":"Detergenți & igienizare","slug":"13-detergent-si-igienizare"},{"code":"1301","name":"Spălare și întreținere rufe","slug":"1301-spalare-si-intretinere-rufe"},{"code":"130103","name":"Anticalcar","slug":"130103-anticalcar"},{"code":"100129316","name":"Detergent pentru curățarea mașinii de spălat 500ml","slug":"100129316-sano-detergent-pentru-curatarea-masinii-de-spalat-500ml"}],"activePromotion":null,"saveMe":null,"labels":[],"geniusPrice":null,"geniusUnitPricePerLabel":null,"banner":null,"discountLabel":null,"geniusDiscountLabel":null,"badge":null},{"code":"100059030","variantCode":"100059030","name":"Gel anticalcar Hygiene+ 750ml","slug":"100059030-calgon-gel-anticalcar-hygiene-750ml","unitPriceLabel":"45,2 Lei/l","brand":"Calgon","brandCode":"623","brandFilterCode":"calgon-b624","sku":"100059030","price":33.9,"originalPrice":null,"currencyCode":"RON","currency":"Lei","image":{"thumbnail":{"default":"https://cdn.freshful.ro/media/cache/sylius_shop_product_thumbnail/d6/75/7e6e5ecb76ff828698e1c2b26349.jpg"},"large":{"default":"https://cdn.freshful.ro/media/cache/freshful_large/d6/75/7e6e5ecb76ff828698e1c2b26349.jpg"},"extralarge":{"default":"https://cdn.freshful.ro/media/cache/sylius_shop_product_original/d6/75/7e6e5ecb76ff828698e1c2b26349.jpg"}},"label":null,"tags":[],"isAvailable":true,"maxAvailableQuantity":79,"maxAllowedQuantity":100,"breadcrumbs":[{"code":"13","name":"Detergenți & igienizare","slug":"13-detergent-si-igienizare"},{"code":"1301","name":"Spălare și întreținere rufe","slug":"1301-spalare-si-intretinere-rufe"},{"code":"130103","name":"Anticalcar","slug":"130103-anticalcar"},{"code":"100059030","name":"Gel anticalcar Hygiene+ 750ml","slug":"100059030-calgon-gel-anticalcar-hygiene-750ml"}],"activePromotion":null,"saveMe":null,"labels":[],"geniusPrice":null,"geniusUnitPricePerLabel":null,"banner":null,"discountLabel":null,"geniusDiscountLabel":null,"badge":null},{"code":"100059032","variantCode":"100059032","name":"Gel anticalcar Extra Hygiene+ Gel 1.5l","slug":"100059032-calgon-gel-anticalcar-extra-hygiene-gel-1-5l","unitPriceLabel":"39,99 Lei/l","brand":"Calgon","brandCode":"623","brandFilterCode":"calgon-b624","sku":"100059032","price":59.99,"originalPrice":null,"currencyCode":"RON","currency":"Lei","image":{"thumbnail":{"default":"https://cdn.freshful.ro/media/cache/sylius_shop_product_thumbnail/0d/d4/d842a2dbab0337ffce43736f0e7c.jpg"},"large":{"default":"https://cdn.freshful.ro/media/cache/freshful_large/0d/d4/d842a2dbab0337ffce43736f0e7c.jpg"},"extralarge":{"default":"https://cdn.freshful.ro/media/cache/sylius_shop_product_original/0d/d4/d842a2dbab0337ffce43736f0e7c.jpg"}},"label":null,"tags":[],"isAvailable":true,"maxAvailableQuantity":74,"maxAllowedQuantity":100,"breadcrumbs":[{"code":"13","name":"Detergenți & igienizare","slug":"13-detergent-si-igienizare"},{"code":"1301","name":"Spălare și întreținere rufe","slug":"1301-spalare-si-intretinere-rufe"},{"code":"130103","name":"Anticalcar","slug":"130103-anticalcar"},{"code":"100059032","name":"Gel anticalcar Extra Hygiene+ Gel 1.5l","slug":"100059032-calgon-gel-anticalcar-extra-hygiene-gel-1-5l"}],"activePromotion":null,"saveMe":null,"labels":[],"geniusPrice":null,"geniusUnitPricePerLabel":null,"banner":null,"discountLabel":null,"geniusDiscountLabel":null,"badge":null},{"code":"100059025","variantCode":"100059025","name":"Gel anticalcar 3în1 Power 750ml","slug":"100059025-calgon-gel-anticalcar-3in1-power-750ml","unitPriceLabel":"45,2 Lei/l","brand":"Calgon","brandCode":"623","brandFilterCode":"calgon-b624","sku":"100059025","price":33.9,"originalPrice":null,"currencyCode":"RON","currency":"Lei","image":{"thumbnail":{"default":"https://cdn.freshful.ro/media/cache/sylius_shop_product_thumbnail/00/fc/35bcf29baa59de47501ffa8588e5.jpg"},"large":{"default":"https://cdn.freshful.ro/media/cache/freshful_large/00/fc/35bcf29baa59de47501ffa8588e5.jpg"},"extralarge":{"default":"https://cdn.freshful.ro/media/cache/sylius_shop_product_original/00/fc/35bcf29baa59de47501ffa8588e5.jpg"}},"label":null,"tags":[],"isAvailable":true,"maxAvailableQuantity":43,"maxAllowedQuantity":100,"breadcrumbs":[{"code":"13","name":"Detergenți & igienizare","slug":"13-detergent-si-igienizare"},{"code":"1301","name":"Spălare și întreținere rufe","slug":"1301-spalare-si-intretinere-rufe"},{"code":"130103","name":"Anticalcar","slug":"130103-anticalcar"},{"code":"100059025","name":"Gel anticalcar 3în1 Power 750ml","slug":"100059025-calgon-gel-anticalcar-3in1-power-750ml"}],"activePromotion":null,"saveMe":null,"labels":[],"geniusPrice":null,"geniusUnitPricePerLabel":null,"banner":null,"discountLabel":null,"geniusDiscountLabel":null,"badge":null},{"code":"100059028","variantCode":"100059028","name":"Pudră anticalcar 3în1 Power 1kg","slug":"100059028-calgon-pudra-anticalcar-3in1-power-1kg","unitPriceLabel":"33,9 Lei/kg","brand":"Calgon","brandCode":"623","brandFilterCode":"calgon-b624","sku":"100059028","price":33.9,"originalPrice":null,"currencyCode":"RON","currency":"Lei","image":{"thumbnail":{"default":"https://cdn.freshful.ro/media/cache/sylius_shop_product_thumbnail/52/26/2153124b2542e28f488a0ce87bf3.jpg"},"large":{"default":"https://cdn.freshful.ro/media/cache/freshful_large/52/26/2153124b2542e28f488a0ce87bf3.jpg"},"extralarge":{"default":"https://cdn.freshful.ro/media/cache/sylius_shop_product_original/52/26/2153124b2542e28f488a0ce87bf3.jpg"}},"label":null,"tags":[],"isAvailable":true,"maxAvailableQuantity":36,"maxAllowedQuantity":100,"breadcrumbs":[{"code":"13","name":"Detergenți & igienizare","slug":"13-detergent-si-igienizare"},{"code":"1301","name":"Spălare și întreținere rufe","slug":"1301-spalare-si-intretinere-rufe"},{"code":"130103","name":"Anticalcar","slug":"130103-anticalcar"},{"code":"100059028","name":"Pudră anticalcar 3în1 Power 1kg","slug":"100059028-calgon-pudra-anticalcar-3in1-power-1kg"}],"activePromotion":null,"saveMe":null,"labels":[],"geniusPrice":null,"geniusUnitPricePerLabel":null,"banner":null,"discountLabel":null,"geniusDiscountLabel":null,"badge":null},{"code":"100059023","variantCode":"100059023","name":"Pudră anticalcar 3în1 Power 10 spălări 500g","slug":"100059023-calgon-pudra-anticalcar-3in1-power-10-spalari-500g","unitPriceLabel":"39,8 Lei/kg","brand":"Calgon","brandCode":"623","brandFilterCode":"calgon-b624","sku":"100059023","price":19.9,"originalPrice":null,"currencyCode":"RON","currency":"Lei","image":{"thumbnail":{"default":"https://cdn.freshful.ro/media/cache/sylius_shop_product_thumbnail/29/a1/0d5f6dd9cc3c3b271b456f6859a7.jpg"},"large":{"default":"https://cdn.freshful.ro/media/cache/freshful_large/29/a1/0d5f6dd9cc3c3b271b456f6859a7.jpg"},"extralarge":{"default":"https://cdn.freshful.ro/media/cache/sylius_shop_product_original/29/a1/0d5f6dd9cc3c3b271b456f6859a7.jpg"}},"label":null,"tags":[],"isAvailable":true,"maxAvailableQuantity":16,"maxAllowedQuantity":100,"breadcrumbs":[{"code":"13","name":"Detergenți & igienizare","slug":"13-detergent-si-igienizare"},{"code":"1301","name":"Spălare și întreținere rufe","slug":"1301-spalare-si-intretinere-rufe"},{"code":"130103","name":"Anticalcar","slug":"130103-anticalcar"},{"code":"100059023","name":"Pudră anticalcar 3în1 Power 10 spălări 500g","slug":"100059023-calgon-pudra-anticalcar-3in1-power-10-spalari-500g"}],"activePromotion":null,"saveMe":null,"labels":[],"geniusPrice":null,"geniusUnitPricePerLabel":null,"banner":null,"discountLabel":null,"geniusDiscountLabel":null,"badge":null},{"code":"100059029","variantCode":"100059029","name":"Gel anticalcar 3în1 Power 30 spălări 1.5l","slug":"100059029-calgon-gel-anticalcar-3in1-power-30-spalari-1-5l","unitPriceLabel":"39,99 Lei/l","brand":"Calgon","brandCode":"623","brandFilterCode":"calgon-b624","sku":"100059029","price":59.99,"originalPrice":null,"currencyCode":"RON","currency":"Lei","image":{"thumbnail":{"default":"https://cdn.freshful.ro/media/cache/sylius_shop_product_thumbnail/b8/ed/529e75d701489b6bde20bf7dbf26.jpg"},"large":{"default":"https://cdn.freshful.ro/media/cache/freshful_large/b8/ed/529e75d701489b6bde20bf7dbf26.jpg"},"extralarge":{"default":"https://cdn.freshful.ro/media/cache/sylius_shop_product_original/b8/ed/529e75d701489b6bde20bf7dbf26.jpg"}},"label":null,"tags":[],"isAvailable":true,"maxAvailableQuantity":100,"maxAllowedQuantity":100,"breadcrumbs":[{"code":"13","name":"Detergenți & igienizare","slug":"13-detergent-si-igienizare"},{"code":"1301","name":"Spălare și întreținere rufe","slug":"1301-spalare-si-intretinere-rufe"},{"code":"130103","name":"Anticalcar","slug":"130103-anticalcar"},{"code":"100059029","name":"Gel anticalcar 3în1 Power 30 spălări 1.5l","slug":"100059029-calgon-gel-anticalcar-3in1-power-30-spalari-1-5l"}],"activePromotion":null,"saveMe":null,"labels":[],"geniusPrice":null,"geniusUnitPricePerLabel":null,"banner":null,"discountLabel":null,"geniusDiscountLabel":null,"badge":null},{"code":"100059031","variantCode":"100059031","name":"Pudră anticalcar 3în1 Power 2kg","slug":"100059031-calgon-pudra-anticalcar-3in1-power-2kg","unitPriceLabel":"30 Lei/kg","brand":"Calgon","brandCode":"623","brandFilterCode":"calgon-b624","sku":"100059031","price":59.99,"originalPrice":null,"currencyCode":"RON","currency":"Lei","image":{"thumbnail":{"default":"https://cdn.freshful.ro/media/cache/sylius_shop_product_thumbnail/53/30/b759e860d29ea0b9e7998f88ce9a.jpg"},"large":{"default":"https://cdn.freshful.ro/media/cache/freshful_large/53/30/b759e860d29ea0b9e7998f88ce9a.jpg"},"extralarge":{"default":"https://cdn.freshful.ro/media/cache/sylius_shop_product_original/53/30/b759e860d29ea0b9e7998f88ce9a.jpg"}},"label":null,"tags":[],"isAvailable":true,"maxAvailableQuantity":27,"maxAllowedQuantity":100,"breadcrumbs":[{"code":"13","name":"Detergenți & igienizare","slug":"13-detergent-si-igienizare"},{"code":"1301","name":"Spălare și întreținere rufe","slug":"1301-spalare-si-intretinere-rufe"},{"code":"130103","name":"Anticalcar","slug":"130103-anticalcar"},{"code":"100059031","name":"Pudră anticalcar 3în1 Power 2kg","slug":"100059031-calgon-pudra-anticalcar-3in1-power-2kg"}],"activePromotion":null,"saveMe":null,"labels":[],"geniusPrice":null,"geniusUnitPricePerLabel":null,"banner":null,"discountLabel":null,"geniusDiscountLabel":null,"badge":null},{"code":"100059026","variantCode":"100059026","name":"Tablete anticalcar 3în1 Powerball 15 buc","slug":"100059026-calgon-tablete-anticalcar-3in1-powerball-15-buc","unitPriceLabel":"","brand":"Calgon","brandCode":"623","brandFilterCode":"calgon-b624","sku":"100059026","price":33.9,"originalPrice":null,"currencyCode":"RON","currency":"Lei","image":{"thumbnail":{"default":"https://cdn.freshful.ro/media/cache/sylius_shop_product_thumbnail/f2/26/067f809a647a5e2a1d204496998f.jpg"},"large":{"default":"https://cdn.freshful.ro/media/cache/freshful_large/f2/26/067f809a647a5e2a1d204496998f.jpg"},"extralarge":{"default":"https://cdn.freshful.ro/media/cache/sylius_shop_product_original/f2/26/067f809a647a5e2a1d204496998f.jpg"}},"label":null,"tags":[],"isAvailable":true,"maxAvailableQuantity":26,"maxAllowedQuantity":100,"breadcrumbs":[{"code":"13","name":"Detergenți & igienizare","slug":"13-detergent-si-igienizare"},{"code":"1301","name":"Spălare și întreținere rufe","slug":"1301-spalare-si-intretinere-rufe"},{"code":"130103","name":"Anticalcar","slug":"130103-anticalcar"},{"code":"100059026","name":"Tablete anticalcar 3în1 Powerball 15 buc","slug":"100059026-calgon-tablete-anticalcar-3in1-powerball-15-buc"}],"activePromotion":null,"saveMe":null,"labels":[],"geniusPrice":null,"geniusUnitPricePerLabel":null,"banner":null,"discountLabel":null,"geniusDiscountLabel":null,"badge":null},{"code":"100059027","variantCode":"100059027","name":"Tablete anticalcar 3în1 Powerball 30 spălări, 30 buc","slug":"100059027-calgon-tablete-anticalcar-3in1-powerball-30-spalari-30-buc","unitPriceLabel":"","brand":"Calgon","brandCode":"623","brandFilterCode":"calgon-b624","sku":"100059027","price":59.99,"originalPrice":null,"currencyCode":"RON","currency":"Lei","image":{"thumbnail":{"default":"https://cdn.freshful.ro/media/cache/sylius_shop_product_thumbnail/f8/ef/70265fd898b9f1b9b971a812a7c5.jpg"},"large":{"default":"https://cdn.freshful.ro/media/cache/freshful_large/f8/ef/70265fd898b9f1b9b971a812a7c5.jpg"},"extralarge":{"default":"https://cdn.freshful.ro/media/cache/sylius_shop_product_original/f8/ef/70265fd898b9f1b9b971a812a7c5.jpg"}},"label":null,"tags":[],"isAvailable":true,"maxAvailableQuantity":15,"maxAllowedQuantity":100,"breadcrumbs":[{"code":"13","name":"Detergenți & igienizare","slug":"13-detergent-si-igienizare"},{"code":"1301","name":"Spălare și întreținere rufe","slug":"1301-spalare-si-intretinere-rufe"},{"code":"130103","name":"Anticalcar","slug":"130103-anticalcar"},{"code":"100059027","name":"Tablete anticalcar 3în1 Powerball 30 spălări, 30 buc","slug":"100059027-calgon-tablete-anticalcar-3in1-powerball-30-spalari-30-buc"}],"activePromotion":null,"saveMe":null,"labels":[],"geniusPrice":null,"geniusUnitPricePerLabel":null,"banner":null,"discountLabel":null,"geniusDiscountLabel":null,"badge":null}],"filters":{"countSelected":0,"items":[{"code":"brand","name":"Brand","countSelected":0,"values":[{"code":"calgon-b624","name":"Calgon","isSelected":false,"count":11},{"code":"dr-beckmann-b1106","name":"Dr.Beckmann","isSelected":false,"count":1},{"code":"heitmann-b358","name":"Heitmann","isSelected":false,"count":1},{"code":"sano-b580","name":"Sano","isSelected":false,"count":1}]}]},"orderBy":[{"field":"price","direction":"asc","name":"Preț crescător","isSelected":false},{"field":"price","direction":"desc","name":"Preț descrescător","isSelected":false},{"field":"popularity","direction":"desc","name":"Cele mai populare","isSelected":true},{"field":"category","direction":"asc","name":"Categorie","isSelected":false}],"metaTitle":"Anticalcar - Gamă variată","metaDescription":"Vrei Anticalcar? Alege dintr-o gamă variată. Comanzi simplu și ai livrare rapidă, calitate și prospețime. Hai pe Freshful.ro","metaKeywords":null,"banners":[]}}