{"type":"subcategory","payload":{"analyticsListId":"category_130104-detergenti-pudra","analyticsListName":"Category - Detergent pudră","name":"Detergent pudră","slug":"130104-detergenti-pudra","image":null,"breadcrumbs":[{"code":"13","name":"Detergenți & igienizare","slug":"13-detergent-si-igienizare"},{"code":"1301","name":"Spălare și întreținere rufe","slug":"1301-spalare-si-intretinere-rufe"},{"code":"130104","name":"Detergent pudră","slug":"130104-detergenti-pudra"}],"slots":[],"page":1,"limit":10,"pages":4,"count":39,"siblings":[{"name":"Spălare și întreținere rufe","slug":"1301-spalare-si-intretinere-rufe","selected":true},{"name":"Curățenie și întreținerea casei","slug":"1302-igienizarea-casei","selected":false},{"name":"Hârtie igienică, șervețele și prosoape","slug":"1303-hartie-igienica-si-servetele","selected":false}],"children":[{"name":"Toate produsele","slug":"1301-spalare-si-intretinere-rufe","selected":false},{"name":"Balsam de rufe","slug":"130101-balsam-rufe","selected":false},{"name":"Înălbitor și soluții pentru pete","slug":"130102-inalbitor-si-soluti-pete","selected":false},{"name":"Anticalcar","slug":"130103-anticalcar","selected":false},{"name":"Detergent pudră","slug":"130104-detergenti-pudra","selected":true},{"name":"Detergent lichid","slug":"130105-detergent-lichid","selected":false},{"name":"Detergent capsule","slug":"130106-detergent-capsule","selected":false},{"name":"Accesorii pentru rufe","slug":"accesorii-pentru-rufe","selected":false}],"products":[{"code":"100092160","variantCode":"100092160","name":"Detergent de rufe pudră automat Mountain Spring 20 spălări, 2kg","slug":"100092160-ariel-detergent-de-rufe-pudra-automat-mountain-spring-20-spalari-2kg","unitPriceLabel":"14 Lei/kg","brand":"Ariel","brandCode":"672","brandFilterCode":"ariel-b673","sku":"100092160","price":27.99,"originalPrice":null,"currencyCode":"RON","currency":"Lei","image":{"thumbnail":{"default":"https://cdn.freshful.ro/media/cache/sylius_shop_product_thumbnail/28/d8/5c3f505d114b4533562ee8ef7972.jpg"},"large":{"default":"https://cdn.freshful.ro/media/cache/freshful_large/28/d8/5c3f505d114b4533562ee8ef7972.jpg"},"extralarge":{"default":"https://cdn.freshful.ro/media/cache/sylius_shop_product_original/28/d8/5c3f505d114b4533562ee8ef7972.jpg"}},"label":{"text":"Profită acum","backgroundColor":"#FF9903","textColor":"#FFFFFF"},"tags":[],"isAvailable":true,"maxAvailableQuantity":80,"maxAllowedQuantity":100,"breadcrumbs":[{"code":"13","name":"Detergenți & igienizare","slug":"13-detergent-si-igienizare"},{"code":"1301","name":"Spălare și întreținere rufe","slug":"1301-spalare-si-intretinere-rufe"},{"code":"130104","name":"Detergent pudră","slug":"130104-detergenti-pudra"},{"code":"100092160","name":"Detergent de rufe pudră automat Mountain Spring 20 spălări, 2kg","slug":"100092160-ariel-detergent-de-rufe-pudra-automat-mountain-spring-20-spalari-2kg"}],"activePromotion":{"code":"oferte-dph-21feb-8mar23","name":"Preț avantajos","targetQuantity":null},"saveMe":null,"labels":[{"type":"v1","items":[{"text":"Profită acum","backgroundColor":"#FF9903","textColor":"#FFFFFF"}]}],"geniusPrice":null,"geniusUnitPricePerLabel":null,"banner":{"text":"Preț avantajos","textColor":"#F95510","bgColor":"#FEF1CD","icon":null,"link":"https://www.freshful.ro/oferte/oferte-dph-21feb-8mar23","type":"promo","analyticsEventType":"select_promotion","analyticsEventPayload":{"promotion_id":"oferte-dph-21feb-8mar23","promotion_name":"Curățenie și îngrijire personală"}},"discountLabel":null,"geniusDiscountLabel":null,"badge":null},{"code":"100092156","variantCode":"100092156","name":"Detergent de rufe pudră automat Mountain Spring 40 spălări, 4kg","slug":"100092156-ariel-detergent-de-rufe-pudra-automat-mountain-spring-40-spalari-4kg","unitPriceLabel":"13,75 Lei/kg","brand":"Ariel","brandCode":"672","brandFilterCode":"ariel-b673","sku":"100092156","price":54.99,"originalPrice":null,"currencyCode":"RON","currency":"Lei","image":{"thumbnail":{"default":"https://cdn.freshful.ro/media/cache/sylius_shop_product_thumbnail/d6/97/545acebd73f7814f21eaa8641187.jpg"},"large":{"default":"https://cdn.freshful.ro/media/cache/freshful_large/d6/97/545acebd73f7814f21eaa8641187.jpg"},"extralarge":{"default":"https://cdn.freshful.ro/media/cache/sylius_shop_product_original/d6/97/545acebd73f7814f21eaa8641187.jpg"}},"label":{"text":"Profită acum","backgroundColor":"#FF9903","textColor":"#FFFFFF"},"tags":[],"isAvailable":true,"maxAvailableQuantity":57,"maxAllowedQuantity":100,"breadcrumbs":[{"code":"13","name":"Detergenți & igienizare","slug":"13-detergent-si-igienizare"},{"code":"1301","name":"Spălare și întreținere rufe","slug":"1301-spalare-si-intretinere-rufe"},{"code":"130104","name":"Detergent pudră","slug":"130104-detergenti-pudra"},{"code":"100092156","name":"Detergent de rufe pudră automat Mountain Spring 40 spălări, 4kg","slug":"100092156-ariel-detergent-de-rufe-pudra-automat-mountain-spring-40-spalari-4kg"}],"activePromotion":{"code":"oferte-dph-21feb-8mar23","name":"Preț avantajos","targetQuantity":null},"saveMe":null,"labels":[{"type":"v1","items":[{"text":"Profită acum","backgroundColor":"#FF9903","textColor":"#FFFFFF"}]}],"geniusPrice":null,"geniusUnitPricePerLabel":null,"banner":{"text":"Preț avantajos","textColor":"#F95510","bgColor":"#FEF1CD","icon":null,"link":"https://www.freshful.ro/oferte/oferte-dph-21feb-8mar23","type":"promo","analyticsEventType":"select_promotion","analyticsEventPayload":{"promotion_id":"oferte-dph-21feb-8mar23","promotion_name":"Curățenie și îngrijire personală"}},"discountLabel":null,"geniusDiscountLabel":null,"badge":null},{"code":"100061935","variantCode":"100061935","name":"Detergent de rufe pudră automat Ozon+ „Roua muntelui” 20 spălări, 2kg","slug":"100061935-dero-detergent-de-rufe-pudra-automat-ozon-roua-muntelui-20-spalari-2kg","unitPriceLabel":"8,07 Lei/kg","brand":"Dero","brandCode":"758","brandFilterCode":"dero-b759","sku":"100061935","price":16.14,"originalPrice":null,"currencyCode":"RON","currency":"Lei","image":{"thumbnail":{"default":"https://cdn.freshful.ro/media/cache/sylius_shop_product_thumbnail/e2/e6/2b17c9ed2237f1905efa4c055d41.jpg"},"large":{"default":"https://cdn.freshful.ro/media/cache/freshful_large/e2/e6/2b17c9ed2237f1905efa4c055d41.jpg"},"extralarge":{"default":"https://cdn.freshful.ro/media/cache/sylius_shop_product_original/e2/e6/2b17c9ed2237f1905efa4c055d41.jpg"}},"label":{"text":"Profită acum","backgroundColor":"#FF9903","textColor":"#FFFFFF"},"tags":[],"isAvailable":true,"maxAvailableQuantity":100,"maxAllowedQuantity":100,"breadcrumbs":[{"code":"13","name":"Detergenți & igienizare","slug":"13-detergent-si-igienizare"},{"code":"1301","name":"Spălare și întreținere rufe","slug":"1301-spalare-si-intretinere-rufe"},{"code":"130104","name":"Detergent pudră","slug":"130104-detergenti-pudra"},{"code":"100061935","name":"Detergent de rufe pudră automat Ozon+ „Roua muntelui” 20 spălări, 2kg","slug":"100061935-dero-detergent-de-rufe-pudra-automat-ozon-roua-muntelui-20-spalari-2kg"}],"activePromotion":{"code":"freshful-top-deals-2023","name":"Preț avantajos","targetQuantity":null},"saveMe":null,"labels":[{"type":"v1","items":[{"text":"Profită acum","backgroundColor":"#FF9903","textColor":"#FFFFFF"}]}],"geniusPrice":null,"geniusUnitPricePerLabel":null,"banner":{"text":"Preț avantajos","textColor":"#F95510","bgColor":"#FEF1CD","icon":null,"link":"https://www.freshful.ro/oferte/freshful-top-deals-2023","type":"promo","analyticsEventType":"select_promotion","analyticsEventPayload":{"promotion_id":"freshful-top-deals-2023","promotion_name":"Profită de Top Deals"}},"discountLabel":null,"geniusDiscountLabel":null,"badge":null},{"code":"100061936","variantCode":"100061936","name":"Detergent de rufe pudră automat Ozon+ „Roua muntelui” 40 spălări, 4kg","slug":"100061936-dero-detergent-de-rufe-pudra-automat-ozon-roua-muntelui-40-spalari-4kg","unitPriceLabel":"10,44 Lei/kg","brand":"Dero","brandCode":"758","brandFilterCode":"dero-b759","sku":"100061936","price":41.74,"originalPrice":null,"currencyCode":"RON","currency":"Lei","image":{"thumbnail":{"default":"https://cdn.freshful.ro/media/cache/sylius_shop_product_thumbnail/99/26/bf1f0275c98d51cf184a47df991c.jpg"},"large":{"default":"https://cdn.freshful.ro/media/cache/freshful_large/99/26/bf1f0275c98d51cf184a47df991c.jpg"},"extralarge":{"default":"https://cdn.freshful.ro/media/cache/sylius_shop_product_original/99/26/bf1f0275c98d51cf184a47df991c.jpg"}},"label":{"text":"Profită acum","backgroundColor":"#FF9903","textColor":"#FFFFFF"},"tags":[],"isAvailable":true,"maxAvailableQuantity":36,"maxAllowedQuantity":100,"breadcrumbs":[{"code":"13","name":"Detergenți & igienizare","slug":"13-detergent-si-igienizare"},{"code":"1301","name":"Spălare și întreținere rufe","slug":"1301-spalare-si-intretinere-rufe"},{"code":"130104","name":"Detergent pudră","slug":"130104-detergenti-pudra"},{"code":"100061936","name":"Detergent de rufe pudră automat Ozon+ „Roua muntelui” 40 spălări, 4kg","slug":"100061936-dero-detergent-de-rufe-pudra-automat-ozon-roua-muntelui-40-spalari-4kg"}],"activePromotion":{"code":"freshful-top-deals-2023","name":"Preț avantajos","targetQuantity":null},"saveMe":null,"labels":[{"type":"v1","items":[{"text":"Profită acum","backgroundColor":"#FF9903","textColor":"#FFFFFF"}]}],"geniusPrice":null,"geniusUnitPricePerLabel":null,"banner":{"text":"Preț avantajos","textColor":"#F95510","bgColor":"#FEF1CD","icon":null,"link":"https://www.freshful.ro/oferte/freshful-top-deals-2023","type":"promo","analyticsEventType":"select_promotion","analyticsEventPayload":{"promotion_id":"freshful-top-deals-2023","promotion_name":"Profită de Top Deals"}},"discountLabel":null,"geniusDiscountLabel":null,"badge":null},{"code":"100092149","variantCode":"100092149","name":"Detergent de rufe pudră automat Touch of Lenor color 100 spălări, 10kg","slug":"100092149-ariel-detergent-de-rufe-pudra-automat-touch-of-lenor-color-100-spalari-10kg","unitPriceLabel":"11 Lei/kg","brand":"Ariel","brandCode":"672","brandFilterCode":"ariel-b673","sku":"100092149","price":109.99,"originalPrice":null,"currencyCode":"RON","currency":"Lei","image":{"thumbnail":{"default":"https://cdn.freshful.ro/media/cache/sylius_shop_product_thumbnail/43/42/009ba235d3dc8e8fce595d8a41ec.jpg"},"large":{"default":"https://cdn.freshful.ro/media/cache/freshful_large/43/42/009ba235d3dc8e8fce595d8a41ec.jpg"},"extralarge":{"default":"https://cdn.freshful.ro/media/cache/sylius_shop_product_original/43/42/009ba235d3dc8e8fce595d8a41ec.jpg"}},"label":{"text":"Profită acum","backgroundColor":"#FF9903","textColor":"#FFFFFF"},"tags":[],"isAvailable":true,"maxAvailableQuantity":15,"maxAllowedQuantity":100,"breadcrumbs":[{"code":"13","name":"Detergenți & igienizare","slug":"13-detergent-si-igienizare"},{"code":"1301","name":"Spălare și întreținere rufe","slug":"1301-spalare-si-intretinere-rufe"},{"code":"130104","name":"Detergent pudră","slug":"130104-detergenti-pudra"},{"code":"100092149","name":"Detergent de rufe pudră automat Touch of Lenor color 100 spălări, 10kg","slug":"100092149-ariel-detergent-de-rufe-pudra-automat-touch-of-lenor-color-100-spalari-10kg"}],"activePromotion":{"code":"oferte-dph-21feb-8mar23","name":"Preț avantajos","targetQuantity":null},"saveMe":null,"labels":[{"type":"v1","items":[{"text":"Profită acum","backgroundColor":"#FF9903","textColor":"#FFFFFF"}]}],"geniusPrice":null,"geniusUnitPricePerLabel":null,"banner":{"text":"Preț avantajos","textColor":"#F95510","bgColor":"#FEF1CD","icon":null,"link":"https://www.freshful.ro/oferte/oferte-dph-21feb-8mar23","type":"promo","analyticsEventType":"select_promotion","analyticsEventPayload":{"promotion_id":"oferte-dph-21feb-8mar23","promotion_name":"Curățenie și îngrijire personală"}},"discountLabel":null,"geniusDiscountLabel":null,"badge":null},{"code":"100046735","variantCode":"100046735","name":"Detergent de rufe pudră automat Ozon+ „Roua muntelui” 80 spălări, 8kg","slug":"100046735-dero-detergent-de-rufe-pudra-automat-ozon-roua-muntelui-80-spalari-8kg","unitPriceLabel":"9,37 Lei/kg","brand":"Dero","brandCode":"758","brandFilterCode":"dero-b759","sku":"100046735","price":74.99,"originalPrice":91.9,"currencyCode":"RON","currency":"Lei","image":{"thumbnail":{"default":"https://cdn.freshful.ro/media/cache/sylius_shop_product_thumbnail/03/0e/2c4d3aae96c699320af642a54c0c.jpg"},"large":{"default":"https://cdn.freshful.ro/media/cache/freshful_large/03/0e/2c4d3aae96c699320af642a54c0c.jpg"},"extralarge":{"default":"https://cdn.freshful.ro/media/cache/sylius_shop_product_original/03/0e/2c4d3aae96c699320af642a54c0c.jpg"}},"label":{"text":"-18%","backgroundColor":"#FF9903","textColor":"#FFFFFF"},"tags":[],"isAvailable":true,"maxAvailableQuantity":20,"maxAllowedQuantity":100,"breadcrumbs":[{"code":"13","name":"Detergenți & igienizare","slug":"13-detergent-si-igienizare"},{"code":"1301","name":"Spălare și întreținere rufe","slug":"1301-spalare-si-intretinere-rufe"},{"code":"130104","name":"Detergent pudră","slug":"130104-detergenti-pudra"},{"code":"100046735","name":"Detergent de rufe pudră automat Ozon+ „Roua muntelui” 80 spălări, 8kg","slug":"100046735-dero-detergent-de-rufe-pudra-automat-ozon-roua-muntelui-80-spalari-8kg"}],"activePromotion":{"code":"oferte-dph-21feb-8mar23","name":"Preț redus","targetQuantity":null},"saveMe":null,"labels":[{"type":"v1","items":[{"text":"-18%","backgroundColor":"#FF9903","textColor":"#FFFFFF"}]}],"geniusPrice":null,"geniusUnitPricePerLabel":null,"banner":{"text":"Super preț","textColor":"#FF0000","bgColor":"#FFF2EC","icon":null,"link":"https://www.freshful.ro/oferte/oferte-dph-21feb-8mar23","type":"promo","analyticsEventType":"select_promotion","analyticsEventPayload":{"promotion_id":"oferte-dph-21feb-8mar23","promotion_name":"Curățenie și îngrijire personală"}},"discountLabel":"Economisești 18%","geniusDiscountLabel":null,"badge":null},{"code":"100061934","variantCode":"100061934","name":"Detergent de rufe pudră automat 2în1, 20 spălări, 2kg","slug":"100061934-dero-detergent-de-rufe-pudra-automat-2in1-20-spalari-2kg","unitPriceLabel":"10,25 Lei/kg","brand":"Dero","brandCode":"758","brandFilterCode":"dero-b759","sku":"100061934","price":20.5,"originalPrice":null,"currencyCode":"RON","currency":"Lei","image":{"thumbnail":{"default":"https://cdn.freshful.ro/media/cache/sylius_shop_product_thumbnail/4c/85/8ba65184959dc93cd4ba0a2125d9.jpg"},"large":{"default":"https://cdn.freshful.ro/media/cache/freshful_large/4c/85/8ba65184959dc93cd4ba0a2125d9.jpg"},"extralarge":{"default":"https://cdn.freshful.ro/media/cache/sylius_shop_product_original/4c/85/8ba65184959dc93cd4ba0a2125d9.jpg"}},"label":null,"tags":[{"type":"MadeInRomania","text":"Made In Romania","icon":"https://cdn.freshful.ro/assets/product_tags/made_in_romania.svg","iconPng":"https://cdn.freshful.ro/assets/product_tags/made_in_romania.png","backgroundColor":"#EDF2FD","textColor":"#1653CA"}],"isAvailable":true,"maxAvailableQuantity":77,"maxAllowedQuantity":100,"breadcrumbs":[{"code":"13","name":"Detergenți & igienizare","slug":"13-detergent-si-igienizare"},{"code":"1301","name":"Spălare și întreținere rufe","slug":"1301-spalare-si-intretinere-rufe"},{"code":"130104","name":"Detergent pudră","slug":"130104-detergenti-pudra"},{"code":"100061934","name":"Detergent de rufe pudră automat 2în1, 20 spălări, 2kg","slug":"100061934-dero-detergent-de-rufe-pudra-automat-2in1-20-spalari-2kg"}],"activePromotion":null,"saveMe":null,"labels":[],"geniusPrice":null,"geniusUnitPricePerLabel":null,"banner":null,"discountLabel":null,"geniusDiscountLabel":null,"badge":null},{"code":"100129319","variantCode":"100129319","name":"Detergent de rufe pudră Spring Flowers 20 spălări, 2kg","slug":"100129319-sano-detergent-de-rufe-pudra-spring-flowers-20-spalari-2kg","unitPriceLabel":"14 Lei/kg","brand":"Sano","brandCode":"579","brandFilterCode":"sano-b580","sku":"100129319","price":27.99,"originalPrice":null,"currencyCode":"RON","currency":"Lei","image":{"thumbnail":{"default":"https://cdn.freshful.ro/media/cache/sylius_shop_product_thumbnail/ea/cc/94232f7912fa30b52695986f8d26.jpg"},"large":{"default":"https://cdn.freshful.ro/media/cache/freshful_large/ea/cc/94232f7912fa30b52695986f8d26.jpg"},"extralarge":{"default":"https://cdn.freshful.ro/media/cache/sylius_shop_product_original/ea/cc/94232f7912fa30b52695986f8d26.jpg"}},"label":null,"tags":[],"isAvailable":true,"maxAvailableQuantity":61,"maxAllowedQuantity":100,"breadcrumbs":[{"code":"13","name":"Detergenți & igienizare","slug":"13-detergent-si-igienizare"},{"code":"1301","name":"Spălare și întreținere rufe","slug":"1301-spalare-si-intretinere-rufe"},{"code":"130104","name":"Detergent pudră","slug":"130104-detergenti-pudra"},{"code":"100129319","name":"Detergent de rufe pudră Spring Flowers 20 spălări, 2kg","slug":"100129319-sano-detergent-de-rufe-pudra-spring-flowers-20-spalari-2kg"}],"activePromotion":null,"saveMe":null,"labels":[],"geniusPrice":null,"geniusUnitPricePerLabel":null,"banner":null,"discountLabel":null,"geniusDiscountLabel":null,"badge":null},{"code":"100061939","variantCode":"100061939","name":"Detergent de rufe pudră automat 2în1 levănțică și iasomie 20 spălări, 2kg","slug":"100061939-dero-detergent-de-rufe-pudra-automat-2in1-levantica-si-iasomie-20-spalari-2kg","unitPriceLabel":"10,25 Lei/kg","brand":"Dero","brandCode":"758","brandFilterCode":"dero-b759","sku":"100061939","price":20.5,"originalPrice":null,"currencyCode":"RON","currency":"Lei","image":{"thumbnail":{"default":"https://cdn.freshful.ro/media/cache/sylius_shop_product_thumbnail/9b/7a/5eab8a7941e168d4abe78ba744bb.jpg"},"large":{"default":"https://cdn.freshful.ro/media/cache/freshful_large/9b/7a/5eab8a7941e168d4abe78ba744bb.jpg"},"extralarge":{"default":"https://cdn.freshful.ro/media/cache/sylius_shop_product_original/9b/7a/5eab8a7941e168d4abe78ba744bb.jpg"}},"label":null,"tags":[],"isAvailable":true,"maxAvailableQuantity":27,"maxAllowedQuantity":100,"breadcrumbs":[{"code":"13","name":"Detergenți & igienizare","slug":"13-detergent-si-igienizare"},{"code":"1301","name":"Spălare și întreținere rufe","slug":"1301-spalare-si-intretinere-rufe"},{"code":"130104","name":"Detergent pudră","slug":"130104-detergenti-pudra"},{"code":"100061939","name":"Detergent de rufe pudră automat 2în1 levănțică și iasomie 20 spălări, 2kg","slug":"100061939-dero-detergent-de-rufe-pudra-automat-2in1-levantica-si-iasomie-20-spalari-2kg"}],"activePromotion":null,"saveMe":null,"labels":[],"geniusPrice":null,"geniusUnitPricePerLabel":null,"banner":null,"discountLabel":null,"geniusDiscountLabel":null,"badge":null},{"code":"100129317","variantCode":"100129317","name":"Detergent de rufe pudră pentru piele sensibilă Baby 20 spălări, 2kg","slug":"100129317-sano-detergent-de-rufe-pudra-pentru-piele-sensibila-baby-20-spalari-2kg","unitPriceLabel":"14 Lei/kg","brand":"Sano","brandCode":"579","brandFilterCode":"sano-b580","sku":"100129317","price":27.99,"originalPrice":null,"currencyCode":"RON","currency":"Lei","image":{"thumbnail":{"default":"https://cdn.freshful.ro/media/cache/sylius_shop_product_thumbnail/27/9a/26b27d21edc7bbac1f33af70ba0b.jpg"},"large":{"default":"https://cdn.freshful.ro/media/cache/freshful_large/27/9a/26b27d21edc7bbac1f33af70ba0b.jpg"},"extralarge":{"default":"https://cdn.freshful.ro/media/cache/sylius_shop_product_original/27/9a/26b27d21edc7bbac1f33af70ba0b.jpg"}},"label":null,"tags":[],"isAvailable":true,"maxAvailableQuantity":60,"maxAllowedQuantity":100,"breadcrumbs":[{"code":"13","name":"Detergenți & igienizare","slug":"13-detergent-si-igienizare"},{"code":"1301","name":"Spălare și întreținere rufe","slug":"1301-spalare-si-intretinere-rufe"},{"code":"130104","name":"Detergent pudră","slug":"130104-detergenti-pudra"},{"code":"100129317","name":"Detergent de rufe pudră pentru piele sensibilă Baby 20 spălări, 2kg","slug":"100129317-sano-detergent-de-rufe-pudra-pentru-piele-sensibila-baby-20-spalari-2kg"}],"activePromotion":null,"saveMe":null,"labels":[],"geniusPrice":null,"geniusUnitPricePerLabel":null,"banner":null,"discountLabel":null,"geniusDiscountLabel":null,"badge":null}],"filters":{"countSelected":0,"items":[{"code":"promotion","name":"Promoții","countSelected":0,"values":[{"code":"oferte-dph-21feb-8mar23","name":"Curățenie și îngrijire personală","isSelected":false,"count":6},{"code":"freshful-top-deals-2023","name":"Profită de Top Deals","isSelected":false,"count":2}]},{"code":"brand","name":"Brand","countSelected":0,"values":[{"code":"ariel-b673","name":"Ariel","isSelected":false,"count":12},{"code":"burti-b364","name":"Burti","isSelected":false,"count":2},{"code":"dero-b759","name":"Dero","isSelected":false,"count":8},{"code":"persil-b423","name":"Persil","isSelected":false,"count":5},{"code":"sano-b580","name":"Sano","isSelected":false,"count":3},{"code":"savex-b388","name":"Savex","isSelected":false,"count":6},{"code":"sonett-b1681","name":"Sonett","isSelected":false,"count":1},{"code":"tide-b675","name":"Tide","isSelected":false,"count":2}]},{"code":"diet_lifestyle","name":"Dietă și lifestyle","countSelected":0,"values":[{"code":"bio-a26","name":"Bio","isSelected":false,"count":1},{"code":"made-in-romania-a85","name":"Made In Romania","isSelected":false,"count":1},{"code":"vegan-a24","name":"Vegan","isSelected":false,"count":1}]}]},"orderBy":[{"field":"price","direction":"asc","name":"Preț crescător","isSelected":false},{"field":"price","direction":"desc","name":"Preț descrescător","isSelected":false},{"field":"popularity","direction":"desc","name":"Cele mai populare","isSelected":true},{"field":"category","direction":"asc","name":"Categorie","isSelected":false}],"metaTitle":"Detergent pudră - Gamă variată","metaDescription":"Vrei Detergent pudră? Alege dintr-o gamă variată. Comanzi simplu și ai livrare rapidă, calitate și prospețime. Hai pe Freshful.ro","metaKeywords":null,"banners":[]}}