{"type":"subcategory","payload":{"analyticsListId":"category_130105-detergent-lichid","analyticsListName":"Category - Detergent lichid","name":"Detergent lichid","slug":"130105-detergent-lichid","image":null,"breadcrumbs":[{"code":"13","name":"Detergenți & igienizare","slug":"13-detergent-si-igienizare"},{"code":"1301","name":"Spălare și întreținere rufe","slug":"1301-spalare-si-intretinere-rufe"},{"code":"130105","name":"Detergent lichid","slug":"130105-detergent-lichid"}],"slots":[],"page":1,"limit":10,"pages":10,"count":95,"siblings":[{"name":"Spălare și întreținere rufe","slug":"1301-spalare-si-intretinere-rufe","selected":true},{"name":"Curățenie și întreținerea casei","slug":"1302-igienizarea-casei","selected":false},{"name":"Hârtie igienică, șervețele și prosoape","slug":"1303-hartie-igienica-si-servetele","selected":false}],"children":[{"name":"Toate produsele","slug":"1301-spalare-si-intretinere-rufe","selected":false},{"name":"Balsam de rufe","slug":"130101-balsam-rufe","selected":false},{"name":"Înălbitor și soluții pentru pete","slug":"130102-inalbitor-si-soluti-pete","selected":false},{"name":"Anticalcar","slug":"130103-anticalcar","selected":false},{"name":"Detergent pudră","slug":"130104-detergenti-pudra","selected":false},{"name":"Detergent lichid","slug":"130105-detergent-lichid","selected":true},{"name":"Detergent capsule","slug":"130106-detergent-capsule","selected":false},{"name":"Accesorii pentru rufe","slug":"accesorii-pentru-rufe","selected":false}],"products":[{"code":"100031411","variantCode":"9000101318630","name":"Detergent lichid Active Gel Deep Clean+ 40 spălări 2l","slug":"100031411-persil-detergent-lichid-active-gel-deep-clean-40-spalari-2l","unitPriceLabel":"21,93 Lei/l","brand":"Persil","brandCode":"422","brandFilterCode":"persil-b423","sku":"100031411","price":43.85,"originalPrice":null,"currencyCode":"RON","currency":"Lei","image":{"thumbnail":{"default":"https://cdn.freshful.ro/media/cache/sylius_shop_product_thumbnail/27/a8/d2a0fbfaf4485f4a4b8d777465c5.jpg"},"large":{"default":"https://cdn.freshful.ro/media/cache/freshful_large/27/a8/d2a0fbfaf4485f4a4b8d777465c5.jpg"},"extralarge":{"default":"https://cdn.freshful.ro/media/cache/sylius_shop_product_original/27/a8/d2a0fbfaf4485f4a4b8d777465c5.jpg"}},"label":{"text":"Profită acum","backgroundColor":"#FF9903","textColor":"#FFFFFF"},"tags":[],"isAvailable":true,"maxAvailableQuantity":41,"maxAllowedQuantity":100,"breadcrumbs":[{"code":"13","name":"Detergenți & igienizare","slug":"13-detergent-si-igienizare"},{"code":"1301","name":"Spălare și întreținere rufe","slug":"1301-spalare-si-intretinere-rufe"},{"code":"130105","name":"Detergent lichid","slug":"130105-detergent-lichid"},{"code":"100031411","name":"Detergent lichid Active Gel Deep Clean+ 40 spălări 2l","slug":"100031411-persil-detergent-lichid-active-gel-deep-clean-40-spalari-2l"}],"activePromotion":{"code":"freshful-top-deals-2023","name":"Preț avantajos","targetQuantity":null},"saveMe":null,"labels":[{"type":"v1","items":[{"text":"Profită acum","backgroundColor":"#FF9903","textColor":"#FFFFFF"}]}],"geniusPrice":null,"geniusUnitPricePerLabel":null,"banner":{"text":"Preț avantajos","textColor":"#F95510","bgColor":"#FEF1CD","icon":null,"link":"https://www.freshful.ro/oferte/freshful-top-deals-2023","type":"promo","analyticsEventType":"select_promotion","analyticsEventPayload":{"promotion_id":"freshful-top-deals-2023","promotion_name":"Profită de Top Deals"}},"discountLabel":null,"geniusDiscountLabel":null,"badge":null},{"code":"100093338","variantCode":"100093338","name":"Detergent lichid Touch of Lenor Color 60 spălări 3.3l","slug":"100093338-ariel-detergent-lichid-touch-of-lenor-color-60-spalari-3-3l","unitPriceLabel":"21,21 Lei/l","brand":"Ariel","brandCode":"672","brandFilterCode":"ariel-b673","sku":"100093338","price":69.99,"originalPrice":81.5,"currencyCode":"RON","currency":"Lei","image":{"thumbnail":{"default":"https://cdn.freshful.ro/media/cache/sylius_shop_product_thumbnail/13/e7/fb0a2828053b51164b73f8b98703.jpg"},"large":{"default":"https://cdn.freshful.ro/media/cache/freshful_large/13/e7/fb0a2828053b51164b73f8b98703.jpg"},"extralarge":{"default":"https://cdn.freshful.ro/media/cache/sylius_shop_product_original/13/e7/fb0a2828053b51164b73f8b98703.jpg"}},"label":{"text":"-14%","backgroundColor":"#FF9903","textColor":"#FFFFFF"},"tags":[],"isAvailable":true,"maxAvailableQuantity":100,"maxAllowedQuantity":100,"breadcrumbs":[{"code":"13","name":"Detergenți & igienizare","slug":"13-detergent-si-igienizare"},{"code":"1301","name":"Spălare și întreținere rufe","slug":"1301-spalare-si-intretinere-rufe"},{"code":"130105","name":"Detergent lichid","slug":"130105-detergent-lichid"},{"code":"100093338","name":"Detergent lichid Touch of Lenor Color 60 spălări 3.3l","slug":"100093338-ariel-detergent-lichid-touch-of-lenor-color-60-spalari-3-3l"}],"activePromotion":{"code":"oferte-dph-21feb-8mar23","name":"Preț redus","targetQuantity":null},"saveMe":null,"labels":[{"type":"v1","items":[{"text":"-14%","backgroundColor":"#FF9903","textColor":"#FFFFFF"}]}],"geniusPrice":null,"geniusUnitPricePerLabel":null,"banner":{"text":"Super preț","textColor":"#FF0000","bgColor":"#FFF2EC","icon":null,"link":"https://www.freshful.ro/oferte/oferte-dph-21feb-8mar23","type":"promo","analyticsEventType":"select_promotion","analyticsEventPayload":{"promotion_id":"oferte-dph-21feb-8mar23","promotion_name":"Curățenie și îngrijire personală"}},"discountLabel":"Economisești 14%","geniusDiscountLabel":null,"badge":null},{"code":"100093102","variantCode":"8058664122325","name":"Detergent lichid hipoalergenic pentru haine 0 luni+ 27 spălări, 1.5l","slug":"100093102-chicco-detergent-lichid-hipoalergenic-pentru-haine-0-luni-27-spalari-1-5l","unitPriceLabel":"21,99 Lei/l","brand":"Chicco","brandCode":"658","brandFilterCode":"chicco-b659","sku":"100093102","price":32.99,"originalPrice":38.5,"currencyCode":"RON","currency":"Lei","image":{"thumbnail":{"default":"https://cdn.freshful.ro/media/cache/sylius_shop_product_thumbnail/55/5b/06fa96086085a6f66d8302a1a412.jpg"},"large":{"default":"https://cdn.freshful.ro/media/cache/freshful_large/55/5b/06fa96086085a6f66d8302a1a412.jpg"},"extralarge":{"default":"https://cdn.freshful.ro/media/cache/sylius_shop_product_original/55/5b/06fa96086085a6f66d8302a1a412.jpg"}},"label":{"text":"-14%","backgroundColor":"#FF9903","textColor":"#FFFFFF"},"tags":[],"isAvailable":true,"maxAvailableQuantity":72,"maxAllowedQuantity":100,"breadcrumbs":[{"code":"13","name":"Detergenți & igienizare","slug":"13-detergent-si-igienizare"},{"code":"1301","name":"Spălare și întreținere rufe","slug":"1301-spalare-si-intretinere-rufe"},{"code":"130105","name":"Detergent lichid","slug":"130105-detergent-lichid"},{"code":"100093102","name":"Detergent lichid hipoalergenic pentru haine 0 luni+ 27 spălări, 1.5l","slug":"100093102-chicco-detergent-lichid-hipoalergenic-pentru-haine-0-luni-27-spalari-1-5l"}],"activePromotion":{"code":"oferte-dph-21feb-8mar23","name":"Preț redus","targetQuantity":null},"saveMe":null,"labels":[{"type":"v1","items":[{"text":"-14%","backgroundColor":"#FF9903","textColor":"#FFFFFF"}]}],"geniusPrice":null,"geniusUnitPricePerLabel":null,"banner":{"text":"Super preț","textColor":"#FF0000","bgColor":"#FFF2EC","icon":null,"link":"https://www.freshful.ro/oferte/oferte-dph-21feb-8mar23","type":"promo","analyticsEventType":"select_promotion","analyticsEventPayload":{"promotion_id":"oferte-dph-21feb-8mar23","promotion_name":"Curățenie și îngrijire personală"}},"discountLabel":"Economisești 14%","geniusDiscountLabel":null,"badge":null},{"code":"100031412","variantCode":"9000101322767","name":"Detergent lichid Active Gel Deep Clean+ 60 spălări 3l","slug":"100031412-persil-detergent-lichid-active-gel-deep-clean-60-spalari-3l","unitPriceLabel":"24,14 Lei/l","brand":"Persil","brandCode":"422","brandFilterCode":"persil-b423","sku":"100031412","price":72.41,"originalPrice":null,"currencyCode":"RON","currency":"Lei","image":{"thumbnail":{"default":"https://cdn.freshful.ro/media/cache/sylius_shop_product_thumbnail/b6/e0/c6dfef23fa165d98c314d7341401.jpg"},"large":{"default":"https://cdn.freshful.ro/media/cache/freshful_large/b6/e0/c6dfef23fa165d98c314d7341401.jpg"},"extralarge":{"default":"https://cdn.freshful.ro/media/cache/sylius_shop_product_original/b6/e0/c6dfef23fa165d98c314d7341401.jpg"}},"label":{"text":"Profită acum","backgroundColor":"#FF9903","textColor":"#FFFFFF"},"tags":[],"isAvailable":true,"maxAvailableQuantity":22,"maxAllowedQuantity":100,"breadcrumbs":[{"code":"13","name":"Detergenți & igienizare","slug":"13-detergent-si-igienizare"},{"code":"1301","name":"Spălare și întreținere rufe","slug":"1301-spalare-si-intretinere-rufe"},{"code":"130105","name":"Detergent lichid","slug":"130105-detergent-lichid"},{"code":"100031412","name":"Detergent lichid Active Gel Deep Clean+ 60 spălări 3l","slug":"100031412-persil-detergent-lichid-active-gel-deep-clean-60-spalari-3l"}],"activePromotion":{"code":"freshful-top-deals-2023","name":"Preț avantajos","targetQuantity":null},"saveMe":null,"labels":[{"type":"v1","items":[{"text":"Profită acum","backgroundColor":"#FF9903","textColor":"#FFFFFF"}]}],"geniusPrice":null,"geniusUnitPricePerLabel":null,"banner":{"text":"Preț avantajos","textColor":"#F95510","bgColor":"#FEF1CD","icon":null,"link":"https://www.freshful.ro/oferte/freshful-top-deals-2023","type":"promo","analyticsEventType":"select_promotion","analyticsEventPayload":{"promotion_id":"freshful-top-deals-2023","promotion_name":"Profită de Top Deals"}},"discountLabel":null,"geniusDiscountLabel":null,"badge":null},{"code":"100031419","variantCode":"9000101315738","name":"Detergent lichid Color Active Gel Lavender Deep Clean 40 spălări 2l","slug":"100031419-persil-detergent-lichid-color-active-gel-lavender-deep-clean-40-spalari-2l","unitPriceLabel":"22,45 Lei/l","brand":"Persil","brandCode":"422","brandFilterCode":"persil-b423","sku":"100031419","price":44.89,"originalPrice":null,"currencyCode":"RON","currency":"Lei","image":{"thumbnail":{"default":"https://cdn.freshful.ro/media/cache/sylius_shop_product_thumbnail/c1/4f/8baa625e928602e7a3fedfee4c8a.jpg"},"large":{"default":"https://cdn.freshful.ro/media/cache/freshful_large/c1/4f/8baa625e928602e7a3fedfee4c8a.jpg"},"extralarge":{"default":"https://cdn.freshful.ro/media/cache/sylius_shop_product_original/c1/4f/8baa625e928602e7a3fedfee4c8a.jpg"}},"label":{"text":"Profită acum","backgroundColor":"#FF9903","textColor":"#FFFFFF"},"tags":[],"isAvailable":true,"maxAvailableQuantity":5,"maxAllowedQuantity":100,"breadcrumbs":[{"code":"13","name":"Detergenți & igienizare","slug":"13-detergent-si-igienizare"},{"code":"1301","name":"Spălare și întreținere rufe","slug":"1301-spalare-si-intretinere-rufe"},{"code":"130105","name":"Detergent lichid","slug":"130105-detergent-lichid"},{"code":"100031419","name":"Detergent lichid Color Active Gel Lavender Deep Clean 40 spălări 2l","slug":"100031419-persil-detergent-lichid-color-active-gel-lavender-deep-clean-40-spalari-2l"}],"activePromotion":{"code":"oferte-dph-21feb-8mar23","name":"Preț avantajos","targetQuantity":null},"saveMe":null,"labels":[{"type":"v1","items":[{"text":"Profită acum","backgroundColor":"#FF9903","textColor":"#FFFFFF"}]}],"geniusPrice":null,"geniusUnitPricePerLabel":null,"banner":{"text":"Preț avantajos","textColor":"#F95510","bgColor":"#FEF1CD","icon":null,"link":"https://www.freshful.ro/oferte/oferte-dph-21feb-8mar23","type":"promo","analyticsEventType":"select_promotion","analyticsEventPayload":{"promotion_id":"oferte-dph-21feb-8mar23","promotion_name":"Curățenie și îngrijire personală"}},"discountLabel":null,"geniusDiscountLabel":null,"badge":null},{"code":"100061952","variantCode":"100061952","name":"Detergent lichid 2în1 Gel levănțică și iasomie 40 spălări 2l","slug":"100061952-dero-detergent-lichid-2in1-gel-levantica-si-iasomie-40-spalari-2l","unitPriceLabel":"22,45 Lei/l","brand":"Dero","brandCode":"758","brandFilterCode":"dero-b759","sku":"100061952","price":44.9,"originalPrice":null,"currencyCode":"RON","currency":"Lei","image":{"thumbnail":{"default":"https://cdn.freshful.ro/media/cache/sylius_shop_product_thumbnail/d0/51/1497b9febcd25b3bb5f17d2b9dc1.jpg"},"large":{"default":"https://cdn.freshful.ro/media/cache/freshful_large/d0/51/1497b9febcd25b3bb5f17d2b9dc1.jpg"},"extralarge":{"default":"https://cdn.freshful.ro/media/cache/sylius_shop_product_original/d0/51/1497b9febcd25b3bb5f17d2b9dc1.jpg"}},"label":{"text":"Profită acum","backgroundColor":"#FF9903","textColor":"#FFFFFF"},"tags":[],"isAvailable":true,"maxAvailableQuantity":19,"maxAllowedQuantity":100,"breadcrumbs":[{"code":"13","name":"Detergenți & igienizare","slug":"13-detergent-si-igienizare"},{"code":"1301","name":"Spălare și întreținere rufe","slug":"1301-spalare-si-intretinere-rufe"},{"code":"130105","name":"Detergent lichid","slug":"130105-detergent-lichid"},{"code":"100061952","name":"Detergent lichid 2în1 Gel levănțică și iasomie 40 spălări 2l","slug":"100061952-dero-detergent-lichid-2in1-gel-levantica-si-iasomie-40-spalari-2l"}],"activePromotion":{"code":"freshful-top-deals-2023","name":"Preț avantajos","targetQuantity":null},"saveMe":null,"labels":[{"type":"v1","items":[{"text":"Profită acum","backgroundColor":"#FF9903","textColor":"#FFFFFF"}]}],"geniusPrice":null,"geniusUnitPricePerLabel":null,"banner":{"text":"Preț avantajos","textColor":"#F95510","bgColor":"#FEF1CD","icon":null,"link":"https://www.freshful.ro/oferte/freshful-top-deals-2023","type":"promo","analyticsEventType":"select_promotion","analyticsEventPayload":{"promotion_id":"freshful-top-deals-2023","promotion_name":"Profită de Top Deals"}},"discountLabel":null,"geniusDiscountLabel":null,"badge":null},{"code":"100061953","variantCode":"100061953","name":"Detergent lichid 2în1 Gel iris alb 40 spălări 2l ","slug":"100061953-dero-detergent-lichid-2in1-gel-iris-alb-40-spalari-2l","unitPriceLabel":"21,33 Lei/l","brand":"Dero","brandCode":"758","brandFilterCode":"dero-b759","sku":"100061953","price":42.66,"originalPrice":null,"currencyCode":"RON","currency":"Lei","image":{"thumbnail":{"default":"https://cdn.freshful.ro/media/cache/sylius_shop_product_thumbnail/ba/f7/5e53db6d49fc1ba23ffda4fe2824.jpg"},"large":{"default":"https://cdn.freshful.ro/media/cache/freshful_large/ba/f7/5e53db6d49fc1ba23ffda4fe2824.jpg"},"extralarge":{"default":"https://cdn.freshful.ro/media/cache/sylius_shop_product_original/ba/f7/5e53db6d49fc1ba23ffda4fe2824.jpg"}},"label":{"text":"Profită acum","backgroundColor":"#FF9903","textColor":"#FFFFFF"},"tags":[],"isAvailable":true,"maxAvailableQuantity":12,"maxAllowedQuantity":100,"breadcrumbs":[{"code":"13","name":"Detergenți & igienizare","slug":"13-detergent-si-igienizare"},{"code":"1301","name":"Spălare și întreținere rufe","slug":"1301-spalare-si-intretinere-rufe"},{"code":"130105","name":"Detergent lichid","slug":"130105-detergent-lichid"},{"code":"100061953","name":"Detergent lichid 2în1 Gel iris alb 40 spălări 2l ","slug":"100061953-dero-detergent-lichid-2in1-gel-iris-alb-40-spalari-2l"}],"activePromotion":{"code":"freshful-top-deals-2023","name":"Preț avantajos","targetQuantity":null},"saveMe":null,"labels":[{"type":"v1","items":[{"text":"Profită acum","backgroundColor":"#FF9903","textColor":"#FFFFFF"}]}],"geniusPrice":null,"geniusUnitPricePerLabel":null,"banner":{"text":"Preț avantajos","textColor":"#F95510","bgColor":"#FEF1CD","icon":null,"link":"https://www.freshful.ro/oferte/freshful-top-deals-2023","type":"promo","analyticsEventType":"select_promotion","analyticsEventPayload":{"promotion_id":"freshful-top-deals-2023","promotion_name":"Profită de Top Deals"}},"discountLabel":null,"geniusDiscountLabel":null,"badge":null},{"code":"100093336","variantCode":"100093336","name":"Detergent lichid Mountain spring 60 spălări 3.3l","slug":"100093336-ariel-detergent-lichid-mountain-spring-60-spalari-3-3l","unitPriceLabel":"27,88 Lei/l","brand":"Ariel","brandCode":"672","brandFilterCode":"ariel-b673","sku":"100093336","price":91.99,"originalPrice":null,"currencyCode":"RON","currency":"Lei","image":{"thumbnail":{"default":"https://cdn.freshful.ro/media/cache/sylius_shop_product_thumbnail/e5/9d/ae752999d0b1d705d6e3ccd752cc.jpg"},"large":{"default":"https://cdn.freshful.ro/media/cache/freshful_large/e5/9d/ae752999d0b1d705d6e3ccd752cc.jpg"},"extralarge":{"default":"https://cdn.freshful.ro/media/cache/sylius_shop_product_original/e5/9d/ae752999d0b1d705d6e3ccd752cc.jpg"}},"label":null,"tags":[],"isAvailable":true,"maxAvailableQuantity":100,"maxAllowedQuantity":100,"breadcrumbs":[{"code":"13","name":"Detergenți & igienizare","slug":"13-detergent-si-igienizare"},{"code":"1301","name":"Spălare și întreținere rufe","slug":"1301-spalare-si-intretinere-rufe"},{"code":"130105","name":"Detergent lichid","slug":"130105-detergent-lichid"},{"code":"100093336","name":"Detergent lichid Mountain spring 60 spălări 3.3l","slug":"100093336-ariel-detergent-lichid-mountain-spring-60-spalari-3-3l"}],"activePromotion":null,"saveMe":null,"labels":[],"geniusPrice":null,"geniusUnitPricePerLabel":null,"banner":null,"discountLabel":null,"geniusDiscountLabel":null,"badge":null},{"code":"100140937","variantCode":"100140937","name":"Detergent lichid pentru haine negre Renew Black, 16 spălări, 960ml","slug":"100140937-perwoll-detergent-lichid-pentru-haine-negre-renew-black-16-spalari-960ml","unitPriceLabel":"27,6 Lei/l","brand":"Perwoll","brandCode":"423","brandFilterCode":"perwoll-b424","sku":"100140937","price":26.5,"originalPrice":null,"currencyCode":"RON","currency":"Lei","image":{"thumbnail":{"default":"https://cdn.freshful.ro/media/cache/sylius_shop_product_thumbnail/81/65/836ebcc47203808b2a4c539a7327.jpg"},"large":{"default":"https://cdn.freshful.ro/media/cache/freshful_large/81/65/836ebcc47203808b2a4c539a7327.jpg"},"extralarge":{"default":"https://cdn.freshful.ro/media/cache/sylius_shop_product_original/81/65/836ebcc47203808b2a4c539a7327.jpg"}},"label":null,"tags":[],"isAvailable":true,"maxAvailableQuantity":100,"maxAllowedQuantity":100,"breadcrumbs":[{"code":"13","name":"Detergenți & igienizare","slug":"13-detergent-si-igienizare"},{"code":"1301","name":"Spălare și întreținere rufe","slug":"1301-spalare-si-intretinere-rufe"},{"code":"130105","name":"Detergent lichid","slug":"130105-detergent-lichid"},{"code":"100140937","name":"Detergent lichid pentru haine negre Renew Black, 16 spălări, 960ml","slug":"100140937-perwoll-detergent-lichid-pentru-haine-negre-renew-black-16-spalari-960ml"}],"activePromotion":null,"saveMe":null,"labels":[],"geniusPrice":null,"geniusUnitPricePerLabel":null,"banner":null,"discountLabel":null,"geniusDiscountLabel":null,"badge":null},{"code":"100092137","variantCode":"100092137","name":"Detergent lichid pentru hainele bebelușilor 40 spălări 2.2l","slug":"100092137-ariel-detergent-lichid-pentru-hainele-bebelusilor-40-spalari-2-2l","unitPriceLabel":"28,59 Lei/l","brand":"Ariel","brandCode":"672","brandFilterCode":"ariel-b673","sku":"100092137","price":62.9,"originalPrice":null,"currencyCode":"RON","currency":"Lei","image":{"thumbnail":{"default":"https://cdn.freshful.ro/media/cache/sylius_shop_product_thumbnail/3d/75/e27969cebd9a64a3c52f0b837727.jpg"},"large":{"default":"https://cdn.freshful.ro/media/cache/freshful_large/3d/75/e27969cebd9a64a3c52f0b837727.jpg"},"extralarge":{"default":"https://cdn.freshful.ro/media/cache/sylius_shop_product_original/3d/75/e27969cebd9a64a3c52f0b837727.jpg"}},"label":null,"tags":[],"isAvailable":true,"maxAvailableQuantity":100,"maxAllowedQuantity":100,"breadcrumbs":[{"code":"13","name":"Detergenți & igienizare","slug":"13-detergent-si-igienizare"},{"code":"1301","name":"Spălare și întreținere rufe","slug":"1301-spalare-si-intretinere-rufe"},{"code":"130105","name":"Detergent lichid","slug":"130105-detergent-lichid"},{"code":"100092137","name":"Detergent lichid pentru hainele bebelușilor 40 spălări 2.2l","slug":"100092137-ariel-detergent-lichid-pentru-hainele-bebelusilor-40-spalari-2-2l"}],"activePromotion":null,"saveMe":null,"labels":[],"geniusPrice":null,"geniusUnitPricePerLabel":null,"banner":null,"discountLabel":null,"geniusDiscountLabel":null,"badge":null}],"filters":{"countSelected":0,"items":[{"code":"promotion","name":"Promoții","countSelected":0,"values":[{"code":"oferte-dph-21feb-8mar23","name":"Curățenie și îngrijire personală","isSelected":false,"count":3},{"code":"freshful-top-deals-2023","name":"Profită de Top Deals","isSelected":false,"count":5}]},{"code":"brand","name":"Brand","countSelected":0,"values":[{"code":"ariel-b673","name":"Ariel","isSelected":false,"count":16},{"code":"burti-b364","name":"Burti","isSelected":false,"count":6},{"code":"chicco-b659","name":"Chicco","isSelected":false,"count":2},{"code":"coccolino-b758","name":"Coccolino","isSelected":false,"count":3},{"code":"dero-b759","name":"Dero","isSelected":false,"count":11},{"code":"frosch-b316","name":"Frosch","isSelected":false,"count":4},{"code":"heitmann-b358","name":"Heitmann","isSelected":false,"count":3},{"code":"lovela-b623","name":"Lovela","isSelected":false,"count":4},{"code":"magic-leaves-b357","name":"Magic Leaves","isSelected":false,"count":1},{"code":"omo-b760","name":"Omo","isSelected":false,"count":4},{"code":"persil-b423","name":"Persil","isSelected":false,"count":15},{"code":"perwoll-b424","name":"Perwoll","isSelected":false,"count":6},{"code":"planet-pure-b1682","name":"Planet Pure","isSelected":false,"count":1},{"code":"sano-b580","name":"Sano","isSelected":false,"count":6},{"code":"savex-b388","name":"Savex","isSelected":false,"count":7},{"code":"sonett-b1681","name":"Sonett","isSelected":false,"count":4},{"code":"teo-bebe-b918","name":"Teo Bebe","isSelected":false,"count":2}]},{"code":"diet_lifestyle","name":"Dietă și lifestyle","countSelected":0,"values":[{"code":"bio-a26","name":"Bio","isSelected":false,"count":6},{"code":"vegan-a24","name":"Vegan","isSelected":false,"count":7}]}]},"orderBy":[{"field":"price","direction":"asc","name":"Preț crescător","isSelected":false},{"field":"price","direction":"desc","name":"Preț descrescător","isSelected":false},{"field":"popularity","direction":"desc","name":"Cele mai populare","isSelected":true},{"field":"category","direction":"asc","name":"Categorie","isSelected":false}],"metaTitle":"Detergent lichid - Gamă variată","metaDescription":"Vrei Detergent lichid? Alege dintr-o gamă variată. Comanzi simplu și ai livrare rapidă, calitate și prospețime. Hai pe Freshful.ro","metaKeywords":null,"banners":[]}}