{"type":"subcategory","payload":{"analyticsListId":"category_130102-inalbitor-si-soluti-pete","analyticsListName":"Category - Înălbitor și soluții pentru pete","name":"Înălbitor și soluții pentru pete","slug":"130102-inalbitor-si-soluti-pete","image":null,"breadcrumbs":[{"code":"13","name":"Detergenți & igienizare","slug":"13-detergent-si-igienizare"},{"code":"1301","name":"Spălare și întreținere rufe","slug":"1301-spalare-si-intretinere-rufe"},{"code":"130102","name":"Înălbitor și soluții pentru pete","slug":"130102-inalbitor-si-soluti-pete"}],"slots":[],"page":1,"limit":10,"pages":10,"count":91,"siblings":[{"name":"Spălare și întreținere rufe","slug":"1301-spalare-si-intretinere-rufe","selected":true},{"name":"Curățenie și întreținerea casei","slug":"1302-igienizarea-casei","selected":false},{"name":"Hârtie igienică, șervețele și prosoape","slug":"1303-hartie-igienica-si-servetele","selected":false}],"children":[{"name":"Toate produsele","slug":"1301-spalare-si-intretinere-rufe","selected":false},{"name":"Balsam de rufe","slug":"130101-balsam-rufe","selected":false},{"name":"Înălbitor și soluții pentru pete","slug":"130102-inalbitor-si-soluti-pete","selected":true},{"name":"Anticalcar","slug":"130103-anticalcar","selected":false},{"name":"Detergent pudră","slug":"130104-detergenti-pudra","selected":false},{"name":"Detergent lichid","slug":"130105-detergent-lichid","selected":false},{"name":"Detergent capsule","slug":"130106-detergent-capsule","selected":false},{"name":"Accesorii pentru rufe","slug":"accesorii-pentru-rufe","selected":false}],"products":[{"code":"100120158","variantCode":"100120158","name":"Soluție spray pentru îndepărat pete țesături 500ml ","slug":"100120158-nufar-solutie-spray-pentru-indeparat-pete-tesaturi-500ml","unitPriceLabel":"18,1 Lei/l","brand":"Nufăr","brandCode":"1831","brandFilterCode":"nufar-b1835","sku":"100120158","price":9.05,"originalPrice":null,"currencyCode":"RON","currency":"Lei","image":{"thumbnail":{"default":"https://cdn.freshful.ro/media/cache/sylius_shop_product_thumbnail/42/73/91159885f7cd43655071688f18b6.jpg"},"large":{"default":"https://cdn.freshful.ro/media/cache/freshful_large/42/73/91159885f7cd43655071688f18b6.jpg"},"extralarge":{"default":"https://cdn.freshful.ro/media/cache/sylius_shop_product_original/42/73/91159885f7cd43655071688f18b6.jpg"}},"label":null,"tags":[],"isAvailable":true,"maxAvailableQuantity":100,"maxAllowedQuantity":100,"breadcrumbs":[{"code":"13","name":"Detergenți & igienizare","slug":"13-detergent-si-igienizare"},{"code":"1301","name":"Spălare și întreținere rufe","slug":"1301-spalare-si-intretinere-rufe"},{"code":"130102","name":"Înălbitor și soluții pentru pete","slug":"130102-inalbitor-si-soluti-pete"},{"code":"100120158","name":"Soluție spray pentru îndepărat pete țesături 500ml ","slug":"100120158-nufar-solutie-spray-pentru-indeparat-pete-tesaturi-500ml"}],"activePromotion":null,"saveMe":null,"labels":[],"geniusPrice":null,"geniusUnitPricePerLabel":null,"banner":null,"discountLabel":null,"geniusDiscountLabel":null,"badge":null},{"code":"100059006","variantCode":"100059006","name":"Soluție pentru îndepărtarea petelor pentru haine colorate OxiAction 1l","slug":"100059006-vanish-solutie-pentru-indepartarea-petelor-pentru-haine-colorate-oxiaction-1l","unitPriceLabel":"15,9 Lei/l","brand":"Vanish","brandCode":"621","brandFilterCode":"vanish-b622","sku":"100059006","price":15.9,"originalPrice":null,"currencyCode":"RON","currency":"Lei","image":{"thumbnail":{"default":"https://cdn.freshful.ro/media/cache/sylius_shop_product_thumbnail/05/db/293c9ef25fbedd0c3e8c627019e8.jpg"},"large":{"default":"https://cdn.freshful.ro/media/cache/freshful_large/05/db/293c9ef25fbedd0c3e8c627019e8.jpg"},"extralarge":{"default":"https://cdn.freshful.ro/media/cache/sylius_shop_product_original/05/db/293c9ef25fbedd0c3e8c627019e8.jpg"}},"label":null,"tags":[],"isAvailable":true,"maxAvailableQuantity":100,"maxAllowedQuantity":100,"breadcrumbs":[{"code":"13","name":"Detergenți & igienizare","slug":"13-detergent-si-igienizare"},{"code":"1301","name":"Spălare și întreținere rufe","slug":"1301-spalare-si-intretinere-rufe"},{"code":"130102","name":"Înălbitor și soluții pentru pete","slug":"130102-inalbitor-si-soluti-pete"},{"code":"100059006","name":"Soluție pentru îndepărtarea petelor pentru haine colorate OxiAction 1l","slug":"100059006-vanish-solutie-pentru-indepartarea-petelor-pentru-haine-colorate-oxiaction-1l"}],"activePromotion":null,"saveMe":null,"labels":[],"geniusPrice":null,"geniusUnitPricePerLabel":null,"banner":null,"discountLabel":null,"geniusDiscountLabel":null,"badge":null},{"code":"100074069","variantCode":"100074069","name":"Dezinfectant pentru haine albe și colorate Pure Care 1.5l","slug":"100074069-igienol-dezinfectant-pentru-haine-albe-si-colorate-pure-care-1-5l","unitPriceLabel":"15,67 Lei/l","brand":"Igienol","brandCode":"427","brandFilterCode":"igienol-b428","sku":"100074069","price":23.5,"originalPrice":null,"currencyCode":"RON","currency":"Lei","image":{"thumbnail":{"default":"https://cdn.freshful.ro/media/cache/sylius_shop_product_thumbnail/ed/cc/4b663eefa3af5be12c3197fd7ca4.jpg"},"large":{"default":"https://cdn.freshful.ro/media/cache/freshful_large/ed/cc/4b663eefa3af5be12c3197fd7ca4.jpg"},"extralarge":{"default":"https://cdn.freshful.ro/media/cache/sylius_shop_product_original/ed/cc/4b663eefa3af5be12c3197fd7ca4.jpg"}},"label":null,"tags":[],"isAvailable":true,"maxAvailableQuantity":100,"maxAllowedQuantity":100,"breadcrumbs":[{"code":"13","name":"Detergenți & igienizare","slug":"13-detergent-si-igienizare"},{"code":"1301","name":"Spălare și întreținere rufe","slug":"1301-spalare-si-intretinere-rufe"},{"code":"130102","name":"Înălbitor și soluții pentru pete","slug":"130102-inalbitor-si-soluti-pete"},{"code":"100074069","name":"Dezinfectant pentru haine albe și colorate Pure Care 1.5l","slug":"100074069-igienol-dezinfectant-pentru-haine-albe-si-colorate-pure-care-1-5l"}],"activePromotion":null,"saveMe":null,"labels":[],"geniusPrice":null,"geniusUnitPricePerLabel":null,"banner":null,"discountLabel":null,"geniusDiscountLabel":null,"badge":null},{"code":"100074053","variantCode":"100074053","name":"Dezinfectant lichid pentru haine albe și colorate Fresh Linen 1.5l","slug":"100074053-igienol-dezinfectant-lichid-pentru-haine-albe-si-colorate-fresh-linen-1-5l","unitPriceLabel":"15,67 Lei/l","brand":"Igienol","brandCode":"427","brandFilterCode":"igienol-b428","sku":"100074053","price":23.5,"originalPrice":null,"currencyCode":"RON","currency":"Lei","image":{"thumbnail":{"default":"https://cdn.freshful.ro/media/cache/sylius_shop_product_thumbnail/4c/b9/94152f1605631452a5b3d85dee19.jpg"},"large":{"default":"https://cdn.freshful.ro/media/cache/freshful_large/4c/b9/94152f1605631452a5b3d85dee19.jpg"},"extralarge":{"default":"https://cdn.freshful.ro/media/cache/sylius_shop_product_original/4c/b9/94152f1605631452a5b3d85dee19.jpg"}},"label":null,"tags":[],"isAvailable":true,"maxAvailableQuantity":100,"maxAllowedQuantity":100,"breadcrumbs":[{"code":"13","name":"Detergenți & igienizare","slug":"13-detergent-si-igienizare"},{"code":"1301","name":"Spălare și întreținere rufe","slug":"1301-spalare-si-intretinere-rufe"},{"code":"130102","name":"Înălbitor și soluții pentru pete","slug":"130102-inalbitor-si-soluti-pete"},{"code":"100074053","name":"Dezinfectant lichid pentru haine albe și colorate Fresh Linen 1.5l","slug":"100074053-igienol-dezinfectant-lichid-pentru-haine-albe-si-colorate-fresh-linen-1-5l"}],"activePromotion":null,"saveMe":null,"labels":[],"geniusPrice":null,"geniusUnitPricePerLabel":null,"banner":null,"discountLabel":null,"geniusDiscountLabel":null,"badge":null},{"code":"100047435","variantCode":"3045206360609","name":"Dezinfectant pentru haine fără clor 1l","slug":"100047435-sanytol-dezinfectant-pentru-haine-fara-clor-1l","unitPriceLabel":"25,49 Lei/l","brand":"Sanytol","brandCode":"300","brandFilterCode":"sanytol-b301","sku":"100047435","price":25.49,"originalPrice":null,"currencyCode":"RON","currency":"Lei","image":{"thumbnail":{"default":"https://cdn.freshful.ro/media/cache/sylius_shop_product_thumbnail/6e/b3/58262d40cc2996b828959f63d30c.jpg"},"large":{"default":"https://cdn.freshful.ro/media/cache/freshful_large/6e/b3/58262d40cc2996b828959f63d30c.jpg"},"extralarge":{"default":"https://cdn.freshful.ro/media/cache/sylius_shop_product_original/6e/b3/58262d40cc2996b828959f63d30c.jpg"}},"label":null,"tags":[],"isAvailable":true,"maxAvailableQuantity":100,"maxAllowedQuantity":100,"breadcrumbs":[{"code":"13","name":"Detergenți & igienizare","slug":"13-detergent-si-igienizare"},{"code":"1301","name":"Spălare și întreținere rufe","slug":"1301-spalare-si-intretinere-rufe"},{"code":"130102","name":"Înălbitor și soluții pentru pete","slug":"130102-inalbitor-si-soluti-pete"},{"code":"100047435","name":"Dezinfectant pentru haine fără clor 1l","slug":"100047435-sanytol-dezinfectant-pentru-haine-fara-clor-1l"}],"activePromotion":null,"saveMe":null,"labels":[],"geniusPrice":null,"geniusUnitPricePerLabel":null,"banner":null,"discountLabel":null,"geniusDiscountLabel":null,"badge":null},{"code":"100098153","variantCode":"100098153","name":"Clor înălbitor lichid 2l","slug":"100098153-rivex-clor-inalbitor-lichid-2l","unitPriceLabel":"5 Lei/l","brand":"Rivex","brandCode":"1186","brandFilterCode":"rivex-b1187","sku":"100098153","price":9.99,"originalPrice":null,"currencyCode":"RON","currency":"Lei","image":{"thumbnail":{"default":"https://cdn.freshful.ro/media/cache/sylius_shop_product_thumbnail/dc/14/e7756ae595f6c3c6d1acc00db1e2.jpg"},"large":{"default":"https://cdn.freshful.ro/media/cache/freshful_large/dc/14/e7756ae595f6c3c6d1acc00db1e2.jpg"},"extralarge":{"default":"https://cdn.freshful.ro/media/cache/sylius_shop_product_original/dc/14/e7756ae595f6c3c6d1acc00db1e2.jpg"}},"label":null,"tags":[],"isAvailable":true,"maxAvailableQuantity":100,"maxAllowedQuantity":100,"breadcrumbs":[{"code":"13","name":"Detergenți & igienizare","slug":"13-detergent-si-igienizare"},{"code":"1301","name":"Spălare și întreținere rufe","slug":"1301-spalare-si-intretinere-rufe"},{"code":"130102","name":"Înălbitor și soluții pentru pete","slug":"130102-inalbitor-si-soluti-pete"},{"code":"100098153","name":"Clor înălbitor lichid 2l","slug":"100098153-rivex-clor-inalbitor-lichid-2l"}],"activePromotion":null,"saveMe":null,"labels":[],"geniusPrice":null,"geniusUnitPricePerLabel":null,"banner":null,"discountLabel":null,"geniusDiscountLabel":null,"badge":null},{"code":"100031454","variantCode":"9000101303025","name":"Șervețele anti-transfer culoare Complete Action+ 40 buc","slug":"100031454-k2r-servetele-anti-transfer-culoare-complete-action-40-buc","unitPriceLabel":"","brand":"K2r","brandCode":"425","brandFilterCode":"k2r-b426","sku":"100031454","price":33.99,"originalPrice":null,"currencyCode":"RON","currency":"Lei","image":{"thumbnail":{"default":"https://cdn.freshful.ro/media/cache/sylius_shop_product_thumbnail/80/7d/0d93185e467761a0f40bd8ec371e.jpg"},"large":{"default":"https://cdn.freshful.ro/media/cache/freshful_large/80/7d/0d93185e467761a0f40bd8ec371e.jpg"},"extralarge":{"default":"https://cdn.freshful.ro/media/cache/sylius_shop_product_original/80/7d/0d93185e467761a0f40bd8ec371e.jpg"}},"label":null,"tags":[],"isAvailable":true,"maxAvailableQuantity":93,"maxAllowedQuantity":100,"breadcrumbs":[{"code":"13","name":"Detergenți & igienizare","slug":"13-detergent-si-igienizare"},{"code":"1301","name":"Spălare și întreținere rufe","slug":"1301-spalare-si-intretinere-rufe"},{"code":"130102","name":"Înălbitor și soluții pentru pete","slug":"130102-inalbitor-si-soluti-pete"},{"code":"100031454","name":"Șervețele anti-transfer culoare Complete Action+ 40 buc","slug":"100031454-k2r-servetele-anti-transfer-culoare-complete-action-40-buc"}],"activePromotion":null,"saveMe":null,"labels":[],"geniusPrice":null,"geniusUnitPricePerLabel":null,"banner":null,"discountLabel":null,"geniusDiscountLabel":null,"badge":null},{"code":"100059018","variantCode":"100059018","name":"Pudră pentru îndepărtarea petelor pentru haine colorate Oxi Action 846g","slug":"100059018-vanish-pudra-pentru-indepartarea-petelor-pentru-haine-colorate-oxi-action-846g","unitPriceLabel":"43,62 Lei/kg","brand":"Vanish","brandCode":"621","brandFilterCode":"vanish-b622","sku":"100059018","price":36.9,"originalPrice":null,"currencyCode":"RON","currency":"Lei","image":{"thumbnail":{"default":"https://cdn.freshful.ro/media/cache/sylius_shop_product_thumbnail/80/f4/5946bb5849efcd7bbeb8684feedf.jpg"},"large":{"default":"https://cdn.freshful.ro/media/cache/freshful_large/80/f4/5946bb5849efcd7bbeb8684feedf.jpg"},"extralarge":{"default":"https://cdn.freshful.ro/media/cache/sylius_shop_product_original/80/f4/5946bb5849efcd7bbeb8684feedf.jpg"}},"label":null,"tags":[],"isAvailable":true,"maxAvailableQuantity":100,"maxAllowedQuantity":100,"breadcrumbs":[{"code":"13","name":"Detergenți & igienizare","slug":"13-detergent-si-igienizare"},{"code":"1301","name":"Spălare și întreținere rufe","slug":"1301-spalare-si-intretinere-rufe"},{"code":"130102","name":"Înălbitor și soluții pentru pete","slug":"130102-inalbitor-si-soluti-pete"},{"code":"100059018","name":"Pudră pentru îndepărtarea petelor pentru haine colorate Oxi Action 846g","slug":"100059018-vanish-pudra-pentru-indepartarea-petelor-pentru-haine-colorate-oxi-action-846g"}],"activePromotion":null,"saveMe":null,"labels":[],"geniusPrice":null,"geniusUnitPricePerLabel":null,"banner":null,"discountLabel":null,"geniusDiscountLabel":null,"badge":null},{"code":"100059022","variantCode":"100059022","name":"Spray pentru îndepărtarea petelor pentru haine colorate Oxi Action 500ml","slug":"100059022-vanish-spray-pentru-indepartarea-petelor-pentru-haine-colorate-oxi-action-500ml","unitPriceLabel":"33,8 Lei/l","brand":"Vanish","brandCode":"621","brandFilterCode":"vanish-b622","sku":"100059022","price":16.9,"originalPrice":null,"currencyCode":"RON","currency":"Lei","image":{"thumbnail":{"default":"https://cdn.freshful.ro/media/cache/sylius_shop_product_thumbnail/4b/65/ea29953435d062346597c9079530.jpg"},"large":{"default":"https://cdn.freshful.ro/media/cache/freshful_large/4b/65/ea29953435d062346597c9079530.jpg"},"extralarge":{"default":"https://cdn.freshful.ro/media/cache/sylius_shop_product_original/4b/65/ea29953435d062346597c9079530.jpg"}},"label":null,"tags":[],"isAvailable":true,"maxAvailableQuantity":56,"maxAllowedQuantity":100,"breadcrumbs":[{"code":"13","name":"Detergenți & igienizare","slug":"13-detergent-si-igienizare"},{"code":"1301","name":"Spălare și întreținere rufe","slug":"1301-spalare-si-intretinere-rufe"},{"code":"130102","name":"Înălbitor și soluții pentru pete","slug":"130102-inalbitor-si-soluti-pete"},{"code":"100059022","name":"Spray pentru îndepărtarea petelor pentru haine colorate Oxi Action 500ml","slug":"100059022-vanish-spray-pentru-indepartarea-petelor-pentru-haine-colorate-oxi-action-500ml"}],"activePromotion":null,"saveMe":null,"labels":[],"geniusPrice":null,"geniusUnitPricePerLabel":null,"banner":null,"discountLabel":null,"geniusDiscountLabel":null,"badge":null},{"code":"100059014","variantCode":"100059014","name":"Șervețele captatoare de culoare, 40 buc.","slug":"100059014-vanish-servetele-captatoare-de-culoare-40-buc","unitPriceLabel":"","brand":"Vanish","brandCode":"621","brandFilterCode":"vanish-b622","sku":"100059014","price":21.5,"originalPrice":null,"currencyCode":"RON","currency":"Lei","image":{"thumbnail":{"default":"https://cdn.freshful.ro/media/cache/sylius_shop_product_thumbnail/bc/d8/9494b623c475110bbd0dcdffa334.jpg"},"large":{"default":"https://cdn.freshful.ro/media/cache/freshful_large/bc/d8/9494b623c475110bbd0dcdffa334.jpg"},"extralarge":{"default":"https://cdn.freshful.ro/media/cache/sylius_shop_product_original/bc/d8/9494b623c475110bbd0dcdffa334.jpg"}},"label":null,"tags":[],"isAvailable":true,"maxAvailableQuantity":83,"maxAllowedQuantity":100,"breadcrumbs":[{"code":"13","name":"Detergenți & igienizare","slug":"13-detergent-si-igienizare"},{"code":"1301","name":"Spălare și întreținere rufe","slug":"1301-spalare-si-intretinere-rufe"},{"code":"130102","name":"Înălbitor și soluții pentru pete","slug":"130102-inalbitor-si-soluti-pete"},{"code":"100059014","name":"Șervețele captatoare de culoare, 40 buc.","slug":"100059014-vanish-servetele-captatoare-de-culoare-40-buc"}],"activePromotion":null,"saveMe":null,"labels":[],"geniusPrice":null,"geniusUnitPricePerLabel":null,"banner":null,"discountLabel":null,"geniusDiscountLabel":null,"badge":null}],"filters":{"countSelected":0,"items":[{"code":"brand","name":"Brand","countSelected":0,"values":[{"code":"ace-b912","name":"Ace","isSelected":false,"count":10},{"code":"dr-beckmann-b1106","name":"Dr.Beckmann","isSelected":false,"count":17},{"code":"frosch-b316","name":"Frosch","isSelected":false,"count":4},{"code":"heitmann-b358","name":"Heitmann","isSelected":false,"count":12},{"code":"igienol-b428","name":"Igienol","isSelected":false,"count":2},{"code":"k2r-b426","name":"K2r","isSelected":false,"count":2},{"code":"nufar-b1835","name":"Nufăr","isSelected":false,"count":3},{"code":"oti-b1002","name":"Oti","isSelected":false,"count":1},{"code":"rivex-b1187","name":"Rivex","isSelected":false,"count":1},{"code":"sano-b580","name":"Sano","isSelected":false,"count":2},{"code":"sanytol-b301","name":"Sanytol","isSelected":false,"count":6},{"code":"simplicol-b359","name":"Simplicol","isSelected":false,"count":2},{"code":"snow-b1186","name":"Snow","isSelected":false,"count":8},{"code":"sonett-b1681","name":"Sonett","isSelected":false,"count":1},{"code":"spotex-b372","name":"Spotex","isSelected":false,"count":2},{"code":"vanish-b622","name":"Vanish","isSelected":false,"count":18}]},{"code":"diet_lifestyle","name":"Dietă și lifestyle","countSelected":0,"values":[{"code":"bio-a26","name":"Bio","isSelected":false,"count":2},{"code":"vegan-a24","name":"Vegan","isSelected":false,"count":3}]}]},"orderBy":[{"field":"price","direction":"asc","name":"Preț crescător","isSelected":false},{"field":"price","direction":"desc","name":"Preț descrescător","isSelected":false},{"field":"popularity","direction":"desc","name":"Cele mai populare","isSelected":true},{"field":"category","direction":"asc","name":"Categorie","isSelected":false}],"metaTitle":"Înălbitor și soluții pentru pete - Gamă variată","metaDescription":"Vrei Înălbitor și soluții pentru pete? Alege dintr-o gamă variată. Comanzi simplu și ai livrare rapidă, calitate și prospețime. Hai pe Freshful.ro","metaKeywords":null,"banners":[]}}