{"type":"subcategory","payload":{"analyticsListId":"category_1301-spalare-si-intretinere-rufe","analyticsListName":"Category - Spălare și întreținere rufe","name":"Spălare și întreținere rufe","slug":"1301-spalare-si-intretinere-rufe","image":null,"breadcrumbs":[{"code":"13","name":"Detergenți & igienizare","slug":"13-detergent-si-igienizare"},{"code":"1301","name":"Spălare și întreținere rufe","slug":"1301-spalare-si-intretinere-rufe"}],"slots":[],"page":1,"limit":10,"pages":38,"count":380,"siblings":[{"name":"Spălare și întreținere rufe","slug":"1301-spalare-si-intretinere-rufe","selected":true},{"name":"Curățenie și întreținerea casei","slug":"1302-igienizarea-casei","selected":false},{"name":"Hârtie igienică, șervețele și prosoape","slug":"1303-hartie-igienica-si-servetele","selected":false}],"children":[{"name":"Toate produsele","slug":"1301-spalare-si-intretinere-rufe","selected":true},{"name":"Balsam de rufe","slug":"130101-balsam-rufe","selected":false},{"name":"Înălbitor și soluții pentru pete","slug":"130102-inalbitor-si-soluti-pete","selected":false},{"name":"Anticalcar","slug":"130103-anticalcar","selected":false},{"name":"Detergent pudră","slug":"130104-detergenti-pudra","selected":false},{"name":"Detergent lichid","slug":"130105-detergent-lichid","selected":false},{"name":"Detergent capsule","slug":"130106-detergent-capsule","selected":false},{"name":"Accesorii pentru rufe","slug":"accesorii-pentru-rufe","selected":false}],"products":[{"code":"100150931","variantCode":"100150931","name":"Balsam de rufe Mosc Alb 38 de spalari 760 ml","slug":"100150931-tesori-d-oriente-balsam-de-rufe-mosc-alb-38-de-spalari-760-ml","unitPriceLabel":"18,41 Lei/l","brand":"Tesori d'Oriente","brandCode":"554","brandFilterCode":"tesori-d-oriente-b555","sku":"100150931","price":13.99,"originalPrice":17.09,"currencyCode":"RON","currency":"Lei","image":{"thumbnail":{"default":"https://cdn.freshful.ro/media/cache/sylius_shop_product_thumbnail/81/ee/532c38e0b10f67870a4157905bab.jpg"},"large":{"default":"https://cdn.freshful.ro/media/cache/freshful_large/81/ee/532c38e0b10f67870a4157905bab.jpg"},"extralarge":{"default":"https://cdn.freshful.ro/media/cache/sylius_shop_product_original/81/ee/532c38e0b10f67870a4157905bab.jpg"}},"label":{"text":"-18%","backgroundColor":"#FF9903","textColor":"#FFFFFF"},"tags":[],"isAvailable":true,"maxAvailableQuantity":100,"maxAllowedQuantity":100,"breadcrumbs":[{"code":"13","name":"Detergenți & igienizare","slug":"13-detergent-si-igienizare"},{"code":"1301","name":"Spălare și întreținere rufe","slug":"1301-spalare-si-intretinere-rufe"},{"code":"130101","name":"Balsam de rufe","slug":"130101-balsam-rufe"},{"code":"100150931","name":"Balsam de rufe Mosc Alb 38 de spalari 760 ml","slug":"100150931-tesori-d-oriente-balsam-de-rufe-mosc-alb-38-de-spalari-760-ml"}],"activePromotion":{"code":"superpreturile-saptamanii","name":"Preț redus","targetQuantity":null},"saveMe":null,"labels":[{"type":"v1","items":[{"text":"-18%","backgroundColor":"#FF9903","textColor":"#FFFFFF"}]}],"geniusPrice":null,"geniusUnitPricePerLabel":null,"banner":{"text":"Super preț","textColor":"#FF0000","bgColor":"#FFF2EC","icon":null,"link":"https://www.freshful.ro/oferte/superpreturile-saptamanii","type":"promo","analyticsEventType":"select_promotion","analyticsEventPayload":{"promotion_id":"superpreturile-saptamanii","promotion_name":"Superprețurile zilei"}},"discountLabel":"Economisești 18%","geniusDiscountLabel":null,"badge":null},{"code":"100031411","variantCode":"9000101318630","name":"Detergent lichid Active Gel Deep Clean+ 40 spălări 2l","slug":"100031411-persil-detergent-lichid-active-gel-deep-clean-40-spalari-2l","unitPriceLabel":"21,93 Lei/l","brand":"Persil","brandCode":"422","brandFilterCode":"persil-b423","sku":"100031411","price":43.85,"originalPrice":null,"currencyCode":"RON","currency":"Lei","image":{"thumbnail":{"default":"https://cdn.freshful.ro/media/cache/sylius_shop_product_thumbnail/27/a8/d2a0fbfaf4485f4a4b8d777465c5.jpg"},"large":{"default":"https://cdn.freshful.ro/media/cache/freshful_large/27/a8/d2a0fbfaf4485f4a4b8d777465c5.jpg"},"extralarge":{"default":"https://cdn.freshful.ro/media/cache/sylius_shop_product_original/27/a8/d2a0fbfaf4485f4a4b8d777465c5.jpg"}},"label":{"text":"Profită acum","backgroundColor":"#FF9903","textColor":"#FFFFFF"},"tags":[],"isAvailable":true,"maxAvailableQuantity":41,"maxAllowedQuantity":100,"breadcrumbs":[{"code":"13","name":"Detergenți & igienizare","slug":"13-detergent-si-igienizare"},{"code":"1301","name":"Spălare și întreținere rufe","slug":"1301-spalare-si-intretinere-rufe"},{"code":"130105","name":"Detergent lichid","slug":"130105-detergent-lichid"},{"code":"100031411","name":"Detergent lichid Active Gel Deep Clean+ 40 spălări 2l","slug":"100031411-persil-detergent-lichid-active-gel-deep-clean-40-spalari-2l"}],"activePromotion":{"code":"freshful-top-deals-2023","name":"Preț avantajos","targetQuantity":null},"saveMe":null,"labels":[{"type":"v1","items":[{"text":"Profită acum","backgroundColor":"#FF9903","textColor":"#FFFFFF"}]}],"geniusPrice":null,"geniusUnitPricePerLabel":null,"banner":{"text":"Preț avantajos","textColor":"#F95510","bgColor":"#FEF1CD","icon":null,"link":"https://www.freshful.ro/oferte/freshful-top-deals-2023","type":"promo","analyticsEventType":"select_promotion","analyticsEventPayload":{"promotion_id":"freshful-top-deals-2023","promotion_name":"Profită de Top Deals"}},"discountLabel":null,"geniusDiscountLabel":null,"badge":null},{"code":"100092160","variantCode":"100092160","name":"Detergent de rufe pudră automat Mountain Spring 20 spălări, 2kg","slug":"100092160-ariel-detergent-de-rufe-pudra-automat-mountain-spring-20-spalari-2kg","unitPriceLabel":"14 Lei/kg","brand":"Ariel","brandCode":"672","brandFilterCode":"ariel-b673","sku":"100092160","price":27.99,"originalPrice":null,"currencyCode":"RON","currency":"Lei","image":{"thumbnail":{"default":"https://cdn.freshful.ro/media/cache/sylius_shop_product_thumbnail/28/d8/5c3f505d114b4533562ee8ef7972.jpg"},"large":{"default":"https://cdn.freshful.ro/media/cache/freshful_large/28/d8/5c3f505d114b4533562ee8ef7972.jpg"},"extralarge":{"default":"https://cdn.freshful.ro/media/cache/sylius_shop_product_original/28/d8/5c3f505d114b4533562ee8ef7972.jpg"}},"label":{"text":"Profită acum","backgroundColor":"#FF9903","textColor":"#FFFFFF"},"tags":[],"isAvailable":true,"maxAvailableQuantity":80,"maxAllowedQuantity":100,"breadcrumbs":[{"code":"13","name":"Detergenți & igienizare","slug":"13-detergent-si-igienizare"},{"code":"1301","name":"Spălare și întreținere rufe","slug":"1301-spalare-si-intretinere-rufe"},{"code":"130104","name":"Detergent pudră","slug":"130104-detergenti-pudra"},{"code":"100092160","name":"Detergent de rufe pudră automat Mountain Spring 20 spălări, 2kg","slug":"100092160-ariel-detergent-de-rufe-pudra-automat-mountain-spring-20-spalari-2kg"}],"activePromotion":{"code":"oferte-dph-21feb-8mar23","name":"Preț avantajos","targetQuantity":null},"saveMe":null,"labels":[{"type":"v1","items":[{"text":"Profită acum","backgroundColor":"#FF9903","textColor":"#FFFFFF"}]}],"geniusPrice":null,"geniusUnitPricePerLabel":null,"banner":{"text":"Preț avantajos","textColor":"#F95510","bgColor":"#FEF1CD","icon":null,"link":"https://www.freshful.ro/oferte/oferte-dph-21feb-8mar23","type":"promo","analyticsEventType":"select_promotion","analyticsEventPayload":{"promotion_id":"oferte-dph-21feb-8mar23","promotion_name":"Curățenie și îngrijire personală"}},"discountLabel":null,"geniusDiscountLabel":null,"badge":null},{"code":"100093338","variantCode":"100093338","name":"Detergent lichid Touch of Lenor Color 60 spălări 3.3l","slug":"100093338-ariel-detergent-lichid-touch-of-lenor-color-60-spalari-3-3l","unitPriceLabel":"21,21 Lei/l","brand":"Ariel","brandCode":"672","brandFilterCode":"ariel-b673","sku":"100093338","price":69.99,"originalPrice":81.5,"currencyCode":"RON","currency":"Lei","image":{"thumbnail":{"default":"https://cdn.freshful.ro/media/cache/sylius_shop_product_thumbnail/13/e7/fb0a2828053b51164b73f8b98703.jpg"},"large":{"default":"https://cdn.freshful.ro/media/cache/freshful_large/13/e7/fb0a2828053b51164b73f8b98703.jpg"},"extralarge":{"default":"https://cdn.freshful.ro/media/cache/sylius_shop_product_original/13/e7/fb0a2828053b51164b73f8b98703.jpg"}},"label":{"text":"-14%","backgroundColor":"#FF9903","textColor":"#FFFFFF"},"tags":[],"isAvailable":true,"maxAvailableQuantity":100,"maxAllowedQuantity":100,"breadcrumbs":[{"code":"13","name":"Detergenți & igienizare","slug":"13-detergent-si-igienizare"},{"code":"1301","name":"Spălare și întreținere rufe","slug":"1301-spalare-si-intretinere-rufe"},{"code":"130105","name":"Detergent lichid","slug":"130105-detergent-lichid"},{"code":"100093338","name":"Detergent lichid Touch of Lenor Color 60 spălări 3.3l","slug":"100093338-ariel-detergent-lichid-touch-of-lenor-color-60-spalari-3-3l"}],"activePromotion":{"code":"oferte-dph-21feb-8mar23","name":"Preț redus","targetQuantity":null},"saveMe":null,"labels":[{"type":"v1","items":[{"text":"-14%","backgroundColor":"#FF9903","textColor":"#FFFFFF"}]}],"geniusPrice":null,"geniusUnitPricePerLabel":null,"banner":{"text":"Super preț","textColor":"#FF0000","bgColor":"#FFF2EC","icon":null,"link":"https://www.freshful.ro/oferte/oferte-dph-21feb-8mar23","type":"promo","analyticsEventType":"select_promotion","analyticsEventPayload":{"promotion_id":"oferte-dph-21feb-8mar23","promotion_name":"Curățenie și îngrijire personală"}},"discountLabel":"Economisești 14%","geniusDiscountLabel":null,"badge":null},{"code":"100031442","variantCode":"100031442","name":"Detergent de rufe capsule Renew & Care Color, 10 spălări","slug":"100031442-perwoll-detergent-de-rufe-capsule-renew-care-color-10-spalari","unitPriceLabel":"2,1 Lei/buc","brand":"Perwoll","brandCode":"423","brandFilterCode":"perwoll-b424","sku":"100031442","price":20.99,"originalPrice":25.89,"currencyCode":"RON","currency":"Lei","image":{"thumbnail":{"default":"https://cdn.freshful.ro/media/cache/sylius_shop_product_thumbnail/c9/e0/61b1413b587c80d064c433c24ef8.jpg"},"large":{"default":"https://cdn.freshful.ro/media/cache/freshful_large/c9/e0/61b1413b587c80d064c433c24ef8.jpg"},"extralarge":{"default":"https://cdn.freshful.ro/media/cache/sylius_shop_product_original/c9/e0/61b1413b587c80d064c433c24ef8.jpg"}},"label":{"text":"-18%","backgroundColor":"#FF9903","textColor":"#FFFFFF"},"tags":[],"isAvailable":true,"maxAvailableQuantity":10,"maxAllowedQuantity":100,"breadcrumbs":[{"code":"13","name":"Detergenți & igienizare","slug":"13-detergent-si-igienizare"},{"code":"1301","name":"Spălare și întreținere rufe","slug":"1301-spalare-si-intretinere-rufe"},{"code":"130106","name":"Detergent capsule","slug":"130106-detergent-capsule"},{"code":"100031442","name":"Detergent de rufe capsule Renew & Care Color, 10 spălări","slug":"100031442-perwoll-detergent-de-rufe-capsule-renew-care-color-10-spalari"}],"activePromotion":{"code":"oferte-dph-21feb-8mar23","name":"Preț redus","targetQuantity":null},"saveMe":null,"labels":[{"type":"v1","items":[{"text":"-18%","backgroundColor":"#FF9903","textColor":"#FFFFFF"}]}],"geniusPrice":null,"geniusUnitPricePerLabel":null,"banner":{"text":"Super preț","textColor":"#FF0000","bgColor":"#FFF2EC","icon":null,"link":"https://www.freshful.ro/oferte/oferte-dph-21feb-8mar23","type":"promo","analyticsEventType":"select_promotion","analyticsEventPayload":{"promotion_id":"oferte-dph-21feb-8mar23","promotion_name":"Curățenie și îngrijire personală"}},"discountLabel":"Economisești 18%","geniusDiscountLabel":null,"badge":null},{"code":"100031443","variantCode":"100031443","name":"Detergent de rufe capsule pentru haine negre Black, 10 spălări","slug":"100031443-perwoll-detergent-de-rufe-capsule-pentru-haine-negre-black-10-spalari","unitPriceLabel":"2,1 Lei/buc","brand":"Perwoll","brandCode":"423","brandFilterCode":"perwoll-b424","sku":"100031443","price":20.99,"originalPrice":25.99,"currencyCode":"RON","currency":"Lei","image":{"thumbnail":{"default":"https://cdn.freshful.ro/media/cache/sylius_shop_product_thumbnail/d5/37/666f0369ce569ce4d80b5bdcf4b7.jpg"},"large":{"default":"https://cdn.freshful.ro/media/cache/freshful_large/d5/37/666f0369ce569ce4d80b5bdcf4b7.jpg"},"extralarge":{"default":"https://cdn.freshful.ro/media/cache/sylius_shop_product_original/d5/37/666f0369ce569ce4d80b5bdcf4b7.jpg"}},"label":{"text":"-19%","backgroundColor":"#FF9903","textColor":"#FFFFFF"},"tags":[],"isAvailable":true,"maxAvailableQuantity":57,"maxAllowedQuantity":100,"breadcrumbs":[{"code":"13","name":"Detergenți & igienizare","slug":"13-detergent-si-igienizare"},{"code":"1301","name":"Spălare și întreținere rufe","slug":"1301-spalare-si-intretinere-rufe"},{"code":"130106","name":"Detergent capsule","slug":"130106-detergent-capsule"},{"code":"100031443","name":"Detergent de rufe capsule pentru haine negre Black, 10 spălări","slug":"100031443-perwoll-detergent-de-rufe-capsule-pentru-haine-negre-black-10-spalari"}],"activePromotion":{"code":"oferte-dph-21feb-8mar23","name":"Preț redus","targetQuantity":null},"saveMe":null,"labels":[{"type":"v1","items":[{"text":"-19%","backgroundColor":"#FF9903","textColor":"#FFFFFF"}]}],"geniusPrice":null,"geniusUnitPricePerLabel":null,"banner":{"text":"Super preț","textColor":"#FF0000","bgColor":"#FFF2EC","icon":null,"link":"https://www.freshful.ro/oferte/oferte-dph-21feb-8mar23","type":"promo","analyticsEventType":"select_promotion","analyticsEventPayload":{"promotion_id":"oferte-dph-21feb-8mar23","promotion_name":"Curățenie și îngrijire personală"}},"discountLabel":"Economisești 19%","geniusDiscountLabel":null,"badge":null},{"code":"100092156","variantCode":"100092156","name":"Detergent de rufe pudră automat Mountain Spring 40 spălări, 4kg","slug":"100092156-ariel-detergent-de-rufe-pudra-automat-mountain-spring-40-spalari-4kg","unitPriceLabel":"13,75 Lei/kg","brand":"Ariel","brandCode":"672","brandFilterCode":"ariel-b673","sku":"100092156","price":54.99,"originalPrice":null,"currencyCode":"RON","currency":"Lei","image":{"thumbnail":{"default":"https://cdn.freshful.ro/media/cache/sylius_shop_product_thumbnail/d6/97/545acebd73f7814f21eaa8641187.jpg"},"large":{"default":"https://cdn.freshful.ro/media/cache/freshful_large/d6/97/545acebd73f7814f21eaa8641187.jpg"},"extralarge":{"default":"https://cdn.freshful.ro/media/cache/sylius_shop_product_original/d6/97/545acebd73f7814f21eaa8641187.jpg"}},"label":{"text":"Profită acum","backgroundColor":"#FF9903","textColor":"#FFFFFF"},"tags":[],"isAvailable":true,"maxAvailableQuantity":57,"maxAllowedQuantity":100,"breadcrumbs":[{"code":"13","name":"Detergenți & igienizare","slug":"13-detergent-si-igienizare"},{"code":"1301","name":"Spălare și întreținere rufe","slug":"1301-spalare-si-intretinere-rufe"},{"code":"130104","name":"Detergent pudră","slug":"130104-detergenti-pudra"},{"code":"100092156","name":"Detergent de rufe pudră automat Mountain Spring 40 spălări, 4kg","slug":"100092156-ariel-detergent-de-rufe-pudra-automat-mountain-spring-40-spalari-4kg"}],"activePromotion":{"code":"oferte-dph-21feb-8mar23","name":"Preț avantajos","targetQuantity":null},"saveMe":null,"labels":[{"type":"v1","items":[{"text":"Profită acum","backgroundColor":"#FF9903","textColor":"#FFFFFF"}]}],"geniusPrice":null,"geniusUnitPricePerLabel":null,"banner":{"text":"Preț avantajos","textColor":"#F95510","bgColor":"#FEF1CD","icon":null,"link":"https://www.freshful.ro/oferte/oferte-dph-21feb-8mar23","type":"promo","analyticsEventType":"select_promotion","analyticsEventPayload":{"promotion_id":"oferte-dph-21feb-8mar23","promotion_name":"Curățenie și îngrijire personală"}},"discountLabel":null,"geniusDiscountLabel":null,"badge":null},{"code":"100093102","variantCode":"8058664122325","name":"Detergent lichid hipoalergenic pentru haine 0 luni+ 27 spălări, 1.5l","slug":"100093102-chicco-detergent-lichid-hipoalergenic-pentru-haine-0-luni-27-spalari-1-5l","unitPriceLabel":"21,99 Lei/l","brand":"Chicco","brandCode":"658","brandFilterCode":"chicco-b659","sku":"100093102","price":32.99,"originalPrice":38.5,"currencyCode":"RON","currency":"Lei","image":{"thumbnail":{"default":"https://cdn.freshful.ro/media/cache/sylius_shop_product_thumbnail/55/5b/06fa96086085a6f66d8302a1a412.jpg"},"large":{"default":"https://cdn.freshful.ro/media/cache/freshful_large/55/5b/06fa96086085a6f66d8302a1a412.jpg"},"extralarge":{"default":"https://cdn.freshful.ro/media/cache/sylius_shop_product_original/55/5b/06fa96086085a6f66d8302a1a412.jpg"}},"label":{"text":"-14%","backgroundColor":"#FF9903","textColor":"#FFFFFF"},"tags":[],"isAvailable":true,"maxAvailableQuantity":72,"maxAllowedQuantity":100,"breadcrumbs":[{"code":"13","name":"Detergenți & igienizare","slug":"13-detergent-si-igienizare"},{"code":"1301","name":"Spălare și întreținere rufe","slug":"1301-spalare-si-intretinere-rufe"},{"code":"130105","name":"Detergent lichid","slug":"130105-detergent-lichid"},{"code":"100093102","name":"Detergent lichid hipoalergenic pentru haine 0 luni+ 27 spălări, 1.5l","slug":"100093102-chicco-detergent-lichid-hipoalergenic-pentru-haine-0-luni-27-spalari-1-5l"}],"activePromotion":{"code":"oferte-dph-21feb-8mar23","name":"Preț redus","targetQuantity":null},"saveMe":null,"labels":[{"type":"v1","items":[{"text":"-14%","backgroundColor":"#FF9903","textColor":"#FFFFFF"}]}],"geniusPrice":null,"geniusUnitPricePerLabel":null,"banner":{"text":"Super preț","textColor":"#FF0000","bgColor":"#FFF2EC","icon":null,"link":"https://www.freshful.ro/oferte/oferte-dph-21feb-8mar23","type":"promo","analyticsEventType":"select_promotion","analyticsEventPayload":{"promotion_id":"oferte-dph-21feb-8mar23","promotion_name":"Curățenie și îngrijire personală"}},"discountLabel":"Economisești 14%","geniusDiscountLabel":null,"badge":null},{"code":"100061935","variantCode":"100061935","name":"Detergent de rufe pudră automat Ozon+ „Roua muntelui” 20 spălări, 2kg","slug":"100061935-dero-detergent-de-rufe-pudra-automat-ozon-roua-muntelui-20-spalari-2kg","unitPriceLabel":"8,07 Lei/kg","brand":"Dero","brandCode":"758","brandFilterCode":"dero-b759","sku":"100061935","price":16.14,"originalPrice":null,"currencyCode":"RON","currency":"Lei","image":{"thumbnail":{"default":"https://cdn.freshful.ro/media/cache/sylius_shop_product_thumbnail/e2/e6/2b17c9ed2237f1905efa4c055d41.jpg"},"large":{"default":"https://cdn.freshful.ro/media/cache/freshful_large/e2/e6/2b17c9ed2237f1905efa4c055d41.jpg"},"extralarge":{"default":"https://cdn.freshful.ro/media/cache/sylius_shop_product_original/e2/e6/2b17c9ed2237f1905efa4c055d41.jpg"}},"label":{"text":"Profită acum","backgroundColor":"#FF9903","textColor":"#FFFFFF"},"tags":[],"isAvailable":true,"maxAvailableQuantity":100,"maxAllowedQuantity":100,"breadcrumbs":[{"code":"13","name":"Detergenți & igienizare","slug":"13-detergent-si-igienizare"},{"code":"1301","name":"Spălare și întreținere rufe","slug":"1301-spalare-si-intretinere-rufe"},{"code":"130104","name":"Detergent pudră","slug":"130104-detergenti-pudra"},{"code":"100061935","name":"Detergent de rufe pudră automat Ozon+ „Roua muntelui” 20 spălări, 2kg","slug":"100061935-dero-detergent-de-rufe-pudra-automat-ozon-roua-muntelui-20-spalari-2kg"}],"activePromotion":{"code":"freshful-top-deals-2023","name":"Preț avantajos","targetQuantity":null},"saveMe":null,"labels":[{"type":"v1","items":[{"text":"Profită acum","backgroundColor":"#FF9903","textColor":"#FFFFFF"}]}],"geniusPrice":null,"geniusUnitPricePerLabel":null,"banner":{"text":"Preț avantajos","textColor":"#F95510","bgColor":"#FEF1CD","icon":null,"link":"https://www.freshful.ro/oferte/freshful-top-deals-2023","type":"promo","analyticsEventType":"select_promotion","analyticsEventPayload":{"promotion_id":"freshful-top-deals-2023","promotion_name":"Profită de Top Deals"}},"discountLabel":null,"geniusDiscountLabel":null,"badge":null},{"code":"100092224","variantCode":"100092224","name":"Perle parfumate Unstoppables Fresh 210g","slug":"100092224-lenor-perle-parfumate-unstoppables-fresh-210g","unitPriceLabel":"128,52 Lei/kg","brand":"Lenor","brandCode":"673","brandFilterCode":"lenor-b674","sku":"100092224","price":26.99,"originalPrice":34.5,"currencyCode":"RON","currency":"Lei","image":{"thumbnail":{"default":"https://cdn.freshful.ro/media/cache/sylius_shop_product_thumbnail/5d/a9/dd5785d6e8631b756f698406bf35.jpg"},"large":{"default":"https://cdn.freshful.ro/media/cache/freshful_large/5d/a9/dd5785d6e8631b756f698406bf35.jpg"},"extralarge":{"default":"https://cdn.freshful.ro/media/cache/sylius_shop_product_original/5d/a9/dd5785d6e8631b756f698406bf35.jpg"}},"label":{"text":"-21%","backgroundColor":"#FF9903","textColor":"#FFFFFF"},"tags":[],"isAvailable":true,"maxAvailableQuantity":57,"maxAllowedQuantity":100,"breadcrumbs":[{"code":"13","name":"Detergenți & igienizare","slug":"13-detergent-si-igienizare"},{"code":"1301","name":"Spălare și întreținere rufe","slug":"1301-spalare-si-intretinere-rufe"},{"code":"130101","name":"Balsam de rufe","slug":"130101-balsam-rufe"},{"code":"100092224","name":"Perle parfumate Unstoppables Fresh 210g","slug":"100092224-lenor-perle-parfumate-unstoppables-fresh-210g"}],"activePromotion":{"code":"oferte-dph-21feb-8mar23","name":"Preț redus","targetQuantity":null},"saveMe":null,"labels":[{"type":"v1","items":[{"text":"-21%","backgroundColor":"#FF9903","textColor":"#FFFFFF"}]}],"geniusPrice":null,"geniusUnitPricePerLabel":null,"banner":{"text":"Super preț","textColor":"#FF0000","bgColor":"#FFF2EC","icon":null,"link":"https://www.freshful.ro/oferte/oferte-dph-21feb-8mar23","type":"promo","analyticsEventType":"select_promotion","analyticsEventPayload":{"promotion_id":"oferte-dph-21feb-8mar23","promotion_name":"Curățenie și îngrijire personală"}},"discountLabel":"Economisești 21%","geniusDiscountLabel":null,"badge":null}],"filters":{"countSelected":0,"items":[{"code":"promotion","name":"Promoții","countSelected":0,"values":[{"code":"oferte-dph-21feb-8mar23","name":"Curățenie și îngrijire personală","isSelected":false,"count":20},{"code":"freshful-top-deals-2023","name":"Profită de Top Deals","isSelected":false,"count":9},{"code":"superpreturile-saptamanii","name":"Superprețurile zilei","isSelected":false,"count":1}]},{"code":"brand","name":"Brand","countSelected":0,"values":[{"code":"ace-b912","name":"Ace","isSelected":false,"count":10},{"code":"ariel-b673","name":"Ariel","isSelected":false,"count":45},{"code":"burti-b364","name":"Burti","isSelected":false,"count":9},{"code":"calgon-b624","name":"Calgon","isSelected":false,"count":11},{"code":"chicco-b659","name":"Chicco","isSelected":false,"count":7},{"code":"coccolino-b758","name":"Coccolino","isSelected":false,"count":14},{"code":"cooking-by-heinner-b2830","name":"Cooking By Heinner","isSelected":false,"count":1},{"code":"dero-b759","name":"Dero","isSelected":false,"count":24},{"code":"dr-beckmann-b1106","name":"Dr.Beckmann","isSelected":false,"count":18},{"code":"evrika-b1185","name":"Evrika","isSelected":false,"count":3},{"code":"frosch-b316","name":"Frosch","isSelected":false,"count":11},{"code":"heitmann-b358","name":"Heitmann","isSelected":false,"count":18},{"code":"igienol-b428","name":"Igienol","isSelected":false,"count":2},{"code":"k2r-b426","name":"K2r","isSelected":false,"count":2},{"code":"lenor-b674","name":"Lenor","isSelected":false,"count":15},{"code":"lovela-b623","name":"Lovela","isSelected":false,"count":7},{"code":"magic-leaves-b357","name":"Magic Leaves","isSelected":false,"count":1},{"code":"nufar-b1835","name":"Nufăr","isSelected":false,"count":3},{"code":"omo-b760","name":"Omo","isSelected":false,"count":6},{"code":"oti-b1002","name":"Oti","isSelected":false,"count":1},{"code":"persil-b423","name":"Persil","isSelected":false,"count":34},{"code":"perwoll-b424","name":"Perwoll","isSelected":false,"count":10},{"code":"planet-pure-b1682","name":"Planet Pure","isSelected":false,"count":1},{"code":"rivex-b1187","name":"Rivex","isSelected":false,"count":1},{"code":"sano-b580","name":"Sano","isSelected":false,"count":31},{"code":"sanytol-b301","name":"Sanytol","isSelected":false,"count":6},{"code":"savex-b388","name":"Savex","isSelected":false,"count":15},{"code":"semana-b387","name":"Semana","isSelected":false,"count":10},{"code":"silan-b425","name":"Silan","isSelected":false,"count":8},{"code":"simplicol-b359","name":"Simplicol","isSelected":false,"count":2},{"code":"snow-b1186","name":"Snow","isSelected":false,"count":8},{"code":"sonett-b1681","name":"Sonett","isSelected":false,"count":7},{"code":"spotex-b372","name":"Spotex","isSelected":false,"count":2},{"code":"teo-bebe-b918","name":"Teo Bebe","isSelected":false,"count":2},{"code":"tesori-d-oriente-b555","name":"Tesori d'Oriente","isSelected":false,"count":5},{"code":"tide-b675","name":"Tide","isSelected":false,"count":4},{"code":"vanish-b622","name":"Vanish","isSelected":false,"count":18},{"code":"vileda-b431","name":"Vileda","isSelected":false,"count":8}]},{"code":"diet_lifestyle","name":"Dietă și lifestyle","countSelected":0,"values":[{"code":"bio-a26","name":"Bio","isSelected":false,"count":13},{"code":"made-in-romania-a85","name":"Made In Romania","isSelected":false,"count":2},{"code":"vegan-a24","name":"Vegan","isSelected":false,"count":12}]}]},"orderBy":[{"field":"price","direction":"asc","name":"Preț crescător","isSelected":false},{"field":"price","direction":"desc","name":"Preț descrescător","isSelected":false},{"field":"popularity","direction":"desc","name":"Cele mai populare","isSelected":true},{"field":"category","direction":"asc","name":"Categorie","isSelected":false}],"metaTitle":"Spălare și întreținere rufe - Gamă variată","metaDescription":"Vrei Spălare și întreținere rufe? Alege dintr-o gamă variată. Comanzi simplu și ai livrare rapidă, calitate și prospețime. Hai pe Freshful.ro","metaKeywords":null,"banners":[]}}