{"type":"subcategory","payload":{"analyticsListId":"category_130101-balsam-rufe","analyticsListName":"Category - Balsam de rufe","name":"Balsam de rufe","slug":"130101-balsam-rufe","image":null,"breadcrumbs":[{"code":"13","name":"Detergenți & igienizare","slug":"13-detergent-si-igienizare"},{"code":"1301","name":"Spălare și întreținere rufe","slug":"1301-spalare-si-intretinere-rufe"},{"code":"130101","name":"Balsam de rufe","slug":"130101-balsam-rufe"}],"slots":[],"page":1,"limit":10,"pages":9,"count":81,"siblings":[{"name":"Spălare și întreținere rufe","slug":"1301-spalare-si-intretinere-rufe","selected":true},{"name":"Curățenie și întreținerea casei","slug":"1302-igienizarea-casei","selected":false},{"name":"Hârtie igienică, șervețele și prosoape","slug":"1303-hartie-igienica-si-servetele","selected":false}],"children":[{"name":"Toate produsele","slug":"1301-spalare-si-intretinere-rufe","selected":false},{"name":"Balsam de rufe","slug":"130101-balsam-rufe","selected":true},{"name":"Înălbitor și soluții pentru pete","slug":"130102-inalbitor-si-soluti-pete","selected":false},{"name":"Anticalcar","slug":"130103-anticalcar","selected":false},{"name":"Detergent pudră","slug":"130104-detergenti-pudra","selected":false},{"name":"Detergent lichid","slug":"130105-detergent-lichid","selected":false},{"name":"Detergent capsule","slug":"130106-detergent-capsule","selected":false},{"name":"Accesorii pentru rufe","slug":"accesorii-pentru-rufe","selected":false}],"products":[{"code":"100150931","variantCode":"100150931","name":"Balsam de rufe Mosc Alb 38 de spalari 760 ml","slug":"100150931-tesori-d-oriente-balsam-de-rufe-mosc-alb-38-de-spalari-760-ml","unitPriceLabel":"18,41 Lei/l","brand":"Tesori d'Oriente","brandCode":"554","brandFilterCode":"tesori-d-oriente-b555","sku":"100150931","price":13.99,"originalPrice":17.09,"currencyCode":"RON","currency":"Lei","image":{"thumbnail":{"default":"https://cdn.freshful.ro/media/cache/sylius_shop_product_thumbnail/81/ee/532c38e0b10f67870a4157905bab.jpg"},"large":{"default":"https://cdn.freshful.ro/media/cache/freshful_large/81/ee/532c38e0b10f67870a4157905bab.jpg"},"extralarge":{"default":"https://cdn.freshful.ro/media/cache/sylius_shop_product_original/81/ee/532c38e0b10f67870a4157905bab.jpg"}},"label":{"text":"-18%","backgroundColor":"#FF9903","textColor":"#FFFFFF"},"tags":[],"isAvailable":true,"maxAvailableQuantity":100,"maxAllowedQuantity":100,"breadcrumbs":[{"code":"13","name":"Detergenți & igienizare","slug":"13-detergent-si-igienizare"},{"code":"1301","name":"Spălare și întreținere rufe","slug":"1301-spalare-si-intretinere-rufe"},{"code":"130101","name":"Balsam de rufe","slug":"130101-balsam-rufe"},{"code":"100150931","name":"Balsam de rufe Mosc Alb 38 de spalari 760 ml","slug":"100150931-tesori-d-oriente-balsam-de-rufe-mosc-alb-38-de-spalari-760-ml"}],"activePromotion":{"code":"superpreturile-saptamanii","name":"Preț redus","targetQuantity":null},"saveMe":null,"labels":[{"type":"v1","items":[{"text":"-18%","backgroundColor":"#FF9903","textColor":"#FFFFFF"}]}],"geniusPrice":null,"geniusUnitPricePerLabel":null,"banner":{"text":"Super preț","textColor":"#FF0000","bgColor":"#FFF2EC","icon":null,"link":"https://www.freshful.ro/oferte/superpreturile-saptamanii","type":"promo","analyticsEventType":"select_promotion","analyticsEventPayload":{"promotion_id":"superpreturile-saptamanii","promotion_name":"Superprețurile zilei"}},"discountLabel":"Economisești 18%","geniusDiscountLabel":null,"badge":null},{"code":"100092224","variantCode":"100092224","name":"Perle parfumate Unstoppables Fresh 210g","slug":"100092224-lenor-perle-parfumate-unstoppables-fresh-210g","unitPriceLabel":"128,52 Lei/kg","brand":"Lenor","brandCode":"673","brandFilterCode":"lenor-b674","sku":"100092224","price":26.99,"originalPrice":34.5,"currencyCode":"RON","currency":"Lei","image":{"thumbnail":{"default":"https://cdn.freshful.ro/media/cache/sylius_shop_product_thumbnail/5d/a9/dd5785d6e8631b756f698406bf35.jpg"},"large":{"default":"https://cdn.freshful.ro/media/cache/freshful_large/5d/a9/dd5785d6e8631b756f698406bf35.jpg"},"extralarge":{"default":"https://cdn.freshful.ro/media/cache/sylius_shop_product_original/5d/a9/dd5785d6e8631b756f698406bf35.jpg"}},"label":{"text":"-21%","backgroundColor":"#FF9903","textColor":"#FFFFFF"},"tags":[],"isAvailable":true,"maxAvailableQuantity":57,"maxAllowedQuantity":100,"breadcrumbs":[{"code":"13","name":"Detergenți & igienizare","slug":"13-detergent-si-igienizare"},{"code":"1301","name":"Spălare și întreținere rufe","slug":"1301-spalare-si-intretinere-rufe"},{"code":"130101","name":"Balsam de rufe","slug":"130101-balsam-rufe"},{"code":"100092224","name":"Perle parfumate Unstoppables Fresh 210g","slug":"100092224-lenor-perle-parfumate-unstoppables-fresh-210g"}],"activePromotion":{"code":"oferte-dph-21feb-8mar23","name":"Preț redus","targetQuantity":null},"saveMe":null,"labels":[{"type":"v1","items":[{"text":"-21%","backgroundColor":"#FF9903","textColor":"#FFFFFF"}]}],"geniusPrice":null,"geniusUnitPricePerLabel":null,"banner":{"text":"Super preț","textColor":"#FF0000","bgColor":"#FFF2EC","icon":null,"link":"https://www.freshful.ro/oferte/oferte-dph-21feb-8mar23","type":"promo","analyticsEventType":"select_promotion","analyticsEventPayload":{"promotion_id":"oferte-dph-21feb-8mar23","promotion_name":"Curățenie și îngrijire personală"}},"discountLabel":"Economisești 21%","geniusDiscountLabel":null,"badge":null},{"code":"100093121","variantCode":"8058664103126","name":"Balsam concentrat Sensitive +0 luni, 30 spălări 750ml ","slug":"100093121-chicco-balsam-concentrat-sensitive-0-luni-30-spalari-750ml","unitPriceLabel":"19,99 Lei/l","brand":"Chicco","brandCode":"658","brandFilterCode":"chicco-b659","sku":"100093121","price":14.99,"originalPrice":16.9,"currencyCode":"RON","currency":"Lei","image":{"thumbnail":{"default":"https://cdn.freshful.ro/media/cache/sylius_shop_product_thumbnail/af/e4/749107c303a5154618c2d4263b07.jpg"},"large":{"default":"https://cdn.freshful.ro/media/cache/freshful_large/af/e4/749107c303a5154618c2d4263b07.jpg"},"extralarge":{"default":"https://cdn.freshful.ro/media/cache/sylius_shop_product_original/af/e4/749107c303a5154618c2d4263b07.jpg"}},"label":{"text":"-11%","backgroundColor":"#FF9903","textColor":"#FFFFFF"},"tags":[],"isAvailable":true,"maxAvailableQuantity":40,"maxAllowedQuantity":100,"breadcrumbs":[{"code":"13","name":"Detergenți & igienizare","slug":"13-detergent-si-igienizare"},{"code":"1301","name":"Spălare și întreținere rufe","slug":"1301-spalare-si-intretinere-rufe"},{"code":"130101","name":"Balsam de rufe","slug":"130101-balsam-rufe"},{"code":"100093121","name":"Balsam concentrat Sensitive +0 luni, 30 spălări 750ml ","slug":"100093121-chicco-balsam-concentrat-sensitive-0-luni-30-spalari-750ml"}],"activePromotion":{"code":"oferte-dph-21feb-8mar23","name":"Preț redus","targetQuantity":null},"saveMe":null,"labels":[{"type":"v1","items":[{"text":"-11%","backgroundColor":"#FF9903","textColor":"#FFFFFF"}]}],"geniusPrice":null,"geniusUnitPricePerLabel":null,"banner":{"text":"Super preț","textColor":"#FF0000","bgColor":"#FFF2EC","icon":null,"link":"https://www.freshful.ro/oferte/oferte-dph-21feb-8mar23","type":"promo","analyticsEventType":"select_promotion","analyticsEventPayload":{"promotion_id":"oferte-dph-21feb-8mar23","promotion_name":"Curățenie și îngrijire personală"}},"discountLabel":"Economisești 11%","geniusDiscountLabel":null,"badge":null},{"code":"100092225","variantCode":"100092225","name":"Perle parfumate Unstoppables Lavish 210g","slug":"100092225-lenor-perle-parfumate-unstoppables-lavish-210g","unitPriceLabel":"128,52 Lei/kg","brand":"Lenor","brandCode":"673","brandFilterCode":"lenor-b674","sku":"100092225","price":26.99,"originalPrice":34.5,"currencyCode":"RON","currency":"Lei","image":{"thumbnail":{"default":"https://cdn.freshful.ro/media/cache/sylius_shop_product_thumbnail/a0/f2/f4034cc4306e3fb7a5a0acd40334.jpg"},"large":{"default":"https://cdn.freshful.ro/media/cache/freshful_large/a0/f2/f4034cc4306e3fb7a5a0acd40334.jpg"},"extralarge":{"default":"https://cdn.freshful.ro/media/cache/sylius_shop_product_original/a0/f2/f4034cc4306e3fb7a5a0acd40334.jpg"}},"label":{"text":"-21%","backgroundColor":"#FF9903","textColor":"#FFFFFF"},"tags":[],"isAvailable":true,"maxAvailableQuantity":65,"maxAllowedQuantity":100,"breadcrumbs":[{"code":"13","name":"Detergenți & igienizare","slug":"13-detergent-si-igienizare"},{"code":"1301","name":"Spălare și întreținere rufe","slug":"1301-spalare-si-intretinere-rufe"},{"code":"130101","name":"Balsam de rufe","slug":"130101-balsam-rufe"},{"code":"100092225","name":"Perle parfumate Unstoppables Lavish 210g","slug":"100092225-lenor-perle-parfumate-unstoppables-lavish-210g"}],"activePromotion":{"code":"oferte-dph-21feb-8mar23","name":"Preț redus","targetQuantity":null},"saveMe":null,"labels":[{"type":"v1","items":[{"text":"-21%","backgroundColor":"#FF9903","textColor":"#FFFFFF"}]}],"geniusPrice":null,"geniusUnitPricePerLabel":null,"banner":{"text":"Super preț","textColor":"#FF0000","bgColor":"#FFF2EC","icon":null,"link":"https://www.freshful.ro/oferte/oferte-dph-21feb-8mar23","type":"promo","analyticsEventType":"select_promotion","analyticsEventPayload":{"promotion_id":"oferte-dph-21feb-8mar23","promotion_name":"Curățenie și îngrijire personală"}},"discountLabel":"Economisești 21%","geniusDiscountLabel":null,"badge":null},{"code":"100046718","variantCode":"100046718","name":"Balsam rufe Blue Splash 72 spălări 1.8l","slug":"100046718-coccolino-balsam-rufe-blue-splash-72-spalari-1-8l","unitPriceLabel":"11,06 Lei/l","brand":"Coccolino","brandCode":"757","brandFilterCode":"coccolino-b758","sku":"100046718","price":19.9,"originalPrice":null,"currencyCode":"RON","currency":"Lei","image":{"thumbnail":{"default":"https://cdn.freshful.ro/media/cache/sylius_shop_product_thumbnail/e8/1c/3191160bf4a52433a43c44dfa125.jpg"},"large":{"default":"https://cdn.freshful.ro/media/cache/freshful_large/e8/1c/3191160bf4a52433a43c44dfa125.jpg"},"extralarge":{"default":"https://cdn.freshful.ro/media/cache/sylius_shop_product_original/e8/1c/3191160bf4a52433a43c44dfa125.jpg"}},"label":null,"tags":[],"isAvailable":true,"maxAvailableQuantity":100,"maxAllowedQuantity":100,"breadcrumbs":[{"code":"13","name":"Detergenți & igienizare","slug":"13-detergent-si-igienizare"},{"code":"1301","name":"Spălare și întreținere rufe","slug":"1301-spalare-si-intretinere-rufe"},{"code":"130101","name":"Balsam de rufe","slug":"130101-balsam-rufe"},{"code":"100046718","name":"Balsam rufe Blue Splash 72 spălări 1.8l","slug":"100046718-coccolino-balsam-rufe-blue-splash-72-spalari-1-8l"}],"activePromotion":null,"saveMe":null,"labels":[],"geniusPrice":null,"geniusUnitPricePerLabel":null,"banner":null,"discountLabel":null,"geniusDiscountLabel":null,"badge":null},{"code":"100092211","variantCode":"100092211","name":"Balsam de rufe Gold Orchid 50 spălări 1.5l","slug":"100092211-lenor-balsam-de-rufe-gold-orchid-50-spalari-1-5l","unitPriceLabel":"11,93 Lei/l","brand":"Lenor","brandCode":"673","brandFilterCode":"lenor-b674","sku":"100092211","price":17.9,"originalPrice":null,"currencyCode":"RON","currency":"Lei","image":{"thumbnail":{"default":"https://cdn.freshful.ro/media/cache/sylius_shop_product_thumbnail/80/3f/9fac8b19ff59a8fd3f087069070f.jpg"},"large":{"default":"https://cdn.freshful.ro/media/cache/freshful_large/80/3f/9fac8b19ff59a8fd3f087069070f.jpg"},"extralarge":{"default":"https://cdn.freshful.ro/media/cache/sylius_shop_product_original/80/3f/9fac8b19ff59a8fd3f087069070f.jpg"}},"label":null,"tags":[],"isAvailable":true,"maxAvailableQuantity":100,"maxAllowedQuantity":100,"breadcrumbs":[{"code":"13","name":"Detergenți & igienizare","slug":"13-detergent-si-igienizare"},{"code":"1301","name":"Spălare și întreținere rufe","slug":"1301-spalare-si-intretinere-rufe"},{"code":"130101","name":"Balsam de rufe","slug":"130101-balsam-rufe"},{"code":"100092211","name":"Balsam de rufe Gold Orchid 50 spălări 1.5l","slug":"100092211-lenor-balsam-de-rufe-gold-orchid-50-spalari-1-5l"}],"activePromotion":null,"saveMe":null,"labels":[],"geniusPrice":null,"geniusUnitPricePerLabel":null,"banner":null,"discountLabel":null,"geniusDiscountLabel":null,"badge":null},{"code":"100092206","variantCode":"100092206","name":"Balsam de rufe Spring Awakening 83 spălări 2.9l","slug":"100092206-lenor-balsam-de-rufe-spring-awakening-83-spalari-2-9l","unitPriceLabel":"9,6 Lei/l","brand":"Lenor","brandCode":"673","brandFilterCode":"lenor-b674","sku":"100092206","price":27.9,"originalPrice":null,"currencyCode":"RON","currency":"Lei","image":{"thumbnail":{"default":"https://cdn.freshful.ro/media/cache/sylius_shop_product_thumbnail/93/8d/c3b9eac6f3523077b98bdd043247.jpg"},"large":{"default":"https://cdn.freshful.ro/media/cache/freshful_large/93/8d/c3b9eac6f3523077b98bdd043247.jpg"},"extralarge":{"default":"https://cdn.freshful.ro/media/cache/sylius_shop_product_original/93/8d/c3b9eac6f3523077b98bdd043247.jpg"}},"label":null,"tags":[],"isAvailable":true,"maxAvailableQuantity":100,"maxAllowedQuantity":100,"breadcrumbs":[{"code":"13","name":"Detergenți & igienizare","slug":"13-detergent-si-igienizare"},{"code":"1301","name":"Spălare și întreținere rufe","slug":"1301-spalare-si-intretinere-rufe"},{"code":"130101","name":"Balsam de rufe","slug":"130101-balsam-rufe"},{"code":"100092206","name":"Balsam de rufe Spring Awakening 83 spălări 2.9l","slug":"100092206-lenor-balsam-de-rufe-spring-awakening-83-spalari-2-9l"}],"activePromotion":null,"saveMe":null,"labels":[],"geniusPrice":null,"geniusUnitPricePerLabel":null,"banner":null,"discountLabel":null,"geniusDiscountLabel":null,"badge":null},{"code":"100092217","variantCode":"100092217","name":"Balsam de rufe Spring awakening 33 spălări 1l","slug":"100092217-lenor-balsam-de-rufe-spring-awakening-33-spalari-1l","unitPriceLabel":"12,25 Lei/l","brand":"Lenor","brandCode":"673","brandFilterCode":"lenor-b674","sku":"100092217","price":12.25,"originalPrice":null,"currencyCode":"RON","currency":"Lei","image":{"thumbnail":{"default":"https://cdn.freshful.ro/media/cache/sylius_shop_product_thumbnail/fd/cc/b7a9e8038a0641c7370601e26e63.jpg"},"large":{"default":"https://cdn.freshful.ro/media/cache/freshful_large/fd/cc/b7a9e8038a0641c7370601e26e63.jpg"},"extralarge":{"default":"https://cdn.freshful.ro/media/cache/sylius_shop_product_original/fd/cc/b7a9e8038a0641c7370601e26e63.jpg"}},"label":null,"tags":[],"isAvailable":true,"maxAvailableQuantity":100,"maxAllowedQuantity":100,"breadcrumbs":[{"code":"13","name":"Detergenți & igienizare","slug":"13-detergent-si-igienizare"},{"code":"1301","name":"Spălare și întreținere rufe","slug":"1301-spalare-si-intretinere-rufe"},{"code":"130101","name":"Balsam de rufe","slug":"130101-balsam-rufe"},{"code":"100092217","name":"Balsam de rufe Spring awakening 33 spălări 1l","slug":"100092217-lenor-balsam-de-rufe-spring-awakening-33-spalari-1l"}],"activePromotion":null,"saveMe":null,"labels":[],"geniusPrice":null,"geniusUnitPricePerLabel":null,"banner":null,"discountLabel":null,"geniusDiscountLabel":null,"badge":null},{"code":"100129313","variantCode":"100129313","name":"Balsam bio pentru țesături 2l","slug":"100129313-sano-balsam-bio-pentru-tesaturi-2l","unitPriceLabel":"10,9 Lei/l","brand":"Sano","brandCode":"579","brandFilterCode":"sano-b580","sku":"100129313","price":21.79,"originalPrice":null,"currencyCode":"RON","currency":"Lei","image":{"thumbnail":{"default":"https://cdn.freshful.ro/media/cache/sylius_shop_product_thumbnail/8e/eb/c2acf1e46c3d374069db2f3d4259.jpg"},"large":{"default":"https://cdn.freshful.ro/media/cache/freshful_large/8e/eb/c2acf1e46c3d374069db2f3d4259.jpg"},"extralarge":{"default":"https://cdn.freshful.ro/media/cache/sylius_shop_product_original/8e/eb/c2acf1e46c3d374069db2f3d4259.jpg"}},"label":null,"tags":[{"type":"bio","text":"Bio","icon":"https://cdn.freshful.ro/assets/product_tags/bio.svg","iconPng":"https://cdn.freshful.ro/assets/product_tags/bio.png","backgroundColor":"#ECF6E9","textColor":"#399225"}],"isAvailable":true,"maxAvailableQuantity":93,"maxAllowedQuantity":100,"breadcrumbs":[{"code":"13","name":"Detergenți & igienizare","slug":"13-detergent-si-igienizare"},{"code":"1301","name":"Spălare și întreținere rufe","slug":"1301-spalare-si-intretinere-rufe"},{"code":"130101","name":"Balsam de rufe","slug":"130101-balsam-rufe"},{"code":"100129313","name":"Balsam bio pentru țesături 2l","slug":"100129313-sano-balsam-bio-pentru-tesaturi-2l"}],"activePromotion":null,"saveMe":null,"labels":[],"geniusPrice":null,"geniusUnitPricePerLabel":null,"banner":null,"discountLabel":null,"geniusDiscountLabel":null,"badge":null},{"code":"100129311","variantCode":"100129311","name":"Balsam pentru țesături Blue Blossom 50 spălări 1l","slug":"100129311-sano-balsam-pentru-tesaturi-blue-blossom-50-spalari-1l","unitPriceLabel":"17,99 Lei/l","brand":"Sano","brandCode":"579","brandFilterCode":"sano-b580","sku":"100129311","price":17.99,"originalPrice":null,"currencyCode":"RON","currency":"Lei","image":{"thumbnail":{"default":"https://cdn.freshful.ro/media/cache/sylius_shop_product_thumbnail/24/1e/8770d08fc6ab8dce885a91b3d5e0.jpg"},"large":{"default":"https://cdn.freshful.ro/media/cache/freshful_large/24/1e/8770d08fc6ab8dce885a91b3d5e0.jpg"},"extralarge":{"default":"https://cdn.freshful.ro/media/cache/sylius_shop_product_original/24/1e/8770d08fc6ab8dce885a91b3d5e0.jpg"}},"label":null,"tags":[],"isAvailable":true,"maxAvailableQuantity":100,"maxAllowedQuantity":100,"breadcrumbs":[{"code":"13","name":"Detergenți & igienizare","slug":"13-detergent-si-igienizare"},{"code":"1301","name":"Spălare și întreținere rufe","slug":"1301-spalare-si-intretinere-rufe"},{"code":"130101","name":"Balsam de rufe","slug":"130101-balsam-rufe"},{"code":"100129311","name":"Balsam pentru țesături Blue Blossom 50 spălări 1l","slug":"100129311-sano-balsam-pentru-tesaturi-blue-blossom-50-spalari-1l"}],"activePromotion":null,"saveMe":null,"labels":[],"geniusPrice":null,"geniusUnitPricePerLabel":null,"banner":null,"discountLabel":null,"geniusDiscountLabel":null,"badge":null}],"filters":{"countSelected":0,"items":[{"code":"promotion","name":"Promoții","countSelected":0,"values":[{"code":"oferte-dph-21feb-8mar23","name":"Curățenie și îngrijire personală","isSelected":false,"count":3},{"code":"superpreturile-saptamanii","name":"Superprețurile zilei","isSelected":false,"count":1}]},{"code":"brand","name":"Brand","countSelected":0,"values":[{"code":"burti-b364","name":"Burti","isSelected":false,"count":1},{"code":"chicco-b659","name":"Chicco","isSelected":false,"count":4},{"code":"coccolino-b758","name":"Coccolino","isSelected":false,"count":11},{"code":"evrika-b1185","name":"Evrika","isSelected":false,"count":3},{"code":"frosch-b316","name":"Frosch","isSelected":false,"count":3},{"code":"heitmann-b358","name":"Heitmann","isSelected":false,"count":2},{"code":"lenor-b674","name":"Lenor","isSelected":false,"count":15},{"code":"lovela-b623","name":"Lovela","isSelected":false,"count":1},{"code":"sano-b580","name":"Sano","isSelected":false,"count":17},{"code":"semana-b387","name":"Semana","isSelected":false,"count":10},{"code":"silan-b425","name":"Silan","isSelected":false,"count":8},{"code":"sonett-b1681","name":"Sonett","isSelected":false,"count":1},{"code":"tesori-d-oriente-b555","name":"Tesori d'Oriente","isSelected":false,"count":5}]},{"code":"diet_lifestyle","name":"Dietă și lifestyle","countSelected":0,"values":[{"code":"bio-a26","name":"Bio","isSelected":false,"count":4},{"code":"made-in-romania-a85","name":"Made In Romania","isSelected":false,"count":1},{"code":"vegan-a24","name":"Vegan","isSelected":false,"count":1}]}]},"orderBy":[{"field":"price","direction":"asc","name":"Preț crescător","isSelected":false},{"field":"price","direction":"desc","name":"Preț descrescător","isSelected":false},{"field":"popularity","direction":"desc","name":"Cele mai populare","isSelected":true},{"field":"category","direction":"asc","name":"Categorie","isSelected":false}],"metaTitle":"Balsam de rufe - Gamă variată","metaDescription":"Vrei Balsam de rufe? Alege dintr-o gamă variată. Comanzi simplu și ai livrare rapidă, calitate și prospețime. Hai pe Freshful.ro","metaKeywords":null,"banners":[]}}