{"type":"subcategory","payload":{"analyticsListId":"category_130106-detergent-capsule","analyticsListName":"Category - Detergent capsule","name":"Detergent capsule","slug":"130106-detergent-capsule","image":null,"breadcrumbs":[{"code":"13","name":"Detergenți & igienizare","slug":"13-detergent-si-igienizare"},{"code":"1301","name":"Spălare și întreținere rufe","slug":"1301-spalare-si-intretinere-rufe"},{"code":"130106","name":"Detergent capsule","slug":"130106-detergent-capsule"}],"slots":[],"page":1,"limit":10,"pages":5,"count":49,"siblings":[{"name":"Spălare și întreținere rufe","slug":"1301-spalare-si-intretinere-rufe","selected":true},{"name":"Curățenie și întreținerea casei","slug":"1302-igienizarea-casei","selected":false},{"name":"Hârtie igienică, șervețele și prosoape","slug":"1303-hartie-igienica-si-servetele","selected":false}],"children":[{"name":"Toate produsele","slug":"1301-spalare-si-intretinere-rufe","selected":false},{"name":"Balsam de rufe","slug":"130101-balsam-rufe","selected":false},{"name":"Înălbitor și soluții pentru pete","slug":"130102-inalbitor-si-soluti-pete","selected":false},{"name":"Anticalcar","slug":"130103-anticalcar","selected":false},{"name":"Detergent pudră","slug":"130104-detergenti-pudra","selected":false},{"name":"Detergent lichid","slug":"130105-detergent-lichid","selected":false},{"name":"Detergent capsule","slug":"130106-detergent-capsule","selected":true},{"name":"Accesorii pentru rufe","slug":"accesorii-pentru-rufe","selected":false}],"products":[{"code":"100031442","variantCode":"100031442","name":"Detergent de rufe capsule Renew & Care Color, 10 spălări","slug":"100031442-perwoll-detergent-de-rufe-capsule-renew-care-color-10-spalari","unitPriceLabel":"2,1 Lei/buc","brand":"Perwoll","brandCode":"423","brandFilterCode":"perwoll-b424","sku":"100031442","price":20.99,"originalPrice":25.89,"currencyCode":"RON","currency":"Lei","image":{"thumbnail":{"default":"https://cdn.freshful.ro/media/cache/sylius_shop_product_thumbnail/c9/e0/61b1413b587c80d064c433c24ef8.jpg"},"large":{"default":"https://cdn.freshful.ro/media/cache/freshful_large/c9/e0/61b1413b587c80d064c433c24ef8.jpg"},"extralarge":{"default":"https://cdn.freshful.ro/media/cache/sylius_shop_product_original/c9/e0/61b1413b587c80d064c433c24ef8.jpg"}},"label":{"text":"-18%","backgroundColor":"#FF9903","textColor":"#FFFFFF"},"tags":[],"isAvailable":true,"maxAvailableQuantity":10,"maxAllowedQuantity":100,"breadcrumbs":[{"code":"13","name":"Detergenți & igienizare","slug":"13-detergent-si-igienizare"},{"code":"1301","name":"Spălare și întreținere rufe","slug":"1301-spalare-si-intretinere-rufe"},{"code":"130106","name":"Detergent capsule","slug":"130106-detergent-capsule"},{"code":"100031442","name":"Detergent de rufe capsule Renew & Care Color, 10 spălări","slug":"100031442-perwoll-detergent-de-rufe-capsule-renew-care-color-10-spalari"}],"activePromotion":{"code":"oferte-dph-21feb-8mar23","name":"Preț redus","targetQuantity":null},"saveMe":null,"labels":[{"type":"v1","items":[{"text":"-18%","backgroundColor":"#FF9903","textColor":"#FFFFFF"}]}],"geniusPrice":null,"geniusUnitPricePerLabel":null,"banner":{"text":"Super preț","textColor":"#FF0000","bgColor":"#FFF2EC","icon":null,"link":"https://www.freshful.ro/oferte/oferte-dph-21feb-8mar23","type":"promo","analyticsEventType":"select_promotion","analyticsEventPayload":{"promotion_id":"oferte-dph-21feb-8mar23","promotion_name":"Curățenie și îngrijire personală"}},"discountLabel":"Economisești 18%","geniusDiscountLabel":null,"badge":null},{"code":"100031443","variantCode":"100031443","name":"Detergent de rufe capsule pentru haine negre Black, 10 spălări","slug":"100031443-perwoll-detergent-de-rufe-capsule-pentru-haine-negre-black-10-spalari","unitPriceLabel":"2,1 Lei/buc","brand":"Perwoll","brandCode":"423","brandFilterCode":"perwoll-b424","sku":"100031443","price":20.99,"originalPrice":25.99,"currencyCode":"RON","currency":"Lei","image":{"thumbnail":{"default":"https://cdn.freshful.ro/media/cache/sylius_shop_product_thumbnail/d5/37/666f0369ce569ce4d80b5bdcf4b7.jpg"},"large":{"default":"https://cdn.freshful.ro/media/cache/freshful_large/d5/37/666f0369ce569ce4d80b5bdcf4b7.jpg"},"extralarge":{"default":"https://cdn.freshful.ro/media/cache/sylius_shop_product_original/d5/37/666f0369ce569ce4d80b5bdcf4b7.jpg"}},"label":{"text":"-19%","backgroundColor":"#FF9903","textColor":"#FFFFFF"},"tags":[],"isAvailable":true,"maxAvailableQuantity":57,"maxAllowedQuantity":100,"breadcrumbs":[{"code":"13","name":"Detergenți & igienizare","slug":"13-detergent-si-igienizare"},{"code":"1301","name":"Spălare și întreținere rufe","slug":"1301-spalare-si-intretinere-rufe"},{"code":"130106","name":"Detergent capsule","slug":"130106-detergent-capsule"},{"code":"100031443","name":"Detergent de rufe capsule pentru haine negre Black, 10 spălări","slug":"100031443-perwoll-detergent-de-rufe-capsule-pentru-haine-negre-black-10-spalari"}],"activePromotion":{"code":"oferte-dph-21feb-8mar23","name":"Preț redus","targetQuantity":null},"saveMe":null,"labels":[{"type":"v1","items":[{"text":"-19%","backgroundColor":"#FF9903","textColor":"#FFFFFF"}]}],"geniusPrice":null,"geniusUnitPricePerLabel":null,"banner":{"text":"Super preț","textColor":"#FF0000","bgColor":"#FFF2EC","icon":null,"link":"https://www.freshful.ro/oferte/oferte-dph-21feb-8mar23","type":"promo","analyticsEventType":"select_promotion","analyticsEventPayload":{"promotion_id":"oferte-dph-21feb-8mar23","promotion_name":"Curățenie și îngrijire personală"}},"discountLabel":"Economisești 19%","geniusDiscountLabel":null,"badge":null},{"code":"100031430","variantCode":"100031430","name":"Detergent de rufe capsule, 26 spălări","slug":"100031430-persil-detergent-de-rufe-capsule-26-spalari","unitPriceLabel":"1,77 Lei/buc","brand":"Persil","brandCode":"422","brandFilterCode":"persil-b423","sku":"100031430","price":45.99,"originalPrice":50.9,"currencyCode":"RON","currency":"Lei","image":{"thumbnail":{"default":"https://cdn.freshful.ro/media/cache/sylius_shop_product_thumbnail/06/70/48a24b8a12b53ba57cb3e0b141f1.jpg"},"large":{"default":"https://cdn.freshful.ro/media/cache/freshful_large/06/70/48a24b8a12b53ba57cb3e0b141f1.jpg"},"extralarge":{"default":"https://cdn.freshful.ro/media/cache/sylius_shop_product_original/06/70/48a24b8a12b53ba57cb3e0b141f1.jpg"}},"label":{"text":"-9%","backgroundColor":"#FF9903","textColor":"#FFFFFF"},"tags":[],"isAvailable":true,"maxAvailableQuantity":100,"maxAllowedQuantity":100,"breadcrumbs":[{"code":"13","name":"Detergenți & igienizare","slug":"13-detergent-si-igienizare"},{"code":"1301","name":"Spălare și întreținere rufe","slug":"1301-spalare-si-intretinere-rufe"},{"code":"130106","name":"Detergent capsule","slug":"130106-detergent-capsule"},{"code":"100031430","name":"Detergent de rufe capsule, 26 spălări","slug":"100031430-persil-detergent-de-rufe-capsule-26-spalari"}],"activePromotion":{"code":"oferte-dph-21feb-8mar23","name":"Preț redus","targetQuantity":null},"saveMe":null,"labels":[{"type":"v1","items":[{"text":"-9%","backgroundColor":"#FF9903","textColor":"#FFFFFF"}]}],"geniusPrice":null,"geniusUnitPricePerLabel":null,"banner":{"text":"Super preț","textColor":"#FF0000","bgColor":"#FFF2EC","icon":null,"link":"https://www.freshful.ro/oferte/oferte-dph-21feb-8mar23","type":"promo","analyticsEventType":"select_promotion","analyticsEventPayload":{"promotion_id":"oferte-dph-21feb-8mar23","promotion_name":"Curățenie și îngrijire personală"}},"discountLabel":"Economisești 9%","geniusDiscountLabel":null,"badge":null},{"code":"100041286","variantCode":"100041286","name":"Detergent de rufe capsule Deep Clean Activ Fresh, 22 spălări","slug":"100041286-persil-detergent-de-rufe-capsule-deep-clean-activ-fresh-22-spalari","unitPriceLabel":"2,09 Lei/buc","brand":"Persil","brandCode":"422","brandFilterCode":"persil-b423","sku":"100041286","price":45.99,"originalPrice":54.99,"currencyCode":"RON","currency":"Lei","image":{"thumbnail":{"default":"https://cdn.freshful.ro/media/cache/sylius_shop_product_thumbnail/90/f1/84e79793bff2a8e5c59ac1db3bec.jpg"},"large":{"default":"https://cdn.freshful.ro/media/cache/freshful_large/90/f1/84e79793bff2a8e5c59ac1db3bec.jpg"},"extralarge":{"default":"https://cdn.freshful.ro/media/cache/sylius_shop_product_original/90/f1/84e79793bff2a8e5c59ac1db3bec.jpg"}},"label":{"text":"-16%","backgroundColor":"#FF9903","textColor":"#FFFFFF"},"tags":[],"isAvailable":true,"maxAvailableQuantity":12,"maxAllowedQuantity":100,"breadcrumbs":[{"code":"13","name":"Detergenți & igienizare","slug":"13-detergent-si-igienizare"},{"code":"1301","name":"Spălare și întreținere rufe","slug":"1301-spalare-si-intretinere-rufe"},{"code":"130106","name":"Detergent capsule","slug":"130106-detergent-capsule"},{"code":"100041286","name":"Detergent de rufe capsule Deep Clean Activ Fresh, 22 spălări","slug":"100041286-persil-detergent-de-rufe-capsule-deep-clean-activ-fresh-22-spalari"}],"activePromotion":{"code":"oferte-dph-21feb-8mar23","name":"Preț redus","targetQuantity":null},"saveMe":null,"labels":[{"type":"v1","items":[{"text":"-16%","backgroundColor":"#FF9903","textColor":"#FFFFFF"}]}],"geniusPrice":null,"geniusUnitPricePerLabel":null,"banner":{"text":"Super preț","textColor":"#FF0000","bgColor":"#FFF2EC","icon":null,"link":"https://www.freshful.ro/oferte/oferte-dph-21feb-8mar23","type":"promo","analyticsEventType":"select_promotion","analyticsEventPayload":{"promotion_id":"oferte-dph-21feb-8mar23","promotion_name":"Curățenie și îngrijire personală"}},"discountLabel":"Economisești 16%","geniusDiscountLabel":null,"badge":null},{"code":"100142135","variantCode":"100142135","name":"Detergent de rufe capsule universal, 52 spălări","slug":"100142135-persil-detergent-de-rufe-capsule-universal-52-spalari","unitPriceLabel":"1,68 Lei/buc","brand":"Persil","brandCode":"422","brandFilterCode":"persil-b423","sku":"100142135","price":87.2,"originalPrice":null,"currencyCode":"RON","currency":"Lei","image":{"thumbnail":{"default":"https://cdn.freshful.ro/media/cache/sylius_shop_product_thumbnail/cf/73/ceb96f94ba9840105272be94de2c.jpg"},"large":{"default":"https://cdn.freshful.ro/media/cache/freshful_large/cf/73/ceb96f94ba9840105272be94de2c.jpg"},"extralarge":{"default":"https://cdn.freshful.ro/media/cache/sylius_shop_product_original/cf/73/ceb96f94ba9840105272be94de2c.jpg"}},"label":{"text":"Profită acum","backgroundColor":"#FF9903","textColor":"#FFFFFF"},"tags":[],"isAvailable":true,"maxAvailableQuantity":12,"maxAllowedQuantity":100,"breadcrumbs":[{"code":"13","name":"Detergenți & igienizare","slug":"13-detergent-si-igienizare"},{"code":"1301","name":"Spălare și întreținere rufe","slug":"1301-spalare-si-intretinere-rufe"},{"code":"130106","name":"Detergent capsule","slug":"130106-detergent-capsule"},{"code":"100142135","name":"Detergent de rufe capsule universal, 52 spălări","slug":"100142135-persil-detergent-de-rufe-capsule-universal-52-spalari"}],"activePromotion":{"code":"freshful-top-deals-2023","name":"Preț avantajos","targetQuantity":null},"saveMe":null,"labels":[{"type":"v1","items":[{"text":"Profită acum","backgroundColor":"#FF9903","textColor":"#FFFFFF"}]}],"geniusPrice":null,"geniusUnitPricePerLabel":null,"banner":{"text":"Preț avantajos","textColor":"#F95510","bgColor":"#FEF1CD","icon":null,"link":"https://www.freshful.ro/oferte/freshful-top-deals-2023","type":"promo","analyticsEventType":"select_promotion","analyticsEventPayload":{"promotion_id":"freshful-top-deals-2023","promotion_name":"Profită de Top Deals"}},"discountLabel":null,"geniusDiscountLabel":null,"badge":null},{"code":"100062288","variantCode":"100062288","name":"Detergent de rufe capsule Trio iris alb, 15 spălări","slug":"100062288-dero-detergent-de-rufe-capsule-trio-iris-alb-15-spalari","unitPriceLabel":"1,73 Lei/buc","brand":"Dero","brandCode":"758","brandFilterCode":"dero-b759","sku":"100062288","price":25.99,"originalPrice":31.5,"currencyCode":"RON","currency":"Lei","image":{"thumbnail":{"default":"https://cdn.freshful.ro/media/cache/sylius_shop_product_thumbnail/45/00/e505b747b5f3697404c6e9fc18d5.jpg"},"large":{"default":"https://cdn.freshful.ro/media/cache/freshful_large/45/00/e505b747b5f3697404c6e9fc18d5.jpg"},"extralarge":{"default":"https://cdn.freshful.ro/media/cache/sylius_shop_product_original/45/00/e505b747b5f3697404c6e9fc18d5.jpg"}},"label":{"text":"-17%","backgroundColor":"#FF9903","textColor":"#FFFFFF"},"tags":[],"isAvailable":true,"maxAvailableQuantity":24,"maxAllowedQuantity":100,"breadcrumbs":[{"code":"13","name":"Detergenți & igienizare","slug":"13-detergent-si-igienizare"},{"code":"1301","name":"Spălare și întreținere rufe","slug":"1301-spalare-si-intretinere-rufe"},{"code":"130106","name":"Detergent capsule","slug":"130106-detergent-capsule"},{"code":"100062288","name":"Detergent de rufe capsule Trio iris alb, 15 spălări","slug":"100062288-dero-detergent-de-rufe-capsule-trio-iris-alb-15-spalari"}],"activePromotion":{"code":"oferte-dph-21feb-8mar23","name":"Preț redus","targetQuantity":null},"saveMe":null,"labels":[{"type":"v1","items":[{"text":"-17%","backgroundColor":"#FF9903","textColor":"#FFFFFF"}]}],"geniusPrice":null,"geniusUnitPricePerLabel":null,"banner":{"text":"Super preț","textColor":"#FF0000","bgColor":"#FFF2EC","icon":null,"link":"https://www.freshful.ro/oferte/oferte-dph-21feb-8mar23","type":"promo","analyticsEventType":"select_promotion","analyticsEventPayload":{"promotion_id":"oferte-dph-21feb-8mar23","promotion_name":"Curățenie și îngrijire personală"}},"discountLabel":"Economisești 17%","geniusDiscountLabel":null,"badge":null},{"code":"100139856","variantCode":"9000101512076","name":"Detergent de rufe capsule concentrat pentru haine colorate, 26 spălări","slug":"100139856-persil-detergent-de-rufe-capsule-concentrat-pentru-haine-colorate-26-spalari","unitPriceLabel":"1,77 Lei/buc","brand":"Persil","brandCode":"422","brandFilterCode":"persil-b423","sku":"100139856","price":45.99,"originalPrice":59.99,"currencyCode":"RON","currency":"Lei","image":{"thumbnail":{"default":"https://cdn.freshful.ro/media/cache/sylius_shop_product_thumbnail/c3/d6/fe0f651ea1c088f93ae721ec395d.jpg"},"large":{"default":"https://cdn.freshful.ro/media/cache/freshful_large/c3/d6/fe0f651ea1c088f93ae721ec395d.jpg"},"extralarge":{"default":"https://cdn.freshful.ro/media/cache/sylius_shop_product_original/c3/d6/fe0f651ea1c088f93ae721ec395d.jpg"}},"label":{"text":"-23%","backgroundColor":"#FF9903","textColor":"#FFFFFF"},"tags":[],"isAvailable":true,"maxAvailableQuantity":100,"maxAllowedQuantity":100,"breadcrumbs":[{"code":"13","name":"Detergenți & igienizare","slug":"13-detergent-si-igienizare"},{"code":"1301","name":"Spălare și întreținere rufe","slug":"1301-spalare-si-intretinere-rufe"},{"code":"130106","name":"Detergent capsule","slug":"130106-detergent-capsule"},{"code":"100139856","name":"Detergent de rufe capsule concentrat pentru haine colorate, 26 spălări","slug":"100139856-persil-detergent-de-rufe-capsule-concentrat-pentru-haine-colorate-26-spalari"}],"activePromotion":{"code":"oferte-dph-21feb-8mar23","name":"Preț redus","targetQuantity":null},"saveMe":null,"labels":[{"type":"v1","items":[{"text":"-23%","backgroundColor":"#FF9903","textColor":"#FFFFFF"}]}],"geniusPrice":null,"geniusUnitPricePerLabel":null,"banner":{"text":"Super preț","textColor":"#FF0000","bgColor":"#FFF2EC","icon":null,"link":"https://www.freshful.ro/oferte/oferte-dph-21feb-8mar23","type":"promo","analyticsEventType":"select_promotion","analyticsEventPayload":{"promotion_id":"oferte-dph-21feb-8mar23","promotion_name":"Curățenie și îngrijire personală"}},"discountLabel":"Economisești 23%","geniusDiscountLabel":null,"badge":null},{"code":"100031431","variantCode":"9000101372878","name":"Detergent de rufe capsule 4în1 Deep Clean, 22 spălări","slug":"100031431-persil-detergent-de-rufe-capsule-4in1-deep-clean-22-spalari","unitPriceLabel":"2,09 Lei/buc","brand":"Persil","brandCode":"422","brandFilterCode":"persil-b423","sku":"100031431","price":45.99,"originalPrice":59.99,"currencyCode":"RON","currency":"Lei","image":{"thumbnail":{"default":"https://cdn.freshful.ro/media/cache/sylius_shop_product_thumbnail/bb/2d/12ec86c711d87e78356aebeac926.jpg"},"large":{"default":"https://cdn.freshful.ro/media/cache/freshful_large/bb/2d/12ec86c711d87e78356aebeac926.jpg"},"extralarge":{"default":"https://cdn.freshful.ro/media/cache/sylius_shop_product_original/bb/2d/12ec86c711d87e78356aebeac926.jpg"}},"label":{"text":"-23%","backgroundColor":"#FF9903","textColor":"#FFFFFF"},"tags":[],"isAvailable":true,"maxAvailableQuantity":26,"maxAllowedQuantity":100,"breadcrumbs":[{"code":"13","name":"Detergenți & igienizare","slug":"13-detergent-si-igienizare"},{"code":"1301","name":"Spălare și întreținere rufe","slug":"1301-spalare-si-intretinere-rufe"},{"code":"130106","name":"Detergent capsule","slug":"130106-detergent-capsule"},{"code":"100031431","name":"Detergent de rufe capsule 4în1 Deep Clean, 22 spălări","slug":"100031431-persil-detergent-de-rufe-capsule-4in1-deep-clean-22-spalari"}],"activePromotion":{"code":"oferte-dph-21feb-8mar23","name":"Preț redus","targetQuantity":null},"saveMe":null,"labels":[{"type":"v1","items":[{"text":"-23%","backgroundColor":"#FF9903","textColor":"#FFFFFF"}]}],"geniusPrice":null,"geniusUnitPricePerLabel":null,"banner":{"text":"Super preț","textColor":"#FF0000","bgColor":"#FFF2EC","icon":null,"link":"https://www.freshful.ro/oferte/oferte-dph-21feb-8mar23","type":"promo","analyticsEventType":"select_promotion","analyticsEventPayload":{"promotion_id":"oferte-dph-21feb-8mar23","promotion_name":"Curățenie și îngrijire personală"}},"discountLabel":"Economisești 23%","geniusDiscountLabel":null,"badge":null},{"code":"100061970","variantCode":"100061970","name":"Detergent de rufe capsule Trio, 35 spălări","slug":"100061970-dero-detergent-de-rufe-capsule-trio-35-spalari","unitPriceLabel":"1,51 Lei/buc","brand":"Dero","brandCode":"758","brandFilterCode":"dero-b759","sku":"100061970","price":52.9,"originalPrice":null,"currencyCode":"RON","currency":"Lei","image":{"thumbnail":{"default":"https://cdn.freshful.ro/media/cache/sylius_shop_product_thumbnail/d0/a0/f073b15dee3f5422089451afdfa8.jpg"},"large":{"default":"https://cdn.freshful.ro/media/cache/freshful_large/d0/a0/f073b15dee3f5422089451afdfa8.jpg"},"extralarge":{"default":"https://cdn.freshful.ro/media/cache/sylius_shop_product_original/d0/a0/f073b15dee3f5422089451afdfa8.jpg"}},"label":{"text":"Profită acum","backgroundColor":"#FF9903","textColor":"#FFFFFF"},"tags":[],"isAvailable":true,"maxAvailableQuantity":16,"maxAllowedQuantity":100,"breadcrumbs":[{"code":"13","name":"Detergenți & igienizare","slug":"13-detergent-si-igienizare"},{"code":"1301","name":"Spălare și întreținere rufe","slug":"1301-spalare-si-intretinere-rufe"},{"code":"130106","name":"Detergent capsule","slug":"130106-detergent-capsule"},{"code":"100061970","name":"Detergent de rufe capsule Trio, 35 spălări","slug":"100061970-dero-detergent-de-rufe-capsule-trio-35-spalari"}],"activePromotion":{"code":"freshful-top-deals-2023","name":"Preț avantajos","targetQuantity":null},"saveMe":null,"labels":[{"type":"v1","items":[{"text":"Profită acum","backgroundColor":"#FF9903","textColor":"#FFFFFF"}]}],"geniusPrice":null,"geniusUnitPricePerLabel":null,"banner":{"text":"Preț avantajos","textColor":"#F95510","bgColor":"#FEF1CD","icon":null,"link":"https://www.freshful.ro/oferte/freshful-top-deals-2023","type":"promo","analyticsEventType":"select_promotion","analyticsEventPayload":{"promotion_id":"freshful-top-deals-2023","promotion_name":"Profită de Top Deals"}},"discountLabel":null,"geniusDiscountLabel":null,"badge":null},{"code":"100144710","variantCode":"100144710","name":"Detergent de rufe capsule All in One Pods Mountain Spring, 100 spălări","slug":"100144710-ariel-detergent-de-rufe-capsule-all-in-one-pods-mountain-spring-100-spalari","unitPriceLabel":"1,76 Lei/buc","brand":"Ariel","brandCode":"672","brandFilterCode":"ariel-b673","sku":"100144710","price":175.99,"originalPrice":null,"currencyCode":"RON","currency":"Lei","image":{"thumbnail":{"default":"https://cdn.freshful.ro/media/cache/sylius_shop_product_thumbnail/fb/d5/44d7508328566339b2ab90a27020.jpg"},"large":{"default":"https://cdn.freshful.ro/media/cache/freshful_large/fb/d5/44d7508328566339b2ab90a27020.jpg"},"extralarge":{"default":"https://cdn.freshful.ro/media/cache/sylius_shop_product_original/fb/d5/44d7508328566339b2ab90a27020.jpg"}},"label":null,"tags":[],"isAvailable":true,"maxAvailableQuantity":100,"maxAllowedQuantity":100,"breadcrumbs":[{"code":"13","name":"Detergenți & igienizare","slug":"13-detergent-si-igienizare"},{"code":"1301","name":"Spălare și întreținere rufe","slug":"1301-spalare-si-intretinere-rufe"},{"code":"130106","name":"Detergent capsule","slug":"130106-detergent-capsule"},{"code":"100144710","name":"Detergent de rufe capsule All in One Pods Mountain Spring, 100 spălări","slug":"100144710-ariel-detergent-de-rufe-capsule-all-in-one-pods-mountain-spring-100-spalari"}],"activePromotion":null,"saveMe":null,"labels":[],"geniusPrice":null,"geniusUnitPricePerLabel":null,"banner":null,"discountLabel":null,"geniusDiscountLabel":null,"badge":null}],"filters":{"countSelected":0,"items":[{"code":"promotion","name":"Promoții","countSelected":0,"values":[{"code":"oferte-dph-21feb-8mar23","name":"Curățenie și îngrijire personală","isSelected":false,"count":8},{"code":"freshful-top-deals-2023","name":"Profită de Top Deals","isSelected":false,"count":2}]},{"code":"brand","name":"Brand","countSelected":0,"values":[{"code":"ariel-b673","name":"Ariel","isSelected":false,"count":17},{"code":"chicco-b659","name":"Chicco","isSelected":false,"count":1},{"code":"dero-b759","name":"Dero","isSelected":false,"count":5},{"code":"lovela-b623","name":"Lovela","isSelected":false,"count":2},{"code":"omo-b760","name":"Omo","isSelected":false,"count":2},{"code":"persil-b423","name":"Persil","isSelected":false,"count":14},{"code":"perwoll-b424","name":"Perwoll","isSelected":false,"count":4},{"code":"savex-b388","name":"Savex","isSelected":false,"count":2},{"code":"tide-b675","name":"Tide","isSelected":false,"count":2}]}]},"orderBy":[{"field":"price","direction":"asc","name":"Preț crescător","isSelected":false},{"field":"price","direction":"desc","name":"Preț descrescător","isSelected":false},{"field":"popularity","direction":"desc","name":"Cele mai populare","isSelected":true},{"field":"category","direction":"asc","name":"Categorie","isSelected":false}],"metaTitle":"Detergent capsule - Gamă variată","metaDescription":"Vrei Detergent capsule? Alege dintr-o gamă variată. Comanzi simplu și ai livrare rapidă, calitate și prospețime. Hai pe Freshful.ro","metaKeywords":null,"banners":[]}}