{"type":"subcategory","payload":{"analyticsListId":"category_130201-detergent-vase","analyticsListName":"Category - Detergent de vase","name":"Detergent de vase","slug":"130201-detergent-vase","image":null,"breadcrumbs":[{"code":"13","name":"Detergenți & igienizare","slug":"13-detergent-si-igienizare"},{"code":"1302","name":"Curățenie și întreținerea casei","slug":"1302-igienizarea-casei"},{"code":"130201","name":"Detergent de vase","slug":"130201-detergent-vase"}],"slots":[],"page":1,"limit":10,"pages":9,"count":85,"siblings":[{"name":"Spălare și întreținere rufe","slug":"1301-spalare-si-intretinere-rufe","selected":false},{"name":"Curățenie și întreținerea casei","slug":"1302-igienizarea-casei","selected":true},{"name":"Hârtie igienică, șervețele și prosoape","slug":"1303-hartie-igienica-si-servetele","selected":false}],"children":[{"name":"Toate produsele","slug":"1302-igienizarea-casei","selected":false},{"name":"Detergent de vase","slug":"130201-detergent-vase","selected":true},{"name":"Cremă de pantofi","slug":"130202-crema-de-pantofi","selected":false},{"name":"Insecticide","slug":"130203-insecticide","selected":false},{"name":"Soluții de curățat","slug":"130204-solutii-de-curatat","selected":false},{"name":"Bureți și lavete","slug":"130205-burete-si-lavete","selected":false},{"name":"Hârtie de copt, folii și pungi alimentare","slug":"130207-folie-si-pungi-alimentar-hartie-de-copt","selected":false},{"name":"Saci de gunoi","slug":"130208-saci-pentru-gunoi","selected":false},{"name":"Odorizante pentru casă","slug":"130209-odorizant-casa","selected":false},{"name":"Produse pentru baie","slug":"130210-produse-pentru-baie","selected":false},{"name":"Produse pentru bucătărie","slug":"130211-produse-pentru-bucatarie","selected":false},{"name":"Accesorii pentru curățenie","slug":"accesorii-pentru-curatenie","selected":false}],"products":[{"code":"100092428","variantCode":"100092428","name":"Detergent de vase măr 1300ml","slug":"100092428-fairy-detergent-de-vase-mar-1300ml","unitPriceLabel":"11,53 Lei/l","brand":"Fairy","brandCode":"676","brandFilterCode":"fairy-b677","sku":"100092428","price":14.99,"originalPrice":21.99,"currencyCode":"RON","currency":"Lei","image":{"thumbnail":{"default":"https://cdn.freshful.ro/media/cache/sylius_shop_product_thumbnail/eb/b1/d783a7c5e3d02d213ba0e421d84a.jpg"},"large":{"default":"https://cdn.freshful.ro/media/cache/freshful_large/eb/b1/d783a7c5e3d02d213ba0e421d84a.jpg"},"extralarge":{"default":"https://cdn.freshful.ro/media/cache/sylius_shop_product_original/eb/b1/d783a7c5e3d02d213ba0e421d84a.jpg"}},"label":{"text":"-31%","backgroundColor":"#FF9903","textColor":"#FFFFFF"},"tags":[],"isAvailable":true,"maxAvailableQuantity":100,"maxAllowedQuantity":100,"breadcrumbs":[{"code":"13","name":"Detergenți & igienizare","slug":"13-detergent-si-igienizare"},{"code":"1302","name":"Curățenie și întreținerea casei","slug":"1302-igienizarea-casei"},{"code":"130201","name":"Detergent de vase","slug":"130201-detergent-vase"},{"code":"100092428","name":"Detergent de vase măr 1300ml","slug":"100092428-fairy-detergent-de-vase-mar-1300ml"}],"activePromotion":{"code":"superpreturile-saptamanii","name":"Preț redus","targetQuantity":null},"saveMe":null,"labels":[{"type":"v1","items":[{"text":"-31%","backgroundColor":"#FF9903","textColor":"#FFFFFF"}]}],"geniusPrice":null,"geniusUnitPricePerLabel":null,"banner":{"text":"Super preț","textColor":"#FF0000","bgColor":"#FFF2EC","icon":null,"link":"https://www.freshful.ro/oferte/superpreturile-saptamanii","type":"promo","analyticsEventType":"select_promotion","analyticsEventPayload":{"promotion_id":"superpreturile-saptamanii","promotion_name":"Superprețurile zilei"}},"discountLabel":"Economisești 31%","geniusDiscountLabel":null,"badge":null},{"code":"100060779","variantCode":"100060779","name":"Detergent de vase ecologic Green Lemon 750ml","slug":"100060779-frosch-detergent-de-vase-ecologic-green-lemon-750ml","unitPriceLabel":"16,67 Lei/l","brand":"Frosch","brandCode":"315","brandFilterCode":"frosch-b316","sku":"100060779","price":12.5,"originalPrice":null,"currencyCode":"RON","currency":"Lei","image":{"thumbnail":{"default":"https://cdn.freshful.ro/media/cache/sylius_shop_product_thumbnail/9b/2a/1970eeaf7889eeaab1fafe755408.jpg"},"large":{"default":"https://cdn.freshful.ro/media/cache/freshful_large/9b/2a/1970eeaf7889eeaab1fafe755408.jpg"},"extralarge":{"default":"https://cdn.freshful.ro/media/cache/sylius_shop_product_original/9b/2a/1970eeaf7889eeaab1fafe755408.jpg"}},"label":{"text":"-20% cu Genius","backgroundColor":"#FEF3FA","textColor":"#CD015F"},"tags":[{"type":"bio","text":"Bio","icon":"https://cdn.freshful.ro/assets/product_tags/bio.svg","iconPng":"https://cdn.freshful.ro/assets/product_tags/bio.png","backgroundColor":"#ECF6E9","textColor":"#399225"}],"isAvailable":true,"maxAvailableQuantity":100,"maxAllowedQuantity":100,"breadcrumbs":[{"code":"13","name":"Detergenți & igienizare","slug":"13-detergent-si-igienizare"},{"code":"1302","name":"Curățenie și întreținerea casei","slug":"1302-igienizarea-casei"},{"code":"130201","name":"Detergent de vase","slug":"130201-detergent-vase"},{"code":"100060779","name":"Detergent de vase ecologic Green Lemon 750ml","slug":"100060779-frosch-detergent-de-vase-ecologic-green-lemon-750ml"}],"activePromotion":null,"saveMe":null,"labels":[{"type":"gdeals","items":[{"text":"","backgroundColor":"","textColor":""}]},{"type":"v3","items":[{"text":"-20% cu Genius","backgroundColor":"#FEF3FA","textColor":"#CD015F"}]}],"geniusPrice":10,"geniusUnitPricePerLabel":"13,33 Lei/l","banner":null,"discountLabel":null,"geniusDiscountLabel":"Economisești 20%","badge":null},{"code":"100031367","variantCode":"90005657","name":"Detergent de vase aromă mere verzi 450ml","slug":"100031367-pur-detergent-de-vase-aroma-mere-verzi-450ml","unitPriceLabel":"13,31 Lei/l","brand":"Pur","brandCode":"418","brandFilterCode":"pur-b419","sku":"100031367","price":5.99,"originalPrice":6.59,"currencyCode":"RON","currency":"Lei","image":{"thumbnail":{"default":"https://cdn.freshful.ro/media/cache/sylius_shop_product_thumbnail/11/17/b7904b9af6ef86c3ede2d7b1c6c7.jpg"},"large":{"default":"https://cdn.freshful.ro/media/cache/freshful_large/11/17/b7904b9af6ef86c3ede2d7b1c6c7.jpg"},"extralarge":{"default":"https://cdn.freshful.ro/media/cache/sylius_shop_product_original/11/17/b7904b9af6ef86c3ede2d7b1c6c7.jpg"}},"label":{"text":"-9%","backgroundColor":"#FF9903","textColor":"#FFFFFF"},"tags":[],"isAvailable":true,"maxAvailableQuantity":22,"maxAllowedQuantity":100,"breadcrumbs":[{"code":"13","name":"Detergenți & igienizare","slug":"13-detergent-si-igienizare"},{"code":"1302","name":"Curățenie și întreținerea casei","slug":"1302-igienizarea-casei"},{"code":"130201","name":"Detergent de vase","slug":"130201-detergent-vase"},{"code":"100031367","name":"Detergent de vase aromă mere verzi 450ml","slug":"100031367-pur-detergent-de-vase-aroma-mere-verzi-450ml"}],"activePromotion":{"code":"oferte-dph-21feb-8mar23","name":"Preț redus","targetQuantity":null},"saveMe":null,"labels":[{"type":"v1","items":[{"text":"-9%","backgroundColor":"#FF9903","textColor":"#FFFFFF"}]}],"geniusPrice":null,"geniusUnitPricePerLabel":null,"banner":{"text":"Super preț","textColor":"#FF0000","bgColor":"#FFF2EC","icon":null,"link":"https://www.freshful.ro/oferte/oferte-dph-21feb-8mar23","type":"promo","analyticsEventType":"select_promotion","analyticsEventPayload":{"promotion_id":"oferte-dph-21feb-8mar23","promotion_name":"Curățenie și îngrijire personală"}},"discountLabel":"Economisești 9%","geniusDiscountLabel":null,"badge":null},{"code":"100059054","variantCode":"100059054","name":"Sare specială pentru mașina de spălat vase 1.5kg","slug":"100059054-finish-sare-speciala-pentru-masina-de-spalat-vase-1-5kg","unitPriceLabel":"7,9 Lei/kg","brand":"Finish","brandCode":"624","brandFilterCode":"finish-b625","sku":"100059054","price":11.85,"originalPrice":null,"currencyCode":"RON","currency":"Lei","image":{"thumbnail":{"default":"https://cdn.freshful.ro/media/cache/sylius_shop_product_thumbnail/38/78/bb9877d69133d5c86dc1c7371b0c.jpg"},"large":{"default":"https://cdn.freshful.ro/media/cache/freshful_large/38/78/bb9877d69133d5c86dc1c7371b0c.jpg"},"extralarge":{"default":"https://cdn.freshful.ro/media/cache/sylius_shop_product_original/38/78/bb9877d69133d5c86dc1c7371b0c.jpg"}},"label":null,"tags":[],"isAvailable":true,"maxAvailableQuantity":100,"maxAllowedQuantity":100,"breadcrumbs":[{"code":"13","name":"Detergenți & igienizare","slug":"13-detergent-si-igienizare"},{"code":"1302","name":"Curățenie și întreținerea casei","slug":"1302-igienizarea-casei"},{"code":"130201","name":"Detergent de vase","slug":"130201-detergent-vase"},{"code":"100059054","name":"Sare specială pentru mașina de spălat vase 1.5kg","slug":"100059054-finish-sare-speciala-pentru-masina-de-spalat-vase-1-5kg"}],"activePromotion":null,"saveMe":null,"labels":[],"geniusPrice":null,"geniusUnitPricePerLabel":null,"banner":null,"discountLabel":null,"geniusDiscountLabel":null,"badge":null},{"code":"100092412","variantCode":"100092412","name":"Detergent de vase rodie 450ml","slug":"100092412-fairy-detergent-de-vase-rodie-450ml","unitPriceLabel":"16,53 Lei/l","brand":"Fairy","brandCode":"676","brandFilterCode":"fairy-b677","sku":"100092412","price":7.44,"originalPrice":null,"currencyCode":"RON","currency":"Lei","image":{"thumbnail":{"default":"https://cdn.freshful.ro/media/cache/sylius_shop_product_thumbnail/53/ca/f0427c35cb761d0c83c4d372d60e.jpg"},"large":{"default":"https://cdn.freshful.ro/media/cache/freshful_large/53/ca/f0427c35cb761d0c83c4d372d60e.jpg"},"extralarge":{"default":"https://cdn.freshful.ro/media/cache/sylius_shop_product_original/53/ca/f0427c35cb761d0c83c4d372d60e.jpg"}},"label":null,"tags":[],"isAvailable":true,"maxAvailableQuantity":100,"maxAllowedQuantity":100,"breadcrumbs":[{"code":"13","name":"Detergenți & igienizare","slug":"13-detergent-si-igienizare"},{"code":"1302","name":"Curățenie și întreținerea casei","slug":"1302-igienizarea-casei"},{"code":"130201","name":"Detergent de vase","slug":"130201-detergent-vase"},{"code":"100092412","name":"Detergent de vase rodie 450ml","slug":"100092412-fairy-detergent-de-vase-rodie-450ml"}],"activePromotion":null,"saveMe":null,"labels":[],"geniusPrice":null,"geniusUnitPricePerLabel":null,"banner":null,"discountLabel":null,"geniusDiscountLabel":null,"badge":null},{"code":"100059049","variantCode":"100059049","name":"Detergent pentru mașina de spălat vase Power 40 tablete","slug":"100059049-finish-detergent-pentru-masina-de-spalat-vase-power-40-tablete","unitPriceLabel":"1,71 Lei/buc","brand":"Finish","brandCode":"624","brandFilterCode":"finish-b625","sku":"100059049","price":68.58,"originalPrice":null,"currencyCode":"RON","currency":"Lei","image":{"thumbnail":{"default":"https://cdn.freshful.ro/media/cache/sylius_shop_product_thumbnail/b7/a0/3e7a3cf0bf108fe12b660692d057.jpg"},"large":{"default":"https://cdn.freshful.ro/media/cache/freshful_large/b7/a0/3e7a3cf0bf108fe12b660692d057.jpg"},"extralarge":{"default":"https://cdn.freshful.ro/media/cache/sylius_shop_product_original/b7/a0/3e7a3cf0bf108fe12b660692d057.jpg"}},"label":null,"tags":[],"isAvailable":true,"maxAvailableQuantity":100,"maxAllowedQuantity":100,"breadcrumbs":[{"code":"13","name":"Detergenți & igienizare","slug":"13-detergent-si-igienizare"},{"code":"1302","name":"Curățenie și întreținerea casei","slug":"1302-igienizarea-casei"},{"code":"130201","name":"Detergent de vase","slug":"130201-detergent-vase"},{"code":"100059049","name":"Detergent pentru mașina de spălat vase Power 40 tablete","slug":"100059049-finish-detergent-pentru-masina-de-spalat-vase-power-40-tablete"}],"activePromotion":null,"saveMe":null,"labels":[],"geniusPrice":null,"geniusUnitPricePerLabel":null,"banner":null,"discountLabel":null,"geniusDiscountLabel":null,"badge":null},{"code":"100134667","variantCode":"100134667","name":"Detergent vase Spark cu parfum de castravete și lămâie 700ml ","slug":"100134667-sano-detergent-vase-spark-cu-parfum-de-castravete-si-lamaie-700ml","unitPriceLabel":"16,13 Lei/l","brand":"Sano","brandCode":"579","brandFilterCode":"sano-b580","sku":"100134667","price":11.29,"originalPrice":null,"currencyCode":"RON","currency":"Lei","image":{"thumbnail":{"default":"https://cdn.freshful.ro/media/cache/sylius_shop_product_thumbnail/3d/98/9ca9f39c9ed5def8fd66262492c8.jpg"},"large":{"default":"https://cdn.freshful.ro/media/cache/freshful_large/3d/98/9ca9f39c9ed5def8fd66262492c8.jpg"},"extralarge":{"default":"https://cdn.freshful.ro/media/cache/sylius_shop_product_original/3d/98/9ca9f39c9ed5def8fd66262492c8.jpg"}},"label":null,"tags":[],"isAvailable":true,"maxAvailableQuantity":100,"maxAllowedQuantity":100,"breadcrumbs":[{"code":"13","name":"Detergenți & igienizare","slug":"13-detergent-si-igienizare"},{"code":"1302","name":"Curățenie și întreținerea casei","slug":"1302-igienizarea-casei"},{"code":"130201","name":"Detergent de vase","slug":"130201-detergent-vase"},{"code":"100134667","name":"Detergent vase Spark cu parfum de castravete și lămâie 700ml ","slug":"100134667-sano-detergent-vase-spark-cu-parfum-de-castravete-si-lamaie-700ml"}],"activePromotion":null,"saveMe":null,"labels":[],"geniusPrice":null,"geniusUnitPricePerLabel":null,"banner":null,"discountLabel":null,"geniusDiscountLabel":null,"badge":null},{"code":"100059053","variantCode":"100059053","name":"Soluție clătire pentru mașina de spălat vase 800ml","slug":"100059053-finish-solutie-clatire-pentru-masina-de-spalat-vase-800ml","unitPriceLabel":"25,63 Lei/l","brand":"Finish","brandCode":"624","brandFilterCode":"finish-b625","sku":"100059053","price":20.5,"originalPrice":null,"currencyCode":"RON","currency":"Lei","image":{"thumbnail":{"default":"https://cdn.freshful.ro/media/cache/sylius_shop_product_thumbnail/d8/c1/667031ed693b96040850e1731b5e.jpg"},"large":{"default":"https://cdn.freshful.ro/media/cache/freshful_large/d8/c1/667031ed693b96040850e1731b5e.jpg"},"extralarge":{"default":"https://cdn.freshful.ro/media/cache/sylius_shop_product_original/d8/c1/667031ed693b96040850e1731b5e.jpg"}},"label":null,"tags":[],"isAvailable":true,"maxAvailableQuantity":100,"maxAllowedQuantity":100,"breadcrumbs":[{"code":"13","name":"Detergenți & igienizare","slug":"13-detergent-si-igienizare"},{"code":"1302","name":"Curățenie și întreținerea casei","slug":"1302-igienizarea-casei"},{"code":"130201","name":"Detergent de vase","slug":"130201-detergent-vase"},{"code":"100059053","name":"Soluție clătire pentru mașina de spălat vase 800ml","slug":"100059053-finish-solutie-clatire-pentru-masina-de-spalat-vase-800ml"}],"activePromotion":null,"saveMe":null,"labels":[],"geniusPrice":null,"geniusUnitPricePerLabel":null,"banner":null,"discountLabel":null,"geniusDiscountLabel":null,"badge":null},{"code":"100134669","variantCode":"100134669","name":"Detergent vase Spark cu parfum de lavandă 700ml ","slug":"100134669-sano-detergent-vase-spark-cu-parfum-de-lavanda-700ml","unitPriceLabel":"17,13 Lei/l","brand":"Sano","brandCode":"579","brandFilterCode":"sano-b580","sku":"100134669","price":11.99,"originalPrice":null,"currencyCode":"RON","currency":"Lei","image":{"thumbnail":{"default":"https://cdn.freshful.ro/media/cache/sylius_shop_product_thumbnail/5c/7e/0ae5a16c2be352bb053fbd798b5a.jpg"},"large":{"default":"https://cdn.freshful.ro/media/cache/freshful_large/5c/7e/0ae5a16c2be352bb053fbd798b5a.jpg"},"extralarge":{"default":"https://cdn.freshful.ro/media/cache/sylius_shop_product_original/5c/7e/0ae5a16c2be352bb053fbd798b5a.jpg"}},"label":null,"tags":[],"isAvailable":true,"maxAvailableQuantity":100,"maxAllowedQuantity":100,"breadcrumbs":[{"code":"13","name":"Detergenți & igienizare","slug":"13-detergent-si-igienizare"},{"code":"1302","name":"Curățenie și întreținerea casei","slug":"1302-igienizarea-casei"},{"code":"130201","name":"Detergent de vase","slug":"130201-detergent-vase"},{"code":"100134669","name":"Detergent vase Spark cu parfum de lavandă 700ml ","slug":"100134669-sano-detergent-vase-spark-cu-parfum-de-lavanda-700ml"}],"activePromotion":null,"saveMe":null,"labels":[],"geniusPrice":null,"geniusUnitPricePerLabel":null,"banner":null,"discountLabel":null,"geniusDiscountLabel":null,"badge":null},{"code":"100092411","variantCode":"100092411","name":"Detergent de vase lămâie 450ml","slug":"100092411-fairy-detergent-de-vase-lamaie-450ml","unitPriceLabel":"16,53 Lei/l","brand":"Fairy","brandCode":"676","brandFilterCode":"fairy-b677","sku":"100092411","price":7.44,"originalPrice":null,"currencyCode":"RON","currency":"Lei","image":{"thumbnail":{"default":"https://cdn.freshful.ro/media/cache/sylius_shop_product_thumbnail/f9/f0/0e90802f5d61ca711634d20fc0e6.jpg"},"large":{"default":"https://cdn.freshful.ro/media/cache/freshful_large/f9/f0/0e90802f5d61ca711634d20fc0e6.jpg"},"extralarge":{"default":"https://cdn.freshful.ro/media/cache/sylius_shop_product_original/f9/f0/0e90802f5d61ca711634d20fc0e6.jpg"}},"label":null,"tags":[],"isAvailable":true,"maxAvailableQuantity":100,"maxAllowedQuantity":100,"breadcrumbs":[{"code":"13","name":"Detergenți & igienizare","slug":"13-detergent-si-igienizare"},{"code":"1302","name":"Curățenie și întreținerea casei","slug":"1302-igienizarea-casei"},{"code":"130201","name":"Detergent de vase","slug":"130201-detergent-vase"},{"code":"100092411","name":"Detergent de vase lămâie 450ml","slug":"100092411-fairy-detergent-de-vase-lamaie-450ml"}],"activePromotion":null,"saveMe":null,"labels":[],"geniusPrice":null,"geniusUnitPricePerLabel":null,"banner":null,"discountLabel":null,"geniusDiscountLabel":null,"badge":null}],"filters":{"countSelected":0,"items":[{"code":"promotion","name":"Promoții","countSelected":0,"values":[{"code":"oferte-dph-21feb-8mar23","name":"Curățenie și îngrijire personală","isSelected":false,"count":2},{"code":"superpreturile-saptamanii","name":"Superprețurile zilei","isSelected":false,"count":1}]},{"code":"brand","name":"Brand","countSelected":0,"values":[{"code":"axion-b329","name":"Axion","isSelected":false,"count":5},{"code":"fairy-b677","name":"Fairy","isSelected":false,"count":25},{"code":"finish-b625","name":"Finish","isSelected":false,"count":16},{"code":"frosch-b316","name":"Frosch","isSelected":false,"count":5},{"code":"igienol-b428","name":"Igienol","isSelected":false,"count":2},{"code":"nufar-b1835","name":"Nufăr","isSelected":false,"count":1},{"code":"planet-pure-b1682","name":"Planet Pure","isSelected":false,"count":1},{"code":"pur-b419","name":"Pur","isSelected":false,"count":7},{"code":"sano-b580","name":"Sano","isSelected":false,"count":7},{"code":"somat-b420","name":"Somat","isSelected":false,"count":8},{"code":"sonett-b1681","name":"Sonett","isSelected":false,"count":8}]},{"code":"diet_lifestyle","name":"Dietă și lifestyle","countSelected":0,"values":[{"code":"bio-a26","name":"Bio","isSelected":false,"count":14},{"code":"vegan-a24","name":"Vegan","isSelected":false,"count":10}]}]},"orderBy":[{"field":"price","direction":"asc","name":"Preț crescător","isSelected":false},{"field":"price","direction":"desc","name":"Preț descrescător","isSelected":false},{"field":"popularity","direction":"desc","name":"Cele mai populare","isSelected":true},{"field":"category","direction":"asc","name":"Categorie","isSelected":false}],"metaTitle":"Detergent de vase - Gamă variată","metaDescription":"Vrei Detergent de vase? Alege dintr-o gamă variată. Comanzi simplu și ai livrare rapidă, calitate și prospețime. Hai pe Freshful.ro","metaKeywords":null,"banners":[]}}