{"type":"subcategory","payload":{"analyticsListId":"category_130204-solutii-de-curatat","analyticsListName":"Category - Soluții de curățat","name":"Soluții de curățat","slug":"130204-solutii-de-curatat","image":null,"breadcrumbs":[{"code":"13","name":"Detergenți & igienizare","slug":"13-detergent-si-igienizare"},{"code":"1302","name":"Curățenie și întreținerea casei","slug":"1302-igienizarea-casei"},{"code":"130204","name":"Soluții de curățat","slug":"130204-solutii-de-curatat"}],"slots":[],"page":1,"limit":10,"pages":18,"count":173,"siblings":[{"name":"Spălare și întreținere rufe","slug":"1301-spalare-si-intretinere-rufe","selected":false},{"name":"Curățenie și întreținerea casei","slug":"1302-igienizarea-casei","selected":true},{"name":"Hârtie igienică, șervețele și prosoape","slug":"1303-hartie-igienica-si-servetele","selected":false}],"children":[{"name":"Toate produsele","slug":"1302-igienizarea-casei","selected":false},{"name":"Detergent de vase","slug":"130201-detergent-vase","selected":false},{"name":"Cremă de pantofi","slug":"130202-crema-de-pantofi","selected":false},{"name":"Insecticide","slug":"130203-insecticide","selected":false},{"name":"Soluții de curățat","slug":"130204-solutii-de-curatat","selected":true},{"name":"Bureți și lavete","slug":"130205-burete-si-lavete","selected":false},{"name":"Hârtie de copt, folii și pungi alimentare","slug":"130207-folie-si-pungi-alimentar-hartie-de-copt","selected":false},{"name":"Saci de gunoi","slug":"130208-saci-pentru-gunoi","selected":false},{"name":"Odorizante pentru casă","slug":"130209-odorizant-casa","selected":false},{"name":"Produse pentru baie","slug":"130210-produse-pentru-baie","selected":false},{"name":"Produse pentru bucătărie","slug":"130211-produse-pentru-bucatarie","selected":false},{"name":"Accesorii pentru curățenie","slug":"accesorii-pentru-curatenie","selected":false}],"products":[{"code":"100060782","variantCode":"100060782","name":"Spray geamuri 500ml","slug":"100060782-frosch-spray-geamuri-500ml","unitPriceLabel":"23,98 Lei/l","brand":"Frosch","brandCode":"315","brandFilterCode":"frosch-b316","sku":"100060782","price":11.99,"originalPrice":15.5,"currencyCode":"RON","currency":"Lei","image":{"thumbnail":{"default":"https://cdn.freshful.ro/media/cache/sylius_shop_product_thumbnail/28/c2/d39a39bdf5eb3d86ee9141f2eaf6.jpg"},"large":{"default":"https://cdn.freshful.ro/media/cache/freshful_large/28/c2/d39a39bdf5eb3d86ee9141f2eaf6.jpg"},"extralarge":{"default":"https://cdn.freshful.ro/media/cache/sylius_shop_product_original/28/c2/d39a39bdf5eb3d86ee9141f2eaf6.jpg"}},"label":{"text":"-22%","backgroundColor":"#FF9903","textColor":"#FFFFFF"},"tags":[{"type":"bio","text":"Bio","icon":"https://cdn.freshful.ro/assets/product_tags/bio.svg","iconPng":"https://cdn.freshful.ro/assets/product_tags/bio.png","backgroundColor":"#ECF6E9","textColor":"#399225"}],"isAvailable":true,"maxAvailableQuantity":66,"maxAllowedQuantity":100,"breadcrumbs":[{"code":"13","name":"Detergenți & igienizare","slug":"13-detergent-si-igienizare"},{"code":"1302","name":"Curățenie și întreținerea casei","slug":"1302-igienizarea-casei"},{"code":"130204","name":"Soluții de curățat","slug":"130204-solutii-de-curatat"},{"code":"100060782","name":"Spray geamuri 500ml","slug":"100060782-frosch-spray-geamuri-500ml"}],"activePromotion":{"code":"oferte-dph-21feb-8mar23","name":"Preț redus","targetQuantity":null},"saveMe":null,"labels":[{"type":"v1","items":[{"text":"-22%","backgroundColor":"#FF9903","textColor":"#FFFFFF"}]}],"geniusPrice":null,"geniusUnitPricePerLabel":null,"banner":{"text":"Super preț","textColor":"#FF0000","bgColor":"#FFF2EC","icon":null,"link":"https://www.freshful.ro/oferte/oferte-dph-21feb-8mar23","type":"promo","analyticsEventType":"select_promotion","analyticsEventPayload":{"promotion_id":"oferte-dph-21feb-8mar23","promotion_name":"Curățenie și îngrijire personală"}},"discountLabel":"Economisești 22%","geniusDiscountLabel":null,"badge":null},{"code":"100036094","variantCode":"100036094","name":"Soluție de curățare universală Floral Fiesta 1l","slug":"100036094-ajax-solutie-de-curatare-universala-floral-fiesta-1l","unitPriceLabel":"11,32 Lei/l","brand":"Ajax","brandCode":"332","brandFilterCode":"ajax-b333","sku":"100036094","price":11.32,"originalPrice":null,"currencyCode":"RON","currency":"Lei","image":{"thumbnail":{"default":"https://cdn.freshful.ro/media/cache/sylius_shop_product_thumbnail/01/f2/ff1bb0322f7c174b19f4bcec0dbe.jpg"},"large":{"default":"https://cdn.freshful.ro/media/cache/freshful_large/01/f2/ff1bb0322f7c174b19f4bcec0dbe.jpg"},"extralarge":{"default":"https://cdn.freshful.ro/media/cache/sylius_shop_product_original/01/f2/ff1bb0322f7c174b19f4bcec0dbe.jpg"}},"label":{"text":"Profită acum","backgroundColor":"#FF9903","textColor":"#FFFFFF"},"tags":[],"isAvailable":true,"maxAvailableQuantity":53,"maxAllowedQuantity":100,"breadcrumbs":[{"code":"13","name":"Detergenți & igienizare","slug":"13-detergent-si-igienizare"},{"code":"1302","name":"Curățenie și întreținerea casei","slug":"1302-igienizarea-casei"},{"code":"130204","name":"Soluții de curățat","slug":"130204-solutii-de-curatat"},{"code":"100036094","name":"Soluție de curățare universală Floral Fiesta 1l","slug":"100036094-ajax-solutie-de-curatare-universala-floral-fiesta-1l"}],"activePromotion":{"code":"freshful-top-deals-2023","name":"Preț avantajos","targetQuantity":null},"saveMe":null,"labels":[{"type":"v1","items":[{"text":"Profită acum","backgroundColor":"#FF9903","textColor":"#FFFFFF"}]}],"geniusPrice":null,"geniusUnitPricePerLabel":null,"banner":{"text":"Preț avantajos","textColor":"#F95510","bgColor":"#FEF1CD","icon":null,"link":"https://www.freshful.ro/oferte/freshful-top-deals-2023","type":"promo","analyticsEventType":"select_promotion","analyticsEventPayload":{"promotion_id":"freshful-top-deals-2023","promotion_name":"Profită de Top Deals"}},"discountLabel":null,"geniusDiscountLabel":null,"badge":null},{"code":"100036083","variantCode":"100036083","name":"Dezinfectant fără clor multisuprafețe 1l","slug":"100036083-ajax-dezinfectant-fara-clor-multisuprafete-1l","unitPriceLabel":"11,32 Lei/l","brand":"Ajax","brandCode":"332","brandFilterCode":"ajax-b333","sku":"100036083","price":11.32,"originalPrice":null,"currencyCode":"RON","currency":"Lei","image":{"thumbnail":{"default":"https://cdn.freshful.ro/media/cache/sylius_shop_product_thumbnail/09/c0/618ca1280b161e1599241b041d07.jpg"},"large":{"default":"https://cdn.freshful.ro/media/cache/freshful_large/09/c0/618ca1280b161e1599241b041d07.jpg"},"extralarge":{"default":"https://cdn.freshful.ro/media/cache/sylius_shop_product_original/09/c0/618ca1280b161e1599241b041d07.jpg"}},"label":{"text":"Profită acum","backgroundColor":"#FF9903","textColor":"#FFFFFF"},"tags":[],"isAvailable":true,"maxAvailableQuantity":79,"maxAllowedQuantity":100,"breadcrumbs":[{"code":"13","name":"Detergenți & igienizare","slug":"13-detergent-si-igienizare"},{"code":"1302","name":"Curățenie și întreținerea casei","slug":"1302-igienizarea-casei"},{"code":"130204","name":"Soluții de curățat","slug":"130204-solutii-de-curatat"},{"code":"100036083","name":"Dezinfectant fără clor multisuprafețe 1l","slug":"100036083-ajax-dezinfectant-fara-clor-multisuprafete-1l"}],"activePromotion":{"code":"freshful-top-deals-2023","name":"Preț avantajos","targetQuantity":null},"saveMe":null,"labels":[{"type":"v1","items":[{"text":"Profită acum","backgroundColor":"#FF9903","textColor":"#FFFFFF"}]}],"geniusPrice":null,"geniusUnitPricePerLabel":null,"banner":{"text":"Preț avantajos","textColor":"#F95510","bgColor":"#FEF1CD","icon":null,"link":"https://www.freshful.ro/oferte/freshful-top-deals-2023","type":"promo","analyticsEventType":"select_promotion","analyticsEventPayload":{"promotion_id":"freshful-top-deals-2023","promotion_name":"Profită de Top Deals"}},"discountLabel":null,"geniusDiscountLabel":null,"badge":null},{"code":"100036095","variantCode":"100036095","name":"Soluție de curățare universală Floral Fiesta 1l","slug":"100036095-ajax-solutie-de-curatare-universala-floral-fiesta-1l","unitPriceLabel":"10,9 Lei/l","brand":"Ajax","brandCode":"332","brandFilterCode":"ajax-b333","sku":"100036095","price":10.9,"originalPrice":null,"currencyCode":"RON","currency":"Lei","image":{"thumbnail":{"default":"https://cdn.freshful.ro/media/cache/sylius_shop_product_thumbnail/24/87/22c7111995d64e07bd08480fb158.jpg"},"large":{"default":"https://cdn.freshful.ro/media/cache/freshful_large/24/87/22c7111995d64e07bd08480fb158.jpg"},"extralarge":{"default":"https://cdn.freshful.ro/media/cache/sylius_shop_product_original/24/87/22c7111995d64e07bd08480fb158.jpg"}},"label":{"text":"Profită acum","backgroundColor":"#FF9903","textColor":"#FFFFFF"},"tags":[],"isAvailable":true,"maxAvailableQuantity":45,"maxAllowedQuantity":100,"breadcrumbs":[{"code":"13","name":"Detergenți & igienizare","slug":"13-detergent-si-igienizare"},{"code":"1302","name":"Curățenie și întreținerea casei","slug":"1302-igienizarea-casei"},{"code":"130204","name":"Soluții de curățat","slug":"130204-solutii-de-curatat"},{"code":"100036095","name":"Soluție de curățare universală Floral Fiesta 1l","slug":"100036095-ajax-solutie-de-curatare-universala-floral-fiesta-1l"}],"activePromotion":{"code":"freshful-top-deals-2023","name":"Preț avantajos","targetQuantity":null},"saveMe":null,"labels":[{"type":"v1","items":[{"text":"Profită acum","backgroundColor":"#FF9903","textColor":"#FFFFFF"}]}],"geniusPrice":null,"geniusUnitPricePerLabel":null,"banner":{"text":"Preț avantajos","textColor":"#F95510","bgColor":"#FEF1CD","icon":null,"link":"https://www.freshful.ro/oferte/freshful-top-deals-2023","type":"promo","analyticsEventType":"select_promotion","analyticsEventPayload":{"promotion_id":"freshful-top-deals-2023","promotion_name":"Profită de Top Deals"}},"discountLabel":null,"geniusDiscountLabel":null,"badge":null},{"code":"100060772","variantCode":"100060772","name":"Detergent universal cu PH neutru 1l","slug":"100060772-frosch-detergent-universal-cu-ph-neutru-1l","unitPriceLabel":"10,99 Lei/l","brand":"Frosch","brandCode":"315","brandFilterCode":"frosch-b316","sku":"100060772","price":10.99,"originalPrice":13.59,"currencyCode":"RON","currency":"Lei","image":{"thumbnail":{"default":"https://cdn.freshful.ro/media/cache/sylius_shop_product_thumbnail/88/12/192469228803ab699ea33f12e55b.jpg"},"large":{"default":"https://cdn.freshful.ro/media/cache/freshful_large/88/12/192469228803ab699ea33f12e55b.jpg"},"extralarge":{"default":"https://cdn.freshful.ro/media/cache/sylius_shop_product_original/88/12/192469228803ab699ea33f12e55b.jpg"}},"label":{"text":"-19%","backgroundColor":"#FF9903","textColor":"#FFFFFF"},"tags":[],"isAvailable":true,"maxAvailableQuantity":10,"maxAllowedQuantity":100,"breadcrumbs":[{"code":"13","name":"Detergenți & igienizare","slug":"13-detergent-si-igienizare"},{"code":"1302","name":"Curățenie și întreținerea casei","slug":"1302-igienizarea-casei"},{"code":"130204","name":"Soluții de curățat","slug":"130204-solutii-de-curatat"},{"code":"100060772","name":"Detergent universal cu PH neutru 1l","slug":"100060772-frosch-detergent-universal-cu-ph-neutru-1l"}],"activePromotion":{"code":"oferte-dph-21feb-8mar23","name":"Preț redus","targetQuantity":null},"saveMe":null,"labels":[{"type":"v1","items":[{"text":"-19%","backgroundColor":"#FF9903","textColor":"#FFFFFF"}]}],"geniusPrice":null,"geniusUnitPricePerLabel":null,"banner":{"text":"Super preț","textColor":"#FF0000","bgColor":"#FFF2EC","icon":null,"link":"https://www.freshful.ro/oferte/oferte-dph-21feb-8mar23","type":"promo","analyticsEventType":"select_promotion","analyticsEventPayload":{"promotion_id":"oferte-dph-21feb-8mar23","promotion_name":"Curățenie și îngrijire personală"}},"discountLabel":"Economisești 19%","geniusDiscountLabel":null,"badge":null},{"code":"100061982","variantCode":"100061982","name":"Cremă suprafețe bucătărie Lemon 500ml","slug":"100061982-cif-crema-suprafete-bucatarie-lemon-500ml","unitPriceLabel":"29 Lei/l","brand":"Cif","brandCode":"760","brandFilterCode":"cif-b761","sku":"100061982","price":14.5,"originalPrice":null,"currencyCode":"RON","currency":"Lei","image":{"thumbnail":{"default":"https://cdn.freshful.ro/media/cache/sylius_shop_product_thumbnail/5b/84/321b850c22131b92f592751ea11e.jpg"},"large":{"default":"https://cdn.freshful.ro/media/cache/freshful_large/5b/84/321b850c22131b92f592751ea11e.jpg"},"extralarge":{"default":"https://cdn.freshful.ro/media/cache/sylius_shop_product_original/5b/84/321b850c22131b92f592751ea11e.jpg"}},"label":null,"tags":[],"isAvailable":true,"maxAvailableQuantity":100,"maxAllowedQuantity":100,"breadcrumbs":[{"code":"13","name":"Detergenți & igienizare","slug":"13-detergent-si-igienizare"},{"code":"1302","name":"Curățenie și întreținerea casei","slug":"1302-igienizarea-casei"},{"code":"130204","name":"Soluții de curățat","slug":"130204-solutii-de-curatat"},{"code":"100061982","name":"Cremă suprafețe bucătărie Lemon 500ml","slug":"100061982-cif-crema-suprafete-bucatarie-lemon-500ml"}],"activePromotion":null,"saveMe":null,"labels":[],"geniusPrice":null,"geniusUnitPricePerLabel":null,"banner":null,"discountLabel":null,"geniusDiscountLabel":null,"badge":null},{"code":"100061987","variantCode":"100061987","name":"Cremă pentru îndepărtarea murdăriei dificile 500ml","slug":"100061987-cif-crema-pentru-indepartarea-murdariei-dificile-500ml","unitPriceLabel":"28,48 Lei/l","brand":"Cif","brandCode":"760","brandFilterCode":"cif-b761","sku":"100061987","price":14.24,"originalPrice":null,"currencyCode":"RON","currency":"Lei","image":{"thumbnail":{"default":"https://cdn.freshful.ro/media/cache/sylius_shop_product_thumbnail/12/b1/e97d22fcebc7f65a890f90a63000.jpg"},"large":{"default":"https://cdn.freshful.ro/media/cache/freshful_large/12/b1/e97d22fcebc7f65a890f90a63000.jpg"},"extralarge":{"default":"https://cdn.freshful.ro/media/cache/sylius_shop_product_original/12/b1/e97d22fcebc7f65a890f90a63000.jpg"}},"label":null,"tags":[],"isAvailable":true,"maxAvailableQuantity":100,"maxAllowedQuantity":100,"breadcrumbs":[{"code":"13","name":"Detergenți & igienizare","slug":"13-detergent-si-igienizare"},{"code":"1302","name":"Curățenie și întreținerea casei","slug":"1302-igienizarea-casei"},{"code":"130204","name":"Soluții de curățat","slug":"130204-solutii-de-curatat"},{"code":"100061987","name":"Cremă pentru îndepărtarea murdăriei dificile 500ml","slug":"100061987-cif-crema-pentru-indepartarea-murdariei-dificile-500ml"}],"activePromotion":null,"saveMe":null,"labels":[],"geniusPrice":null,"geniusUnitPricePerLabel":null,"banner":null,"discountLabel":null,"geniusDiscountLabel":null,"badge":null},{"code":"100074059","variantCode":"100074059","name":"Dezinfectant fără clor pentru suprafețe mici 750ml","slug":"100074059-igienol-dezinfectant-fara-clor-pentru-suprafete-mici-750ml","unitPriceLabel":"21,2 Lei/l","brand":"Igienol","brandCode":"427","brandFilterCode":"igienol-b428","sku":"100074059","price":15.9,"originalPrice":null,"currencyCode":"RON","currency":"Lei","image":{"thumbnail":{"default":"https://cdn.freshful.ro/media/cache/sylius_shop_product_thumbnail/53/dd/1938b2b1221fe029a7a556dbb861.jpg"},"large":{"default":"https://cdn.freshful.ro/media/cache/freshful_large/53/dd/1938b2b1221fe029a7a556dbb861.jpg"},"extralarge":{"default":"https://cdn.freshful.ro/media/cache/sylius_shop_product_original/53/dd/1938b2b1221fe029a7a556dbb861.jpg"}},"label":null,"tags":[],"isAvailable":true,"maxAvailableQuantity":100,"maxAllowedQuantity":100,"breadcrumbs":[{"code":"13","name":"Detergenți & igienizare","slug":"13-detergent-si-igienizare"},{"code":"1302","name":"Curățenie și întreținerea casei","slug":"1302-igienizarea-casei"},{"code":"130204","name":"Soluții de curățat","slug":"130204-solutii-de-curatat"},{"code":"100074059","name":"Dezinfectant fără clor pentru suprafețe mici 750ml","slug":"100074059-igienol-dezinfectant-fara-clor-pentru-suprafete-mici-750ml"}],"activePromotion":null,"saveMe":null,"labels":[],"geniusPrice":null,"geniusUnitPricePerLabel":null,"banner":null,"discountLabel":null,"geniusDiscountLabel":null,"badge":null},{"code":"100047441","variantCode":"3045200700005","name":"Dezinfectat universal multisuprafețe 500ml","slug":"100047441-sanytol-dezinfectat-universal-multisuprafete-500ml","unitPriceLabel":"23,8 Lei/l","brand":"Sanytol","brandCode":"300","brandFilterCode":"sanytol-b301","sku":"100047441","price":11.9,"originalPrice":null,"currencyCode":"RON","currency":"Lei","image":{"thumbnail":{"default":"https://cdn.freshful.ro/media/cache/sylius_shop_product_thumbnail/c3/55/8bf6b555db63f4f65e81dcf2f783.jpg"},"large":{"default":"https://cdn.freshful.ro/media/cache/freshful_large/c3/55/8bf6b555db63f4f65e81dcf2f783.jpg"},"extralarge":{"default":"https://cdn.freshful.ro/media/cache/sylius_shop_product_original/c3/55/8bf6b555db63f4f65e81dcf2f783.jpg"}},"label":null,"tags":[],"isAvailable":true,"maxAvailableQuantity":100,"maxAllowedQuantity":100,"breadcrumbs":[{"code":"13","name":"Detergenți & igienizare","slug":"13-detergent-si-igienizare"},{"code":"1302","name":"Curățenie și întreținerea casei","slug":"1302-igienizarea-casei"},{"code":"130204","name":"Soluții de curățat","slug":"130204-solutii-de-curatat"},{"code":"100047441","name":"Dezinfectat universal multisuprafețe 500ml","slug":"100047441-sanytol-dezinfectat-universal-multisuprafete-500ml"}],"activePromotion":null,"saveMe":null,"labels":[],"geniusPrice":null,"geniusUnitPricePerLabel":null,"banner":null,"discountLabel":null,"geniusDiscountLabel":null,"badge":null},{"code":"100031397","variantCode":"9000100865760","name":"Spray geamuri Crystal 500ml","slug":"100031397-clin-spray-geamuri-crystal-500ml","unitPriceLabel":"21,2 Lei/l","brand":"Clin","brandCode":"421","brandFilterCode":"clin-b422","sku":"100031397","price":10.6,"originalPrice":null,"currencyCode":"RON","currency":"Lei","image":{"thumbnail":{"default":"https://cdn.freshful.ro/media/cache/sylius_shop_product_thumbnail/86/8d/6ae063f10d1a8748555246cbe520.jpg"},"large":{"default":"https://cdn.freshful.ro/media/cache/freshful_large/86/8d/6ae063f10d1a8748555246cbe520.jpg"},"extralarge":{"default":"https://cdn.freshful.ro/media/cache/sylius_shop_product_original/86/8d/6ae063f10d1a8748555246cbe520.jpg"}},"label":null,"tags":[],"isAvailable":true,"maxAvailableQuantity":73,"maxAllowedQuantity":100,"breadcrumbs":[{"code":"13","name":"Detergenți & igienizare","slug":"13-detergent-si-igienizare"},{"code":"1302","name":"Curățenie și întreținerea casei","slug":"1302-igienizarea-casei"},{"code":"130204","name":"Soluții de curățat","slug":"130204-solutii-de-curatat"},{"code":"100031397","name":"Spray geamuri Crystal 500ml","slug":"100031397-clin-spray-geamuri-crystal-500ml"}],"activePromotion":null,"saveMe":null,"labels":[],"geniusPrice":null,"geniusUnitPricePerLabel":null,"banner":null,"discountLabel":null,"geniusDiscountLabel":null,"badge":null}],"filters":{"countSelected":0,"items":[{"code":"promotion","name":"Promoții","countSelected":0,"values":[{"code":"oferte-dph-21feb-8mar23","name":"Curățenie și îngrijire personală","isSelected":false,"count":4},{"code":"freshful-top-deals-2023","name":"Profită de Top Deals","isSelected":false,"count":3}]},{"code":"brand","name":"Brand","countSelected":0,"values":[{"code":"ace-b912","name":"Ace","isSelected":false,"count":3},{"code":"ajax-b333","name":"Ajax","isSelected":false,"count":12},{"code":"alex-b303","name":"Alex","isSelected":false,"count":2},{"code":"biocarpet-b429","name":"Biocarpet","isSelected":false,"count":5},{"code":"bison-b1819","name":"Bison","isSelected":false,"count":1},{"code":"chicco-b659","name":"Chicco","isSelected":false,"count":2},{"code":"cif-b761","name":"Cif","isSelected":false,"count":6},{"code":"cillit-bang-b626","name":"Cillit Bang","isSelected":false,"count":7},{"code":"clin-b422","name":"Clin","isSelected":false,"count":7},{"code":"domestos-b763","name":"Domestos","isSelected":false,"count":3},{"code":"dr-beckmann-b1106","name":"Dr.Beckmann","isSelected":false,"count":5},{"code":"expert-wipes-b1639","name":"Expert Wipes","isSelected":false,"count":1},{"code":"frosch-b316","name":"Frosch","isSelected":false,"count":10},{"code":"heitmann-b358","name":"Heitmann","isSelected":false,"count":13},{"code":"igienol-b428","name":"Igienol","isSelected":false,"count":14},{"code":"mr-muscle-b439","name":"Mr. Muscle","isSelected":false,"count":1},{"code":"mr-proper-b678","name":"Mr. Proper","isSelected":false,"count":6},{"code":"nufar-b1835","name":"Nufăr","isSelected":false,"count":7},{"code":"planet-pure-b1682","name":"Planet Pure","isSelected":false,"count":1},{"code":"pronto-b433","name":"Pronto","isSelected":false,"count":11},{"code":"rivex-b1187","name":"Rivex","isSelected":false,"count":18},{"code":"romtec-b1644","name":"Romtec","isSelected":false,"count":1},{"code":"sano-b580","name":"Sano","isSelected":false,"count":18},{"code":"sanytol-b301","name":"Sanytol","isSelected":false,"count":6},{"code":"savo-b762","name":"Savo","isSelected":false,"count":1},{"code":"sonett-b1681","name":"Sonett","isSelected":false,"count":3},{"code":"sos-b365","name":"SOS","isSelected":false,"count":3},{"code":"touch-b579","name":"Touch","isSelected":false,"count":1},{"code":"vanish-b622","name":"Vanish","isSelected":false,"count":2},{"code":"yope-b1617","name":"Yope","isSelected":false,"count":3}]},{"code":"diet_lifestyle","name":"Dietă și lifestyle","countSelected":0,"values":[{"code":"bio-a26","name":"Bio","isSelected":false,"count":15},{"code":"natural-a27","name":"Natural","isSelected":false,"count":3},{"code":"vegan-a24","name":"Vegan","isSelected":false,"count":10}]}]},"orderBy":[{"field":"price","direction":"asc","name":"Preț crescător","isSelected":false},{"field":"price","direction":"desc","name":"Preț descrescător","isSelected":false},{"field":"popularity","direction":"desc","name":"Cele mai populare","isSelected":true},{"field":"category","direction":"asc","name":"Categorie","isSelected":false}],"metaTitle":"Soluții de curățat - Gamă variată","metaDescription":"Vrei Soluții de curățat? Alege dintr-o gamă variată. Comanzi simplu și ai livrare rapidă, calitate și prospețime. Hai pe Freshful.ro","metaKeywords":null,"banners":[]}}