{"type":"subcategory","payload":{"analyticsListId":"category_130207-folie-si-pungi-alimentar-hartie-de-copt","analyticsListName":"Category - Hârtie de copt, folii și pungi alimentare","name":"Hârtie de copt, folii și pungi alimentare","slug":"130207-folie-si-pungi-alimentar-hartie-de-copt","image":null,"breadcrumbs":[{"code":"13","name":"Detergenți & igienizare","slug":"13-detergent-si-igienizare"},{"code":"1302","name":"Curățenie și întreținerea casei","slug":"1302-igienizarea-casei"},{"code":"130207","name":"Hârtie de copt, folii și pungi alimentare","slug":"130207-folie-si-pungi-alimentar-hartie-de-copt"}],"slots":[],"page":1,"limit":10,"pages":4,"count":38,"siblings":[{"name":"Spălare și întreținere rufe","slug":"1301-spalare-si-intretinere-rufe","selected":false},{"name":"Curățenie și întreținerea casei","slug":"1302-igienizarea-casei","selected":true},{"name":"Hârtie igienică, șervețele și prosoape","slug":"1303-hartie-igienica-si-servetele","selected":false}],"children":[{"name":"Toate produsele","slug":"1302-igienizarea-casei","selected":false},{"name":"Detergent de vase","slug":"130201-detergent-vase","selected":false},{"name":"Cremă de pantofi","slug":"130202-crema-de-pantofi","selected":false},{"name":"Insecticide","slug":"130203-insecticide","selected":false},{"name":"Soluții de curățat","slug":"130204-solutii-de-curatat","selected":false},{"name":"Bureți și lavete","slug":"130205-burete-si-lavete","selected":false},{"name":"Hârtie de copt, folii și pungi alimentare","slug":"130207-folie-si-pungi-alimentar-hartie-de-copt","selected":true},{"name":"Saci de gunoi","slug":"130208-saci-pentru-gunoi","selected":false},{"name":"Odorizante pentru casă","slug":"130209-odorizant-casa","selected":false},{"name":"Produse pentru baie","slug":"130210-produse-pentru-baie","selected":false},{"name":"Produse pentru bucătărie","slug":"130211-produse-pentru-bucatarie","selected":false},{"name":"Accesorii pentru curățenie","slug":"accesorii-pentru-curatenie","selected":false}],"products":[{"code":"100059306","variantCode":"5948552014906","name":"Pungi uz general 3.5l 80buc","slug":"100059306-epack-pungi-uz-general-3-5l-80buc","unitPriceLabel":"","brand":"epack","brandCode":"368","brandFilterCode":"epack-b369","sku":"100059306","price":8.79,"originalPrice":10.79,"currencyCode":"RON","currency":"Lei","image":{"thumbnail":{"default":"https://cdn.freshful.ro/media/cache/sylius_shop_product_thumbnail/8a/e9/ac68c648492c61fe03c76eb60352.jpg"},"large":{"default":"https://cdn.freshful.ro/media/cache/freshful_large/8a/e9/ac68c648492c61fe03c76eb60352.jpg"},"extralarge":{"default":"https://cdn.freshful.ro/media/cache/sylius_shop_product_original/8a/e9/ac68c648492c61fe03c76eb60352.jpg"}},"label":{"text":"-18%","backgroundColor":"#FF9903","textColor":"#FFFFFF"},"tags":[],"isAvailable":true,"maxAvailableQuantity":7,"maxAllowedQuantity":100,"breadcrumbs":[{"code":"13","name":"Detergenți & igienizare","slug":"13-detergent-si-igienizare"},{"code":"1302","name":"Curățenie și întreținerea casei","slug":"1302-igienizarea-casei"},{"code":"130207","name":"Hârtie de copt, folii și pungi alimentare","slug":"130207-folie-si-pungi-alimentar-hartie-de-copt"},{"code":"100059306","name":"Pungi uz general 3.5l 80buc","slug":"100059306-epack-pungi-uz-general-3-5l-80buc"}],"activePromotion":{"code":"oferte-dph-21feb-8mar23","name":"Preț redus","targetQuantity":null},"saveMe":null,"labels":[{"type":"v1","items":[{"text":"-18%","backgroundColor":"#FF9903","textColor":"#FFFFFF"}]}],"geniusPrice":null,"geniusUnitPricePerLabel":null,"banner":{"text":"Super preț","textColor":"#FF0000","bgColor":"#FFF2EC","icon":null,"link":"https://www.freshful.ro/oferte/oferte-dph-21feb-8mar23","type":"promo","analyticsEventType":"select_promotion","analyticsEventPayload":{"promotion_id":"oferte-dph-21feb-8mar23","promotion_name":"Curățenie și îngrijire personală"}},"discountLabel":"Economisești 18%","geniusDiscountLabel":null,"badge":null},{"code":"100086278","variantCode":"100086278","name":"Folie de plastic 30m","slug":"100086278-fino-folie-de-plastic-30m","unitPriceLabel":"","brand":"Fino","brandCode":"545","brandFilterCode":"fino-b546","sku":"100086278","price":6.36,"originalPrice":null,"currencyCode":"RON","currency":"Lei","image":{"thumbnail":{"default":"https://cdn.freshful.ro/media/cache/sylius_shop_product_thumbnail/e4/bd/697136192c123d874f0234db8dec.jpg"},"large":{"default":"https://cdn.freshful.ro/media/cache/freshful_large/e4/bd/697136192c123d874f0234db8dec.jpg"},"extralarge":{"default":"https://cdn.freshful.ro/media/cache/sylius_shop_product_original/e4/bd/697136192c123d874f0234db8dec.jpg"}},"label":null,"tags":[],"isAvailable":true,"maxAvailableQuantity":100,"maxAllowedQuantity":100,"breadcrumbs":[{"code":"13","name":"Detergenți & igienizare","slug":"13-detergent-si-igienizare"},{"code":"1302","name":"Curățenie și întreținerea casei","slug":"1302-igienizarea-casei"},{"code":"130207","name":"Hârtie de copt, folii și pungi alimentare","slug":"130207-folie-si-pungi-alimentar-hartie-de-copt"},{"code":"100086278","name":"Folie de plastic 30m","slug":"100086278-fino-folie-de-plastic-30m"}],"activePromotion":null,"saveMe":null,"labels":[],"geniusPrice":null,"geniusUnitPricePerLabel":null,"banner":null,"discountLabel":null,"geniusDiscountLabel":null,"badge":null},{"code":"100085589","variantCode":"100085589","name":"Hârtie pentru copt 8m","slug":"100085589-fino-hartie-pentru-copt-8m","unitPriceLabel":"","brand":"Fino","brandCode":"545","brandFilterCode":"fino-b546","sku":"100085589","price":6.84,"originalPrice":null,"currencyCode":"RON","currency":"Lei","image":{"thumbnail":{"default":"https://cdn.freshful.ro/media/cache/sylius_shop_product_thumbnail/0a/f7/528645840aa432964348dc5e9722.jpg"},"large":{"default":"https://cdn.freshful.ro/media/cache/freshful_large/0a/f7/528645840aa432964348dc5e9722.jpg"},"extralarge":{"default":"https://cdn.freshful.ro/media/cache/sylius_shop_product_original/0a/f7/528645840aa432964348dc5e9722.jpg"}},"label":null,"tags":[],"isAvailable":true,"maxAvailableQuantity":100,"maxAllowedQuantity":100,"breadcrumbs":[{"code":"13","name":"Detergenți & igienizare","slug":"13-detergent-si-igienizare"},{"code":"1302","name":"Curățenie și întreținerea casei","slug":"1302-igienizarea-casei"},{"code":"130207","name":"Hârtie de copt, folii și pungi alimentare","slug":"130207-folie-si-pungi-alimentar-hartie-de-copt"},{"code":"100085589","name":"Hârtie pentru copt 8m","slug":"100085589-fino-hartie-pentru-copt-8m"}],"activePromotion":null,"saveMe":null,"labels":[],"geniusPrice":null,"geniusUnitPricePerLabel":null,"banner":null,"discountLabel":null,"geniusDiscountLabel":null,"badge":null},{"code":"100085592","variantCode":"100085592","name":"Folie de aluminiu embosată 10m","slug":"100085592-fino-folie-de-aluminiu-embosata-10m","unitPriceLabel":"","brand":"Fino","brandCode":"545","brandFilterCode":"fino-b546","sku":"100085592","price":6.65,"originalPrice":null,"currencyCode":"RON","currency":"Lei","image":{"thumbnail":{"default":"https://cdn.freshful.ro/media/cache/sylius_shop_product_thumbnail/c8/e6/df7977cfeebddf0fb961dcbf36cf.jpg"},"large":{"default":"https://cdn.freshful.ro/media/cache/freshful_large/c8/e6/df7977cfeebddf0fb961dcbf36cf.jpg"},"extralarge":{"default":"https://cdn.freshful.ro/media/cache/sylius_shop_product_original/c8/e6/df7977cfeebddf0fb961dcbf36cf.jpg"}},"label":null,"tags":[],"isAvailable":true,"maxAvailableQuantity":100,"maxAllowedQuantity":100,"breadcrumbs":[{"code":"13","name":"Detergenți & igienizare","slug":"13-detergent-si-igienizare"},{"code":"1302","name":"Curățenie și întreținerea casei","slug":"1302-igienizarea-casei"},{"code":"130207","name":"Hârtie de copt, folii și pungi alimentare","slug":"130207-folie-si-pungi-alimentar-hartie-de-copt"},{"code":"100085592","name":"Folie de aluminiu embosată 10m","slug":"100085592-fino-folie-de-aluminiu-embosata-10m"}],"activePromotion":null,"saveMe":null,"labels":[],"geniusPrice":null,"geniusUnitPricePerLabel":null,"banner":null,"discountLabel":null,"geniusDiscountLabel":null,"badge":null},{"code":"100134648","variantCode":"100134648","name":"Hârtie de copt, 38 x 42cm, 50 foi","slug":"100134648-sano-hartie-de-copt-38-x-42cm-50-foi","unitPriceLabel":"","brand":"Sano","brandCode":"579","brandFilterCode":"sano-b580","sku":"100134648","price":19.99,"originalPrice":null,"currencyCode":"RON","currency":"Lei","image":{"thumbnail":{"default":"https://cdn.freshful.ro/media/cache/sylius_shop_product_thumbnail/34/33/5729e11c8cc01dcfc8ef27ab436c.jpg"},"large":{"default":"https://cdn.freshful.ro/media/cache/freshful_large/34/33/5729e11c8cc01dcfc8ef27ab436c.jpg"},"extralarge":{"default":"https://cdn.freshful.ro/media/cache/sylius_shop_product_original/34/33/5729e11c8cc01dcfc8ef27ab436c.jpg"}},"label":null,"tags":[],"isAvailable":true,"maxAvailableQuantity":79,"maxAllowedQuantity":100,"breadcrumbs":[{"code":"13","name":"Detergenți & igienizare","slug":"13-detergent-si-igienizare"},{"code":"1302","name":"Curățenie și întreținerea casei","slug":"1302-igienizarea-casei"},{"code":"130207","name":"Hârtie de copt, folii și pungi alimentare","slug":"130207-folie-si-pungi-alimentar-hartie-de-copt"},{"code":"100134648","name":"Hârtie de copt, 38 x 42cm, 50 foi","slug":"100134648-sano-hartie-de-copt-38-x-42cm-50-foi"}],"activePromotion":null,"saveMe":null,"labels":[],"geniusPrice":null,"geniusUnitPricePerLabel":null,"banner":null,"discountLabel":null,"geniusDiscountLabel":null,"badge":null},{"code":"100085594","variantCode":"100085594","name":"Folie de aluminiu embosată 30m","slug":"100085594-fino-folie-de-aluminiu-embosata-30m","unitPriceLabel":"","brand":"Fino","brandCode":"545","brandFilterCode":"fino-b546","sku":"100085594","price":18.65,"originalPrice":null,"currencyCode":"RON","currency":"Lei","image":{"thumbnail":{"default":"https://cdn.freshful.ro/media/cache/sylius_shop_product_thumbnail/f2/74/8bb412690113383eb84c2119ef03.jpg"},"large":{"default":"https://cdn.freshful.ro/media/cache/freshful_large/f2/74/8bb412690113383eb84c2119ef03.jpg"},"extralarge":{"default":"https://cdn.freshful.ro/media/cache/sylius_shop_product_original/f2/74/8bb412690113383eb84c2119ef03.jpg"}},"label":null,"tags":[],"isAvailable":true,"maxAvailableQuantity":100,"maxAllowedQuantity":100,"breadcrumbs":[{"code":"13","name":"Detergenți & igienizare","slug":"13-detergent-si-igienizare"},{"code":"1302","name":"Curățenie și întreținerea casei","slug":"1302-igienizarea-casei"},{"code":"130207","name":"Hârtie de copt, folii și pungi alimentare","slug":"130207-folie-si-pungi-alimentar-hartie-de-copt"},{"code":"100085594","name":"Folie de aluminiu embosată 30m","slug":"100085594-fino-folie-de-aluminiu-embosata-30m"}],"activePromotion":null,"saveMe":null,"labels":[],"geniusPrice":null,"geniusUnitPricePerLabel":null,"banner":null,"discountLabel":null,"geniusDiscountLabel":null,"badge":null},{"code":"100085576","variantCode":"100085576","name":"Pungi alimentare în rolă 1l 250 buc","slug":"100085576-fino-pungi-alimentare-in-rola-1l-250-buc","unitPriceLabel":"","brand":"Fino","brandCode":"545","brandFilterCode":"fino-b546","sku":"100085576","price":5.65,"originalPrice":null,"currencyCode":"RON","currency":"Lei","image":{"thumbnail":{"default":"https://cdn.freshful.ro/media/cache/sylius_shop_product_thumbnail/bc/90/cea80a015ed99c512933dac4603b.jpg"},"large":{"default":"https://cdn.freshful.ro/media/cache/freshful_large/bc/90/cea80a015ed99c512933dac4603b.jpg"},"extralarge":{"default":"https://cdn.freshful.ro/media/cache/sylius_shop_product_original/bc/90/cea80a015ed99c512933dac4603b.jpg"}},"label":null,"tags":[],"isAvailable":true,"maxAvailableQuantity":100,"maxAllowedQuantity":100,"breadcrumbs":[{"code":"13","name":"Detergenți & igienizare","slug":"13-detergent-si-igienizare"},{"code":"1302","name":"Curățenie și întreținerea casei","slug":"1302-igienizarea-casei"},{"code":"130207","name":"Hârtie de copt, folii și pungi alimentare","slug":"130207-folie-si-pungi-alimentar-hartie-de-copt"},{"code":"100085576","name":"Pungi alimentare în rolă 1l 250 buc","slug":"100085576-fino-pungi-alimentare-in-rola-1l-250-buc"}],"activePromotion":null,"saveMe":null,"labels":[],"geniusPrice":null,"geniusUnitPricePerLabel":null,"banner":null,"discountLabel":null,"geniusDiscountLabel":null,"badge":null},{"code":"100085574","variantCode":"100085574","name":"Pungi alimentare rolă 2l 250 buc","slug":"100085574-fino-pungi-alimentare-rola-2l-250-buc","unitPriceLabel":"","brand":"Fino","brandCode":"545","brandFilterCode":"fino-b546","sku":"100085574","price":7.09,"originalPrice":null,"currencyCode":"RON","currency":"Lei","image":{"thumbnail":{"default":"https://cdn.freshful.ro/media/cache/sylius_shop_product_thumbnail/3f/d5/f92429271a853d12c4ffb6557d36.jpg"},"large":{"default":"https://cdn.freshful.ro/media/cache/freshful_large/3f/d5/f92429271a853d12c4ffb6557d36.jpg"},"extralarge":{"default":"https://cdn.freshful.ro/media/cache/sylius_shop_product_original/3f/d5/f92429271a853d12c4ffb6557d36.jpg"}},"label":null,"tags":[],"isAvailable":true,"maxAvailableQuantity":100,"maxAllowedQuantity":100,"breadcrumbs":[{"code":"13","name":"Detergenți & igienizare","slug":"13-detergent-si-igienizare"},{"code":"1302","name":"Curățenie și întreținerea casei","slug":"1302-igienizarea-casei"},{"code":"130207","name":"Hârtie de copt, folii și pungi alimentare","slug":"130207-folie-si-pungi-alimentar-hartie-de-copt"},{"code":"100085574","name":"Pungi alimentare rolă 2l 250 buc","slug":"100085574-fino-pungi-alimentare-rola-2l-250-buc"}],"activePromotion":null,"saveMe":null,"labels":[],"geniusPrice":null,"geniusUnitPricePerLabel":null,"banner":null,"discountLabel":null,"geniusDiscountLabel":null,"badge":null},{"code":"100085575","variantCode":"100085575","name":"Pungi alimentare rolă 3l 250 buc","slug":"100085575-fino-pungi-alimentare-rola-3l-250-buc","unitPriceLabel":"","brand":"Fino","brandCode":"545","brandFilterCode":"fino-b546","sku":"100085575","price":7.99,"originalPrice":null,"currencyCode":"RON","currency":"Lei","image":{"thumbnail":{"default":"https://cdn.freshful.ro/media/cache/sylius_shop_product_thumbnail/e3/77/70bcc039a4eca682dffa25988903.jpg"},"large":{"default":"https://cdn.freshful.ro/media/cache/freshful_large/e3/77/70bcc039a4eca682dffa25988903.jpg"},"extralarge":{"default":"https://cdn.freshful.ro/media/cache/sylius_shop_product_original/e3/77/70bcc039a4eca682dffa25988903.jpg"}},"label":null,"tags":[],"isAvailable":true,"maxAvailableQuantity":100,"maxAllowedQuantity":100,"breadcrumbs":[{"code":"13","name":"Detergenți & igienizare","slug":"13-detergent-si-igienizare"},{"code":"1302","name":"Curățenie și întreținerea casei","slug":"1302-igienizarea-casei"},{"code":"130207","name":"Hârtie de copt, folii și pungi alimentare","slug":"130207-folie-si-pungi-alimentar-hartie-de-copt"},{"code":"100085575","name":"Pungi alimentare rolă 3l 250 buc","slug":"100085575-fino-pungi-alimentare-rola-3l-250-buc"}],"activePromotion":null,"saveMe":null,"labels":[],"geniusPrice":null,"geniusUnitPricePerLabel":null,"banner":null,"discountLabel":null,"geniusDiscountLabel":null,"badge":null},{"code":"100059294","variantCode":"5948552002316","name":"Folie alimentară 50m","slug":"100059294-epack-folie-alimentara-50m","unitPriceLabel":"","brand":"epack","brandCode":"368","brandFilterCode":"epack-b369","sku":"100059294","price":7.75,"originalPrice":null,"currencyCode":"RON","currency":"Lei","image":{"thumbnail":{"default":"https://cdn.freshful.ro/media/cache/sylius_shop_product_thumbnail/0a/3b/132b938ecc96fbfef9f7c150cc49.jpg"},"large":{"default":"https://cdn.freshful.ro/media/cache/freshful_large/0a/3b/132b938ecc96fbfef9f7c150cc49.jpg"},"extralarge":{"default":"https://cdn.freshful.ro/media/cache/sylius_shop_product_original/0a/3b/132b938ecc96fbfef9f7c150cc49.jpg"}},"label":null,"tags":[],"isAvailable":true,"maxAvailableQuantity":70,"maxAllowedQuantity":100,"breadcrumbs":[{"code":"13","name":"Detergenți & igienizare","slug":"13-detergent-si-igienizare"},{"code":"1302","name":"Curățenie și întreținerea casei","slug":"1302-igienizarea-casei"},{"code":"130207","name":"Hârtie de copt, folii și pungi alimentare","slug":"130207-folie-si-pungi-alimentar-hartie-de-copt"},{"code":"100059294","name":"Folie alimentară 50m","slug":"100059294-epack-folie-alimentara-50m"}],"activePromotion":null,"saveMe":null,"labels":[],"geniusPrice":null,"geniusUnitPricePerLabel":null,"banner":null,"discountLabel":null,"geniusDiscountLabel":null,"badge":null}],"filters":{"countSelected":0,"items":[{"code":"promotion","name":"Promoții","countSelected":0,"values":[{"code":"oferte-dph-21feb-8mar23","name":"Curățenie și îngrijire personală","isSelected":false,"count":2}]},{"code":"brand","name":"Brand","countSelected":0,"values":[{"code":"epack-b369","name":"epack","isSelected":false,"count":11},{"code":"fino-b546","name":"Fino","isSelected":false,"count":14},{"code":"oti-b1002","name":"Oti","isSelected":false,"count":9},{"code":"sano-b580","name":"Sano","isSelected":false,"count":1},{"code":"toppits-b314","name":"Toppits","isSelected":false,"count":3}]}]},"orderBy":[{"field":"price","direction":"asc","name":"Preț crescător","isSelected":false},{"field":"price","direction":"desc","name":"Preț descrescător","isSelected":false},{"field":"popularity","direction":"desc","name":"Cele mai populare","isSelected":true},{"field":"category","direction":"asc","name":"Categorie","isSelected":false}],"metaTitle":"Hârtie de copt, folii și pungi alimentare - Gamă variată","metaDescription":"Vrei Hârtie de copt, folii și pungi alimentare? Alege dintr-o gamă variată. Comanzi simplu și ai livrare rapidă, calitate și prospețime. Hai pe Freshful.ro","metaKeywords":null,"banners":[]}}