{"type":"subcategory","payload":{"analyticsListId":"category_130205-burete-si-lavete","analyticsListName":"Category - Bureți și lavete","name":"Bureți și lavete","slug":"130205-burete-si-lavete","image":null,"breadcrumbs":[{"code":"13","name":"Detergenți & igienizare","slug":"13-detergent-si-igienizare"},{"code":"1302","name":"Curățenie și întreținerea casei","slug":"1302-igienizarea-casei"},{"code":"130205","name":"Bureți și lavete","slug":"130205-burete-si-lavete"}],"slots":[],"page":1,"limit":10,"pages":7,"count":69,"siblings":[{"name":"Spălare și întreținere rufe","slug":"1301-spalare-si-intretinere-rufe","selected":false},{"name":"Curățenie și întreținerea casei","slug":"1302-igienizarea-casei","selected":true},{"name":"Hârtie igienică, șervețele și prosoape","slug":"1303-hartie-igienica-si-servetele","selected":false}],"children":[{"name":"Toate produsele","slug":"1302-igienizarea-casei","selected":false},{"name":"Detergent de vase","slug":"130201-detergent-vase","selected":false},{"name":"Cremă de pantofi","slug":"130202-crema-de-pantofi","selected":false},{"name":"Insecticide","slug":"130203-insecticide","selected":false},{"name":"Soluții de curățat","slug":"130204-solutii-de-curatat","selected":false},{"name":"Bureți și lavete","slug":"130205-burete-si-lavete","selected":true},{"name":"Hârtie de copt, folii și pungi alimentare","slug":"130207-folie-si-pungi-alimentar-hartie-de-copt","selected":false},{"name":"Saci de gunoi","slug":"130208-saci-pentru-gunoi","selected":false},{"name":"Odorizante pentru casă","slug":"130209-odorizant-casa","selected":false},{"name":"Produse pentru baie","slug":"130210-produse-pentru-baie","selected":false},{"name":"Produse pentru bucătărie","slug":"130211-produse-pentru-bucatarie","selected":false},{"name":"Accesorii pentru curățenie","slug":"accesorii-pentru-curatenie","selected":false}],"products":[{"code":"100033164","variantCode":"100033164","name":"Burete vase cu protecție pentru unghii","slug":"100033164-scotch-brite-burete-vase-cu-protectie-pentru-unghii","unitPriceLabel":"","brand":"Scotch Brite","brandCode":"366","brandFilterCode":"scotch-brite-b367","sku":"100033164","price":6.54,"originalPrice":null,"currencyCode":"RON","currency":"Lei","image":{"thumbnail":{"default":"https://cdn.freshful.ro/media/cache/sylius_shop_product_thumbnail/a6/72/e14d736b3274f09f2013b91ce371.jpg"},"large":{"default":"https://cdn.freshful.ro/media/cache/freshful_large/a6/72/e14d736b3274f09f2013b91ce371.jpg"},"extralarge":{"default":"https://cdn.freshful.ro/media/cache/sylius_shop_product_original/a6/72/e14d736b3274f09f2013b91ce371.jpg"}},"label":{"text":"Profită acum","backgroundColor":"#FF9903","textColor":"#FFFFFF"},"tags":[],"isAvailable":true,"maxAvailableQuantity":100,"maxAllowedQuantity":100,"breadcrumbs":[{"code":"13","name":"Detergenți & igienizare","slug":"13-detergent-si-igienizare"},{"code":"1302","name":"Curățenie și întreținerea casei","slug":"1302-igienizarea-casei"},{"code":"130205","name":"Bureți și lavete","slug":"130205-burete-si-lavete"},{"code":"100033164","name":"Burete vase cu protecție pentru unghii","slug":"100033164-scotch-brite-burete-vase-cu-protectie-pentru-unghii"}],"activePromotion":{"code":"freshful-top-deals-2023","name":"Preț avantajos","targetQuantity":null},"saveMe":null,"labels":[{"type":"v1","items":[{"text":"Profită acum","backgroundColor":"#FF9903","textColor":"#FFFFFF"}]}],"geniusPrice":null,"geniusUnitPricePerLabel":null,"banner":{"text":"Preț avantajos","textColor":"#F95510","bgColor":"#FEF1CD","icon":null,"link":"https://www.freshful.ro/oferte/freshful-top-deals-2023","type":"promo","analyticsEventType":"select_promotion","analyticsEventPayload":{"promotion_id":"freshful-top-deals-2023","promotion_name":"Profită de Top Deals"}},"discountLabel":null,"geniusDiscountLabel":null,"badge":null},{"code":"100033167","variantCode":"100033167","name":"Lavete superabsorbante 3 buc","slug":"100033167-scotch-brite-lavete-superabsorbante-3-buc","unitPriceLabel":"","brand":"Scotch Brite","brandCode":"366","brandFilterCode":"scotch-brite-b367","sku":"100033167","price":10.9,"originalPrice":null,"currencyCode":"RON","currency":"Lei","image":{"thumbnail":{"default":"https://cdn.freshful.ro/media/cache/sylius_shop_product_thumbnail/1a/e5/30975c9d81a55572991ea2dab1d8.jpg"},"large":{"default":"https://cdn.freshful.ro/media/cache/freshful_large/1a/e5/30975c9d81a55572991ea2dab1d8.jpg"},"extralarge":{"default":"https://cdn.freshful.ro/media/cache/sylius_shop_product_original/1a/e5/30975c9d81a55572991ea2dab1d8.jpg"}},"label":{"text":"Profită acum","backgroundColor":"#FF9903","textColor":"#FFFFFF"},"tags":[],"isAvailable":true,"maxAvailableQuantity":65,"maxAllowedQuantity":100,"breadcrumbs":[{"code":"13","name":"Detergenți & igienizare","slug":"13-detergent-si-igienizare"},{"code":"1302","name":"Curățenie și întreținerea casei","slug":"1302-igienizarea-casei"},{"code":"130205","name":"Bureți și lavete","slug":"130205-burete-si-lavete"},{"code":"100033167","name":"Lavete superabsorbante 3 buc","slug":"100033167-scotch-brite-lavete-superabsorbante-3-buc"}],"activePromotion":{"code":"freshful-top-deals-2023","name":"Preț avantajos","targetQuantity":null},"saveMe":null,"labels":[{"type":"v1","items":[{"text":"Profită acum","backgroundColor":"#FF9903","textColor":"#FFFFFF"}]}],"geniusPrice":null,"geniusUnitPricePerLabel":null,"banner":{"text":"Preț avantajos","textColor":"#F95510","bgColor":"#FEF1CD","icon":null,"link":"https://www.freshful.ro/oferte/freshful-top-deals-2023","type":"promo","analyticsEventType":"select_promotion","analyticsEventPayload":{"promotion_id":"freshful-top-deals-2023","promotion_name":"Profită de Top Deals"}},"discountLabel":null,"geniusDiscountLabel":null,"badge":null},{"code":"100033177","variantCode":"100033177","name":"Burete metalic spirală inox 2 buc","slug":"100033177-scotch-brite-burete-metalic-spirala-inox-2-buc","unitPriceLabel":"","brand":"Scotch Brite","brandCode":"366","brandFilterCode":"scotch-brite-b367","sku":"100033177","price":5.57,"originalPrice":null,"currencyCode":"RON","currency":"Lei","image":{"thumbnail":{"default":"https://cdn.freshful.ro/media/cache/sylius_shop_product_thumbnail/66/39/66d1301e698e2459d7fd64739ce2.jpg"},"large":{"default":"https://cdn.freshful.ro/media/cache/freshful_large/66/39/66d1301e698e2459d7fd64739ce2.jpg"},"extralarge":{"default":"https://cdn.freshful.ro/media/cache/sylius_shop_product_original/66/39/66d1301e698e2459d7fd64739ce2.jpg"}},"label":{"text":"Profită acum","backgroundColor":"#FF9903","textColor":"#FFFFFF"},"tags":[],"isAvailable":true,"maxAvailableQuantity":27,"maxAllowedQuantity":100,"breadcrumbs":[{"code":"13","name":"Detergenți & igienizare","slug":"13-detergent-si-igienizare"},{"code":"1302","name":"Curățenie și întreținerea casei","slug":"1302-igienizarea-casei"},{"code":"130205","name":"Bureți și lavete","slug":"130205-burete-si-lavete"},{"code":"100033177","name":"Burete metalic spirală inox 2 buc","slug":"100033177-scotch-brite-burete-metalic-spirala-inox-2-buc"}],"activePromotion":{"code":"freshful-top-deals-2023","name":"Preț avantajos","targetQuantity":null},"saveMe":null,"labels":[{"type":"v1","items":[{"text":"Profită acum","backgroundColor":"#FF9903","textColor":"#FFFFFF"}]}],"geniusPrice":null,"geniusUnitPricePerLabel":null,"banner":{"text":"Preț avantajos","textColor":"#F95510","bgColor":"#FEF1CD","icon":null,"link":"https://www.freshful.ro/oferte/freshful-top-deals-2023","type":"promo","analyticsEventType":"select_promotion","analyticsEventPayload":{"promotion_id":"freshful-top-deals-2023","promotion_name":"Profită de Top Deals"}},"discountLabel":null,"geniusDiscountLabel":null,"badge":null},{"code":"100059287","variantCode":"5948552002033","name":"Bureți pentru vase cu caneluri 5buc","slug":"100059287-epack-bureti-pentru-vase-cu-caneluri-5buc","unitPriceLabel":"","brand":"epack","brandCode":"368","brandFilterCode":"epack-b369","sku":"100059287","price":4.84,"originalPrice":null,"currencyCode":"RON","currency":"Lei","image":{"thumbnail":{"default":"https://cdn.freshful.ro/media/cache/sylius_shop_product_thumbnail/96/9f/43c78b374180e93e5e4757d41514.jpg"},"large":{"default":"https://cdn.freshful.ro/media/cache/freshful_large/96/9f/43c78b374180e93e5e4757d41514.jpg"},"extralarge":{"default":"https://cdn.freshful.ro/media/cache/sylius_shop_product_original/96/9f/43c78b374180e93e5e4757d41514.jpg"}},"label":null,"tags":[],"isAvailable":true,"maxAvailableQuantity":100,"maxAllowedQuantity":100,"breadcrumbs":[{"code":"13","name":"Detergenți & igienizare","slug":"13-detergent-si-igienizare"},{"code":"1302","name":"Curățenie și întreținerea casei","slug":"1302-igienizarea-casei"},{"code":"130205","name":"Bureți și lavete","slug":"130205-burete-si-lavete"},{"code":"100059287","name":"Bureți pentru vase cu caneluri 5buc","slug":"100059287-epack-bureti-pentru-vase-cu-caneluri-5buc"}],"activePromotion":null,"saveMe":null,"labels":[],"geniusPrice":null,"geniusUnitPricePerLabel":null,"banner":null,"discountLabel":null,"geniusDiscountLabel":null,"badge":null},{"code":"100059299","variantCode":"5948552001166","name":"Lavete umede 5buc","slug":"100059299-epack-lavete-umede-5buc","unitPriceLabel":"","brand":"epack","brandCode":"368","brandFilterCode":"epack-b369","sku":"100059299","price":12.5,"originalPrice":null,"currencyCode":"RON","currency":"Lei","image":{"thumbnail":{"default":"https://cdn.freshful.ro/media/cache/sylius_shop_product_thumbnail/59/1c/3912ddf44ed59d54ded2cdf8c9dd.jpg"},"large":{"default":"https://cdn.freshful.ro/media/cache/freshful_large/59/1c/3912ddf44ed59d54ded2cdf8c9dd.jpg"},"extralarge":{"default":"https://cdn.freshful.ro/media/cache/sylius_shop_product_original/59/1c/3912ddf44ed59d54ded2cdf8c9dd.jpg"}},"label":null,"tags":[],"isAvailable":true,"maxAvailableQuantity":65,"maxAllowedQuantity":100,"breadcrumbs":[{"code":"13","name":"Detergenți & igienizare","slug":"13-detergent-si-igienizare"},{"code":"1302","name":"Curățenie și întreținerea casei","slug":"1302-igienizarea-casei"},{"code":"130205","name":"Bureți și lavete","slug":"130205-burete-si-lavete"},{"code":"100059299","name":"Lavete umede 5buc","slug":"100059299-epack-lavete-umede-5buc"}],"activePromotion":null,"saveMe":null,"labels":[],"geniusPrice":null,"geniusUnitPricePerLabel":null,"banner":null,"discountLabel":null,"geniusDiscountLabel":null,"badge":null},{"code":"100085568","variantCode":"100085568","name":"Bureți de bucătărie 5 buc","slug":"100085568-fino-bureti-de-bucatarie-5-buc","unitPriceLabel":"","brand":"Fino","brandCode":"545","brandFilterCode":"fino-b546","sku":"100085568","price":4.49,"originalPrice":null,"currencyCode":"RON","currency":"Lei","image":{"thumbnail":{"default":"https://cdn.freshful.ro/media/cache/sylius_shop_product_thumbnail/03/3d/70bc885bc1f22caf49f6f3bfcbe9.jpg"},"large":{"default":"https://cdn.freshful.ro/media/cache/freshful_large/03/3d/70bc885bc1f22caf49f6f3bfcbe9.jpg"},"extralarge":{"default":"https://cdn.freshful.ro/media/cache/sylius_shop_product_original/03/3d/70bc885bc1f22caf49f6f3bfcbe9.jpg"}},"label":null,"tags":[],"isAvailable":true,"maxAvailableQuantity":100,"maxAllowedQuantity":100,"breadcrumbs":[{"code":"13","name":"Detergenți & igienizare","slug":"13-detergent-si-igienizare"},{"code":"1302","name":"Curățenie și întreținerea casei","slug":"1302-igienizarea-casei"},{"code":"130205","name":"Bureți și lavete","slug":"130205-burete-si-lavete"},{"code":"100085568","name":"Bureți de bucătărie 5 buc","slug":"100085568-fino-bureti-de-bucatarie-5-buc"}],"activePromotion":null,"saveMe":null,"labels":[],"geniusPrice":null,"geniusUnitPricePerLabel":null,"banner":null,"discountLabel":null,"geniusDiscountLabel":null,"badge":null},{"code":"100085599","variantCode":"100085599","name":"Bureți onduIați 4 buc","slug":"100085599-fino-bureti-onduiati-4-buc","unitPriceLabel":"","brand":"Fino","brandCode":"545","brandFilterCode":"fino-b546","sku":"100085599","price":5.59,"originalPrice":null,"currencyCode":"RON","currency":"Lei","image":{"thumbnail":{"default":"https://cdn.freshful.ro/media/cache/sylius_shop_product_thumbnail/0c/3c/68cb9d4dcc7c1cf51ae6c83ed43a.jpg"},"large":{"default":"https://cdn.freshful.ro/media/cache/freshful_large/0c/3c/68cb9d4dcc7c1cf51ae6c83ed43a.jpg"},"extralarge":{"default":"https://cdn.freshful.ro/media/cache/sylius_shop_product_original/0c/3c/68cb9d4dcc7c1cf51ae6c83ed43a.jpg"}},"label":null,"tags":[],"isAvailable":true,"maxAvailableQuantity":100,"maxAllowedQuantity":100,"breadcrumbs":[{"code":"13","name":"Detergenți & igienizare","slug":"13-detergent-si-igienizare"},{"code":"1302","name":"Curățenie și întreținerea casei","slug":"1302-igienizarea-casei"},{"code":"130205","name":"Bureți și lavete","slug":"130205-burete-si-lavete"},{"code":"100085599","name":"Bureți onduIați 4 buc","slug":"100085599-fino-bureti-onduiati-4-buc"}],"activePromotion":null,"saveMe":null,"labels":[],"geniusPrice":null,"geniusUnitPricePerLabel":null,"banner":null,"discountLabel":null,"geniusDiscountLabel":null,"badge":null},{"code":"100085573","variantCode":"100085573","name":"Burete pentru vase din teflon","slug":"100085573-fino-burete-pentru-vase-din-teflon","unitPriceLabel":"","brand":"Fino","brandCode":"545","brandFilterCode":"fino-b546","sku":"100085573","price":2.69,"originalPrice":null,"currencyCode":"RON","currency":"Lei","image":{"thumbnail":{"default":"https://cdn.freshful.ro/media/cache/sylius_shop_product_thumbnail/dd/9e/ec4905a148e67e2625cdedc1b604.jpg"},"large":{"default":"https://cdn.freshful.ro/media/cache/freshful_large/dd/9e/ec4905a148e67e2625cdedc1b604.jpg"},"extralarge":{"default":"https://cdn.freshful.ro/media/cache/sylius_shop_product_original/dd/9e/ec4905a148e67e2625cdedc1b604.jpg"}},"label":null,"tags":[],"isAvailable":true,"maxAvailableQuantity":100,"maxAllowedQuantity":100,"breadcrumbs":[{"code":"13","name":"Detergenți & igienizare","slug":"13-detergent-si-igienizare"},{"code":"1302","name":"Curățenie și întreținerea casei","slug":"1302-igienizarea-casei"},{"code":"130205","name":"Bureți și lavete","slug":"130205-burete-si-lavete"},{"code":"100085573","name":"Burete pentru vase din teflon","slug":"100085573-fino-burete-pentru-vase-din-teflon"}],"activePromotion":null,"saveMe":null,"labels":[],"geniusPrice":null,"geniusUnitPricePerLabel":null,"banner":null,"discountLabel":null,"geniusDiscountLabel":null,"badge":null},{"code":"100059300","variantCode":"5948552000053","name":"Lavete umede 3buc","slug":"100059300-epack-lavete-umede-3buc","unitPriceLabel":"","brand":"epack","brandCode":"368","brandFilterCode":"epack-b369","sku":"100059300","price":6.9,"originalPrice":null,"currencyCode":"RON","currency":"Lei","image":{"thumbnail":{"default":"https://cdn.freshful.ro/media/cache/sylius_shop_product_thumbnail/b0/b4/e84935699e27b37a411b1fc1335f.jpg"},"large":{"default":"https://cdn.freshful.ro/media/cache/freshful_large/b0/b4/e84935699e27b37a411b1fc1335f.jpg"},"extralarge":{"default":"https://cdn.freshful.ro/media/cache/sylius_shop_product_original/b0/b4/e84935699e27b37a411b1fc1335f.jpg"}},"label":null,"tags":[],"isAvailable":true,"maxAvailableQuantity":75,"maxAllowedQuantity":100,"breadcrumbs":[{"code":"13","name":"Detergenți & igienizare","slug":"13-detergent-si-igienizare"},{"code":"1302","name":"Curățenie și întreținerea casei","slug":"1302-igienizarea-casei"},{"code":"130205","name":"Bureți și lavete","slug":"130205-burete-si-lavete"},{"code":"100059300","name":"Lavete umede 3buc","slug":"100059300-epack-lavete-umede-3buc"}],"activePromotion":null,"saveMe":null,"labels":[],"geniusPrice":null,"geniusUnitPricePerLabel":null,"banner":null,"discountLabel":null,"geniusDiscountLabel":null,"badge":null},{"code":"100085572","variantCode":"100085572","name":"Lavete umede 3 buc","slug":"100085572-fino-lavete-umede-3-buc","unitPriceLabel":"","brand":"Fino","brandCode":"545","brandFilterCode":"fino-b546","sku":"100085572","price":6.59,"originalPrice":null,"currencyCode":"RON","currency":"Lei","image":{"thumbnail":{"default":"https://cdn.freshful.ro/media/cache/sylius_shop_product_thumbnail/57/c4/bd55a4b48cd80c3ce21e89d3310d.jpg"},"large":{"default":"https://cdn.freshful.ro/media/cache/freshful_large/57/c4/bd55a4b48cd80c3ce21e89d3310d.jpg"},"extralarge":{"default":"https://cdn.freshful.ro/media/cache/sylius_shop_product_original/57/c4/bd55a4b48cd80c3ce21e89d3310d.jpg"}},"label":null,"tags":[],"isAvailable":true,"maxAvailableQuantity":100,"maxAllowedQuantity":100,"breadcrumbs":[{"code":"13","name":"Detergenți & igienizare","slug":"13-detergent-si-igienizare"},{"code":"1302","name":"Curățenie și întreținerea casei","slug":"1302-igienizarea-casei"},{"code":"130205","name":"Bureți și lavete","slug":"130205-burete-si-lavete"},{"code":"100085572","name":"Lavete umede 3 buc","slug":"100085572-fino-lavete-umede-3-buc"}],"activePromotion":null,"saveMe":null,"labels":[],"geniusPrice":null,"geniusUnitPricePerLabel":null,"banner":null,"discountLabel":null,"geniusDiscountLabel":null,"badge":null}],"filters":{"countSelected":0,"items":[{"code":"promotion","name":"Promoții","countSelected":0,"values":[{"code":"oferte-dph-21feb-8mar23","name":"Curățenie și îngrijire personală","isSelected":false,"count":1},{"code":"freshful-top-deals-2023","name":"Profită de Top Deals","isSelected":false,"count":3}]},{"code":"brand","name":"Brand","countSelected":0,"values":[{"code":"carpa-magica-b2954","name":"Carpa Magica","isSelected":false,"count":1},{"code":"epack-b369","name":"epack","isSelected":false,"count":20},{"code":"fino-b546","name":"Fino","isSelected":false,"count":17},{"code":"oti-b1002","name":"Oti","isSelected":false,"count":1},{"code":"sano-b580","name":"Sano","isSelected":false,"count":7},{"code":"scotch-brite-b367","name":"Scotch Brite","isSelected":false,"count":15},{"code":"sonett-b1681","name":"Sonett","isSelected":false,"count":1},{"code":"tree-b1367","name":"Tree","isSelected":false,"count":1},{"code":"vileda-b431","name":"Vileda","isSelected":false,"count":6}]},{"code":"diet_lifestyle","name":"Dietă și lifestyle","countSelected":0,"values":[{"code":"bio-a26","name":"Bio","isSelected":false,"count":1},{"code":"eco-a83","name":"Eco","isSelected":false,"count":1},{"code":"vegan-a24","name":"Vegan","isSelected":false,"count":1}]}]},"orderBy":[{"field":"price","direction":"asc","name":"Preț crescător","isSelected":false},{"field":"price","direction":"desc","name":"Preț descrescător","isSelected":false},{"field":"popularity","direction":"desc","name":"Cele mai populare","isSelected":true},{"field":"category","direction":"asc","name":"Categorie","isSelected":false}],"metaTitle":"Bureți și lavete - Gamă variată","metaDescription":"Vrei Bureți și lavete? Alege dintr-o gamă variată. Comanzi simplu și ai livrare rapidă, calitate și prospețime. Hai pe Freshful.ro","metaKeywords":null,"banners":[]}}