{"type":"subcategory","payload":{"analyticsListId":"category_130208-saci-pentru-gunoi","analyticsListName":"Category - Saci de gunoi","name":"Saci de gunoi","slug":"130208-saci-pentru-gunoi","image":null,"breadcrumbs":[{"code":"13","name":"Detergenți & igienizare","slug":"13-detergent-si-igienizare"},{"code":"1302","name":"Curățenie și întreținerea casei","slug":"1302-igienizarea-casei"},{"code":"130208","name":"Saci de gunoi","slug":"130208-saci-pentru-gunoi"}],"slots":[],"page":1,"limit":10,"pages":6,"count":56,"siblings":[{"name":"Spălare și întreținere rufe","slug":"1301-spalare-si-intretinere-rufe","selected":false},{"name":"Curățenie și întreținerea casei","slug":"1302-igienizarea-casei","selected":true},{"name":"Hârtie igienică, șervețele și prosoape","slug":"1303-hartie-igienica-si-servetele","selected":false}],"children":[{"name":"Toate produsele","slug":"1302-igienizarea-casei","selected":false},{"name":"Detergent de vase","slug":"130201-detergent-vase","selected":false},{"name":"Cremă de pantofi","slug":"130202-crema-de-pantofi","selected":false},{"name":"Insecticide","slug":"130203-insecticide","selected":false},{"name":"Soluții de curățat","slug":"130204-solutii-de-curatat","selected":false},{"name":"Bureți și lavete","slug":"130205-burete-si-lavete","selected":false},{"name":"Hârtie de copt, folii și pungi alimentare","slug":"130207-folie-si-pungi-alimentar-hartie-de-copt","selected":false},{"name":"Saci de gunoi","slug":"130208-saci-pentru-gunoi","selected":true},{"name":"Odorizante pentru casă","slug":"130209-odorizant-casa","selected":false},{"name":"Produse pentru baie","slug":"130210-produse-pentru-baie","selected":false},{"name":"Produse pentru bucătărie","slug":"130211-produse-pentru-bucatarie","selected":false},{"name":"Accesorii pentru curățenie","slug":"accesorii-pentru-curatenie","selected":false}],"products":[{"code":"100085583","variantCode":"100085583","name":"Saci menajeri HD 60l 20 buc","slug":"100085583-fino-saci-menajeri-hd-60l-20-buc","unitPriceLabel":"","brand":"Fino","brandCode":"545","brandFilterCode":"fino-b546","sku":"100085583","price":6.9,"originalPrice":null,"currencyCode":"RON","currency":"Lei","image":{"thumbnail":{"default":"https://cdn.freshful.ro/media/cache/sylius_shop_product_thumbnail/61/82/a6776f583cae38581b1d42a9fcd1.jpg"},"large":{"default":"https://cdn.freshful.ro/media/cache/freshful_large/61/82/a6776f583cae38581b1d42a9fcd1.jpg"},"extralarge":{"default":"https://cdn.freshful.ro/media/cache/sylius_shop_product_original/61/82/a6776f583cae38581b1d42a9fcd1.jpg"}},"label":null,"tags":[],"isAvailable":true,"maxAvailableQuantity":100,"maxAllowedQuantity":100,"breadcrumbs":[{"code":"13","name":"Detergenți & igienizare","slug":"13-detergent-si-igienizare"},{"code":"1302","name":"Curățenie și întreținerea casei","slug":"1302-igienizarea-casei"},{"code":"130208","name":"Saci de gunoi","slug":"130208-saci-pentru-gunoi"},{"code":"100085583","name":"Saci menajeri HD 60l 20 buc","slug":"100085583-fino-saci-menajeri-hd-60l-20-buc"}],"activePromotion":null,"saveMe":null,"labels":[],"geniusPrice":null,"geniusUnitPricePerLabel":null,"banner":null,"discountLabel":null,"geniusDiscountLabel":null,"badge":null},{"code":"100085582","variantCode":"100085582","name":"Saci menajeri HD 35l 30 buc","slug":"100085582-fino-saci-menajeri-hd-35l-30-buc","unitPriceLabel":"","brand":"Fino","brandCode":"545","brandFilterCode":"fino-b546","sku":"100085582","price":6.08,"originalPrice":null,"currencyCode":"RON","currency":"Lei","image":{"thumbnail":{"default":"https://cdn.freshful.ro/media/cache/sylius_shop_product_thumbnail/6b/f9/df089ff9b91544a5c7568c027b2b.jpg"},"large":{"default":"https://cdn.freshful.ro/media/cache/freshful_large/6b/f9/df089ff9b91544a5c7568c027b2b.jpg"},"extralarge":{"default":"https://cdn.freshful.ro/media/cache/sylius_shop_product_original/6b/f9/df089ff9b91544a5c7568c027b2b.jpg"}},"label":null,"tags":[],"isAvailable":true,"maxAvailableQuantity":100,"maxAllowedQuantity":100,"breadcrumbs":[{"code":"13","name":"Detergenți & igienizare","slug":"13-detergent-si-igienizare"},{"code":"1302","name":"Curățenie și întreținerea casei","slug":"1302-igienizarea-casei"},{"code":"130208","name":"Saci de gunoi","slug":"130208-saci-pentru-gunoi"},{"code":"100085582","name":"Saci menajeri HD 35l 30 buc","slug":"100085582-fino-saci-menajeri-hd-35l-30-buc"}],"activePromotion":null,"saveMe":null,"labels":[],"geniusPrice":null,"geniusUnitPricePerLabel":null,"banner":null,"discountLabel":null,"geniusDiscountLabel":null,"badge":null},{"code":"100085579","variantCode":"100085579","name":"Saci menajeri 60l 20 buc","slug":"100085579-fino-saci-menajeri-60l-20-buc","unitPriceLabel":"","brand":"Fino","brandCode":"545","brandFilterCode":"fino-b546","sku":"100085579","price":5.55,"originalPrice":null,"currencyCode":"RON","currency":"Lei","image":{"thumbnail":{"default":"https://cdn.freshful.ro/media/cache/sylius_shop_product_thumbnail/4f/d3/0d3188472c7efc75b654834fc83b.jpg"},"large":{"default":"https://cdn.freshful.ro/media/cache/freshful_large/4f/d3/0d3188472c7efc75b654834fc83b.jpg"},"extralarge":{"default":"https://cdn.freshful.ro/media/cache/sylius_shop_product_original/4f/d3/0d3188472c7efc75b654834fc83b.jpg"}},"label":null,"tags":[],"isAvailable":true,"maxAvailableQuantity":100,"maxAllowedQuantity":100,"breadcrumbs":[{"code":"13","name":"Detergenți & igienizare","slug":"13-detergent-si-igienizare"},{"code":"1302","name":"Curățenie și întreținerea casei","slug":"1302-igienizarea-casei"},{"code":"130208","name":"Saci de gunoi","slug":"130208-saci-pentru-gunoi"},{"code":"100085579","name":"Saci menajeri 60l 20 buc","slug":"100085579-fino-saci-menajeri-60l-20-buc"}],"activePromotion":null,"saveMe":null,"labels":[],"geniusPrice":null,"geniusUnitPricePerLabel":null,"banner":null,"discountLabel":null,"geniusDiscountLabel":null,"badge":null},{"code":"100134661","variantCode":"100134661","name":"Saci menajeri super rezistenți, galbeni, 60l, 15 buc","slug":"100134661-sano-saci-menajeri-super-rezistenti-galbeni-60l-15-buc","unitPriceLabel":"","brand":"Sano","brandCode":"579","brandFilterCode":"sano-b580","sku":"100134661","price":6.49,"originalPrice":null,"currencyCode":"RON","currency":"Lei","image":{"thumbnail":{"default":"https://cdn.freshful.ro/media/cache/sylius_shop_product_thumbnail/e3/10/b8f347b0b0cd7539a5caa20c9800.jpg"},"large":{"default":"https://cdn.freshful.ro/media/cache/freshful_large/e3/10/b8f347b0b0cd7539a5caa20c9800.jpg"},"extralarge":{"default":"https://cdn.freshful.ro/media/cache/sylius_shop_product_original/e3/10/b8f347b0b0cd7539a5caa20c9800.jpg"}},"label":null,"tags":[],"isAvailable":true,"maxAvailableQuantity":100,"maxAllowedQuantity":100,"breadcrumbs":[{"code":"13","name":"Detergenți & igienizare","slug":"13-detergent-si-igienizare"},{"code":"1302","name":"Curățenie și întreținerea casei","slug":"1302-igienizarea-casei"},{"code":"130208","name":"Saci de gunoi","slug":"130208-saci-pentru-gunoi"},{"code":"100134661","name":"Saci menajeri super rezistenți, galbeni, 60l, 15 buc","slug":"100134661-sano-saci-menajeri-super-rezistenti-galbeni-60l-15-buc"}],"activePromotion":null,"saveMe":null,"labels":[],"geniusPrice":null,"geniusUnitPricePerLabel":null,"banner":null,"discountLabel":null,"geniusDiscountLabel":null,"badge":null},{"code":"100085595","variantCode":"100085595","name":"Saci premium cu mânere 40l 20 buc","slug":"100085595-fino-saci-premium-cu-manere-40l-20-buc","unitPriceLabel":"","brand":"Fino","brandCode":"545","brandFilterCode":"fino-b546","sku":"100085595","price":5.05,"originalPrice":null,"currencyCode":"RON","currency":"Lei","image":{"thumbnail":{"default":"https://cdn.freshful.ro/media/cache/sylius_shop_product_thumbnail/a4/15/145d48f74b20ffe3464a278f99ce.jpg"},"large":{"default":"https://cdn.freshful.ro/media/cache/freshful_large/a4/15/145d48f74b20ffe3464a278f99ce.jpg"},"extralarge":{"default":"https://cdn.freshful.ro/media/cache/sylius_shop_product_original/a4/15/145d48f74b20ffe3464a278f99ce.jpg"}},"label":null,"tags":[],"isAvailable":true,"maxAvailableQuantity":100,"maxAllowedQuantity":100,"breadcrumbs":[{"code":"13","name":"Detergenți & igienizare","slug":"13-detergent-si-igienizare"},{"code":"1302","name":"Curățenie și întreținerea casei","slug":"1302-igienizarea-casei"},{"code":"130208","name":"Saci de gunoi","slug":"130208-saci-pentru-gunoi"},{"code":"100085595","name":"Saci premium cu mânere 40l 20 buc","slug":"100085595-fino-saci-premium-cu-manere-40l-20-buc"}],"activePromotion":null,"saveMe":null,"labels":[],"geniusPrice":null,"geniusUnitPricePerLabel":null,"banner":null,"discountLabel":null,"geniusDiscountLabel":null,"badge":null},{"code":"100085580","variantCode":"100085580","name":"Saci menajeri cu mânere HD 10l 50 buc","slug":"100085580-fino-saci-menajeri-cu-manere-hd-10l-50-buc","unitPriceLabel":"","brand":"Fino","brandCode":"545","brandFilterCode":"fino-b546","sku":"100085580","price":4.15,"originalPrice":null,"currencyCode":"RON","currency":"Lei","image":{"thumbnail":{"default":"https://cdn.freshful.ro/media/cache/sylius_shop_product_thumbnail/fd/5c/6a8a6402bf12cf05d0f7020b6c70.jpg"},"large":{"default":"https://cdn.freshful.ro/media/cache/freshful_large/fd/5c/6a8a6402bf12cf05d0f7020b6c70.jpg"},"extralarge":{"default":"https://cdn.freshful.ro/media/cache/sylius_shop_product_original/fd/5c/6a8a6402bf12cf05d0f7020b6c70.jpg"}},"label":null,"tags":[],"isAvailable":true,"maxAvailableQuantity":100,"maxAllowedQuantity":100,"breadcrumbs":[{"code":"13","name":"Detergenți & igienizare","slug":"13-detergent-si-igienizare"},{"code":"1302","name":"Curățenie și întreținerea casei","slug":"1302-igienizarea-casei"},{"code":"130208","name":"Saci de gunoi","slug":"130208-saci-pentru-gunoi"},{"code":"100085580","name":"Saci menajeri cu mânere HD 10l 50 buc","slug":"100085580-fino-saci-menajeri-cu-manere-hd-10l-50-buc"}],"activePromotion":null,"saveMe":null,"labels":[],"geniusPrice":null,"geniusUnitPricePerLabel":null,"banner":null,"discountLabel":null,"geniusDiscountLabel":null,"badge":null},{"code":"100134660","variantCode":"100134660","name":"Saci menajeri super rezistenți, albastru, 60l, 15 buc","slug":"100134660-sano-saci-menajeri-super-rezistenti-albastru-60l-15-buc","unitPriceLabel":"","brand":"Sano","brandCode":"579","brandFilterCode":"sano-b580","sku":"100134660","price":6.49,"originalPrice":null,"currencyCode":"RON","currency":"Lei","image":{"thumbnail":{"default":"https://cdn.freshful.ro/media/cache/sylius_shop_product_thumbnail/db/77/c5d4f840f4355079214784778d45.jpg"},"large":{"default":"https://cdn.freshful.ro/media/cache/freshful_large/db/77/c5d4f840f4355079214784778d45.jpg"},"extralarge":{"default":"https://cdn.freshful.ro/media/cache/sylius_shop_product_original/db/77/c5d4f840f4355079214784778d45.jpg"}},"label":null,"tags":[],"isAvailable":true,"maxAvailableQuantity":100,"maxAllowedQuantity":100,"breadcrumbs":[{"code":"13","name":"Detergenți & igienizare","slug":"13-detergent-si-igienizare"},{"code":"1302","name":"Curățenie și întreținerea casei","slug":"1302-igienizarea-casei"},{"code":"130208","name":"Saci de gunoi","slug":"130208-saci-pentru-gunoi"},{"code":"100134660","name":"Saci menajeri super rezistenți, albastru, 60l, 15 buc","slug":"100134660-sano-saci-menajeri-super-rezistenti-albastru-60l-15-buc"}],"activePromotion":null,"saveMe":null,"labels":[],"geniusPrice":null,"geniusUnitPricePerLabel":null,"banner":null,"discountLabel":null,"geniusDiscountLabel":null,"badge":null},{"code":"100134659","variantCode":"100134659","name":"Saci menajeri super rezistenți 35l, verzi, 15 buc","slug":"100134659-sano-saci-menajeri-super-rezistenti-35l-verzi-15-buc","unitPriceLabel":"","brand":"Sano","brandCode":"579","brandFilterCode":"sano-b580","sku":"100134659","price":4.49,"originalPrice":null,"currencyCode":"RON","currency":"Lei","image":{"thumbnail":{"default":"https://cdn.freshful.ro/media/cache/sylius_shop_product_thumbnail/96/3d/0b4341f55363f83fdf5107e9c1d5.jpg"},"large":{"default":"https://cdn.freshful.ro/media/cache/freshful_large/96/3d/0b4341f55363f83fdf5107e9c1d5.jpg"},"extralarge":{"default":"https://cdn.freshful.ro/media/cache/sylius_shop_product_original/96/3d/0b4341f55363f83fdf5107e9c1d5.jpg"}},"label":null,"tags":[],"isAvailable":true,"maxAvailableQuantity":100,"maxAllowedQuantity":100,"breadcrumbs":[{"code":"13","name":"Detergenți & igienizare","slug":"13-detergent-si-igienizare"},{"code":"1302","name":"Curățenie și întreținerea casei","slug":"1302-igienizarea-casei"},{"code":"130208","name":"Saci de gunoi","slug":"130208-saci-pentru-gunoi"},{"code":"100134659","name":"Saci menajeri super rezistenți 35l, verzi, 15 buc","slug":"100134659-sano-saci-menajeri-super-rezistenti-35l-verzi-15-buc"}],"activePromotion":null,"saveMe":null,"labels":[],"geniusPrice":null,"geniusUnitPricePerLabel":null,"banner":null,"discountLabel":null,"geniusDiscountLabel":null,"badge":null},{"code":"100085587","variantCode":"100085587","name":"Saci menajeri easy pack 35l 30 buc","slug":"100085587-fino-saci-menajeri-easy-pack-35l-30-buc","unitPriceLabel":"","brand":"Fino","brandCode":"545","brandFilterCode":"fino-b546","sku":"100085587","price":8.05,"originalPrice":null,"currencyCode":"RON","currency":"Lei","image":{"thumbnail":{"default":"https://cdn.freshful.ro/media/cache/sylius_shop_product_thumbnail/f7/21/d8469666133ffa04485ee06a7d0f.jpg"},"large":{"default":"https://cdn.freshful.ro/media/cache/freshful_large/f7/21/d8469666133ffa04485ee06a7d0f.jpg"},"extralarge":{"default":"https://cdn.freshful.ro/media/cache/sylius_shop_product_original/f7/21/d8469666133ffa04485ee06a7d0f.jpg"}},"label":null,"tags":[],"isAvailable":true,"maxAvailableQuantity":100,"maxAllowedQuantity":100,"breadcrumbs":[{"code":"13","name":"Detergenți & igienizare","slug":"13-detergent-si-igienizare"},{"code":"1302","name":"Curățenie și întreținerea casei","slug":"1302-igienizarea-casei"},{"code":"130208","name":"Saci de gunoi","slug":"130208-saci-pentru-gunoi"},{"code":"100085587","name":"Saci menajeri easy pack 35l 30 buc","slug":"100085587-fino-saci-menajeri-easy-pack-35l-30-buc"}],"activePromotion":null,"saveMe":null,"labels":[],"geniusPrice":null,"geniusUnitPricePerLabel":null,"banner":null,"discountLabel":null,"geniusDiscountLabel":null,"badge":null},{"code":"100085596","variantCode":"100085596","name":"Saci premium cu mânere 70l 15 buc","slug":"100085596-fino-saci-premium-cu-manere-70l-15-buc","unitPriceLabel":"","brand":"Fino","brandCode":"545","brandFilterCode":"fino-b546","sku":"100085596","price":8.19,"originalPrice":null,"currencyCode":"RON","currency":"Lei","image":{"thumbnail":{"default":"https://cdn.freshful.ro/media/cache/sylius_shop_product_thumbnail/b4/35/b899f9edec5fd89dd65a04f8f9b9.jpg"},"large":{"default":"https://cdn.freshful.ro/media/cache/freshful_large/b4/35/b899f9edec5fd89dd65a04f8f9b9.jpg"},"extralarge":{"default":"https://cdn.freshful.ro/media/cache/sylius_shop_product_original/b4/35/b899f9edec5fd89dd65a04f8f9b9.jpg"}},"label":null,"tags":[],"isAvailable":true,"maxAvailableQuantity":100,"maxAllowedQuantity":100,"breadcrumbs":[{"code":"13","name":"Detergenți & igienizare","slug":"13-detergent-si-igienizare"},{"code":"1302","name":"Curățenie și întreținerea casei","slug":"1302-igienizarea-casei"},{"code":"130208","name":"Saci de gunoi","slug":"130208-saci-pentru-gunoi"},{"code":"100085596","name":"Saci premium cu mânere 70l 15 buc","slug":"100085596-fino-saci-premium-cu-manere-70l-15-buc"}],"activePromotion":null,"saveMe":null,"labels":[],"geniusPrice":null,"geniusUnitPricePerLabel":null,"banner":null,"discountLabel":null,"geniusDiscountLabel":null,"badge":null}],"filters":{"countSelected":0,"items":[{"code":"promotion","name":"Promoții","countSelected":0,"values":[{"code":"oferte-dph-21feb-8mar23","name":"Curățenie și îngrijire personală","isSelected":false,"count":2}]},{"code":"brand","name":"Brand","countSelected":0,"values":[{"code":"biodeck-b300","name":"Biodeck","isSelected":false,"count":2},{"code":"epack-b369","name":"epack","isSelected":false,"count":11},{"code":"fino-b546","name":"Fino","isSelected":false,"count":18},{"code":"oti-b1002","name":"Oti","isSelected":false,"count":14},{"code":"sano-b580","name":"Sano","isSelected":false,"count":10},{"code":"swirl-b315","name":"Swirl","isSelected":false,"count":1}]},{"code":"diet_lifestyle","name":"Dietă și lifestyle","countSelected":0,"values":[{"code":"bio-a26","name":"Bio","isSelected":false,"count":1},{"code":"eco-a83","name":"Eco","isSelected":false,"count":1}]}]},"orderBy":[{"field":"price","direction":"asc","name":"Preț crescător","isSelected":false},{"field":"price","direction":"desc","name":"Preț descrescător","isSelected":false},{"field":"popularity","direction":"desc","name":"Cele mai populare","isSelected":true},{"field":"category","direction":"asc","name":"Categorie","isSelected":false}],"metaTitle":"Saci de gunoi - Gamă variată","metaDescription":"Vrei Saci de gunoi? Alege dintr-o gamă variată. Comanzi simplu și ai livrare rapidă, calitate și prospețime. Hai pe Freshful.ro","metaKeywords":null,"banners":[]}}