{"type":"subcategory","payload":{"analyticsListId":"category_1302-igienizarea-casei","analyticsListName":"Category - Curățenie și întreținerea casei","name":"Curățenie și întreținerea casei","slug":"1302-igienizarea-casei","image":null,"breadcrumbs":[{"code":"13","name":"Detergenți & igienizare","slug":"13-detergent-si-igienizare"},{"code":"1302","name":"Curățenie și întreținerea casei","slug":"1302-igienizarea-casei"}],"slots":[],"page":1,"limit":10,"pages":72,"count":716,"siblings":[{"name":"Spălare și întreținere rufe","slug":"1301-spalare-si-intretinere-rufe","selected":false},{"name":"Curățenie și întreținerea casei","slug":"1302-igienizarea-casei","selected":true},{"name":"Hârtie igienică, șervețele și prosoape","slug":"1303-hartie-igienica-si-servetele","selected":false}],"children":[{"name":"Toate produsele","slug":"1302-igienizarea-casei","selected":true},{"name":"Detergent de vase","slug":"130201-detergent-vase","selected":false},{"name":"Cremă de pantofi","slug":"130202-crema-de-pantofi","selected":false},{"name":"Insecticide","slug":"130203-insecticide","selected":false},{"name":"Soluții de curățat","slug":"130204-solutii-de-curatat","selected":false},{"name":"Bureți și lavete","slug":"130205-burete-si-lavete","selected":false},{"name":"Hârtie de copt, folii și pungi alimentare","slug":"130207-folie-si-pungi-alimentar-hartie-de-copt","selected":false},{"name":"Saci de gunoi","slug":"130208-saci-pentru-gunoi","selected":false},{"name":"Odorizante pentru casă","slug":"130209-odorizant-casa","selected":false},{"name":"Produse pentru baie","slug":"130210-produse-pentru-baie","selected":false},{"name":"Produse pentru bucătărie","slug":"130211-produse-pentru-bucatarie","selected":false},{"name":"Accesorii pentru curățenie","slug":"accesorii-pentru-curatenie","selected":false}],"products":[{"code":"100061991","variantCode":"100061991","name":"Dezinfectant Thick Bleach Pine 1l","slug":"100061991-domestos-dezinfectant-thick-bleach-pine-1l","unitPriceLabel":"13,99 Lei/l","brand":"Domestos","brandCode":"762","brandFilterCode":"domestos-b763","sku":"100061991","price":13.99,"originalPrice":null,"currencyCode":"RON","currency":"Lei","image":{"thumbnail":{"default":"https://cdn.freshful.ro/media/cache/sylius_shop_product_thumbnail/dd/e6/084dcfcf8aac917ba4d44d0821ae.jpg"},"large":{"default":"https://cdn.freshful.ro/media/cache/freshful_large/dd/e6/084dcfcf8aac917ba4d44d0821ae.jpg"},"extralarge":{"default":"https://cdn.freshful.ro/media/cache/sylius_shop_product_original/dd/e6/084dcfcf8aac917ba4d44d0821ae.jpg"}},"label":{"text":"Profită acum","backgroundColor":"#FF9903","textColor":"#FFFFFF"},"tags":[],"isAvailable":true,"maxAvailableQuantity":100,"maxAllowedQuantity":100,"breadcrumbs":[{"code":"13","name":"Detergenți & igienizare","slug":"13-detergent-si-igienizare"},{"code":"1302","name":"Curățenie și întreținerea casei","slug":"1302-igienizarea-casei"},{"code":"130210","name":"Produse pentru baie","slug":"130210-produse-pentru-baie"},{"code":"100061991","name":"Dezinfectant Thick Bleach Pine 1l","slug":"100061991-domestos-dezinfectant-thick-bleach-pine-1l"}],"activePromotion":{"code":"freshful-top-deals-2023","name":"Preț avantajos","targetQuantity":null},"saveMe":null,"labels":[{"type":"v1","items":[{"text":"Profită acum","backgroundColor":"#FF9903","textColor":"#FFFFFF"}]}],"geniusPrice":null,"geniusUnitPricePerLabel":null,"banner":{"text":"Preț avantajos","textColor":"#F95510","bgColor":"#FEF1CD","icon":null,"link":"https://www.freshful.ro/oferte/freshful-top-deals-2023","type":"promo","analyticsEventType":"select_promotion","analyticsEventPayload":{"promotion_id":"freshful-top-deals-2023","promotion_name":"Profită de Top Deals"}},"discountLabel":null,"geniusDiscountLabel":null,"badge":null},{"code":"100092428","variantCode":"100092428","name":"Detergent de vase măr 1300ml","slug":"100092428-fairy-detergent-de-vase-mar-1300ml","unitPriceLabel":"11,53 Lei/l","brand":"Fairy","brandCode":"676","brandFilterCode":"fairy-b677","sku":"100092428","price":14.99,"originalPrice":21.99,"currencyCode":"RON","currency":"Lei","image":{"thumbnail":{"default":"https://cdn.freshful.ro/media/cache/sylius_shop_product_thumbnail/eb/b1/d783a7c5e3d02d213ba0e421d84a.jpg"},"large":{"default":"https://cdn.freshful.ro/media/cache/freshful_large/eb/b1/d783a7c5e3d02d213ba0e421d84a.jpg"},"extralarge":{"default":"https://cdn.freshful.ro/media/cache/sylius_shop_product_original/eb/b1/d783a7c5e3d02d213ba0e421d84a.jpg"}},"label":{"text":"-31%","backgroundColor":"#FF9903","textColor":"#FFFFFF"},"tags":[],"isAvailable":true,"maxAvailableQuantity":100,"maxAllowedQuantity":100,"breadcrumbs":[{"code":"13","name":"Detergenți & igienizare","slug":"13-detergent-si-igienizare"},{"code":"1302","name":"Curățenie și întreținerea casei","slug":"1302-igienizarea-casei"},{"code":"130201","name":"Detergent de vase","slug":"130201-detergent-vase"},{"code":"100092428","name":"Detergent de vase măr 1300ml","slug":"100092428-fairy-detergent-de-vase-mar-1300ml"}],"activePromotion":{"code":"superpreturile-saptamanii","name":"Preț redus","targetQuantity":null},"saveMe":null,"labels":[{"type":"v1","items":[{"text":"-31%","backgroundColor":"#FF9903","textColor":"#FFFFFF"}]}],"geniusPrice":null,"geniusUnitPricePerLabel":null,"banner":{"text":"Super preț","textColor":"#FF0000","bgColor":"#FFF2EC","icon":null,"link":"https://www.freshful.ro/oferte/superpreturile-saptamanii","type":"promo","analyticsEventType":"select_promotion","analyticsEventPayload":{"promotion_id":"superpreturile-saptamanii","promotion_name":"Superprețurile zilei"}},"discountLabel":"Economisești 31%","geniusDiscountLabel":null,"badge":null},{"code":"100060782","variantCode":"100060782","name":"Spray geamuri 500ml","slug":"100060782-frosch-spray-geamuri-500ml","unitPriceLabel":"23,98 Lei/l","brand":"Frosch","brandCode":"315","brandFilterCode":"frosch-b316","sku":"100060782","price":11.99,"originalPrice":15.5,"currencyCode":"RON","currency":"Lei","image":{"thumbnail":{"default":"https://cdn.freshful.ro/media/cache/sylius_shop_product_thumbnail/28/c2/d39a39bdf5eb3d86ee9141f2eaf6.jpg"},"large":{"default":"https://cdn.freshful.ro/media/cache/freshful_large/28/c2/d39a39bdf5eb3d86ee9141f2eaf6.jpg"},"extralarge":{"default":"https://cdn.freshful.ro/media/cache/sylius_shop_product_original/28/c2/d39a39bdf5eb3d86ee9141f2eaf6.jpg"}},"label":{"text":"-22%","backgroundColor":"#FF9903","textColor":"#FFFFFF"},"tags":[{"type":"bio","text":"Bio","icon":"https://cdn.freshful.ro/assets/product_tags/bio.svg","iconPng":"https://cdn.freshful.ro/assets/product_tags/bio.png","backgroundColor":"#ECF6E9","textColor":"#399225"}],"isAvailable":true,"maxAvailableQuantity":66,"maxAllowedQuantity":100,"breadcrumbs":[{"code":"13","name":"Detergenți & igienizare","slug":"13-detergent-si-igienizare"},{"code":"1302","name":"Curățenie și întreținerea casei","slug":"1302-igienizarea-casei"},{"code":"130204","name":"Soluții de curățat","slug":"130204-solutii-de-curatat"},{"code":"100060782","name":"Spray geamuri 500ml","slug":"100060782-frosch-spray-geamuri-500ml"}],"activePromotion":{"code":"oferte-dph-21feb-8mar23","name":"Preț redus","targetQuantity":null},"saveMe":null,"labels":[{"type":"v1","items":[{"text":"-22%","backgroundColor":"#FF9903","textColor":"#FFFFFF"}]}],"geniusPrice":null,"geniusUnitPricePerLabel":null,"banner":{"text":"Super preț","textColor":"#FF0000","bgColor":"#FFF2EC","icon":null,"link":"https://www.freshful.ro/oferte/oferte-dph-21feb-8mar23","type":"promo","analyticsEventType":"select_promotion","analyticsEventPayload":{"promotion_id":"oferte-dph-21feb-8mar23","promotion_name":"Curățenie și îngrijire personală"}},"discountLabel":"Economisești 22%","geniusDiscountLabel":null,"badge":null},{"code":"100033164","variantCode":"100033164","name":"Burete vase cu protecție pentru unghii","slug":"100033164-scotch-brite-burete-vase-cu-protectie-pentru-unghii","unitPriceLabel":"","brand":"Scotch Brite","brandCode":"366","brandFilterCode":"scotch-brite-b367","sku":"100033164","price":6.54,"originalPrice":null,"currencyCode":"RON","currency":"Lei","image":{"thumbnail":{"default":"https://cdn.freshful.ro/media/cache/sylius_shop_product_thumbnail/a6/72/e14d736b3274f09f2013b91ce371.jpg"},"large":{"default":"https://cdn.freshful.ro/media/cache/freshful_large/a6/72/e14d736b3274f09f2013b91ce371.jpg"},"extralarge":{"default":"https://cdn.freshful.ro/media/cache/sylius_shop_product_original/a6/72/e14d736b3274f09f2013b91ce371.jpg"}},"label":{"text":"Profită acum","backgroundColor":"#FF9903","textColor":"#FFFFFF"},"tags":[],"isAvailable":true,"maxAvailableQuantity":100,"maxAllowedQuantity":100,"breadcrumbs":[{"code":"13","name":"Detergenți & igienizare","slug":"13-detergent-si-igienizare"},{"code":"1302","name":"Curățenie și întreținerea casei","slug":"1302-igienizarea-casei"},{"code":"130205","name":"Bureți și lavete","slug":"130205-burete-si-lavete"},{"code":"100033164","name":"Burete vase cu protecție pentru unghii","slug":"100033164-scotch-brite-burete-vase-cu-protectie-pentru-unghii"}],"activePromotion":{"code":"freshful-top-deals-2023","name":"Preț avantajos","targetQuantity":null},"saveMe":null,"labels":[{"type":"v1","items":[{"text":"Profită acum","backgroundColor":"#FF9903","textColor":"#FFFFFF"}]}],"geniusPrice":null,"geniusUnitPricePerLabel":null,"banner":{"text":"Preț avantajos","textColor":"#F95510","bgColor":"#FEF1CD","icon":null,"link":"https://www.freshful.ro/oferte/freshful-top-deals-2023","type":"promo","analyticsEventType":"select_promotion","analyticsEventPayload":{"promotion_id":"freshful-top-deals-2023","promotion_name":"Profită de Top Deals"}},"discountLabel":null,"geniusDiscountLabel":null,"badge":null},{"code":"100060779","variantCode":"100060779","name":"Detergent de vase ecologic Green Lemon 750ml","slug":"100060779-frosch-detergent-de-vase-ecologic-green-lemon-750ml","unitPriceLabel":"16,67 Lei/l","brand":"Frosch","brandCode":"315","brandFilterCode":"frosch-b316","sku":"100060779","price":12.5,"originalPrice":null,"currencyCode":"RON","currency":"Lei","image":{"thumbnail":{"default":"https://cdn.freshful.ro/media/cache/sylius_shop_product_thumbnail/9b/2a/1970eeaf7889eeaab1fafe755408.jpg"},"large":{"default":"https://cdn.freshful.ro/media/cache/freshful_large/9b/2a/1970eeaf7889eeaab1fafe755408.jpg"},"extralarge":{"default":"https://cdn.freshful.ro/media/cache/sylius_shop_product_original/9b/2a/1970eeaf7889eeaab1fafe755408.jpg"}},"label":{"text":"-20% cu Genius","backgroundColor":"#FEF3FA","textColor":"#CD015F"},"tags":[{"type":"bio","text":"Bio","icon":"https://cdn.freshful.ro/assets/product_tags/bio.svg","iconPng":"https://cdn.freshful.ro/assets/product_tags/bio.png","backgroundColor":"#ECF6E9","textColor":"#399225"}],"isAvailable":true,"maxAvailableQuantity":100,"maxAllowedQuantity":100,"breadcrumbs":[{"code":"13","name":"Detergenți & igienizare","slug":"13-detergent-si-igienizare"},{"code":"1302","name":"Curățenie și întreținerea casei","slug":"1302-igienizarea-casei"},{"code":"130201","name":"Detergent de vase","slug":"130201-detergent-vase"},{"code":"100060779","name":"Detergent de vase ecologic Green Lemon 750ml","slug":"100060779-frosch-detergent-de-vase-ecologic-green-lemon-750ml"}],"activePromotion":null,"saveMe":null,"labels":[{"type":"gdeals","items":[{"text":"","backgroundColor":"","textColor":""}]},{"type":"v3","items":[{"text":"-20% cu Genius","backgroundColor":"#FEF3FA","textColor":"#CD015F"}]}],"geniusPrice":10,"geniusUnitPricePerLabel":"13,33 Lei/l","banner":null,"discountLabel":null,"geniusDiscountLabel":"Economisești 20%","badge":null},{"code":"100033167","variantCode":"100033167","name":"Lavete superabsorbante 3 buc","slug":"100033167-scotch-brite-lavete-superabsorbante-3-buc","unitPriceLabel":"","brand":"Scotch Brite","brandCode":"366","brandFilterCode":"scotch-brite-b367","sku":"100033167","price":10.9,"originalPrice":null,"currencyCode":"RON","currency":"Lei","image":{"thumbnail":{"default":"https://cdn.freshful.ro/media/cache/sylius_shop_product_thumbnail/1a/e5/30975c9d81a55572991ea2dab1d8.jpg"},"large":{"default":"https://cdn.freshful.ro/media/cache/freshful_large/1a/e5/30975c9d81a55572991ea2dab1d8.jpg"},"extralarge":{"default":"https://cdn.freshful.ro/media/cache/sylius_shop_product_original/1a/e5/30975c9d81a55572991ea2dab1d8.jpg"}},"label":{"text":"Profită acum","backgroundColor":"#FF9903","textColor":"#FFFFFF"},"tags":[],"isAvailable":true,"maxAvailableQuantity":65,"maxAllowedQuantity":100,"breadcrumbs":[{"code":"13","name":"Detergenți & igienizare","slug":"13-detergent-si-igienizare"},{"code":"1302","name":"Curățenie și întreținerea casei","slug":"1302-igienizarea-casei"},{"code":"130205","name":"Bureți și lavete","slug":"130205-burete-si-lavete"},{"code":"100033167","name":"Lavete superabsorbante 3 buc","slug":"100033167-scotch-brite-lavete-superabsorbante-3-buc"}],"activePromotion":{"code":"freshful-top-deals-2023","name":"Preț avantajos","targetQuantity":null},"saveMe":null,"labels":[{"type":"v1","items":[{"text":"Profită acum","backgroundColor":"#FF9903","textColor":"#FFFFFF"}]}],"geniusPrice":null,"geniusUnitPricePerLabel":null,"banner":{"text":"Preț avantajos","textColor":"#F95510","bgColor":"#FEF1CD","icon":null,"link":"https://www.freshful.ro/oferte/freshful-top-deals-2023","type":"promo","analyticsEventType":"select_promotion","analyticsEventPayload":{"promotion_id":"freshful-top-deals-2023","promotion_name":"Profită de Top Deals"}},"discountLabel":null,"geniusDiscountLabel":null,"badge":null},{"code":"100031367","variantCode":"90005657","name":"Detergent de vase aromă mere verzi 450ml","slug":"100031367-pur-detergent-de-vase-aroma-mere-verzi-450ml","unitPriceLabel":"13,31 Lei/l","brand":"Pur","brandCode":"418","brandFilterCode":"pur-b419","sku":"100031367","price":5.99,"originalPrice":6.59,"currencyCode":"RON","currency":"Lei","image":{"thumbnail":{"default":"https://cdn.freshful.ro/media/cache/sylius_shop_product_thumbnail/11/17/b7904b9af6ef86c3ede2d7b1c6c7.jpg"},"large":{"default":"https://cdn.freshful.ro/media/cache/freshful_large/11/17/b7904b9af6ef86c3ede2d7b1c6c7.jpg"},"extralarge":{"default":"https://cdn.freshful.ro/media/cache/sylius_shop_product_original/11/17/b7904b9af6ef86c3ede2d7b1c6c7.jpg"}},"label":{"text":"-9%","backgroundColor":"#FF9903","textColor":"#FFFFFF"},"tags":[],"isAvailable":true,"maxAvailableQuantity":22,"maxAllowedQuantity":100,"breadcrumbs":[{"code":"13","name":"Detergenți & igienizare","slug":"13-detergent-si-igienizare"},{"code":"1302","name":"Curățenie și întreținerea casei","slug":"1302-igienizarea-casei"},{"code":"130201","name":"Detergent de vase","slug":"130201-detergent-vase"},{"code":"100031367","name":"Detergent de vase aromă mere verzi 450ml","slug":"100031367-pur-detergent-de-vase-aroma-mere-verzi-450ml"}],"activePromotion":{"code":"oferte-dph-21feb-8mar23","name":"Preț redus","targetQuantity":null},"saveMe":null,"labels":[{"type":"v1","items":[{"text":"-9%","backgroundColor":"#FF9903","textColor":"#FFFFFF"}]}],"geniusPrice":null,"geniusUnitPricePerLabel":null,"banner":{"text":"Super preț","textColor":"#FF0000","bgColor":"#FFF2EC","icon":null,"link":"https://www.freshful.ro/oferte/oferte-dph-21feb-8mar23","type":"promo","analyticsEventType":"select_promotion","analyticsEventPayload":{"promotion_id":"oferte-dph-21feb-8mar23","promotion_name":"Curățenie și îngrijire personală"}},"discountLabel":"Economisești 9%","geniusDiscountLabel":null,"badge":null},{"code":"100092456","variantCode":"100092456","name":"Rezerve pămătuf pentru curățarea prafului Trap & lock 5 buc","slug":"100092456-swiffer-rezerve-pamatuf-pentru-curatarea-prafului-trap-lock-5-buc","unitPriceLabel":"","brand":"Swiffer","brandCode":"679","brandFilterCode":"swiffer-b680","sku":"100092456","price":22.99,"originalPrice":25.5,"currencyCode":"RON","currency":"Lei","image":{"thumbnail":{"default":"https://cdn.freshful.ro/media/cache/sylius_shop_product_thumbnail/bc/84/585dc5068d3fe188d8a41f99f5e7.jpg"},"large":{"default":"https://cdn.freshful.ro/media/cache/freshful_large/bc/84/585dc5068d3fe188d8a41f99f5e7.jpg"},"extralarge":{"default":"https://cdn.freshful.ro/media/cache/sylius_shop_product_original/bc/84/585dc5068d3fe188d8a41f99f5e7.jpg"}},"label":{"text":"-9%","backgroundColor":"#FF9903","textColor":"#FFFFFF"},"tags":[],"isAvailable":true,"maxAvailableQuantity":44,"maxAllowedQuantity":100,"breadcrumbs":[{"code":"13","name":"Detergenți & igienizare","slug":"13-detergent-si-igienizare"},{"code":"1302","name":"Curățenie și întreținerea casei","slug":"1302-igienizarea-casei"},{"code":"130212","name":"Accesorii pentru curățenie","slug":"accesorii-pentru-curatenie"},{"code":"100092456","name":"Rezerve pămătuf pentru curățarea prafului Trap & lock 5 buc","slug":"100092456-swiffer-rezerve-pamatuf-pentru-curatarea-prafului-trap-lock-5-buc"}],"activePromotion":{"code":"oferte-dph-21feb-8mar23","name":"Preț redus","targetQuantity":null},"saveMe":null,"labels":[{"type":"v1","items":[{"text":"-9%","backgroundColor":"#FF9903","textColor":"#FFFFFF"}]}],"geniusPrice":null,"geniusUnitPricePerLabel":null,"banner":{"text":"Super preț","textColor":"#FF0000","bgColor":"#FFF2EC","icon":null,"link":"https://www.freshful.ro/oferte/oferte-dph-21feb-8mar23","type":"promo","analyticsEventType":"select_promotion","analyticsEventPayload":{"promotion_id":"oferte-dph-21feb-8mar23","promotion_name":"Curățenie și îngrijire personală"}},"discountLabel":"Economisești 9%","geniusDiscountLabel":null,"badge":null},{"code":"100033177","variantCode":"100033177","name":"Burete metalic spirală inox 2 buc","slug":"100033177-scotch-brite-burete-metalic-spirala-inox-2-buc","unitPriceLabel":"","brand":"Scotch Brite","brandCode":"366","brandFilterCode":"scotch-brite-b367","sku":"100033177","price":5.57,"originalPrice":null,"currencyCode":"RON","currency":"Lei","image":{"thumbnail":{"default":"https://cdn.freshful.ro/media/cache/sylius_shop_product_thumbnail/66/39/66d1301e698e2459d7fd64739ce2.jpg"},"large":{"default":"https://cdn.freshful.ro/media/cache/freshful_large/66/39/66d1301e698e2459d7fd64739ce2.jpg"},"extralarge":{"default":"https://cdn.freshful.ro/media/cache/sylius_shop_product_original/66/39/66d1301e698e2459d7fd64739ce2.jpg"}},"label":{"text":"Profită acum","backgroundColor":"#FF9903","textColor":"#FFFFFF"},"tags":[],"isAvailable":true,"maxAvailableQuantity":27,"maxAllowedQuantity":100,"breadcrumbs":[{"code":"13","name":"Detergenți & igienizare","slug":"13-detergent-si-igienizare"},{"code":"1302","name":"Curățenie și întreținerea casei","slug":"1302-igienizarea-casei"},{"code":"130205","name":"Bureți și lavete","slug":"130205-burete-si-lavete"},{"code":"100033177","name":"Burete metalic spirală inox 2 buc","slug":"100033177-scotch-brite-burete-metalic-spirala-inox-2-buc"}],"activePromotion":{"code":"freshful-top-deals-2023","name":"Preț avantajos","targetQuantity":null},"saveMe":null,"labels":[{"type":"v1","items":[{"text":"Profită acum","backgroundColor":"#FF9903","textColor":"#FFFFFF"}]}],"geniusPrice":null,"geniusUnitPricePerLabel":null,"banner":{"text":"Preț avantajos","textColor":"#F95510","bgColor":"#FEF1CD","icon":null,"link":"https://www.freshful.ro/oferte/freshful-top-deals-2023","type":"promo","analyticsEventType":"select_promotion","analyticsEventPayload":{"promotion_id":"freshful-top-deals-2023","promotion_name":"Profită de Top Deals"}},"discountLabel":null,"geniusDiscountLabel":null,"badge":null},{"code":"100036094","variantCode":"100036094","name":"Soluție de curățare universală Floral Fiesta 1l","slug":"100036094-ajax-solutie-de-curatare-universala-floral-fiesta-1l","unitPriceLabel":"11,32 Lei/l","brand":"Ajax","brandCode":"332","brandFilterCode":"ajax-b333","sku":"100036094","price":11.32,"originalPrice":null,"currencyCode":"RON","currency":"Lei","image":{"thumbnail":{"default":"https://cdn.freshful.ro/media/cache/sylius_shop_product_thumbnail/01/f2/ff1bb0322f7c174b19f4bcec0dbe.jpg"},"large":{"default":"https://cdn.freshful.ro/media/cache/freshful_large/01/f2/ff1bb0322f7c174b19f4bcec0dbe.jpg"},"extralarge":{"default":"https://cdn.freshful.ro/media/cache/sylius_shop_product_original/01/f2/ff1bb0322f7c174b19f4bcec0dbe.jpg"}},"label":{"text":"Profită acum","backgroundColor":"#FF9903","textColor":"#FFFFFF"},"tags":[],"isAvailable":true,"maxAvailableQuantity":53,"maxAllowedQuantity":100,"breadcrumbs":[{"code":"13","name":"Detergenți & igienizare","slug":"13-detergent-si-igienizare"},{"code":"1302","name":"Curățenie și întreținerea casei","slug":"1302-igienizarea-casei"},{"code":"130204","name":"Soluții de curățat","slug":"130204-solutii-de-curatat"},{"code":"100036094","name":"Soluție de curățare universală Floral Fiesta 1l","slug":"100036094-ajax-solutie-de-curatare-universala-floral-fiesta-1l"}],"activePromotion":{"code":"freshful-top-deals-2023","name":"Preț avantajos","targetQuantity":null},"saveMe":null,"labels":[{"type":"v1","items":[{"text":"Profită acum","backgroundColor":"#FF9903","textColor":"#FFFFFF"}]}],"geniusPrice":null,"geniusUnitPricePerLabel":null,"banner":{"text":"Preț avantajos","textColor":"#F95510","bgColor":"#FEF1CD","icon":null,"link":"https://www.freshful.ro/oferte/freshful-top-deals-2023","type":"promo","analyticsEventType":"select_promotion","analyticsEventPayload":{"promotion_id":"freshful-top-deals-2023","promotion_name":"Profită de Top Deals"}},"discountLabel":null,"geniusDiscountLabel":null,"badge":null}],"filters":{"countSelected":0,"items":[{"code":"promotion","name":"Promoții","countSelected":0,"values":[{"code":"oferte-dph-21feb-8mar23","name":"Curățenie și îngrijire personală","isSelected":false,"count":15},{"code":"freshful-top-deals-2023","name":"Profită de Top Deals","isSelected":false,"count":7},{"code":"superpreturile-saptamanii","name":"Superprețurile zilei","isSelected":false,"count":1}]},{"code":"brand","name":"Brand","countSelected":0,"values":[{"code":"ace-b912","name":"Ace","isSelected":false,"count":12},{"code":"air-wick-b627","name":"Air Wick","isSelected":false,"count":10},{"code":"ajax-b333","name":"Ajax","isSelected":false,"count":14},{"code":"alex-b303","name":"Alex","isSelected":false,"count":2},{"code":"ambipur-b676","name":"Ambipur","isSelected":false,"count":5},{"code":"aroxol-b1188","name":"Aroxol","isSelected":false,"count":7},{"code":"axion-b329","name":"Axion","isSelected":false,"count":5},{"code":"baygon-b435","name":"Baygon","isSelected":false,"count":1},{"code":"biocarpet-b429","name":"Biocarpet","isSelected":false,"count":5},{"code":"biodeck-b300","name":"Biodeck","isSelected":false,"count":3},{"code":"bison-b1819","name":"Bison","isSelected":false,"count":1},{"code":"botanica-b628","name":"Botanica","isSelected":false,"count":2},{"code":"bref-b421","name":"Bref","isSelected":false,"count":16},{"code":"carpa-magica-b2954","name":"Carpa Magica","isSelected":false,"count":1},{"code":"chicco-b659","name":"Chicco","isSelected":false,"count":2},{"code":"cif-b761","name":"Cif","isSelected":false,"count":10},{"code":"cillit-bang-b626","name":"Cillit Bang","isSelected":false,"count":8},{"code":"clin-b422","name":"Clin","isSelected":false,"count":7},{"code":"domestos-b763","name":"Domestos","isSelected":false,"count":14},{"code":"dr-beckmann-b1106","name":"Dr.Beckmann","isSelected":false,"count":7},{"code":"duck-b437","name":"Duck","isSelected":false,"count":16},{"code":"epack-b369","name":"epack","isSelected":false,"count":45},{"code":"expert-wipes-b1639","name":"Expert Wipes","isSelected":false,"count":1},{"code":"fairy-b677","name":"Fairy","isSelected":false,"count":26},{"code":"finish-b625","name":"Finish","isSelected":false,"count":16},{"code":"fino-b546","name":"Fino","isSelected":false,"count":50},{"code":"frosch-b316","name":"Frosch","isSelected":false,"count":18},{"code":"glade-b436","name":"Glade","isSelected":false,"count":39},{"code":"harpic-b629","name":"Harpic","isSelected":false,"count":3},{"code":"heitmann-b358","name":"Heitmann","isSelected":false,"count":14},{"code":"igienol-b428","name":"Igienol","isSelected":false,"count":19},{"code":"kiwi-b434","name":"Kiwi","isSelected":false,"count":3},{"code":"mr-muscle-b439","name":"Mr. Muscle","isSelected":false,"count":4},{"code":"mr-proper-b678","name":"Mr. Proper","isSelected":false,"count":8},{"code":"nufar-b1835","name":"Nufăr","isSelected":false,"count":11},{"code":"oti-b1002","name":"Oti","isSelected":false,"count":34},{"code":"peak-b1184","name":"Peak","isSelected":false,"count":22},{"code":"planet-pure-b1682","name":"Planet Pure","isSelected":false,"count":3},{"code":"pronto-b433","name":"Pronto","isSelected":false,"count":11},{"code":"pur-b419","name":"Pur","isSelected":false,"count":7},{"code":"raid-b432","name":"Raid","isSelected":false,"count":14},{"code":"rivex-b1187","name":"Rivex","isSelected":false,"count":21},{"code":"romtec-b1644","name":"Romtec","isSelected":false,"count":1},{"code":"sano-b580","name":"Sano","isSelected":false,"count":50},{"code":"sanytol-b301","name":"Sanytol","isSelected":false,"count":12},{"code":"savo-b762","name":"Savo","isSelected":false,"count":1},{"code":"scotch-brite-b367","name":"Scotch Brite","isSelected":false,"count":31},{"code":"silver-b1873","name":"Silver","isSelected":false,"count":7},{"code":"somat-b420","name":"Somat","isSelected":false,"count":8},{"code":"sonett-b1681","name":"Sonett","isSelected":false,"count":14},{"code":"sos-b365","name":"SOS","isSelected":false,"count":3},{"code":"swiffer-b680","name":"Swiffer","isSelected":false,"count":10},{"code":"swirl-b315","name":"Swirl","isSelected":false,"count":1},{"code":"toppits-b314","name":"Toppits","isSelected":false,"count":3},{"code":"touch-b579","name":"Touch","isSelected":false,"count":1},{"code":"tree-b1367","name":"Tree","isSelected":false,"count":1},{"code":"triumf-b1836","name":"Triumf","isSelected":false,"count":2},{"code":"tub-o-flo-b545","name":"Tub.O.Flo","isSelected":false,"count":2},{"code":"vanish-b622","name":"Vanish","isSelected":false,"count":2},{"code":"vileda-b431","name":"Vileda","isSelected":false,"count":46},{"code":"yope-b1617","name":"Yope","isSelected":false,"count":4}]},{"code":"diet_lifestyle","name":"Dietă și lifestyle","countSelected":0,"values":[{"code":"bio-a26","name":"Bio","isSelected":false,"count":39},{"code":"eco-a83","name":"Eco","isSelected":false,"count":2},{"code":"natural-a27","name":"Natural","isSelected":false,"count":4},{"code":"vegan-a24","name":"Vegan","isSelected":false,"count":25}]}]},"orderBy":[{"field":"price","direction":"asc","name":"Preț crescător","isSelected":false},{"field":"price","direction":"desc","name":"Preț descrescător","isSelected":false},{"field":"popularity","direction":"desc","name":"Cele mai populare","isSelected":true},{"field":"category","direction":"asc","name":"Categorie","isSelected":false}],"metaTitle":"Curățenie și întreținerea casei - Gamă variată","metaDescription":"Vrei Curățenie și întreținerea casei? Alege dintr-o gamă variată. Comanzi simplu și ai livrare rapidă, calitate și prospețime. Hai pe Freshful.ro","metaKeywords":null,"banners":[]}}