{"type":"subcategory","payload":{"analyticsListId":"category_130211-produse-pentru-bucatarie","analyticsListName":"Category - Produse pentru bucătărie","name":"Produse pentru bucătărie","slug":"130211-produse-pentru-bucatarie","image":null,"breadcrumbs":[{"code":"13","name":"Detergenți & igienizare","slug":"13-detergent-si-igienizare"},{"code":"1302","name":"Curățenie și întreținerea casei","slug":"1302-igienizarea-casei"},{"code":"130211","name":"Produse pentru bucătărie","slug":"130211-produse-pentru-bucatarie"}],"slots":[],"page":1,"limit":10,"pages":2,"count":16,"siblings":[{"name":"Spălare și întreținere rufe","slug":"1301-spalare-si-intretinere-rufe","selected":false},{"name":"Curățenie și întreținerea casei","slug":"1302-igienizarea-casei","selected":true},{"name":"Hârtie igienică, șervețele și prosoape","slug":"1303-hartie-igienica-si-servetele","selected":false}],"children":[{"name":"Toate produsele","slug":"1302-igienizarea-casei","selected":false},{"name":"Detergent de vase","slug":"130201-detergent-vase","selected":false},{"name":"Cremă de pantofi","slug":"130202-crema-de-pantofi","selected":false},{"name":"Insecticide","slug":"130203-insecticide","selected":false},{"name":"Soluții de curățat","slug":"130204-solutii-de-curatat","selected":false},{"name":"Bureți și lavete","slug":"130205-burete-si-lavete","selected":false},{"name":"Hârtie de copt, folii și pungi alimentare","slug":"130207-folie-si-pungi-alimentar-hartie-de-copt","selected":false},{"name":"Saci de gunoi","slug":"130208-saci-pentru-gunoi","selected":false},{"name":"Odorizante pentru casă","slug":"130209-odorizant-casa","selected":false},{"name":"Produse pentru baie","slug":"130210-produse-pentru-baie","selected":false},{"name":"Produse pentru bucătărie","slug":"130211-produse-pentru-bucatarie","selected":true},{"name":"Accesorii pentru curățenie","slug":"accesorii-pentru-curatenie","selected":false}],"products":[{"code":"100061983","variantCode":"100061983","name":"Spray pentru bucătărie Ultrafast 500ml","slug":"100061983-cif-spray-pentru-bucatarie-ultrafast-500ml","unitPriceLabel":"27,6 Lei/l","brand":"Cif","brandCode":"760","brandFilterCode":"cif-b761","sku":"100061983","price":13.8,"originalPrice":null,"currencyCode":"RON","currency":"Lei","image":{"thumbnail":{"default":"https://cdn.freshful.ro/media/cache/sylius_shop_product_thumbnail/7c/8a/ef296294cb8843f5d21a89bdd951.jpg"},"large":{"default":"https://cdn.freshful.ro/media/cache/freshful_large/7c/8a/ef296294cb8843f5d21a89bdd951.jpg"},"extralarge":{"default":"https://cdn.freshful.ro/media/cache/sylius_shop_product_original/7c/8a/ef296294cb8843f5d21a89bdd951.jpg"}},"label":null,"tags":[],"isAvailable":true,"maxAvailableQuantity":100,"maxAllowedQuantity":100,"breadcrumbs":[{"code":"13","name":"Detergenți & igienizare","slug":"13-detergent-si-igienizare"},{"code":"1302","name":"Curățenie și întreținerea casei","slug":"1302-igienizarea-casei"},{"code":"130211","name":"Produse pentru bucătărie","slug":"130211-produse-pentru-bucatarie"},{"code":"100061983","name":"Spray pentru bucătărie Ultrafast 500ml","slug":"100061983-cif-spray-pentru-bucatarie-ultrafast-500ml"}],"activePromotion":null,"saveMe":null,"labels":[],"geniusPrice":null,"geniusUnitPricePerLabel":null,"banner":null,"discountLabel":null,"geniusDiscountLabel":null,"badge":null},{"code":"100060773","variantCode":"100060773","name":"Detergent ecologic spray pentru bucătărie 500ml","slug":"100060773-frosch-detergent-ecologic-spray-pentru-bucatarie-500ml","unitPriceLabel":"29 Lei/l","brand":"Frosch","brandCode":"315","brandFilterCode":"frosch-b316","sku":"100060773","price":14.5,"originalPrice":null,"currencyCode":"RON","currency":"Lei","image":{"thumbnail":{"default":"https://cdn.freshful.ro/media/cache/sylius_shop_product_thumbnail/40/12/64a0b4f99df74ccc7e9021b8941d.jpg"},"large":{"default":"https://cdn.freshful.ro/media/cache/freshful_large/40/12/64a0b4f99df74ccc7e9021b8941d.jpg"},"extralarge":{"default":"https://cdn.freshful.ro/media/cache/sylius_shop_product_original/40/12/64a0b4f99df74ccc7e9021b8941d.jpg"}},"label":null,"tags":[{"type":"bio","text":"Bio","icon":"https://cdn.freshful.ro/assets/product_tags/bio.svg","iconPng":"https://cdn.freshful.ro/assets/product_tags/bio.png","backgroundColor":"#ECF6E9","textColor":"#399225"}],"isAvailable":true,"maxAvailableQuantity":100,"maxAllowedQuantity":100,"breadcrumbs":[{"code":"13","name":"Detergenți & igienizare","slug":"13-detergent-si-igienizare"},{"code":"1302","name":"Curățenie și întreținerea casei","slug":"1302-igienizarea-casei"},{"code":"130211","name":"Produse pentru bucătărie","slug":"130211-produse-pentru-bucatarie"},{"code":"100060773","name":"Detergent ecologic spray pentru bucătărie 500ml","slug":"100060773-frosch-detergent-ecologic-spray-pentru-bucatarie-500ml"}],"activePromotion":null,"saveMe":null,"labels":[],"geniusPrice":null,"geniusUnitPricePerLabel":null,"banner":null,"discountLabel":null,"geniusDiscountLabel":null,"badge":null},{"code":"100074078","variantCode":"100074078","name":"Dezinfectant pentru bucătărie 750ml","slug":"100074078-igienol-dezinfectant-pentru-bucatarie-750ml","unitPriceLabel":"18,52 Lei/l","brand":"Igienol","brandCode":"427","brandFilterCode":"igienol-b428","sku":"100074078","price":13.89,"originalPrice":null,"currencyCode":"RON","currency":"Lei","image":{"thumbnail":{"default":"https://cdn.freshful.ro/media/cache/sylius_shop_product_thumbnail/d2/49/2412e23728c76f5b23f51df43c42.jpg"},"large":{"default":"https://cdn.freshful.ro/media/cache/freshful_large/d2/49/2412e23728c76f5b23f51df43c42.jpg"},"extralarge":{"default":"https://cdn.freshful.ro/media/cache/sylius_shop_product_original/d2/49/2412e23728c76f5b23f51df43c42.jpg"}},"label":null,"tags":[],"isAvailable":true,"maxAvailableQuantity":80,"maxAllowedQuantity":100,"breadcrumbs":[{"code":"13","name":"Detergenți & igienizare","slug":"13-detergent-si-igienizare"},{"code":"1302","name":"Curățenie și întreținerea casei","slug":"1302-igienizarea-casei"},{"code":"130211","name":"Produse pentru bucătărie","slug":"130211-produse-pentru-bucatarie"},{"code":"100074078","name":"Dezinfectant pentru bucătărie 750ml","slug":"100074078-igienol-dezinfectant-pentru-bucatarie-750ml"}],"activePromotion":null,"saveMe":null,"labels":[],"geniusPrice":null,"geniusUnitPricePerLabel":null,"banner":null,"discountLabel":null,"geniusDiscountLabel":null,"badge":null},{"code":"100047447","variantCode":"3045206392006","name":"Dezinfectant ultradegresant pentru bucătarie 500ml","slug":"100047447-sanytol-dezinfectant-ultradegresant-pentru-bucatarie-500ml","unitPriceLabel":"23,8 Lei/l","brand":"Sanytol","brandCode":"300","brandFilterCode":"sanytol-b301","sku":"100047447","price":11.9,"originalPrice":null,"currencyCode":"RON","currency":"Lei","image":{"thumbnail":{"default":"https://cdn.freshful.ro/media/cache/sylius_shop_product_thumbnail/62/9a/b198635388983fa22f36200259a3.jpg"},"large":{"default":"https://cdn.freshful.ro/media/cache/freshful_large/62/9a/b198635388983fa22f36200259a3.jpg"},"extralarge":{"default":"https://cdn.freshful.ro/media/cache/sylius_shop_product_original/62/9a/b198635388983fa22f36200259a3.jpg"}},"label":null,"tags":[],"isAvailable":true,"maxAvailableQuantity":39,"maxAllowedQuantity":100,"breadcrumbs":[{"code":"13","name":"Detergenți & igienizare","slug":"13-detergent-si-igienizare"},{"code":"1302","name":"Curățenie și întreținerea casei","slug":"1302-igienizarea-casei"},{"code":"130211","name":"Produse pentru bucătărie","slug":"130211-produse-pentru-bucatarie"},{"code":"100047447","name":"Dezinfectant ultradegresant pentru bucătarie 500ml","slug":"100047447-sanytol-dezinfectant-ultradegresant-pentru-bucatarie-500ml"}],"activePromotion":null,"saveMe":null,"labels":[],"geniusPrice":null,"geniusUnitPricePerLabel":null,"banner":null,"discountLabel":null,"geniusDiscountLabel":null,"badge":null},{"code":"100119219","variantCode":"100119219","name":"Soluție spray pentru curățat cuptoare cu microunde 500ml","slug":"100119219-triumf-solutie-spray-pentru-curatat-cuptoare-cu-microunde-500ml","unitPriceLabel":"27 Lei/l","brand":"Triumf","brandCode":"1832","brandFilterCode":"triumf-b1836","sku":"100119219","price":13.5,"originalPrice":null,"currencyCode":"RON","currency":"Lei","image":{"thumbnail":{"default":"https://cdn.freshful.ro/media/cache/sylius_shop_product_thumbnail/c0/65/965258042355dd6067bd796cc1dc.jpg"},"large":{"default":"https://cdn.freshful.ro/media/cache/freshful_large/c0/65/965258042355dd6067bd796cc1dc.jpg"},"extralarge":{"default":"https://cdn.freshful.ro/media/cache/sylius_shop_product_original/c0/65/965258042355dd6067bd796cc1dc.jpg"}},"label":null,"tags":[],"isAvailable":true,"maxAvailableQuantity":21,"maxAllowedQuantity":100,"breadcrumbs":[{"code":"13","name":"Detergenți & igienizare","slug":"13-detergent-si-igienizare"},{"code":"1302","name":"Curățenie și întreținerea casei","slug":"1302-igienizarea-casei"},{"code":"130211","name":"Produse pentru bucătărie","slug":"130211-produse-pentru-bucatarie"},{"code":"100119219","name":"Soluție spray pentru curățat cuptoare cu microunde 500ml","slug":"100119219-triumf-solutie-spray-pentru-curatat-cuptoare-cu-microunde-500ml"}],"activePromotion":null,"saveMe":null,"labels":[],"geniusPrice":null,"geniusUnitPricePerLabel":null,"banner":null,"discountLabel":null,"geniusDiscountLabel":null,"badge":null},{"code":"100061985","variantCode":"100061985","name":"Spray degresant pentru bucătărie Power & Shine 750ml","slug":"100061985-cif-spray-degresant-pentru-bucatarie-power-shine-750ml","unitPriceLabel":"26 Lei/l","brand":"Cif","brandCode":"760","brandFilterCode":"cif-b761","sku":"100061985","price":19.5,"originalPrice":null,"currencyCode":"RON","currency":"Lei","image":{"thumbnail":{"default":"https://cdn.freshful.ro/media/cache/sylius_shop_product_thumbnail/99/87/7f70a24dc56a7ac47451c1697de6.jpg"},"large":{"default":"https://cdn.freshful.ro/media/cache/freshful_large/99/87/7f70a24dc56a7ac47451c1697de6.jpg"},"extralarge":{"default":"https://cdn.freshful.ro/media/cache/sylius_shop_product_original/99/87/7f70a24dc56a7ac47451c1697de6.jpg"}},"label":null,"tags":[],"isAvailable":true,"maxAvailableQuantity":66,"maxAllowedQuantity":100,"breadcrumbs":[{"code":"13","name":"Detergenți & igienizare","slug":"13-detergent-si-igienizare"},{"code":"1302","name":"Curățenie și întreținerea casei","slug":"1302-igienizarea-casei"},{"code":"130211","name":"Produse pentru bucătărie","slug":"130211-produse-pentru-bucatarie"},{"code":"100061985","name":"Spray degresant pentru bucătărie Power & Shine 750ml","slug":"100061985-cif-spray-degresant-pentru-bucatarie-power-shine-750ml"}],"activePromotion":null,"saveMe":null,"labels":[],"geniusPrice":null,"geniusUnitPricePerLabel":null,"banner":null,"discountLabel":null,"geniusDiscountLabel":null,"badge":null},{"code":"100119218","variantCode":"100119218","name":"Soluție spray curățare plite vitroceramice 500ml","slug":"100119218-triumf-solutie-spray-curatare-plite-vitroceramice-500ml","unitPriceLabel":"29 Lei/l","brand":"Triumf","brandCode":"1832","brandFilterCode":"triumf-b1836","sku":"100119218","price":14.5,"originalPrice":null,"currencyCode":"RON","currency":"Lei","image":{"thumbnail":{"default":"https://cdn.freshful.ro/media/cache/sylius_shop_product_thumbnail/b5/96/7d4e38c45b095df6cf31ee1dc07c.jpg"},"large":{"default":"https://cdn.freshful.ro/media/cache/freshful_large/b5/96/7d4e38c45b095df6cf31ee1dc07c.jpg"},"extralarge":{"default":"https://cdn.freshful.ro/media/cache/sylius_shop_product_original/b5/96/7d4e38c45b095df6cf31ee1dc07c.jpg"}},"label":null,"tags":[],"isAvailable":true,"maxAvailableQuantity":41,"maxAllowedQuantity":100,"breadcrumbs":[{"code":"13","name":"Detergenți & igienizare","slug":"13-detergent-si-igienizare"},{"code":"1302","name":"Curățenie și întreținerea casei","slug":"1302-igienizarea-casei"},{"code":"130211","name":"Produse pentru bucătărie","slug":"130211-produse-pentru-bucatarie"},{"code":"100119218","name":"Soluție spray curățare plite vitroceramice 500ml","slug":"100119218-triumf-solutie-spray-curatare-plite-vitroceramice-500ml"}],"activePromotion":null,"saveMe":null,"labels":[],"geniusPrice":null,"geniusUnitPricePerLabel":null,"banner":null,"discountLabel":null,"geniusDiscountLabel":null,"badge":null},{"code":"100074269","variantCode":"100074269","name":"Super degresant forte pentru aragaz 750ml","slug":"100074269-rivex-super-degresant-forte-pentru-aragaz-750ml","unitPriceLabel":"18,39 Lei/l","brand":"Rivex","brandCode":"1186","brandFilterCode":"rivex-b1187","sku":"100074269","price":13.79,"originalPrice":null,"currencyCode":"RON","currency":"Lei","image":{"thumbnail":{"default":"https://cdn.freshful.ro/media/cache/sylius_shop_product_thumbnail/d5/95/287aefa760f79ccb5e625d49bf7c.jpg"},"large":{"default":"https://cdn.freshful.ro/media/cache/freshful_large/d5/95/287aefa760f79ccb5e625d49bf7c.jpg"},"extralarge":{"default":"https://cdn.freshful.ro/media/cache/sylius_shop_product_original/d5/95/287aefa760f79ccb5e625d49bf7c.jpg"}},"label":null,"tags":[],"isAvailable":true,"maxAvailableQuantity":28,"maxAllowedQuantity":100,"breadcrumbs":[{"code":"13","name":"Detergenți & igienizare","slug":"13-detergent-si-igienizare"},{"code":"1302","name":"Curățenie și întreținerea casei","slug":"1302-igienizarea-casei"},{"code":"130211","name":"Produse pentru bucătărie","slug":"130211-produse-pentru-bucatarie"},{"code":"100074269","name":"Super degresant forte pentru aragaz 750ml","slug":"100074269-rivex-super-degresant-forte-pentru-aragaz-750ml"}],"activePromotion":null,"saveMe":null,"labels":[],"geniusPrice":null,"geniusUnitPricePerLabel":null,"banner":null,"discountLabel":null,"geniusDiscountLabel":null,"badge":null},{"code":"100060774","variantCode":"100060774","name":"Detergent ecologic igienic cu levănțică 500ml","slug":"100060774-frosch-detergent-ecologic-igienic-cu-levantica-500ml","unitPriceLabel":"33 Lei/l","brand":"Frosch","brandCode":"315","brandFilterCode":"frosch-b316","sku":"100060774","price":16.5,"originalPrice":null,"currencyCode":"RON","currency":"Lei","image":{"thumbnail":{"default":"https://cdn.freshful.ro/media/cache/sylius_shop_product_thumbnail/83/33/40da944850760e247efc4b40f76c.jpg"},"large":{"default":"https://cdn.freshful.ro/media/cache/freshful_large/83/33/40da944850760e247efc4b40f76c.jpg"},"extralarge":{"default":"https://cdn.freshful.ro/media/cache/sylius_shop_product_original/83/33/40da944850760e247efc4b40f76c.jpg"}},"label":null,"tags":[{"type":"bio","text":"Bio","icon":"https://cdn.freshful.ro/assets/product_tags/bio.svg","iconPng":"https://cdn.freshful.ro/assets/product_tags/bio.png","backgroundColor":"#ECF6E9","textColor":"#399225"}],"isAvailable":true,"maxAvailableQuantity":38,"maxAllowedQuantity":100,"breadcrumbs":[{"code":"13","name":"Detergenți & igienizare","slug":"13-detergent-si-igienizare"},{"code":"1302","name":"Curățenie și întreținerea casei","slug":"1302-igienizarea-casei"},{"code":"130211","name":"Produse pentru bucătărie","slug":"130211-produse-pentru-bucatarie"},{"code":"100060774","name":"Detergent ecologic igienic cu levănțică 500ml","slug":"100060774-frosch-detergent-ecologic-igienic-cu-levantica-500ml"}],"activePromotion":null,"saveMe":null,"labels":[],"geniusPrice":null,"geniusUnitPricePerLabel":null,"banner":null,"discountLabel":null,"geniusDiscountLabel":null,"badge":null},{"code":"100066644","variantCode":"100066644","name":"Soluție pentru curățarea frigiderului 250ml","slug":"100066644-dr-beckmann-solutie-pentru-curatarea-frigiderului-250ml","unitPriceLabel":"90,36 Lei/l","brand":"Dr.Beckmann","brandCode":"1105","brandFilterCode":"dr-beckmann-b1106","sku":"100066644","price":22.59,"originalPrice":null,"currencyCode":"RON","currency":"Lei","image":{"thumbnail":{"default":"https://cdn.freshful.ro/media/cache/sylius_shop_product_thumbnail/5b/54/1e8a928fdeb86ee93e5f46901c66.jpg"},"large":{"default":"https://cdn.freshful.ro/media/cache/freshful_large/5b/54/1e8a928fdeb86ee93e5f46901c66.jpg"},"extralarge":{"default":"https://cdn.freshful.ro/media/cache/sylius_shop_product_original/5b/54/1e8a928fdeb86ee93e5f46901c66.jpg"}},"label":null,"tags":[],"isAvailable":true,"maxAvailableQuantity":15,"maxAllowedQuantity":100,"breadcrumbs":[{"code":"13","name":"Detergenți & igienizare","slug":"13-detergent-si-igienizare"},{"code":"1302","name":"Curățenie și întreținerea casei","slug":"1302-igienizarea-casei"},{"code":"130211","name":"Produse pentru bucătărie","slug":"130211-produse-pentru-bucatarie"},{"code":"100066644","name":"Soluție pentru curățarea frigiderului 250ml","slug":"100066644-dr-beckmann-solutie-pentru-curatarea-frigiderului-250ml"}],"activePromotion":null,"saveMe":null,"labels":[],"geniusPrice":null,"geniusUnitPricePerLabel":null,"banner":null,"discountLabel":null,"geniusDiscountLabel":null,"badge":null}],"filters":{"countSelected":0,"items":[{"code":"brand","name":"Brand","countSelected":0,"values":[{"code":"cif-b761","name":"Cif","isSelected":false,"count":2},{"code":"dr-beckmann-b1106","name":"Dr.Beckmann","isSelected":false,"count":2},{"code":"fairy-b677","name":"Fairy","isSelected":false,"count":1},{"code":"frosch-b316","name":"Frosch","isSelected":false,"count":2},{"code":"igienol-b428","name":"Igienol","isSelected":false,"count":1},{"code":"mr-muscle-b439","name":"Mr. Muscle","isSelected":false,"count":1},{"code":"mr-proper-b678","name":"Mr. Proper","isSelected":false,"count":1},{"code":"rivex-b1187","name":"Rivex","isSelected":false,"count":2},{"code":"sanytol-b301","name":"Sanytol","isSelected":false,"count":2},{"code":"triumf-b1836","name":"Triumf","isSelected":false,"count":2}]},{"code":"diet_lifestyle","name":"Dietă și lifestyle","countSelected":0,"values":[{"code":"bio-a26","name":"Bio","isSelected":false,"count":2}]}]},"orderBy":[{"field":"price","direction":"asc","name":"Preț crescător","isSelected":false},{"field":"price","direction":"desc","name":"Preț descrescător","isSelected":false},{"field":"popularity","direction":"desc","name":"Cele mai populare","isSelected":true},{"field":"category","direction":"asc","name":"Categorie","isSelected":false}],"metaTitle":"Produse pentru bucătărie - Gamă variată","metaDescription":"Vrei Produse pentru bucătărie? Alege dintr-o gamă variată. Comanzi simplu și ai livrare rapidă, calitate și prospețime. Hai pe Freshful.ro","metaKeywords":null,"banners":[]}}