{"type":"subcategory","payload":{"analyticsListId":"category_130209-odorizant-casa","analyticsListName":"Category - Odorizante pentru casă","name":"Odorizante pentru casă","slug":"130209-odorizant-casa","image":null,"breadcrumbs":[{"code":"13","name":"Detergenți & igienizare","slug":"13-detergent-si-igienizare"},{"code":"1302","name":"Curățenie și întreținerea casei","slug":"1302-igienizarea-casei"},{"code":"130209","name":"Odorizante pentru casă","slug":"130209-odorizant-casa"}],"slots":[],"page":1,"limit":10,"pages":6,"count":59,"siblings":[{"name":"Spălare și întreținere rufe","slug":"1301-spalare-si-intretinere-rufe","selected":false},{"name":"Curățenie și întreținerea casei","slug":"1302-igienizarea-casei","selected":true},{"name":"Hârtie igienică, șervețele și prosoape","slug":"1303-hartie-igienica-si-servetele","selected":false}],"children":[{"name":"Toate produsele","slug":"1302-igienizarea-casei","selected":false},{"name":"Detergent de vase","slug":"130201-detergent-vase","selected":false},{"name":"Cremă de pantofi","slug":"130202-crema-de-pantofi","selected":false},{"name":"Insecticide","slug":"130203-insecticide","selected":false},{"name":"Soluții de curățat","slug":"130204-solutii-de-curatat","selected":false},{"name":"Bureți și lavete","slug":"130205-burete-si-lavete","selected":false},{"name":"Hârtie de copt, folii și pungi alimentare","slug":"130207-folie-si-pungi-alimentar-hartie-de-copt","selected":false},{"name":"Saci de gunoi","slug":"130208-saci-pentru-gunoi","selected":false},{"name":"Odorizante pentru casă","slug":"130209-odorizant-casa","selected":true},{"name":"Produse pentru baie","slug":"130210-produse-pentru-baie","selected":false},{"name":"Produse pentru bucătărie","slug":"130211-produse-pentru-bucatarie","selected":false},{"name":"Accesorii pentru curățenie","slug":"accesorii-pentru-curatenie","selected":false}],"products":[{"code":"100034623","variantCode":"5000204826760","name":"Gel odorizant Muguet 150g","slug":"100034623-glade-gel-odorizant-muguet-150g","unitPriceLabel":"","brand":"Glade","brandCode":"435","brandFilterCode":"glade-b436","sku":"100034623","price":8.05,"originalPrice":null,"currencyCode":"RON","currency":"Lei","image":{"thumbnail":{"default":"https://cdn.freshful.ro/media/cache/sylius_shop_product_thumbnail/03/86/2598e91c19273d2738dd6a961306.jpg"},"large":{"default":"https://cdn.freshful.ro/media/cache/freshful_large/03/86/2598e91c19273d2738dd6a961306.jpg"},"extralarge":{"default":"https://cdn.freshful.ro/media/cache/sylius_shop_product_original/03/86/2598e91c19273d2738dd6a961306.jpg"}},"label":null,"tags":[],"isAvailable":true,"maxAvailableQuantity":50,"maxAllowedQuantity":100,"breadcrumbs":[{"code":"13","name":"Detergenți & igienizare","slug":"13-detergent-si-igienizare"},{"code":"1302","name":"Curățenie și întreținerea casei","slug":"1302-igienizarea-casei"},{"code":"130209","name":"Odorizante pentru casă","slug":"130209-odorizant-casa"},{"code":"100034623","name":"Gel odorizant Muguet 150g","slug":"100034623-glade-gel-odorizant-muguet-150g"}],"activePromotion":null,"saveMe":null,"labels":[],"geniusPrice":null,"geniusUnitPricePerLabel":null,"banner":null,"discountLabel":null,"geniusDiscountLabel":null,"badge":null},{"code":"100034619","variantCode":"5000204184839","name":"Gel odorizant Peony & Cherry 180g","slug":"100034619-glade-gel-odorizant-peony-cherry-180g","unitPriceLabel":"","brand":"Glade","brandCode":"435","brandFilterCode":"glade-b436","sku":"100034619","price":12.5,"originalPrice":null,"currencyCode":"RON","currency":"Lei","image":{"thumbnail":{"default":"https://cdn.freshful.ro/media/cache/sylius_shop_product_thumbnail/87/f9/5b8253675a5193b961bc4747f953.jpg"},"large":{"default":"https://cdn.freshful.ro/media/cache/freshful_large/87/f9/5b8253675a5193b961bc4747f953.jpg"},"extralarge":{"default":"https://cdn.freshful.ro/media/cache/sylius_shop_product_original/87/f9/5b8253675a5193b961bc4747f953.jpg"}},"label":null,"tags":[],"isAvailable":true,"maxAvailableQuantity":25,"maxAllowedQuantity":100,"breadcrumbs":[{"code":"13","name":"Detergenți & igienizare","slug":"13-detergent-si-igienizare"},{"code":"1302","name":"Curățenie și întreținerea casei","slug":"1302-igienizarea-casei"},{"code":"130209","name":"Odorizante pentru casă","slug":"130209-odorizant-casa"},{"code":"100034619","name":"Gel odorizant Peony & Cherry 180g","slug":"100034619-glade-gel-odorizant-peony-cherry-180g"}],"activePromotion":null,"saveMe":null,"labels":[],"geniusPrice":null,"geniusUnitPricePerLabel":null,"banner":null,"discountLabel":null,"geniusDiscountLabel":null,"badge":null},{"code":"100034609","variantCode":"5000204732023","name":"Rezervă odorizant cameră automatic spray Sensual Sandalwood & Jasmine 269ml","slug":"100034609-glade-rezerva-odorizant-camera-automatic-spray-sensual-sandalwood-jasmine-269ml","unitPriceLabel":"","brand":"Glade","brandCode":"435","brandFilterCode":"glade-b436","sku":"100034609","price":23.5,"originalPrice":null,"currencyCode":"RON","currency":"Lei","image":{"thumbnail":{"default":"https://cdn.freshful.ro/media/cache/sylius_shop_product_thumbnail/fa/98/10246317e48b0d104eb42e6e5192.jpg"},"large":{"default":"https://cdn.freshful.ro/media/cache/freshful_large/fa/98/10246317e48b0d104eb42e6e5192.jpg"},"extralarge":{"default":"https://cdn.freshful.ro/media/cache/sylius_shop_product_original/fa/98/10246317e48b0d104eb42e6e5192.jpg"}},"label":null,"tags":[],"isAvailable":true,"maxAvailableQuantity":41,"maxAllowedQuantity":100,"breadcrumbs":[{"code":"13","name":"Detergenți & igienizare","slug":"13-detergent-si-igienizare"},{"code":"1302","name":"Curățenie și întreținerea casei","slug":"1302-igienizarea-casei"},{"code":"130209","name":"Odorizante pentru casă","slug":"130209-odorizant-casa"},{"code":"100034609","name":"Rezervă odorizant cameră automatic spray Sensual Sandalwood & Jasmine 269ml","slug":"100034609-glade-rezerva-odorizant-camera-automatic-spray-sensual-sandalwood-jasmine-269ml"}],"activePromotion":null,"saveMe":null,"labels":[],"geniusPrice":null,"geniusUnitPricePerLabel":null,"banner":null,"discountLabel":null,"geniusDiscountLabel":null,"badge":null},{"code":"100059064","variantCode":"100059064","name":"Rezervă odorizant „așternuturi proaspete” și liliac alb 250ml","slug":"100059064-air-wick-rezerva-odorizant-asternuturi-proaspete-si-liliac-alb-250ml","unitPriceLabel":"","brand":"Air Wick","brandCode":"626","brandFilterCode":"air-wick-b627","sku":"100059064","price":21.5,"originalPrice":null,"currencyCode":"RON","currency":"Lei","image":{"thumbnail":{"default":"https://cdn.freshful.ro/media/cache/sylius_shop_product_thumbnail/ae/e9/7f6befe2fa8b499f21d2783c677f.jpg"},"large":{"default":"https://cdn.freshful.ro/media/cache/freshful_large/ae/e9/7f6befe2fa8b499f21d2783c677f.jpg"},"extralarge":{"default":"https://cdn.freshful.ro/media/cache/sylius_shop_product_original/ae/e9/7f6befe2fa8b499f21d2783c677f.jpg"}},"label":null,"tags":[],"isAvailable":true,"maxAvailableQuantity":67,"maxAllowedQuantity":100,"breadcrumbs":[{"code":"13","name":"Detergenți & igienizare","slug":"13-detergent-si-igienizare"},{"code":"1302","name":"Curățenie și întreținerea casei","slug":"1302-igienizarea-casei"},{"code":"130209","name":"Odorizante pentru casă","slug":"130209-odorizant-casa"},{"code":"100059064","name":"Rezervă odorizant „așternuturi proaspete” și liliac alb 250ml","slug":"100059064-air-wick-rezerva-odorizant-asternuturi-proaspete-si-liliac-alb-250ml"}],"activePromotion":null,"saveMe":null,"labels":[],"geniusPrice":null,"geniusUnitPricePerLabel":null,"banner":null,"discountLabel":null,"geniusDiscountLabel":null,"badge":null},{"code":"100034603","variantCode":"5000204076745","name":"Rezervă pentru odorizant electric Marine 10ml","slug":"100034603-glade-rezerva-pentru-odorizant-electric-marine-10ml","unitPriceLabel":"","brand":"Glade","brandCode":"435","brandFilterCode":"glade-b436","sku":"100034603","price":11.5,"originalPrice":null,"currencyCode":"RON","currency":"Lei","image":{"thumbnail":{"default":"https://cdn.freshful.ro/media/cache/sylius_shop_product_thumbnail/cf/fa/55242d017b655307a8df7408310f.jpg"},"large":{"default":"https://cdn.freshful.ro/media/cache/freshful_large/cf/fa/55242d017b655307a8df7408310f.jpg"},"extralarge":{"default":"https://cdn.freshful.ro/media/cache/sylius_shop_product_original/cf/fa/55242d017b655307a8df7408310f.jpg"}},"label":null,"tags":[],"isAvailable":true,"maxAvailableQuantity":33,"maxAllowedQuantity":100,"breadcrumbs":[{"code":"13","name":"Detergenți & igienizare","slug":"13-detergent-si-igienizare"},{"code":"1302","name":"Curățenie și întreținerea casei","slug":"1302-igienizarea-casei"},{"code":"130209","name":"Odorizante pentru casă","slug":"130209-odorizant-casa"},{"code":"100034603","name":"Rezervă pentru odorizant electric Marine 10ml","slug":"100034603-glade-rezerva-pentru-odorizant-electric-marine-10ml"}],"activePromotion":null,"saveMe":null,"labels":[],"geniusPrice":null,"geniusUnitPricePerLabel":null,"banner":null,"discountLabel":null,"geniusDiscountLabel":null,"badge":null},{"code":"100034607","variantCode":"5000204077346","name":"Rezervă pentru odorizant electric Relaxing Zen 10ml","slug":"100034607-glade-rezerva-pentru-odorizant-electric-relaxing-zen-10ml","unitPriceLabel":"","brand":"Glade","brandCode":"435","brandFilterCode":"glade-b436","sku":"100034607","price":11.5,"originalPrice":null,"currencyCode":"RON","currency":"Lei","image":{"thumbnail":{"default":"https://cdn.freshful.ro/media/cache/sylius_shop_product_thumbnail/77/cb/51daa28f8219688399e28a20edf6.jpg"},"large":{"default":"https://cdn.freshful.ro/media/cache/freshful_large/77/cb/51daa28f8219688399e28a20edf6.jpg"},"extralarge":{"default":"https://cdn.freshful.ro/media/cache/sylius_shop_product_original/77/cb/51daa28f8219688399e28a20edf6.jpg"}},"label":null,"tags":[],"isAvailable":true,"maxAvailableQuantity":27,"maxAllowedQuantity":100,"breadcrumbs":[{"code":"13","name":"Detergenți & igienizare","slug":"13-detergent-si-igienizare"},{"code":"1302","name":"Curățenie și întreținerea casei","slug":"1302-igienizarea-casei"},{"code":"130209","name":"Odorizante pentru casă","slug":"130209-odorizant-casa"},{"code":"100034607","name":"Rezervă pentru odorizant electric Relaxing Zen 10ml","slug":"100034607-glade-rezerva-pentru-odorizant-electric-relaxing-zen-10ml"}],"activePromotion":null,"saveMe":null,"labels":[],"geniusPrice":null,"geniusUnitPricePerLabel":null,"banner":null,"discountLabel":null,"geniusDiscountLabel":null,"badge":null},{"code":"100092234","variantCode":"100092234","name":"Odorizant spray pentru cameră Ocean & Wind 300ml","slug":"100092234-ambipur-odorizant-spray-pentru-camera-ocean-wind-300ml","unitPriceLabel":"","brand":"Ambipur","brandCode":"675","brandFilterCode":"ambipur-b676","sku":"100092234","price":20.5,"originalPrice":null,"currencyCode":"RON","currency":"Lei","image":{"thumbnail":{"default":"https://cdn.freshful.ro/media/cache/sylius_shop_product_thumbnail/d5/b9/bc3e23b9f8ae6247379777b8fe27.jpg"},"large":{"default":"https://cdn.freshful.ro/media/cache/freshful_large/d5/b9/bc3e23b9f8ae6247379777b8fe27.jpg"},"extralarge":{"default":"https://cdn.freshful.ro/media/cache/sylius_shop_product_original/d5/b9/bc3e23b9f8ae6247379777b8fe27.jpg"}},"label":null,"tags":[],"isAvailable":true,"maxAvailableQuantity":37,"maxAllowedQuantity":100,"breadcrumbs":[{"code":"13","name":"Detergenți & igienizare","slug":"13-detergent-si-igienizare"},{"code":"1302","name":"Curățenie și întreținerea casei","slug":"1302-igienizarea-casei"},{"code":"130209","name":"Odorizante pentru casă","slug":"130209-odorizant-casa"},{"code":"100092234","name":"Odorizant spray pentru cameră Ocean & Wind 300ml","slug":"100092234-ambipur-odorizant-spray-pentru-camera-ocean-wind-300ml"}],"activePromotion":null,"saveMe":null,"labels":[],"geniusPrice":null,"geniusUnitPricePerLabel":null,"banner":null,"discountLabel":null,"geniusDiscountLabel":null,"badge":null},{"code":"100047450","variantCode":"3045206394307","name":"Spray dezodorizant și dezinfectant 300ml","slug":"100047450-sanytol-spray-dezodorizant-si-dezinfectant-300ml","unitPriceLabel":"","brand":"Sanytol","brandCode":"300","brandFilterCode":"sanytol-b301","sku":"100047450","price":15.5,"originalPrice":null,"currencyCode":"RON","currency":"Lei","image":{"thumbnail":{"default":"https://cdn.freshful.ro/media/cache/sylius_shop_product_thumbnail/5d/1e/4835a935d2714928387dde99a08f.jpg"},"large":{"default":"https://cdn.freshful.ro/media/cache/freshful_large/5d/1e/4835a935d2714928387dde99a08f.jpg"},"extralarge":{"default":"https://cdn.freshful.ro/media/cache/sylius_shop_product_original/5d/1e/4835a935d2714928387dde99a08f.jpg"}},"label":null,"tags":[],"isAvailable":true,"maxAvailableQuantity":37,"maxAllowedQuantity":100,"breadcrumbs":[{"code":"13","name":"Detergenți & igienizare","slug":"13-detergent-si-igienizare"},{"code":"1302","name":"Curățenie și întreținerea casei","slug":"1302-igienizarea-casei"},{"code":"130209","name":"Odorizante pentru casă","slug":"130209-odorizant-casa"},{"code":"100047450","name":"Spray dezodorizant și dezinfectant 300ml","slug":"100047450-sanytol-spray-dezodorizant-si-dezinfectant-300ml"}],"activePromotion":null,"saveMe":null,"labels":[],"geniusPrice":null,"geniusUnitPricePerLabel":null,"banner":null,"discountLabel":null,"geniusDiscountLabel":null,"badge":null},{"code":"100034613","variantCode":"5000204732085","name":"Rezervă odorizant cameră automatic spray Pure Clean Linen 269ml","slug":"100034613-glade-rezerva-odorizant-camera-automatic-spray-pure-clean-linen-269ml","unitPriceLabel":"","brand":"Glade","brandCode":"435","brandFilterCode":"glade-b436","sku":"100034613","price":23.5,"originalPrice":null,"currencyCode":"RON","currency":"Lei","image":{"thumbnail":{"default":"https://cdn.freshful.ro/media/cache/sylius_shop_product_thumbnail/54/e9/560f54acd51a7ac32fa8ba8813f7.jpg"},"large":{"default":"https://cdn.freshful.ro/media/cache/freshful_large/54/e9/560f54acd51a7ac32fa8ba8813f7.jpg"},"extralarge":{"default":"https://cdn.freshful.ro/media/cache/sylius_shop_product_original/54/e9/560f54acd51a7ac32fa8ba8813f7.jpg"}},"label":null,"tags":[],"isAvailable":true,"maxAvailableQuantity":34,"maxAllowedQuantity":100,"breadcrumbs":[{"code":"13","name":"Detergenți & igienizare","slug":"13-detergent-si-igienizare"},{"code":"1302","name":"Curățenie și întreținerea casei","slug":"1302-igienizarea-casei"},{"code":"130209","name":"Odorizante pentru casă","slug":"130209-odorizant-casa"},{"code":"100034613","name":"Rezervă odorizant cameră automatic spray Pure Clean Linen 269ml","slug":"100034613-glade-rezerva-odorizant-camera-automatic-spray-pure-clean-linen-269ml"}],"activePromotion":null,"saveMe":null,"labels":[],"geniusPrice":null,"geniusUnitPricePerLabel":null,"banner":null,"discountLabel":null,"geniusDiscountLabel":null,"badge":null},{"code":"100034627","variantCode":"5000204070309","name":"Odorizant de cameră aerosol Ocean Adventure 300ml ","slug":"100034627-glade-odorizant-de-camera-aerosol-ocean-adventure-300ml","unitPriceLabel":"","brand":"Glade","brandCode":"435","brandFilterCode":"glade-b436","sku":"100034627","price":10.9,"originalPrice":null,"currencyCode":"RON","currency":"Lei","image":{"thumbnail":{"default":"https://cdn.freshful.ro/media/cache/sylius_shop_product_thumbnail/5a/f8/d11953ba4f0a1d76b9deebdfc71c.jpg"},"large":{"default":"https://cdn.freshful.ro/media/cache/freshful_large/5a/f8/d11953ba4f0a1d76b9deebdfc71c.jpg"},"extralarge":{"default":"https://cdn.freshful.ro/media/cache/sylius_shop_product_original/5a/f8/d11953ba4f0a1d76b9deebdfc71c.jpg"}},"label":null,"tags":[],"isAvailable":true,"maxAvailableQuantity":49,"maxAllowedQuantity":100,"breadcrumbs":[{"code":"13","name":"Detergenți & igienizare","slug":"13-detergent-si-igienizare"},{"code":"1302","name":"Curățenie și întreținerea casei","slug":"1302-igienizarea-casei"},{"code":"130209","name":"Odorizante pentru casă","slug":"130209-odorizant-casa"},{"code":"100034627","name":"Odorizant de cameră aerosol Ocean Adventure 300ml ","slug":"100034627-glade-odorizant-de-camera-aerosol-ocean-adventure-300ml"}],"activePromotion":null,"saveMe":null,"labels":[],"geniusPrice":null,"geniusUnitPricePerLabel":null,"banner":null,"discountLabel":null,"geniusDiscountLabel":null,"badge":null}],"filters":{"countSelected":0,"items":[{"code":"brand","name":"Brand","countSelected":0,"values":[{"code":"air-wick-b627","name":"Air Wick","isSelected":false,"count":10},{"code":"ambipur-b676","name":"Ambipur","isSelected":false,"count":5},{"code":"botanica-b628","name":"Botanica","isSelected":false,"count":2},{"code":"glade-b436","name":"Glade","isSelected":false,"count":39},{"code":"sanytol-b301","name":"Sanytol","isSelected":false,"count":3}]}]},"orderBy":[{"field":"price","direction":"asc","name":"Preț crescător","isSelected":false},{"field":"price","direction":"desc","name":"Preț descrescător","isSelected":false},{"field":"popularity","direction":"desc","name":"Cele mai populare","isSelected":true},{"field":"category","direction":"asc","name":"Categorie","isSelected":false}],"metaTitle":"Odorizante pentru casă - Gamă variată","metaDescription":"Vrei Odorizante pentru casă? Alege dintr-o gamă variată. Comanzi simplu și ai livrare rapidă, calitate și prospețime. Hai pe Freshful.ro","metaKeywords":null,"banners":[]}}