{"type":"subcategory","payload":{"analyticsListId":"category_130210-produse-pentru-baie","analyticsListName":"Category - Produse pentru baie","name":"Produse pentru baie","slug":"130210-produse-pentru-baie","image":null,"breadcrumbs":[{"code":"13","name":"Detergenți & igienizare","slug":"13-detergent-si-igienizare"},{"code":"1302","name":"Curățenie și întreținerea casei","slug":"1302-igienizarea-casei"},{"code":"130210","name":"Produse pentru baie","slug":"130210-produse-pentru-baie"}],"slots":[],"page":1,"limit":10,"pages":11,"count":108,"siblings":[{"name":"Spălare și întreținere rufe","slug":"1301-spalare-si-intretinere-rufe","selected":false},{"name":"Curățenie și întreținerea casei","slug":"1302-igienizarea-casei","selected":true},{"name":"Hârtie igienică, șervețele și prosoape","slug":"1303-hartie-igienica-si-servetele","selected":false}],"children":[{"name":"Toate produsele","slug":"1302-igienizarea-casei","selected":false},{"name":"Detergent de vase","slug":"130201-detergent-vase","selected":false},{"name":"Cremă de pantofi","slug":"130202-crema-de-pantofi","selected":false},{"name":"Insecticide","slug":"130203-insecticide","selected":false},{"name":"Soluții de curățat","slug":"130204-solutii-de-curatat","selected":false},{"name":"Bureți și lavete","slug":"130205-burete-si-lavete","selected":false},{"name":"Hârtie de copt, folii și pungi alimentare","slug":"130207-folie-si-pungi-alimentar-hartie-de-copt","selected":false},{"name":"Saci de gunoi","slug":"130208-saci-pentru-gunoi","selected":false},{"name":"Odorizante pentru casă","slug":"130209-odorizant-casa","selected":false},{"name":"Produse pentru baie","slug":"130210-produse-pentru-baie","selected":true},{"name":"Produse pentru bucătărie","slug":"130211-produse-pentru-bucatarie","selected":false},{"name":"Accesorii pentru curățenie","slug":"accesorii-pentru-curatenie","selected":false}],"products":[{"code":"100061991","variantCode":"100061991","name":"Dezinfectant Thick Bleach Pine 1l","slug":"100061991-domestos-dezinfectant-thick-bleach-pine-1l","unitPriceLabel":"13,99 Lei/l","brand":"Domestos","brandCode":"762","brandFilterCode":"domestos-b763","sku":"100061991","price":13.99,"originalPrice":null,"currencyCode":"RON","currency":"Lei","image":{"thumbnail":{"default":"https://cdn.freshful.ro/media/cache/sylius_shop_product_thumbnail/dd/e6/084dcfcf8aac917ba4d44d0821ae.jpg"},"large":{"default":"https://cdn.freshful.ro/media/cache/freshful_large/dd/e6/084dcfcf8aac917ba4d44d0821ae.jpg"},"extralarge":{"default":"https://cdn.freshful.ro/media/cache/sylius_shop_product_original/dd/e6/084dcfcf8aac917ba4d44d0821ae.jpg"}},"label":{"text":"Profită acum","backgroundColor":"#FF9903","textColor":"#FFFFFF"},"tags":[],"isAvailable":true,"maxAvailableQuantity":100,"maxAllowedQuantity":100,"breadcrumbs":[{"code":"13","name":"Detergenți & igienizare","slug":"13-detergent-si-igienizare"},{"code":"1302","name":"Curățenie și întreținerea casei","slug":"1302-igienizarea-casei"},{"code":"130210","name":"Produse pentru baie","slug":"130210-produse-pentru-baie"},{"code":"100061991","name":"Dezinfectant Thick Bleach Pine 1l","slug":"100061991-domestos-dezinfectant-thick-bleach-pine-1l"}],"activePromotion":{"code":"freshful-top-deals-2023","name":"Preț avantajos","targetQuantity":null},"saveMe":null,"labels":[{"type":"v1","items":[{"text":"Profită acum","backgroundColor":"#FF9903","textColor":"#FFFFFF"}]}],"geniusPrice":null,"geniusUnitPricePerLabel":null,"banner":{"text":"Preț avantajos","textColor":"#F95510","bgColor":"#FEF1CD","icon":null,"link":"https://www.freshful.ro/oferte/freshful-top-deals-2023","type":"promo","analyticsEventType":"select_promotion","analyticsEventPayload":{"promotion_id":"freshful-top-deals-2023","promotion_name":"Profită de Top Deals"}},"discountLabel":null,"geniusDiscountLabel":null,"badge":null},{"code":"100061978","variantCode":"100061978","name":"Spray baie 500ml","slug":"100061978-cif-spray-baie-500ml","unitPriceLabel":"23,98 Lei/l","brand":"Cif","brandCode":"760","brandFilterCode":"cif-b761","sku":"100061978","price":11.99,"originalPrice":null,"currencyCode":"RON","currency":"Lei","image":{"thumbnail":{"default":"https://cdn.freshful.ro/media/cache/sylius_shop_product_thumbnail/e8/d1/2dd4b7a9dacdb4f837829ff60295.jpg"},"large":{"default":"https://cdn.freshful.ro/media/cache/freshful_large/e8/d1/2dd4b7a9dacdb4f837829ff60295.jpg"},"extralarge":{"default":"https://cdn.freshful.ro/media/cache/sylius_shop_product_original/e8/d1/2dd4b7a9dacdb4f837829ff60295.jpg"}},"label":null,"tags":[],"isAvailable":true,"maxAvailableQuantity":100,"maxAllowedQuantity":100,"breadcrumbs":[{"code":"13","name":"Detergenți & igienizare","slug":"13-detergent-si-igienizare"},{"code":"1302","name":"Curățenie și întreținerea casei","slug":"1302-igienizarea-casei"},{"code":"130210","name":"Produse pentru baie","slug":"130210-produse-pentru-baie"},{"code":"100061978","name":"Spray baie 500ml","slug":"100061978-cif-spray-baie-500ml"}],"activePromotion":null,"saveMe":null,"labels":[],"geniusPrice":null,"geniusUnitPricePerLabel":null,"banner":null,"discountLabel":null,"geniusDiscountLabel":null,"badge":null},{"code":"100061996","variantCode":"100061996","name":"Gel de toaletă „Zero calcar” lime 750ml","slug":"100061996-domestos-gel-de-toaleta-zero-calcar-lime-750ml","unitPriceLabel":"17,6 Lei/l","brand":"Domestos","brandCode":"762","brandFilterCode":"domestos-b763","sku":"100061996","price":13.2,"originalPrice":null,"currencyCode":"RON","currency":"Lei","image":{"thumbnail":{"default":"https://cdn.freshful.ro/media/cache/sylius_shop_product_thumbnail/99/9d/a2646d1acdc4833bbfd53ebf64d9.jpg"},"large":{"default":"https://cdn.freshful.ro/media/cache/freshful_large/99/9d/a2646d1acdc4833bbfd53ebf64d9.jpg"},"extralarge":{"default":"https://cdn.freshful.ro/media/cache/sylius_shop_product_original/99/9d/a2646d1acdc4833bbfd53ebf64d9.jpg"}},"label":null,"tags":[],"isAvailable":true,"maxAvailableQuantity":100,"maxAllowedQuantity":100,"breadcrumbs":[{"code":"13","name":"Detergenți & igienizare","slug":"13-detergent-si-igienizare"},{"code":"1302","name":"Curățenie și întreținerea casei","slug":"1302-igienizarea-casei"},{"code":"130210","name":"Produse pentru baie","slug":"130210-produse-pentru-baie"},{"code":"100061996","name":"Gel de toaletă „Zero calcar” lime 750ml","slug":"100061996-domestos-gel-de-toaleta-zero-calcar-lime-750ml"}],"activePromotion":null,"saveMe":null,"labels":[],"geniusPrice":null,"geniusUnitPricePerLabel":null,"banner":null,"discountLabel":null,"geniusDiscountLabel":null,"badge":null},{"code":"100061992","variantCode":"100061992","name":"Dezinfectant Thick Bleach Atlantic 1l","slug":"100061992-domestos-dezinfectant-thick-bleach-atlantic-1l","unitPriceLabel":"16,05 Lei/l","brand":"Domestos","brandCode":"762","brandFilterCode":"domestos-b763","sku":"100061992","price":16.05,"originalPrice":null,"currencyCode":"RON","currency":"Lei","image":{"thumbnail":{"default":"https://cdn.freshful.ro/media/cache/sylius_shop_product_thumbnail/17/be/ec60bc2c799c54e355f1b1f0c2e1.jpg"},"large":{"default":"https://cdn.freshful.ro/media/cache/freshful_large/17/be/ec60bc2c799c54e355f1b1f0c2e1.jpg"},"extralarge":{"default":"https://cdn.freshful.ro/media/cache/sylius_shop_product_original/17/be/ec60bc2c799c54e355f1b1f0c2e1.jpg"}},"label":null,"tags":[],"isAvailable":true,"maxAvailableQuantity":100,"maxAllowedQuantity":100,"breadcrumbs":[{"code":"13","name":"Detergenți & igienizare","slug":"13-detergent-si-igienizare"},{"code":"1302","name":"Curățenie și întreținerea casei","slug":"1302-igienizarea-casei"},{"code":"130210","name":"Produse pentru baie","slug":"130210-produse-pentru-baie"},{"code":"100061992","name":"Dezinfectant Thick Bleach Atlantic 1l","slug":"100061992-domestos-dezinfectant-thick-bleach-atlantic-1l"}],"activePromotion":null,"saveMe":null,"labels":[],"geniusPrice":null,"geniusUnitPricePerLabel":null,"banner":null,"discountLabel":null,"geniusDiscountLabel":null,"badge":null},{"code":"100034676","variantCode":"5000204808537","name":"Soluție pentru desfundat țevi 1000ml","slug":"100034676-mr-muscle-solutie-pentru-desfundat-tevi-1000ml","unitPriceLabel":"19,75 Lei/l","brand":"Mr. Muscle","brandCode":"438","brandFilterCode":"mr-muscle-b439","sku":"100034676","price":19.75,"originalPrice":null,"currencyCode":"RON","currency":"Lei","image":{"thumbnail":{"default":"https://cdn.freshful.ro/media/cache/sylius_shop_product_thumbnail/df/4e/6739bc4a03a4f7e163e252c8c92e.jpg"},"large":{"default":"https://cdn.freshful.ro/media/cache/freshful_large/df/4e/6739bc4a03a4f7e163e252c8c92e.jpg"},"extralarge":{"default":"https://cdn.freshful.ro/media/cache/sylius_shop_product_original/df/4e/6739bc4a03a4f7e163e252c8c92e.jpg"}},"label":null,"tags":[],"isAvailable":true,"maxAvailableQuantity":100,"maxAllowedQuantity":100,"breadcrumbs":[{"code":"13","name":"Detergenți & igienizare","slug":"13-detergent-si-igienizare"},{"code":"1302","name":"Curățenie și întreținerea casei","slug":"1302-igienizarea-casei"},{"code":"130210","name":"Produse pentru baie","slug":"130210-produse-pentru-baie"},{"code":"100034676","name":"Soluție pentru desfundat țevi 1000ml","slug":"100034676-mr-muscle-solutie-pentru-desfundat-tevi-1000ml"}],"activePromotion":null,"saveMe":null,"labels":[],"geniusPrice":null,"geniusUnitPricePerLabel":null,"banner":null,"discountLabel":null,"geniusDiscountLabel":null,"badge":null},{"code":"100061993","variantCode":"100061993","name":"Odorizant WC Power 5 Ocean 2x55g","slug":"100061993-domestos-odorizant-wc-power-5-ocean-2x55g","unitPriceLabel":"","brand":"Domestos","brandCode":"762","brandFilterCode":"domestos-b763","sku":"100061993","price":15.5,"originalPrice":null,"currencyCode":"RON","currency":"Lei","image":{"thumbnail":{"default":"https://cdn.freshful.ro/media/cache/sylius_shop_product_thumbnail/d6/3c/2861c5ac37fd5dcc5ae5bbd6bb42.jpg"},"large":{"default":"https://cdn.freshful.ro/media/cache/freshful_large/d6/3c/2861c5ac37fd5dcc5ae5bbd6bb42.jpg"},"extralarge":{"default":"https://cdn.freshful.ro/media/cache/sylius_shop_product_original/d6/3c/2861c5ac37fd5dcc5ae5bbd6bb42.jpg"}},"label":null,"tags":[],"isAvailable":true,"maxAvailableQuantity":100,"maxAllowedQuantity":100,"breadcrumbs":[{"code":"13","name":"Detergenți & igienizare","slug":"13-detergent-si-igienizare"},{"code":"1302","name":"Curățenie și întreținerea casei","slug":"1302-igienizarea-casei"},{"code":"130210","name":"Produse pentru baie","slug":"130210-produse-pentru-baie"},{"code":"100061993","name":"Odorizant WC Power 5 Ocean 2x55g","slug":"100061993-domestos-odorizant-wc-power-5-ocean-2x55g"}],"activePromotion":null,"saveMe":null,"labels":[],"geniusPrice":null,"geniusUnitPricePerLabel":null,"banner":null,"discountLabel":null,"geniusDiscountLabel":null,"badge":null},{"code":"100031393","variantCode":"9000101316988","name":"Odorizant toaletă pin și lavandă 4x50g","slug":"100031393-bref-odorizant-toaleta-pin-si-lavanda-4x50g","unitPriceLabel":"","brand":"Bref","brandCode":"420","brandFilterCode":"bref-b421","sku":"100031393","price":20.41,"originalPrice":null,"currencyCode":"RON","currency":"Lei","image":{"thumbnail":{"default":"https://cdn.freshful.ro/media/cache/sylius_shop_product_thumbnail/ab/ab/6b23a84acc440f7a44b5a1136855.jpg"},"large":{"default":"https://cdn.freshful.ro/media/cache/freshful_large/ab/ab/6b23a84acc440f7a44b5a1136855.jpg"},"extralarge":{"default":"https://cdn.freshful.ro/media/cache/sylius_shop_product_original/ab/ab/6b23a84acc440f7a44b5a1136855.jpg"}},"label":null,"tags":[],"isAvailable":true,"maxAvailableQuantity":100,"maxAllowedQuantity":100,"breadcrumbs":[{"code":"13","name":"Detergenți & igienizare","slug":"13-detergent-si-igienizare"},{"code":"1302","name":"Curățenie și întreținerea casei","slug":"1302-igienizarea-casei"},{"code":"130210","name":"Produse pentru baie","slug":"130210-produse-pentru-baie"},{"code":"100031393","name":"Odorizant toaletă pin și lavandă 4x50g","slug":"100031393-bref-odorizant-toaleta-pin-si-lavanda-4x50g"}],"activePromotion":null,"saveMe":null,"labels":[],"geniusPrice":null,"geniusUnitPricePerLabel":null,"banner":null,"discountLabel":null,"geniusDiscountLabel":null,"badge":null},{"code":"100060763","variantCode":"5000204648225","name":" Aparat pentru toaletă Aqua blue 2x40g","slug":"100060763-duck-aparat-pentru-toaleta-aqua-blue-2x40g","unitPriceLabel":"","brand":"Duck","brandCode":"436","brandFilterCode":"duck-b437","sku":"100060763","price":7.5,"originalPrice":null,"currencyCode":"RON","currency":"Lei","image":{"thumbnail":{"default":"https://cdn.freshful.ro/media/cache/sylius_shop_product_thumbnail/07/50/14f3e2217768c424b3e53fb7345d.jpg"},"large":{"default":"https://cdn.freshful.ro/media/cache/freshful_large/07/50/14f3e2217768c424b3e53fb7345d.jpg"},"extralarge":{"default":"https://cdn.freshful.ro/media/cache/sylius_shop_product_original/07/50/14f3e2217768c424b3e53fb7345d.jpg"}},"label":null,"tags":[],"isAvailable":true,"maxAvailableQuantity":100,"maxAllowedQuantity":100,"breadcrumbs":[{"code":"13","name":"Detergenți & igienizare","slug":"13-detergent-si-igienizare"},{"code":"1302","name":"Curățenie și întreținerea casei","slug":"1302-igienizarea-casei"},{"code":"130210","name":"Produse pentru baie","slug":"130210-produse-pentru-baie"},{"code":"100060763","name":" Aparat pentru toaletă Aqua blue 2x40g","slug":"100060763-duck-aparat-pentru-toaleta-aqua-blue-2x40g"}],"activePromotion":null,"saveMe":null,"labels":[],"geniusPrice":null,"geniusUnitPricePerLabel":null,"banner":null,"discountLabel":null,"geniusDiscountLabel":null,"badge":null},{"code":"100142726","variantCode":"100142726","name":"Odorizant toaletă Color Aktiv Flower 4x50g","slug":"100142726-bref-odorizant-toaleta-color-aktiv-flower-4x50g","unitPriceLabel":"","brand":"Bref","brandCode":"420","brandFilterCode":"bref-b421","sku":"100142726","price":27.9,"originalPrice":null,"currencyCode":"RON","currency":"Lei","image":{"thumbnail":{"default":"https://cdn.freshful.ro/media/cache/sylius_shop_product_thumbnail/67/b9/f0962c71412f6fdef1b6a7e671f4.jpg"},"large":{"default":"https://cdn.freshful.ro/media/cache/freshful_large/67/b9/f0962c71412f6fdef1b6a7e671f4.jpg"},"extralarge":{"default":"https://cdn.freshful.ro/media/cache/sylius_shop_product_original/67/b9/f0962c71412f6fdef1b6a7e671f4.jpg"}},"label":null,"tags":[],"isAvailable":true,"maxAvailableQuantity":100,"maxAllowedQuantity":100,"breadcrumbs":[{"code":"13","name":"Detergenți & igienizare","slug":"13-detergent-si-igienizare"},{"code":"1302","name":"Curățenie și întreținerea casei","slug":"1302-igienizarea-casei"},{"code":"130210","name":"Produse pentru baie","slug":"130210-produse-pentru-baie"},{"code":"100142726","name":"Odorizant toaletă Color Aktiv Flower 4x50g","slug":"100142726-bref-odorizant-toaleta-color-aktiv-flower-4x50g"}],"activePromotion":null,"saveMe":null,"labels":[],"geniusPrice":null,"geniusUnitPricePerLabel":null,"banner":null,"discountLabel":null,"geniusDiscountLabel":null,"badge":null},{"code":"100034677","variantCode":"5000204671049","name":" Granule pentru desfundarea țevilor 250g ","slug":"100034677-mr-muscle-granule-pentru-desfundarea-tevilor-250g","unitPriceLabel":"31,48 Lei/kg","brand":"Mr. Muscle","brandCode":"438","brandFilterCode":"mr-muscle-b439","sku":"100034677","price":7.87,"originalPrice":null,"currencyCode":"RON","currency":"Lei","image":{"thumbnail":{"default":"https://cdn.freshful.ro/media/cache/sylius_shop_product_thumbnail/80/d1/0ae9351cb65b89e924d6374c99a4.jpg"},"large":{"default":"https://cdn.freshful.ro/media/cache/freshful_large/80/d1/0ae9351cb65b89e924d6374c99a4.jpg"},"extralarge":{"default":"https://cdn.freshful.ro/media/cache/sylius_shop_product_original/80/d1/0ae9351cb65b89e924d6374c99a4.jpg"}},"label":null,"tags":[],"isAvailable":true,"maxAvailableQuantity":100,"maxAllowedQuantity":100,"breadcrumbs":[{"code":"13","name":"Detergenți & igienizare","slug":"13-detergent-si-igienizare"},{"code":"1302","name":"Curățenie și întreținerea casei","slug":"1302-igienizarea-casei"},{"code":"130210","name":"Produse pentru baie","slug":"130210-produse-pentru-baie"},{"code":"100034677","name":" Granule pentru desfundarea țevilor 250g ","slug":"100034677-mr-muscle-granule-pentru-desfundarea-tevilor-250g"}],"activePromotion":null,"saveMe":null,"labels":[],"geniusPrice":null,"geniusUnitPricePerLabel":null,"banner":null,"discountLabel":null,"geniusDiscountLabel":null,"badge":null}],"filters":{"countSelected":0,"items":[{"code":"promotion","name":"Promoții","countSelected":0,"values":[{"code":"freshful-top-deals-2023","name":"Profită de Top Deals","isSelected":false,"count":1}]},{"code":"brand","name":"Brand","countSelected":0,"values":[{"code":"ace-b912","name":"Ace","isSelected":false,"count":9},{"code":"ajax-b333","name":"Ajax","isSelected":false,"count":2},{"code":"bref-b421","name":"Bref","isSelected":false,"count":16},{"code":"cif-b761","name":"Cif","isSelected":false,"count":2},{"code":"cillit-bang-b626","name":"Cillit Bang","isSelected":false,"count":1},{"code":"domestos-b763","name":"Domestos","isSelected":false,"count":11},{"code":"duck-b437","name":"Duck","isSelected":false,"count":16},{"code":"frosch-b316","name":"Frosch","isSelected":false,"count":1},{"code":"harpic-b629","name":"Harpic","isSelected":false,"count":3},{"code":"heitmann-b358","name":"Heitmann","isSelected":false,"count":1},{"code":"igienol-b428","name":"Igienol","isSelected":false,"count":2},{"code":"mr-muscle-b439","name":"Mr. Muscle","isSelected":false,"count":2},{"code":"mr-proper-b678","name":"Mr. Proper","isSelected":false,"count":1},{"code":"nufar-b1835","name":"Nufăr","isSelected":false,"count":3},{"code":"oti-b1002","name":"Oti","isSelected":false,"count":1},{"code":"peak-b1184","name":"Peak","isSelected":false,"count":22},{"code":"planet-pure-b1682","name":"Planet Pure","isSelected":false,"count":1},{"code":"rivex-b1187","name":"Rivex","isSelected":false,"count":1},{"code":"sano-b580","name":"Sano","isSelected":false,"count":7},{"code":"sanytol-b301","name":"Sanytol","isSelected":false,"count":1},{"code":"sonett-b1681","name":"Sonett","isSelected":false,"count":2},{"code":"tub-o-flo-b545","name":"Tub.O.Flo","isSelected":false,"count":2},{"code":"yope-b1617","name":"Yope","isSelected":false,"count":1}]},{"code":"diet_lifestyle","name":"Dietă și lifestyle","countSelected":0,"values":[{"code":"bio-a26","name":"Bio","isSelected":false,"count":5},{"code":"natural-a27","name":"Natural","isSelected":false,"count":1},{"code":"vegan-a24","name":"Vegan","isSelected":false,"count":4}]}]},"orderBy":[{"field":"price","direction":"asc","name":"Preț crescător","isSelected":false},{"field":"price","direction":"desc","name":"Preț descrescător","isSelected":false},{"field":"popularity","direction":"desc","name":"Cele mai populare","isSelected":true},{"field":"category","direction":"asc","name":"Categorie","isSelected":false}],"metaTitle":"Produse pentru baie - Gamă variată","metaDescription":"Vrei Produse pentru baie? Alege dintr-o gamă variată. Comanzi simplu și ai livrare rapidă, calitate și prospețime. Hai pe Freshful.ro","metaKeywords":null,"banners":[]}}