{"type":"subcategory","payload":{"analyticsListId":"category_130303-prosoape-hartie","analyticsListName":"Category - Prosoape de hârtie","name":"Prosoape de hârtie","slug":"130303-prosoape-hartie","image":null,"breadcrumbs":[{"code":"13","name":"Detergenți & igienizare","slug":"13-detergent-si-igienizare"},{"code":"1303","name":"Hârtie igienică, șervețele și prosoape","slug":"1303-hartie-igienica-si-servetele"},{"code":"130303","name":"Prosoape de hârtie","slug":"130303-prosoape-hartie"}],"slots":[],"page":1,"limit":10,"pages":4,"count":34,"siblings":[{"name":"Spălare și întreținere rufe","slug":"1301-spalare-si-intretinere-rufe","selected":false},{"name":"Curățenie și întreținerea casei","slug":"1302-igienizarea-casei","selected":false},{"name":"Hârtie igienică, șervețele și prosoape","slug":"1303-hartie-igienica-si-servetele","selected":true}],"children":[{"name":"Toate produsele","slug":"1303-hartie-igienica-si-servetele","selected":false},{"name":"Hârtie igienică","slug":"130301-hartie-igienica","selected":false},{"name":"Șervețele","slug":"130302-servetele","selected":false},{"name":"Prosoape de hârtie","slug":"130303-prosoape-hartie","selected":true}],"products":[{"code":"100123745","variantCode":"100123745","name":"Monorolă prosoape de bucătărie Practico 2 straturi, 355 foi","slug":"100123745-oti-monorola-prosoape-de-bucatarie-practico-2-straturi-355-foi","unitPriceLabel":"","brand":"Oti","brandCode":"988","brandFilterCode":"oti-b1002","sku":"100123745","price":14.9,"originalPrice":null,"currencyCode":"RON","currency":"Lei","image":{"thumbnail":{"default":"https://cdn.freshful.ro/media/cache/sylius_shop_product_thumbnail/6b/56/80098ac52f68d85e10815d42bd55.jpg"},"large":{"default":"https://cdn.freshful.ro/media/cache/freshful_large/6b/56/80098ac52f68d85e10815d42bd55.jpg"},"extralarge":{"default":"https://cdn.freshful.ro/media/cache/sylius_shop_product_original/6b/56/80098ac52f68d85e10815d42bd55.jpg"}},"label":{"text":"Primul preț","backgroundColor":"#3A0808","textColor":"#FFFFFF"},"tags":[],"isAvailable":true,"maxAvailableQuantity":100,"maxAllowedQuantity":100,"breadcrumbs":[{"code":"13","name":"Detergenți & igienizare","slug":"13-detergent-si-igienizare"},{"code":"1303","name":"Hârtie igienică, șervețele și prosoape","slug":"1303-hartie-igienica-si-servetele"},{"code":"130303","name":"Prosoape de hârtie","slug":"130303-prosoape-hartie"},{"code":"100123745","name":"Monorolă prosoape de bucătărie Practico 2 straturi, 355 foi","slug":"100123745-oti-monorola-prosoape-de-bucatarie-practico-2-straturi-355-foi"}],"activePromotion":null,"saveMe":null,"labels":[{"type":"v4","items":[{"text":"Primul","backgroundColor":"#3A0808","textColor":"#FFFFFF"},{"text":"preț","backgroundColor":"#BC0606","textColor":"#FFFFFF"}]}],"geniusPrice":null,"geniusUnitPricePerLabel":null,"banner":null,"discountLabel":null,"geniusDiscountLabel":null,"badge":null},{"code":"100134646","variantCode":"100134646","name":"Prosop de hârtie Monorolă 100m, 2 straturi rezistente și absorbante, 500 foi, 100% celuloză","slug":"100134646-sano-prosop-de-hartie-monorola-100m-2-straturi-rezistente-si-absorbante-500-foi-100-celuloza","unitPriceLabel":"23,99 Lei/buc","brand":"Sano","brandCode":"579","brandFilterCode":"sano-b580","sku":"100134646","price":23.99,"originalPrice":null,"currencyCode":"RON","currency":"Lei","image":{"thumbnail":{"default":"https://cdn.freshful.ro/media/cache/sylius_shop_product_thumbnail/6c/ba/931f6e79172606eef460e1022b87.jpg"},"large":{"default":"https://cdn.freshful.ro/media/cache/freshful_large/6c/ba/931f6e79172606eef460e1022b87.jpg"},"extralarge":{"default":"https://cdn.freshful.ro/media/cache/sylius_shop_product_original/6c/ba/931f6e79172606eef460e1022b87.jpg"}},"label":null,"tags":[],"isAvailable":true,"maxAvailableQuantity":100,"maxAllowedQuantity":100,"breadcrumbs":[{"code":"13","name":"Detergenți & igienizare","slug":"13-detergent-si-igienizare"},{"code":"1303","name":"Hârtie igienică, șervețele și prosoape","slug":"1303-hartie-igienica-si-servetele"},{"code":"130303","name":"Prosoape de hârtie","slug":"130303-prosoape-hartie"},{"code":"100134646","name":"Prosop de hârtie Monorolă 100m, 2 straturi rezistente și absorbante, 500 foi, 100% celuloză","slug":"100134646-sano-prosop-de-hartie-monorola-100m-2-straturi-rezistente-si-absorbante-500-foi-100-celuloza"}],"activePromotion":null,"saveMe":null,"labels":[],"geniusPrice":null,"geniusUnitPricePerLabel":null,"banner":null,"discountLabel":null,"geniusDiscountLabel":null,"badge":null},{"code":"100002377","variantCode":"100002377","name":"Prosoape de bucătărie 2 role, 2 straturi, 50 foi","slug":"100002377-fiore-prosoape-de-bucatarie-2-role-2-straturi-50-foi","unitPriceLabel":"","brand":"Fiore","brandCode":"209","brandFilterCode":"fiore-b210","sku":"100002377","price":6.15,"originalPrice":null,"currencyCode":"RON","currency":"Lei","image":{"thumbnail":{"default":"https://cdn.freshful.ro/media/cache/sylius_shop_product_thumbnail/cf/6a/bbfcf0a3037c5911ffdac5e21228.jpg"},"large":{"default":"https://cdn.freshful.ro/media/cache/freshful_large/cf/6a/bbfcf0a3037c5911ffdac5e21228.jpg"},"extralarge":{"default":"https://cdn.freshful.ro/media/cache/sylius_shop_product_original/cf/6a/bbfcf0a3037c5911ffdac5e21228.jpg"}},"label":null,"tags":[],"isAvailable":true,"maxAvailableQuantity":100,"maxAllowedQuantity":100,"breadcrumbs":[{"code":"13","name":"Detergenți & igienizare","slug":"13-detergent-si-igienizare"},{"code":"1303","name":"Hârtie igienică, șervețele și prosoape","slug":"1303-hartie-igienica-si-servetele"},{"code":"130303","name":"Prosoape de hârtie","slug":"130303-prosoape-hartie"},{"code":"100002377","name":"Prosoape de bucătărie 2 role, 2 straturi, 50 foi","slug":"100002377-fiore-prosoape-de-bucatarie-2-role-2-straturi-50-foi"}],"activePromotion":null,"saveMe":null,"labels":[],"geniusPrice":null,"geniusUnitPricePerLabel":null,"banner":null,"discountLabel":null,"geniusDiscountLabel":null,"badge":null},{"code":"100000388","variantCode":"100000388","name":"Prosop de hârtie Natura ultra absorbant 3 straturi, 1 rolă/set, 110 foi, 33m","slug":"100000388-pufina-prosop-de-hartie-natura-ultra-absorbant-3-straturi-1-rola-set-110-foi-33m","unitPriceLabel":"","brand":"Pufina","brandCode":"208","brandFilterCode":"pufina-b209","sku":"100000388","price":20.99,"originalPrice":null,"currencyCode":"RON","currency":"Lei","image":{"thumbnail":{"default":"https://cdn.freshful.ro/media/cache/sylius_shop_product_thumbnail/e6/83/9b70d40b85c7feb2cfb0d84c2af1.jpg"},"large":{"default":"https://cdn.freshful.ro/media/cache/freshful_large/e6/83/9b70d40b85c7feb2cfb0d84c2af1.jpg"},"extralarge":{"default":"https://cdn.freshful.ro/media/cache/sylius_shop_product_original/e6/83/9b70d40b85c7feb2cfb0d84c2af1.jpg"}},"label":null,"tags":[],"isAvailable":true,"maxAvailableQuantity":100,"maxAllowedQuantity":100,"breadcrumbs":[{"code":"13","name":"Detergenți & igienizare","slug":"13-detergent-si-igienizare"},{"code":"1303","name":"Hârtie igienică, șervețele și prosoape","slug":"1303-hartie-igienica-si-servetele"},{"code":"130303","name":"Prosoape de hârtie","slug":"130303-prosoape-hartie"},{"code":"100000388","name":"Prosop de hârtie Natura ultra absorbant 3 straturi, 1 rolă/set, 110 foi, 33m","slug":"100000388-pufina-prosop-de-hartie-natura-ultra-absorbant-3-straturi-1-rola-set-110-foi-33m"}],"activePromotion":null,"saveMe":null,"labels":[],"geniusPrice":null,"geniusUnitPricePerLabel":null,"banner":null,"discountLabel":null,"geniusDiscountLabel":null,"badge":null},{"code":"100150623","variantCode":"100150623","name":"Prosop de hârtie monorolă eco Protect Line 70m, 2 straturi, 350 foi","slug":"100150623-no-brand-prosop-de-hartie-monorola-eco-protect-line-70m-2-straturi-350-foi","unitPriceLabel":"12,79 Lei/buc","brand":"El Capitan Eco Protect Line","brandCode":"3002","brandFilterCode":"el-capitan-eco-protect-line-b3092","sku":"100150623","price":12.79,"originalPrice":null,"currencyCode":"RON","currency":"Lei","image":{"thumbnail":{"default":"https://cdn.freshful.ro/media/cache/sylius_shop_product_thumbnail/ae/1c/cbe0cd918edbfcc946a81e276ce8.jpg"},"large":{"default":"https://cdn.freshful.ro/media/cache/freshful_large/ae/1c/cbe0cd918edbfcc946a81e276ce8.jpg"},"extralarge":{"default":"https://cdn.freshful.ro/media/cache/sylius_shop_product_original/ae/1c/cbe0cd918edbfcc946a81e276ce8.jpg"}},"label":null,"tags":[{"type":"Eco","text":"Eco","icon":"https://cdn.freshful.ro/assets/product_tags/eco.svg","iconPng":"https://cdn.freshful.ro/assets/product_tags/eco.png","backgroundColor":"#EFFBE4","textColor":"#66BB1B"}],"isAvailable":true,"maxAvailableQuantity":100,"maxAllowedQuantity":100,"breadcrumbs":[{"code":"13","name":"Detergenți & igienizare","slug":"13-detergent-si-igienizare"},{"code":"1303","name":"Hârtie igienică, șervețele și prosoape","slug":"1303-hartie-igienica-si-servetele"},{"code":"130303","name":"Prosoape de hârtie","slug":"130303-prosoape-hartie"},{"code":"100150623","name":"Prosop de hârtie monorolă eco Protect Line 70m, 2 straturi, 350 foi","slug":"100150623-no-brand-prosop-de-hartie-monorola-eco-protect-line-70m-2-straturi-350-foi"}],"activePromotion":null,"saveMe":null,"labels":[],"geniusPrice":null,"geniusUnitPricePerLabel":null,"banner":null,"discountLabel":null,"geniusDiscountLabel":null,"badge":null},{"code":"100000389","variantCode":"100000389","name":"Prosop hârtie Jumbo 2 straturi, 1 rolă, 320 foi, 80m","slug":"100000389-pufina-prosop-hartie-jumbo-2-straturi-1-rola-320-foi-80m","unitPriceLabel":"","brand":"Pufina","brandCode":"208","brandFilterCode":"pufina-b209","sku":"100000389","price":19.99,"originalPrice":null,"currencyCode":"RON","currency":"Lei","image":{"thumbnail":{"default":"https://cdn.freshful.ro/media/cache/sylius_shop_product_thumbnail/0b/e0/bfa03a47cd6f21c3d53c51d99881.jpg"},"large":{"default":"https://cdn.freshful.ro/media/cache/freshful_large/0b/e0/bfa03a47cd6f21c3d53c51d99881.jpg"},"extralarge":{"default":"https://cdn.freshful.ro/media/cache/sylius_shop_product_original/0b/e0/bfa03a47cd6f21c3d53c51d99881.jpg"}},"label":null,"tags":[],"isAvailable":true,"maxAvailableQuantity":100,"maxAllowedQuantity":100,"breadcrumbs":[{"code":"13","name":"Detergenți & igienizare","slug":"13-detergent-si-igienizare"},{"code":"1303","name":"Hârtie igienică, șervețele și prosoape","slug":"1303-hartie-igienica-si-servetele"},{"code":"130303","name":"Prosoape de hârtie","slug":"130303-prosoape-hartie"},{"code":"100000389","name":"Prosop hârtie Jumbo 2 straturi, 1 rolă, 320 foi, 80m","slug":"100000389-pufina-prosop-hartie-jumbo-2-straturi-1-rola-320-foi-80m"}],"activePromotion":null,"saveMe":null,"labels":[],"geniusPrice":null,"geniusUnitPricePerLabel":null,"banner":null,"discountLabel":null,"geniusDiscountLabel":null,"badge":null},{"code":"100138915","variantCode":"100138915","name":"Prosoape de hârtie Jumbo, 3 straturi, 1 rolă, 230 foi","slug":"100138915-zewa-prosoape-de-hartie-jumbo-3-straturi-1-rola-230-foi","unitPriceLabel":"","brand":"Zewa","brandCode":"372","brandFilterCode":"zewa-b373","sku":"100138915","price":22.89,"originalPrice":null,"currencyCode":"RON","currency":"Lei","image":{"thumbnail":{"default":"https://cdn.freshful.ro/media/cache/sylius_shop_product_thumbnail/f7/5c/19eca26370ea0e61bfa216b0da05.jpg"},"large":{"default":"https://cdn.freshful.ro/media/cache/freshful_large/f7/5c/19eca26370ea0e61bfa216b0da05.jpg"},"extralarge":{"default":"https://cdn.freshful.ro/media/cache/sylius_shop_product_original/f7/5c/19eca26370ea0e61bfa216b0da05.jpg"}},"label":null,"tags":[],"isAvailable":true,"maxAvailableQuantity":100,"maxAllowedQuantity":100,"breadcrumbs":[{"code":"13","name":"Detergenți & igienizare","slug":"13-detergent-si-igienizare"},{"code":"1303","name":"Hârtie igienică, șervețele și prosoape","slug":"1303-hartie-igienica-si-servetele"},{"code":"130303","name":"Prosoape de hârtie","slug":"130303-prosoape-hartie"},{"code":"100138915","name":"Prosoape de hârtie Jumbo, 3 straturi, 1 rolă, 230 foi","slug":"100138915-zewa-prosoape-de-hartie-jumbo-3-straturi-1-rola-230-foi"}],"activePromotion":null,"saveMe":null,"labels":[],"geniusPrice":null,"geniusUnitPricePerLabel":null,"banner":null,"discountLabel":null,"geniusDiscountLabel":null,"badge":null},{"code":"100059326","variantCode":"5948552012551","name":"Prosop hârtie cu 2 straturi, 333 foi, 70m","slug":"100059326-madero-prosop-hartie-cu-2-straturi-333-foi-70m","unitPriceLabel":"","brand":"Madero","brandCode":"369","brandFilterCode":"madero-b370","sku":"100059326","price":16.99,"originalPrice":null,"currencyCode":"RON","currency":"Lei","image":{"thumbnail":{"default":"https://cdn.freshful.ro/media/cache/sylius_shop_product_thumbnail/10/64/be829c04218fdf8aa2b46a990acb.jpg"},"large":{"default":"https://cdn.freshful.ro/media/cache/freshful_large/10/64/be829c04218fdf8aa2b46a990acb.jpg"},"extralarge":{"default":"https://cdn.freshful.ro/media/cache/sylius_shop_product_original/10/64/be829c04218fdf8aa2b46a990acb.jpg"}},"label":null,"tags":[],"isAvailable":true,"maxAvailableQuantity":100,"maxAllowedQuantity":100,"breadcrumbs":[{"code":"13","name":"Detergenți & igienizare","slug":"13-detergent-si-igienizare"},{"code":"1303","name":"Hârtie igienică, șervețele și prosoape","slug":"1303-hartie-igienica-si-servetele"},{"code":"130303","name":"Prosoape de hârtie","slug":"130303-prosoape-hartie"},{"code":"100059326","name":"Prosop hârtie cu 2 straturi, 333 foi, 70m","slug":"100059326-madero-prosop-hartie-cu-2-straturi-333-foi-70m"}],"activePromotion":null,"saveMe":null,"labels":[],"geniusPrice":null,"geniusUnitPricePerLabel":null,"banner":null,"discountLabel":null,"geniusDiscountLabel":null,"badge":null},{"code":"100103672","variantCode":"100103672","name":"Rolă prosop hârtie Jumbo 1 strat 600 coli","slug":"100103672-kleenex-rola-prosop-hartie-jumbo-1-strat-600-coli","unitPriceLabel":"","brand":"Kleenex","brandCode":"1692","brandFilterCode":"kleenex-b1696","sku":"100103672","price":26.99,"originalPrice":null,"currencyCode":"RON","currency":"Lei","image":{"thumbnail":{"default":"https://cdn.freshful.ro/media/cache/sylius_shop_product_thumbnail/ac/db/a49f2b8315e5bce1bdbaf374ffe1.jpg"},"large":{"default":"https://cdn.freshful.ro/media/cache/freshful_large/ac/db/a49f2b8315e5bce1bdbaf374ffe1.jpg"},"extralarge":{"default":"https://cdn.freshful.ro/media/cache/sylius_shop_product_original/ac/db/a49f2b8315e5bce1bdbaf374ffe1.jpg"}},"label":null,"tags":[],"isAvailable":true,"maxAvailableQuantity":100,"maxAllowedQuantity":100,"breadcrumbs":[{"code":"13","name":"Detergenți & igienizare","slug":"13-detergent-si-igienizare"},{"code":"1303","name":"Hârtie igienică, șervețele și prosoape","slug":"1303-hartie-igienica-si-servetele"},{"code":"130303","name":"Prosoape de hârtie","slug":"130303-prosoape-hartie"},{"code":"100103672","name":"Rolă prosop hârtie Jumbo 1 strat 600 coli","slug":"100103672-kleenex-rola-prosop-hartie-jumbo-1-strat-600-coli"}],"activePromotion":null,"saveMe":null,"labels":[],"geniusPrice":null,"geniusUnitPricePerLabel":null,"banner":null,"discountLabel":null,"geniusDiscountLabel":null,"badge":null},{"code":"100127201","variantCode":"100127201","name":"Prosoape de hârtie Jumbo 2 straturi, 1 rolă, 325 foi","slug":"100127201-zewa-prosoape-de-hartie-jumbo-2-straturi-1-rola-325-foi","unitPriceLabel":"","brand":"Zewa","brandCode":"372","brandFilterCode":"zewa-b373","sku":"100127201","price":26.99,"originalPrice":null,"currencyCode":"RON","currency":"Lei","image":{"thumbnail":{"default":"https://cdn.freshful.ro/media/cache/sylius_shop_product_thumbnail/d3/fc/789f222f610046e377e813692781.jpg"},"large":{"default":"https://cdn.freshful.ro/media/cache/freshful_large/d3/fc/789f222f610046e377e813692781.jpg"},"extralarge":{"default":"https://cdn.freshful.ro/media/cache/sylius_shop_product_original/d3/fc/789f222f610046e377e813692781.jpg"}},"label":null,"tags":[],"isAvailable":true,"maxAvailableQuantity":100,"maxAllowedQuantity":100,"breadcrumbs":[{"code":"13","name":"Detergenți & igienizare","slug":"13-detergent-si-igienizare"},{"code":"1303","name":"Hârtie igienică, șervețele și prosoape","slug":"1303-hartie-igienica-si-servetele"},{"code":"130303","name":"Prosoape de hârtie","slug":"130303-prosoape-hartie"},{"code":"100127201","name":"Prosoape de hârtie Jumbo 2 straturi, 1 rolă, 325 foi","slug":"100127201-zewa-prosoape-de-hartie-jumbo-2-straturi-1-rola-325-foi"}],"activePromotion":null,"saveMe":null,"labels":[],"geniusPrice":null,"geniusUnitPricePerLabel":null,"banner":null,"discountLabel":null,"geniusDiscountLabel":null,"badge":null}],"filters":{"countSelected":0,"items":[{"code":"brand","name":"Brand","countSelected":0,"values":[{"code":"el-capitan-b3091","name":"El Capitan","isSelected":false,"count":1},{"code":"el-capitan-eco-protect-line-b3092","name":"El Capitan Eco Protect Line","isSelected":false,"count":1},{"code":"emeka-b389","name":"Emeka","isSelected":false,"count":1},{"code":"fiore-b210","name":"Fiore","isSelected":false,"count":4},{"code":"kilo-confort-b3093","name":"Kilo Confort","isSelected":false,"count":3},{"code":"kleenex-b1696","name":"Kleenex","isSelected":false,"count":1},{"code":"madero-b370","name":"Madero","isSelected":false,"count":3},{"code":"neve-b211","name":"Neve","isSelected":false,"count":1},{"code":"oti-b1002","name":"Oti","isSelected":false,"count":2},{"code":"puff-b208","name":"Puff","isSelected":false,"count":1},{"code":"pufina-b209","name":"Pufina","isSelected":false,"count":5},{"code":"sano-b580","name":"Sano","isSelected":false,"count":2},{"code":"world-cart-b2353","name":"World Cart","isSelected":false,"count":1},{"code":"zewa-b373","name":"Zewa","isSelected":false,"count":8}]},{"code":"diet_lifestyle","name":"Dietă și lifestyle","countSelected":0,"values":[{"code":"eco-a83","name":"Eco","isSelected":false,"count":1}]}]},"orderBy":[{"field":"price","direction":"asc","name":"Preț crescător","isSelected":false},{"field":"price","direction":"desc","name":"Preț descrescător","isSelected":false},{"field":"popularity","direction":"desc","name":"Cele mai populare","isSelected":true},{"field":"category","direction":"asc","name":"Categorie","isSelected":false}],"metaTitle":"Prosoape de hârtie - Gamă variată","metaDescription":"Vrei Prosoape de hârtie? Alege dintr-o gamă variată. Comanzi simplu și ai livrare rapidă, calitate și prospețime. Hai pe Freshful.ro","metaKeywords":null,"banners":[]}}