{"type":"subcategory","payload":{"analyticsListId":"category_1303-hartie-igienica-si-servetele","analyticsListName":"Category - Hârtie igienică, șervețele și prosoape","name":"Hârtie igienică, șervețele și prosoape","slug":"1303-hartie-igienica-si-servetele","image":null,"breadcrumbs":[{"code":"13","name":"Detergenți & igienizare","slug":"13-detergent-si-igienizare"},{"code":"1303","name":"Hârtie igienică, șervețele și prosoape","slug":"1303-hartie-igienica-si-servetele"}],"slots":[],"page":1,"limit":10,"pages":16,"count":151,"siblings":[{"name":"Spălare și întreținere rufe","slug":"1301-spalare-si-intretinere-rufe","selected":false},{"name":"Curățenie și întreținerea casei","slug":"1302-igienizarea-casei","selected":false},{"name":"Hârtie igienică, șervețele și prosoape","slug":"1303-hartie-igienica-si-servetele","selected":true}],"children":[{"name":"Toate produsele","slug":"1303-hartie-igienica-si-servetele","selected":true},{"name":"Hârtie igienică","slug":"130301-hartie-igienica","selected":false},{"name":"Șervețele","slug":"130302-servetele","selected":false},{"name":"Prosoape de hârtie","slug":"130303-prosoape-hartie","selected":false}],"products":[{"code":"100000382","variantCode":"100000382","name":"Hârtie igienică Didi mușețel 3 straturi 8 role","slug":"100000382-pufina-hartie-igienica-didi-musetel-3-straturi-8-role","unitPriceLabel":"","brand":"Pufina","brandCode":"208","brandFilterCode":"pufina-b209","sku":"100000382","price":19.79,"originalPrice":null,"currencyCode":"RON","currency":"Lei","image":{"thumbnail":{"default":"https://cdn.freshful.ro/media/cache/sylius_shop_product_thumbnail/8a/9e/25f4370c60b2f27e235a11d51d70.jpg"},"large":{"default":"https://cdn.freshful.ro/media/cache/freshful_large/8a/9e/25f4370c60b2f27e235a11d51d70.jpg"},"extralarge":{"default":"https://cdn.freshful.ro/media/cache/sylius_shop_product_original/8a/9e/25f4370c60b2f27e235a11d51d70.jpg"}},"label":null,"tags":[],"isAvailable":true,"maxAvailableQuantity":100,"maxAllowedQuantity":100,"breadcrumbs":[{"code":"13","name":"Detergenți & igienizare","slug":"13-detergent-si-igienizare"},{"code":"1303","name":"Hârtie igienică, șervețele și prosoape","slug":"1303-hartie-igienica-si-servetele"},{"code":"130301","name":"Hârtie igienică","slug":"130301-hartie-igienica"},{"code":"100000382","name":"Hârtie igienică Didi mușețel 3 straturi 8 role","slug":"100000382-pufina-hartie-igienica-didi-musetel-3-straturi-8-role"}],"activePromotion":null,"saveMe":null,"labels":[],"geniusPrice":null,"geniusUnitPricePerLabel":null,"banner":null,"discountLabel":null,"geniusDiscountLabel":null,"badge":null},{"code":"100123745","variantCode":"100123745","name":"Monorolă prosoape de bucătărie Practico 2 straturi, 355 foi","slug":"100123745-oti-monorola-prosoape-de-bucatarie-practico-2-straturi-355-foi","unitPriceLabel":"","brand":"Oti","brandCode":"988","brandFilterCode":"oti-b1002","sku":"100123745","price":14.9,"originalPrice":null,"currencyCode":"RON","currency":"Lei","image":{"thumbnail":{"default":"https://cdn.freshful.ro/media/cache/sylius_shop_product_thumbnail/6b/56/80098ac52f68d85e10815d42bd55.jpg"},"large":{"default":"https://cdn.freshful.ro/media/cache/freshful_large/6b/56/80098ac52f68d85e10815d42bd55.jpg"},"extralarge":{"default":"https://cdn.freshful.ro/media/cache/sylius_shop_product_original/6b/56/80098ac52f68d85e10815d42bd55.jpg"}},"label":{"text":"Primul preț","backgroundColor":"#3A0808","textColor":"#FFFFFF"},"tags":[],"isAvailable":true,"maxAvailableQuantity":100,"maxAllowedQuantity":100,"breadcrumbs":[{"code":"13","name":"Detergenți & igienizare","slug":"13-detergent-si-igienizare"},{"code":"1303","name":"Hârtie igienică, șervețele și prosoape","slug":"1303-hartie-igienica-si-servetele"},{"code":"130303","name":"Prosoape de hârtie","slug":"130303-prosoape-hartie"},{"code":"100123745","name":"Monorolă prosoape de bucătărie Practico 2 straturi, 355 foi","slug":"100123745-oti-monorola-prosoape-de-bucatarie-practico-2-straturi-355-foi"}],"activePromotion":null,"saveMe":null,"labels":[{"type":"v4","items":[{"text":"Primul","backgroundColor":"#3A0808","textColor":"#FFFFFF"},{"text":"preț","backgroundColor":"#BC0606","textColor":"#FFFFFF"}]}],"geniusPrice":null,"geniusUnitPricePerLabel":null,"banner":null,"discountLabel":null,"geniusDiscountLabel":null,"badge":null},{"code":"100123747","variantCode":"100123747","name":"Șervețele faciale albe, 2 straturi, 150 buc ","slug":"100123747-oti-servetele-faciale-albe-2-straturi-150-buc","unitPriceLabel":"","brand":"Oti","brandCode":"988","brandFilterCode":"oti-b1002","sku":"100123747","price":5.15,"originalPrice":null,"currencyCode":"RON","currency":"Lei","image":{"thumbnail":{"default":"https://cdn.freshful.ro/media/cache/sylius_shop_product_thumbnail/47/fb/96697cdc317869784792fdb1a437.jpg"},"large":{"default":"https://cdn.freshful.ro/media/cache/freshful_large/47/fb/96697cdc317869784792fdb1a437.jpg"},"extralarge":{"default":"https://cdn.freshful.ro/media/cache/sylius_shop_product_original/47/fb/96697cdc317869784792fdb1a437.jpg"}},"label":{"text":"Primul preț","backgroundColor":"#3A0808","textColor":"#FFFFFF"},"tags":[],"isAvailable":true,"maxAvailableQuantity":100,"maxAllowedQuantity":100,"breadcrumbs":[{"code":"13","name":"Detergenți & igienizare","slug":"13-detergent-si-igienizare"},{"code":"1303","name":"Hârtie igienică, șervețele și prosoape","slug":"1303-hartie-igienica-si-servetele"},{"code":"130302","name":"Șervețele","slug":"130302-servetele"},{"code":"100123747","name":"Șervețele faciale albe, 2 straturi, 150 buc ","slug":"100123747-oti-servetele-faciale-albe-2-straturi-150-buc"}],"activePromotion":null,"saveMe":null,"labels":[{"type":"v4","items":[{"text":"Primul","backgroundColor":"#3A0808","textColor":"#FFFFFF"},{"text":"preț","backgroundColor":"#BC0606","textColor":"#FFFFFF"}]}],"geniusPrice":null,"geniusUnitPricePerLabel":null,"banner":null,"discountLabel":null,"geniusDiscountLabel":null,"badge":null},{"code":"100150622","variantCode":"100150622","name":"Hârtie igienică 8 role, 3 straturi, piersică","slug":"100150622-no-brand-hartie-igienica-8-role-3-straturi-piersica","unitPriceLabel":"","brand":"El Capitan","brandCode":"3001","brandFilterCode":"el-capitan-b3091","sku":"100150622","price":13.99,"originalPrice":null,"currencyCode":"RON","currency":"Lei","image":{"thumbnail":{"default":"https://cdn.freshful.ro/media/cache/sylius_shop_product_thumbnail/01/c5/3a6cec5f622f51c0362f5b55bbcd.jpg"},"large":{"default":"https://cdn.freshful.ro/media/cache/freshful_large/01/c5/3a6cec5f622f51c0362f5b55bbcd.jpg"},"extralarge":{"default":"https://cdn.freshful.ro/media/cache/sylius_shop_product_original/01/c5/3a6cec5f622f51c0362f5b55bbcd.jpg"}},"label":null,"tags":[],"isAvailable":true,"maxAvailableQuantity":100,"maxAllowedQuantity":100,"breadcrumbs":[{"code":"13","name":"Detergenți & igienizare","slug":"13-detergent-si-igienizare"},{"code":"1303","name":"Hârtie igienică, șervețele și prosoape","slug":"1303-hartie-igienica-si-servetele"},{"code":"130301","name":"Hârtie igienică","slug":"130301-hartie-igienica"},{"code":"100150622","name":"Hârtie igienică 8 role, 3 straturi, piersică","slug":"100150622-no-brand-hartie-igienica-8-role-3-straturi-piersica"}],"activePromotion":null,"saveMe":null,"labels":[],"geniusPrice":null,"geniusUnitPricePerLabel":null,"banner":null,"discountLabel":null,"geniusDiscountLabel":null,"badge":null},{"code":"100127194","variantCode":"100127194","name":"Șervețele faciale 3 straturi, 90 buc","slug":"100127194-zewa-servetele-faciale-3-straturi-90-buc","unitPriceLabel":"","brand":"Zewa","brandCode":"372","brandFilterCode":"zewa-b373","sku":"100127194","price":10.5,"originalPrice":null,"currencyCode":"RON","currency":"Lei","image":{"thumbnail":{"default":"https://cdn.freshful.ro/media/cache/sylius_shop_product_thumbnail/3a/df/f98ba7702722607f00f8d2c2e61e.jpg"},"large":{"default":"https://cdn.freshful.ro/media/cache/freshful_large/3a/df/f98ba7702722607f00f8d2c2e61e.jpg"},"extralarge":{"default":"https://cdn.freshful.ro/media/cache/sylius_shop_product_original/3a/df/f98ba7702722607f00f8d2c2e61e.jpg"}},"label":null,"tags":[],"isAvailable":true,"maxAvailableQuantity":100,"maxAllowedQuantity":100,"breadcrumbs":[{"code":"13","name":"Detergenți & igienizare","slug":"13-detergent-si-igienizare"},{"code":"1303","name":"Hârtie igienică, șervețele și prosoape","slug":"1303-hartie-igienica-si-servetele"},{"code":"130302","name":"Șervețele","slug":"130302-servetele"},{"code":"100127194","name":"Șervețele faciale 3 straturi, 90 buc","slug":"100127194-zewa-servetele-faciale-3-straturi-90-buc"}],"activePromotion":null,"saveMe":null,"labels":[],"geniusPrice":null,"geniusUnitPricePerLabel":null,"banner":null,"discountLabel":null,"geniusDiscountLabel":null,"badge":null},{"code":"100134646","variantCode":"100134646","name":"Prosop de hârtie Monorolă 100m, 2 straturi rezistente și absorbante, 500 foi, 100% celuloză","slug":"100134646-sano-prosop-de-hartie-monorola-100m-2-straturi-rezistente-si-absorbante-500-foi-100-celuloza","unitPriceLabel":"23,99 Lei/buc","brand":"Sano","brandCode":"579","brandFilterCode":"sano-b580","sku":"100134646","price":23.99,"originalPrice":null,"currencyCode":"RON","currency":"Lei","image":{"thumbnail":{"default":"https://cdn.freshful.ro/media/cache/sylius_shop_product_thumbnail/6c/ba/931f6e79172606eef460e1022b87.jpg"},"large":{"default":"https://cdn.freshful.ro/media/cache/freshful_large/6c/ba/931f6e79172606eef460e1022b87.jpg"},"extralarge":{"default":"https://cdn.freshful.ro/media/cache/sylius_shop_product_original/6c/ba/931f6e79172606eef460e1022b87.jpg"}},"label":null,"tags":[],"isAvailable":true,"maxAvailableQuantity":100,"maxAllowedQuantity":100,"breadcrumbs":[{"code":"13","name":"Detergenți & igienizare","slug":"13-detergent-si-igienizare"},{"code":"1303","name":"Hârtie igienică, șervețele și prosoape","slug":"1303-hartie-igienica-si-servetele"},{"code":"130303","name":"Prosoape de hârtie","slug":"130303-prosoape-hartie"},{"code":"100134646","name":"Prosop de hârtie Monorolă 100m, 2 straturi rezistente și absorbante, 500 foi, 100% celuloză","slug":"100134646-sano-prosop-de-hartie-monorola-100m-2-straturi-rezistente-si-absorbante-500-foi-100-celuloza"}],"activePromotion":null,"saveMe":null,"labels":[],"geniusPrice":null,"geniusUnitPricePerLabel":null,"banner":null,"discountLabel":null,"geniusDiscountLabel":null,"badge":null},{"code":"100002377","variantCode":"100002377","name":"Prosoape de bucătărie 2 role, 2 straturi, 50 foi","slug":"100002377-fiore-prosoape-de-bucatarie-2-role-2-straturi-50-foi","unitPriceLabel":"","brand":"Fiore","brandCode":"209","brandFilterCode":"fiore-b210","sku":"100002377","price":6.15,"originalPrice":null,"currencyCode":"RON","currency":"Lei","image":{"thumbnail":{"default":"https://cdn.freshful.ro/media/cache/sylius_shop_product_thumbnail/cf/6a/bbfcf0a3037c5911ffdac5e21228.jpg"},"large":{"default":"https://cdn.freshful.ro/media/cache/freshful_large/cf/6a/bbfcf0a3037c5911ffdac5e21228.jpg"},"extralarge":{"default":"https://cdn.freshful.ro/media/cache/sylius_shop_product_original/cf/6a/bbfcf0a3037c5911ffdac5e21228.jpg"}},"label":null,"tags":[],"isAvailable":true,"maxAvailableQuantity":100,"maxAllowedQuantity":100,"breadcrumbs":[{"code":"13","name":"Detergenți & igienizare","slug":"13-detergent-si-igienizare"},{"code":"1303","name":"Hârtie igienică, șervețele și prosoape","slug":"1303-hartie-igienica-si-servetele"},{"code":"130303","name":"Prosoape de hârtie","slug":"130303-prosoape-hartie"},{"code":"100002377","name":"Prosoape de bucătărie 2 role, 2 straturi, 50 foi","slug":"100002377-fiore-prosoape-de-bucatarie-2-role-2-straturi-50-foi"}],"activePromotion":null,"saveMe":null,"labels":[],"geniusPrice":null,"geniusUnitPricePerLabel":null,"banner":null,"discountLabel":null,"geniusDiscountLabel":null,"badge":null},{"code":"100127258","variantCode":"100127258","name":"Hârtie igienică Deluxe Delicate Care 3 straturi 12 role","slug":"100127258-zewa-hartie-igienica-deluxe-delicate-care-3-straturi-12-role","unitPriceLabel":"","brand":"Zewa","brandCode":"372","brandFilterCode":"zewa-b373","sku":"100127258","price":40.99,"originalPrice":null,"currencyCode":"RON","currency":"Lei","image":{"thumbnail":{"default":"https://cdn.freshful.ro/media/cache/sylius_shop_product_thumbnail/75/8b/97311e322e234459ea6854274410.jpg"},"large":{"default":"https://cdn.freshful.ro/media/cache/freshful_large/75/8b/97311e322e234459ea6854274410.jpg"},"extralarge":{"default":"https://cdn.freshful.ro/media/cache/sylius_shop_product_original/75/8b/97311e322e234459ea6854274410.jpg"}},"label":null,"tags":[],"isAvailable":true,"maxAvailableQuantity":100,"maxAllowedQuantity":100,"breadcrumbs":[{"code":"13","name":"Detergenți & igienizare","slug":"13-detergent-si-igienizare"},{"code":"1303","name":"Hârtie igienică, șervețele și prosoape","slug":"1303-hartie-igienica-si-servetele"},{"code":"130301","name":"Hârtie igienică","slug":"130301-hartie-igienica"},{"code":"100127258","name":"Hârtie igienică Deluxe Delicate Care 3 straturi 12 role","slug":"100127258-zewa-hartie-igienica-deluxe-delicate-care-3-straturi-12-role"}],"activePromotion":null,"saveMe":null,"labels":[],"geniusPrice":null,"geniusUnitPricePerLabel":null,"banner":null,"discountLabel":null,"geniusDiscountLabel":null,"badge":null},{"code":"100000388","variantCode":"100000388","name":"Prosop de hârtie Natura ultra absorbant 3 straturi, 1 rolă/set, 110 foi, 33m","slug":"100000388-pufina-prosop-de-hartie-natura-ultra-absorbant-3-straturi-1-rola-set-110-foi-33m","unitPriceLabel":"","brand":"Pufina","brandCode":"208","brandFilterCode":"pufina-b209","sku":"100000388","price":20.99,"originalPrice":null,"currencyCode":"RON","currency":"Lei","image":{"thumbnail":{"default":"https://cdn.freshful.ro/media/cache/sylius_shop_product_thumbnail/e6/83/9b70d40b85c7feb2cfb0d84c2af1.jpg"},"large":{"default":"https://cdn.freshful.ro/media/cache/freshful_large/e6/83/9b70d40b85c7feb2cfb0d84c2af1.jpg"},"extralarge":{"default":"https://cdn.freshful.ro/media/cache/sylius_shop_product_original/e6/83/9b70d40b85c7feb2cfb0d84c2af1.jpg"}},"label":null,"tags":[],"isAvailable":true,"maxAvailableQuantity":100,"maxAllowedQuantity":100,"breadcrumbs":[{"code":"13","name":"Detergenți & igienizare","slug":"13-detergent-si-igienizare"},{"code":"1303","name":"Hârtie igienică, șervețele și prosoape","slug":"1303-hartie-igienica-si-servetele"},{"code":"130303","name":"Prosoape de hârtie","slug":"130303-prosoape-hartie"},{"code":"100000388","name":"Prosop de hârtie Natura ultra absorbant 3 straturi, 1 rolă/set, 110 foi, 33m","slug":"100000388-pufina-prosop-de-hartie-natura-ultra-absorbant-3-straturi-1-rola-set-110-foi-33m"}],"activePromotion":null,"saveMe":null,"labels":[],"geniusPrice":null,"geniusUnitPricePerLabel":null,"banner":null,"discountLabel":null,"geniusDiscountLabel":null,"badge":null},{"code":"100150623","variantCode":"100150623","name":"Prosop de hârtie monorolă eco Protect Line 70m, 2 straturi, 350 foi","slug":"100150623-no-brand-prosop-de-hartie-monorola-eco-protect-line-70m-2-straturi-350-foi","unitPriceLabel":"12,79 Lei/buc","brand":"El Capitan Eco Protect Line","brandCode":"3002","brandFilterCode":"el-capitan-eco-protect-line-b3092","sku":"100150623","price":12.79,"originalPrice":null,"currencyCode":"RON","currency":"Lei","image":{"thumbnail":{"default":"https://cdn.freshful.ro/media/cache/sylius_shop_product_thumbnail/ae/1c/cbe0cd918edbfcc946a81e276ce8.jpg"},"large":{"default":"https://cdn.freshful.ro/media/cache/freshful_large/ae/1c/cbe0cd918edbfcc946a81e276ce8.jpg"},"extralarge":{"default":"https://cdn.freshful.ro/media/cache/sylius_shop_product_original/ae/1c/cbe0cd918edbfcc946a81e276ce8.jpg"}},"label":null,"tags":[{"type":"Eco","text":"Eco","icon":"https://cdn.freshful.ro/assets/product_tags/eco.svg","iconPng":"https://cdn.freshful.ro/assets/product_tags/eco.png","backgroundColor":"#EFFBE4","textColor":"#66BB1B"}],"isAvailable":true,"maxAvailableQuantity":100,"maxAllowedQuantity":100,"breadcrumbs":[{"code":"13","name":"Detergenți & igienizare","slug":"13-detergent-si-igienizare"},{"code":"1303","name":"Hârtie igienică, șervețele și prosoape","slug":"1303-hartie-igienica-si-servetele"},{"code":"130303","name":"Prosoape de hârtie","slug":"130303-prosoape-hartie"},{"code":"100150623","name":"Prosop de hârtie monorolă eco Protect Line 70m, 2 straturi, 350 foi","slug":"100150623-no-brand-prosop-de-hartie-monorola-eco-protect-line-70m-2-straturi-350-foi"}],"activePromotion":null,"saveMe":null,"labels":[],"geniusPrice":null,"geniusUnitPricePerLabel":null,"banner":null,"discountLabel":null,"geniusDiscountLabel":null,"badge":null}],"filters":{"countSelected":0,"items":[{"code":"promotion","name":"Promoții","countSelected":0,"values":[{"code":"superpreturile-saptamanii","name":"Superprețurile zilei","isSelected":false,"count":1}]},{"code":"brand","name":"Brand","countSelected":0,"values":[{"code":"clin-b422","name":"Clin","isSelected":false,"count":1},{"code":"clineo-b1744","name":"Clineo","isSelected":false,"count":2},{"code":"el-capitan-b3091","name":"El Capitan","isSelected":false,"count":2},{"code":"el-capitan-eco-protect-line-b3092","name":"El Capitan Eco Protect Line","isSelected":false,"count":1},{"code":"elmiplant-b551","name":"Elmiplant","isSelected":false,"count":1},{"code":"emeka-b389","name":"Emeka","isSelected":false,"count":3},{"code":"expert-wipes-b1639","name":"Expert Wipes","isSelected":false,"count":7},{"code":"fiore-b210","name":"Fiore","isSelected":false,"count":9},{"code":"igienol-b428","name":"Igienol","isSelected":false,"count":4},{"code":"kilo-confort-b3093","name":"Kilo Confort","isSelected":false,"count":7},{"code":"kleenex-b1696","name":"Kleenex","isSelected":false,"count":8},{"code":"madero-b370","name":"Madero","isSelected":false,"count":3},{"code":"milde-b390","name":"Milde","isSelected":false,"count":4},{"code":"neve-b211","name":"Neve","isSelected":false,"count":1},{"code":"oti-b1002","name":"Oti","isSelected":false,"count":7},{"code":"puff-b208","name":"Puff","isSelected":false,"count":16},{"code":"pufina-b209","name":"Pufina","isSelected":false,"count":17},{"code":"romania-frumoasa-b1641","name":"România Frumoasă","isSelected":false,"count":2},{"code":"sano-b580","name":"Sano","isSelected":false,"count":2},{"code":"septona-b368","name":"Septona","isSelected":false,"count":3},{"code":"super-touch-b1643","name":"Super Touch","isSelected":false,"count":1},{"code":"touch-b579","name":"Touch","isSelected":false,"count":7},{"code":"wet-hankies-b371","name":"Wet Hankies","isSelected":false,"count":6},{"code":"world-cart-b2353","name":"World Cart","isSelected":false,"count":3},{"code":"zewa-b373","name":"Zewa","isSelected":false,"count":34}]},{"code":"diet_lifestyle","name":"Dietă și lifestyle","countSelected":0,"values":[{"code":"bio-a26","name":"Bio","isSelected":false,"count":1},{"code":"eco-a83","name":"Eco","isSelected":false,"count":1}]}]},"orderBy":[{"field":"price","direction":"asc","name":"Preț crescător","isSelected":false},{"field":"price","direction":"desc","name":"Preț descrescător","isSelected":false},{"field":"popularity","direction":"desc","name":"Cele mai populare","isSelected":true},{"field":"category","direction":"asc","name":"Categorie","isSelected":false}],"metaTitle":"Hârtie igienică, șervețele și prosoape - Gamă variată","metaDescription":"Vrei Hârtie igienică, șervețele și prosoape? Alege dintr-o gamă variată. Comanzi simplu și ai livrare rapidă, calitate și prospețime. Hai pe Freshful.ro","metaKeywords":null,"banners":[]}}