{"type":"subcategory","payload":{"analyticsListId":"category_130302-servetele","analyticsListName":"Category - Șervețele","name":"Șervețele","slug":"130302-servetele","image":null,"breadcrumbs":[{"code":"13","name":"Detergenți & igienizare","slug":"13-detergent-si-igienizare"},{"code":"1303","name":"Hârtie igienică, șervețele și prosoape","slug":"1303-hartie-igienica-si-servetele"},{"code":"130302","name":"Șervețele","slug":"130302-servetele"}],"slots":[],"page":1,"limit":10,"pages":8,"count":72,"siblings":[{"name":"Spălare și întreținere rufe","slug":"1301-spalare-si-intretinere-rufe","selected":false},{"name":"Curățenie și întreținerea casei","slug":"1302-igienizarea-casei","selected":false},{"name":"Hârtie igienică, șervețele și prosoape","slug":"1303-hartie-igienica-si-servetele","selected":true}],"children":[{"name":"Toate produsele","slug":"1303-hartie-igienica-si-servetele","selected":false},{"name":"Hârtie igienică","slug":"130301-hartie-igienica","selected":false},{"name":"Șervețele","slug":"130302-servetele","selected":true},{"name":"Prosoape de hârtie","slug":"130303-prosoape-hartie","selected":false}],"products":[{"code":"100123747","variantCode":"100123747","name":"Șervețele faciale albe, 2 straturi, 150 buc ","slug":"100123747-oti-servetele-faciale-albe-2-straturi-150-buc","unitPriceLabel":"","brand":"Oti","brandCode":"988","brandFilterCode":"oti-b1002","sku":"100123747","price":5.15,"originalPrice":null,"currencyCode":"RON","currency":"Lei","image":{"thumbnail":{"default":"https://cdn.freshful.ro/media/cache/sylius_shop_product_thumbnail/47/fb/96697cdc317869784792fdb1a437.jpg"},"large":{"default":"https://cdn.freshful.ro/media/cache/freshful_large/47/fb/96697cdc317869784792fdb1a437.jpg"},"extralarge":{"default":"https://cdn.freshful.ro/media/cache/sylius_shop_product_original/47/fb/96697cdc317869784792fdb1a437.jpg"}},"label":{"text":"Primul preț","backgroundColor":"#3A0808","textColor":"#FFFFFF"},"tags":[],"isAvailable":true,"maxAvailableQuantity":100,"maxAllowedQuantity":100,"breadcrumbs":[{"code":"13","name":"Detergenți & igienizare","slug":"13-detergent-si-igienizare"},{"code":"1303","name":"Hârtie igienică, șervețele și prosoape","slug":"1303-hartie-igienica-si-servetele"},{"code":"130302","name":"Șervețele","slug":"130302-servetele"},{"code":"100123747","name":"Șervețele faciale albe, 2 straturi, 150 buc ","slug":"100123747-oti-servetele-faciale-albe-2-straturi-150-buc"}],"activePromotion":null,"saveMe":null,"labels":[{"type":"v4","items":[{"text":"Primul","backgroundColor":"#3A0808","textColor":"#FFFFFF"},{"text":"preț","backgroundColor":"#BC0606","textColor":"#FFFFFF"}]}],"geniusPrice":null,"geniusUnitPricePerLabel":null,"banner":null,"discountLabel":null,"geniusDiscountLabel":null,"badge":null},{"code":"100127194","variantCode":"100127194","name":"Șervețele faciale 3 straturi, 90 buc","slug":"100127194-zewa-servetele-faciale-3-straturi-90-buc","unitPriceLabel":"","brand":"Zewa","brandCode":"372","brandFilterCode":"zewa-b373","sku":"100127194","price":10.5,"originalPrice":null,"currencyCode":"RON","currency":"Lei","image":{"thumbnail":{"default":"https://cdn.freshful.ro/media/cache/sylius_shop_product_thumbnail/3a/df/f98ba7702722607f00f8d2c2e61e.jpg"},"large":{"default":"https://cdn.freshful.ro/media/cache/freshful_large/3a/df/f98ba7702722607f00f8d2c2e61e.jpg"},"extralarge":{"default":"https://cdn.freshful.ro/media/cache/sylius_shop_product_original/3a/df/f98ba7702722607f00f8d2c2e61e.jpg"}},"label":null,"tags":[],"isAvailable":true,"maxAvailableQuantity":100,"maxAllowedQuantity":100,"breadcrumbs":[{"code":"13","name":"Detergenți & igienizare","slug":"13-detergent-si-igienizare"},{"code":"1303","name":"Hârtie igienică, șervețele și prosoape","slug":"1303-hartie-igienica-si-servetele"},{"code":"130302","name":"Șervețele","slug":"130302-servetele"},{"code":"100127194","name":"Șervețele faciale 3 straturi, 90 buc","slug":"100127194-zewa-servetele-faciale-3-straturi-90-buc"}],"activePromotion":null,"saveMe":null,"labels":[],"geniusPrice":null,"geniusUnitPricePerLabel":null,"banner":null,"discountLabel":null,"geniusDiscountLabel":null,"badge":null},{"code":"100002370","variantCode":"100002370","name":"Șervețele faciale neparfumate 2 straturi 150 buc","slug":"100002370-puff-servetele-faciale-neparfumate-2-straturi-150-buc","unitPriceLabel":"","brand":"Puff","brandCode":"207","brandFilterCode":"puff-b208","sku":"100002370","price":10.5,"originalPrice":null,"currencyCode":"RON","currency":"Lei","image":{"thumbnail":{"default":"https://cdn.freshful.ro/media/cache/sylius_shop_product_thumbnail/85/90/8ccdd4564ab7d5302c456cb4bd93.jpg"},"large":{"default":"https://cdn.freshful.ro/media/cache/freshful_large/85/90/8ccdd4564ab7d5302c456cb4bd93.jpg"},"extralarge":{"default":"https://cdn.freshful.ro/media/cache/sylius_shop_product_original/85/90/8ccdd4564ab7d5302c456cb4bd93.jpg"}},"label":null,"tags":[],"isAvailable":true,"maxAvailableQuantity":100,"maxAllowedQuantity":100,"breadcrumbs":[{"code":"13","name":"Detergenți & igienizare","slug":"13-detergent-si-igienizare"},{"code":"1303","name":"Hârtie igienică, șervețele și prosoape","slug":"1303-hartie-igienica-si-servetele"},{"code":"130302","name":"Șervețele","slug":"130302-servetele"},{"code":"100002370","name":"Șervețele faciale neparfumate 2 straturi 150 buc","slug":"100002370-puff-servetele-faciale-neparfumate-2-straturi-150-buc"}],"activePromotion":null,"saveMe":null,"labels":[],"geniusPrice":null,"geniusUnitPricePerLabel":null,"banner":null,"discountLabel":null,"geniusDiscountLabel":null,"badge":null},{"code":"100103658","variantCode":"100103658","name":"Șervețele igienice Box Family 150 buc","slug":"100103658-kleenex-servetele-igienice-box-family-150-buc","unitPriceLabel":"","brand":"Kleenex","brandCode":"1692","brandFilterCode":"kleenex-b1696","sku":"100103658","price":9.49,"originalPrice":null,"currencyCode":"RON","currency":"Lei","image":{"thumbnail":{"default":"https://cdn.freshful.ro/media/cache/sylius_shop_product_thumbnail/7f/ce/73b3ce865d4928b2a089f5830d26.jpg"},"large":{"default":"https://cdn.freshful.ro/media/cache/freshful_large/7f/ce/73b3ce865d4928b2a089f5830d26.jpg"},"extralarge":{"default":"https://cdn.freshful.ro/media/cache/sylius_shop_product_original/7f/ce/73b3ce865d4928b2a089f5830d26.jpg"}},"label":null,"tags":[],"isAvailable":true,"maxAvailableQuantity":100,"maxAllowedQuantity":100,"breadcrumbs":[{"code":"13","name":"Detergenți & igienizare","slug":"13-detergent-si-igienizare"},{"code":"1303","name":"Hârtie igienică, șervețele și prosoape","slug":"1303-hartie-igienica-si-servetele"},{"code":"130302","name":"Șervețele","slug":"130302-servetele"},{"code":"100103658","name":"Șervețele igienice Box Family 150 buc","slug":"100103658-kleenex-servetele-igienice-box-family-150-buc"}],"activePromotion":null,"saveMe":null,"labels":[],"geniusPrice":null,"geniusUnitPricePerLabel":null,"banner":null,"discountLabel":null,"geniusDiscountLabel":null,"badge":null},{"code":"100059316","variantCode":"5201263007064","name":"Șervețele umede antibacteriene 72buc","slug":"100059316-wet-hankies-servetele-umede-antibacteriene-72buc","unitPriceLabel":"","brand":"Wet Hankies","brandCode":"370","brandFilterCode":"wet-hankies-b371","sku":"100059316","price":14.5,"originalPrice":null,"currencyCode":"RON","currency":"Lei","image":{"thumbnail":{"default":"https://cdn.freshful.ro/media/cache/sylius_shop_product_thumbnail/e3/62/d64363052d9f1b9919e08ac81ab0.jpg"},"large":{"default":"https://cdn.freshful.ro/media/cache/freshful_large/e3/62/d64363052d9f1b9919e08ac81ab0.jpg"},"extralarge":{"default":"https://cdn.freshful.ro/media/cache/sylius_shop_product_original/e3/62/d64363052d9f1b9919e08ac81ab0.jpg"}},"label":null,"tags":[],"isAvailable":true,"maxAvailableQuantity":100,"maxAllowedQuantity":100,"breadcrumbs":[{"code":"13","name":"Detergenți & igienizare","slug":"13-detergent-si-igienizare"},{"code":"1303","name":"Hârtie igienică, șervețele și prosoape","slug":"1303-hartie-igienica-si-servetele"},{"code":"130302","name":"Șervețele","slug":"130302-servetele"},{"code":"100059316","name":"Șervețele umede antibacteriene 72buc","slug":"100059316-wet-hankies-servetele-umede-antibacteriene-72buc"}],"activePromotion":null,"saveMe":null,"labels":[],"geniusPrice":null,"geniusUnitPricePerLabel":null,"banner":null,"discountLabel":null,"geniusDiscountLabel":null,"badge":null},{"code":"100139444","variantCode":"100139444","name":"Cutie șervețele Natural Fresh 64 buc","slug":"100139444-kleenex-cutie-servetele-natural-fresh-64-buc","unitPriceLabel":"","brand":"Kleenex","brandCode":"1692","brandFilterCode":"kleenex-b1696","sku":"100139444","price":7.59,"originalPrice":null,"currencyCode":"RON","currency":"Lei","image":{"thumbnail":{"default":"https://cdn.freshful.ro/media/cache/sylius_shop_product_thumbnail/fc/39/443f7fb7f9cd60d5d261c7b57745.jpg"},"large":{"default":"https://cdn.freshful.ro/media/cache/freshful_large/fc/39/443f7fb7f9cd60d5d261c7b57745.jpg"},"extralarge":{"default":"https://cdn.freshful.ro/media/cache/sylius_shop_product_original/fc/39/443f7fb7f9cd60d5d261c7b57745.jpg"}},"label":null,"tags":[],"isAvailable":true,"maxAvailableQuantity":100,"maxAllowedQuantity":100,"breadcrumbs":[{"code":"13","name":"Detergenți & igienizare","slug":"13-detergent-si-igienizare"},{"code":"1303","name":"Hârtie igienică, șervețele și prosoape","slug":"1303-hartie-igienica-si-servetele"},{"code":"130302","name":"Șervețele","slug":"130302-servetele"},{"code":"100139444","name":"Cutie șervețele Natural Fresh 64 buc","slug":"100139444-kleenex-cutie-servetele-natural-fresh-64-buc"}],"activePromotion":null,"saveMe":null,"labels":[],"geniusPrice":null,"geniusUnitPricePerLabel":null,"banner":null,"discountLabel":null,"geniusDiscountLabel":null,"badge":null},{"code":"100002384","variantCode":"100002384","name":"Servețele de masă 1 strat, 25x25 cm, 100 buc","slug":"100002384-fiore-servetele-de-masa-1-strat-25x25-cm-100-buc","unitPriceLabel":"","brand":"Fiore","brandCode":"209","brandFilterCode":"fiore-b210","sku":"100002384","price":3.29,"originalPrice":null,"currencyCode":"RON","currency":"Lei","image":{"thumbnail":{"default":"https://cdn.freshful.ro/media/cache/sylius_shop_product_thumbnail/ff/70/40de7e10f24f05917e07eec27964.jpg"},"large":{"default":"https://cdn.freshful.ro/media/cache/freshful_large/ff/70/40de7e10f24f05917e07eec27964.jpg"},"extralarge":{"default":"https://cdn.freshful.ro/media/cache/sylius_shop_product_original/ff/70/40de7e10f24f05917e07eec27964.jpg"}},"label":null,"tags":[],"isAvailable":true,"maxAvailableQuantity":100,"maxAllowedQuantity":100,"breadcrumbs":[{"code":"13","name":"Detergenți & igienizare","slug":"13-detergent-si-igienizare"},{"code":"1303","name":"Hârtie igienică, șervețele și prosoape","slug":"1303-hartie-igienica-si-servetele"},{"code":"130302","name":"Șervețele","slug":"130302-servetele"},{"code":"100002384","name":"Servețele de masă 1 strat, 25x25 cm, 100 buc","slug":"100002384-fiore-servetele-de-masa-1-strat-25x25-cm-100-buc"}],"activePromotion":null,"saveMe":null,"labels":[],"geniusPrice":null,"geniusUnitPricePerLabel":null,"banner":null,"discountLabel":null,"geniusDiscountLabel":null,"badge":null},{"code":"100002372","variantCode":"100002372","name":"Șervețele faciale neparfumate 2 straturi 100 buc","slug":"100002372-fiore-servetele-faciale-neparfumate-2-straturi-100-buc","unitPriceLabel":"","brand":"Fiore","brandCode":"209","brandFilterCode":"fiore-b210","sku":"100002372","price":7.29,"originalPrice":null,"currencyCode":"RON","currency":"Lei","image":{"thumbnail":{"default":"https://cdn.freshful.ro/media/cache/sylius_shop_product_thumbnail/03/ed/882cefde66350bbedf6043bd4e83.jpg"},"large":{"default":"https://cdn.freshful.ro/media/cache/freshful_large/03/ed/882cefde66350bbedf6043bd4e83.jpg"},"extralarge":{"default":"https://cdn.freshful.ro/media/cache/sylius_shop_product_original/03/ed/882cefde66350bbedf6043bd4e83.jpg"}},"label":null,"tags":[],"isAvailable":true,"maxAvailableQuantity":100,"maxAllowedQuantity":100,"breadcrumbs":[{"code":"13","name":"Detergenți & igienizare","slug":"13-detergent-si-igienizare"},{"code":"1303","name":"Hârtie igienică, șervețele și prosoape","slug":"1303-hartie-igienica-si-servetele"},{"code":"130302","name":"Șervețele","slug":"130302-servetele"},{"code":"100002372","name":"Șervețele faciale neparfumate 2 straturi 100 buc","slug":"100002372-fiore-servetele-faciale-neparfumate-2-straturi-100-buc"}],"activePromotion":null,"saveMe":null,"labels":[],"geniusPrice":null,"geniusUnitPricePerLabel":null,"banner":null,"discountLabel":null,"geniusDiscountLabel":null,"badge":null},{"code":"100127196","variantCode":"100127196","name":"Șervețele faciale Aroma Collection3 straturi, 60 buc","slug":"100127196-zewa-servetele-faciale-aroma-collection3-straturi-60-buc","unitPriceLabel":"","brand":"Zewa","brandCode":"372","brandFilterCode":"zewa-b373","sku":"100127196","price":10.49,"originalPrice":null,"currencyCode":"RON","currency":"Lei","image":{"thumbnail":{"default":"https://cdn.freshful.ro/media/cache/sylius_shop_product_thumbnail/e5/2f/369485e98ca73635a844e3ed20d0.jpg"},"large":{"default":"https://cdn.freshful.ro/media/cache/freshful_large/e5/2f/369485e98ca73635a844e3ed20d0.jpg"},"extralarge":{"default":"https://cdn.freshful.ro/media/cache/sylius_shop_product_original/e5/2f/369485e98ca73635a844e3ed20d0.jpg"}},"label":null,"tags":[],"isAvailable":true,"maxAvailableQuantity":100,"maxAllowedQuantity":100,"breadcrumbs":[{"code":"13","name":"Detergenți & igienizare","slug":"13-detergent-si-igienizare"},{"code":"1303","name":"Hârtie igienică, șervețele și prosoape","slug":"1303-hartie-igienica-si-servetele"},{"code":"130302","name":"Șervețele","slug":"130302-servetele"},{"code":"100127196","name":"Șervețele faciale Aroma Collection3 straturi, 60 buc","slug":"100127196-zewa-servetele-faciale-aroma-collection3-straturi-60-buc"}],"activePromotion":null,"saveMe":null,"labels":[],"geniusPrice":null,"geniusUnitPricePerLabel":null,"banner":null,"discountLabel":null,"geniusDiscountLabel":null,"badge":null},{"code":"100127189","variantCode":"100127189","name":"Șervețele nazale Deluxe Camomile 3 straturi, 10 pachete","slug":"100127189-zewa-servetele-nazale-deluxe-camomile-3-straturi-10-pachete","unitPriceLabel":"","brand":"Zewa","brandCode":"372","brandFilterCode":"zewa-b373","sku":"100127189","price":13.99,"originalPrice":null,"currencyCode":"RON","currency":"Lei","image":{"thumbnail":{"default":"https://cdn.freshful.ro/media/cache/sylius_shop_product_thumbnail/db/80/4c9e697d29e755cc883ff9282d47.jpg"},"large":{"default":"https://cdn.freshful.ro/media/cache/freshful_large/db/80/4c9e697d29e755cc883ff9282d47.jpg"},"extralarge":{"default":"https://cdn.freshful.ro/media/cache/sylius_shop_product_original/db/80/4c9e697d29e755cc883ff9282d47.jpg"}},"label":null,"tags":[],"isAvailable":true,"maxAvailableQuantity":100,"maxAllowedQuantity":100,"breadcrumbs":[{"code":"13","name":"Detergenți & igienizare","slug":"13-detergent-si-igienizare"},{"code":"1303","name":"Hârtie igienică, șervețele și prosoape","slug":"1303-hartie-igienica-si-servetele"},{"code":"130302","name":"Șervețele","slug":"130302-servetele"},{"code":"100127189","name":"Șervețele nazale Deluxe Camomile 3 straturi, 10 pachete","slug":"100127189-zewa-servetele-nazale-deluxe-camomile-3-straturi-10-pachete"}],"activePromotion":null,"saveMe":null,"labels":[],"geniusPrice":null,"geniusUnitPricePerLabel":null,"banner":null,"discountLabel":null,"geniusDiscountLabel":null,"badge":null}],"filters":{"countSelected":0,"items":[{"code":"brand","name":"Brand","countSelected":0,"values":[{"code":"clin-b422","name":"Clin","isSelected":false,"count":1},{"code":"clineo-b1744","name":"Clineo","isSelected":false,"count":2},{"code":"elmiplant-b551","name":"Elmiplant","isSelected":false,"count":1},{"code":"expert-wipes-b1639","name":"Expert Wipes","isSelected":false,"count":6},{"code":"fiore-b210","name":"Fiore","isSelected":false,"count":4},{"code":"igienol-b428","name":"Igienol","isSelected":false,"count":4},{"code":"kleenex-b1696","name":"Kleenex","isSelected":false,"count":4},{"code":"oti-b1002","name":"Oti","isSelected":false,"count":4},{"code":"puff-b208","name":"Puff","isSelected":false,"count":12},{"code":"pufina-b209","name":"Pufina","isSelected":false,"count":3},{"code":"romania-frumoasa-b1641","name":"România Frumoasă","isSelected":false,"count":2},{"code":"septona-b368","name":"Septona","isSelected":false,"count":3},{"code":"super-touch-b1643","name":"Super Touch","isSelected":false,"count":1},{"code":"touch-b579","name":"Touch","isSelected":false,"count":7},{"code":"wet-hankies-b371","name":"Wet Hankies","isSelected":false,"count":6},{"code":"world-cart-b2353","name":"World Cart","isSelected":false,"count":2},{"code":"zewa-b373","name":"Zewa","isSelected":false,"count":10}]},{"code":"diet_lifestyle","name":"Dietă și lifestyle","countSelected":0,"values":[{"code":"bio-a26","name":"Bio","isSelected":false,"count":1}]}]},"orderBy":[{"field":"price","direction":"asc","name":"Preț crescător","isSelected":false},{"field":"price","direction":"desc","name":"Preț descrescător","isSelected":false},{"field":"popularity","direction":"desc","name":"Cele mai populare","isSelected":true},{"field":"category","direction":"asc","name":"Categorie","isSelected":false}],"metaTitle":"Șervețele - Gamă variată","metaDescription":"Vrei Șervețele? Alege dintr-o gamă variată. Comanzi simplu și ai livrare rapidă, calitate și prospețime. Hai pe Freshful.ro","metaKeywords":null,"banners":[]}}