{"type":"subcategory","payload":{"analyticsListId":"category_140109-odorizant-auto","analyticsListName":"Category - Odorizante auto","name":"Odorizante auto","slug":"140109-odorizant-auto","image":null,"breadcrumbs":[{"code":"14","name":"Casă și agrement","slug":"14-casa-si-agrement"},{"code":"1401","name":"Bricolaj și auto","slug":"1401-bricolaj-si-auto"},{"code":"140109","name":"Odorizante auto","slug":"140109-odorizant-auto"}],"slots":[],"page":1,"limit":10,"pages":7,"count":63,"siblings":[{"name":"Bricolaj și auto","slug":"1401-bricolaj-si-auto","selected":true},{"name":"Grădină","slug":"1402-gradina","selected":false},{"name":"Articole de menaj","slug":"1403-articole-de-menaj","selected":false},{"name":"Textile pentru casă","slug":"1404-textile-de-casa","selected":false},{"name":"Birotică și papetărie","slug":"1405-birotica-si-papetarie","selected":false},{"name":"Jucării","slug":"1406-jucarii","selected":false},{"name":"Accesorii IT&C","slug":"1408-hitech-audio-video","selected":false},{"name":"Textile și accesorii","slug":"1410-textile-basic","selected":false}],"children":[{"name":"Toate produsele","slug":"1401-bricolaj-si-auto","selected":false},{"name":"Baterii","slug":"140101-baterii","selected":false},{"name":"Becuri","slug":"140102-becuri","selected":false},{"name":"Prelungitoare","slug":"140103-prelungitoare","selected":false},{"name":"Lanterne și lămpi","slug":"140104-lanterne-si-lampi","selected":false},{"name":"Adezivi și benzi adezive","slug":"140105-adezivi-si-benzi-adezive","selected":false},{"name":"Lichid de parbriz și alte soluții","slug":"140106-lichid-parbirz-si-alte-solutii","selected":false},{"name":"Cosmetică și îngrijire auto","slug":"140108-cosmetica-si-ingrijire-auto","selected":false},{"name":"Odorizante auto","slug":"140109-odorizant-auto","selected":true}],"products":[{"code":"100110977","variantCode":"100110977","name":"Odorizant auto Cherry 42g","slug":"100110977-paradise-odorizant-auto-cherry-42g","unitPriceLabel":"","brand":"Paradise","brandCode":"1847","brandFilterCode":"paradise-b1851","sku":"100110977","price":16.18,"originalPrice":24.9,"currencyCode":"RON","currency":"Lei","image":{"thumbnail":{"default":"https://cdn.freshful.ro/media/cache/sylius_shop_product_thumbnail/16/49/7594b3d49524a98b19f1d862f9fe.jpg"},"large":{"default":"https://cdn.freshful.ro/media/cache/freshful_large/16/49/7594b3d49524a98b19f1d862f9fe.jpg"},"extralarge":{"default":"https://cdn.freshful.ro/media/cache/sylius_shop_product_original/16/49/7594b3d49524a98b19f1d862f9fe.jpg"}},"label":{"text":"-35%","backgroundColor":"#FF9903","textColor":"#FFFFFF"},"tags":[],"isAvailable":true,"maxAvailableQuantity":2,"maxAllowedQuantity":100,"breadcrumbs":[{"code":"14","name":"Casă și agrement","slug":"14-casa-si-agrement"},{"code":"1401","name":"Bricolaj și auto","slug":"1401-bricolaj-si-auto"},{"code":"140109","name":"Odorizante auto","slug":"140109-odorizant-auto"},{"code":"100110977","name":"Odorizant auto Cherry 42g","slug":"100110977-paradise-odorizant-auto-cherry-42g"}],"activePromotion":{"code":"oferte-dph-21feb-8mar23","name":"Preț redus","targetQuantity":null},"saveMe":null,"labels":[{"type":"v1","items":[{"text":"-35%","backgroundColor":"#FF9903","textColor":"#FFFFFF"}]}],"geniusPrice":null,"geniusUnitPricePerLabel":null,"banner":{"text":"Super preț","textColor":"#FF0000","bgColor":"#FFF2EC","icon":null,"link":"https://www.freshful.ro/oferte/oferte-dph-21feb-8mar23","type":"promo","analyticsEventType":"select_promotion","analyticsEventPayload":{"promotion_id":"oferte-dph-21feb-8mar23","promotion_name":"Curățenie și îngrijire personală"}},"discountLabel":"Economisești 35%","geniusDiscountLabel":null,"badge":null},{"code":"100111020","variantCode":"100111020","name":"Odorizant auto Ocean Brave 75ml","slug":"100111020-dr-marcus-odorizant-auto-ocean-brave-75ml","unitPriceLabel":"","brand":"Dr. MARCUS","brandCode":"1848","brandFilterCode":"dr-marcus-b1852","sku":"100111020","price":7.85,"originalPrice":12.09,"currencyCode":"RON","currency":"Lei","image":{"thumbnail":{"default":"https://cdn.freshful.ro/media/cache/sylius_shop_product_thumbnail/0b/1e/b78579efdce70906be18874f858d.jpg"},"large":{"default":"https://cdn.freshful.ro/media/cache/freshful_large/0b/1e/b78579efdce70906be18874f858d.jpg"},"extralarge":{"default":"https://cdn.freshful.ro/media/cache/sylius_shop_product_original/0b/1e/b78579efdce70906be18874f858d.jpg"}},"label":{"text":"-35%","backgroundColor":"#FF9903","textColor":"#FFFFFF"},"tags":[],"isAvailable":true,"maxAvailableQuantity":2,"maxAllowedQuantity":100,"breadcrumbs":[{"code":"14","name":"Casă și agrement","slug":"14-casa-si-agrement"},{"code":"1401","name":"Bricolaj și auto","slug":"1401-bricolaj-si-auto"},{"code":"140109","name":"Odorizante auto","slug":"140109-odorizant-auto"},{"code":"100111020","name":"Odorizant auto Ocean Brave 75ml","slug":"100111020-dr-marcus-odorizant-auto-ocean-brave-75ml"}],"activePromotion":{"code":"oferte-dph-21feb-8mar23","name":"Preț redus","targetQuantity":null},"saveMe":null,"labels":[{"type":"v1","items":[{"text":"-35%","backgroundColor":"#FF9903","textColor":"#FFFFFF"}]}],"geniusPrice":null,"geniusUnitPricePerLabel":null,"banner":{"text":"Super preț","textColor":"#FF0000","bgColor":"#FFF2EC","icon":null,"link":"https://www.freshful.ro/oferte/oferte-dph-21feb-8mar23","type":"promo","analyticsEventType":"select_promotion","analyticsEventPayload":{"promotion_id":"oferte-dph-21feb-8mar23","promotion_name":"Curățenie și îngrijire personală"}},"discountLabel":"Economisești 35%","geniusDiscountLabel":null,"badge":null},{"code":"100110991","variantCode":"100110991","name":"Odorizant mașină Aqua Spa 10ml","slug":"100110991-dr-marcus-odorizant-masina-aqua-spa-10ml","unitPriceLabel":"","brand":"Dr. MARCUS","brandCode":"1848","brandFilterCode":"dr-marcus-b1852","sku":"100110991","price":18.78,"originalPrice":28.9,"currencyCode":"RON","currency":"Lei","image":{"thumbnail":{"default":"https://cdn.freshful.ro/media/cache/sylius_shop_product_thumbnail/b3/30/ca3c868258d47b95a96b23c6916f.jpg"},"large":{"default":"https://cdn.freshful.ro/media/cache/freshful_large/b3/30/ca3c868258d47b95a96b23c6916f.jpg"},"extralarge":{"default":"https://cdn.freshful.ro/media/cache/sylius_shop_product_original/b3/30/ca3c868258d47b95a96b23c6916f.jpg"}},"label":{"text":"-35%","backgroundColor":"#FF9903","textColor":"#FFFFFF"},"tags":[],"isAvailable":true,"maxAvailableQuantity":1,"maxAllowedQuantity":100,"breadcrumbs":[{"code":"14","name":"Casă și agrement","slug":"14-casa-si-agrement"},{"code":"1401","name":"Bricolaj și auto","slug":"1401-bricolaj-si-auto"},{"code":"140109","name":"Odorizante auto","slug":"140109-odorizant-auto"},{"code":"100110991","name":"Odorizant mașină Aqua Spa 10ml","slug":"100110991-dr-marcus-odorizant-masina-aqua-spa-10ml"}],"activePromotion":{"code":"oferte-dph-21feb-8mar23","name":"Preț redus","targetQuantity":null},"saveMe":null,"labels":[{"type":"v1","items":[{"text":"-35%","backgroundColor":"#FF9903","textColor":"#FFFFFF"}]}],"geniusPrice":null,"geniusUnitPricePerLabel":null,"banner":{"text":"Super preț","textColor":"#FF0000","bgColor":"#FFF2EC","icon":null,"link":"https://www.freshful.ro/oferte/oferte-dph-21feb-8mar23","type":"promo","analyticsEventType":"select_promotion","analyticsEventPayload":{"promotion_id":"oferte-dph-21feb-8mar23","promotion_name":"Curățenie și îngrijire personală"}},"discountLabel":"Economisești 35%","geniusDiscountLabel":null,"badge":null},{"code":"100111024","variantCode":"100111024","name":"Card odorizant de aer Ciello Azzuro 15g","slug":"100111024-paloma-card-odorizant-de-aer-ciello-azzuro-15g","unitPriceLabel":"","brand":"Paloma","brandCode":"1849","brandFilterCode":"paloma-b1853","sku":"100111024","price":10.99,"originalPrice":null,"currencyCode":"RON","currency":"Lei","image":{"thumbnail":{"default":"https://cdn.freshful.ro/media/cache/sylius_shop_product_thumbnail/5b/dd/9089ea955789d8612b64d73cbab5.jpg"},"large":{"default":"https://cdn.freshful.ro/media/cache/freshful_large/5b/dd/9089ea955789d8612b64d73cbab5.jpg"},"extralarge":{"default":"https://cdn.freshful.ro/media/cache/sylius_shop_product_original/5b/dd/9089ea955789d8612b64d73cbab5.jpg"}},"label":null,"tags":[],"isAvailable":true,"maxAvailableQuantity":6,"maxAllowedQuantity":100,"breadcrumbs":[{"code":"14","name":"Casă și agrement","slug":"14-casa-si-agrement"},{"code":"1401","name":"Bricolaj și auto","slug":"1401-bricolaj-si-auto"},{"code":"140109","name":"Odorizante auto","slug":"140109-odorizant-auto"},{"code":"100111024","name":"Card odorizant de aer Ciello Azzuro 15g","slug":"100111024-paloma-card-odorizant-de-aer-ciello-azzuro-15g"}],"activePromotion":null,"saveMe":null,"labels":[],"geniusPrice":null,"geniusUnitPricePerLabel":null,"banner":null,"discountLabel":null,"geniusDiscountLabel":null,"badge":null},{"code":"100111001","variantCode":"100111001","name":"Odorizant auto Vanilla 5ml","slug":"100111001-paloma-odorizant-auto-vanilla-5ml","unitPriceLabel":"","brand":"Paloma","brandCode":"1849","brandFilterCode":"paloma-b1853","sku":"100111001","price":5.99,"originalPrice":null,"currencyCode":"RON","currency":"Lei","image":{"thumbnail":{"default":"https://cdn.freshful.ro/media/cache/sylius_shop_product_thumbnail/aa/3a/3ef10cf13d3a014cdb8623bac867.jpg"},"large":{"default":"https://cdn.freshful.ro/media/cache/freshful_large/aa/3a/3ef10cf13d3a014cdb8623bac867.jpg"},"extralarge":{"default":"https://cdn.freshful.ro/media/cache/sylius_shop_product_original/aa/3a/3ef10cf13d3a014cdb8623bac867.jpg"}},"label":null,"tags":[],"isAvailable":true,"maxAvailableQuantity":17,"maxAllowedQuantity":100,"breadcrumbs":[{"code":"14","name":"Casă și agrement","slug":"14-casa-si-agrement"},{"code":"1401","name":"Bricolaj și auto","slug":"1401-bricolaj-si-auto"},{"code":"140109","name":"Odorizante auto","slug":"140109-odorizant-auto"},{"code":"100111001","name":"Odorizant auto Vanilla 5ml","slug":"100111001-paloma-odorizant-auto-vanilla-5ml"}],"activePromotion":null,"saveMe":null,"labels":[],"geniusPrice":null,"geniusUnitPricePerLabel":null,"banner":null,"discountLabel":null,"geniusDiscountLabel":null,"badge":null},{"code":"100110997","variantCode":"100110997","name":"Odorizant auto Alpin 5ml","slug":"100110997-paloma-odorizant-auto-alpin-5ml","unitPriceLabel":"","brand":"Paloma","brandCode":"1849","brandFilterCode":"paloma-b1853","sku":"100110997","price":5.99,"originalPrice":null,"currencyCode":"RON","currency":"Lei","image":{"thumbnail":{"default":"https://cdn.freshful.ro/media/cache/sylius_shop_product_thumbnail/12/99/70b627a11a23b170289e173256e0.jpg"},"large":{"default":"https://cdn.freshful.ro/media/cache/freshful_large/12/99/70b627a11a23b170289e173256e0.jpg"},"extralarge":{"default":"https://cdn.freshful.ro/media/cache/sylius_shop_product_original/12/99/70b627a11a23b170289e173256e0.jpg"}},"label":null,"tags":[],"isAvailable":true,"maxAvailableQuantity":31,"maxAllowedQuantity":100,"breadcrumbs":[{"code":"14","name":"Casă și agrement","slug":"14-casa-si-agrement"},{"code":"1401","name":"Bricolaj și auto","slug":"1401-bricolaj-si-auto"},{"code":"140109","name":"Odorizante auto","slug":"140109-odorizant-auto"},{"code":"100110997","name":"Odorizant auto Alpin 5ml","slug":"100110997-paloma-odorizant-auto-alpin-5ml"}],"activePromotion":null,"saveMe":null,"labels":[],"geniusPrice":null,"geniusUnitPricePerLabel":null,"banner":null,"discountLabel":null,"geniusDiscountLabel":null,"badge":null},{"code":"100110996","variantCode":"100110996","name":"Odorizant auto Ocean 5ml","slug":"100110996-paloma-odorizant-auto-ocean-5ml","unitPriceLabel":"","brand":"Paloma","brandCode":"1849","brandFilterCode":"paloma-b1853","sku":"100110996","price":5.99,"originalPrice":null,"currencyCode":"RON","currency":"Lei","image":{"thumbnail":{"default":"https://cdn.freshful.ro/media/cache/sylius_shop_product_thumbnail/80/8b/5a71c53b2492d9a6ab753872697a.jpg"},"large":{"default":"https://cdn.freshful.ro/media/cache/freshful_large/80/8b/5a71c53b2492d9a6ab753872697a.jpg"},"extralarge":{"default":"https://cdn.freshful.ro/media/cache/sylius_shop_product_original/80/8b/5a71c53b2492d9a6ab753872697a.jpg"}},"label":null,"tags":[],"isAvailable":true,"maxAvailableQuantity":45,"maxAllowedQuantity":100,"breadcrumbs":[{"code":"14","name":"Casă și agrement","slug":"14-casa-si-agrement"},{"code":"1401","name":"Bricolaj și auto","slug":"1401-bricolaj-si-auto"},{"code":"140109","name":"Odorizante auto","slug":"140109-odorizant-auto"},{"code":"100110996","name":"Odorizant auto Ocean 5ml","slug":"100110996-paloma-odorizant-auto-ocean-5ml"}],"activePromotion":null,"saveMe":null,"labels":[],"geniusPrice":null,"geniusUnitPricePerLabel":null,"banner":null,"discountLabel":null,"geniusDiscountLabel":null,"badge":null},{"code":"100111002","variantCode":"100111002","name":"Odorizant auto Bubblegum 5ml","slug":"100111002-paloma-odorizant-auto-bubblegum-5ml","unitPriceLabel":"","brand":"Paloma","brandCode":"1849","brandFilterCode":"paloma-b1853","sku":"100111002","price":5.99,"originalPrice":null,"currencyCode":"RON","currency":"Lei","image":{"thumbnail":{"default":"https://cdn.freshful.ro/media/cache/sylius_shop_product_thumbnail/c4/85/38865f4a9555981004c0fc63976e.jpg"},"large":{"default":"https://cdn.freshful.ro/media/cache/freshful_large/c4/85/38865f4a9555981004c0fc63976e.jpg"},"extralarge":{"default":"https://cdn.freshful.ro/media/cache/sylius_shop_product_original/c4/85/38865f4a9555981004c0fc63976e.jpg"}},"label":null,"tags":[],"isAvailable":true,"maxAvailableQuantity":70,"maxAllowedQuantity":100,"breadcrumbs":[{"code":"14","name":"Casă și agrement","slug":"14-casa-si-agrement"},{"code":"1401","name":"Bricolaj și auto","slug":"1401-bricolaj-si-auto"},{"code":"140109","name":"Odorizante auto","slug":"140109-odorizant-auto"},{"code":"100111002","name":"Odorizant auto Bubblegum 5ml","slug":"100111002-paloma-odorizant-auto-bubblegum-5ml"}],"activePromotion":null,"saveMe":null,"labels":[],"geniusPrice":null,"geniusUnitPricePerLabel":null,"banner":null,"discountLabel":null,"geniusDiscountLabel":null,"badge":null},{"code":"100107964","variantCode":"100107964","name":"Odorizant auto Bubble Gum","slug":"100107964-wunder-baum-odorizant-auto-bubble-gum","unitPriceLabel":"","brand":"Wunder-Baum","brandCode":"1817","brandFilterCode":"wunder-baum-b1821","sku":"100107964","price":13.9,"originalPrice":null,"currencyCode":"RON","currency":"Lei","image":{"thumbnail":{"default":"https://cdn.freshful.ro/media/cache/sylius_shop_product_thumbnail/bb/b5/7d33decde46ca4b5a4ac019e5cde.jpg"},"large":{"default":"https://cdn.freshful.ro/media/cache/freshful_large/bb/b5/7d33decde46ca4b5a4ac019e5cde.jpg"},"extralarge":{"default":"https://cdn.freshful.ro/media/cache/sylius_shop_product_original/bb/b5/7d33decde46ca4b5a4ac019e5cde.jpg"}},"label":null,"tags":[],"isAvailable":true,"maxAvailableQuantity":26,"maxAllowedQuantity":100,"breadcrumbs":[{"code":"14","name":"Casă și agrement","slug":"14-casa-si-agrement"},{"code":"1401","name":"Bricolaj și auto","slug":"1401-bricolaj-si-auto"},{"code":"140109","name":"Odorizante auto","slug":"140109-odorizant-auto"},{"code":"100107964","name":"Odorizant auto Bubble Gum","slug":"100107964-wunder-baum-odorizant-auto-bubble-gum"}],"activePromotion":null,"saveMe":null,"labels":[],"geniusPrice":null,"geniusUnitPricePerLabel":null,"banner":null,"discountLabel":null,"geniusDiscountLabel":null,"badge":null},{"code":"100107977","variantCode":"100107977","name":"Odorizant auto Lime","slug":"100107977-wunder-baum-odorizant-auto-lime","unitPriceLabel":"","brand":"Wunder-Baum","brandCode":"1817","brandFilterCode":"wunder-baum-b1821","sku":"100107977","price":28.9,"originalPrice":null,"currencyCode":"RON","currency":"Lei","image":{"thumbnail":{"default":"https://cdn.freshful.ro/media/cache/sylius_shop_product_thumbnail/9e/19/355ab3ff166909390f1bdae5dcb3.jpg"},"large":{"default":"https://cdn.freshful.ro/media/cache/freshful_large/9e/19/355ab3ff166909390f1bdae5dcb3.jpg"},"extralarge":{"default":"https://cdn.freshful.ro/media/cache/sylius_shop_product_original/9e/19/355ab3ff166909390f1bdae5dcb3.jpg"}},"label":null,"tags":[],"isAvailable":true,"maxAvailableQuantity":12,"maxAllowedQuantity":100,"breadcrumbs":[{"code":"14","name":"Casă și agrement","slug":"14-casa-si-agrement"},{"code":"1401","name":"Bricolaj și auto","slug":"1401-bricolaj-si-auto"},{"code":"140109","name":"Odorizante auto","slug":"140109-odorizant-auto"},{"code":"100107977","name":"Odorizant auto Lime","slug":"100107977-wunder-baum-odorizant-auto-lime"}],"activePromotion":null,"saveMe":null,"labels":[],"geniusPrice":null,"geniusUnitPricePerLabel":null,"banner":null,"discountLabel":null,"geniusDiscountLabel":null,"badge":null}],"filters":{"countSelected":0,"items":[{"code":"promotion","name":"Promoții","countSelected":0,"values":[{"code":"oferte-dph-21feb-8mar23","name":"Curățenie și îngrijire personală","isSelected":false,"count":3}]},{"code":"brand","name":"Brand","countSelected":0,"values":[{"code":"dr-marcus-b1852","name":"Dr. MARCUS","isSelected":false,"count":6},{"code":"little-joe-b1850","name":"Little Joe","isSelected":false,"count":10},{"code":"paloma-b1853","name":"Paloma","isSelected":false,"count":22},{"code":"paradise-b1851","name":"Paradise","isSelected":false,"count":9},{"code":"wunder-baum-b1821","name":"Wunder-Baum","isSelected":false,"count":16}]}]},"orderBy":[{"field":"price","direction":"asc","name":"Preț crescător","isSelected":false},{"field":"price","direction":"desc","name":"Preț descrescător","isSelected":false},{"field":"popularity","direction":"desc","name":"Cele mai populare","isSelected":true},{"field":"category","direction":"asc","name":"Categorie","isSelected":false}],"metaTitle":"Odorizante auto - Gamă variată","metaDescription":"Vrei Odorizante auto? Alege dintr-o gamă variată. Comanzi simplu și ai livrare rapidă, calitate și prospețime. Hai pe Freshful.ro","metaKeywords":null,"banners":[]}}