{"type":"subcategory","payload":{"analyticsListId":"category_140105-adezivi-si-benzi-adezive","analyticsListName":"Category - Adezivi și benzi adezive","name":"Adezivi și benzi adezive","slug":"140105-adezivi-si-benzi-adezive","image":null,"breadcrumbs":[{"code":"14","name":"Casă și agrement","slug":"14-casa-si-agrement"},{"code":"1401","name":"Bricolaj și auto","slug":"1401-bricolaj-si-auto"},{"code":"140105","name":"Adezivi și benzi adezive","slug":"140105-adezivi-si-benzi-adezive"}],"slots":[],"page":1,"limit":10,"pages":2,"count":16,"siblings":[{"name":"Bricolaj și auto","slug":"1401-bricolaj-si-auto","selected":true},{"name":"Grădină","slug":"1402-gradina","selected":false},{"name":"Articole de menaj","slug":"1403-articole-de-menaj","selected":false},{"name":"Textile pentru casă","slug":"1404-textile-de-casa","selected":false},{"name":"Birotică și papetărie","slug":"1405-birotica-si-papetarie","selected":false},{"name":"Jucării","slug":"1406-jucarii","selected":false},{"name":"Accesorii IT&C","slug":"1408-hitech-audio-video","selected":false},{"name":"Textile și accesorii","slug":"1410-textile-basic","selected":false}],"children":[{"name":"Toate produsele","slug":"1401-bricolaj-si-auto","selected":false},{"name":"Baterii","slug":"140101-baterii","selected":false},{"name":"Becuri","slug":"140102-becuri","selected":false},{"name":"Prelungitoare","slug":"140103-prelungitoare","selected":false},{"name":"Lanterne și lămpi","slug":"140104-lanterne-si-lampi","selected":false},{"name":"Adezivi și benzi adezive","slug":"140105-adezivi-si-benzi-adezive","selected":true},{"name":"Lichid de parbriz și alte soluții","slug":"140106-lichid-parbirz-si-alte-solutii","selected":false},{"name":"Cosmetică și îngrijire auto","slug":"140108-cosmetica-si-ingrijire-auto","selected":false},{"name":"Odorizante auto","slug":"140109-odorizant-auto","selected":false}],"products":[{"code":"100107935","variantCode":"100107935","name":" Silicon sanitar transparent 280ml","slug":"100107935-bison-silicon-sanitar-transparent-280ml","unitPriceLabel":"","brand":"Bison","brandCode":"1815","brandFilterCode":"bison-b1819","sku":"100107935","price":27.99,"originalPrice":null,"currencyCode":"RON","currency":"Lei","image":{"thumbnail":{"default":"https://cdn.freshful.ro/media/cache/sylius_shop_product_thumbnail/a3/10/dc83e06c8fe589a273af1f90c8e6.jpg"},"large":{"default":"https://cdn.freshful.ro/media/cache/freshful_large/a3/10/dc83e06c8fe589a273af1f90c8e6.jpg"},"extralarge":{"default":"https://cdn.freshful.ro/media/cache/sylius_shop_product_original/a3/10/dc83e06c8fe589a273af1f90c8e6.jpg"}},"label":null,"tags":[],"isAvailable":true,"maxAvailableQuantity":3,"maxAllowedQuantity":100,"breadcrumbs":[{"code":"14","name":"Casă și agrement","slug":"14-casa-si-agrement"},{"code":"1401","name":"Bricolaj și auto","slug":"1401-bricolaj-si-auto"},{"code":"140105","name":"Adezivi și benzi adezive","slug":"140105-adezivi-si-benzi-adezive"},{"code":"100107935","name":" Silicon sanitar transparent 280ml","slug":"100107935-bison-silicon-sanitar-transparent-280ml"}],"activePromotion":null,"saveMe":null,"labels":[],"geniusPrice":null,"geniusUnitPricePerLabel":null,"banner":null,"discountLabel":null,"geniusDiscountLabel":null,"badge":null},{"code":"100107936","variantCode":"100107936","name":"Silicon sanitar alb 280ml ","slug":"100107936-bison-silicon-sanitar-alb-280ml","unitPriceLabel":"","brand":"Bison","brandCode":"1815","brandFilterCode":"bison-b1819","sku":"100107936","price":35.89,"originalPrice":null,"currencyCode":"RON","currency":"Lei","image":{"thumbnail":{"default":"https://cdn.freshful.ro/media/cache/sylius_shop_product_thumbnail/24/3c/72cbbac7e981068c9f8753b54730.jpg"},"large":{"default":"https://cdn.freshful.ro/media/cache/freshful_large/24/3c/72cbbac7e981068c9f8753b54730.jpg"},"extralarge":{"default":"https://cdn.freshful.ro/media/cache/sylius_shop_product_original/24/3c/72cbbac7e981068c9f8753b54730.jpg"}},"label":null,"tags":[],"isAvailable":true,"maxAvailableQuantity":7,"maxAllowedQuantity":100,"breadcrumbs":[{"code":"14","name":"Casă și agrement","slug":"14-casa-si-agrement"},{"code":"1401","name":"Bricolaj și auto","slug":"1401-bricolaj-si-auto"},{"code":"140105","name":"Adezivi și benzi adezive","slug":"140105-adezivi-si-benzi-adezive"},{"code":"100107936","name":"Silicon sanitar alb 280ml ","slug":"100107936-bison-silicon-sanitar-alb-280ml"}],"activePromotion":null,"saveMe":null,"labels":[],"geniusPrice":null,"geniusUnitPricePerLabel":null,"banner":null,"discountLabel":null,"geniusDiscountLabel":null,"badge":null},{"code":"100107937","variantCode":"100107937","name":"Silicon universal alb 280ml","slug":"100107937-bison-silicon-universal-alb-280ml","unitPriceLabel":"","brand":"Bison","brandCode":"1815","brandFilterCode":"bison-b1819","sku":"100107937","price":32.99,"originalPrice":null,"currencyCode":"RON","currency":"Lei","image":{"thumbnail":{"default":"https://cdn.freshful.ro/media/cache/sylius_shop_product_thumbnail/81/52/0e772f777645f9b439a3545ca031.jpg"},"large":{"default":"https://cdn.freshful.ro/media/cache/freshful_large/81/52/0e772f777645f9b439a3545ca031.jpg"},"extralarge":{"default":"https://cdn.freshful.ro/media/cache/sylius_shop_product_original/81/52/0e772f777645f9b439a3545ca031.jpg"}},"label":null,"tags":[],"isAvailable":true,"maxAvailableQuantity":8,"maxAllowedQuantity":100,"breadcrumbs":[{"code":"14","name":"Casă și agrement","slug":"14-casa-si-agrement"},{"code":"1401","name":"Bricolaj și auto","slug":"1401-bricolaj-si-auto"},{"code":"140105","name":"Adezivi și benzi adezive","slug":"140105-adezivi-si-benzi-adezive"},{"code":"100107937","name":"Silicon universal alb 280ml","slug":"100107937-bison-silicon-universal-alb-280ml"}],"activePromotion":null,"saveMe":null,"labels":[],"geniusPrice":null,"geniusUnitPricePerLabel":null,"banner":null,"discountLabel":null,"geniusDiscountLabel":null,"badge":null},{"code":"100107938","variantCode":"100107938","name":"Silicon universal transparent 280ml","slug":"100107938-bison-silicon-universal-transparent-280ml","unitPriceLabel":"","brand":"Bison","brandCode":"1815","brandFilterCode":"bison-b1819","sku":"100107938","price":26.89,"originalPrice":null,"currencyCode":"RON","currency":"Lei","image":{"thumbnail":{"default":"https://cdn.freshful.ro/media/cache/sylius_shop_product_thumbnail/7b/1d/d7a52a899ba0613e41e494ee1716.jpg"},"large":{"default":"https://cdn.freshful.ro/media/cache/freshful_large/7b/1d/d7a52a899ba0613e41e494ee1716.jpg"},"extralarge":{"default":"https://cdn.freshful.ro/media/cache/sylius_shop_product_original/7b/1d/d7a52a899ba0613e41e494ee1716.jpg"}},"label":null,"tags":[],"isAvailable":true,"maxAvailableQuantity":9,"maxAllowedQuantity":100,"breadcrumbs":[{"code":"14","name":"Casă și agrement","slug":"14-casa-si-agrement"},{"code":"1401","name":"Bricolaj și auto","slug":"1401-bricolaj-si-auto"},{"code":"140105","name":"Adezivi și benzi adezive","slug":"140105-adezivi-si-benzi-adezive"},{"code":"100107938","name":"Silicon universal transparent 280ml","slug":"100107938-bison-silicon-universal-transparent-280ml"}],"activePromotion":null,"saveMe":null,"labels":[],"geniusPrice":null,"geniusUnitPricePerLabel":null,"banner":null,"discountLabel":null,"geniusDiscountLabel":null,"badge":null},{"code":"100107948","variantCode":"100107948","name":"Spumă poliuretanică 500ml ","slug":"100107948-bison-spuma-poliuretanica-500ml","unitPriceLabel":"","brand":"Bison","brandCode":"1815","brandFilterCode":"bison-b1819","sku":"100107948","price":31.69,"originalPrice":null,"currencyCode":"RON","currency":"Lei","image":{"thumbnail":{"default":"https://cdn.freshful.ro/media/cache/sylius_shop_product_thumbnail/f2/8c/8b99c855406657367a26bc4b7fc8.jpg"},"large":{"default":"https://cdn.freshful.ro/media/cache/freshful_large/f2/8c/8b99c855406657367a26bc4b7fc8.jpg"},"extralarge":{"default":"https://cdn.freshful.ro/media/cache/sylius_shop_product_original/f2/8c/8b99c855406657367a26bc4b7fc8.jpg"}},"label":null,"tags":[],"isAvailable":true,"maxAvailableQuantity":15,"maxAllowedQuantity":100,"breadcrumbs":[{"code":"14","name":"Casă și agrement","slug":"14-casa-si-agrement"},{"code":"1401","name":"Bricolaj și auto","slug":"1401-bricolaj-si-auto"},{"code":"140105","name":"Adezivi și benzi adezive","slug":"140105-adezivi-si-benzi-adezive"},{"code":"100107948","name":"Spumă poliuretanică 500ml ","slug":"100107948-bison-spuma-poliuretanica-500ml"}],"activePromotion":null,"saveMe":null,"labels":[],"geniusPrice":null,"geniusUnitPricePerLabel":null,"banner":null,"discountLabel":null,"geniusDiscountLabel":null,"badge":null},{"code":"100107951","variantCode":"100107951","name":"Spumă poliuretanică 300ml ","slug":"100107951-bison-spuma-poliuretanica-300ml","unitPriceLabel":"","brand":"Bison","brandCode":"1815","brandFilterCode":"bison-b1819","sku":"100107951","price":28.69,"originalPrice":null,"currencyCode":"RON","currency":"Lei","image":{"thumbnail":{"default":"https://cdn.freshful.ro/media/cache/sylius_shop_product_thumbnail/2d/b5/077175083313eccdb0b91e70073b.jpg"},"large":{"default":"https://cdn.freshful.ro/media/cache/freshful_large/2d/b5/077175083313eccdb0b91e70073b.jpg"},"extralarge":{"default":"https://cdn.freshful.ro/media/cache/sylius_shop_product_original/2d/b5/077175083313eccdb0b91e70073b.jpg"}},"label":null,"tags":[],"isAvailable":true,"maxAvailableQuantity":12,"maxAllowedQuantity":100,"breadcrumbs":[{"code":"14","name":"Casă și agrement","slug":"14-casa-si-agrement"},{"code":"1401","name":"Bricolaj și auto","slug":"1401-bricolaj-si-auto"},{"code":"140105","name":"Adezivi și benzi adezive","slug":"140105-adezivi-si-benzi-adezive"},{"code":"100107951","name":"Spumă poliuretanică 300ml ","slug":"100107951-bison-spuma-poliuretanica-300ml"}],"activePromotion":null,"saveMe":null,"labels":[],"geniusPrice":null,"geniusUnitPricePerLabel":null,"banner":null,"discountLabel":null,"geniusDiscountLabel":null,"badge":null},{"code":"100107931","variantCode":"100107931","name":"Rezerve pistol Hobby","slug":"100107931-bison-rezerve-pistol-hobby","unitPriceLabel":"","brand":"Bison","brandCode":"1815","brandFilterCode":"bison-b1819","sku":"100107931","price":14.99,"originalPrice":null,"currencyCode":"RON","currency":"Lei","image":{"thumbnail":{"default":"https://cdn.freshful.ro/media/cache/sylius_shop_product_thumbnail/da/ef/687152e7f6c9838a85e8e36a8fe2.jpg"},"large":{"default":"https://cdn.freshful.ro/media/cache/freshful_large/da/ef/687152e7f6c9838a85e8e36a8fe2.jpg"},"extralarge":{"default":"https://cdn.freshful.ro/media/cache/sylius_shop_product_original/da/ef/687152e7f6c9838a85e8e36a8fe2.jpg"}},"label":{"text":"Nu este în stoc","backgroundColor":"#F2F2F2","textColor":"#4F4F4F"},"tags":[],"isAvailable":false,"maxAvailableQuantity":0,"maxAllowedQuantity":100,"breadcrumbs":[{"code":"14","name":"Casă și agrement","slug":"14-casa-si-agrement"},{"code":"1401","name":"Bricolaj și auto","slug":"1401-bricolaj-si-auto"},{"code":"140105","name":"Adezivi și benzi adezive","slug":"140105-adezivi-si-benzi-adezive"},{"code":"100107931","name":"Rezerve pistol Hobby","slug":"100107931-bison-rezerve-pistol-hobby"}],"activePromotion":null,"saveMe":null,"labels":[{"type":"v1","items":[{"text":"Nu este în stoc","backgroundColor":"#F2F2F2","textColor":"#4F4F4F"}]}],"geniusPrice":null,"geniusUnitPricePerLabel":null,"banner":null,"discountLabel":null,"geniusDiscountLabel":null,"badge":null},{"code":"100107927","variantCode":"100107927","name":"Adeziv Super Glue 3g","slug":"100107927-bison-adeziv-super-glue-3g","unitPriceLabel":"","brand":"Bison","brandCode":"1815","brandFilterCode":"bison-b1819","sku":"100107927","price":5.99,"originalPrice":null,"currencyCode":"RON","currency":"Lei","image":{"thumbnail":{"default":"https://cdn.freshful.ro/media/cache/sylius_shop_product_thumbnail/56/25/9e71ff6629c808cf05bb391d5525.jpg"},"large":{"default":"https://cdn.freshful.ro/media/cache/freshful_large/56/25/9e71ff6629c808cf05bb391d5525.jpg"},"extralarge":{"default":"https://cdn.freshful.ro/media/cache/sylius_shop_product_original/56/25/9e71ff6629c808cf05bb391d5525.jpg"}},"label":{"text":"Nu este în stoc","backgroundColor":"#F2F2F2","textColor":"#4F4F4F"},"tags":[],"isAvailable":false,"maxAvailableQuantity":0,"maxAllowedQuantity":100,"breadcrumbs":[{"code":"14","name":"Casă și agrement","slug":"14-casa-si-agrement"},{"code":"1401","name":"Bricolaj și auto","slug":"1401-bricolaj-si-auto"},{"code":"140105","name":"Adezivi și benzi adezive","slug":"140105-adezivi-si-benzi-adezive"},{"code":"100107927","name":"Adeziv Super Glue 3g","slug":"100107927-bison-adeziv-super-glue-3g"}],"activePromotion":null,"saveMe":null,"labels":[{"type":"v1","items":[{"text":"Nu este în stoc","backgroundColor":"#F2F2F2","textColor":"#4F4F4F"}]}],"geniusPrice":null,"geniusUnitPricePerLabel":null,"banner":null,"discountLabel":null,"geniusDiscountLabel":null,"badge":null},{"code":"100107928","variantCode":"100107928","name":"Adeziv Super Glue Control 3g ","slug":"100107928-bison-adeziv-super-glue-control-3g","unitPriceLabel":"","brand":"Bison","brandCode":"1815","brandFilterCode":"bison-b1819","sku":"100107928","price":9.09,"originalPrice":null,"currencyCode":"RON","currency":"Lei","image":{"thumbnail":{"default":"https://cdn.freshful.ro/media/cache/sylius_shop_product_thumbnail/04/78/ee734a2e0e75db6424a9a9cf52c1.jpg"},"large":{"default":"https://cdn.freshful.ro/media/cache/freshful_large/04/78/ee734a2e0e75db6424a9a9cf52c1.jpg"},"extralarge":{"default":"https://cdn.freshful.ro/media/cache/sylius_shop_product_original/04/78/ee734a2e0e75db6424a9a9cf52c1.jpg"}},"label":{"text":"Nu este în stoc","backgroundColor":"#F2F2F2","textColor":"#4F4F4F"},"tags":[],"isAvailable":false,"maxAvailableQuantity":0,"maxAllowedQuantity":100,"breadcrumbs":[{"code":"14","name":"Casă și agrement","slug":"14-casa-si-agrement"},{"code":"1401","name":"Bricolaj și auto","slug":"1401-bricolaj-si-auto"},{"code":"140105","name":"Adezivi și benzi adezive","slug":"140105-adezivi-si-benzi-adezive"},{"code":"100107928","name":"Adeziv Super Glue Control 3g ","slug":"100107928-bison-adeziv-super-glue-control-3g"}],"activePromotion":null,"saveMe":null,"labels":[{"type":"v1","items":[{"text":"Nu este în stoc","backgroundColor":"#F2F2F2","textColor":"#4F4F4F"}]}],"geniusPrice":null,"geniusUnitPricePerLabel":null,"banner":null,"discountLabel":null,"geniusDiscountLabel":null,"badge":null},{"code":"100107929","variantCode":"100107929","name":"Adeziv Super Glue Industrial 7.5g","slug":"100107929-bison-adeziv-super-glue-industrial-7-5g","unitPriceLabel":"","brand":"Bison","brandCode":"1815","brandFilterCode":"bison-b1819","sku":"100107929","price":20.29,"originalPrice":null,"currencyCode":"RON","currency":"Lei","image":{"thumbnail":{"default":"https://cdn.freshful.ro/media/cache/sylius_shop_product_thumbnail/52/c8/1f87479c06438a0ed51391f3b2f7.jpg"},"large":{"default":"https://cdn.freshful.ro/media/cache/freshful_large/52/c8/1f87479c06438a0ed51391f3b2f7.jpg"},"extralarge":{"default":"https://cdn.freshful.ro/media/cache/sylius_shop_product_original/52/c8/1f87479c06438a0ed51391f3b2f7.jpg"}},"label":{"text":"Nu este în stoc","backgroundColor":"#F2F2F2","textColor":"#4F4F4F"},"tags":[],"isAvailable":false,"maxAvailableQuantity":0,"maxAllowedQuantity":100,"breadcrumbs":[{"code":"14","name":"Casă și agrement","slug":"14-casa-si-agrement"},{"code":"1401","name":"Bricolaj și auto","slug":"1401-bricolaj-si-auto"},{"code":"140105","name":"Adezivi și benzi adezive","slug":"140105-adezivi-si-benzi-adezive"},{"code":"100107929","name":"Adeziv Super Glue Industrial 7.5g","slug":"100107929-bison-adeziv-super-glue-industrial-7-5g"}],"activePromotion":null,"saveMe":null,"labels":[{"type":"v1","items":[{"text":"Nu este în stoc","backgroundColor":"#F2F2F2","textColor":"#4F4F4F"}]}],"geniusPrice":null,"geniusUnitPricePerLabel":null,"banner":null,"discountLabel":null,"geniusDiscountLabel":null,"badge":null}],"filters":{"countSelected":0,"items":[{"code":"brand","name":"Brand","countSelected":0,"values":[{"code":"anker-b2465","name":"Anker","isSelected":false,"count":1},{"code":"bison-b1819","name":"Bison","isSelected":false,"count":12},{"code":"procolor-b2464","name":"Procolor","isSelected":false,"count":1},{"code":"uhu-b1820","name":"UHU","isSelected":false,"count":2}]}]},"orderBy":[{"field":"price","direction":"asc","name":"Preț crescător","isSelected":false},{"field":"price","direction":"desc","name":"Preț descrescător","isSelected":false},{"field":"popularity","direction":"desc","name":"Cele mai populare","isSelected":true},{"field":"category","direction":"asc","name":"Categorie","isSelected":false}],"metaTitle":"Adezivi și benzi adezive - Gamă variată","metaDescription":"Vrei Adezivi și benzi adezive? Alege dintr-o gamă variată. Comanzi simplu și ai livrare rapidă, calitate și prospețime. Hai pe Freshful.ro","metaKeywords":null,"banners":[]}}