{"type":"subcategory","payload":{"analyticsListId":"category_140101-baterii","analyticsListName":"Category - Baterii","name":"Baterii","slug":"140101-baterii","image":null,"breadcrumbs":[{"code":"14","name":"Casă și agrement","slug":"14-casa-si-agrement"},{"code":"1401","name":"Bricolaj și auto","slug":"1401-bricolaj-si-auto"},{"code":"140101","name":"Baterii","slug":"140101-baterii"}],"slots":[],"page":1,"limit":10,"pages":10,"count":92,"siblings":[{"name":"Bricolaj și auto","slug":"1401-bricolaj-si-auto","selected":true},{"name":"Grădină","slug":"1402-gradina","selected":false},{"name":"Articole de menaj","slug":"1403-articole-de-menaj","selected":false},{"name":"Textile pentru casă","slug":"1404-textile-de-casa","selected":false},{"name":"Birotică și papetărie","slug":"1405-birotica-si-papetarie","selected":false},{"name":"Jucării","slug":"1406-jucarii","selected":false},{"name":"Accesorii IT&C","slug":"1408-hitech-audio-video","selected":false},{"name":"Textile și accesorii","slug":"1410-textile-basic","selected":false}],"children":[{"name":"Toate produsele","slug":"1401-bricolaj-si-auto","selected":false},{"name":"Baterii","slug":"140101-baterii","selected":true},{"name":"Becuri","slug":"140102-becuri","selected":false},{"name":"Prelungitoare","slug":"140103-prelungitoare","selected":false},{"name":"Lanterne și lămpi","slug":"140104-lanterne-si-lampi","selected":false},{"name":"Adezivi și benzi adezive","slug":"140105-adezivi-si-benzi-adezive","selected":false},{"name":"Lichid de parbriz și alte soluții","slug":"140106-lichid-parbirz-si-alte-solutii","selected":false},{"name":"Cosmetică și îngrijire auto","slug":"140108-cosmetica-si-ingrijire-auto","selected":false},{"name":"Odorizante auto","slug":"140109-odorizant-auto","selected":false}],"products":[{"code":"100117816","variantCode":"100117816","name":"Baterii alcaline AA, 8 buc","slug":"100117816-varta-baterii-alcaline-aa-8-buc","unitPriceLabel":"","brand":"Varta","brandCode":"1980","brandFilterCode":"varta-b1984","sku":"100117816","price":19.99,"originalPrice":null,"currencyCode":"RON","currency":"Lei","image":{"thumbnail":{"default":"https://cdn.freshful.ro/media/cache/sylius_shop_product_thumbnail/d6/b6/e774e4ea792fd65abbab87f3a134.jpg"},"large":{"default":"https://cdn.freshful.ro/media/cache/freshful_large/d6/b6/e774e4ea792fd65abbab87f3a134.jpg"},"extralarge":{"default":"https://cdn.freshful.ro/media/cache/sylius_shop_product_original/d6/b6/e774e4ea792fd65abbab87f3a134.jpg"}},"label":null,"tags":[],"isAvailable":true,"maxAvailableQuantity":100,"maxAllowedQuantity":100,"breadcrumbs":[{"code":"14","name":"Casă și agrement","slug":"14-casa-si-agrement"},{"code":"1401","name":"Bricolaj și auto","slug":"1401-bricolaj-si-auto"},{"code":"140101","name":"Baterii","slug":"140101-baterii"},{"code":"100117816","name":"Baterii alcaline AA, 8 buc","slug":"100117816-varta-baterii-alcaline-aa-8-buc"}],"activePromotion":null,"saveMe":null,"labels":[],"geniusPrice":null,"geniusUnitPricePerLabel":null,"banner":null,"discountLabel":null,"geniusDiscountLabel":null,"badge":null},{"code":"100117814","variantCode":"100117814","name":"Baterii alcaline AAA, 8 buc","slug":"100117814-varta-baterii-alcaline-aaa-8-buc","unitPriceLabel":"","brand":"Varta","brandCode":"1980","brandFilterCode":"varta-b1984","sku":"100117814","price":19.99,"originalPrice":null,"currencyCode":"RON","currency":"Lei","image":{"thumbnail":{"default":"https://cdn.freshful.ro/media/cache/sylius_shop_product_thumbnail/99/33/e8f2bf3633409456db69d62a4d01.jpg"},"large":{"default":"https://cdn.freshful.ro/media/cache/freshful_large/99/33/e8f2bf3633409456db69d62a4d01.jpg"},"extralarge":{"default":"https://cdn.freshful.ro/media/cache/sylius_shop_product_original/99/33/e8f2bf3633409456db69d62a4d01.jpg"}},"label":null,"tags":[],"isAvailable":true,"maxAvailableQuantity":96,"maxAllowedQuantity":100,"breadcrumbs":[{"code":"14","name":"Casă și agrement","slug":"14-casa-si-agrement"},{"code":"1401","name":"Bricolaj și auto","slug":"1401-bricolaj-si-auto"},{"code":"140101","name":"Baterii","slug":"140101-baterii"},{"code":"100117814","name":"Baterii alcaline AAA, 8 buc","slug":"100117814-varta-baterii-alcaline-aaa-8-buc"}],"activePromotion":null,"saveMe":null,"labels":[],"geniusPrice":null,"geniusUnitPricePerLabel":null,"banner":null,"discountLabel":null,"geniusDiscountLabel":null,"badge":null},{"code":"100117815","variantCode":"100117815","name":"Baterii alcaline AA, 4 buc","slug":"100117815-varta-baterii-alcaline-aa-4-buc","unitPriceLabel":"","brand":"Varta","brandCode":"1980","brandFilterCode":"varta-b1984","sku":"100117815","price":9.99,"originalPrice":null,"currencyCode":"RON","currency":"Lei","image":{"thumbnail":{"default":"https://cdn.freshful.ro/media/cache/sylius_shop_product_thumbnail/17/4a/52ba837aecce9b1abf35abe11216.jpg"},"large":{"default":"https://cdn.freshful.ro/media/cache/freshful_large/17/4a/52ba837aecce9b1abf35abe11216.jpg"},"extralarge":{"default":"https://cdn.freshful.ro/media/cache/sylius_shop_product_original/17/4a/52ba837aecce9b1abf35abe11216.jpg"}},"label":null,"tags":[],"isAvailable":true,"maxAvailableQuantity":100,"maxAllowedQuantity":100,"breadcrumbs":[{"code":"14","name":"Casă și agrement","slug":"14-casa-si-agrement"},{"code":"1401","name":"Bricolaj și auto","slug":"1401-bricolaj-si-auto"},{"code":"140101","name":"Baterii","slug":"140101-baterii"},{"code":"100117815","name":"Baterii alcaline AA, 4 buc","slug":"100117815-varta-baterii-alcaline-aa-4-buc"}],"activePromotion":null,"saveMe":null,"labels":[],"geniusPrice":null,"geniusUnitPricePerLabel":null,"banner":null,"discountLabel":null,"geniusDiscountLabel":null,"badge":null},{"code":"100117813","variantCode":"100117813","name":"Baterii alcaline AAA R3, 4 buc","slug":"100117813-varta-baterii-alcaline-aaa-r3-4-buc","unitPriceLabel":"","brand":"Varta","brandCode":"1980","brandFilterCode":"varta-b1984","sku":"100117813","price":8.99,"originalPrice":null,"currencyCode":"RON","currency":"Lei","image":{"thumbnail":{"default":"https://cdn.freshful.ro/media/cache/sylius_shop_product_thumbnail/00/5e/24abbd821d620e52744869f8fa7b.jpg"},"large":{"default":"https://cdn.freshful.ro/media/cache/freshful_large/00/5e/24abbd821d620e52744869f8fa7b.jpg"},"extralarge":{"default":"https://cdn.freshful.ro/media/cache/sylius_shop_product_original/00/5e/24abbd821d620e52744869f8fa7b.jpg"}},"label":null,"tags":[],"isAvailable":true,"maxAvailableQuantity":72,"maxAllowedQuantity":100,"breadcrumbs":[{"code":"14","name":"Casă și agrement","slug":"14-casa-si-agrement"},{"code":"1401","name":"Bricolaj și auto","slug":"1401-bricolaj-si-auto"},{"code":"140101","name":"Baterii","slug":"140101-baterii"},{"code":"100117813","name":"Baterii alcaline AAA R3, 4 buc","slug":"100117813-varta-baterii-alcaline-aaa-r3-4-buc"}],"activePromotion":null,"saveMe":null,"labels":[],"geniusPrice":null,"geniusUnitPricePerLabel":null,"banner":null,"discountLabel":null,"geniusDiscountLabel":null,"badge":null},{"code":"100117797","variantCode":"100117797","name":"Baterii buton litiu CR2032 3V 230mAh, 2 buc","slug":"100117797-varta-baterii-buton-litiu-cr2032-3v-230mah-2-buc","unitPriceLabel":"","brand":"Varta","brandCode":"1980","brandFilterCode":"varta-b1984","sku":"100117797","price":13.19,"originalPrice":null,"currencyCode":"RON","currency":"Lei","image":{"thumbnail":{"default":"https://cdn.freshful.ro/media/cache/sylius_shop_product_thumbnail/71/1f/4d713cb32844873876b05bfecde9.jpg"},"large":{"default":"https://cdn.freshful.ro/media/cache/freshful_large/71/1f/4d713cb32844873876b05bfecde9.jpg"},"extralarge":{"default":"https://cdn.freshful.ro/media/cache/sylius_shop_product_original/71/1f/4d713cb32844873876b05bfecde9.jpg"}},"label":null,"tags":[],"isAvailable":true,"maxAvailableQuantity":91,"maxAllowedQuantity":100,"breadcrumbs":[{"code":"14","name":"Casă și agrement","slug":"14-casa-si-agrement"},{"code":"1401","name":"Bricolaj și auto","slug":"1401-bricolaj-si-auto"},{"code":"140101","name":"Baterii","slug":"140101-baterii"},{"code":"100117797","name":"Baterii buton litiu CR2032 3V 230mAh, 2 buc","slug":"100117797-varta-baterii-buton-litiu-cr2032-3v-230mah-2-buc"}],"activePromotion":null,"saveMe":null,"labels":[],"geniusPrice":null,"geniusUnitPricePerLabel":null,"banner":null,"discountLabel":null,"geniusDiscountLabel":null,"badge":null},{"code":"100117810","variantCode":"100117810","name":"Baterii alcaline High Energy AA, 12 buc","slug":"100117810-varta-baterii-alcaline-high-energy-aa-12-buc","unitPriceLabel":"","brand":"Varta","brandCode":"1980","brandFilterCode":"varta-b1984","sku":"100117810","price":34.69,"originalPrice":null,"currencyCode":"RON","currency":"Lei","image":{"thumbnail":{"default":"https://cdn.freshful.ro/media/cache/sylius_shop_product_thumbnail/87/01/ea02576f43c2652e40d4afa3c908.jpg"},"large":{"default":"https://cdn.freshful.ro/media/cache/freshful_large/87/01/ea02576f43c2652e40d4afa3c908.jpg"},"extralarge":{"default":"https://cdn.freshful.ro/media/cache/sylius_shop_product_original/87/01/ea02576f43c2652e40d4afa3c908.jpg"}},"label":null,"tags":[],"isAvailable":true,"maxAvailableQuantity":55,"maxAllowedQuantity":100,"breadcrumbs":[{"code":"14","name":"Casă și agrement","slug":"14-casa-si-agrement"},{"code":"1401","name":"Bricolaj și auto","slug":"1401-bricolaj-si-auto"},{"code":"140101","name":"Baterii","slug":"140101-baterii"},{"code":"100117810","name":"Baterii alcaline High Energy AA, 12 buc","slug":"100117810-varta-baterii-alcaline-high-energy-aa-12-buc"}],"activePromotion":null,"saveMe":null,"labels":[],"geniusPrice":null,"geniusUnitPricePerLabel":null,"banner":null,"discountLabel":null,"geniusDiscountLabel":null,"badge":null},{"code":"100117821","variantCode":"100117821","name":"Baterii zinc-carbon AAA 1.5V, 8 buc","slug":"100117821-varta-baterii-zinc-carbon-aaa-1-5v-8-buc","unitPriceLabel":"","brand":"Varta","brandCode":"1980","brandFilterCode":"varta-b1984","sku":"100117821","price":8.99,"originalPrice":null,"currencyCode":"RON","currency":"Lei","image":{"thumbnail":{"default":"https://cdn.freshful.ro/media/cache/sylius_shop_product_thumbnail/03/c3/87e57e0968075980acd5107a955a.jpg"},"large":{"default":"https://cdn.freshful.ro/media/cache/freshful_large/03/c3/87e57e0968075980acd5107a955a.jpg"},"extralarge":{"default":"https://cdn.freshful.ro/media/cache/sylius_shop_product_original/03/c3/87e57e0968075980acd5107a955a.jpg"}},"label":null,"tags":[],"isAvailable":true,"maxAvailableQuantity":82,"maxAllowedQuantity":100,"breadcrumbs":[{"code":"14","name":"Casă și agrement","slug":"14-casa-si-agrement"},{"code":"1401","name":"Bricolaj și auto","slug":"1401-bricolaj-si-auto"},{"code":"140101","name":"Baterii","slug":"140101-baterii"},{"code":"100117821","name":"Baterii zinc-carbon AAA 1.5V, 8 buc","slug":"100117821-varta-baterii-zinc-carbon-aaa-1-5v-8-buc"}],"activePromotion":null,"saveMe":null,"labels":[],"geniusPrice":null,"geniusUnitPricePerLabel":null,"banner":null,"discountLabel":null,"geniusDiscountLabel":null,"badge":null},{"code":"100117604","variantCode":"100117604","name":"Baterii LR44, 1,5 V 2 buc","slug":"100117604-duracell-baterii-lr44-1-5-v-2-buc","unitPriceLabel":"","brand":"Duracell","brandCode":"2002","brandFilterCode":"duracell-b1996","sku":"100117604","price":8.49,"originalPrice":null,"currencyCode":"RON","currency":"Lei","image":{"thumbnail":{"default":"https://cdn.freshful.ro/media/cache/sylius_shop_product_thumbnail/e7/9e/1ee5863f6c507573c29c5909c270.jpg"},"large":{"default":"https://cdn.freshful.ro/media/cache/freshful_large/e7/9e/1ee5863f6c507573c29c5909c270.jpg"},"extralarge":{"default":"https://cdn.freshful.ro/media/cache/sylius_shop_product_original/e7/9e/1ee5863f6c507573c29c5909c270.jpg"}},"label":null,"tags":[],"isAvailable":true,"maxAvailableQuantity":95,"maxAllowedQuantity":100,"breadcrumbs":[{"code":"14","name":"Casă și agrement","slug":"14-casa-si-agrement"},{"code":"1401","name":"Bricolaj și auto","slug":"1401-bricolaj-si-auto"},{"code":"140101","name":"Baterii","slug":"140101-baterii"},{"code":"100117604","name":"Baterii LR44, 1,5 V 2 buc","slug":"100117604-duracell-baterii-lr44-1-5-v-2-buc"}],"activePromotion":null,"saveMe":null,"labels":[],"geniusPrice":null,"geniusUnitPricePerLabel":null,"banner":null,"discountLabel":null,"geniusDiscountLabel":null,"badge":null},{"code":"100117581","variantCode":"100117581","name":"Baterie Basic AAK4","slug":"100117581-duracell-baterie-basic-aak4","unitPriceLabel":"","brand":"Duracell","brandCode":"2002","brandFilterCode":"duracell-b1996","sku":"100117581","price":18.9,"originalPrice":null,"currencyCode":"RON","currency":"Lei","image":{"thumbnail":{"default":"https://cdn.freshful.ro/media/cache/sylius_shop_product_thumbnail/3c/d6/3c9e8c1a4281365f86e50927f938.jpg"},"large":{"default":"https://cdn.freshful.ro/media/cache/freshful_large/3c/d6/3c9e8c1a4281365f86e50927f938.jpg"},"extralarge":{"default":"https://cdn.freshful.ro/media/cache/sylius_shop_product_original/3c/d6/3c9e8c1a4281365f86e50927f938.jpg"}},"label":null,"tags":[],"isAvailable":true,"maxAvailableQuantity":37,"maxAllowedQuantity":100,"breadcrumbs":[{"code":"14","name":"Casă și agrement","slug":"14-casa-si-agrement"},{"code":"1401","name":"Bricolaj și auto","slug":"1401-bricolaj-si-auto"},{"code":"140101","name":"Baterii","slug":"140101-baterii"},{"code":"100117581","name":"Baterie Basic AAK4","slug":"100117581-duracell-baterie-basic-aak4"}],"activePromotion":null,"saveMe":null,"labels":[],"geniusPrice":null,"geniusUnitPricePerLabel":null,"banner":null,"discountLabel":null,"geniusDiscountLabel":null,"badge":null},{"code":"100117823","variantCode":"100117823","name":"Baterii zinc-carbon AA 1.5V, 8 buc","slug":"100117823-varta-baterii-zinc-carbon-aa-1-5v-8-buc","unitPriceLabel":"","brand":"Varta","brandCode":"1980","brandFilterCode":"varta-b1984","sku":"100117823","price":8.99,"originalPrice":null,"currencyCode":"RON","currency":"Lei","image":{"thumbnail":{"default":"https://cdn.freshful.ro/media/cache/sylius_shop_product_thumbnail/5a/19/d2e9eb458bcd60b569ee39835d85.jpg"},"large":{"default":"https://cdn.freshful.ro/media/cache/freshful_large/5a/19/d2e9eb458bcd60b569ee39835d85.jpg"},"extralarge":{"default":"https://cdn.freshful.ro/media/cache/sylius_shop_product_original/5a/19/d2e9eb458bcd60b569ee39835d85.jpg"}},"label":null,"tags":[],"isAvailable":true,"maxAvailableQuantity":100,"maxAllowedQuantity":100,"breadcrumbs":[{"code":"14","name":"Casă și agrement","slug":"14-casa-si-agrement"},{"code":"1401","name":"Bricolaj și auto","slug":"1401-bricolaj-si-auto"},{"code":"140101","name":"Baterii","slug":"140101-baterii"},{"code":"100117823","name":"Baterii zinc-carbon AA 1.5V, 8 buc","slug":"100117823-varta-baterii-zinc-carbon-aa-1-5v-8-buc"}],"activePromotion":null,"saveMe":null,"labels":[],"geniusPrice":null,"geniusUnitPricePerLabel":null,"banner":null,"discountLabel":null,"geniusDiscountLabel":null,"badge":null}],"filters":{"countSelected":0,"items":[{"code":"brand","name":"Brand","countSelected":0,"values":[{"code":"duracell-b1996","name":"Duracell","isSelected":false,"count":22},{"code":"energizer-b1872","name":"Energizer","isSelected":false,"count":31},{"code":"varta-b1984","name":"Varta","isSelected":false,"count":39}]}]},"orderBy":[{"field":"price","direction":"asc","name":"Preț crescător","isSelected":false},{"field":"price","direction":"desc","name":"Preț descrescător","isSelected":false},{"field":"popularity","direction":"desc","name":"Cele mai populare","isSelected":true},{"field":"category","direction":"asc","name":"Categorie","isSelected":false}],"metaTitle":"Baterii - Gamă variată","metaDescription":"Vrei Baterii? Alege dintr-o gamă variată. Comanzi simplu și ai livrare rapidă, calitate și prospețime. Hai pe Freshful.ro","metaKeywords":null,"banners":[]}}