{"type":"subcategory","payload":{"analyticsListId":"category_140102-becuri","analyticsListName":"Category - Becuri","name":"Becuri","slug":"140102-becuri","image":null,"breadcrumbs":[{"code":"14","name":"Casă și agrement","slug":"14-casa-si-agrement"},{"code":"1401","name":"Bricolaj și auto","slug":"1401-bricolaj-si-auto"},{"code":"140102","name":"Becuri","slug":"140102-becuri"}],"slots":[],"page":1,"limit":10,"pages":3,"count":23,"siblings":[{"name":"Bricolaj și auto","slug":"1401-bricolaj-si-auto","selected":true},{"name":"Grădină","slug":"1402-gradina","selected":false},{"name":"Articole de menaj","slug":"1403-articole-de-menaj","selected":false},{"name":"Textile pentru casă","slug":"1404-textile-de-casa","selected":false},{"name":"Birotică și papetărie","slug":"1405-birotica-si-papetarie","selected":false},{"name":"Jucării","slug":"1406-jucarii","selected":false},{"name":"Accesorii IT&C","slug":"1408-hitech-audio-video","selected":false},{"name":"Textile și accesorii","slug":"1410-textile-basic","selected":false}],"children":[{"name":"Toate produsele","slug":"1401-bricolaj-si-auto","selected":false},{"name":"Baterii","slug":"140101-baterii","selected":false},{"name":"Becuri","slug":"140102-becuri","selected":true},{"name":"Prelungitoare","slug":"140103-prelungitoare","selected":false},{"name":"Lanterne și lămpi","slug":"140104-lanterne-si-lampi","selected":false},{"name":"Adezivi și benzi adezive","slug":"140105-adezivi-si-benzi-adezive","selected":false},{"name":"Lichid de parbriz și alte soluții","slug":"140106-lichid-parbirz-si-alte-solutii","selected":false},{"name":"Cosmetică și îngrijire auto","slug":"140108-cosmetica-si-ingrijire-auto","selected":false},{"name":"Odorizante auto","slug":"140109-odorizant-auto","selected":false}],"products":[{"code":"100110831","variantCode":"100110831","name":"Bec LED Warm White 48W P45 E14","slug":"100110831-philips-bec-led-warm-white-48w-p45-e14","unitPriceLabel":"","brand":"Philips","brandCode":"1788","brandFilterCode":"philips-b1792","sku":"100110831","price":17.59,"originalPrice":null,"currencyCode":"RON","currency":"Lei","image":{"thumbnail":{"default":"https://cdn.freshful.ro/media/cache/sylius_shop_product_thumbnail/b0/30/4e8bae8b71a6da63f48b83d87c94.jpg"},"large":{"default":"https://cdn.freshful.ro/media/cache/freshful_large/b0/30/4e8bae8b71a6da63f48b83d87c94.jpg"},"extralarge":{"default":"https://cdn.freshful.ro/media/cache/sylius_shop_product_original/b0/30/4e8bae8b71a6da63f48b83d87c94.jpg"}},"label":null,"tags":[],"isAvailable":true,"maxAvailableQuantity":20,"maxAllowedQuantity":100,"breadcrumbs":[{"code":"14","name":"Casă și agrement","slug":"14-casa-si-agrement"},{"code":"1401","name":"Bricolaj și auto","slug":"1401-bricolaj-si-auto"},{"code":"140102","name":"Becuri","slug":"140102-becuri"},{"code":"100110831","name":"Bec LED Warm White 48W P45 E14","slug":"100110831-philips-bec-led-warm-white-48w-p45-e14"}],"activePromotion":null,"saveMe":null,"labels":[],"geniusPrice":null,"geniusUnitPricePerLabel":null,"banner":null,"discountLabel":null,"geniusDiscountLabel":null,"badge":null},{"code":"100110827","variantCode":"100110827","name":"Bec LED Cool Daylight 80W A55 ","slug":"100110827-philips-bec-led-cool-daylight-80w-a55","unitPriceLabel":"","brand":"Philips","brandCode":"1788","brandFilterCode":"philips-b1792","sku":"100110827","price":11.9,"originalPrice":null,"currencyCode":"RON","currency":"Lei","image":{"thumbnail":{"default":"https://cdn.freshful.ro/media/cache/sylius_shop_product_thumbnail/42/9d/f5faa31d46a207c6f96586251a93.jpg"},"large":{"default":"https://cdn.freshful.ro/media/cache/freshful_large/42/9d/f5faa31d46a207c6f96586251a93.jpg"},"extralarge":{"default":"https://cdn.freshful.ro/media/cache/sylius_shop_product_original/42/9d/f5faa31d46a207c6f96586251a93.jpg"}},"label":null,"tags":[],"isAvailable":true,"maxAvailableQuantity":21,"maxAllowedQuantity":100,"breadcrumbs":[{"code":"14","name":"Casă și agrement","slug":"14-casa-si-agrement"},{"code":"1401","name":"Bricolaj și auto","slug":"1401-bricolaj-si-auto"},{"code":"140102","name":"Becuri","slug":"140102-becuri"},{"code":"100110827","name":"Bec LED Cool Daylight 80W A55 ","slug":"100110827-philips-bec-led-cool-daylight-80w-a55"}],"activePromotion":null,"saveMe":null,"labels":[],"geniusPrice":null,"geniusUnitPricePerLabel":null,"banner":null,"discountLabel":null,"geniusDiscountLabel":null,"badge":null},{"code":"100110826","variantCode":"100110826","name":"Bec LED White 80W A55 ","slug":"100110826-philips-bec-led-white-80w-a55","unitPriceLabel":"","brand":"Philips","brandCode":"1788","brandFilterCode":"philips-b1792","sku":"100110826","price":11.9,"originalPrice":null,"currencyCode":"RON","currency":"Lei","image":{"thumbnail":{"default":"https://cdn.freshful.ro/media/cache/sylius_shop_product_thumbnail/41/92/b9d7152e2d680ed4a931235221e7.jpg"},"large":{"default":"https://cdn.freshful.ro/media/cache/freshful_large/41/92/b9d7152e2d680ed4a931235221e7.jpg"},"extralarge":{"default":"https://cdn.freshful.ro/media/cache/sylius_shop_product_original/41/92/b9d7152e2d680ed4a931235221e7.jpg"}},"label":null,"tags":[],"isAvailable":true,"maxAvailableQuantity":28,"maxAllowedQuantity":100,"breadcrumbs":[{"code":"14","name":"Casă și agrement","slug":"14-casa-si-agrement"},{"code":"1401","name":"Bricolaj și auto","slug":"1401-bricolaj-si-auto"},{"code":"140102","name":"Becuri","slug":"140102-becuri"},{"code":"100110826","name":"Bec LED White 80W A55 ","slug":"100110826-philips-bec-led-white-80w-a55"}],"activePromotion":null,"saveMe":null,"labels":[],"geniusPrice":null,"geniusUnitPricePerLabel":null,"banner":null,"discountLabel":null,"geniusDiscountLabel":null,"badge":null},{"code":"100110832","variantCode":"100110832","name":"Bec LED Warm White 60W A60 E27 ","slug":"100110832-philips-bec-led-warm-white-60w-a60-e27","unitPriceLabel":"","brand":"Philips","brandCode":"1788","brandFilterCode":"philips-b1792","sku":"100110832","price":21.9,"originalPrice":null,"currencyCode":"RON","currency":"Lei","image":{"thumbnail":{"default":"https://cdn.freshful.ro/media/cache/sylius_shop_product_thumbnail/52/1b/85fe362e573b3ffd3d34c4686e4e.jpg"},"large":{"default":"https://cdn.freshful.ro/media/cache/freshful_large/52/1b/85fe362e573b3ffd3d34c4686e4e.jpg"},"extralarge":{"default":"https://cdn.freshful.ro/media/cache/sylius_shop_product_original/52/1b/85fe362e573b3ffd3d34c4686e4e.jpg"}},"label":null,"tags":[],"isAvailable":true,"maxAvailableQuantity":6,"maxAllowedQuantity":100,"breadcrumbs":[{"code":"14","name":"Casă și agrement","slug":"14-casa-si-agrement"},{"code":"1401","name":"Bricolaj și auto","slug":"1401-bricolaj-si-auto"},{"code":"140102","name":"Becuri","slug":"140102-becuri"},{"code":"100110832","name":"Bec LED Warm White 60W A60 E27 ","slug":"100110832-philips-bec-led-warm-white-60w-a60-e27"}],"activePromotion":null,"saveMe":null,"labels":[],"geniusPrice":null,"geniusUnitPricePerLabel":null,"banner":null,"discountLabel":null,"geniusDiscountLabel":null,"badge":null},{"code":"100110836","variantCode":"100110836","name":"Bec LED Warm White 100W A60 E27 ","slug":"100110836-philips-bec-led-warm-white-100w-a60-e27","unitPriceLabel":"","brand":"Philips","brandCode":"1788","brandFilterCode":"philips-b1792","sku":"100110836","price":24.9,"originalPrice":null,"currencyCode":"RON","currency":"Lei","image":{"thumbnail":{"default":"https://cdn.freshful.ro/media/cache/sylius_shop_product_thumbnail/64/a9/14610682366553e34809d7796e71.jpg"},"large":{"default":"https://cdn.freshful.ro/media/cache/freshful_large/64/a9/14610682366553e34809d7796e71.jpg"},"extralarge":{"default":"https://cdn.freshful.ro/media/cache/sylius_shop_product_original/64/a9/14610682366553e34809d7796e71.jpg"}},"label":null,"tags":[],"isAvailable":true,"maxAvailableQuantity":9,"maxAllowedQuantity":100,"breadcrumbs":[{"code":"14","name":"Casă și agrement","slug":"14-casa-si-agrement"},{"code":"1401","name":"Bricolaj și auto","slug":"1401-bricolaj-si-auto"},{"code":"140102","name":"Becuri","slug":"140102-becuri"},{"code":"100110836","name":"Bec LED Warm White 100W A60 E27 ","slug":"100110836-philips-bec-led-warm-white-100w-a60-e27"}],"activePromotion":null,"saveMe":null,"labels":[],"geniusPrice":null,"geniusUnitPricePerLabel":null,"banner":null,"discountLabel":null,"geniusDiscountLabel":null,"badge":null},{"code":"100110837","variantCode":"100110837","name":"Bec LED Cool Daylight 100W A60 ","slug":"100110837-philips-bec-led-cool-daylight-100w-a60","unitPriceLabel":"","brand":"Philips","brandCode":"1788","brandFilterCode":"philips-b1792","sku":"100110837","price":21.9,"originalPrice":null,"currencyCode":"RON","currency":"Lei","image":{"thumbnail":{"default":"https://cdn.freshful.ro/media/cache/sylius_shop_product_thumbnail/45/1d/a30447c273dfb53f2aac032d1d20.jpg"},"large":{"default":"https://cdn.freshful.ro/media/cache/freshful_large/45/1d/a30447c273dfb53f2aac032d1d20.jpg"},"extralarge":{"default":"https://cdn.freshful.ro/media/cache/sylius_shop_product_original/45/1d/a30447c273dfb53f2aac032d1d20.jpg"}},"label":null,"tags":[],"isAvailable":true,"maxAvailableQuantity":21,"maxAllowedQuantity":100,"breadcrumbs":[{"code":"14","name":"Casă și agrement","slug":"14-casa-si-agrement"},{"code":"1401","name":"Bricolaj și auto","slug":"1401-bricolaj-si-auto"},{"code":"140102","name":"Becuri","slug":"140102-becuri"},{"code":"100110837","name":"Bec LED Cool Daylight 100W A60 ","slug":"100110837-philips-bec-led-cool-daylight-100w-a60"}],"activePromotion":null,"saveMe":null,"labels":[],"geniusPrice":null,"geniusUnitPricePerLabel":null,"banner":null,"discountLabel":null,"geniusDiscountLabel":null,"badge":null},{"code":"100110840","variantCode":"100110840","name":"Bec LED Warm White 60W A60 E27 ","slug":"100110840-philips-bec-led-warm-white-60w-a60-e27","unitPriceLabel":"","brand":"Philips","brandCode":"1788","brandFilterCode":"philips-b1792","sku":"100110840","price":40.99,"originalPrice":null,"currencyCode":"RON","currency":"Lei","image":{"thumbnail":{"default":"https://cdn.freshful.ro/media/cache/sylius_shop_product_thumbnail/06/08/ced95ed498a885c7af1884891932.jpg"},"large":{"default":"https://cdn.freshful.ro/media/cache/freshful_large/06/08/ced95ed498a885c7af1884891932.jpg"},"extralarge":{"default":"https://cdn.freshful.ro/media/cache/sylius_shop_product_original/06/08/ced95ed498a885c7af1884891932.jpg"}},"label":null,"tags":[],"isAvailable":true,"maxAvailableQuantity":51,"maxAllowedQuantity":100,"breadcrumbs":[{"code":"14","name":"Casă și agrement","slug":"14-casa-si-agrement"},{"code":"1401","name":"Bricolaj și auto","slug":"1401-bricolaj-si-auto"},{"code":"140102","name":"Becuri","slug":"140102-becuri"},{"code":"100110840","name":"Bec LED Warm White 60W A60 E27 ","slug":"100110840-philips-bec-led-warm-white-60w-a60-e27"}],"activePromotion":null,"saveMe":null,"labels":[],"geniusPrice":null,"geniusUnitPricePerLabel":null,"banner":null,"discountLabel":null,"geniusDiscountLabel":null,"badge":null},{"code":"100110841","variantCode":"100110841","name":"Bec LED Warm White 100W A60 E27 ","slug":"100110841-philips-bec-led-warm-white-100w-a60-e27","unitPriceLabel":"","brand":"Philips","brandCode":"1788","brandFilterCode":"philips-b1792","sku":"100110841","price":59.99,"originalPrice":null,"currencyCode":"RON","currency":"Lei","image":{"thumbnail":{"default":"https://cdn.freshful.ro/media/cache/sylius_shop_product_thumbnail/48/b9/757e7f2d4e2ece4150200ea9530e.jpg"},"large":{"default":"https://cdn.freshful.ro/media/cache/freshful_large/48/b9/757e7f2d4e2ece4150200ea9530e.jpg"},"extralarge":{"default":"https://cdn.freshful.ro/media/cache/sylius_shop_product_original/48/b9/757e7f2d4e2ece4150200ea9530e.jpg"}},"label":null,"tags":[],"isAvailable":true,"maxAvailableQuantity":29,"maxAllowedQuantity":100,"breadcrumbs":[{"code":"14","name":"Casă și agrement","slug":"14-casa-si-agrement"},{"code":"1401","name":"Bricolaj și auto","slug":"1401-bricolaj-si-auto"},{"code":"140102","name":"Becuri","slug":"140102-becuri"},{"code":"100110841","name":"Bec LED Warm White 100W A60 E27 ","slug":"100110841-philips-bec-led-warm-white-100w-a60-e27"}],"activePromotion":null,"saveMe":null,"labels":[],"geniusPrice":null,"geniusUnitPricePerLabel":null,"banner":null,"discountLabel":null,"geniusDiscountLabel":null,"badge":null},{"code":"100110842","variantCode":"100110842","name":"Bec LED Warm White 75W A60 E27 ","slug":"100110842-philips-bec-led-warm-white-75w-a60-e27","unitPriceLabel":"","brand":"Philips","brandCode":"1788","brandFilterCode":"philips-b1792","sku":"100110842","price":38.79,"originalPrice":null,"currencyCode":"RON","currency":"Lei","image":{"thumbnail":{"default":"https://cdn.freshful.ro/media/cache/sylius_shop_product_thumbnail/92/6a/8b9ceec642b739fb3f2c2b0648d7.jpg"},"large":{"default":"https://cdn.freshful.ro/media/cache/freshful_large/92/6a/8b9ceec642b739fb3f2c2b0648d7.jpg"},"extralarge":{"default":"https://cdn.freshful.ro/media/cache/sylius_shop_product_original/92/6a/8b9ceec642b739fb3f2c2b0648d7.jpg"}},"label":null,"tags":[],"isAvailable":true,"maxAvailableQuantity":27,"maxAllowedQuantity":100,"breadcrumbs":[{"code":"14","name":"Casă și agrement","slug":"14-casa-si-agrement"},{"code":"1401","name":"Bricolaj și auto","slug":"1401-bricolaj-si-auto"},{"code":"140102","name":"Becuri","slug":"140102-becuri"},{"code":"100110842","name":"Bec LED Warm White 75W A60 E27 ","slug":"100110842-philips-bec-led-warm-white-75w-a60-e27"}],"activePromotion":null,"saveMe":null,"labels":[],"geniusPrice":null,"geniusUnitPricePerLabel":null,"banner":null,"discountLabel":null,"geniusDiscountLabel":null,"badge":null},{"code":"100110828","variantCode":"100110828","name":"Bec LED Cool White 48W B35 E14 ","slug":"100110828-philips-bec-led-cool-white-48w-b35-e14","unitPriceLabel":"","brand":"Philips","brandCode":"1788","brandFilterCode":"philips-b1792","sku":"100110828","price":17.59,"originalPrice":null,"currencyCode":"RON","currency":"Lei","image":{"thumbnail":{"default":"https://cdn.freshful.ro/media/cache/sylius_shop_product_thumbnail/51/96/0cfb95cf043f3083c6d7e6ccab06.jpg"},"large":{"default":"https://cdn.freshful.ro/media/cache/freshful_large/51/96/0cfb95cf043f3083c6d7e6ccab06.jpg"},"extralarge":{"default":"https://cdn.freshful.ro/media/cache/sylius_shop_product_original/51/96/0cfb95cf043f3083c6d7e6ccab06.jpg"}},"label":null,"tags":[],"isAvailable":true,"maxAvailableQuantity":64,"maxAllowedQuantity":100,"breadcrumbs":[{"code":"14","name":"Casă și agrement","slug":"14-casa-si-agrement"},{"code":"1401","name":"Bricolaj și auto","slug":"1401-bricolaj-si-auto"},{"code":"140102","name":"Becuri","slug":"140102-becuri"},{"code":"100110828","name":"Bec LED Cool White 48W B35 E14 ","slug":"100110828-philips-bec-led-cool-white-48w-b35-e14"}],"activePromotion":null,"saveMe":null,"labels":[],"geniusPrice":null,"geniusUnitPricePerLabel":null,"banner":null,"discountLabel":null,"geniusDiscountLabel":null,"badge":null}],"filters":{"countSelected":0,"items":[{"code":"brand","name":"Brand","countSelected":0,"values":[{"code":"philips-b1792","name":"Philips","isSelected":false,"count":23}]}]},"orderBy":[{"field":"price","direction":"asc","name":"Preț crescător","isSelected":false},{"field":"price","direction":"desc","name":"Preț descrescător","isSelected":false},{"field":"popularity","direction":"desc","name":"Cele mai populare","isSelected":true},{"field":"category","direction":"asc","name":"Categorie","isSelected":false}],"metaTitle":"Becuri - Gamă variată","metaDescription":"Vrei Becuri? Alege dintr-o gamă variată. Comanzi simplu și ai livrare rapidă, calitate și prospețime. Hai pe Freshful.ro","metaKeywords":null,"banners":[]}}