{"type":"subcategory","payload":{"analyticsListId":"category_140106-lichid-parbirz-si-alte-solutii","analyticsListName":"Category - Lichid de parbriz și alte soluții","name":"Lichid de parbriz și alte soluții","slug":"140106-lichid-parbirz-si-alte-solutii","image":null,"breadcrumbs":[{"code":"14","name":"Casă și agrement","slug":"14-casa-si-agrement"},{"code":"1401","name":"Bricolaj și auto","slug":"1401-bricolaj-si-auto"},{"code":"140106","name":"Lichid de parbriz și alte soluții","slug":"140106-lichid-parbirz-si-alte-solutii"}],"slots":[],"page":1,"limit":10,"pages":3,"count":29,"siblings":[{"name":"Bricolaj și auto","slug":"1401-bricolaj-si-auto","selected":true},{"name":"Grădină","slug":"1402-gradina","selected":false},{"name":"Articole de menaj","slug":"1403-articole-de-menaj","selected":false},{"name":"Textile pentru casă","slug":"1404-textile-de-casa","selected":false},{"name":"Birotică și papetărie","slug":"1405-birotica-si-papetarie","selected":false},{"name":"Jucării","slug":"1406-jucarii","selected":false},{"name":"Accesorii IT&C","slug":"1408-hitech-audio-video","selected":false},{"name":"Textile și accesorii","slug":"1410-textile-basic","selected":false}],"children":[{"name":"Toate produsele","slug":"1401-bricolaj-si-auto","selected":false},{"name":"Baterii","slug":"140101-baterii","selected":false},{"name":"Becuri","slug":"140102-becuri","selected":false},{"name":"Prelungitoare","slug":"140103-prelungitoare","selected":false},{"name":"Lanterne și lămpi","slug":"140104-lanterne-si-lampi","selected":false},{"name":"Adezivi și benzi adezive","slug":"140105-adezivi-si-benzi-adezive","selected":false},{"name":"Lichid de parbriz și alte soluții","slug":"140106-lichid-parbirz-si-alte-solutii","selected":true},{"name":"Cosmetică și îngrijire auto","slug":"140108-cosmetica-si-ingrijire-auto","selected":false},{"name":"Odorizante auto","slug":"140109-odorizant-auto","selected":false}],"products":[{"code":"100138087","variantCode":"100138087","name":"Apă demineralizată 2l","slug":"100138087-aquaxpert-apa-demineralizata-2l","unitPriceLabel":"5 Lei/l","brand":"AquaXpert","brandCode":"2638","brandFilterCode":"aquaxpert-b2642","sku":"100138087","price":9.99,"originalPrice":null,"currencyCode":"RON","currency":"Lei","image":{"thumbnail":{"default":"https://cdn.freshful.ro/media/cache/sylius_shop_product_thumbnail/2f/b4/ab725f2e88c66fb17cb0485febd1.jpg"},"large":{"default":"https://cdn.freshful.ro/media/cache/freshful_large/2f/b4/ab725f2e88c66fb17cb0485febd1.jpg"},"extralarge":{"default":"https://cdn.freshful.ro/media/cache/sylius_shop_product_original/2f/b4/ab725f2e88c66fb17cb0485febd1.jpg"}},"label":null,"tags":[],"isAvailable":true,"maxAvailableQuantity":100,"maxAllowedQuantity":100,"breadcrumbs":[{"code":"14","name":"Casă și agrement","slug":"14-casa-si-agrement"},{"code":"1401","name":"Bricolaj și auto","slug":"1401-bricolaj-si-auto"},{"code":"140106","name":"Lichid de parbriz și alte soluții","slug":"140106-lichid-parbirz-si-alte-solutii"},{"code":"100138087","name":"Apă demineralizată 2l","slug":"100138087-aquaxpert-apa-demineralizata-2l"}],"activePromotion":null,"saveMe":null,"labels":[],"geniusPrice":null,"geniusUnitPricePerLabel":null,"banner":null,"discountLabel":null,"geniusDiscountLabel":null,"badge":null},{"code":"100111039","variantCode":"100111039","name":"Soluție spray pentru dezghețat auto -30°C + racletă 750ml","slug":"100111039-dr-marcus-solutie-spray-pentru-dezghetat-auto-30degc-racleta-750ml","unitPriceLabel":"17,9 Lei/buc","brand":"Dr. MARCUS","brandCode":"1848","brandFilterCode":"dr-marcus-b1852","sku":"100111039","price":17.9,"originalPrice":null,"currencyCode":"RON","currency":"Lei","image":{"thumbnail":{"default":"https://cdn.freshful.ro/media/cache/sylius_shop_product_thumbnail/aa/83/d142969c7c003a5d065a20ab2ba2.jpg"},"large":{"default":"https://cdn.freshful.ro/media/cache/freshful_large/aa/83/d142969c7c003a5d065a20ab2ba2.jpg"},"extralarge":{"default":"https://cdn.freshful.ro/media/cache/sylius_shop_product_original/aa/83/d142969c7c003a5d065a20ab2ba2.jpg"}},"label":null,"tags":[],"isAvailable":true,"maxAvailableQuantity":100,"maxAllowedQuantity":100,"breadcrumbs":[{"code":"14","name":"Casă și agrement","slug":"14-casa-si-agrement"},{"code":"1401","name":"Bricolaj și auto","slug":"1401-bricolaj-si-auto"},{"code":"140106","name":"Lichid de parbriz și alte soluții","slug":"140106-lichid-parbirz-si-alte-solutii"},{"code":"100111039","name":"Soluție spray pentru dezghețat auto -30°C + racletă 750ml","slug":"100111039-dr-marcus-solutie-spray-pentru-dezghetat-auto-30degc-racleta-750ml"}],"activePromotion":null,"saveMe":null,"labels":[],"geniusPrice":null,"geniusUnitPricePerLabel":null,"banner":null,"discountLabel":null,"geniusDiscountLabel":null,"badge":null},{"code":"100098147","variantCode":"100098147","name":"Lichid degivrare parbriz -20°C JetXpert 4l","slug":"100098147-romtec-lichid-degivrare-parbriz-20degc-jetxpert-4l","unitPriceLabel":"9,98 Lei/l","brand":"Romtec","brandCode":"1640","brandFilterCode":"romtec-b1644","sku":"100098147","price":39.9,"originalPrice":null,"currencyCode":"RON","currency":"Lei","image":{"thumbnail":{"default":"https://cdn.freshful.ro/media/cache/sylius_shop_product_thumbnail/96/74/89f8b9e0e165a1ea5291c4df9354.jpg"},"large":{"default":"https://cdn.freshful.ro/media/cache/freshful_large/96/74/89f8b9e0e165a1ea5291c4df9354.jpg"},"extralarge":{"default":"https://cdn.freshful.ro/media/cache/sylius_shop_product_original/96/74/89f8b9e0e165a1ea5291c4df9354.jpg"}},"label":null,"tags":[],"isAvailable":true,"maxAvailableQuantity":58,"maxAllowedQuantity":100,"breadcrumbs":[{"code":"14","name":"Casă și agrement","slug":"14-casa-si-agrement"},{"code":"1401","name":"Bricolaj și auto","slug":"1401-bricolaj-si-auto"},{"code":"140106","name":"Lichid de parbriz și alte soluții","slug":"140106-lichid-parbirz-si-alte-solutii"},{"code":"100098147","name":"Lichid degivrare parbriz -20°C JetXpert 4l","slug":"100098147-romtec-lichid-degivrare-parbriz-20degc-jetxpert-4l"}],"activePromotion":null,"saveMe":null,"labels":[],"geniusPrice":null,"geniusUnitPricePerLabel":null,"banner":null,"discountLabel":null,"geniusDiscountLabel":null,"badge":null},{"code":"100098116","variantCode":"100098116","name":"Șervețele umede auto bord 42 buc","slug":"100098116-expert-wipes-servetele-umede-auto-bord-42-buc","unitPriceLabel":"","brand":"Expert Wipes","brandCode":"1635","brandFilterCode":"expert-wipes-b1639","sku":"100098116","price":8.69,"originalPrice":null,"currencyCode":"RON","currency":"Lei","image":{"thumbnail":{"default":"https://cdn.freshful.ro/media/cache/sylius_shop_product_thumbnail/98/91/16cd69c7034daedb7743c240ebc4.jpg"},"large":{"default":"https://cdn.freshful.ro/media/cache/freshful_large/98/91/16cd69c7034daedb7743c240ebc4.jpg"},"extralarge":{"default":"https://cdn.freshful.ro/media/cache/sylius_shop_product_original/98/91/16cd69c7034daedb7743c240ebc4.jpg"}},"label":null,"tags":[],"isAvailable":true,"maxAvailableQuantity":29,"maxAllowedQuantity":100,"breadcrumbs":[{"code":"14","name":"Casă și agrement","slug":"14-casa-si-agrement"},{"code":"1401","name":"Bricolaj și auto","slug":"1401-bricolaj-si-auto"},{"code":"140106","name":"Lichid de parbriz și alte soluții","slug":"140106-lichid-parbirz-si-alte-solutii"},{"code":"100098116","name":"Șervețele umede auto bord 42 buc","slug":"100098116-expert-wipes-servetele-umede-auto-bord-42-buc"}],"activePromotion":null,"saveMe":null,"labels":[],"geniusPrice":null,"geniusUnitPricePerLabel":null,"banner":null,"discountLabel":null,"geniusDiscountLabel":null,"badge":null},{"code":"100149684","variantCode":"100149684","name":"Racletă gheață 95x115x120mm","slug":"100149684-no-brand-racleta-gheata-95x115x120mm","unitPriceLabel":"4,99 Lei/buc","brand":null,"brandCode":null,"brandFilterCode":"no-brand-b83","sku":"100149684","price":4.99,"originalPrice":null,"currencyCode":"RON","currency":"Lei","image":{"thumbnail":{"default":"https://cdn.freshful.ro/media/cache/sylius_shop_product_thumbnail/1f/f6/2ba44e9c268600fd03c4da1b7005.jpg"},"large":{"default":"https://cdn.freshful.ro/media/cache/freshful_large/1f/f6/2ba44e9c268600fd03c4da1b7005.jpg"},"extralarge":{"default":"https://cdn.freshful.ro/media/cache/sylius_shop_product_original/1f/f6/2ba44e9c268600fd03c4da1b7005.jpg"}},"label":null,"tags":[],"isAvailable":true,"maxAvailableQuantity":41,"maxAllowedQuantity":100,"breadcrumbs":[{"code":"14","name":"Casă și agrement","slug":"14-casa-si-agrement"},{"code":"1401","name":"Bricolaj și auto","slug":"1401-bricolaj-si-auto"},{"code":"140106","name":"Lichid de parbriz și alte soluții","slug":"140106-lichid-parbirz-si-alte-solutii"},{"code":"100149684","name":"Racletă gheață 95x115x120mm","slug":"100149684-no-brand-racleta-gheata-95x115x120mm"}],"activePromotion":null,"saveMe":null,"labels":[],"geniusPrice":null,"geniusUnitPricePerLabel":null,"banner":null,"discountLabel":null,"geniusDiscountLabel":null,"badge":null},{"code":"100107922","variantCode":"100107922","name":"Lubrifiant multifuncțional 200ml","slug":"100107922-wd-40-lubrifiant-multifunctional-200ml","unitPriceLabel":"","brand":"WD-40","brandCode":"1814","brandFilterCode":"wd-40-b1818","sku":"100107922","price":27.59,"originalPrice":null,"currencyCode":"RON","currency":"Lei","image":{"thumbnail":{"default":"https://cdn.freshful.ro/media/cache/sylius_shop_product_thumbnail/60/64/5d1cff213423ae0d20400ac84c53.jpg"},"large":{"default":"https://cdn.freshful.ro/media/cache/freshful_large/60/64/5d1cff213423ae0d20400ac84c53.jpg"},"extralarge":{"default":"https://cdn.freshful.ro/media/cache/sylius_shop_product_original/60/64/5d1cff213423ae0d20400ac84c53.jpg"}},"label":null,"tags":[],"isAvailable":true,"maxAvailableQuantity":8,"maxAllowedQuantity":100,"breadcrumbs":[{"code":"14","name":"Casă și agrement","slug":"14-casa-si-agrement"},{"code":"1401","name":"Bricolaj și auto","slug":"1401-bricolaj-si-auto"},{"code":"140106","name":"Lichid de parbriz și alte soluții","slug":"140106-lichid-parbirz-si-alte-solutii"},{"code":"100107922","name":"Lubrifiant multifuncțional 200ml","slug":"100107922-wd-40-lubrifiant-multifunctional-200ml"}],"activePromotion":null,"saveMe":null,"labels":[],"geniusPrice":null,"geniusUnitPricePerLabel":null,"banner":null,"discountLabel":null,"geniusDiscountLabel":null,"badge":null},{"code":"100098117","variantCode":"100098117","name":"Șervețele umede auto tapițerie piele 42 buc","slug":"100098117-expert-wipes-servetele-umede-auto-tapiterie-piele-42-buc","unitPriceLabel":"","brand":"Expert Wipes","brandCode":"1635","brandFilterCode":"expert-wipes-b1639","sku":"100098117","price":8.69,"originalPrice":null,"currencyCode":"RON","currency":"Lei","image":{"thumbnail":{"default":"https://cdn.freshful.ro/media/cache/sylius_shop_product_thumbnail/1b/2f/6a7b7c0268e8c5b63d6f93b1fcf3.jpg"},"large":{"default":"https://cdn.freshful.ro/media/cache/freshful_large/1b/2f/6a7b7c0268e8c5b63d6f93b1fcf3.jpg"},"extralarge":{"default":"https://cdn.freshful.ro/media/cache/sylius_shop_product_original/1b/2f/6a7b7c0268e8c5b63d6f93b1fcf3.jpg"}},"label":null,"tags":[],"isAvailable":true,"maxAvailableQuantity":18,"maxAllowedQuantity":100,"breadcrumbs":[{"code":"14","name":"Casă și agrement","slug":"14-casa-si-agrement"},{"code":"1401","name":"Bricolaj și auto","slug":"1401-bricolaj-si-auto"},{"code":"140106","name":"Lichid de parbriz și alte soluții","slug":"140106-lichid-parbirz-si-alte-solutii"},{"code":"100098117","name":"Șervețele umede auto tapițerie piele 42 buc","slug":"100098117-expert-wipes-servetele-umede-auto-tapiterie-piele-42-buc"}],"activePromotion":null,"saveMe":null,"labels":[],"geniusPrice":null,"geniusUnitPricePerLabel":null,"banner":null,"discountLabel":null,"geniusDiscountLabel":null,"badge":null},{"code":"100138088","variantCode":"100138088","name":"Lichid parbriz Estival Turbo Power 4l","slug":"100138088-jetxpert-lichid-parbriz-estival-turbo-power-4l","unitPriceLabel":"5,48 Lei/l","brand":"JetXpert","brandCode":"2639","brandFilterCode":"jetxpert-b2643","sku":"100138088","price":21.9,"originalPrice":null,"currencyCode":"RON","currency":"Lei","image":{"thumbnail":{"default":"https://cdn.freshful.ro/media/cache/sylius_shop_product_thumbnail/0b/9b/9e4baa684743acb8d456ef570b12.jpg"},"large":{"default":"https://cdn.freshful.ro/media/cache/freshful_large/0b/9b/9e4baa684743acb8d456ef570b12.jpg"},"extralarge":{"default":"https://cdn.freshful.ro/media/cache/sylius_shop_product_original/0b/9b/9e4baa684743acb8d456ef570b12.jpg"}},"label":null,"tags":[],"isAvailable":true,"maxAvailableQuantity":100,"maxAllowedQuantity":100,"breadcrumbs":[{"code":"14","name":"Casă și agrement","slug":"14-casa-si-agrement"},{"code":"1401","name":"Bricolaj și auto","slug":"1401-bricolaj-si-auto"},{"code":"140106","name":"Lichid de parbriz și alte soluții","slug":"140106-lichid-parbirz-si-alte-solutii"},{"code":"100138088","name":"Lichid parbriz Estival Turbo Power 4l","slug":"100138088-jetxpert-lichid-parbriz-estival-turbo-power-4l"}],"activePromotion":null,"saveMe":null,"labels":[],"geniusPrice":null,"geniusUnitPricePerLabel":null,"banner":null,"discountLabel":null,"geniusDiscountLabel":null,"badge":null},{"code":"100111034","variantCode":"100111034","name":"Șervețele umede auto pentru curățat bordul (Ocean) 30buc","slug":"100111034-dr-marcus-servetele-umede-auto-pentru-curatat-bordul-ocean-30buc","unitPriceLabel":"","brand":"Dr. MARCUS","brandCode":"1848","brandFilterCode":"dr-marcus-b1852","sku":"100111034","price":16.9,"originalPrice":null,"currencyCode":"RON","currency":"Lei","image":{"thumbnail":{"default":"https://cdn.freshful.ro/media/cache/sylius_shop_product_thumbnail/ff/6a/33475bc94b3501351dded5c338d5.jpg"},"large":{"default":"https://cdn.freshful.ro/media/cache/freshful_large/ff/6a/33475bc94b3501351dded5c338d5.jpg"},"extralarge":{"default":"https://cdn.freshful.ro/media/cache/sylius_shop_product_original/ff/6a/33475bc94b3501351dded5c338d5.jpg"}},"label":null,"tags":[],"isAvailable":true,"maxAvailableQuantity":39,"maxAllowedQuantity":100,"breadcrumbs":[{"code":"14","name":"Casă și agrement","slug":"14-casa-si-agrement"},{"code":"1401","name":"Bricolaj și auto","slug":"1401-bricolaj-si-auto"},{"code":"140106","name":"Lichid de parbriz și alte soluții","slug":"140106-lichid-parbirz-si-alte-solutii"},{"code":"100111034","name":"Șervețele umede auto pentru curățat bordul (Ocean) 30buc","slug":"100111034-dr-marcus-servetele-umede-auto-pentru-curatat-bordul-ocean-30buc"}],"activePromotion":null,"saveMe":null,"labels":[],"geniusPrice":null,"geniusUnitPricePerLabel":null,"banner":null,"discountLabel":null,"geniusDiscountLabel":null,"badge":null},{"code":"100111036","variantCode":"100111036","name":"Șervețele umede auto pentru curățat tapițerii piele 30 buc","slug":"100111036-dr-marcus-servetele-umede-auto-pentru-curatat-tapiterii-piele-30-buc","unitPriceLabel":"","brand":"Dr. MARCUS","brandCode":"1848","brandFilterCode":"dr-marcus-b1852","sku":"100111036","price":16.9,"originalPrice":null,"currencyCode":"RON","currency":"Lei","image":{"thumbnail":{"default":"https://cdn.freshful.ro/media/cache/sylius_shop_product_thumbnail/57/23/3913fcf7625280b7c3d0980d1863.jpg"},"large":{"default":"https://cdn.freshful.ro/media/cache/freshful_large/57/23/3913fcf7625280b7c3d0980d1863.jpg"},"extralarge":{"default":"https://cdn.freshful.ro/media/cache/sylius_shop_product_original/57/23/3913fcf7625280b7c3d0980d1863.jpg"}},"label":null,"tags":[],"isAvailable":true,"maxAvailableQuantity":34,"maxAllowedQuantity":100,"breadcrumbs":[{"code":"14","name":"Casă și agrement","slug":"14-casa-si-agrement"},{"code":"1401","name":"Bricolaj și auto","slug":"1401-bricolaj-si-auto"},{"code":"140106","name":"Lichid de parbriz și alte soluții","slug":"140106-lichid-parbirz-si-alte-solutii"},{"code":"100111036","name":"Șervețele umede auto pentru curățat tapițerii piele 30 buc","slug":"100111036-dr-marcus-servetele-umede-auto-pentru-curatat-tapiterii-piele-30-buc"}],"activePromotion":null,"saveMe":null,"labels":[],"geniusPrice":null,"geniusUnitPricePerLabel":null,"banner":null,"discountLabel":null,"geniusDiscountLabel":null,"badge":null}],"filters":{"countSelected":0,"items":[{"code":"brand","name":"Brand","countSelected":0,"values":[{"code":"aquaxpert-b2642","name":"AquaXpert","isSelected":false,"count":1},{"code":"bison-b1819","name":"Bison","isSelected":false,"count":1},{"code":"cerva-b1816","name":"Cerva","isSelected":false,"count":5},{"code":"dr-marcus-b1852","name":"Dr. MARCUS","isSelected":false,"count":4},{"code":"dupli-color-b1817","name":"Dupli-color","isSelected":false,"count":7},{"code":"expert-wipes-b1639","name":"Expert Wipes","isSelected":false,"count":2},{"code":"jetxpert-b2643","name":"JetXpert","isSelected":false,"count":1},{"code":"romtec-b1644","name":"Romtec","isSelected":false,"count":4},{"code":"wd-40-b1818","name":"WD-40","isSelected":false,"count":3}]}]},"orderBy":[{"field":"price","direction":"asc","name":"Preț crescător","isSelected":false},{"field":"price","direction":"desc","name":"Preț descrescător","isSelected":false},{"field":"popularity","direction":"desc","name":"Cele mai populare","isSelected":true},{"field":"category","direction":"asc","name":"Categorie","isSelected":false}],"metaTitle":"Lichid de parbriz și alte soluții - Gamă variată","metaDescription":"Vrei Lichid de parbriz și alte soluții? Alege dintr-o gamă variată. Comanzi simplu și ai livrare rapidă, calitate și prospețime. Hai pe Freshful.ro","metaKeywords":null,"banners":[]}}