{"type":"subcategory","payload":{"analyticsListId":"category_1401-bricolaj-si-auto","analyticsListName":"Category - Bricolaj și auto","name":"Bricolaj și auto","slug":"1401-bricolaj-si-auto","image":null,"breadcrumbs":[{"code":"14","name":"Casă și agrement","slug":"14-casa-si-agrement"},{"code":"1401","name":"Bricolaj și auto","slug":"1401-bricolaj-si-auto"}],"slots":[],"page":1,"limit":10,"pages":24,"count":240,"siblings":[{"name":"Bricolaj și auto","slug":"1401-bricolaj-si-auto","selected":true},{"name":"Grădină","slug":"1402-gradina","selected":false},{"name":"Articole de menaj","slug":"1403-articole-de-menaj","selected":false},{"name":"Textile pentru casă","slug":"1404-textile-de-casa","selected":false},{"name":"Birotică și papetărie","slug":"1405-birotica-si-papetarie","selected":false},{"name":"Jucării","slug":"1406-jucarii","selected":false},{"name":"Accesorii IT&C","slug":"1408-hitech-audio-video","selected":false},{"name":"Textile și accesorii","slug":"1410-textile-basic","selected":false}],"children":[{"name":"Toate produsele","slug":"1401-bricolaj-si-auto","selected":true},{"name":"Baterii","slug":"140101-baterii","selected":false},{"name":"Becuri","slug":"140102-becuri","selected":false},{"name":"Prelungitoare","slug":"140103-prelungitoare","selected":false},{"name":"Lanterne și lămpi","slug":"140104-lanterne-si-lampi","selected":false},{"name":"Adezivi și benzi adezive","slug":"140105-adezivi-si-benzi-adezive","selected":false},{"name":"Lichid de parbriz și alte soluții","slug":"140106-lichid-parbirz-si-alte-solutii","selected":false},{"name":"Cosmetică și îngrijire auto","slug":"140108-cosmetica-si-ingrijire-auto","selected":false},{"name":"Odorizante auto","slug":"140109-odorizant-auto","selected":false}],"products":[{"code":"100110977","variantCode":"100110977","name":"Odorizant auto Cherry 42g","slug":"100110977-paradise-odorizant-auto-cherry-42g","unitPriceLabel":"","brand":"Paradise","brandCode":"1847","brandFilterCode":"paradise-b1851","sku":"100110977","price":16.18,"originalPrice":24.9,"currencyCode":"RON","currency":"Lei","image":{"thumbnail":{"default":"https://cdn.freshful.ro/media/cache/sylius_shop_product_thumbnail/16/49/7594b3d49524a98b19f1d862f9fe.jpg"},"large":{"default":"https://cdn.freshful.ro/media/cache/freshful_large/16/49/7594b3d49524a98b19f1d862f9fe.jpg"},"extralarge":{"default":"https://cdn.freshful.ro/media/cache/sylius_shop_product_original/16/49/7594b3d49524a98b19f1d862f9fe.jpg"}},"label":{"text":"-35%","backgroundColor":"#FF9903","textColor":"#FFFFFF"},"tags":[],"isAvailable":true,"maxAvailableQuantity":2,"maxAllowedQuantity":100,"breadcrumbs":[{"code":"14","name":"Casă și agrement","slug":"14-casa-si-agrement"},{"code":"1401","name":"Bricolaj și auto","slug":"1401-bricolaj-si-auto"},{"code":"140109","name":"Odorizante auto","slug":"140109-odorizant-auto"},{"code":"100110977","name":"Odorizant auto Cherry 42g","slug":"100110977-paradise-odorizant-auto-cherry-42g"}],"activePromotion":{"code":"oferte-dph-21feb-8mar23","name":"Preț redus","targetQuantity":null},"saveMe":null,"labels":[{"type":"v1","items":[{"text":"-35%","backgroundColor":"#FF9903","textColor":"#FFFFFF"}]}],"geniusPrice":null,"geniusUnitPricePerLabel":null,"banner":{"text":"Super preț","textColor":"#FF0000","bgColor":"#FFF2EC","icon":null,"link":"https://www.freshful.ro/oferte/oferte-dph-21feb-8mar23","type":"promo","analyticsEventType":"select_promotion","analyticsEventPayload":{"promotion_id":"oferte-dph-21feb-8mar23","promotion_name":"Curățenie și îngrijire personală"}},"discountLabel":"Economisești 35%","geniusDiscountLabel":null,"badge":null},{"code":"100111020","variantCode":"100111020","name":"Odorizant auto Ocean Brave 75ml","slug":"100111020-dr-marcus-odorizant-auto-ocean-brave-75ml","unitPriceLabel":"","brand":"Dr. MARCUS","brandCode":"1848","brandFilterCode":"dr-marcus-b1852","sku":"100111020","price":7.85,"originalPrice":12.09,"currencyCode":"RON","currency":"Lei","image":{"thumbnail":{"default":"https://cdn.freshful.ro/media/cache/sylius_shop_product_thumbnail/0b/1e/b78579efdce70906be18874f858d.jpg"},"large":{"default":"https://cdn.freshful.ro/media/cache/freshful_large/0b/1e/b78579efdce70906be18874f858d.jpg"},"extralarge":{"default":"https://cdn.freshful.ro/media/cache/sylius_shop_product_original/0b/1e/b78579efdce70906be18874f858d.jpg"}},"label":{"text":"-35%","backgroundColor":"#FF9903","textColor":"#FFFFFF"},"tags":[],"isAvailable":true,"maxAvailableQuantity":2,"maxAllowedQuantity":100,"breadcrumbs":[{"code":"14","name":"Casă și agrement","slug":"14-casa-si-agrement"},{"code":"1401","name":"Bricolaj și auto","slug":"1401-bricolaj-si-auto"},{"code":"140109","name":"Odorizante auto","slug":"140109-odorizant-auto"},{"code":"100111020","name":"Odorizant auto Ocean Brave 75ml","slug":"100111020-dr-marcus-odorizant-auto-ocean-brave-75ml"}],"activePromotion":{"code":"oferte-dph-21feb-8mar23","name":"Preț redus","targetQuantity":null},"saveMe":null,"labels":[{"type":"v1","items":[{"text":"-35%","backgroundColor":"#FF9903","textColor":"#FFFFFF"}]}],"geniusPrice":null,"geniusUnitPricePerLabel":null,"banner":{"text":"Super preț","textColor":"#FF0000","bgColor":"#FFF2EC","icon":null,"link":"https://www.freshful.ro/oferte/oferte-dph-21feb-8mar23","type":"promo","analyticsEventType":"select_promotion","analyticsEventPayload":{"promotion_id":"oferte-dph-21feb-8mar23","promotion_name":"Curățenie și îngrijire personală"}},"discountLabel":"Economisești 35%","geniusDiscountLabel":null,"badge":null},{"code":"100110991","variantCode":"100110991","name":"Odorizant mașină Aqua Spa 10ml","slug":"100110991-dr-marcus-odorizant-masina-aqua-spa-10ml","unitPriceLabel":"","brand":"Dr. MARCUS","brandCode":"1848","brandFilterCode":"dr-marcus-b1852","sku":"100110991","price":18.78,"originalPrice":28.9,"currencyCode":"RON","currency":"Lei","image":{"thumbnail":{"default":"https://cdn.freshful.ro/media/cache/sylius_shop_product_thumbnail/b3/30/ca3c868258d47b95a96b23c6916f.jpg"},"large":{"default":"https://cdn.freshful.ro/media/cache/freshful_large/b3/30/ca3c868258d47b95a96b23c6916f.jpg"},"extralarge":{"default":"https://cdn.freshful.ro/media/cache/sylius_shop_product_original/b3/30/ca3c868258d47b95a96b23c6916f.jpg"}},"label":{"text":"-35%","backgroundColor":"#FF9903","textColor":"#FFFFFF"},"tags":[],"isAvailable":true,"maxAvailableQuantity":1,"maxAllowedQuantity":100,"breadcrumbs":[{"code":"14","name":"Casă și agrement","slug":"14-casa-si-agrement"},{"code":"1401","name":"Bricolaj și auto","slug":"1401-bricolaj-si-auto"},{"code":"140109","name":"Odorizante auto","slug":"140109-odorizant-auto"},{"code":"100110991","name":"Odorizant mașină Aqua Spa 10ml","slug":"100110991-dr-marcus-odorizant-masina-aqua-spa-10ml"}],"activePromotion":{"code":"oferte-dph-21feb-8mar23","name":"Preț redus","targetQuantity":null},"saveMe":null,"labels":[{"type":"v1","items":[{"text":"-35%","backgroundColor":"#FF9903","textColor":"#FFFFFF"}]}],"geniusPrice":null,"geniusUnitPricePerLabel":null,"banner":{"text":"Super preț","textColor":"#FF0000","bgColor":"#FFF2EC","icon":null,"link":"https://www.freshful.ro/oferte/oferte-dph-21feb-8mar23","type":"promo","analyticsEventType":"select_promotion","analyticsEventPayload":{"promotion_id":"oferte-dph-21feb-8mar23","promotion_name":"Curățenie și îngrijire personală"}},"discountLabel":"Economisești 35%","geniusDiscountLabel":null,"badge":null},{"code":"100138087","variantCode":"100138087","name":"Apă demineralizată 2l","slug":"100138087-aquaxpert-apa-demineralizata-2l","unitPriceLabel":"5 Lei/l","brand":"AquaXpert","brandCode":"2638","brandFilterCode":"aquaxpert-b2642","sku":"100138087","price":9.99,"originalPrice":null,"currencyCode":"RON","currency":"Lei","image":{"thumbnail":{"default":"https://cdn.freshful.ro/media/cache/sylius_shop_product_thumbnail/2f/b4/ab725f2e88c66fb17cb0485febd1.jpg"},"large":{"default":"https://cdn.freshful.ro/media/cache/freshful_large/2f/b4/ab725f2e88c66fb17cb0485febd1.jpg"},"extralarge":{"default":"https://cdn.freshful.ro/media/cache/sylius_shop_product_original/2f/b4/ab725f2e88c66fb17cb0485febd1.jpg"}},"label":null,"tags":[],"isAvailable":true,"maxAvailableQuantity":100,"maxAllowedQuantity":100,"breadcrumbs":[{"code":"14","name":"Casă și agrement","slug":"14-casa-si-agrement"},{"code":"1401","name":"Bricolaj și auto","slug":"1401-bricolaj-si-auto"},{"code":"140106","name":"Lichid de parbriz și alte soluții","slug":"140106-lichid-parbirz-si-alte-solutii"},{"code":"100138087","name":"Apă demineralizată 2l","slug":"100138087-aquaxpert-apa-demineralizata-2l"}],"activePromotion":null,"saveMe":null,"labels":[],"geniusPrice":null,"geniusUnitPricePerLabel":null,"banner":null,"discountLabel":null,"geniusDiscountLabel":null,"badge":null},{"code":"100117816","variantCode":"100117816","name":"Baterii alcaline AA, 8 buc","slug":"100117816-varta-baterii-alcaline-aa-8-buc","unitPriceLabel":"","brand":"Varta","brandCode":"1980","brandFilterCode":"varta-b1984","sku":"100117816","price":19.99,"originalPrice":null,"currencyCode":"RON","currency":"Lei","image":{"thumbnail":{"default":"https://cdn.freshful.ro/media/cache/sylius_shop_product_thumbnail/d6/b6/e774e4ea792fd65abbab87f3a134.jpg"},"large":{"default":"https://cdn.freshful.ro/media/cache/freshful_large/d6/b6/e774e4ea792fd65abbab87f3a134.jpg"},"extralarge":{"default":"https://cdn.freshful.ro/media/cache/sylius_shop_product_original/d6/b6/e774e4ea792fd65abbab87f3a134.jpg"}},"label":null,"tags":[],"isAvailable":true,"maxAvailableQuantity":100,"maxAllowedQuantity":100,"breadcrumbs":[{"code":"14","name":"Casă și agrement","slug":"14-casa-si-agrement"},{"code":"1401","name":"Bricolaj și auto","slug":"1401-bricolaj-si-auto"},{"code":"140101","name":"Baterii","slug":"140101-baterii"},{"code":"100117816","name":"Baterii alcaline AA, 8 buc","slug":"100117816-varta-baterii-alcaline-aa-8-buc"}],"activePromotion":null,"saveMe":null,"labels":[],"geniusPrice":null,"geniusUnitPricePerLabel":null,"banner":null,"discountLabel":null,"geniusDiscountLabel":null,"badge":null},{"code":"100117814","variantCode":"100117814","name":"Baterii alcaline AAA, 8 buc","slug":"100117814-varta-baterii-alcaline-aaa-8-buc","unitPriceLabel":"","brand":"Varta","brandCode":"1980","brandFilterCode":"varta-b1984","sku":"100117814","price":19.99,"originalPrice":null,"currencyCode":"RON","currency":"Lei","image":{"thumbnail":{"default":"https://cdn.freshful.ro/media/cache/sylius_shop_product_thumbnail/99/33/e8f2bf3633409456db69d62a4d01.jpg"},"large":{"default":"https://cdn.freshful.ro/media/cache/freshful_large/99/33/e8f2bf3633409456db69d62a4d01.jpg"},"extralarge":{"default":"https://cdn.freshful.ro/media/cache/sylius_shop_product_original/99/33/e8f2bf3633409456db69d62a4d01.jpg"}},"label":null,"tags":[],"isAvailable":true,"maxAvailableQuantity":96,"maxAllowedQuantity":100,"breadcrumbs":[{"code":"14","name":"Casă și agrement","slug":"14-casa-si-agrement"},{"code":"1401","name":"Bricolaj și auto","slug":"1401-bricolaj-si-auto"},{"code":"140101","name":"Baterii","slug":"140101-baterii"},{"code":"100117814","name":"Baterii alcaline AAA, 8 buc","slug":"100117814-varta-baterii-alcaline-aaa-8-buc"}],"activePromotion":null,"saveMe":null,"labels":[],"geniusPrice":null,"geniusUnitPricePerLabel":null,"banner":null,"discountLabel":null,"geniusDiscountLabel":null,"badge":null},{"code":"100117815","variantCode":"100117815","name":"Baterii alcaline AA, 4 buc","slug":"100117815-varta-baterii-alcaline-aa-4-buc","unitPriceLabel":"","brand":"Varta","brandCode":"1980","brandFilterCode":"varta-b1984","sku":"100117815","price":9.99,"originalPrice":null,"currencyCode":"RON","currency":"Lei","image":{"thumbnail":{"default":"https://cdn.freshful.ro/media/cache/sylius_shop_product_thumbnail/17/4a/52ba837aecce9b1abf35abe11216.jpg"},"large":{"default":"https://cdn.freshful.ro/media/cache/freshful_large/17/4a/52ba837aecce9b1abf35abe11216.jpg"},"extralarge":{"default":"https://cdn.freshful.ro/media/cache/sylius_shop_product_original/17/4a/52ba837aecce9b1abf35abe11216.jpg"}},"label":null,"tags":[],"isAvailable":true,"maxAvailableQuantity":100,"maxAllowedQuantity":100,"breadcrumbs":[{"code":"14","name":"Casă și agrement","slug":"14-casa-si-agrement"},{"code":"1401","name":"Bricolaj și auto","slug":"1401-bricolaj-si-auto"},{"code":"140101","name":"Baterii","slug":"140101-baterii"},{"code":"100117815","name":"Baterii alcaline AA, 4 buc","slug":"100117815-varta-baterii-alcaline-aa-4-buc"}],"activePromotion":null,"saveMe":null,"labels":[],"geniusPrice":null,"geniusUnitPricePerLabel":null,"banner":null,"discountLabel":null,"geniusDiscountLabel":null,"badge":null},{"code":"100111039","variantCode":"100111039","name":"Soluție spray pentru dezghețat auto -30°C + racletă 750ml","slug":"100111039-dr-marcus-solutie-spray-pentru-dezghetat-auto-30degc-racleta-750ml","unitPriceLabel":"17,9 Lei/buc","brand":"Dr. MARCUS","brandCode":"1848","brandFilterCode":"dr-marcus-b1852","sku":"100111039","price":17.9,"originalPrice":null,"currencyCode":"RON","currency":"Lei","image":{"thumbnail":{"default":"https://cdn.freshful.ro/media/cache/sylius_shop_product_thumbnail/aa/83/d142969c7c003a5d065a20ab2ba2.jpg"},"large":{"default":"https://cdn.freshful.ro/media/cache/freshful_large/aa/83/d142969c7c003a5d065a20ab2ba2.jpg"},"extralarge":{"default":"https://cdn.freshful.ro/media/cache/sylius_shop_product_original/aa/83/d142969c7c003a5d065a20ab2ba2.jpg"}},"label":null,"tags":[],"isAvailable":true,"maxAvailableQuantity":100,"maxAllowedQuantity":100,"breadcrumbs":[{"code":"14","name":"Casă și agrement","slug":"14-casa-si-agrement"},{"code":"1401","name":"Bricolaj și auto","slug":"1401-bricolaj-si-auto"},{"code":"140106","name":"Lichid de parbriz și alte soluții","slug":"140106-lichid-parbirz-si-alte-solutii"},{"code":"100111039","name":"Soluție spray pentru dezghețat auto -30°C + racletă 750ml","slug":"100111039-dr-marcus-solutie-spray-pentru-dezghetat-auto-30degc-racleta-750ml"}],"activePromotion":null,"saveMe":null,"labels":[],"geniusPrice":null,"geniusUnitPricePerLabel":null,"banner":null,"discountLabel":null,"geniusDiscountLabel":null,"badge":null},{"code":"100117813","variantCode":"100117813","name":"Baterii alcaline AAA R3, 4 buc","slug":"100117813-varta-baterii-alcaline-aaa-r3-4-buc","unitPriceLabel":"","brand":"Varta","brandCode":"1980","brandFilterCode":"varta-b1984","sku":"100117813","price":8.99,"originalPrice":null,"currencyCode":"RON","currency":"Lei","image":{"thumbnail":{"default":"https://cdn.freshful.ro/media/cache/sylius_shop_product_thumbnail/00/5e/24abbd821d620e52744869f8fa7b.jpg"},"large":{"default":"https://cdn.freshful.ro/media/cache/freshful_large/00/5e/24abbd821d620e52744869f8fa7b.jpg"},"extralarge":{"default":"https://cdn.freshful.ro/media/cache/sylius_shop_product_original/00/5e/24abbd821d620e52744869f8fa7b.jpg"}},"label":null,"tags":[],"isAvailable":true,"maxAvailableQuantity":72,"maxAllowedQuantity":100,"breadcrumbs":[{"code":"14","name":"Casă și agrement","slug":"14-casa-si-agrement"},{"code":"1401","name":"Bricolaj și auto","slug":"1401-bricolaj-si-auto"},{"code":"140101","name":"Baterii","slug":"140101-baterii"},{"code":"100117813","name":"Baterii alcaline AAA R3, 4 buc","slug":"100117813-varta-baterii-alcaline-aaa-r3-4-buc"}],"activePromotion":null,"saveMe":null,"labels":[],"geniusPrice":null,"geniusUnitPricePerLabel":null,"banner":null,"discountLabel":null,"geniusDiscountLabel":null,"badge":null},{"code":"100117797","variantCode":"100117797","name":"Baterii buton litiu CR2032 3V 230mAh, 2 buc","slug":"100117797-varta-baterii-buton-litiu-cr2032-3v-230mah-2-buc","unitPriceLabel":"","brand":"Varta","brandCode":"1980","brandFilterCode":"varta-b1984","sku":"100117797","price":13.19,"originalPrice":null,"currencyCode":"RON","currency":"Lei","image":{"thumbnail":{"default":"https://cdn.freshful.ro/media/cache/sylius_shop_product_thumbnail/71/1f/4d713cb32844873876b05bfecde9.jpg"},"large":{"default":"https://cdn.freshful.ro/media/cache/freshful_large/71/1f/4d713cb32844873876b05bfecde9.jpg"},"extralarge":{"default":"https://cdn.freshful.ro/media/cache/sylius_shop_product_original/71/1f/4d713cb32844873876b05bfecde9.jpg"}},"label":null,"tags":[],"isAvailable":true,"maxAvailableQuantity":91,"maxAllowedQuantity":100,"breadcrumbs":[{"code":"14","name":"Casă și agrement","slug":"14-casa-si-agrement"},{"code":"1401","name":"Bricolaj și auto","slug":"1401-bricolaj-si-auto"},{"code":"140101","name":"Baterii","slug":"140101-baterii"},{"code":"100117797","name":"Baterii buton litiu CR2032 3V 230mAh, 2 buc","slug":"100117797-varta-baterii-buton-litiu-cr2032-3v-230mah-2-buc"}],"activePromotion":null,"saveMe":null,"labels":[],"geniusPrice":null,"geniusUnitPricePerLabel":null,"banner":null,"discountLabel":null,"geniusDiscountLabel":null,"badge":null}],"filters":{"countSelected":0,"items":[{"code":"promotion","name":"Promoții","countSelected":0,"values":[{"code":"oferte-dph-21feb-8mar23","name":"Curățenie și îngrijire personală","isSelected":false,"count":3}]},{"code":"brand","name":"Brand","countSelected":0,"values":[{"code":"anker-b2465","name":"Anker","isSelected":false,"count":1},{"code":"aquaxpert-b2642","name":"AquaXpert","isSelected":false,"count":1},{"code":"bison-b1819","name":"Bison","isSelected":false,"count":13},{"code":"cerva-b1816","name":"Cerva","isSelected":false,"count":5},{"code":"dr-marcus-b1852","name":"Dr. MARCUS","isSelected":false,"count":16},{"code":"dupli-color-b1817","name":"Dupli-color","isSelected":false,"count":7},{"code":"duracell-b1996","name":"Duracell","isSelected":false,"count":22},{"code":"energizer-b1872","name":"Energizer","isSelected":false,"count":31},{"code":"expert-wipes-b1639","name":"Expert Wipes","isSelected":false,"count":2},{"code":"jetxpert-b2643","name":"JetXpert","isSelected":false,"count":1},{"code":"little-joe-b1850","name":"Little Joe","isSelected":false,"count":10},{"code":"paloma-b1853","name":"Paloma","isSelected":false,"count":22},{"code":"paradise-b1851","name":"Paradise","isSelected":false,"count":9},{"code":"philips-b1792","name":"Philips","isSelected":false,"count":23},{"code":"procolor-b2464","name":"Procolor","isSelected":false,"count":1},{"code":"romtec-b1644","name":"Romtec","isSelected":false,"count":4},{"code":"starke-b2193","name":"Starke","isSelected":false,"count":2},{"code":"super-touch-b1643","name":"Super Touch","isSelected":false,"count":1},{"code":"uhu-b1820","name":"UHU","isSelected":false,"count":2},{"code":"varta-b1984","name":"Varta","isSelected":false,"count":47},{"code":"wd-40-b1818","name":"WD-40","isSelected":false,"count":3},{"code":"wunder-baum-b1821","name":"Wunder-Baum","isSelected":false,"count":16}]}]},"orderBy":[{"field":"price","direction":"asc","name":"Preț crescător","isSelected":false},{"field":"price","direction":"desc","name":"Preț descrescător","isSelected":false},{"field":"popularity","direction":"desc","name":"Cele mai populare","isSelected":true},{"field":"category","direction":"asc","name":"Categorie","isSelected":false}],"metaTitle":"Bricolaj și auto - Gamă variată","metaDescription":"Vrei Bricolaj și auto? Alege dintr-o gamă variată. Comanzi simplu și ai livrare rapidă, calitate și prospețime. Hai pe Freshful.ro","metaKeywords":null,"banners":[]}}