{"type":"subcategory","payload":{"analyticsListId":"category_1402-gradina","analyticsListName":"Category - Grădină","name":"Grădină","slug":"1402-gradina","image":null,"breadcrumbs":[{"code":"14","name":"Casă și agrement","slug":"14-casa-si-agrement"},{"code":"1402","name":"Grădină","slug":"1402-gradina"}],"slots":[],"page":1,"limit":10,"pages":16,"count":151,"siblings":[{"name":"Bricolaj și auto","slug":"1401-bricolaj-si-auto","selected":false},{"name":"Grădină","slug":"1402-gradina","selected":true},{"name":"Articole de menaj","slug":"1403-articole-de-menaj","selected":false},{"name":"Textile pentru casă","slug":"1404-textile-de-casa","selected":false},{"name":"Birotică și papetărie","slug":"1405-birotica-si-papetarie","selected":false},{"name":"Jucării","slug":"1406-jucarii","selected":false},{"name":"Accesorii IT&C","slug":"1408-hitech-audio-video","selected":false},{"name":"Textile și accesorii","slug":"1410-textile-basic","selected":false}],"children":[{"name":"Toate produsele","slug":"1402-gradina","selected":true},{"name":"Îngrășământ și tratamente","slug":"140202-ingrasamant-si-tratamente","selected":false},{"name":"Plante și semințe","slug":"140203-plante-si-seminte","selected":false},{"name":"Cărbuni și accesorii grătar","slug":"140204-carbuni-si-accesorii-barbeque","selected":false}],"products":[{"code":"100151500","variantCode":"100151500","name":"Bulb Zambilă 7cm (floare în ghiveci)","slug":"100151500-no-brand-bulb-zambila-7cm-floare-in-ghiveci","unitPriceLabel":"5,99 Lei/buc","brand":null,"brandCode":null,"brandFilterCode":"no-brand-b83","sku":"100151500","price":5.99,"originalPrice":null,"currencyCode":"RON","currency":"Lei","image":{"thumbnail":{"default":"https://cdn.freshful.ro/media/cache/sylius_shop_product_thumbnail/92/8e/6b644b4a17f1dbe65f51993e8e01.jpg"},"large":{"default":"https://cdn.freshful.ro/media/cache/freshful_large/92/8e/6b644b4a17f1dbe65f51993e8e01.jpg"},"extralarge":{"default":"https://cdn.freshful.ro/media/cache/sylius_shop_product_original/92/8e/6b644b4a17f1dbe65f51993e8e01.jpg"}},"label":{"text":"Profită acum","backgroundColor":"#FF9903","textColor":"#FFFFFF"},"tags":[],"isAvailable":true,"maxAvailableQuantity":74,"maxAllowedQuantity":250,"breadcrumbs":[{"code":"14","name":"Casă și agrement","slug":"14-casa-si-agrement"},{"code":"1402","name":"Grădină","slug":"1402-gradina"},{"code":"140203","name":"Plante și semințe","slug":"140203-plante-si-seminte"},{"code":"100151500","name":"Bulb Zambilă 7cm (floare în ghiveci)","slug":"100151500-no-brand-bulb-zambila-7cm-floare-in-ghiveci"}],"activePromotion":{"code":"special-cosmetice-21feb-8mar23","name":"Preț avantajos","targetQuantity":null},"saveMe":null,"labels":[{"type":"v1","items":[{"text":"Profită acum","backgroundColor":"#FF9903","textColor":"#FFFFFF"}]}],"geniusPrice":null,"geniusUnitPricePerLabel":null,"banner":{"text":"Preț avantajos","textColor":"#F95510","bgColor":"#FEF1CD","icon":null,"link":"https://www.freshful.ro/oferte/special-cosmetice-21feb-8mar23","type":"promo","analyticsEventType":"select_promotion","analyticsEventPayload":{"promotion_id":"special-cosmetice-21feb-8mar23","promotion_name":"Cadouri pentru sărbătoritele lunii martie"}},"discountLabel":null,"geniusDiscountLabel":null,"badge":null},{"code":"100133957","variantCode":"100133957","name":"Trandafir în ghiveci 10.5cm, flori în ghiveci","slug":"100133957-no-brand-trandafir-in-ghiveci-10-5cm-flori-in-ghiveci","unitPriceLabel":"","brand":null,"brandCode":null,"brandFilterCode":"no-brand-b83","sku":"100133957","price":24.99,"originalPrice":null,"currencyCode":"RON","currency":"Lei","image":{"thumbnail":{"default":"https://cdn.freshful.ro/media/cache/sylius_shop_product_thumbnail/9f/10/df3441775906b12cecb8d16e0c9a.jpg"},"large":{"default":"https://cdn.freshful.ro/media/cache/freshful_large/9f/10/df3441775906b12cecb8d16e0c9a.jpg"},"extralarge":{"default":"https://cdn.freshful.ro/media/cache/sylius_shop_product_original/9f/10/df3441775906b12cecb8d16e0c9a.jpg"}},"label":{"text":"Profită acum","backgroundColor":"#FF9903","textColor":"#FFFFFF"},"tags":[],"isAvailable":true,"maxAvailableQuantity":14,"maxAllowedQuantity":250,"breadcrumbs":[{"code":"14","name":"Casă și agrement","slug":"14-casa-si-agrement"},{"code":"1402","name":"Grădină","slug":"1402-gradina"},{"code":"140203","name":"Plante și semințe","slug":"140203-plante-si-seminte"},{"code":"100133957","name":"Trandafir în ghiveci 10.5cm, flori în ghiveci","slug":"100133957-no-brand-trandafir-in-ghiveci-10-5cm-flori-in-ghiveci"}],"activePromotion":{"code":"special-cosmetice-21feb-8mar23","name":"Preț avantajos","targetQuantity":null},"saveMe":null,"labels":[{"type":"v1","items":[{"text":"Profită acum","backgroundColor":"#FF9903","textColor":"#FFFFFF"}]}],"geniusPrice":null,"geniusUnitPricePerLabel":null,"banner":{"text":"Preț avantajos","textColor":"#F95510","bgColor":"#FEF1CD","icon":null,"link":"https://www.freshful.ro/oferte/special-cosmetice-21feb-8mar23","type":"promo","analyticsEventType":"select_promotion","analyticsEventPayload":{"promotion_id":"special-cosmetice-21feb-8mar23","promotion_name":"Cadouri pentru sărbătoritele lunii martie"}},"discountLabel":null,"geniusDiscountLabel":null,"badge":null},{"code":"100151501","variantCode":"100151501","name":"Begonie diferite culori (floare în ghiveci)","slug":"100151501-no-brand-begonie-diferite-culori-floare-in-ghiveci","unitPriceLabel":"32,99 Lei/buc","brand":null,"brandCode":null,"brandFilterCode":"no-brand-b83","sku":"100151501","price":32.99,"originalPrice":null,"currencyCode":"RON","currency":"Lei","image":{"thumbnail":{"default":"https://cdn.freshful.ro/media/cache/sylius_shop_product_thumbnail/53/75/3fb3be91c9f1e605c29e66dd5706.jpg"},"large":{"default":"https://cdn.freshful.ro/media/cache/freshful_large/53/75/3fb3be91c9f1e605c29e66dd5706.jpg"},"extralarge":{"default":"https://cdn.freshful.ro/media/cache/sylius_shop_product_original/53/75/3fb3be91c9f1e605c29e66dd5706.jpg"}},"label":{"text":"Profită acum","backgroundColor":"#FF9903","textColor":"#FFFFFF"},"tags":[],"isAvailable":true,"maxAvailableQuantity":1,"maxAllowedQuantity":250,"breadcrumbs":[{"code":"14","name":"Casă și agrement","slug":"14-casa-si-agrement"},{"code":"1402","name":"Grădină","slug":"1402-gradina"},{"code":"140203","name":"Plante și semințe","slug":"140203-plante-si-seminte"},{"code":"100151501","name":"Begonie diferite culori (floare în ghiveci)","slug":"100151501-no-brand-begonie-diferite-culori-floare-in-ghiveci"}],"activePromotion":{"code":"special-cosmetice-21feb-8mar23","name":"Preț avantajos","targetQuantity":null},"saveMe":null,"labels":[{"type":"v1","items":[{"text":"Profită acum","backgroundColor":"#FF9903","textColor":"#FFFFFF"}]}],"geniusPrice":null,"geniusUnitPricePerLabel":null,"banner":{"text":"Preț avantajos","textColor":"#F95510","bgColor":"#FEF1CD","icon":null,"link":"https://www.freshful.ro/oferte/special-cosmetice-21feb-8mar23","type":"promo","analyticsEventType":"select_promotion","analyticsEventPayload":{"promotion_id":"special-cosmetice-21feb-8mar23","promotion_name":"Cadouri pentru sărbătoritele lunii martie"}},"discountLabel":null,"geniusDiscountLabel":null,"badge":null},{"code":"100135127","variantCode":"100135127","name":"Kalanchoe Calandiva diferite culori, flori în ghiveci","slug":"100135127-no-brand-kalanchoe-calandiva-diferite-culori-flori-in-ghiveci","unitPriceLabel":"","brand":null,"brandCode":null,"brandFilterCode":"no-brand-b83","sku":"100135127","price":19.99,"originalPrice":null,"currencyCode":"RON","currency":"Lei","image":{"thumbnail":{"default":"https://cdn.freshful.ro/media/cache/sylius_shop_product_thumbnail/3c/c1/968e7f8fd2b524713bd4b5a05166.jpg"},"large":{"default":"https://cdn.freshful.ro/media/cache/freshful_large/3c/c1/968e7f8fd2b524713bd4b5a05166.jpg"},"extralarge":{"default":"https://cdn.freshful.ro/media/cache/sylius_shop_product_original/3c/c1/968e7f8fd2b524713bd4b5a05166.jpg"}},"label":{"text":"Profită acum","backgroundColor":"#FF9903","textColor":"#FFFFFF"},"tags":[],"isAvailable":true,"maxAvailableQuantity":3,"maxAllowedQuantity":250,"breadcrumbs":[{"code":"14","name":"Casă și agrement","slug":"14-casa-si-agrement"},{"code":"1402","name":"Grădină","slug":"1402-gradina"},{"code":"140203","name":"Plante și semințe","slug":"140203-plante-si-seminte"},{"code":"100135127","name":"Kalanchoe Calandiva diferite culori, flori în ghiveci","slug":"100135127-no-brand-kalanchoe-calandiva-diferite-culori-flori-in-ghiveci"}],"activePromotion":{"code":"special-cosmetice-21feb-8mar23","name":"Preț avantajos","targetQuantity":null},"saveMe":null,"labels":[{"type":"v1","items":[{"text":"Profită acum","backgroundColor":"#FF9903","textColor":"#FFFFFF"}]}],"geniusPrice":null,"geniusUnitPricePerLabel":null,"banner":{"text":"Preț avantajos","textColor":"#F95510","bgColor":"#FEF1CD","icon":null,"link":"https://www.freshful.ro/oferte/special-cosmetice-21feb-8mar23","type":"promo","analyticsEventType":"select_promotion","analyticsEventPayload":{"promotion_id":"special-cosmetice-21feb-8mar23","promotion_name":"Cadouri pentru sărbătoritele lunii martie"}},"discountLabel":null,"geniusDiscountLabel":null,"badge":null},{"code":"100137700","variantCode":"100137700","name":"Cuburi de aprindere 32 bucăți","slug":"100137700-landmann-cuburi-de-aprindere-32-bucati","unitPriceLabel":"","brand":"Landmann","brandCode":"2620","brandFilterCode":"landmann-b2625","sku":"100137700","price":5.99,"originalPrice":null,"currencyCode":"RON","currency":"Lei","image":{"thumbnail":{"default":"https://cdn.freshful.ro/media/cache/sylius_shop_product_thumbnail/a9/66/60424db76f098149a1bf7867cff6.jpg"},"large":{"default":"https://cdn.freshful.ro/media/cache/freshful_large/a9/66/60424db76f098149a1bf7867cff6.jpg"},"extralarge":{"default":"https://cdn.freshful.ro/media/cache/sylius_shop_product_original/a9/66/60424db76f098149a1bf7867cff6.jpg"}},"label":null,"tags":[],"isAvailable":true,"maxAvailableQuantity":37,"maxAllowedQuantity":100,"breadcrumbs":[{"code":"14","name":"Casă și agrement","slug":"14-casa-si-agrement"},{"code":"1402","name":"Grădină","slug":"1402-gradina"},{"code":"140204","name":"Cărbuni și accesorii grătar","slug":"140204-carbuni-si-accesorii-barbeque"},{"code":"100137700","name":"Cuburi de aprindere 32 bucăți","slug":"100137700-landmann-cuburi-de-aprindere-32-bucati"}],"activePromotion":null,"saveMe":null,"labels":[],"geniusPrice":null,"geniusUnitPricePerLabel":null,"banner":null,"discountLabel":null,"geniusDiscountLabel":null,"badge":null},{"code":"100123808","variantCode":"100123808","name":"Cărbuni 3kg","slug":"100123808-grill-mania-carbuni-3kg","unitPriceLabel":"","brand":"Grill Mania","brandCode":"2183","brandFilterCode":"grill-mania-b2195","sku":"100123808","price":32.99,"originalPrice":null,"currencyCode":"RON","currency":"Lei","image":{"thumbnail":{"default":"https://cdn.freshful.ro/media/cache/sylius_shop_product_thumbnail/26/94/9c90464cb4d6f8b05edf97bf9214.jpg"},"large":{"default":"https://cdn.freshful.ro/media/cache/freshful_large/26/94/9c90464cb4d6f8b05edf97bf9214.jpg"},"extralarge":{"default":"https://cdn.freshful.ro/media/cache/sylius_shop_product_original/26/94/9c90464cb4d6f8b05edf97bf9214.jpg"}},"label":null,"tags":[],"isAvailable":true,"maxAvailableQuantity":100,"maxAllowedQuantity":100,"breadcrumbs":[{"code":"14","name":"Casă și agrement","slug":"14-casa-si-agrement"},{"code":"1402","name":"Grădină","slug":"1402-gradina"},{"code":"140204","name":"Cărbuni și accesorii grătar","slug":"140204-carbuni-si-accesorii-barbeque"},{"code":"100123808","name":"Cărbuni 3kg","slug":"100123808-grill-mania-carbuni-3kg"}],"activePromotion":null,"saveMe":null,"labels":[],"geniusPrice":null,"geniusUnitPricePerLabel":null,"banner":null,"discountLabel":null,"geniusDiscountLabel":null,"badge":null},{"code":"100137510","variantCode":"100137510","name":"Semințe de regina nopții amestec 0.7g","slug":"100137510-amia-seminte-de-regina-noptii-amestec-0-7g","unitPriceLabel":"","brand":"Amia","brandCode":"2618","brandFilterCode":"amia-b2623","sku":"100137510","price":4.99,"originalPrice":null,"currencyCode":"RON","currency":"Lei","image":{"thumbnail":{"default":"https://cdn.freshful.ro/media/cache/sylius_shop_product_thumbnail/42/0e/fae183fec06b4d523ba7115a659e.jpg"},"large":{"default":"https://cdn.freshful.ro/media/cache/freshful_large/42/0e/fae183fec06b4d523ba7115a659e.jpg"},"extralarge":{"default":"https://cdn.freshful.ro/media/cache/sylius_shop_product_original/42/0e/fae183fec06b4d523ba7115a659e.jpg"}},"label":null,"tags":[],"isAvailable":true,"maxAvailableQuantity":3,"maxAllowedQuantity":250,"breadcrumbs":[{"code":"14","name":"Casă și agrement","slug":"14-casa-si-agrement"},{"code":"1402","name":"Grădină","slug":"1402-gradina"},{"code":"140203","name":"Plante și semințe","slug":"140203-plante-si-seminte"},{"code":"100137510","name":"Semințe de regina nopții amestec 0.7g","slug":"100137510-amia-seminte-de-regina-noptii-amestec-0-7g"}],"activePromotion":null,"saveMe":null,"labels":[],"geniusPrice":null,"geniusUnitPricePerLabel":null,"banner":null,"discountLabel":null,"geniusDiscountLabel":null,"badge":null},{"code":"100137498","variantCode":"100137498","name":"Semințe de gura leului, amestec de culori 0.5g","slug":"100137498-amia-seminte-de-gura-leului-amestec-de-culori-0-5g","unitPriceLabel":"","brand":"Amia","brandCode":"2618","brandFilterCode":"amia-b2623","sku":"100137498","price":4.99,"originalPrice":null,"currencyCode":"RON","currency":"Lei","image":{"thumbnail":{"default":"https://cdn.freshful.ro/media/cache/sylius_shop_product_thumbnail/73/ff/43610f319dd8cabb1f12ae709574.jpg"},"large":{"default":"https://cdn.freshful.ro/media/cache/freshful_large/73/ff/43610f319dd8cabb1f12ae709574.jpg"},"extralarge":{"default":"https://cdn.freshful.ro/media/cache/sylius_shop_product_original/73/ff/43610f319dd8cabb1f12ae709574.jpg"}},"label":null,"tags":[],"isAvailable":true,"maxAvailableQuantity":9,"maxAllowedQuantity":250,"breadcrumbs":[{"code":"14","name":"Casă și agrement","slug":"14-casa-si-agrement"},{"code":"1402","name":"Grădină","slug":"1402-gradina"},{"code":"140203","name":"Plante și semințe","slug":"140203-plante-si-seminte"},{"code":"100137498","name":"Semințe de gura leului, amestec de culori 0.5g","slug":"100137498-amia-seminte-de-gura-leului-amestec-de-culori-0-5g"}],"activePromotion":null,"saveMe":null,"labels":[],"geniusPrice":null,"geniusUnitPricePerLabel":null,"banner":null,"discountLabel":null,"geniusDiscountLabel":null,"badge":null},{"code":"100137471","variantCode":"100137471","name":"Îngrășământ universal maxi 250 ml","slug":"100137471-amia-ingrasamant-universal-maxi-250-ml","unitPriceLabel":"","brand":"Amia","brandCode":"2618","brandFilterCode":"amia-b2623","sku":"100137471","price":18.99,"originalPrice":null,"currencyCode":"RON","currency":"Lei","image":{"thumbnail":{"default":"https://cdn.freshful.ro/media/cache/sylius_shop_product_thumbnail/b3/6c/3270351da1cd8c8394fbf52f5aa5.jpg"},"large":{"default":"https://cdn.freshful.ro/media/cache/freshful_large/b3/6c/3270351da1cd8c8394fbf52f5aa5.jpg"},"extralarge":{"default":"https://cdn.freshful.ro/media/cache/sylius_shop_product_original/b3/6c/3270351da1cd8c8394fbf52f5aa5.jpg"}},"label":null,"tags":[],"isAvailable":true,"maxAvailableQuantity":38,"maxAllowedQuantity":100,"breadcrumbs":[{"code":"14","name":"Casă și agrement","slug":"14-casa-si-agrement"},{"code":"1402","name":"Grădină","slug":"1402-gradina"},{"code":"140202","name":"Îngrășământ și tratamente","slug":"140202-ingrasamant-si-tratamente"},{"code":"100137471","name":"Îngrășământ universal maxi 250 ml","slug":"100137471-amia-ingrasamant-universal-maxi-250-ml"}],"activePromotion":null,"saveMe":null,"labels":[],"geniusPrice":null,"geniusUnitPricePerLabel":null,"banner":null,"discountLabel":null,"geniusDiscountLabel":null,"badge":null},{"code":"100137473","variantCode":"100137473","name":"Îngrășământ concentrat plante verzi 250ml","slug":"100137473-amia-ingrasamant-concentrat-plante-verzi-250ml","unitPriceLabel":"","brand":"Amia","brandCode":"2618","brandFilterCode":"amia-b2623","sku":"100137473","price":19.99,"originalPrice":null,"currencyCode":"RON","currency":"Lei","image":{"thumbnail":{"default":"https://cdn.freshful.ro/media/cache/sylius_shop_product_thumbnail/04/ac/891d6025dc051007334c80656abd.jpg"},"large":{"default":"https://cdn.freshful.ro/media/cache/freshful_large/04/ac/891d6025dc051007334c80656abd.jpg"},"extralarge":{"default":"https://cdn.freshful.ro/media/cache/sylius_shop_product_original/04/ac/891d6025dc051007334c80656abd.jpg"}},"label":null,"tags":[],"isAvailable":true,"maxAvailableQuantity":9,"maxAllowedQuantity":100,"breadcrumbs":[{"code":"14","name":"Casă și agrement","slug":"14-casa-si-agrement"},{"code":"1402","name":"Grădină","slug":"1402-gradina"},{"code":"140202","name":"Îngrășământ și tratamente","slug":"140202-ingrasamant-si-tratamente"},{"code":"100137473","name":"Îngrășământ concentrat plante verzi 250ml","slug":"100137473-amia-ingrasamant-concentrat-plante-verzi-250ml"}],"activePromotion":null,"saveMe":null,"labels":[],"geniusPrice":null,"geniusUnitPricePerLabel":null,"banner":null,"discountLabel":null,"geniusDiscountLabel":null,"badge":null}],"filters":{"countSelected":0,"items":[{"code":"promotion","name":"Promoții","countSelected":0,"values":[{"code":"special-cosmetice-21feb-8mar23","name":"Cadouri pentru sărbătoritele lunii martie","isSelected":false,"count":7}]},{"code":"brand","name":"Brand","countSelected":0,"values":[{"code":"amia-b2623","name":"Amia","isSelected":false,"count":117},{"code":"grill-mania-b2195","name":"Grill Mania","isSelected":false,"count":1},{"code":"grillchef-b2624","name":"Grillchef","isSelected":false,"count":6},{"code":"landmann-b2625","name":"Landmann","isSelected":false,"count":20},{"code":"phalaenopsis-b2503","name":"Phalaenopsis","isSelected":false,"count":1}]},{"code":"diet_lifestyle","name":"Dietă și lifestyle","countSelected":0,"values":[{"code":"bio-a26","name":"Bio","isSelected":false,"count":16}]}]},"orderBy":[{"field":"price","direction":"asc","name":"Preț crescător","isSelected":false},{"field":"price","direction":"desc","name":"Preț descrescător","isSelected":false},{"field":"popularity","direction":"desc","name":"Cele mai populare","isSelected":true},{"field":"category","direction":"asc","name":"Categorie","isSelected":false}],"metaTitle":"Grădină - Gamă variată","metaDescription":"Vrei Grădină? Alege dintr-o gamă variată. Comanzi simplu și ai livrare rapidă, calitate și prospețime. Hai pe Freshful.ro","metaKeywords":null,"banners":[]}}