{"type":"subcategory","payload":{"analyticsListId":"category_140202-ingrasamant-si-tratamente","analyticsListName":"Category - Îngrășământ și tratamente","name":"Îngrășământ și tratamente","slug":"140202-ingrasamant-si-tratamente","image":null,"breadcrumbs":[{"code":"14","name":"Casă și agrement","slug":"14-casa-si-agrement"},{"code":"1402","name":"Grădină","slug":"1402-gradina"},{"code":"140202","name":"Îngrășământ și tratamente","slug":"140202-ingrasamant-si-tratamente"}],"slots":[],"page":1,"limit":10,"pages":2,"count":20,"siblings":[{"name":"Bricolaj și auto","slug":"1401-bricolaj-si-auto","selected":false},{"name":"Grădină","slug":"1402-gradina","selected":true},{"name":"Articole de menaj","slug":"1403-articole-de-menaj","selected":false},{"name":"Textile pentru casă","slug":"1404-textile-de-casa","selected":false},{"name":"Birotică și papetărie","slug":"1405-birotica-si-papetarie","selected":false},{"name":"Jucării","slug":"1406-jucarii","selected":false},{"name":"Accesorii IT&C","slug":"1408-hitech-audio-video","selected":false},{"name":"Textile și accesorii","slug":"1410-textile-basic","selected":false}],"children":[{"name":"Toate produsele","slug":"1402-gradina","selected":false},{"name":"Îngrășământ și tratamente","slug":"140202-ingrasamant-si-tratamente","selected":true},{"name":"Plante și semințe","slug":"140203-plante-si-seminte","selected":false},{"name":"Cărbuni și accesorii grătar","slug":"140204-carbuni-si-accesorii-barbeque","selected":false}],"products":[{"code":"100137471","variantCode":"100137471","name":"Îngrășământ universal maxi 250 ml","slug":"100137471-amia-ingrasamant-universal-maxi-250-ml","unitPriceLabel":"","brand":"Amia","brandCode":"2618","brandFilterCode":"amia-b2623","sku":"100137471","price":18.99,"originalPrice":null,"currencyCode":"RON","currency":"Lei","image":{"thumbnail":{"default":"https://cdn.freshful.ro/media/cache/sylius_shop_product_thumbnail/b3/6c/3270351da1cd8c8394fbf52f5aa5.jpg"},"large":{"default":"https://cdn.freshful.ro/media/cache/freshful_large/b3/6c/3270351da1cd8c8394fbf52f5aa5.jpg"},"extralarge":{"default":"https://cdn.freshful.ro/media/cache/sylius_shop_product_original/b3/6c/3270351da1cd8c8394fbf52f5aa5.jpg"}},"label":null,"tags":[],"isAvailable":true,"maxAvailableQuantity":38,"maxAllowedQuantity":100,"breadcrumbs":[{"code":"14","name":"Casă și agrement","slug":"14-casa-si-agrement"},{"code":"1402","name":"Grădină","slug":"1402-gradina"},{"code":"140202","name":"Îngrășământ și tratamente","slug":"140202-ingrasamant-si-tratamente"},{"code":"100137471","name":"Îngrășământ universal maxi 250 ml","slug":"100137471-amia-ingrasamant-universal-maxi-250-ml"}],"activePromotion":null,"saveMe":null,"labels":[],"geniusPrice":null,"geniusUnitPricePerLabel":null,"banner":null,"discountLabel":null,"geniusDiscountLabel":null,"badge":null},{"code":"100137473","variantCode":"100137473","name":"Îngrășământ concentrat plante verzi 250ml","slug":"100137473-amia-ingrasamant-concentrat-plante-verzi-250ml","unitPriceLabel":"","brand":"Amia","brandCode":"2618","brandFilterCode":"amia-b2623","sku":"100137473","price":19.99,"originalPrice":null,"currencyCode":"RON","currency":"Lei","image":{"thumbnail":{"default":"https://cdn.freshful.ro/media/cache/sylius_shop_product_thumbnail/04/ac/891d6025dc051007334c80656abd.jpg"},"large":{"default":"https://cdn.freshful.ro/media/cache/freshful_large/04/ac/891d6025dc051007334c80656abd.jpg"},"extralarge":{"default":"https://cdn.freshful.ro/media/cache/sylius_shop_product_original/04/ac/891d6025dc051007334c80656abd.jpg"}},"label":null,"tags":[],"isAvailable":true,"maxAvailableQuantity":9,"maxAllowedQuantity":100,"breadcrumbs":[{"code":"14","name":"Casă și agrement","slug":"14-casa-si-agrement"},{"code":"1402","name":"Grădină","slug":"1402-gradina"},{"code":"140202","name":"Îngrășământ și tratamente","slug":"140202-ingrasamant-si-tratamente"},{"code":"100137473","name":"Îngrășământ concentrat plante verzi 250ml","slug":"100137473-amia-ingrasamant-concentrat-plante-verzi-250ml"}],"activePromotion":null,"saveMe":null,"labels":[],"geniusPrice":null,"geniusUnitPricePerLabel":null,"banner":null,"discountLabel":null,"geniusDiscountLabel":null,"badge":null},{"code":"100137467","variantCode":"100137467","name":"Insecticid pentru combaterea gândacilor de bucătărie 5 gr","slug":"100137467-amia-insecticid-pentru-combaterea-gandacilor-de-bucatarie-5-gr","unitPriceLabel":"","brand":"Amia","brandCode":"2618","brandFilterCode":"amia-b2623","sku":"100137467","price":52.99,"originalPrice":null,"currencyCode":"RON","currency":"Lei","image":{"thumbnail":{"default":"https://cdn.freshful.ro/media/cache/sylius_shop_product_thumbnail/71/06/1608e8207b0dcfcc4a73b47d6817.jpg"},"large":{"default":"https://cdn.freshful.ro/media/cache/freshful_large/71/06/1608e8207b0dcfcc4a73b47d6817.jpg"},"extralarge":{"default":"https://cdn.freshful.ro/media/cache/sylius_shop_product_original/71/06/1608e8207b0dcfcc4a73b47d6817.jpg"}},"label":null,"tags":[],"isAvailable":true,"maxAvailableQuantity":75,"maxAllowedQuantity":100,"breadcrumbs":[{"code":"14","name":"Casă și agrement","slug":"14-casa-si-agrement"},{"code":"1402","name":"Grădină","slug":"1402-gradina"},{"code":"140202","name":"Îngrășământ și tratamente","slug":"140202-ingrasamant-si-tratamente"},{"code":"100137467","name":"Insecticid pentru combaterea gândacilor de bucătărie 5 gr","slug":"100137467-amia-insecticid-pentru-combaterea-gandacilor-de-bucatarie-5-gr"}],"activePromotion":null,"saveMe":null,"labels":[],"geniusPrice":null,"geniusUnitPricePerLabel":null,"banner":null,"discountLabel":null,"geniusDiscountLabel":null,"badge":null},{"code":"100137482","variantCode":"100137482","name":"Îngrășământ concentrat pentru orhidee 250ml","slug":"100137482-amia-ingrasamant-concentrat-pentru-orhidee-250ml","unitPriceLabel":"","brand":"Amia","brandCode":"2618","brandFilterCode":"amia-b2623","sku":"100137482","price":19.99,"originalPrice":null,"currencyCode":"RON","currency":"Lei","image":{"thumbnail":{"default":"https://cdn.freshful.ro/media/cache/sylius_shop_product_thumbnail/df/2f/e16885a2f03b21533f71aa07d059.jpg"},"large":{"default":"https://cdn.freshful.ro/media/cache/freshful_large/df/2f/e16885a2f03b21533f71aa07d059.jpg"},"extralarge":{"default":"https://cdn.freshful.ro/media/cache/sylius_shop_product_original/df/2f/e16885a2f03b21533f71aa07d059.jpg"}},"label":null,"tags":[],"isAvailable":true,"maxAvailableQuantity":16,"maxAllowedQuantity":100,"breadcrumbs":[{"code":"14","name":"Casă și agrement","slug":"14-casa-si-agrement"},{"code":"1402","name":"Grădină","slug":"1402-gradina"},{"code":"140202","name":"Îngrășământ și tratamente","slug":"140202-ingrasamant-si-tratamente"},{"code":"100137482","name":"Îngrășământ concentrat pentru orhidee 250ml","slug":"100137482-amia-ingrasamant-concentrat-pentru-orhidee-250ml"}],"activePromotion":null,"saveMe":null,"labels":[],"geniusPrice":null,"geniusUnitPricePerLabel":null,"banner":null,"discountLabel":null,"geniusDiscountLabel":null,"badge":null},{"code":"100137465","variantCode":"100137465","name":"Lipici pentru șoareci 135g","slug":"100137465-amia-lipici-pentru-soareci-135g","unitPriceLabel":"","brand":"Amia","brandCode":"2618","brandFilterCode":"amia-b2623","sku":"100137465","price":16.99,"originalPrice":null,"currencyCode":"RON","currency":"Lei","image":{"thumbnail":{"default":"https://cdn.freshful.ro/media/cache/sylius_shop_product_thumbnail/5e/b3/0fc84d8664bc7289ea56ea9ddf1b.jpg"},"large":{"default":"https://cdn.freshful.ro/media/cache/freshful_large/5e/b3/0fc84d8664bc7289ea56ea9ddf1b.jpg"},"extralarge":{"default":"https://cdn.freshful.ro/media/cache/sylius_shop_product_original/5e/b3/0fc84d8664bc7289ea56ea9ddf1b.jpg"}},"label":null,"tags":[],"isAvailable":true,"maxAvailableQuantity":30,"maxAllowedQuantity":100,"breadcrumbs":[{"code":"14","name":"Casă și agrement","slug":"14-casa-si-agrement"},{"code":"1402","name":"Grădină","slug":"1402-gradina"},{"code":"140202","name":"Îngrășământ și tratamente","slug":"140202-ingrasamant-si-tratamente"},{"code":"100137465","name":"Lipici pentru șoareci 135g","slug":"100137465-amia-lipici-pentru-soareci-135g"}],"activePromotion":null,"saveMe":null,"labels":[],"geniusPrice":null,"geniusUnitPricePerLabel":null,"banner":null,"discountLabel":null,"geniusDiscountLabel":null,"badge":null},{"code":"100137475","variantCode":"100137475","name":"Îngrășământ concentrat pentru plante cu flori 250ml","slug":"100137475-amia-ingrasamant-concentrat-pentru-plante-cu-flori-250ml","unitPriceLabel":"","brand":"Amia","brandCode":"2618","brandFilterCode":"amia-b2623","sku":"100137475","price":20.99,"originalPrice":null,"currencyCode":"RON","currency":"Lei","image":{"thumbnail":{"default":"https://cdn.freshful.ro/media/cache/sylius_shop_product_thumbnail/2b/10/aca8baf2e72aa0148681ba365b42.jpg"},"large":{"default":"https://cdn.freshful.ro/media/cache/freshful_large/2b/10/aca8baf2e72aa0148681ba365b42.jpg"},"extralarge":{"default":"https://cdn.freshful.ro/media/cache/sylius_shop_product_original/2b/10/aca8baf2e72aa0148681ba365b42.jpg"}},"label":null,"tags":[],"isAvailable":true,"maxAvailableQuantity":21,"maxAllowedQuantity":100,"breadcrumbs":[{"code":"14","name":"Casă și agrement","slug":"14-casa-si-agrement"},{"code":"1402","name":"Grădină","slug":"1402-gradina"},{"code":"140202","name":"Îngrășământ și tratamente","slug":"140202-ingrasamant-si-tratamente"},{"code":"100137475","name":"Îngrășământ concentrat pentru plante cu flori 250ml","slug":"100137475-amia-ingrasamant-concentrat-pentru-plante-cu-flori-250ml"}],"activePromotion":null,"saveMe":null,"labels":[],"geniusPrice":null,"geniusUnitPricePerLabel":null,"banner":null,"discountLabel":null,"geniusDiscountLabel":null,"badge":null},{"code":"100137481","variantCode":"100137481","name":"Îngrășământ concentrat pentru Bonsai 250ml","slug":"100137481-amia-ingrasamant-concentrat-pentru-bonsai-250ml","unitPriceLabel":"","brand":"Amia","brandCode":"2618","brandFilterCode":"amia-b2623","sku":"100137481","price":19.99,"originalPrice":null,"currencyCode":"RON","currency":"Lei","image":{"thumbnail":{"default":"https://cdn.freshful.ro/media/cache/sylius_shop_product_thumbnail/09/bb/be7c6d8bdf40bd14bf74850c1f9c.jpg"},"large":{"default":"https://cdn.freshful.ro/media/cache/freshful_large/09/bb/be7c6d8bdf40bd14bf74850c1f9c.jpg"},"extralarge":{"default":"https://cdn.freshful.ro/media/cache/sylius_shop_product_original/09/bb/be7c6d8bdf40bd14bf74850c1f9c.jpg"}},"label":null,"tags":[],"isAvailable":true,"maxAvailableQuantity":11,"maxAllowedQuantity":100,"breadcrumbs":[{"code":"14","name":"Casă și agrement","slug":"14-casa-si-agrement"},{"code":"1402","name":"Grădină","slug":"1402-gradina"},{"code":"140202","name":"Îngrășământ și tratamente","slug":"140202-ingrasamant-si-tratamente"},{"code":"100137481","name":"Îngrășământ concentrat pentru Bonsai 250ml","slug":"100137481-amia-ingrasamant-concentrat-pentru-bonsai-250ml"}],"activePromotion":null,"saveMe":null,"labels":[],"geniusPrice":null,"geniusUnitPricePerLabel":null,"banner":null,"discountLabel":null,"geniusDiscountLabel":null,"badge":null},{"code":"100137464","variantCode":"100137464","name":"Momeală pentru șoareci sub formă de pastă 150g","slug":"100137464-amia-momeala-pentru-soareci-sub-forma-de-pasta-150g","unitPriceLabel":"","brand":"Amia","brandCode":"2618","brandFilterCode":"amia-b2623","sku":"100137464","price":24.99,"originalPrice":null,"currencyCode":"RON","currency":"Lei","image":{"thumbnail":{"default":"https://cdn.freshful.ro/media/cache/sylius_shop_product_thumbnail/f2/69/2aace5a6197f23eb860716dd1b0a.jpg"},"large":{"default":"https://cdn.freshful.ro/media/cache/freshful_large/f2/69/2aace5a6197f23eb860716dd1b0a.jpg"},"extralarge":{"default":"https://cdn.freshful.ro/media/cache/sylius_shop_product_original/f2/69/2aace5a6197f23eb860716dd1b0a.jpg"}},"label":null,"tags":[],"isAvailable":true,"maxAvailableQuantity":27,"maxAllowedQuantity":100,"breadcrumbs":[{"code":"14","name":"Casă și agrement","slug":"14-casa-si-agrement"},{"code":"1402","name":"Grădină","slug":"1402-gradina"},{"code":"140202","name":"Îngrășământ și tratamente","slug":"140202-ingrasamant-si-tratamente"},{"code":"100137464","name":"Momeală pentru șoareci sub formă de pastă 150g","slug":"100137464-amia-momeala-pentru-soareci-sub-forma-de-pasta-150g"}],"activePromotion":null,"saveMe":null,"labels":[],"geniusPrice":null,"geniusUnitPricePerLabel":null,"banner":null,"discountLabel":null,"geniusDiscountLabel":null,"badge":null},{"code":"100137468","variantCode":"100137468","name":"Insecticid pentru combaterea insectelor de disconfort 2x10 ml","slug":"100137468-amia-insecticid-pentru-combaterea-insectelor-de-disconfort-2x10-ml","unitPriceLabel":"","brand":"Amia","brandCode":"2618","brandFilterCode":"amia-b2623","sku":"100137468","price":29.99,"originalPrice":null,"currencyCode":"RON","currency":"Lei","image":{"thumbnail":{"default":"https://cdn.freshful.ro/media/cache/sylius_shop_product_thumbnail/18/70/3ed471c8e64709ec66c8fe5f3f87.jpg"},"large":{"default":"https://cdn.freshful.ro/media/cache/freshful_large/18/70/3ed471c8e64709ec66c8fe5f3f87.jpg"},"extralarge":{"default":"https://cdn.freshful.ro/media/cache/sylius_shop_product_original/18/70/3ed471c8e64709ec66c8fe5f3f87.jpg"}},"label":null,"tags":[],"isAvailable":true,"maxAvailableQuantity":57,"maxAllowedQuantity":100,"breadcrumbs":[{"code":"14","name":"Casă și agrement","slug":"14-casa-si-agrement"},{"code":"1402","name":"Grădină","slug":"1402-gradina"},{"code":"140202","name":"Îngrășământ și tratamente","slug":"140202-ingrasamant-si-tratamente"},{"code":"100137468","name":"Insecticid pentru combaterea insectelor de disconfort 2x10 ml","slug":"100137468-amia-insecticid-pentru-combaterea-insectelor-de-disconfort-2x10-ml"}],"activePromotion":null,"saveMe":null,"labels":[],"geniusPrice":null,"geniusUnitPricePerLabel":null,"banner":null,"discountLabel":null,"geniusDiscountLabel":null,"badge":null},{"code":"100137480","variantCode":"100137480","name":"Îngrășământ concentrat pentru cactuși 250ml","slug":"100137480-amia-ingrasamant-concentrat-pentru-cactusi-250ml","unitPriceLabel":"","brand":"Amia","brandCode":"2618","brandFilterCode":"amia-b2623","sku":"100137480","price":18.99,"originalPrice":null,"currencyCode":"RON","currency":"Lei","image":{"thumbnail":{"default":"https://cdn.freshful.ro/media/cache/sylius_shop_product_thumbnail/61/54/eca932486217924e42f22d01eb5f.jpg"},"large":{"default":"https://cdn.freshful.ro/media/cache/freshful_large/61/54/eca932486217924e42f22d01eb5f.jpg"},"extralarge":{"default":"https://cdn.freshful.ro/media/cache/sylius_shop_product_original/61/54/eca932486217924e42f22d01eb5f.jpg"}},"label":null,"tags":[],"isAvailable":true,"maxAvailableQuantity":14,"maxAllowedQuantity":100,"breadcrumbs":[{"code":"14","name":"Casă și agrement","slug":"14-casa-si-agrement"},{"code":"1402","name":"Grădină","slug":"1402-gradina"},{"code":"140202","name":"Îngrășământ și tratamente","slug":"140202-ingrasamant-si-tratamente"},{"code":"100137480","name":"Îngrășământ concentrat pentru cactuși 250ml","slug":"100137480-amia-ingrasamant-concentrat-pentru-cactusi-250ml"}],"activePromotion":null,"saveMe":null,"labels":[],"geniusPrice":null,"geniusUnitPricePerLabel":null,"banner":null,"discountLabel":null,"geniusDiscountLabel":null,"badge":null}],"filters":{"countSelected":0,"items":[{"code":"brand","name":"Brand","countSelected":0,"values":[{"code":"amia-b2623","name":"Amia","isSelected":false,"count":20}]}]},"orderBy":[{"field":"price","direction":"asc","name":"Preț crescător","isSelected":false},{"field":"price","direction":"desc","name":"Preț descrescător","isSelected":false},{"field":"popularity","direction":"desc","name":"Cele mai populare","isSelected":true},{"field":"category","direction":"asc","name":"Categorie","isSelected":false}],"metaTitle":"Îngrășământ și tratamente - Gamă variată","metaDescription":"Vrei Îngrășământ și tratamente? Alege dintr-o gamă variată. Comanzi simplu și ai livrare rapidă, calitate și prospețime. Hai pe Freshful.ro","metaKeywords":null,"banners":[]}}