{"type":"subcategory","payload":{"analyticsListId":"category_140204-carbuni-si-accesorii-barbeque","analyticsListName":"Category - Cărbuni și accesorii grătar","name":"Cărbuni și accesorii grătar","slug":"140204-carbuni-si-accesorii-barbeque","image":null,"breadcrumbs":[{"code":"14","name":"Casă și agrement","slug":"14-casa-si-agrement"},{"code":"1402","name":"Grădină","slug":"1402-gradina"},{"code":"140204","name":"Cărbuni și accesorii grătar","slug":"140204-carbuni-si-accesorii-barbeque"}],"slots":[],"page":1,"limit":10,"pages":3,"count":27,"siblings":[{"name":"Bricolaj și auto","slug":"1401-bricolaj-si-auto","selected":false},{"name":"Grădină","slug":"1402-gradina","selected":true},{"name":"Articole de menaj","slug":"1403-articole-de-menaj","selected":false},{"name":"Textile pentru casă","slug":"1404-textile-de-casa","selected":false},{"name":"Birotică și papetărie","slug":"1405-birotica-si-papetarie","selected":false},{"name":"Jucării","slug":"1406-jucarii","selected":false},{"name":"Accesorii IT&C","slug":"1408-hitech-audio-video","selected":false},{"name":"Textile și accesorii","slug":"1410-textile-basic","selected":false}],"children":[{"name":"Toate produsele","slug":"1402-gradina","selected":false},{"name":"Îngrășământ și tratamente","slug":"140202-ingrasamant-si-tratamente","selected":false},{"name":"Plante și semințe","slug":"140203-plante-si-seminte","selected":false},{"name":"Cărbuni și accesorii grătar","slug":"140204-carbuni-si-accesorii-barbeque","selected":true}],"products":[{"code":"100137700","variantCode":"100137700","name":"Cuburi de aprindere 32 bucăți","slug":"100137700-landmann-cuburi-de-aprindere-32-bucati","unitPriceLabel":"","brand":"Landmann","brandCode":"2620","brandFilterCode":"landmann-b2625","sku":"100137700","price":5.99,"originalPrice":null,"currencyCode":"RON","currency":"Lei","image":{"thumbnail":{"default":"https://cdn.freshful.ro/media/cache/sylius_shop_product_thumbnail/a9/66/60424db76f098149a1bf7867cff6.jpg"},"large":{"default":"https://cdn.freshful.ro/media/cache/freshful_large/a9/66/60424db76f098149a1bf7867cff6.jpg"},"extralarge":{"default":"https://cdn.freshful.ro/media/cache/sylius_shop_product_original/a9/66/60424db76f098149a1bf7867cff6.jpg"}},"label":null,"tags":[],"isAvailable":true,"maxAvailableQuantity":37,"maxAllowedQuantity":100,"breadcrumbs":[{"code":"14","name":"Casă și agrement","slug":"14-casa-si-agrement"},{"code":"1402","name":"Grădină","slug":"1402-gradina"},{"code":"140204","name":"Cărbuni și accesorii grătar","slug":"140204-carbuni-si-accesorii-barbeque"},{"code":"100137700","name":"Cuburi de aprindere 32 bucăți","slug":"100137700-landmann-cuburi-de-aprindere-32-bucati"}],"activePromotion":null,"saveMe":null,"labels":[],"geniusPrice":null,"geniusUnitPricePerLabel":null,"banner":null,"discountLabel":null,"geniusDiscountLabel":null,"badge":null},{"code":"100123808","variantCode":"100123808","name":"Cărbuni 3kg","slug":"100123808-grill-mania-carbuni-3kg","unitPriceLabel":"","brand":"Grill Mania","brandCode":"2183","brandFilterCode":"grill-mania-b2195","sku":"100123808","price":32.99,"originalPrice":null,"currencyCode":"RON","currency":"Lei","image":{"thumbnail":{"default":"https://cdn.freshful.ro/media/cache/sylius_shop_product_thumbnail/26/94/9c90464cb4d6f8b05edf97bf9214.jpg"},"large":{"default":"https://cdn.freshful.ro/media/cache/freshful_large/26/94/9c90464cb4d6f8b05edf97bf9214.jpg"},"extralarge":{"default":"https://cdn.freshful.ro/media/cache/sylius_shop_product_original/26/94/9c90464cb4d6f8b05edf97bf9214.jpg"}},"label":null,"tags":[],"isAvailable":true,"maxAvailableQuantity":100,"maxAllowedQuantity":100,"breadcrumbs":[{"code":"14","name":"Casă și agrement","slug":"14-casa-si-agrement"},{"code":"1402","name":"Grădină","slug":"1402-gradina"},{"code":"140204","name":"Cărbuni și accesorii grătar","slug":"140204-carbuni-si-accesorii-barbeque"},{"code":"100123808","name":"Cărbuni 3kg","slug":"100123808-grill-mania-carbuni-3kg"}],"activePromotion":null,"saveMe":null,"labels":[],"geniusPrice":null,"geniusUnitPricePerLabel":null,"banner":null,"discountLabel":null,"geniusDiscountLabel":null,"badge":null},{"code":"100137697","variantCode":"100137697","name":"Cuburi de aprindere 32 bucăți","slug":"100137697-landmann-cuburi-de-aprindere-32-bucati","unitPriceLabel":"","brand":"Landmann","brandCode":"2620","brandFilterCode":"landmann-b2625","sku":"100137697","price":5.99,"originalPrice":null,"currencyCode":"RON","currency":"Lei","image":{"thumbnail":{"default":"https://cdn.freshful.ro/media/cache/sylius_shop_product_thumbnail/e8/99/29d816b5e25ec6bde61947466212.jpg"},"large":{"default":"https://cdn.freshful.ro/media/cache/freshful_large/e8/99/29d816b5e25ec6bde61947466212.jpg"},"extralarge":{"default":"https://cdn.freshful.ro/media/cache/sylius_shop_product_original/e8/99/29d816b5e25ec6bde61947466212.jpg"}},"label":null,"tags":[],"isAvailable":true,"maxAvailableQuantity":100,"maxAllowedQuantity":100,"breadcrumbs":[{"code":"14","name":"Casă și agrement","slug":"14-casa-si-agrement"},{"code":"1402","name":"Grădină","slug":"1402-gradina"},{"code":"140204","name":"Cărbuni și accesorii grătar","slug":"140204-carbuni-si-accesorii-barbeque"},{"code":"100137697","name":"Cuburi de aprindere 32 bucăți","slug":"100137697-landmann-cuburi-de-aprindere-32-bucati"}],"activePromotion":null,"saveMe":null,"labels":[],"geniusPrice":null,"geniusUnitPricePerLabel":null,"banner":null,"discountLabel":null,"geniusDiscountLabel":null,"badge":null},{"code":"100137702","variantCode":"100137702","name":"Lichid de aprindere grătar 1l","slug":"100137702-landmann-lichid-de-aprindere-gratar-1l","unitPriceLabel":"","brand":"Landmann","brandCode":"2620","brandFilterCode":"landmann-b2625","sku":"100137702","price":17.98,"originalPrice":null,"currencyCode":"RON","currency":"Lei","image":{"thumbnail":{"default":"https://cdn.freshful.ro/media/cache/sylius_shop_product_thumbnail/5e/5b/713a6f93d19c8c4ab40133e83237.jpg"},"large":{"default":"https://cdn.freshful.ro/media/cache/freshful_large/5e/5b/713a6f93d19c8c4ab40133e83237.jpg"},"extralarge":{"default":"https://cdn.freshful.ro/media/cache/sylius_shop_product_original/5e/5b/713a6f93d19c8c4ab40133e83237.jpg"}},"label":null,"tags":[],"isAvailable":true,"maxAvailableQuantity":25,"maxAllowedQuantity":100,"breadcrumbs":[{"code":"14","name":"Casă și agrement","slug":"14-casa-si-agrement"},{"code":"1402","name":"Grădină","slug":"1402-gradina"},{"code":"140204","name":"Cărbuni și accesorii grătar","slug":"140204-carbuni-si-accesorii-barbeque"},{"code":"100137702","name":"Lichid de aprindere grătar 1l","slug":"100137702-landmann-lichid-de-aprindere-gratar-1l"}],"activePromotion":null,"saveMe":null,"labels":[],"geniusPrice":null,"geniusUnitPricePerLabel":null,"banner":null,"discountLabel":null,"geniusDiscountLabel":null,"badge":null},{"code":"100137693","variantCode":"100137693","name":"Brichete premium 3kg","slug":"100137693-landmann-brichete-premium-3kg","unitPriceLabel":"","brand":"Landmann","brandCode":"2620","brandFilterCode":"landmann-b2625","sku":"100137693","price":33.99,"originalPrice":null,"currencyCode":"RON","currency":"Lei","image":{"thumbnail":{"default":"https://cdn.freshful.ro/media/cache/sylius_shop_product_thumbnail/4e/48/2bdc6ff710dbcb2f438649706e44.jpg"},"large":{"default":"https://cdn.freshful.ro/media/cache/freshful_large/4e/48/2bdc6ff710dbcb2f438649706e44.jpg"},"extralarge":{"default":"https://cdn.freshful.ro/media/cache/sylius_shop_product_original/4e/48/2bdc6ff710dbcb2f438649706e44.jpg"}},"label":null,"tags":[],"isAvailable":true,"maxAvailableQuantity":49,"maxAllowedQuantity":100,"breadcrumbs":[{"code":"14","name":"Casă și agrement","slug":"14-casa-si-agrement"},{"code":"1402","name":"Grădină","slug":"1402-gradina"},{"code":"140204","name":"Cărbuni și accesorii grătar","slug":"140204-carbuni-si-accesorii-barbeque"},{"code":"100137693","name":"Brichete premium 3kg","slug":"100137693-landmann-brichete-premium-3kg"}],"activePromotion":null,"saveMe":null,"labels":[],"geniusPrice":null,"geniusUnitPricePerLabel":null,"banner":null,"discountLabel":null,"geniusDiscountLabel":null,"badge":null},{"code":"100137692","variantCode":"100137692","name":"Cărbune instant 1kg","slug":"100137692-landmann-carbune-instant-1kg","unitPriceLabel":"","brand":"Landmann","brandCode":"2620","brandFilterCode":"landmann-b2625","sku":"100137692","price":18.99,"originalPrice":null,"currencyCode":"RON","currency":"Lei","image":{"thumbnail":{"default":"https://cdn.freshful.ro/media/cache/sylius_shop_product_thumbnail/fd/29/207f06c16a31de32efe96c63362e.jpg"},"large":{"default":"https://cdn.freshful.ro/media/cache/freshful_large/fd/29/207f06c16a31de32efe96c63362e.jpg"},"extralarge":{"default":"https://cdn.freshful.ro/media/cache/sylius_shop_product_original/fd/29/207f06c16a31de32efe96c63362e.jpg"}},"label":null,"tags":[],"isAvailable":true,"maxAvailableQuantity":69,"maxAllowedQuantity":100,"breadcrumbs":[{"code":"14","name":"Casă și agrement","slug":"14-casa-si-agrement"},{"code":"1402","name":"Grădină","slug":"1402-gradina"},{"code":"140204","name":"Cărbuni și accesorii grătar","slug":"140204-carbuni-si-accesorii-barbeque"},{"code":"100137692","name":"Cărbune instant 1kg","slug":"100137692-landmann-carbune-instant-1kg"}],"activePromotion":null,"saveMe":null,"labels":[],"geniusPrice":null,"geniusUnitPricePerLabel":null,"banner":null,"discountLabel":null,"geniusDiscountLabel":null,"badge":null},{"code":"100137684","variantCode":"100137684","name":"Perie grătar 18 cm","slug":"100137684-grillchef-perie-gratar-18-cm","unitPriceLabel":"","brand":"Grillchef","brandCode":"2619","brandFilterCode":"grillchef-b2624","sku":"100137684","price":10.99,"originalPrice":null,"currencyCode":"RON","currency":"Lei","image":{"thumbnail":{"default":"https://cdn.freshful.ro/media/cache/sylius_shop_product_thumbnail/3a/98/11190f9968f112865dee951e106f.jpg"},"large":{"default":"https://cdn.freshful.ro/media/cache/freshful_large/3a/98/11190f9968f112865dee951e106f.jpg"},"extralarge":{"default":"https://cdn.freshful.ro/media/cache/sylius_shop_product_original/3a/98/11190f9968f112865dee951e106f.jpg"}},"label":null,"tags":[],"isAvailable":true,"maxAvailableQuantity":12,"maxAllowedQuantity":100,"breadcrumbs":[{"code":"14","name":"Casă și agrement","slug":"14-casa-si-agrement"},{"code":"1402","name":"Grădină","slug":"1402-gradina"},{"code":"140204","name":"Cărbuni și accesorii grătar","slug":"140204-carbuni-si-accesorii-barbeque"},{"code":"100137684","name":"Perie grătar 18 cm","slug":"100137684-grillchef-perie-gratar-18-cm"}],"activePromotion":null,"saveMe":null,"labels":[],"geniusPrice":null,"geniusUnitPricePerLabel":null,"banner":null,"discountLabel":null,"geniusDiscountLabel":null,"badge":null},{"code":"100137698","variantCode":"100137698","name":"Cuburi de aprindere 72 bucăți","slug":"100137698-landmann-cuburi-de-aprindere-72-bucati","unitPriceLabel":"","brand":"Landmann","brandCode":"2620","brandFilterCode":"landmann-b2625","sku":"100137698","price":18.99,"originalPrice":null,"currencyCode":"RON","currency":"Lei","image":{"thumbnail":{"default":"https://cdn.freshful.ro/media/cache/sylius_shop_product_thumbnail/ca/21/c77eaa19a71f2073262245927cf8.jpg"},"large":{"default":"https://cdn.freshful.ro/media/cache/freshful_large/ca/21/c77eaa19a71f2073262245927cf8.jpg"},"extralarge":{"default":"https://cdn.freshful.ro/media/cache/sylius_shop_product_original/ca/21/c77eaa19a71f2073262245927cf8.jpg"}},"label":null,"tags":[],"isAvailable":true,"maxAvailableQuantity":18,"maxAllowedQuantity":100,"breadcrumbs":[{"code":"14","name":"Casă și agrement","slug":"14-casa-si-agrement"},{"code":"1402","name":"Grădină","slug":"1402-gradina"},{"code":"140204","name":"Cărbuni și accesorii grătar","slug":"140204-carbuni-si-accesorii-barbeque"},{"code":"100137698","name":"Cuburi de aprindere 72 bucăți","slug":"100137698-landmann-cuburi-de-aprindere-72-bucati"}],"activePromotion":null,"saveMe":null,"labels":[],"geniusPrice":null,"geniusUnitPricePerLabel":null,"banner":null,"discountLabel":null,"geniusDiscountLabel":null,"badge":null},{"code":"100137724","variantCode":"100137724","name":"Presă burger metalică, neaderentă, din aluminiu turnat 12cm","slug":"100137724-landmann-presa-burger-metalica-neaderenta-din-aluminiu-turnat-12cm","unitPriceLabel":"","brand":"Landmann","brandCode":"2620","brandFilterCode":"landmann-b2625","sku":"100137724","price":49.99,"originalPrice":null,"currencyCode":"RON","currency":"Lei","image":{"thumbnail":{"default":"https://cdn.freshful.ro/media/cache/sylius_shop_product_thumbnail/38/b4/538c41e35d176302d09c62cedc41.jpg"},"large":{"default":"https://cdn.freshful.ro/media/cache/freshful_large/38/b4/538c41e35d176302d09c62cedc41.jpg"},"extralarge":{"default":"https://cdn.freshful.ro/media/cache/sylius_shop_product_original/38/b4/538c41e35d176302d09c62cedc41.jpg"}},"label":null,"tags":[],"isAvailable":true,"maxAvailableQuantity":18,"maxAllowedQuantity":100,"breadcrumbs":[{"code":"14","name":"Casă și agrement","slug":"14-casa-si-agrement"},{"code":"1402","name":"Grădină","slug":"1402-gradina"},{"code":"140204","name":"Cărbuni și accesorii grătar","slug":"140204-carbuni-si-accesorii-barbeque"},{"code":"100137724","name":"Presă burger metalică, neaderentă, din aluminiu turnat 12cm","slug":"100137724-landmann-presa-burger-metalica-neaderenta-din-aluminiu-turnat-12cm"}],"activePromotion":null,"saveMe":null,"labels":[],"geniusPrice":null,"geniusUnitPricePerLabel":null,"banner":null,"discountLabel":null,"geniusDiscountLabel":null,"badge":null},{"code":"100137672","variantCode":"100137672","name":"Accesoriu prăjire pește 42x9 cm","slug":"100137672-grillchef-accesoriu-prajire-peste-42x9-cm","unitPriceLabel":"","brand":"Grillchef","brandCode":"2619","brandFilterCode":"grillchef-b2624","sku":"100137672","price":12.99,"originalPrice":null,"currencyCode":"RON","currency":"Lei","image":{"thumbnail":{"default":"https://cdn.freshful.ro/media/cache/sylius_shop_product_thumbnail/1b/a9/15508aaa96e0670746410f2a1c7f.jpg"},"large":{"default":"https://cdn.freshful.ro/media/cache/freshful_large/1b/a9/15508aaa96e0670746410f2a1c7f.jpg"},"extralarge":{"default":"https://cdn.freshful.ro/media/cache/sylius_shop_product_original/1b/a9/15508aaa96e0670746410f2a1c7f.jpg"}},"label":null,"tags":[],"isAvailable":true,"maxAvailableQuantity":18,"maxAllowedQuantity":100,"breadcrumbs":[{"code":"14","name":"Casă și agrement","slug":"14-casa-si-agrement"},{"code":"1402","name":"Grădină","slug":"1402-gradina"},{"code":"140204","name":"Cărbuni și accesorii grătar","slug":"140204-carbuni-si-accesorii-barbeque"},{"code":"100137672","name":"Accesoriu prăjire pește 42x9 cm","slug":"100137672-grillchef-accesoriu-prajire-peste-42x9-cm"}],"activePromotion":null,"saveMe":null,"labels":[],"geniusPrice":null,"geniusUnitPricePerLabel":null,"banner":null,"discountLabel":null,"geniusDiscountLabel":null,"badge":null}],"filters":{"countSelected":0,"items":[{"code":"brand","name":"Brand","countSelected":0,"values":[{"code":"grill-mania-b2195","name":"Grill Mania","isSelected":false,"count":1},{"code":"grillchef-b2624","name":"Grillchef","isSelected":false,"count":6},{"code":"landmann-b2625","name":"Landmann","isSelected":false,"count":20}]}]},"orderBy":[{"field":"price","direction":"asc","name":"Preț crescător","isSelected":false},{"field":"price","direction":"desc","name":"Preț descrescător","isSelected":false},{"field":"popularity","direction":"desc","name":"Cele mai populare","isSelected":true},{"field":"category","direction":"asc","name":"Categorie","isSelected":false}],"metaTitle":"Cărbuni și accesorii grătar - Gamă variată","metaDescription":"Vrei Cărbuni și accesorii grătar? Alege dintr-o gamă variată. Comanzi simplu și ai livrare rapidă, calitate și prospețime. Hai pe Freshful.ro","metaKeywords":null,"banners":[]}}