{"type":"subcategory","payload":{"analyticsListId":"category_140203-plante-si-seminte","analyticsListName":"Category - Plante și semințe","name":"Plante și semințe","slug":"140203-plante-si-seminte","image":null,"breadcrumbs":[{"code":"14","name":"Casă și agrement","slug":"14-casa-si-agrement"},{"code":"1402","name":"Grădină","slug":"1402-gradina"},{"code":"140203","name":"Plante și semințe","slug":"140203-plante-si-seminte"}],"slots":[],"page":1,"limit":10,"pages":11,"count":104,"siblings":[{"name":"Bricolaj și auto","slug":"1401-bricolaj-si-auto","selected":false},{"name":"Grădină","slug":"1402-gradina","selected":true},{"name":"Articole de menaj","slug":"1403-articole-de-menaj","selected":false},{"name":"Textile pentru casă","slug":"1404-textile-de-casa","selected":false},{"name":"Birotică și papetărie","slug":"1405-birotica-si-papetarie","selected":false},{"name":"Jucării","slug":"1406-jucarii","selected":false},{"name":"Accesorii IT&C","slug":"1408-hitech-audio-video","selected":false},{"name":"Textile și accesorii","slug":"1410-textile-basic","selected":false}],"children":[{"name":"Toate produsele","slug":"1402-gradina","selected":false},{"name":"Îngrășământ și tratamente","slug":"140202-ingrasamant-si-tratamente","selected":false},{"name":"Plante și semințe","slug":"140203-plante-si-seminte","selected":true},{"name":"Cărbuni și accesorii grătar","slug":"140204-carbuni-si-accesorii-barbeque","selected":false}],"products":[{"code":"100151500","variantCode":"100151500","name":"Bulb Zambilă 7cm (floare în ghiveci)","slug":"100151500-no-brand-bulb-zambila-7cm-floare-in-ghiveci","unitPriceLabel":"5,99 Lei/buc","brand":null,"brandCode":null,"brandFilterCode":"no-brand-b83","sku":"100151500","price":5.99,"originalPrice":null,"currencyCode":"RON","currency":"Lei","image":{"thumbnail":{"default":"https://cdn.freshful.ro/media/cache/sylius_shop_product_thumbnail/92/8e/6b644b4a17f1dbe65f51993e8e01.jpg"},"large":{"default":"https://cdn.freshful.ro/media/cache/freshful_large/92/8e/6b644b4a17f1dbe65f51993e8e01.jpg"},"extralarge":{"default":"https://cdn.freshful.ro/media/cache/sylius_shop_product_original/92/8e/6b644b4a17f1dbe65f51993e8e01.jpg"}},"label":{"text":"Profită acum","backgroundColor":"#FF9903","textColor":"#FFFFFF"},"tags":[],"isAvailable":true,"maxAvailableQuantity":74,"maxAllowedQuantity":250,"breadcrumbs":[{"code":"14","name":"Casă și agrement","slug":"14-casa-si-agrement"},{"code":"1402","name":"Grădină","slug":"1402-gradina"},{"code":"140203","name":"Plante și semințe","slug":"140203-plante-si-seminte"},{"code":"100151500","name":"Bulb Zambilă 7cm (floare în ghiveci)","slug":"100151500-no-brand-bulb-zambila-7cm-floare-in-ghiveci"}],"activePromotion":{"code":"special-cosmetice-21feb-8mar23","name":"Preț avantajos","targetQuantity":null},"saveMe":null,"labels":[{"type":"v1","items":[{"text":"Profită acum","backgroundColor":"#FF9903","textColor":"#FFFFFF"}]}],"geniusPrice":null,"geniusUnitPricePerLabel":null,"banner":{"text":"Preț avantajos","textColor":"#F95510","bgColor":"#FEF1CD","icon":null,"link":"https://www.freshful.ro/oferte/special-cosmetice-21feb-8mar23","type":"promo","analyticsEventType":"select_promotion","analyticsEventPayload":{"promotion_id":"special-cosmetice-21feb-8mar23","promotion_name":"Cadouri pentru sărbătoritele lunii martie"}},"discountLabel":null,"geniusDiscountLabel":null,"badge":null},{"code":"100133957","variantCode":"100133957","name":"Trandafir în ghiveci 10.5cm, flori în ghiveci","slug":"100133957-no-brand-trandafir-in-ghiveci-10-5cm-flori-in-ghiveci","unitPriceLabel":"","brand":null,"brandCode":null,"brandFilterCode":"no-brand-b83","sku":"100133957","price":24.99,"originalPrice":null,"currencyCode":"RON","currency":"Lei","image":{"thumbnail":{"default":"https://cdn.freshful.ro/media/cache/sylius_shop_product_thumbnail/9f/10/df3441775906b12cecb8d16e0c9a.jpg"},"large":{"default":"https://cdn.freshful.ro/media/cache/freshful_large/9f/10/df3441775906b12cecb8d16e0c9a.jpg"},"extralarge":{"default":"https://cdn.freshful.ro/media/cache/sylius_shop_product_original/9f/10/df3441775906b12cecb8d16e0c9a.jpg"}},"label":{"text":"Profită acum","backgroundColor":"#FF9903","textColor":"#FFFFFF"},"tags":[],"isAvailable":true,"maxAvailableQuantity":14,"maxAllowedQuantity":250,"breadcrumbs":[{"code":"14","name":"Casă și agrement","slug":"14-casa-si-agrement"},{"code":"1402","name":"Grădină","slug":"1402-gradina"},{"code":"140203","name":"Plante și semințe","slug":"140203-plante-si-seminte"},{"code":"100133957","name":"Trandafir în ghiveci 10.5cm, flori în ghiveci","slug":"100133957-no-brand-trandafir-in-ghiveci-10-5cm-flori-in-ghiveci"}],"activePromotion":{"code":"special-cosmetice-21feb-8mar23","name":"Preț avantajos","targetQuantity":null},"saveMe":null,"labels":[{"type":"v1","items":[{"text":"Profită acum","backgroundColor":"#FF9903","textColor":"#FFFFFF"}]}],"geniusPrice":null,"geniusUnitPricePerLabel":null,"banner":{"text":"Preț avantajos","textColor":"#F95510","bgColor":"#FEF1CD","icon":null,"link":"https://www.freshful.ro/oferte/special-cosmetice-21feb-8mar23","type":"promo","analyticsEventType":"select_promotion","analyticsEventPayload":{"promotion_id":"special-cosmetice-21feb-8mar23","promotion_name":"Cadouri pentru sărbătoritele lunii martie"}},"discountLabel":null,"geniusDiscountLabel":null,"badge":null},{"code":"100151501","variantCode":"100151501","name":"Begonie diferite culori (floare în ghiveci)","slug":"100151501-no-brand-begonie-diferite-culori-floare-in-ghiveci","unitPriceLabel":"32,99 Lei/buc","brand":null,"brandCode":null,"brandFilterCode":"no-brand-b83","sku":"100151501","price":32.99,"originalPrice":null,"currencyCode":"RON","currency":"Lei","image":{"thumbnail":{"default":"https://cdn.freshful.ro/media/cache/sylius_shop_product_thumbnail/53/75/3fb3be91c9f1e605c29e66dd5706.jpg"},"large":{"default":"https://cdn.freshful.ro/media/cache/freshful_large/53/75/3fb3be91c9f1e605c29e66dd5706.jpg"},"extralarge":{"default":"https://cdn.freshful.ro/media/cache/sylius_shop_product_original/53/75/3fb3be91c9f1e605c29e66dd5706.jpg"}},"label":{"text":"Profită acum","backgroundColor":"#FF9903","textColor":"#FFFFFF"},"tags":[],"isAvailable":true,"maxAvailableQuantity":1,"maxAllowedQuantity":250,"breadcrumbs":[{"code":"14","name":"Casă și agrement","slug":"14-casa-si-agrement"},{"code":"1402","name":"Grădină","slug":"1402-gradina"},{"code":"140203","name":"Plante și semințe","slug":"140203-plante-si-seminte"},{"code":"100151501","name":"Begonie diferite culori (floare în ghiveci)","slug":"100151501-no-brand-begonie-diferite-culori-floare-in-ghiveci"}],"activePromotion":{"code":"special-cosmetice-21feb-8mar23","name":"Preț avantajos","targetQuantity":null},"saveMe":null,"labels":[{"type":"v1","items":[{"text":"Profită acum","backgroundColor":"#FF9903","textColor":"#FFFFFF"}]}],"geniusPrice":null,"geniusUnitPricePerLabel":null,"banner":{"text":"Preț avantajos","textColor":"#F95510","bgColor":"#FEF1CD","icon":null,"link":"https://www.freshful.ro/oferte/special-cosmetice-21feb-8mar23","type":"promo","analyticsEventType":"select_promotion","analyticsEventPayload":{"promotion_id":"special-cosmetice-21feb-8mar23","promotion_name":"Cadouri pentru sărbătoritele lunii martie"}},"discountLabel":null,"geniusDiscountLabel":null,"badge":null},{"code":"100135127","variantCode":"100135127","name":"Kalanchoe Calandiva diferite culori, flori în ghiveci","slug":"100135127-no-brand-kalanchoe-calandiva-diferite-culori-flori-in-ghiveci","unitPriceLabel":"","brand":null,"brandCode":null,"brandFilterCode":"no-brand-b83","sku":"100135127","price":19.99,"originalPrice":null,"currencyCode":"RON","currency":"Lei","image":{"thumbnail":{"default":"https://cdn.freshful.ro/media/cache/sylius_shop_product_thumbnail/3c/c1/968e7f8fd2b524713bd4b5a05166.jpg"},"large":{"default":"https://cdn.freshful.ro/media/cache/freshful_large/3c/c1/968e7f8fd2b524713bd4b5a05166.jpg"},"extralarge":{"default":"https://cdn.freshful.ro/media/cache/sylius_shop_product_original/3c/c1/968e7f8fd2b524713bd4b5a05166.jpg"}},"label":{"text":"Profită acum","backgroundColor":"#FF9903","textColor":"#FFFFFF"},"tags":[],"isAvailable":true,"maxAvailableQuantity":3,"maxAllowedQuantity":250,"breadcrumbs":[{"code":"14","name":"Casă și agrement","slug":"14-casa-si-agrement"},{"code":"1402","name":"Grădină","slug":"1402-gradina"},{"code":"140203","name":"Plante și semințe","slug":"140203-plante-si-seminte"},{"code":"100135127","name":"Kalanchoe Calandiva diferite culori, flori în ghiveci","slug":"100135127-no-brand-kalanchoe-calandiva-diferite-culori-flori-in-ghiveci"}],"activePromotion":{"code":"special-cosmetice-21feb-8mar23","name":"Preț avantajos","targetQuantity":null},"saveMe":null,"labels":[{"type":"v1","items":[{"text":"Profită acum","backgroundColor":"#FF9903","textColor":"#FFFFFF"}]}],"geniusPrice":null,"geniusUnitPricePerLabel":null,"banner":{"text":"Preț avantajos","textColor":"#F95510","bgColor":"#FEF1CD","icon":null,"link":"https://www.freshful.ro/oferte/special-cosmetice-21feb-8mar23","type":"promo","analyticsEventType":"select_promotion","analyticsEventPayload":{"promotion_id":"special-cosmetice-21feb-8mar23","promotion_name":"Cadouri pentru sărbătoritele lunii martie"}},"discountLabel":null,"geniusDiscountLabel":null,"badge":null},{"code":"100137510","variantCode":"100137510","name":"Semințe de regina nopții amestec 0.7g","slug":"100137510-amia-seminte-de-regina-noptii-amestec-0-7g","unitPriceLabel":"","brand":"Amia","brandCode":"2618","brandFilterCode":"amia-b2623","sku":"100137510","price":4.99,"originalPrice":null,"currencyCode":"RON","currency":"Lei","image":{"thumbnail":{"default":"https://cdn.freshful.ro/media/cache/sylius_shop_product_thumbnail/42/0e/fae183fec06b4d523ba7115a659e.jpg"},"large":{"default":"https://cdn.freshful.ro/media/cache/freshful_large/42/0e/fae183fec06b4d523ba7115a659e.jpg"},"extralarge":{"default":"https://cdn.freshful.ro/media/cache/sylius_shop_product_original/42/0e/fae183fec06b4d523ba7115a659e.jpg"}},"label":null,"tags":[],"isAvailable":true,"maxAvailableQuantity":3,"maxAllowedQuantity":250,"breadcrumbs":[{"code":"14","name":"Casă și agrement","slug":"14-casa-si-agrement"},{"code":"1402","name":"Grădină","slug":"1402-gradina"},{"code":"140203","name":"Plante și semințe","slug":"140203-plante-si-seminte"},{"code":"100137510","name":"Semințe de regina nopții amestec 0.7g","slug":"100137510-amia-seminte-de-regina-noptii-amestec-0-7g"}],"activePromotion":null,"saveMe":null,"labels":[],"geniusPrice":null,"geniusUnitPricePerLabel":null,"banner":null,"discountLabel":null,"geniusDiscountLabel":null,"badge":null},{"code":"100137498","variantCode":"100137498","name":"Semințe de gura leului, amestec de culori 0.5g","slug":"100137498-amia-seminte-de-gura-leului-amestec-de-culori-0-5g","unitPriceLabel":"","brand":"Amia","brandCode":"2618","brandFilterCode":"amia-b2623","sku":"100137498","price":4.99,"originalPrice":null,"currencyCode":"RON","currency":"Lei","image":{"thumbnail":{"default":"https://cdn.freshful.ro/media/cache/sylius_shop_product_thumbnail/73/ff/43610f319dd8cabb1f12ae709574.jpg"},"large":{"default":"https://cdn.freshful.ro/media/cache/freshful_large/73/ff/43610f319dd8cabb1f12ae709574.jpg"},"extralarge":{"default":"https://cdn.freshful.ro/media/cache/sylius_shop_product_original/73/ff/43610f319dd8cabb1f12ae709574.jpg"}},"label":null,"tags":[],"isAvailable":true,"maxAvailableQuantity":9,"maxAllowedQuantity":250,"breadcrumbs":[{"code":"14","name":"Casă și agrement","slug":"14-casa-si-agrement"},{"code":"1402","name":"Grădină","slug":"1402-gradina"},{"code":"140203","name":"Plante și semințe","slug":"140203-plante-si-seminte"},{"code":"100137498","name":"Semințe de gura leului, amestec de culori 0.5g","slug":"100137498-amia-seminte-de-gura-leului-amestec-de-culori-0-5g"}],"activePromotion":null,"saveMe":null,"labels":[],"geniusPrice":null,"geniusUnitPricePerLabel":null,"banner":null,"discountLabel":null,"geniusDiscountLabel":null,"badge":null},{"code":"100137517","variantCode":"100137517","name":"Semințe de mărar 5g","slug":"100137517-amia-seminte-de-marar-5g","unitPriceLabel":"","brand":"Amia","brandCode":"2618","brandFilterCode":"amia-b2623","sku":"100137517","price":4.99,"originalPrice":null,"currencyCode":"RON","currency":"Lei","image":{"thumbnail":{"default":"https://cdn.freshful.ro/media/cache/sylius_shop_product_thumbnail/0c/d4/8df051dab983c1cfaf0eab1e7e2c.jpg"},"large":{"default":"https://cdn.freshful.ro/media/cache/freshful_large/0c/d4/8df051dab983c1cfaf0eab1e7e2c.jpg"},"extralarge":{"default":"https://cdn.freshful.ro/media/cache/sylius_shop_product_original/0c/d4/8df051dab983c1cfaf0eab1e7e2c.jpg"}},"label":null,"tags":[],"isAvailable":true,"maxAvailableQuantity":10,"maxAllowedQuantity":250,"breadcrumbs":[{"code":"14","name":"Casă și agrement","slug":"14-casa-si-agrement"},{"code":"1402","name":"Grădină","slug":"1402-gradina"},{"code":"140203","name":"Plante și semințe","slug":"140203-plante-si-seminte"},{"code":"100137517","name":"Semințe de mărar 5g","slug":"100137517-amia-seminte-de-marar-5g"}],"activePromotion":null,"saveMe":null,"labels":[],"geniusPrice":null,"geniusUnitPricePerLabel":null,"banner":null,"discountLabel":null,"geniusDiscountLabel":null,"badge":null},{"code":"100137520","variantCode":"100137520","name":"Semințe de leuștean 0.5g","slug":"100137520-amia-seminte-de-leustean-0-5g","unitPriceLabel":"","brand":"Amia","brandCode":"2618","brandFilterCode":"amia-b2623","sku":"100137520","price":4.99,"originalPrice":null,"currencyCode":"RON","currency":"Lei","image":{"thumbnail":{"default":"https://cdn.freshful.ro/media/cache/sylius_shop_product_thumbnail/81/65/778a5986187c717da1364848beaf.jpg"},"large":{"default":"https://cdn.freshful.ro/media/cache/freshful_large/81/65/778a5986187c717da1364848beaf.jpg"},"extralarge":{"default":"https://cdn.freshful.ro/media/cache/sylius_shop_product_original/81/65/778a5986187c717da1364848beaf.jpg"}},"label":null,"tags":[],"isAvailable":true,"maxAvailableQuantity":7,"maxAllowedQuantity":250,"breadcrumbs":[{"code":"14","name":"Casă și agrement","slug":"14-casa-si-agrement"},{"code":"1402","name":"Grădină","slug":"1402-gradina"},{"code":"140203","name":"Plante și semințe","slug":"140203-plante-si-seminte"},{"code":"100137520","name":"Semințe de leuștean 0.5g","slug":"100137520-amia-seminte-de-leustean-0-5g"}],"activePromotion":null,"saveMe":null,"labels":[],"geniusPrice":null,"geniusUnitPricePerLabel":null,"banner":null,"discountLabel":null,"geniusDiscountLabel":null,"badge":null},{"code":"100137524","variantCode":"100137524","name":"Semințe de mentă 0.1g","slug":"100137524-amia-seminte-de-menta-0-1g","unitPriceLabel":"","brand":"Amia","brandCode":"2618","brandFilterCode":"amia-b2623","sku":"100137524","price":4.99,"originalPrice":null,"currencyCode":"RON","currency":"Lei","image":{"thumbnail":{"default":"https://cdn.freshful.ro/media/cache/sylius_shop_product_thumbnail/af/7c/141a1d5f3eb5a42df5feb0ea356f.jpg"},"large":{"default":"https://cdn.freshful.ro/media/cache/freshful_large/af/7c/141a1d5f3eb5a42df5feb0ea356f.jpg"},"extralarge":{"default":"https://cdn.freshful.ro/media/cache/sylius_shop_product_original/af/7c/141a1d5f3eb5a42df5feb0ea356f.jpg"}},"label":null,"tags":[],"isAvailable":true,"maxAvailableQuantity":9,"maxAllowedQuantity":250,"breadcrumbs":[{"code":"14","name":"Casă și agrement","slug":"14-casa-si-agrement"},{"code":"1402","name":"Grădină","slug":"1402-gradina"},{"code":"140203","name":"Plante și semințe","slug":"140203-plante-si-seminte"},{"code":"100137524","name":"Semințe de mentă 0.1g","slug":"100137524-amia-seminte-de-menta-0-1g"}],"activePromotion":null,"saveMe":null,"labels":[],"geniusPrice":null,"geniusUnitPricePerLabel":null,"banner":null,"discountLabel":null,"geniusDiscountLabel":null,"badge":null},{"code":"100137519","variantCode":"100137519","name":"Semințe de pătrunjel 7g","slug":"100137519-amia-seminte-de-patrunjel-7g","unitPriceLabel":"","brand":"Amia","brandCode":"2618","brandFilterCode":"amia-b2623","sku":"100137519","price":4.99,"originalPrice":null,"currencyCode":"RON","currency":"Lei","image":{"thumbnail":{"default":"https://cdn.freshful.ro/media/cache/sylius_shop_product_thumbnail/63/83/14ba94dbf3e705a04d4f7f0ce247.jpg"},"large":{"default":"https://cdn.freshful.ro/media/cache/freshful_large/63/83/14ba94dbf3e705a04d4f7f0ce247.jpg"},"extralarge":{"default":"https://cdn.freshful.ro/media/cache/sylius_shop_product_original/63/83/14ba94dbf3e705a04d4f7f0ce247.jpg"}},"label":null,"tags":[],"isAvailable":true,"maxAvailableQuantity":13,"maxAllowedQuantity":250,"breadcrumbs":[{"code":"14","name":"Casă și agrement","slug":"14-casa-si-agrement"},{"code":"1402","name":"Grădină","slug":"1402-gradina"},{"code":"140203","name":"Plante și semințe","slug":"140203-plante-si-seminte"},{"code":"100137519","name":"Semințe de pătrunjel 7g","slug":"100137519-amia-seminte-de-patrunjel-7g"}],"activePromotion":null,"saveMe":null,"labels":[],"geniusPrice":null,"geniusUnitPricePerLabel":null,"banner":null,"discountLabel":null,"geniusDiscountLabel":null,"badge":null}],"filters":{"countSelected":0,"items":[{"code":"promotion","name":"Promoții","countSelected":0,"values":[{"code":"special-cosmetice-21feb-8mar23","name":"Cadouri pentru sărbătoritele lunii martie","isSelected":false,"count":7}]},{"code":"brand","name":"Brand","countSelected":0,"values":[{"code":"amia-b2623","name":"Amia","isSelected":false,"count":97},{"code":"phalaenopsis-b2503","name":"Phalaenopsis","isSelected":false,"count":1}]},{"code":"diet_lifestyle","name":"Dietă și lifestyle","countSelected":0,"values":[{"code":"bio-a26","name":"Bio","isSelected":false,"count":16}]}]},"orderBy":[{"field":"price","direction":"asc","name":"Preț crescător","isSelected":false},{"field":"price","direction":"desc","name":"Preț descrescător","isSelected":false},{"field":"popularity","direction":"desc","name":"Cele mai populare","isSelected":true},{"field":"category","direction":"asc","name":"Categorie","isSelected":false}],"metaTitle":"Plante și semințe - Gamă variată","metaDescription":"Vrei Plante și semințe? Alege dintr-o gamă variată. Comanzi simplu și ai livrare rapidă, calitate și prospețime. Hai pe Freshful.ro","metaKeywords":null,"banners":[]}}