{"type":"subcategory","payload":{"analyticsListId":"category_140308-lumanari-si-aromatice","analyticsListName":"Category - Lumânări și aromatice","name":"Lumânări și aromatice","slug":"140308-lumanari-si-aromatice","image":null,"breadcrumbs":[{"code":"14","name":"Casă și agrement","slug":"14-casa-si-agrement"},{"code":"1403","name":"Articole de menaj","slug":"1403-articole-de-menaj"},{"code":"140308","name":"Lumânări și aromatice","slug":"140308-lumanari-si-aromatice"}],"slots":[],"page":1,"limit":10,"pages":5,"count":47,"siblings":[{"name":"Bricolaj și auto","slug":"1401-bricolaj-si-auto","selected":false},{"name":"Grădină","slug":"1402-gradina","selected":false},{"name":"Articole de menaj","slug":"1403-articole-de-menaj","selected":true},{"name":"Textile pentru casă","slug":"1404-textile-de-casa","selected":false},{"name":"Birotică și papetărie","slug":"1405-birotica-si-papetarie","selected":false},{"name":"Jucării","slug":"1406-jucarii","selected":false},{"name":"Accesorii IT&C","slug":"1408-hitech-audio-video","selected":false},{"name":"Textile și accesorii","slug":"1410-textile-basic","selected":false}],"children":[{"name":"Toate produsele","slug":"1403-articole-de-menaj","selected":false},{"name":"Pahare și carafe","slug":"140301-pahare-si-carafe","selected":false},{"name":"Veselă, tacâmuri și accesorii pentru masă","slug":"140302-vesela-tacamuri-si-accesorii-pentru-masa","selected":false},{"name":"Veselă de unică folosință","slug":"140303-vesela-de-unica-folosinta","selected":false},{"name":"Articole pentru gătit","slug":"140304-articole-pentru-gatit-si-coacere","selected":false},{"name":"Articole menajere și pentru bucătărie","slug":"140305-articole-menajere-si-pentru-bucatarie","selected":false},{"name":"Lumânări și aromatice","slug":"140308-lumanari-si-aromatice","selected":true},{"name":"Accesorii pentru petrecere","slug":"accesorii-pentru-petrecere","selected":false}],"products":[{"code":"100064777","variantCode":"100064777","name":"Lumânări pastilă ecologice 100/set","slug":"100064777-oti-lumanari-pastila-ecologice-100-set","unitPriceLabel":"","brand":"Oti","brandCode":"988","brandFilterCode":"oti-b1002","sku":"100064777","price":30.99,"originalPrice":null,"currencyCode":"RON","currency":"Lei","image":{"thumbnail":{"default":"https://cdn.freshful.ro/media/cache/sylius_shop_product_thumbnail/ab/22/98c683f4db72ce50d3849cfc44c7.jpg"},"large":{"default":"https://cdn.freshful.ro/media/cache/freshful_large/ab/22/98c683f4db72ce50d3849cfc44c7.jpg"},"extralarge":{"default":"https://cdn.freshful.ro/media/cache/sylius_shop_product_original/ab/22/98c683f4db72ce50d3849cfc44c7.jpg"}},"label":null,"tags":[{"type":"Eco","text":"Eco","icon":"https://cdn.freshful.ro/assets/product_tags/eco.svg","iconPng":"https://cdn.freshful.ro/assets/product_tags/eco.png","backgroundColor":"#EFFBE4","textColor":"#66BB1B"}],"isAvailable":true,"maxAvailableQuantity":100,"maxAllowedQuantity":100,"breadcrumbs":[{"code":"14","name":"Casă și agrement","slug":"14-casa-si-agrement"},{"code":"1403","name":"Articole de menaj","slug":"1403-articole-de-menaj"},{"code":"140308","name":"Lumânări și aromatice","slug":"140308-lumanari-si-aromatice"},{"code":"100064777","name":"Lumânări pastilă ecologice 100/set","slug":"100064777-oti-lumanari-pastila-ecologice-100-set"}],"activePromotion":null,"saveMe":null,"labels":[],"geniusPrice":null,"geniusUnitPricePerLabel":null,"banner":null,"discountLabel":null,"geniusDiscountLabel":null,"badge":null},{"code":"100117496","variantCode":"100117496","name":"Lumânări pastilă 4 ore 30 buc","slug":"100117496-bispol-lumanari-pastila-4-ore-30-buc","unitPriceLabel":"","brand":"Bispol","brandCode":"1990","brandFilterCode":"bispol-b1994","sku":"100117496","price":14.69,"originalPrice":null,"currencyCode":"RON","currency":"Lei","image":{"thumbnail":{"default":"https://cdn.freshful.ro/media/cache/sylius_shop_product_thumbnail/84/56/4b2139f7381683fbcaf715aed2ec.jpg"},"large":{"default":"https://cdn.freshful.ro/media/cache/freshful_large/84/56/4b2139f7381683fbcaf715aed2ec.jpg"},"extralarge":{"default":"https://cdn.freshful.ro/media/cache/sylius_shop_product_original/84/56/4b2139f7381683fbcaf715aed2ec.jpg"}},"label":null,"tags":[],"isAvailable":true,"maxAvailableQuantity":94,"maxAllowedQuantity":100,"breadcrumbs":[{"code":"14","name":"Casă și agrement","slug":"14-casa-si-agrement"},{"code":"1403","name":"Articole de menaj","slug":"1403-articole-de-menaj"},{"code":"140308","name":"Lumânări și aromatice","slug":"140308-lumanari-si-aromatice"},{"code":"100117496","name":"Lumânări pastilă 4 ore 30 buc","slug":"100117496-bispol-lumanari-pastila-4-ore-30-buc"}],"activePromotion":null,"saveMe":null,"labels":[],"geniusPrice":null,"geniusUnitPricePerLabel":null,"banner":null,"discountLabel":null,"geniusDiscountLabel":null,"badge":null},{"code":"100117509","variantCode":"100117509","name":"Lumânare pastilă Mango 18 buc","slug":"100117509-bolsius-lumanare-pastila-mango-18-buc","unitPriceLabel":"","brand":"Bolsius","brandCode":"1989","brandFilterCode":"bolsius-b1993","sku":"100117509","price":20.99,"originalPrice":null,"currencyCode":"RON","currency":"Lei","image":{"thumbnail":{"default":"https://cdn.freshful.ro/media/cache/sylius_shop_product_thumbnail/1e/56/4f6c2491b6482f241914435cfbbd.jpg"},"large":{"default":"https://cdn.freshful.ro/media/cache/freshful_large/1e/56/4f6c2491b6482f241914435cfbbd.jpg"},"extralarge":{"default":"https://cdn.freshful.ro/media/cache/sylius_shop_product_original/1e/56/4f6c2491b6482f241914435cfbbd.jpg"}},"label":null,"tags":[],"isAvailable":true,"maxAvailableQuantity":62,"maxAllowedQuantity":100,"breadcrumbs":[{"code":"14","name":"Casă și agrement","slug":"14-casa-si-agrement"},{"code":"1403","name":"Articole de menaj","slug":"1403-articole-de-menaj"},{"code":"140308","name":"Lumânări și aromatice","slug":"140308-lumanari-si-aromatice"},{"code":"100117509","name":"Lumânare pastilă Mango 18 buc","slug":"100117509-bolsius-lumanare-pastila-mango-18-buc"}],"activePromotion":null,"saveMe":null,"labels":[],"geniusPrice":null,"geniusUnitPricePerLabel":null,"banner":null,"discountLabel":null,"geniusDiscountLabel":null,"badge":null},{"code":"100117489","variantCode":"100117489","name":"Candelă rezervă cu ulei, alb - 8 zile","slug":"100117489-bolsius-candela-rezerva-cu-ulei-alb-8-zile","unitPriceLabel":"","brand":"Bolsius","brandCode":"1989","brandFilterCode":"bolsius-b1993","sku":"100117489","price":29.9,"originalPrice":null,"currencyCode":"RON","currency":"Lei","image":{"thumbnail":{"default":"https://cdn.freshful.ro/media/cache/sylius_shop_product_thumbnail/e8/92/cd2e2692cfd5a74c05ffc17cdc6e.jpg"},"large":{"default":"https://cdn.freshful.ro/media/cache/freshful_large/e8/92/cd2e2692cfd5a74c05ffc17cdc6e.jpg"},"extralarge":{"default":"https://cdn.freshful.ro/media/cache/sylius_shop_product_original/e8/92/cd2e2692cfd5a74c05ffc17cdc6e.jpg"}},"label":null,"tags":[],"isAvailable":true,"maxAvailableQuantity":85,"maxAllowedQuantity":100,"breadcrumbs":[{"code":"14","name":"Casă și agrement","slug":"14-casa-si-agrement"},{"code":"1403","name":"Articole de menaj","slug":"1403-articole-de-menaj"},{"code":"140308","name":"Lumânări și aromatice","slug":"140308-lumanari-si-aromatice"},{"code":"100117489","name":"Candelă rezervă cu ulei, alb - 8 zile","slug":"100117489-bolsius-candela-rezerva-cu-ulei-alb-8-zile"}],"activePromotion":null,"saveMe":null,"labels":[],"geniusPrice":null,"geniusUnitPricePerLabel":null,"banner":null,"discountLabel":null,"geniusDiscountLabel":null,"badge":null},{"code":"100117500","variantCode":"100117500","name":"Odorizant cu beţişoare pentru casă Vanilie","slug":"100117500-bolsius-odorizant-cu-betisoare-pentru-casa-vanilie","unitPriceLabel":"","brand":"Bolsius","brandCode":"1989","brandFilterCode":"bolsius-b1993","sku":"100117500","price":40.99,"originalPrice":null,"currencyCode":"RON","currency":"Lei","image":{"thumbnail":{"default":"https://cdn.freshful.ro/media/cache/sylius_shop_product_thumbnail/89/d3/24fedc94713209605b7fec339989.jpg"},"large":{"default":"https://cdn.freshful.ro/media/cache/freshful_large/89/d3/24fedc94713209605b7fec339989.jpg"},"extralarge":{"default":"https://cdn.freshful.ro/media/cache/sylius_shop_product_original/89/d3/24fedc94713209605b7fec339989.jpg"}},"label":null,"tags":[],"isAvailable":true,"maxAvailableQuantity":22,"maxAllowedQuantity":100,"breadcrumbs":[{"code":"14","name":"Casă și agrement","slug":"14-casa-si-agrement"},{"code":"1403","name":"Articole de menaj","slug":"1403-articole-de-menaj"},{"code":"140308","name":"Lumânări și aromatice","slug":"140308-lumanari-si-aromatice"},{"code":"100117500","name":"Odorizant cu beţişoare pentru casă Vanilie","slug":"100117500-bolsius-odorizant-cu-betisoare-pentru-casa-vanilie"}],"activePromotion":null,"saveMe":null,"labels":[],"geniusPrice":null,"geniusUnitPricePerLabel":null,"banner":null,"discountLabel":null,"geniusDiscountLabel":null,"badge":null},{"code":"100117526","variantCode":"100117526","name":"Bețisoare parfumate hexagonale","slug":"100117526-hem-betisoare-parfumate-hexagonale","unitPriceLabel":"","brand":"Hem","brandCode":"1991","brandFilterCode":"hem-b1995","sku":"100117526","price":8.99,"originalPrice":null,"currencyCode":"RON","currency":"Lei","image":{"thumbnail":{"default":"https://cdn.freshful.ro/media/cache/sylius_shop_product_thumbnail/03/7a/1ac408737f1fa4c323de95e53e68.jpg"},"large":{"default":"https://cdn.freshful.ro/media/cache/freshful_large/03/7a/1ac408737f1fa4c323de95e53e68.jpg"},"extralarge":{"default":"https://cdn.freshful.ro/media/cache/sylius_shop_product_original/03/7a/1ac408737f1fa4c323de95e53e68.jpg"}},"label":null,"tags":[],"isAvailable":true,"maxAvailableQuantity":30,"maxAllowedQuantity":100,"breadcrumbs":[{"code":"14","name":"Casă și agrement","slug":"14-casa-si-agrement"},{"code":"1403","name":"Articole de menaj","slug":"1403-articole-de-menaj"},{"code":"140308","name":"Lumânări și aromatice","slug":"140308-lumanari-si-aromatice"},{"code":"100117526","name":"Bețisoare parfumate hexagonale","slug":"100117526-hem-betisoare-parfumate-hexagonale"}],"activePromotion":null,"saveMe":null,"labels":[],"geniusPrice":null,"geniusUnitPricePerLabel":null,"banner":null,"discountLabel":null,"geniusDiscountLabel":null,"badge":null},{"code":"100117488","variantCode":"100117488","name":"Candelă rezervă cu ulei, roșu - 160 ore","slug":"100117488-bolsius-candela-rezerva-cu-ulei-rosu-160-ore","unitPriceLabel":"","brand":"Bolsius","brandCode":"1989","brandFilterCode":"bolsius-b1993","sku":"100117488","price":19.89,"originalPrice":null,"currencyCode":"RON","currency":"Lei","image":{"thumbnail":{"default":"https://cdn.freshful.ro/media/cache/sylius_shop_product_thumbnail/d3/c3/52374b4cf8482441686229d20b9a.jpg"},"large":{"default":"https://cdn.freshful.ro/media/cache/freshful_large/d3/c3/52374b4cf8482441686229d20b9a.jpg"},"extralarge":{"default":"https://cdn.freshful.ro/media/cache/sylius_shop_product_original/d3/c3/52374b4cf8482441686229d20b9a.jpg"}},"label":null,"tags":[],"isAvailable":true,"maxAvailableQuantity":24,"maxAllowedQuantity":100,"breadcrumbs":[{"code":"14","name":"Casă și agrement","slug":"14-casa-si-agrement"},{"code":"1403","name":"Articole de menaj","slug":"1403-articole-de-menaj"},{"code":"140308","name":"Lumânări și aromatice","slug":"140308-lumanari-si-aromatice"},{"code":"100117488","name":"Candelă rezervă cu ulei, roșu - 160 ore","slug":"100117488-bolsius-candela-rezerva-cu-ulei-rosu-160-ore"}],"activePromotion":null,"saveMe":null,"labels":[],"geniusPrice":null,"geniusUnitPricePerLabel":null,"banner":null,"discountLabel":null,"geniusDiscountLabel":null,"badge":null},{"code":"100117497","variantCode":"100117497","name":"Lumânări pastilă Nightlight 8 ore 50 buc","slug":"100117497-bispol-lumanari-pastila-nightlight-8-ore-50-buc","unitPriceLabel":"","brand":"Bispol","brandCode":"1990","brandFilterCode":"bispol-b1994","sku":"100117497","price":49.9,"originalPrice":null,"currencyCode":"RON","currency":"Lei","image":{"thumbnail":{"default":"https://cdn.freshful.ro/media/cache/sylius_shop_product_thumbnail/89/1c/e064e6568f33aa05d87f495ec2b0.jpg"},"large":{"default":"https://cdn.freshful.ro/media/cache/freshful_large/89/1c/e064e6568f33aa05d87f495ec2b0.jpg"},"extralarge":{"default":"https://cdn.freshful.ro/media/cache/sylius_shop_product_original/89/1c/e064e6568f33aa05d87f495ec2b0.jpg"}},"label":null,"tags":[],"isAvailable":true,"maxAvailableQuantity":39,"maxAllowedQuantity":100,"breadcrumbs":[{"code":"14","name":"Casă și agrement","slug":"14-casa-si-agrement"},{"code":"1403","name":"Articole de menaj","slug":"1403-articole-de-menaj"},{"code":"140308","name":"Lumânări și aromatice","slug":"140308-lumanari-si-aromatice"},{"code":"100117497","name":"Lumânări pastilă Nightlight 8 ore 50 buc","slug":"100117497-bispol-lumanari-pastila-nightlight-8-ore-50-buc"}],"activePromotion":null,"saveMe":null,"labels":[],"geniusPrice":null,"geniusUnitPricePerLabel":null,"banner":null,"discountLabel":null,"geniusDiscountLabel":null,"badge":null},{"code":"100117482","variantCode":"100117482","name":"Candelă sticlă Maica Domnului 3l","slug":"100117482-bolsius-candela-sticla-maica-domnului-3l","unitPriceLabel":"","brand":"Bolsius","brandCode":"1989","brandFilterCode":"bolsius-b1993","sku":"100117482","price":25.89,"originalPrice":null,"currencyCode":"RON","currency":"Lei","image":{"thumbnail":{"default":"https://cdn.freshful.ro/media/cache/sylius_shop_product_thumbnail/69/21/9b29af070d506d7dff7a53eaa6b5.jpg"},"large":{"default":"https://cdn.freshful.ro/media/cache/freshful_large/69/21/9b29af070d506d7dff7a53eaa6b5.jpg"},"extralarge":{"default":"https://cdn.freshful.ro/media/cache/sylius_shop_product_original/69/21/9b29af070d506d7dff7a53eaa6b5.jpg"}},"label":null,"tags":[],"isAvailable":true,"maxAvailableQuantity":29,"maxAllowedQuantity":100,"breadcrumbs":[{"code":"14","name":"Casă și agrement","slug":"14-casa-si-agrement"},{"code":"1403","name":"Articole de menaj","slug":"1403-articole-de-menaj"},{"code":"140308","name":"Lumânări și aromatice","slug":"140308-lumanari-si-aromatice"},{"code":"100117482","name":"Candelă sticlă Maica Domnului 3l","slug":"100117482-bolsius-candela-sticla-maica-domnului-3l"}],"activePromotion":null,"saveMe":null,"labels":[],"geniusPrice":null,"geniusUnitPricePerLabel":null,"banner":null,"discountLabel":null,"geniusDiscountLabel":null,"badge":null},{"code":"100117484","variantCode":"100117484","name":"Candelă rezervă cu ulei, roșu - 45 ore","slug":"100117484-bolsius-candela-rezerva-cu-ulei-rosu-45-ore","unitPriceLabel":"","brand":"Bolsius","brandCode":"1989","brandFilterCode":"bolsius-b1993","sku":"100117484","price":6.99,"originalPrice":null,"currencyCode":"RON","currency":"Lei","image":{"thumbnail":{"default":"https://cdn.freshful.ro/media/cache/sylius_shop_product_thumbnail/8a/3f/4542ed18db7f6b40d19e41eabd3f.jpg"},"large":{"default":"https://cdn.freshful.ro/media/cache/freshful_large/8a/3f/4542ed18db7f6b40d19e41eabd3f.jpg"},"extralarge":{"default":"https://cdn.freshful.ro/media/cache/sylius_shop_product_original/8a/3f/4542ed18db7f6b40d19e41eabd3f.jpg"}},"label":null,"tags":[],"isAvailable":true,"maxAvailableQuantity":41,"maxAllowedQuantity":100,"breadcrumbs":[{"code":"14","name":"Casă și agrement","slug":"14-casa-si-agrement"},{"code":"1403","name":"Articole de menaj","slug":"1403-articole-de-menaj"},{"code":"140308","name":"Lumânări și aromatice","slug":"140308-lumanari-si-aromatice"},{"code":"100117484","name":"Candelă rezervă cu ulei, roșu - 45 ore","slug":"100117484-bolsius-candela-rezerva-cu-ulei-rosu-45-ore"}],"activePromotion":null,"saveMe":null,"labels":[],"geniusPrice":null,"geniusUnitPricePerLabel":null,"banner":null,"discountLabel":null,"geniusDiscountLabel":null,"badge":null}],"filters":{"countSelected":0,"items":[{"code":"brand","name":"Brand","countSelected":0,"values":[{"code":"bispol-b1994","name":"Bispol","isSelected":false,"count":16},{"code":"bolsius-b1993","name":"Bolsius","isSelected":false,"count":24},{"code":"hem-b1995","name":"Hem","isSelected":false,"count":2},{"code":"lca-b1992","name":"Lca","isSelected":false,"count":3},{"code":"oti-b1002","name":"Oti","isSelected":false,"count":2}]},{"code":"diet_lifestyle","name":"Dietă și lifestyle","countSelected":0,"values":[{"code":"eco-a83","name":"Eco","isSelected":false,"count":1}]}]},"orderBy":[{"field":"price","direction":"asc","name":"Preț crescător","isSelected":false},{"field":"price","direction":"desc","name":"Preț descrescător","isSelected":false},{"field":"popularity","direction":"desc","name":"Cele mai populare","isSelected":true},{"field":"category","direction":"asc","name":"Categorie","isSelected":false}],"metaTitle":"Lumânări și aromatice - Gamă variată","metaDescription":"Vrei Lumânări și aromatice? Alege dintr-o gamă variată. Comanzi simplu și ai livrare rapidă, calitate și prospețime. Hai pe Freshful.ro","metaKeywords":null,"banners":[]}}