{"type":"subcategory","payload":{"analyticsListId":"category_140304-articole-pentru-gatit-si-coacere","analyticsListName":"Category - Articole pentru gătit","name":"Articole pentru gătit","slug":"140304-articole-pentru-gatit-si-coacere","image":null,"breadcrumbs":[{"code":"14","name":"Casă și agrement","slug":"14-casa-si-agrement"},{"code":"1403","name":"Articole de menaj","slug":"1403-articole-de-menaj"},{"code":"140304","name":"Articole pentru gătit","slug":"140304-articole-pentru-gatit-si-coacere"}],"slots":[],"page":1,"limit":10,"pages":3,"count":21,"siblings":[{"name":"Bricolaj și auto","slug":"1401-bricolaj-si-auto","selected":false},{"name":"Grădină","slug":"1402-gradina","selected":false},{"name":"Articole de menaj","slug":"1403-articole-de-menaj","selected":true},{"name":"Textile pentru casă","slug":"1404-textile-de-casa","selected":false},{"name":"Birotică și papetărie","slug":"1405-birotica-si-papetarie","selected":false},{"name":"Jucării","slug":"1406-jucarii","selected":false},{"name":"Accesorii IT&C","slug":"1408-hitech-audio-video","selected":false},{"name":"Textile și accesorii","slug":"1410-textile-basic","selected":false}],"children":[{"name":"Toate produsele","slug":"1403-articole-de-menaj","selected":false},{"name":"Pahare și carafe","slug":"140301-pahare-si-carafe","selected":false},{"name":"Veselă, tacâmuri și accesorii pentru masă","slug":"140302-vesela-tacamuri-si-accesorii-pentru-masa","selected":false},{"name":"Veselă de unică folosință","slug":"140303-vesela-de-unica-folosinta","selected":false},{"name":"Articole pentru gătit","slug":"140304-articole-pentru-gatit-si-coacere","selected":true},{"name":"Articole menajere și pentru bucătărie","slug":"140305-articole-menajere-si-pentru-bucatarie","selected":false},{"name":"Lumânări și aromatice","slug":"140308-lumanari-si-aromatice","selected":false},{"name":"Accesorii pentru petrecere","slug":"accesorii-pentru-petrecere","selected":false}],"products":[{"code":"100124759","variantCode":"100124759","name":"Tavă din aluminiu 1000ml pentru copt chec 5 buc","slug":"100124759-oti-tava-din-aluminiu-1000ml-pentru-copt-chec-5-buc","unitPriceLabel":"","brand":"Oti","brandCode":"988","brandFilterCode":"oti-b1002","sku":"100124759","price":4.69,"originalPrice":null,"currencyCode":"RON","currency":"Lei","image":{"thumbnail":{"default":"https://cdn.freshful.ro/media/cache/sylius_shop_product_thumbnail/a0/2b/f1eef536b991d9fc00b97c5d7ae0.jpg"},"large":{"default":"https://cdn.freshful.ro/media/cache/freshful_large/a0/2b/f1eef536b991d9fc00b97c5d7ae0.jpg"},"extralarge":{"default":"https://cdn.freshful.ro/media/cache/sylius_shop_product_original/a0/2b/f1eef536b991d9fc00b97c5d7ae0.jpg"}},"label":null,"tags":[],"isAvailable":true,"maxAvailableQuantity":37,"maxAllowedQuantity":100,"breadcrumbs":[{"code":"14","name":"Casă și agrement","slug":"14-casa-si-agrement"},{"code":"1403","name":"Articole de menaj","slug":"1403-articole-de-menaj"},{"code":"140304","name":"Articole pentru gătit","slug":"140304-articole-pentru-gatit-si-coacere"},{"code":"100124759","name":"Tavă din aluminiu 1000ml pentru copt chec 5 buc","slug":"100124759-oti-tava-din-aluminiu-1000ml-pentru-copt-chec-5-buc"}],"activePromotion":null,"saveMe":null,"labels":[],"geniusPrice":null,"geniusUnitPricePerLabel":null,"banner":null,"discountLabel":null,"geniusDiscountLabel":null,"badge":null},{"code":"100124760","variantCode":"100124760","name":"Tavă din aluminiu 1380ml pentru copt tartă 5 buc","slug":"100124760-oti-tava-din-aluminiu-1380ml-pentru-copt-tarta-5-buc","unitPriceLabel":"","brand":"Oti","brandCode":"988","brandFilterCode":"oti-b1002","sku":"100124760","price":6.99,"originalPrice":null,"currencyCode":"RON","currency":"Lei","image":{"thumbnail":{"default":"https://cdn.freshful.ro/media/cache/sylius_shop_product_thumbnail/65/0f/ed225a82a8cc6862fbbecf5b6b63.jpg"},"large":{"default":"https://cdn.freshful.ro/media/cache/freshful_large/65/0f/ed225a82a8cc6862fbbecf5b6b63.jpg"},"extralarge":{"default":"https://cdn.freshful.ro/media/cache/sylius_shop_product_original/65/0f/ed225a82a8cc6862fbbecf5b6b63.jpg"}},"label":null,"tags":[],"isAvailable":true,"maxAvailableQuantity":70,"maxAllowedQuantity":100,"breadcrumbs":[{"code":"14","name":"Casă și agrement","slug":"14-casa-si-agrement"},{"code":"1403","name":"Articole de menaj","slug":"1403-articole-de-menaj"},{"code":"140304","name":"Articole pentru gătit","slug":"140304-articole-pentru-gatit-si-coacere"},{"code":"100124760","name":"Tavă din aluminiu 1380ml pentru copt tartă 5 buc","slug":"100124760-oti-tava-din-aluminiu-1380ml-pentru-copt-tarta-5-buc"}],"activePromotion":null,"saveMe":null,"labels":[],"geniusPrice":null,"geniusUnitPricePerLabel":null,"banner":null,"discountLabel":null,"geniusDiscountLabel":null,"badge":null},{"code":"100124757","variantCode":"100124757","name":"Tavă teflonată pentru 12 brioșe","slug":"100124757-oti-tava-teflonata-pentru-12-briose","unitPriceLabel":"","brand":"Oti","brandCode":"988","brandFilterCode":"oti-b1002","sku":"100124757","price":19.98,"originalPrice":null,"currencyCode":"RON","currency":"Lei","image":{"thumbnail":{"default":"https://cdn.freshful.ro/media/cache/sylius_shop_product_thumbnail/6d/89/7bc57bba4320be98a8c687ff37f4.jpg"},"large":{"default":"https://cdn.freshful.ro/media/cache/freshful_large/6d/89/7bc57bba4320be98a8c687ff37f4.jpg"},"extralarge":{"default":"https://cdn.freshful.ro/media/cache/sylius_shop_product_original/6d/89/7bc57bba4320be98a8c687ff37f4.jpg"}},"label":null,"tags":[],"isAvailable":true,"maxAvailableQuantity":56,"maxAllowedQuantity":100,"breadcrumbs":[{"code":"14","name":"Casă și agrement","slug":"14-casa-si-agrement"},{"code":"1403","name":"Articole de menaj","slug":"1403-articole-de-menaj"},{"code":"140304","name":"Articole pentru gătit","slug":"140304-articole-pentru-gatit-si-coacere"},{"code":"100124757","name":"Tavă teflonată pentru 12 brioșe","slug":"100124757-oti-tava-teflonata-pentru-12-briose"}],"activePromotion":null,"saveMe":null,"labels":[],"geniusPrice":null,"geniusUnitPricePerLabel":null,"banner":null,"discountLabel":null,"geniusDiscountLabel":null,"badge":null},{"code":"100143380","variantCode":"100143380","name":"Set 4 caserole din plastic cu capac","slug":"100143380-cooking-by-heinner-set-4-caserole-din-plastic-cu-capac","unitPriceLabel":"","brand":"Cooking By Heinner","brandCode":"2756","brandFilterCode":"cooking-by-heinner-b2830","sku":"100143380","price":16.98,"originalPrice":null,"currencyCode":"RON","currency":"Lei","image":{"thumbnail":{"default":"https://cdn.freshful.ro/media/cache/sylius_shop_product_thumbnail/c7/27/533e875417c5c154906ebe09fb46.jpg"},"large":{"default":"https://cdn.freshful.ro/media/cache/freshful_large/c7/27/533e875417c5c154906ebe09fb46.jpg"},"extralarge":{"default":"https://cdn.freshful.ro/media/cache/sylius_shop_product_original/c7/27/533e875417c5c154906ebe09fb46.jpg"}},"label":null,"tags":[],"isAvailable":true,"maxAvailableQuantity":41,"maxAllowedQuantity":100,"breadcrumbs":[{"code":"14","name":"Casă și agrement","slug":"14-casa-si-agrement"},{"code":"1403","name":"Articole de menaj","slug":"1403-articole-de-menaj"},{"code":"140304","name":"Articole pentru gătit","slug":"140304-articole-pentru-gatit-si-coacere"},{"code":"100143380","name":"Set 4 caserole din plastic cu capac","slug":"100143380-cooking-by-heinner-set-4-caserole-din-plastic-cu-capac"}],"activePromotion":null,"saveMe":null,"labels":[],"geniusPrice":null,"geniusUnitPricePerLabel":null,"banner":null,"discountLabel":null,"geniusDiscountLabel":null,"badge":null},{"code":"100124755","variantCode":"100124755","name":"Tavă de cuptor teflonată 38x26x5.5cm","slug":"100124755-oti-tava-de-cuptor-teflonata-38x26x5-5cm","unitPriceLabel":"","brand":"Oti","brandCode":"988","brandFilterCode":"oti-b1002","sku":"100124755","price":19.48,"originalPrice":null,"currencyCode":"RON","currency":"Lei","image":{"thumbnail":{"default":"https://cdn.freshful.ro/media/cache/sylius_shop_product_thumbnail/25/8e/206b4abd246d658c5e135b66b640.jpg"},"large":{"default":"https://cdn.freshful.ro/media/cache/freshful_large/25/8e/206b4abd246d658c5e135b66b640.jpg"},"extralarge":{"default":"https://cdn.freshful.ro/media/cache/sylius_shop_product_original/25/8e/206b4abd246d658c5e135b66b640.jpg"}},"label":null,"tags":[],"isAvailable":true,"maxAvailableQuantity":60,"maxAllowedQuantity":100,"breadcrumbs":[{"code":"14","name":"Casă și agrement","slug":"14-casa-si-agrement"},{"code":"1403","name":"Articole de menaj","slug":"1403-articole-de-menaj"},{"code":"140304","name":"Articole pentru gătit","slug":"140304-articole-pentru-gatit-si-coacere"},{"code":"100124755","name":"Tavă de cuptor teflonată 38x26x5.5cm","slug":"100124755-oti-tava-de-cuptor-teflonata-38x26x5-5cm"}],"activePromotion":null,"saveMe":null,"labels":[],"geniusPrice":null,"geniusUnitPricePerLabel":null,"banner":null,"discountLabel":null,"geniusDiscountLabel":null,"badge":null},{"code":"100124756","variantCode":"100124756","name":"Tavă cozonac teflonată 32x13cm","slug":"100124756-oti-tava-cozonac-teflonata-32x13cm","unitPriceLabel":"","brand":"Oti","brandCode":"988","brandFilterCode":"oti-b1002","sku":"100124756","price":13.99,"originalPrice":null,"currencyCode":"RON","currency":"Lei","image":{"thumbnail":{"default":"https://cdn.freshful.ro/media/cache/sylius_shop_product_thumbnail/1b/09/90cbcb2611de152c671a6b532942.jpg"},"large":{"default":"https://cdn.freshful.ro/media/cache/freshful_large/1b/09/90cbcb2611de152c671a6b532942.jpg"},"extralarge":{"default":"https://cdn.freshful.ro/media/cache/sylius_shop_product_original/1b/09/90cbcb2611de152c671a6b532942.jpg"}},"label":null,"tags":[],"isAvailable":true,"maxAvailableQuantity":100,"maxAllowedQuantity":100,"breadcrumbs":[{"code":"14","name":"Casă și agrement","slug":"14-casa-si-agrement"},{"code":"1403","name":"Articole de menaj","slug":"1403-articole-de-menaj"},{"code":"140304","name":"Articole pentru gătit","slug":"140304-articole-pentru-gatit-si-coacere"},{"code":"100124756","name":"Tavă cozonac teflonată 32x13cm","slug":"100124756-oti-tava-cozonac-teflonata-32x13cm"}],"activePromotion":null,"saveMe":null,"labels":[],"geniusPrice":null,"geniusUnitPricePerLabel":null,"banner":null,"discountLabel":null,"geniusDiscountLabel":null,"badge":null},{"code":"100123768","variantCode":"100123768","name":"Tavă pentru copt teflonată cu bază detașabilă 28cm","slug":"100123768-oti-tava-pentru-copt-teflonata-cu-baza-detasabila-28cm","unitPriceLabel":"","brand":"Oti","brandCode":"988","brandFilterCode":"oti-b1002","sku":"100123768","price":22.69,"originalPrice":null,"currencyCode":"RON","currency":"Lei","image":{"thumbnail":{"default":"https://cdn.freshful.ro/media/cache/sylius_shop_product_thumbnail/33/a9/fb7a0f0236060b25882aae62d221.jpg"},"large":{"default":"https://cdn.freshful.ro/media/cache/freshful_large/33/a9/fb7a0f0236060b25882aae62d221.jpg"},"extralarge":{"default":"https://cdn.freshful.ro/media/cache/sylius_shop_product_original/33/a9/fb7a0f0236060b25882aae62d221.jpg"}},"label":null,"tags":[],"isAvailable":true,"maxAvailableQuantity":11,"maxAllowedQuantity":100,"breadcrumbs":[{"code":"14","name":"Casă și agrement","slug":"14-casa-si-agrement"},{"code":"1403","name":"Articole de menaj","slug":"1403-articole-de-menaj"},{"code":"140304","name":"Articole pentru gătit","slug":"140304-articole-pentru-gatit-si-coacere"},{"code":"100123768","name":"Tavă pentru copt teflonată cu bază detașabilă 28cm","slug":"100123768-oti-tava-pentru-copt-teflonata-cu-baza-detasabila-28cm"}],"activePromotion":null,"saveMe":null,"labels":[],"geniusPrice":null,"geniusUnitPricePerLabel":null,"banner":null,"discountLabel":null,"geniusDiscountLabel":null,"badge":null},{"code":"100123770","variantCode":"100123770","name":"Caserolă aluminiu 425ml, 100 buc","slug":"100123770-oti-caserola-aluminiu-425ml-100-buc","unitPriceLabel":"","brand":"Oti","brandCode":"988","brandFilterCode":"oti-b1002","sku":"100123770","price":27.79,"originalPrice":null,"currencyCode":"RON","currency":"Lei","image":{"thumbnail":{"default":"https://cdn.freshful.ro/media/cache/sylius_shop_product_thumbnail/00/d8/72a1d10a3614f413e0df2d7a33b6.jpg"},"large":{"default":"https://cdn.freshful.ro/media/cache/freshful_large/00/d8/72a1d10a3614f413e0df2d7a33b6.jpg"},"extralarge":{"default":"https://cdn.freshful.ro/media/cache/sylius_shop_product_original/00/d8/72a1d10a3614f413e0df2d7a33b6.jpg"}},"label":null,"tags":[],"isAvailable":true,"maxAvailableQuantity":36,"maxAllowedQuantity":100,"breadcrumbs":[{"code":"14","name":"Casă și agrement","slug":"14-casa-si-agrement"},{"code":"1403","name":"Articole de menaj","slug":"1403-articole-de-menaj"},{"code":"140304","name":"Articole pentru gătit","slug":"140304-articole-pentru-gatit-si-coacere"},{"code":"100123770","name":"Caserolă aluminiu 425ml, 100 buc","slug":"100123770-oti-caserola-aluminiu-425ml-100-buc"}],"activePromotion":null,"saveMe":null,"labels":[],"geniusPrice":null,"geniusUnitPricePerLabel":null,"banner":null,"discountLabel":null,"geniusDiscountLabel":null,"badge":null},{"code":"100123771","variantCode":"100123771","name":"Capac caserolă aluminiu 425ml, 100 buc","slug":"100123771-oti-capac-caserola-aluminiu-425ml-100-buc","unitPriceLabel":"","brand":"Oti","brandCode":"988","brandFilterCode":"oti-b1002","sku":"100123771","price":13.89,"originalPrice":null,"currencyCode":"RON","currency":"Lei","image":{"thumbnail":{"default":"https://cdn.freshful.ro/media/cache/sylius_shop_product_thumbnail/6c/62/cc4323cdfa28a843068e38ed8f74.jpg"},"large":{"default":"https://cdn.freshful.ro/media/cache/freshful_large/6c/62/cc4323cdfa28a843068e38ed8f74.jpg"},"extralarge":{"default":"https://cdn.freshful.ro/media/cache/sylius_shop_product_original/6c/62/cc4323cdfa28a843068e38ed8f74.jpg"}},"label":null,"tags":[],"isAvailable":true,"maxAvailableQuantity":33,"maxAllowedQuantity":100,"breadcrumbs":[{"code":"14","name":"Casă și agrement","slug":"14-casa-si-agrement"},{"code":"1403","name":"Articole de menaj","slug":"1403-articole-de-menaj"},{"code":"140304","name":"Articole pentru gătit","slug":"140304-articole-pentru-gatit-si-coacere"},{"code":"100123771","name":"Capac caserolă aluminiu 425ml, 100 buc","slug":"100123771-oti-capac-caserola-aluminiu-425ml-100-buc"}],"activePromotion":null,"saveMe":null,"labels":[],"geniusPrice":null,"geniusUnitPricePerLabel":null,"banner":null,"discountLabel":null,"geniusDiscountLabel":null,"badge":null},{"code":"100124758","variantCode":"100124758","name":"Tavă din aluminiu 1500ml pentru copt cozonac 5 buc","slug":"100124758-oti-tava-din-aluminiu-1500ml-pentru-copt-cozonac-5-buc","unitPriceLabel":"","brand":"Oti","brandCode":"988","brandFilterCode":"oti-b1002","sku":"100124758","price":7.49,"originalPrice":null,"currencyCode":"RON","currency":"Lei","image":{"thumbnail":{"default":"https://cdn.freshful.ro/media/cache/sylius_shop_product_thumbnail/d7/4c/bed5efd6d61ce4a8ddb08f056375.jpg"},"large":{"default":"https://cdn.freshful.ro/media/cache/freshful_large/d7/4c/bed5efd6d61ce4a8ddb08f056375.jpg"},"extralarge":{"default":"https://cdn.freshful.ro/media/cache/sylius_shop_product_original/d7/4c/bed5efd6d61ce4a8ddb08f056375.jpg"}},"label":null,"tags":[],"isAvailable":true,"maxAvailableQuantity":100,"maxAllowedQuantity":100,"breadcrumbs":[{"code":"14","name":"Casă și agrement","slug":"14-casa-si-agrement"},{"code":"1403","name":"Articole de menaj","slug":"1403-articole-de-menaj"},{"code":"140304","name":"Articole pentru gătit","slug":"140304-articole-pentru-gatit-si-coacere"},{"code":"100124758","name":"Tavă din aluminiu 1500ml pentru copt cozonac 5 buc","slug":"100124758-oti-tava-din-aluminiu-1500ml-pentru-copt-cozonac-5-buc"}],"activePromotion":null,"saveMe":null,"labels":[],"geniusPrice":null,"geniusUnitPricePerLabel":null,"banner":null,"discountLabel":null,"geniusDiscountLabel":null,"badge":null}],"filters":{"countSelected":0,"items":[{"code":"brand","name":"Brand","countSelected":0,"values":[{"code":"art-of-dinning-b2871","name":"Art Of Dinning","isSelected":false,"count":2},{"code":"cooking-by-heinner-b2830","name":"Cooking By Heinner","isSelected":false,"count":3},{"code":"luminarc-b2143","name":"Luminarc","isSelected":false,"count":3},{"code":"oti-b1002","name":"Oti","isSelected":false,"count":10},{"code":"vanora-b2854","name":"Vanora","isSelected":false,"count":1},{"code":"warner-bros-b3262","name":"Warner Bros","isSelected":false,"count":2}]}]},"orderBy":[{"field":"price","direction":"asc","name":"Preț crescător","isSelected":false},{"field":"price","direction":"desc","name":"Preț descrescător","isSelected":false},{"field":"popularity","direction":"desc","name":"Cele mai populare","isSelected":true},{"field":"category","direction":"asc","name":"Categorie","isSelected":false}],"metaTitle":"Articole pentru gătit - Gamă variată","metaDescription":"Vrei Articole pentru gătit? Alege dintr-o gamă variată. Comanzi simplu și ai livrare rapidă, calitate și prospețime. Hai pe Freshful.ro","metaKeywords":null,"banners":[]}}