{"type":"subcategory","payload":{"analyticsListId":"category_140305-articole-menajere-si-pentru-bucatarie","analyticsListName":"Category - Articole menajere și pentru bucătărie","name":"Articole menajere și pentru bucătărie","slug":"140305-articole-menajere-si-pentru-bucatarie","image":null,"breadcrumbs":[{"code":"14","name":"Casă și agrement","slug":"14-casa-si-agrement"},{"code":"1403","name":"Articole de menaj","slug":"1403-articole-de-menaj"},{"code":"140305","name":"Articole menajere și pentru bucătărie","slug":"140305-articole-menajere-si-pentru-bucatarie"}],"slots":[],"page":1,"limit":10,"pages":8,"count":79,"siblings":[{"name":"Bricolaj și auto","slug":"1401-bricolaj-si-auto","selected":false},{"name":"Grădină","slug":"1402-gradina","selected":false},{"name":"Articole de menaj","slug":"1403-articole-de-menaj","selected":true},{"name":"Textile pentru casă","slug":"1404-textile-de-casa","selected":false},{"name":"Birotică și papetărie","slug":"1405-birotica-si-papetarie","selected":false},{"name":"Jucării","slug":"1406-jucarii","selected":false},{"name":"Accesorii IT&C","slug":"1408-hitech-audio-video","selected":false},{"name":"Textile și accesorii","slug":"1410-textile-basic","selected":false}],"children":[{"name":"Toate produsele","slug":"1403-articole-de-menaj","selected":false},{"name":"Pahare și carafe","slug":"140301-pahare-si-carafe","selected":false},{"name":"Veselă, tacâmuri și accesorii pentru masă","slug":"140302-vesela-tacamuri-si-accesorii-pentru-masa","selected":false},{"name":"Veselă de unică folosință","slug":"140303-vesela-de-unica-folosinta","selected":false},{"name":"Articole pentru gătit","slug":"140304-articole-pentru-gatit-si-coacere","selected":false},{"name":"Articole menajere și pentru bucătărie","slug":"140305-articole-menajere-si-pentru-bucatarie","selected":true},{"name":"Lumânări și aromatice","slug":"140308-lumanari-si-aromatice","selected":false},{"name":"Accesorii pentru petrecere","slug":"accesorii-pentru-petrecere","selected":false}],"products":[{"code":"100148016","variantCode":"100148016","name":"Cană filtrantă albastră Style 2.4l, Maxtra+","slug":"100148016-brita-cana-filtranta-albastra-style-2-4l-maxtra","unitPriceLabel":"","brand":"Brita","brandCode":"2872","brandFilterCode":"brita-b2956","sku":"100148016","price":159.99,"originalPrice":null,"currencyCode":"RON","currency":"Lei","image":{"thumbnail":{"default":"https://cdn.freshful.ro/media/cache/sylius_shop_product_thumbnail/66/e6/2cc82f7d626fea891202f2e6cb7c.jpg"},"large":{"default":"https://cdn.freshful.ro/media/cache/freshful_large/66/e6/2cc82f7d626fea891202f2e6cb7c.jpg"},"extralarge":{"default":"https://cdn.freshful.ro/media/cache/sylius_shop_product_original/66/e6/2cc82f7d626fea891202f2e6cb7c.jpg"}},"label":{"text":"-20% cu Genius","backgroundColor":"#FEF3FA","textColor":"#CD015F"},"tags":[],"isAvailable":true,"maxAvailableQuantity":8,"maxAllowedQuantity":100,"breadcrumbs":[{"code":"14","name":"Casă și agrement","slug":"14-casa-si-agrement"},{"code":"1403","name":"Articole de menaj","slug":"1403-articole-de-menaj"},{"code":"140305","name":"Articole menajere și pentru bucătărie","slug":"140305-articole-menajere-si-pentru-bucatarie"},{"code":"100148016","name":"Cană filtrantă albastră Style 2.4l, Maxtra+","slug":"100148016-brita-cana-filtranta-albastra-style-2-4l-maxtra"}],"activePromotion":null,"saveMe":null,"labels":[{"type":"gdeals","items":[{"text":"","backgroundColor":"","textColor":""}]},{"type":"v3","items":[{"text":"-20% cu Genius","backgroundColor":"#FEF3FA","textColor":"#CD015F"}]}],"geniusPrice":127.99,"geniusUnitPricePerLabel":"","banner":null,"discountLabel":null,"geniusDiscountLabel":"Economisești 20%","badge":null},{"code":"100064771","variantCode":"100064771","name":"Scobitori 65mm în tub de plastic 100buc","slug":"100064771-oti-scobitori-65mm-in-tub-de-plastic-100buc","unitPriceLabel":"","brand":"Oti","brandCode":"988","brandFilterCode":"oti-b1002","sku":"100064771","price":1.69,"originalPrice":null,"currencyCode":"RON","currency":"Lei","image":{"thumbnail":{"default":"https://cdn.freshful.ro/media/cache/sylius_shop_product_thumbnail/2d/79/90f20dd9eb3bcb43f04614bf95ec.jpg"},"large":{"default":"https://cdn.freshful.ro/media/cache/freshful_large/2d/79/90f20dd9eb3bcb43f04614bf95ec.jpg"},"extralarge":{"default":"https://cdn.freshful.ro/media/cache/sylius_shop_product_original/2d/79/90f20dd9eb3bcb43f04614bf95ec.jpg"}},"label":null,"tags":[],"isAvailable":true,"maxAvailableQuantity":100,"maxAllowedQuantity":100,"breadcrumbs":[{"code":"14","name":"Casă și agrement","slug":"14-casa-si-agrement"},{"code":"1403","name":"Articole de menaj","slug":"1403-articole-de-menaj"},{"code":"140305","name":"Articole menajere și pentru bucătărie","slug":"140305-articole-menajere-si-pentru-bucatarie"},{"code":"100064771","name":"Scobitori 65mm în tub de plastic 100buc","slug":"100064771-oti-scobitori-65mm-in-tub-de-plastic-100buc"}],"activePromotion":null,"saveMe":null,"labels":[],"geniusPrice":null,"geniusUnitPricePerLabel":null,"banner":null,"discountLabel":null,"geniusDiscountLabel":null,"badge":null},{"code":"100143374","variantCode":"100143374","name":"Set 60 forme pentru brioșe din hârtie dia. 7cm","slug":"100143374-cooking-by-heinner-set-60-forme-pentru-briose-din-hartie-dia-7cm","unitPriceLabel":"","brand":"Cooking By Heinner","brandCode":"2756","brandFilterCode":"cooking-by-heinner-b2830","sku":"100143374","price":6.49,"originalPrice":null,"currencyCode":"RON","currency":"Lei","image":{"thumbnail":{"default":"https://cdn.freshful.ro/media/cache/sylius_shop_product_thumbnail/aa/87/c954ce52636a475d74a9031e32d1.jpg"},"large":{"default":"https://cdn.freshful.ro/media/cache/freshful_large/aa/87/c954ce52636a475d74a9031e32d1.jpg"},"extralarge":{"default":"https://cdn.freshful.ro/media/cache/sylius_shop_product_original/aa/87/c954ce52636a475d74a9031e32d1.jpg"}},"label":null,"tags":[],"isAvailable":true,"maxAvailableQuantity":90,"maxAllowedQuantity":100,"breadcrumbs":[{"code":"14","name":"Casă și agrement","slug":"14-casa-si-agrement"},{"code":"1403","name":"Articole de menaj","slug":"1403-articole-de-menaj"},{"code":"140305","name":"Articole menajere și pentru bucătărie","slug":"140305-articole-menajere-si-pentru-bucatarie"},{"code":"100143374","name":"Set 60 forme pentru brioșe din hârtie dia. 7cm","slug":"100143374-cooking-by-heinner-set-60-forme-pentru-briose-din-hartie-dia-7cm"}],"activePromotion":null,"saveMe":null,"labels":[],"geniusPrice":null,"geniusUnitPricePerLabel":null,"banner":null,"discountLabel":null,"geniusDiscountLabel":null,"badge":null},{"code":"100064773","variantCode":"100064773","name":"Scobitori cu vârf mentolat 500 buc","slug":"100064773-oti-scobitori-cu-varf-mentolat-500-buc","unitPriceLabel":"","brand":"Oti","brandCode":"988","brandFilterCode":"oti-b1002","sku":"100064773","price":6.79,"originalPrice":null,"currencyCode":"RON","currency":"Lei","image":{"thumbnail":{"default":"https://cdn.freshful.ro/media/cache/sylius_shop_product_thumbnail/3e/a6/139ca0d66ef74438a977b3bb2983.jpg"},"large":{"default":"https://cdn.freshful.ro/media/cache/freshful_large/3e/a6/139ca0d66ef74438a977b3bb2983.jpg"},"extralarge":{"default":"https://cdn.freshful.ro/media/cache/sylius_shop_product_original/3e/a6/139ca0d66ef74438a977b3bb2983.jpg"}},"label":null,"tags":[],"isAvailable":true,"maxAvailableQuantity":100,"maxAllowedQuantity":100,"breadcrumbs":[{"code":"14","name":"Casă și agrement","slug":"14-casa-si-agrement"},{"code":"1403","name":"Articole de menaj","slug":"1403-articole-de-menaj"},{"code":"140305","name":"Articole menajere și pentru bucătărie","slug":"140305-articole-menajere-si-pentru-bucatarie"},{"code":"100064773","name":"Scobitori cu vârf mentolat 500 buc","slug":"100064773-oti-scobitori-cu-varf-mentolat-500-buc"}],"activePromotion":null,"saveMe":null,"labels":[],"geniusPrice":null,"geniusUnitPricePerLabel":null,"banner":null,"discountLabel":null,"geniusDiscountLabel":null,"badge":null},{"code":"100064776","variantCode":"100064776","name":"Bețe frigărui 3mmx250mm 100buc/pachet","slug":"100064776-oti-bete-frigarui-3mmx250mm-100buc-pachet","unitPriceLabel":"","brand":"Oti","brandCode":"988","brandFilterCode":"oti-b1002","sku":"100064776","price":2.99,"originalPrice":null,"currencyCode":"RON","currency":"Lei","image":{"thumbnail":{"default":"https://cdn.freshful.ro/media/cache/sylius_shop_product_thumbnail/b5/30/ee08f21402859e34dd50a900af61.jpg"},"large":{"default":"https://cdn.freshful.ro/media/cache/freshful_large/b5/30/ee08f21402859e34dd50a900af61.jpg"},"extralarge":{"default":"https://cdn.freshful.ro/media/cache/sylius_shop_product_original/b5/30/ee08f21402859e34dd50a900af61.jpg"}},"label":null,"tags":[],"isAvailable":true,"maxAvailableQuantity":35,"maxAllowedQuantity":100,"breadcrumbs":[{"code":"14","name":"Casă și agrement","slug":"14-casa-si-agrement"},{"code":"1403","name":"Articole de menaj","slug":"1403-articole-de-menaj"},{"code":"140305","name":"Articole menajere și pentru bucătărie","slug":"140305-articole-menajere-si-pentru-bucatarie"},{"code":"100064776","name":"Bețe frigărui 3mmx250mm 100buc/pachet","slug":"100064776-oti-bete-frigarui-3mmx250mm-100buc-pachet"}],"activePromotion":null,"saveMe":null,"labels":[],"geniusPrice":null,"geniusUnitPricePerLabel":null,"banner":null,"discountLabel":null,"geniusDiscountLabel":null,"badge":null},{"code":"100143382","variantCode":"100143382","name":"Borcan depozitare din sticlă cu capac negru 425ml","slug":"100143382-cooking-by-heinner-borcan-depozitare-din-sticla-cu-capac-negru-425ml","unitPriceLabel":"","brand":"Cooking By Heinner","brandCode":"2756","brandFilterCode":"cooking-by-heinner-b2830","sku":"100143382","price":8.99,"originalPrice":null,"currencyCode":"RON","currency":"Lei","image":{"thumbnail":{"default":"https://cdn.freshful.ro/media/cache/sylius_shop_product_thumbnail/67/37/df1a53903f25bc0abfff7b921a5b.jpg"},"large":{"default":"https://cdn.freshful.ro/media/cache/freshful_large/67/37/df1a53903f25bc0abfff7b921a5b.jpg"},"extralarge":{"default":"https://cdn.freshful.ro/media/cache/sylius_shop_product_original/67/37/df1a53903f25bc0abfff7b921a5b.jpg"}},"label":null,"tags":[],"isAvailable":true,"maxAvailableQuantity":41,"maxAllowedQuantity":100,"breadcrumbs":[{"code":"14","name":"Casă și agrement","slug":"14-casa-si-agrement"},{"code":"1403","name":"Articole de menaj","slug":"1403-articole-de-menaj"},{"code":"140305","name":"Articole menajere și pentru bucătărie","slug":"140305-articole-menajere-si-pentru-bucatarie"},{"code":"100143382","name":"Borcan depozitare din sticlă cu capac negru 425ml","slug":"100143382-cooking-by-heinner-borcan-depozitare-din-sticla-cu-capac-negru-425ml"}],"activePromotion":null,"saveMe":null,"labels":[],"geniusPrice":null,"geniusUnitPricePerLabel":null,"banner":null,"discountLabel":null,"geniusDiscountLabel":null,"badge":null},{"code":"100148017","variantCode":"100148017","name":"Filtru Maxtra+","slug":"100148017-brita-filtru-maxtra","unitPriceLabel":"","brand":"Brita","brandCode":"2872","brandFilterCode":"brita-b2956","sku":"100148017","price":44.99,"originalPrice":null,"currencyCode":"RON","currency":"Lei","image":{"thumbnail":{"default":"https://cdn.freshful.ro/media/cache/sylius_shop_product_thumbnail/7c/2c/b8d6d2d77ca54b87bd0a52edd385.jpg"},"large":{"default":"https://cdn.freshful.ro/media/cache/freshful_large/7c/2c/b8d6d2d77ca54b87bd0a52edd385.jpg"},"extralarge":{"default":"https://cdn.freshful.ro/media/cache/sylius_shop_product_original/7c/2c/b8d6d2d77ca54b87bd0a52edd385.jpg"}},"label":null,"tags":[],"isAvailable":true,"maxAvailableQuantity":41,"maxAllowedQuantity":100,"breadcrumbs":[{"code":"14","name":"Casă și agrement","slug":"14-casa-si-agrement"},{"code":"1403","name":"Articole de menaj","slug":"1403-articole-de-menaj"},{"code":"140305","name":"Articole menajere și pentru bucătărie","slug":"140305-articole-menajere-si-pentru-bucatarie"},{"code":"100148017","name":"Filtru Maxtra+","slug":"100148017-brita-filtru-maxtra"}],"activePromotion":null,"saveMe":null,"labels":[],"geniusPrice":null,"geniusUnitPricePerLabel":null,"banner":null,"discountLabel":null,"geniusDiscountLabel":null,"badge":null},{"code":"100064774","variantCode":"100064774","name":"Bețișoare din bambus pentru frigărui 15cm, 100 buc","slug":"100064774-oti-betisoare-din-bambus-pentru-frigarui-15cm-100-buc","unitPriceLabel":"","brand":"Oti","brandCode":"988","brandFilterCode":"oti-b1002","sku":"100064774","price":1.99,"originalPrice":null,"currencyCode":"RON","currency":"Lei","image":{"thumbnail":{"default":"https://cdn.freshful.ro/media/cache/sylius_shop_product_thumbnail/5e/f6/fe01f581cab27c565ca08feb6d92.jpg"},"large":{"default":"https://cdn.freshful.ro/media/cache/freshful_large/5e/f6/fe01f581cab27c565ca08feb6d92.jpg"},"extralarge":{"default":"https://cdn.freshful.ro/media/cache/sylius_shop_product_original/5e/f6/fe01f581cab27c565ca08feb6d92.jpg"}},"label":null,"tags":[],"isAvailable":true,"maxAvailableQuantity":56,"maxAllowedQuantity":100,"breadcrumbs":[{"code":"14","name":"Casă și agrement","slug":"14-casa-si-agrement"},{"code":"1403","name":"Articole de menaj","slug":"1403-articole-de-menaj"},{"code":"140305","name":"Articole menajere și pentru bucătărie","slug":"140305-articole-menajere-si-pentru-bucatarie"},{"code":"100064774","name":"Bețișoare din bambus pentru frigărui 15cm, 100 buc","slug":"100064774-oti-betisoare-din-bambus-pentru-frigarui-15cm-100-buc"}],"activePromotion":null,"saveMe":null,"labels":[],"geniusPrice":null,"geniusUnitPricePerLabel":null,"banner":null,"discountLabel":null,"geniusDiscountLabel":null,"badge":null},{"code":"100143383","variantCode":"100143383","name":"Borcan depozitare din stică cu capac negru 660ml","slug":"100143383-cooking-by-heinner-borcan-depozitare-din-stica-cu-capac-negru-660ml","unitPriceLabel":"","brand":"Cooking By Heinner","brandCode":"2756","brandFilterCode":"cooking-by-heinner-b2830","sku":"100143383","price":10.49,"originalPrice":null,"currencyCode":"RON","currency":"Lei","image":{"thumbnail":{"default":"https://cdn.freshful.ro/media/cache/sylius_shop_product_thumbnail/4c/f1/4f494813b099e9fa5e51e231320f.jpg"},"large":{"default":"https://cdn.freshful.ro/media/cache/freshful_large/4c/f1/4f494813b099e9fa5e51e231320f.jpg"},"extralarge":{"default":"https://cdn.freshful.ro/media/cache/sylius_shop_product_original/4c/f1/4f494813b099e9fa5e51e231320f.jpg"}},"label":null,"tags":[],"isAvailable":true,"maxAvailableQuantity":22,"maxAllowedQuantity":100,"breadcrumbs":[{"code":"14","name":"Casă și agrement","slug":"14-casa-si-agrement"},{"code":"1403","name":"Articole de menaj","slug":"1403-articole-de-menaj"},{"code":"140305","name":"Articole menajere și pentru bucătărie","slug":"140305-articole-menajere-si-pentru-bucatarie"},{"code":"100143383","name":"Borcan depozitare din stică cu capac negru 660ml","slug":"100143383-cooking-by-heinner-borcan-depozitare-din-stica-cu-capac-negru-660ml"}],"activePromotion":null,"saveMe":null,"labels":[],"geniusPrice":null,"geniusUnitPricePerLabel":null,"banner":null,"discountLabel":null,"geniusDiscountLabel":null,"badge":null},{"code":"100143384","variantCode":"100143384","name":"Borcan depozitare din sticlă cu capac negru 1l","slug":"100143384-cooking-by-heinner-borcan-depozitare-din-sticla-cu-capac-negru-1l","unitPriceLabel":"","brand":"Cooking By Heinner","brandCode":"2756","brandFilterCode":"cooking-by-heinner-b2830","sku":"100143384","price":12.49,"originalPrice":null,"currencyCode":"RON","currency":"Lei","image":{"thumbnail":{"default":"https://cdn.freshful.ro/media/cache/sylius_shop_product_thumbnail/51/e0/1cf571959ffc980a182d3b3a1d7f.jpg"},"large":{"default":"https://cdn.freshful.ro/media/cache/freshful_large/51/e0/1cf571959ffc980a182d3b3a1d7f.jpg"},"extralarge":{"default":"https://cdn.freshful.ro/media/cache/sylius_shop_product_original/51/e0/1cf571959ffc980a182d3b3a1d7f.jpg"}},"label":null,"tags":[],"isAvailable":true,"maxAvailableQuantity":39,"maxAllowedQuantity":100,"breadcrumbs":[{"code":"14","name":"Casă și agrement","slug":"14-casa-si-agrement"},{"code":"1403","name":"Articole de menaj","slug":"1403-articole-de-menaj"},{"code":"140305","name":"Articole menajere și pentru bucătărie","slug":"140305-articole-menajere-si-pentru-bucatarie"},{"code":"100143384","name":"Borcan depozitare din sticlă cu capac negru 1l","slug":"100143384-cooking-by-heinner-borcan-depozitare-din-sticla-cu-capac-negru-1l"}],"activePromotion":null,"saveMe":null,"labels":[],"geniusPrice":null,"geniusUnitPricePerLabel":null,"banner":null,"discountLabel":null,"geniusDiscountLabel":null,"badge":null}],"filters":{"countSelected":0,"items":[{"code":"promotion","name":"Promoții","countSelected":0,"values":[]},{"code":"brand","name":"Brand","countSelected":0,"values":[{"code":"art-of-dinning-b2871","name":"Art Of Dinning","isSelected":false,"count":2},{"code":"bic-b320","name":"BiC","isSelected":false,"count":5},{"code":"brita-b2956","name":"Brita","isSelected":false,"count":7},{"code":"cooking-by-heinner-b2830","name":"Cooking By Heinner","isSelected":false,"count":32},{"code":"epack-b369","name":"epack","isSelected":false,"count":1},{"code":"fino-b546","name":"Fino","isSelected":false,"count":1},{"code":"kitchen-shop-b2904","name":"Kitchen Shop","isSelected":false,"count":2},{"code":"oti-b1002","name":"Oti","isSelected":false,"count":9},{"code":"vanora-b2854","name":"Vanora","isSelected":false,"count":9},{"code":"warner-bros-b3262","name":"Warner Bros","isSelected":false,"count":2},{"code":"zokura-b2955","name":"Zokura","isSelected":false,"count":5}]}]},"orderBy":[{"field":"price","direction":"asc","name":"Preț crescător","isSelected":false},{"field":"price","direction":"desc","name":"Preț descrescător","isSelected":false},{"field":"popularity","direction":"desc","name":"Cele mai populare","isSelected":true},{"field":"category","direction":"asc","name":"Categorie","isSelected":false}],"metaTitle":"Articole menajere și pentru bucătărie - Gamă variată","metaDescription":"Vrei Articole menajere și pentru bucătărie? Alege dintr-o gamă variată. Comanzi simplu și ai livrare rapidă, calitate și prospețime. Hai pe Freshful.ro","metaKeywords":null,"banners":[]}}