{"type":"subcategory","payload":{"analyticsListId":"category_1403-articole-de-menaj","analyticsListName":"Category - Articole de menaj","name":"Articole de menaj","slug":"1403-articole-de-menaj","image":null,"breadcrumbs":[{"code":"14","name":"Casă și agrement","slug":"14-casa-si-agrement"},{"code":"1403","name":"Articole de menaj","slug":"1403-articole-de-menaj"}],"slots":[],"page":1,"limit":10,"pages":31,"count":301,"siblings":[{"name":"Bricolaj și auto","slug":"1401-bricolaj-si-auto","selected":false},{"name":"Grădină","slug":"1402-gradina","selected":false},{"name":"Articole de menaj","slug":"1403-articole-de-menaj","selected":true},{"name":"Textile pentru casă","slug":"1404-textile-de-casa","selected":false},{"name":"Birotică și papetărie","slug":"1405-birotica-si-papetarie","selected":false},{"name":"Jucării","slug":"1406-jucarii","selected":false},{"name":"Accesorii IT&C","slug":"1408-hitech-audio-video","selected":false},{"name":"Textile și accesorii","slug":"1410-textile-basic","selected":false}],"children":[{"name":"Toate produsele","slug":"1403-articole-de-menaj","selected":true},{"name":"Pahare și carafe","slug":"140301-pahare-si-carafe","selected":false},{"name":"Veselă, tacâmuri și accesorii pentru masă","slug":"140302-vesela-tacamuri-si-accesorii-pentru-masa","selected":false},{"name":"Veselă de unică folosință","slug":"140303-vesela-de-unica-folosinta","selected":false},{"name":"Articole pentru gătit","slug":"140304-articole-pentru-gatit-si-coacere","selected":false},{"name":"Articole menajere și pentru bucătărie","slug":"140305-articole-menajere-si-pentru-bucatarie","selected":false},{"name":"Lumânări și aromatice","slug":"140308-lumanari-si-aromatice","selected":false},{"name":"Accesorii pentru petrecere","slug":"accesorii-pentru-petrecere","selected":false}],"products":[{"code":"100042319","variantCode":"100042319","name":"Pungă cadou plastifiată M, 17.5x23x10cm","slug":"100042319-no-brand-punga-cadou-plastifiata-m-17-5x23x10cm","unitPriceLabel":"","brand":null,"brandCode":null,"brandFilterCode":"no-brand-b83","sku":"100042319","price":4.99,"originalPrice":6.99,"currencyCode":"RON","currency":"Lei","image":{"thumbnail":{"default":"https://cdn.freshful.ro/media/cache/sylius_shop_product_thumbnail/8f/2c/2b034fe198b4a3524a57aba596c4.jpg"},"large":{"default":"https://cdn.freshful.ro/media/cache/freshful_large/8f/2c/2b034fe198b4a3524a57aba596c4.jpg"},"extralarge":{"default":"https://cdn.freshful.ro/media/cache/sylius_shop_product_original/8f/2c/2b034fe198b4a3524a57aba596c4.jpg"}},"label":{"text":"-28%","backgroundColor":"#FF9903","textColor":"#FFFFFF"},"tags":[],"isAvailable":true,"maxAvailableQuantity":61,"maxAllowedQuantity":100,"breadcrumbs":[{"code":"14","name":"Casă și agrement","slug":"14-casa-si-agrement"},{"code":"1403","name":"Articole de menaj","slug":"1403-articole-de-menaj"},{"code":"140309","name":"Accesorii pentru petrecere","slug":"accesorii-pentru-petrecere"},{"code":"100042319","name":"Pungă cadou plastifiată M, 17.5x23x10cm","slug":"100042319-no-brand-punga-cadou-plastifiata-m-17-5x23x10cm"}],"activePromotion":{"code":"special-cosmetice-21feb-8mar23","name":"Preț redus","targetQuantity":null},"saveMe":null,"labels":[{"type":"v1","items":[{"text":"-28%","backgroundColor":"#FF9903","textColor":"#FFFFFF"}]}],"geniusPrice":null,"geniusUnitPricePerLabel":null,"banner":{"text":"Super preț","textColor":"#FF0000","bgColor":"#FFF2EC","icon":null,"link":"https://www.freshful.ro/oferte/special-cosmetice-21feb-8mar23","type":"promo","analyticsEventType":"select_promotion","analyticsEventPayload":{"promotion_id":"special-cosmetice-21feb-8mar23","promotion_name":"Cadouri pentru sărbătoritele lunii martie"}},"discountLabel":"Economisești 28%","geniusDiscountLabel":null,"badge":null},{"code":"100042320","variantCode":"100042320","name":"Pungă cadou plastifiată L, 26x32x12cm","slug":"100042320-no-brand-punga-cadou-plastifiata-l-26x32x12cm","unitPriceLabel":"","brand":null,"brandCode":null,"brandFilterCode":"no-brand-b83","sku":"100042320","price":7.99,"originalPrice":9.99,"currencyCode":"RON","currency":"Lei","image":{"thumbnail":{"default":"https://cdn.freshful.ro/media/cache/sylius_shop_product_thumbnail/c8/d0/05eb010d66a99195119c3d9f863c.jpg"},"large":{"default":"https://cdn.freshful.ro/media/cache/freshful_large/c8/d0/05eb010d66a99195119c3d9f863c.jpg"},"extralarge":{"default":"https://cdn.freshful.ro/media/cache/sylius_shop_product_original/c8/d0/05eb010d66a99195119c3d9f863c.jpg"}},"label":{"text":"-20%","backgroundColor":"#FF9903","textColor":"#FFFFFF"},"tags":[],"isAvailable":true,"maxAvailableQuantity":40,"maxAllowedQuantity":100,"breadcrumbs":[{"code":"14","name":"Casă și agrement","slug":"14-casa-si-agrement"},{"code":"1403","name":"Articole de menaj","slug":"1403-articole-de-menaj"},{"code":"140309","name":"Accesorii pentru petrecere","slug":"accesorii-pentru-petrecere"},{"code":"100042320","name":"Pungă cadou plastifiată L, 26x32x12cm","slug":"100042320-no-brand-punga-cadou-plastifiata-l-26x32x12cm"}],"activePromotion":{"code":"special-cosmetice-21feb-8mar23","name":"Preț redus","targetQuantity":null},"saveMe":null,"labels":[{"type":"v1","items":[{"text":"-20%","backgroundColor":"#FF9903","textColor":"#FFFFFF"}]}],"geniusPrice":null,"geniusUnitPricePerLabel":null,"banner":{"text":"Super preț","textColor":"#FF0000","bgColor":"#FFF2EC","icon":null,"link":"https://www.freshful.ro/oferte/special-cosmetice-21feb-8mar23","type":"promo","analyticsEventType":"select_promotion","analyticsEventPayload":{"promotion_id":"special-cosmetice-21feb-8mar23","promotion_name":"Cadouri pentru sărbătoritele lunii martie"}},"discountLabel":"Economisești 20%","geniusDiscountLabel":null,"badge":null},{"code":"100042321","variantCode":"100042321","name":"Pungă cadou plastifiată L, 32x26x12cm","slug":"100042321-no-brand-punga-cadou-plastifiata-l-32x26x12cm","unitPriceLabel":"","brand":null,"brandCode":null,"brandFilterCode":"no-brand-b83","sku":"100042321","price":7.99,"originalPrice":9.99,"currencyCode":"RON","currency":"Lei","image":{"thumbnail":{"default":"https://cdn.freshful.ro/media/cache/sylius_shop_product_thumbnail/0c/35/da8a9d193edbb150c05e2ef50a01.jpg"},"large":{"default":"https://cdn.freshful.ro/media/cache/freshful_large/0c/35/da8a9d193edbb150c05e2ef50a01.jpg"},"extralarge":{"default":"https://cdn.freshful.ro/media/cache/sylius_shop_product_original/0c/35/da8a9d193edbb150c05e2ef50a01.jpg"}},"label":{"text":"-20%","backgroundColor":"#FF9903","textColor":"#FFFFFF"},"tags":[],"isAvailable":true,"maxAvailableQuantity":63,"maxAllowedQuantity":100,"breadcrumbs":[{"code":"14","name":"Casă și agrement","slug":"14-casa-si-agrement"},{"code":"1403","name":"Articole de menaj","slug":"1403-articole-de-menaj"},{"code":"140309","name":"Accesorii pentru petrecere","slug":"accesorii-pentru-petrecere"},{"code":"100042321","name":"Pungă cadou plastifiată L, 32x26x12cm","slug":"100042321-no-brand-punga-cadou-plastifiata-l-32x26x12cm"}],"activePromotion":{"code":"special-cosmetice-21feb-8mar23","name":"Preț redus","targetQuantity":null},"saveMe":null,"labels":[{"type":"v1","items":[{"text":"-20%","backgroundColor":"#FF9903","textColor":"#FFFFFF"}]}],"geniusPrice":null,"geniusUnitPricePerLabel":null,"banner":{"text":"Super preț","textColor":"#FF0000","bgColor":"#FFF2EC","icon":null,"link":"https://www.freshful.ro/oferte/special-cosmetice-21feb-8mar23","type":"promo","analyticsEventType":"select_promotion","analyticsEventPayload":{"promotion_id":"special-cosmetice-21feb-8mar23","promotion_name":"Cadouri pentru sărbătoritele lunii martie"}},"discountLabel":"Economisești 20%","geniusDiscountLabel":null,"badge":null},{"code":"100042313","variantCode":"100042313","name":"Pungă cadou L, 32x26x10cm","slug":"100042313-no-brand-punga-cadou-l-32x26x10cm","unitPriceLabel":"","brand":null,"brandCode":null,"brandFilterCode":"no-brand-b83","sku":"100042313","price":7.99,"originalPrice":10.9,"currencyCode":"RON","currency":"Lei","image":{"thumbnail":{"default":"https://cdn.freshful.ro/media/cache/sylius_shop_product_thumbnail/7c/ef/3ded9dc370547a17359b55de0dd0.jpg"},"large":{"default":"https://cdn.freshful.ro/media/cache/freshful_large/7c/ef/3ded9dc370547a17359b55de0dd0.jpg"},"extralarge":{"default":"https://cdn.freshful.ro/media/cache/sylius_shop_product_original/7c/ef/3ded9dc370547a17359b55de0dd0.jpg"}},"label":{"text":"-26%","backgroundColor":"#FF9903","textColor":"#FFFFFF"},"tags":[],"isAvailable":true,"maxAvailableQuantity":7,"maxAllowedQuantity":100,"breadcrumbs":[{"code":"14","name":"Casă și agrement","slug":"14-casa-si-agrement"},{"code":"1403","name":"Articole de menaj","slug":"1403-articole-de-menaj"},{"code":"140309","name":"Accesorii pentru petrecere","slug":"accesorii-pentru-petrecere"},{"code":"100042313","name":"Pungă cadou L, 32x26x10cm","slug":"100042313-no-brand-punga-cadou-l-32x26x10cm"}],"activePromotion":{"code":"special-cosmetice-21feb-8mar23","name":"Preț redus","targetQuantity":null},"saveMe":null,"labels":[{"type":"v1","items":[{"text":"-26%","backgroundColor":"#FF9903","textColor":"#FFFFFF"}]}],"geniusPrice":null,"geniusUnitPricePerLabel":null,"banner":{"text":"Super preț","textColor":"#FF0000","bgColor":"#FFF2EC","icon":null,"link":"https://www.freshful.ro/oferte/special-cosmetice-21feb-8mar23","type":"promo","analyticsEventType":"select_promotion","analyticsEventPayload":{"promotion_id":"special-cosmetice-21feb-8mar23","promotion_name":"Cadouri pentru sărbătoritele lunii martie"}},"discountLabel":"Economisești 26%","geniusDiscountLabel":null,"badge":null},{"code":"100042312","variantCode":"100042312","name":"Pungă cadou L, 26x32x10cm","slug":"100042312-no-brand-punga-cadou-l-26x32x10cm","unitPriceLabel":"","brand":null,"brandCode":null,"brandFilterCode":"no-brand-b83","sku":"100042312","price":6.99,"originalPrice":9.99,"currencyCode":"RON","currency":"Lei","image":{"thumbnail":{"default":"https://cdn.freshful.ro/media/cache/sylius_shop_product_thumbnail/b2/bb/15f6d6656aca268603c402aedbfe.jpg"},"large":{"default":"https://cdn.freshful.ro/media/cache/freshful_large/b2/bb/15f6d6656aca268603c402aedbfe.jpg"},"extralarge":{"default":"https://cdn.freshful.ro/media/cache/sylius_shop_product_original/b2/bb/15f6d6656aca268603c402aedbfe.jpg"}},"label":{"text":"-30%","backgroundColor":"#FF9903","textColor":"#FFFFFF"},"tags":[],"isAvailable":true,"maxAvailableQuantity":6,"maxAllowedQuantity":100,"breadcrumbs":[{"code":"14","name":"Casă și agrement","slug":"14-casa-si-agrement"},{"code":"1403","name":"Articole de menaj","slug":"1403-articole-de-menaj"},{"code":"140309","name":"Accesorii pentru petrecere","slug":"accesorii-pentru-petrecere"},{"code":"100042312","name":"Pungă cadou L, 26x32x10cm","slug":"100042312-no-brand-punga-cadou-l-26x32x10cm"}],"activePromotion":{"code":"special-cosmetice-21feb-8mar23","name":"Preț redus","targetQuantity":null},"saveMe":null,"labels":[{"type":"v1","items":[{"text":"-30%","backgroundColor":"#FF9903","textColor":"#FFFFFF"}]}],"geniusPrice":null,"geniusUnitPricePerLabel":null,"banner":{"text":"Super preț","textColor":"#FF0000","bgColor":"#FFF2EC","icon":null,"link":"https://www.freshful.ro/oferte/special-cosmetice-21feb-8mar23","type":"promo","analyticsEventType":"select_promotion","analyticsEventPayload":{"promotion_id":"special-cosmetice-21feb-8mar23","promotion_name":"Cadouri pentru sărbătoritele lunii martie"}},"discountLabel":"Economisești 30%","geniusDiscountLabel":null,"badge":null},{"code":"100042317","variantCode":"100042317","name":"Pungă cadou AR1, 26x32x12cm","slug":"100042317-no-brand-punga-cadou-ar1-26x32x12cm","unitPriceLabel":"","brand":null,"brandCode":null,"brandFilterCode":"no-brand-b83","sku":"100042317","price":9.99,"originalPrice":12.9,"currencyCode":"RON","currency":"Lei","image":{"thumbnail":{"default":"https://cdn.freshful.ro/media/cache/sylius_shop_product_thumbnail/91/93/b43ecbdb13d12b43f6033741191d.jpg"},"large":{"default":"https://cdn.freshful.ro/media/cache/freshful_large/91/93/b43ecbdb13d12b43f6033741191d.jpg"},"extralarge":{"default":"https://cdn.freshful.ro/media/cache/sylius_shop_product_original/91/93/b43ecbdb13d12b43f6033741191d.jpg"}},"label":{"text":"-22%","backgroundColor":"#FF9903","textColor":"#FFFFFF"},"tags":[],"isAvailable":true,"maxAvailableQuantity":7,"maxAllowedQuantity":100,"breadcrumbs":[{"code":"14","name":"Casă și agrement","slug":"14-casa-si-agrement"},{"code":"1403","name":"Articole de menaj","slug":"1403-articole-de-menaj"},{"code":"140309","name":"Accesorii pentru petrecere","slug":"accesorii-pentru-petrecere"},{"code":"100042317","name":"Pungă cadou AR1, 26x32x12cm","slug":"100042317-no-brand-punga-cadou-ar1-26x32x12cm"}],"activePromotion":{"code":"special-cosmetice-21feb-8mar23","name":"Preț redus","targetQuantity":null},"saveMe":null,"labels":[{"type":"v1","items":[{"text":"-22%","backgroundColor":"#FF9903","textColor":"#FFFFFF"}]}],"geniusPrice":null,"geniusUnitPricePerLabel":null,"banner":{"text":"Super preț","textColor":"#FF0000","bgColor":"#FFF2EC","icon":null,"link":"https://www.freshful.ro/oferte/special-cosmetice-21feb-8mar23","type":"promo","analyticsEventType":"select_promotion","analyticsEventPayload":{"promotion_id":"special-cosmetice-21feb-8mar23","promotion_name":"Cadouri pentru sărbătoritele lunii martie"}},"discountLabel":"Economisești 22%","geniusDiscountLabel":null,"badge":null},{"code":"100148016","variantCode":"100148016","name":"Cană filtrantă albastră Style 2.4l, Maxtra+","slug":"100148016-brita-cana-filtranta-albastra-style-2-4l-maxtra","unitPriceLabel":"","brand":"Brita","brandCode":"2872","brandFilterCode":"brita-b2956","sku":"100148016","price":159.99,"originalPrice":null,"currencyCode":"RON","currency":"Lei","image":{"thumbnail":{"default":"https://cdn.freshful.ro/media/cache/sylius_shop_product_thumbnail/66/e6/2cc82f7d626fea891202f2e6cb7c.jpg"},"large":{"default":"https://cdn.freshful.ro/media/cache/freshful_large/66/e6/2cc82f7d626fea891202f2e6cb7c.jpg"},"extralarge":{"default":"https://cdn.freshful.ro/media/cache/sylius_shop_product_original/66/e6/2cc82f7d626fea891202f2e6cb7c.jpg"}},"label":{"text":"-20% cu Genius","backgroundColor":"#FEF3FA","textColor":"#CD015F"},"tags":[],"isAvailable":true,"maxAvailableQuantity":8,"maxAllowedQuantity":100,"breadcrumbs":[{"code":"14","name":"Casă și agrement","slug":"14-casa-si-agrement"},{"code":"1403","name":"Articole de menaj","slug":"1403-articole-de-menaj"},{"code":"140305","name":"Articole menajere și pentru bucătărie","slug":"140305-articole-menajere-si-pentru-bucatarie"},{"code":"100148016","name":"Cană filtrantă albastră Style 2.4l, Maxtra+","slug":"100148016-brita-cana-filtranta-albastra-style-2-4l-maxtra"}],"activePromotion":null,"saveMe":null,"labels":[{"type":"gdeals","items":[{"text":"","backgroundColor":"","textColor":""}]},{"type":"v3","items":[{"text":"-20% cu Genius","backgroundColor":"#FEF3FA","textColor":"#CD015F"}]}],"geniusPrice":127.99,"geniusUnitPricePerLabel":"","banner":null,"discountLabel":null,"geniusDiscountLabel":"Economisești 20%","badge":null},{"code":"100064771","variantCode":"100064771","name":"Scobitori 65mm în tub de plastic 100buc","slug":"100064771-oti-scobitori-65mm-in-tub-de-plastic-100buc","unitPriceLabel":"","brand":"Oti","brandCode":"988","brandFilterCode":"oti-b1002","sku":"100064771","price":1.69,"originalPrice":null,"currencyCode":"RON","currency":"Lei","image":{"thumbnail":{"default":"https://cdn.freshful.ro/media/cache/sylius_shop_product_thumbnail/2d/79/90f20dd9eb3bcb43f04614bf95ec.jpg"},"large":{"default":"https://cdn.freshful.ro/media/cache/freshful_large/2d/79/90f20dd9eb3bcb43f04614bf95ec.jpg"},"extralarge":{"default":"https://cdn.freshful.ro/media/cache/sylius_shop_product_original/2d/79/90f20dd9eb3bcb43f04614bf95ec.jpg"}},"label":null,"tags":[],"isAvailable":true,"maxAvailableQuantity":100,"maxAllowedQuantity":100,"breadcrumbs":[{"code":"14","name":"Casă și agrement","slug":"14-casa-si-agrement"},{"code":"1403","name":"Articole de menaj","slug":"1403-articole-de-menaj"},{"code":"140305","name":"Articole menajere și pentru bucătărie","slug":"140305-articole-menajere-si-pentru-bucatarie"},{"code":"100064771","name":"Scobitori 65mm în tub de plastic 100buc","slug":"100064771-oti-scobitori-65mm-in-tub-de-plastic-100buc"}],"activePromotion":null,"saveMe":null,"labels":[],"geniusPrice":null,"geniusUnitPricePerLabel":null,"banner":null,"discountLabel":null,"geniusDiscountLabel":null,"badge":null},{"code":"100137980","variantCode":"100137980","name":"Pahare carton zero plastic bio Artwork 240ml, 25 buc","slug":"100137980-biodeck-pahare-carton-zero-plastic-bio-artwork-240ml-25-buc","unitPriceLabel":"","brand":"Biodeck","brandCode":"299","brandFilterCode":"biodeck-b300","sku":"100137980","price":16.99,"originalPrice":null,"currencyCode":"RON","currency":"Lei","image":{"thumbnail":{"default":"https://cdn.freshful.ro/media/cache/sylius_shop_product_thumbnail/de/0f/f36306b6bec24eb6717be694ab0a.jpg"},"large":{"default":"https://cdn.freshful.ro/media/cache/freshful_large/de/0f/f36306b6bec24eb6717be694ab0a.jpg"},"extralarge":{"default":"https://cdn.freshful.ro/media/cache/sylius_shop_product_original/de/0f/f36306b6bec24eb6717be694ab0a.jpg"}},"label":null,"tags":[{"type":"bio","text":"Bio","icon":"https://cdn.freshful.ro/assets/product_tags/bio.svg","iconPng":"https://cdn.freshful.ro/assets/product_tags/bio.png","backgroundColor":"#ECF6E9","textColor":"#399225"}],"isAvailable":true,"maxAvailableQuantity":82,"maxAllowedQuantity":100,"breadcrumbs":[{"code":"14","name":"Casă și agrement","slug":"14-casa-si-agrement"},{"code":"1403","name":"Articole de menaj","slug":"1403-articole-de-menaj"},{"code":"140303","name":"Veselă de unică folosință","slug":"140303-vesela-de-unica-folosinta"},{"code":"100137980","name":"Pahare carton zero plastic bio Artwork 240ml, 25 buc","slug":"100137980-biodeck-pahare-carton-zero-plastic-bio-artwork-240ml-25-buc"}],"activePromotion":null,"saveMe":null,"labels":[],"geniusPrice":null,"geniusUnitPricePerLabel":null,"banner":null,"discountLabel":null,"geniusDiscountLabel":null,"badge":null},{"code":"100064777","variantCode":"100064777","name":"Lumânări pastilă ecologice 100/set","slug":"100064777-oti-lumanari-pastila-ecologice-100-set","unitPriceLabel":"","brand":"Oti","brandCode":"988","brandFilterCode":"oti-b1002","sku":"100064777","price":30.99,"originalPrice":null,"currencyCode":"RON","currency":"Lei","image":{"thumbnail":{"default":"https://cdn.freshful.ro/media/cache/sylius_shop_product_thumbnail/ab/22/98c683f4db72ce50d3849cfc44c7.jpg"},"large":{"default":"https://cdn.freshful.ro/media/cache/freshful_large/ab/22/98c683f4db72ce50d3849cfc44c7.jpg"},"extralarge":{"default":"https://cdn.freshful.ro/media/cache/sylius_shop_product_original/ab/22/98c683f4db72ce50d3849cfc44c7.jpg"}},"label":null,"tags":[{"type":"Eco","text":"Eco","icon":"https://cdn.freshful.ro/assets/product_tags/eco.svg","iconPng":"https://cdn.freshful.ro/assets/product_tags/eco.png","backgroundColor":"#EFFBE4","textColor":"#66BB1B"}],"isAvailable":true,"maxAvailableQuantity":100,"maxAllowedQuantity":100,"breadcrumbs":[{"code":"14","name":"Casă și agrement","slug":"14-casa-si-agrement"},{"code":"1403","name":"Articole de menaj","slug":"1403-articole-de-menaj"},{"code":"140308","name":"Lumânări și aromatice","slug":"140308-lumanari-si-aromatice"},{"code":"100064777","name":"Lumânări pastilă ecologice 100/set","slug":"100064777-oti-lumanari-pastila-ecologice-100-set"}],"activePromotion":null,"saveMe":null,"labels":[],"geniusPrice":null,"geniusUnitPricePerLabel":null,"banner":null,"discountLabel":null,"geniusDiscountLabel":null,"badge":null}],"filters":{"countSelected":0,"items":[{"code":"promotion","name":"Promoții","countSelected":0,"values":[{"code":"special-cosmetice-21feb-8mar23","name":"Cadouri pentru sărbătoritele lunii martie","isSelected":false,"count":11}]},{"code":"brand","name":"Brand","countSelected":0,"values":[{"code":"arcopal-b2144","name":"Arcopal","isSelected":false,"count":3},{"code":"art-of-dinning-b2871","name":"Art Of Dinning","isSelected":false,"count":4},{"code":"bic-b320","name":"BiC","isSelected":false,"count":5},{"code":"biodeck-b300","name":"Biodeck","isSelected":false,"count":22},{"code":"bispol-b1994","name":"Bispol","isSelected":false,"count":16},{"code":"bolsius-b1993","name":"Bolsius","isSelected":false,"count":24},{"code":"brita-b2956","name":"Brita","isSelected":false,"count":7},{"code":"chef-sommelier-b2145","name":"Chef&Sommelier","isSelected":false,"count":3},{"code":"cooking-by-heinner-b2830","name":"Cooking By Heinner","isSelected":false,"count":36},{"code":"disney-b35","name":"Disney","isSelected":false,"count":2},{"code":"epack-b369","name":"epack","isSelected":false,"count":1},{"code":"fino-b546","name":"Fino","isSelected":false,"count":1},{"code":"hem-b1995","name":"Hem","isSelected":false,"count":2},{"code":"home-arcorom-b2146","name":"Home Arcorom","isSelected":false,"count":1},{"code":"kitchen-shop-b2904","name":"Kitchen Shop","isSelected":false,"count":2},{"code":"lca-b1992","name":"Lca","isSelected":false,"count":3},{"code":"luminarc-b2143","name":"Luminarc","isSelected":false,"count":30},{"code":"oti-b1002","name":"Oti","isSelected":false,"count":21},{"code":"partycenter-b2024","name":"Partycenter","isSelected":false,"count":45},{"code":"romania-frumoasa-b1641","name":"România Frumoasă","isSelected":false,"count":1},{"code":"vanora-b2854","name":"Vanora","isSelected":false,"count":11},{"code":"warner-bros-b3262","name":"Warner Bros","isSelected":false,"count":4},{"code":"zokura-b2955","name":"Zokura","isSelected":false,"count":5}]},{"code":"diet_lifestyle","name":"Dietă și lifestyle","countSelected":0,"values":[{"code":"bio-a26","name":"Bio","isSelected":false,"count":22},{"code":"eco-a83","name":"Eco","isSelected":false,"count":1}]}]},"orderBy":[{"field":"price","direction":"asc","name":"Preț crescător","isSelected":false},{"field":"price","direction":"desc","name":"Preț descrescător","isSelected":false},{"field":"popularity","direction":"desc","name":"Cele mai populare","isSelected":true},{"field":"category","direction":"asc","name":"Categorie","isSelected":false}],"metaTitle":"Articole de menaj - Gamă variată","metaDescription":"Vrei Articole de menaj? Alege dintr-o gamă variată. Comanzi simplu și ai livrare rapidă, calitate și prospețime. Hai pe Freshful.ro","metaKeywords":null,"banners":[]}}