{"type":"subcategory","payload":{"analyticsListId":"category_140302-vesela-tacamuri-si-accesorii-pentru-masa","analyticsListName":"Category - Veselă, tacâmuri și accesorii pentru masă","name":"Veselă, tacâmuri și accesorii pentru masă","slug":"140302-vesela-tacamuri-si-accesorii-pentru-masa","image":null,"breadcrumbs":[{"code":"14","name":"Casă și agrement","slug":"14-casa-si-agrement"},{"code":"1403","name":"Articole de menaj","slug":"1403-articole-de-menaj"},{"code":"140302","name":"Veselă, tacâmuri și accesorii pentru masă","slug":"140302-vesela-tacamuri-si-accesorii-pentru-masa"}],"slots":[],"page":1,"limit":10,"pages":3,"count":30,"siblings":[{"name":"Bricolaj și auto","slug":"1401-bricolaj-si-auto","selected":false},{"name":"Grădină","slug":"1402-gradina","selected":false},{"name":"Articole de menaj","slug":"1403-articole-de-menaj","selected":true},{"name":"Textile pentru casă","slug":"1404-textile-de-casa","selected":false},{"name":"Birotică și papetărie","slug":"1405-birotica-si-papetarie","selected":false},{"name":"Jucării","slug":"1406-jucarii","selected":false},{"name":"Accesorii IT&C","slug":"1408-hitech-audio-video","selected":false},{"name":"Textile și accesorii","slug":"1410-textile-basic","selected":false}],"children":[{"name":"Toate produsele","slug":"1403-articole-de-menaj","selected":false},{"name":"Pahare și carafe","slug":"140301-pahare-si-carafe","selected":false},{"name":"Veselă, tacâmuri și accesorii pentru masă","slug":"140302-vesela-tacamuri-si-accesorii-pentru-masa","selected":true},{"name":"Veselă de unică folosință","slug":"140303-vesela-de-unica-folosinta","selected":false},{"name":"Articole pentru gătit","slug":"140304-articole-pentru-gatit-si-coacere","selected":false},{"name":"Articole menajere și pentru bucătărie","slug":"140305-articole-menajere-si-pentru-bucatarie","selected":false},{"name":"Lumânări și aromatice","slug":"140308-lumanari-si-aromatice","selected":false},{"name":"Accesorii pentru petrecere","slug":"accesorii-pentru-petrecere","selected":false}],"products":[{"code":"100143389","variantCode":"100143389","name":"Set 5 boluri de sticlă cu capac albastru","slug":"100143389-cooking-by-heinner-set-5-boluri-de-sticla-cu-capac-albastru","unitPriceLabel":"","brand":"Cooking By Heinner","brandCode":"2756","brandFilterCode":"cooking-by-heinner-b2830","sku":"100143389","price":34.99,"originalPrice":null,"currencyCode":"RON","currency":"Lei","image":{"thumbnail":{"default":"https://cdn.freshful.ro/media/cache/sylius_shop_product_thumbnail/b9/41/65ceb39f72bbf09a4379d4936dba.jpg"},"large":{"default":"https://cdn.freshful.ro/media/cache/freshful_large/b9/41/65ceb39f72bbf09a4379d4936dba.jpg"},"extralarge":{"default":"https://cdn.freshful.ro/media/cache/sylius_shop_product_original/b9/41/65ceb39f72bbf09a4379d4936dba.jpg"}},"label":null,"tags":[],"isAvailable":true,"maxAvailableQuantity":25,"maxAllowedQuantity":100,"breadcrumbs":[{"code":"14","name":"Casă și agrement","slug":"14-casa-si-agrement"},{"code":"1403","name":"Articole de menaj","slug":"1403-articole-de-menaj"},{"code":"140302","name":"Veselă, tacâmuri și accesorii pentru masă","slug":"140302-vesela-tacamuri-si-accesorii-pentru-masa"},{"code":"100143389","name":"Set 5 boluri de sticlă cu capac albastru","slug":"100143389-cooking-by-heinner-set-5-boluri-de-sticla-cu-capac-albastru"}],"activePromotion":null,"saveMe":null,"labels":[],"geniusPrice":null,"geniusUnitPricePerLabel":null,"banner":null,"discountLabel":null,"geniusDiscountLabel":null,"badge":null},{"code":"100122326","variantCode":"100122326","name":"Bol 14.5 cm","slug":"100122326-luminarc-bol-14-5-cm","unitPriceLabel":"","brand":"Luminarc","brandCode":"2139","brandFilterCode":"luminarc-b2143","sku":"100122326","price":23.99,"originalPrice":null,"currencyCode":"RON","currency":"Lei","image":{"thumbnail":{"default":"https://cdn.freshful.ro/media/cache/sylius_shop_product_thumbnail/d0/cf/3e2c7327a799759e8213fe27fda2.jpg"},"large":{"default":"https://cdn.freshful.ro/media/cache/freshful_large/d0/cf/3e2c7327a799759e8213fe27fda2.jpg"},"extralarge":{"default":"https://cdn.freshful.ro/media/cache/sylius_shop_product_original/d0/cf/3e2c7327a799759e8213fe27fda2.jpg"}},"label":null,"tags":[],"isAvailable":true,"maxAvailableQuantity":2,"maxAllowedQuantity":100,"breadcrumbs":[{"code":"14","name":"Casă și agrement","slug":"14-casa-si-agrement"},{"code":"1403","name":"Articole de menaj","slug":"1403-articole-de-menaj"},{"code":"140302","name":"Veselă, tacâmuri și accesorii pentru masă","slug":"140302-vesela-tacamuri-si-accesorii-pentru-masa"},{"code":"100122326","name":"Bol 14.5 cm","slug":"100122326-luminarc-bol-14-5-cm"}],"activePromotion":null,"saveMe":null,"labels":[],"geniusPrice":null,"geniusUnitPricePerLabel":null,"banner":null,"discountLabel":null,"geniusDiscountLabel":null,"badge":null},{"code":"100122308","variantCode":"100122308","name":"Bol salată 24cm ","slug":"100122308-luminarc-bol-salata-24cm","unitPriceLabel":"","brand":"Luminarc","brandCode":"2139","brandFilterCode":"luminarc-b2143","sku":"100122308","price":39.99,"originalPrice":null,"currencyCode":"RON","currency":"Lei","image":{"thumbnail":{"default":"https://cdn.freshful.ro/media/cache/sylius_shop_product_thumbnail/89/cd/6196d9ebeced994c170a23f84699.jpg"},"large":{"default":"https://cdn.freshful.ro/media/cache/freshful_large/89/cd/6196d9ebeced994c170a23f84699.jpg"},"extralarge":{"default":"https://cdn.freshful.ro/media/cache/sylius_shop_product_original/89/cd/6196d9ebeced994c170a23f84699.jpg"}},"label":null,"tags":[],"isAvailable":true,"maxAvailableQuantity":2,"maxAllowedQuantity":100,"breadcrumbs":[{"code":"14","name":"Casă și agrement","slug":"14-casa-si-agrement"},{"code":"1403","name":"Articole de menaj","slug":"1403-articole-de-menaj"},{"code":"140302","name":"Veselă, tacâmuri și accesorii pentru masă","slug":"140302-vesela-tacamuri-si-accesorii-pentru-masa"},{"code":"100122308","name":"Bol salată 24cm ","slug":"100122308-luminarc-bol-salata-24cm"}],"activePromotion":null,"saveMe":null,"labels":[],"geniusPrice":null,"geniusUnitPricePerLabel":null,"banner":null,"discountLabel":null,"geniusDiscountLabel":null,"badge":null},{"code":"100122309","variantCode":"100122309","name":"Farfurie desert 19cm","slug":"100122309-luminarc-farfurie-desert-19cm","unitPriceLabel":"","brand":"Luminarc","brandCode":"2139","brandFilterCode":"luminarc-b2143","sku":"100122309","price":9.99,"originalPrice":null,"currencyCode":"RON","currency":"Lei","image":{"thumbnail":{"default":"https://cdn.freshful.ro/media/cache/sylius_shop_product_thumbnail/27/81/b67b033c2139b20d5ab849018261.jpg"},"large":{"default":"https://cdn.freshful.ro/media/cache/freshful_large/27/81/b67b033c2139b20d5ab849018261.jpg"},"extralarge":{"default":"https://cdn.freshful.ro/media/cache/sylius_shop_product_original/27/81/b67b033c2139b20d5ab849018261.jpg"}},"label":null,"tags":[],"isAvailable":true,"maxAvailableQuantity":11,"maxAllowedQuantity":100,"breadcrumbs":[{"code":"14","name":"Casă și agrement","slug":"14-casa-si-agrement"},{"code":"1403","name":"Articole de menaj","slug":"1403-articole-de-menaj"},{"code":"140302","name":"Veselă, tacâmuri și accesorii pentru masă","slug":"140302-vesela-tacamuri-si-accesorii-pentru-masa"},{"code":"100122309","name":"Farfurie desert 19cm","slug":"100122309-luminarc-farfurie-desert-19cm"}],"activePromotion":null,"saveMe":null,"labels":[],"geniusPrice":null,"geniusUnitPricePerLabel":null,"banner":null,"discountLabel":null,"geniusDiscountLabel":null,"badge":null},{"code":"100122312","variantCode":"100122312","name":"Bol salată 13cm","slug":"100122312-luminarc-bol-salata-13cm","unitPriceLabel":"","brand":"Luminarc","brandCode":"2139","brandFilterCode":"luminarc-b2143","sku":"100122312","price":16.39,"originalPrice":null,"currencyCode":"RON","currency":"Lei","image":{"thumbnail":{"default":"https://cdn.freshful.ro/media/cache/sylius_shop_product_thumbnail/9f/a4/c2c9164f63a33ebd54193ecb62cc.jpg"},"large":{"default":"https://cdn.freshful.ro/media/cache/freshful_large/9f/a4/c2c9164f63a33ebd54193ecb62cc.jpg"},"extralarge":{"default":"https://cdn.freshful.ro/media/cache/sylius_shop_product_original/9f/a4/c2c9164f63a33ebd54193ecb62cc.jpg"}},"label":null,"tags":[],"isAvailable":true,"maxAvailableQuantity":1,"maxAllowedQuantity":100,"breadcrumbs":[{"code":"14","name":"Casă și agrement","slug":"14-casa-si-agrement"},{"code":"1403","name":"Articole de menaj","slug":"1403-articole-de-menaj"},{"code":"140302","name":"Veselă, tacâmuri și accesorii pentru masă","slug":"140302-vesela-tacamuri-si-accesorii-pentru-masa"},{"code":"100122312","name":"Bol salată 13cm","slug":"100122312-luminarc-bol-salata-13cm"}],"activePromotion":null,"saveMe":null,"labels":[],"geniusPrice":null,"geniusUnitPricePerLabel":null,"banner":null,"discountLabel":null,"geniusDiscountLabel":null,"badge":null},{"code":"100122330","variantCode":"100122330","name":"Farfurie întinsă 25cm","slug":"100122330-luminarc-farfurie-intinsa-25cm","unitPriceLabel":"","brand":"Luminarc","brandCode":"2139","brandFilterCode":"luminarc-b2143","sku":"100122330","price":19.98,"originalPrice":null,"currencyCode":"RON","currency":"Lei","image":{"thumbnail":{"default":"https://cdn.freshful.ro/media/cache/sylius_shop_product_thumbnail/4e/ee/ab7b0edc17efd8bddcd208fb2ed2.jpg"},"large":{"default":"https://cdn.freshful.ro/media/cache/freshful_large/4e/ee/ab7b0edc17efd8bddcd208fb2ed2.jpg"},"extralarge":{"default":"https://cdn.freshful.ro/media/cache/sylius_shop_product_original/4e/ee/ab7b0edc17efd8bddcd208fb2ed2.jpg"}},"label":null,"tags":[],"isAvailable":true,"maxAvailableQuantity":4,"maxAllowedQuantity":100,"breadcrumbs":[{"code":"14","name":"Casă și agrement","slug":"14-casa-si-agrement"},{"code":"1403","name":"Articole de menaj","slug":"1403-articole-de-menaj"},{"code":"140302","name":"Veselă, tacâmuri și accesorii pentru masă","slug":"140302-vesela-tacamuri-si-accesorii-pentru-masa"},{"code":"100122330","name":"Farfurie întinsă 25cm","slug":"100122330-luminarc-farfurie-intinsa-25cm"}],"activePromotion":null,"saveMe":null,"labels":[],"geniusPrice":null,"geniusUnitPricePerLabel":null,"banner":null,"discountLabel":null,"geniusDiscountLabel":null,"badge":null},{"code":"100122301","variantCode":"100122301","name":"Bol 24cm","slug":"100122301-luminarc-bol-24cm","unitPriceLabel":"","brand":"Luminarc","brandCode":"2139","brandFilterCode":"luminarc-b2143","sku":"100122301","price":30.99,"originalPrice":null,"currencyCode":"RON","currency":"Lei","image":{"thumbnail":{"default":"https://cdn.freshful.ro/media/cache/sylius_shop_product_thumbnail/88/d6/5af445f15a24c3b633752284b16e.jpg"},"large":{"default":"https://cdn.freshful.ro/media/cache/freshful_large/88/d6/5af445f15a24c3b633752284b16e.jpg"},"extralarge":{"default":"https://cdn.freshful.ro/media/cache/sylius_shop_product_original/88/d6/5af445f15a24c3b633752284b16e.jpg"}},"label":null,"tags":[],"isAvailable":true,"maxAvailableQuantity":7,"maxAllowedQuantity":100,"breadcrumbs":[{"code":"14","name":"Casă și agrement","slug":"14-casa-si-agrement"},{"code":"1403","name":"Articole de menaj","slug":"1403-articole-de-menaj"},{"code":"140302","name":"Veselă, tacâmuri și accesorii pentru masă","slug":"140302-vesela-tacamuri-si-accesorii-pentru-masa"},{"code":"100122301","name":"Bol 24cm","slug":"100122301-luminarc-bol-24cm"}],"activePromotion":null,"saveMe":null,"labels":[],"geniusPrice":null,"geniusUnitPricePerLabel":null,"banner":null,"discountLabel":null,"geniusDiscountLabel":null,"badge":null},{"code":"100122303","variantCode":"100122303","name":"Bol 12cm","slug":"100122303-luminarc-bol-12cm","unitPriceLabel":"","brand":"Luminarc","brandCode":"2139","brandFilterCode":"luminarc-b2143","sku":"100122303","price":13.69,"originalPrice":null,"currencyCode":"RON","currency":"Lei","image":{"thumbnail":{"default":"https://cdn.freshful.ro/media/cache/sylius_shop_product_thumbnail/be/04/4cd7bb550e5d7b6b4c38bfe47232.jpg"},"large":{"default":"https://cdn.freshful.ro/media/cache/freshful_large/be/04/4cd7bb550e5d7b6b4c38bfe47232.jpg"},"extralarge":{"default":"https://cdn.freshful.ro/media/cache/sylius_shop_product_original/be/04/4cd7bb550e5d7b6b4c38bfe47232.jpg"}},"label":null,"tags":[],"isAvailable":true,"maxAvailableQuantity":8,"maxAllowedQuantity":100,"breadcrumbs":[{"code":"14","name":"Casă și agrement","slug":"14-casa-si-agrement"},{"code":"1403","name":"Articole de menaj","slug":"1403-articole-de-menaj"},{"code":"140302","name":"Veselă, tacâmuri și accesorii pentru masă","slug":"140302-vesela-tacamuri-si-accesorii-pentru-masa"},{"code":"100122303","name":"Bol 12cm","slug":"100122303-luminarc-bol-12cm"}],"activePromotion":null,"saveMe":null,"labels":[],"geniusPrice":null,"geniusUnitPricePerLabel":null,"banner":null,"discountLabel":null,"geniusDiscountLabel":null,"badge":null},{"code":"100122311","variantCode":"100122311","name":"Farfurie adâncă 23.5cm","slug":"100122311-luminarc-farfurie-adanca-23-5cm","unitPriceLabel":"","brand":"Luminarc","brandCode":"2139","brandFilterCode":"luminarc-b2143","sku":"100122311","price":12.19,"originalPrice":null,"currencyCode":"RON","currency":"Lei","image":{"thumbnail":{"default":"https://cdn.freshful.ro/media/cache/sylius_shop_product_thumbnail/50/25/03edf196c55093728e74cd29718b.jpg"},"large":{"default":"https://cdn.freshful.ro/media/cache/freshful_large/50/25/03edf196c55093728e74cd29718b.jpg"},"extralarge":{"default":"https://cdn.freshful.ro/media/cache/sylius_shop_product_original/50/25/03edf196c55093728e74cd29718b.jpg"}},"label":null,"tags":[],"isAvailable":true,"maxAvailableQuantity":14,"maxAllowedQuantity":100,"breadcrumbs":[{"code":"14","name":"Casă și agrement","slug":"14-casa-si-agrement"},{"code":"1403","name":"Articole de menaj","slug":"1403-articole-de-menaj"},{"code":"140302","name":"Veselă, tacâmuri și accesorii pentru masă","slug":"140302-vesela-tacamuri-si-accesorii-pentru-masa"},{"code":"100122311","name":"Farfurie adâncă 23.5cm","slug":"100122311-luminarc-farfurie-adanca-23-5cm"}],"activePromotion":null,"saveMe":null,"labels":[],"geniusPrice":null,"geniusUnitPricePerLabel":null,"banner":null,"discountLabel":null,"geniusDiscountLabel":null,"badge":null},{"code":"100122319","variantCode":"100122319","name":"Bol 12cm","slug":"100122319-luminarc-bol-12cm","unitPriceLabel":"","brand":"Luminarc","brandCode":"2139","brandFilterCode":"luminarc-b2143","sku":"100122319","price":11.99,"originalPrice":null,"currencyCode":"RON","currency":"Lei","image":{"thumbnail":{"default":"https://cdn.freshful.ro/media/cache/sylius_shop_product_thumbnail/19/45/2f55f9051a7fea4aa9d26e7d93e4.jpg"},"large":{"default":"https://cdn.freshful.ro/media/cache/freshful_large/19/45/2f55f9051a7fea4aa9d26e7d93e4.jpg"},"extralarge":{"default":"https://cdn.freshful.ro/media/cache/sylius_shop_product_original/19/45/2f55f9051a7fea4aa9d26e7d93e4.jpg"}},"label":null,"tags":[],"isAvailable":true,"maxAvailableQuantity":13,"maxAllowedQuantity":100,"breadcrumbs":[{"code":"14","name":"Casă și agrement","slug":"14-casa-si-agrement"},{"code":"1403","name":"Articole de menaj","slug":"1403-articole-de-menaj"},{"code":"140302","name":"Veselă, tacâmuri și accesorii pentru masă","slug":"140302-vesela-tacamuri-si-accesorii-pentru-masa"},{"code":"100122319","name":"Bol 12cm","slug":"100122319-luminarc-bol-12cm"}],"activePromotion":null,"saveMe":null,"labels":[],"geniusPrice":null,"geniusUnitPricePerLabel":null,"banner":null,"discountLabel":null,"geniusDiscountLabel":null,"badge":null}],"filters":{"countSelected":0,"items":[{"code":"brand","name":"Brand","countSelected":0,"values":[{"code":"arcopal-b2144","name":"Arcopal","isSelected":false,"count":3},{"code":"cooking-by-heinner-b2830","name":"Cooking By Heinner","isSelected":false,"count":1},{"code":"home-arcorom-b2146","name":"Home Arcorom","isSelected":false,"count":1},{"code":"luminarc-b2143","name":"Luminarc","isSelected":false,"count":25}]}]},"orderBy":[{"field":"price","direction":"asc","name":"Preț crescător","isSelected":false},{"field":"price","direction":"desc","name":"Preț descrescător","isSelected":false},{"field":"popularity","direction":"desc","name":"Cele mai populare","isSelected":true},{"field":"category","direction":"asc","name":"Categorie","isSelected":false}],"metaTitle":"Veselă, tacâmuri și accesorii pentru masă - Gamă variată","metaDescription":"Vrei Veselă, tacâmuri și accesorii pentru masă? Alege dintr-o gamă variată. Comanzi simplu și ai livrare rapidă, calitate și prospețime. Hai pe Freshful.ro","metaKeywords":null,"banners":[]}}