{"type":"subcategory","payload":{"analyticsListId":"category_140501-papetarie-si-birou","analyticsListName":"Category - Papetărie și birou","name":"Papetărie și birou","slug":"140501-papetarie-si-birou","image":null,"breadcrumbs":[{"code":"14","name":"Casă și agrement","slug":"14-casa-si-agrement"},{"code":"1405","name":"Birotică și papetărie","slug":"1405-birotica-si-papetarie"},{"code":"140501","name":"Papetărie și birou","slug":"140501-papetarie-si-birou"}],"slots":[],"page":1,"limit":10,"pages":29,"count":284,"siblings":[{"name":"Bricolaj și auto","slug":"1401-bricolaj-si-auto","selected":false},{"name":"Grădină","slug":"1402-gradina","selected":false},{"name":"Articole de menaj","slug":"1403-articole-de-menaj","selected":false},{"name":"Textile pentru casă","slug":"1404-textile-de-casa","selected":false},{"name":"Birotică și papetărie","slug":"1405-birotica-si-papetarie","selected":true},{"name":"Jucării","slug":"1406-jucarii","selected":false},{"name":"Accesorii IT&C","slug":"1408-hitech-audio-video","selected":false},{"name":"Textile și accesorii","slug":"1410-textile-basic","selected":false}],"children":[{"name":"Toate produsele","slug":"1405-birotica-si-papetarie","selected":false},{"name":"Papetărie și birou","slug":"140501-papetarie-si-birou","selected":true},{"name":"Calculatoare","slug":"140502-calculatoare","selected":false},{"name":"Consumabile imprimantă","slug":"140504-cartuse-si-hartie-imprimanta","selected":false}],"products":[{"code":"100100935","variantCode":"100100935","name":"Lipici Fix Strong 3g","slug":"100100935-bic-lipici-fix-strong-3g","unitPriceLabel":"","brand":"BiC","brandCode":"319","brandFilterCode":"bic-b320","sku":"100100935","price":8.99,"originalPrice":null,"currencyCode":"RON","currency":"Lei","image":{"thumbnail":{"default":"https://cdn.freshful.ro/media/cache/sylius_shop_product_thumbnail/cd/c2/50277afe8740748947e956233698.jpg"},"large":{"default":"https://cdn.freshful.ro/media/cache/freshful_large/cd/c2/50277afe8740748947e956233698.jpg"},"extralarge":{"default":"https://cdn.freshful.ro/media/cache/sylius_shop_product_original/cd/c2/50277afe8740748947e956233698.jpg"}},"label":null,"tags":[],"isAvailable":true,"maxAvailableQuantity":73,"maxAllowedQuantity":100,"breadcrumbs":[{"code":"14","name":"Casă și agrement","slug":"14-casa-si-agrement"},{"code":"1405","name":"Birotică și papetărie","slug":"1405-birotica-si-papetarie"},{"code":"140501","name":"Papetărie și birou","slug":"140501-papetarie-si-birou"},{"code":"100100935","name":"Lipici Fix Strong 3g","slug":"100100935-bic-lipici-fix-strong-3g"}],"activePromotion":null,"saveMe":null,"labels":[],"geniusPrice":null,"geniusUnitPricePerLabel":null,"banner":null,"discountLabel":null,"geniusDiscountLabel":null,"badge":null},{"code":"100100901","variantCode":"100100901","name":"Set plastilină 12 culori","slug":"100100901-bic-set-plastilina-12-culori","unitPriceLabel":"","brand":"BiC","brandCode":"319","brandFilterCode":"bic-b320","sku":"100100901","price":11.9,"originalPrice":null,"currencyCode":"RON","currency":"Lei","image":{"thumbnail":{"default":"https://cdn.freshful.ro/media/cache/sylius_shop_product_thumbnail/1c/1c/3000390342f9aa567a3a8a6eedd9.jpg"},"large":{"default":"https://cdn.freshful.ro/media/cache/freshful_large/1c/1c/3000390342f9aa567a3a8a6eedd9.jpg"},"extralarge":{"default":"https://cdn.freshful.ro/media/cache/sylius_shop_product_original/1c/1c/3000390342f9aa567a3a8a6eedd9.jpg"}},"label":null,"tags":[],"isAvailable":true,"maxAvailableQuantity":100,"maxAllowedQuantity":100,"breadcrumbs":[{"code":"14","name":"Casă și agrement","slug":"14-casa-si-agrement"},{"code":"1405","name":"Birotică și papetărie","slug":"1405-birotica-si-papetarie"},{"code":"140501","name":"Papetărie și birou","slug":"140501-papetarie-si-birou"},{"code":"100100901","name":"Set plastilină 12 culori","slug":"100100901-bic-set-plastilina-12-culori"}],"activePromotion":null,"saveMe":null,"labels":[],"geniusPrice":null,"geniusUnitPricePerLabel":null,"banner":null,"discountLabel":null,"geniusDiscountLabel":null,"badge":null},{"code":"100113065","variantCode":"100113065","name":"Pix Roller Frixion Ball, 0.7 mm, albastru ","slug":"100113065-pilot-pix-roller-frixion-ball-0-7-mm-albastru","unitPriceLabel":"","brand":"Pilot","brandCode":"1751","brandFilterCode":"pilot-b1755","sku":"100113065","price":17.69,"originalPrice":null,"currencyCode":"RON","currency":"Lei","image":{"thumbnail":{"default":"https://cdn.freshful.ro/media/cache/sylius_shop_product_thumbnail/0c/13/9bf79ba2c03cf34f25ddaa6c98f1.jpg"},"large":{"default":"https://cdn.freshful.ro/media/cache/freshful_large/0c/13/9bf79ba2c03cf34f25ddaa6c98f1.jpg"},"extralarge":{"default":"https://cdn.freshful.ro/media/cache/sylius_shop_product_original/0c/13/9bf79ba2c03cf34f25ddaa6c98f1.jpg"}},"label":null,"tags":[],"isAvailable":true,"maxAvailableQuantity":36,"maxAllowedQuantity":100,"breadcrumbs":[{"code":"14","name":"Casă și agrement","slug":"14-casa-si-agrement"},{"code":"1405","name":"Birotică și papetărie","slug":"1405-birotica-si-papetarie"},{"code":"140501","name":"Papetărie și birou","slug":"140501-papetarie-si-birou"},{"code":"100113065","name":"Pix Roller Frixion Ball, 0.7 mm, albastru ","slug":"100113065-pilot-pix-roller-frixion-ball-0-7-mm-albastru"}],"activePromotion":null,"saveMe":null,"labels":[],"geniusPrice":null,"geniusUnitPricePerLabel":null,"banner":null,"discountLabel":null,"geniusDiscountLabel":null,"badge":null},{"code":"100149181","variantCode":"100149181","name":"Dispenser bandă adezivă 19mm x7.5m ","slug":"100149181-scotch-dispenser-banda-adeziva-19mm-x7-5m","unitPriceLabel":"","brand":"Scotch","brandCode":"2952","brandFilterCode":"scotch-b3046","sku":"100149181","price":9.79,"originalPrice":null,"currencyCode":"RON","currency":"Lei","image":{"thumbnail":{"default":"https://cdn.freshful.ro/media/cache/sylius_shop_product_thumbnail/28/17/6969b63f60c9ed4d0052b31534cd.jpg"},"large":{"default":"https://cdn.freshful.ro/media/cache/freshful_large/28/17/6969b63f60c9ed4d0052b31534cd.jpg"},"extralarge":{"default":"https://cdn.freshful.ro/media/cache/sylius_shop_product_original/28/17/6969b63f60c9ed4d0052b31534cd.jpg"}},"label":null,"tags":[],"isAvailable":true,"maxAvailableQuantity":48,"maxAllowedQuantity":100,"breadcrumbs":[{"code":"14","name":"Casă și agrement","slug":"14-casa-si-agrement"},{"code":"1405","name":"Birotică și papetărie","slug":"1405-birotica-si-papetarie"},{"code":"140501","name":"Papetărie și birou","slug":"140501-papetarie-si-birou"},{"code":"100149181","name":"Dispenser bandă adezivă 19mm x7.5m ","slug":"100149181-scotch-dispenser-banda-adeziva-19mm-x7-5m"}],"activePromotion":null,"saveMe":null,"labels":[],"geniusPrice":null,"geniusUnitPricePerLabel":null,"banner":null,"discountLabel":null,"geniusDiscountLabel":null,"badge":null},{"code":"100142027","variantCode":"100142027","name":"Lipici solid ECO 21gr","slug":"100142027-bic-lipici-solid-eco-21gr","unitPriceLabel":"","brand":"BiC","brandCode":"319","brandFilterCode":"bic-b320","sku":"100142027","price":8.99,"originalPrice":null,"currencyCode":"RON","currency":"Lei","image":{"thumbnail":{"default":"https://cdn.freshful.ro/media/cache/sylius_shop_product_thumbnail/76/2b/40683249f3d0c66ff070d9d9eb71.jpg"},"large":{"default":"https://cdn.freshful.ro/media/cache/freshful_large/76/2b/40683249f3d0c66ff070d9d9eb71.jpg"},"extralarge":{"default":"https://cdn.freshful.ro/media/cache/sylius_shop_product_original/76/2b/40683249f3d0c66ff070d9d9eb71.jpg"}},"label":null,"tags":[{"type":"Eco","text":"Eco","icon":"https://cdn.freshful.ro/assets/product_tags/eco.svg","iconPng":"https://cdn.freshful.ro/assets/product_tags/eco.png","backgroundColor":"#EFFBE4","textColor":"#66BB1B"}],"isAvailable":true,"maxAvailableQuantity":8,"maxAllowedQuantity":100,"breadcrumbs":[{"code":"14","name":"Casă și agrement","slug":"14-casa-si-agrement"},{"code":"1405","name":"Birotică și papetărie","slug":"1405-birotica-si-papetarie"},{"code":"140501","name":"Papetărie și birou","slug":"140501-papetarie-si-birou"},{"code":"100142027","name":"Lipici solid ECO 21gr","slug":"100142027-bic-lipici-solid-eco-21gr"}],"activePromotion":null,"saveMe":null,"labels":[],"geniusPrice":null,"geniusUnitPricePerLabel":null,"banner":null,"discountLabel":null,"geniusDiscountLabel":null,"badge":null},{"code":"100113077","variantCode":"100113077","name":"Plic alb siliconic (110x220 mm) 25 buc/set","slug":"100113077-intern-plic-alb-siliconic-110x220-mm-25-buc-set","unitPriceLabel":"","brand":"Intern","brandCode":"1897","brandFilterCode":"intern-b1890","sku":"100113077","price":7.99,"originalPrice":null,"currencyCode":"RON","currency":"Lei","image":{"thumbnail":{"default":"https://cdn.freshful.ro/media/cache/sylius_shop_product_thumbnail/19/d9/76c9d996bd5d4a9f52a13c5e79de.jpg"},"large":{"default":"https://cdn.freshful.ro/media/cache/freshful_large/19/d9/76c9d996bd5d4a9f52a13c5e79de.jpg"},"extralarge":{"default":"https://cdn.freshful.ro/media/cache/sylius_shop_product_original/19/d9/76c9d996bd5d4a9f52a13c5e79de.jpg"}},"label":null,"tags":[],"isAvailable":true,"maxAvailableQuantity":46,"maxAllowedQuantity":100,"breadcrumbs":[{"code":"14","name":"Casă și agrement","slug":"14-casa-si-agrement"},{"code":"1405","name":"Birotică și papetărie","slug":"1405-birotica-si-papetarie"},{"code":"140501","name":"Papetărie și birou","slug":"140501-papetarie-si-birou"},{"code":"100113077","name":"Plic alb siliconic (110x220 mm) 25 buc/set","slug":"100113077-intern-plic-alb-siliconic-110x220-mm-25-buc-set"}],"activePromotion":null,"saveMe":null,"labels":[],"geniusPrice":null,"geniusUnitPricePerLabel":null,"banner":null,"discountLabel":null,"geniusDiscountLabel":null,"badge":null},{"code":"100113066","variantCode":"100113066","name":"Rezervă Roller 0.7 mm, albastru, 3 buc/set ","slug":"100113066-pilot-rezerva-roller-0-7-mm-albastru-3-buc-set","unitPriceLabel":"","brand":"Pilot","brandCode":"1751","brandFilterCode":"pilot-b1755","sku":"100113066","price":26.99,"originalPrice":null,"currencyCode":"RON","currency":"Lei","image":{"thumbnail":{"default":"https://cdn.freshful.ro/media/cache/sylius_shop_product_thumbnail/ea/b5/13eb2f323424bbb1b2199e70b0ea.jpg"},"large":{"default":"https://cdn.freshful.ro/media/cache/freshful_large/ea/b5/13eb2f323424bbb1b2199e70b0ea.jpg"},"extralarge":{"default":"https://cdn.freshful.ro/media/cache/sylius_shop_product_original/ea/b5/13eb2f323424bbb1b2199e70b0ea.jpg"}},"label":null,"tags":[],"isAvailable":true,"maxAvailableQuantity":25,"maxAllowedQuantity":100,"breadcrumbs":[{"code":"14","name":"Casă și agrement","slug":"14-casa-si-agrement"},{"code":"1405","name":"Birotică și papetărie","slug":"1405-birotica-si-papetarie"},{"code":"140501","name":"Papetărie și birou","slug":"140501-papetarie-si-birou"},{"code":"100113066","name":"Rezervă Roller 0.7 mm, albastru, 3 buc/set ","slug":"100113066-pilot-rezerva-roller-0-7-mm-albastru-3-buc-set"}],"activePromotion":null,"saveMe":null,"labels":[],"geniusPrice":null,"geniusUnitPricePerLabel":null,"banner":null,"discountLabel":null,"geniusDiscountLabel":null,"badge":null},{"code":"100113083","variantCode":"100113083","name":"Caiet dictando A5 Trend cu spiră, 60 file","slug":"100113083-notte-caiet-dictando-a5-trend-cu-spira-60-file","unitPriceLabel":"","brand":"Notte","brandCode":"1898","brandFilterCode":"notte-b1891","sku":"100113083","price":8.49,"originalPrice":null,"currencyCode":"RON","currency":"Lei","image":{"thumbnail":{"default":"https://cdn.freshful.ro/media/cache/sylius_shop_product_thumbnail/ee/1e/42bc7539cc162f6cc6a8e44d3d71.jpg"},"large":{"default":"https://cdn.freshful.ro/media/cache/freshful_large/ee/1e/42bc7539cc162f6cc6a8e44d3d71.jpg"},"extralarge":{"default":"https://cdn.freshful.ro/media/cache/sylius_shop_product_original/ee/1e/42bc7539cc162f6cc6a8e44d3d71.jpg"}},"label":null,"tags":[],"isAvailable":true,"maxAvailableQuantity":52,"maxAllowedQuantity":100,"breadcrumbs":[{"code":"14","name":"Casă și agrement","slug":"14-casa-si-agrement"},{"code":"1405","name":"Birotică și papetărie","slug":"1405-birotica-si-papetarie"},{"code":"140501","name":"Papetărie și birou","slug":"140501-papetarie-si-birou"},{"code":"100113083","name":"Caiet dictando A5 Trend cu spiră, 60 file","slug":"100113083-notte-caiet-dictando-a5-trend-cu-spira-60-file"}],"activePromotion":null,"saveMe":null,"labels":[],"geniusPrice":null,"geniusUnitPricePerLabel":null,"banner":null,"discountLabel":null,"geniusDiscountLabel":null,"badge":null},{"code":"100100723","variantCode":"100100723","name":"Set 8 pixuri cu pastă albastră Round Stic ","slug":"100100723-bic-set-8-pixuri-cu-pasta-albastra-round-stic","unitPriceLabel":"","brand":"BiC","brandCode":"319","brandFilterCode":"bic-b320","sku":"100100723","price":12.89,"originalPrice":null,"currencyCode":"RON","currency":"Lei","image":{"thumbnail":{"default":"https://cdn.freshful.ro/media/cache/sylius_shop_product_thumbnail/a1/c1/63dbf4becac396cd7d732c15fac1.jpg"},"large":{"default":"https://cdn.freshful.ro/media/cache/freshful_large/a1/c1/63dbf4becac396cd7d732c15fac1.jpg"},"extralarge":{"default":"https://cdn.freshful.ro/media/cache/sylius_shop_product_original/a1/c1/63dbf4becac396cd7d732c15fac1.jpg"}},"label":null,"tags":[],"isAvailable":true,"maxAvailableQuantity":17,"maxAllowedQuantity":100,"breadcrumbs":[{"code":"14","name":"Casă și agrement","slug":"14-casa-si-agrement"},{"code":"1405","name":"Birotică și papetărie","slug":"1405-birotica-si-papetarie"},{"code":"140501","name":"Papetărie și birou","slug":"140501-papetarie-si-birou"},{"code":"100100723","name":"Set 8 pixuri cu pastă albastră Round Stic ","slug":"100100723-bic-set-8-pixuri-cu-pasta-albastra-round-stic"}],"activePromotion":null,"saveMe":null,"labels":[],"geniusPrice":null,"geniusUnitPricePerLabel":null,"banner":null,"discountLabel":null,"geniusDiscountLabel":null,"badge":null},{"code":"100100903","variantCode":"100100903","name":"Set corectoare pentru cerneală 2 buc","slug":"100100903-bic-set-corectoare-pentru-cerneala-2-buc","unitPriceLabel":"","brand":"BiC","brandCode":"319","brandFilterCode":"bic-b320","sku":"100100903","price":10.9,"originalPrice":null,"currencyCode":"RON","currency":"Lei","image":{"thumbnail":{"default":"https://cdn.freshful.ro/media/cache/sylius_shop_product_thumbnail/34/37/3f670221277e1b896ec82a7c9184.jpg"},"large":{"default":"https://cdn.freshful.ro/media/cache/freshful_large/34/37/3f670221277e1b896ec82a7c9184.jpg"},"extralarge":{"default":"https://cdn.freshful.ro/media/cache/sylius_shop_product_original/34/37/3f670221277e1b896ec82a7c9184.jpg"}},"label":null,"tags":[],"isAvailable":true,"maxAvailableQuantity":44,"maxAllowedQuantity":100,"breadcrumbs":[{"code":"14","name":"Casă și agrement","slug":"14-casa-si-agrement"},{"code":"1405","name":"Birotică și papetărie","slug":"1405-birotica-si-papetarie"},{"code":"140501","name":"Papetărie și birou","slug":"140501-papetarie-si-birou"},{"code":"100100903","name":"Set corectoare pentru cerneală 2 buc","slug":"100100903-bic-set-corectoare-pentru-cerneala-2-buc"}],"activePromotion":null,"saveMe":null,"labels":[],"geniusPrice":null,"geniusUnitPricePerLabel":null,"banner":null,"discountLabel":null,"geniusDiscountLabel":null,"badge":null}],"filters":{"countSelected":0,"items":[{"code":"brand","name":"Brand","countSelected":0,"values":[{"code":"as-b2289","name":"AS","isSelected":false,"count":1},{"code":"bic-b320","name":"BiC","isSelected":false,"count":195},{"code":"intern-b1890","name":"Intern","isSelected":false,"count":3},{"code":"notte-b1891","name":"Notte","isSelected":false,"count":24},{"code":"pilot-b1755","name":"Pilot","isSelected":false,"count":34},{"code":"rapesco-b1904","name":"Rapesco","isSelected":false,"count":5},{"code":"scotch-b3046","name":"Scotch","isSelected":false,"count":4},{"code":"skag-b1903","name":"Skag","isSelected":false,"count":2},{"code":"super-touch-b1643","name":"Super Touch","isSelected":false,"count":1},{"code":"uhu-b1820","name":"UHU","isSelected":false,"count":7}]},{"code":"diet_lifestyle","name":"Dietă și lifestyle","countSelected":0,"values":[{"code":"bio-a26","name":"Bio","isSelected":false,"count":10},{"code":"eco-a83","name":"Eco","isSelected":false,"count":7}]}]},"orderBy":[{"field":"price","direction":"asc","name":"Preț crescător","isSelected":false},{"field":"price","direction":"desc","name":"Preț descrescător","isSelected":false},{"field":"popularity","direction":"desc","name":"Cele mai populare","isSelected":true},{"field":"category","direction":"asc","name":"Categorie","isSelected":false}],"metaTitle":"Papetărie și birou - Gamă variată","metaDescription":"Vrei Papetărie și birou? Alege dintr-o gamă variată. Comanzi simplu și ai livrare rapidă, calitate și prospețime. Hai pe Freshful.ro","metaKeywords":null,"banners":[]}}