{"type":"subcategory","payload":{"analyticsListId":"category_140606-jucarii-pentru-baieti","analyticsListName":"Category - Jucării pentru băieți","name":"Jucării pentru băieți","slug":"140606-jucarii-pentru-baieti","image":null,"breadcrumbs":[{"code":"14","name":"Casă și agrement","slug":"14-casa-si-agrement"},{"code":"1406","name":"Jucării","slug":"1406-jucarii"},{"code":"140606","name":"Jucării pentru băieți","slug":"140606-jucarii-pentru-baieti"}],"slots":[],"page":1,"limit":10,"pages":2,"count":16,"siblings":[{"name":"Bricolaj și auto","slug":"1401-bricolaj-si-auto","selected":false},{"name":"Grădină","slug":"1402-gradina","selected":false},{"name":"Articole de menaj","slug":"1403-articole-de-menaj","selected":false},{"name":"Textile pentru casă","slug":"1404-textile-de-casa","selected":false},{"name":"Birotică și papetărie","slug":"1405-birotica-si-papetarie","selected":false},{"name":"Jucării","slug":"1406-jucarii","selected":true},{"name":"Accesorii IT&C","slug":"1408-hitech-audio-video","selected":false},{"name":"Textile și accesorii","slug":"1410-textile-basic","selected":false}],"children":[{"name":"Toate produsele","slug":"1406-jucarii","selected":false},{"name":"Jucării de pluș","slug":"140603-jucarii-de-plus","selected":false},{"name":"Lego, Playmobil și mașinuțe","slug":"140604-lego-playmobil-si-masinute","selected":false},{"name":"Jucării educative","slug":"140605-jucatii-educative","selected":false},{"name":"Jucării pentru băieți","slug":"140606-jucarii-pentru-baieti","selected":true},{"name":"Jucării pentru fete","slug":"140607-jucarii-pentru-fete","selected":false},{"name":"Jocuri de societate","slug":"140608-jocuri-de-societate","selected":false}],"products":[{"code":"100107301","variantCode":"100107301","name":"Figurină robot articulat transformabil 6+ ani","slug":"100107301-klikbot-figurina-robot-articulat-transformabil-6-ani","unitPriceLabel":"","brand":"Klikbot","brandCode":"1719","brandFilterCode":"klikbot-b1723","sku":"100107301","price":39.99,"originalPrice":null,"currencyCode":"RON","currency":"Lei","image":{"thumbnail":{"default":"https://cdn.freshful.ro/media/cache/sylius_shop_product_thumbnail/d8/86/c1d8f27624b5f8144797440a7b52.jpg"},"large":{"default":"https://cdn.freshful.ro/media/cache/freshful_large/d8/86/c1d8f27624b5f8144797440a7b52.jpg"},"extralarge":{"default":"https://cdn.freshful.ro/media/cache/sylius_shop_product_original/d8/86/c1d8f27624b5f8144797440a7b52.jpg"}},"label":null,"tags":[],"isAvailable":true,"maxAvailableQuantity":9,"maxAllowedQuantity":100,"breadcrumbs":[{"code":"14","name":"Casă și agrement","slug":"14-casa-si-agrement"},{"code":"1406","name":"Jucării","slug":"1406-jucarii"},{"code":"140606","name":"Jucării pentru băieți","slug":"140606-jucarii-pentru-baieti"},{"code":"100107301","name":"Figurină robot articulat transformabil 6+ ani","slug":"100107301-klikbot-figurina-robot-articulat-transformabil-6-ani"}],"activePromotion":null,"saveMe":null,"labels":[],"geniusPrice":null,"geniusUnitPricePerLabel":null,"banner":null,"discountLabel":null,"geniusDiscountLabel":null,"badge":null},{"code":"100122769","variantCode":"100122769","name":"Set de joacă figurine - Secția de poliție 3+ ani","slug":"100122769-superzings-set-de-joaca-figurine-sectia-de-politie-3-ani","unitPriceLabel":"","brand":"Superzings","brandCode":"2032","brandFilterCode":"superzings-b2036","sku":"100122769","price":119.99,"originalPrice":null,"currencyCode":"RON","currency":"Lei","image":{"thumbnail":{"default":"https://cdn.freshful.ro/media/cache/sylius_shop_product_thumbnail/79/d2/17686c96dda0802f36433003aa1f.jpg"},"large":{"default":"https://cdn.freshful.ro/media/cache/freshful_large/79/d2/17686c96dda0802f36433003aa1f.jpg"},"extralarge":{"default":"https://cdn.freshful.ro/media/cache/sylius_shop_product_original/79/d2/17686c96dda0802f36433003aa1f.jpg"}},"label":null,"tags":[],"isAvailable":true,"maxAvailableQuantity":9,"maxAllowedQuantity":100,"breadcrumbs":[{"code":"14","name":"Casă și agrement","slug":"14-casa-si-agrement"},{"code":"1406","name":"Jucării","slug":"1406-jucarii"},{"code":"140606","name":"Jucării pentru băieți","slug":"140606-jucarii-pentru-baieti"},{"code":"100122769","name":"Set de joacă figurine - Secția de poliție 3+ ani","slug":"100122769-superzings-set-de-joaca-figurine-sectia-de-politie-3-ani"}],"activePromotion":null,"saveMe":null,"labels":[],"geniusPrice":null,"geniusUnitPricePerLabel":null,"banner":null,"discountLabel":null,"geniusDiscountLabel":null,"badge":null},{"code":"100132359","variantCode":"100132359","name":"S2 Bilă ultra ramparian cu echipament Baku-gear 5+ ani","slug":"100132359-bakugan-s2-bila-ultra-ramparian-cu-echipament-baku-gear-5-ani","unitPriceLabel":"","brand":"Bakugan","brandCode":"2473","brandFilterCode":"bakugan-b2477","sku":"100132359","price":109.99,"originalPrice":null,"currencyCode":"RON","currency":"Lei","image":{"thumbnail":{"default":"https://cdn.freshful.ro/media/cache/sylius_shop_product_thumbnail/fc/2c/fa7d6f83fbc8c7bafe4a55f1873a.jpg"},"large":{"default":"https://cdn.freshful.ro/media/cache/freshful_large/fc/2c/fa7d6f83fbc8c7bafe4a55f1873a.jpg"},"extralarge":{"default":"https://cdn.freshful.ro/media/cache/sylius_shop_product_original/fc/2c/fa7d6f83fbc8c7bafe4a55f1873a.jpg"}},"label":null,"tags":[],"isAvailable":true,"maxAvailableQuantity":4,"maxAllowedQuantity":100,"breadcrumbs":[{"code":"14","name":"Casă și agrement","slug":"14-casa-si-agrement"},{"code":"1406","name":"Jucării","slug":"1406-jucarii"},{"code":"140606","name":"Jucării pentru băieți","slug":"140606-jucarii-pentru-baieti"},{"code":"100132359","name":"S2 Bilă ultra ramparian cu echipament Baku-gear 5+ ani","slug":"100132359-bakugan-s2-bila-ultra-ramparian-cu-echipament-baku-gear-5-ani"}],"activePromotion":null,"saveMe":null,"labels":[],"geniusPrice":null,"geniusUnitPricePerLabel":null,"banner":null,"discountLabel":null,"geniusDiscountLabel":null,"badge":null},{"code":"100132364","variantCode":"100132364","name":"Figurină Batman clasic articulată 10cm cu 3 accesorii surpriză 3+ ani","slug":"100132364-batman-figurina-batman-clasic-articulata-10cm-cu-3-accesorii-surpriza-3-ani","unitPriceLabel":"","brand":"Batman","brandCode":"2474","brandFilterCode":"batman-b2478","sku":"100132364","price":70.98,"originalPrice":null,"currencyCode":"RON","currency":"Lei","image":{"thumbnail":{"default":"https://cdn.freshful.ro/media/cache/sylius_shop_product_thumbnail/11/83/d6e467694a40b72f94844a060629.jpg"},"large":{"default":"https://cdn.freshful.ro/media/cache/freshful_large/11/83/d6e467694a40b72f94844a060629.jpg"},"extralarge":{"default":"https://cdn.freshful.ro/media/cache/sylius_shop_product_original/11/83/d6e467694a40b72f94844a060629.jpg"}},"label":null,"tags":[],"isAvailable":true,"maxAvailableQuantity":4,"maxAllowedQuantity":100,"breadcrumbs":[{"code":"14","name":"Casă și agrement","slug":"14-casa-si-agrement"},{"code":"1406","name":"Jucării","slug":"1406-jucarii"},{"code":"140606","name":"Jucării pentru băieți","slug":"140606-jucarii-pentru-baieti"},{"code":"100132364","name":"Figurină Batman clasic articulată 10cm cu 3 accesorii surpriză 3+ ani","slug":"100132364-batman-figurina-batman-clasic-articulata-10cm-cu-3-accesorii-surpriza-3-ani"}],"activePromotion":null,"saveMe":null,"labels":[],"geniusPrice":null,"geniusUnitPricePerLabel":null,"banner":null,"discountLabel":null,"geniusDiscountLabel":null,"badge":null},{"code":"100145952","variantCode":"100145952","name":" S4 figurină metalică Neo Pegatrix alb, +6 ani","slug":"100145952-bakugan-s4-figurina-metalica-neo-pegatrix-alb-6-ani","unitPriceLabel":"","brand":"Bakugan","brandCode":"2473","brandFilterCode":"bakugan-b2477","sku":"100145952","price":89.99,"originalPrice":null,"currencyCode":"RON","currency":"Lei","image":{"thumbnail":{"default":"https://cdn.freshful.ro/media/cache/sylius_shop_product_thumbnail/fd/3a/401e6af4697b7e1e8b1aa2f1a62f.jpg"},"large":{"default":"https://cdn.freshful.ro/media/cache/freshful_large/fd/3a/401e6af4697b7e1e8b1aa2f1a62f.jpg"},"extralarge":{"default":"https://cdn.freshful.ro/media/cache/sylius_shop_product_original/fd/3a/401e6af4697b7e1e8b1aa2f1a62f.jpg"}},"label":null,"tags":[],"isAvailable":true,"maxAvailableQuantity":13,"maxAllowedQuantity":100,"breadcrumbs":[{"code":"14","name":"Casă și agrement","slug":"14-casa-si-agrement"},{"code":"1406","name":"Jucării","slug":"1406-jucarii"},{"code":"140606","name":"Jucării pentru băieți","slug":"140606-jucarii-pentru-baieti"},{"code":"100145952","name":" S4 figurină metalică Neo Pegatrix alb, +6 ani","slug":"100145952-bakugan-s4-figurina-metalica-neo-pegatrix-alb-6-ani"}],"activePromotion":null,"saveMe":null,"labels":[],"geniusPrice":null,"geniusUnitPricePerLabel":null,"banner":null,"discountLabel":null,"geniusDiscountLabel":null,"badge":null},{"code":"100145953","variantCode":"100145953","name":" S4 Figurină metalică Warrior Whale, +6 ani","slug":"100145953-bakugan-s4-figurina-metalica-warrior-whale-6-ani","unitPriceLabel":"","brand":"Bakugan","brandCode":"2473","brandFilterCode":"bakugan-b2477","sku":"100145953","price":97.99,"originalPrice":null,"currencyCode":"RON","currency":"Lei","image":{"thumbnail":{"default":"https://cdn.freshful.ro/media/cache/sylius_shop_product_thumbnail/b3/2d/5d4fd81f0ca4009b8a152527abec.jpg"},"large":{"default":"https://cdn.freshful.ro/media/cache/freshful_large/b3/2d/5d4fd81f0ca4009b8a152527abec.jpg"},"extralarge":{"default":"https://cdn.freshful.ro/media/cache/sylius_shop_product_original/b3/2d/5d4fd81f0ca4009b8a152527abec.jpg"}},"label":null,"tags":[],"isAvailable":true,"maxAvailableQuantity":13,"maxAllowedQuantity":100,"breadcrumbs":[{"code":"14","name":"Casă și agrement","slug":"14-casa-si-agrement"},{"code":"1406","name":"Jucării","slug":"1406-jucarii"},{"code":"140606","name":"Jucării pentru băieți","slug":"140606-jucarii-pentru-baieti"},{"code":"100145953","name":" S4 Figurină metalică Warrior Whale, +6 ani","slug":"100145953-bakugan-s4-figurina-metalica-warrior-whale-6-ani"}],"activePromotion":null,"saveMe":null,"labels":[],"geniusPrice":null,"geniusUnitPricePerLabel":null,"banner":null,"discountLabel":null,"geniusDiscountLabel":null,"badge":null},{"code":"100107303","variantCode":"100107303","name":"Figurină robot articulat 8+ ani","slug":"100107303-klikbot-figurina-robot-articulat-8-ani","unitPriceLabel":"","brand":"Klikbot","brandCode":"1719","brandFilterCode":"klikbot-b1723","sku":"100107303","price":70.98,"originalPrice":null,"currencyCode":"RON","currency":"Lei","image":{"thumbnail":{"default":"https://cdn.freshful.ro/media/cache/sylius_shop_product_thumbnail/33/b2/819104959e51a48fc19661a9d77c.jpg"},"large":{"default":"https://cdn.freshful.ro/media/cache/freshful_large/33/b2/819104959e51a48fc19661a9d77c.jpg"},"extralarge":{"default":"https://cdn.freshful.ro/media/cache/sylius_shop_product_original/33/b2/819104959e51a48fc19661a9d77c.jpg"}},"label":null,"tags":[],"isAvailable":true,"maxAvailableQuantity":3,"maxAllowedQuantity":100,"breadcrumbs":[{"code":"14","name":"Casă și agrement","slug":"14-casa-si-agrement"},{"code":"1406","name":"Jucării","slug":"1406-jucarii"},{"code":"140606","name":"Jucării pentru băieți","slug":"140606-jucarii-pentru-baieti"},{"code":"100107303","name":"Figurină robot articulat 8+ ani","slug":"100107303-klikbot-figurina-robot-articulat-8-ani"}],"activePromotion":null,"saveMe":null,"labels":[],"geniusPrice":null,"geniusUnitPricePerLabel":null,"banner":null,"discountLabel":null,"geniusDiscountLabel":null,"badge":null},{"code":"100107304","variantCode":"100107304","name":"Figurină robot articulat Megabot 8+ ani","slug":"100107304-klikbot-figurina-robot-articulat-megabot-8-ani","unitPriceLabel":"","brand":"Klikbot","brandCode":"1719","brandFilterCode":"klikbot-b1723","sku":"100107304","price":80.99,"originalPrice":null,"currencyCode":"RON","currency":"Lei","image":{"thumbnail":{"default":"https://cdn.freshful.ro/media/cache/sylius_shop_product_thumbnail/40/f6/a6d8caf8e5297c3f41207f649e7d.jpg"},"large":{"default":"https://cdn.freshful.ro/media/cache/freshful_large/40/f6/a6d8caf8e5297c3f41207f649e7d.jpg"},"extralarge":{"default":"https://cdn.freshful.ro/media/cache/sylius_shop_product_original/40/f6/a6d8caf8e5297c3f41207f649e7d.jpg"}},"label":null,"tags":[],"isAvailable":true,"maxAvailableQuantity":48,"maxAllowedQuantity":100,"breadcrumbs":[{"code":"14","name":"Casă și agrement","slug":"14-casa-si-agrement"},{"code":"1406","name":"Jucării","slug":"1406-jucarii"},{"code":"140606","name":"Jucării pentru băieți","slug":"140606-jucarii-pentru-baieti"},{"code":"100107304","name":"Figurină robot articulat Megabot 8+ ani","slug":"100107304-klikbot-figurina-robot-articulat-megabot-8-ani"}],"activePromotion":null,"saveMe":null,"labels":[],"geniusPrice":null,"geniusUnitPricePerLabel":null,"banner":null,"discountLabel":null,"geniusDiscountLabel":null,"badge":null},{"code":"100122768","variantCode":"100122768","name":"Set de joacă figurine Misiunea 1: Gogoașă vs Croissant  3+ ani","slug":"100122768-superzings-set-de-joaca-figurine-misiunea-1-gogoasa-vs-croissant-3-ani","unitPriceLabel":"","brand":"Superzings","brandCode":"2032","brandFilterCode":"superzings-b2036","sku":"100122768","price":79.98,"originalPrice":null,"currencyCode":"RON","currency":"Lei","image":{"thumbnail":{"default":"https://cdn.freshful.ro/media/cache/sylius_shop_product_thumbnail/aa/dd/7a6e71cdd7eee4ff868851a88a91.jpg"},"large":{"default":"https://cdn.freshful.ro/media/cache/freshful_large/aa/dd/7a6e71cdd7eee4ff868851a88a91.jpg"},"extralarge":{"default":"https://cdn.freshful.ro/media/cache/sylius_shop_product_original/aa/dd/7a6e71cdd7eee4ff868851a88a91.jpg"}},"label":null,"tags":[],"isAvailable":true,"maxAvailableQuantity":16,"maxAllowedQuantity":100,"breadcrumbs":[{"code":"14","name":"Casă și agrement","slug":"14-casa-si-agrement"},{"code":"1406","name":"Jucării","slug":"1406-jucarii"},{"code":"140606","name":"Jucării pentru băieți","slug":"140606-jucarii-pentru-baieti"},{"code":"100122768","name":"Set de joacă figurine Misiunea 1: Gogoașă vs Croissant  3+ ani","slug":"100122768-superzings-set-de-joaca-figurine-misiunea-1-gogoasa-vs-croissant-3-ani"}],"activePromotion":null,"saveMe":null,"labels":[],"geniusPrice":null,"geniusUnitPricePerLabel":null,"banner":null,"discountLabel":null,"geniusDiscountLabel":null,"badge":null},{"code":"100132339","variantCode":"100132339","name":"Set 5 figurine din metal Dungeons Dragons 4cm 12+ ani","slug":"100132339-jadatoys-set-5-figurine-din-metal-dungeons-dragons-4cm-12-ani","unitPriceLabel":"","brand":"Jadatoys","brandCode":"2470","brandFilterCode":"jadatoys-b2474","sku":"100132339","price":111.99,"originalPrice":null,"currencyCode":"RON","currency":"Lei","image":{"thumbnail":{"default":"https://cdn.freshful.ro/media/cache/sylius_shop_product_thumbnail/7f/b0/4c448fb5fe37bbb9a8fc81c3faa2.jpg"},"large":{"default":"https://cdn.freshful.ro/media/cache/freshful_large/7f/b0/4c448fb5fe37bbb9a8fc81c3faa2.jpg"},"extralarge":{"default":"https://cdn.freshful.ro/media/cache/sylius_shop_product_original/7f/b0/4c448fb5fe37bbb9a8fc81c3faa2.jpg"}},"label":null,"tags":[],"isAvailable":true,"maxAvailableQuantity":3,"maxAllowedQuantity":100,"breadcrumbs":[{"code":"14","name":"Casă și agrement","slug":"14-casa-si-agrement"},{"code":"1406","name":"Jucării","slug":"1406-jucarii"},{"code":"140606","name":"Jucării pentru băieți","slug":"140606-jucarii-pentru-baieti"},{"code":"100132339","name":"Set 5 figurine din metal Dungeons Dragons 4cm 12+ ani","slug":"100132339-jadatoys-set-5-figurine-din-metal-dungeons-dragons-4cm-12-ani"}],"activePromotion":null,"saveMe":null,"labels":[],"geniusPrice":null,"geniusUnitPricePerLabel":null,"banner":null,"discountLabel":null,"geniusDiscountLabel":null,"badge":null}],"filters":{"countSelected":0,"items":[{"code":"brand","name":"Brand","countSelected":0,"values":[{"code":"bakugan-b2477","name":"Bakugan","isSelected":false,"count":7},{"code":"batman-b2478","name":"Batman","isSelected":false,"count":3},{"code":"jadatoys-b2474","name":"Jadatoys","isSelected":false,"count":1},{"code":"klikbot-b1723","name":"Klikbot","isSelected":false,"count":3},{"code":"superzings-b2036","name":"Superzings","isSelected":false,"count":2}]}]},"orderBy":[{"field":"price","direction":"asc","name":"Preț crescător","isSelected":false},{"field":"price","direction":"desc","name":"Preț descrescător","isSelected":false},{"field":"popularity","direction":"desc","name":"Cele mai populare","isSelected":true},{"field":"category","direction":"asc","name":"Categorie","isSelected":false}],"metaTitle":"Jucării pentru băieți - Gamă variată","metaDescription":"Vrei Jucării pentru băieți? Alege dintr-o gamă variată. Comanzi simplu și ai livrare rapidă, calitate și prospețime. Hai pe Freshful.ro","metaKeywords":null,"banners":[]}}