{"type":"subcategory","payload":{"analyticsListId":"category_1406-jucarii","analyticsListName":"Category - Jucării","name":"Jucării","slug":"1406-jucarii","image":null,"breadcrumbs":[{"code":"14","name":"Casă și agrement","slug":"14-casa-si-agrement"},{"code":"1406","name":"Jucării","slug":"1406-jucarii"}],"slots":[],"page":1,"limit":10,"pages":25,"count":250,"siblings":[{"name":"Bricolaj și auto","slug":"1401-bricolaj-si-auto","selected":false},{"name":"Grădină","slug":"1402-gradina","selected":false},{"name":"Articole de menaj","slug":"1403-articole-de-menaj","selected":false},{"name":"Textile pentru casă","slug":"1404-textile-de-casa","selected":false},{"name":"Birotică și papetărie","slug":"1405-birotica-si-papetarie","selected":false},{"name":"Jucării","slug":"1406-jucarii","selected":true},{"name":"Accesorii IT&C","slug":"1408-hitech-audio-video","selected":false},{"name":"Textile și accesorii","slug":"1410-textile-basic","selected":false}],"children":[{"name":"Toate produsele","slug":"1406-jucarii","selected":true},{"name":"Jucării de pluș","slug":"140603-jucarii-de-plus","selected":false},{"name":"Lego, Playmobil și mașinuțe","slug":"140604-lego-playmobil-si-masinute","selected":false},{"name":"Jucării educative","slug":"140605-jucatii-educative","selected":false},{"name":"Jucării pentru băieți","slug":"140606-jucarii-pentru-baieti","selected":false},{"name":"Jucării pentru fete","slug":"140607-jucarii-pentru-fete","selected":false},{"name":"Jocuri de societate","slug":"140608-jocuri-de-societate","selected":false}],"products":[{"code":"100107350","variantCode":"100107350","name":"Cărți de joc Păcălici Vintage 3+ ani","slug":"100107350-noriel-games-carti-de-joc-pacalici-vintage-3-ani","unitPriceLabel":"","brand":"Noriel Games","brandCode":"1730","brandFilterCode":"noriel-games-b1734","sku":"100107350","price":9.99,"originalPrice":null,"currencyCode":"RON","currency":"Lei","image":{"thumbnail":{"default":"https://cdn.freshful.ro/media/cache/sylius_shop_product_thumbnail/ab/31/29f015785e71eedbc5a4f5be0bed.jpg"},"large":{"default":"https://cdn.freshful.ro/media/cache/freshful_large/ab/31/29f015785e71eedbc5a4f5be0bed.jpg"},"extralarge":{"default":"https://cdn.freshful.ro/media/cache/sylius_shop_product_original/ab/31/29f015785e71eedbc5a4f5be0bed.jpg"}},"label":null,"tags":[],"isAvailable":true,"maxAvailableQuantity":22,"maxAllowedQuantity":100,"breadcrumbs":[{"code":"14","name":"Casă și agrement","slug":"14-casa-si-agrement"},{"code":"1406","name":"Jucării","slug":"1406-jucarii"},{"code":"140605","name":"Jucării educative","slug":"140605-jucatii-educative"},{"code":"100107350","name":"Cărți de joc Păcălici Vintage 3+ ani","slug":"100107350-noriel-games-carti-de-joc-pacalici-vintage-3-ani"}],"activePromotion":null,"saveMe":null,"labels":[],"geniusPrice":null,"geniusUnitPricePerLabel":null,"banner":null,"discountLabel":null,"geniusDiscountLabel":null,"badge":null},{"code":"100107328","variantCode":"100107328","name":"Puzzle de modelat 36+ luni","slug":"100107328-plastelino-puzzle-de-modelat-36-luni","unitPriceLabel":"","brand":"Plastelino","brandCode":"1725","brandFilterCode":"plastelino-b1729","sku":"100107328","price":39.9,"originalPrice":null,"currencyCode":"RON","currency":"Lei","image":{"thumbnail":{"default":"https://cdn.freshful.ro/media/cache/sylius_shop_product_thumbnail/7c/b8/d2369c02bba1044a6f380bc16ff0.jpg"},"large":{"default":"https://cdn.freshful.ro/media/cache/freshful_large/7c/b8/d2369c02bba1044a6f380bc16ff0.jpg"},"extralarge":{"default":"https://cdn.freshful.ro/media/cache/sylius_shop_product_original/7c/b8/d2369c02bba1044a6f380bc16ff0.jpg"}},"label":null,"tags":[],"isAvailable":true,"maxAvailableQuantity":11,"maxAllowedQuantity":100,"breadcrumbs":[{"code":"14","name":"Casă și agrement","slug":"14-casa-si-agrement"},{"code":"1406","name":"Jucării","slug":"1406-jucarii"},{"code":"140605","name":"Jucării educative","slug":"140605-jucatii-educative"},{"code":"100107328","name":"Puzzle de modelat 36+ luni","slug":"100107328-plastelino-puzzle-de-modelat-36-luni"}],"activePromotion":null,"saveMe":null,"labels":[],"geniusPrice":null,"geniusUnitPricePerLabel":null,"banner":null,"discountLabel":null,"geniusDiscountLabel":null,"badge":null},{"code":"100107353","variantCode":"100107353","name":"Comoara lui Piticot Joc interactiv 3+ ani","slug":"100107353-noriel-puzzle-comoara-lui-piticot-joc-interactiv-3-ani","unitPriceLabel":"","brand":"Noriel Puzzle","brandCode":"1731","brandFilterCode":"noriel-puzzle-b1735","sku":"100107353","price":34.99,"originalPrice":null,"currencyCode":"RON","currency":"Lei","image":{"thumbnail":{"default":"https://cdn.freshful.ro/media/cache/sylius_shop_product_thumbnail/a3/31/7417f46ab7659992ca954d13b63f.jpg"},"large":{"default":"https://cdn.freshful.ro/media/cache/freshful_large/a3/31/7417f46ab7659992ca954d13b63f.jpg"},"extralarge":{"default":"https://cdn.freshful.ro/media/cache/sylius_shop_product_original/a3/31/7417f46ab7659992ca954d13b63f.jpg"}},"label":null,"tags":[],"isAvailable":true,"maxAvailableQuantity":17,"maxAllowedQuantity":100,"breadcrumbs":[{"code":"14","name":"Casă și agrement","slug":"14-casa-si-agrement"},{"code":"1406","name":"Jucării","slug":"1406-jucarii"},{"code":"140605","name":"Jucării educative","slug":"140605-jucatii-educative"},{"code":"100107353","name":"Comoara lui Piticot Joc interactiv 3+ ani","slug":"100107353-noriel-puzzle-comoara-lui-piticot-joc-interactiv-3-ani"}],"activePromotion":null,"saveMe":null,"labels":[],"geniusPrice":null,"geniusUnitPricePerLabel":null,"banner":null,"discountLabel":null,"geniusDiscountLabel":null,"badge":null},{"code":"100107362","variantCode":"100107362","name":"Puzzle - Învață cifrele (24 piese) 18+ luni","slug":"100107362-noriel-puzzle-puzzle-invata-cifrele-24-piese-18-luni","unitPriceLabel":"","brand":"Noriel Puzzle","brandCode":"1731","brandFilterCode":"noriel-puzzle-b1735","sku":"100107362","price":29.99,"originalPrice":null,"currencyCode":"RON","currency":"Lei","image":{"thumbnail":{"default":"https://cdn.freshful.ro/media/cache/sylius_shop_product_thumbnail/8d/8e/e7c888714d3db42cedc9e42d0fc8.jpg"},"large":{"default":"https://cdn.freshful.ro/media/cache/freshful_large/8d/8e/e7c888714d3db42cedc9e42d0fc8.jpg"},"extralarge":{"default":"https://cdn.freshful.ro/media/cache/sylius_shop_product_original/8d/8e/e7c888714d3db42cedc9e42d0fc8.jpg"}},"label":null,"tags":[],"isAvailable":true,"maxAvailableQuantity":17,"maxAllowedQuantity":100,"breadcrumbs":[{"code":"14","name":"Casă și agrement","slug":"14-casa-si-agrement"},{"code":"1406","name":"Jucării","slug":"1406-jucarii"},{"code":"140605","name":"Jucării educative","slug":"140605-jucatii-educative"},{"code":"100107362","name":"Puzzle - Învață cifrele (24 piese) 18+ luni","slug":"100107362-noriel-puzzle-puzzle-invata-cifrele-24-piese-18-luni"}],"activePromotion":null,"saveMe":null,"labels":[],"geniusPrice":null,"geniusUnitPricePerLabel":null,"banner":null,"discountLabel":null,"geniusDiscountLabel":null,"badge":null},{"code":"100146042","variantCode":"100146042","name":"Set pentru desen Giga Block 4 în 1 Minnie, +3 ani","slug":"100146042-art-greco-set-pentru-desen-giga-block-4-in-1-minnie-3-ani","unitPriceLabel":"","brand":"Art Greco","brandCode":"2284","brandFilterCode":"art-greco-b2286","sku":"100146042","price":40.99,"originalPrice":null,"currencyCode":"RON","currency":"Lei","image":{"thumbnail":{"default":"https://cdn.freshful.ro/media/cache/sylius_shop_product_thumbnail/c4/04/348da1b784ec7deba77865ab0908.jpg"},"large":{"default":"https://cdn.freshful.ro/media/cache/freshful_large/c4/04/348da1b784ec7deba77865ab0908.jpg"},"extralarge":{"default":"https://cdn.freshful.ro/media/cache/sylius_shop_product_original/c4/04/348da1b784ec7deba77865ab0908.jpg"}},"label":null,"tags":[],"isAvailable":true,"maxAvailableQuantity":2,"maxAllowedQuantity":100,"breadcrumbs":[{"code":"14","name":"Casă și agrement","slug":"14-casa-si-agrement"},{"code":"1406","name":"Jucării","slug":"1406-jucarii"},{"code":"140605","name":"Jucării educative","slug":"140605-jucatii-educative"},{"code":"100146042","name":"Set pentru desen Giga Block 4 în 1 Minnie, +3 ani","slug":"100146042-art-greco-set-pentru-desen-giga-block-4-in-1-minnie-3-ani"}],"activePromotion":null,"saveMe":null,"labels":[],"geniusPrice":null,"geniusUnitPricePerLabel":null,"banner":null,"discountLabel":null,"geniusDiscountLabel":null,"badge":null},{"code":"100107375","variantCode":"100107375","name":"Puzzle cu povești - Vrăjitorul din Oz (100 piese) 4+ ani","slug":"100107375-noriel-puzzle-puzzle-cu-povesti-vrajitorul-din-oz-100-piese-4-ani","unitPriceLabel":"","brand":"Noriel Puzzle","brandCode":"1731","brandFilterCode":"noriel-puzzle-b1735","sku":"100107375","price":21.9,"originalPrice":null,"currencyCode":"RON","currency":"Lei","image":{"thumbnail":{"default":"https://cdn.freshful.ro/media/cache/sylius_shop_product_thumbnail/24/05/57af533e78778bd857820da259eb.jpg"},"large":{"default":"https://cdn.freshful.ro/media/cache/freshful_large/24/05/57af533e78778bd857820da259eb.jpg"},"extralarge":{"default":"https://cdn.freshful.ro/media/cache/sylius_shop_product_original/24/05/57af533e78778bd857820da259eb.jpg"}},"label":null,"tags":[],"isAvailable":true,"maxAvailableQuantity":18,"maxAllowedQuantity":100,"breadcrumbs":[{"code":"14","name":"Casă și agrement","slug":"14-casa-si-agrement"},{"code":"1406","name":"Jucării","slug":"1406-jucarii"},{"code":"140605","name":"Jucării educative","slug":"140605-jucatii-educative"},{"code":"100107375","name":"Puzzle cu povești - Vrăjitorul din Oz (100 piese) 4+ ani","slug":"100107375-noriel-puzzle-puzzle-cu-povesti-vrajitorul-din-oz-100-piese-4-ani"}],"activePromotion":null,"saveMe":null,"labels":[],"geniusPrice":null,"geniusUnitPricePerLabel":null,"banner":null,"discountLabel":null,"geniusDiscountLabel":null,"badge":null},{"code":"100146045","variantCode":"100146045","name":"Atelierul de pictură Aquarelle, +7 ani ","slug":"100146045-as-atelierul-de-pictura-aquarelle-7-ani","unitPriceLabel":"","brand":"AS","brandCode":"2287","brandFilterCode":"as-b2289","sku":"100146045","price":129.99,"originalPrice":null,"currencyCode":"RON","currency":"Lei","image":{"thumbnail":{"default":"https://cdn.freshful.ro/media/cache/sylius_shop_product_thumbnail/b5/e7/cce422f24da497341776632d0700.jpg"},"large":{"default":"https://cdn.freshful.ro/media/cache/freshful_large/b5/e7/cce422f24da497341776632d0700.jpg"},"extralarge":{"default":"https://cdn.freshful.ro/media/cache/sylius_shop_product_original/b5/e7/cce422f24da497341776632d0700.jpg"}},"label":null,"tags":[],"isAvailable":true,"maxAvailableQuantity":4,"maxAllowedQuantity":100,"breadcrumbs":[{"code":"14","name":"Casă și agrement","slug":"14-casa-si-agrement"},{"code":"1406","name":"Jucării","slug":"1406-jucarii"},{"code":"140605","name":"Jucării educative","slug":"140605-jucatii-educative"},{"code":"100146045","name":"Atelierul de pictură Aquarelle, +7 ani ","slug":"100146045-as-atelierul-de-pictura-aquarelle-7-ani"}],"activePromotion":null,"saveMe":null,"labels":[],"geniusPrice":null,"geniusUnitPricePerLabel":null,"banner":null,"discountLabel":null,"geniusDiscountLabel":null,"badge":null},{"code":"100107351","variantCode":"100107351","name":"Puzzle Harta Europei 100 piese 4+ ani","slug":"100107351-noriel-puzzle-puzzle-harta-europei-100-piese-4-ani","unitPriceLabel":"","brand":"Noriel Puzzle","brandCode":"1731","brandFilterCode":"noriel-puzzle-b1735","sku":"100107351","price":24.99,"originalPrice":null,"currencyCode":"RON","currency":"Lei","image":{"thumbnail":{"default":"https://cdn.freshful.ro/media/cache/sylius_shop_product_thumbnail/92/cf/dc444dfc98ca37f554f8eb5220bb.jpg"},"large":{"default":"https://cdn.freshful.ro/media/cache/freshful_large/92/cf/dc444dfc98ca37f554f8eb5220bb.jpg"},"extralarge":{"default":"https://cdn.freshful.ro/media/cache/sylius_shop_product_original/92/cf/dc444dfc98ca37f554f8eb5220bb.jpg"}},"label":null,"tags":[],"isAvailable":true,"maxAvailableQuantity":20,"maxAllowedQuantity":100,"breadcrumbs":[{"code":"14","name":"Casă și agrement","slug":"14-casa-si-agrement"},{"code":"1406","name":"Jucării","slug":"1406-jucarii"},{"code":"140605","name":"Jucării educative","slug":"140605-jucatii-educative"},{"code":"100107351","name":"Puzzle Harta Europei 100 piese 4+ ani","slug":"100107351-noriel-puzzle-puzzle-harta-europei-100-piese-4-ani"}],"activePromotion":null,"saveMe":null,"labels":[],"geniusPrice":null,"geniusUnitPricePerLabel":null,"banner":null,"discountLabel":null,"geniusDiscountLabel":null,"badge":null},{"code":"100132369","variantCode":"100132369","name":"Șah cu tablă și piese din lemn staunton 6+ ani","slug":"100132369-jocuri-sah-cu-tabla-si-piese-din-lemn-staunton-6-ani","unitPriceLabel":"","brand":"Jocuri","brandCode":"2476","brandFilterCode":"jocuri-b2480","sku":"100132369","price":72.99,"originalPrice":null,"currencyCode":"RON","currency":"Lei","image":{"thumbnail":{"default":"https://cdn.freshful.ro/media/cache/sylius_shop_product_thumbnail/91/06/c6ee995bb7988356a7e9ec1f7bf4.jpg"},"large":{"default":"https://cdn.freshful.ro/media/cache/freshful_large/91/06/c6ee995bb7988356a7e9ec1f7bf4.jpg"},"extralarge":{"default":"https://cdn.freshful.ro/media/cache/sylius_shop_product_original/91/06/c6ee995bb7988356a7e9ec1f7bf4.jpg"}},"label":null,"tags":[],"isAvailable":true,"maxAvailableQuantity":1,"maxAllowedQuantity":100,"breadcrumbs":[{"code":"14","name":"Casă și agrement","slug":"14-casa-si-agrement"},{"code":"1406","name":"Jucării","slug":"1406-jucarii"},{"code":"140608","name":"Jocuri de societate","slug":"140608-jocuri-de-societate"},{"code":"100132369","name":"Șah cu tablă și piese din lemn staunton 6+ ani","slug":"100132369-jocuri-sah-cu-tabla-si-piese-din-lemn-staunton-6-ani"}],"activePromotion":null,"saveMe":null,"labels":[],"geniusPrice":null,"geniusUnitPricePerLabel":null,"banner":null,"discountLabel":null,"geniusDiscountLabel":null,"badge":null},{"code":"100122805","variantCode":"100122805","name":"Joc de cărți Phase 10 7+ ani","slug":"100122805-games-joc-de-carti-phase-10-7-ani","unitPriceLabel":"","brand":"Games","brandCode":"2040","brandFilterCode":"games-b2044","sku":"100122805","price":39.99,"originalPrice":null,"currencyCode":"RON","currency":"Lei","image":{"thumbnail":{"default":"https://cdn.freshful.ro/media/cache/sylius_shop_product_thumbnail/b8/03/6c3b624a9f4c43d06b9cd3de10ac.jpg"},"large":{"default":"https://cdn.freshful.ro/media/cache/freshful_large/b8/03/6c3b624a9f4c43d06b9cd3de10ac.jpg"},"extralarge":{"default":"https://cdn.freshful.ro/media/cache/sylius_shop_product_original/b8/03/6c3b624a9f4c43d06b9cd3de10ac.jpg"}},"label":null,"tags":[],"isAvailable":true,"maxAvailableQuantity":3,"maxAllowedQuantity":100,"breadcrumbs":[{"code":"14","name":"Casă și agrement","slug":"14-casa-si-agrement"},{"code":"1406","name":"Jucării","slug":"1406-jucarii"},{"code":"140608","name":"Jocuri de societate","slug":"140608-jocuri-de-societate"},{"code":"100122805","name":"Joc de cărți Phase 10 7+ ani","slug":"100122805-games-joc-de-carti-phase-10-7-ani"}],"activePromotion":null,"saveMe":null,"labels":[],"geniusPrice":null,"geniusUnitPricePerLabel":null,"banner":null,"discountLabel":null,"geniusDiscountLabel":null,"badge":null}],"filters":{"countSelected":0,"items":[{"code":"brand","name":"Brand","countSelected":0,"values":[{"code":"art-greco-b2286","name":"Art Greco","isSelected":false,"count":1},{"code":"as-b2289","name":"AS","isSelected":false,"count":2},{"code":"as-games-b2290","name":"As Games","isSelected":false,"count":1},{"code":"bakugan-b2477","name":"Bakugan","isSelected":false,"count":7},{"code":"barbie-b2037","name":"Barbie","isSelected":false,"count":3},{"code":"barbie-dreamtopia-b2910","name":"Barbie - Dreamtopia","isSelected":false,"count":1},{"code":"barbie-fashionistas-b2909","name":"Barbie - Fashionistas","isSelected":false,"count":4},{"code":"barbie-i-can-be-b2908","name":"Barbie - I Can Be","isSelected":false,"count":2},{"code":"barbie-travel-b2911","name":"Barbie - Travel","isSelected":false,"count":1},{"code":"batman-b2478","name":"Batman","isSelected":false,"count":3},{"code":"clementoni-b2288","name":"Clementoni","isSelected":false,"count":16},{"code":"disney-frozen-b2907","name":"Disney Frozen","isSelected":false,"count":1},{"code":"games-b2044","name":"Games","isSelected":false,"count":2},{"code":"hape-b2470","name":"Hape","isSelected":false,"count":9},{"code":"headu-b2459","name":"Headu","isSelected":false,"count":3},{"code":"hot-wheels-b2039","name":"Hot Wheels","isSelected":false,"count":1},{"code":"jadatoys-b2474","name":"Jadatoys","isSelected":false,"count":4},{"code":"jocuri-b2480","name":"Jocuri","isSelected":false,"count":3},{"code":"klikbot-b1723","name":"Klikbot","isSelected":false,"count":3},{"code":"lego-b2472","name":"Lego","isSelected":false,"count":63},{"code":"lol-b1725","name":"LOL","isSelected":false,"count":11},{"code":"noriel-games-b1734","name":"Noriel Games","isSelected":false,"count":2},{"code":"noriel-puzzle-b1735","name":"Noriel Puzzle","isSelected":false,"count":13},{"code":"patrula-catelusilor-b2483","name":"Patrula Catelusilor","isSelected":false,"count":22},{"code":"plastelino-b1729","name":"Plastelino","isSelected":false,"count":2},{"code":"playmobil-b2463","name":"Playmobil","isSelected":false,"count":12},{"code":"poopsie-b1730","name":"Poopsie","isSelected":false,"count":2},{"code":"rainbocorns-b2035","name":"Rainbocorns","isSelected":false,"count":3},{"code":"rastar-b2473","name":"Rastar","isSelected":false,"count":15},{"code":"ravensburger-b2460","name":"Ravensburger","isSelected":false,"count":4},{"code":"secret-crush-b1731","name":"Secret Crush","isSelected":false,"count":2},{"code":"silverlit-b2291","name":"Silverlit","isSelected":false,"count":1},{"code":"snapstar-b1732","name":"SnapStar","isSelected":false,"count":1},{"code":"steffi-love-b2476","name":"Steffi Love","isSelected":false,"count":10},{"code":"superzings-b2036","name":"Superzings","isSelected":false,"count":2},{"code":"the-learning-journey-b2461","name":"The Learning Journey","isSelected":false,"count":4},{"code":"tomy-b2915","name":"Tomy","isSelected":false,"count":1},{"code":"trefl-b2486","name":"Trefl","isSelected":false,"count":7},{"code":"ty-b2993","name":"Ty","isSelected":false,"count":5},{"code":"zapf-b2462","name":"Zapf","isSelected":false,"count":1}]}]},"orderBy":[{"field":"price","direction":"asc","name":"Preț crescător","isSelected":false},{"field":"price","direction":"desc","name":"Preț descrescător","isSelected":false},{"field":"popularity","direction":"desc","name":"Cele mai populare","isSelected":true},{"field":"category","direction":"asc","name":"Categorie","isSelected":false}],"metaTitle":"Jucării - Gamă variată","metaDescription":"Vrei Jucării? Alege dintr-o gamă variată. Comanzi simplu și ai livrare rapidă, calitate și prospețime. Hai pe Freshful.ro","metaKeywords":null,"banners":[]}}