{"type":"subcategory","payload":{"analyticsListId":"category_140604-lego-playmobil-si-masinute","analyticsListName":"Category - Lego, Playmobil și mașinuțe","name":"Lego, Playmobil și mașinuțe","slug":"140604-lego-playmobil-si-masinute","image":null,"breadcrumbs":[{"code":"14","name":"Casă și agrement","slug":"14-casa-si-agrement"},{"code":"1406","name":"Jucării","slug":"1406-jucarii"},{"code":"140604","name":"Lego, Playmobil și mașinuțe","slug":"140604-lego-playmobil-si-masinute"}],"slots":[],"page":1,"limit":10,"pages":10,"count":96,"siblings":[{"name":"Bricolaj și auto","slug":"1401-bricolaj-si-auto","selected":false},{"name":"Grădină","slug":"1402-gradina","selected":false},{"name":"Articole de menaj","slug":"1403-articole-de-menaj","selected":false},{"name":"Textile pentru casă","slug":"1404-textile-de-casa","selected":false},{"name":"Birotică și papetărie","slug":"1405-birotica-si-papetarie","selected":false},{"name":"Jucării","slug":"1406-jucarii","selected":true},{"name":"Accesorii IT&C","slug":"1408-hitech-audio-video","selected":false},{"name":"Textile și accesorii","slug":"1410-textile-basic","selected":false}],"children":[{"name":"Toate produsele","slug":"1406-jucarii","selected":false},{"name":"Jucării de pluș","slug":"140603-jucarii-de-plus","selected":false},{"name":"Lego, Playmobil și mașinuțe","slug":"140604-lego-playmobil-si-masinute","selected":true},{"name":"Jucării educative","slug":"140605-jucatii-educative","selected":false},{"name":"Jucării pentru băieți","slug":"140606-jucarii-pentru-baieti","selected":false},{"name":"Jucării pentru fete","slug":"140607-jucarii-pentru-fete","selected":false},{"name":"Jocuri de societate","slug":"140608-jocuri-de-societate","selected":false}],"products":[{"code":"100147702","variantCode":"100147702","name":"Aventuri din cartea de povești cu Elsa și Nokk, 43189 Disney, +5 ani","slug":"100147702-lego-aventuri-din-cartea-de-povesti-cu-elsa-si-nokk-43189-disney-5-ani","unitPriceLabel":"","brand":"Lego","brandCode":"2468","brandFilterCode":"lego-b2472","sku":"100147702","price":102.09,"originalPrice":null,"currencyCode":"RON","currency":"Lei","image":{"thumbnail":{"default":"https://cdn.freshful.ro/media/cache/sylius_shop_product_thumbnail/d6/f4/c322e8183e08872cb3bb8797e191.jpg"},"large":{"default":"https://cdn.freshful.ro/media/cache/freshful_large/d6/f4/c322e8183e08872cb3bb8797e191.jpg"},"extralarge":{"default":"https://cdn.freshful.ro/media/cache/sylius_shop_product_original/d6/f4/c322e8183e08872cb3bb8797e191.jpg"}},"label":null,"tags":[],"isAvailable":true,"maxAvailableQuantity":93,"maxAllowedQuantity":100,"breadcrumbs":[{"code":"14","name":"Casă și agrement","slug":"14-casa-si-agrement"},{"code":"1406","name":"Jucării","slug":"1406-jucarii"},{"code":"140604","name":"Lego, Playmobil și mașinuțe","slug":"140604-lego-playmobil-si-masinute"},{"code":"100147702","name":"Aventuri din cartea de povești cu Elsa și Nokk, 43189 Disney, +5 ani","slug":"100147702-lego-aventuri-din-cartea-de-povesti-cu-elsa-si-nokk-43189-disney-5-ani"}],"activePromotion":null,"saveMe":null,"labels":[],"geniusPrice":null,"geniusUnitPricePerLabel":null,"banner":null,"discountLabel":null,"geniusDiscountLabel":null,"badge":null},{"code":"100125755","variantCode":"100125755","name":"Set roboți cu telecomandă Robo Kombat 2buc 5+ ani","slug":"100125755-silverlit-set-roboti-cu-telecomanda-robo-kombat-2buc-5-ani","unitPriceLabel":"","brand":"Silverlit","brandCode":"2289","brandFilterCode":"silverlit-b2291","sku":"100125755","price":299.99,"originalPrice":null,"currencyCode":"RON","currency":"Lei","image":{"thumbnail":{"default":"https://cdn.freshful.ro/media/cache/sylius_shop_product_thumbnail/58/44/e7e30cc8f44402b727058cb9af8a.jpg"},"large":{"default":"https://cdn.freshful.ro/media/cache/freshful_large/58/44/e7e30cc8f44402b727058cb9af8a.jpg"},"extralarge":{"default":"https://cdn.freshful.ro/media/cache/sylius_shop_product_original/58/44/e7e30cc8f44402b727058cb9af8a.jpg"}},"label":null,"tags":[],"isAvailable":true,"maxAvailableQuantity":2,"maxAllowedQuantity":100,"breadcrumbs":[{"code":"14","name":"Casă și agrement","slug":"14-casa-si-agrement"},{"code":"1406","name":"Jucării","slug":"1406-jucarii"},{"code":"140604","name":"Lego, Playmobil și mașinuțe","slug":"140604-lego-playmobil-si-masinute"},{"code":"100125755","name":"Set roboți cu telecomandă Robo Kombat 2buc 5+ ani","slug":"100125755-silverlit-set-roboti-cu-telecomanda-robo-kombat-2buc-5-ani"}],"activePromotion":null,"saveMe":null,"labels":[],"geniusPrice":null,"geniusUnitPricePerLabel":null,"banner":null,"discountLabel":null,"geniusDiscountLabel":null,"badge":null},{"code":"100145900","variantCode":"100145900","name":"Curtea castelul Annei, 43198 Disney, +5 ani","slug":"100145900-lego-curtea-castelul-annei-43198-disney-5-ani","unitPriceLabel":"","brand":"Lego","brandCode":"2468","brandFilterCode":"lego-b2472","sku":"100145900","price":55.39,"originalPrice":null,"currencyCode":"RON","currency":"Lei","image":{"thumbnail":{"default":"https://cdn.freshful.ro/media/cache/sylius_shop_product_thumbnail/0f/00/9b154a01bbb2e389c9b6f4af6788.jpg"},"large":{"default":"https://cdn.freshful.ro/media/cache/freshful_large/0f/00/9b154a01bbb2e389c9b6f4af6788.jpg"},"extralarge":{"default":"https://cdn.freshful.ro/media/cache/sylius_shop_product_original/0f/00/9b154a01bbb2e389c9b6f4af6788.jpg"}},"label":null,"tags":[],"isAvailable":true,"maxAvailableQuantity":1,"maxAllowedQuantity":100,"breadcrumbs":[{"code":"14","name":"Casă și agrement","slug":"14-casa-si-agrement"},{"code":"1406","name":"Jucării","slug":"1406-jucarii"},{"code":"140604","name":"Lego, Playmobil și mașinuțe","slug":"140604-lego-playmobil-si-masinute"},{"code":"100145900","name":"Curtea castelul Annei, 43198 Disney, +5 ani","slug":"100145900-lego-curtea-castelul-annei-43198-disney-5-ani"}],"activePromotion":null,"saveMe":null,"labels":[],"geniusPrice":null,"geniusUnitPricePerLabel":null,"banner":null,"discountLabel":null,"geniusDiscountLabel":null,"badge":null},{"code":"100147725","variantCode":"100147725","name":"Confruntarea dintre Hulk și Mașina Rinocer, 10782 Marvel Spidey and his Amazing Friends, +4 ani","slug":"100147725-lego-confruntarea-dintre-hulk-si-masina-rinocer-10782-marvel-spidey-and-his-amazing-friends-4-ani","unitPriceLabel":"","brand":"Lego","brandCode":"2468","brandFilterCode":"lego-b2472","sku":"100147725","price":99.99,"originalPrice":null,"currencyCode":"RON","currency":"Lei","image":{"thumbnail":{"default":"https://cdn.freshful.ro/media/cache/sylius_shop_product_thumbnail/c2/1b/8c21acaca7ee1477166043a6ca31.jpg"},"large":{"default":"https://cdn.freshful.ro/media/cache/freshful_large/c2/1b/8c21acaca7ee1477166043a6ca31.jpg"},"extralarge":{"default":"https://cdn.freshful.ro/media/cache/sylius_shop_product_original/c2/1b/8c21acaca7ee1477166043a6ca31.jpg"}},"label":null,"tags":[],"isAvailable":true,"maxAvailableQuantity":1,"maxAllowedQuantity":100,"breadcrumbs":[{"code":"14","name":"Casă și agrement","slug":"14-casa-si-agrement"},{"code":"1406","name":"Jucării","slug":"1406-jucarii"},{"code":"140604","name":"Lego, Playmobil și mașinuțe","slug":"140604-lego-playmobil-si-masinute"},{"code":"100147725","name":"Confruntarea dintre Hulk și Mașina Rinocer, 10782 Marvel Spidey and his Amazing Friends, +4 ani","slug":"100147725-lego-confruntarea-dintre-hulk-si-masina-rinocer-10782-marvel-spidey-and-his-amazing-friends-4-ani"}],"activePromotion":null,"saveMe":null,"labels":[],"geniusPrice":null,"geniusUnitPricePerLabel":null,"banner":null,"discountLabel":null,"geniusDiscountLabel":null,"badge":null},{"code":"100147729","variantCode":"100147729","name":"Motocicletă de cascadorie pentru wheelie, 60296 City Stuntz, +5 ani","slug":"100147729-lego-motocicleta-de-cascadorie-pentru-wheelie-60296-city-stuntz-5-ani","unitPriceLabel":"","brand":"Lego","brandCode":"2468","brandFilterCode":"lego-b2472","sku":"100147729","price":40.99,"originalPrice":null,"currencyCode":"RON","currency":"Lei","image":{"thumbnail":{"default":"https://cdn.freshful.ro/media/cache/sylius_shop_product_thumbnail/07/af/02202ae864b5870950e6a22358a4.jpg"},"large":{"default":"https://cdn.freshful.ro/media/cache/freshful_large/07/af/02202ae864b5870950e6a22358a4.jpg"},"extralarge":{"default":"https://cdn.freshful.ro/media/cache/sylius_shop_product_original/07/af/02202ae864b5870950e6a22358a4.jpg"}},"label":null,"tags":[],"isAvailable":true,"maxAvailableQuantity":3,"maxAllowedQuantity":100,"breadcrumbs":[{"code":"14","name":"Casă și agrement","slug":"14-casa-si-agrement"},{"code":"1406","name":"Jucării","slug":"1406-jucarii"},{"code":"140604","name":"Lego, Playmobil și mașinuțe","slug":"140604-lego-playmobil-si-masinute"},{"code":"100147729","name":"Motocicletă de cascadorie pentru wheelie, 60296 City Stuntz, +5 ani","slug":"100147729-lego-motocicleta-de-cascadorie-pentru-wheelie-60296-city-stuntz-5-ani"}],"activePromotion":null,"saveMe":null,"labels":[],"geniusPrice":null,"geniusUnitPricePerLabel":null,"banner":null,"discountLabel":null,"geniusDiscountLabel":null,"badge":null},{"code":"100147741","variantCode":"100147741","name":"Dinozauri puternici, 31058 Creator, 7-12 ani","slug":"100147741-lego-dinozauri-puternici-31058-creator-7-12-ani","unitPriceLabel":"","brand":"Lego","brandCode":"2468","brandFilterCode":"lego-b2472","sku":"100147741","price":75.59,"originalPrice":null,"currencyCode":"RON","currency":"Lei","image":{"thumbnail":{"default":"https://cdn.freshful.ro/media/cache/sylius_shop_product_thumbnail/a6/cc/6ae4e636c9556997ca3c0f87ffd9.jpg"},"large":{"default":"https://cdn.freshful.ro/media/cache/freshful_large/a6/cc/6ae4e636c9556997ca3c0f87ffd9.jpg"},"extralarge":{"default":"https://cdn.freshful.ro/media/cache/sylius_shop_product_original/a6/cc/6ae4e636c9556997ca3c0f87ffd9.jpg"}},"label":null,"tags":[],"isAvailable":true,"maxAvailableQuantity":9,"maxAllowedQuantity":100,"breadcrumbs":[{"code":"14","name":"Casă și agrement","slug":"14-casa-si-agrement"},{"code":"1406","name":"Jucării","slug":"1406-jucarii"},{"code":"140604","name":"Lego, Playmobil și mașinuțe","slug":"140604-lego-playmobil-si-masinute"},{"code":"100147741","name":"Dinozauri puternici, 31058 Creator, 7-12 ani","slug":"100147741-lego-dinozauri-puternici-31058-creator-7-12-ani"}],"activePromotion":null,"saveMe":null,"labels":[],"geniusPrice":null,"geniusUnitPricePerLabel":null,"banner":null,"discountLabel":null,"geniusDiscountLabel":null,"badge":null},{"code":"100147747","variantCode":"100147747","name":"Mașină de curse pe șosea, 31127 Creator, +7 ani","slug":"100147747-lego-masina-de-curse-pe-sosea-31127-creator-7-ani","unitPriceLabel":"","brand":"Lego","brandCode":"2468","brandFilterCode":"lego-b2472","sku":"100147747","price":107.99,"originalPrice":null,"currencyCode":"RON","currency":"Lei","image":{"thumbnail":{"default":"https://cdn.freshful.ro/media/cache/sylius_shop_product_thumbnail/0e/b6/0429494855818d5f25f9c07bd3c5.jpg"},"large":{"default":"https://cdn.freshful.ro/media/cache/freshful_large/0e/b6/0429494855818d5f25f9c07bd3c5.jpg"},"extralarge":{"default":"https://cdn.freshful.ro/media/cache/sylius_shop_product_original/0e/b6/0429494855818d5f25f9c07bd3c5.jpg"}},"label":null,"tags":[],"isAvailable":true,"maxAvailableQuantity":1,"maxAllowedQuantity":100,"breadcrumbs":[{"code":"14","name":"Casă și agrement","slug":"14-casa-si-agrement"},{"code":"1406","name":"Jucării","slug":"1406-jucarii"},{"code":"140604","name":"Lego, Playmobil și mașinuțe","slug":"140604-lego-playmobil-si-masinute"},{"code":"100147747","name":"Mașină de curse pe șosea, 31127 Creator, +7 ani","slug":"100147747-lego-masina-de-curse-pe-sosea-31127-creator-7-ani"}],"activePromotion":null,"saveMe":null,"labels":[],"geniusPrice":null,"geniusUnitPricePerLabel":null,"banner":null,"discountLabel":null,"geniusDiscountLabel":null,"badge":null},{"code":"100131584","variantCode":"100131584","name":"Set 2 figurine-Dinozaur și cercetător 4+ ani","slug":"100131584-playmobil-set-2-figurine-dinozaur-si-cercetator-4-ani","unitPriceLabel":"","brand":"Playmobil","brandCode":"2459","brandFilterCode":"playmobil-b2463","sku":"100131584","price":35.99,"originalPrice":null,"currencyCode":"RON","currency":"Lei","image":{"thumbnail":{"default":"https://cdn.freshful.ro/media/cache/sylius_shop_product_thumbnail/82/7e/567607691f94e39baa23fc46271f.jpg"},"large":{"default":"https://cdn.freshful.ro/media/cache/freshful_large/82/7e/567607691f94e39baa23fc46271f.jpg"},"extralarge":{"default":"https://cdn.freshful.ro/media/cache/sylius_shop_product_original/82/7e/567607691f94e39baa23fc46271f.jpg"}},"label":null,"tags":[],"isAvailable":true,"maxAvailableQuantity":2,"maxAllowedQuantity":100,"breadcrumbs":[{"code":"14","name":"Casă și agrement","slug":"14-casa-si-agrement"},{"code":"1406","name":"Jucării","slug":"1406-jucarii"},{"code":"140604","name":"Lego, Playmobil și mașinuțe","slug":"140604-lego-playmobil-si-masinute"},{"code":"100131584","name":"Set 2 figurine-Dinozaur și cercetător 4+ ani","slug":"100131584-playmobil-set-2-figurine-dinozaur-si-cercetator-4-ani"}],"activePromotion":null,"saveMe":null,"labels":[],"geniusPrice":null,"geniusUnitPricePerLabel":null,"banner":null,"discountLabel":null,"geniusDiscountLabel":null,"badge":null},{"code":"100132310","variantCode":"100132310","name":"Harry Potter Moment Hogwarts: Lecția de poțiuni, 76383 Wizarding World, +8 ani","slug":"100132310-lego-harry-potter-moment-hogwarts-lectia-de-potiuni-76383-wizarding-world-8-ani","unitPriceLabel":"","brand":"Lego","brandCode":"2468","brandFilterCode":"lego-b2472","sku":"100132310","price":195.19,"originalPrice":null,"currencyCode":"RON","currency":"Lei","image":{"thumbnail":{"default":"https://cdn.freshful.ro/media/cache/sylius_shop_product_thumbnail/bb/38/7a8bc6d1e6d630503280077b077e.jpg"},"large":{"default":"https://cdn.freshful.ro/media/cache/freshful_large/bb/38/7a8bc6d1e6d630503280077b077e.jpg"},"extralarge":{"default":"https://cdn.freshful.ro/media/cache/sylius_shop_product_original/bb/38/7a8bc6d1e6d630503280077b077e.jpg"}},"label":null,"tags":[],"isAvailable":true,"maxAvailableQuantity":2,"maxAllowedQuantity":100,"breadcrumbs":[{"code":"14","name":"Casă și agrement","slug":"14-casa-si-agrement"},{"code":"1406","name":"Jucării","slug":"1406-jucarii"},{"code":"140604","name":"Lego, Playmobil și mașinuțe","slug":"140604-lego-playmobil-si-masinute"},{"code":"100132310","name":"Harry Potter Moment Hogwarts: Lecția de poțiuni, 76383 Wizarding World, +8 ani","slug":"100132310-lego-harry-potter-moment-hogwarts-lectia-de-potiuni-76383-wizarding-world-8-ani"}],"activePromotion":null,"saveMe":null,"labels":[],"geniusPrice":null,"geniusUnitPricePerLabel":null,"banner":null,"discountLabel":null,"geniusDiscountLabel":null,"badge":null},{"code":"100132319","variantCode":"100132319","name":"Mașina electrică a Oliviei, 41443 Friends +6 ani","slug":"100132319-lego-masina-electrica-a-oliviei-41443-friends-6-ani","unitPriceLabel":"","brand":"Lego","brandCode":"2468","brandFilterCode":"lego-b2472","sku":"100132319","price":70.98,"originalPrice":null,"currencyCode":"RON","currency":"Lei","image":{"thumbnail":{"default":"https://cdn.freshful.ro/media/cache/sylius_shop_product_thumbnail/97/15/d17945240f43988a2813f806e644.jpg"},"large":{"default":"https://cdn.freshful.ro/media/cache/freshful_large/97/15/d17945240f43988a2813f806e644.jpg"},"extralarge":{"default":"https://cdn.freshful.ro/media/cache/sylius_shop_product_original/97/15/d17945240f43988a2813f806e644.jpg"}},"label":null,"tags":[],"isAvailable":true,"maxAvailableQuantity":19,"maxAllowedQuantity":100,"breadcrumbs":[{"code":"14","name":"Casă și agrement","slug":"14-casa-si-agrement"},{"code":"1406","name":"Jucării","slug":"1406-jucarii"},{"code":"140604","name":"Lego, Playmobil și mașinuțe","slug":"140604-lego-playmobil-si-masinute"},{"code":"100132319","name":"Mașina electrică a Oliviei, 41443 Friends +6 ani","slug":"100132319-lego-masina-electrica-a-oliviei-41443-friends-6-ani"}],"activePromotion":null,"saveMe":null,"labels":[],"geniusPrice":null,"geniusUnitPricePerLabel":null,"banner":null,"discountLabel":null,"geniusDiscountLabel":null,"badge":null}],"filters":{"countSelected":0,"items":[{"code":"brand","name":"Brand","countSelected":0,"values":[{"code":"hape-b2470","name":"Hape","isSelected":false,"count":1},{"code":"hot-wheels-b2039","name":"Hot Wheels","isSelected":false,"count":1},{"code":"jadatoys-b2474","name":"Jadatoys","isSelected":false,"count":3},{"code":"lego-b2472","name":"Lego","isSelected":false,"count":63},{"code":"playmobil-b2463","name":"Playmobil","isSelected":false,"count":12},{"code":"rastar-b2473","name":"Rastar","isSelected":false,"count":15},{"code":"silverlit-b2291","name":"Silverlit","isSelected":false,"count":1}]}]},"orderBy":[{"field":"price","direction":"asc","name":"Preț crescător","isSelected":false},{"field":"price","direction":"desc","name":"Preț descrescător","isSelected":false},{"field":"popularity","direction":"desc","name":"Cele mai populare","isSelected":true},{"field":"category","direction":"asc","name":"Categorie","isSelected":false}],"metaTitle":"Lego, Playmobil și mașinuțe - Gamă variată","metaDescription":"Vrei Lego, Playmobil și mașinuțe? Alege dintr-o gamă variată. Comanzi simplu și ai livrare rapidă, calitate și prospețime. Hai pe Freshful.ro","metaKeywords":null,"banners":[]}}