{"type":"subcategory","payload":{"analyticsListId":"category_140607-jucarii-pentru-fete","analyticsListName":"Category - Jucării pentru fete","name":"Jucării pentru fete","slug":"140607-jucarii-pentru-fete","image":null,"breadcrumbs":[{"code":"14","name":"Casă și agrement","slug":"14-casa-si-agrement"},{"code":"1406","name":"Jucării","slug":"1406-jucarii"},{"code":"140607","name":"Jucării pentru fete","slug":"140607-jucarii-pentru-fete"}],"slots":[],"page":1,"limit":10,"pages":5,"count":42,"siblings":[{"name":"Bricolaj și auto","slug":"1401-bricolaj-si-auto","selected":false},{"name":"Grădină","slug":"1402-gradina","selected":false},{"name":"Articole de menaj","slug":"1403-articole-de-menaj","selected":false},{"name":"Textile pentru casă","slug":"1404-textile-de-casa","selected":false},{"name":"Birotică și papetărie","slug":"1405-birotica-si-papetarie","selected":false},{"name":"Jucării","slug":"1406-jucarii","selected":true},{"name":"Accesorii IT&C","slug":"1408-hitech-audio-video","selected":false},{"name":"Textile și accesorii","slug":"1410-textile-basic","selected":false}],"children":[{"name":"Toate produsele","slug":"1406-jucarii","selected":false},{"name":"Jucării de pluș","slug":"140603-jucarii-de-plus","selected":false},{"name":"Lego, Playmobil și mașinuțe","slug":"140604-lego-playmobil-si-masinute","selected":false},{"name":"Jucării educative","slug":"140605-jucatii-educative","selected":false},{"name":"Jucării pentru băieți","slug":"140606-jucarii-pentru-baieti","selected":false},{"name":"Jucării pentru fete","slug":"140607-jucarii-pentru-fete","selected":true},{"name":"Jocuri de societate","slug":"140608-jocuri-de-societate","selected":false}],"products":[{"code":"100107320","variantCode":"100107320","name":"Set Fuzzy Pets cu 7 surprize 3+ ani","slug":"100107320-lol-set-fuzzy-pets-cu-7-surprize-3-ani","unitPriceLabel":"","brand":"LOL","brandCode":"1721","brandFilterCode":"lol-b1725","sku":"100107320","price":100.99,"originalPrice":null,"currencyCode":"RON","currency":"Lei","image":{"thumbnail":{"default":"https://cdn.freshful.ro/media/cache/sylius_shop_product_thumbnail/cb/bb/a111c71531496f65ab87ba47e657.jpg"},"large":{"default":"https://cdn.freshful.ro/media/cache/freshful_large/cb/bb/a111c71531496f65ab87ba47e657.jpg"},"extralarge":{"default":"https://cdn.freshful.ro/media/cache/sylius_shop_product_original/cb/bb/a111c71531496f65ab87ba47e657.jpg"}},"label":null,"tags":[],"isAvailable":true,"maxAvailableQuantity":23,"maxAllowedQuantity":100,"breadcrumbs":[{"code":"14","name":"Casă și agrement","slug":"14-casa-si-agrement"},{"code":"1406","name":"Jucării","slug":"1406-jucarii"},{"code":"140607","name":"Jucării pentru fete","slug":"140607-jucarii-pentru-fete"},{"code":"100107320","name":"Set Fuzzy Pets cu 7 surprize 3+ ani","slug":"100107320-lol-set-fuzzy-pets-cu-7-surprize-3-ani"}],"activePromotion":null,"saveMe":null,"labels":[],"geniusPrice":null,"geniusUnitPricePerLabel":null,"banner":null,"discountLabel":null,"geniusDiscountLabel":null,"badge":null},{"code":"100107338","variantCode":"100107338","name":"Mini păpuși cu surprize ","slug":"100107338-secret-crush-mini-papusi-cu-surprize","unitPriceLabel":"","brand":"Secret Crush","brandCode":"1727","brandFilterCode":"secret-crush-b1731","sku":"100107338","price":69.98,"originalPrice":null,"currencyCode":"RON","currency":"Lei","image":{"thumbnail":{"default":"https://cdn.freshful.ro/media/cache/sylius_shop_product_thumbnail/e8/7c/e25cb384698e0d8d1627cd768543.jpg"},"large":{"default":"https://cdn.freshful.ro/media/cache/freshful_large/e8/7c/e25cb384698e0d8d1627cd768543.jpg"},"extralarge":{"default":"https://cdn.freshful.ro/media/cache/sylius_shop_product_original/e8/7c/e25cb384698e0d8d1627cd768543.jpg"}},"label":null,"tags":[],"isAvailable":true,"maxAvailableQuantity":3,"maxAllowedQuantity":100,"breadcrumbs":[{"code":"14","name":"Casă și agrement","slug":"14-casa-si-agrement"},{"code":"1406","name":"Jucării","slug":"1406-jucarii"},{"code":"140607","name":"Jucării pentru fete","slug":"140607-jucarii-pentru-fete"},{"code":"100107338","name":"Mini păpuși cu surprize ","slug":"100107338-secret-crush-mini-papusi-cu-surprize"}],"activePromotion":null,"saveMe":null,"labels":[],"geniusPrice":null,"geniusUnitPricePerLabel":null,"banner":null,"discountLabel":null,"geniusDiscountLabel":null,"badge":null},{"code":"100122764","variantCode":"100122764","name":"Jucărie Shake cu surprize - Unicornul curcubeu 3+ ani","slug":"100122764-rainbocorns-jucarie-shake-cu-surprize-unicornul-curcubeu-3-ani","unitPriceLabel":"","brand":"Rainbocorns","brandCode":"2031","brandFilterCode":"rainbocorns-b2035","sku":"100122764","price":199.99,"originalPrice":null,"currencyCode":"RON","currency":"Lei","image":{"thumbnail":{"default":"https://cdn.freshful.ro/media/cache/sylius_shop_product_thumbnail/38/af/3d884e26ee1de3d07b5f5b2c02ae.jpg"},"large":{"default":"https://cdn.freshful.ro/media/cache/freshful_large/38/af/3d884e26ee1de3d07b5f5b2c02ae.jpg"},"extralarge":{"default":"https://cdn.freshful.ro/media/cache/sylius_shop_product_original/38/af/3d884e26ee1de3d07b5f5b2c02ae.jpg"}},"label":null,"tags":[],"isAvailable":true,"maxAvailableQuantity":19,"maxAllowedQuantity":100,"breadcrumbs":[{"code":"14","name":"Casă și agrement","slug":"14-casa-si-agrement"},{"code":"1406","name":"Jucării","slug":"1406-jucarii"},{"code":"140607","name":"Jucării pentru fete","slug":"140607-jucarii-pentru-fete"},{"code":"100122764","name":"Jucărie Shake cu surprize - Unicornul curcubeu 3+ ani","slug":"100122764-rainbocorns-jucarie-shake-cu-surprize-unicornul-curcubeu-3-ani"}],"activePromotion":null,"saveMe":null,"labels":[],"geniusPrice":null,"geniusUnitPricePerLabel":null,"banner":null,"discountLabel":null,"geniusDiscountLabel":null,"badge":null},{"code":"100145930","variantCode":"100145930","name":"Păpușă Fashionista blondă cu ținută casual roz, 3+ ani","slug":"100145930-barbie-fashionistas-papusa-fashionista-blonda-cu-tinuta-casual-roz-3-ani","unitPriceLabel":"","brand":"Barbie - Fashionistas","brandCode":"2823","brandFilterCode":"barbie-fashionistas-b2909","sku":"100145930","price":92.99,"originalPrice":null,"currencyCode":"RON","currency":"Lei","image":{"thumbnail":{"default":"https://cdn.freshful.ro/media/cache/sylius_shop_product_thumbnail/12/2e/86ee0c7ac5c2b96c93172412e070.jpg"},"large":{"default":"https://cdn.freshful.ro/media/cache/freshful_large/12/2e/86ee0c7ac5c2b96c93172412e070.jpg"},"extralarge":{"default":"https://cdn.freshful.ro/media/cache/sylius_shop_product_original/12/2e/86ee0c7ac5c2b96c93172412e070.jpg"}},"label":null,"tags":[],"isAvailable":true,"maxAvailableQuantity":2,"maxAllowedQuantity":100,"breadcrumbs":[{"code":"14","name":"Casă și agrement","slug":"14-casa-si-agrement"},{"code":"1406","name":"Jucării","slug":"1406-jucarii"},{"code":"140607","name":"Jucării pentru fete","slug":"140607-jucarii-pentru-fete"},{"code":"100145930","name":"Păpușă Fashionista blondă cu ținută casual roz, 3+ ani","slug":"100145930-barbie-fashionistas-papusa-fashionista-blonda-cu-tinuta-casual-roz-3-ani"}],"activePromotion":null,"saveMe":null,"labels":[],"geniusPrice":null,"geniusUnitPricePerLabel":null,"banner":null,"discountLabel":null,"geniusDiscountLabel":null,"badge":null},{"code":"100145934","variantCode":"100145934","name":"Păpușă blondă cu rochiță albastră, +3 ani","slug":"100145934-barbie-fashionistas-papusa-blonda-cu-rochita-albastra-3-ani","unitPriceLabel":"","brand":"Barbie - Fashionistas","brandCode":"2823","brandFilterCode":"barbie-fashionistas-b2909","sku":"100145934","price":54.99,"originalPrice":null,"currencyCode":"RON","currency":"Lei","image":{"thumbnail":{"default":"https://cdn.freshful.ro/media/cache/sylius_shop_product_thumbnail/05/3b/a3793ae478ec288b6b38f72897a4.jpg"},"large":{"default":"https://cdn.freshful.ro/media/cache/freshful_large/05/3b/a3793ae478ec288b6b38f72897a4.jpg"},"extralarge":{"default":"https://cdn.freshful.ro/media/cache/sylius_shop_product_original/05/3b/a3793ae478ec288b6b38f72897a4.jpg"}},"label":null,"tags":[],"isAvailable":true,"maxAvailableQuantity":1,"maxAllowedQuantity":100,"breadcrumbs":[{"code":"14","name":"Casă și agrement","slug":"14-casa-si-agrement"},{"code":"1406","name":"Jucării","slug":"1406-jucarii"},{"code":"140607","name":"Jucării pentru fete","slug":"140607-jucarii-pentru-fete"},{"code":"100145934","name":"Păpușă blondă cu rochiță albastră, +3 ani","slug":"100145934-barbie-fashionistas-papusa-blonda-cu-rochita-albastra-3-ani"}],"activePromotion":null,"saveMe":null,"labels":[],"geniusPrice":null,"geniusUnitPricePerLabel":null,"banner":null,"discountLabel":null,"geniusDiscountLabel":null,"badge":null},{"code":"100107309","variantCode":"100107309","name":"Set cu surprize pentru băieți 3+ ani","slug":"100107309-lol-set-cu-surprize-pentru-baieti-3-ani","unitPriceLabel":"","brand":"LOL","brandCode":"1721","brandFilterCode":"lol-b1725","sku":"100107309","price":80.99,"originalPrice":null,"currencyCode":"RON","currency":"Lei","image":{"thumbnail":{"default":"https://cdn.freshful.ro/media/cache/sylius_shop_product_thumbnail/ab/fc/fa807594ee826f2dfc1872435e03.jpg"},"large":{"default":"https://cdn.freshful.ro/media/cache/freshful_large/ab/fc/fa807594ee826f2dfc1872435e03.jpg"},"extralarge":{"default":"https://cdn.freshful.ro/media/cache/sylius_shop_product_original/ab/fc/fa807594ee826f2dfc1872435e03.jpg"}},"label":null,"tags":[],"isAvailable":true,"maxAvailableQuantity":2,"maxAllowedQuantity":100,"breadcrumbs":[{"code":"14","name":"Casă și agrement","slug":"14-casa-si-agrement"},{"code":"1406","name":"Jucării","slug":"1406-jucarii"},{"code":"140607","name":"Jucării pentru fete","slug":"140607-jucarii-pentru-fete"},{"code":"100107309","name":"Set cu surprize pentru băieți 3+ ani","slug":"100107309-lol-set-cu-surprize-pentru-baieti-3-ani"}],"activePromotion":null,"saveMe":null,"labels":[],"geniusPrice":null,"geniusUnitPricePerLabel":null,"banner":null,"discountLabel":null,"geniusDiscountLabel":null,"badge":null},{"code":"100107322","variantCode":"100107322","name":"Set figurine Surprise Boys Superheroes 3+ ani","slug":"100107322-lol-set-figurine-surprise-boys-superheroes-3-ani","unitPriceLabel":"","brand":"LOL","brandCode":"1721","brandFilterCode":"lol-b1725","sku":"100107322","price":149,"originalPrice":null,"currencyCode":"RON","currency":"Lei","image":{"thumbnail":{"default":"https://cdn.freshful.ro/media/cache/sylius_shop_product_thumbnail/5f/df/587e7b40c555bfd60cf7c8882c58.jpg"},"large":{"default":"https://cdn.freshful.ro/media/cache/freshful_large/5f/df/587e7b40c555bfd60cf7c8882c58.jpg"},"extralarge":{"default":"https://cdn.freshful.ro/media/cache/sylius_shop_product_original/5f/df/587e7b40c555bfd60cf7c8882c58.jpg"}},"label":null,"tags":[],"isAvailable":true,"maxAvailableQuantity":11,"maxAllowedQuantity":100,"breadcrumbs":[{"code":"14","name":"Casă și agrement","slug":"14-casa-si-agrement"},{"code":"1406","name":"Jucării","slug":"1406-jucarii"},{"code":"140607","name":"Jucării pentru fete","slug":"140607-jucarii-pentru-fete"},{"code":"100107322","name":"Set figurine Surprise Boys Superheroes 3+ ani","slug":"100107322-lol-set-figurine-surprise-boys-superheroes-3-ani"}],"activePromotion":null,"saveMe":null,"labels":[],"geniusPrice":null,"geniusUnitPricePerLabel":null,"banner":null,"discountLabel":null,"geniusDiscountLabel":null,"badge":null},{"code":"100122773","variantCode":"100122773","name":"Set de joacă Păpușă în vacanță 3+ ani","slug":"100122773-barbie-set-de-joaca-papusa-in-vacanta-3-ani","unitPriceLabel":"","brand":"Barbie","brandCode":"2033","brandFilterCode":"barbie-b2037","sku":"100122773","price":148.99,"originalPrice":null,"currencyCode":"RON","currency":"Lei","image":{"thumbnail":{"default":"https://cdn.freshful.ro/media/cache/sylius_shop_product_thumbnail/56/1d/db4659f7f950d73070cf7262e11a.jpg"},"large":{"default":"https://cdn.freshful.ro/media/cache/freshful_large/56/1d/db4659f7f950d73070cf7262e11a.jpg"},"extralarge":{"default":"https://cdn.freshful.ro/media/cache/sylius_shop_product_original/56/1d/db4659f7f950d73070cf7262e11a.jpg"}},"label":null,"tags":[],"isAvailable":true,"maxAvailableQuantity":1,"maxAllowedQuantity":100,"breadcrumbs":[{"code":"14","name":"Casă și agrement","slug":"14-casa-si-agrement"},{"code":"1406","name":"Jucării","slug":"1406-jucarii"},{"code":"140607","name":"Jucării pentru fete","slug":"140607-jucarii-pentru-fete"},{"code":"100122773","name":"Set de joacă Păpușă în vacanță 3+ ani","slug":"100122773-barbie-set-de-joaca-papusa-in-vacanta-3-ani"}],"activePromotion":null,"saveMe":null,"labels":[],"geniusPrice":null,"geniusUnitPricePerLabel":null,"banner":null,"discountLabel":null,"geniusDiscountLabel":null,"badge":null},{"code":"100122777","variantCode":"100122777","name":"Set de joacă - O zi la salonul Spa 4+ ani","slug":"100122777-barbie-set-de-joaca-o-zi-la-salonul-spa-4-ani","unitPriceLabel":"","brand":"Barbie","brandCode":"2033","brandFilterCode":"barbie-b2037","sku":"100122777","price":188.99,"originalPrice":null,"currencyCode":"RON","currency":"Lei","image":{"thumbnail":{"default":"https://cdn.freshful.ro/media/cache/sylius_shop_product_thumbnail/aa/51/86e1d90ea7d45915fbc80ab06019.jpg"},"large":{"default":"https://cdn.freshful.ro/media/cache/freshful_large/aa/51/86e1d90ea7d45915fbc80ab06019.jpg"},"extralarge":{"default":"https://cdn.freshful.ro/media/cache/sylius_shop_product_original/aa/51/86e1d90ea7d45915fbc80ab06019.jpg"}},"label":null,"tags":[],"isAvailable":true,"maxAvailableQuantity":1,"maxAllowedQuantity":100,"breadcrumbs":[{"code":"14","name":"Casă și agrement","slug":"14-casa-si-agrement"},{"code":"1406","name":"Jucării","slug":"1406-jucarii"},{"code":"140607","name":"Jucării pentru fete","slug":"140607-jucarii-pentru-fete"},{"code":"100122777","name":"Set de joacă - O zi la salonul Spa 4+ ani","slug":"100122777-barbie-set-de-joaca-o-zi-la-salonul-spa-4-ani"}],"activePromotion":null,"saveMe":null,"labels":[],"geniusPrice":null,"geniusUnitPricePerLabel":null,"banner":null,"discountLabel":null,"geniusDiscountLabel":null,"badge":null},{"code":"100132350","variantCode":"100132350","name":"Păpușă Steffi cu rochiță cu paiete curcubeu Deluxe Edition 3+ ani","slug":"100132350-steffi-love-papusa-steffi-cu-rochita-cu-paiete-curcubeu-deluxe-edition-3-ani","unitPriceLabel":"","brand":"Steffi Love","brandCode":"2472","brandFilterCode":"steffi-love-b2476","sku":"100132350","price":55.49,"originalPrice":null,"currencyCode":"RON","currency":"Lei","image":{"thumbnail":{"default":"https://cdn.freshful.ro/media/cache/sylius_shop_product_thumbnail/0e/eb/cabfd81d6d2acb94dbcfca07bea1.jpg"},"large":{"default":"https://cdn.freshful.ro/media/cache/freshful_large/0e/eb/cabfd81d6d2acb94dbcfca07bea1.jpg"},"extralarge":{"default":"https://cdn.freshful.ro/media/cache/sylius_shop_product_original/0e/eb/cabfd81d6d2acb94dbcfca07bea1.jpg"}},"label":null,"tags":[],"isAvailable":true,"maxAvailableQuantity":4,"maxAllowedQuantity":100,"breadcrumbs":[{"code":"14","name":"Casă și agrement","slug":"14-casa-si-agrement"},{"code":"1406","name":"Jucării","slug":"1406-jucarii"},{"code":"140607","name":"Jucării pentru fete","slug":"140607-jucarii-pentru-fete"},{"code":"100132350","name":"Păpușă Steffi cu rochiță cu paiete curcubeu Deluxe Edition 3+ ani","slug":"100132350-steffi-love-papusa-steffi-cu-rochita-cu-paiete-curcubeu-deluxe-edition-3-ani"}],"activePromotion":null,"saveMe":null,"labels":[],"geniusPrice":null,"geniusUnitPricePerLabel":null,"banner":null,"discountLabel":null,"geniusDiscountLabel":null,"badge":null}],"filters":{"countSelected":0,"items":[{"code":"brand","name":"Brand","countSelected":0,"values":[{"code":"barbie-b2037","name":"Barbie","isSelected":false,"count":3},{"code":"barbie-dreamtopia-b2910","name":"Barbie - Dreamtopia","isSelected":false,"count":1},{"code":"barbie-fashionistas-b2909","name":"Barbie - Fashionistas","isSelected":false,"count":4},{"code":"barbie-i-can-be-b2908","name":"Barbie - I Can Be","isSelected":false,"count":2},{"code":"barbie-travel-b2911","name":"Barbie - Travel","isSelected":false,"count":1},{"code":"disney-frozen-b2907","name":"Disney Frozen","isSelected":false,"count":1},{"code":"lol-b1725","name":"LOL","isSelected":false,"count":11},{"code":"poopsie-b1730","name":"Poopsie","isSelected":false,"count":2},{"code":"rainbocorns-b2035","name":"Rainbocorns","isSelected":false,"count":3},{"code":"secret-crush-b1731","name":"Secret Crush","isSelected":false,"count":2},{"code":"snapstar-b1732","name":"SnapStar","isSelected":false,"count":1},{"code":"steffi-love-b2476","name":"Steffi Love","isSelected":false,"count":10},{"code":"zapf-b2462","name":"Zapf","isSelected":false,"count":1}]}]},"orderBy":[{"field":"price","direction":"asc","name":"Preț crescător","isSelected":false},{"field":"price","direction":"desc","name":"Preț descrescător","isSelected":false},{"field":"popularity","direction":"desc","name":"Cele mai populare","isSelected":true},{"field":"category","direction":"asc","name":"Categorie","isSelected":false}],"metaTitle":"Jucării pentru fete - Gamă variată","metaDescription":"Vrei Jucării pentru fete? Alege dintr-o gamă variată. Comanzi simplu și ai livrare rapidă, calitate și prospețime. Hai pe Freshful.ro","metaKeywords":null,"banners":[]}}