{"type":"subcategory","payload":{"analyticsListId":"category_1408-hitech-audio-video","analyticsListName":"Category - Accesorii IT&C","name":"Accesorii IT&C","slug":"1408-hitech-audio-video","image":null,"breadcrumbs":[{"code":"14","name":"Casă și agrement","slug":"14-casa-si-agrement"},{"code":"1408","name":"Accesorii IT&C","slug":"1408-hitech-audio-video"}],"slots":[],"page":1,"limit":10,"pages":2,"count":11,"siblings":[{"name":"Bricolaj și auto","slug":"1401-bricolaj-si-auto","selected":false},{"name":"Grădină","slug":"1402-gradina","selected":false},{"name":"Articole de menaj","slug":"1403-articole-de-menaj","selected":false},{"name":"Textile pentru casă","slug":"1404-textile-de-casa","selected":false},{"name":"Birotică și papetărie","slug":"1405-birotica-si-papetarie","selected":false},{"name":"Jucării","slug":"1406-jucarii","selected":false},{"name":"Accesorii IT&C","slug":"1408-hitech-audio-video","selected":true},{"name":"Textile și accesorii","slug":"1410-textile-basic","selected":false}],"children":[{"name":"Toate produsele","slug":"1408-hitech-audio-video","selected":true},{"name":"Căști","slug":"140801-casti","selected":false},{"name":"Accesorii pentru smartphone","slug":"140802-accesorii-pentru-smartphone","selected":false},{"name":"Mouse, tastaturi și camere web","slug":"mouse-tastaturi-si-camere-web","selected":false}],"products":[{"code":"100098137","variantCode":"100098137","name":"Căști telefon cu microfon interauriculare","slug":"100098137-super-touch-casti-telefon-cu-microfon-interauriculare","unitPriceLabel":"","brand":"Super Touch","brandCode":"1639","brandFilterCode":"super-touch-b1643","sku":"100098137","price":32.99,"originalPrice":null,"currencyCode":"RON","currency":"Lei","image":{"thumbnail":{"default":"https://cdn.freshful.ro/media/cache/sylius_shop_product_thumbnail/29/32/cae00b061009852e5bf4489b0e5e.jpg"},"large":{"default":"https://cdn.freshful.ro/media/cache/freshful_large/29/32/cae00b061009852e5bf4489b0e5e.jpg"},"extralarge":{"default":"https://cdn.freshful.ro/media/cache/sylius_shop_product_original/29/32/cae00b061009852e5bf4489b0e5e.jpg"}},"label":null,"tags":[],"isAvailable":true,"maxAvailableQuantity":7,"maxAllowedQuantity":100,"breadcrumbs":[{"code":"14","name":"Casă și agrement","slug":"14-casa-si-agrement"},{"code":"1408","name":"Accesorii IT&C","slug":"1408-hitech-audio-video"},{"code":"140801","name":"Căști","slug":"140801-casti"},{"code":"100098137","name":"Căști telefon cu microfon interauriculare","slug":"100098137-super-touch-casti-telefon-cu-microfon-interauriculare"}],"activePromotion":null,"saveMe":null,"labels":[],"geniusPrice":null,"geniusUnitPricePerLabel":null,"banner":null,"discountLabel":null,"geniusDiscountLabel":null,"badge":null},{"code":"100098135","variantCode":"100098135","name":"Mouse ergonomic fără fir, negru","slug":"100098135-super-touch-mouse-ergonomic-fara-fir-negru","unitPriceLabel":"","brand":"Super Touch","brandCode":"1639","brandFilterCode":"super-touch-b1643","sku":"100098135","price":81.99,"originalPrice":null,"currencyCode":"RON","currency":"Lei","image":{"thumbnail":{"default":"https://cdn.freshful.ro/media/cache/sylius_shop_product_thumbnail/3d/e7/96199911286c8b89be0d44416a30.jpg"},"large":{"default":"https://cdn.freshful.ro/media/cache/freshful_large/3d/e7/96199911286c8b89be0d44416a30.jpg"},"extralarge":{"default":"https://cdn.freshful.ro/media/cache/sylius_shop_product_original/3d/e7/96199911286c8b89be0d44416a30.jpg"}},"label":null,"tags":[],"isAvailable":true,"maxAvailableQuantity":11,"maxAllowedQuantity":100,"breadcrumbs":[{"code":"14","name":"Casă și agrement","slug":"14-casa-si-agrement"},{"code":"1408","name":"Accesorii IT&C","slug":"1408-hitech-audio-video"},{"code":"140804","name":"Mouse, tastaturi și camere web","slug":"mouse-tastaturi-si-camere-web"},{"code":"100098135","name":"Mouse ergonomic fără fir, negru","slug":"100098135-super-touch-mouse-ergonomic-fara-fir-negru"}],"activePromotion":null,"saveMe":null,"labels":[],"geniusPrice":null,"geniusUnitPricePerLabel":null,"banner":null,"discountLabel":null,"geniusDiscountLabel":null,"badge":null},{"code":"100098139","variantCode":"100098139","name":"Cască bluetooth ST11 STH-4101","slug":"100098139-super-touch-casca-bluetooth-st11-sth-4101","unitPriceLabel":"","brand":"Super Touch","brandCode":"1639","brandFilterCode":"super-touch-b1643","sku":"100098139","price":75.39,"originalPrice":null,"currencyCode":"RON","currency":"Lei","image":{"thumbnail":{"default":"https://cdn.freshful.ro/media/cache/sylius_shop_product_thumbnail/1f/86/a60a39986a31c43003beae887c43.jpg"},"large":{"default":"https://cdn.freshful.ro/media/cache/freshful_large/1f/86/a60a39986a31c43003beae887c43.jpg"},"extralarge":{"default":"https://cdn.freshful.ro/media/cache/sylius_shop_product_original/1f/86/a60a39986a31c43003beae887c43.jpg"}},"label":null,"tags":[],"isAvailable":true,"maxAvailableQuantity":1,"maxAllowedQuantity":100,"breadcrumbs":[{"code":"14","name":"Casă și agrement","slug":"14-casa-si-agrement"},{"code":"1408","name":"Accesorii IT&C","slug":"1408-hitech-audio-video"},{"code":"140801","name":"Căști","slug":"140801-casti"},{"code":"100098139","name":"Cască bluetooth ST11 STH-4101","slug":"100098139-super-touch-casca-bluetooth-st11-sth-4101"}],"activePromotion":null,"saveMe":null,"labels":[],"geniusPrice":null,"geniusUnitPricePerLabel":null,"banner":null,"discountLabel":null,"geniusDiscountLabel":null,"badge":null},{"code":"100098142","variantCode":"100098142","name":"Selfie stick monopod cu fir jack ","slug":"100098142-super-touch-selfie-stick-monopod-cu-fir-jack","unitPriceLabel":"","brand":"Super Touch","brandCode":"1639","brandFilterCode":"super-touch-b1643","sku":"100098142","price":36.99,"originalPrice":null,"currencyCode":"RON","currency":"Lei","image":{"thumbnail":{"default":"https://cdn.freshful.ro/media/cache/sylius_shop_product_thumbnail/77/98/5218eeb8417ea03b232374d0b728.jpg"},"large":{"default":"https://cdn.freshful.ro/media/cache/freshful_large/77/98/5218eeb8417ea03b232374d0b728.jpg"},"extralarge":{"default":"https://cdn.freshful.ro/media/cache/sylius_shop_product_original/77/98/5218eeb8417ea03b232374d0b728.jpg"}},"label":null,"tags":[],"isAvailable":true,"maxAvailableQuantity":19,"maxAllowedQuantity":100,"breadcrumbs":[{"code":"14","name":"Casă și agrement","slug":"14-casa-si-agrement"},{"code":"1408","name":"Accesorii IT&C","slug":"1408-hitech-audio-video"},{"code":"140802","name":"Accesorii pentru smartphone","slug":"140802-accesorii-pentru-smartphone"},{"code":"100098142","name":"Selfie stick monopod cu fir jack ","slug":"100098142-super-touch-selfie-stick-monopod-cu-fir-jack"}],"activePromotion":null,"saveMe":null,"labels":[],"geniusPrice":null,"geniusUnitPricePerLabel":null,"banner":null,"discountLabel":null,"geniusDiscountLabel":null,"badge":null},{"code":"100098133","variantCode":"100098133","name":"Suport magnetic cu adeziv, negru","slug":"100098133-super-touch-suport-magnetic-cu-adeziv-negru","unitPriceLabel":"","brand":"Super Touch","brandCode":"1639","brandFilterCode":"super-touch-b1643","sku":"100098133","price":32.99,"originalPrice":null,"currencyCode":"RON","currency":"Lei","image":{"thumbnail":{"default":"https://cdn.freshful.ro/media/cache/sylius_shop_product_thumbnail/ca/79/3f309cfa6500b40dc38bdc7ef251.jpg"},"large":{"default":"https://cdn.freshful.ro/media/cache/freshful_large/ca/79/3f309cfa6500b40dc38bdc7ef251.jpg"},"extralarge":{"default":"https://cdn.freshful.ro/media/cache/sylius_shop_product_original/ca/79/3f309cfa6500b40dc38bdc7ef251.jpg"}},"label":null,"tags":[],"isAvailable":true,"maxAvailableQuantity":10,"maxAllowedQuantity":100,"breadcrumbs":[{"code":"14","name":"Casă și agrement","slug":"14-casa-si-agrement"},{"code":"1408","name":"Accesorii IT&C","slug":"1408-hitech-audio-video"},{"code":"140802","name":"Accesorii pentru smartphone","slug":"140802-accesorii-pentru-smartphone"},{"code":"100098133","name":"Suport magnetic cu adeziv, negru","slug":"100098133-super-touch-suport-magnetic-cu-adeziv-negru"}],"activePromotion":null,"saveMe":null,"labels":[],"geniusPrice":null,"geniusUnitPricePerLabel":null,"banner":null,"discountLabel":null,"geniusDiscountLabel":null,"badge":null},{"code":"100098134","variantCode":"100098134","name":"Suport auto magnetic cu ventuză","slug":"100098134-super-touch-suport-auto-magnetic-cu-ventuza","unitPriceLabel":"","brand":"Super Touch","brandCode":"1639","brandFilterCode":"super-touch-b1643","sku":"100098134","price":47.59,"originalPrice":null,"currencyCode":"RON","currency":"Lei","image":{"thumbnail":{"default":"https://cdn.freshful.ro/media/cache/sylius_shop_product_thumbnail/f8/00/fdf94bc290dd497e053dd0d60a1b.jpg"},"large":{"default":"https://cdn.freshful.ro/media/cache/freshful_large/f8/00/fdf94bc290dd497e053dd0d60a1b.jpg"},"extralarge":{"default":"https://cdn.freshful.ro/media/cache/sylius_shop_product_original/f8/00/fdf94bc290dd497e053dd0d60a1b.jpg"}},"label":null,"tags":[],"isAvailable":true,"maxAvailableQuantity":9,"maxAllowedQuantity":100,"breadcrumbs":[{"code":"14","name":"Casă și agrement","slug":"14-casa-si-agrement"},{"code":"1408","name":"Accesorii IT&C","slug":"1408-hitech-audio-video"},{"code":"140802","name":"Accesorii pentru smartphone","slug":"140802-accesorii-pentru-smartphone"},{"code":"100098134","name":"Suport auto magnetic cu ventuză","slug":"100098134-super-touch-suport-auto-magnetic-cu-ventuza"}],"activePromotion":null,"saveMe":null,"labels":[],"geniusPrice":null,"geniusUnitPricePerLabel":null,"banner":null,"discountLabel":null,"geniusDiscountLabel":null,"badge":null},{"code":"100098136","variantCode":"100098136","name":"Suport telefon pentru bicicletă STH-2329","slug":"100098136-super-touch-suport-telefon-pentru-bicicleta-sth-2329","unitPriceLabel":"","brand":"Super Touch","brandCode":"1639","brandFilterCode":"super-touch-b1643","sku":"100098136","price":59.99,"originalPrice":null,"currencyCode":"RON","currency":"Lei","image":{"thumbnail":{"default":"https://cdn.freshful.ro/media/cache/sylius_shop_product_thumbnail/52/72/01abd994f90a07189b52005a1f41.jpg"},"large":{"default":"https://cdn.freshful.ro/media/cache/freshful_large/52/72/01abd994f90a07189b52005a1f41.jpg"},"extralarge":{"default":"https://cdn.freshful.ro/media/cache/sylius_shop_product_original/52/72/01abd994f90a07189b52005a1f41.jpg"}},"label":null,"tags":[],"isAvailable":true,"maxAvailableQuantity":10,"maxAllowedQuantity":100,"breadcrumbs":[{"code":"14","name":"Casă și agrement","slug":"14-casa-si-agrement"},{"code":"1408","name":"Accesorii IT&C","slug":"1408-hitech-audio-video"},{"code":"140802","name":"Accesorii pentru smartphone","slug":"140802-accesorii-pentru-smartphone"},{"code":"100098136","name":"Suport telefon pentru bicicletă STH-2329","slug":"100098136-super-touch-suport-telefon-pentru-bicicleta-sth-2329"}],"activePromotion":null,"saveMe":null,"labels":[],"geniusPrice":null,"geniusUnitPricePerLabel":null,"banner":null,"discountLabel":null,"geniusDiscountLabel":null,"badge":null},{"code":"100098138","variantCode":"100098138","name":"Cască bluetooth stereo TWS STH-4040","slug":"100098138-super-touch-casca-bluetooth-stereo-tws-sth-4040","unitPriceLabel":"","brand":"Super Touch","brandCode":"1639","brandFilterCode":"super-touch-b1643","sku":"100098138","price":104.99,"originalPrice":null,"currencyCode":"RON","currency":"Lei","image":{"thumbnail":{"default":"https://cdn.freshful.ro/media/cache/sylius_shop_product_thumbnail/08/37/5208519113cb3a064f931042bbf0.jpg"},"large":{"default":"https://cdn.freshful.ro/media/cache/freshful_large/08/37/5208519113cb3a064f931042bbf0.jpg"},"extralarge":{"default":"https://cdn.freshful.ro/media/cache/sylius_shop_product_original/08/37/5208519113cb3a064f931042bbf0.jpg"}},"label":null,"tags":[],"isAvailable":true,"maxAvailableQuantity":1,"maxAllowedQuantity":100,"breadcrumbs":[{"code":"14","name":"Casă și agrement","slug":"14-casa-si-agrement"},{"code":"1408","name":"Accesorii IT&C","slug":"1408-hitech-audio-video"},{"code":"140801","name":"Căști","slug":"140801-casti"},{"code":"100098138","name":"Cască bluetooth stereo TWS STH-4040","slug":"100098138-super-touch-casca-bluetooth-stereo-tws-sth-4040"}],"activePromotion":null,"saveMe":null,"labels":[],"geniusPrice":null,"geniusUnitPricePerLabel":null,"banner":null,"discountLabel":null,"geniusDiscountLabel":null,"badge":null},{"code":"100098140","variantCode":"100098140","name":" Căști Bluetooth ","slug":"100098140-super-touch-casti-bluetooth","unitPriceLabel":"","brand":"Super Touch","brandCode":"1639","brandFilterCode":"super-touch-b1643","sku":"100098140","price":120.29,"originalPrice":null,"currencyCode":"RON","currency":"Lei","image":{"thumbnail":{"default":"https://cdn.freshful.ro/media/cache/sylius_shop_product_thumbnail/9f/2c/b28a328d4cfe2bbd6a9d49057695.jpg"},"large":{"default":"https://cdn.freshful.ro/media/cache/freshful_large/9f/2c/b28a328d4cfe2bbd6a9d49057695.jpg"},"extralarge":{"default":"https://cdn.freshful.ro/media/cache/sylius_shop_product_original/9f/2c/b28a328d4cfe2bbd6a9d49057695.jpg"}},"label":null,"tags":[],"isAvailable":true,"maxAvailableQuantity":7,"maxAllowedQuantity":100,"breadcrumbs":[{"code":"14","name":"Casă și agrement","slug":"14-casa-si-agrement"},{"code":"1408","name":"Accesorii IT&C","slug":"1408-hitech-audio-video"},{"code":"140801","name":"Căști","slug":"140801-casti"},{"code":"100098140","name":" Căști Bluetooth ","slug":"100098140-super-touch-casti-bluetooth"}],"activePromotion":null,"saveMe":null,"labels":[],"geniusPrice":null,"geniusUnitPricePerLabel":null,"banner":null,"discountLabel":null,"geniusDiscountLabel":null,"badge":null},{"code":"100098143","variantCode":"100098143","name":"Mouse silențios Click Fox","slug":"100098143-super-touch-mouse-silentios-click-fox","unitPriceLabel":"","brand":"Super Touch","brandCode":"1639","brandFilterCode":"super-touch-b1643","sku":"100098143","price":89.99,"originalPrice":null,"currencyCode":"RON","currency":"Lei","image":{"thumbnail":{"default":"https://cdn.freshful.ro/media/cache/sylius_shop_product_thumbnail/3e/46/9140af60300b45370d707452d7b9.jpg"},"large":{"default":"https://cdn.freshful.ro/media/cache/freshful_large/3e/46/9140af60300b45370d707452d7b9.jpg"},"extralarge":{"default":"https://cdn.freshful.ro/media/cache/sylius_shop_product_original/3e/46/9140af60300b45370d707452d7b9.jpg"}},"label":null,"tags":[],"isAvailable":true,"maxAvailableQuantity":14,"maxAllowedQuantity":100,"breadcrumbs":[{"code":"14","name":"Casă și agrement","slug":"14-casa-si-agrement"},{"code":"1408","name":"Accesorii IT&C","slug":"1408-hitech-audio-video"},{"code":"140804","name":"Mouse, tastaturi și camere web","slug":"mouse-tastaturi-si-camere-web"},{"code":"100098143","name":"Mouse silențios Click Fox","slug":"100098143-super-touch-mouse-silentios-click-fox"}],"activePromotion":null,"saveMe":null,"labels":[],"geniusPrice":null,"geniusUnitPricePerLabel":null,"banner":null,"discountLabel":null,"geniusDiscountLabel":null,"badge":null}],"filters":{"countSelected":0,"items":[{"code":"brand","name":"Brand","countSelected":0,"values":[{"code":"super-touch-b1643","name":"Super Touch","isSelected":false,"count":11}]}]},"orderBy":[{"field":"price","direction":"asc","name":"Preț crescător","isSelected":false},{"field":"price","direction":"desc","name":"Preț descrescător","isSelected":false},{"field":"popularity","direction":"desc","name":"Cele mai populare","isSelected":true},{"field":"category","direction":"asc","name":"Categorie","isSelected":false}],"metaTitle":"Accesorii IT&C - Gamă variată","metaDescription":"Vrei Accesorii IT&C? Alege dintr-o gamă variată. Comanzi simplu și ai livrare rapidă, calitate și prospețime. Hai pe Freshful.ro","metaKeywords":null,"banners":[]}}