{"type":"subcategory","payload":{"analyticsListId":"category_141002-dresuri-femei","analyticsListName":"Category - Dresuri femei","name":"Dresuri femei","slug":"141002-dresuri-femei","image":null,"breadcrumbs":[{"code":"14","name":"Casă și agrement","slug":"14-casa-si-agrement"},{"code":"1410","name":"Textile și accesorii","slug":"1410-textile-basic"},{"code":"141002","name":"Dresuri femei","slug":"141002-dresuri-femei"}],"slots":[],"page":1,"limit":10,"pages":9,"count":82,"siblings":[{"name":"Bricolaj și auto","slug":"1401-bricolaj-si-auto","selected":false},{"name":"Grădină","slug":"1402-gradina","selected":false},{"name":"Articole de menaj","slug":"1403-articole-de-menaj","selected":false},{"name":"Textile pentru casă","slug":"1404-textile-de-casa","selected":false},{"name":"Birotică și papetărie","slug":"1405-birotica-si-papetarie","selected":false},{"name":"Jucării","slug":"1406-jucarii","selected":false},{"name":"Accesorii IT&C","slug":"1408-hitech-audio-video","selected":false},{"name":"Textile și accesorii","slug":"1410-textile-basic","selected":true}],"children":[{"name":"Toate produsele","slug":"1410-textile-basic","selected":false},{"name":"Umbrele","slug":"141001-umbrele","selected":false},{"name":"Dresuri femei","slug":"141002-dresuri-femei","selected":true},{"name":"Șosete femei","slug":"141003-sosete-femei","selected":false}],"products":[{"code":"100144219","variantCode":"100144219","name":"Ciorap microfibră Roza 60 den Black 3","slug":"100144219-fiore-ciorap-microfibra-roza-60-den-black-3","unitPriceLabel":"","brand":"Fiore","brandCode":"209","brandFilterCode":"fiore-b210","sku":"100144219","price":28.99,"originalPrice":null,"currencyCode":"RON","currency":"Lei","image":{"thumbnail":{"default":"https://cdn.freshful.ro/media/cache/sylius_shop_product_thumbnail/ea/c4/25112bd1478c5789d2cb9cb7aeb9.jpg"},"large":{"default":"https://cdn.freshful.ro/media/cache/freshful_large/ea/c4/25112bd1478c5789d2cb9cb7aeb9.jpg"},"extralarge":{"default":"https://cdn.freshful.ro/media/cache/sylius_shop_product_original/ea/c4/25112bd1478c5789d2cb9cb7aeb9.jpg"}},"label":null,"tags":[],"isAvailable":true,"maxAvailableQuantity":14,"maxAllowedQuantity":100,"breadcrumbs":[{"code":"14","name":"Casă și agrement","slug":"14-casa-si-agrement"},{"code":"1410","name":"Textile și accesorii","slug":"1410-textile-basic"},{"code":"141002","name":"Dresuri femei","slug":"141002-dresuri-femei"},{"code":"100144219","name":"Ciorap microfibră Roza 60 den Black 3","slug":"100144219-fiore-ciorap-microfibra-roza-60-den-black-3"}],"activePromotion":null,"saveMe":null,"labels":[],"geniusPrice":null,"geniusUnitPricePerLabel":null,"banner":null,"discountLabel":null,"geniusDiscountLabel":null,"badge":null},{"code":"100144224","variantCode":"100144224","name":"Ciorap microfibră Olga 100 den Black 4","slug":"100144224-fiore-ciorap-microfibra-olga-100-den-black-4","unitPriceLabel":"","brand":"Fiore","brandCode":"209","brandFilterCode":"fiore-b210","sku":"100144224","price":27.99,"originalPrice":null,"currencyCode":"RON","currency":"Lei","image":{"thumbnail":{"default":"https://cdn.freshful.ro/media/cache/sylius_shop_product_thumbnail/d8/be/42fd860abebe6749f445cdeebd29.jpg"},"large":{"default":"https://cdn.freshful.ro/media/cache/freshful_large/d8/be/42fd860abebe6749f445cdeebd29.jpg"},"extralarge":{"default":"https://cdn.freshful.ro/media/cache/sylius_shop_product_original/d8/be/42fd860abebe6749f445cdeebd29.jpg"}},"label":null,"tags":[],"isAvailable":true,"maxAvailableQuantity":18,"maxAllowedQuantity":100,"breadcrumbs":[{"code":"14","name":"Casă și agrement","slug":"14-casa-si-agrement"},{"code":"1410","name":"Textile și accesorii","slug":"1410-textile-basic"},{"code":"141002","name":"Dresuri femei","slug":"141002-dresuri-femei"},{"code":"100144224","name":"Ciorap microfibră Olga 100 den Black 4","slug":"100144224-fiore-ciorap-microfibra-olga-100-den-black-4"}],"activePromotion":null,"saveMe":null,"labels":[],"geniusPrice":null,"geniusUnitPricePerLabel":null,"banner":null,"discountLabel":null,"geniusDiscountLabel":null,"badge":null},{"code":"100134987","variantCode":"100134987","name":"Ciorap Lili 20den Negru no. 3","slug":"100134987-fiore-ciorap-lili-20den-negru-no-3","unitPriceLabel":"","brand":"Fiore","brandCode":"209","brandFilterCode":"fiore-b210","sku":"100134987","price":15.69,"originalPrice":null,"currencyCode":"RON","currency":"Lei","image":{"thumbnail":{"default":"https://cdn.freshful.ro/media/cache/sylius_shop_product_thumbnail/83/0e/56d6e183e10ed2cc46b56ce63ab8.jpg"},"large":{"default":"https://cdn.freshful.ro/media/cache/freshful_large/83/0e/56d6e183e10ed2cc46b56ce63ab8.jpg"},"extralarge":{"default":"https://cdn.freshful.ro/media/cache/sylius_shop_product_original/83/0e/56d6e183e10ed2cc46b56ce63ab8.jpg"}},"label":null,"tags":[],"isAvailable":true,"maxAvailableQuantity":5,"maxAllowedQuantity":100,"breadcrumbs":[{"code":"14","name":"Casă și agrement","slug":"14-casa-si-agrement"},{"code":"1410","name":"Textile și accesorii","slug":"1410-textile-basic"},{"code":"141002","name":"Dresuri femei","slug":"141002-dresuri-femei"},{"code":"100134987","name":"Ciorap Lili 20den Negru no. 3","slug":"100134987-fiore-ciorap-lili-20den-negru-no-3"}],"activePromotion":null,"saveMe":null,"labels":[],"geniusPrice":null,"geniusUnitPricePerLabel":null,"banner":null,"discountLabel":null,"geniusDiscountLabel":null,"badge":null},{"code":"100135013","variantCode":"100135013","name":"Ciorap modelator Press Up Medica 20den Light Natural no. 3","slug":"100135013-fiore-ciorap-modelator-press-up-medica-20den-light-natural-no-3","unitPriceLabel":"","brand":"Fiore","brandCode":"209","brandFilterCode":"fiore-b210","sku":"100135013","price":30.99,"originalPrice":null,"currencyCode":"RON","currency":"Lei","image":{"thumbnail":{"default":"https://cdn.freshful.ro/media/cache/sylius_shop_product_thumbnail/8a/55/7e951ecb3caf4f1122be66d22df1.jpg"},"large":{"default":"https://cdn.freshful.ro/media/cache/freshful_large/8a/55/7e951ecb3caf4f1122be66d22df1.jpg"},"extralarge":{"default":"https://cdn.freshful.ro/media/cache/sylius_shop_product_original/8a/55/7e951ecb3caf4f1122be66d22df1.jpg"}},"label":null,"tags":[],"isAvailable":true,"maxAvailableQuantity":6,"maxAllowedQuantity":100,"breadcrumbs":[{"code":"14","name":"Casă și agrement","slug":"14-casa-si-agrement"},{"code":"1410","name":"Textile și accesorii","slug":"1410-textile-basic"},{"code":"141002","name":"Dresuri femei","slug":"141002-dresuri-femei"},{"code":"100135013","name":"Ciorap modelator Press Up Medica 20den Light Natural no. 3","slug":"100135013-fiore-ciorap-modelator-press-up-medica-20den-light-natural-no-3"}],"activePromotion":null,"saveMe":null,"labels":[],"geniusPrice":null,"geniusUnitPricePerLabel":null,"banner":null,"discountLabel":null,"geniusDiscountLabel":null,"badge":null},{"code":"100144222","variantCode":"100144222","name":"Ciorap microfibră Olga 100 den Black 2","slug":"100144222-fiore-ciorap-microfibra-olga-100-den-black-2","unitPriceLabel":"","brand":"Fiore","brandCode":"209","brandFilterCode":"fiore-b210","sku":"100144222","price":27.99,"originalPrice":null,"currencyCode":"RON","currency":"Lei","image":{"thumbnail":{"default":"https://cdn.freshful.ro/media/cache/sylius_shop_product_thumbnail/0f/2d/969c6694466cae65a8b6ac88b69b.jpg"},"large":{"default":"https://cdn.freshful.ro/media/cache/freshful_large/0f/2d/969c6694466cae65a8b6ac88b69b.jpg"},"extralarge":{"default":"https://cdn.freshful.ro/media/cache/sylius_shop_product_original/0f/2d/969c6694466cae65a8b6ac88b69b.jpg"}},"label":null,"tags":[],"isAvailable":true,"maxAvailableQuantity":6,"maxAllowedQuantity":100,"breadcrumbs":[{"code":"14","name":"Casă și agrement","slug":"14-casa-si-agrement"},{"code":"1410","name":"Textile și accesorii","slug":"1410-textile-basic"},{"code":"141002","name":"Dresuri femei","slug":"141002-dresuri-femei"},{"code":"100144222","name":"Ciorap microfibră Olga 100 den Black 2","slug":"100144222-fiore-ciorap-microfibra-olga-100-den-black-2"}],"activePromotion":null,"saveMe":null,"labels":[],"geniusPrice":null,"geniusUnitPricePerLabel":null,"banner":null,"discountLabel":null,"geniusDiscountLabel":null,"badge":null},{"code":"100134992","variantCode":"100134992","name":"Ciorap Lili 20den Nude no. 3","slug":"100134992-fiore-ciorap-lili-20den-nude-no-3","unitPriceLabel":"","brand":"Fiore","brandCode":"209","brandFilterCode":"fiore-b210","sku":"100134992","price":15.69,"originalPrice":null,"currencyCode":"RON","currency":"Lei","image":{"thumbnail":{"default":"https://cdn.freshful.ro/media/cache/sylius_shop_product_thumbnail/56/63/612e0530087513a18fb1cc66ba48.jpg"},"large":{"default":"https://cdn.freshful.ro/media/cache/freshful_large/56/63/612e0530087513a18fb1cc66ba48.jpg"},"extralarge":{"default":"https://cdn.freshful.ro/media/cache/sylius_shop_product_original/56/63/612e0530087513a18fb1cc66ba48.jpg"}},"label":null,"tags":[],"isAvailable":true,"maxAvailableQuantity":4,"maxAllowedQuantity":100,"breadcrumbs":[{"code":"14","name":"Casă și agrement","slug":"14-casa-si-agrement"},{"code":"1410","name":"Textile și accesorii","slug":"1410-textile-basic"},{"code":"141002","name":"Dresuri femei","slug":"141002-dresuri-femei"},{"code":"100134992","name":"Ciorap Lili 20den Nude no. 3","slug":"100134992-fiore-ciorap-lili-20den-nude-no-3"}],"activePromotion":null,"saveMe":null,"labels":[],"geniusPrice":null,"geniusUnitPricePerLabel":null,"banner":null,"discountLabel":null,"geniusDiscountLabel":null,"badge":null},{"code":"100144223","variantCode":"100144223","name":"Ciorap microfibră Olga 100 den Black 3","slug":"100144223-fiore-ciorap-microfibra-olga-100-den-black-3","unitPriceLabel":"","brand":"Fiore","brandCode":"209","brandFilterCode":"fiore-b210","sku":"100144223","price":27.99,"originalPrice":null,"currencyCode":"RON","currency":"Lei","image":{"thumbnail":{"default":"https://cdn.freshful.ro/media/cache/sylius_shop_product_thumbnail/46/91/8d46305536dbc2be8802ae4411d7.jpg"},"large":{"default":"https://cdn.freshful.ro/media/cache/freshful_large/46/91/8d46305536dbc2be8802ae4411d7.jpg"},"extralarge":{"default":"https://cdn.freshful.ro/media/cache/sylius_shop_product_original/46/91/8d46305536dbc2be8802ae4411d7.jpg"}},"label":null,"tags":[],"isAvailable":true,"maxAvailableQuantity":17,"maxAllowedQuantity":100,"breadcrumbs":[{"code":"14","name":"Casă și agrement","slug":"14-casa-si-agrement"},{"code":"1410","name":"Textile și accesorii","slug":"1410-textile-basic"},{"code":"141002","name":"Dresuri femei","slug":"141002-dresuri-femei"},{"code":"100144223","name":"Ciorap microfibră Olga 100 den Black 3","slug":"100144223-fiore-ciorap-microfibra-olga-100-den-black-3"}],"activePromotion":null,"saveMe":null,"labels":[],"geniusPrice":null,"geniusUnitPricePerLabel":null,"banner":null,"discountLabel":null,"geniusDiscountLabel":null,"badge":null},{"code":"100134986","variantCode":"100134986","name":"Ciorap Lili 20den Negru no. 2","slug":"100134986-fiore-ciorap-lili-20den-negru-no-2","unitPriceLabel":"","brand":"Fiore","brandCode":"209","brandFilterCode":"fiore-b210","sku":"100134986","price":15.69,"originalPrice":null,"currencyCode":"RON","currency":"Lei","image":{"thumbnail":{"default":"https://cdn.freshful.ro/media/cache/sylius_shop_product_thumbnail/9f/73/d9c1c79d18639b26896553876714.jpg"},"large":{"default":"https://cdn.freshful.ro/media/cache/freshful_large/9f/73/d9c1c79d18639b26896553876714.jpg"},"extralarge":{"default":"https://cdn.freshful.ro/media/cache/sylius_shop_product_original/9f/73/d9c1c79d18639b26896553876714.jpg"}},"label":null,"tags":[],"isAvailable":true,"maxAvailableQuantity":8,"maxAllowedQuantity":100,"breadcrumbs":[{"code":"14","name":"Casă și agrement","slug":"14-casa-si-agrement"},{"code":"1410","name":"Textile și accesorii","slug":"1410-textile-basic"},{"code":"141002","name":"Dresuri femei","slug":"141002-dresuri-femei"},{"code":"100134986","name":"Ciorap Lili 20den Negru no. 2","slug":"100134986-fiore-ciorap-lili-20den-negru-no-2"}],"activePromotion":null,"saveMe":null,"labels":[],"geniusPrice":null,"geniusUnitPricePerLabel":null,"banner":null,"discountLabel":null,"geniusDiscountLabel":null,"badge":null},{"code":"100135019","variantCode":"100135019","name":"Ciorap modelator Comfort 20den Light Natural 2","slug":"100135019-fiore-ciorap-modelator-comfort-20den-light-natural-2","unitPriceLabel":"","brand":"Fiore","brandCode":"209","brandFilterCode":"fiore-b210","sku":"100135019","price":29.99,"originalPrice":null,"currencyCode":"RON","currency":"Lei","image":{"thumbnail":{"default":"https://cdn.freshful.ro/media/cache/sylius_shop_product_thumbnail/cd/e8/097d295f79f396617df6bf0bd4a1.jpg"},"large":{"default":"https://cdn.freshful.ro/media/cache/freshful_large/cd/e8/097d295f79f396617df6bf0bd4a1.jpg"},"extralarge":{"default":"https://cdn.freshful.ro/media/cache/sylius_shop_product_original/cd/e8/097d295f79f396617df6bf0bd4a1.jpg"}},"label":null,"tags":[],"isAvailable":true,"maxAvailableQuantity":13,"maxAllowedQuantity":100,"breadcrumbs":[{"code":"14","name":"Casă și agrement","slug":"14-casa-si-agrement"},{"code":"1410","name":"Textile și accesorii","slug":"1410-textile-basic"},{"code":"141002","name":"Dresuri femei","slug":"141002-dresuri-femei"},{"code":"100135019","name":"Ciorap modelator Comfort 20den Light Natural 2","slug":"100135019-fiore-ciorap-modelator-comfort-20den-light-natural-2"}],"activePromotion":null,"saveMe":null,"labels":[],"geniusPrice":null,"geniusUnitPricePerLabel":null,"banner":null,"discountLabel":null,"geniusDiscountLabel":null,"badge":null},{"code":"100144218","variantCode":"100144218","name":"Ciorap microfibră Roza 60 den Black 2","slug":"100144218-fiore-ciorap-microfibra-roza-60-den-black-2","unitPriceLabel":"","brand":"Fiore","brandCode":"209","brandFilterCode":"fiore-b210","sku":"100144218","price":28.99,"originalPrice":null,"currencyCode":"RON","currency":"Lei","image":{"thumbnail":{"default":"https://cdn.freshful.ro/media/cache/sylius_shop_product_thumbnail/b1/e1/e62afa6a0efc1d294c5a7ac6c263.jpg"},"large":{"default":"https://cdn.freshful.ro/media/cache/freshful_large/b1/e1/e62afa6a0efc1d294c5a7ac6c263.jpg"},"extralarge":{"default":"https://cdn.freshful.ro/media/cache/sylius_shop_product_original/b1/e1/e62afa6a0efc1d294c5a7ac6c263.jpg"}},"label":null,"tags":[],"isAvailable":true,"maxAvailableQuantity":13,"maxAllowedQuantity":100,"breadcrumbs":[{"code":"14","name":"Casă și agrement","slug":"14-casa-si-agrement"},{"code":"1410","name":"Textile și accesorii","slug":"1410-textile-basic"},{"code":"141002","name":"Dresuri femei","slug":"141002-dresuri-femei"},{"code":"100144218","name":"Ciorap microfibră Roza 60 den Black 2","slug":"100144218-fiore-ciorap-microfibra-roza-60-den-black-2"}],"activePromotion":null,"saveMe":null,"labels":[],"geniusPrice":null,"geniusUnitPricePerLabel":null,"banner":null,"discountLabel":null,"geniusDiscountLabel":null,"badge":null}],"filters":{"countSelected":0,"items":[{"code":"brand","name":"Brand","countSelected":0,"values":[{"code":"fiore-b210","name":"Fiore","isSelected":false,"count":82}]}]},"orderBy":[{"field":"price","direction":"asc","name":"Preț crescător","isSelected":false},{"field":"price","direction":"desc","name":"Preț descrescător","isSelected":false},{"field":"popularity","direction":"desc","name":"Cele mai populare","isSelected":true},{"field":"category","direction":"asc","name":"Categorie","isSelected":false}],"metaTitle":"Dresuri femei - Gamă variată","metaDescription":"Vrei Dresuri femei? Alege dintr-o gamă variată. Comanzi simplu și ai livrare rapidă, calitate și prospețime. Hai pe Freshful.ro","metaKeywords":null,"banners":[]}}