{"type":"subcategory","payload":{"analyticsListId":"category_150101-hrana-umeda-pisici","analyticsListName":"Category - Hrană umedă pisici","name":"Hrană umedă pisici","slug":"150101-hrana-umeda-pisici","image":null,"breadcrumbs":[{"code":"15","name":"Pet Shop","slug":"15-pet-shop"},{"code":"1501","name":"Pisici","slug":"1501-pisici"},{"code":"150101","name":"Hrană umedă pisici","slug":"150101-hrana-umeda-pisici"}],"slots":[],"page":1,"limit":10,"pages":14,"count":136,"siblings":[{"name":"Pisici","slug":"1501-pisici","selected":true},{"name":"Câini","slug":"1502-caini","selected":false},{"name":"Păsări și rozătoare","slug":"1503-pasari-si-rozatoare","selected":false},{"name":"Pești și țestoase","slug":"1504-pesti-si-testoase","selected":false}],"children":[{"name":"Toate produsele","slug":"1501-pisici","selected":false},{"name":"Hrană umedă pisici","slug":"150101-hrana-umeda-pisici","selected":true},{"name":"Hrană uscată pisici","slug":"150102-hrana-uscata-pisici","selected":false},{"name":"Biscuiți și recompense pisici","slug":"150103-biscuiti-si-recompense-pisici","selected":false},{"name":"Așternuturi pisici","slug":"150104-asternuturi-pisici","selected":false},{"name":"Accesorii pisici","slug":"150105-accesorii-pisici","selected":false}],"products":[{"code":"100062460","variantCode":"100062460","name":"Hrană umedă pentru pisici adulte, 85g, cu pui în sos ","slug":"100062460-sheba-hrana-umeda-pentru-pisici-adulte-85g-cu-pui-in-sos","unitPriceLabel":"29,53 Lei/kg","brand":"Sheba","brandCode":"257","brandFilterCode":"sheba-b258","sku":"100062460","price":2.51,"originalPrice":null,"currencyCode":"RON","currency":"Lei","image":{"thumbnail":{"default":"https://cdn.freshful.ro/media/cache/sylius_shop_product_thumbnail/bf/b1/ea595c5f4b4fd278bc99171abe6c.jpg"},"large":{"default":"https://cdn.freshful.ro/media/cache/freshful_large/bf/b1/ea595c5f4b4fd278bc99171abe6c.jpg"},"extralarge":{"default":"https://cdn.freshful.ro/media/cache/sylius_shop_product_original/bf/b1/ea595c5f4b4fd278bc99171abe6c.jpg"}},"label":{"text":"Profită acum","backgroundColor":"#FF9903","textColor":"#FFFFFF"},"tags":[{"type":"NoPreservatives","text":"Fara conservanti","icon":"https://cdn.freshful.ro/assets/product_tags/fara_conservanti.svg","iconPng":"https://cdn.freshful.ro/assets/product_tags/fara_conservanti.png","backgroundColor":"#F0F2FF","textColor":"#7889DD"}],"isAvailable":true,"maxAvailableQuantity":100,"maxAllowedQuantity":100,"breadcrumbs":[{"code":"15","name":"Pet Shop","slug":"15-pet-shop"},{"code":"1501","name":"Pisici","slug":"1501-pisici"},{"code":"150101","name":"Hrană umedă pisici","slug":"150101-hrana-umeda-pisici"},{"code":"100062460","name":"Hrană umedă pentru pisici adulte, 85g, cu pui în sos ","slug":"100062460-sheba-hrana-umeda-pentru-pisici-adulte-85g-cu-pui-in-sos"}],"activePromotion":{"code":"freshful-top-deals-2023","name":"Preț avantajos","targetQuantity":null},"saveMe":null,"labels":[{"type":"v1","items":[{"text":"Profită acum","backgroundColor":"#FF9903","textColor":"#FFFFFF"}]}],"geniusPrice":null,"geniusUnitPricePerLabel":null,"banner":{"text":"Preț avantajos","textColor":"#F95510","bgColor":"#FEF1CD","icon":null,"link":"https://www.freshful.ro/oferte/freshful-top-deals-2023","type":"promo","analyticsEventType":"select_promotion","analyticsEventPayload":{"promotion_id":"freshful-top-deals-2023","promotion_name":"Profită de Top Deals"}},"discountLabel":null,"geniusDiscountLabel":null,"badge":null},{"code":"100062454","variantCode":"100062454","name":"Hrană umedă pentru pisici adulte, 6x50g, cu pui și curcan ","slug":"100062454-sheba-hrana-umeda-pentru-pisici-adulte-6x50g-cu-pui-si-curcan","unitPriceLabel":"37,5 Lei/kg","brand":"Sheba","brandCode":"257","brandFilterCode":"sheba-b258","sku":"100062454","price":11.25,"originalPrice":null,"currencyCode":"RON","currency":"Lei","image":{"thumbnail":{"default":"https://cdn.freshful.ro/media/cache/sylius_shop_product_thumbnail/9c/db/8842d2691a998dd34eef3131968e.jpg"},"large":{"default":"https://cdn.freshful.ro/media/cache/freshful_large/9c/db/8842d2691a998dd34eef3131968e.jpg"},"extralarge":{"default":"https://cdn.freshful.ro/media/cache/sylius_shop_product_original/9c/db/8842d2691a998dd34eef3131968e.jpg"}},"label":null,"tags":[{"type":"NoPreservatives","text":"Fara conservanti","icon":"https://cdn.freshful.ro/assets/product_tags/fara_conservanti.svg","iconPng":"https://cdn.freshful.ro/assets/product_tags/fara_conservanti.png","backgroundColor":"#F0F2FF","textColor":"#7889DD"}],"isAvailable":true,"maxAvailableQuantity":100,"maxAllowedQuantity":100,"breadcrumbs":[{"code":"15","name":"Pet Shop","slug":"15-pet-shop"},{"code":"1501","name":"Pisici","slug":"1501-pisici"},{"code":"150101","name":"Hrană umedă pisici","slug":"150101-hrana-umeda-pisici"},{"code":"100062454","name":"Hrană umedă pentru pisici adulte, 6x50g, cu pui și curcan ","slug":"100062454-sheba-hrana-umeda-pentru-pisici-adulte-6x50g-cu-pui-si-curcan"}],"activePromotion":null,"saveMe":null,"labels":[],"geniusPrice":null,"geniusUnitPricePerLabel":null,"banner":null,"discountLabel":null,"geniusDiscountLabel":null,"badge":null},{"code":"100139027","variantCode":"100139027","name":" Hrană umedă pentru pisici, 4x85g, Multipack Mousse vită, ton, ficat și curcan","slug":"100139027-gourmet-gold-hrana-umeda-pentru-pisici-4x85g-multipack-mousse-vita-ton-ficat-si-curcan","unitPriceLabel":"33,79 Lei/kg","brand":"Gourmet Gold","brandCode":"2210","brandFilterCode":"gourmet-gold-b2214","sku":"100139027","price":11.49,"originalPrice":null,"currencyCode":"RON","currency":"Lei","image":{"thumbnail":{"default":"https://cdn.freshful.ro/media/cache/sylius_shop_product_thumbnail/1c/3a/459488a8c74a2658b006a764414b.jpg"},"large":{"default":"https://cdn.freshful.ro/media/cache/freshful_large/1c/3a/459488a8c74a2658b006a764414b.jpg"},"extralarge":{"default":"https://cdn.freshful.ro/media/cache/sylius_shop_product_original/1c/3a/459488a8c74a2658b006a764414b.jpg"}},"label":null,"tags":[],"isAvailable":true,"maxAvailableQuantity":100,"maxAllowedQuantity":100,"breadcrumbs":[{"code":"15","name":"Pet Shop","slug":"15-pet-shop"},{"code":"1501","name":"Pisici","slug":"1501-pisici"},{"code":"150101","name":"Hrană umedă pisici","slug":"150101-hrana-umeda-pisici"},{"code":"100139027","name":" Hrană umedă pentru pisici, 4x85g, Multipack Mousse vită, ton, ficat și curcan","slug":"100139027-gourmet-gold-hrana-umeda-pentru-pisici-4x85g-multipack-mousse-vita-ton-ficat-si-curcan"}],"activePromotion":null,"saveMe":null,"labels":[],"geniusPrice":null,"geniusUnitPricePerLabel":null,"banner":null,"discountLabel":null,"geniusDiscountLabel":null,"badge":null},{"code":"100062453","variantCode":"100062453","name":"Hrană umedă pentru pisici adulte, 6x50g, cu pește ","slug":"100062453-sheba-hrana-umeda-pentru-pisici-adulte-6x50g-cu-peste","unitPriceLabel":"37,5 Lei/kg","brand":"Sheba","brandCode":"257","brandFilterCode":"sheba-b258","sku":"100062453","price":11.25,"originalPrice":null,"currencyCode":"RON","currency":"Lei","image":{"thumbnail":{"default":"https://cdn.freshful.ro/media/cache/sylius_shop_product_thumbnail/fa/da/20e7b5f36a2b7f5614381e2df294.jpg"},"large":{"default":"https://cdn.freshful.ro/media/cache/freshful_large/fa/da/20e7b5f36a2b7f5614381e2df294.jpg"},"extralarge":{"default":"https://cdn.freshful.ro/media/cache/sylius_shop_product_original/fa/da/20e7b5f36a2b7f5614381e2df294.jpg"}},"label":null,"tags":[{"type":"NoPreservatives","text":"Fara conservanti","icon":"https://cdn.freshful.ro/assets/product_tags/fara_conservanti.svg","iconPng":"https://cdn.freshful.ro/assets/product_tags/fara_conservanti.png","backgroundColor":"#F0F2FF","textColor":"#7889DD"}],"isAvailable":true,"maxAvailableQuantity":100,"maxAllowedQuantity":100,"breadcrumbs":[{"code":"15","name":"Pet Shop","slug":"15-pet-shop"},{"code":"1501","name":"Pisici","slug":"1501-pisici"},{"code":"150101","name":"Hrană umedă pisici","slug":"150101-hrana-umeda-pisici"},{"code":"100062453","name":"Hrană umedă pentru pisici adulte, 6x50g, cu pește ","slug":"100062453-sheba-hrana-umeda-pentru-pisici-adulte-6x50g-cu-peste"}],"activePromotion":null,"saveMe":null,"labels":[],"geniusPrice":null,"geniusUnitPricePerLabel":null,"banner":null,"discountLabel":null,"geniusDiscountLabel":null,"badge":null},{"code":"100124238","variantCode":"100124238","name":"Hrană umedă pentru pisici, 6x50, cu vită, vânat și ficat în sos","slug":"100124238-gourmet-mon-petit-hrana-umeda-pentru-pisici-6x50-cu-vita-vanat-si-ficat-in-sos","unitPriceLabel":"33,82 Lei/kg","brand":"Gourmet Mon Petit","brandCode":"2211","brandFilterCode":"gourmet-mon-petit-b2215","sku":"100124238","price":11.5,"originalPrice":null,"currencyCode":"RON","currency":"Lei","image":{"thumbnail":{"default":"https://cdn.freshful.ro/media/cache/sylius_shop_product_thumbnail/ea/9d/545bbe733a4e5327fca469f72369.jpg"},"large":{"default":"https://cdn.freshful.ro/media/cache/freshful_large/ea/9d/545bbe733a4e5327fca469f72369.jpg"},"extralarge":{"default":"https://cdn.freshful.ro/media/cache/sylius_shop_product_original/ea/9d/545bbe733a4e5327fca469f72369.jpg"}},"label":null,"tags":[],"isAvailable":true,"maxAvailableQuantity":83,"maxAllowedQuantity":100,"breadcrumbs":[{"code":"15","name":"Pet Shop","slug":"15-pet-shop"},{"code":"1501","name":"Pisici","slug":"1501-pisici"},{"code":"150101","name":"Hrană umedă pisici","slug":"150101-hrana-umeda-pisici"},{"code":"100124238","name":"Hrană umedă pentru pisici, 6x50, cu vită, vânat și ficat în sos","slug":"100124238-gourmet-mon-petit-hrana-umeda-pentru-pisici-6x50-cu-vita-vanat-si-ficat-in-sos"}],"activePromotion":null,"saveMe":null,"labels":[],"geniusPrice":null,"geniusUnitPricePerLabel":null,"banner":null,"discountLabel":null,"geniusDiscountLabel":null,"badge":null},{"code":"100137908","variantCode":"100137908","name":"Hrană umedă pentru pisici, 12x85g, cu vită, iepure, miel, pui în aspic","slug":"100137908-felix-fantastic-hrana-umeda-pentru-pisici-12x85g-cu-vita-iepure-miel-pui-in-aspic","unitPriceLabel":"22,92 Lei/kg","brand":"Felix Fantastic","brandCode":"2214","brandFilterCode":"felix-fantastic-b2218","sku":"100137908","price":26.59,"originalPrice":null,"currencyCode":"RON","currency":"Lei","image":{"thumbnail":{"default":"https://cdn.freshful.ro/media/cache/sylius_shop_product_thumbnail/3e/67/c7732d2fc8bf2d120a0614aa8d95.jpg"},"large":{"default":"https://cdn.freshful.ro/media/cache/freshful_large/3e/67/c7732d2fc8bf2d120a0614aa8d95.jpg"},"extralarge":{"default":"https://cdn.freshful.ro/media/cache/sylius_shop_product_original/3e/67/c7732d2fc8bf2d120a0614aa8d95.jpg"}},"label":null,"tags":[],"isAvailable":true,"maxAvailableQuantity":3,"maxAllowedQuantity":100,"breadcrumbs":[{"code":"15","name":"Pet Shop","slug":"15-pet-shop"},{"code":"1501","name":"Pisici","slug":"1501-pisici"},{"code":"150101","name":"Hrană umedă pisici","slug":"150101-hrana-umeda-pisici"},{"code":"100137908","name":"Hrană umedă pentru pisici, 12x85g, cu vită, iepure, miel, pui în aspic","slug":"100137908-felix-fantastic-hrana-umeda-pentru-pisici-12x85g-cu-vita-iepure-miel-pui-in-aspic"}],"activePromotion":null,"saveMe":null,"labels":[],"geniusPrice":null,"geniusUnitPricePerLabel":null,"banner":null,"discountLabel":null,"geniusDiscountLabel":null,"badge":null},{"code":"100124236","variantCode":"100124236","name":"Hrană umedă pentru pisici, 4x85g, Multipack cu vită/curcan și rată/somon și pui/pui și ficat","slug":"100124236-gourmet-gold-hrana-umeda-pentru-pisici-4x85g-multipack-cu-vita-curcan-si-rata-somon-si-pui-pui-si-ficat","unitPriceLabel":"28,02 Lei/kg","brand":"Gourmet Gold","brandCode":"2210","brandFilterCode":"gourmet-gold-b2214","sku":"100124236","price":11.49,"originalPrice":null,"currencyCode":"RON","currency":"Lei","image":{"thumbnail":{"default":"https://cdn.freshful.ro/media/cache/sylius_shop_product_thumbnail/5a/ce/000c00ea6928876f3d77b8410421.jpg"},"large":{"default":"https://cdn.freshful.ro/media/cache/freshful_large/5a/ce/000c00ea6928876f3d77b8410421.jpg"},"extralarge":{"default":"https://cdn.freshful.ro/media/cache/sylius_shop_product_original/5a/ce/000c00ea6928876f3d77b8410421.jpg"}},"label":null,"tags":[],"isAvailable":true,"maxAvailableQuantity":100,"maxAllowedQuantity":100,"breadcrumbs":[{"code":"15","name":"Pet Shop","slug":"15-pet-shop"},{"code":"1501","name":"Pisici","slug":"1501-pisici"},{"code":"150101","name":"Hrană umedă pisici","slug":"150101-hrana-umeda-pisici"},{"code":"100124236","name":"Hrană umedă pentru pisici, 4x85g, Multipack cu vită/curcan și rată/somon și pui/pui și ficat","slug":"100124236-gourmet-gold-hrana-umeda-pentru-pisici-4x85g-multipack-cu-vita-curcan-si-rata-somon-si-pui-pui-si-ficat"}],"activePromotion":null,"saveMe":null,"labels":[],"geniusPrice":null,"geniusUnitPricePerLabel":null,"banner":null,"discountLabel":null,"geniusDiscountLabel":null,"badge":null},{"code":"100124239","variantCode":"100124239","name":"Hrană umedă pentru pisici, 6x50g cu somon, ton, păstrăv în sos ","slug":"100124239-gourmet-mon-petit-hrana-umeda-pentru-pisici-6x50g-cu-somon-ton-pastrav-in-sos","unitPriceLabel":"33,82 Lei/kg","brand":"Gourmet Mon Petit","brandCode":"2211","brandFilterCode":"gourmet-mon-petit-b2215","sku":"100124239","price":11.5,"originalPrice":null,"currencyCode":"RON","currency":"Lei","image":{"thumbnail":{"default":"https://cdn.freshful.ro/media/cache/sylius_shop_product_thumbnail/26/4a/76797145b4c2967ec50580c5117b.jpg"},"large":{"default":"https://cdn.freshful.ro/media/cache/freshful_large/26/4a/76797145b4c2967ec50580c5117b.jpg"},"extralarge":{"default":"https://cdn.freshful.ro/media/cache/sylius_shop_product_original/26/4a/76797145b4c2967ec50580c5117b.jpg"}},"label":null,"tags":[],"isAvailable":true,"maxAvailableQuantity":98,"maxAllowedQuantity":100,"breadcrumbs":[{"code":"15","name":"Pet Shop","slug":"15-pet-shop"},{"code":"1501","name":"Pisici","slug":"1501-pisici"},{"code":"150101","name":"Hrană umedă pisici","slug":"150101-hrana-umeda-pisici"},{"code":"100124239","name":"Hrană umedă pentru pisici, 6x50g cu somon, ton, păstrăv în sos ","slug":"100124239-gourmet-mon-petit-hrana-umeda-pentru-pisici-6x50g-cu-somon-ton-pastrav-in-sos"}],"activePromotion":null,"saveMe":null,"labels":[],"geniusPrice":null,"geniusUnitPricePerLabel":null,"banner":null,"discountLabel":null,"geniusDiscountLabel":null,"badge":null},{"code":"100062481","variantCode":"100062481","name":"Hrană umedă pentru pisici adulte, 100g, cu vită în sos de carne ","slug":"100062481-whiskas-hrana-umeda-pentru-pisici-adulte-100g-cu-vita-in-sos-de-carne","unitPriceLabel":"24,9 Lei/kg","brand":"Whiskas","brandCode":"620","brandFilterCode":"whiskas-b621","sku":"100062481","price":2.49,"originalPrice":null,"currencyCode":"RON","currency":"Lei","image":{"thumbnail":{"default":"https://cdn.freshful.ro/media/cache/sylius_shop_product_thumbnail/00/2e/ed17c42689494f23db02beb8b1be.jpg"},"large":{"default":"https://cdn.freshful.ro/media/cache/freshful_large/00/2e/ed17c42689494f23db02beb8b1be.jpg"},"extralarge":{"default":"https://cdn.freshful.ro/media/cache/sylius_shop_product_original/00/2e/ed17c42689494f23db02beb8b1be.jpg"}},"label":null,"tags":[],"isAvailable":true,"maxAvailableQuantity":100,"maxAllowedQuantity":100,"breadcrumbs":[{"code":"15","name":"Pet Shop","slug":"15-pet-shop"},{"code":"1501","name":"Pisici","slug":"1501-pisici"},{"code":"150101","name":"Hrană umedă pisici","slug":"150101-hrana-umeda-pisici"},{"code":"100062481","name":"Hrană umedă pentru pisici adulte, 100g, cu vită în sos de carne ","slug":"100062481-whiskas-hrana-umeda-pentru-pisici-adulte-100g-cu-vita-in-sos-de-carne"}],"activePromotion":null,"saveMe":null,"labels":[],"geniusPrice":null,"geniusUnitPricePerLabel":null,"banner":null,"discountLabel":null,"geniusDiscountLabel":null,"badge":null},{"code":"100124245","variantCode":"100124245","name":"Hrană umedă pentru pisici, 4x85g, Multipack mini fileuri în sos, rață, curcan, miel și ton","slug":"100124245-gourmet-perle-hrana-umeda-pentru-pisici-4x85g-multipack-mini-fileuri-in-sos-rata-curcan-miel-si-ton","unitPriceLabel":"35,34 Lei/kg","brand":"Gourmet Perle","brandCode":"2212","brandFilterCode":"gourmet-perle-b2216","sku":"100124245","price":12.9,"originalPrice":null,"currencyCode":"RON","currency":"Lei","image":{"thumbnail":{"default":"https://cdn.freshful.ro/media/cache/sylius_shop_product_thumbnail/4c/e5/5b9d4bae6c761c5184d0d9e9ec0d.jpg"},"large":{"default":"https://cdn.freshful.ro/media/cache/freshful_large/4c/e5/5b9d4bae6c761c5184d0d9e9ec0d.jpg"},"extralarge":{"default":"https://cdn.freshful.ro/media/cache/sylius_shop_product_original/4c/e5/5b9d4bae6c761c5184d0d9e9ec0d.jpg"}},"label":null,"tags":[],"isAvailable":true,"maxAvailableQuantity":100,"maxAllowedQuantity":100,"breadcrumbs":[{"code":"15","name":"Pet Shop","slug":"15-pet-shop"},{"code":"1501","name":"Pisici","slug":"1501-pisici"},{"code":"150101","name":"Hrană umedă pisici","slug":"150101-hrana-umeda-pisici"},{"code":"100124245","name":"Hrană umedă pentru pisici, 4x85g, Multipack mini fileuri în sos, rață, curcan, miel și ton","slug":"100124245-gourmet-perle-hrana-umeda-pentru-pisici-4x85g-multipack-mini-fileuri-in-sos-rata-curcan-miel-si-ton"}],"activePromotion":null,"saveMe":null,"labels":[],"geniusPrice":null,"geniusUnitPricePerLabel":null,"banner":null,"discountLabel":null,"geniusDiscountLabel":null,"badge":null}],"filters":{"countSelected":0,"items":[{"code":"promotion","name":"Promoții","countSelected":0,"values":[{"code":"freshful-top-deals-2023","name":"Profită de Top Deals","isSelected":false,"count":1}]},{"code":"brand","name":"Brand","countSelected":0,"values":[{"code":"butcher-s-b1605","name":"Butcher's","isSelected":false,"count":10},{"code":"felix-fantastic-b2218","name":"Felix Fantastic","isSelected":false,"count":12},{"code":"felix-junior-b2217","name":"Felix Junior","isSelected":false,"count":2},{"code":"friskies-b2211","name":"Friskies","isSelected":false,"count":3},{"code":"gourmet-gold-b2214","name":"Gourmet Gold","isSelected":false,"count":14},{"code":"gourmet-mon-petit-b2215","name":"Gourmet Mon Petit","isSelected":false,"count":2},{"code":"gourmet-nature-s-creation-b2676","name":"Gourmet Nature's Creation","isSelected":false,"count":4},{"code":"gourmet-perle-b2216","name":"Gourmet Perle","isSelected":false,"count":4},{"code":"king-b1057","name":"King","isSelected":false,"count":1},{"code":"kitekat-b254","name":"Kitekat","isSelected":false,"count":4},{"code":"miau-miau-b2731","name":"Miau Miau","isSelected":false,"count":7},{"code":"mr-biffy-b1607","name":"Mr. Biffy","isSelected":false,"count":1},{"code":"one-mini-b2212","name":"One Mini","isSelected":false,"count":1},{"code":"perfect-fit-b257","name":"Perfect Fit","isSelected":false,"count":2},{"code":"piper-b1474","name":"Piper","isSelected":false,"count":1},{"code":"plaisir-b1606","name":"Plaisir","isSelected":false,"count":6},{"code":"purina-b2452","name":"Purina","isSelected":false,"count":5},{"code":"raw-paleo-b1475","name":"Raw Paleo","isSelected":false,"count":2},{"code":"royal-canin-b2721","name":"Royal Canin","isSelected":false,"count":1},{"code":"sheba-b258","name":"Sheba","isSelected":false,"count":16},{"code":"whiskas-b621","name":"Whiskas","isSelected":false,"count":31},{"code":"equilibre-instinct-b1575","name":"Équilibre&Instinct","isSelected":false,"count":7}]},{"code":"diet_lifestyle","name":"Dietă și lifestyle","countSelected":0,"values":[{"code":"eco-a83","name":"Eco","isSelected":false,"count":3},{"code":"fara-conservanti-a37","name":"Fara conservanti","isSelected":false,"count":15},{"code":"fara-gluten-a16","name":"Fara gluten","isSelected":false,"count":4}]}]},"orderBy":[{"field":"price","direction":"asc","name":"Preț crescător","isSelected":false},{"field":"price","direction":"desc","name":"Preț descrescător","isSelected":false},{"field":"popularity","direction":"desc","name":"Cele mai populare","isSelected":true},{"field":"category","direction":"asc","name":"Categorie","isSelected":false}],"metaTitle":"Hrană umedă pisici - Gamă variată","metaDescription":"Vrei Hrană umedă pisici? Alege dintr-o gamă variată. Comanzi simplu și ai livrare rapidă, calitate și prospețime. Hai pe Freshful.ro","metaKeywords":null,"banners":[]}}