{"type":"subcategory","payload":{"analyticsListId":"category_150105-accesorii-pisici","analyticsListName":"Category - Accesorii pisici","name":"Accesorii pisici","slug":"150105-accesorii-pisici","image":null,"breadcrumbs":[{"code":"15","name":"Pet Shop","slug":"15-pet-shop"},{"code":"1501","name":"Pisici","slug":"1501-pisici"},{"code":"150105","name":"Accesorii pisici","slug":"150105-accesorii-pisici"}],"slots":[],"page":1,"limit":10,"pages":2,"count":15,"siblings":[{"name":"Pisici","slug":"1501-pisici","selected":true},{"name":"Câini","slug":"1502-caini","selected":false},{"name":"Păsări și rozătoare","slug":"1503-pasari-si-rozatoare","selected":false},{"name":"Pești și țestoase","slug":"1504-pesti-si-testoase","selected":false}],"children":[{"name":"Toate produsele","slug":"1501-pisici","selected":false},{"name":"Hrană umedă pisici","slug":"150101-hrana-umeda-pisici","selected":false},{"name":"Hrană uscată pisici","slug":"150102-hrana-uscata-pisici","selected":false},{"name":"Biscuiți și recompense pisici","slug":"150103-biscuiti-si-recompense-pisici","selected":false},{"name":"Așternuturi pisici","slug":"150104-asternuturi-pisici","selected":false},{"name":"Accesorii pisici","slug":"150105-accesorii-pisici","selected":true}],"products":[{"code":"100141984","variantCode":"100141984","name":"Lopățică litieră 25x11x2cm","slug":"100141984-no-brand-lopatica-litiera-25x11x2cm","unitPriceLabel":"","brand":"Stefanplast","brandCode":"2728","brandFilterCode":"stefanplast-b2734","sku":"100141984","price":4.59,"originalPrice":null,"currencyCode":"RON","currency":"Lei","image":{"thumbnail":{"default":"https://cdn.freshful.ro/media/cache/sylius_shop_product_thumbnail/e8/f0/30f72cbd148b792ae72f39c6d9b2.jpg"},"large":{"default":"https://cdn.freshful.ro/media/cache/freshful_large/e8/f0/30f72cbd148b792ae72f39c6d9b2.jpg"},"extralarge":{"default":"https://cdn.freshful.ro/media/cache/sylius_shop_product_original/e8/f0/30f72cbd148b792ae72f39c6d9b2.jpg"}},"label":null,"tags":[],"isAvailable":true,"maxAvailableQuantity":5,"maxAllowedQuantity":100,"breadcrumbs":[{"code":"15","name":"Pet Shop","slug":"15-pet-shop"},{"code":"1501","name":"Pisici","slug":"1501-pisici"},{"code":"150105","name":"Accesorii pisici","slug":"150105-accesorii-pisici"},{"code":"100141984","name":"Lopățică litieră 25x11x2cm","slug":"100141984-no-brand-lopatica-litiera-25x11x2cm"}],"activePromotion":null,"saveMe":null,"labels":[],"geniusPrice":null,"geniusUnitPricePerLabel":null,"banner":null,"discountLabel":null,"geniusDiscountLabel":null,"badge":null},{"code":"100132435","variantCode":"100132435","name":"Șervețele antibacteriene pentru igiena zilnică a animalelor de companie - aloe vera 80 buc","slug":"100132435-absorb-plus-servetele-antibacteriene-pentru-igiena-zilnica-a-animalelor-de-companie-aloe-vera-80-buc","unitPriceLabel":"","brand":"Absorb Plus","brandCode":"2488","brandFilterCode":"absorb-plus-b2492","sku":"100132435","price":24.72,"originalPrice":null,"currencyCode":"RON","currency":"Lei","image":{"thumbnail":{"default":"https://cdn.freshful.ro/media/cache/sylius_shop_product_thumbnail/c8/ab/6e9dbd1b519545dd169e9df442e6.jpg"},"large":{"default":"https://cdn.freshful.ro/media/cache/freshful_large/c8/ab/6e9dbd1b519545dd169e9df442e6.jpg"},"extralarge":{"default":"https://cdn.freshful.ro/media/cache/sylius_shop_product_original/c8/ab/6e9dbd1b519545dd169e9df442e6.jpg"}},"label":null,"tags":[],"isAvailable":true,"maxAvailableQuantity":9,"maxAllowedQuantity":100,"breadcrumbs":[{"code":"15","name":"Pet Shop","slug":"15-pet-shop"},{"code":"1501","name":"Pisici","slug":"1501-pisici"},{"code":"150105","name":"Accesorii pisici","slug":"150105-accesorii-pisici"},{"code":"100132435","name":"Șervețele antibacteriene pentru igiena zilnică a animalelor de companie - aloe vera 80 buc","slug":"100132435-absorb-plus-servetele-antibacteriene-pentru-igiena-zilnica-a-animalelor-de-companie-aloe-vera-80-buc"}],"activePromotion":null,"saveMe":null,"labels":[],"geniusPrice":null,"geniusUnitPricePerLabel":null,"banner":null,"discountLabel":null,"geniusDiscountLabel":null,"badge":null},{"code":"100132439","variantCode":"100132439","name":"Șervețele umede pentru igiena zilnică a pisicilor","slug":"100132439-absorb-plus-servetele-umede-pentru-igiena-zilnica-a-pisicilor","unitPriceLabel":"","brand":"Absorb Plus","brandCode":"2488","brandFilterCode":"absorb-plus-b2492","sku":"100132439","price":30.9,"originalPrice":null,"currencyCode":"RON","currency":"Lei","image":{"thumbnail":{"default":"https://cdn.freshful.ro/media/cache/sylius_shop_product_thumbnail/01/bc/1d9774598fae0f94bca1fc8eec71.jpg"},"large":{"default":"https://cdn.freshful.ro/media/cache/freshful_large/01/bc/1d9774598fae0f94bca1fc8eec71.jpg"},"extralarge":{"default":"https://cdn.freshful.ro/media/cache/sylius_shop_product_original/01/bc/1d9774598fae0f94bca1fc8eec71.jpg"}},"label":null,"tags":[],"isAvailable":true,"maxAvailableQuantity":10,"maxAllowedQuantity":100,"breadcrumbs":[{"code":"15","name":"Pet Shop","slug":"15-pet-shop"},{"code":"1501","name":"Pisici","slug":"1501-pisici"},{"code":"150105","name":"Accesorii pisici","slug":"150105-accesorii-pisici"},{"code":"100132439","name":"Șervețele umede pentru igiena zilnică a pisicilor","slug":"100132439-absorb-plus-servetele-umede-pentru-igiena-zilnica-a-pisicilor"}],"activePromotion":null,"saveMe":null,"labels":[],"geniusPrice":null,"geniusUnitPricePerLabel":null,"banner":null,"discountLabel":null,"geniusDiscountLabel":null,"badge":null},{"code":"100132436","variantCode":"100132436","name":"Șervețele umede pentru igiena zilnică a animalelor de companie 80 buc","slug":"100132436-absorb-plus-servetele-umede-pentru-igiena-zilnica-a-animalelor-de-companie-80-buc","unitPriceLabel":"","brand":"Absorb Plus","brandCode":"2488","brandFilterCode":"absorb-plus-b2492","sku":"100132436","price":30.9,"originalPrice":null,"currencyCode":"RON","currency":"Lei","image":{"thumbnail":{"default":"https://cdn.freshful.ro/media/cache/sylius_shop_product_thumbnail/2a/37/dc5274e45073471b42df59625e94.jpg"},"large":{"default":"https://cdn.freshful.ro/media/cache/freshful_large/2a/37/dc5274e45073471b42df59625e94.jpg"},"extralarge":{"default":"https://cdn.freshful.ro/media/cache/sylius_shop_product_original/2a/37/dc5274e45073471b42df59625e94.jpg"}},"label":null,"tags":[],"isAvailable":true,"maxAvailableQuantity":12,"maxAllowedQuantity":100,"breadcrumbs":[{"code":"15","name":"Pet Shop","slug":"15-pet-shop"},{"code":"1501","name":"Pisici","slug":"1501-pisici"},{"code":"150105","name":"Accesorii pisici","slug":"150105-accesorii-pisici"},{"code":"100132436","name":"Șervețele umede pentru igiena zilnică a animalelor de companie 80 buc","slug":"100132436-absorb-plus-servetele-umede-pentru-igiena-zilnica-a-animalelor-de-companie-80-buc"}],"activePromotion":null,"saveMe":null,"labels":[],"geniusPrice":null,"geniusUnitPricePerLabel":null,"banner":null,"discountLabel":null,"geniusDiscountLabel":null,"badge":null},{"code":"100138517","variantCode":"100138517","name":"Jucărie pentru pisici","slug":"100138517-dinah-jucarie-pentru-pisici","unitPriceLabel":"","brand":"Dinah","brandCode":"2655","brandFilterCode":"dinah-b2659","sku":"100138517","price":31.48,"originalPrice":null,"currencyCode":"RON","currency":"Lei","image":{"thumbnail":{"default":"https://cdn.freshful.ro/media/cache/sylius_shop_product_thumbnail/6d/e2/efc62c2ca6f88504ebfee6976a8c.jpg"},"large":{"default":"https://cdn.freshful.ro/media/cache/freshful_large/6d/e2/efc62c2ca6f88504ebfee6976a8c.jpg"},"extralarge":{"default":"https://cdn.freshful.ro/media/cache/sylius_shop_product_original/6d/e2/efc62c2ca6f88504ebfee6976a8c.jpg"}},"label":null,"tags":[],"isAvailable":true,"maxAvailableQuantity":11,"maxAllowedQuantity":100,"breadcrumbs":[{"code":"15","name":"Pet Shop","slug":"15-pet-shop"},{"code":"1501","name":"Pisici","slug":"1501-pisici"},{"code":"150105","name":"Accesorii pisici","slug":"150105-accesorii-pisici"},{"code":"100138517","name":"Jucărie pentru pisici","slug":"100138517-dinah-jucarie-pentru-pisici"}],"activePromotion":null,"saveMe":null,"labels":[],"geniusPrice":null,"geniusUnitPricePerLabel":null,"banner":null,"discountLabel":null,"geniusDiscountLabel":null,"badge":null},{"code":"100132438","variantCode":"100132438","name":"Șervețele umede pentru pisici-lămâie","slug":"100132438-absorb-plus-servetele-umede-pentru-pisici-lamaie","unitPriceLabel":"","brand":"Absorb Plus","brandCode":"2488","brandFilterCode":"absorb-plus-b2492","sku":"100132438","price":30.9,"originalPrice":null,"currencyCode":"RON","currency":"Lei","image":{"thumbnail":{"default":"https://cdn.freshful.ro/media/cache/sylius_shop_product_thumbnail/1a/26/606814f4b00c242e709d21e3fd7f.jpg"},"large":{"default":"https://cdn.freshful.ro/media/cache/freshful_large/1a/26/606814f4b00c242e709d21e3fd7f.jpg"},"extralarge":{"default":"https://cdn.freshful.ro/media/cache/sylius_shop_product_original/1a/26/606814f4b00c242e709d21e3fd7f.jpg"}},"label":null,"tags":[],"isAvailable":true,"maxAvailableQuantity":6,"maxAllowedQuantity":100,"breadcrumbs":[{"code":"15","name":"Pet Shop","slug":"15-pet-shop"},{"code":"1501","name":"Pisici","slug":"1501-pisici"},{"code":"150105","name":"Accesorii pisici","slug":"150105-accesorii-pisici"},{"code":"100132438","name":"Șervețele umede pentru pisici-lămâie","slug":"100132438-absorb-plus-servetele-umede-pentru-pisici-lamaie"}],"activePromotion":null,"saveMe":null,"labels":[],"geniusPrice":null,"geniusUnitPricePerLabel":null,"banner":null,"discountLabel":null,"geniusDiscountLabel":null,"badge":null},{"code":"100142927","variantCode":"100142927","name":"Șampon pentru pisici, aromă de lămâie 250ml","slug":"100142927-no-brand-sampon-pentru-pisici-aroma-de-lamaie-250ml","unitPriceLabel":"42,72 Lei/l","brand":null,"brandCode":null,"brandFilterCode":"no-brand-b83","sku":"100142927","price":10.68,"originalPrice":null,"currencyCode":"RON","currency":"Lei","image":{"thumbnail":{"default":"https://cdn.freshful.ro/media/cache/sylius_shop_product_thumbnail/fa/40/f6c0232d76243a179e03a5fd066b.jpg"},"large":{"default":"https://cdn.freshful.ro/media/cache/freshful_large/fa/40/f6c0232d76243a179e03a5fd066b.jpg"},"extralarge":{"default":"https://cdn.freshful.ro/media/cache/sylius_shop_product_original/fa/40/f6c0232d76243a179e03a5fd066b.jpg"}},"label":null,"tags":[],"isAvailable":true,"maxAvailableQuantity":7,"maxAllowedQuantity":100,"breadcrumbs":[{"code":"15","name":"Pet Shop","slug":"15-pet-shop"},{"code":"1501","name":"Pisici","slug":"1501-pisici"},{"code":"150105","name":"Accesorii pisici","slug":"150105-accesorii-pisici"},{"code":"100142927","name":"Șampon pentru pisici, aromă de lămâie 250ml","slug":"100142927-no-brand-sampon-pentru-pisici-aroma-de-lamaie-250ml"}],"activePromotion":null,"saveMe":null,"labels":[],"geniusPrice":null,"geniusUnitPricePerLabel":null,"banner":null,"discountLabel":null,"geniusDiscountLabel":null,"badge":null},{"code":"100132434","variantCode":"100132434","name":"Șervețele antibacteriene - câini 80 buc","slug":"100132434-absorb-plus-servetele-antibacteriene-caini-80-buc","unitPriceLabel":"","brand":"Absorb Plus","brandCode":"2488","brandFilterCode":"absorb-plus-b2492","sku":"100132434","price":24.72,"originalPrice":null,"currencyCode":"RON","currency":"Lei","image":{"thumbnail":{"default":"https://cdn.freshful.ro/media/cache/sylius_shop_product_thumbnail/cb/ed/5a1f5648ebc5872d6e3f7ea40e69.jpg"},"large":{"default":"https://cdn.freshful.ro/media/cache/freshful_large/cb/ed/5a1f5648ebc5872d6e3f7ea40e69.jpg"},"extralarge":{"default":"https://cdn.freshful.ro/media/cache/sylius_shop_product_original/cb/ed/5a1f5648ebc5872d6e3f7ea40e69.jpg"}},"label":null,"tags":[],"isAvailable":true,"maxAvailableQuantity":8,"maxAllowedQuantity":100,"breadcrumbs":[{"code":"15","name":"Pet Shop","slug":"15-pet-shop"},{"code":"1501","name":"Pisici","slug":"1501-pisici"},{"code":"150105","name":"Accesorii pisici","slug":"150105-accesorii-pisici"},{"code":"100132434","name":"Șervețele antibacteriene - câini 80 buc","slug":"100132434-absorb-plus-servetele-antibacteriene-caini-80-buc"}],"activePromotion":null,"saveMe":null,"labels":[],"geniusPrice":null,"geniusUnitPricePerLabel":null,"banner":null,"discountLabel":null,"geniusDiscountLabel":null,"badge":null},{"code":"100132437","variantCode":"100132437","name":"Șervețele umede pentru igiena zilnică a animalelor de companie - aloe vera 80 buc","slug":"100132437-absorb-plus-servetele-umede-pentru-igiena-zilnica-a-animalelor-de-companie-aloe-vera-80-buc","unitPriceLabel":"","brand":"Absorb Plus","brandCode":"2488","brandFilterCode":"absorb-plus-b2492","sku":"100132437","price":30.9,"originalPrice":null,"currencyCode":"RON","currency":"Lei","image":{"thumbnail":{"default":"https://cdn.freshful.ro/media/cache/sylius_shop_product_thumbnail/db/36/111671b9faecb853d289340d6d92.jpg"},"large":{"default":"https://cdn.freshful.ro/media/cache/freshful_large/db/36/111671b9faecb853d289340d6d92.jpg"},"extralarge":{"default":"https://cdn.freshful.ro/media/cache/sylius_shop_product_original/db/36/111671b9faecb853d289340d6d92.jpg"}},"label":null,"tags":[],"isAvailable":true,"maxAvailableQuantity":14,"maxAllowedQuantity":100,"breadcrumbs":[{"code":"15","name":"Pet Shop","slug":"15-pet-shop"},{"code":"1501","name":"Pisici","slug":"1501-pisici"},{"code":"150105","name":"Accesorii pisici","slug":"150105-accesorii-pisici"},{"code":"100132437","name":"Șervețele umede pentru igiena zilnică a animalelor de companie - aloe vera 80 buc","slug":"100132437-absorb-plus-servetele-umede-pentru-igiena-zilnica-a-animalelor-de-companie-aloe-vera-80-buc"}],"activePromotion":null,"saveMe":null,"labels":[],"geniusPrice":null,"geniusUnitPricePerLabel":null,"banner":null,"discountLabel":null,"geniusDiscountLabel":null,"badge":null},{"code":"100138496","variantCode":"100138496","name":"Spray ultra-amar pentru educare 118ml","slug":"100138496-foey-spray-ultra-amar-pentru-educare-118ml","unitPriceLabel":"249,25 Lei/kg","brand":"Foey","brandCode":"2645","brandFilterCode":"foey-b2649","sku":"100138496","price":29.91,"originalPrice":null,"currencyCode":"RON","currency":"Lei","image":{"thumbnail":{"default":"https://cdn.freshful.ro/media/cache/sylius_shop_product_thumbnail/e4/3d/4a06049f2f6fb4c4e59a9f895fd9.jpg"},"large":{"default":"https://cdn.freshful.ro/media/cache/freshful_large/e4/3d/4a06049f2f6fb4c4e59a9f895fd9.jpg"},"extralarge":{"default":"https://cdn.freshful.ro/media/cache/sylius_shop_product_original/e4/3d/4a06049f2f6fb4c4e59a9f895fd9.jpg"}},"label":null,"tags":[],"isAvailable":true,"maxAvailableQuantity":5,"maxAllowedQuantity":100,"breadcrumbs":[{"code":"15","name":"Pet Shop","slug":"15-pet-shop"},{"code":"1501","name":"Pisici","slug":"1501-pisici"},{"code":"150105","name":"Accesorii pisici","slug":"150105-accesorii-pisici"},{"code":"100138496","name":"Spray ultra-amar pentru educare 118ml","slug":"100138496-foey-spray-ultra-amar-pentru-educare-118ml"}],"activePromotion":null,"saveMe":null,"labels":[],"geniusPrice":null,"geniusUnitPricePerLabel":null,"banner":null,"discountLabel":null,"geniusDiscountLabel":null,"badge":null}],"filters":{"countSelected":0,"items":[{"code":"brand","name":"Brand","countSelected":0,"values":[{"code":"absorb-plus-b2492","name":"Absorb Plus","isSelected":false,"count":6},{"code":"dinah-b2659","name":"Dinah","isSelected":false,"count":1},{"code":"foey-b2649","name":"Foey","isSelected":false,"count":1},{"code":"furminator-b1044","name":"Furminator","isSelected":false,"count":2},{"code":"shed-x-b2073","name":"Shed-X","isSelected":false,"count":1},{"code":"stefanplast-b2734","name":"Stefanplast","isSelected":false,"count":1},{"code":"supreme-clean-b1577","name":"Supreme Clean","isSelected":false,"count":2}]}]},"orderBy":[{"field":"price","direction":"asc","name":"Preț crescător","isSelected":false},{"field":"price","direction":"desc","name":"Preț descrescător","isSelected":false},{"field":"popularity","direction":"desc","name":"Cele mai populare","isSelected":true},{"field":"category","direction":"asc","name":"Categorie","isSelected":false}],"metaTitle":"Accesorii pisici - Gamă variată","metaDescription":"Vrei Accesorii pisici? Alege dintr-o gamă variată. Comanzi simplu și ai livrare rapidă, calitate și prospețime. Hai pe Freshful.ro","metaKeywords":null,"banners":[]}}