{"type":"subcategory","payload":{"analyticsListId":"category_150102-hrana-uscata-pisici","analyticsListName":"Category - Hrană uscată pisici","name":"Hrană uscată pisici","slug":"150102-hrana-uscata-pisici","image":null,"breadcrumbs":[{"code":"15","name":"Pet Shop","slug":"15-pet-shop"},{"code":"1501","name":"Pisici","slug":"1501-pisici"},{"code":"150102","name":"Hrană uscată pisici","slug":"150102-hrana-uscata-pisici"}],"slots":[],"page":1,"limit":10,"pages":6,"count":60,"siblings":[{"name":"Pisici","slug":"1501-pisici","selected":true},{"name":"Câini","slug":"1502-caini","selected":false},{"name":"Păsări și rozătoare","slug":"1503-pasari-si-rozatoare","selected":false},{"name":"Pești și țestoase","slug":"1504-pesti-si-testoase","selected":false}],"children":[{"name":"Toate produsele","slug":"1501-pisici","selected":false},{"name":"Hrană umedă pisici","slug":"150101-hrana-umeda-pisici","selected":false},{"name":"Hrană uscată pisici","slug":"150102-hrana-uscata-pisici","selected":true},{"name":"Biscuiți și recompense pisici","slug":"150103-biscuiti-si-recompense-pisici","selected":false},{"name":"Așternuturi pisici","slug":"150104-asternuturi-pisici","selected":false},{"name":"Accesorii pisici","slug":"150105-accesorii-pisici","selected":false}],"products":[{"code":"100062467","variantCode":"100062467","name":"Hrană uscată pentru pisici junior, 800g, cu pui ","slug":"100062467-whiskas-hrana-uscata-pentru-pisici-junior-800g-cu-pui","unitPriceLabel":"18,63 Lei/kg","brand":"Whiskas","brandCode":"620","brandFilterCode":"whiskas-b621","sku":"100062467","price":14.9,"originalPrice":null,"currencyCode":"RON","currency":"Lei","image":{"thumbnail":{"default":"https://cdn.freshful.ro/media/cache/sylius_shop_product_thumbnail/95/d3/e0257baf4e64a0d5d733b97cff07.jpg"},"large":{"default":"https://cdn.freshful.ro/media/cache/freshful_large/95/d3/e0257baf4e64a0d5d733b97cff07.jpg"},"extralarge":{"default":"https://cdn.freshful.ro/media/cache/sylius_shop_product_original/95/d3/e0257baf4e64a0d5d733b97cff07.jpg"}},"label":{"text":"Profită acum","backgroundColor":"#FF9903","textColor":"#FFFFFF"},"tags":[],"isAvailable":true,"maxAvailableQuantity":26,"maxAllowedQuantity":100,"breadcrumbs":[{"code":"15","name":"Pet Shop","slug":"15-pet-shop"},{"code":"1501","name":"Pisici","slug":"1501-pisici"},{"code":"150102","name":"Hrană uscată pisici","slug":"150102-hrana-uscata-pisici"},{"code":"100062467","name":"Hrană uscată pentru pisici junior, 800g, cu pui ","slug":"100062467-whiskas-hrana-uscata-pentru-pisici-junior-800g-cu-pui"}],"activePromotion":{"code":"freshful-top-deals-2023","name":"Preț avantajos","targetQuantity":null},"saveMe":null,"labels":[{"type":"v1","items":[{"text":"Profită acum","backgroundColor":"#FF9903","textColor":"#FFFFFF"}]}],"geniusPrice":null,"geniusUnitPricePerLabel":null,"banner":{"text":"Preț avantajos","textColor":"#F95510","bgColor":"#FEF1CD","icon":null,"link":"https://www.freshful.ro/oferte/freshful-top-deals-2023","type":"promo","analyticsEventType":"select_promotion","analyticsEventPayload":{"promotion_id":"freshful-top-deals-2023","promotion_name":"Profită de Top Deals"}},"discountLabel":null,"geniusDiscountLabel":null,"badge":null},{"code":"100062463","variantCode":"100062463","name":"Hrană uscată pentru pisici adulte 1.4kg, cu pui ","slug":"100062463-whiskas-hrana-uscata-pentru-pisici-adulte-1-4kg-cu-pui","unitPriceLabel":"15,35 Lei/kg","brand":"Whiskas","brandCode":"620","brandFilterCode":"whiskas-b621","sku":"100062463","price":21.49,"originalPrice":null,"currencyCode":"RON","currency":"Lei","image":{"thumbnail":{"default":"https://cdn.freshful.ro/media/cache/sylius_shop_product_thumbnail/3a/68/9060bbe3abcdab427917642f0d5f.jpg"},"large":{"default":"https://cdn.freshful.ro/media/cache/freshful_large/3a/68/9060bbe3abcdab427917642f0d5f.jpg"},"extralarge":{"default":"https://cdn.freshful.ro/media/cache/sylius_shop_product_original/3a/68/9060bbe3abcdab427917642f0d5f.jpg"}},"label":null,"tags":[],"isAvailable":true,"maxAvailableQuantity":100,"maxAllowedQuantity":100,"breadcrumbs":[{"code":"15","name":"Pet Shop","slug":"15-pet-shop"},{"code":"1501","name":"Pisici","slug":"1501-pisici"},{"code":"150102","name":"Hrană uscată pisici","slug":"150102-hrana-uscata-pisici"},{"code":"100062463","name":"Hrană uscată pentru pisici adulte 1.4kg, cu pui ","slug":"100062463-whiskas-hrana-uscata-pentru-pisici-adulte-1-4kg-cu-pui"}],"activePromotion":null,"saveMe":null,"labels":[],"geniusPrice":null,"geniusUnitPricePerLabel":null,"banner":null,"discountLabel":null,"geniusDiscountLabel":null,"badge":null},{"code":"100124268","variantCode":"100124268","name":"Hrană uscată pentru pisici sterilizate, 800g, One cu vită și grâu","slug":"100124268-purina-hrana-uscata-pentru-pisici-sterilizate-800g-one-cu-vita-si-grau","unitPriceLabel":"27,34 Lei/kg","brand":"Purina","brandCode":"2448","brandFilterCode":"purina-b2452","sku":"100124268","price":22.69,"originalPrice":null,"currencyCode":"RON","currency":"Lei","image":{"thumbnail":{"default":"https://cdn.freshful.ro/media/cache/sylius_shop_product_thumbnail/07/61/bbec0e90375d57e3cf87f283fd42.jpg"},"large":{"default":"https://cdn.freshful.ro/media/cache/freshful_large/07/61/bbec0e90375d57e3cf87f283fd42.jpg"},"extralarge":{"default":"https://cdn.freshful.ro/media/cache/sylius_shop_product_original/07/61/bbec0e90375d57e3cf87f283fd42.jpg"}},"label":null,"tags":[],"isAvailable":true,"maxAvailableQuantity":100,"maxAllowedQuantity":100,"breadcrumbs":[{"code":"15","name":"Pet Shop","slug":"15-pet-shop"},{"code":"1501","name":"Pisici","slug":"1501-pisici"},{"code":"150102","name":"Hrană uscată pisici","slug":"150102-hrana-uscata-pisici"},{"code":"100124268","name":"Hrană uscată pentru pisici sterilizate, 800g, One cu vită și grâu","slug":"100124268-purina-hrana-uscata-pentru-pisici-sterilizate-800g-one-cu-vita-si-grau"}],"activePromotion":null,"saveMe":null,"labels":[],"geniusPrice":null,"geniusUnitPricePerLabel":null,"banner":null,"discountLabel":null,"geniusDiscountLabel":null,"badge":null},{"code":"100124270","variantCode":"100124270","name":"Hrană uscată pentru pisici adulte, 800g, One Bifensis Indoor, curcan și cereale integrale","slug":"100124270-purina-hrana-uscata-pentru-pisici-adulte-800g-one-bifensis-indoor-curcan-si-cereale-integrale","unitPriceLabel":"27,11 Lei/kg","brand":"Purina","brandCode":"2448","brandFilterCode":"purina-b2452","sku":"100124270","price":22.5,"originalPrice":null,"currencyCode":"RON","currency":"Lei","image":{"thumbnail":{"default":"https://cdn.freshful.ro/media/cache/sylius_shop_product_thumbnail/46/71/a1b57d0d49aebc2be4fb27fe125e.jpg"},"large":{"default":"https://cdn.freshful.ro/media/cache/freshful_large/46/71/a1b57d0d49aebc2be4fb27fe125e.jpg"},"extralarge":{"default":"https://cdn.freshful.ro/media/cache/sylius_shop_product_original/46/71/a1b57d0d49aebc2be4fb27fe125e.jpg"}},"label":null,"tags":[],"isAvailable":true,"maxAvailableQuantity":49,"maxAllowedQuantity":100,"breadcrumbs":[{"code":"15","name":"Pet Shop","slug":"15-pet-shop"},{"code":"1501","name":"Pisici","slug":"1501-pisici"},{"code":"150102","name":"Hrană uscată pisici","slug":"150102-hrana-uscata-pisici"},{"code":"100124270","name":"Hrană uscată pentru pisici adulte, 800g, One Bifensis Indoor, curcan și cereale integrale","slug":"100124270-purina-hrana-uscata-pentru-pisici-adulte-800g-one-bifensis-indoor-curcan-si-cereale-integrale"}],"activePromotion":null,"saveMe":null,"labels":[],"geniusPrice":null,"geniusUnitPricePerLabel":null,"banner":null,"discountLabel":null,"geniusDiscountLabel":null,"badge":null},{"code":"100124269","variantCode":"100124269","name":"Hrană uscată pentru pisici adulte, 800g, One Sensitive cu curcan și orez","slug":"100124269-purina-hrana-uscata-pentru-pisici-adulte-800g-one-sensitive-cu-curcan-si-orez","unitPriceLabel":"27,11 Lei/kg","brand":"Purina","brandCode":"2448","brandFilterCode":"purina-b2452","sku":"100124269","price":22.5,"originalPrice":null,"currencyCode":"RON","currency":"Lei","image":{"thumbnail":{"default":"https://cdn.freshful.ro/media/cache/sylius_shop_product_thumbnail/ec/85/4b0d2ae12f2123ebe3df4c5edcf5.jpg"},"large":{"default":"https://cdn.freshful.ro/media/cache/freshful_large/ec/85/4b0d2ae12f2123ebe3df4c5edcf5.jpg"},"extralarge":{"default":"https://cdn.freshful.ro/media/cache/sylius_shop_product_original/ec/85/4b0d2ae12f2123ebe3df4c5edcf5.jpg"}},"label":null,"tags":[],"isAvailable":true,"maxAvailableQuantity":73,"maxAllowedQuantity":100,"breadcrumbs":[{"code":"15","name":"Pet Shop","slug":"15-pet-shop"},{"code":"1501","name":"Pisici","slug":"1501-pisici"},{"code":"150102","name":"Hrană uscată pisici","slug":"150102-hrana-uscata-pisici"},{"code":"100124269","name":"Hrană uscată pentru pisici adulte, 800g, One Sensitive cu curcan și orez","slug":"100124269-purina-hrana-uscata-pentru-pisici-adulte-800g-one-sensitive-cu-curcan-si-orez"}],"activePromotion":null,"saveMe":null,"labels":[],"geniusPrice":null,"geniusUnitPricePerLabel":null,"banner":null,"discountLabel":null,"geniusDiscountLabel":null,"badge":null},{"code":"100062434","variantCode":"100062434","name":"Hrană uscată pentru pisici sterilizate, 1.4kg, de curcan","slug":"100062434-perfect-fit-hrana-uscata-pentru-pisici-sterilizate-1-4kg-de-curcan","unitPriceLabel":"26,35 Lei/kg","brand":"Perfect Fit","brandCode":"256","brandFilterCode":"perfect-fit-b257","sku":"100062434","price":36.89,"originalPrice":null,"currencyCode":"RON","currency":"Lei","image":{"thumbnail":{"default":"https://cdn.freshful.ro/media/cache/sylius_shop_product_thumbnail/48/f8/5843637597c98769c8aacf9d4481.jpg"},"large":{"default":"https://cdn.freshful.ro/media/cache/freshful_large/48/f8/5843637597c98769c8aacf9d4481.jpg"},"extralarge":{"default":"https://cdn.freshful.ro/media/cache/sylius_shop_product_original/48/f8/5843637597c98769c8aacf9d4481.jpg"}},"label":null,"tags":[],"isAvailable":true,"maxAvailableQuantity":53,"maxAllowedQuantity":100,"breadcrumbs":[{"code":"15","name":"Pet Shop","slug":"15-pet-shop"},{"code":"1501","name":"Pisici","slug":"1501-pisici"},{"code":"150102","name":"Hrană uscată pisici","slug":"150102-hrana-uscata-pisici"},{"code":"100062434","name":"Hrană uscată pentru pisici sterilizate, 1.4kg, de curcan","slug":"100062434-perfect-fit-hrana-uscata-pentru-pisici-sterilizate-1-4kg-de-curcan"}],"activePromotion":null,"saveMe":null,"labels":[],"geniusPrice":null,"geniusUnitPricePerLabel":null,"banner":null,"discountLabel":null,"geniusDiscountLabel":null,"badge":null},{"code":"100062472","variantCode":"100062472","name":"Hrană uscată pentru pisici adulte, 1.4kg, cu ton","slug":"100062472-whiskas-hrana-uscata-pentru-pisici-adulte-1-4kg-cu-ton","unitPriceLabel":"15,35 Lei/kg","brand":"Whiskas","brandCode":"620","brandFilterCode":"whiskas-b621","sku":"100062472","price":21.49,"originalPrice":null,"currencyCode":"RON","currency":"Lei","image":{"thumbnail":{"default":"https://cdn.freshful.ro/media/cache/sylius_shop_product_thumbnail/15/74/54058ce4ba8ed695b2df6cd16046.jpg"},"large":{"default":"https://cdn.freshful.ro/media/cache/freshful_large/15/74/54058ce4ba8ed695b2df6cd16046.jpg"},"extralarge":{"default":"https://cdn.freshful.ro/media/cache/sylius_shop_product_original/15/74/54058ce4ba8ed695b2df6cd16046.jpg"}},"label":null,"tags":[],"isAvailable":true,"maxAvailableQuantity":67,"maxAllowedQuantity":100,"breadcrumbs":[{"code":"15","name":"Pet Shop","slug":"15-pet-shop"},{"code":"1501","name":"Pisici","slug":"1501-pisici"},{"code":"150102","name":"Hrană uscată pisici","slug":"150102-hrana-uscata-pisici"},{"code":"100062472","name":"Hrană uscată pentru pisici adulte, 1.4kg, cu ton","slug":"100062472-whiskas-hrana-uscata-pentru-pisici-adulte-1-4kg-cu-ton"}],"activePromotion":null,"saveMe":null,"labels":[],"geniusPrice":null,"geniusUnitPricePerLabel":null,"banner":null,"discountLabel":null,"geniusDiscountLabel":null,"badge":null},{"code":"100124272","variantCode":"100124272","name":"Hrană uscată pentru pisici junior, 800g, One cu pui și cereale integrale","slug":"100124272-purina-hrana-uscata-pentru-pisici-junior-800g-one-cu-pui-si-cereale-integrale","unitPriceLabel":"25,89 Lei/kg","brand":"One Junior","brandCode":"2220","brandFilterCode":"one-junior-b2224","sku":"100124272","price":21.49,"originalPrice":null,"currencyCode":"RON","currency":"Lei","image":{"thumbnail":{"default":"https://cdn.freshful.ro/media/cache/sylius_shop_product_thumbnail/2c/76/edcc5736a3a5d99cca6b020abbe5.jpg"},"large":{"default":"https://cdn.freshful.ro/media/cache/freshful_large/2c/76/edcc5736a3a5d99cca6b020abbe5.jpg"},"extralarge":{"default":"https://cdn.freshful.ro/media/cache/sylius_shop_product_original/2c/76/edcc5736a3a5d99cca6b020abbe5.jpg"}},"label":null,"tags":[],"isAvailable":true,"maxAvailableQuantity":16,"maxAllowedQuantity":100,"breadcrumbs":[{"code":"15","name":"Pet Shop","slug":"15-pet-shop"},{"code":"1501","name":"Pisici","slug":"1501-pisici"},{"code":"150102","name":"Hrană uscată pisici","slug":"150102-hrana-uscata-pisici"},{"code":"100124272","name":"Hrană uscată pentru pisici junior, 800g, One cu pui și cereale integrale","slug":"100124272-purina-hrana-uscata-pentru-pisici-junior-800g-one-cu-pui-si-cereale-integrale"}],"activePromotion":null,"saveMe":null,"labels":[],"geniusPrice":null,"geniusUnitPricePerLabel":null,"banner":null,"discountLabel":null,"geniusDiscountLabel":null,"badge":null},{"code":"100141712","variantCode":"100141712","name":"Hrană uscată pentru pisici sterilizate, 4kg","slug":"100141712-royal-canin-hrana-uscata-pentru-pisici-sterilizate-4kg","unitPriceLabel":"52,5 Lei/kg","brand":"Royal Canin","brandCode":"2714","brandFilterCode":"royal-canin-b2721","sku":"100141712","price":209.99,"originalPrice":null,"currencyCode":"RON","currency":"Lei","image":{"thumbnail":{"default":"https://cdn.freshful.ro/media/cache/sylius_shop_product_thumbnail/3c/4a/0238177139d8f57224afc57a0384.jpg"},"large":{"default":"https://cdn.freshful.ro/media/cache/freshful_large/3c/4a/0238177139d8f57224afc57a0384.jpg"},"extralarge":{"default":"https://cdn.freshful.ro/media/cache/sylius_shop_product_original/3c/4a/0238177139d8f57224afc57a0384.jpg"}},"label":null,"tags":[],"isAvailable":true,"maxAvailableQuantity":6,"maxAllowedQuantity":100,"breadcrumbs":[{"code":"15","name":"Pet Shop","slug":"15-pet-shop"},{"code":"1501","name":"Pisici","slug":"1501-pisici"},{"code":"150102","name":"Hrană uscată pisici","slug":"150102-hrana-uscata-pisici"},{"code":"100141712","name":"Hrană uscată pentru pisici sterilizate, 4kg","slug":"100141712-royal-canin-hrana-uscata-pentru-pisici-sterilizate-4kg"}],"activePromotion":null,"saveMe":null,"labels":[],"geniusPrice":null,"geniusUnitPricePerLabel":null,"banner":null,"discountLabel":null,"geniusDiscountLabel":null,"badge":null},{"code":"100062433","variantCode":"100062433","name":"Hrană uscată pentru pisici sterilizate adulte, 750g, cu pui","slug":"100062433-perfect-fit-hrana-uscata-pentru-pisici-sterilizate-adulte-750g-cu-pui","unitPriceLabel":"27,33 Lei/kg","brand":"Perfect Fit","brandCode":"256","brandFilterCode":"perfect-fit-b257","sku":"100062433","price":20.5,"originalPrice":null,"currencyCode":"RON","currency":"Lei","image":{"thumbnail":{"default":"https://cdn.freshful.ro/media/cache/sylius_shop_product_thumbnail/f6/e5/808ec11ef10748da865885564354.jpg"},"large":{"default":"https://cdn.freshful.ro/media/cache/freshful_large/f6/e5/808ec11ef10748da865885564354.jpg"},"extralarge":{"default":"https://cdn.freshful.ro/media/cache/sylius_shop_product_original/f6/e5/808ec11ef10748da865885564354.jpg"}},"label":null,"tags":[],"isAvailable":true,"maxAvailableQuantity":11,"maxAllowedQuantity":100,"breadcrumbs":[{"code":"15","name":"Pet Shop","slug":"15-pet-shop"},{"code":"1501","name":"Pisici","slug":"1501-pisici"},{"code":"150102","name":"Hrană uscată pisici","slug":"150102-hrana-uscata-pisici"},{"code":"100062433","name":"Hrană uscată pentru pisici sterilizate adulte, 750g, cu pui","slug":"100062433-perfect-fit-hrana-uscata-pentru-pisici-sterilizate-adulte-750g-cu-pui"}],"activePromotion":null,"saveMe":null,"labels":[],"geniusPrice":null,"geniusUnitPricePerLabel":null,"banner":null,"discountLabel":null,"geniusDiscountLabel":null,"badge":null}],"filters":{"countSelected":0,"items":[{"code":"promotion","name":"Promoții","countSelected":0,"values":[{"code":"freshful-top-deals-2023","name":"Profită de Top Deals","isSelected":false,"count":1}]},{"code":"brand","name":"Brand","countSelected":0,"values":[{"code":"eminent-b1574","name":"Eminent","isSelected":false,"count":3},{"code":"kimmy-the-cat-b3077","name":"Kimmy The Cat","isSelected":false,"count":4},{"code":"one-adult-b2219","name":"One Adult","isSelected":false,"count":2},{"code":"one-dual-nature-b2675","name":"One Dual Nature","isSelected":false,"count":3},{"code":"one-indoor-formula-b2226","name":"One Indoor Formula","isSelected":false,"count":1},{"code":"one-junior-b2224","name":"One Junior","isSelected":false,"count":2},{"code":"one-steril-b2227","name":"One Steril","isSelected":false,"count":1},{"code":"perfect-fit-b257","name":"Perfect Fit","isSelected":false,"count":8},{"code":"purina-b2452","name":"Purina","isSelected":false,"count":8},{"code":"royal-canin-b2721","name":"Royal Canin","isSelected":false,"count":7},{"code":"tropicat-b2653","name":"TropiCat","isSelected":false,"count":5},{"code":"whiskas-b621","name":"Whiskas","isSelected":false,"count":16}]}]},"orderBy":[{"field":"price","direction":"asc","name":"Preț crescător","isSelected":false},{"field":"price","direction":"desc","name":"Preț descrescător","isSelected":false},{"field":"popularity","direction":"desc","name":"Cele mai populare","isSelected":true},{"field":"category","direction":"asc","name":"Categorie","isSelected":false}],"metaTitle":"Hrană uscată pisici - Gamă variată","metaDescription":"Vrei Hrană uscată pisici? Alege dintr-o gamă variată. Comanzi simplu și ai livrare rapidă, calitate și prospețime. Hai pe Freshful.ro","metaKeywords":null,"banners":[]}}