{"type":"subcategory","payload":{"analyticsListId":"category_1501-pisici","analyticsListName":"Category - Pisici","name":"Pisici","slug":"1501-pisici","image":null,"breadcrumbs":[{"code":"15","name":"Pet Shop","slug":"15-pet-shop"},{"code":"1501","name":"Pisici","slug":"1501-pisici"}],"slots":[],"page":1,"limit":10,"pages":25,"count":241,"siblings":[{"name":"Pisici","slug":"1501-pisici","selected":true},{"name":"Câini","slug":"1502-caini","selected":false},{"name":"Păsări și rozătoare","slug":"1503-pasari-si-rozatoare","selected":false},{"name":"Pești și țestoase","slug":"1504-pesti-si-testoase","selected":false}],"children":[{"name":"Toate produsele","slug":"1501-pisici","selected":true},{"name":"Hrană umedă pisici","slug":"150101-hrana-umeda-pisici","selected":false},{"name":"Hrană uscată pisici","slug":"150102-hrana-uscata-pisici","selected":false},{"name":"Biscuiți și recompense pisici","slug":"150103-biscuiti-si-recompense-pisici","selected":false},{"name":"Așternuturi pisici","slug":"150104-asternuturi-pisici","selected":false},{"name":"Accesorii pisici","slug":"150105-accesorii-pisici","selected":false}],"products":[{"code":"100062460","variantCode":"100062460","name":"Hrană umedă pentru pisici adulte, 85g, cu pui în sos ","slug":"100062460-sheba-hrana-umeda-pentru-pisici-adulte-85g-cu-pui-in-sos","unitPriceLabel":"29,53 Lei/kg","brand":"Sheba","brandCode":"257","brandFilterCode":"sheba-b258","sku":"100062460","price":2.51,"originalPrice":null,"currencyCode":"RON","currency":"Lei","image":{"thumbnail":{"default":"https://cdn.freshful.ro/media/cache/sylius_shop_product_thumbnail/bf/b1/ea595c5f4b4fd278bc99171abe6c.jpg"},"large":{"default":"https://cdn.freshful.ro/media/cache/freshful_large/bf/b1/ea595c5f4b4fd278bc99171abe6c.jpg"},"extralarge":{"default":"https://cdn.freshful.ro/media/cache/sylius_shop_product_original/bf/b1/ea595c5f4b4fd278bc99171abe6c.jpg"}},"label":{"text":"Profită acum","backgroundColor":"#FF9903","textColor":"#FFFFFF"},"tags":[{"type":"NoPreservatives","text":"Fara conservanti","icon":"https://cdn.freshful.ro/assets/product_tags/fara_conservanti.svg","iconPng":"https://cdn.freshful.ro/assets/product_tags/fara_conservanti.png","backgroundColor":"#F0F2FF","textColor":"#7889DD"}],"isAvailable":true,"maxAvailableQuantity":100,"maxAllowedQuantity":100,"breadcrumbs":[{"code":"15","name":"Pet Shop","slug":"15-pet-shop"},{"code":"1501","name":"Pisici","slug":"1501-pisici"},{"code":"150101","name":"Hrană umedă pisici","slug":"150101-hrana-umeda-pisici"},{"code":"100062460","name":"Hrană umedă pentru pisici adulte, 85g, cu pui în sos ","slug":"100062460-sheba-hrana-umeda-pentru-pisici-adulte-85g-cu-pui-in-sos"}],"activePromotion":{"code":"freshful-top-deals-2023","name":"Preț avantajos","targetQuantity":null},"saveMe":null,"labels":[{"type":"v1","items":[{"text":"Profită acum","backgroundColor":"#FF9903","textColor":"#FFFFFF"}]}],"geniusPrice":null,"geniusUnitPricePerLabel":null,"banner":{"text":"Preț avantajos","textColor":"#F95510","bgColor":"#FEF1CD","icon":null,"link":"https://www.freshful.ro/oferte/freshful-top-deals-2023","type":"promo","analyticsEventType":"select_promotion","analyticsEventPayload":{"promotion_id":"freshful-top-deals-2023","promotion_name":"Profită de Top Deals"}},"discountLabel":null,"geniusDiscountLabel":null,"badge":null},{"code":"100141970","variantCode":"100141970","name":"Așternut natural tofu lavandă 6l","slug":"100141970-no-brand-asternut-natural-tofu-lavanda-6l","unitPriceLabel":"14 Lei/kg","brand":"Miau Miau","brandCode":"2725","brandFilterCode":"miau-miau-b2731","sku":"100141970","price":34.99,"originalPrice":44.49,"currencyCode":"RON","currency":"Lei","image":{"thumbnail":{"default":"https://cdn.freshful.ro/media/cache/sylius_shop_product_thumbnail/6c/e2/f69c255eb8bb173df8a668d8ec3b.jpg"},"large":{"default":"https://cdn.freshful.ro/media/cache/freshful_large/6c/e2/f69c255eb8bb173df8a668d8ec3b.jpg"},"extralarge":{"default":"https://cdn.freshful.ro/media/cache/sylius_shop_product_original/6c/e2/f69c255eb8bb173df8a668d8ec3b.jpg"}},"label":{"text":"-21%","backgroundColor":"#FF9903","textColor":"#FFFFFF"},"tags":[],"isAvailable":true,"maxAvailableQuantity":5,"maxAllowedQuantity":100,"breadcrumbs":[{"code":"15","name":"Pet Shop","slug":"15-pet-shop"},{"code":"1501","name":"Pisici","slug":"1501-pisici"},{"code":"150104","name":"Așternuturi pisici","slug":"150104-asternuturi-pisici"},{"code":"100141970","name":"Așternut natural tofu lavandă 6l","slug":"100141970-no-brand-asternut-natural-tofu-lavanda-6l"}],"activePromotion":{"code":"superpreturile-saptamanii","name":"Preț redus","targetQuantity":null},"saveMe":null,"labels":[{"type":"v1","items":[{"text":"-21%","backgroundColor":"#FF9903","textColor":"#FFFFFF"}]}],"geniusPrice":null,"geniusUnitPricePerLabel":null,"banner":{"text":"Super preț","textColor":"#FF0000","bgColor":"#FFF2EC","icon":null,"link":"https://www.freshful.ro/oferte/superpreturile-saptamanii","type":"promo","analyticsEventType":"select_promotion","analyticsEventPayload":{"promotion_id":"superpreturile-saptamanii","promotion_name":"Superprețurile zilei"}},"discountLabel":"Economisești 21%","geniusDiscountLabel":null,"badge":null},{"code":"100062467","variantCode":"100062467","name":"Hrană uscată pentru pisici junior, 800g, cu pui ","slug":"100062467-whiskas-hrana-uscata-pentru-pisici-junior-800g-cu-pui","unitPriceLabel":"18,63 Lei/kg","brand":"Whiskas","brandCode":"620","brandFilterCode":"whiskas-b621","sku":"100062467","price":14.9,"originalPrice":null,"currencyCode":"RON","currency":"Lei","image":{"thumbnail":{"default":"https://cdn.freshful.ro/media/cache/sylius_shop_product_thumbnail/95/d3/e0257baf4e64a0d5d733b97cff07.jpg"},"large":{"default":"https://cdn.freshful.ro/media/cache/freshful_large/95/d3/e0257baf4e64a0d5d733b97cff07.jpg"},"extralarge":{"default":"https://cdn.freshful.ro/media/cache/sylius_shop_product_original/95/d3/e0257baf4e64a0d5d733b97cff07.jpg"}},"label":{"text":"Profită acum","backgroundColor":"#FF9903","textColor":"#FFFFFF"},"tags":[],"isAvailable":true,"maxAvailableQuantity":26,"maxAllowedQuantity":100,"breadcrumbs":[{"code":"15","name":"Pet Shop","slug":"15-pet-shop"},{"code":"1501","name":"Pisici","slug":"1501-pisici"},{"code":"150102","name":"Hrană uscată pisici","slug":"150102-hrana-uscata-pisici"},{"code":"100062467","name":"Hrană uscată pentru pisici junior, 800g, cu pui ","slug":"100062467-whiskas-hrana-uscata-pentru-pisici-junior-800g-cu-pui"}],"activePromotion":{"code":"freshful-top-deals-2023","name":"Preț avantajos","targetQuantity":null},"saveMe":null,"labels":[{"type":"v1","items":[{"text":"Profită acum","backgroundColor":"#FF9903","textColor":"#FFFFFF"}]}],"geniusPrice":null,"geniusUnitPricePerLabel":null,"banner":{"text":"Preț avantajos","textColor":"#F95510","bgColor":"#FEF1CD","icon":null,"link":"https://www.freshful.ro/oferte/freshful-top-deals-2023","type":"promo","analyticsEventType":"select_promotion","analyticsEventPayload":{"promotion_id":"freshful-top-deals-2023","promotion_name":"Profită de Top Deals"}},"discountLabel":null,"geniusDiscountLabel":null,"badge":null},{"code":"100062463","variantCode":"100062463","name":"Hrană uscată pentru pisici adulte 1.4kg, cu pui ","slug":"100062463-whiskas-hrana-uscata-pentru-pisici-adulte-1-4kg-cu-pui","unitPriceLabel":"15,35 Lei/kg","brand":"Whiskas","brandCode":"620","brandFilterCode":"whiskas-b621","sku":"100062463","price":21.49,"originalPrice":null,"currencyCode":"RON","currency":"Lei","image":{"thumbnail":{"default":"https://cdn.freshful.ro/media/cache/sylius_shop_product_thumbnail/3a/68/9060bbe3abcdab427917642f0d5f.jpg"},"large":{"default":"https://cdn.freshful.ro/media/cache/freshful_large/3a/68/9060bbe3abcdab427917642f0d5f.jpg"},"extralarge":{"default":"https://cdn.freshful.ro/media/cache/sylius_shop_product_original/3a/68/9060bbe3abcdab427917642f0d5f.jpg"}},"label":null,"tags":[],"isAvailable":true,"maxAvailableQuantity":100,"maxAllowedQuantity":100,"breadcrumbs":[{"code":"15","name":"Pet Shop","slug":"15-pet-shop"},{"code":"1501","name":"Pisici","slug":"1501-pisici"},{"code":"150102","name":"Hrană uscată pisici","slug":"150102-hrana-uscata-pisici"},{"code":"100062463","name":"Hrană uscată pentru pisici adulte 1.4kg, cu pui ","slug":"100062463-whiskas-hrana-uscata-pentru-pisici-adulte-1-4kg-cu-pui"}],"activePromotion":null,"saveMe":null,"labels":[],"geniusPrice":null,"geniusUnitPricePerLabel":null,"banner":null,"discountLabel":null,"geniusDiscountLabel":null,"badge":null},{"code":"100062454","variantCode":"100062454","name":"Hrană umedă pentru pisici adulte, 6x50g, cu pui și curcan ","slug":"100062454-sheba-hrana-umeda-pentru-pisici-adulte-6x50g-cu-pui-si-curcan","unitPriceLabel":"37,5 Lei/kg","brand":"Sheba","brandCode":"257","brandFilterCode":"sheba-b258","sku":"100062454","price":11.25,"originalPrice":null,"currencyCode":"RON","currency":"Lei","image":{"thumbnail":{"default":"https://cdn.freshful.ro/media/cache/sylius_shop_product_thumbnail/9c/db/8842d2691a998dd34eef3131968e.jpg"},"large":{"default":"https://cdn.freshful.ro/media/cache/freshful_large/9c/db/8842d2691a998dd34eef3131968e.jpg"},"extralarge":{"default":"https://cdn.freshful.ro/media/cache/sylius_shop_product_original/9c/db/8842d2691a998dd34eef3131968e.jpg"}},"label":null,"tags":[{"type":"NoPreservatives","text":"Fara conservanti","icon":"https://cdn.freshful.ro/assets/product_tags/fara_conservanti.svg","iconPng":"https://cdn.freshful.ro/assets/product_tags/fara_conservanti.png","backgroundColor":"#F0F2FF","textColor":"#7889DD"}],"isAvailable":true,"maxAvailableQuantity":100,"maxAllowedQuantity":100,"breadcrumbs":[{"code":"15","name":"Pet Shop","slug":"15-pet-shop"},{"code":"1501","name":"Pisici","slug":"1501-pisici"},{"code":"150101","name":"Hrană umedă pisici","slug":"150101-hrana-umeda-pisici"},{"code":"100062454","name":"Hrană umedă pentru pisici adulte, 6x50g, cu pui și curcan ","slug":"100062454-sheba-hrana-umeda-pentru-pisici-adulte-6x50g-cu-pui-si-curcan"}],"activePromotion":null,"saveMe":null,"labels":[],"geniusPrice":null,"geniusUnitPricePerLabel":null,"banner":null,"discountLabel":null,"geniusDiscountLabel":null,"badge":null},{"code":"100096097","variantCode":"100096097","name":"Așternut igienic pentru pisici Easy Clean Silicat măr verde 3.2kg/7.5l","slug":"100096097-croci-asternut-igienic-pentru-pisici-easy-clean-silicat-mar-verde-3-2kg-7-5l","unitPriceLabel":"11,07 Lei/l","brand":"Croci","brandCode":"1567","brandFilterCode":"croci-b1571","sku":"100096097","price":82.99,"originalPrice":null,"currencyCode":"RON","currency":"Lei","image":{"thumbnail":{"default":"https://cdn.freshful.ro/media/cache/sylius_shop_product_thumbnail/b4/9c/2574f22d075379517c4e3a28daa4.jpg"},"large":{"default":"https://cdn.freshful.ro/media/cache/freshful_large/b4/9c/2574f22d075379517c4e3a28daa4.jpg"},"extralarge":{"default":"https://cdn.freshful.ro/media/cache/sylius_shop_product_original/b4/9c/2574f22d075379517c4e3a28daa4.jpg"}},"label":null,"tags":[],"isAvailable":true,"maxAvailableQuantity":100,"maxAllowedQuantity":100,"breadcrumbs":[{"code":"15","name":"Pet Shop","slug":"15-pet-shop"},{"code":"1501","name":"Pisici","slug":"1501-pisici"},{"code":"150104","name":"Așternuturi pisici","slug":"150104-asternuturi-pisici"},{"code":"100096097","name":"Așternut igienic pentru pisici Easy Clean Silicat măr verde 3.2kg/7.5l","slug":"100096097-croci-asternut-igienic-pentru-pisici-easy-clean-silicat-mar-verde-3-2kg-7-5l"}],"activePromotion":null,"saveMe":null,"labels":[],"geniusPrice":null,"geniusUnitPricePerLabel":null,"banner":null,"discountLabel":null,"geniusDiscountLabel":null,"badge":null},{"code":"100124268","variantCode":"100124268","name":"Hrană uscată pentru pisici sterilizate, 800g, One cu vită și grâu","slug":"100124268-purina-hrana-uscata-pentru-pisici-sterilizate-800g-one-cu-vita-si-grau","unitPriceLabel":"27,34 Lei/kg","brand":"Purina","brandCode":"2448","brandFilterCode":"purina-b2452","sku":"100124268","price":22.69,"originalPrice":null,"currencyCode":"RON","currency":"Lei","image":{"thumbnail":{"default":"https://cdn.freshful.ro/media/cache/sylius_shop_product_thumbnail/07/61/bbec0e90375d57e3cf87f283fd42.jpg"},"large":{"default":"https://cdn.freshful.ro/media/cache/freshful_large/07/61/bbec0e90375d57e3cf87f283fd42.jpg"},"extralarge":{"default":"https://cdn.freshful.ro/media/cache/sylius_shop_product_original/07/61/bbec0e90375d57e3cf87f283fd42.jpg"}},"label":null,"tags":[],"isAvailable":true,"maxAvailableQuantity":100,"maxAllowedQuantity":100,"breadcrumbs":[{"code":"15","name":"Pet Shop","slug":"15-pet-shop"},{"code":"1501","name":"Pisici","slug":"1501-pisici"},{"code":"150102","name":"Hrană uscată pisici","slug":"150102-hrana-uscata-pisici"},{"code":"100124268","name":"Hrană uscată pentru pisici sterilizate, 800g, One cu vită și grâu","slug":"100124268-purina-hrana-uscata-pentru-pisici-sterilizate-800g-one-cu-vita-si-grau"}],"activePromotion":null,"saveMe":null,"labels":[],"geniusPrice":null,"geniusUnitPricePerLabel":null,"banner":null,"discountLabel":null,"geniusDiscountLabel":null,"badge":null},{"code":"100139027","variantCode":"100139027","name":" Hrană umedă pentru pisici, 4x85g, Multipack Mousse vită, ton, ficat și curcan","slug":"100139027-gourmet-gold-hrana-umeda-pentru-pisici-4x85g-multipack-mousse-vita-ton-ficat-si-curcan","unitPriceLabel":"33,79 Lei/kg","brand":"Gourmet Gold","brandCode":"2210","brandFilterCode":"gourmet-gold-b2214","sku":"100139027","price":11.49,"originalPrice":null,"currencyCode":"RON","currency":"Lei","image":{"thumbnail":{"default":"https://cdn.freshful.ro/media/cache/sylius_shop_product_thumbnail/1c/3a/459488a8c74a2658b006a764414b.jpg"},"large":{"default":"https://cdn.freshful.ro/media/cache/freshful_large/1c/3a/459488a8c74a2658b006a764414b.jpg"},"extralarge":{"default":"https://cdn.freshful.ro/media/cache/sylius_shop_product_original/1c/3a/459488a8c74a2658b006a764414b.jpg"}},"label":null,"tags":[],"isAvailable":true,"maxAvailableQuantity":100,"maxAllowedQuantity":100,"breadcrumbs":[{"code":"15","name":"Pet Shop","slug":"15-pet-shop"},{"code":"1501","name":"Pisici","slug":"1501-pisici"},{"code":"150101","name":"Hrană umedă pisici","slug":"150101-hrana-umeda-pisici"},{"code":"100139027","name":" Hrană umedă pentru pisici, 4x85g, Multipack Mousse vită, ton, ficat și curcan","slug":"100139027-gourmet-gold-hrana-umeda-pentru-pisici-4x85g-multipack-mousse-vita-ton-ficat-si-curcan"}],"activePromotion":null,"saveMe":null,"labels":[],"geniusPrice":null,"geniusUnitPricePerLabel":null,"banner":null,"discountLabel":null,"geniusDiscountLabel":null,"badge":null},{"code":"100062453","variantCode":"100062453","name":"Hrană umedă pentru pisici adulte, 6x50g, cu pește ","slug":"100062453-sheba-hrana-umeda-pentru-pisici-adulte-6x50g-cu-peste","unitPriceLabel":"37,5 Lei/kg","brand":"Sheba","brandCode":"257","brandFilterCode":"sheba-b258","sku":"100062453","price":11.25,"originalPrice":null,"currencyCode":"RON","currency":"Lei","image":{"thumbnail":{"default":"https://cdn.freshful.ro/media/cache/sylius_shop_product_thumbnail/fa/da/20e7b5f36a2b7f5614381e2df294.jpg"},"large":{"default":"https://cdn.freshful.ro/media/cache/freshful_large/fa/da/20e7b5f36a2b7f5614381e2df294.jpg"},"extralarge":{"default":"https://cdn.freshful.ro/media/cache/sylius_shop_product_original/fa/da/20e7b5f36a2b7f5614381e2df294.jpg"}},"label":null,"tags":[{"type":"NoPreservatives","text":"Fara conservanti","icon":"https://cdn.freshful.ro/assets/product_tags/fara_conservanti.svg","iconPng":"https://cdn.freshful.ro/assets/product_tags/fara_conservanti.png","backgroundColor":"#F0F2FF","textColor":"#7889DD"}],"isAvailable":true,"maxAvailableQuantity":100,"maxAllowedQuantity":100,"breadcrumbs":[{"code":"15","name":"Pet Shop","slug":"15-pet-shop"},{"code":"1501","name":"Pisici","slug":"1501-pisici"},{"code":"150101","name":"Hrană umedă pisici","slug":"150101-hrana-umeda-pisici"},{"code":"100062453","name":"Hrană umedă pentru pisici adulte, 6x50g, cu pește ","slug":"100062453-sheba-hrana-umeda-pentru-pisici-adulte-6x50g-cu-peste"}],"activePromotion":null,"saveMe":null,"labels":[],"geniusPrice":null,"geniusUnitPricePerLabel":null,"banner":null,"discountLabel":null,"geniusDiscountLabel":null,"badge":null},{"code":"100124238","variantCode":"100124238","name":"Hrană umedă pentru pisici, 6x50, cu vită, vânat și ficat în sos","slug":"100124238-gourmet-mon-petit-hrana-umeda-pentru-pisici-6x50-cu-vita-vanat-si-ficat-in-sos","unitPriceLabel":"33,82 Lei/kg","brand":"Gourmet Mon Petit","brandCode":"2211","brandFilterCode":"gourmet-mon-petit-b2215","sku":"100124238","price":11.5,"originalPrice":null,"currencyCode":"RON","currency":"Lei","image":{"thumbnail":{"default":"https://cdn.freshful.ro/media/cache/sylius_shop_product_thumbnail/ea/9d/545bbe733a4e5327fca469f72369.jpg"},"large":{"default":"https://cdn.freshful.ro/media/cache/freshful_large/ea/9d/545bbe733a4e5327fca469f72369.jpg"},"extralarge":{"default":"https://cdn.freshful.ro/media/cache/sylius_shop_product_original/ea/9d/545bbe733a4e5327fca469f72369.jpg"}},"label":null,"tags":[],"isAvailable":true,"maxAvailableQuantity":83,"maxAllowedQuantity":100,"breadcrumbs":[{"code":"15","name":"Pet Shop","slug":"15-pet-shop"},{"code":"1501","name":"Pisici","slug":"1501-pisici"},{"code":"150101","name":"Hrană umedă pisici","slug":"150101-hrana-umeda-pisici"},{"code":"100124238","name":"Hrană umedă pentru pisici, 6x50, cu vită, vânat și ficat în sos","slug":"100124238-gourmet-mon-petit-hrana-umeda-pentru-pisici-6x50-cu-vita-vanat-si-ficat-in-sos"}],"activePromotion":null,"saveMe":null,"labels":[],"geniusPrice":null,"geniusUnitPricePerLabel":null,"banner":null,"discountLabel":null,"geniusDiscountLabel":null,"badge":null}],"filters":{"countSelected":0,"items":[{"code":"promotion","name":"Promoții","countSelected":0,"values":[{"code":"freshful-top-deals-2023","name":"Profită de Top Deals","isSelected":false,"count":2},{"code":"superpreturile-saptamanii","name":"Superprețurile zilei","isSelected":false,"count":1}]},{"code":"brand","name":"Brand","countSelected":0,"values":[{"code":"absorb-plus-b2492","name":"Absorb Plus","isSelected":false,"count":6},{"code":"butcher-s-b1605","name":"Butcher's","isSelected":false,"count":10},{"code":"catmania-b2072","name":"Catmania","isSelected":false,"count":5},{"code":"croci-b1571","name":"Croci","isSelected":false,"count":4},{"code":"dinah-b2659","name":"Dinah","isSelected":false,"count":1},{"code":"dreamies-b253","name":"Dreamies","isSelected":false,"count":5},{"code":"eco-clean-b1578","name":"Eco Clean","isSelected":false,"count":3},{"code":"eminent-b1574","name":"Eminent","isSelected":false,"count":3},{"code":"felix-fantastic-b2218","name":"Felix Fantastic","isSelected":false,"count":15},{"code":"felix-junior-b2217","name":"Felix Junior","isSelected":false,"count":2},{"code":"foey-b2649","name":"Foey","isSelected":false,"count":1},{"code":"friskies-b2211","name":"Friskies","isSelected":false,"count":3},{"code":"furminator-b1044","name":"Furminator","isSelected":false,"count":2},{"code":"gourmet-gold-b2214","name":"Gourmet Gold","isSelected":false,"count":14},{"code":"gourmet-mon-petit-b2215","name":"Gourmet Mon Petit","isSelected":false,"count":2},{"code":"gourmet-nature-s-creation-b2676","name":"Gourmet Nature's Creation","isSelected":false,"count":4},{"code":"gourmet-perle-b2216","name":"Gourmet Perle","isSelected":false,"count":4},{"code":"kimmy-the-cat-b3077","name":"Kimmy The Cat","isSelected":false,"count":4},{"code":"king-b1057","name":"King","isSelected":false,"count":1},{"code":"kitekat-b254","name":"Kitekat","isSelected":false,"count":4},{"code":"miau-miau-b2731","name":"Miau Miau","isSelected":false,"count":11},{"code":"mr-biffy-b1607","name":"Mr. Biffy","isSelected":false,"count":3},{"code":"one-adult-b2219","name":"One Adult","isSelected":false,"count":2},{"code":"one-dual-nature-b2675","name":"One Dual Nature","isSelected":false,"count":3},{"code":"one-indoor-formula-b2226","name":"One Indoor Formula","isSelected":false,"count":1},{"code":"one-junior-b2224","name":"One Junior","isSelected":false,"count":2},{"code":"one-mini-b2212","name":"One Mini","isSelected":false,"count":1},{"code":"one-steril-b2227","name":"One Steril","isSelected":false,"count":1},{"code":"perfect-fit-b257","name":"Perfect Fit","isSelected":false,"count":10},{"code":"piper-b1474","name":"Piper","isSelected":false,"count":1},{"code":"plaisir-b1606","name":"Plaisir","isSelected":false,"count":6},{"code":"purina-b2452","name":"Purina","isSelected":false,"count":13},{"code":"raw-paleo-b1475","name":"Raw Paleo","isSelected":false,"count":2},{"code":"royal-canin-b2721","name":"Royal Canin","isSelected":false,"count":8},{"code":"sheba-b258","name":"Sheba","isSelected":false,"count":16},{"code":"shed-x-b2073","name":"Shed-X","isSelected":false,"count":1},{"code":"stefanplast-b2734","name":"Stefanplast","isSelected":false,"count":1},{"code":"supreme-clean-b1577","name":"Supreme Clean","isSelected":false,"count":2},{"code":"tofu-clean-b1579","name":"Tofu Clean","isSelected":false,"count":2},{"code":"tropicat-b2653","name":"TropiCat","isSelected":false,"count":5},{"code":"whiskas-b621","name":"Whiskas","isSelected":false,"count":47},{"code":"equilibre-instinct-b1575","name":"Équilibre&Instinct","isSelected":false,"count":7}]},{"code":"diet_lifestyle","name":"Dietă și lifestyle","countSelected":0,"values":[{"code":"bio-a26","name":"Bio","isSelected":false,"count":2},{"code":"eco-a83","name":"Eco","isSelected":false,"count":4},{"code":"fara-conservanti-a37","name":"Fara conservanti","isSelected":false,"count":15},{"code":"fara-gluten-a16","name":"Fara gluten","isSelected":false,"count":4},{"code":"natural-a27","name":"Natural","isSelected":false,"count":3}]}]},"orderBy":[{"field":"price","direction":"asc","name":"Preț crescător","isSelected":false},{"field":"price","direction":"desc","name":"Preț descrescător","isSelected":false},{"field":"popularity","direction":"desc","name":"Cele mai populare","isSelected":true},{"field":"category","direction":"asc","name":"Categorie","isSelected":false}],"metaTitle":"Pisici - Gamă variată","metaDescription":"Vrei Pisici? Alege dintr-o gamă variată. Comanzi simplu și ai livrare rapidă, calitate și prospețime. Hai pe Freshful.ro","metaKeywords":null,"banners":[]}}