{"type":"subcategory","payload":{"analyticsListId":"category_150104-asternuturi-pisici","analyticsListName":"Category - Așternuturi pisici","name":"Așternuturi pisici","slug":"150104-asternuturi-pisici","image":null,"breadcrumbs":[{"code":"15","name":"Pet Shop","slug":"15-pet-shop"},{"code":"1501","name":"Pisici","slug":"1501-pisici"},{"code":"150104","name":"Așternuturi pisici","slug":"150104-asternuturi-pisici"}],"slots":[],"page":1,"limit":10,"pages":3,"count":22,"siblings":[{"name":"Pisici","slug":"1501-pisici","selected":true},{"name":"Câini","slug":"1502-caini","selected":false},{"name":"Păsări și rozătoare","slug":"1503-pasari-si-rozatoare","selected":false},{"name":"Pești și țestoase","slug":"1504-pesti-si-testoase","selected":false}],"children":[{"name":"Toate produsele","slug":"1501-pisici","selected":false},{"name":"Hrană umedă pisici","slug":"150101-hrana-umeda-pisici","selected":false},{"name":"Hrană uscată pisici","slug":"150102-hrana-uscata-pisici","selected":false},{"name":"Biscuiți și recompense pisici","slug":"150103-biscuiti-si-recompense-pisici","selected":false},{"name":"Așternuturi pisici","slug":"150104-asternuturi-pisici","selected":true},{"name":"Accesorii pisici","slug":"150105-accesorii-pisici","selected":false}],"products":[{"code":"100141970","variantCode":"100141970","name":"Așternut natural tofu lavandă 6l","slug":"100141970-no-brand-asternut-natural-tofu-lavanda-6l","unitPriceLabel":"14 Lei/kg","brand":"Miau Miau","brandCode":"2725","brandFilterCode":"miau-miau-b2731","sku":"100141970","price":34.99,"originalPrice":44.49,"currencyCode":"RON","currency":"Lei","image":{"thumbnail":{"default":"https://cdn.freshful.ro/media/cache/sylius_shop_product_thumbnail/6c/e2/f69c255eb8bb173df8a668d8ec3b.jpg"},"large":{"default":"https://cdn.freshful.ro/media/cache/freshful_large/6c/e2/f69c255eb8bb173df8a668d8ec3b.jpg"},"extralarge":{"default":"https://cdn.freshful.ro/media/cache/sylius_shop_product_original/6c/e2/f69c255eb8bb173df8a668d8ec3b.jpg"}},"label":{"text":"-21%","backgroundColor":"#FF9903","textColor":"#FFFFFF"},"tags":[],"isAvailable":true,"maxAvailableQuantity":5,"maxAllowedQuantity":100,"breadcrumbs":[{"code":"15","name":"Pet Shop","slug":"15-pet-shop"},{"code":"1501","name":"Pisici","slug":"1501-pisici"},{"code":"150104","name":"Așternuturi pisici","slug":"150104-asternuturi-pisici"},{"code":"100141970","name":"Așternut natural tofu lavandă 6l","slug":"100141970-no-brand-asternut-natural-tofu-lavanda-6l"}],"activePromotion":{"code":"superpreturile-saptamanii","name":"Preț redus","targetQuantity":null},"saveMe":null,"labels":[{"type":"v1","items":[{"text":"-21%","backgroundColor":"#FF9903","textColor":"#FFFFFF"}]}],"geniusPrice":null,"geniusUnitPricePerLabel":null,"banner":{"text":"Super preț","textColor":"#FF0000","bgColor":"#FFF2EC","icon":null,"link":"https://www.freshful.ro/oferte/superpreturile-saptamanii","type":"promo","analyticsEventType":"select_promotion","analyticsEventPayload":{"promotion_id":"superpreturile-saptamanii","promotion_name":"Superprețurile zilei"}},"discountLabel":"Economisești 21%","geniusDiscountLabel":null,"badge":null},{"code":"100096097","variantCode":"100096097","name":"Așternut igienic pentru pisici Easy Clean Silicat măr verde 3.2kg/7.5l","slug":"100096097-croci-asternut-igienic-pentru-pisici-easy-clean-silicat-mar-verde-3-2kg-7-5l","unitPriceLabel":"11,07 Lei/l","brand":"Croci","brandCode":"1567","brandFilterCode":"croci-b1571","sku":"100096097","price":82.99,"originalPrice":null,"currencyCode":"RON","currency":"Lei","image":{"thumbnail":{"default":"https://cdn.freshful.ro/media/cache/sylius_shop_product_thumbnail/b4/9c/2574f22d075379517c4e3a28daa4.jpg"},"large":{"default":"https://cdn.freshful.ro/media/cache/freshful_large/b4/9c/2574f22d075379517c4e3a28daa4.jpg"},"extralarge":{"default":"https://cdn.freshful.ro/media/cache/sylius_shop_product_original/b4/9c/2574f22d075379517c4e3a28daa4.jpg"}},"label":null,"tags":[],"isAvailable":true,"maxAvailableQuantity":100,"maxAllowedQuantity":100,"breadcrumbs":[{"code":"15","name":"Pet Shop","slug":"15-pet-shop"},{"code":"1501","name":"Pisici","slug":"1501-pisici"},{"code":"150104","name":"Așternuturi pisici","slug":"150104-asternuturi-pisici"},{"code":"100096097","name":"Așternut igienic pentru pisici Easy Clean Silicat măr verde 3.2kg/7.5l","slug":"100096097-croci-asternut-igienic-pentru-pisici-easy-clean-silicat-mar-verde-3-2kg-7-5l"}],"activePromotion":null,"saveMe":null,"labels":[],"geniusPrice":null,"geniusUnitPricePerLabel":null,"banner":null,"discountLabel":null,"geniusDiscountLabel":null,"badge":null},{"code":"100120704","variantCode":"100120704","name":"Granule așternut igienic pentru pisici, parfum lavandă 5l","slug":"100120704-catmania-granule-asternut-igienic-pentru-pisici-parfum-lavanda-5l","unitPriceLabel":"5,88 Lei/kg","brand":"Catmania","brandCode":"2068","brandFilterCode":"catmania-b2072","sku":"100120704","price":24.99,"originalPrice":null,"currencyCode":"RON","currency":"Lei","image":{"thumbnail":{"default":"https://cdn.freshful.ro/media/cache/sylius_shop_product_thumbnail/a8/2b/d55959d84ef9cfc578556810cb3a.jpg"},"large":{"default":"https://cdn.freshful.ro/media/cache/freshful_large/a8/2b/d55959d84ef9cfc578556810cb3a.jpg"},"extralarge":{"default":"https://cdn.freshful.ro/media/cache/sylius_shop_product_original/a8/2b/d55959d84ef9cfc578556810cb3a.jpg"}},"label":null,"tags":[],"isAvailable":true,"maxAvailableQuantity":100,"maxAllowedQuantity":100,"breadcrumbs":[{"code":"15","name":"Pet Shop","slug":"15-pet-shop"},{"code":"1501","name":"Pisici","slug":"1501-pisici"},{"code":"150104","name":"Așternuturi pisici","slug":"150104-asternuturi-pisici"},{"code":"100120704","name":"Granule așternut igienic pentru pisici, parfum lavandă 5l","slug":"100120704-catmania-granule-asternut-igienic-pentru-pisici-parfum-lavanda-5l"}],"activePromotion":null,"saveMe":null,"labels":[],"geniusPrice":null,"geniusUnitPricePerLabel":null,"banner":null,"discountLabel":null,"geniusDiscountLabel":null,"badge":null},{"code":"100120701","variantCode":"100120701","name":"Granule așternut igienic pentru pisici, parfum Fresh 5l","slug":"100120701-catmania-granule-asternut-igienic-pentru-pisici-parfum-fresh-5l","unitPriceLabel":"5,88 Lei/kg","brand":"Catmania","brandCode":"2068","brandFilterCode":"catmania-b2072","sku":"100120701","price":24.99,"originalPrice":null,"currencyCode":"RON","currency":"Lei","image":{"thumbnail":{"default":"https://cdn.freshful.ro/media/cache/sylius_shop_product_thumbnail/64/40/39479459062da637fb73f0550ef0.jpg"},"large":{"default":"https://cdn.freshful.ro/media/cache/freshful_large/64/40/39479459062da637fb73f0550ef0.jpg"},"extralarge":{"default":"https://cdn.freshful.ro/media/cache/sylius_shop_product_original/64/40/39479459062da637fb73f0550ef0.jpg"}},"label":null,"tags":[],"isAvailable":true,"maxAvailableQuantity":74,"maxAllowedQuantity":100,"breadcrumbs":[{"code":"15","name":"Pet Shop","slug":"15-pet-shop"},{"code":"1501","name":"Pisici","slug":"1501-pisici"},{"code":"150104","name":"Așternuturi pisici","slug":"150104-asternuturi-pisici"},{"code":"100120701","name":"Granule așternut igienic pentru pisici, parfum Fresh 5l","slug":"100120701-catmania-granule-asternut-igienic-pentru-pisici-parfum-fresh-5l"}],"activePromotion":null,"saveMe":null,"labels":[],"geniusPrice":null,"geniusUnitPricePerLabel":null,"banner":null,"discountLabel":null,"geniusDiscountLabel":null,"badge":null},{"code":"100141971","variantCode":"100141971","name":"Așternut igienic pentru pisici 3.8l","slug":"100141971-no-brand-asternut-igienic-pentru-pisici-3-8l","unitPriceLabel":"25,99 Lei/kg","brand":"Miau Miau","brandCode":"2725","brandFilterCode":"miau-miau-b2731","sku":"100141971","price":38.99,"originalPrice":null,"currencyCode":"RON","currency":"Lei","image":{"thumbnail":{"default":"https://cdn.freshful.ro/media/cache/sylius_shop_product_thumbnail/ea/3e/751ede51d29c89125709877331c0.jpg"},"large":{"default":"https://cdn.freshful.ro/media/cache/freshful_large/ea/3e/751ede51d29c89125709877331c0.jpg"},"extralarge":{"default":"https://cdn.freshful.ro/media/cache/sylius_shop_product_original/ea/3e/751ede51d29c89125709877331c0.jpg"}},"label":null,"tags":[],"isAvailable":true,"maxAvailableQuantity":31,"maxAllowedQuantity":100,"breadcrumbs":[{"code":"15","name":"Pet Shop","slug":"15-pet-shop"},{"code":"1501","name":"Pisici","slug":"1501-pisici"},{"code":"150104","name":"Așternuturi pisici","slug":"150104-asternuturi-pisici"},{"code":"100141971","name":"Așternut igienic pentru pisici 3.8l","slug":"100141971-no-brand-asternut-igienic-pentru-pisici-3-8l"}],"activePromotion":null,"saveMe":null,"labels":[],"geniusPrice":null,"geniusUnitPricePerLabel":null,"banner":null,"discountLabel":null,"geniusDiscountLabel":null,"badge":null},{"code":"100120702","variantCode":"100120702","name":"Granule așternut igienic pentru pisici, parfum aloe vera 5l","slug":"100120702-catmania-granule-asternut-igienic-pentru-pisici-parfum-aloe-vera-5l","unitPriceLabel":"5,88 Lei/kg","brand":"Catmania","brandCode":"2068","brandFilterCode":"catmania-b2072","sku":"100120702","price":24.99,"originalPrice":null,"currencyCode":"RON","currency":"Lei","image":{"thumbnail":{"default":"https://cdn.freshful.ro/media/cache/sylius_shop_product_thumbnail/ef/3d/a56ca9547d2521c1f45b23ea2817.jpg"},"large":{"default":"https://cdn.freshful.ro/media/cache/freshful_large/ef/3d/a56ca9547d2521c1f45b23ea2817.jpg"},"extralarge":{"default":"https://cdn.freshful.ro/media/cache/sylius_shop_product_original/ef/3d/a56ca9547d2521c1f45b23ea2817.jpg"}},"label":null,"tags":[],"isAvailable":true,"maxAvailableQuantity":92,"maxAllowedQuantity":100,"breadcrumbs":[{"code":"15","name":"Pet Shop","slug":"15-pet-shop"},{"code":"1501","name":"Pisici","slug":"1501-pisici"},{"code":"150104","name":"Așternuturi pisici","slug":"150104-asternuturi-pisici"},{"code":"100120702","name":"Granule așternut igienic pentru pisici, parfum aloe vera 5l","slug":"100120702-catmania-granule-asternut-igienic-pentru-pisici-parfum-aloe-vera-5l"}],"activePromotion":null,"saveMe":null,"labels":[],"geniusPrice":null,"geniusUnitPricePerLabel":null,"banner":null,"discountLabel":null,"geniusDiscountLabel":null,"badge":null},{"code":"100120700","variantCode":"100120700","name":"Granule așternut igienic pentru pisici, parfum de portocale 5l","slug":"100120700-catmania-granule-asternut-igienic-pentru-pisici-parfum-de-portocale-5l","unitPriceLabel":"5,88 Lei/kg","brand":"Catmania","brandCode":"2068","brandFilterCode":"catmania-b2072","sku":"100120700","price":24.99,"originalPrice":null,"currencyCode":"RON","currency":"Lei","image":{"thumbnail":{"default":"https://cdn.freshful.ro/media/cache/sylius_shop_product_thumbnail/25/76/10c9c888f1b4bf9086f80fe48d10.jpg"},"large":{"default":"https://cdn.freshful.ro/media/cache/freshful_large/25/76/10c9c888f1b4bf9086f80fe48d10.jpg"},"extralarge":{"default":"https://cdn.freshful.ro/media/cache/sylius_shop_product_original/25/76/10c9c888f1b4bf9086f80fe48d10.jpg"}},"label":null,"tags":[],"isAvailable":true,"maxAvailableQuantity":74,"maxAllowedQuantity":100,"breadcrumbs":[{"code":"15","name":"Pet Shop","slug":"15-pet-shop"},{"code":"1501","name":"Pisici","slug":"1501-pisici"},{"code":"150104","name":"Așternuturi pisici","slug":"150104-asternuturi-pisici"},{"code":"100120700","name":"Granule așternut igienic pentru pisici, parfum de portocale 5l","slug":"100120700-catmania-granule-asternut-igienic-pentru-pisici-parfum-de-portocale-5l"}],"activePromotion":null,"saveMe":null,"labels":[],"geniusPrice":null,"geniusUnitPricePerLabel":null,"banner":null,"discountLabel":null,"geniusDiscountLabel":null,"badge":null},{"code":"100120703","variantCode":"100120703","name":"Granule așternut igienic pentru pisici, parfum Baby Powder 5l","slug":"100120703-catmania-granule-asternut-igienic-pentru-pisici-parfum-baby-powder-5l","unitPriceLabel":"5,88 Lei/kg","brand":"Catmania","brandCode":"2068","brandFilterCode":"catmania-b2072","sku":"100120703","price":24.99,"originalPrice":null,"currencyCode":"RON","currency":"Lei","image":{"thumbnail":{"default":"https://cdn.freshful.ro/media/cache/sylius_shop_product_thumbnail/7a/71/1305e73b424d63dc3f2a6bfe1b66.jpg"},"large":{"default":"https://cdn.freshful.ro/media/cache/freshful_large/7a/71/1305e73b424d63dc3f2a6bfe1b66.jpg"},"extralarge":{"default":"https://cdn.freshful.ro/media/cache/sylius_shop_product_original/7a/71/1305e73b424d63dc3f2a6bfe1b66.jpg"}},"label":null,"tags":[],"isAvailable":true,"maxAvailableQuantity":54,"maxAllowedQuantity":100,"breadcrumbs":[{"code":"15","name":"Pet Shop","slug":"15-pet-shop"},{"code":"1501","name":"Pisici","slug":"1501-pisici"},{"code":"150104","name":"Așternuturi pisici","slug":"150104-asternuturi-pisici"},{"code":"100120703","name":"Granule așternut igienic pentru pisici, parfum Baby Powder 5l","slug":"100120703-catmania-granule-asternut-igienic-pentru-pisici-parfum-baby-powder-5l"}],"activePromotion":null,"saveMe":null,"labels":[],"geniusPrice":null,"geniusUnitPricePerLabel":null,"banner":null,"discountLabel":null,"geniusDiscountLabel":null,"badge":null},{"code":"100096108","variantCode":"100096108","name":"Așternut igienic pentru pisici silicat Easy Clean 3.6l","slug":"100096108-croci-asternut-igienic-pentru-pisici-silicat-easy-clean-3-6l","unitPriceLabel":"10,28 Lei/l","brand":"Croci","brandCode":"1567","brandFilterCode":"croci-b1571","sku":"100096108","price":36.99,"originalPrice":null,"currencyCode":"RON","currency":"Lei","image":{"thumbnail":{"default":"https://cdn.freshful.ro/media/cache/sylius_shop_product_thumbnail/26/23/d881e57bafc6986c1509ccec870b.jpg"},"large":{"default":"https://cdn.freshful.ro/media/cache/freshful_large/26/23/d881e57bafc6986c1509ccec870b.jpg"},"extralarge":{"default":"https://cdn.freshful.ro/media/cache/sylius_shop_product_original/26/23/d881e57bafc6986c1509ccec870b.jpg"}},"label":null,"tags":[],"isAvailable":true,"maxAvailableQuantity":42,"maxAllowedQuantity":100,"breadcrumbs":[{"code":"15","name":"Pet Shop","slug":"15-pet-shop"},{"code":"1501","name":"Pisici","slug":"1501-pisici"},{"code":"150104","name":"Așternuturi pisici","slug":"150104-asternuturi-pisici"},{"code":"100096108","name":"Așternut igienic pentru pisici silicat Easy Clean 3.6l","slug":"100096108-croci-asternut-igienic-pentru-pisici-silicat-easy-clean-3-6l"}],"activePromotion":null,"saveMe":null,"labels":[],"geniusPrice":null,"geniusUnitPricePerLabel":null,"banner":null,"discountLabel":null,"geniusDiscountLabel":null,"badge":null},{"code":"100141972","variantCode":"100141972","name":"Așternut igienic pentru pisici 8l","slug":"100141972-no-brand-asternut-igienic-pentru-pisici-8l","unitPriceLabel":"26,46 Lei/kg","brand":"Miau Miau","brandCode":"2725","brandFilterCode":"miau-miau-b2731","sku":"100141972","price":88.9,"originalPrice":null,"currencyCode":"RON","currency":"Lei","image":{"thumbnail":{"default":"https://cdn.freshful.ro/media/cache/sylius_shop_product_thumbnail/00/e2/ff69e515632a2fa41e9a33dc26f5.jpg"},"large":{"default":"https://cdn.freshful.ro/media/cache/freshful_large/00/e2/ff69e515632a2fa41e9a33dc26f5.jpg"},"extralarge":{"default":"https://cdn.freshful.ro/media/cache/sylius_shop_product_original/00/e2/ff69e515632a2fa41e9a33dc26f5.jpg"}},"label":null,"tags":[],"isAvailable":true,"maxAvailableQuantity":48,"maxAllowedQuantity":100,"breadcrumbs":[{"code":"15","name":"Pet Shop","slug":"15-pet-shop"},{"code":"1501","name":"Pisici","slug":"1501-pisici"},{"code":"150104","name":"Așternuturi pisici","slug":"150104-asternuturi-pisici"},{"code":"100141972","name":"Așternut igienic pentru pisici 8l","slug":"100141972-no-brand-asternut-igienic-pentru-pisici-8l"}],"activePromotion":null,"saveMe":null,"labels":[],"geniusPrice":null,"geniusUnitPricePerLabel":null,"banner":null,"discountLabel":null,"geniusDiscountLabel":null,"badge":null}],"filters":{"countSelected":0,"items":[{"code":"promotion","name":"Promoții","countSelected":0,"values":[{"code":"superpreturile-saptamanii","name":"Superprețurile zilei","isSelected":false,"count":1}]},{"code":"brand","name":"Brand","countSelected":0,"values":[{"code":"catmania-b2072","name":"Catmania","isSelected":false,"count":5},{"code":"croci-b1571","name":"Croci","isSelected":false,"count":4},{"code":"eco-clean-b1578","name":"Eco Clean","isSelected":false,"count":3},{"code":"miau-miau-b2731","name":"Miau Miau","isSelected":false,"count":4},{"code":"mr-biffy-b1607","name":"Mr. Biffy","isSelected":false,"count":2},{"code":"tofu-clean-b1579","name":"Tofu Clean","isSelected":false,"count":2}]},{"code":"diet_lifestyle","name":"Dietă și lifestyle","countSelected":0,"values":[{"code":"bio-a26","name":"Bio","isSelected":false,"count":2},{"code":"eco-a83","name":"Eco","isSelected":false,"count":1},{"code":"natural-a27","name":"Natural","isSelected":false,"count":3}]}]},"orderBy":[{"field":"price","direction":"asc","name":"Preț crescător","isSelected":false},{"field":"price","direction":"desc","name":"Preț descrescător","isSelected":false},{"field":"popularity","direction":"desc","name":"Cele mai populare","isSelected":true},{"field":"category","direction":"asc","name":"Categorie","isSelected":false}],"metaTitle":"Așternuturi pisici - Gamă variată","metaDescription":"Vrei Așternuturi pisici? Alege dintr-o gamă variată. Comanzi simplu și ai livrare rapidă, calitate și prospețime. Hai pe Freshful.ro","metaKeywords":null,"banners":[]}}