{"type":"subcategory","payload":{"analyticsListId":"category_150203-biscuiti-si-recompense-caini","analyticsListName":"Category - Biscuiți și recompense câini","name":"Biscuiți și recompense câini","slug":"150203-biscuiti-si-recompense-caini","image":null,"breadcrumbs":[{"code":"15","name":"Pet Shop","slug":"15-pet-shop"},{"code":"1502","name":"Câini","slug":"1502-caini"},{"code":"150203","name":"Biscuiți și recompense câini","slug":"150203-biscuiti-si-recompense-caini"}],"slots":[],"page":1,"limit":10,"pages":7,"count":65,"siblings":[{"name":"Pisici","slug":"1501-pisici","selected":false},{"name":"Câini","slug":"1502-caini","selected":true},{"name":"Păsări și rozătoare","slug":"1503-pasari-si-rozatoare","selected":false},{"name":"Pești și țestoase","slug":"1504-pesti-si-testoase","selected":false}],"children":[{"name":"Toate produsele","slug":"1502-caini","selected":false},{"name":"Hrană umedă câini","slug":"150201-hrana-umeda-caini","selected":false},{"name":"Hrană uscată câini","slug":"150202-hrana-uscata-caini","selected":false},{"name":"Biscuiți și recompense câini","slug":"150203-biscuiti-si-recompense-caini","selected":true},{"name":"Accesorii câini","slug":"150204-accesorii-caini","selected":false}],"products":[{"code":"100120709","variantCode":"100120709","name":"Recompensă pentru câini, os presat carne vită 10cm","slug":"100120709-mr-bandit-recompensa-pentru-caini-os-presat-carne-vita-10cm","unitPriceLabel":"41,9 Lei/kg","brand":"Mr. Bandit","brandCode":"2070","brandFilterCode":"mr-bandit-b2074","sku":"100120709","price":4.19,"originalPrice":null,"currencyCode":"RON","currency":"Lei","image":{"thumbnail":{"default":"https://cdn.freshful.ro/media/cache/sylius_shop_product_thumbnail/d9/11/e197e5ebf10d916d52cfa8f5af73.jpg"},"large":{"default":"https://cdn.freshful.ro/media/cache/freshful_large/d9/11/e197e5ebf10d916d52cfa8f5af73.jpg"},"extralarge":{"default":"https://cdn.freshful.ro/media/cache/sylius_shop_product_original/d9/11/e197e5ebf10d916d52cfa8f5af73.jpg"}},"label":null,"tags":[],"isAvailable":true,"maxAvailableQuantity":77,"maxAllowedQuantity":100,"breadcrumbs":[{"code":"15","name":"Pet Shop","slug":"15-pet-shop"},{"code":"1502","name":"Câini","slug":"1502-caini"},{"code":"150203","name":"Biscuiți și recompense câini","slug":"150203-biscuiti-si-recompense-caini"},{"code":"100120709","name":"Recompensă pentru câini, os presat carne vită 10cm","slug":"100120709-mr-bandit-recompensa-pentru-caini-os-presat-carne-vita-10cm"}],"activePromotion":null,"saveMe":null,"labels":[],"geniusPrice":null,"geniusUnitPricePerLabel":null,"banner":null,"discountLabel":null,"geniusDiscountLabel":null,"badge":null},{"code":"100062426","variantCode":"100062426","name":"Batoane dentare pentru câini, 270g, de talie mare, DentaStix","slug":"100062426-pedigree-batoane-dentare-pentru-caini-270g-de-talie-mare-dentastix","unitPriceLabel":"55,93 Lei/kg","brand":"Pedigree","brandCode":"255","brandFilterCode":"pedigree-b256","sku":"100062426","price":15.1,"originalPrice":null,"currencyCode":"RON","currency":"Lei","image":{"thumbnail":{"default":"https://cdn.freshful.ro/media/cache/sylius_shop_product_thumbnail/f5/5c/6694af28259303c950f5ac5ec5af.jpg"},"large":{"default":"https://cdn.freshful.ro/media/cache/freshful_large/f5/5c/6694af28259303c950f5ac5ec5af.jpg"},"extralarge":{"default":"https://cdn.freshful.ro/media/cache/sylius_shop_product_original/f5/5c/6694af28259303c950f5ac5ec5af.jpg"}},"label":null,"tags":[],"isAvailable":true,"maxAvailableQuantity":94,"maxAllowedQuantity":100,"breadcrumbs":[{"code":"15","name":"Pet Shop","slug":"15-pet-shop"},{"code":"1502","name":"Câini","slug":"1502-caini"},{"code":"150203","name":"Biscuiți și recompense câini","slug":"150203-biscuiti-si-recompense-caini"},{"code":"100062426","name":"Batoane dentare pentru câini, 270g, de talie mare, DentaStix","slug":"100062426-pedigree-batoane-dentare-pentru-caini-270g-de-talie-mare-dentastix"}],"activePromotion":null,"saveMe":null,"labels":[],"geniusPrice":null,"geniusUnitPricePerLabel":null,"banner":null,"discountLabel":null,"geniusDiscountLabel":null,"badge":null},{"code":"100062415","variantCode":"100062415","name":"Batoane dentare pentru câini, 7 buc, 180g, de talie medie DentaStix ","slug":"100062415-pedigree-batoane-dentare-pentru-caini-7-buc-180g-de-talie-medie-dentastix","unitPriceLabel":"55,5 Lei/kg","brand":"Pedigree","brandCode":"255","brandFilterCode":"pedigree-b256","sku":"100062415","price":9.99,"originalPrice":null,"currencyCode":"RON","currency":"Lei","image":{"thumbnail":{"default":"https://cdn.freshful.ro/media/cache/sylius_shop_product_thumbnail/87/5f/f5d3c0a3c8ac1abb924bc9f64e56.jpg"},"large":{"default":"https://cdn.freshful.ro/media/cache/freshful_large/87/5f/f5d3c0a3c8ac1abb924bc9f64e56.jpg"},"extralarge":{"default":"https://cdn.freshful.ro/media/cache/sylius_shop_product_original/87/5f/f5d3c0a3c8ac1abb924bc9f64e56.jpg"}},"label":null,"tags":[],"isAvailable":true,"maxAvailableQuantity":27,"maxAllowedQuantity":100,"breadcrumbs":[{"code":"15","name":"Pet Shop","slug":"15-pet-shop"},{"code":"1502","name":"Câini","slug":"1502-caini"},{"code":"150203","name":"Biscuiți și recompense câini","slug":"150203-biscuiti-si-recompense-caini"},{"code":"100062415","name":"Batoane dentare pentru câini, 7 buc, 180g, de talie medie DentaStix ","slug":"100062415-pedigree-batoane-dentare-pentru-caini-7-buc-180g-de-talie-medie-dentastix"}],"activePromotion":null,"saveMe":null,"labels":[],"geniusPrice":null,"geniusUnitPricePerLabel":null,"banner":null,"discountLabel":null,"geniusDiscountLabel":null,"badge":null},{"code":"100138514","variantCode":"100138514","name":"Recompensă piele de vită pentru câini 20cm","slug":"100138514-mr-bandit-recompensa-piele-de-vita-pentru-caini-20cm","unitPriceLabel":"106,6 Lei/buc","brand":"Mr. Bandit","brandCode":"2070","brandFilterCode":"mr-bandit-b2074","sku":"100138514","price":15.99,"originalPrice":null,"currencyCode":"RON","currency":"Lei","image":{"thumbnail":{"default":"https://cdn.freshful.ro/media/cache/sylius_shop_product_thumbnail/c6/9b/05b711bf2aa006f944b700ba71cb.jpg"},"large":{"default":"https://cdn.freshful.ro/media/cache/freshful_large/c6/9b/05b711bf2aa006f944b700ba71cb.jpg"},"extralarge":{"default":"https://cdn.freshful.ro/media/cache/sylius_shop_product_original/c6/9b/05b711bf2aa006f944b700ba71cb.jpg"}},"label":null,"tags":[],"isAvailable":true,"maxAvailableQuantity":26,"maxAllowedQuantity":100,"breadcrumbs":[{"code":"15","name":"Pet Shop","slug":"15-pet-shop"},{"code":"1502","name":"Câini","slug":"1502-caini"},{"code":"150203","name":"Biscuiți și recompense câini","slug":"150203-biscuiti-si-recompense-caini"},{"code":"100138514","name":"Recompensă piele de vită pentru câini 20cm","slug":"100138514-mr-bandit-recompensa-piele-de-vita-pentru-caini-20cm"}],"activePromotion":null,"saveMe":null,"labels":[],"geniusPrice":null,"geniusUnitPricePerLabel":null,"banner":null,"discountLabel":null,"geniusDiscountLabel":null,"badge":null},{"code":"100062417","variantCode":"100062417","name":"Batoane dentare pentru câini, 7 buc, 110g, de talie mică, DentaStix ","slug":"100062417-pedigree-batoane-dentare-pentru-caini-7-buc-110g-de-talie-mica-dentastix","unitPriceLabel":"90,82 Lei/kg","brand":"Pedigree","brandCode":"255","brandFilterCode":"pedigree-b256","sku":"100062417","price":9.99,"originalPrice":null,"currencyCode":"RON","currency":"Lei","image":{"thumbnail":{"default":"https://cdn.freshful.ro/media/cache/sylius_shop_product_thumbnail/9e/7e/82e33dabeb99d396403a12f7cb94.jpg"},"large":{"default":"https://cdn.freshful.ro/media/cache/freshful_large/9e/7e/82e33dabeb99d396403a12f7cb94.jpg"},"extralarge":{"default":"https://cdn.freshful.ro/media/cache/sylius_shop_product_original/9e/7e/82e33dabeb99d396403a12f7cb94.jpg"}},"label":null,"tags":[],"isAvailable":true,"maxAvailableQuantity":6,"maxAllowedQuantity":100,"breadcrumbs":[{"code":"15","name":"Pet Shop","slug":"15-pet-shop"},{"code":"1502","name":"Câini","slug":"1502-caini"},{"code":"150203","name":"Biscuiți și recompense câini","slug":"150203-biscuiti-si-recompense-caini"},{"code":"100062417","name":"Batoane dentare pentru câini, 7 buc, 110g, de talie mică, DentaStix ","slug":"100062417-pedigree-batoane-dentare-pentru-caini-7-buc-110g-de-talie-mica-dentastix"}],"activePromotion":null,"saveMe":null,"labels":[],"geniusPrice":null,"geniusUnitPricePerLabel":null,"banner":null,"discountLabel":null,"geniusDiscountLabel":null,"badge":null},{"code":"100040212","variantCode":"100040212","name":"Recompense pentru câini, 70g, cu vită ","slug":"100040212-pedigree-recompense-pentru-caini-70g-cu-vita","unitPriceLabel":"166 Lei/kg","brand":"Pedigree","brandCode":"255","brandFilterCode":"pedigree-b256","sku":"100040212","price":11.62,"originalPrice":null,"currencyCode":"RON","currency":"Lei","image":{"thumbnail":{"default":"https://cdn.freshful.ro/media/cache/sylius_shop_product_thumbnail/78/69/af5cdc77a141ae7e7d6da60538da.jpg"},"large":{"default":"https://cdn.freshful.ro/media/cache/freshful_large/78/69/af5cdc77a141ae7e7d6da60538da.jpg"},"extralarge":{"default":"https://cdn.freshful.ro/media/cache/sylius_shop_product_original/78/69/af5cdc77a141ae7e7d6da60538da.jpg"}},"label":null,"tags":[],"isAvailable":true,"maxAvailableQuantity":19,"maxAllowedQuantity":100,"breadcrumbs":[{"code":"15","name":"Pet Shop","slug":"15-pet-shop"},{"code":"1502","name":"Câini","slug":"1502-caini"},{"code":"150203","name":"Biscuiți și recompense câini","slug":"150203-biscuiti-si-recompense-caini"},{"code":"100040212","name":"Recompense pentru câini, 70g, cu vită ","slug":"100040212-pedigree-recompense-pentru-caini-70g-cu-vita"}],"activePromotion":null,"saveMe":null,"labels":[],"geniusPrice":null,"geniusUnitPricePerLabel":null,"banner":null,"discountLabel":null,"geniusDiscountLabel":null,"badge":null},{"code":"100062416","variantCode":"100062416","name":"Recompense pentru câini, 70g, Rodeo cu vită ","slug":"100062416-pedigree-recompense-pentru-caini-70g-rodeo-cu-vita","unitPriceLabel":"62,71 Lei/kg","brand":"Pedigree","brandCode":"255","brandFilterCode":"pedigree-b256","sku":"100062416","price":4.39,"originalPrice":null,"currencyCode":"RON","currency":"Lei","image":{"thumbnail":{"default":"https://cdn.freshful.ro/media/cache/sylius_shop_product_thumbnail/6e/27/a6affbd9ee9fcc5107cf790c90c7.jpg"},"large":{"default":"https://cdn.freshful.ro/media/cache/freshful_large/6e/27/a6affbd9ee9fcc5107cf790c90c7.jpg"},"extralarge":{"default":"https://cdn.freshful.ro/media/cache/sylius_shop_product_original/6e/27/a6affbd9ee9fcc5107cf790c90c7.jpg"}},"label":null,"tags":[],"isAvailable":true,"maxAvailableQuantity":43,"maxAllowedQuantity":100,"breadcrumbs":[{"code":"15","name":"Pet Shop","slug":"15-pet-shop"},{"code":"1502","name":"Câini","slug":"1502-caini"},{"code":"150203","name":"Biscuiți și recompense câini","slug":"150203-biscuiti-si-recompense-caini"},{"code":"100062416","name":"Recompense pentru câini, 70g, Rodeo cu vită ","slug":"100062416-pedigree-recompense-pentru-caini-70g-rodeo-cu-vita"}],"activePromotion":null,"saveMe":null,"labels":[],"geniusPrice":null,"geniusUnitPricePerLabel":null,"banner":null,"discountLabel":null,"geniusDiscountLabel":null,"badge":null},{"code":"100062418","variantCode":"100062418","name":"Hrană complementară pentru câini adulți 500g","slug":"100062418-pedigree-hrana-complementara-pentru-caini-adulti-500g","unitPriceLabel":"19,7 Lei/kg","brand":"Pedigree","brandCode":"255","brandFilterCode":"pedigree-b256","sku":"100062418","price":9.85,"originalPrice":null,"currencyCode":"RON","currency":"Lei","image":{"thumbnail":{"default":"https://cdn.freshful.ro/media/cache/sylius_shop_product_thumbnail/55/73/182dbd714c53ed558c3046344e3b.jpg"},"large":{"default":"https://cdn.freshful.ro/media/cache/freshful_large/55/73/182dbd714c53ed558c3046344e3b.jpg"},"extralarge":{"default":"https://cdn.freshful.ro/media/cache/sylius_shop_product_original/55/73/182dbd714c53ed558c3046344e3b.jpg"}},"label":null,"tags":[],"isAvailable":true,"maxAvailableQuantity":30,"maxAllowedQuantity":100,"breadcrumbs":[{"code":"15","name":"Pet Shop","slug":"15-pet-shop"},{"code":"1502","name":"Câini","slug":"1502-caini"},{"code":"150203","name":"Biscuiți și recompense câini","slug":"150203-biscuiti-si-recompense-caini"},{"code":"100062418","name":"Hrană complementară pentru câini adulți 500g","slug":"100062418-pedigree-hrana-complementara-pentru-caini-adulti-500g"}],"activePromotion":null,"saveMe":null,"labels":[],"geniusPrice":null,"geniusUnitPricePerLabel":null,"banner":null,"discountLabel":null,"geniusDiscountLabel":null,"badge":null},{"code":"100096063","variantCode":"100096063","name":"Recompense pentru câini, 250g , vită și orez os ","slug":"100096063-magnum-recompense-pentru-caini-250g-vita-si-orez-os","unitPriceLabel":"147,96 Lei/kg","brand":"Magnum","brandCode":"30","brandFilterCode":"magnum-b24","sku":"100096063","price":36.99,"originalPrice":null,"currencyCode":"RON","currency":"Lei","image":{"thumbnail":{"default":"https://cdn.freshful.ro/media/cache/sylius_shop_product_thumbnail/19/c8/36afe1be33286ae3f62647af700a.jpg"},"large":{"default":"https://cdn.freshful.ro/media/cache/freshful_large/19/c8/36afe1be33286ae3f62647af700a.jpg"},"extralarge":{"default":"https://cdn.freshful.ro/media/cache/sylius_shop_product_original/19/c8/36afe1be33286ae3f62647af700a.jpg"}},"label":null,"tags":[],"isAvailable":true,"maxAvailableQuantity":62,"maxAllowedQuantity":100,"breadcrumbs":[{"code":"15","name":"Pet Shop","slug":"15-pet-shop"},{"code":"1502","name":"Câini","slug":"1502-caini"},{"code":"150203","name":"Biscuiți și recompense câini","slug":"150203-biscuiti-si-recompense-caini"},{"code":"100096063","name":"Recompense pentru câini, 250g , vită și orez os ","slug":"100096063-magnum-recompense-pentru-caini-250g-vita-si-orez-os"}],"activePromotion":null,"saveMe":null,"labels":[],"geniusPrice":null,"geniusUnitPricePerLabel":null,"banner":null,"discountLabel":null,"geniusDiscountLabel":null,"badge":null},{"code":"100062421","variantCode":"100062421","name":"Batoane dentare pentru câini, 180g, de talie medie, cu eucalipt DentaStix ","slug":"100062421-pedigree-batoane-dentare-pentru-caini-180g-de-talie-medie-cu-eucalipt-dentastix","unitPriceLabel":"53,61 Lei/kg","brand":"Pedigree","brandCode":"255","brandFilterCode":"pedigree-b256","sku":"100062421","price":9.65,"originalPrice":null,"currencyCode":"RON","currency":"Lei","image":{"thumbnail":{"default":"https://cdn.freshful.ro/media/cache/sylius_shop_product_thumbnail/ee/45/c2ddc294588ea79b09eca6457f3d.jpg"},"large":{"default":"https://cdn.freshful.ro/media/cache/freshful_large/ee/45/c2ddc294588ea79b09eca6457f3d.jpg"},"extralarge":{"default":"https://cdn.freshful.ro/media/cache/sylius_shop_product_original/ee/45/c2ddc294588ea79b09eca6457f3d.jpg"}},"label":null,"tags":[],"isAvailable":true,"maxAvailableQuantity":26,"maxAllowedQuantity":100,"breadcrumbs":[{"code":"15","name":"Pet Shop","slug":"15-pet-shop"},{"code":"1502","name":"Câini","slug":"1502-caini"},{"code":"150203","name":"Biscuiți și recompense câini","slug":"150203-biscuiti-si-recompense-caini"},{"code":"100062421","name":"Batoane dentare pentru câini, 180g, de talie medie, cu eucalipt DentaStix ","slug":"100062421-pedigree-batoane-dentare-pentru-caini-180g-de-talie-medie-cu-eucalipt-dentastix"}],"activePromotion":null,"saveMe":null,"labels":[],"geniusPrice":null,"geniusUnitPricePerLabel":null,"banner":null,"discountLabel":null,"geniusDiscountLabel":null,"badge":null}],"filters":{"countSelected":0,"items":[{"code":"brand","name":"Brand","countSelected":0,"values":[{"code":"4dog-b2732","name":"4Dog","isSelected":false,"count":2},{"code":"dentalife-b3083","name":"Dentalife","isSelected":false,"count":3},{"code":"friskies-b2211","name":"Friskies","isSelected":false,"count":4},{"code":"frolic-b255","name":"Frolic","isSelected":false,"count":3},{"code":"glandex-b2501","name":"Glandex","isSelected":false,"count":2},{"code":"magnum-b24","name":"Magnum","isSelected":false,"count":9},{"code":"mera-b2733","name":"Mera","isSelected":false,"count":2},{"code":"mr-bandit-b2074","name":"Mr. Bandit","isSelected":false,"count":8},{"code":"pedigree-b256","name":"Pedigree","isSelected":false,"count":31},{"code":"starmark-academy-b1045","name":"Starmark Academy","isSelected":false,"count":1}]},{"code":"diet_lifestyle","name":"Dietă și lifestyle","countSelected":0,"values":[{"code":"fara-conservanti-a37","name":"Fara conservanti","isSelected":false,"count":1},{"code":"fara-zahar-adaugat-a29","name":"Fara zahar adaugat","isSelected":false,"count":3}]}]},"orderBy":[{"field":"price","direction":"asc","name":"Preț crescător","isSelected":false},{"field":"price","direction":"desc","name":"Preț descrescător","isSelected":false},{"field":"popularity","direction":"desc","name":"Cele mai populare","isSelected":true},{"field":"category","direction":"asc","name":"Categorie","isSelected":false}],"metaTitle":"Biscuiți și recompense câini - Gamă variată","metaDescription":"Vrei Biscuiți și recompense câini? Alege dintr-o gamă variată. Comanzi simplu și ai livrare rapidă, calitate și prospețime. Hai pe Freshful.ro","metaKeywords":null,"banners":[]}}