{"type":"subcategory","payload":{"analyticsListId":"category_1502-caini","analyticsListName":"Category - Câini","name":"Câini","slug":"1502-caini","image":null,"breadcrumbs":[{"code":"15","name":"Pet Shop","slug":"15-pet-shop"},{"code":"1502","name":"Câini","slug":"1502-caini"}],"slots":[],"page":1,"limit":10,"pages":27,"count":266,"siblings":[{"name":"Pisici","slug":"1501-pisici","selected":false},{"name":"Câini","slug":"1502-caini","selected":true},{"name":"Păsări și rozătoare","slug":"1503-pasari-si-rozatoare","selected":false},{"name":"Pești și țestoase","slug":"1504-pesti-si-testoase","selected":false}],"children":[{"name":"Toate produsele","slug":"1502-caini","selected":true},{"name":"Hrană umedă câini","slug":"150201-hrana-umeda-caini","selected":false},{"name":"Hrană uscată câini","slug":"150202-hrana-uscata-caini","selected":false},{"name":"Biscuiți și recompense câini","slug":"150203-biscuiti-si-recompense-caini","selected":false},{"name":"Accesorii câini","slug":"150204-accesorii-caini","selected":false}],"products":[{"code":"100141705","variantCode":"100141705","name":"Hrană uscată pentru câini, 15Kg, Giant Junior","slug":"100141705-royal-canin-hrana-uscata-pentru-caini-15kg-giant-junior","unitPriceLabel":"19,33 Lei/kg","brand":"Royal Canin","brandCode":"2714","brandFilterCode":"royal-canin-b2721","sku":"100141705","price":289.99,"originalPrice":339.99,"currencyCode":"RON","currency":"Lei","image":{"thumbnail":{"default":"https://cdn.freshful.ro/media/cache/sylius_shop_product_thumbnail/8f/8d/d49263139be1e1aa9d4429d227bf.jpg"},"large":{"default":"https://cdn.freshful.ro/media/cache/freshful_large/8f/8d/d49263139be1e1aa9d4429d227bf.jpg"},"extralarge":{"default":"https://cdn.freshful.ro/media/cache/sylius_shop_product_original/8f/8d/d49263139be1e1aa9d4429d227bf.jpg"}},"label":{"text":"-14%","backgroundColor":"#FF9903","textColor":"#FFFFFF"},"tags":[],"isAvailable":true,"maxAvailableQuantity":7,"maxAllowedQuantity":100,"breadcrumbs":[{"code":"15","name":"Pet Shop","slug":"15-pet-shop"},{"code":"1502","name":"Câini","slug":"1502-caini"},{"code":"150202","name":"Hrană uscată câini","slug":"150202-hrana-uscata-caini"},{"code":"100141705","name":"Hrană uscată pentru câini, 15Kg, Giant Junior","slug":"100141705-royal-canin-hrana-uscata-pentru-caini-15kg-giant-junior"}],"activePromotion":{"code":"oferte-bacanie-bauturi-21feb-8mar23","name":"Preț redus","targetQuantity":null},"saveMe":null,"labels":[{"type":"v1","items":[{"text":"-14%","backgroundColor":"#FF9903","textColor":"#FFFFFF"}]}],"geniusPrice":null,"geniusUnitPricePerLabel":null,"banner":{"text":"Super preț","textColor":"#FF0000","bgColor":"#FFF2EC","icon":null,"link":"https://www.freshful.ro/oferte/oferte-bacanie-bauturi-21feb-8mar23","type":"promo","analyticsEventType":"select_promotion","analyticsEventPayload":{"promotion_id":"oferte-bacanie-bauturi-21feb-8mar23","promotion_name":"Cămara cu băuturi și bunătăți"}},"discountLabel":"Economisești 14%","geniusDiscountLabel":null,"badge":null},{"code":"100141700","variantCode":"100141700","name":"Hrană uscată pentru câini, 15Kg, Medium Adult 7+","slug":"100141700-royal-canin-hrana-uscata-pentru-caini-15kg-medium-adult-7","unitPriceLabel":"19,33 Lei/kg","brand":"Royal Canin","brandCode":"2714","brandFilterCode":"royal-canin-b2721","sku":"100141700","price":289.99,"originalPrice":329.99,"currencyCode":"RON","currency":"Lei","image":{"thumbnail":{"default":"https://cdn.freshful.ro/media/cache/sylius_shop_product_thumbnail/17/74/15598fa8c3fa1d38d64559350d92.jpg"},"large":{"default":"https://cdn.freshful.ro/media/cache/freshful_large/17/74/15598fa8c3fa1d38d64559350d92.jpg"},"extralarge":{"default":"https://cdn.freshful.ro/media/cache/sylius_shop_product_original/17/74/15598fa8c3fa1d38d64559350d92.jpg"}},"label":{"text":"-12%","backgroundColor":"#FF9903","textColor":"#FFFFFF"},"tags":[],"isAvailable":true,"maxAvailableQuantity":14,"maxAllowedQuantity":100,"breadcrumbs":[{"code":"15","name":"Pet Shop","slug":"15-pet-shop"},{"code":"1502","name":"Câini","slug":"1502-caini"},{"code":"150202","name":"Hrană uscată câini","slug":"150202-hrana-uscata-caini"},{"code":"100141700","name":"Hrană uscată pentru câini, 15Kg, Medium Adult 7+","slug":"100141700-royal-canin-hrana-uscata-pentru-caini-15kg-medium-adult-7"}],"activePromotion":{"code":"oferte-bacanie-bauturi-21feb-8mar23","name":"Preț redus","targetQuantity":null},"saveMe":null,"labels":[{"type":"v1","items":[{"text":"-12%","backgroundColor":"#FF9903","textColor":"#FFFFFF"}]}],"geniusPrice":null,"geniusUnitPricePerLabel":null,"banner":{"text":"Super preț","textColor":"#FF0000","bgColor":"#FFF2EC","icon":null,"link":"https://www.freshful.ro/oferte/oferte-bacanie-bauturi-21feb-8mar23","type":"promo","analyticsEventType":"select_promotion","analyticsEventPayload":{"promotion_id":"oferte-bacanie-bauturi-21feb-8mar23","promotion_name":"Cămara cu băuturi și bunătăți"}},"discountLabel":"Economisești 12%","geniusDiscountLabel":null,"badge":null},{"code":"100141704","variantCode":"100141704","name":"Hrană uscată pentru câini, 15Kg, Giant Puppy","slug":"100141704-royal-canin-hrana-uscata-pentru-caini-15kg-giant-puppy","unitPriceLabel":"19,33 Lei/kg","brand":"Royal Canin","brandCode":"2714","brandFilterCode":"royal-canin-b2721","sku":"100141704","price":289.99,"originalPrice":329.99,"currencyCode":"RON","currency":"Lei","image":{"thumbnail":{"default":"https://cdn.freshful.ro/media/cache/sylius_shop_product_thumbnail/c4/54/17b7f78907d62236de0aca3fd9ee.jpg"},"large":{"default":"https://cdn.freshful.ro/media/cache/freshful_large/c4/54/17b7f78907d62236de0aca3fd9ee.jpg"},"extralarge":{"default":"https://cdn.freshful.ro/media/cache/sylius_shop_product_original/c4/54/17b7f78907d62236de0aca3fd9ee.jpg"}},"label":{"text":"-12%","backgroundColor":"#FF9903","textColor":"#FFFFFF"},"tags":[],"isAvailable":true,"maxAvailableQuantity":10,"maxAllowedQuantity":100,"breadcrumbs":[{"code":"15","name":"Pet Shop","slug":"15-pet-shop"},{"code":"1502","name":"Câini","slug":"1502-caini"},{"code":"150202","name":"Hrană uscată câini","slug":"150202-hrana-uscata-caini"},{"code":"100141704","name":"Hrană uscată pentru câini, 15Kg, Giant Puppy","slug":"100141704-royal-canin-hrana-uscata-pentru-caini-15kg-giant-puppy"}],"activePromotion":{"code":"oferte-bacanie-bauturi-21feb-8mar23","name":"Preț redus","targetQuantity":null},"saveMe":null,"labels":[{"type":"v1","items":[{"text":"-12%","backgroundColor":"#FF9903","textColor":"#FFFFFF"}]}],"geniusPrice":null,"geniusUnitPricePerLabel":null,"banner":{"text":"Super preț","textColor":"#FF0000","bgColor":"#FFF2EC","icon":null,"link":"https://www.freshful.ro/oferte/oferte-bacanie-bauturi-21feb-8mar23","type":"promo","analyticsEventType":"select_promotion","analyticsEventPayload":{"promotion_id":"oferte-bacanie-bauturi-21feb-8mar23","promotion_name":"Cămara cu băuturi și bunătăți"}},"discountLabel":"Economisești 12%","geniusDiscountLabel":null,"badge":null},{"code":"100120709","variantCode":"100120709","name":"Recompensă pentru câini, os presat carne vită 10cm","slug":"100120709-mr-bandit-recompensa-pentru-caini-os-presat-carne-vita-10cm","unitPriceLabel":"41,9 Lei/kg","brand":"Mr. Bandit","brandCode":"2070","brandFilterCode":"mr-bandit-b2074","sku":"100120709","price":4.19,"originalPrice":null,"currencyCode":"RON","currency":"Lei","image":{"thumbnail":{"default":"https://cdn.freshful.ro/media/cache/sylius_shop_product_thumbnail/d9/11/e197e5ebf10d916d52cfa8f5af73.jpg"},"large":{"default":"https://cdn.freshful.ro/media/cache/freshful_large/d9/11/e197e5ebf10d916d52cfa8f5af73.jpg"},"extralarge":{"default":"https://cdn.freshful.ro/media/cache/sylius_shop_product_original/d9/11/e197e5ebf10d916d52cfa8f5af73.jpg"}},"label":null,"tags":[],"isAvailable":true,"maxAvailableQuantity":77,"maxAllowedQuantity":100,"breadcrumbs":[{"code":"15","name":"Pet Shop","slug":"15-pet-shop"},{"code":"1502","name":"Câini","slug":"1502-caini"},{"code":"150203","name":"Biscuiți și recompense câini","slug":"150203-biscuiti-si-recompense-caini"},{"code":"100120709","name":"Recompensă pentru câini, os presat carne vită 10cm","slug":"100120709-mr-bandit-recompensa-pentru-caini-os-presat-carne-vita-10cm"}],"activePromotion":null,"saveMe":null,"labels":[],"geniusPrice":null,"geniusUnitPricePerLabel":null,"banner":null,"discountLabel":null,"geniusDiscountLabel":null,"badge":null},{"code":"100040158","variantCode":"100040158","name":"Hrană umedă pentru câini adulți, 4x100g, selecții de carne în sos ","slug":"100040158-cesar-hrana-umeda-pentru-caini-adulti-4x100g-selectii-de-carne-in-sos","unitPriceLabel":"27,23 Lei/kg","brand":"Cesar","brandCode":"250","brandFilterCode":"cesar-b251","sku":"100040158","price":10.89,"originalPrice":null,"currencyCode":"RON","currency":"Lei","image":{"thumbnail":{"default":"https://cdn.freshful.ro/media/cache/sylius_shop_product_thumbnail/3b/da/7e62de0b7678110987cf1d52144f.jpg"},"large":{"default":"https://cdn.freshful.ro/media/cache/freshful_large/3b/da/7e62de0b7678110987cf1d52144f.jpg"},"extralarge":{"default":"https://cdn.freshful.ro/media/cache/sylius_shop_product_original/3b/da/7e62de0b7678110987cf1d52144f.jpg"}},"label":null,"tags":[],"isAvailable":true,"maxAvailableQuantity":100,"maxAllowedQuantity":100,"breadcrumbs":[{"code":"15","name":"Pet Shop","slug":"15-pet-shop"},{"code":"1502","name":"Câini","slug":"1502-caini"},{"code":"150201","name":"Hrană umedă câini","slug":"150201-hrana-umeda-caini"},{"code":"100040158","name":"Hrană umedă pentru câini adulți, 4x100g, selecții de carne în sos ","slug":"100040158-cesar-hrana-umeda-pentru-caini-adulti-4x100g-selectii-de-carne-in-sos"}],"activePromotion":null,"saveMe":null,"labels":[],"geniusPrice":null,"geniusUnitPricePerLabel":null,"banner":null,"discountLabel":null,"geniusDiscountLabel":null,"badge":null},{"code":"100062426","variantCode":"100062426","name":"Batoane dentare pentru câini, 270g, de talie mare, DentaStix","slug":"100062426-pedigree-batoane-dentare-pentru-caini-270g-de-talie-mare-dentastix","unitPriceLabel":"55,93 Lei/kg","brand":"Pedigree","brandCode":"255","brandFilterCode":"pedigree-b256","sku":"100062426","price":15.1,"originalPrice":null,"currencyCode":"RON","currency":"Lei","image":{"thumbnail":{"default":"https://cdn.freshful.ro/media/cache/sylius_shop_product_thumbnail/f5/5c/6694af28259303c950f5ac5ec5af.jpg"},"large":{"default":"https://cdn.freshful.ro/media/cache/freshful_large/f5/5c/6694af28259303c950f5ac5ec5af.jpg"},"extralarge":{"default":"https://cdn.freshful.ro/media/cache/sylius_shop_product_original/f5/5c/6694af28259303c950f5ac5ec5af.jpg"}},"label":null,"tags":[],"isAvailable":true,"maxAvailableQuantity":94,"maxAllowedQuantity":100,"breadcrumbs":[{"code":"15","name":"Pet Shop","slug":"15-pet-shop"},{"code":"1502","name":"Câini","slug":"1502-caini"},{"code":"150203","name":"Biscuiți și recompense câini","slug":"150203-biscuiti-si-recompense-caini"},{"code":"100062426","name":"Batoane dentare pentru câini, 270g, de talie mare, DentaStix","slug":"100062426-pedigree-batoane-dentare-pentru-caini-270g-de-talie-mare-dentastix"}],"activePromotion":null,"saveMe":null,"labels":[],"geniusPrice":null,"geniusUnitPricePerLabel":null,"banner":null,"discountLabel":null,"geniusDiscountLabel":null,"badge":null},{"code":"100141974","variantCode":"100141974","name":"Covorașe super absorbante 60*60, 10buc ","slug":"100141974-no-brand-covorase-super-absorbante-60-60-10buc","unitPriceLabel":"","brand":"4Dog","brandCode":"2726","brandFilterCode":"4dog-b2732","sku":"100141974","price":22.99,"originalPrice":null,"currencyCode":"RON","currency":"Lei","image":{"thumbnail":{"default":"https://cdn.freshful.ro/media/cache/sylius_shop_product_thumbnail/f9/f9/05a114a83ceb2903951bd1b3e4a1.jpg"},"large":{"default":"https://cdn.freshful.ro/media/cache/freshful_large/f9/f9/05a114a83ceb2903951bd1b3e4a1.jpg"},"extralarge":{"default":"https://cdn.freshful.ro/media/cache/sylius_shop_product_original/f9/f9/05a114a83ceb2903951bd1b3e4a1.jpg"}},"label":null,"tags":[],"isAvailable":true,"maxAvailableQuantity":40,"maxAllowedQuantity":100,"breadcrumbs":[{"code":"15","name":"Pet Shop","slug":"15-pet-shop"},{"code":"1502","name":"Câini","slug":"1502-caini"},{"code":"150204","name":"Accesorii câini","slug":"150204-accesorii-caini"},{"code":"100141974","name":"Covorașe super absorbante 60*60, 10buc ","slug":"100141974-no-brand-covorase-super-absorbante-60-60-10buc"}],"activePromotion":null,"saveMe":null,"labels":[],"geniusPrice":null,"geniusUnitPricePerLabel":null,"banner":null,"discountLabel":null,"geniusDiscountLabel":null,"badge":null},{"code":"100040154","variantCode":"100040154","name":"Hrană umedă pentru câini adulți, 150g, cu curcan și vită","slug":"100040154-cesar-hrana-umeda-pentru-caini-adulti-150g-cu-curcan-si-vita","unitPriceLabel":"27 Lei/kg","brand":"Cesar","brandCode":"250","brandFilterCode":"cesar-b251","sku":"100040154","price":4.05,"originalPrice":null,"currencyCode":"RON","currency":"Lei","image":{"thumbnail":{"default":"https://cdn.freshful.ro/media/cache/sylius_shop_product_thumbnail/08/c0/eee23c2665088e672dc0e627553c.jpg"},"large":{"default":"https://cdn.freshful.ro/media/cache/freshful_large/08/c0/eee23c2665088e672dc0e627553c.jpg"},"extralarge":{"default":"https://cdn.freshful.ro/media/cache/sylius_shop_product_original/08/c0/eee23c2665088e672dc0e627553c.jpg"}},"label":null,"tags":[],"isAvailable":true,"maxAvailableQuantity":100,"maxAllowedQuantity":100,"breadcrumbs":[{"code":"15","name":"Pet Shop","slug":"15-pet-shop"},{"code":"1502","name":"Câini","slug":"1502-caini"},{"code":"150201","name":"Hrană umedă câini","slug":"150201-hrana-umeda-caini"},{"code":"100040154","name":"Hrană umedă pentru câini adulți, 150g, cu curcan și vită","slug":"100040154-cesar-hrana-umeda-pentru-caini-adulti-150g-cu-curcan-si-vita"}],"activePromotion":null,"saveMe":null,"labels":[],"geniusPrice":null,"geniusUnitPricePerLabel":null,"banner":null,"discountLabel":null,"geniusDiscountLabel":null,"badge":null},{"code":"100040204","variantCode":"100040204","name":"Hrană umedă pentru câini adulți, 100g, cu miel în aspic ","slug":"100040204-pedigree-hrana-umeda-pentru-caini-adulti-100g-cu-miel-in-aspic","unitPriceLabel":"26,9 Lei/kg","brand":"Pedigree","brandCode":"255","brandFilterCode":"pedigree-b256","sku":"100040204","price":2.69,"originalPrice":null,"currencyCode":"RON","currency":"Lei","image":{"thumbnail":{"default":"https://cdn.freshful.ro/media/cache/sylius_shop_product_thumbnail/f6/c5/0d32234074490a9c7ac8d0600bf3.jpg"},"large":{"default":"https://cdn.freshful.ro/media/cache/freshful_large/f6/c5/0d32234074490a9c7ac8d0600bf3.jpg"},"extralarge":{"default":"https://cdn.freshful.ro/media/cache/sylius_shop_product_original/f6/c5/0d32234074490a9c7ac8d0600bf3.jpg"}},"label":null,"tags":[],"isAvailable":true,"maxAvailableQuantity":100,"maxAllowedQuantity":100,"breadcrumbs":[{"code":"15","name":"Pet Shop","slug":"15-pet-shop"},{"code":"1502","name":"Câini","slug":"1502-caini"},{"code":"150201","name":"Hrană umedă câini","slug":"150201-hrana-umeda-caini"},{"code":"100040204","name":"Hrană umedă pentru câini adulți, 100g, cu miel în aspic ","slug":"100040204-pedigree-hrana-umeda-pentru-caini-adulti-100g-cu-miel-in-aspic"}],"activePromotion":null,"saveMe":null,"labels":[],"geniusPrice":null,"geniusUnitPricePerLabel":null,"banner":null,"discountLabel":null,"geniusDiscountLabel":null,"badge":null},{"code":"100040193","variantCode":"100040193","name":"Hrană umedă pentru câini adulți, 100g, cu vită și miel în sos ","slug":"100040193-pedigree-hrana-umeda-pentru-caini-adulti-100g-cu-vita-si-miel-in-sos","unitPriceLabel":"25,9 Lei/kg","brand":"Pedigree","brandCode":"255","brandFilterCode":"pedigree-b256","sku":"100040193","price":2.59,"originalPrice":null,"currencyCode":"RON","currency":"Lei","image":{"thumbnail":{"default":"https://cdn.freshful.ro/media/cache/sylius_shop_product_thumbnail/58/3b/3f49de197078eb464f54ea9752f0.jpg"},"large":{"default":"https://cdn.freshful.ro/media/cache/freshful_large/58/3b/3f49de197078eb464f54ea9752f0.jpg"},"extralarge":{"default":"https://cdn.freshful.ro/media/cache/sylius_shop_product_original/58/3b/3f49de197078eb464f54ea9752f0.jpg"}},"label":null,"tags":[],"isAvailable":true,"maxAvailableQuantity":100,"maxAllowedQuantity":100,"breadcrumbs":[{"code":"15","name":"Pet Shop","slug":"15-pet-shop"},{"code":"1502","name":"Câini","slug":"1502-caini"},{"code":"150201","name":"Hrană umedă câini","slug":"150201-hrana-umeda-caini"},{"code":"100040193","name":"Hrană umedă pentru câini adulți, 100g, cu vită și miel în sos ","slug":"100040193-pedigree-hrana-umeda-pentru-caini-adulti-100g-cu-vita-si-miel-in-sos"}],"activePromotion":null,"saveMe":null,"labels":[],"geniusPrice":null,"geniusUnitPricePerLabel":null,"banner":null,"discountLabel":null,"geniusDiscountLabel":null,"badge":null}],"filters":{"countSelected":0,"items":[{"code":"promotion","name":"Promoții","countSelected":0,"values":[{"code":"oferte-bacanie-bauturi-21feb-8mar23","name":"Cămara cu băuturi și bunătăți","isSelected":false,"count":3}]},{"code":"brand","name":"Brand","countSelected":0,"values":[{"code":"4dog-b2732","name":"4Dog","isSelected":false,"count":7},{"code":"absorb-plus-b2492","name":"Absorb Plus","isSelected":false,"count":1},{"code":"brit-care-b2018","name":"Brit Care","isSelected":false,"count":6},{"code":"butcher-s-b1605","name":"Butcher's","isSelected":false,"count":18},{"code":"cesar-b251","name":"Cesar","isSelected":false,"count":6},{"code":"chappi-b252","name":"Chappi","isSelected":false,"count":3},{"code":"crock-b2660","name":"Crock","isSelected":false,"count":3},{"code":"darling-b2213","name":"Darling","isSelected":false,"count":1},{"code":"dentalife-b3083","name":"Dentalife","isSelected":false,"count":3},{"code":"diamant-b1251","name":"Diamant","isSelected":false,"count":3},{"code":"friskies-b2211","name":"Friskies","isSelected":false,"count":7},{"code":"frolic-b255","name":"Frolic","isSelected":false,"count":3},{"code":"furminator-b1044","name":"Furminator","isSelected":false,"count":3},{"code":"glandex-b2501","name":"Glandex","isSelected":false,"count":2},{"code":"hicking-b2661","name":"Hicking","isSelected":false,"count":6},{"code":"king-b1057","name":"King","isSelected":false,"count":4},{"code":"magnum-b24","name":"Magnum","isSelected":false,"count":9},{"code":"mera-b2733","name":"Mera","isSelected":false,"count":2},{"code":"mr-bandit-b2074","name":"Mr. Bandit","isSelected":false,"count":13},{"code":"mr-biffy-b1607","name":"Mr. Biffy","isSelected":false,"count":3},{"code":"mytho-b1048","name":"Mytho","isSelected":false,"count":1},{"code":"nature-diet-b2858","name":"Nature Diet","isSelected":false,"count":11},{"code":"norman-the-dog-b3076","name":"Norman The Dog","isSelected":false,"count":2},{"code":"one-mini-b2212","name":"One Mini","isSelected":false,"count":1},{"code":"organicvet-b1059","name":"OrganicVet","isSelected":false,"count":5},{"code":"pedigree-b256","name":"Pedigree","isSelected":false,"count":51},{"code":"perfect-fit-b257","name":"Perfect Fit","isSelected":false,"count":4},{"code":"petnature-b1047","name":"Petnature","isSelected":false,"count":2},{"code":"piper-b1474","name":"Piper","isSelected":false,"count":15},{"code":"plaisir-b1606","name":"Plaisir","isSelected":false,"count":3},{"code":"purina-b2452","name":"Purina","isSelected":false,"count":6},{"code":"raw-paleo-b1475","name":"Raw Paleo","isSelected":false,"count":4},{"code":"royal-canin-b2721","name":"Royal Canin","isSelected":false,"count":19},{"code":"shed-x-b2073","name":"Shed-X","isSelected":false,"count":2},{"code":"starmark-academy-b1045","name":"Starmark Academy","isSelected":false,"count":19},{"code":"super-nappy-b1576","name":"Super Nappy","isSelected":false,"count":12},{"code":"waldo-b2658","name":"Waldo","isSelected":false,"count":1},{"code":"wolf-s-mountain-b1050","name":"Wolf's Mountain","isSelected":false,"count":1},{"code":"woofwash-b2652","name":"Woofwash","isSelected":false,"count":3}]},{"code":"diet_lifestyle","name":"Dietă și lifestyle","countSelected":0,"values":[{"code":"eco-a83","name":"Eco","isSelected":false,"count":3},{"code":"fara-conservanti-a37","name":"Fara conservanti","isSelected":false,"count":20},{"code":"fara-gluten-a16","name":"Fara gluten","isSelected":false,"count":29},{"code":"fara-zahar-adaugat-a29","name":"Fara zahar adaugat","isSelected":false,"count":3},{"code":"natural-a27","name":"Natural","isSelected":false,"count":10}]}]},"orderBy":[{"field":"price","direction":"asc","name":"Preț crescător","isSelected":false},{"field":"price","direction":"desc","name":"Preț descrescător","isSelected":false},{"field":"popularity","direction":"desc","name":"Cele mai populare","isSelected":true},{"field":"category","direction":"asc","name":"Categorie","isSelected":false}],"metaTitle":"Câini - Gamă variată","metaDescription":"Vrei Câini? Alege dintr-o gamă variată. Comanzi simplu și ai livrare rapidă, calitate și prospețime. Hai pe Freshful.ro","metaKeywords":null,"banners":[]}}