{"type":"subcategory","payload":{"analyticsListId":"category_150202-hrana-uscata-caini","analyticsListName":"Category - Hrană uscată câini","name":"Hrană uscată câini","slug":"150202-hrana-uscata-caini","image":null,"breadcrumbs":[{"code":"15","name":"Pet Shop","slug":"15-pet-shop"},{"code":"1502","name":"Câini","slug":"1502-caini"},{"code":"150202","name":"Hrană uscată câini","slug":"150202-hrana-uscata-caini"}],"slots":[],"page":1,"limit":10,"pages":6,"count":56,"siblings":[{"name":"Pisici","slug":"1501-pisici","selected":false},{"name":"Câini","slug":"1502-caini","selected":true},{"name":"Păsări și rozătoare","slug":"1503-pasari-si-rozatoare","selected":false},{"name":"Pești și țestoase","slug":"1504-pesti-si-testoase","selected":false}],"children":[{"name":"Toate produsele","slug":"1502-caini","selected":false},{"name":"Hrană umedă câini","slug":"150201-hrana-umeda-caini","selected":false},{"name":"Hrană uscată câini","slug":"150202-hrana-uscata-caini","selected":true},{"name":"Biscuiți și recompense câini","slug":"150203-biscuiti-si-recompense-caini","selected":false},{"name":"Accesorii câini","slug":"150204-accesorii-caini","selected":false}],"products":[{"code":"100141705","variantCode":"100141705","name":"Hrană uscată pentru câini, 15Kg, Giant Junior","slug":"100141705-royal-canin-hrana-uscata-pentru-caini-15kg-giant-junior","unitPriceLabel":"19,33 Lei/kg","brand":"Royal Canin","brandCode":"2714","brandFilterCode":"royal-canin-b2721","sku":"100141705","price":289.99,"originalPrice":339.99,"currencyCode":"RON","currency":"Lei","image":{"thumbnail":{"default":"https://cdn.freshful.ro/media/cache/sylius_shop_product_thumbnail/8f/8d/d49263139be1e1aa9d4429d227bf.jpg"},"large":{"default":"https://cdn.freshful.ro/media/cache/freshful_large/8f/8d/d49263139be1e1aa9d4429d227bf.jpg"},"extralarge":{"default":"https://cdn.freshful.ro/media/cache/sylius_shop_product_original/8f/8d/d49263139be1e1aa9d4429d227bf.jpg"}},"label":{"text":"-14%","backgroundColor":"#FF9903","textColor":"#FFFFFF"},"tags":[],"isAvailable":true,"maxAvailableQuantity":7,"maxAllowedQuantity":100,"breadcrumbs":[{"code":"15","name":"Pet Shop","slug":"15-pet-shop"},{"code":"1502","name":"Câini","slug":"1502-caini"},{"code":"150202","name":"Hrană uscată câini","slug":"150202-hrana-uscata-caini"},{"code":"100141705","name":"Hrană uscată pentru câini, 15Kg, Giant Junior","slug":"100141705-royal-canin-hrana-uscata-pentru-caini-15kg-giant-junior"}],"activePromotion":{"code":"oferte-bacanie-bauturi-21feb-8mar23","name":"Preț redus","targetQuantity":null},"saveMe":null,"labels":[{"type":"v1","items":[{"text":"-14%","backgroundColor":"#FF9903","textColor":"#FFFFFF"}]}],"geniusPrice":null,"geniusUnitPricePerLabel":null,"banner":{"text":"Super preț","textColor":"#FF0000","bgColor":"#FFF2EC","icon":null,"link":"https://www.freshful.ro/oferte/oferte-bacanie-bauturi-21feb-8mar23","type":"promo","analyticsEventType":"select_promotion","analyticsEventPayload":{"promotion_id":"oferte-bacanie-bauturi-21feb-8mar23","promotion_name":"Cămara cu băuturi și bunătăți"}},"discountLabel":"Economisești 14%","geniusDiscountLabel":null,"badge":null},{"code":"100141700","variantCode":"100141700","name":"Hrană uscată pentru câini, 15Kg, Medium Adult 7+","slug":"100141700-royal-canin-hrana-uscata-pentru-caini-15kg-medium-adult-7","unitPriceLabel":"19,33 Lei/kg","brand":"Royal Canin","brandCode":"2714","brandFilterCode":"royal-canin-b2721","sku":"100141700","price":289.99,"originalPrice":329.99,"currencyCode":"RON","currency":"Lei","image":{"thumbnail":{"default":"https://cdn.freshful.ro/media/cache/sylius_shop_product_thumbnail/17/74/15598fa8c3fa1d38d64559350d92.jpg"},"large":{"default":"https://cdn.freshful.ro/media/cache/freshful_large/17/74/15598fa8c3fa1d38d64559350d92.jpg"},"extralarge":{"default":"https://cdn.freshful.ro/media/cache/sylius_shop_product_original/17/74/15598fa8c3fa1d38d64559350d92.jpg"}},"label":{"text":"-12%","backgroundColor":"#FF9903","textColor":"#FFFFFF"},"tags":[],"isAvailable":true,"maxAvailableQuantity":14,"maxAllowedQuantity":100,"breadcrumbs":[{"code":"15","name":"Pet Shop","slug":"15-pet-shop"},{"code":"1502","name":"Câini","slug":"1502-caini"},{"code":"150202","name":"Hrană uscată câini","slug":"150202-hrana-uscata-caini"},{"code":"100141700","name":"Hrană uscată pentru câini, 15Kg, Medium Adult 7+","slug":"100141700-royal-canin-hrana-uscata-pentru-caini-15kg-medium-adult-7"}],"activePromotion":{"code":"oferte-bacanie-bauturi-21feb-8mar23","name":"Preț redus","targetQuantity":null},"saveMe":null,"labels":[{"type":"v1","items":[{"text":"-12%","backgroundColor":"#FF9903","textColor":"#FFFFFF"}]}],"geniusPrice":null,"geniusUnitPricePerLabel":null,"banner":{"text":"Super preț","textColor":"#FF0000","bgColor":"#FFF2EC","icon":null,"link":"https://www.freshful.ro/oferte/oferte-bacanie-bauturi-21feb-8mar23","type":"promo","analyticsEventType":"select_promotion","analyticsEventPayload":{"promotion_id":"oferte-bacanie-bauturi-21feb-8mar23","promotion_name":"Cămara cu băuturi și bunătăți"}},"discountLabel":"Economisești 12%","geniusDiscountLabel":null,"badge":null},{"code":"100141704","variantCode":"100141704","name":"Hrană uscată pentru câini, 15Kg, Giant Puppy","slug":"100141704-royal-canin-hrana-uscata-pentru-caini-15kg-giant-puppy","unitPriceLabel":"19,33 Lei/kg","brand":"Royal Canin","brandCode":"2714","brandFilterCode":"royal-canin-b2721","sku":"100141704","price":289.99,"originalPrice":329.99,"currencyCode":"RON","currency":"Lei","image":{"thumbnail":{"default":"https://cdn.freshful.ro/media/cache/sylius_shop_product_thumbnail/c4/54/17b7f78907d62236de0aca3fd9ee.jpg"},"large":{"default":"https://cdn.freshful.ro/media/cache/freshful_large/c4/54/17b7f78907d62236de0aca3fd9ee.jpg"},"extralarge":{"default":"https://cdn.freshful.ro/media/cache/sylius_shop_product_original/c4/54/17b7f78907d62236de0aca3fd9ee.jpg"}},"label":{"text":"-12%","backgroundColor":"#FF9903","textColor":"#FFFFFF"},"tags":[],"isAvailable":true,"maxAvailableQuantity":10,"maxAllowedQuantity":100,"breadcrumbs":[{"code":"15","name":"Pet Shop","slug":"15-pet-shop"},{"code":"1502","name":"Câini","slug":"1502-caini"},{"code":"150202","name":"Hrană uscată câini","slug":"150202-hrana-uscata-caini"},{"code":"100141704","name":"Hrană uscată pentru câini, 15Kg, Giant Puppy","slug":"100141704-royal-canin-hrana-uscata-pentru-caini-15kg-giant-puppy"}],"activePromotion":{"code":"oferte-bacanie-bauturi-21feb-8mar23","name":"Preț redus","targetQuantity":null},"saveMe":null,"labels":[{"type":"v1","items":[{"text":"-12%","backgroundColor":"#FF9903","textColor":"#FFFFFF"}]}],"geniusPrice":null,"geniusUnitPricePerLabel":null,"banner":{"text":"Super preț","textColor":"#FF0000","bgColor":"#FFF2EC","icon":null,"link":"https://www.freshful.ro/oferte/oferte-bacanie-bauturi-21feb-8mar23","type":"promo","analyticsEventType":"select_promotion","analyticsEventPayload":{"promotion_id":"oferte-bacanie-bauturi-21feb-8mar23","promotion_name":"Cămara cu băuturi și bunătăți"}},"discountLabel":"Economisești 12%","geniusDiscountLabel":null,"badge":null},{"code":"100040206","variantCode":"100040206","name":"Hrană uscată pentru câini, 3kg, Complete Junior cu carne de pui","slug":"100040206-pedigree-hrana-uscata-pentru-caini-3kg-complete-junior-cu-carne-de-pui","unitPriceLabel":"9,97 Lei/kg","brand":"Pedigree","brandCode":"255","brandFilterCode":"pedigree-b256","sku":"100040206","price":29.9,"originalPrice":null,"currencyCode":"RON","currency":"Lei","image":{"thumbnail":{"default":"https://cdn.freshful.ro/media/cache/sylius_shop_product_thumbnail/05/df/5cbcfc4d5fe30d8cb20285d26c43.jpg"},"large":{"default":"https://cdn.freshful.ro/media/cache/freshful_large/05/df/5cbcfc4d5fe30d8cb20285d26c43.jpg"},"extralarge":{"default":"https://cdn.freshful.ro/media/cache/sylius_shop_product_original/05/df/5cbcfc4d5fe30d8cb20285d26c43.jpg"}},"label":null,"tags":[],"isAvailable":true,"maxAvailableQuantity":100,"maxAllowedQuantity":100,"breadcrumbs":[{"code":"15","name":"Pet Shop","slug":"15-pet-shop"},{"code":"1502","name":"Câini","slug":"1502-caini"},{"code":"150202","name":"Hrană uscată câini","slug":"150202-hrana-uscata-caini"},{"code":"100040206","name":"Hrană uscată pentru câini, 3kg, Complete Junior cu carne de pui","slug":"100040206-pedigree-hrana-uscata-pentru-caini-3kg-complete-junior-cu-carne-de-pui"}],"activePromotion":null,"saveMe":null,"labels":[],"geniusPrice":null,"geniusUnitPricePerLabel":null,"banner":null,"discountLabel":null,"geniusDiscountLabel":null,"badge":null},{"code":"100124222","variantCode":"100124222","name":"Hrană uscată pentru câini mini adult, 800g, One vită și orez ","slug":"100124222-purina-hrana-uscata-pentru-caini-mini-adult-800g-one-vita-si-orez","unitPriceLabel":"24,7 Lei/kg","brand":"Purina","brandCode":"2448","brandFilterCode":"purina-b2452","sku":"100124222","price":20.5,"originalPrice":null,"currencyCode":"RON","currency":"Lei","image":{"thumbnail":{"default":"https://cdn.freshful.ro/media/cache/sylius_shop_product_thumbnail/2c/64/8186d94eac0f75f57e1ed0c5419e.jpg"},"large":{"default":"https://cdn.freshful.ro/media/cache/freshful_large/2c/64/8186d94eac0f75f57e1ed0c5419e.jpg"},"extralarge":{"default":"https://cdn.freshful.ro/media/cache/sylius_shop_product_original/2c/64/8186d94eac0f75f57e1ed0c5419e.jpg"}},"label":null,"tags":[],"isAvailable":true,"maxAvailableQuantity":21,"maxAllowedQuantity":100,"breadcrumbs":[{"code":"15","name":"Pet Shop","slug":"15-pet-shop"},{"code":"1502","name":"Câini","slug":"1502-caini"},{"code":"150202","name":"Hrană uscată câini","slug":"150202-hrana-uscata-caini"},{"code":"100124222","name":"Hrană uscată pentru câini mini adult, 800g, One vită și orez ","slug":"100124222-purina-hrana-uscata-pentru-caini-mini-adult-800g-one-vita-si-orez"}],"activePromotion":null,"saveMe":null,"labels":[],"geniusPrice":null,"geniusUnitPricePerLabel":null,"banner":null,"discountLabel":null,"geniusDiscountLabel":null,"badge":null},{"code":"100150170","variantCode":"100150170","name":"Hrană uscată pentru câini, 10kg, Norman the dog cu pui","slug":"100150170-norman-the-dog-hrana-uscata-pentru-caini-10kg-norman-the-dog-cu-pui","unitPriceLabel":"3,5 Lei/kg","brand":"Norman The Dog","brandCode":"2982","brandFilterCode":"norman-the-dog-b3076","sku":"100150170","price":34.99,"originalPrice":null,"currencyCode":"RON","currency":"Lei","image":{"thumbnail":{"default":"https://cdn.freshful.ro/media/cache/sylius_shop_product_thumbnail/06/98/a9e56f56995dde8d8862ce1e0242.jpg"},"large":{"default":"https://cdn.freshful.ro/media/cache/freshful_large/06/98/a9e56f56995dde8d8862ce1e0242.jpg"},"extralarge":{"default":"https://cdn.freshful.ro/media/cache/sylius_shop_product_original/06/98/a9e56f56995dde8d8862ce1e0242.jpg"}},"label":{"text":"Primul preț","backgroundColor":"#3A0808","textColor":"#FFFFFF"},"tags":[],"isAvailable":true,"maxAvailableQuantity":4,"maxAllowedQuantity":100,"breadcrumbs":[{"code":"15","name":"Pet Shop","slug":"15-pet-shop"},{"code":"1502","name":"Câini","slug":"1502-caini"},{"code":"150202","name":"Hrană uscată câini","slug":"150202-hrana-uscata-caini"},{"code":"100150170","name":"Hrană uscată pentru câini, 10kg, Norman the dog cu pui","slug":"100150170-norman-the-dog-hrana-uscata-pentru-caini-10kg-norman-the-dog-cu-pui"}],"activePromotion":null,"saveMe":null,"labels":[{"type":"v4","items":[{"text":"Primul","backgroundColor":"#3A0808","textColor":"#FFFFFF"},{"text":"preț","backgroundColor":"#BC0606","textColor":"#FFFFFF"}]}],"geniusPrice":null,"geniusUnitPricePerLabel":null,"banner":null,"discountLabel":null,"geniusDiscountLabel":null,"badge":null},{"code":"100141691","variantCode":"100141691","name":"Hrană uscată pentru câini 2Kg, Mini Adult ","slug":"100141691-royal-canin-hrana-uscata-pentru-caini-2kg-mini-adult","unitPriceLabel":"40 Lei/kg","brand":"Royal Canin","brandCode":"2714","brandFilterCode":"royal-canin-b2721","sku":"100141691","price":79.99,"originalPrice":null,"currencyCode":"RON","currency":"Lei","image":{"thumbnail":{"default":"https://cdn.freshful.ro/media/cache/sylius_shop_product_thumbnail/c8/f1/1b59decb68c755c16bf76a3bfc14.jpg"},"large":{"default":"https://cdn.freshful.ro/media/cache/freshful_large/c8/f1/1b59decb68c755c16bf76a3bfc14.jpg"},"extralarge":{"default":"https://cdn.freshful.ro/media/cache/sylius_shop_product_original/c8/f1/1b59decb68c755c16bf76a3bfc14.jpg"}},"label":null,"tags":[],"isAvailable":true,"maxAvailableQuantity":16,"maxAllowedQuantity":100,"breadcrumbs":[{"code":"15","name":"Pet Shop","slug":"15-pet-shop"},{"code":"1502","name":"Câini","slug":"1502-caini"},{"code":"150202","name":"Hrană uscată câini","slug":"150202-hrana-uscata-caini"},{"code":"100141691","name":"Hrană uscată pentru câini 2Kg, Mini Adult ","slug":"100141691-royal-canin-hrana-uscata-pentru-caini-2kg-mini-adult"}],"activePromotion":null,"saveMe":null,"labels":[],"geniusPrice":null,"geniusUnitPricePerLabel":null,"banner":null,"discountLabel":null,"geniusDiscountLabel":null,"badge":null},{"code":"100062436","variantCode":"100062436","name":"Hrană uscată pentru câini adulți de talie mică, 825g, cu pui ","slug":"100062436-perfect-fit-hrana-uscata-pentru-caini-adulti-de-talie-mica-825g-cu-pui","unitPriceLabel":"30,29 Lei/kg","brand":"Perfect Fit","brandCode":"256","brandFilterCode":"perfect-fit-b257","sku":"100062436","price":24.99,"originalPrice":null,"currencyCode":"RON","currency":"Lei","image":{"thumbnail":{"default":"https://cdn.freshful.ro/media/cache/sylius_shop_product_thumbnail/d5/5c/388290581478985a7e7c0d619ba3.jpg"},"large":{"default":"https://cdn.freshful.ro/media/cache/freshful_large/d5/5c/388290581478985a7e7c0d619ba3.jpg"},"extralarge":{"default":"https://cdn.freshful.ro/media/cache/sylius_shop_product_original/d5/5c/388290581478985a7e7c0d619ba3.jpg"}},"label":null,"tags":[],"isAvailable":true,"maxAvailableQuantity":46,"maxAllowedQuantity":100,"breadcrumbs":[{"code":"15","name":"Pet Shop","slug":"15-pet-shop"},{"code":"1502","name":"Câini","slug":"1502-caini"},{"code":"150202","name":"Hrană uscată câini","slug":"150202-hrana-uscata-caini"},{"code":"100062436","name":"Hrană uscată pentru câini adulți de talie mică, 825g, cu pui ","slug":"100062436-perfect-fit-hrana-uscata-pentru-caini-adulti-de-talie-mica-825g-cu-pui"}],"activePromotion":null,"saveMe":null,"labels":[],"geniusPrice":null,"geniusUnitPricePerLabel":null,"banner":null,"discountLabel":null,"geniusDiscountLabel":null,"badge":null},{"code":"100118012","variantCode":"100118012","name":"Hrană uscată pentru câini cu intoleranță, 12Kg, carne de vânat și cartofi ","slug":"100118012-brit-care-hrana-uscata-pentru-caini-cu-intoleranta-12kg-carne-de-vanat-si-cartofi","unitPriceLabel":"20 Lei/kg","brand":"Brit Care","brandCode":"2014","brandFilterCode":"brit-care-b2018","sku":"100118012","price":239.99,"originalPrice":null,"currencyCode":"RON","currency":"Lei","image":{"thumbnail":{"default":"https://cdn.freshful.ro/media/cache/sylius_shop_product_thumbnail/b7/86/7cd940b816b2dd71e033d8088756.jpg"},"large":{"default":"https://cdn.freshful.ro/media/cache/freshful_large/b7/86/7cd940b816b2dd71e033d8088756.jpg"},"extralarge":{"default":"https://cdn.freshful.ro/media/cache/sylius_shop_product_original/b7/86/7cd940b816b2dd71e033d8088756.jpg"}},"label":null,"tags":[],"isAvailable":true,"maxAvailableQuantity":3,"maxAllowedQuantity":100,"breadcrumbs":[{"code":"15","name":"Pet Shop","slug":"15-pet-shop"},{"code":"1502","name":"Câini","slug":"1502-caini"},{"code":"150202","name":"Hrană uscată câini","slug":"150202-hrana-uscata-caini"},{"code":"100118012","name":"Hrană uscată pentru câini cu intoleranță, 12Kg, carne de vânat și cartofi ","slug":"100118012-brit-care-hrana-uscata-pentru-caini-cu-intoleranta-12kg-carne-de-vanat-si-cartofi"}],"activePromotion":null,"saveMe":null,"labels":[],"geniusPrice":null,"geniusUnitPricePerLabel":null,"banner":null,"discountLabel":null,"geniusDiscountLabel":null,"badge":null},{"code":"100040160","variantCode":"100040160","name":"Hrană uscată pentru câini adulți, 9kg, cu vită, pasăre și legume","slug":"100040160-chappi-hrana-uscata-pentru-caini-adulti-9kg-cu-vita-pasare-si-legume","unitPriceLabel":"9,44 Lei/kg","brand":"Chappi","brandCode":"251","brandFilterCode":"chappi-b252","sku":"100040160","price":84.99,"originalPrice":null,"currencyCode":"RON","currency":"Lei","image":{"thumbnail":{"default":"https://cdn.freshful.ro/media/cache/sylius_shop_product_thumbnail/8d/ae/b8f46492bec9421e77097f3bf1c1.jpg"},"large":{"default":"https://cdn.freshful.ro/media/cache/freshful_large/8d/ae/b8f46492bec9421e77097f3bf1c1.jpg"},"extralarge":{"default":"https://cdn.freshful.ro/media/cache/sylius_shop_product_original/8d/ae/b8f46492bec9421e77097f3bf1c1.jpg"}},"label":null,"tags":[],"isAvailable":true,"maxAvailableQuantity":3,"maxAllowedQuantity":100,"breadcrumbs":[{"code":"15","name":"Pet Shop","slug":"15-pet-shop"},{"code":"1502","name":"Câini","slug":"1502-caini"},{"code":"150202","name":"Hrană uscată câini","slug":"150202-hrana-uscata-caini"},{"code":"100040160","name":"Hrană uscată pentru câini adulți, 9kg, cu vită, pasăre și legume","slug":"100040160-chappi-hrana-uscata-pentru-caini-adulti-9kg-cu-vita-pasare-si-legume"}],"activePromotion":null,"saveMe":null,"labels":[],"geniusPrice":null,"geniusUnitPricePerLabel":null,"banner":null,"discountLabel":null,"geniusDiscountLabel":null,"badge":null}],"filters":{"countSelected":0,"items":[{"code":"promotion","name":"Promoții","countSelected":0,"values":[{"code":"oferte-bacanie-bauturi-21feb-8mar23","name":"Cămara cu băuturi și bunătăți","isSelected":false,"count":3}]},{"code":"brand","name":"Brand","countSelected":0,"values":[{"code":"brit-care-b2018","name":"Brit Care","isSelected":false,"count":6},{"code":"chappi-b252","name":"Chappi","isSelected":false,"count":3},{"code":"darling-b2213","name":"Darling","isSelected":false,"count":1},{"code":"diamant-b1251","name":"Diamant","isSelected":false,"count":3},{"code":"mytho-b1048","name":"Mytho","isSelected":false,"count":1},{"code":"norman-the-dog-b3076","name":"Norman The Dog","isSelected":false,"count":2},{"code":"pedigree-b256","name":"Pedigree","isSelected":false,"count":8},{"code":"perfect-fit-b257","name":"Perfect Fit","isSelected":false,"count":4},{"code":"petnature-b1047","name":"Petnature","isSelected":false,"count":2},{"code":"purina-b2452","name":"Purina","isSelected":false,"count":3},{"code":"raw-paleo-b1475","name":"Raw Paleo","isSelected":false,"count":3},{"code":"royal-canin-b2721","name":"Royal Canin","isSelected":false,"count":19},{"code":"wolf-s-mountain-b1050","name":"Wolf's Mountain","isSelected":false,"count":1}]},{"code":"diet_lifestyle","name":"Dietă și lifestyle","countSelected":0,"values":[{"code":"fara-gluten-a16","name":"Fara gluten","isSelected":false,"count":1}]}]},"orderBy":[{"field":"price","direction":"asc","name":"Preț crescător","isSelected":false},{"field":"price","direction":"desc","name":"Preț descrescător","isSelected":false},{"field":"popularity","direction":"desc","name":"Cele mai populare","isSelected":true},{"field":"category","direction":"asc","name":"Categorie","isSelected":false}],"metaTitle":"Hrană uscată câini - Gamă variată","metaDescription":"Vrei Hrană uscată câini? Alege dintr-o gamă variată. Comanzi simplu și ai livrare rapidă, calitate și prospețime. Hai pe Freshful.ro","metaKeywords":null,"banners":[]}}