{"type":"subcategory","payload":{"analyticsListId":"category_150204-accesorii-caini","analyticsListName":"Category - Accesorii câini","name":"Accesorii câini","slug":"150204-accesorii-caini","image":null,"breadcrumbs":[{"code":"15","name":"Pet Shop","slug":"15-pet-shop"},{"code":"1502","name":"Câini","slug":"1502-caini"},{"code":"150204","name":"Accesorii câini","slug":"150204-accesorii-caini"}],"slots":[],"page":1,"limit":10,"pages":6,"count":57,"siblings":[{"name":"Pisici","slug":"1501-pisici","selected":false},{"name":"Câini","slug":"1502-caini","selected":true},{"name":"Păsări și rozătoare","slug":"1503-pasari-si-rozatoare","selected":false},{"name":"Pești și țestoase","slug":"1504-pesti-si-testoase","selected":false}],"children":[{"name":"Toate produsele","slug":"1502-caini","selected":false},{"name":"Hrană umedă câini","slug":"150201-hrana-umeda-caini","selected":false},{"name":"Hrană uscată câini","slug":"150202-hrana-uscata-caini","selected":false},{"name":"Biscuiți și recompense câini","slug":"150203-biscuiti-si-recompense-caini","selected":false},{"name":"Accesorii câini","slug":"150204-accesorii-caini","selected":true}],"products":[{"code":"100141974","variantCode":"100141974","name":"Covorașe super absorbante 60*60, 10buc ","slug":"100141974-no-brand-covorase-super-absorbante-60-60-10buc","unitPriceLabel":"","brand":"4Dog","brandCode":"2726","brandFilterCode":"4dog-b2732","sku":"100141974","price":22.99,"originalPrice":null,"currencyCode":"RON","currency":"Lei","image":{"thumbnail":{"default":"https://cdn.freshful.ro/media/cache/sylius_shop_product_thumbnail/f9/f9/05a114a83ceb2903951bd1b3e4a1.jpg"},"large":{"default":"https://cdn.freshful.ro/media/cache/freshful_large/f9/f9/05a114a83ceb2903951bd1b3e4a1.jpg"},"extralarge":{"default":"https://cdn.freshful.ro/media/cache/sylius_shop_product_original/f9/f9/05a114a83ceb2903951bd1b3e4a1.jpg"}},"label":null,"tags":[],"isAvailable":true,"maxAvailableQuantity":40,"maxAllowedQuantity":100,"breadcrumbs":[{"code":"15","name":"Pet Shop","slug":"15-pet-shop"},{"code":"1502","name":"Câini","slug":"1502-caini"},{"code":"150204","name":"Accesorii câini","slug":"150204-accesorii-caini"},{"code":"100141974","name":"Covorașe super absorbante 60*60, 10buc ","slug":"100141974-no-brand-covorase-super-absorbante-60-60-10buc"}],"activePromotion":null,"saveMe":null,"labels":[],"geniusPrice":null,"geniusUnitPricePerLabel":null,"banner":null,"discountLabel":null,"geniusDiscountLabel":null,"badge":null},{"code":"100096102","variantCode":"100096102","name":"Pet pad-uri pentru caței Super Nappy","slug":"100096102-super-nappy-pet-pad-uri-pentru-catei-super-nappy","unitPriceLabel":"","brand":"Super Nappy","brandCode":"1572","brandFilterCode":"super-nappy-b1576","sku":"100096102","price":28.99,"originalPrice":null,"currencyCode":"RON","currency":"Lei","image":{"thumbnail":{"default":"https://cdn.freshful.ro/media/cache/sylius_shop_product_thumbnail/44/74/15af18f3a278fd0c0ee57d48b431.jpg"},"large":{"default":"https://cdn.freshful.ro/media/cache/freshful_large/44/74/15af18f3a278fd0c0ee57d48b431.jpg"},"extralarge":{"default":"https://cdn.freshful.ro/media/cache/sylius_shop_product_original/44/74/15af18f3a278fd0c0ee57d48b431.jpg"}},"label":null,"tags":[],"isAvailable":true,"maxAvailableQuantity":38,"maxAllowedQuantity":100,"breadcrumbs":[{"code":"15","name":"Pet Shop","slug":"15-pet-shop"},{"code":"1502","name":"Câini","slug":"1502-caini"},{"code":"150204","name":"Accesorii câini","slug":"150204-accesorii-caini"},{"code":"100096102","name":"Pet pad-uri pentru caței Super Nappy","slug":"100096102-super-nappy-pet-pad-uri-pentru-catei-super-nappy"}],"activePromotion":null,"saveMe":null,"labels":[],"geniusPrice":null,"geniusUnitPricePerLabel":null,"banner":null,"discountLabel":null,"geniusDiscountLabel":null,"badge":null},{"code":"100142933","variantCode":"100142933","name":"Recompense pentru câini, 60g, Classic Ball","slug":"100142933-mr-bandit-recompense-pentru-caini-60g-classic-ball","unitPriceLabel":"","brand":"Mr. Bandit","brandCode":"2070","brandFilterCode":"mr-bandit-b2074","sku":"100142933","price":5.89,"originalPrice":null,"currencyCode":"RON","currency":"Lei","image":{"thumbnail":{"default":"https://cdn.freshful.ro/media/cache/sylius_shop_product_thumbnail/43/ed/ea8dbe86eda83361d4720d48ca62.jpg"},"large":{"default":"https://cdn.freshful.ro/media/cache/freshful_large/43/ed/ea8dbe86eda83361d4720d48ca62.jpg"},"extralarge":{"default":"https://cdn.freshful.ro/media/cache/sylius_shop_product_original/43/ed/ea8dbe86eda83361d4720d48ca62.jpg"}},"label":null,"tags":[],"isAvailable":true,"maxAvailableQuantity":5,"maxAllowedQuantity":100,"breadcrumbs":[{"code":"15","name":"Pet Shop","slug":"15-pet-shop"},{"code":"1502","name":"Câini","slug":"1502-caini"},{"code":"150204","name":"Accesorii câini","slug":"150204-accesorii-caini"},{"code":"100142933","name":"Recompense pentru câini, 60g, Classic Ball","slug":"100142933-mr-bandit-recompense-pentru-caini-60g-classic-ball"}],"activePromotion":null,"saveMe":null,"labels":[],"geniusPrice":null,"geniusUnitPricePerLabel":null,"banner":null,"discountLabel":null,"geniusDiscountLabel":null,"badge":null},{"code":"100128748","variantCode":"100128748","name":"Covorașe absorbante antiderapante 84x54cm 10 buc","slug":"100128748-super-nappy-covorase-absorbante-antiderapante-84x54cm-10-buc","unitPriceLabel":"","brand":"Super Nappy","brandCode":"1572","brandFilterCode":"super-nappy-b1576","sku":"100128748","price":34.99,"originalPrice":null,"currencyCode":"RON","currency":"Lei","image":{"thumbnail":{"default":"https://cdn.freshful.ro/media/cache/sylius_shop_product_thumbnail/4d/1c/af1db62a50f71c0f09d313f21b6e.jpg"},"large":{"default":"https://cdn.freshful.ro/media/cache/freshful_large/4d/1c/af1db62a50f71c0f09d313f21b6e.jpg"},"extralarge":{"default":"https://cdn.freshful.ro/media/cache/sylius_shop_product_original/4d/1c/af1db62a50f71c0f09d313f21b6e.jpg"}},"label":null,"tags":[],"isAvailable":true,"maxAvailableQuantity":31,"maxAllowedQuantity":100,"breadcrumbs":[{"code":"15","name":"Pet Shop","slug":"15-pet-shop"},{"code":"1502","name":"Câini","slug":"1502-caini"},{"code":"150204","name":"Accesorii câini","slug":"150204-accesorii-caini"},{"code":"100128748","name":"Covorașe absorbante antiderapante 84x54cm 10 buc","slug":"100128748-super-nappy-covorase-absorbante-antiderapante-84x54cm-10-buc"}],"activePromotion":null,"saveMe":null,"labels":[],"geniusPrice":null,"geniusUnitPricePerLabel":null,"banner":null,"discountLabel":null,"geniusDiscountLabel":null,"badge":null},{"code":"100142934","variantCode":"100142934","name":"Recompense pentru câini, 15g, White Sneaker","slug":"100142934-mr-bandit-recompense-pentru-caini-15g-white-sneaker","unitPriceLabel":"","brand":"Mr. Bandit","brandCode":"2070","brandFilterCode":"mr-bandit-b2074","sku":"100142934","price":3.49,"originalPrice":null,"currencyCode":"RON","currency":"Lei","image":{"thumbnail":{"default":"https://cdn.freshful.ro/media/cache/sylius_shop_product_thumbnail/83/f6/8d3400961d43526249f2acac08de.jpg"},"large":{"default":"https://cdn.freshful.ro/media/cache/freshful_large/83/f6/8d3400961d43526249f2acac08de.jpg"},"extralarge":{"default":"https://cdn.freshful.ro/media/cache/sylius_shop_product_original/83/f6/8d3400961d43526249f2acac08de.jpg"}},"label":null,"tags":[],"isAvailable":true,"maxAvailableQuantity":5,"maxAllowedQuantity":100,"breadcrumbs":[{"code":"15","name":"Pet Shop","slug":"15-pet-shop"},{"code":"1502","name":"Câini","slug":"1502-caini"},{"code":"150204","name":"Accesorii câini","slug":"150204-accesorii-caini"},{"code":"100142934","name":"Recompense pentru câini, 15g, White Sneaker","slug":"100142934-mr-bandit-recompense-pentru-caini-15g-white-sneaker"}],"activePromotion":null,"saveMe":null,"labels":[],"geniusPrice":null,"geniusUnitPricePerLabel":null,"banner":null,"discountLabel":null,"geniusDiscountLabel":null,"badge":null},{"code":"100128747","variantCode":"100128747","name":"Covorașe absorbante antiderapante 57x54cm 10 buc","slug":"100128747-super-nappy-covorase-absorbante-antiderapante-57x54cm-10-buc","unitPriceLabel":"","brand":"Super Nappy","brandCode":"1572","brandFilterCode":"super-nappy-b1576","sku":"100128747","price":21.99,"originalPrice":null,"currencyCode":"RON","currency":"Lei","image":{"thumbnail":{"default":"https://cdn.freshful.ro/media/cache/sylius_shop_product_thumbnail/c9/14/3252c7f3fa75af9f5ec3148fb026.jpg"},"large":{"default":"https://cdn.freshful.ro/media/cache/freshful_large/c9/14/3252c7f3fa75af9f5ec3148fb026.jpg"},"extralarge":{"default":"https://cdn.freshful.ro/media/cache/sylius_shop_product_original/c9/14/3252c7f3fa75af9f5ec3148fb026.jpg"}},"label":null,"tags":[],"isAvailable":true,"maxAvailableQuantity":25,"maxAllowedQuantity":100,"breadcrumbs":[{"code":"15","name":"Pet Shop","slug":"15-pet-shop"},{"code":"1502","name":"Câini","slug":"1502-caini"},{"code":"150204","name":"Accesorii câini","slug":"150204-accesorii-caini"},{"code":"100128747","name":"Covorașe absorbante antiderapante 57x54cm 10 buc","slug":"100128747-super-nappy-covorase-absorbante-antiderapante-57x54cm-10-buc"}],"activePromotion":null,"saveMe":null,"labels":[],"geniusPrice":null,"geniusUnitPricePerLabel":null,"banner":null,"discountLabel":null,"geniusDiscountLabel":null,"badge":null},{"code":"100128744","variantCode":"100128744","name":"Covorașe absorbante Newspaper 84x57cm 30 buc","slug":"100128744-super-nappy-covorase-absorbante-newspaper-84x57cm-30-buc","unitPriceLabel":"","brand":"Super Nappy","brandCode":"1572","brandFilterCode":"super-nappy-b1576","sku":"100128744","price":89.99,"originalPrice":null,"currencyCode":"RON","currency":"Lei","image":{"thumbnail":{"default":"https://cdn.freshful.ro/media/cache/sylius_shop_product_thumbnail/59/58/7f6fa57f98df4682920512b7ddc5.jpg"},"large":{"default":"https://cdn.freshful.ro/media/cache/freshful_large/59/58/7f6fa57f98df4682920512b7ddc5.jpg"},"extralarge":{"default":"https://cdn.freshful.ro/media/cache/sylius_shop_product_original/59/58/7f6fa57f98df4682920512b7ddc5.jpg"}},"label":null,"tags":[],"isAvailable":true,"maxAvailableQuantity":11,"maxAllowedQuantity":100,"breadcrumbs":[{"code":"15","name":"Pet Shop","slug":"15-pet-shop"},{"code":"1502","name":"Câini","slug":"1502-caini"},{"code":"150204","name":"Accesorii câini","slug":"150204-accesorii-caini"},{"code":"100128744","name":"Covorașe absorbante Newspaper 84x57cm 30 buc","slug":"100128744-super-nappy-covorase-absorbante-newspaper-84x57cm-30-buc"}],"activePromotion":null,"saveMe":null,"labels":[],"geniusPrice":null,"geniusUnitPricePerLabel":null,"banner":null,"discountLabel":null,"geniusDiscountLabel":null,"badge":null},{"code":"100141975","variantCode":"100141975","name":"Covorașe super absorbante 60*90, 10buc","slug":"100141975-no-brand-covorase-super-absorbante-60-90-10buc","unitPriceLabel":"","brand":"4Dog","brandCode":"2726","brandFilterCode":"4dog-b2732","sku":"100141975","price":54.89,"originalPrice":null,"currencyCode":"RON","currency":"Lei","image":{"thumbnail":{"default":"https://cdn.freshful.ro/media/cache/sylius_shop_product_thumbnail/63/30/6013d9e36644ddb18be612ce3826.jpg"},"large":{"default":"https://cdn.freshful.ro/media/cache/freshful_large/63/30/6013d9e36644ddb18be612ce3826.jpg"},"extralarge":{"default":"https://cdn.freshful.ro/media/cache/sylius_shop_product_original/63/30/6013d9e36644ddb18be612ce3826.jpg"}},"label":null,"tags":[],"isAvailable":true,"maxAvailableQuantity":17,"maxAllowedQuantity":100,"breadcrumbs":[{"code":"15","name":"Pet Shop","slug":"15-pet-shop"},{"code":"1502","name":"Câini","slug":"1502-caini"},{"code":"150204","name":"Accesorii câini","slug":"150204-accesorii-caini"},{"code":"100141975","name":"Covorașe super absorbante 60*90, 10buc","slug":"100141975-no-brand-covorase-super-absorbante-60-90-10buc"}],"activePromotion":null,"saveMe":null,"labels":[],"geniusPrice":null,"geniusUnitPricePerLabel":null,"banner":null,"discountLabel":null,"geniusDiscountLabel":null,"badge":null},{"code":"100128742","variantCode":"100128742","name":"Covorașe absorbante Newspaper 57x54cm 30 buc","slug":"100128742-super-nappy-covorase-absorbante-newspaper-57x54cm-30-buc","unitPriceLabel":"","brand":"Super Nappy","brandCode":"1572","brandFilterCode":"super-nappy-b1576","sku":"100128742","price":60.99,"originalPrice":null,"currencyCode":"RON","currency":"Lei","image":{"thumbnail":{"default":"https://cdn.freshful.ro/media/cache/sylius_shop_product_thumbnail/14/db/a22fb403b01317dc8233b9306e43.jpg"},"large":{"default":"https://cdn.freshful.ro/media/cache/freshful_large/14/db/a22fb403b01317dc8233b9306e43.jpg"},"extralarge":{"default":"https://cdn.freshful.ro/media/cache/sylius_shop_product_original/14/db/a22fb403b01317dc8233b9306e43.jpg"}},"label":null,"tags":[],"isAvailable":true,"maxAvailableQuantity":18,"maxAllowedQuantity":100,"breadcrumbs":[{"code":"15","name":"Pet Shop","slug":"15-pet-shop"},{"code":"1502","name":"Câini","slug":"1502-caini"},{"code":"150204","name":"Accesorii câini","slug":"150204-accesorii-caini"},{"code":"100128742","name":"Covorașe absorbante Newspaper 57x54cm 30 buc","slug":"100128742-super-nappy-covorase-absorbante-newspaper-57x54cm-30-buc"}],"activePromotion":null,"saveMe":null,"labels":[],"geniusPrice":null,"geniusUnitPricePerLabel":null,"banner":null,"discountLabel":null,"geniusDiscountLabel":null,"badge":null},{"code":"100085781","variantCode":"100085781","name":"Clicker pentru dresat câini","slug":"100085781-starmark-academy-clicker-pentru-dresat-caini","unitPriceLabel":"","brand":"Starmark Academy","brandCode":"1045","brandFilterCode":"starmark-academy-b1045","sku":"100085781","price":26.99,"originalPrice":null,"currencyCode":"RON","currency":"Lei","image":{"thumbnail":{"default":"https://cdn.freshful.ro/media/cache/sylius_shop_product_thumbnail/0a/fa/364a1a195b811bb7f52f48ebf994.jpg"},"large":{"default":"https://cdn.freshful.ro/media/cache/freshful_large/0a/fa/364a1a195b811bb7f52f48ebf994.jpg"},"extralarge":{"default":"https://cdn.freshful.ro/media/cache/sylius_shop_product_original/0a/fa/364a1a195b811bb7f52f48ebf994.jpg"}},"label":null,"tags":[],"isAvailable":true,"maxAvailableQuantity":19,"maxAllowedQuantity":100,"breadcrumbs":[{"code":"15","name":"Pet Shop","slug":"15-pet-shop"},{"code":"1502","name":"Câini","slug":"1502-caini"},{"code":"150204","name":"Accesorii câini","slug":"150204-accesorii-caini"},{"code":"100085781","name":"Clicker pentru dresat câini","slug":"100085781-starmark-academy-clicker-pentru-dresat-caini"}],"activePromotion":null,"saveMe":null,"labels":[],"geniusPrice":null,"geniusUnitPricePerLabel":null,"banner":null,"discountLabel":null,"geniusDiscountLabel":null,"badge":null}],"filters":{"countSelected":0,"items":[{"code":"brand","name":"Brand","countSelected":0,"values":[{"code":"4dog-b2732","name":"4Dog","isSelected":false,"count":2},{"code":"absorb-plus-b2492","name":"Absorb Plus","isSelected":false,"count":1},{"code":"crock-b2660","name":"Crock","isSelected":false,"count":3},{"code":"furminator-b1044","name":"Furminator","isSelected":false,"count":3},{"code":"hicking-b2661","name":"Hicking","isSelected":false,"count":6},{"code":"mr-bandit-b2074","name":"Mr. Bandit","isSelected":false,"count":5},{"code":"shed-x-b2073","name":"Shed-X","isSelected":false,"count":2},{"code":"starmark-academy-b1045","name":"Starmark Academy","isSelected":false,"count":18},{"code":"super-nappy-b1576","name":"Super Nappy","isSelected":false,"count":12},{"code":"waldo-b2658","name":"Waldo","isSelected":false,"count":1},{"code":"woofwash-b2652","name":"Woofwash","isSelected":false,"count":3}]},{"code":"diet_lifestyle","name":"Dietă și lifestyle","countSelected":0,"values":[{"code":"eco-a83","name":"Eco","isSelected":false,"count":1}]}]},"orderBy":[{"field":"price","direction":"asc","name":"Preț crescător","isSelected":false},{"field":"price","direction":"desc","name":"Preț descrescător","isSelected":false},{"field":"popularity","direction":"desc","name":"Cele mai populare","isSelected":true},{"field":"category","direction":"asc","name":"Categorie","isSelected":false}],"metaTitle":"Accesorii câini - Gamă variată","metaDescription":"Vrei Accesorii câini? Alege dintr-o gamă variată. Comanzi simplu și ai livrare rapidă, calitate și prospețime. Hai pe Freshful.ro","metaKeywords":null,"banners":[]}}