{"type":"subcategory","payload":{"analyticsListId":"category_150201-hrana-umeda-caini","analyticsListName":"Category - Hrană umedă câini","name":"Hrană umedă câini","slug":"150201-hrana-umeda-caini","image":null,"breadcrumbs":[{"code":"15","name":"Pet Shop","slug":"15-pet-shop"},{"code":"1502","name":"Câini","slug":"1502-caini"},{"code":"150201","name":"Hrană umedă câini","slug":"150201-hrana-umeda-caini"}],"slots":[],"page":1,"limit":10,"pages":9,"count":88,"siblings":[{"name":"Pisici","slug":"1501-pisici","selected":false},{"name":"Câini","slug":"1502-caini","selected":true},{"name":"Păsări și rozătoare","slug":"1503-pasari-si-rozatoare","selected":false},{"name":"Pești și țestoase","slug":"1504-pesti-si-testoase","selected":false}],"children":[{"name":"Toate produsele","slug":"1502-caini","selected":false},{"name":"Hrană umedă câini","slug":"150201-hrana-umeda-caini","selected":true},{"name":"Hrană uscată câini","slug":"150202-hrana-uscata-caini","selected":false},{"name":"Biscuiți și recompense câini","slug":"150203-biscuiti-si-recompense-caini","selected":false},{"name":"Accesorii câini","slug":"150204-accesorii-caini","selected":false}],"products":[{"code":"100040158","variantCode":"100040158","name":"Hrană umedă pentru câini adulți, 4x100g, selecții de carne în sos ","slug":"100040158-cesar-hrana-umeda-pentru-caini-adulti-4x100g-selectii-de-carne-in-sos","unitPriceLabel":"27,23 Lei/kg","brand":"Cesar","brandCode":"250","brandFilterCode":"cesar-b251","sku":"100040158","price":10.89,"originalPrice":null,"currencyCode":"RON","currency":"Lei","image":{"thumbnail":{"default":"https://cdn.freshful.ro/media/cache/sylius_shop_product_thumbnail/3b/da/7e62de0b7678110987cf1d52144f.jpg"},"large":{"default":"https://cdn.freshful.ro/media/cache/freshful_large/3b/da/7e62de0b7678110987cf1d52144f.jpg"},"extralarge":{"default":"https://cdn.freshful.ro/media/cache/sylius_shop_product_original/3b/da/7e62de0b7678110987cf1d52144f.jpg"}},"label":null,"tags":[],"isAvailable":true,"maxAvailableQuantity":100,"maxAllowedQuantity":100,"breadcrumbs":[{"code":"15","name":"Pet Shop","slug":"15-pet-shop"},{"code":"1502","name":"Câini","slug":"1502-caini"},{"code":"150201","name":"Hrană umedă câini","slug":"150201-hrana-umeda-caini"},{"code":"100040158","name":"Hrană umedă pentru câini adulți, 4x100g, selecții de carne în sos ","slug":"100040158-cesar-hrana-umeda-pentru-caini-adulti-4x100g-selectii-de-carne-in-sos"}],"activePromotion":null,"saveMe":null,"labels":[],"geniusPrice":null,"geniusUnitPricePerLabel":null,"banner":null,"discountLabel":null,"geniusDiscountLabel":null,"badge":null},{"code":"100040154","variantCode":"100040154","name":"Hrană umedă pentru câini adulți, 150g, cu curcan și vită","slug":"100040154-cesar-hrana-umeda-pentru-caini-adulti-150g-cu-curcan-si-vita","unitPriceLabel":"27 Lei/kg","brand":"Cesar","brandCode":"250","brandFilterCode":"cesar-b251","sku":"100040154","price":4.05,"originalPrice":null,"currencyCode":"RON","currency":"Lei","image":{"thumbnail":{"default":"https://cdn.freshful.ro/media/cache/sylius_shop_product_thumbnail/08/c0/eee23c2665088e672dc0e627553c.jpg"},"large":{"default":"https://cdn.freshful.ro/media/cache/freshful_large/08/c0/eee23c2665088e672dc0e627553c.jpg"},"extralarge":{"default":"https://cdn.freshful.ro/media/cache/sylius_shop_product_original/08/c0/eee23c2665088e672dc0e627553c.jpg"}},"label":null,"tags":[],"isAvailable":true,"maxAvailableQuantity":100,"maxAllowedQuantity":100,"breadcrumbs":[{"code":"15","name":"Pet Shop","slug":"15-pet-shop"},{"code":"1502","name":"Câini","slug":"1502-caini"},{"code":"150201","name":"Hrană umedă câini","slug":"150201-hrana-umeda-caini"},{"code":"100040154","name":"Hrană umedă pentru câini adulți, 150g, cu curcan și vită","slug":"100040154-cesar-hrana-umeda-pentru-caini-adulti-150g-cu-curcan-si-vita"}],"activePromotion":null,"saveMe":null,"labels":[],"geniusPrice":null,"geniusUnitPricePerLabel":null,"banner":null,"discountLabel":null,"geniusDiscountLabel":null,"badge":null},{"code":"100040204","variantCode":"100040204","name":"Hrană umedă pentru câini adulți, 100g, cu miel în aspic ","slug":"100040204-pedigree-hrana-umeda-pentru-caini-adulti-100g-cu-miel-in-aspic","unitPriceLabel":"26,9 Lei/kg","brand":"Pedigree","brandCode":"255","brandFilterCode":"pedigree-b256","sku":"100040204","price":2.69,"originalPrice":null,"currencyCode":"RON","currency":"Lei","image":{"thumbnail":{"default":"https://cdn.freshful.ro/media/cache/sylius_shop_product_thumbnail/f6/c5/0d32234074490a9c7ac8d0600bf3.jpg"},"large":{"default":"https://cdn.freshful.ro/media/cache/freshful_large/f6/c5/0d32234074490a9c7ac8d0600bf3.jpg"},"extralarge":{"default":"https://cdn.freshful.ro/media/cache/sylius_shop_product_original/f6/c5/0d32234074490a9c7ac8d0600bf3.jpg"}},"label":null,"tags":[],"isAvailable":true,"maxAvailableQuantity":100,"maxAllowedQuantity":100,"breadcrumbs":[{"code":"15","name":"Pet Shop","slug":"15-pet-shop"},{"code":"1502","name":"Câini","slug":"1502-caini"},{"code":"150201","name":"Hrană umedă câini","slug":"150201-hrana-umeda-caini"},{"code":"100040204","name":"Hrană umedă pentru câini adulți, 100g, cu miel în aspic ","slug":"100040204-pedigree-hrana-umeda-pentru-caini-adulti-100g-cu-miel-in-aspic"}],"activePromotion":null,"saveMe":null,"labels":[],"geniusPrice":null,"geniusUnitPricePerLabel":null,"banner":null,"discountLabel":null,"geniusDiscountLabel":null,"badge":null},{"code":"100040193","variantCode":"100040193","name":"Hrană umedă pentru câini adulți, 100g, cu vită și miel în sos ","slug":"100040193-pedigree-hrana-umeda-pentru-caini-adulti-100g-cu-vita-si-miel-in-sos","unitPriceLabel":"25,9 Lei/kg","brand":"Pedigree","brandCode":"255","brandFilterCode":"pedigree-b256","sku":"100040193","price":2.59,"originalPrice":null,"currencyCode":"RON","currency":"Lei","image":{"thumbnail":{"default":"https://cdn.freshful.ro/media/cache/sylius_shop_product_thumbnail/58/3b/3f49de197078eb464f54ea9752f0.jpg"},"large":{"default":"https://cdn.freshful.ro/media/cache/freshful_large/58/3b/3f49de197078eb464f54ea9752f0.jpg"},"extralarge":{"default":"https://cdn.freshful.ro/media/cache/sylius_shop_product_original/58/3b/3f49de197078eb464f54ea9752f0.jpg"}},"label":null,"tags":[],"isAvailable":true,"maxAvailableQuantity":100,"maxAllowedQuantity":100,"breadcrumbs":[{"code":"15","name":"Pet Shop","slug":"15-pet-shop"},{"code":"1502","name":"Câini","slug":"1502-caini"},{"code":"150201","name":"Hrană umedă câini","slug":"150201-hrana-umeda-caini"},{"code":"100040193","name":"Hrană umedă pentru câini adulți, 100g, cu vită și miel în sos ","slug":"100040193-pedigree-hrana-umeda-pentru-caini-adulti-100g-cu-vita-si-miel-in-sos"}],"activePromotion":null,"saveMe":null,"labels":[],"geniusPrice":null,"geniusUnitPricePerLabel":null,"banner":null,"discountLabel":null,"geniusDiscountLabel":null,"badge":null},{"code":"100083630","variantCode":"5902921300328","name":"Hrană umedă pentru câini, 400g, cu carne de miel morcovi și orez brun ","slug":"100083630-piper-hrana-umeda-pentru-caini-400g-cu-carne-de-miel-morcovi-si-orez-brun","unitPriceLabel":"21,88 Lei/kg","brand":"Piper","brandCode":"1425","brandFilterCode":"piper-b1474","sku":"100083630","price":8.75,"originalPrice":null,"currencyCode":"RON","currency":"Lei","image":{"thumbnail":{"default":"https://cdn.freshful.ro/media/cache/sylius_shop_product_thumbnail/69/f7/3f6932915fc776d259b6d869f4a3.jpg"},"large":{"default":"https://cdn.freshful.ro/media/cache/freshful_large/69/f7/3f6932915fc776d259b6d869f4a3.jpg"},"extralarge":{"default":"https://cdn.freshful.ro/media/cache/sylius_shop_product_original/69/f7/3f6932915fc776d259b6d869f4a3.jpg"}},"label":null,"tags":[],"isAvailable":true,"maxAvailableQuantity":36,"maxAllowedQuantity":100,"breadcrumbs":[{"code":"15","name":"Pet Shop","slug":"15-pet-shop"},{"code":"1502","name":"Câini","slug":"1502-caini"},{"code":"150201","name":"Hrană umedă câini","slug":"150201-hrana-umeda-caini"},{"code":"100083630","name":"Hrană umedă pentru câini, 400g, cu carne de miel morcovi și orez brun ","slug":"100083630-piper-hrana-umeda-pentru-caini-400g-cu-carne-de-miel-morcovi-si-orez-brun"}],"activePromotion":null,"saveMe":null,"labels":[],"geniusPrice":null,"geniusUnitPricePerLabel":null,"banner":null,"discountLabel":null,"geniusDiscountLabel":null,"badge":null},{"code":"100040156","variantCode":"100040156","name":"Hrană umedă pentru câini adulți, 4x100g, selecții de carne și legume în aspic","slug":"100040156-cesar-hrana-umeda-pentru-caini-adulti-4x100g-selectii-de-carne-si-legume-in-aspic","unitPriceLabel":"27,23 Lei/kg","brand":"Cesar","brandCode":"250","brandFilterCode":"cesar-b251","sku":"100040156","price":10.89,"originalPrice":null,"currencyCode":"RON","currency":"Lei","image":{"thumbnail":{"default":"https://cdn.freshful.ro/media/cache/sylius_shop_product_thumbnail/53/e0/44f3e857bac3b92eca1ffa0e0895.jpg"},"large":{"default":"https://cdn.freshful.ro/media/cache/freshful_large/53/e0/44f3e857bac3b92eca1ffa0e0895.jpg"},"extralarge":{"default":"https://cdn.freshful.ro/media/cache/sylius_shop_product_original/53/e0/44f3e857bac3b92eca1ffa0e0895.jpg"}},"label":null,"tags":[],"isAvailable":true,"maxAvailableQuantity":15,"maxAllowedQuantity":100,"breadcrumbs":[{"code":"15","name":"Pet Shop","slug":"15-pet-shop"},{"code":"1502","name":"Câini","slug":"1502-caini"},{"code":"150201","name":"Hrană umedă câini","slug":"150201-hrana-umeda-caini"},{"code":"100040156","name":"Hrană umedă pentru câini adulți, 4x100g, selecții de carne și legume în aspic","slug":"100040156-cesar-hrana-umeda-pentru-caini-adulti-4x100g-selectii-de-carne-si-legume-in-aspic"}],"activePromotion":null,"saveMe":null,"labels":[],"geniusPrice":null,"geniusUnitPricePerLabel":null,"banner":null,"discountLabel":null,"geniusDiscountLabel":null,"badge":null},{"code":"100102160","variantCode":"5902921300342","name":"Hrană umedă pentru câini, 800g, cu ficat de vită și cartofi ","slug":"100102160-piper-hrana-umeda-pentru-caini-800g-cu-ficat-de-vita-si-cartofi","unitPriceLabel":"18,03 Lei/kg","brand":"Piper","brandCode":"1425","brandFilterCode":"piper-b1474","sku":"100102160","price":14.42,"originalPrice":null,"currencyCode":"RON","currency":"Lei","image":{"thumbnail":{"default":"https://cdn.freshful.ro/media/cache/sylius_shop_product_thumbnail/d8/eb/22d550ce2b1ce47b2ec0282c06fe.jpg"},"large":{"default":"https://cdn.freshful.ro/media/cache/freshful_large/d8/eb/22d550ce2b1ce47b2ec0282c06fe.jpg"},"extralarge":{"default":"https://cdn.freshful.ro/media/cache/sylius_shop_product_original/d8/eb/22d550ce2b1ce47b2ec0282c06fe.jpg"}},"label":null,"tags":[],"isAvailable":true,"maxAvailableQuantity":9,"maxAllowedQuantity":100,"breadcrumbs":[{"code":"15","name":"Pet Shop","slug":"15-pet-shop"},{"code":"1502","name":"Câini","slug":"1502-caini"},{"code":"150201","name":"Hrană umedă câini","slug":"150201-hrana-umeda-caini"},{"code":"100102160","name":"Hrană umedă pentru câini, 800g, cu ficat de vită și cartofi ","slug":"100102160-piper-hrana-umeda-pentru-caini-800g-cu-ficat-de-vita-si-cartofi"}],"activePromotion":null,"saveMe":null,"labels":[],"geniusPrice":null,"geniusUnitPricePerLabel":null,"banner":null,"discountLabel":null,"geniusDiscountLabel":null,"badge":null},{"code":"100083634","variantCode":"5902921302414","name":"Hrană umedă pentru câini, 400g, carne de iepure ","slug":"100083634-piper-hrana-umeda-pentru-caini-400g-carne-de-iepure","unitPriceLabel":"23,18 Lei/kg","brand":"Piper","brandCode":"1425","brandFilterCode":"piper-b1474","sku":"100083634","price":9.27,"originalPrice":null,"currencyCode":"RON","currency":"Lei","image":{"thumbnail":{"default":"https://cdn.freshful.ro/media/cache/sylius_shop_product_thumbnail/5b/e2/6d83f8f584beea08aae463aa1e12.jpg"},"large":{"default":"https://cdn.freshful.ro/media/cache/freshful_large/5b/e2/6d83f8f584beea08aae463aa1e12.jpg"},"extralarge":{"default":"https://cdn.freshful.ro/media/cache/sylius_shop_product_original/5b/e2/6d83f8f584beea08aae463aa1e12.jpg"}},"label":null,"tags":[],"isAvailable":true,"maxAvailableQuantity":100,"maxAllowedQuantity":100,"breadcrumbs":[{"code":"15","name":"Pet Shop","slug":"15-pet-shop"},{"code":"1502","name":"Câini","slug":"1502-caini"},{"code":"150201","name":"Hrană umedă câini","slug":"150201-hrana-umeda-caini"},{"code":"100083634","name":"Hrană umedă pentru câini, 400g, carne de iepure ","slug":"100083634-piper-hrana-umeda-pentru-caini-400g-carne-de-iepure"}],"activePromotion":null,"saveMe":null,"labels":[],"geniusPrice":null,"geniusUnitPricePerLabel":null,"banner":null,"discountLabel":null,"geniusDiscountLabel":null,"badge":null},{"code":"100040153","variantCode":"100040153","name":"Hrană umedă pentru câini adulți, 150g, cu vită și ficat ","slug":"100040153-cesar-hrana-umeda-pentru-caini-adulti-150g-cu-vita-si-ficat","unitPriceLabel":"35,93 Lei/kg","brand":"Cesar","brandCode":"250","brandFilterCode":"cesar-b251","sku":"100040153","price":5.39,"originalPrice":null,"currencyCode":"RON","currency":"Lei","image":{"thumbnail":{"default":"https://cdn.freshful.ro/media/cache/sylius_shop_product_thumbnail/76/f4/025dd89080e21806b95d062530a4.jpg"},"large":{"default":"https://cdn.freshful.ro/media/cache/freshful_large/76/f4/025dd89080e21806b95d062530a4.jpg"},"extralarge":{"default":"https://cdn.freshful.ro/media/cache/sylius_shop_product_original/76/f4/025dd89080e21806b95d062530a4.jpg"}},"label":null,"tags":[],"isAvailable":true,"maxAvailableQuantity":23,"maxAllowedQuantity":100,"breadcrumbs":[{"code":"15","name":"Pet Shop","slug":"15-pet-shop"},{"code":"1502","name":"Câini","slug":"1502-caini"},{"code":"150201","name":"Hrană umedă câini","slug":"150201-hrana-umeda-caini"},{"code":"100040153","name":"Hrană umedă pentru câini adulți, 150g, cu vită și ficat ","slug":"100040153-cesar-hrana-umeda-pentru-caini-adulti-150g-cu-vita-si-ficat"}],"activePromotion":null,"saveMe":null,"labels":[],"geniusPrice":null,"geniusUnitPricePerLabel":null,"banner":null,"discountLabel":null,"geniusDiscountLabel":null,"badge":null},{"code":"100040194","variantCode":"100040194","name":"Hrană umedă pentru câini adulți, 100g, cu pui și legume în sos","slug":"100040194-pedigree-hrana-umeda-pentru-caini-adulti-100g-cu-pui-si-legume-in-sos","unitPriceLabel":"22,9 Lei/kg","brand":"Pedigree","brandCode":"255","brandFilterCode":"pedigree-b256","sku":"100040194","price":2.29,"originalPrice":null,"currencyCode":"RON","currency":"Lei","image":{"thumbnail":{"default":"https://cdn.freshful.ro/media/cache/sylius_shop_product_thumbnail/9b/c2/8745626c211be07684d841e7abb3.jpg"},"large":{"default":"https://cdn.freshful.ro/media/cache/freshful_large/9b/c2/8745626c211be07684d841e7abb3.jpg"},"extralarge":{"default":"https://cdn.freshful.ro/media/cache/sylius_shop_product_original/9b/c2/8745626c211be07684d841e7abb3.jpg"}},"label":null,"tags":[],"isAvailable":true,"maxAvailableQuantity":100,"maxAllowedQuantity":100,"breadcrumbs":[{"code":"15","name":"Pet Shop","slug":"15-pet-shop"},{"code":"1502","name":"Câini","slug":"1502-caini"},{"code":"150201","name":"Hrană umedă câini","slug":"150201-hrana-umeda-caini"},{"code":"100040194","name":"Hrană umedă pentru câini adulți, 100g, cu pui și legume în sos","slug":"100040194-pedigree-hrana-umeda-pentru-caini-adulti-100g-cu-pui-si-legume-in-sos"}],"activePromotion":null,"saveMe":null,"labels":[],"geniusPrice":null,"geniusUnitPricePerLabel":null,"banner":null,"discountLabel":null,"geniusDiscountLabel":null,"badge":null}],"filters":{"countSelected":0,"items":[{"code":"brand","name":"Brand","countSelected":0,"values":[{"code":"4dog-b2732","name":"4Dog","isSelected":false,"count":3},{"code":"butcher-s-b1605","name":"Butcher's","isSelected":false,"count":18},{"code":"cesar-b251","name":"Cesar","isSelected":false,"count":6},{"code":"friskies-b2211","name":"Friskies","isSelected":false,"count":3},{"code":"king-b1057","name":"King","isSelected":false,"count":4},{"code":"mr-biffy-b1607","name":"Mr. Biffy","isSelected":false,"count":3},{"code":"nature-diet-b2858","name":"Nature Diet","isSelected":false,"count":11},{"code":"one-mini-b2212","name":"One Mini","isSelected":false,"count":1},{"code":"organicvet-b1059","name":"OrganicVet","isSelected":false,"count":5},{"code":"pedigree-b256","name":"Pedigree","isSelected":false,"count":12},{"code":"piper-b1474","name":"Piper","isSelected":false,"count":15},{"code":"plaisir-b1606","name":"Plaisir","isSelected":false,"count":3},{"code":"purina-b2452","name":"Purina","isSelected":false,"count":3},{"code":"raw-paleo-b1475","name":"Raw Paleo","isSelected":false,"count":1}]},{"code":"diet_lifestyle","name":"Dietă și lifestyle","countSelected":0,"values":[{"code":"eco-a83","name":"Eco","isSelected":false,"count":2},{"code":"fara-conservanti-a37","name":"Fara conservanti","isSelected":false,"count":19},{"code":"fara-gluten-a16","name":"Fara gluten","isSelected":false,"count":28},{"code":"natural-a27","name":"Natural","isSelected":false,"count":10}]}]},"orderBy":[{"field":"price","direction":"asc","name":"Preț crescător","isSelected":false},{"field":"price","direction":"desc","name":"Preț descrescător","isSelected":false},{"field":"popularity","direction":"desc","name":"Cele mai populare","isSelected":true},{"field":"category","direction":"asc","name":"Categorie","isSelected":false}],"metaTitle":"Hrană umedă câini - Gamă variată","metaDescription":"Vrei Hrană umedă câini? Alege dintr-o gamă variată. Comanzi simplu și ai livrare rapidă, calitate și prospețime. Hai pe Freshful.ro","metaKeywords":null,"banners":[]}}