{"type":"subcategory","payload":{"analyticsListId":"category_150302-rozatoare","analyticsListName":"Category - Rozătoare","name":"Rozătoare","slug":"150302-rozatoare","image":null,"breadcrumbs":[{"code":"15","name":"Pet Shop","slug":"15-pet-shop"},{"code":"1503","name":"Păsări și rozătoare","slug":"1503-pasari-si-rozatoare"},{"code":"150302","name":"Rozătoare","slug":"150302-rozatoare"}],"slots":[],"page":1,"limit":10,"pages":3,"count":25,"siblings":[{"name":"Pisici","slug":"1501-pisici","selected":false},{"name":"Câini","slug":"1502-caini","selected":false},{"name":"Păsări și rozătoare","slug":"1503-pasari-si-rozatoare","selected":true},{"name":"Pești și țestoase","slug":"1504-pesti-si-testoase","selected":false}],"children":[{"name":"Toate produsele","slug":"1503-pasari-si-rozatoare","selected":false},{"name":"Păsări","slug":"150301-pasari","selected":false},{"name":"Rozătoare","slug":"150302-rozatoare","selected":true},{"name":"Accesorii păsări și rozătoare","slug":"150303-acesorii-pasari-si-razatoare","selected":false}],"products":[{"code":"100102748","variantCode":"100102748","name":"Talaș pentru rozătoare 1kg ","slug":"100102748-croci-talas-pentru-rozatoare-1kg","unitPriceLabel":"8,99 Lei/kg","brand":"Croci","brandCode":"1567","brandFilterCode":"croci-b1571","sku":"100102748","price":8.99,"originalPrice":null,"currencyCode":"RON","currency":"Lei","image":{"thumbnail":{"default":"https://cdn.freshful.ro/media/cache/sylius_shop_product_thumbnail/06/97/1da760e8ba729f2c6b3295e68d8a.jpg"},"large":{"default":"https://cdn.freshful.ro/media/cache/freshful_large/06/97/1da760e8ba729f2c6b3295e68d8a.jpg"},"extralarge":{"default":"https://cdn.freshful.ro/media/cache/sylius_shop_product_original/06/97/1da760e8ba729f2c6b3295e68d8a.jpg"}},"label":null,"tags":[],"isAvailable":true,"maxAvailableQuantity":14,"maxAllowedQuantity":100,"breadcrumbs":[{"code":"15","name":"Pet Shop","slug":"15-pet-shop"},{"code":"1503","name":"Păsări și rozătoare","slug":"1503-pasari-si-rozatoare"},{"code":"150302","name":"Rozătoare","slug":"150302-rozatoare"},{"code":"100102748","name":"Talaș pentru rozătoare 1kg ","slug":"100102748-croci-talas-pentru-rozatoare-1kg"}],"activePromotion":null,"saveMe":null,"labels":[],"geniusPrice":null,"geniusUnitPricePerLabel":null,"banner":null,"discountLabel":null,"geniusDiscountLabel":null,"badge":null},{"code":"100102739","variantCode":"100102739","name":"Hrană iepuri 900g ","slug":"100102739-little-one-hrana-iepuri-900g","unitPriceLabel":"19,98 Lei/kg","brand":"Little One","brandCode":"1566","brandFilterCode":"little-one-b1570","sku":"100102739","price":17.98,"originalPrice":null,"currencyCode":"RON","currency":"Lei","image":{"thumbnail":{"default":"https://cdn.freshful.ro/media/cache/sylius_shop_product_thumbnail/76/24/3b8b2640f7930039a7f0762a3e0d.jpg"},"large":{"default":"https://cdn.freshful.ro/media/cache/freshful_large/76/24/3b8b2640f7930039a7f0762a3e0d.jpg"},"extralarge":{"default":"https://cdn.freshful.ro/media/cache/sylius_shop_product_original/76/24/3b8b2640f7930039a7f0762a3e0d.jpg"}},"label":null,"tags":[],"isAvailable":true,"maxAvailableQuantity":13,"maxAllowedQuantity":100,"breadcrumbs":[{"code":"15","name":"Pet Shop","slug":"15-pet-shop"},{"code":"1503","name":"Păsări și rozătoare","slug":"1503-pasari-si-rozatoare"},{"code":"150302","name":"Rozătoare","slug":"150302-rozatoare"},{"code":"100102739","name":"Hrană iepuri 900g ","slug":"100102739-little-one-hrana-iepuri-900g"}],"activePromotion":null,"saveMe":null,"labels":[],"geniusPrice":null,"geniusUnitPricePerLabel":null,"banner":null,"discountLabel":null,"geniusDiscountLabel":null,"badge":null},{"code":"100102747","variantCode":"100102747","name":"Vas din iarbă cu mix de plante 65g","slug":"100102747-little-one-vas-din-iarba-cu-mix-de-plante-65g","unitPriceLabel":"132,15 Lei/kg","brand":"Little One","brandCode":"1566","brandFilterCode":"little-one-b1570","sku":"100102747","price":8.59,"originalPrice":null,"currencyCode":"RON","currency":"Lei","image":{"thumbnail":{"default":"https://cdn.freshful.ro/media/cache/sylius_shop_product_thumbnail/b8/52/7b9815b6ef1786f2a09888dbb4d6.jpg"},"large":{"default":"https://cdn.freshful.ro/media/cache/freshful_large/b8/52/7b9815b6ef1786f2a09888dbb4d6.jpg"},"extralarge":{"default":"https://cdn.freshful.ro/media/cache/sylius_shop_product_original/b8/52/7b9815b6ef1786f2a09888dbb4d6.jpg"}},"label":null,"tags":[],"isAvailable":true,"maxAvailableQuantity":19,"maxAllowedQuantity":100,"breadcrumbs":[{"code":"15","name":"Pet Shop","slug":"15-pet-shop"},{"code":"1503","name":"Păsări și rozătoare","slug":"1503-pasari-si-rozatoare"},{"code":"150302","name":"Rozătoare","slug":"150302-rozatoare"},{"code":"100102747","name":"Vas din iarbă cu mix de plante 65g","slug":"100102747-little-one-vas-din-iarba-cu-mix-de-plante-65g"}],"activePromotion":null,"saveMe":null,"labels":[],"geniusPrice":null,"geniusUnitPricePerLabel":null,"banner":null,"discountLabel":null,"geniusDiscountLabel":null,"badge":null},{"code":"100102750","variantCode":"100102750","name":"Fân natural pentru rozătoare 1kg ","slug":"100102750-croci-fan-natural-pentru-rozatoare-1kg","unitPriceLabel":"18,98 Lei/kg","brand":"Croci","brandCode":"1567","brandFilterCode":"croci-b1571","sku":"100102750","price":18.98,"originalPrice":null,"currencyCode":"RON","currency":"Lei","image":{"thumbnail":{"default":"https://cdn.freshful.ro/media/cache/sylius_shop_product_thumbnail/47/c8/e67c431df58eea611891797ff274.jpg"},"large":{"default":"https://cdn.freshful.ro/media/cache/freshful_large/47/c8/e67c431df58eea611891797ff274.jpg"},"extralarge":{"default":"https://cdn.freshful.ro/media/cache/sylius_shop_product_original/47/c8/e67c431df58eea611891797ff274.jpg"}},"label":null,"tags":[],"isAvailable":true,"maxAvailableQuantity":22,"maxAllowedQuantity":100,"breadcrumbs":[{"code":"15","name":"Pet Shop","slug":"15-pet-shop"},{"code":"1503","name":"Păsări și rozătoare","slug":"1503-pasari-si-rozatoare"},{"code":"150302","name":"Rozătoare","slug":"150302-rozatoare"},{"code":"100102750","name":"Fân natural pentru rozătoare 1kg ","slug":"100102750-croci-fan-natural-pentru-rozatoare-1kg"}],"activePromotion":null,"saveMe":null,"labels":[],"geniusPrice":null,"geniusUnitPricePerLabel":null,"banner":null,"discountLabel":null,"geniusDiscountLabel":null,"badge":null},{"code":"100102744","variantCode":"100102744","name":"Baton pentru rozătoare, 2x60g, cu fructe de pădure","slug":"100102744-little-one-baton-pentru-rozatoare-2x60g-cu-fructe-de-padure","unitPriceLabel":"99,92 Lei/kg","brand":"Little One","brandCode":"1566","brandFilterCode":"little-one-b1570","sku":"100102744","price":11.99,"originalPrice":null,"currencyCode":"RON","currency":"Lei","image":{"thumbnail":{"default":"https://cdn.freshful.ro/media/cache/sylius_shop_product_thumbnail/2e/17/8c034f4d388fcca016b9cde60584.jpg"},"large":{"default":"https://cdn.freshful.ro/media/cache/freshful_large/2e/17/8c034f4d388fcca016b9cde60584.jpg"},"extralarge":{"default":"https://cdn.freshful.ro/media/cache/sylius_shop_product_original/2e/17/8c034f4d388fcca016b9cde60584.jpg"}},"label":null,"tags":[],"isAvailable":true,"maxAvailableQuantity":17,"maxAllowedQuantity":100,"breadcrumbs":[{"code":"15","name":"Pet Shop","slug":"15-pet-shop"},{"code":"1503","name":"Păsări și rozătoare","slug":"1503-pasari-si-rozatoare"},{"code":"150302","name":"Rozătoare","slug":"150302-rozatoare"},{"code":"100102744","name":"Baton pentru rozătoare, 2x60g, cu fructe de pădure","slug":"100102744-little-one-baton-pentru-rozatoare-2x60g-cu-fructe-de-padure"}],"activePromotion":null,"saveMe":null,"labels":[],"geniusPrice":null,"geniusUnitPricePerLabel":null,"banner":null,"discountLabel":null,"geniusDiscountLabel":null,"badge":null},{"code":"100102737","variantCode":"100102737","name":"Hrană porcușori de Guineea 900g","slug":"100102737-little-one-hrana-porcusori-de-guineea-900g","unitPriceLabel":"19,98 Lei/kg","brand":"Little One","brandCode":"1566","brandFilterCode":"little-one-b1570","sku":"100102737","price":17.98,"originalPrice":null,"currencyCode":"RON","currency":"Lei","image":{"thumbnail":{"default":"https://cdn.freshful.ro/media/cache/sylius_shop_product_thumbnail/b2/17/a8805e7ccd37c6b7e06da61d36de.jpg"},"large":{"default":"https://cdn.freshful.ro/media/cache/freshful_large/b2/17/a8805e7ccd37c6b7e06da61d36de.jpg"},"extralarge":{"default":"https://cdn.freshful.ro/media/cache/sylius_shop_product_original/b2/17/a8805e7ccd37c6b7e06da61d36de.jpg"}},"label":null,"tags":[],"isAvailable":true,"maxAvailableQuantity":28,"maxAllowedQuantity":100,"breadcrumbs":[{"code":"15","name":"Pet Shop","slug":"15-pet-shop"},{"code":"1503","name":"Păsări și rozătoare","slug":"1503-pasari-si-rozatoare"},{"code":"150302","name":"Rozătoare","slug":"150302-rozatoare"},{"code":"100102737","name":"Hrană porcușori de Guineea 900g","slug":"100102737-little-one-hrana-porcusori-de-guineea-900g"}],"activePromotion":null,"saveMe":null,"labels":[],"geniusPrice":null,"geniusUnitPricePerLabel":null,"banner":null,"discountLabel":null,"geniusDiscountLabel":null,"badge":null},{"code":"100102751","variantCode":"100102751","name":"Fân cu mușețel și păpădie 500g ","slug":"100102751-croci-fan-cu-musetel-si-papadie-500g","unitPriceLabel":"37,98 Lei/kg","brand":"Croci","brandCode":"1567","brandFilterCode":"croci-b1571","sku":"100102751","price":18.99,"originalPrice":null,"currencyCode":"RON","currency":"Lei","image":{"thumbnail":{"default":"https://cdn.freshful.ro/media/cache/sylius_shop_product_thumbnail/2b/62/86d1d344d0f46a1ee5832987010e.jpg"},"large":{"default":"https://cdn.freshful.ro/media/cache/freshful_large/2b/62/86d1d344d0f46a1ee5832987010e.jpg"},"extralarge":{"default":"https://cdn.freshful.ro/media/cache/sylius_shop_product_original/2b/62/86d1d344d0f46a1ee5832987010e.jpg"}},"label":null,"tags":[],"isAvailable":true,"maxAvailableQuantity":8,"maxAllowedQuantity":100,"breadcrumbs":[{"code":"15","name":"Pet Shop","slug":"15-pet-shop"},{"code":"1503","name":"Păsări și rozătoare","slug":"1503-pasari-si-rozatoare"},{"code":"150302","name":"Rozătoare","slug":"150302-rozatoare"},{"code":"100102751","name":"Fân cu mușețel și păpădie 500g ","slug":"100102751-croci-fan-cu-musetel-si-papadie-500g"}],"activePromotion":null,"saveMe":null,"labels":[],"geniusPrice":null,"geniusUnitPricePerLabel":null,"banner":null,"discountLabel":null,"geniusDiscountLabel":null,"badge":null},{"code":"100102753","variantCode":"100102753","name":"Fân cu urzici și gălbenele 500g","slug":"100102753-croci-fan-cu-urzici-si-galbenele-500g","unitPriceLabel":"37,98 Lei/kg","brand":"Croci","brandCode":"1567","brandFilterCode":"croci-b1571","sku":"100102753","price":18.99,"originalPrice":null,"currencyCode":"RON","currency":"Lei","image":{"thumbnail":{"default":"https://cdn.freshful.ro/media/cache/sylius_shop_product_thumbnail/c0/69/0e26b8f8c14fe8474eec9e4e3587.jpg"},"large":{"default":"https://cdn.freshful.ro/media/cache/freshful_large/c0/69/0e26b8f8c14fe8474eec9e4e3587.jpg"},"extralarge":{"default":"https://cdn.freshful.ro/media/cache/sylius_shop_product_original/c0/69/0e26b8f8c14fe8474eec9e4e3587.jpg"}},"label":null,"tags":[],"isAvailable":true,"maxAvailableQuantity":11,"maxAllowedQuantity":100,"breadcrumbs":[{"code":"15","name":"Pet Shop","slug":"15-pet-shop"},{"code":"1503","name":"Păsări și rozătoare","slug":"1503-pasari-si-rozatoare"},{"code":"150302","name":"Rozătoare","slug":"150302-rozatoare"},{"code":"100102753","name":"Fân cu urzici și gălbenele 500g","slug":"100102753-croci-fan-cu-urzici-si-galbenele-500g"}],"activePromotion":null,"saveMe":null,"labels":[],"geniusPrice":null,"geniusUnitPricePerLabel":null,"banner":null,"discountLabel":null,"geniusDiscountLabel":null,"badge":null},{"code":"100085815","variantCode":"100085815","name":"Hrană completă iepuri mici 1kg","slug":"100085815-manitoba-hrana-completa-iepuri-mici-1kg","unitPriceLabel":"17,93 Lei/kg","brand":"Manitoba","brandCode":"1046","brandFilterCode":"manitoba-b1046","sku":"100085815","price":17.93,"originalPrice":null,"currencyCode":"RON","currency":"Lei","image":{"thumbnail":{"default":"https://cdn.freshful.ro/media/cache/sylius_shop_product_thumbnail/9f/86/c2802df64856ea720c7730d8a012.jpg"},"large":{"default":"https://cdn.freshful.ro/media/cache/freshful_large/9f/86/c2802df64856ea720c7730d8a012.jpg"},"extralarge":{"default":"https://cdn.freshful.ro/media/cache/sylius_shop_product_original/9f/86/c2802df64856ea720c7730d8a012.jpg"}},"label":null,"tags":[],"isAvailable":true,"maxAvailableQuantity":20,"maxAllowedQuantity":100,"breadcrumbs":[{"code":"15","name":"Pet Shop","slug":"15-pet-shop"},{"code":"1503","name":"Păsări și rozătoare","slug":"1503-pasari-si-rozatoare"},{"code":"150302","name":"Rozătoare","slug":"150302-rozatoare"},{"code":"100085815","name":"Hrană completă iepuri mici 1kg","slug":"100085815-manitoba-hrana-completa-iepuri-mici-1kg"}],"activePromotion":null,"saveMe":null,"labels":[],"geniusPrice":null,"geniusUnitPricePerLabel":null,"banner":null,"discountLabel":null,"geniusDiscountLabel":null,"badge":null},{"code":"100102735","variantCode":"100102735","name":"Hrană hamsteri 900g ","slug":"100102735-little-one-hrana-hamsteri-900g","unitPriceLabel":"19,98 Lei/kg","brand":"Little One","brandCode":"1566","brandFilterCode":"little-one-b1570","sku":"100102735","price":17.98,"originalPrice":null,"currencyCode":"RON","currency":"Lei","image":{"thumbnail":{"default":"https://cdn.freshful.ro/media/cache/sylius_shop_product_thumbnail/0c/90/1180b2db7c7be112d823506cb455.jpg"},"large":{"default":"https://cdn.freshful.ro/media/cache/freshful_large/0c/90/1180b2db7c7be112d823506cb455.jpg"},"extralarge":{"default":"https://cdn.freshful.ro/media/cache/sylius_shop_product_original/0c/90/1180b2db7c7be112d823506cb455.jpg"}},"label":null,"tags":[],"isAvailable":true,"maxAvailableQuantity":1,"maxAllowedQuantity":100,"breadcrumbs":[{"code":"15","name":"Pet Shop","slug":"15-pet-shop"},{"code":"1503","name":"Păsări și rozătoare","slug":"1503-pasari-si-rozatoare"},{"code":"150302","name":"Rozătoare","slug":"150302-rozatoare"},{"code":"100102735","name":"Hrană hamsteri 900g ","slug":"100102735-little-one-hrana-hamsteri-900g"}],"activePromotion":null,"saveMe":null,"labels":[],"geniusPrice":null,"geniusUnitPricePerLabel":null,"banner":null,"discountLabel":null,"geniusDiscountLabel":null,"badge":null}],"filters":{"countSelected":0,"items":[{"code":"brand","name":"Brand","countSelected":0,"values":[{"code":"croci-b1571","name":"Croci","isSelected":false,"count":6},{"code":"little-one-b1570","name":"Little One","isSelected":false,"count":13},{"code":"manitoba-b1046","name":"Manitoba","isSelected":false,"count":4},{"code":"tropifit-b2654","name":"Tropifit","isSelected":false,"count":2}]}]},"orderBy":[{"field":"price","direction":"asc","name":"Preț crescător","isSelected":false},{"field":"price","direction":"desc","name":"Preț descrescător","isSelected":false},{"field":"popularity","direction":"desc","name":"Cele mai populare","isSelected":true},{"field":"category","direction":"asc","name":"Categorie","isSelected":false}],"metaTitle":"Rozătoare - Gamă variată","metaDescription":"Vrei Rozătoare? Alege dintr-o gamă variată. Comanzi simplu și ai livrare rapidă, calitate și prospețime. Hai pe Freshful.ro","metaKeywords":null,"banners":[]}}