{"type":"subcategory","payload":{"analyticsListId":"category_1503-pasari-si-rozatoare","analyticsListName":"Category - Păsări și rozătoare","name":"Păsări și rozătoare","slug":"1503-pasari-si-rozatoare","image":null,"breadcrumbs":[{"code":"15","name":"Pet Shop","slug":"15-pet-shop"},{"code":"1503","name":"Păsări și rozătoare","slug":"1503-pasari-si-rozatoare"}],"slots":[],"page":1,"limit":10,"pages":5,"count":50,"siblings":[{"name":"Pisici","slug":"1501-pisici","selected":false},{"name":"Câini","slug":"1502-caini","selected":false},{"name":"Păsări și rozătoare","slug":"1503-pasari-si-rozatoare","selected":true},{"name":"Pești și țestoase","slug":"1504-pesti-si-testoase","selected":false}],"children":[{"name":"Toate produsele","slug":"1503-pasari-si-rozatoare","selected":true},{"name":"Păsări","slug":"150301-pasari","selected":false},{"name":"Rozătoare","slug":"150302-rozatoare","selected":false},{"name":"Accesorii păsări și rozătoare","slug":"150303-acesorii-pasari-si-razatoare","selected":false}],"products":[{"code":"100102731","variantCode":"100102731","name":"Baton pentru papagali mari, 2x75g, cu fructe tropicale","slug":"100102731-rio-baton-pentru-papagali-mari-2x75g-cu-fructe-tropicale","unitPriceLabel":"59,93 Lei/kg","brand":"Rio","brandCode":"1565","brandFilterCode":"rio-b1569","sku":"100102731","price":8.99,"originalPrice":14.99,"currencyCode":"RON","currency":"Lei","image":{"thumbnail":{"default":"https://cdn.freshful.ro/media/cache/sylius_shop_product_thumbnail/8d/e6/a69b05af92a02a3c4cf7075ea481.jpg"},"large":{"default":"https://cdn.freshful.ro/media/cache/freshful_large/8d/e6/a69b05af92a02a3c4cf7075ea481.jpg"},"extralarge":{"default":"https://cdn.freshful.ro/media/cache/sylius_shop_product_original/8d/e6/a69b05af92a02a3c4cf7075ea481.jpg"}},"label":{"text":"-40%","backgroundColor":"#FF9903","textColor":"#FFFFFF"},"tags":[],"isAvailable":true,"maxAvailableQuantity":5,"maxAllowedQuantity":100,"breadcrumbs":[{"code":"15","name":"Pet Shop","slug":"15-pet-shop"},{"code":"1503","name":"Păsări și rozătoare","slug":"1503-pasari-si-rozatoare"},{"code":"150301","name":"Păsări","slug":"150301-pasari"},{"code":"100102731","name":"Baton pentru papagali mari, 2x75g, cu fructe tropicale","slug":"100102731-rio-baton-pentru-papagali-mari-2x75g-cu-fructe-tropicale"}],"activePromotion":{"code":"oferte-bacanie-bauturi-21feb-8mar23","name":"Preț redus","targetQuantity":null},"saveMe":null,"labels":[{"type":"v1","items":[{"text":"-40%","backgroundColor":"#FF9903","textColor":"#FFFFFF"}]}],"geniusPrice":null,"geniusUnitPricePerLabel":null,"banner":{"text":"Super preț","textColor":"#FF0000","bgColor":"#FFF2EC","icon":null,"link":"https://www.freshful.ro/oferte/oferte-bacanie-bauturi-21feb-8mar23","type":"promo","analyticsEventType":"select_promotion","analyticsEventPayload":{"promotion_id":"oferte-bacanie-bauturi-21feb-8mar23","promotion_name":"Cămara cu băuturi și bunătăți"}},"discountLabel":"Economisești 40%","geniusDiscountLabel":null,"badge":null},{"code":"100102721","variantCode":"100102721","name":"Hrană peruși 500g","slug":"100102721-rio-hrana-perusi-500g","unitPriceLabel":"19,56 Lei/kg","brand":"Rio","brandCode":"1565","brandFilterCode":"rio-b1569","sku":"100102721","price":9.78,"originalPrice":null,"currencyCode":"RON","currency":"Lei","image":{"thumbnail":{"default":"https://cdn.freshful.ro/media/cache/sylius_shop_product_thumbnail/f0/ac/15ff168e19cd82d0c5d855707e4d.jpg"},"large":{"default":"https://cdn.freshful.ro/media/cache/freshful_large/f0/ac/15ff168e19cd82d0c5d855707e4d.jpg"},"extralarge":{"default":"https://cdn.freshful.ro/media/cache/sylius_shop_product_original/f0/ac/15ff168e19cd82d0c5d855707e4d.jpg"}},"label":null,"tags":[],"isAvailable":true,"maxAvailableQuantity":16,"maxAllowedQuantity":100,"breadcrumbs":[{"code":"15","name":"Pet Shop","slug":"15-pet-shop"},{"code":"1503","name":"Păsări și rozătoare","slug":"1503-pasari-si-rozatoare"},{"code":"150301","name":"Păsări","slug":"150301-pasari"},{"code":"100102721","name":"Hrană peruși 500g","slug":"100102721-rio-hrana-perusi-500g"}],"activePromotion":null,"saveMe":null,"labels":[],"geniusPrice":null,"geniusUnitPricePerLabel":null,"banner":null,"discountLabel":null,"geniusDiscountLabel":null,"badge":null},{"code":"100102748","variantCode":"100102748","name":"Talaș pentru rozătoare 1kg ","slug":"100102748-croci-talas-pentru-rozatoare-1kg","unitPriceLabel":"8,99 Lei/kg","brand":"Croci","brandCode":"1567","brandFilterCode":"croci-b1571","sku":"100102748","price":8.99,"originalPrice":null,"currencyCode":"RON","currency":"Lei","image":{"thumbnail":{"default":"https://cdn.freshful.ro/media/cache/sylius_shop_product_thumbnail/06/97/1da760e8ba729f2c6b3295e68d8a.jpg"},"large":{"default":"https://cdn.freshful.ro/media/cache/freshful_large/06/97/1da760e8ba729f2c6b3295e68d8a.jpg"},"extralarge":{"default":"https://cdn.freshful.ro/media/cache/sylius_shop_product_original/06/97/1da760e8ba729f2c6b3295e68d8a.jpg"}},"label":null,"tags":[],"isAvailable":true,"maxAvailableQuantity":14,"maxAllowedQuantity":100,"breadcrumbs":[{"code":"15","name":"Pet Shop","slug":"15-pet-shop"},{"code":"1503","name":"Păsări și rozătoare","slug":"1503-pasari-si-rozatoare"},{"code":"150302","name":"Rozătoare","slug":"150302-rozatoare"},{"code":"100102748","name":"Talaș pentru rozătoare 1kg ","slug":"100102748-croci-talas-pentru-rozatoare-1kg"}],"activePromotion":null,"saveMe":null,"labels":[],"geniusPrice":null,"geniusUnitPricePerLabel":null,"banner":null,"discountLabel":null,"geniusDiscountLabel":null,"badge":null},{"code":"100102739","variantCode":"100102739","name":"Hrană iepuri 900g ","slug":"100102739-little-one-hrana-iepuri-900g","unitPriceLabel":"19,98 Lei/kg","brand":"Little One","brandCode":"1566","brandFilterCode":"little-one-b1570","sku":"100102739","price":17.98,"originalPrice":null,"currencyCode":"RON","currency":"Lei","image":{"thumbnail":{"default":"https://cdn.freshful.ro/media/cache/sylius_shop_product_thumbnail/76/24/3b8b2640f7930039a7f0762a3e0d.jpg"},"large":{"default":"https://cdn.freshful.ro/media/cache/freshful_large/76/24/3b8b2640f7930039a7f0762a3e0d.jpg"},"extralarge":{"default":"https://cdn.freshful.ro/media/cache/sylius_shop_product_original/76/24/3b8b2640f7930039a7f0762a3e0d.jpg"}},"label":null,"tags":[],"isAvailable":true,"maxAvailableQuantity":13,"maxAllowedQuantity":100,"breadcrumbs":[{"code":"15","name":"Pet Shop","slug":"15-pet-shop"},{"code":"1503","name":"Păsări și rozătoare","slug":"1503-pasari-si-rozatoare"},{"code":"150302","name":"Rozătoare","slug":"150302-rozatoare"},{"code":"100102739","name":"Hrană iepuri 900g ","slug":"100102739-little-one-hrana-iepuri-900g"}],"activePromotion":null,"saveMe":null,"labels":[],"geniusPrice":null,"geniusUnitPricePerLabel":null,"banner":null,"discountLabel":null,"geniusDiscountLabel":null,"badge":null},{"code":"100102747","variantCode":"100102747","name":"Vas din iarbă cu mix de plante 65g","slug":"100102747-little-one-vas-din-iarba-cu-mix-de-plante-65g","unitPriceLabel":"132,15 Lei/kg","brand":"Little One","brandCode":"1566","brandFilterCode":"little-one-b1570","sku":"100102747","price":8.59,"originalPrice":null,"currencyCode":"RON","currency":"Lei","image":{"thumbnail":{"default":"https://cdn.freshful.ro/media/cache/sylius_shop_product_thumbnail/b8/52/7b9815b6ef1786f2a09888dbb4d6.jpg"},"large":{"default":"https://cdn.freshful.ro/media/cache/freshful_large/b8/52/7b9815b6ef1786f2a09888dbb4d6.jpg"},"extralarge":{"default":"https://cdn.freshful.ro/media/cache/sylius_shop_product_original/b8/52/7b9815b6ef1786f2a09888dbb4d6.jpg"}},"label":null,"tags":[],"isAvailable":true,"maxAvailableQuantity":19,"maxAllowedQuantity":100,"breadcrumbs":[{"code":"15","name":"Pet Shop","slug":"15-pet-shop"},{"code":"1503","name":"Păsări și rozătoare","slug":"1503-pasari-si-rozatoare"},{"code":"150302","name":"Rozătoare","slug":"150302-rozatoare"},{"code":"100102747","name":"Vas din iarbă cu mix de plante 65g","slug":"100102747-little-one-vas-din-iarba-cu-mix-de-plante-65g"}],"activePromotion":null,"saveMe":null,"labels":[],"geniusPrice":null,"geniusUnitPricePerLabel":null,"banner":null,"discountLabel":null,"geniusDiscountLabel":null,"badge":null},{"code":"100102730","variantCode":"100102730","name":"Baton peruși și păsări exotice, 2x40g, cu fructe tropicale ","slug":"100102730-rio-baton-perusi-si-pasari-exotice-2x40g-cu-fructe-tropicale","unitPriceLabel":"149,88 Lei/kg","brand":"Rio","brandCode":"1565","brandFilterCode":"rio-b1569","sku":"100102730","price":11.99,"originalPrice":null,"currencyCode":"RON","currency":"Lei","image":{"thumbnail":{"default":"https://cdn.freshful.ro/media/cache/sylius_shop_product_thumbnail/48/d6/bbb9607d27cda5fa0bc5afc8769b.jpg"},"large":{"default":"https://cdn.freshful.ro/media/cache/freshful_large/48/d6/bbb9607d27cda5fa0bc5afc8769b.jpg"},"extralarge":{"default":"https://cdn.freshful.ro/media/cache/sylius_shop_product_original/48/d6/bbb9607d27cda5fa0bc5afc8769b.jpg"}},"label":null,"tags":[],"isAvailable":true,"maxAvailableQuantity":16,"maxAllowedQuantity":100,"breadcrumbs":[{"code":"15","name":"Pet Shop","slug":"15-pet-shop"},{"code":"1503","name":"Păsări și rozătoare","slug":"1503-pasari-si-rozatoare"},{"code":"150301","name":"Păsări","slug":"150301-pasari"},{"code":"100102730","name":"Baton peruși și păsări exotice, 2x40g, cu fructe tropicale ","slug":"100102730-rio-baton-perusi-si-pasari-exotice-2x40g-cu-fructe-tropicale"}],"activePromotion":null,"saveMe":null,"labels":[],"geniusPrice":null,"geniusUnitPricePerLabel":null,"banner":null,"discountLabel":null,"geniusDiscountLabel":null,"badge":null},{"code":"100102750","variantCode":"100102750","name":"Fân natural pentru rozătoare 1kg ","slug":"100102750-croci-fan-natural-pentru-rozatoare-1kg","unitPriceLabel":"18,98 Lei/kg","brand":"Croci","brandCode":"1567","brandFilterCode":"croci-b1571","sku":"100102750","price":18.98,"originalPrice":null,"currencyCode":"RON","currency":"Lei","image":{"thumbnail":{"default":"https://cdn.freshful.ro/media/cache/sylius_shop_product_thumbnail/47/c8/e67c431df58eea611891797ff274.jpg"},"large":{"default":"https://cdn.freshful.ro/media/cache/freshful_large/47/c8/e67c431df58eea611891797ff274.jpg"},"extralarge":{"default":"https://cdn.freshful.ro/media/cache/sylius_shop_product_original/47/c8/e67c431df58eea611891797ff274.jpg"}},"label":null,"tags":[],"isAvailable":true,"maxAvailableQuantity":22,"maxAllowedQuantity":100,"breadcrumbs":[{"code":"15","name":"Pet Shop","slug":"15-pet-shop"},{"code":"1503","name":"Păsări și rozătoare","slug":"1503-pasari-si-rozatoare"},{"code":"150302","name":"Rozătoare","slug":"150302-rozatoare"},{"code":"100102750","name":"Fân natural pentru rozătoare 1kg ","slug":"100102750-croci-fan-natural-pentru-rozatoare-1kg"}],"activePromotion":null,"saveMe":null,"labels":[],"geniusPrice":null,"geniusUnitPricePerLabel":null,"banner":null,"discountLabel":null,"geniusDiscountLabel":null,"badge":null},{"code":"100102729","variantCode":"100102729","name":"Mei în spic 100g ","slug":"100102729-rio-mei-in-spic-100g","unitPriceLabel":"97,9 Lei/kg","brand":"Rio","brandCode":"1565","brandFilterCode":"rio-b1569","sku":"100102729","price":9.79,"originalPrice":null,"currencyCode":"RON","currency":"Lei","image":{"thumbnail":{"default":"https://cdn.freshful.ro/media/cache/sylius_shop_product_thumbnail/1d/37/7134b70bf985b4f112f5de1cf803.jpg"},"large":{"default":"https://cdn.freshful.ro/media/cache/freshful_large/1d/37/7134b70bf985b4f112f5de1cf803.jpg"},"extralarge":{"default":"https://cdn.freshful.ro/media/cache/sylius_shop_product_original/1d/37/7134b70bf985b4f112f5de1cf803.jpg"}},"label":null,"tags":[],"isAvailable":true,"maxAvailableQuantity":11,"maxAllowedQuantity":100,"breadcrumbs":[{"code":"15","name":"Pet Shop","slug":"15-pet-shop"},{"code":"1503","name":"Păsări și rozătoare","slug":"1503-pasari-si-rozatoare"},{"code":"150301","name":"Păsări","slug":"150301-pasari"},{"code":"100102729","name":"Mei în spic 100g ","slug":"100102729-rio-mei-in-spic-100g"}],"activePromotion":null,"saveMe":null,"labels":[],"geniusPrice":null,"geniusUnitPricePerLabel":null,"banner":null,"discountLabel":null,"geniusDiscountLabel":null,"badge":null},{"code":"100102744","variantCode":"100102744","name":"Baton pentru rozătoare, 2x60g, cu fructe de pădure","slug":"100102744-little-one-baton-pentru-rozatoare-2x60g-cu-fructe-de-padure","unitPriceLabel":"99,92 Lei/kg","brand":"Little One","brandCode":"1566","brandFilterCode":"little-one-b1570","sku":"100102744","price":11.99,"originalPrice":null,"currencyCode":"RON","currency":"Lei","image":{"thumbnail":{"default":"https://cdn.freshful.ro/media/cache/sylius_shop_product_thumbnail/2e/17/8c034f4d388fcca016b9cde60584.jpg"},"large":{"default":"https://cdn.freshful.ro/media/cache/freshful_large/2e/17/8c034f4d388fcca016b9cde60584.jpg"},"extralarge":{"default":"https://cdn.freshful.ro/media/cache/sylius_shop_product_original/2e/17/8c034f4d388fcca016b9cde60584.jpg"}},"label":null,"tags":[],"isAvailable":true,"maxAvailableQuantity":17,"maxAllowedQuantity":100,"breadcrumbs":[{"code":"15","name":"Pet Shop","slug":"15-pet-shop"},{"code":"1503","name":"Păsări și rozătoare","slug":"1503-pasari-si-rozatoare"},{"code":"150302","name":"Rozătoare","slug":"150302-rozatoare"},{"code":"100102744","name":"Baton pentru rozătoare, 2x60g, cu fructe de pădure","slug":"100102744-little-one-baton-pentru-rozatoare-2x60g-cu-fructe-de-padure"}],"activePromotion":null,"saveMe":null,"labels":[],"geniusPrice":null,"geniusUnitPricePerLabel":null,"banner":null,"discountLabel":null,"geniusDiscountLabel":null,"badge":null},{"code":"100085819","variantCode":"100085819","name":"Hrană completă papagali și peruși 1kg","slug":"100085819-manitoba-hrana-completa-papagali-si-perusi-1kg","unitPriceLabel":"14,81 Lei/kg","brand":"Manitoba","brandCode":"1046","brandFilterCode":"manitoba-b1046","sku":"100085819","price":14.81,"originalPrice":null,"currencyCode":"RON","currency":"Lei","image":{"thumbnail":{"default":"https://cdn.freshful.ro/media/cache/sylius_shop_product_thumbnail/d9/07/720e619cc01c7507aed2a20a0431.jpg"},"large":{"default":"https://cdn.freshful.ro/media/cache/freshful_large/d9/07/720e619cc01c7507aed2a20a0431.jpg"},"extralarge":{"default":"https://cdn.freshful.ro/media/cache/sylius_shop_product_original/d9/07/720e619cc01c7507aed2a20a0431.jpg"}},"label":null,"tags":[],"isAvailable":true,"maxAvailableQuantity":19,"maxAllowedQuantity":100,"breadcrumbs":[{"code":"15","name":"Pet Shop","slug":"15-pet-shop"},{"code":"1503","name":"Păsări și rozătoare","slug":"1503-pasari-si-rozatoare"},{"code":"150301","name":"Păsări","slug":"150301-pasari"},{"code":"100085819","name":"Hrană completă papagali și peruși 1kg","slug":"100085819-manitoba-hrana-completa-papagali-si-perusi-1kg"}],"activePromotion":null,"saveMe":null,"labels":[],"geniusPrice":null,"geniusUnitPricePerLabel":null,"banner":null,"discountLabel":null,"geniusDiscountLabel":null,"badge":null}],"filters":{"countSelected":0,"items":[{"code":"promotion","name":"Promoții","countSelected":0,"values":[{"code":"oferte-bacanie-bauturi-21feb-8mar23","name":"Cămara cu băuturi și bunătăți","isSelected":false,"count":1}]},{"code":"brand","name":"Brand","countSelected":0,"values":[{"code":"croci-b1571","name":"Croci","isSelected":false,"count":7},{"code":"little-one-b1570","name":"Little One","isSelected":false,"count":13},{"code":"manitoba-b1046","name":"Manitoba","isSelected":false,"count":15},{"code":"mello-b2656","name":"Mello","isSelected":false,"count":1},{"code":"rio-b1569","name":"Rio","isSelected":false,"count":12},{"code":"tropifit-b2654","name":"Tropifit","isSelected":false,"count":2}]}]},"orderBy":[{"field":"price","direction":"asc","name":"Preț crescător","isSelected":false},{"field":"price","direction":"desc","name":"Preț descrescător","isSelected":false},{"field":"popularity","direction":"desc","name":"Cele mai populare","isSelected":true},{"field":"category","direction":"asc","name":"Categorie","isSelected":false}],"metaTitle":"Păsări și rozătoare - Gamă variată","metaDescription":"Vrei Păsări și rozătoare? Alege dintr-o gamă variată. Comanzi simplu și ai livrare rapidă, calitate și prospețime. Hai pe Freshful.ro","metaKeywords":null,"banners":[]}}