{"type":"subcategory","payload":{"analyticsListId":"category_1504-pesti-si-testoase","analyticsListName":"Category - Pești și țestoase","name":"Pești și țestoase","slug":"1504-pesti-si-testoase","image":null,"breadcrumbs":[{"code":"15","name":"Pet Shop","slug":"15-pet-shop"},{"code":"1504","name":"Pești și țestoase","slug":"1504-pesti-si-testoase"}],"slots":[],"page":1,"limit":10,"pages":4,"count":32,"siblings":[{"name":"Pisici","slug":"1501-pisici","selected":false},{"name":"Câini","slug":"1502-caini","selected":false},{"name":"Păsări și rozătoare","slug":"1503-pasari-si-rozatoare","selected":false},{"name":"Pești și țestoase","slug":"1504-pesti-si-testoase","selected":true}],"children":[{"name":"Toate produsele","slug":"1504-pesti-si-testoase","selected":true},{"name":"Hrană pești","slug":"150401-hrana-pesti","selected":false},{"name":"Accesorii pești și țestoase","slug":"150403-acesorii-pesti-si-testoase","selected":false}],"products":[{"code":"100102757","variantCode":"100102757","name":"Hrană pentru pești, 100g, Pro Natural Flake ","slug":"100102757-amtra-hrana-pentru-pesti-100g-pro-natural-flake","unitPriceLabel":"79,9 Lei/kg","brand":"Amtra","brandCode":"1568","brandFilterCode":"amtra-b1572","sku":"100102757","price":7.99,"originalPrice":11.99,"currencyCode":"RON","currency":"Lei","image":{"thumbnail":{"default":"https://cdn.freshful.ro/media/cache/sylius_shop_product_thumbnail/84/84/2b83a2046fb6b59d374bc81ba74e.jpg"},"large":{"default":"https://cdn.freshful.ro/media/cache/freshful_large/84/84/2b83a2046fb6b59d374bc81ba74e.jpg"},"extralarge":{"default":"https://cdn.freshful.ro/media/cache/sylius_shop_product_original/84/84/2b83a2046fb6b59d374bc81ba74e.jpg"}},"label":{"text":"-33%","backgroundColor":"#FF9903","textColor":"#FFFFFF"},"tags":[],"isAvailable":true,"maxAvailableQuantity":24,"maxAllowedQuantity":100,"breadcrumbs":[{"code":"15","name":"Pet Shop","slug":"15-pet-shop"},{"code":"1504","name":"Pești și țestoase","slug":"1504-pesti-si-testoase"},{"code":"150401","name":"Hrană pești","slug":"150401-hrana-pesti"},{"code":"100102757","name":"Hrană pentru pești, 100g, Pro Natural Flake ","slug":"100102757-amtra-hrana-pentru-pesti-100g-pro-natural-flake"}],"activePromotion":{"code":"oferte-bacanie-bauturi-21feb-8mar23","name":"Preț redus","targetQuantity":null},"saveMe":null,"labels":[{"type":"v1","items":[{"text":"-33%","backgroundColor":"#FF9903","textColor":"#FFFFFF"}]}],"geniusPrice":null,"geniusUnitPricePerLabel":null,"banner":{"text":"Super preț","textColor":"#FF0000","bgColor":"#FFF2EC","icon":null,"link":"https://www.freshful.ro/oferte/oferte-bacanie-bauturi-21feb-8mar23","type":"promo","analyticsEventType":"select_promotion","analyticsEventPayload":{"promotion_id":"oferte-bacanie-bauturi-21feb-8mar23","promotion_name":"Cămara cu băuturi și bunătăți"}},"discountLabel":"Economisești 33%","geniusDiscountLabel":null,"badge":null},{"code":"100142935","variantCode":"100142935","name":"Hrană fulgi pentru pești 12g","slug":"100142935-no-brand-hrana-fulgi-pentru-pesti-12g","unitPriceLabel":"429,17 Lei/kg","brand":null,"brandCode":null,"brandFilterCode":"no-brand-b83","sku":"100142935","price":5.15,"originalPrice":null,"currencyCode":"RON","currency":"Lei","image":{"thumbnail":{"default":"https://cdn.freshful.ro/media/cache/sylius_shop_product_thumbnail/07/50/5e66e50c7b6ff69c03d3c87fd1dd.jpg"},"large":{"default":"https://cdn.freshful.ro/media/cache/freshful_large/07/50/5e66e50c7b6ff69c03d3c87fd1dd.jpg"},"extralarge":{"default":"https://cdn.freshful.ro/media/cache/sylius_shop_product_original/07/50/5e66e50c7b6ff69c03d3c87fd1dd.jpg"}},"label":null,"tags":[],"isAvailable":true,"maxAvailableQuantity":7,"maxAllowedQuantity":100,"breadcrumbs":[{"code":"15","name":"Pet Shop","slug":"15-pet-shop"},{"code":"1504","name":"Pești și țestoase","slug":"1504-pesti-si-testoase"},{"code":"150401","name":"Hrană pești","slug":"150401-hrana-pesti"},{"code":"100142935","name":"Hrană fulgi pentru pești 12g","slug":"100142935-no-brand-hrana-fulgi-pentru-pesti-12g"}],"activePromotion":null,"saveMe":null,"labels":[],"geniusPrice":null,"geniusUnitPricePerLabel":null,"banner":null,"discountLabel":null,"geniusDiscountLabel":null,"badge":null},{"code":"100102774","variantCode":"100102774","name":"Hrană pentru țestoase 26g ","slug":"100102774-amtra-hrana-pentru-testoase-26g","unitPriceLabel":"518,85 Lei/kg","brand":"Amtra","brandCode":"1568","brandFilterCode":"amtra-b1572","sku":"100102774","price":13.49,"originalPrice":null,"currencyCode":"RON","currency":"Lei","image":{"thumbnail":{"default":"https://cdn.freshful.ro/media/cache/sylius_shop_product_thumbnail/75/92/1b70beeec19defac161e4f5a516c.jpg"},"large":{"default":"https://cdn.freshful.ro/media/cache/freshful_large/75/92/1b70beeec19defac161e4f5a516c.jpg"},"extralarge":{"default":"https://cdn.freshful.ro/media/cache/sylius_shop_product_original/75/92/1b70beeec19defac161e4f5a516c.jpg"}},"label":null,"tags":[],"isAvailable":true,"maxAvailableQuantity":12,"maxAllowedQuantity":100,"breadcrumbs":[{"code":"15","name":"Pet Shop","slug":"15-pet-shop"},{"code":"1504","name":"Pești și țestoase","slug":"1504-pesti-si-testoase"},{"code":"150401","name":"Hrană pești","slug":"150401-hrana-pesti"},{"code":"100102774","name":"Hrană pentru țestoase 26g ","slug":"100102774-amtra-hrana-pentru-testoase-26g"}],"activePromotion":null,"saveMe":null,"labels":[],"geniusPrice":null,"geniusUnitPricePerLabel":null,"banner":null,"discountLabel":null,"geniusDiscountLabel":null,"badge":null},{"code":"100126376","variantCode":"100126376","name":"Hrană pentru pești și țestoase 10g","slug":"100126376-flipper-hrana-pentru-pesti-si-testoase-10g","unitPriceLabel":"439 Lei/kg","brand":"Flipper","brandCode":"2302","brandFilterCode":"flipper-b2304","sku":"100126376","price":4.39,"originalPrice":null,"currencyCode":"RON","currency":"Lei","image":{"thumbnail":{"default":"https://cdn.freshful.ro/media/cache/sylius_shop_product_thumbnail/0b/3e/781561cc320a14611701deddb52e.jpg"},"large":{"default":"https://cdn.freshful.ro/media/cache/freshful_large/0b/3e/781561cc320a14611701deddb52e.jpg"},"extralarge":{"default":"https://cdn.freshful.ro/media/cache/sylius_shop_product_original/0b/3e/781561cc320a14611701deddb52e.jpg"}},"label":null,"tags":[],"isAvailable":true,"maxAvailableQuantity":12,"maxAllowedQuantity":100,"breadcrumbs":[{"code":"15","name":"Pet Shop","slug":"15-pet-shop"},{"code":"1504","name":"Pești și țestoase","slug":"1504-pesti-si-testoase"},{"code":"150401","name":"Hrană pești","slug":"150401-hrana-pesti"},{"code":"100126376","name":"Hrană pentru pești și țestoase 10g","slug":"100126376-flipper-hrana-pentru-pesti-si-testoase-10g"}],"activePromotion":null,"saveMe":null,"labels":[],"geniusPrice":null,"geniusUnitPricePerLabel":null,"banner":null,"discountLabel":null,"geniusDiscountLabel":null,"badge":null},{"code":"100102759","variantCode":"100102759","name":"Hrană pentru pești, 100g, Pro Color Flake","slug":"100102759-amtra-hrana-pentru-pesti-100g-pro-color-flake","unitPriceLabel":"149,9 Lei/kg","brand":"Amtra","brandCode":"1568","brandFilterCode":"amtra-b1572","sku":"100102759","price":14.99,"originalPrice":null,"currencyCode":"RON","currency":"Lei","image":{"thumbnail":{"default":"https://cdn.freshful.ro/media/cache/sylius_shop_product_thumbnail/98/7f/9622a6037fb7969d5aa61369cbfc.jpg"},"large":{"default":"https://cdn.freshful.ro/media/cache/freshful_large/98/7f/9622a6037fb7969d5aa61369cbfc.jpg"},"extralarge":{"default":"https://cdn.freshful.ro/media/cache/sylius_shop_product_original/98/7f/9622a6037fb7969d5aa61369cbfc.jpg"}},"label":null,"tags":[],"isAvailable":true,"maxAvailableQuantity":11,"maxAllowedQuantity":100,"breadcrumbs":[{"code":"15","name":"Pet Shop","slug":"15-pet-shop"},{"code":"1504","name":"Pești și țestoase","slug":"1504-pesti-si-testoase"},{"code":"150401","name":"Hrană pești","slug":"150401-hrana-pesti"},{"code":"100102759","name":"Hrană pentru pești, 100g, Pro Color Flake","slug":"100102759-amtra-hrana-pentru-pesti-100g-pro-color-flake"}],"activePromotion":null,"saveMe":null,"labels":[],"geniusPrice":null,"geniusUnitPricePerLabel":null,"banner":null,"discountLabel":null,"geniusDiscountLabel":null,"badge":null},{"code":"100102763","variantCode":"100102763","name":"Hrană pentru pești, 100g, Pro Gran Micro 0.5","slug":"100102763-amtra-hrana-pentru-pesti-100g-pro-gran-micro-0-5","unitPriceLabel":"189,9 Lei/kg","brand":"Amtra","brandCode":"1568","brandFilterCode":"amtra-b1572","sku":"100102763","price":18.99,"originalPrice":null,"currencyCode":"RON","currency":"Lei","image":{"thumbnail":{"default":"https://cdn.freshful.ro/media/cache/sylius_shop_product_thumbnail/50/98/5c20c6f3c94d5b945417656b9a1e.jpg"},"large":{"default":"https://cdn.freshful.ro/media/cache/freshful_large/50/98/5c20c6f3c94d5b945417656b9a1e.jpg"},"extralarge":{"default":"https://cdn.freshful.ro/media/cache/sylius_shop_product_original/50/98/5c20c6f3c94d5b945417656b9a1e.jpg"}},"label":null,"tags":[],"isAvailable":true,"maxAvailableQuantity":25,"maxAllowedQuantity":100,"breadcrumbs":[{"code":"15","name":"Pet Shop","slug":"15-pet-shop"},{"code":"1504","name":"Pești și țestoase","slug":"1504-pesti-si-testoase"},{"code":"150401","name":"Hrană pești","slug":"150401-hrana-pesti"},{"code":"100102763","name":"Hrană pentru pești, 100g, Pro Gran Micro 0.5","slug":"100102763-amtra-hrana-pentru-pesti-100g-pro-gran-micro-0-5"}],"activePromotion":null,"saveMe":null,"labels":[],"geniusPrice":null,"geniusUnitPricePerLabel":null,"banner":null,"discountLabel":null,"geniusDiscountLabel":null,"badge":null},{"code":"100126375","variantCode":"100126375","name":"Hrană pentru pești și țestoase 25g","slug":"100126375-flipper-hrana-pentru-pesti-si-testoase-25g","unitPriceLabel":"391,6 Lei/kg","brand":"Flipper","brandCode":"2302","brandFilterCode":"flipper-b2304","sku":"100126375","price":9.79,"originalPrice":null,"currencyCode":"RON","currency":"Lei","image":{"thumbnail":{"default":"https://cdn.freshful.ro/media/cache/sylius_shop_product_thumbnail/90/6c/66a2cfc11b28690b537fcbd0af19.jpg"},"large":{"default":"https://cdn.freshful.ro/media/cache/freshful_large/90/6c/66a2cfc11b28690b537fcbd0af19.jpg"},"extralarge":{"default":"https://cdn.freshful.ro/media/cache/sylius_shop_product_original/90/6c/66a2cfc11b28690b537fcbd0af19.jpg"}},"label":null,"tags":[],"isAvailable":true,"maxAvailableQuantity":23,"maxAllowedQuantity":100,"breadcrumbs":[{"code":"15","name":"Pet Shop","slug":"15-pet-shop"},{"code":"1504","name":"Pești și țestoase","slug":"1504-pesti-si-testoase"},{"code":"150401","name":"Hrană pești","slug":"150401-hrana-pesti"},{"code":"100126375","name":"Hrană pentru pești și țestoase 25g","slug":"100126375-flipper-hrana-pentru-pesti-si-testoase-25g"}],"activePromotion":null,"saveMe":null,"labels":[],"geniusPrice":null,"geniusUnitPricePerLabel":null,"banner":null,"discountLabel":null,"geniusDiscountLabel":null,"badge":null},{"code":"100142939","variantCode":"100142939","name":"Hrană pentru pești, 20g, Weekend ","slug":"100142939-no-brand-hrana-pentru-pesti-20g-weekend","unitPriceLabel":"669,5 Lei/kg","brand":null,"brandCode":null,"brandFilterCode":"no-brand-b83","sku":"100142939","price":13.39,"originalPrice":null,"currencyCode":"RON","currency":"Lei","image":{"thumbnail":{"default":"https://cdn.freshful.ro/media/cache/sylius_shop_product_thumbnail/40/03/ba72043efb83c500ab6fc404ac53.jpg"},"large":{"default":"https://cdn.freshful.ro/media/cache/freshful_large/40/03/ba72043efb83c500ab6fc404ac53.jpg"},"extralarge":{"default":"https://cdn.freshful.ro/media/cache/sylius_shop_product_original/40/03/ba72043efb83c500ab6fc404ac53.jpg"}},"label":null,"tags":[],"isAvailable":true,"maxAvailableQuantity":11,"maxAllowedQuantity":100,"breadcrumbs":[{"code":"15","name":"Pet Shop","slug":"15-pet-shop"},{"code":"1504","name":"Pești și țestoase","slug":"1504-pesti-si-testoase"},{"code":"150401","name":"Hrană pești","slug":"150401-hrana-pesti"},{"code":"100142939","name":"Hrană pentru pești, 20g, Weekend ","slug":"100142939-no-brand-hrana-pentru-pesti-20g-weekend"}],"activePromotion":null,"saveMe":null,"labels":[],"geniusPrice":null,"geniusUnitPricePerLabel":null,"banner":null,"discountLabel":null,"geniusDiscountLabel":null,"badge":null},{"code":"100142940","variantCode":"100142940","name":"Hrană pentru pești, 50g, Vitality&Color ","slug":"100142940-no-brand-hrana-pentru-pesti-50g-vitality-color","unitPriceLabel":"453,2 Lei/kg","brand":null,"brandCode":null,"brandFilterCode":"no-brand-b83","sku":"100142940","price":22.66,"originalPrice":null,"currencyCode":"RON","currency":"Lei","image":{"thumbnail":{"default":"https://cdn.freshful.ro/media/cache/sylius_shop_product_thumbnail/6a/c9/8fd797e6596e4b3291254fff204c.jpg"},"large":{"default":"https://cdn.freshful.ro/media/cache/freshful_large/6a/c9/8fd797e6596e4b3291254fff204c.jpg"},"extralarge":{"default":"https://cdn.freshful.ro/media/cache/sylius_shop_product_original/6a/c9/8fd797e6596e4b3291254fff204c.jpg"}},"label":null,"tags":[],"isAvailable":true,"maxAvailableQuantity":9,"maxAllowedQuantity":100,"breadcrumbs":[{"code":"15","name":"Pet Shop","slug":"15-pet-shop"},{"code":"1504","name":"Pești și țestoase","slug":"1504-pesti-si-testoase"},{"code":"150401","name":"Hrană pești","slug":"150401-hrana-pesti"},{"code":"100142940","name":"Hrană pentru pești, 50g, Vitality&Color ","slug":"100142940-no-brand-hrana-pentru-pesti-50g-vitality-color"}],"activePromotion":null,"saveMe":null,"labels":[],"geniusPrice":null,"geniusUnitPricePerLabel":null,"banner":null,"discountLabel":null,"geniusDiscountLabel":null,"badge":null},{"code":"100102755","variantCode":"100102755","name":"Hrană pentru pești, 100g, Pro Flake ","slug":"100102755-amtra-hrana-pentru-pesti-100g-pro-flake","unitPriceLabel":"104,9 Lei/kg","brand":"Amtra","brandCode":"1568","brandFilterCode":"amtra-b1572","sku":"100102755","price":10.49,"originalPrice":null,"currencyCode":"RON","currency":"Lei","image":{"thumbnail":{"default":"https://cdn.freshful.ro/media/cache/sylius_shop_product_thumbnail/b7/ed/01fd53edcf0ceb78468e64d6cc03.jpg"},"large":{"default":"https://cdn.freshful.ro/media/cache/freshful_large/b7/ed/01fd53edcf0ceb78468e64d6cc03.jpg"},"extralarge":{"default":"https://cdn.freshful.ro/media/cache/sylius_shop_product_original/b7/ed/01fd53edcf0ceb78468e64d6cc03.jpg"}},"label":null,"tags":[],"isAvailable":true,"maxAvailableQuantity":20,"maxAllowedQuantity":100,"breadcrumbs":[{"code":"15","name":"Pet Shop","slug":"15-pet-shop"},{"code":"1504","name":"Pești și țestoase","slug":"1504-pesti-si-testoase"},{"code":"150401","name":"Hrană pești","slug":"150401-hrana-pesti"},{"code":"100102755","name":"Hrană pentru pești, 100g, Pro Flake ","slug":"100102755-amtra-hrana-pentru-pesti-100g-pro-flake"}],"activePromotion":null,"saveMe":null,"labels":[],"geniusPrice":null,"geniusUnitPricePerLabel":null,"banner":null,"discountLabel":null,"geniusDiscountLabel":null,"badge":null}],"filters":{"countSelected":0,"items":[{"code":"promotion","name":"Promoții","countSelected":0,"values":[{"code":"oferte-bacanie-bauturi-21feb-8mar23","name":"Cămara cu băuturi și bunătăți","isSelected":false,"count":1}]},{"code":"brand","name":"Brand","countSelected":0,"values":[{"code":"amtra-b1572","name":"Amtra","isSelected":false,"count":19},{"code":"flipper-b2304","name":"Flipper","isSelected":false,"count":3}]}]},"orderBy":[{"field":"price","direction":"asc","name":"Preț crescător","isSelected":false},{"field":"price","direction":"desc","name":"Preț descrescător","isSelected":false},{"field":"popularity","direction":"desc","name":"Cele mai populare","isSelected":true},{"field":"category","direction":"asc","name":"Categorie","isSelected":false}],"metaTitle":"Pești și țestoase - Gamă variată","metaDescription":"Vrei Pești și țestoase? Alege dintr-o gamă variată. Comanzi simplu și ai livrare rapidă, calitate și prospețime. Hai pe Freshful.ro","metaKeywords":null,"banners":[]}}