{"type":"subcategory","payload":{"analyticsListId":"category_201-carne-de-vita-si-oaie","analyticsListName":"Category - Carne de vită și oaie","name":"Carne de vită și oaie","slug":"201-carne-de-vita-si-oaie","image":null,"breadcrumbs":[{"code":"2","name":"Carne & pește","slug":"2-carne-si-peste"},{"code":"201","name":"Carne de vită și oaie","slug":"201-carne-de-vita-si-oaie"}],"slots":[],"page":1,"limit":10,"pages":7,"count":62,"siblings":[{"name":"Carne de vită și oaie","slug":"201-carne-de-vita-si-oaie","selected":true},{"name":"Carne de porc","slug":"202-carne-de-porc","selected":false},{"name":"Carne de pasăre","slug":"203-carne-de-pasare","selected":false},{"name":"Alte cărnuri","slug":"204-alte-carnuri","selected":false},{"name":"Mici și specialități","slug":"205-mici-si-specialitati","selected":false},{"name":"Pește și sushi","slug":"206-peste-si-sushi","selected":false},{"name":"Pește afumat","slug":"207-peste-afumat","selected":false},{"name":"Pește marinat","slug":"208-peste-marinat","selected":false},{"name":"Icre și salată de icre","slug":"209-icre-si-salata-de-icre","selected":false},{"name":"Specialități de pește","slug":"210-specialitati-de-peste","selected":false}],"children":[{"name":"Toate produsele","slug":"201-carne-de-vita-si-oaie","selected":true},{"name":"Mânzat","slug":"20101-manzat","selected":false},{"name":"Mânzat maturat","slug":"20102-manzat-maturat","selected":false},{"name":"Vițel","slug":"20103-vitel","selected":false},{"name":"Miel","slug":"20105-miel","selected":false}],"products":[{"code":"100140252","variantCode":"100140252","name":"Vrăbioară mânzat 500g","slug":"100140252-samcom-vrabioara-manzat-500g","unitPriceLabel":"73,98 Lei/kg","brand":"Samcom","brandCode":"2510","brandFilterCode":"samcom-b2514","sku":"100140252","price":36.99,"originalPrice":null,"currencyCode":"RON","currency":"Lei","image":{"thumbnail":{"default":"https://cdn.freshful.ro/media/cache/sylius_shop_product_thumbnail/84/51/2784f6cd18441ae1616d9c0a595b.jpg"},"large":{"default":"https://cdn.freshful.ro/media/cache/freshful_large/84/51/2784f6cd18441ae1616d9c0a595b.jpg"},"extralarge":{"default":"https://cdn.freshful.ro/media/cache/sylius_shop_product_original/84/51/2784f6cd18441ae1616d9c0a595b.jpg"}},"label":{"text":"-20% cu Genius","backgroundColor":"#FEF3FA","textColor":"#CD015F"},"tags":[{"type":"MadeInRomania","text":"Made In Romania","icon":"https://cdn.freshful.ro/assets/product_tags/made_in_romania.svg","iconPng":"https://cdn.freshful.ro/assets/product_tags/made_in_romania.png","backgroundColor":"#EDF2FD","textColor":"#1653CA"}],"isAvailable":true,"maxAvailableQuantity":49,"maxAllowedQuantity":100,"breadcrumbs":[{"code":"2","name":"Carne & pește","slug":"2-carne-si-peste"},{"code":"201","name":"Carne de vită și oaie","slug":"201-carne-de-vita-si-oaie"},{"code":"20101","name":"Mânzat","slug":"20101-manzat"},{"code":"100140252","name":"Vrăbioară mânzat 500g","slug":"100140252-samcom-vrabioara-manzat-500g"}],"activePromotion":null,"saveMe":null,"labels":[{"type":"gdeals","items":[{"text":"","backgroundColor":"","textColor":""}]},{"type":"v3","items":[{"text":"-20% cu Genius","backgroundColor":"#FEF3FA","textColor":"#CD015F"}]}],"geniusPrice":29.59,"geniusUnitPricePerLabel":"59,18 Lei/kg","banner":null,"discountLabel":null,"geniusDiscountLabel":"Economisești 20%","badge":null},{"code":"100064457","variantCode":"100064457","name":"Burgeri de mânzat aged Prussiana 280g","slug":"100064457-gurmand-apetit-burgeri-de-manzat-aged-prussiana-280g","unitPriceLabel":"57,11 Lei/kg","brand":"Gurmand Apetit","brandCode":"993","brandFilterCode":"gurmand-apetit-b1007","sku":"100064457","price":15.99,"originalPrice":18.89,"currencyCode":"RON","currency":"Lei","image":{"thumbnail":{"default":"https://cdn.freshful.ro/media/cache/sylius_shop_product_thumbnail/87/b3/847cc8a36003c3c97e9c71f90867.jpg"},"large":{"default":"https://cdn.freshful.ro/media/cache/freshful_large/87/b3/847cc8a36003c3c97e9c71f90867.jpg"},"extralarge":{"default":"https://cdn.freshful.ro/media/cache/sylius_shop_product_original/87/b3/847cc8a36003c3c97e9c71f90867.jpg"}},"label":{"text":"-15%","backgroundColor":"#FF9903","textColor":"#FFFFFF"},"tags":[{"type":"MadeInRomania","text":"Made In Romania","icon":"https://cdn.freshful.ro/assets/product_tags/made_in_romania.svg","iconPng":"https://cdn.freshful.ro/assets/product_tags/made_in_romania.png","backgroundColor":"#EDF2FD","textColor":"#1653CA"}],"isAvailable":true,"maxAvailableQuantity":6,"maxAllowedQuantity":100,"breadcrumbs":[{"code":"2","name":"Carne & pește","slug":"2-carne-si-peste"},{"code":"201","name":"Carne de vită și oaie","slug":"201-carne-de-vita-si-oaie"},{"code":"20102","name":"Mânzat maturat","slug":"20102-manzat-maturat"},{"code":"100064457","name":"Burgeri de mânzat aged Prussiana 280g","slug":"100064457-gurmand-apetit-burgeri-de-manzat-aged-prussiana-280g"}],"activePromotion":{"code":"bunatatile-saptamanii-cw0923","name":"Preț redus","targetQuantity":null},"saveMe":null,"labels":[{"type":"v1","items":[{"text":"-15%","backgroundColor":"#FF9903","textColor":"#FFFFFF"}]}],"geniusPrice":null,"geniusUnitPricePerLabel":null,"banner":{"text":"Super preț","textColor":"#FF0000","bgColor":"#FFF2EC","icon":null,"link":"https://www.freshful.ro/oferte/bunatatile-saptamanii-cw0923","type":"promo","analyticsEventType":"select_promotion","analyticsEventPayload":{"promotion_id":"bunatatile-saptamanii-cw0923","promotion_name":"Oferta proaspătă a săptămânii"}},"discountLabel":"Economisești 15%","geniusDiscountLabel":null,"badge":null},{"code":"100064448","variantCode":"100064448","name":"T-bone de mânzat aged Prussiana 500g","slug":"100064448-gurmand-apetit-t-bone-de-manzat-aged-prussiana-500g","unitPriceLabel":"142,78 Lei/kg","brand":"Gurmand Apetit","brandCode":"993","brandFilterCode":"gurmand-apetit-b1007","sku":"100064448","price":71.39,"originalPrice":83.99,"currencyCode":"RON","currency":"Lei","image":{"thumbnail":{"default":"https://cdn.freshful.ro/media/cache/sylius_shop_product_thumbnail/bc/5f/b1deed8675ec79b05f3fc05bc574.jpg"},"large":{"default":"https://cdn.freshful.ro/media/cache/freshful_large/bc/5f/b1deed8675ec79b05f3fc05bc574.jpg"},"extralarge":{"default":"https://cdn.freshful.ro/media/cache/sylius_shop_product_original/bc/5f/b1deed8675ec79b05f3fc05bc574.jpg"}},"label":{"text":"-15%","backgroundColor":"#FF9903","textColor":"#FFFFFF"},"tags":[],"isAvailable":true,"maxAvailableQuantity":4,"maxAllowedQuantity":100,"breadcrumbs":[{"code":"2","name":"Carne & pește","slug":"2-carne-si-peste"},{"code":"201","name":"Carne de vită și oaie","slug":"201-carne-de-vita-si-oaie"},{"code":"20102","name":"Mânzat maturat","slug":"20102-manzat-maturat"},{"code":"100064448","name":"T-bone de mânzat aged Prussiana 500g","slug":"100064448-gurmand-apetit-t-bone-de-manzat-aged-prussiana-500g"}],"activePromotion":{"code":"bunatatile-saptamanii-cw0923","name":"Preț redus","targetQuantity":null},"saveMe":null,"labels":[{"type":"v1","items":[{"text":"-15%","backgroundColor":"#FF9903","textColor":"#FFFFFF"}]}],"geniusPrice":null,"geniusUnitPricePerLabel":null,"banner":{"text":"Super preț","textColor":"#FF0000","bgColor":"#FFF2EC","icon":null,"link":"https://www.freshful.ro/oferte/bunatatile-saptamanii-cw0923","type":"promo","analyticsEventType":"select_promotion","analyticsEventPayload":{"promotion_id":"bunatatile-saptamanii-cw0923","promotion_name":"Oferta proaspătă a săptămânii"}},"discountLabel":"Economisești 15%","geniusDiscountLabel":null,"badge":null},{"code":"100146008","variantCode":"100146008","name":"Hamburger vită 300g","slug":"100146008-diana-hamburger-vita-300g","unitPriceLabel":"49,63 Lei/kg","brand":"Diana","brandCode":"355","brandFilterCode":"diana-b356","sku":"100146008","price":14.89,"originalPrice":null,"currencyCode":"RON","currency":"Lei","image":{"thumbnail":{"default":"https://cdn.freshful.ro/media/cache/sylius_shop_product_thumbnail/10/98/393a80aae264e59b4275fc40cef2.jpg"},"large":{"default":"https://cdn.freshful.ro/media/cache/freshful_large/10/98/393a80aae264e59b4275fc40cef2.jpg"},"extralarge":{"default":"https://cdn.freshful.ro/media/cache/sylius_shop_product_original/10/98/393a80aae264e59b4275fc40cef2.jpg"}},"label":null,"tags":[{"type":"MadeInRomania","text":"Made In Romania","icon":"https://cdn.freshful.ro/assets/product_tags/made_in_romania.svg","iconPng":"https://cdn.freshful.ro/assets/product_tags/made_in_romania.png","backgroundColor":"#EDF2FD","textColor":"#1653CA"}],"isAvailable":true,"maxAvailableQuantity":19,"maxAllowedQuantity":100,"breadcrumbs":[{"code":"2","name":"Carne & pește","slug":"2-carne-si-peste"},{"code":"201","name":"Carne de vită și oaie","slug":"201-carne-de-vita-si-oaie"},{"code":"20101","name":"Mânzat","slug":"20101-manzat"},{"code":"100146008","name":"Hamburger vită 300g","slug":"100146008-diana-hamburger-vita-300g"}],"activePromotion":null,"saveMe":null,"labels":[],"geniusPrice":null,"geniusUnitPricePerLabel":null,"banner":null,"discountLabel":null,"geniusDiscountLabel":null,"badge":null},{"code":"100143793","variantCode":"100143793","name":"Carne de vită pentru gulaș 500g","slug":"100143793-samcom-carne-de-vita-pentru-gulas-500g","unitPriceLabel":"55,98 Lei/kg","brand":"Samcom","brandCode":"2510","brandFilterCode":"samcom-b2514","sku":"100143793","price":27.99,"originalPrice":null,"currencyCode":"RON","currency":"Lei","image":{"thumbnail":{"default":"https://cdn.freshful.ro/media/cache/sylius_shop_product_thumbnail/3e/c0/a926ca01aebcdf670f2e9a681077.jpg"},"large":{"default":"https://cdn.freshful.ro/media/cache/freshful_large/3e/c0/a926ca01aebcdf670f2e9a681077.jpg"},"extralarge":{"default":"https://cdn.freshful.ro/media/cache/sylius_shop_product_original/3e/c0/a926ca01aebcdf670f2e9a681077.jpg"}},"label":null,"tags":[{"type":"MadeInRomania","text":"Made In Romania","icon":"https://cdn.freshful.ro/assets/product_tags/made_in_romania.svg","iconPng":"https://cdn.freshful.ro/assets/product_tags/made_in_romania.png","backgroundColor":"#EDF2FD","textColor":"#1653CA"}],"isAvailable":true,"maxAvailableQuantity":64,"maxAllowedQuantity":100,"breadcrumbs":[{"code":"2","name":"Carne & pește","slug":"2-carne-si-peste"},{"code":"201","name":"Carne de vită și oaie","slug":"201-carne-de-vita-si-oaie"},{"code":"20101","name":"Mânzat","slug":"20101-manzat"},{"code":"100143793","name":"Carne de vită pentru gulaș 500g","slug":"100143793-samcom-carne-de-vita-pentru-gulas-500g"}],"activePromotion":null,"saveMe":{"isAvailable":true,"variantCode":"100143793-accsale","maxAvailableQuantity":24,"maxAllowedQuantity":100,"price":18.19,"originalPrice":27.99,"labels":[{"type":"v2","items":[{"text":"Save Me","backgroundColor":"#FF7070","textColor":"#FFFFFF"},{"text":"-35%","backgroundColor":"#333333","textColor":"#FFFFFF"}]},{"type":"v3","items":[{"text":"Expiră pe 04-03-2023","backgroundColor":"#FEF7DC","textColor":"#595959"}]}],"priceColor":"#FF7070","priceIcon":"https://cdn.freshful.ro/assets/save_me/priceIcon.png","unitPriceLabel":"36,38 Lei/kg","badge":null},"labels":[],"geniusPrice":null,"geniusUnitPricePerLabel":null,"banner":{"text":"Cumpără la 18.19 lei","textColor":"#FF7070","bgColor":"#FFF1F1","icon":"https://cdn.freshful.ro/assets/save_me/priceIcon.png","link":"https://www.freshful.ro/p/100143793-samcom-carne-de-vita-pentru-gulas-500g?sm=true","type":"saveMe","analyticsEventType":"select_item","analyticsEventPayload":[]},"discountLabel":null,"geniusDiscountLabel":null,"badge":null},{"code":"100030481","variantCode":"100030481","name":"Burger de vițel lapte 300g ","slug":"100030481-meat-revolution-burger-de-vitel-lapte-300g","unitPriceLabel":"63,3 Lei/kg","brand":"Meat Revolution","brandCode":"189","brandFilterCode":"meat-revolution-b190","sku":"100030481","price":18.99,"originalPrice":null,"currencyCode":"RON","currency":"Lei","image":{"thumbnail":{"default":"https://cdn.freshful.ro/media/cache/sylius_shop_product_thumbnail/fe/88/f2ce2d542478e76c131e90b6ec59.jpg"},"large":{"default":"https://cdn.freshful.ro/media/cache/freshful_large/fe/88/f2ce2d542478e76c131e90b6ec59.jpg"},"extralarge":{"default":"https://cdn.freshful.ro/media/cache/sylius_shop_product_original/fe/88/f2ce2d542478e76c131e90b6ec59.jpg"}},"label":null,"tags":[],"isAvailable":true,"maxAvailableQuantity":52,"maxAllowedQuantity":100,"breadcrumbs":[{"code":"2","name":"Carne & pește","slug":"2-carne-si-peste"},{"code":"201","name":"Carne de vită și oaie","slug":"201-carne-de-vita-si-oaie"},{"code":"20101","name":"Mânzat","slug":"20101-manzat"},{"code":"100030481","name":"Burger de vițel lapte 300g ","slug":"100030481-meat-revolution-burger-de-vitel-lapte-300g"}],"activePromotion":null,"saveMe":null,"labels":[],"geniusPrice":null,"geniusUnitPricePerLabel":null,"banner":null,"discountLabel":null,"geniusDiscountLabel":null,"badge":null},{"code":"100140255","variantCode":"100140255","name":"Rasol de mânzat cu os 700g","slug":"100140255-samcom-rasol-de-manzat-cu-os-700g","unitPriceLabel":"54,27 Lei/kg","brand":"Samcom","brandCode":"2510","brandFilterCode":"samcom-b2514","sku":"100140255","price":37.99,"originalPrice":null,"currencyCode":"RON","currency":"Lei","image":{"thumbnail":{"default":"https://cdn.freshful.ro/media/cache/sylius_shop_product_thumbnail/ee/1d/3c694bb4dacdf6f362243dc6484e.jpg"},"large":{"default":"https://cdn.freshful.ro/media/cache/freshful_large/ee/1d/3c694bb4dacdf6f362243dc6484e.jpg"},"extralarge":{"default":"https://cdn.freshful.ro/media/cache/sylius_shop_product_original/ee/1d/3c694bb4dacdf6f362243dc6484e.jpg"}},"label":null,"tags":[{"type":"MadeInRomania","text":"Made In Romania","icon":"https://cdn.freshful.ro/assets/product_tags/made_in_romania.svg","iconPng":"https://cdn.freshful.ro/assets/product_tags/made_in_romania.png","backgroundColor":"#EDF2FD","textColor":"#1653CA"}],"isAvailable":true,"maxAvailableQuantity":46,"maxAllowedQuantity":100,"breadcrumbs":[{"code":"2","name":"Carne & pește","slug":"2-carne-si-peste"},{"code":"201","name":"Carne de vită și oaie","slug":"201-carne-de-vita-si-oaie"},{"code":"20101","name":"Mânzat","slug":"20101-manzat"},{"code":"100140255","name":"Rasol de mânzat cu os 700g","slug":"100140255-samcom-rasol-de-manzat-cu-os-700g"}],"activePromotion":null,"saveMe":null,"labels":[],"geniusPrice":null,"geniusUnitPricePerLabel":null,"banner":null,"discountLabel":null,"geniusDiscountLabel":null,"badge":null},{"code":"100147535","variantCode":"100147535","name":"Șnitel de mânzat eco 400g","slug":"100147535-bioforia-snitel-de-manzat-eco-400g","unitPriceLabel":"89,98 Lei/kg","brand":"Bioforia","brandCode":"782","brandFilterCode":"bioforia-b783","sku":"100147535","price":35.99,"originalPrice":null,"currencyCode":"RON","currency":"Lei","image":{"thumbnail":{"default":"https://cdn.freshful.ro/media/cache/sylius_shop_product_thumbnail/50/79/4f85a571f93631005497df4ea21a.jpg"},"large":{"default":"https://cdn.freshful.ro/media/cache/freshful_large/50/79/4f85a571f93631005497df4ea21a.jpg"},"extralarge":{"default":"https://cdn.freshful.ro/media/cache/sylius_shop_product_original/50/79/4f85a571f93631005497df4ea21a.jpg"}},"label":null,"tags":[{"type":"Eco","text":"Eco","icon":"https://cdn.freshful.ro/assets/product_tags/eco.svg","iconPng":"https://cdn.freshful.ro/assets/product_tags/eco.png","backgroundColor":"#EFFBE4","textColor":"#66BB1B"},{"type":"MadeInRomania","text":"Made In Romania","icon":"https://cdn.freshful.ro/assets/product_tags/made_in_romania.svg","iconPng":"https://cdn.freshful.ro/assets/product_tags/made_in_romania.png","backgroundColor":"#EDF2FD","textColor":"#1653CA"},{"type":"NoE","text":"Fara E-uri","icon":"https://cdn.freshful.ro/assets/product_tags/fara_euri.svg","iconPng":"https://cdn.freshful.ro/assets/product_tags/fara_euri.png","backgroundColor":"#FCF5DF","textColor":"#CAA316"}],"isAvailable":true,"maxAvailableQuantity":34,"maxAllowedQuantity":100,"breadcrumbs":[{"code":"2","name":"Carne & pește","slug":"2-carne-si-peste"},{"code":"201","name":"Carne de vită și oaie","slug":"201-carne-de-vita-si-oaie"},{"code":"20101","name":"Mânzat","slug":"20101-manzat"},{"code":"100147535","name":"Șnitel de mânzat eco 400g","slug":"100147535-bioforia-snitel-de-manzat-eco-400g"}],"activePromotion":null,"saveMe":null,"labels":[],"geniusPrice":null,"geniusUnitPricePerLabel":null,"banner":null,"discountLabel":null,"geniusDiscountLabel":null,"badge":null},{"code":"100147536","variantCode":"100147536","name":"Cubulețe carne de vită eco 500g","slug":"100147536-bioforia-cubulete-carne-de-vita-eco-500g","unitPriceLabel":"87,98 Lei/kg","brand":"Bioforia","brandCode":"782","brandFilterCode":"bioforia-b783","sku":"100147536","price":43.99,"originalPrice":null,"currencyCode":"RON","currency":"Lei","image":{"thumbnail":{"default":"https://cdn.freshful.ro/media/cache/sylius_shop_product_thumbnail/59/31/d01df42302a0f1e9521c6591de80.jpg"},"large":{"default":"https://cdn.freshful.ro/media/cache/freshful_large/59/31/d01df42302a0f1e9521c6591de80.jpg"},"extralarge":{"default":"https://cdn.freshful.ro/media/cache/sylius_shop_product_original/59/31/d01df42302a0f1e9521c6591de80.jpg"}},"label":null,"tags":[{"type":"Eco","text":"Eco","icon":"https://cdn.freshful.ro/assets/product_tags/eco.svg","iconPng":"https://cdn.freshful.ro/assets/product_tags/eco.png","backgroundColor":"#EFFBE4","textColor":"#66BB1B"},{"type":"MadeInRomania","text":"Made In Romania","icon":"https://cdn.freshful.ro/assets/product_tags/made_in_romania.svg","iconPng":"https://cdn.freshful.ro/assets/product_tags/made_in_romania.png","backgroundColor":"#EDF2FD","textColor":"#1653CA"},{"type":"NoE","text":"Fara E-uri","icon":"https://cdn.freshful.ro/assets/product_tags/fara_euri.svg","iconPng":"https://cdn.freshful.ro/assets/product_tags/fara_euri.png","backgroundColor":"#FCF5DF","textColor":"#CAA316"}],"isAvailable":true,"maxAvailableQuantity":37,"maxAllowedQuantity":100,"breadcrumbs":[{"code":"2","name":"Carne & pește","slug":"2-carne-si-peste"},{"code":"201","name":"Carne de vită și oaie","slug":"201-carne-de-vita-si-oaie"},{"code":"20101","name":"Mânzat","slug":"20101-manzat"},{"code":"100147536","name":"Cubulețe carne de vită eco 500g","slug":"100147536-bioforia-cubulete-carne-de-vita-eco-500g"}],"activePromotion":null,"saveMe":null,"labels":[],"geniusPrice":null,"geniusUnitPricePerLabel":null,"banner":null,"discountLabel":null,"geniusDiscountLabel":null,"badge":null},{"code":"100133251","variantCode":"100133251","name":"Carne tocată de porc, vită 900g","slug":"100133251-peris-carne-tocata-de-porc-vita-900g","unitPriceLabel":"31,1 Lei/kg","brand":"Periș","brandCode":"2517","brandFilterCode":"peris-b2519","sku":"100133251","price":27.99,"originalPrice":null,"currencyCode":"RON","currency":"Lei","image":{"thumbnail":{"default":"https://cdn.freshful.ro/media/cache/sylius_shop_product_thumbnail/30/4d/6fd2d049c97bfe5e749fa26dd17b.jpg"},"large":{"default":"https://cdn.freshful.ro/media/cache/freshful_large/30/4d/6fd2d049c97bfe5e749fa26dd17b.jpg"},"extralarge":{"default":"https://cdn.freshful.ro/media/cache/sylius_shop_product_original/30/4d/6fd2d049c97bfe5e749fa26dd17b.jpg"}},"label":null,"tags":[{"type":"MadeInRomania","text":"Made In Romania","icon":"https://cdn.freshful.ro/assets/product_tags/made_in_romania.svg","iconPng":"https://cdn.freshful.ro/assets/product_tags/made_in_romania.png","backgroundColor":"#EDF2FD","textColor":"#1653CA"}],"isAvailable":true,"maxAvailableQuantity":18,"maxAllowedQuantity":100,"breadcrumbs":[{"code":"2","name":"Carne & pește","slug":"2-carne-si-peste"},{"code":"201","name":"Carne de vită și oaie","slug":"201-carne-de-vita-si-oaie"},{"code":"20101","name":"Mânzat","slug":"20101-manzat"},{"code":"100133251","name":"Carne tocată de porc, vită 900g","slug":"100133251-peris-carne-tocata-de-porc-vita-900g"}],"activePromotion":null,"saveMe":null,"labels":[],"geniusPrice":null,"geniusUnitPricePerLabel":null,"banner":null,"discountLabel":null,"geniusDiscountLabel":null,"badge":null}],"filters":{"countSelected":0,"items":[{"code":"promotion","name":"Promoții","countSelected":0,"values":[{"code":"bunatatile-saptamanii-cw0923","name":"Oferta proaspătă a săptămânii","isSelected":false,"count":2}]},{"code":"brand","name":"Brand","countSelected":0,"values":[{"code":"bioforia-b783","name":"Bioforia","isSelected":false,"count":6},{"code":"chef-de-grill-b175","name":"Chef De Grill","isSelected":false,"count":1},{"code":"chef-de-gatit-b174","name":"Chef De Gătit","isSelected":false,"count":3},{"code":"diana-b356","name":"Diana","isSelected":false,"count":3},{"code":"gurmand-apetit-b1007","name":"Gurmand Apetit","isSelected":false,"count":5},{"code":"meat-revolution-b190","name":"Meat Revolution","isSelected":false,"count":23},{"code":"peris-b2519","name":"Periș","isSelected":false,"count":1},{"code":"romferm-b2698","name":"Romferm","isSelected":false,"count":10},{"code":"samcom-b2514","name":"Samcom","isSelected":false,"count":10}]},{"code":"diet_lifestyle","name":"Dietă și lifestyle","countSelected":0,"values":[{"code":"eco-a83","name":"Eco","isSelected":false,"count":7},{"code":"fara-e-uri-a84","name":"Fara E-uri","isSelected":false,"count":6},{"code":"made-in-romania-a85","name":"Made In Romania","isSelected":false,"count":35}]}]},"orderBy":[{"field":"price","direction":"asc","name":"Preț crescător","isSelected":false},{"field":"price","direction":"desc","name":"Preț descrescător","isSelected":false},{"field":"popularity","direction":"desc","name":"Cele mai populare","isSelected":true},{"field":"category","direction":"asc","name":"Categorie","isSelected":false}],"metaTitle":"Carne de vită și oaie - Gamă variată","metaDescription":"Vrei Carne de vită și oaie? Alege dintr-o gamă variată. Comanzi simplu și ai livrare rapidă, calitate și prospețime. Hai pe Freshful.ro","metaKeywords":null,"banners":[]}}