{"type":"subcategory","payload":{"analyticsListId":"category_20102-manzat-maturat","analyticsListName":"Category - Mânzat maturat","name":"Mânzat maturat","slug":"20102-manzat-maturat","image":null,"breadcrumbs":[{"code":"2","name":"Carne & pește","slug":"2-carne-si-peste"},{"code":"201","name":"Carne de vită și oaie","slug":"201-carne-de-vita-si-oaie"},{"code":"20102","name":"Mânzat maturat","slug":"20102-manzat-maturat"}],"slots":[],"page":1,"limit":10,"pages":3,"count":23,"siblings":[{"name":"Carne de vită și oaie","slug":"201-carne-de-vita-si-oaie","selected":true},{"name":"Carne de porc","slug":"202-carne-de-porc","selected":false},{"name":"Carne de pasăre","slug":"203-carne-de-pasare","selected":false},{"name":"Alte cărnuri","slug":"204-alte-carnuri","selected":false},{"name":"Mici și specialități","slug":"205-mici-si-specialitati","selected":false},{"name":"Pește și sushi","slug":"206-peste-si-sushi","selected":false},{"name":"Pește afumat","slug":"207-peste-afumat","selected":false},{"name":"Pește marinat","slug":"208-peste-marinat","selected":false},{"name":"Icre și salată de icre","slug":"209-icre-si-salata-de-icre","selected":false},{"name":"Specialități de pește","slug":"210-specialitati-de-peste","selected":false}],"children":[{"name":"Toate produsele","slug":"201-carne-de-vita-si-oaie","selected":false},{"name":"Mânzat","slug":"20101-manzat","selected":false},{"name":"Mânzat maturat","slug":"20102-manzat-maturat","selected":true},{"name":"Vițel","slug":"20103-vitel","selected":false},{"name":"Miel","slug":"20105-miel","selected":false}],"products":[{"code":"100064457","variantCode":"100064457","name":"Burgeri de mânzat aged Prussiana 280g","slug":"100064457-gurmand-apetit-burgeri-de-manzat-aged-prussiana-280g","unitPriceLabel":"57,11 Lei/kg","brand":"Gurmand Apetit","brandCode":"993","brandFilterCode":"gurmand-apetit-b1007","sku":"100064457","price":15.99,"originalPrice":18.89,"currencyCode":"RON","currency":"Lei","image":{"thumbnail":{"default":"https://cdn.freshful.ro/media/cache/sylius_shop_product_thumbnail/87/b3/847cc8a36003c3c97e9c71f90867.jpg"},"large":{"default":"https://cdn.freshful.ro/media/cache/freshful_large/87/b3/847cc8a36003c3c97e9c71f90867.jpg"},"extralarge":{"default":"https://cdn.freshful.ro/media/cache/sylius_shop_product_original/87/b3/847cc8a36003c3c97e9c71f90867.jpg"}},"label":{"text":"-15%","backgroundColor":"#FF9903","textColor":"#FFFFFF"},"tags":[{"type":"MadeInRomania","text":"Made In Romania","icon":"https://cdn.freshful.ro/assets/product_tags/made_in_romania.svg","iconPng":"https://cdn.freshful.ro/assets/product_tags/made_in_romania.png","backgroundColor":"#EDF2FD","textColor":"#1653CA"}],"isAvailable":true,"maxAvailableQuantity":6,"maxAllowedQuantity":100,"breadcrumbs":[{"code":"2","name":"Carne & pește","slug":"2-carne-si-peste"},{"code":"201","name":"Carne de vită și oaie","slug":"201-carne-de-vita-si-oaie"},{"code":"20102","name":"Mânzat maturat","slug":"20102-manzat-maturat"},{"code":"100064457","name":"Burgeri de mânzat aged Prussiana 280g","slug":"100064457-gurmand-apetit-burgeri-de-manzat-aged-prussiana-280g"}],"activePromotion":{"code":"bunatatile-saptamanii-cw0923","name":"Preț redus","targetQuantity":null},"saveMe":null,"labels":[{"type":"v1","items":[{"text":"-15%","backgroundColor":"#FF9903","textColor":"#FFFFFF"}]}],"geniusPrice":null,"geniusUnitPricePerLabel":null,"banner":{"text":"Super preț","textColor":"#FF0000","bgColor":"#FFF2EC","icon":null,"link":"https://www.freshful.ro/oferte/bunatatile-saptamanii-cw0923","type":"promo","analyticsEventType":"select_promotion","analyticsEventPayload":{"promotion_id":"bunatatile-saptamanii-cw0923","promotion_name":"Oferta proaspătă a săptămânii"}},"discountLabel":"Economisești 15%","geniusDiscountLabel":null,"badge":null},{"code":"100064448","variantCode":"100064448","name":"T-bone de mânzat aged Prussiana 500g","slug":"100064448-gurmand-apetit-t-bone-de-manzat-aged-prussiana-500g","unitPriceLabel":"142,78 Lei/kg","brand":"Gurmand Apetit","brandCode":"993","brandFilterCode":"gurmand-apetit-b1007","sku":"100064448","price":71.39,"originalPrice":83.99,"currencyCode":"RON","currency":"Lei","image":{"thumbnail":{"default":"https://cdn.freshful.ro/media/cache/sylius_shop_product_thumbnail/bc/5f/b1deed8675ec79b05f3fc05bc574.jpg"},"large":{"default":"https://cdn.freshful.ro/media/cache/freshful_large/bc/5f/b1deed8675ec79b05f3fc05bc574.jpg"},"extralarge":{"default":"https://cdn.freshful.ro/media/cache/sylius_shop_product_original/bc/5f/b1deed8675ec79b05f3fc05bc574.jpg"}},"label":{"text":"-15%","backgroundColor":"#FF9903","textColor":"#FFFFFF"},"tags":[],"isAvailable":true,"maxAvailableQuantity":4,"maxAllowedQuantity":100,"breadcrumbs":[{"code":"2","name":"Carne & pește","slug":"2-carne-si-peste"},{"code":"201","name":"Carne de vită și oaie","slug":"201-carne-de-vita-si-oaie"},{"code":"20102","name":"Mânzat maturat","slug":"20102-manzat-maturat"},{"code":"100064448","name":"T-bone de mânzat aged Prussiana 500g","slug":"100064448-gurmand-apetit-t-bone-de-manzat-aged-prussiana-500g"}],"activePromotion":{"code":"bunatatile-saptamanii-cw0923","name":"Preț redus","targetQuantity":null},"saveMe":null,"labels":[{"type":"v1","items":[{"text":"-15%","backgroundColor":"#FF9903","textColor":"#FFFFFF"}]}],"geniusPrice":null,"geniusUnitPricePerLabel":null,"banner":{"text":"Super preț","textColor":"#FF0000","bgColor":"#FFF2EC","icon":null,"link":"https://www.freshful.ro/oferte/bunatatile-saptamanii-cw0923","type":"promo","analyticsEventType":"select_promotion","analyticsEventPayload":{"promotion_id":"bunatatile-saptamanii-cw0923","promotion_name":"Oferta proaspătă a săptămânii"}},"discountLabel":"Economisești 15%","geniusDiscountLabel":null,"badge":null},{"code":"100135487","variantCode":"100135487","name":"Antricot de vită maturat 330g","slug":"100135487-samcom-antricot-de-vita-maturat-330g","unitPriceLabel":"154,52 Lei/kg","brand":"Samcom","brandCode":"2510","brandFilterCode":"samcom-b2514","sku":"100135487","price":50.99,"originalPrice":null,"currencyCode":"RON","currency":"Lei","image":{"thumbnail":{"default":"https://cdn.freshful.ro/media/cache/sylius_shop_product_thumbnail/30/89/a7932366d1d8774f7abe8df9b20a.jpg"},"large":{"default":"https://cdn.freshful.ro/media/cache/freshful_large/30/89/a7932366d1d8774f7abe8df9b20a.jpg"},"extralarge":{"default":"https://cdn.freshful.ro/media/cache/sylius_shop_product_original/30/89/a7932366d1d8774f7abe8df9b20a.jpg"}},"label":null,"tags":[{"type":"MadeInRomania","text":"Made In Romania","icon":"https://cdn.freshful.ro/assets/product_tags/made_in_romania.svg","iconPng":"https://cdn.freshful.ro/assets/product_tags/made_in_romania.png","backgroundColor":"#EDF2FD","textColor":"#1653CA"}],"isAvailable":true,"maxAvailableQuantity":9,"maxAllowedQuantity":100,"breadcrumbs":[{"code":"2","name":"Carne & pește","slug":"2-carne-si-peste"},{"code":"201","name":"Carne de vită și oaie","slug":"201-carne-de-vita-si-oaie"},{"code":"20102","name":"Mânzat maturat","slug":"20102-manzat-maturat"},{"code":"100135487","name":"Antricot de vită maturat 330g","slug":"100135487-samcom-antricot-de-vita-maturat-330g"}],"activePromotion":null,"saveMe":null,"labels":[],"geniusPrice":null,"geniusUnitPricePerLabel":null,"banner":null,"discountLabel":null,"geniusDiscountLabel":null,"badge":null},{"code":"100135488","variantCode":"100135488","name":"Vrăbioară vită maturată 250g","slug":"100135488-samcom-vrabioara-vita-maturata-250g","unitPriceLabel":"139,96 Lei/kg","brand":"Samcom","brandCode":"2510","brandFilterCode":"samcom-b2514","sku":"100135488","price":34.99,"originalPrice":null,"currencyCode":"RON","currency":"Lei","image":{"thumbnail":{"default":"https://cdn.freshful.ro/media/cache/sylius_shop_product_thumbnail/6e/88/36a8db93e2e71ba2c522bc3d4c07.jpg"},"large":{"default":"https://cdn.freshful.ro/media/cache/freshful_large/6e/88/36a8db93e2e71ba2c522bc3d4c07.jpg"},"extralarge":{"default":"https://cdn.freshful.ro/media/cache/sylius_shop_product_original/6e/88/36a8db93e2e71ba2c522bc3d4c07.jpg"}},"label":null,"tags":[{"type":"MadeInRomania","text":"Made In Romania","icon":"https://cdn.freshful.ro/assets/product_tags/made_in_romania.svg","iconPng":"https://cdn.freshful.ro/assets/product_tags/made_in_romania.png","backgroundColor":"#EDF2FD","textColor":"#1653CA"}],"isAvailable":true,"maxAvailableQuantity":66,"maxAllowedQuantity":100,"breadcrumbs":[{"code":"2","name":"Carne & pește","slug":"2-carne-si-peste"},{"code":"201","name":"Carne de vită și oaie","slug":"201-carne-de-vita-si-oaie"},{"code":"20102","name":"Mânzat maturat","slug":"20102-manzat-maturat"},{"code":"100135488","name":"Vrăbioară vită maturată 250g","slug":"100135488-samcom-vrabioara-vita-maturata-250g"}],"activePromotion":null,"saveMe":null,"labels":[],"geniusPrice":null,"geniusUnitPricePerLabel":null,"banner":null,"discountLabel":null,"geniusDiscountLabel":null,"badge":null},{"code":"100030494","variantCode":"100030494","name":"Denver steak de Black Angus din SUA 300g","slug":"100030494-meat-revolution-denver-steak-de-black-angus-din-sua-300g","unitPriceLabel":"146,63 Lei/kg","brand":"Meat Revolution","brandCode":"189","brandFilterCode":"meat-revolution-b190","sku":"100030494","price":43.99,"originalPrice":null,"currencyCode":"RON","currency":"Lei","image":{"thumbnail":{"default":"https://cdn.freshful.ro/media/cache/sylius_shop_product_thumbnail/3e/55/cb0bb4a97cb76e6d83d31655246a.jpg"},"large":{"default":"https://cdn.freshful.ro/media/cache/freshful_large/3e/55/cb0bb4a97cb76e6d83d31655246a.jpg"},"extralarge":{"default":"https://cdn.freshful.ro/media/cache/sylius_shop_product_original/3e/55/cb0bb4a97cb76e6d83d31655246a.jpg"}},"label":null,"tags":[],"isAvailable":true,"maxAvailableQuantity":26,"maxAllowedQuantity":100,"breadcrumbs":[{"code":"2","name":"Carne & pește","slug":"2-carne-si-peste"},{"code":"201","name":"Carne de vită și oaie","slug":"201-carne-de-vita-si-oaie"},{"code":"20102","name":"Mânzat maturat","slug":"20102-manzat-maturat"},{"code":"100030494","name":"Denver steak de Black Angus din SUA 300g","slug":"100030494-meat-revolution-denver-steak-de-black-angus-din-sua-300g"}],"activePromotion":null,"saveMe":null,"labels":[],"geniusPrice":null,"geniusUnitPricePerLabel":null,"banner":null,"discountLabel":null,"geniusDiscountLabel":null,"badge":null},{"code":"100030484","variantCode":"100030484","name":"Top Sirloin steak de Black Angus din SUA 300g","slug":"100030484-meat-revolution-top-sirloin-steak-de-black-angus-din-sua-300g","unitPriceLabel":"136,63 Lei/kg","brand":"Meat Revolution","brandCode":"189","brandFilterCode":"meat-revolution-b190","sku":"100030484","price":40.99,"originalPrice":null,"currencyCode":"RON","currency":"Lei","image":{"thumbnail":{"default":"https://cdn.freshful.ro/media/cache/sylius_shop_product_thumbnail/e6/be/fc4a961082f811580d40885ef9d0.jpg"},"large":{"default":"https://cdn.freshful.ro/media/cache/freshful_large/e6/be/fc4a961082f811580d40885ef9d0.jpg"},"extralarge":{"default":"https://cdn.freshful.ro/media/cache/sylius_shop_product_original/e6/be/fc4a961082f811580d40885ef9d0.jpg"}},"label":null,"tags":[],"isAvailable":true,"maxAvailableQuantity":13,"maxAllowedQuantity":100,"breadcrumbs":[{"code":"2","name":"Carne & pește","slug":"2-carne-si-peste"},{"code":"201","name":"Carne de vită și oaie","slug":"201-carne-de-vita-si-oaie"},{"code":"20102","name":"Mânzat maturat","slug":"20102-manzat-maturat"},{"code":"100030484","name":"Top Sirloin steak de Black Angus din SUA 300g","slug":"100030484-meat-revolution-top-sirloin-steak-de-black-angus-din-sua-300g"}],"activePromotion":null,"saveMe":null,"labels":[],"geniusPrice":null,"geniusUnitPricePerLabel":null,"banner":null,"discountLabel":null,"geniusDiscountLabel":null,"badge":null},{"code":"100030495","variantCode":"100030495","name":"Rump steak de Black Angus din SUA 300g","slug":"100030495-meat-revolution-rump-steak-de-black-angus-din-sua-300g","unitPriceLabel":"126,63 Lei/kg","brand":"Meat Revolution","brandCode":"189","brandFilterCode":"meat-revolution-b190","sku":"100030495","price":37.99,"originalPrice":null,"currencyCode":"RON","currency":"Lei","image":{"thumbnail":{"default":"https://cdn.freshful.ro/media/cache/sylius_shop_product_thumbnail/44/fb/095af4121242867979f12d883a52.jpg"},"large":{"default":"https://cdn.freshful.ro/media/cache/freshful_large/44/fb/095af4121242867979f12d883a52.jpg"},"extralarge":{"default":"https://cdn.freshful.ro/media/cache/sylius_shop_product_original/44/fb/095af4121242867979f12d883a52.jpg"}},"label":null,"tags":[],"isAvailable":true,"maxAvailableQuantity":16,"maxAllowedQuantity":100,"breadcrumbs":[{"code":"2","name":"Carne & pește","slug":"2-carne-si-peste"},{"code":"201","name":"Carne de vită și oaie","slug":"201-carne-de-vita-si-oaie"},{"code":"20102","name":"Mânzat maturat","slug":"20102-manzat-maturat"},{"code":"100030495","name":"Rump steak de Black Angus din SUA 300g","slug":"100030495-meat-revolution-rump-steak-de-black-angus-din-sua-300g"}],"activePromotion":null,"saveMe":null,"labels":[],"geniusPrice":null,"geniusUnitPricePerLabel":null,"banner":null,"discountLabel":null,"geniusDiscountLabel":null,"badge":null},{"code":"100030491","variantCode":"100030491","name":"Rib-Eye de vită din Argentina 300g","slug":"100030491-meat-revolution-rib-eye-de-vita-din-argentina-300g","unitPriceLabel":"203,3 Lei/kg","brand":"Meat Revolution","brandCode":"189","brandFilterCode":"meat-revolution-b190","sku":"100030491","price":60.99,"originalPrice":null,"currencyCode":"RON","currency":"Lei","image":{"thumbnail":{"default":"https://cdn.freshful.ro/media/cache/sylius_shop_product_thumbnail/48/54/581cd84f5e79dc86bbae3921f78e.jpg"},"large":{"default":"https://cdn.freshful.ro/media/cache/freshful_large/48/54/581cd84f5e79dc86bbae3921f78e.jpg"},"extralarge":{"default":"https://cdn.freshful.ro/media/cache/sylius_shop_product_original/48/54/581cd84f5e79dc86bbae3921f78e.jpg"}},"label":null,"tags":[],"isAvailable":true,"maxAvailableQuantity":29,"maxAllowedQuantity":100,"breadcrumbs":[{"code":"2","name":"Carne & pește","slug":"2-carne-si-peste"},{"code":"201","name":"Carne de vită și oaie","slug":"201-carne-de-vita-si-oaie"},{"code":"20102","name":"Mânzat maturat","slug":"20102-manzat-maturat"},{"code":"100030491","name":"Rib-Eye de vită din Argentina 300g","slug":"100030491-meat-revolution-rib-eye-de-vita-din-argentina-300g"}],"activePromotion":null,"saveMe":null,"labels":[],"geniusPrice":null,"geniusUnitPricePerLabel":null,"banner":null,"discountLabel":null,"geniusDiscountLabel":null,"badge":null},{"code":"100064449","variantCode":"100064449","name":"New Jersey mânzat aged Prussiana 500g","slug":"100064449-gurmand-apetit-new-jersey-manzat-aged-prussiana-500g","unitPriceLabel":"152,58 Lei/kg","brand":"Gurmand Apetit","brandCode":"993","brandFilterCode":"gurmand-apetit-b1007","sku":"100064449","price":76.29,"originalPrice":null,"currencyCode":"RON","currency":"Lei","image":{"thumbnail":{"default":"https://cdn.freshful.ro/media/cache/sylius_shop_product_thumbnail/ed/31/5d441581517b842acb3474abbf3c.jpg"},"large":{"default":"https://cdn.freshful.ro/media/cache/freshful_large/ed/31/5d441581517b842acb3474abbf3c.jpg"},"extralarge":{"default":"https://cdn.freshful.ro/media/cache/sylius_shop_product_original/ed/31/5d441581517b842acb3474abbf3c.jpg"}},"label":null,"tags":[],"isAvailable":true,"maxAvailableQuantity":12,"maxAllowedQuantity":100,"breadcrumbs":[{"code":"2","name":"Carne & pește","slug":"2-carne-si-peste"},{"code":"201","name":"Carne de vită și oaie","slug":"201-carne-de-vita-si-oaie"},{"code":"20102","name":"Mânzat maturat","slug":"20102-manzat-maturat"},{"code":"100064449","name":"New Jersey mânzat aged Prussiana 500g","slug":"100064449-gurmand-apetit-new-jersey-manzat-aged-prussiana-500g"}],"activePromotion":null,"saveMe":null,"labels":[],"geniusPrice":null,"geniusUnitPricePerLabel":null,"banner":null,"discountLabel":null,"geniusDiscountLabel":null,"badge":null},{"code":"100135486","variantCode":"100135486","name":"Mușchi de vită maturat 300g","slug":"100135486-samcom-muschi-de-vita-maturat-300g","unitPriceLabel":"283,3 Lei/kg","brand":"Samcom","brandCode":"2510","brandFilterCode":"samcom-b2514","sku":"100135486","price":84.99,"originalPrice":null,"currencyCode":"RON","currency":"Lei","image":{"thumbnail":{"default":"https://cdn.freshful.ro/media/cache/sylius_shop_product_thumbnail/6f/a9/d7363f78309224d1c0771a6a1570.jpg"},"large":{"default":"https://cdn.freshful.ro/media/cache/freshful_large/6f/a9/d7363f78309224d1c0771a6a1570.jpg"},"extralarge":{"default":"https://cdn.freshful.ro/media/cache/sylius_shop_product_original/6f/a9/d7363f78309224d1c0771a6a1570.jpg"}},"label":null,"tags":[{"type":"MadeInRomania","text":"Made In Romania","icon":"https://cdn.freshful.ro/assets/product_tags/made_in_romania.svg","iconPng":"https://cdn.freshful.ro/assets/product_tags/made_in_romania.png","backgroundColor":"#EDF2FD","textColor":"#1653CA"}],"isAvailable":true,"maxAvailableQuantity":12,"maxAllowedQuantity":100,"breadcrumbs":[{"code":"2","name":"Carne & pește","slug":"2-carne-si-peste"},{"code":"201","name":"Carne de vită și oaie","slug":"201-carne-de-vita-si-oaie"},{"code":"20102","name":"Mânzat maturat","slug":"20102-manzat-maturat"},{"code":"100135486","name":"Mușchi de vită maturat 300g","slug":"100135486-samcom-muschi-de-vita-maturat-300g"}],"activePromotion":null,"saveMe":null,"labels":[],"geniusPrice":null,"geniusUnitPricePerLabel":null,"banner":null,"discountLabel":null,"geniusDiscountLabel":null,"badge":null}],"filters":{"countSelected":0,"items":[{"code":"promotion","name":"Promoții","countSelected":0,"values":[{"code":"bunatatile-saptamanii-cw0923","name":"Oferta proaspătă a săptămânii","isSelected":false,"count":2}]},{"code":"brand","name":"Brand","countSelected":0,"values":[{"code":"gurmand-apetit-b1007","name":"Gurmand Apetit","isSelected":false,"count":4},{"code":"meat-revolution-b190","name":"Meat Revolution","isSelected":false,"count":10},{"code":"romferm-b2698","name":"Romferm","isSelected":false,"count":6},{"code":"samcom-b2514","name":"Samcom","isSelected":false,"count":3}]},{"code":"diet_lifestyle","name":"Dietă și lifestyle","countSelected":0,"values":[{"code":"made-in-romania-a85","name":"Made In Romania","isSelected":false,"count":10}]}]},"orderBy":[{"field":"price","direction":"asc","name":"Preț crescător","isSelected":false},{"field":"price","direction":"desc","name":"Preț descrescător","isSelected":false},{"field":"popularity","direction":"desc","name":"Cele mai populare","isSelected":true},{"field":"category","direction":"asc","name":"Categorie","isSelected":false}],"metaTitle":"Mânzat maturat - Gamă variată","metaDescription":"Vrei Mânzat maturat? Alege dintr-o gamă variată. Comanzi simplu și ai livrare rapidă, calitate și prospețime. Hai pe Freshful.ro","metaKeywords":null,"banners":[]}}