{"type":"subcategory","payload":{"analyticsListId":"category_203-carne-de-pasare","analyticsListName":"Category - Carne de pasăre","name":"Carne de pasăre","slug":"203-carne-de-pasare","image":null,"breadcrumbs":[{"code":"2","name":"Carne & pește","slug":"2-carne-si-peste"},{"code":"203","name":"Carne de pasăre","slug":"203-carne-de-pasare"}],"slots":[],"page":1,"limit":10,"pages":5,"count":46,"siblings":[{"name":"Carne de vită și oaie","slug":"201-carne-de-vita-si-oaie","selected":false},{"name":"Carne de porc","slug":"202-carne-de-porc","selected":false},{"name":"Carne de pasăre","slug":"203-carne-de-pasare","selected":true},{"name":"Alte cărnuri","slug":"204-alte-carnuri","selected":false},{"name":"Mici și specialități","slug":"205-mici-si-specialitati","selected":false},{"name":"Pește și sushi","slug":"206-peste-si-sushi","selected":false},{"name":"Pește afumat","slug":"207-peste-afumat","selected":false},{"name":"Pește marinat","slug":"208-peste-marinat","selected":false},{"name":"Icre și salată de icre","slug":"209-icre-si-salata-de-icre","selected":false},{"name":"Specialități de pește","slug":"210-specialitati-de-peste","selected":false}],"children":[{"name":"Toate produsele","slug":"203-carne-de-pasare","selected":true},{"name":"Pui","slug":"20301-pui","selected":false},{"name":"Pui cu creștere lentă","slug":"20302-pui-cu-crestere-lenta","selected":false},{"name":"Curcan","slug":"20303-curcan","selected":false}],"products":[{"code":"100135614","variantCode":"100135614","name":"Ciocănele de pui 630g","slug":"100135614-cocorico-ciocanele-de-pui-630g","unitPriceLabel":"18,83 Lei/kg","brand":"Cocorico","brandCode":"211","brandFilterCode":"cocorico-b212","sku":"100135614","price":11.86,"originalPrice":null,"currencyCode":"RON","currency":"Lei","image":{"thumbnail":{"default":"https://cdn.freshful.ro/media/cache/sylius_shop_product_thumbnail/42/d6/485fc8e6a72c4eb51f58e18d183c.jpg"},"large":{"default":"https://cdn.freshful.ro/media/cache/freshful_large/42/d6/485fc8e6a72c4eb51f58e18d183c.jpg"},"extralarge":{"default":"https://cdn.freshful.ro/media/cache/sylius_shop_product_original/42/d6/485fc8e6a72c4eb51f58e18d183c.jpg"}},"label":{"text":"Primul preț","backgroundColor":"#3A0808","textColor":"#FFFFFF"},"tags":[{"type":"MadeInRomania","text":"Made In Romania","icon":"https://cdn.freshful.ro/assets/product_tags/made_in_romania.svg","iconPng":"https://cdn.freshful.ro/assets/product_tags/made_in_romania.png","backgroundColor":"#EDF2FD","textColor":"#1653CA"}],"isAvailable":true,"maxAvailableQuantity":100,"maxAllowedQuantity":100,"breadcrumbs":[{"code":"2","name":"Carne & pește","slug":"2-carne-si-peste"},{"code":"203","name":"Carne de pasăre","slug":"203-carne-de-pasare"},{"code":"20301","name":"Pui","slug":"20301-pui"},{"code":"100135614","name":"Ciocănele de pui 630g","slug":"100135614-cocorico-ciocanele-de-pui-630g"}],"activePromotion":null,"saveMe":null,"labels":[{"type":"v4","items":[{"text":"Primul","backgroundColor":"#3A0808","textColor":"#FFFFFF"},{"text":"preț","backgroundColor":"#BC0606","textColor":"#FFFFFF"}]}],"geniusPrice":null,"geniusUnitPricePerLabel":null,"banner":null,"discountLabel":null,"geniusDiscountLabel":null,"badge":null},{"code":"100135615","variantCode":"100135615","name":"Piept de pui dezosat 630g","slug":"100135615-cocorico-piept-de-pui-dezosat-630g","unitPriceLabel":"34,43 Lei/kg","brand":"Cocorico","brandCode":"211","brandFilterCode":"cocorico-b212","sku":"100135615","price":21.69,"originalPrice":null,"currencyCode":"RON","currency":"Lei","image":{"thumbnail":{"default":"https://cdn.freshful.ro/media/cache/sylius_shop_product_thumbnail/47/5f/08bcf1a075fd10cc6de2e5cc7a63.jpg"},"large":{"default":"https://cdn.freshful.ro/media/cache/freshful_large/47/5f/08bcf1a075fd10cc6de2e5cc7a63.jpg"},"extralarge":{"default":"https://cdn.freshful.ro/media/cache/sylius_shop_product_original/47/5f/08bcf1a075fd10cc6de2e5cc7a63.jpg"}},"label":null,"tags":[{"type":"MadeInRomania","text":"Made In Romania","icon":"https://cdn.freshful.ro/assets/product_tags/made_in_romania.svg","iconPng":"https://cdn.freshful.ro/assets/product_tags/made_in_romania.png","backgroundColor":"#EDF2FD","textColor":"#1653CA"}],"isAvailable":true,"maxAvailableQuantity":100,"maxAllowedQuantity":100,"breadcrumbs":[{"code":"2","name":"Carne & pește","slug":"2-carne-si-peste"},{"code":"203","name":"Carne de pasăre","slug":"203-carne-de-pasare"},{"code":"20301","name":"Pui","slug":"20301-pui"},{"code":"100135615","name":"Piept de pui dezosat 630g","slug":"100135615-cocorico-piept-de-pui-dezosat-630g"}],"activePromotion":null,"saveMe":null,"labels":[],"geniusPrice":null,"geniusUnitPricePerLabel":null,"banner":null,"discountLabel":null,"geniusDiscountLabel":null,"badge":null},{"code":"100036601","variantCode":"5941876001614","name":"Mușchiuleț de pui 370g","slug":"100036601-cocorico-muschiulet-de-pui-370g","unitPriceLabel":"31,81 Lei/kg","brand":"Cocorico","brandCode":"211","brandFilterCode":"cocorico-b212","sku":"100036601","price":11.77,"originalPrice":null,"currencyCode":"RON","currency":"Lei","image":{"thumbnail":{"default":"https://cdn.freshful.ro/media/cache/sylius_shop_product_thumbnail/12/af/387820fa5c5775834e38708c7799.jpg"},"large":{"default":"https://cdn.freshful.ro/media/cache/freshful_large/12/af/387820fa5c5775834e38708c7799.jpg"},"extralarge":{"default":"https://cdn.freshful.ro/media/cache/sylius_shop_product_original/12/af/387820fa5c5775834e38708c7799.jpg"}},"label":null,"tags":[{"type":"MadeInRomania","text":"Made In Romania","icon":"https://cdn.freshful.ro/assets/product_tags/made_in_romania.svg","iconPng":"https://cdn.freshful.ro/assets/product_tags/made_in_romania.png","backgroundColor":"#EDF2FD","textColor":"#1653CA"}],"isAvailable":true,"maxAvailableQuantity":58,"maxAllowedQuantity":100,"breadcrumbs":[{"code":"2","name":"Carne & pește","slug":"2-carne-si-peste"},{"code":"203","name":"Carne de pasăre","slug":"203-carne-de-pasare"},{"code":"20301","name":"Pui","slug":"20301-pui"},{"code":"100036601","name":"Mușchiuleț de pui 370g","slug":"100036601-cocorico-muschiulet-de-pui-370g"}],"activePromotion":null,"saveMe":null,"labels":[],"geniusPrice":null,"geniusUnitPricePerLabel":null,"banner":null,"discountLabel":null,"geniusDiscountLabel":null,"badge":null},{"code":"100135616","variantCode":"100135616","name":"Pulpe de pui superioare dezosate 630g","slug":"100135616-cocorico-pulpe-de-pui-superioare-dezosate-630g","unitPriceLabel":"25,32 Lei/kg","brand":"Cocorico","brandCode":"211","brandFilterCode":"cocorico-b212","sku":"100135616","price":15.95,"originalPrice":null,"currencyCode":"RON","currency":"Lei","image":{"thumbnail":{"default":"https://cdn.freshful.ro/media/cache/sylius_shop_product_thumbnail/a7/fc/671c0b401ce850be1be10aab712e.jpg"},"large":{"default":"https://cdn.freshful.ro/media/cache/freshful_large/a7/fc/671c0b401ce850be1be10aab712e.jpg"},"extralarge":{"default":"https://cdn.freshful.ro/media/cache/sylius_shop_product_original/a7/fc/671c0b401ce850be1be10aab712e.jpg"}},"label":null,"tags":[{"type":"MadeInRomania","text":"Made In Romania","icon":"https://cdn.freshful.ro/assets/product_tags/made_in_romania.svg","iconPng":"https://cdn.freshful.ro/assets/product_tags/made_in_romania.png","backgroundColor":"#EDF2FD","textColor":"#1653CA"}],"isAvailable":true,"maxAvailableQuantity":100,"maxAllowedQuantity":100,"breadcrumbs":[{"code":"2","name":"Carne & pește","slug":"2-carne-si-peste"},{"code":"203","name":"Carne de pasăre","slug":"203-carne-de-pasare"},{"code":"20301","name":"Pui","slug":"20301-pui"},{"code":"100135616","name":"Pulpe de pui superioare dezosate 630g","slug":"100135616-cocorico-pulpe-de-pui-superioare-dezosate-630g"}],"activePromotion":null,"saveMe":null,"labels":[],"geniusPrice":null,"geniusUnitPricePerLabel":null,"banner":null,"discountLabel":null,"geniusDiscountLabel":null,"badge":null},{"code":"100135617","variantCode":"100135617","name":"Aripi de pui secționate 630g","slug":"100135617-cocorico-aripi-de-pui-sectionate-630g","unitPriceLabel":"19,59 Lei/kg","brand":"Cocorico","brandCode":"211","brandFilterCode":"cocorico-b212","sku":"100135617","price":12.34,"originalPrice":null,"currencyCode":"RON","currency":"Lei","image":{"thumbnail":{"default":"https://cdn.freshful.ro/media/cache/sylius_shop_product_thumbnail/7a/02/c33ca422d670768e31a7e67d772e.jpg"},"large":{"default":"https://cdn.freshful.ro/media/cache/freshful_large/7a/02/c33ca422d670768e31a7e67d772e.jpg"},"extralarge":{"default":"https://cdn.freshful.ro/media/cache/sylius_shop_product_original/7a/02/c33ca422d670768e31a7e67d772e.jpg"}},"label":null,"tags":[],"isAvailable":true,"maxAvailableQuantity":100,"maxAllowedQuantity":100,"breadcrumbs":[{"code":"2","name":"Carne & pește","slug":"2-carne-si-peste"},{"code":"203","name":"Carne de pasăre","slug":"203-carne-de-pasare"},{"code":"20301","name":"Pui","slug":"20301-pui"},{"code":"100135617","name":"Aripi de pui secționate 630g","slug":"100135617-cocorico-aripi-de-pui-sectionate-630g"}],"activePromotion":null,"saveMe":null,"labels":[],"geniusPrice":null,"geniusUnitPricePerLabel":null,"banner":null,"discountLabel":null,"geniusDiscountLabel":null,"badge":null},{"code":"100030385","variantCode":"5941460011241","name":"Mușchiuleț din piept de pui 500g","slug":"100030385-agricola-muschiulet-din-piept-de-pui-500g","unitPriceLabel":"34,58 Lei/kg","brand":"Agricola","brandCode":"70","brandFilterCode":"agricola-b68","sku":"100030385","price":17.29,"originalPrice":null,"currencyCode":"RON","currency":"Lei","image":{"thumbnail":{"default":"https://cdn.freshful.ro/media/cache/sylius_shop_product_thumbnail/49/58/39db78ee83f469458fd6d3580cf6.jpg"},"large":{"default":"https://cdn.freshful.ro/media/cache/freshful_large/49/58/39db78ee83f469458fd6d3580cf6.jpg"},"extralarge":{"default":"https://cdn.freshful.ro/media/cache/sylius_shop_product_original/49/58/39db78ee83f469458fd6d3580cf6.jpg"}},"label":null,"tags":[{"type":"MadeInRomania","text":"Made In Romania","icon":"https://cdn.freshful.ro/assets/product_tags/made_in_romania.svg","iconPng":"https://cdn.freshful.ro/assets/product_tags/made_in_romania.png","backgroundColor":"#EDF2FD","textColor":"#1653CA"}],"isAvailable":true,"maxAvailableQuantity":100,"maxAllowedQuantity":100,"breadcrumbs":[{"code":"2","name":"Carne & pește","slug":"2-carne-si-peste"},{"code":"203","name":"Carne de pasăre","slug":"203-carne-de-pasare"},{"code":"20301","name":"Pui","slug":"20301-pui"},{"code":"100030385","name":"Mușchiuleț din piept de pui 500g","slug":"100030385-agricola-muschiulet-din-piept-de-pui-500g"}],"activePromotion":null,"saveMe":null,"labels":[],"geniusPrice":null,"geniusUnitPricePerLabel":null,"banner":null,"discountLabel":null,"geniusDiscountLabel":null,"badge":null},{"code":"100030391","variantCode":"5941460009019","name":"Ficat de pui 500g","slug":"100030391-agricola-ficat-de-pui-500g","unitPriceLabel":"25,98 Lei/kg","brand":"Agricola","brandCode":"70","brandFilterCode":"agricola-b68","sku":"100030391","price":12.99,"originalPrice":null,"currencyCode":"RON","currency":"Lei","image":{"thumbnail":{"default":"https://cdn.freshful.ro/media/cache/sylius_shop_product_thumbnail/dd/10/b0936b30eb8491d7b179bf3b09d9.jpg"},"large":{"default":"https://cdn.freshful.ro/media/cache/freshful_large/dd/10/b0936b30eb8491d7b179bf3b09d9.jpg"},"extralarge":{"default":"https://cdn.freshful.ro/media/cache/sylius_shop_product_original/dd/10/b0936b30eb8491d7b179bf3b09d9.jpg"}},"label":null,"tags":[{"type":"MadeInRomania","text":"Made In Romania","icon":"https://cdn.freshful.ro/assets/product_tags/made_in_romania.svg","iconPng":"https://cdn.freshful.ro/assets/product_tags/made_in_romania.png","backgroundColor":"#EDF2FD","textColor":"#1653CA"}],"isAvailable":true,"maxAvailableQuantity":77,"maxAllowedQuantity":100,"breadcrumbs":[{"code":"2","name":"Carne & pește","slug":"2-carne-si-peste"},{"code":"203","name":"Carne de pasăre","slug":"203-carne-de-pasare"},{"code":"20301","name":"Pui","slug":"20301-pui"},{"code":"100030391","name":"Ficat de pui 500g","slug":"100030391-agricola-ficat-de-pui-500g"}],"activePromotion":null,"saveMe":null,"labels":[],"geniusPrice":null,"geniusUnitPricePerLabel":null,"banner":null,"discountLabel":null,"geniusDiscountLabel":null,"badge":null},{"code":"100036792","variantCode":"100036792","name":"Ficat de pui 500g","slug":"100036792-copioso-ficat-de-pui-500g","unitPriceLabel":"21,98 Lei/kg","brand":"Copioso","brandCode":"234","brandFilterCode":"copioso-b235","sku":"100036792","price":10.99,"originalPrice":null,"currencyCode":"RON","currency":"Lei","image":{"thumbnail":{"default":"https://cdn.freshful.ro/media/cache/sylius_shop_product_thumbnail/e0/da/62dc572ba2ae06bb00a3f9c9523a.jpg"},"large":{"default":"https://cdn.freshful.ro/media/cache/freshful_large/e0/da/62dc572ba2ae06bb00a3f9c9523a.jpg"},"extralarge":{"default":"https://cdn.freshful.ro/media/cache/sylius_shop_product_original/e0/da/62dc572ba2ae06bb00a3f9c9523a.jpg"}},"label":null,"tags":[{"type":"MadeInRomania","text":"Made In Romania","icon":"https://cdn.freshful.ro/assets/product_tags/made_in_romania.svg","iconPng":"https://cdn.freshful.ro/assets/product_tags/made_in_romania.png","backgroundColor":"#EDF2FD","textColor":"#1653CA"}],"isAvailable":true,"maxAvailableQuantity":100,"maxAllowedQuantity":100,"breadcrumbs":[{"code":"2","name":"Carne & pește","slug":"2-carne-si-peste"},{"code":"203","name":"Carne de pasăre","slug":"203-carne-de-pasare"},{"code":"20301","name":"Pui","slug":"20301-pui"},{"code":"100036792","name":"Ficat de pui 500g","slug":"100036792-copioso-ficat-de-pui-500g"}],"activePromotion":null,"saveMe":null,"labels":[],"geniusPrice":null,"geniusUnitPricePerLabel":null,"banner":null,"discountLabel":null,"geniusDiscountLabel":null,"badge":null},{"code":"100030396","variantCode":"5941460018530","name":"Pulpe pui superioare dezosate fără piele 700g","slug":"100030396-puiul-fericit-pulpe-pui-superioare-dezosate-fara-piele-700g","unitPriceLabel":"43,99 Lei/kg","brand":"Puiul Fericit","brandCode":"156","brandFilterCode":"puiul-fericit-b157","sku":"100030396","price":30.79,"originalPrice":null,"currencyCode":"RON","currency":"Lei","image":{"thumbnail":{"default":"https://cdn.freshful.ro/media/cache/sylius_shop_product_thumbnail/3c/c3/5f21da328d99f079277d59c2d905.jpg"},"large":{"default":"https://cdn.freshful.ro/media/cache/freshful_large/3c/c3/5f21da328d99f079277d59c2d905.jpg"},"extralarge":{"default":"https://cdn.freshful.ro/media/cache/sylius_shop_product_original/3c/c3/5f21da328d99f079277d59c2d905.jpg"}},"label":null,"tags":[{"type":"MadeInRomania","text":"Made In Romania","icon":"https://cdn.freshful.ro/assets/product_tags/made_in_romania.svg","iconPng":"https://cdn.freshful.ro/assets/product_tags/made_in_romania.png","backgroundColor":"#EDF2FD","textColor":"#1653CA"}],"isAvailable":true,"maxAvailableQuantity":76,"maxAllowedQuantity":100,"breadcrumbs":[{"code":"2","name":"Carne & pește","slug":"2-carne-si-peste"},{"code":"203","name":"Carne de pasăre","slug":"203-carne-de-pasare"},{"code":"20302","name":"Pui cu creștere lentă","slug":"20302-pui-cu-crestere-lenta"},{"code":"100030396","name":"Pulpe pui superioare dezosate fără piele 700g","slug":"100030396-puiul-fericit-pulpe-pui-superioare-dezosate-fara-piele-700g"}],"activePromotion":null,"saveMe":null,"labels":[],"geniusPrice":null,"geniusUnitPricePerLabel":null,"banner":null,"discountLabel":null,"geniusDiscountLabel":null,"badge":null},{"code":"100030386","variantCode":"5941460010961","name":"Piept de pui dezosat 650g","slug":"100030386-agricola-piept-de-pui-dezosat-650g","unitPriceLabel":"34,45 Lei/kg","brand":"Agricola","brandCode":"70","brandFilterCode":"agricola-b68","sku":"100030386","price":22.39,"originalPrice":null,"currencyCode":"RON","currency":"Lei","image":{"thumbnail":{"default":"https://cdn.freshful.ro/media/cache/sylius_shop_product_thumbnail/bb/46/81e30ac94591c75bd3dd6ca0ca5e.jpg"},"large":{"default":"https://cdn.freshful.ro/media/cache/freshful_large/bb/46/81e30ac94591c75bd3dd6ca0ca5e.jpg"},"extralarge":{"default":"https://cdn.freshful.ro/media/cache/sylius_shop_product_original/bb/46/81e30ac94591c75bd3dd6ca0ca5e.jpg"}},"label":null,"tags":[{"type":"MadeInRomania","text":"Made In Romania","icon":"https://cdn.freshful.ro/assets/product_tags/made_in_romania.svg","iconPng":"https://cdn.freshful.ro/assets/product_tags/made_in_romania.png","backgroundColor":"#EDF2FD","textColor":"#1653CA"}],"isAvailable":true,"maxAvailableQuantity":48,"maxAllowedQuantity":100,"breadcrumbs":[{"code":"2","name":"Carne & pește","slug":"2-carne-si-peste"},{"code":"203","name":"Carne de pasăre","slug":"203-carne-de-pasare"},{"code":"20301","name":"Pui","slug":"20301-pui"},{"code":"100030386","name":"Piept de pui dezosat 650g","slug":"100030386-agricola-piept-de-pui-dezosat-650g"}],"activePromotion":null,"saveMe":null,"labels":[],"geniusPrice":null,"geniusUnitPricePerLabel":null,"banner":null,"discountLabel":null,"geniusDiscountLabel":null,"badge":null}],"filters":{"countSelected":0,"items":[{"code":"brand","name":"Brand","countSelected":0,"values":[{"code":"agricola-b68","name":"Agricola","isSelected":false,"count":9},{"code":"cocorico-b212","name":"Cocorico","isSelected":false,"count":8},{"code":"copioso-b235","name":"Copioso","isSelected":false,"count":10},{"code":"lili-gri-b1008","name":"Lili Gri","isSelected":false,"count":14},{"code":"puiul-fericit-b157","name":"Puiul Fericit","isSelected":false,"count":3},{"code":"puiul-gospodarului-b3250","name":"Puiul Gospodarului","isSelected":false,"count":2}]},{"code":"diet_lifestyle","name":"Dietă și lifestyle","countSelected":0,"values":[{"code":"fara-conservanti-a37","name":"Fara conservanti","isSelected":false,"count":1},{"code":"made-in-romania-a85","name":"Made In Romania","isSelected":false,"count":39}]}]},"orderBy":[{"field":"price","direction":"asc","name":"Preț crescător","isSelected":false},{"field":"price","direction":"desc","name":"Preț descrescător","isSelected":false},{"field":"popularity","direction":"desc","name":"Cele mai populare","isSelected":true},{"field":"category","direction":"asc","name":"Categorie","isSelected":false}],"metaTitle":"Carne de pasăre - Gamă variată","metaDescription":"Vrei Carne de pasăre? Alege dintr-o gamă variată. Comanzi simplu și ai livrare rapidă, calitate și prospețime. Hai pe Freshful.ro","metaKeywords":null,"banners":[]}}