{"type":"subcategory","payload":{"analyticsListId":"category_205-mici-si-specialitati","analyticsListName":"Category - Mici și specialități","name":"Mici și specialități","slug":"205-mici-si-specialitati","image":null,"breadcrumbs":[{"code":"2","name":"Carne & pește","slug":"2-carne-si-peste"},{"code":"205","name":"Mici și specialități","slug":"205-mici-si-specialitati"}],"slots":[],"page":1,"limit":10,"pages":11,"count":105,"siblings":[{"name":"Carne de vită și oaie","slug":"201-carne-de-vita-si-oaie","selected":false},{"name":"Carne de porc","slug":"202-carne-de-porc","selected":false},{"name":"Carne de pasăre","slug":"203-carne-de-pasare","selected":false},{"name":"Alte cărnuri","slug":"204-alte-carnuri","selected":false},{"name":"Mici și specialități","slug":"205-mici-si-specialitati","selected":true},{"name":"Pește și sushi","slug":"206-peste-si-sushi","selected":false},{"name":"Pește afumat","slug":"207-peste-afumat","selected":false},{"name":"Pește marinat","slug":"208-peste-marinat","selected":false},{"name":"Icre și salată de icre","slug":"209-icre-si-salata-de-icre","selected":false},{"name":"Specialități de pește","slug":"210-specialitati-de-peste","selected":false}],"children":[{"name":"Toate produsele","slug":"205-mici-si-specialitati","selected":true},{"name":"Mici","slug":"20501-mici","selected":false},{"name":"Frigărui","slug":"20502-frigarui","selected":false},{"name":"Cârnați","slug":"20504-carnati-traditionali","selected":false},{"name":"Specialități afumate","slug":"20505-specialitati-traditionale-afumate","selected":false},{"name":"Specialități marinate","slug":"20506-specialitati-traditionate-marinate","selected":false}],"products":[{"code":"100134194","variantCode":"100134194","name":"Mici de porc și vită 1000g","slug":"100134194-peris-mici-de-porc-si-vita-1000g","unitPriceLabel":"20,99 Lei/kg","brand":"Periș","brandCode":"2517","brandFilterCode":"peris-b2519","sku":"100134194","price":20.99,"originalPrice":24.99,"currencyCode":"RON","currency":"Lei","image":{"thumbnail":{"default":"https://cdn.freshful.ro/media/cache/sylius_shop_product_thumbnail/f2/5c/516b4abed550e0faf573fde91e2e.jpg"},"large":{"default":"https://cdn.freshful.ro/media/cache/freshful_large/f2/5c/516b4abed550e0faf573fde91e2e.jpg"},"extralarge":{"default":"https://cdn.freshful.ro/media/cache/sylius_shop_product_original/f2/5c/516b4abed550e0faf573fde91e2e.jpg"}},"label":{"text":"-16%","backgroundColor":"#FF9903","textColor":"#FFFFFF"},"tags":[{"type":"MadeInRomania","text":"Made In Romania","icon":"https://cdn.freshful.ro/assets/product_tags/made_in_romania.svg","iconPng":"https://cdn.freshful.ro/assets/product_tags/made_in_romania.png","backgroundColor":"#EDF2FD","textColor":"#1653CA"}],"isAvailable":true,"maxAvailableQuantity":53,"maxAllowedQuantity":100,"breadcrumbs":[{"code":"2","name":"Carne & pește","slug":"2-carne-si-peste"},{"code":"205","name":"Mici și specialități","slug":"205-mici-si-specialitati"},{"code":"20501","name":"Mici","slug":"20501-mici"},{"code":"100134194","name":"Mici de porc și vită 1000g","slug":"100134194-peris-mici-de-porc-si-vita-1000g"}],"activePromotion":{"code":"bunatatile-saptamanii-cw0923","name":"Preț redus","targetQuantity":null},"saveMe":null,"labels":[{"type":"v1","items":[{"text":"-16%","backgroundColor":"#FF9903","textColor":"#FFFFFF"}]}],"geniusPrice":null,"geniusUnitPricePerLabel":null,"banner":{"text":"Super preț","textColor":"#FF0000","bgColor":"#FFF2EC","icon":null,"link":"https://www.freshful.ro/oferte/bunatatile-saptamanii-cw0923","type":"promo","analyticsEventType":"select_promotion","analyticsEventPayload":{"promotion_id":"bunatatile-saptamanii-cw0923","promotion_name":"Oferta proaspătă a săptămânii"}},"discountLabel":"Economisești 16%","geniusDiscountLabel":null,"badge":null},{"code":"100150618","variantCode":"100150618","name":"Cârnăciori pentru bere 350g","slug":"100150618-peris-carnaciori-pentru-bere-350g","unitPriceLabel":"33,11 Lei/kg","brand":"Periș","brandCode":"2517","brandFilterCode":"peris-b2519","sku":"100150618","price":11.59,"originalPrice":14.59,"currencyCode":"RON","currency":"Lei","image":{"thumbnail":{"default":"https://cdn.freshful.ro/media/cache/sylius_shop_product_thumbnail/e1/b6/ffbf7e42d0fce08e16ea990f67aa.jpg"},"large":{"default":"https://cdn.freshful.ro/media/cache/freshful_large/e1/b6/ffbf7e42d0fce08e16ea990f67aa.jpg"},"extralarge":{"default":"https://cdn.freshful.ro/media/cache/sylius_shop_product_original/e1/b6/ffbf7e42d0fce08e16ea990f67aa.jpg"}},"label":{"text":"-20%","backgroundColor":"#FF9903","textColor":"#FFFFFF"},"tags":[{"type":"MadeInRomania","text":"Made In Romania","icon":"https://cdn.freshful.ro/assets/product_tags/made_in_romania.svg","iconPng":"https://cdn.freshful.ro/assets/product_tags/made_in_romania.png","backgroundColor":"#EDF2FD","textColor":"#1653CA"}],"isAvailable":true,"maxAvailableQuantity":10,"maxAllowedQuantity":100,"breadcrumbs":[{"code":"2","name":"Carne & pește","slug":"2-carne-si-peste"},{"code":"205","name":"Mici și specialități","slug":"205-mici-si-specialitati"},{"code":"20504","name":"Cârnați","slug":"20504-carnati-traditionali"},{"code":"100150618","name":"Cârnăciori pentru bere 350g","slug":"100150618-peris-carnaciori-pentru-bere-350g"}],"activePromotion":{"code":"bunatatile-saptamanii-cw0923","name":"Preț redus","targetQuantity":null},"saveMe":null,"labels":[{"type":"v1","items":[{"text":"-20%","backgroundColor":"#FF9903","textColor":"#FFFFFF"}]}],"geniusPrice":null,"geniusUnitPricePerLabel":null,"banner":{"text":"Super preț","textColor":"#FF0000","bgColor":"#FFF2EC","icon":null,"link":"https://www.freshful.ro/oferte/bunatatile-saptamanii-cw0923","type":"promo","analyticsEventType":"select_promotion","analyticsEventPayload":{"promotion_id":"bunatatile-saptamanii-cw0923","promotion_name":"Oferta proaspătă a săptămânii"}},"discountLabel":"Economisești 20%","geniusDiscountLabel":null,"badge":null},{"code":"100150702","variantCode":"100150702","name":"Cârnați de Pleșcoi 250g","slug":"100150702-wau-carnati-de-plescoi-250g","unitPriceLabel":"63,96 Lei/kg","brand":"Wau","brandCode":"171","brandFilterCode":"wau-b172","sku":"100150702","price":15.99,"originalPrice":18.98,"currencyCode":"RON","currency":"Lei","image":{"thumbnail":{"default":"https://cdn.freshful.ro/media/cache/sylius_shop_product_thumbnail/88/90/d8dc95b206c012cec60137931a69.jpg"},"large":{"default":"https://cdn.freshful.ro/media/cache/freshful_large/88/90/d8dc95b206c012cec60137931a69.jpg"},"extralarge":{"default":"https://cdn.freshful.ro/media/cache/sylius_shop_product_original/88/90/d8dc95b206c012cec60137931a69.jpg"}},"label":{"text":"-15%","backgroundColor":"#FF9903","textColor":"#FFFFFF"},"tags":[{"type":"NoE","text":"Fara E-uri","icon":"https://cdn.freshful.ro/assets/product_tags/fara_euri.svg","iconPng":"https://cdn.freshful.ro/assets/product_tags/fara_euri.png","backgroundColor":"#FCF5DF","textColor":"#CAA316"},{"type":"NoPreservatives","text":"Fara conservanti","icon":"https://cdn.freshful.ro/assets/product_tags/fara_conservanti.svg","iconPng":"https://cdn.freshful.ro/assets/product_tags/fara_conservanti.png","backgroundColor":"#F0F2FF","textColor":"#7889DD"}],"isAvailable":true,"maxAvailableQuantity":86,"maxAllowedQuantity":100,"breadcrumbs":[{"code":"2","name":"Carne & pește","slug":"2-carne-si-peste"},{"code":"205","name":"Mici și specialități","slug":"205-mici-si-specialitati"},{"code":"20504","name":"Cârnați","slug":"20504-carnati-traditionali"},{"code":"100150702","name":"Cârnați de Pleșcoi 250g","slug":"100150702-wau-carnati-de-plescoi-250g"}],"activePromotion":{"code":"bunatatile-saptamanii-cw0923","name":"Preț redus","targetQuantity":null},"saveMe":null,"labels":[{"type":"v1","items":[{"text":"-15%","backgroundColor":"#FF9903","textColor":"#FFFFFF"}]}],"geniusPrice":null,"geniusUnitPricePerLabel":null,"banner":{"text":"Super preț","textColor":"#FF0000","bgColor":"#FFF2EC","icon":null,"link":"https://www.freshful.ro/oferte/bunatatile-saptamanii-cw0923","type":"promo","analyticsEventType":"select_promotion","analyticsEventPayload":{"promotion_id":"bunatatile-saptamanii-cw0923","promotion_name":"Oferta proaspătă a săptămânii"}},"discountLabel":"Economisești 15%","geniusDiscountLabel":null,"badge":null},{"code":"100150700","variantCode":"100150700","name":"Pastramă afumată de oaie 250g","slug":"100150700-wau-pastrama-afumata-de-oaie-250g","unitPriceLabel":"74,36 Lei/kg","brand":"Wau","brandCode":"171","brandFilterCode":"wau-b172","sku":"100150700","price":18.59,"originalPrice":21.89,"currencyCode":"RON","currency":"Lei","image":{"thumbnail":{"default":"https://cdn.freshful.ro/media/cache/sylius_shop_product_thumbnail/ba/7c/b20cfc6f37d90597f77a5f7b7ee7.jpg"},"large":{"default":"https://cdn.freshful.ro/media/cache/freshful_large/ba/7c/b20cfc6f37d90597f77a5f7b7ee7.jpg"},"extralarge":{"default":"https://cdn.freshful.ro/media/cache/sylius_shop_product_original/ba/7c/b20cfc6f37d90597f77a5f7b7ee7.jpg"}},"label":{"text":"-15%","backgroundColor":"#FF9903","textColor":"#FFFFFF"},"tags":[{"type":"NoE","text":"Fara E-uri","icon":"https://cdn.freshful.ro/assets/product_tags/fara_euri.svg","iconPng":"https://cdn.freshful.ro/assets/product_tags/fara_euri.png","backgroundColor":"#FCF5DF","textColor":"#CAA316"},{"type":"NoPreservatives","text":"Fara conservanti","icon":"https://cdn.freshful.ro/assets/product_tags/fara_conservanti.svg","iconPng":"https://cdn.freshful.ro/assets/product_tags/fara_conservanti.png","backgroundColor":"#F0F2FF","textColor":"#7889DD"}],"isAvailable":true,"maxAvailableQuantity":40,"maxAllowedQuantity":100,"breadcrumbs":[{"code":"2","name":"Carne & pește","slug":"2-carne-si-peste"},{"code":"205","name":"Mici și specialități","slug":"205-mici-si-specialitati"},{"code":"20505","name":"Specialități afumate","slug":"20505-specialitati-traditionale-afumate"},{"code":"100150700","name":"Pastramă afumată de oaie 250g","slug":"100150700-wau-pastrama-afumata-de-oaie-250g"}],"activePromotion":{"code":"bunatatile-saptamanii-cw0923","name":"Preț redus","targetQuantity":null},"saveMe":null,"labels":[{"type":"v1","items":[{"text":"-15%","backgroundColor":"#FF9903","textColor":"#FFFFFF"}]}],"geniusPrice":null,"geniusUnitPricePerLabel":null,"banner":{"text":"Super preț","textColor":"#FF0000","bgColor":"#FFF2EC","icon":null,"link":"https://www.freshful.ro/oferte/bunatatile-saptamanii-cw0923","type":"promo","analyticsEventType":"select_promotion","analyticsEventPayload":{"promotion_id":"bunatatile-saptamanii-cw0923","promotion_name":"Oferta proaspătă a săptămânii"}},"discountLabel":"Economisești 15%","geniusDiscountLabel":null,"badge":null},{"code":"100144129","variantCode":"100144129","name":"Kebab din carne de vită și oaie 250g","slug":"100144129-gurmand-apetit-kebab-din-carne-de-vita-si-oaie-250g","unitPriceLabel":"75,92 Lei/kg","brand":"Gurmand Apetit","brandCode":"993","brandFilterCode":"gurmand-apetit-b1007","sku":"100144129","price":18.98,"originalPrice":null,"currencyCode":"RON","currency":"Lei","image":{"thumbnail":{"default":"https://cdn.freshful.ro/media/cache/sylius_shop_product_thumbnail/3f/1e/dea067a30ee112028082d4e3d6f1.jpg"},"large":{"default":"https://cdn.freshful.ro/media/cache/freshful_large/3f/1e/dea067a30ee112028082d4e3d6f1.jpg"},"extralarge":{"default":"https://cdn.freshful.ro/media/cache/sylius_shop_product_original/3f/1e/dea067a30ee112028082d4e3d6f1.jpg"}},"label":null,"tags":[{"type":"MadeInRomania","text":"Made In Romania","icon":"https://cdn.freshful.ro/assets/product_tags/made_in_romania.svg","iconPng":"https://cdn.freshful.ro/assets/product_tags/made_in_romania.png","backgroundColor":"#EDF2FD","textColor":"#1653CA"}],"isAvailable":true,"maxAvailableQuantity":56,"maxAllowedQuantity":100,"breadcrumbs":[{"code":"2","name":"Carne & pește","slug":"2-carne-si-peste"},{"code":"205","name":"Mici și specialități","slug":"205-mici-si-specialitati"},{"code":"20502","name":"Frigărui","slug":"20502-frigarui"},{"code":"100144129","name":"Kebab din carne de vită și oaie 250g","slug":"100144129-gurmand-apetit-kebab-din-carne-de-vita-si-oaie-250g"}],"activePromotion":null,"saveMe":null,"labels":[],"geniusPrice":null,"geniusUnitPricePerLabel":null,"banner":null,"discountLabel":null,"geniusDiscountLabel":null,"badge":null},{"code":"100132958","variantCode":"100132958","name":"Coastă grill 400g","slug":"100132958-mos-andrei-coasta-grill-400g","unitPriceLabel":"27,48 Lei/kg","brand":"Raionul De Carne","brandCode":"2914","brandFilterCode":"raionul-de-carne-b3008","sku":"100132958","price":10.99,"originalPrice":null,"currencyCode":"RON","currency":"Lei","image":{"thumbnail":{"default":"https://cdn.freshful.ro/media/cache/sylius_shop_product_thumbnail/24/c4/263305749e9e55896f2749de6b2d.jpg"},"large":{"default":"https://cdn.freshful.ro/media/cache/freshful_large/24/c4/263305749e9e55896f2749de6b2d.jpg"},"extralarge":{"default":"https://cdn.freshful.ro/media/cache/sylius_shop_product_original/24/c4/263305749e9e55896f2749de6b2d.jpg"}},"label":{"text":"Mici producători","backgroundColor":"#7B61FF","textColor":"#FFFFFF"},"tags":[],"isAvailable":true,"maxAvailableQuantity":28,"maxAllowedQuantity":100,"breadcrumbs":[{"code":"2","name":"Carne & pește","slug":"2-carne-si-peste"},{"code":"205","name":"Mici și specialități","slug":"205-mici-si-specialitati"},{"code":"20506","name":"Specialități marinate","slug":"20506-specialitati-traditionate-marinate"},{"code":"100132958","name":"Coastă grill 400g","slug":"100132958-mos-andrei-coasta-grill-400g"}],"activePromotion":null,"saveMe":null,"labels":[{"type":"v1","items":[{"text":"Mici producători","backgroundColor":"#7B61FF","textColor":"#FFFFFF"}]}],"geniusPrice":null,"geniusUnitPricePerLabel":null,"banner":null,"discountLabel":null,"geniusDiscountLabel":null,"badge":null},{"code":"100148264","variantCode":"100148264","name":"Cârnați Stick Mangaliță 130g","slug":"100148264-szekely-falat-carnati-stick-mangalita-130g","unitPriceLabel":"107,62 Lei/kg","brand":"Székely falat","brandCode":"998","brandFilterCode":"szekely-falat-b1012","sku":"100148264","price":13.99,"originalPrice":null,"currencyCode":"RON","currency":"Lei","image":{"thumbnail":{"default":"https://cdn.freshful.ro/media/cache/sylius_shop_product_thumbnail/83/ea/aca54c5e04d2020a0ce59122985d.jpg"},"large":{"default":"https://cdn.freshful.ro/media/cache/freshful_large/83/ea/aca54c5e04d2020a0ce59122985d.jpg"},"extralarge":{"default":"https://cdn.freshful.ro/media/cache/sylius_shop_product_original/83/ea/aca54c5e04d2020a0ce59122985d.jpg"}},"label":null,"tags":[{"type":"NoE","text":"Fara E-uri","icon":"https://cdn.freshful.ro/assets/product_tags/fara_euri.svg","iconPng":"https://cdn.freshful.ro/assets/product_tags/fara_euri.png","backgroundColor":"#FCF5DF","textColor":"#CAA316"}],"isAvailable":true,"maxAvailableQuantity":100,"maxAllowedQuantity":100,"breadcrumbs":[{"code":"2","name":"Carne & pește","slug":"2-carne-si-peste"},{"code":"205","name":"Mici și specialități","slug":"205-mici-si-specialitati"},{"code":"20505","name":"Specialități afumate","slug":"20505-specialitati-traditionale-afumate"},{"code":"100148264","name":"Cârnați Stick Mangaliță 130g","slug":"100148264-szekely-falat-carnati-stick-mangalita-130g"}],"activePromotion":null,"saveMe":null,"labels":[],"geniusPrice":null,"geniusUnitPricePerLabel":null,"banner":null,"discountLabel":null,"geniusDiscountLabel":null,"badge":null},{"code":"100064800","variantCode":"5941904200385","name":"Jambon Mangaliță 100g","slug":"100064800-szekely-falat-jambon-mangalita-100g","unitPriceLabel":"166,1 Lei/kg","brand":"Székely falat","brandCode":"998","brandFilterCode":"szekely-falat-b1012","sku":"100064800","price":16.61,"originalPrice":null,"currencyCode":"RON","currency":"Lei","image":{"thumbnail":{"default":"https://cdn.freshful.ro/media/cache/sylius_shop_product_thumbnail/fd/ca/dedd47d23d466b03e7b127ea1e48.jpg"},"large":{"default":"https://cdn.freshful.ro/media/cache/freshful_large/fd/ca/dedd47d23d466b03e7b127ea1e48.jpg"},"extralarge":{"default":"https://cdn.freshful.ro/media/cache/sylius_shop_product_original/fd/ca/dedd47d23d466b03e7b127ea1e48.jpg"}},"label":null,"tags":[{"type":"NoE","text":"Fara E-uri","icon":"https://cdn.freshful.ro/assets/product_tags/fara_euri.svg","iconPng":"https://cdn.freshful.ro/assets/product_tags/fara_euri.png","backgroundColor":"#FCF5DF","textColor":"#CAA316"}],"isAvailable":true,"maxAvailableQuantity":10,"maxAllowedQuantity":100,"breadcrumbs":[{"code":"2","name":"Carne & pește","slug":"2-carne-si-peste"},{"code":"205","name":"Mici și specialități","slug":"205-mici-si-specialitati"},{"code":"20505","name":"Specialități afumate","slug":"20505-specialitati-traditionale-afumate"},{"code":"100064800","name":"Jambon Mangaliță 100g","slug":"100064800-szekely-falat-jambon-mangalita-100g"}],"activePromotion":null,"saveMe":null,"labels":[],"geniusPrice":null,"geniusUnitPricePerLabel":null,"banner":null,"discountLabel":null,"geniusDiscountLabel":null,"badge":null},{"code":"100133358","variantCode":"100133358","name":"Cocorici Mediteraneeni 195g","slug":"100133358-cocorico-cocorici-mediteraneeni-195g","unitPriceLabel":"35,85 Lei/kg","brand":"Cocorico","brandCode":"211","brandFilterCode":"cocorico-b212","sku":"100133358","price":6.99,"originalPrice":null,"currencyCode":"RON","currency":"Lei","image":{"thumbnail":{"default":"https://cdn.freshful.ro/media/cache/sylius_shop_product_thumbnail/b8/a7/9dfa68d5432049388ceb39c4e941.jpg"},"large":{"default":"https://cdn.freshful.ro/media/cache/freshful_large/b8/a7/9dfa68d5432049388ceb39c4e941.jpg"},"extralarge":{"default":"https://cdn.freshful.ro/media/cache/sylius_shop_product_original/b8/a7/9dfa68d5432049388ceb39c4e941.jpg"}},"label":null,"tags":[{"type":"NoGluten","text":"Fara gluten","icon":"https://cdn.freshful.ro/assets/product_tags/fara_gluten.svg","iconPng":"https://cdn.freshful.ro/assets/product_tags/fara_gluten.png","backgroundColor":"#FFF2E5","textColor":"#F07900"},{"type":"NoPreservatives","text":"Fara conservanti","icon":"https://cdn.freshful.ro/assets/product_tags/fara_conservanti.svg","iconPng":"https://cdn.freshful.ro/assets/product_tags/fara_conservanti.png","backgroundColor":"#F0F2FF","textColor":"#7889DD"}],"isAvailable":true,"maxAvailableQuantity":19,"maxAllowedQuantity":100,"breadcrumbs":[{"code":"2","name":"Carne & pește","slug":"2-carne-si-peste"},{"code":"205","name":"Mici și specialități","slug":"205-mici-si-specialitati"},{"code":"20504","name":"Cârnați","slug":"20504-carnati-traditionali"},{"code":"100133358","name":"Cocorici Mediteraneeni 195g","slug":"100133358-cocorico-cocorici-mediteraneeni-195g"}],"activePromotion":null,"saveMe":null,"labels":[],"geniusPrice":null,"geniusUnitPricePerLabel":null,"banner":null,"discountLabel":null,"geniusDiscountLabel":null,"badge":null},{"code":"100133254","variantCode":"100133254","name":"Cârnăciori de porc 500g","slug":"100133254-peris-carnaciori-de-porc-500g","unitPriceLabel":"29,98 Lei/kg","brand":"Periș","brandCode":"2517","brandFilterCode":"peris-b2519","sku":"100133254","price":14.99,"originalPrice":null,"currencyCode":"RON","currency":"Lei","image":{"thumbnail":{"default":"https://cdn.freshful.ro/media/cache/sylius_shop_product_thumbnail/a1/04/4a1b42287e225b43fe7b83132418.jpg"},"large":{"default":"https://cdn.freshful.ro/media/cache/freshful_large/a1/04/4a1b42287e225b43fe7b83132418.jpg"},"extralarge":{"default":"https://cdn.freshful.ro/media/cache/sylius_shop_product_original/a1/04/4a1b42287e225b43fe7b83132418.jpg"}},"label":null,"tags":[{"type":"MadeInRomania","text":"Made In Romania","icon":"https://cdn.freshful.ro/assets/product_tags/made_in_romania.svg","iconPng":"https://cdn.freshful.ro/assets/product_tags/made_in_romania.png","backgroundColor":"#EDF2FD","textColor":"#1653CA"}],"isAvailable":true,"maxAvailableQuantity":1,"maxAllowedQuantity":100,"breadcrumbs":[{"code":"2","name":"Carne & pește","slug":"2-carne-si-peste"},{"code":"205","name":"Mici și specialități","slug":"205-mici-si-specialitati"},{"code":"20504","name":"Cârnați","slug":"20504-carnati-traditionali"},{"code":"100133254","name":"Cârnăciori de porc 500g","slug":"100133254-peris-carnaciori-de-porc-500g"}],"activePromotion":null,"saveMe":null,"labels":[],"geniusPrice":null,"geniusUnitPricePerLabel":null,"banner":null,"discountLabel":null,"geniusDiscountLabel":null,"badge":null}],"filters":{"countSelected":0,"items":[{"code":"promotion","name":"Promoții","countSelected":0,"values":[{"code":"bunatatile-saptamanii-cw0923","name":"Oferta proaspătă a săptămânii","isSelected":false,"count":5}]},{"code":"brand","name":"Brand","countSelected":0,"values":[{"code":"bunatati-de-pe-valea-buzaului-b3072","name":"Bunătăți de pe Valea Buzăului","isSelected":false,"count":7},{"code":"cocorico-b212","name":"Cocorico","isSelected":false,"count":3},{"code":"copioso-b235","name":"Copioso","isSelected":false,"count":2},{"code":"diana-b356","name":"Diana","isSelected":false,"count":2},{"code":"fezandate-de-mosie-b2350","name":"Fezandate de Moșie","isSelected":false,"count":6},{"code":"gurmand-apetit-b1007","name":"Gurmand Apetit","isSelected":false,"count":4},{"code":"kravys-b2489","name":"Kravys","isSelected":false,"count":1},{"code":"meat-revolution-b190","name":"Meat Revolution","isSelected":false,"count":3},{"code":"meatic-bbq-b2688","name":"MEATic BBq","isSelected":false,"count":3},{"code":"ograda-cu-struti-b1174","name":"Ograda cu Struți","isSelected":false,"count":1},{"code":"peris-b2519","name":"Periș","isSelected":false,"count":11},{"code":"raionul-de-carne-b3008","name":"Raionul De Carne","isSelected":false,"count":10},{"code":"samcom-b2514","name":"Samcom","isSelected":false,"count":1},{"code":"szekely-falat-b1012","name":"Székely falat","isSelected":false,"count":19},{"code":"tataran-b1638","name":"Tătăran","isSelected":false,"count":11},{"code":"wau-b172","name":"Wau","isSelected":false,"count":8},{"code":"zimbria-b206","name":"Zimbria","isSelected":false,"count":13}]},{"code":"diet_lifestyle","name":"Dietă și lifestyle","countSelected":0,"values":[{"code":"fara-conservanti-a37","name":"Fara conservanti","isSelected":false,"count":8},{"code":"fara-e-uri-a84","name":"Fara E-uri","isSelected":false,"count":24},{"code":"fara-gluten-a16","name":"Fara gluten","isSelected":false,"count":3},{"code":"made-in-romania-a85","name":"Made In Romania","isSelected":false,"count":43},{"code":"natural-a27","name":"Natural","isSelected":false,"count":11}]}]},"orderBy":[{"field":"price","direction":"asc","name":"Preț crescător","isSelected":false},{"field":"price","direction":"desc","name":"Preț descrescător","isSelected":false},{"field":"popularity","direction":"desc","name":"Cele mai populare","isSelected":true},{"field":"category","direction":"asc","name":"Categorie","isSelected":false}],"metaTitle":"Mici și specialități - Gamă variată","metaDescription":"Vrei Mici și specialități? Alege dintr-o gamă variată. Comanzi simplu și ai livrare rapidă, calitate și prospețime. Hai pe Freshful.ro","metaKeywords":null,"banners":[]}}