{"type":"subcategory","payload":{"analyticsListId":"category_20505-specialitati-traditionale-afumate","analyticsListName":"Category - Specialități afumate","name":"Specialități afumate","slug":"20505-specialitati-traditionale-afumate","image":null,"breadcrumbs":[{"code":"2","name":"Carne & pește","slug":"2-carne-si-peste"},{"code":"205","name":"Mici și specialități","slug":"205-mici-si-specialitati"},{"code":"20505","name":"Specialități afumate","slug":"20505-specialitati-traditionale-afumate"}],"slots":[],"page":1,"limit":10,"pages":6,"count":55,"siblings":[{"name":"Carne de vită și oaie","slug":"201-carne-de-vita-si-oaie","selected":false},{"name":"Carne de porc","slug":"202-carne-de-porc","selected":false},{"name":"Carne de pasăre","slug":"203-carne-de-pasare","selected":false},{"name":"Alte cărnuri","slug":"204-alte-carnuri","selected":false},{"name":"Mici și specialități","slug":"205-mici-si-specialitati","selected":true},{"name":"Pește și sushi","slug":"206-peste-si-sushi","selected":false},{"name":"Pește afumat","slug":"207-peste-afumat","selected":false},{"name":"Pește marinat","slug":"208-peste-marinat","selected":false},{"name":"Icre și salată de icre","slug":"209-icre-si-salata-de-icre","selected":false},{"name":"Specialități de pește","slug":"210-specialitati-de-peste","selected":false}],"children":[{"name":"Toate produsele","slug":"205-mici-si-specialitati","selected":false},{"name":"Mici","slug":"20501-mici","selected":false},{"name":"Frigărui","slug":"20502-frigarui","selected":false},{"name":"Cârnați","slug":"20504-carnati-traditionali","selected":false},{"name":"Specialități afumate","slug":"20505-specialitati-traditionale-afumate","selected":true},{"name":"Specialități marinate","slug":"20506-specialitati-traditionate-marinate","selected":false}],"products":[{"code":"100150700","variantCode":"100150700","name":"Pastramă afumată de oaie 250g","slug":"100150700-wau-pastrama-afumata-de-oaie-250g","unitPriceLabel":"74,36 Lei/kg","brand":"Wau","brandCode":"171","brandFilterCode":"wau-b172","sku":"100150700","price":18.59,"originalPrice":21.89,"currencyCode":"RON","currency":"Lei","image":{"thumbnail":{"default":"https://cdn.freshful.ro/media/cache/sylius_shop_product_thumbnail/ba/7c/b20cfc6f37d90597f77a5f7b7ee7.jpg"},"large":{"default":"https://cdn.freshful.ro/media/cache/freshful_large/ba/7c/b20cfc6f37d90597f77a5f7b7ee7.jpg"},"extralarge":{"default":"https://cdn.freshful.ro/media/cache/sylius_shop_product_original/ba/7c/b20cfc6f37d90597f77a5f7b7ee7.jpg"}},"label":{"text":"-15%","backgroundColor":"#FF9903","textColor":"#FFFFFF"},"tags":[{"type":"NoE","text":"Fara E-uri","icon":"https://cdn.freshful.ro/assets/product_tags/fara_euri.svg","iconPng":"https://cdn.freshful.ro/assets/product_tags/fara_euri.png","backgroundColor":"#FCF5DF","textColor":"#CAA316"},{"type":"NoPreservatives","text":"Fara conservanti","icon":"https://cdn.freshful.ro/assets/product_tags/fara_conservanti.svg","iconPng":"https://cdn.freshful.ro/assets/product_tags/fara_conservanti.png","backgroundColor":"#F0F2FF","textColor":"#7889DD"}],"isAvailable":true,"maxAvailableQuantity":40,"maxAllowedQuantity":100,"breadcrumbs":[{"code":"2","name":"Carne & pește","slug":"2-carne-si-peste"},{"code":"205","name":"Mici și specialități","slug":"205-mici-si-specialitati"},{"code":"20505","name":"Specialități afumate","slug":"20505-specialitati-traditionale-afumate"},{"code":"100150700","name":"Pastramă afumată de oaie 250g","slug":"100150700-wau-pastrama-afumata-de-oaie-250g"}],"activePromotion":{"code":"bunatatile-saptamanii-cw0923","name":"Preț redus","targetQuantity":null},"saveMe":null,"labels":[{"type":"v1","items":[{"text":"-15%","backgroundColor":"#FF9903","textColor":"#FFFFFF"}]}],"geniusPrice":null,"geniusUnitPricePerLabel":null,"banner":{"text":"Super preț","textColor":"#FF0000","bgColor":"#FFF2EC","icon":null,"link":"https://www.freshful.ro/oferte/bunatatile-saptamanii-cw0923","type":"promo","analyticsEventType":"select_promotion","analyticsEventPayload":{"promotion_id":"bunatatile-saptamanii-cw0923","promotion_name":"Oferta proaspătă a săptămânii"}},"discountLabel":"Economisești 15%","geniusDiscountLabel":null,"badge":null},{"code":"100148264","variantCode":"100148264","name":"Cârnați Stick Mangaliță 130g","slug":"100148264-szekely-falat-carnati-stick-mangalita-130g","unitPriceLabel":"107,62 Lei/kg","brand":"Székely falat","brandCode":"998","brandFilterCode":"szekely-falat-b1012","sku":"100148264","price":13.99,"originalPrice":null,"currencyCode":"RON","currency":"Lei","image":{"thumbnail":{"default":"https://cdn.freshful.ro/media/cache/sylius_shop_product_thumbnail/83/ea/aca54c5e04d2020a0ce59122985d.jpg"},"large":{"default":"https://cdn.freshful.ro/media/cache/freshful_large/83/ea/aca54c5e04d2020a0ce59122985d.jpg"},"extralarge":{"default":"https://cdn.freshful.ro/media/cache/sylius_shop_product_original/83/ea/aca54c5e04d2020a0ce59122985d.jpg"}},"label":null,"tags":[{"type":"NoE","text":"Fara E-uri","icon":"https://cdn.freshful.ro/assets/product_tags/fara_euri.svg","iconPng":"https://cdn.freshful.ro/assets/product_tags/fara_euri.png","backgroundColor":"#FCF5DF","textColor":"#CAA316"}],"isAvailable":true,"maxAvailableQuantity":100,"maxAllowedQuantity":100,"breadcrumbs":[{"code":"2","name":"Carne & pește","slug":"2-carne-si-peste"},{"code":"205","name":"Mici și specialități","slug":"205-mici-si-specialitati"},{"code":"20505","name":"Specialități afumate","slug":"20505-specialitati-traditionale-afumate"},{"code":"100148264","name":"Cârnați Stick Mangaliță 130g","slug":"100148264-szekely-falat-carnati-stick-mangalita-130g"}],"activePromotion":null,"saveMe":null,"labels":[],"geniusPrice":null,"geniusUnitPricePerLabel":null,"banner":null,"discountLabel":null,"geniusDiscountLabel":null,"badge":null},{"code":"100064800","variantCode":"5941904200385","name":"Jambon Mangaliță 100g","slug":"100064800-szekely-falat-jambon-mangalita-100g","unitPriceLabel":"166,1 Lei/kg","brand":"Székely falat","brandCode":"998","brandFilterCode":"szekely-falat-b1012","sku":"100064800","price":16.61,"originalPrice":null,"currencyCode":"RON","currency":"Lei","image":{"thumbnail":{"default":"https://cdn.freshful.ro/media/cache/sylius_shop_product_thumbnail/fd/ca/dedd47d23d466b03e7b127ea1e48.jpg"},"large":{"default":"https://cdn.freshful.ro/media/cache/freshful_large/fd/ca/dedd47d23d466b03e7b127ea1e48.jpg"},"extralarge":{"default":"https://cdn.freshful.ro/media/cache/sylius_shop_product_original/fd/ca/dedd47d23d466b03e7b127ea1e48.jpg"}},"label":null,"tags":[{"type":"NoE","text":"Fara E-uri","icon":"https://cdn.freshful.ro/assets/product_tags/fara_euri.svg","iconPng":"https://cdn.freshful.ro/assets/product_tags/fara_euri.png","backgroundColor":"#FCF5DF","textColor":"#CAA316"}],"isAvailable":true,"maxAvailableQuantity":10,"maxAllowedQuantity":100,"breadcrumbs":[{"code":"2","name":"Carne & pește","slug":"2-carne-si-peste"},{"code":"205","name":"Mici și specialități","slug":"205-mici-si-specialitati"},{"code":"20505","name":"Specialități afumate","slug":"20505-specialitati-traditionale-afumate"},{"code":"100064800","name":"Jambon Mangaliță 100g","slug":"100064800-szekely-falat-jambon-mangalita-100g"}],"activePromotion":null,"saveMe":null,"labels":[],"geniusPrice":null,"geniusUnitPricePerLabel":null,"banner":null,"discountLabel":null,"geniusDiscountLabel":null,"badge":null},{"code":"100036899","variantCode":"100036899","name":"Costiță afumată Ilinca 290g","slug":"100036899-zimbria-costita-afumata-ilinca-290g","unitPriceLabel":"131 Lei/kg","brand":"Zimbria","brandCode":"205","brandFilterCode":"zimbria-b206","sku":"100036899","price":37.99,"originalPrice":null,"currencyCode":"RON","currency":"Lei","image":{"thumbnail":{"default":"https://cdn.freshful.ro/media/cache/sylius_shop_product_thumbnail/b3/0d/80c7cfb8a576a53653baba475eec.jpg"},"large":{"default":"https://cdn.freshful.ro/media/cache/freshful_large/b3/0d/80c7cfb8a576a53653baba475eec.jpg"},"extralarge":{"default":"https://cdn.freshful.ro/media/cache/sylius_shop_product_original/b3/0d/80c7cfb8a576a53653baba475eec.jpg"}},"label":{"text":"Mici producători","backgroundColor":"#7B61FF","textColor":"#FFFFFF"},"tags":[{"type":"MadeInRomania","text":"Made In Romania","icon":"https://cdn.freshful.ro/assets/product_tags/made_in_romania.svg","iconPng":"https://cdn.freshful.ro/assets/product_tags/made_in_romania.png","backgroundColor":"#EDF2FD","textColor":"#1653CA"}],"isAvailable":true,"maxAvailableQuantity":33,"maxAllowedQuantity":100,"breadcrumbs":[{"code":"2","name":"Carne & pește","slug":"2-carne-si-peste"},{"code":"205","name":"Mici și specialități","slug":"205-mici-si-specialitati"},{"code":"20505","name":"Specialități afumate","slug":"20505-specialitati-traditionale-afumate"},{"code":"100036899","name":"Costiță afumată Ilinca 290g","slug":"100036899-zimbria-costita-afumata-ilinca-290g"}],"activePromotion":null,"saveMe":null,"labels":[{"type":"v1","items":[{"text":"Mici producători","backgroundColor":"#7B61FF","textColor":"#FFFFFF"}]}],"geniusPrice":null,"geniusUnitPricePerLabel":null,"banner":null,"discountLabel":null,"geniusDiscountLabel":null,"badge":null},{"code":"100148263","variantCode":"100148263","name":"Mușchi Haiducesc, felii 100g","slug":"100148263-szekely-falat-muschi-haiducesc-felii-100g","unitPriceLabel":"159,9 Lei/kg","brand":"Székely falat","brandCode":"998","brandFilterCode":"szekely-falat-b1012","sku":"100148263","price":15.99,"originalPrice":null,"currencyCode":"RON","currency":"Lei","image":{"thumbnail":{"default":"https://cdn.freshful.ro/media/cache/sylius_shop_product_thumbnail/77/85/3bf934bb583a58bbd44a2d6c8b4d.jpg"},"large":{"default":"https://cdn.freshful.ro/media/cache/freshful_large/77/85/3bf934bb583a58bbd44a2d6c8b4d.jpg"},"extralarge":{"default":"https://cdn.freshful.ro/media/cache/sylius_shop_product_original/77/85/3bf934bb583a58bbd44a2d6c8b4d.jpg"}},"label":null,"tags":[{"type":"NoE","text":"Fara E-uri","icon":"https://cdn.freshful.ro/assets/product_tags/fara_euri.svg","iconPng":"https://cdn.freshful.ro/assets/product_tags/fara_euri.png","backgroundColor":"#FCF5DF","textColor":"#CAA316"}],"isAvailable":true,"maxAvailableQuantity":39,"maxAllowedQuantity":100,"breadcrumbs":[{"code":"2","name":"Carne & pește","slug":"2-carne-si-peste"},{"code":"205","name":"Mici și specialități","slug":"205-mici-si-specialitati"},{"code":"20505","name":"Specialități afumate","slug":"20505-specialitati-traditionale-afumate"},{"code":"100148263","name":"Mușchi Haiducesc, felii 100g","slug":"100148263-szekely-falat-muschi-haiducesc-felii-100g"}],"activePromotion":null,"saveMe":null,"labels":[],"geniusPrice":null,"geniusUnitPricePerLabel":null,"banner":null,"discountLabel":null,"geniusDiscountLabel":null,"badge":null},{"code":"100036912","variantCode":"100036912","name":"Cotlet haiducesc a lui Zamfir 290g","slug":"100036912-zimbria-cotlet-haiducesc-a-lui-zamfir-290g","unitPriceLabel":"127,55 Lei/kg","brand":"Zimbria","brandCode":"205","brandFilterCode":"zimbria-b206","sku":"100036912","price":36.99,"originalPrice":null,"currencyCode":"RON","currency":"Lei","image":{"thumbnail":{"default":"https://cdn.freshful.ro/media/cache/sylius_shop_product_thumbnail/c2/75/05fb102b23152aaa0d5e1b1c3eb4.jpg"},"large":{"default":"https://cdn.freshful.ro/media/cache/freshful_large/c2/75/05fb102b23152aaa0d5e1b1c3eb4.jpg"},"extralarge":{"default":"https://cdn.freshful.ro/media/cache/sylius_shop_product_original/c2/75/05fb102b23152aaa0d5e1b1c3eb4.jpg"}},"label":{"text":"Mici producători","backgroundColor":"#7B61FF","textColor":"#FFFFFF"},"tags":[{"type":"MadeInRomania","text":"Made In Romania","icon":"https://cdn.freshful.ro/assets/product_tags/made_in_romania.svg","iconPng":"https://cdn.freshful.ro/assets/product_tags/made_in_romania.png","backgroundColor":"#EDF2FD","textColor":"#1653CA"}],"isAvailable":true,"maxAvailableQuantity":50,"maxAllowedQuantity":100,"breadcrumbs":[{"code":"2","name":"Carne & pește","slug":"2-carne-si-peste"},{"code":"205","name":"Mici și specialități","slug":"205-mici-si-specialitati"},{"code":"20505","name":"Specialități afumate","slug":"20505-specialitati-traditionale-afumate"},{"code":"100036912","name":"Cotlet haiducesc a lui Zamfir 290g","slug":"100036912-zimbria-cotlet-haiducesc-a-lui-zamfir-290g"}],"activePromotion":null,"saveMe":null,"labels":[{"type":"v1","items":[{"text":"Mici producători","backgroundColor":"#7B61FF","textColor":"#FFFFFF"}]}],"geniusPrice":null,"geniusUnitPricePerLabel":null,"banner":null,"discountLabel":null,"geniusDiscountLabel":null,"badge":null},{"code":"100148257","variantCode":"100148257","name":"Untură Mangaliță 450g","slug":"100148257-szekely-falat-untura-mangalita-450g","unitPriceLabel":"30,2 Lei/kg","brand":"Székely falat","brandCode":"998","brandFilterCode":"szekely-falat-b1012","sku":"100148257","price":13.59,"originalPrice":null,"currencyCode":"RON","currency":"Lei","image":{"thumbnail":{"default":"https://cdn.freshful.ro/media/cache/sylius_shop_product_thumbnail/07/cf/f4807db111c4fed2e1b12bdbceb4.jpg"},"large":{"default":"https://cdn.freshful.ro/media/cache/freshful_large/07/cf/f4807db111c4fed2e1b12bdbceb4.jpg"},"extralarge":{"default":"https://cdn.freshful.ro/media/cache/sylius_shop_product_original/07/cf/f4807db111c4fed2e1b12bdbceb4.jpg"}},"label":null,"tags":[{"type":"NoE","text":"Fara E-uri","icon":"https://cdn.freshful.ro/assets/product_tags/fara_euri.svg","iconPng":"https://cdn.freshful.ro/assets/product_tags/fara_euri.png","backgroundColor":"#FCF5DF","textColor":"#CAA316"}],"isAvailable":true,"maxAvailableQuantity":46,"maxAllowedQuantity":100,"breadcrumbs":[{"code":"2","name":"Carne & pește","slug":"2-carne-si-peste"},{"code":"205","name":"Mici și specialități","slug":"205-mici-si-specialitati"},{"code":"20505","name":"Specialități afumate","slug":"20505-specialitati-traditionale-afumate"},{"code":"100148257","name":"Untură Mangaliță 450g","slug":"100148257-szekely-falat-untura-mangalita-450g"}],"activePromotion":null,"saveMe":null,"labels":[],"geniusPrice":null,"geniusUnitPricePerLabel":null,"banner":null,"discountLabel":null,"geniusDiscountLabel":null,"badge":null},{"code":"100150697","variantCode":"100150697","name":"Babic 200g","slug":"100150697-wau-babic-200g","unitPriceLabel":"117,45 Lei/kg","brand":"Wau","brandCode":"171","brandFilterCode":"wau-b172","sku":"100150697","price":23.49,"originalPrice":null,"currencyCode":"RON","currency":"Lei","image":{"thumbnail":{"default":"https://cdn.freshful.ro/media/cache/sylius_shop_product_thumbnail/8d/89/108f00a171fdeeb9361505a3b261.jpg"},"large":{"default":"https://cdn.freshful.ro/media/cache/freshful_large/8d/89/108f00a171fdeeb9361505a3b261.jpg"},"extralarge":{"default":"https://cdn.freshful.ro/media/cache/sylius_shop_product_original/8d/89/108f00a171fdeeb9361505a3b261.jpg"}},"label":null,"tags":[],"isAvailable":true,"maxAvailableQuantity":25,"maxAllowedQuantity":100,"breadcrumbs":[{"code":"2","name":"Carne & pește","slug":"2-carne-si-peste"},{"code":"205","name":"Mici și specialități","slug":"205-mici-si-specialitati"},{"code":"20505","name":"Specialități afumate","slug":"20505-specialitati-traditionale-afumate"},{"code":"100150697","name":"Babic 200g","slug":"100150697-wau-babic-200g"}],"activePromotion":null,"saveMe":null,"labels":[],"geniusPrice":null,"geniusUnitPricePerLabel":null,"banner":null,"discountLabel":null,"geniusDiscountLabel":null,"badge":null},{"code":"100036920","variantCode":"100036920","name":"Cârnați de porc a lui Ignat 360g","slug":"100036920-zimbria-carnati-de-porc-a-lui-ignat-360g","unitPriceLabel":"80,53 Lei/kg","brand":"Zimbria","brandCode":"205","brandFilterCode":"zimbria-b206","sku":"100036920","price":28.99,"originalPrice":null,"currencyCode":"RON","currency":"Lei","image":{"thumbnail":{"default":"https://cdn.freshful.ro/media/cache/sylius_shop_product_thumbnail/b6/7c/d1d6ba95ceb8e0479dc7fb3e6e80.jpg"},"large":{"default":"https://cdn.freshful.ro/media/cache/freshful_large/b6/7c/d1d6ba95ceb8e0479dc7fb3e6e80.jpg"},"extralarge":{"default":"https://cdn.freshful.ro/media/cache/sylius_shop_product_original/b6/7c/d1d6ba95ceb8e0479dc7fb3e6e80.jpg"}},"label":{"text":"Mici producători","backgroundColor":"#7B61FF","textColor":"#FFFFFF"},"tags":[{"type":"MadeInRomania","text":"Made In Romania","icon":"https://cdn.freshful.ro/assets/product_tags/made_in_romania.svg","iconPng":"https://cdn.freshful.ro/assets/product_tags/made_in_romania.png","backgroundColor":"#EDF2FD","textColor":"#1653CA"}],"isAvailable":true,"maxAvailableQuantity":40,"maxAllowedQuantity":100,"breadcrumbs":[{"code":"2","name":"Carne & pește","slug":"2-carne-si-peste"},{"code":"205","name":"Mici și specialități","slug":"205-mici-si-specialitati"},{"code":"20505","name":"Specialități afumate","slug":"20505-specialitati-traditionale-afumate"},{"code":"100036920","name":"Cârnați de porc a lui Ignat 360g","slug":"100036920-zimbria-carnati-de-porc-a-lui-ignat-360g"}],"activePromotion":null,"saveMe":null,"labels":[{"type":"v1","items":[{"text":"Mici producători","backgroundColor":"#7B61FF","textColor":"#FFFFFF"}]}],"geniusPrice":null,"geniusUnitPricePerLabel":null,"banner":null,"discountLabel":null,"geniusDiscountLabel":null,"badge":null},{"code":"100148883","variantCode":"100148883","name":"Tobă extra 300g","slug":"100148883-raionul-de-carne-toba-extra-300g","unitPriceLabel":"51,63 Lei/kg","brand":"Raionul De Carne","brandCode":"2914","brandFilterCode":"raionul-de-carne-b3008","sku":"100148883","price":15.49,"originalPrice":null,"currencyCode":"RON","currency":"Lei","image":{"thumbnail":{"default":"https://cdn.freshful.ro/media/cache/sylius_shop_product_thumbnail/fe/dd/c1c898811922ff1cd3950a00de0a.jpg"},"large":{"default":"https://cdn.freshful.ro/media/cache/freshful_large/fe/dd/c1c898811922ff1cd3950a00de0a.jpg"},"extralarge":{"default":"https://cdn.freshful.ro/media/cache/sylius_shop_product_original/fe/dd/c1c898811922ff1cd3950a00de0a.jpg"}},"label":{"text":"Mici producători","backgroundColor":"#7B61FF","textColor":"#FFFFFF"},"tags":[],"isAvailable":true,"maxAvailableQuantity":25,"maxAllowedQuantity":100,"breadcrumbs":[{"code":"2","name":"Carne & pește","slug":"2-carne-si-peste"},{"code":"205","name":"Mici și specialități","slug":"205-mici-si-specialitati"},{"code":"20505","name":"Specialități afumate","slug":"20505-specialitati-traditionale-afumate"},{"code":"100148883","name":"Tobă extra 300g","slug":"100148883-raionul-de-carne-toba-extra-300g"}],"activePromotion":null,"saveMe":null,"labels":[{"type":"v1","items":[{"text":"Mici producători","backgroundColor":"#7B61FF","textColor":"#FFFFFF"}]}],"geniusPrice":null,"geniusUnitPricePerLabel":null,"banner":null,"discountLabel":null,"geniusDiscountLabel":null,"badge":null}],"filters":{"countSelected":0,"items":[{"code":"promotion","name":"Promoții","countSelected":0,"values":[{"code":"bunatatile-saptamanii-cw0923","name":"Oferta proaspătă a săptămânii","isSelected":false,"count":1}]},{"code":"brand","name":"Brand","countSelected":0,"values":[{"code":"bunatati-de-pe-valea-buzaului-b3072","name":"Bunătăți de pe Valea Buzăului","isSelected":false,"count":4},{"code":"ograda-cu-struti-b1174","name":"Ograda cu Struți","isSelected":false,"count":1},{"code":"raionul-de-carne-b3008","name":"Raionul De Carne","isSelected":false,"count":9},{"code":"szekely-falat-b1012","name":"Székely falat","isSelected":false,"count":18},{"code":"tataran-b1638","name":"Tătăran","isSelected":false,"count":9},{"code":"wau-b172","name":"Wau","isSelected":false,"count":3},{"code":"zimbria-b206","name":"Zimbria","isSelected":false,"count":11}]},{"code":"diet_lifestyle","name":"Dietă și lifestyle","countSelected":0,"values":[{"code":"fara-conservanti-a37","name":"Fara conservanti","isSelected":false,"count":1},{"code":"fara-e-uri-a84","name":"Fara E-uri","isSelected":false,"count":19},{"code":"made-in-romania-a85","name":"Made In Romania","isSelected":false,"count":20},{"code":"natural-a27","name":"Natural","isSelected":false,"count":9}]}]},"orderBy":[{"field":"price","direction":"asc","name":"Preț crescător","isSelected":false},{"field":"price","direction":"desc","name":"Preț descrescător","isSelected":false},{"field":"popularity","direction":"desc","name":"Cele mai populare","isSelected":true},{"field":"category","direction":"asc","name":"Categorie","isSelected":false}],"metaTitle":"Specialități afumate - Gamă variată","metaDescription":"Vrei Specialități afumate? Alege dintr-o gamă variată. Comanzi simplu și ai livrare rapidă, calitate și prospețime. Hai pe Freshful.ro","metaKeywords":null,"banners":[]}}