{"type":"subcategory","payload":{"analyticsListId":"category_20506-specialitati-traditionate-marinate","analyticsListName":"Category - Specialități marinate","name":"Specialități marinate","slug":"20506-specialitati-traditionate-marinate","image":null,"breadcrumbs":[{"code":"2","name":"Carne & pește","slug":"2-carne-si-peste"},{"code":"205","name":"Mici și specialități","slug":"205-mici-si-specialitati"},{"code":"20506","name":"Specialități marinate","slug":"20506-specialitati-traditionate-marinate"}],"slots":[],"page":1,"limit":10,"pages":2,"count":16,"siblings":[{"name":"Carne de vită și oaie","slug":"201-carne-de-vita-si-oaie","selected":false},{"name":"Carne de porc","slug":"202-carne-de-porc","selected":false},{"name":"Carne de pasăre","slug":"203-carne-de-pasare","selected":false},{"name":"Alte cărnuri","slug":"204-alte-carnuri","selected":false},{"name":"Mici și specialități","slug":"205-mici-si-specialitati","selected":true},{"name":"Pește și sushi","slug":"206-peste-si-sushi","selected":false},{"name":"Pește afumat","slug":"207-peste-afumat","selected":false},{"name":"Pește marinat","slug":"208-peste-marinat","selected":false},{"name":"Icre și salată de icre","slug":"209-icre-si-salata-de-icre","selected":false},{"name":"Specialități de pește","slug":"210-specialitati-de-peste","selected":false}],"children":[{"name":"Toate produsele","slug":"205-mici-si-specialitati","selected":false},{"name":"Mici","slug":"20501-mici","selected":false},{"name":"Frigărui","slug":"20502-frigarui","selected":false},{"name":"Cârnați","slug":"20504-carnati-traditionali","selected":false},{"name":"Specialități afumate","slug":"20505-specialitati-traditionale-afumate","selected":false},{"name":"Specialități marinate","slug":"20506-specialitati-traditionate-marinate","selected":true}],"products":[{"code":"100132958","variantCode":"100132958","name":"Coastă grill 400g","slug":"100132958-mos-andrei-coasta-grill-400g","unitPriceLabel":"27,48 Lei/kg","brand":"Raionul De Carne","brandCode":"2914","brandFilterCode":"raionul-de-carne-b3008","sku":"100132958","price":10.99,"originalPrice":null,"currencyCode":"RON","currency":"Lei","image":{"thumbnail":{"default":"https://cdn.freshful.ro/media/cache/sylius_shop_product_thumbnail/24/c4/263305749e9e55896f2749de6b2d.jpg"},"large":{"default":"https://cdn.freshful.ro/media/cache/freshful_large/24/c4/263305749e9e55896f2749de6b2d.jpg"},"extralarge":{"default":"https://cdn.freshful.ro/media/cache/sylius_shop_product_original/24/c4/263305749e9e55896f2749de6b2d.jpg"}},"label":{"text":"Mici producători","backgroundColor":"#7B61FF","textColor":"#FFFFFF"},"tags":[],"isAvailable":true,"maxAvailableQuantity":28,"maxAllowedQuantity":100,"breadcrumbs":[{"code":"2","name":"Carne & pește","slug":"2-carne-si-peste"},{"code":"205","name":"Mici și specialități","slug":"205-mici-si-specialitati"},{"code":"20506","name":"Specialități marinate","slug":"20506-specialitati-traditionate-marinate"},{"code":"100132958","name":"Coastă grill 400g","slug":"100132958-mos-andrei-coasta-grill-400g"}],"activePromotion":null,"saveMe":null,"labels":[{"type":"v1","items":[{"text":"Mici producători","backgroundColor":"#7B61FF","textColor":"#FFFFFF"}]}],"geniusPrice":null,"geniusUnitPricePerLabel":null,"banner":null,"discountLabel":null,"geniusDiscountLabel":null,"badge":null},{"code":"100138280","variantCode":"100138280","name":"Ceafă de porc fără os, marinată 360g","slug":"100138280-peris-ceafa-de-porc-fara-os-marinata-360g","unitPriceLabel":"44,42 Lei/kg","brand":"Periș","brandCode":"2517","brandFilterCode":"peris-b2519","sku":"100138280","price":15.99,"originalPrice":null,"currencyCode":"RON","currency":"Lei","image":{"thumbnail":{"default":"https://cdn.freshful.ro/media/cache/sylius_shop_product_thumbnail/0d/f5/acb463397dde7785d0fa33a04ac5.jpg"},"large":{"default":"https://cdn.freshful.ro/media/cache/freshful_large/0d/f5/acb463397dde7785d0fa33a04ac5.jpg"},"extralarge":{"default":"https://cdn.freshful.ro/media/cache/sylius_shop_product_original/0d/f5/acb463397dde7785d0fa33a04ac5.jpg"}},"label":null,"tags":[{"type":"MadeInRomania","text":"Made In Romania","icon":"https://cdn.freshful.ro/assets/product_tags/made_in_romania.svg","iconPng":"https://cdn.freshful.ro/assets/product_tags/made_in_romania.png","backgroundColor":"#EDF2FD","textColor":"#1653CA"}],"isAvailable":true,"maxAvailableQuantity":10,"maxAllowedQuantity":100,"breadcrumbs":[{"code":"2","name":"Carne & pește","slug":"2-carne-si-peste"},{"code":"205","name":"Mici și specialități","slug":"205-mici-si-specialitati"},{"code":"20506","name":"Specialități marinate","slug":"20506-specialitati-traditionate-marinate"},{"code":"100138280","name":"Ceafă de porc fără os, marinată 360g","slug":"100138280-peris-ceafa-de-porc-fara-os-marinata-360g"}],"activePromotion":null,"saveMe":null,"labels":[],"geniusPrice":null,"geniusUnitPricePerLabel":null,"banner":null,"discountLabel":null,"geniusDiscountLabel":null,"badge":null},{"code":"100150701","variantCode":"100150701","name":"Pastramă de oaie condimentată 250g","slug":"100150701-wau-pastrama-de-oaie-condimentata-250g","unitPriceLabel":"79,16 Lei/kg","brand":"Wau","brandCode":"171","brandFilterCode":"wau-b172","sku":"100150701","price":19.79,"originalPrice":null,"currencyCode":"RON","currency":"Lei","image":{"thumbnail":{"default":"https://cdn.freshful.ro/media/cache/sylius_shop_product_thumbnail/dd/f6/e139f82b44ba53232eb07a9e7cdc.jpg"},"large":{"default":"https://cdn.freshful.ro/media/cache/freshful_large/dd/f6/e139f82b44ba53232eb07a9e7cdc.jpg"},"extralarge":{"default":"https://cdn.freshful.ro/media/cache/sylius_shop_product_original/dd/f6/e139f82b44ba53232eb07a9e7cdc.jpg"}},"label":null,"tags":[{"type":"NoE","text":"Fara E-uri","icon":"https://cdn.freshful.ro/assets/product_tags/fara_euri.svg","iconPng":"https://cdn.freshful.ro/assets/product_tags/fara_euri.png","backgroundColor":"#FCF5DF","textColor":"#CAA316"},{"type":"NoPreservatives","text":"Fara conservanti","icon":"https://cdn.freshful.ro/assets/product_tags/fara_conservanti.svg","iconPng":"https://cdn.freshful.ro/assets/product_tags/fara_conservanti.png","backgroundColor":"#F0F2FF","textColor":"#7889DD"}],"isAvailable":true,"maxAvailableQuantity":9,"maxAllowedQuantity":100,"breadcrumbs":[{"code":"2","name":"Carne & pește","slug":"2-carne-si-peste"},{"code":"205","name":"Mici și specialități","slug":"205-mici-si-specialitati"},{"code":"20506","name":"Specialități marinate","slug":"20506-specialitati-traditionate-marinate"},{"code":"100150701","name":"Pastramă de oaie condimentată 250g","slug":"100150701-wau-pastrama-de-oaie-condimentata-250g"}],"activePromotion":null,"saveMe":null,"labels":[],"geniusPrice":null,"geniusUnitPricePerLabel":null,"banner":null,"discountLabel":null,"geniusDiscountLabel":null,"badge":null},{"code":"100036801","variantCode":"100036801","name":"Pulpă de pui dezosată marinată 650g","slug":"100036801-copioso-pulpa-de-pui-dezosata-marinata-650g","unitPriceLabel":"28,6 Lei/kg","brand":"Copioso","brandCode":"234","brandFilterCode":"copioso-b235","sku":"100036801","price":18.59,"originalPrice":null,"currencyCode":"RON","currency":"Lei","image":{"thumbnail":{"default":"https://cdn.freshful.ro/media/cache/sylius_shop_product_thumbnail/c5/97/55c777698fedde1fb1dcef6a48e2.jpg"},"large":{"default":"https://cdn.freshful.ro/media/cache/freshful_large/c5/97/55c777698fedde1fb1dcef6a48e2.jpg"},"extralarge":{"default":"https://cdn.freshful.ro/media/cache/sylius_shop_product_original/c5/97/55c777698fedde1fb1dcef6a48e2.jpg"}},"label":null,"tags":[{"type":"MadeInRomania","text":"Made In Romania","icon":"https://cdn.freshful.ro/assets/product_tags/made_in_romania.svg","iconPng":"https://cdn.freshful.ro/assets/product_tags/made_in_romania.png","backgroundColor":"#EDF2FD","textColor":"#1653CA"}],"isAvailable":true,"maxAvailableQuantity":9,"maxAllowedQuantity":100,"breadcrumbs":[{"code":"2","name":"Carne & pește","slug":"2-carne-si-peste"},{"code":"205","name":"Mici și specialități","slug":"205-mici-si-specialitati"},{"code":"20506","name":"Specialități marinate","slug":"20506-specialitati-traditionate-marinate"},{"code":"100036801","name":"Pulpă de pui dezosată marinată 650g","slug":"100036801-copioso-pulpa-de-pui-dezosata-marinata-650g"}],"activePromotion":null,"saveMe":null,"labels":[],"geniusPrice":null,"geniusUnitPricePerLabel":null,"banner":null,"discountLabel":null,"geniusDiscountLabel":null,"badge":null},{"code":"100036799","variantCode":"100036799","name":"Aripi de pui secționate marinate 500g","slug":"100036799-copioso-aripi-de-pui-sectionate-marinate-500g","unitPriceLabel":"27,98 Lei/kg","brand":"Copioso","brandCode":"234","brandFilterCode":"copioso-b235","sku":"100036799","price":13.99,"originalPrice":null,"currencyCode":"RON","currency":"Lei","image":{"thumbnail":{"default":"https://cdn.freshful.ro/media/cache/sylius_shop_product_thumbnail/fd/40/96e35fd058ddd90cf401aa5dfc0e.jpg"},"large":{"default":"https://cdn.freshful.ro/media/cache/freshful_large/fd/40/96e35fd058ddd90cf401aa5dfc0e.jpg"},"extralarge":{"default":"https://cdn.freshful.ro/media/cache/sylius_shop_product_original/fd/40/96e35fd058ddd90cf401aa5dfc0e.jpg"}},"label":null,"tags":[{"type":"MadeInRomania","text":"Made In Romania","icon":"https://cdn.freshful.ro/assets/product_tags/made_in_romania.svg","iconPng":"https://cdn.freshful.ro/assets/product_tags/made_in_romania.png","backgroundColor":"#EDF2FD","textColor":"#1653CA"},{"type":"NoPreservatives","text":"Fara conservanti","icon":"https://cdn.freshful.ro/assets/product_tags/fara_conservanti.svg","iconPng":"https://cdn.freshful.ro/assets/product_tags/fara_conservanti.png","backgroundColor":"#F0F2FF","textColor":"#7889DD"}],"isAvailable":true,"maxAvailableQuantity":17,"maxAllowedQuantity":100,"breadcrumbs":[{"code":"2","name":"Carne & pește","slug":"2-carne-si-peste"},{"code":"205","name":"Mici și specialități","slug":"205-mici-si-specialitati"},{"code":"20506","name":"Specialități marinate","slug":"20506-specialitati-traditionate-marinate"},{"code":"100036799","name":"Aripi de pui secționate marinate 500g","slug":"100036799-copioso-aripi-de-pui-sectionate-marinate-500g"}],"activePromotion":null,"saveMe":null,"labels":[],"geniusPrice":null,"geniusUnitPricePerLabel":null,"banner":null,"discountLabel":null,"geniusDiscountLabel":null,"badge":null},{"code":"100138281","variantCode":"100138281","name":"Cotlet de porc fără os, marinat 250g","slug":"100138281-peris-cotlet-de-porc-fara-os-marinat-250g","unitPriceLabel":"57,96 Lei/kg","brand":"Periș","brandCode":"2517","brandFilterCode":"peris-b2519","sku":"100138281","price":14.49,"originalPrice":null,"currencyCode":"RON","currency":"Lei","image":{"thumbnail":{"default":"https://cdn.freshful.ro/media/cache/sylius_shop_product_thumbnail/ca/7a/cec6a544eb293f2fd8ed7b014725.jpg"},"large":{"default":"https://cdn.freshful.ro/media/cache/freshful_large/ca/7a/cec6a544eb293f2fd8ed7b014725.jpg"},"extralarge":{"default":"https://cdn.freshful.ro/media/cache/sylius_shop_product_original/ca/7a/cec6a544eb293f2fd8ed7b014725.jpg"}},"label":null,"tags":[{"type":"MadeInRomania","text":"Made In Romania","icon":"https://cdn.freshful.ro/assets/product_tags/made_in_romania.svg","iconPng":"https://cdn.freshful.ro/assets/product_tags/made_in_romania.png","backgroundColor":"#EDF2FD","textColor":"#1653CA"}],"isAvailable":true,"maxAvailableQuantity":4,"maxAllowedQuantity":100,"breadcrumbs":[{"code":"2","name":"Carne & pește","slug":"2-carne-si-peste"},{"code":"205","name":"Mici și specialități","slug":"205-mici-si-specialitati"},{"code":"20506","name":"Specialități marinate","slug":"20506-specialitati-traditionate-marinate"},{"code":"100138281","name":"Cotlet de porc fără os, marinat 250g","slug":"100138281-peris-cotlet-de-porc-fara-os-marinat-250g"}],"activePromotion":null,"saveMe":null,"labels":[],"geniusPrice":null,"geniusUnitPricePerLabel":null,"banner":null,"discountLabel":null,"geniusDiscountLabel":null,"badge":null},{"code":"100128226","variantCode":"100128226","name":"Piept de pui sous vide 250g","slug":"100128226-fezandate-de-mosie-piept-de-pui-sous-vide-250g","unitPriceLabel":"105,96 Lei/kg","brand":"Fezandate de Moșie","brandCode":"2346","brandFilterCode":"fezandate-de-mosie-b2350","sku":"100128226","price":26.49,"originalPrice":null,"currencyCode":"RON","currency":"Lei","image":{"thumbnail":{"default":"https://cdn.freshful.ro/media/cache/sylius_shop_product_thumbnail/2d/b7/890eb2a1b4c50a46e88aa5290b6a.jpg"},"large":{"default":"https://cdn.freshful.ro/media/cache/freshful_large/2d/b7/890eb2a1b4c50a46e88aa5290b6a.jpg"},"extralarge":{"default":"https://cdn.freshful.ro/media/cache/sylius_shop_product_original/2d/b7/890eb2a1b4c50a46e88aa5290b6a.jpg"}},"label":{"text":"Mici producători","backgroundColor":"#7B61FF","textColor":"#FFFFFF"},"tags":[],"isAvailable":true,"maxAvailableQuantity":14,"maxAllowedQuantity":100,"breadcrumbs":[{"code":"2","name":"Carne & pește","slug":"2-carne-si-peste"},{"code":"205","name":"Mici și specialități","slug":"205-mici-si-specialitati"},{"code":"20506","name":"Specialități marinate","slug":"20506-specialitati-traditionate-marinate"},{"code":"100128226","name":"Piept de pui sous vide 250g","slug":"100128226-fezandate-de-mosie-piept-de-pui-sous-vide-250g"}],"activePromotion":null,"saveMe":null,"labels":[{"type":"v1","items":[{"text":"Mici producători","backgroundColor":"#7B61FF","textColor":"#FFFFFF"}]}],"geniusPrice":null,"geniusUnitPricePerLabel":null,"banner":null,"discountLabel":null,"geniusDiscountLabel":null,"badge":null},{"code":"100128230","variantCode":"100128230","name":"Pulled pork BBQ 300g","slug":"100128230-fezandate-de-mosie-pulled-pork-bbq-300g","unitPriceLabel":"71,48 Lei/kg","brand":"Fezandate de Moșie","brandCode":"2346","brandFilterCode":"fezandate-de-mosie-b2350","sku":"100128230","price":28.59,"originalPrice":null,"currencyCode":"RON","currency":"Lei","image":{"thumbnail":{"default":"https://cdn.freshful.ro/media/cache/sylius_shop_product_thumbnail/07/49/280fcacae50763560c2b96a5a5d0.jpg"},"large":{"default":"https://cdn.freshful.ro/media/cache/freshful_large/07/49/280fcacae50763560c2b96a5a5d0.jpg"},"extralarge":{"default":"https://cdn.freshful.ro/media/cache/sylius_shop_product_original/07/49/280fcacae50763560c2b96a5a5d0.jpg"}},"label":{"text":"Mici producători","backgroundColor":"#7B61FF","textColor":"#FFFFFF"},"tags":[{"type":"MadeInRomania","text":"Made In Romania","icon":"https://cdn.freshful.ro/assets/product_tags/made_in_romania.svg","iconPng":"https://cdn.freshful.ro/assets/product_tags/made_in_romania.png","backgroundColor":"#EDF2FD","textColor":"#1653CA"}],"isAvailable":true,"maxAvailableQuantity":25,"maxAllowedQuantity":100,"breadcrumbs":[{"code":"2","name":"Carne & pește","slug":"2-carne-si-peste"},{"code":"205","name":"Mici și specialități","slug":"205-mici-si-specialitati"},{"code":"20506","name":"Specialități marinate","slug":"20506-specialitati-traditionate-marinate"},{"code":"100128230","name":"Pulled pork BBQ 300g","slug":"100128230-fezandate-de-mosie-pulled-pork-bbq-300g"}],"activePromotion":null,"saveMe":null,"labels":[{"type":"v1","items":[{"text":"Mici producători","backgroundColor":"#7B61FF","textColor":"#FFFFFF"}]}],"geniusPrice":null,"geniusUnitPricePerLabel":null,"banner":null,"discountLabel":null,"geniusDiscountLabel":null,"badge":null},{"code":"100140591","variantCode":"100140591","name":"Ciolan copt cu șorici 850g","slug":"100140591-meatic-bbq-ciolan-copt-cu-sorici-850g","unitPriceLabel":"101,16 Lei/kg","brand":"MEATic BBq","brandCode":"2683","brandFilterCode":"meatic-bbq-b2688","sku":"100140591","price":85.99,"originalPrice":null,"currencyCode":"RON","currency":"Lei","image":{"thumbnail":{"default":"https://cdn.freshful.ro/media/cache/sylius_shop_product_thumbnail/fc/4b/fa569d9c9dde78b4d4e8f98840a2.jpg"},"large":{"default":"https://cdn.freshful.ro/media/cache/freshful_large/fc/4b/fa569d9c9dde78b4d4e8f98840a2.jpg"},"extralarge":{"default":"https://cdn.freshful.ro/media/cache/sylius_shop_product_original/fc/4b/fa569d9c9dde78b4d4e8f98840a2.jpg"}},"label":null,"tags":[],"isAvailable":true,"maxAvailableQuantity":33,"maxAllowedQuantity":100,"breadcrumbs":[{"code":"2","name":"Carne & pește","slug":"2-carne-si-peste"},{"code":"205","name":"Mici și specialități","slug":"205-mici-si-specialitati"},{"code":"20506","name":"Specialități marinate","slug":"20506-specialitati-traditionate-marinate"},{"code":"100140591","name":"Ciolan copt cu șorici 850g","slug":"100140591-meatic-bbq-ciolan-copt-cu-sorici-850g"}],"activePromotion":null,"saveMe":null,"labels":[],"geniusPrice":null,"geniusUnitPricePerLabel":null,"banner":null,"discountLabel":null,"geniusDiscountLabel":null,"badge":null},{"code":"100128225","variantCode":"100128225","name":"Pulpă de pui sous vide 200g","slug":"100128225-fezandate-de-mosie-pulpa-de-pui-sous-vide-200g","unitPriceLabel":"93,59 Lei/kg","brand":"Fezandate de Moșie","brandCode":"2346","brandFilterCode":"fezandate-de-mosie-b2350","sku":"100128225","price":20.59,"originalPrice":null,"currencyCode":"RON","currency":"Lei","image":{"thumbnail":{"default":"https://cdn.freshful.ro/media/cache/sylius_shop_product_thumbnail/0f/d0/e77fb9f79433ef97800b3577e5cf.jpg"},"large":{"default":"https://cdn.freshful.ro/media/cache/freshful_large/0f/d0/e77fb9f79433ef97800b3577e5cf.jpg"},"extralarge":{"default":"https://cdn.freshful.ro/media/cache/sylius_shop_product_original/0f/d0/e77fb9f79433ef97800b3577e5cf.jpg"}},"label":{"text":"Mici producători","backgroundColor":"#7B61FF","textColor":"#FFFFFF"},"tags":[],"isAvailable":true,"maxAvailableQuantity":4,"maxAllowedQuantity":100,"breadcrumbs":[{"code":"2","name":"Carne & pește","slug":"2-carne-si-peste"},{"code":"205","name":"Mici și specialități","slug":"205-mici-si-specialitati"},{"code":"20506","name":"Specialități marinate","slug":"20506-specialitati-traditionate-marinate"},{"code":"100128225","name":"Pulpă de pui sous vide 200g","slug":"100128225-fezandate-de-mosie-pulpa-de-pui-sous-vide-200g"}],"activePromotion":null,"saveMe":null,"labels":[{"type":"v1","items":[{"text":"Mici producători","backgroundColor":"#7B61FF","textColor":"#FFFFFF"}]}],"geniusPrice":null,"geniusUnitPricePerLabel":null,"banner":null,"discountLabel":null,"geniusDiscountLabel":null,"badge":null}],"filters":{"countSelected":0,"items":[{"code":"promotion","name":"Promoții","countSelected":0,"values":[{"code":"bunatatile-saptamanii-cw0923","name":"Oferta proaspătă a săptămânii","isSelected":false,"count":1}]},{"code":"brand","name":"Brand","countSelected":0,"values":[{"code":"bunatati-de-pe-valea-buzaului-b3072","name":"Bunătăți de pe Valea Buzăului","isSelected":false,"count":1},{"code":"copioso-b235","name":"Copioso","isSelected":false,"count":2},{"code":"fezandate-de-mosie-b2350","name":"Fezandate de Moșie","isSelected":false,"count":6},{"code":"meatic-bbq-b2688","name":"MEATic BBq","isSelected":false,"count":3},{"code":"peris-b2519","name":"Periș","isSelected":false,"count":2},{"code":"raionul-de-carne-b3008","name":"Raionul De Carne","isSelected":false,"count":1},{"code":"wau-b172","name":"Wau","isSelected":false,"count":1}]},{"code":"diet_lifestyle","name":"Dietă și lifestyle","countSelected":0,"values":[{"code":"fara-conservanti-a37","name":"Fara conservanti","isSelected":false,"count":2},{"code":"fara-e-uri-a84","name":"Fara E-uri","isSelected":false,"count":1},{"code":"made-in-romania-a85","name":"Made In Romania","isSelected":false,"count":5}]}]},"orderBy":[{"field":"price","direction":"asc","name":"Preț crescător","isSelected":false},{"field":"price","direction":"desc","name":"Preț descrescător","isSelected":false},{"field":"popularity","direction":"desc","name":"Cele mai populare","isSelected":true},{"field":"category","direction":"asc","name":"Categorie","isSelected":false}],"metaTitle":"Specialități marinate - Gamă variată","metaDescription":"Vrei Specialități marinate? Alege dintr-o gamă variată. Comanzi simplu și ai livrare rapidă, calitate și prospețime. Hai pe Freshful.ro","metaKeywords":null,"banners":[]}}