{"type":"subcategory","payload":{"analyticsListId":"category_20504-carnati-traditionali","analyticsListName":"Category - Cârnați","name":"Cârnați","slug":"20504-carnati-traditionali","image":null,"breadcrumbs":[{"code":"2","name":"Carne & pește","slug":"2-carne-si-peste"},{"code":"205","name":"Mici și specialități","slug":"205-mici-si-specialitati"},{"code":"20504","name":"Cârnați","slug":"20504-carnati-traditionali"}],"slots":[],"page":1,"limit":10,"pages":3,"count":22,"siblings":[{"name":"Carne de vită și oaie","slug":"201-carne-de-vita-si-oaie","selected":false},{"name":"Carne de porc","slug":"202-carne-de-porc","selected":false},{"name":"Carne de pasăre","slug":"203-carne-de-pasare","selected":false},{"name":"Alte cărnuri","slug":"204-alte-carnuri","selected":false},{"name":"Mici și specialități","slug":"205-mici-si-specialitati","selected":true},{"name":"Pește și sushi","slug":"206-peste-si-sushi","selected":false},{"name":"Pește afumat","slug":"207-peste-afumat","selected":false},{"name":"Pește marinat","slug":"208-peste-marinat","selected":false},{"name":"Icre și salată de icre","slug":"209-icre-si-salata-de-icre","selected":false},{"name":"Specialități de pește","slug":"210-specialitati-de-peste","selected":false}],"children":[{"name":"Toate produsele","slug":"205-mici-si-specialitati","selected":false},{"name":"Mici","slug":"20501-mici","selected":false},{"name":"Frigărui","slug":"20502-frigarui","selected":false},{"name":"Cârnați","slug":"20504-carnati-traditionali","selected":true},{"name":"Specialități afumate","slug":"20505-specialitati-traditionale-afumate","selected":false},{"name":"Specialități marinate","slug":"20506-specialitati-traditionate-marinate","selected":false}],"products":[{"code":"100150618","variantCode":"100150618","name":"Cârnăciori pentru bere 350g","slug":"100150618-peris-carnaciori-pentru-bere-350g","unitPriceLabel":"33,11 Lei/kg","brand":"Periș","brandCode":"2517","brandFilterCode":"peris-b2519","sku":"100150618","price":11.59,"originalPrice":14.59,"currencyCode":"RON","currency":"Lei","image":{"thumbnail":{"default":"https://cdn.freshful.ro/media/cache/sylius_shop_product_thumbnail/e1/b6/ffbf7e42d0fce08e16ea990f67aa.jpg"},"large":{"default":"https://cdn.freshful.ro/media/cache/freshful_large/e1/b6/ffbf7e42d0fce08e16ea990f67aa.jpg"},"extralarge":{"default":"https://cdn.freshful.ro/media/cache/sylius_shop_product_original/e1/b6/ffbf7e42d0fce08e16ea990f67aa.jpg"}},"label":{"text":"-20%","backgroundColor":"#FF9903","textColor":"#FFFFFF"},"tags":[{"type":"MadeInRomania","text":"Made In Romania","icon":"https://cdn.freshful.ro/assets/product_tags/made_in_romania.svg","iconPng":"https://cdn.freshful.ro/assets/product_tags/made_in_romania.png","backgroundColor":"#EDF2FD","textColor":"#1653CA"}],"isAvailable":true,"maxAvailableQuantity":10,"maxAllowedQuantity":100,"breadcrumbs":[{"code":"2","name":"Carne & pește","slug":"2-carne-si-peste"},{"code":"205","name":"Mici și specialități","slug":"205-mici-si-specialitati"},{"code":"20504","name":"Cârnați","slug":"20504-carnati-traditionali"},{"code":"100150618","name":"Cârnăciori pentru bere 350g","slug":"100150618-peris-carnaciori-pentru-bere-350g"}],"activePromotion":{"code":"bunatatile-saptamanii-cw0923","name":"Preț redus","targetQuantity":null},"saveMe":null,"labels":[{"type":"v1","items":[{"text":"-20%","backgroundColor":"#FF9903","textColor":"#FFFFFF"}]}],"geniusPrice":null,"geniusUnitPricePerLabel":null,"banner":{"text":"Super preț","textColor":"#FF0000","bgColor":"#FFF2EC","icon":null,"link":"https://www.freshful.ro/oferte/bunatatile-saptamanii-cw0923","type":"promo","analyticsEventType":"select_promotion","analyticsEventPayload":{"promotion_id":"bunatatile-saptamanii-cw0923","promotion_name":"Oferta proaspătă a săptămânii"}},"discountLabel":"Economisești 20%","geniusDiscountLabel":null,"badge":null},{"code":"100150702","variantCode":"100150702","name":"Cârnați de Pleșcoi 250g","slug":"100150702-wau-carnati-de-plescoi-250g","unitPriceLabel":"63,96 Lei/kg","brand":"Wau","brandCode":"171","brandFilterCode":"wau-b172","sku":"100150702","price":15.99,"originalPrice":18.98,"currencyCode":"RON","currency":"Lei","image":{"thumbnail":{"default":"https://cdn.freshful.ro/media/cache/sylius_shop_product_thumbnail/88/90/d8dc95b206c012cec60137931a69.jpg"},"large":{"default":"https://cdn.freshful.ro/media/cache/freshful_large/88/90/d8dc95b206c012cec60137931a69.jpg"},"extralarge":{"default":"https://cdn.freshful.ro/media/cache/sylius_shop_product_original/88/90/d8dc95b206c012cec60137931a69.jpg"}},"label":{"text":"-15%","backgroundColor":"#FF9903","textColor":"#FFFFFF"},"tags":[{"type":"NoE","text":"Fara E-uri","icon":"https://cdn.freshful.ro/assets/product_tags/fara_euri.svg","iconPng":"https://cdn.freshful.ro/assets/product_tags/fara_euri.png","backgroundColor":"#FCF5DF","textColor":"#CAA316"},{"type":"NoPreservatives","text":"Fara conservanti","icon":"https://cdn.freshful.ro/assets/product_tags/fara_conservanti.svg","iconPng":"https://cdn.freshful.ro/assets/product_tags/fara_conservanti.png","backgroundColor":"#F0F2FF","textColor":"#7889DD"}],"isAvailable":true,"maxAvailableQuantity":86,"maxAllowedQuantity":100,"breadcrumbs":[{"code":"2","name":"Carne & pește","slug":"2-carne-si-peste"},{"code":"205","name":"Mici și specialități","slug":"205-mici-si-specialitati"},{"code":"20504","name":"Cârnați","slug":"20504-carnati-traditionali"},{"code":"100150702","name":"Cârnați de Pleșcoi 250g","slug":"100150702-wau-carnati-de-plescoi-250g"}],"activePromotion":{"code":"bunatatile-saptamanii-cw0923","name":"Preț redus","targetQuantity":null},"saveMe":null,"labels":[{"type":"v1","items":[{"text":"-15%","backgroundColor":"#FF9903","textColor":"#FFFFFF"}]}],"geniusPrice":null,"geniusUnitPricePerLabel":null,"banner":{"text":"Super preț","textColor":"#FF0000","bgColor":"#FFF2EC","icon":null,"link":"https://www.freshful.ro/oferte/bunatatile-saptamanii-cw0923","type":"promo","analyticsEventType":"select_promotion","analyticsEventPayload":{"promotion_id":"bunatatile-saptamanii-cw0923","promotion_name":"Oferta proaspătă a săptămânii"}},"discountLabel":"Economisești 15%","geniusDiscountLabel":null,"badge":null},{"code":"100133358","variantCode":"100133358","name":"Cocorici Mediteraneeni 195g","slug":"100133358-cocorico-cocorici-mediteraneeni-195g","unitPriceLabel":"35,85 Lei/kg","brand":"Cocorico","brandCode":"211","brandFilterCode":"cocorico-b212","sku":"100133358","price":6.99,"originalPrice":null,"currencyCode":"RON","currency":"Lei","image":{"thumbnail":{"default":"https://cdn.freshful.ro/media/cache/sylius_shop_product_thumbnail/b8/a7/9dfa68d5432049388ceb39c4e941.jpg"},"large":{"default":"https://cdn.freshful.ro/media/cache/freshful_large/b8/a7/9dfa68d5432049388ceb39c4e941.jpg"},"extralarge":{"default":"https://cdn.freshful.ro/media/cache/sylius_shop_product_original/b8/a7/9dfa68d5432049388ceb39c4e941.jpg"}},"label":null,"tags":[{"type":"NoGluten","text":"Fara gluten","icon":"https://cdn.freshful.ro/assets/product_tags/fara_gluten.svg","iconPng":"https://cdn.freshful.ro/assets/product_tags/fara_gluten.png","backgroundColor":"#FFF2E5","textColor":"#F07900"},{"type":"NoPreservatives","text":"Fara conservanti","icon":"https://cdn.freshful.ro/assets/product_tags/fara_conservanti.svg","iconPng":"https://cdn.freshful.ro/assets/product_tags/fara_conservanti.png","backgroundColor":"#F0F2FF","textColor":"#7889DD"}],"isAvailable":true,"maxAvailableQuantity":19,"maxAllowedQuantity":100,"breadcrumbs":[{"code":"2","name":"Carne & pește","slug":"2-carne-si-peste"},{"code":"205","name":"Mici și specialități","slug":"205-mici-si-specialitati"},{"code":"20504","name":"Cârnați","slug":"20504-carnati-traditionali"},{"code":"100133358","name":"Cocorici Mediteraneeni 195g","slug":"100133358-cocorico-cocorici-mediteraneeni-195g"}],"activePromotion":null,"saveMe":null,"labels":[],"geniusPrice":null,"geniusUnitPricePerLabel":null,"banner":null,"discountLabel":null,"geniusDiscountLabel":null,"badge":null},{"code":"100133254","variantCode":"100133254","name":"Cârnăciori de porc 500g","slug":"100133254-peris-carnaciori-de-porc-500g","unitPriceLabel":"29,98 Lei/kg","brand":"Periș","brandCode":"2517","brandFilterCode":"peris-b2519","sku":"100133254","price":14.99,"originalPrice":null,"currencyCode":"RON","currency":"Lei","image":{"thumbnail":{"default":"https://cdn.freshful.ro/media/cache/sylius_shop_product_thumbnail/a1/04/4a1b42287e225b43fe7b83132418.jpg"},"large":{"default":"https://cdn.freshful.ro/media/cache/freshful_large/a1/04/4a1b42287e225b43fe7b83132418.jpg"},"extralarge":{"default":"https://cdn.freshful.ro/media/cache/sylius_shop_product_original/a1/04/4a1b42287e225b43fe7b83132418.jpg"}},"label":null,"tags":[{"type":"MadeInRomania","text":"Made In Romania","icon":"https://cdn.freshful.ro/assets/product_tags/made_in_romania.svg","iconPng":"https://cdn.freshful.ro/assets/product_tags/made_in_romania.png","backgroundColor":"#EDF2FD","textColor":"#1653CA"}],"isAvailable":true,"maxAvailableQuantity":1,"maxAllowedQuantity":100,"breadcrumbs":[{"code":"2","name":"Carne & pește","slug":"2-carne-si-peste"},{"code":"205","name":"Mici și specialități","slug":"205-mici-si-specialitati"},{"code":"20504","name":"Cârnați","slug":"20504-carnati-traditionali"},{"code":"100133254","name":"Cârnăciori de porc 500g","slug":"100133254-peris-carnaciori-de-porc-500g"}],"activePromotion":null,"saveMe":null,"labels":[],"geniusPrice":null,"geniusUnitPricePerLabel":null,"banner":null,"discountLabel":null,"geniusDiscountLabel":null,"badge":null},{"code":"100133255","variantCode":"100133255","name":"Cârnăciori de porc cu usturoi 500g","slug":"100133255-peris-carnaciori-de-porc-cu-usturoi-500g","unitPriceLabel":"31,98 Lei/kg","brand":"Periș","brandCode":"2517","brandFilterCode":"peris-b2519","sku":"100133255","price":15.99,"originalPrice":null,"currencyCode":"RON","currency":"Lei","image":{"thumbnail":{"default":"https://cdn.freshful.ro/media/cache/sylius_shop_product_thumbnail/ed/05/7a63df92e51f09d069aedaeb8351.jpg"},"large":{"default":"https://cdn.freshful.ro/media/cache/freshful_large/ed/05/7a63df92e51f09d069aedaeb8351.jpg"},"extralarge":{"default":"https://cdn.freshful.ro/media/cache/sylius_shop_product_original/ed/05/7a63df92e51f09d069aedaeb8351.jpg"}},"label":null,"tags":[{"type":"MadeInRomania","text":"Made In Romania","icon":"https://cdn.freshful.ro/assets/product_tags/made_in_romania.svg","iconPng":"https://cdn.freshful.ro/assets/product_tags/made_in_romania.png","backgroundColor":"#EDF2FD","textColor":"#1653CA"}],"isAvailable":true,"maxAvailableQuantity":14,"maxAllowedQuantity":100,"breadcrumbs":[{"code":"2","name":"Carne & pește","slug":"2-carne-si-peste"},{"code":"205","name":"Mici și specialități","slug":"205-mici-si-specialitati"},{"code":"20504","name":"Cârnați","slug":"20504-carnati-traditionali"},{"code":"100133255","name":"Cârnăciori de porc cu usturoi 500g","slug":"100133255-peris-carnaciori-de-porc-cu-usturoi-500g"}],"activePromotion":null,"saveMe":null,"labels":[],"geniusPrice":null,"geniusUnitPricePerLabel":null,"banner":null,"discountLabel":null,"geniusDiscountLabel":null,"badge":null},{"code":"100150703","variantCode":"100150703","name":"Cârnați de oaie 250g","slug":"100150703-wau-carnati-de-oaie-250g","unitPriceLabel":"61,96 Lei/kg","brand":"Wau","brandCode":"171","brandFilterCode":"wau-b172","sku":"100150703","price":15.49,"originalPrice":null,"currencyCode":"RON","currency":"Lei","image":{"thumbnail":{"default":"https://cdn.freshful.ro/media/cache/sylius_shop_product_thumbnail/2e/13/de4d8070d601c000ba54fe536899.jpg"},"large":{"default":"https://cdn.freshful.ro/media/cache/freshful_large/2e/13/de4d8070d601c000ba54fe536899.jpg"},"extralarge":{"default":"https://cdn.freshful.ro/media/cache/sylius_shop_product_original/2e/13/de4d8070d601c000ba54fe536899.jpg"}},"label":null,"tags":[{"type":"NoE","text":"Fara E-uri","icon":"https://cdn.freshful.ro/assets/product_tags/fara_euri.svg","iconPng":"https://cdn.freshful.ro/assets/product_tags/fara_euri.png","backgroundColor":"#FCF5DF","textColor":"#CAA316"},{"type":"NoPreservatives","text":"Fara conservanti","icon":"https://cdn.freshful.ro/assets/product_tags/fara_conservanti.svg","iconPng":"https://cdn.freshful.ro/assets/product_tags/fara_conservanti.png","backgroundColor":"#F0F2FF","textColor":"#7889DD"}],"isAvailable":true,"maxAvailableQuantity":28,"maxAllowedQuantity":100,"breadcrumbs":[{"code":"2","name":"Carne & pește","slug":"2-carne-si-peste"},{"code":"205","name":"Mici și specialități","slug":"205-mici-si-specialitati"},{"code":"20504","name":"Cârnați","slug":"20504-carnati-traditionali"},{"code":"100150703","name":"Cârnați de oaie 250g","slug":"100150703-wau-carnati-de-oaie-250g"}],"activePromotion":null,"saveMe":null,"labels":[],"geniusPrice":null,"geniusUnitPricePerLabel":null,"banner":null,"discountLabel":null,"geniusDiscountLabel":null,"badge":null},{"code":"100133359","variantCode":"100133359","name":"Cocorici picanți 195g","slug":"100133359-cocorico-cocorici-picanti-195g","unitPriceLabel":"35,85 Lei/kg","brand":"Cocorico","brandCode":"211","brandFilterCode":"cocorico-b212","sku":"100133359","price":6.99,"originalPrice":null,"currencyCode":"RON","currency":"Lei","image":{"thumbnail":{"default":"https://cdn.freshful.ro/media/cache/sylius_shop_product_thumbnail/37/2e/556aee543c47eaeaa42fdb0519a2.jpg"},"large":{"default":"https://cdn.freshful.ro/media/cache/freshful_large/37/2e/556aee543c47eaeaa42fdb0519a2.jpg"},"extralarge":{"default":"https://cdn.freshful.ro/media/cache/sylius_shop_product_original/37/2e/556aee543c47eaeaa42fdb0519a2.jpg"}},"label":null,"tags":[{"type":"NoGluten","text":"Fara gluten","icon":"https://cdn.freshful.ro/assets/product_tags/fara_gluten.svg","iconPng":"https://cdn.freshful.ro/assets/product_tags/fara_gluten.png","backgroundColor":"#FFF2E5","textColor":"#F07900"},{"type":"NoPreservatives","text":"Fara conservanti","icon":"https://cdn.freshful.ro/assets/product_tags/fara_conservanti.svg","iconPng":"https://cdn.freshful.ro/assets/product_tags/fara_conservanti.png","backgroundColor":"#F0F2FF","textColor":"#7889DD"}],"isAvailable":true,"maxAvailableQuantity":1,"maxAllowedQuantity":100,"breadcrumbs":[{"code":"2","name":"Carne & pește","slug":"2-carne-si-peste"},{"code":"205","name":"Mici și specialități","slug":"205-mici-si-specialitati"},{"code":"20504","name":"Cârnați","slug":"20504-carnati-traditionali"},{"code":"100133359","name":"Cocorici picanți 195g","slug":"100133359-cocorico-cocorici-picanti-195g"}],"activePromotion":null,"saveMe":null,"labels":[],"geniusPrice":null,"geniusUnitPricePerLabel":null,"banner":null,"discountLabel":null,"geniusDiscountLabel":null,"badge":null},{"code":"100150266","variantCode":"100150266","name":"Cârnați Pleșcoi semiafumați 300g","slug":"100150266-bunatati-de-pe-valea-buzaului-carnati-plescoi-semiafumati-300g","unitPriceLabel":"66,6 Lei/kg","brand":"Bunătăți de pe Valea Buzăului","brandCode":"2978","brandFilterCode":"bunatati-de-pe-valea-buzaului-b3072","sku":"100150266","price":19.98,"originalPrice":null,"currencyCode":"RON","currency":"Lei","image":{"thumbnail":{"default":"https://cdn.freshful.ro/media/cache/sylius_shop_product_thumbnail/3f/cb/248e0c5aed712637a427ac86ece1.jpg"},"large":{"default":"https://cdn.freshful.ro/media/cache/freshful_large/3f/cb/248e0c5aed712637a427ac86ece1.jpg"},"extralarge":{"default":"https://cdn.freshful.ro/media/cache/sylius_shop_product_original/3f/cb/248e0c5aed712637a427ac86ece1.jpg"}},"label":null,"tags":[],"isAvailable":true,"maxAvailableQuantity":22,"maxAllowedQuantity":100,"breadcrumbs":[{"code":"2","name":"Carne & pește","slug":"2-carne-si-peste"},{"code":"205","name":"Mici și specialități","slug":"205-mici-si-specialitati"},{"code":"20504","name":"Cârnați","slug":"20504-carnati-traditionali"},{"code":"100150266","name":"Cârnați Pleșcoi semiafumați 300g","slug":"100150266-bunatati-de-pe-valea-buzaului-carnati-plescoi-semiafumati-300g"}],"activePromotion":null,"saveMe":null,"labels":[],"geniusPrice":null,"geniusUnitPricePerLabel":null,"banner":null,"discountLabel":null,"geniusDiscountLabel":null,"badge":null},{"code":"100133252","variantCode":"100133252","name":"Cârnați de porc 600g","slug":"100133252-peris-carnati-de-porc-600g","unitPriceLabel":"28,3 Lei/kg","brand":"Periș","brandCode":"2517","brandFilterCode":"peris-b2519","sku":"100133252","price":16.98,"originalPrice":null,"currencyCode":"RON","currency":"Lei","image":{"thumbnail":{"default":"https://cdn.freshful.ro/media/cache/sylius_shop_product_thumbnail/0d/10/10d5ba0069f1099af5225a51322d.jpg"},"large":{"default":"https://cdn.freshful.ro/media/cache/freshful_large/0d/10/10d5ba0069f1099af5225a51322d.jpg"},"extralarge":{"default":"https://cdn.freshful.ro/media/cache/sylius_shop_product_original/0d/10/10d5ba0069f1099af5225a51322d.jpg"}},"label":null,"tags":[{"type":"MadeInRomania","text":"Made In Romania","icon":"https://cdn.freshful.ro/assets/product_tags/made_in_romania.svg","iconPng":"https://cdn.freshful.ro/assets/product_tags/made_in_romania.png","backgroundColor":"#EDF2FD","textColor":"#1653CA"}],"isAvailable":true,"maxAvailableQuantity":10,"maxAllowedQuantity":100,"breadcrumbs":[{"code":"2","name":"Carne & pește","slug":"2-carne-si-peste"},{"code":"205","name":"Mici și specialități","slug":"205-mici-si-specialitati"},{"code":"20504","name":"Cârnați","slug":"20504-carnati-traditionali"},{"code":"100133252","name":"Cârnați de porc 600g","slug":"100133252-peris-carnati-de-porc-600g"}],"activePromotion":null,"saveMe":null,"labels":[],"geniusPrice":null,"geniusUnitPricePerLabel":null,"banner":null,"discountLabel":null,"geniusDiscountLabel":null,"badge":null},{"code":"100144132","variantCode":"100144132","name":"Cârnați picanți din carne de mânzat Black angus 300g","slug":"100144132-gurmand-apetit-carnati-picanti-din-carne-de-manzat-black-angus-300g","unitPriceLabel":"73,3 Lei/kg","brand":"Gurmand Apetit","brandCode":"993","brandFilterCode":"gurmand-apetit-b1007","sku":"100144132","price":21.99,"originalPrice":null,"currencyCode":"RON","currency":"Lei","image":{"thumbnail":{"default":"https://cdn.freshful.ro/media/cache/sylius_shop_product_thumbnail/46/f8/75b960d629713e8cdea6ff74b21e.jpg"},"large":{"default":"https://cdn.freshful.ro/media/cache/freshful_large/46/f8/75b960d629713e8cdea6ff74b21e.jpg"},"extralarge":{"default":"https://cdn.freshful.ro/media/cache/sylius_shop_product_original/46/f8/75b960d629713e8cdea6ff74b21e.jpg"}},"label":null,"tags":[{"type":"MadeInRomania","text":"Made In Romania","icon":"https://cdn.freshful.ro/assets/product_tags/made_in_romania.svg","iconPng":"https://cdn.freshful.ro/assets/product_tags/made_in_romania.png","backgroundColor":"#EDF2FD","textColor":"#1653CA"}],"isAvailable":true,"maxAvailableQuantity":10,"maxAllowedQuantity":100,"breadcrumbs":[{"code":"2","name":"Carne & pește","slug":"2-carne-si-peste"},{"code":"205","name":"Mici și specialități","slug":"205-mici-si-specialitati"},{"code":"20504","name":"Cârnați","slug":"20504-carnati-traditionali"},{"code":"100144132","name":"Cârnați picanți din carne de mânzat Black angus 300g","slug":"100144132-gurmand-apetit-carnati-picanti-din-carne-de-manzat-black-angus-300g"}],"activePromotion":null,"saveMe":null,"labels":[],"geniusPrice":null,"geniusUnitPricePerLabel":null,"banner":null,"discountLabel":null,"geniusDiscountLabel":null,"badge":null}],"filters":{"countSelected":0,"items":[{"code":"promotion","name":"Promoții","countSelected":0,"values":[{"code":"bunatatile-saptamanii-cw0923","name":"Oferta proaspătă a săptămânii","isSelected":false,"count":2}]},{"code":"brand","name":"Brand","countSelected":0,"values":[{"code":"bunatati-de-pe-valea-buzaului-b3072","name":"Bunătăți de pe Valea Buzăului","isSelected":false,"count":2},{"code":"cocorico-b212","name":"Cocorico","isSelected":false,"count":3},{"code":"gurmand-apetit-b1007","name":"Gurmand Apetit","isSelected":false,"count":1},{"code":"meat-revolution-b190","name":"Meat Revolution","isSelected":false,"count":2},{"code":"peris-b2519","name":"Periș","isSelected":false,"count":6},{"code":"szekely-falat-b1012","name":"Székely falat","isSelected":false,"count":1},{"code":"tataran-b1638","name":"Tătăran","isSelected":false,"count":2},{"code":"wau-b172","name":"Wau","isSelected":false,"count":3},{"code":"zimbria-b206","name":"Zimbria","isSelected":false,"count":2}]},{"code":"diet_lifestyle","name":"Dietă și lifestyle","countSelected":0,"values":[{"code":"fara-conservanti-a37","name":"Fara conservanti","isSelected":false,"count":4},{"code":"fara-e-uri-a84","name":"Fara E-uri","isSelected":false,"count":3},{"code":"fara-gluten-a16","name":"Fara gluten","isSelected":false,"count":3},{"code":"made-in-romania-a85","name":"Made In Romania","isSelected":false,"count":11},{"code":"natural-a27","name":"Natural","isSelected":false,"count":2}]}]},"orderBy":[{"field":"price","direction":"asc","name":"Preț crescător","isSelected":false},{"field":"price","direction":"desc","name":"Preț descrescător","isSelected":false},{"field":"popularity","direction":"desc","name":"Cele mai populare","isSelected":true},{"field":"category","direction":"asc","name":"Categorie","isSelected":false}],"metaTitle":"Cârnați - Gamă variată","metaDescription":"Vrei Cârnați? Alege dintr-o gamă variată. Comanzi simplu și ai livrare rapidă, calitate și prospețime. Hai pe Freshful.ro","metaKeywords":null,"banners":[]}}