{"type":"subcategory","payload":{"analyticsListId":"category_20601-peste-proaspat","analyticsListName":"Category - Pește proaspăt","name":"Pește proaspăt","slug":"20601-peste-proaspat","image":null,"breadcrumbs":[{"code":"2","name":"Carne & pește","slug":"2-carne-si-peste"},{"code":"206","name":"Pește și sushi","slug":"206-peste-si-sushi"},{"code":"20601","name":"Pește proaspăt","slug":"20601-peste-proaspat"}],"slots":[],"page":1,"limit":10,"pages":3,"count":23,"siblings":[{"name":"Carne de vită și oaie","slug":"201-carne-de-vita-si-oaie","selected":false},{"name":"Carne de porc","slug":"202-carne-de-porc","selected":false},{"name":"Carne de pasăre","slug":"203-carne-de-pasare","selected":false},{"name":"Alte cărnuri","slug":"204-alte-carnuri","selected":false},{"name":"Mici și specialități","slug":"205-mici-si-specialitati","selected":false},{"name":"Pește și sushi","slug":"206-peste-si-sushi","selected":true},{"name":"Pește afumat","slug":"207-peste-afumat","selected":false},{"name":"Pește marinat","slug":"208-peste-marinat","selected":false},{"name":"Icre și salată de icre","slug":"209-icre-si-salata-de-icre","selected":false},{"name":"Specialități de pește","slug":"210-specialitati-de-peste","selected":false}],"children":[{"name":"Toate produsele","slug":"206-peste-si-sushi","selected":false},{"name":"Pește proaspăt","slug":"20601-peste-proaspat","selected":true},{"name":"Sushi","slug":"20602-sushi","selected":false}],"products":[{"code":"100151293","variantCode":"100151293","name":"File de păstrăv somonat în sos barbecue 400g","slug":"100151293-pastravaria-busteni-file-de-pastrav-somonat-in-sos-barbecue-400g","unitPriceLabel":"117,48 Lei/kg","brand":"Păstrăvăria Bușteni","brandCode":"2971","brandFilterCode":"pastravaria-busteni-b3066","sku":"100151293","price":46.99,"originalPrice":58.99,"currencyCode":"RON","currency":"Lei","image":{"thumbnail":{"default":"https://cdn.freshful.ro/media/cache/sylius_shop_product_thumbnail/33/f9/841cf5747b18bdb047517afc51e2.jpg"},"large":{"default":"https://cdn.freshful.ro/media/cache/freshful_large/33/f9/841cf5747b18bdb047517afc51e2.jpg"},"extralarge":{"default":"https://cdn.freshful.ro/media/cache/sylius_shop_product_original/33/f9/841cf5747b18bdb047517afc51e2.jpg"}},"label":{"text":"-20%","backgroundColor":"#FF9903","textColor":"#FFFFFF"},"tags":[{"type":"NoE","text":"Fara E-uri","icon":"https://cdn.freshful.ro/assets/product_tags/fara_euri.svg","iconPng":"https://cdn.freshful.ro/assets/product_tags/fara_euri.png","backgroundColor":"#FCF5DF","textColor":"#CAA316"},{"type":"MadeInRomania","text":"Made In Romania","icon":"https://cdn.freshful.ro/assets/product_tags/made_in_romania.svg","iconPng":"https://cdn.freshful.ro/assets/product_tags/made_in_romania.png","backgroundColor":"#EDF2FD","textColor":"#1653CA"}],"isAvailable":true,"maxAvailableQuantity":70,"maxAllowedQuantity":100,"breadcrumbs":[{"code":"2","name":"Carne & pește","slug":"2-carne-si-peste"},{"code":"206","name":"Pește și sushi","slug":"206-peste-si-sushi"},{"code":"20601","name":"Pește proaspăt","slug":"20601-peste-proaspat"},{"code":"100151293","name":"File de păstrăv somonat în sos barbecue 400g","slug":"100151293-pastravaria-busteni-file-de-pastrav-somonat-in-sos-barbecue-400g"}],"activePromotion":{"code":"bunatatile-saptamanii-cw0923","name":"Preț redus","targetQuantity":null},"saveMe":null,"labels":[{"type":"v1","items":[{"text":"-20%","backgroundColor":"#FF9903","textColor":"#FFFFFF"}]}],"geniusPrice":null,"geniusUnitPricePerLabel":null,"banner":{"text":"Super preț","textColor":"#FF0000","bgColor":"#FFF2EC","icon":null,"link":"https://www.freshful.ro/oferte/bunatatile-saptamanii-cw0923","type":"promo","analyticsEventType":"select_promotion","analyticsEventPayload":{"promotion_id":"bunatatile-saptamanii-cw0923","promotion_name":"Oferta proaspătă a săptămânii"}},"discountLabel":"Economisești 20%","geniusDiscountLabel":null,"badge":null},{"code":"100151294","variantCode":"100151294","name":"Rondele de păstrăv somonat în sos barbecue 500g","slug":"100151294-pastravaria-busteni-rondele-de-pastrav-somonat-in-sos-barbecue-500g","unitPriceLabel":"83,98 Lei/kg","brand":"Păstrăvăria Bușteni","brandCode":"2971","brandFilterCode":"pastravaria-busteni-b3066","sku":"100151294","price":41.99,"originalPrice":51.99,"currencyCode":"RON","currency":"Lei","image":{"thumbnail":{"default":"https://cdn.freshful.ro/media/cache/sylius_shop_product_thumbnail/03/98/fd5814e7e95e2e13bee7ed9d1266.jpg"},"large":{"default":"https://cdn.freshful.ro/media/cache/freshful_large/03/98/fd5814e7e95e2e13bee7ed9d1266.jpg"},"extralarge":{"default":"https://cdn.freshful.ro/media/cache/sylius_shop_product_original/03/98/fd5814e7e95e2e13bee7ed9d1266.jpg"}},"label":{"text":"-19%","backgroundColor":"#FF9903","textColor":"#FFFFFF"},"tags":[{"type":"NoE","text":"Fara E-uri","icon":"https://cdn.freshful.ro/assets/product_tags/fara_euri.svg","iconPng":"https://cdn.freshful.ro/assets/product_tags/fara_euri.png","backgroundColor":"#FCF5DF","textColor":"#CAA316"},{"type":"MadeInRomania","text":"Made In Romania","icon":"https://cdn.freshful.ro/assets/product_tags/made_in_romania.svg","iconPng":"https://cdn.freshful.ro/assets/product_tags/made_in_romania.png","backgroundColor":"#EDF2FD","textColor":"#1653CA"}],"isAvailable":true,"maxAvailableQuantity":71,"maxAllowedQuantity":100,"breadcrumbs":[{"code":"2","name":"Carne & pește","slug":"2-carne-si-peste"},{"code":"206","name":"Pește și sushi","slug":"206-peste-si-sushi"},{"code":"20601","name":"Pește proaspăt","slug":"20601-peste-proaspat"},{"code":"100151294","name":"Rondele de păstrăv somonat în sos barbecue 500g","slug":"100151294-pastravaria-busteni-rondele-de-pastrav-somonat-in-sos-barbecue-500g"}],"activePromotion":{"code":"bunatatile-saptamanii-cw0923","name":"Preț redus","targetQuantity":null},"saveMe":null,"labels":[{"type":"v1","items":[{"text":"-19%","backgroundColor":"#FF9903","textColor":"#FFFFFF"}]}],"geniusPrice":null,"geniusUnitPricePerLabel":null,"banner":{"text":"Super preț","textColor":"#FF0000","bgColor":"#FFF2EC","icon":null,"link":"https://www.freshful.ro/oferte/bunatatile-saptamanii-cw0923","type":"promo","analyticsEventType":"select_promotion","analyticsEventPayload":{"promotion_id":"bunatatile-saptamanii-cw0923","promotion_name":"Oferta proaspătă a săptămânii"}},"discountLabel":"Economisești 19%","geniusDiscountLabel":null,"badge":null},{"code":"100036641","variantCode":"5949003407322","name":"File de somon 200g","slug":"100036641-alfredo-seafood-file-de-somon-200g","unitPriceLabel":"166,2 Lei/kg","brand":"Alfredo Seafood","brandCode":"221","brandFilterCode":"alfredo-seafood-b222","sku":"100036641","price":33.24,"originalPrice":null,"currencyCode":"RON","currency":"Lei","image":{"thumbnail":{"default":"https://cdn.freshful.ro/media/cache/sylius_shop_product_thumbnail/1a/bc/5ce1a2bdc3dc3ac7a4c89bdeb09a.jpg"},"large":{"default":"https://cdn.freshful.ro/media/cache/freshful_large/1a/bc/5ce1a2bdc3dc3ac7a4c89bdeb09a.jpg"},"extralarge":{"default":"https://cdn.freshful.ro/media/cache/sylius_shop_product_original/1a/bc/5ce1a2bdc3dc3ac7a4c89bdeb09a.jpg"}},"label":null,"tags":[],"isAvailable":true,"maxAvailableQuantity":55,"maxAllowedQuantity":100,"breadcrumbs":[{"code":"2","name":"Carne & pește","slug":"2-carne-si-peste"},{"code":"206","name":"Pește și sushi","slug":"206-peste-si-sushi"},{"code":"20601","name":"Pește proaspăt","slug":"20601-peste-proaspat"},{"code":"100036641","name":"File de somon 200g","slug":"100036641-alfredo-seafood-file-de-somon-200g"}],"activePromotion":null,"saveMe":null,"labels":[],"geniusPrice":null,"geniusUnitPricePerLabel":null,"banner":null,"discountLabel":null,"geniusDiscountLabel":null,"badge":null},{"code":"100036645","variantCode":"5941893560743","name":"Doradă eviscerată 650g","slug":"100036645-alfredo-seafood-dorada-eviscerata-650g","unitPriceLabel":"59,98 Lei/kg","brand":"Alfredo Seafood","brandCode":"221","brandFilterCode":"alfredo-seafood-b222","sku":"100036645","price":38.99,"originalPrice":null,"currencyCode":"RON","currency":"Lei","image":{"thumbnail":{"default":"https://cdn.freshful.ro/media/cache/sylius_shop_product_thumbnail/56/9b/4a71956af2d403c7bc1127e3ac46.jpg"},"large":{"default":"https://cdn.freshful.ro/media/cache/freshful_large/56/9b/4a71956af2d403c7bc1127e3ac46.jpg"},"extralarge":{"default":"https://cdn.freshful.ro/media/cache/sylius_shop_product_original/56/9b/4a71956af2d403c7bc1127e3ac46.jpg"}},"label":null,"tags":[],"isAvailable":true,"maxAvailableQuantity":16,"maxAllowedQuantity":100,"breadcrumbs":[{"code":"2","name":"Carne & pește","slug":"2-carne-si-peste"},{"code":"206","name":"Pește și sushi","slug":"206-peste-si-sushi"},{"code":"20601","name":"Pește proaspăt","slug":"20601-peste-proaspat"},{"code":"100036645","name":"Doradă eviscerată 650g","slug":"100036645-alfredo-seafood-dorada-eviscerata-650g"}],"activePromotion":null,"saveMe":null,"labels":[],"geniusPrice":null,"geniusUnitPricePerLabel":null,"banner":null,"discountLabel":null,"geniusDiscountLabel":null,"badge":null},{"code":"100036646","variantCode":"5941893560286","name":"File de doradă 320g","slug":"100036646-alfredo-seafood-file-de-dorada-320g","unitPriceLabel":"108,41 Lei/kg","brand":"Alfredo Seafood","brandCode":"221","brandFilterCode":"alfredo-seafood-b222","sku":"100036646","price":34.69,"originalPrice":null,"currencyCode":"RON","currency":"Lei","image":{"thumbnail":{"default":"https://cdn.freshful.ro/media/cache/sylius_shop_product_thumbnail/dc/1e/7a2fb9810d21c2b0c303cb82d99a.jpg"},"large":{"default":"https://cdn.freshful.ro/media/cache/freshful_large/dc/1e/7a2fb9810d21c2b0c303cb82d99a.jpg"},"extralarge":{"default":"https://cdn.freshful.ro/media/cache/sylius_shop_product_original/dc/1e/7a2fb9810d21c2b0c303cb82d99a.jpg"}},"label":null,"tags":[],"isAvailable":true,"maxAvailableQuantity":40,"maxAllowedQuantity":100,"breadcrumbs":[{"code":"2","name":"Carne & pește","slug":"2-carne-si-peste"},{"code":"206","name":"Pește și sushi","slug":"206-peste-si-sushi"},{"code":"20601","name":"Pește proaspăt","slug":"20601-peste-proaspat"},{"code":"100036646","name":"File de doradă 320g","slug":"100036646-alfredo-seafood-file-de-dorada-320g"}],"activePromotion":null,"saveMe":null,"labels":[],"geniusPrice":null,"geniusUnitPricePerLabel":null,"banner":null,"discountLabel":null,"geniusDiscountLabel":null,"badge":null},{"code":"100036643","variantCode":"5941893560330","name":"Somon porții condimentate 300g","slug":"100036643-alfredo-seafood-somon-portii-condimentate-300g","unitPriceLabel":"139,97 Lei/kg","brand":"Alfredo Seafood","brandCode":"221","brandFilterCode":"alfredo-seafood-b222","sku":"100036643","price":41.99,"originalPrice":null,"currencyCode":"RON","currency":"Lei","image":{"thumbnail":{"default":"https://cdn.freshful.ro/media/cache/sylius_shop_product_thumbnail/83/16/b51bc7b44d46d63c1b5840913420.jpg"},"large":{"default":"https://cdn.freshful.ro/media/cache/freshful_large/83/16/b51bc7b44d46d63c1b5840913420.jpg"},"extralarge":{"default":"https://cdn.freshful.ro/media/cache/sylius_shop_product_original/83/16/b51bc7b44d46d63c1b5840913420.jpg"}},"label":null,"tags":[],"isAvailable":true,"maxAvailableQuantity":21,"maxAllowedQuantity":100,"breadcrumbs":[{"code":"2","name":"Carne & pește","slug":"2-carne-si-peste"},{"code":"206","name":"Pește și sushi","slug":"206-peste-si-sushi"},{"code":"20601","name":"Pește proaspăt","slug":"20601-peste-proaspat"},{"code":"100036643","name":"Somon porții condimentate 300g","slug":"100036643-alfredo-seafood-somon-portii-condimentate-300g"}],"activePromotion":null,"saveMe":null,"labels":[],"geniusPrice":null,"geniusUnitPricePerLabel":null,"banner":null,"discountLabel":null,"geniusDiscountLabel":null,"badge":null},{"code":"100036642","variantCode":"5949003407339","name":"Rondele de somon 200g","slug":"100036642-alfredo-seafood-rondele-de-somon-200g","unitPriceLabel":"164,95 Lei/kg","brand":"Alfredo Seafood","brandCode":"221","brandFilterCode":"alfredo-seafood-b222","sku":"100036642","price":32.99,"originalPrice":null,"currencyCode":"RON","currency":"Lei","image":{"thumbnail":{"default":"https://cdn.freshful.ro/media/cache/sylius_shop_product_thumbnail/00/85/a8c916f53bc3e14b7606363b1e25.jpg"},"large":{"default":"https://cdn.freshful.ro/media/cache/freshful_large/00/85/a8c916f53bc3e14b7606363b1e25.jpg"},"extralarge":{"default":"https://cdn.freshful.ro/media/cache/sylius_shop_product_original/00/85/a8c916f53bc3e14b7606363b1e25.jpg"}},"label":null,"tags":[],"isAvailable":true,"maxAvailableQuantity":52,"maxAllowedQuantity":100,"breadcrumbs":[{"code":"2","name":"Carne & pește","slug":"2-carne-si-peste"},{"code":"206","name":"Pește și sushi","slug":"206-peste-si-sushi"},{"code":"20601","name":"Pește proaspăt","slug":"20601-peste-proaspat"},{"code":"100036642","name":"Rondele de somon 200g","slug":"100036642-alfredo-seafood-rondele-de-somon-200g"}],"activePromotion":null,"saveMe":null,"labels":[],"geniusPrice":null,"geniusUnitPricePerLabel":null,"banner":null,"discountLabel":null,"geniusDiscountLabel":null,"badge":null},{"code":"100036647","variantCode":"5941893560767","name":"Lup de mare (biban de mare) eviscerat 600g","slug":"100036647-alfredo-seafood-lup-de-mare-biban-de-mare-eviscerat-600g","unitPriceLabel":"72,29 Lei/kg","brand":"Alfredo Seafood","brandCode":"221","brandFilterCode":"alfredo-seafood-b222","sku":"100036647","price":46.99,"originalPrice":null,"currencyCode":"RON","currency":"Lei","image":{"thumbnail":{"default":"https://cdn.freshful.ro/media/cache/sylius_shop_product_thumbnail/ed/89/38bb40de85292f6d7154e35bf2ff.jpg"},"large":{"default":"https://cdn.freshful.ro/media/cache/freshful_large/ed/89/38bb40de85292f6d7154e35bf2ff.jpg"},"extralarge":{"default":"https://cdn.freshful.ro/media/cache/sylius_shop_product_original/ed/89/38bb40de85292f6d7154e35bf2ff.jpg"}},"label":null,"tags":[],"isAvailable":true,"maxAvailableQuantity":37,"maxAllowedQuantity":100,"breadcrumbs":[{"code":"2","name":"Carne & pește","slug":"2-carne-si-peste"},{"code":"206","name":"Pește și sushi","slug":"206-peste-si-sushi"},{"code":"20601","name":"Pește proaspăt","slug":"20601-peste-proaspat"},{"code":"100036647","name":"Lup de mare (biban de mare) eviscerat 600g","slug":"100036647-alfredo-seafood-lup-de-mare-biban-de-mare-eviscerat-600g"}],"activePromotion":null,"saveMe":null,"labels":[],"geniusPrice":null,"geniusUnitPricePerLabel":null,"banner":null,"discountLabel":null,"geniusDiscountLabel":null,"badge":null},{"code":"100036648","variantCode":"5941893560309","name":"Lup de mare (Biban de mare) file 320g","slug":"100036648-alfredo-seafood-lup-de-mare-biban-de-mare-file-320g","unitPriceLabel":"131,22 Lei/kg","brand":"Alfredo Seafood","brandCode":"221","brandFilterCode":"alfredo-seafood-b222","sku":"100036648","price":41.99,"originalPrice":null,"currencyCode":"RON","currency":"Lei","image":{"thumbnail":{"default":"https://cdn.freshful.ro/media/cache/sylius_shop_product_thumbnail/bb/90/cf310f1e9de9ab85cdfdff68451c.jpg"},"large":{"default":"https://cdn.freshful.ro/media/cache/freshful_large/bb/90/cf310f1e9de9ab85cdfdff68451c.jpg"},"extralarge":{"default":"https://cdn.freshful.ro/media/cache/sylius_shop_product_original/bb/90/cf310f1e9de9ab85cdfdff68451c.jpg"}},"label":null,"tags":[],"isAvailable":true,"maxAvailableQuantity":24,"maxAllowedQuantity":100,"breadcrumbs":[{"code":"2","name":"Carne & pește","slug":"2-carne-si-peste"},{"code":"206","name":"Pește și sushi","slug":"206-peste-si-sushi"},{"code":"20601","name":"Pește proaspăt","slug":"20601-peste-proaspat"},{"code":"100036648","name":"Lup de mare (Biban de mare) file 320g","slug":"100036648-alfredo-seafood-lup-de-mare-biban-de-mare-file-320g"}],"activePromotion":null,"saveMe":null,"labels":[],"geniusPrice":null,"geniusUnitPricePerLabel":null,"banner":null,"discountLabel":null,"geniusDiscountLabel":null,"badge":null},{"code":"100036650","variantCode":"5941893560279","name":"Păstrăv file 320g","slug":"100036650-alfredo-seafood-pastrav-file-320g","unitPriceLabel":"112,47 Lei/kg","brand":"Alfredo Seafood","brandCode":"221","brandFilterCode":"alfredo-seafood-b222","sku":"100036650","price":35.99,"originalPrice":null,"currencyCode":"RON","currency":"Lei","image":{"thumbnail":{"default":"https://cdn.freshful.ro/media/cache/sylius_shop_product_thumbnail/f5/f4/af1f099a71498711c2d35bda4c9e.jpg"},"large":{"default":"https://cdn.freshful.ro/media/cache/freshful_large/f5/f4/af1f099a71498711c2d35bda4c9e.jpg"},"extralarge":{"default":"https://cdn.freshful.ro/media/cache/sylius_shop_product_original/f5/f4/af1f099a71498711c2d35bda4c9e.jpg"}},"label":null,"tags":[],"isAvailable":true,"maxAvailableQuantity":14,"maxAllowedQuantity":100,"breadcrumbs":[{"code":"2","name":"Carne & pește","slug":"2-carne-si-peste"},{"code":"206","name":"Pește și sushi","slug":"206-peste-si-sushi"},{"code":"20601","name":"Pește proaspăt","slug":"20601-peste-proaspat"},{"code":"100036650","name":"Păstrăv file 320g","slug":"100036650-alfredo-seafood-pastrav-file-320g"}],"activePromotion":null,"saveMe":null,"labels":[],"geniusPrice":null,"geniusUnitPricePerLabel":null,"banner":null,"discountLabel":null,"geniusDiscountLabel":null,"badge":null}],"filters":{"countSelected":0,"items":[{"code":"promotion","name":"Promoții","countSelected":0,"values":[{"code":"bunatatile-saptamanii-cw0923","name":"Oferta proaspătă a săptămânii","isSelected":false,"count":2}]},{"code":"brand","name":"Brand","countSelected":0,"values":[{"code":"alfredo-seafood-b222","name":"Alfredo Seafood","isSelected":false,"count":13},{"code":"my-sushi-b194","name":"My Sushi","isSelected":false,"count":2},{"code":"ocean-fish-b192","name":"Ocean Fish","isSelected":false,"count":2},{"code":"pastravaria-busteni-b3066","name":"Păstrăvăria Bușteni","isSelected":false,"count":6}]},{"code":"diet_lifestyle","name":"Dietă și lifestyle","countSelected":0,"values":[{"code":"fara-conservanti-a37","name":"Fara conservanti","isSelected":false,"count":1},{"code":"fara-e-uri-a84","name":"Fara E-uri","isSelected":false,"count":6},{"code":"made-in-romania-a85","name":"Made In Romania","isSelected":false,"count":7}]}]},"orderBy":[{"field":"price","direction":"asc","name":"Preț crescător","isSelected":false},{"field":"price","direction":"desc","name":"Preț descrescător","isSelected":false},{"field":"popularity","direction":"desc","name":"Cele mai populare","isSelected":true},{"field":"category","direction":"asc","name":"Categorie","isSelected":false}],"metaTitle":"Pește proaspăt - Gamă variată","metaDescription":"Vrei Pește proaspăt? Alege dintr-o gamă variată. Comanzi simplu și ai livrare rapidă, calitate și prospețime. Hai pe Freshful.ro","metaKeywords":null,"banners":[]}}