{"type":"subcategory","payload":{"analyticsListId":"category_207-peste-afumat","analyticsListName":"Category - Pește afumat","name":"Pește afumat","slug":"207-peste-afumat","image":null,"breadcrumbs":[{"code":"2","name":"Carne & pește","slug":"2-carne-si-peste"},{"code":"207","name":"Pește afumat","slug":"207-peste-afumat"}],"slots":[],"page":1,"limit":10,"pages":4,"count":33,"siblings":[{"name":"Carne de vită și oaie","slug":"201-carne-de-vita-si-oaie","selected":false},{"name":"Carne de porc","slug":"202-carne-de-porc","selected":false},{"name":"Carne de pasăre","slug":"203-carne-de-pasare","selected":false},{"name":"Alte cărnuri","slug":"204-alte-carnuri","selected":false},{"name":"Mici și specialități","slug":"205-mici-si-specialitati","selected":false},{"name":"Pește și sushi","slug":"206-peste-si-sushi","selected":false},{"name":"Pește afumat","slug":"207-peste-afumat","selected":true},{"name":"Pește marinat","slug":"208-peste-marinat","selected":false},{"name":"Icre și salată de icre","slug":"209-icre-si-salata-de-icre","selected":false},{"name":"Specialități de pește","slug":"210-specialitati-de-peste","selected":false}],"children":[{"name":"Toate produsele","slug":"207-peste-afumat","selected":true},{"name":"Somon afumat","slug":"20701-somon","selected":false},{"name":"Macrou afumat","slug":"20703-macrou","selected":false},{"name":"Păstrăv afumat","slug":"20704-pastrav","selected":false},{"name":"Ton afumat","slug":"20706-ton","selected":false},{"name":"Novac afumat","slug":"20707-novac","selected":false},{"name":"Butterfish afumat","slug":"20709-butterfish","selected":false},{"name":"Sturion afumat","slug":"20710-sturion","selected":false}],"products":[{"code":"100036961","variantCode":"100036961","name":"File de somon scoțian afumat și feliat 100g","slug":"100036961-gastronatura-file-de-somon-scotian-afumat-si-feliat-100g","unitPriceLabel":"165 Lei/kg","brand":"Gastronatura","brandCode":"479","brandFilterCode":"gastronatura-b480","sku":"100036961","price":16.5,"originalPrice":null,"currencyCode":"RON","currency":"Lei","image":{"thumbnail":{"default":"https://cdn.freshful.ro/media/cache/sylius_shop_product_thumbnail/b8/3a/c2385d2d47145a5c691d2c8b554e.jpg"},"large":{"default":"https://cdn.freshful.ro/media/cache/freshful_large/b8/3a/c2385d2d47145a5c691d2c8b554e.jpg"},"extralarge":{"default":"https://cdn.freshful.ro/media/cache/sylius_shop_product_original/b8/3a/c2385d2d47145a5c691d2c8b554e.jpg"}},"label":null,"tags":[],"isAvailable":true,"maxAvailableQuantity":100,"maxAllowedQuantity":100,"breadcrumbs":[{"code":"2","name":"Carne & pește","slug":"2-carne-si-peste"},{"code":"207","name":"Pește afumat","slug":"207-peste-afumat"},{"code":"20701","name":"Somon afumat","slug":"20701-somon"},{"code":"100036961","name":"File de somon scoțian afumat și feliat 100g","slug":"100036961-gastronatura-file-de-somon-scotian-afumat-si-feliat-100g"}],"activePromotion":null,"saveMe":null,"labels":[],"geniusPrice":null,"geniusUnitPricePerLabel":null,"banner":null,"discountLabel":null,"geniusDiscountLabel":null,"badge":null},{"code":"100036756","variantCode":"5941899900680","name":"Macrou eviscerat afumat 240g","slug":"100036756-pescaria-magic-macrou-eviscerat-afumat-240g","unitPriceLabel":"45,79 Lei/kg","brand":"Pescaria Magic","brandCode":"186","brandFilterCode":"pescaria-magic-b187","sku":"100036756","price":10.99,"originalPrice":null,"currencyCode":"RON","currency":"Lei","image":{"thumbnail":{"default":"https://cdn.freshful.ro/media/cache/sylius_shop_product_thumbnail/0a/19/25516655242109ae22d480b97453.jpg"},"large":{"default":"https://cdn.freshful.ro/media/cache/freshful_large/0a/19/25516655242109ae22d480b97453.jpg"},"extralarge":{"default":"https://cdn.freshful.ro/media/cache/sylius_shop_product_original/0a/19/25516655242109ae22d480b97453.jpg"}},"label":{"text":"Mici producători","backgroundColor":"#7B61FF","textColor":"#FFFFFF"},"tags":[],"isAvailable":true,"maxAvailableQuantity":86,"maxAllowedQuantity":100,"breadcrumbs":[{"code":"2","name":"Carne & pește","slug":"2-carne-si-peste"},{"code":"207","name":"Pește afumat","slug":"207-peste-afumat"},{"code":"20703","name":"Macrou afumat","slug":"20703-macrou"},{"code":"100036756","name":"Macrou eviscerat afumat 240g","slug":"100036756-pescaria-magic-macrou-eviscerat-afumat-240g"}],"activePromotion":null,"saveMe":null,"labels":[{"type":"v1","items":[{"text":"Mici producători","backgroundColor":"#7B61FF","textColor":"#FFFFFF"}]}],"geniusPrice":null,"geniusUnitPricePerLabel":null,"banner":null,"discountLabel":null,"geniusDiscountLabel":null,"badge":null},{"code":"100036960","variantCode":"100036960","name":"File de somon afumat și feliat 50g","slug":"100036960-gastronatura-file-de-somon-afumat-si-feliat-50g","unitPriceLabel":"229,8 Lei/kg","brand":"Gastronatura","brandCode":"479","brandFilterCode":"gastronatura-b480","sku":"100036960","price":11.49,"originalPrice":null,"currencyCode":"RON","currency":"Lei","image":{"thumbnail":{"default":"https://cdn.freshful.ro/media/cache/sylius_shop_product_thumbnail/82/75/74ed1fda73f73634de071572bda4.jpg"},"large":{"default":"https://cdn.freshful.ro/media/cache/freshful_large/82/75/74ed1fda73f73634de071572bda4.jpg"},"extralarge":{"default":"https://cdn.freshful.ro/media/cache/sylius_shop_product_original/82/75/74ed1fda73f73634de071572bda4.jpg"}},"label":null,"tags":[],"isAvailable":true,"maxAvailableQuantity":87,"maxAllowedQuantity":100,"breadcrumbs":[{"code":"2","name":"Carne & pește","slug":"2-carne-si-peste"},{"code":"207","name":"Pește afumat","slug":"207-peste-afumat"},{"code":"20701","name":"Somon afumat","slug":"20701-somon"},{"code":"100036960","name":"File de somon afumat și feliat 50g","slug":"100036960-gastronatura-file-de-somon-afumat-si-feliat-50g"}],"activePromotion":null,"saveMe":null,"labels":[],"geniusPrice":null,"geniusUnitPricePerLabel":null,"banner":null,"discountLabel":null,"geniusDiscountLabel":null,"badge":null},{"code":"100063359","variantCode":"6420103023234","name":"File de somon norvegian afumat 150g","slug":"100063359-ocean-fish-file-de-somon-norvegian-afumat-150g","unitPriceLabel":"234,33 Lei/kg","brand":"Ocean Fish","brandCode":"191","brandFilterCode":"ocean-fish-b192","sku":"100063359","price":35.15,"originalPrice":null,"currencyCode":"RON","currency":"Lei","image":{"thumbnail":{"default":"https://cdn.freshful.ro/media/cache/sylius_shop_product_thumbnail/42/9c/eecdec30e972926b6be9d9f28533.jpg"},"large":{"default":"https://cdn.freshful.ro/media/cache/freshful_large/42/9c/eecdec30e972926b6be9d9f28533.jpg"},"extralarge":{"default":"https://cdn.freshful.ro/media/cache/sylius_shop_product_original/42/9c/eecdec30e972926b6be9d9f28533.jpg"}},"label":null,"tags":[],"isAvailable":true,"maxAvailableQuantity":80,"maxAllowedQuantity":100,"breadcrumbs":[{"code":"2","name":"Carne & pește","slug":"2-carne-si-peste"},{"code":"207","name":"Pește afumat","slug":"207-peste-afumat"},{"code":"20701","name":"Somon afumat","slug":"20701-somon"},{"code":"100063359","name":"File de somon norvegian afumat 150g","slug":"100063359-ocean-fish-file-de-somon-norvegian-afumat-150g"}],"activePromotion":null,"saveMe":null,"labels":[],"geniusPrice":null,"geniusUnitPricePerLabel":null,"banner":null,"discountLabel":null,"geniusDiscountLabel":null,"badge":null},{"code":"100036658","variantCode":"5949003403621","name":"Somon afumat de Alaska feliat 100g","slug":"100036658-alfredo-seafood-somon-afumat-de-alaska-feliat-100g","unitPriceLabel":"349,9 Lei/kg","brand":"Alfredo Seafood","brandCode":"221","brandFilterCode":"alfredo-seafood-b222","sku":"100036658","price":34.99,"originalPrice":null,"currencyCode":"RON","currency":"Lei","image":{"thumbnail":{"default":"https://cdn.freshful.ro/media/cache/sylius_shop_product_thumbnail/7c/12/7c09f5668b20e79b66bdec63f8b8.jpg"},"large":{"default":"https://cdn.freshful.ro/media/cache/freshful_large/7c/12/7c09f5668b20e79b66bdec63f8b8.jpg"},"extralarge":{"default":"https://cdn.freshful.ro/media/cache/sylius_shop_product_original/7c/12/7c09f5668b20e79b66bdec63f8b8.jpg"}},"label":null,"tags":[],"isAvailable":true,"maxAvailableQuantity":37,"maxAllowedQuantity":100,"breadcrumbs":[{"code":"2","name":"Carne & pește","slug":"2-carne-si-peste"},{"code":"207","name":"Pește afumat","slug":"207-peste-afumat"},{"code":"20701","name":"Somon afumat","slug":"20701-somon"},{"code":"100036658","name":"Somon afumat de Alaska feliat 100g","slug":"100036658-alfredo-seafood-somon-afumat-de-alaska-feliat-100g"}],"activePromotion":null,"saveMe":null,"labels":[],"geniusPrice":null,"geniusUnitPricePerLabel":null,"banner":null,"discountLabel":null,"geniusDiscountLabel":null,"badge":null},{"code":"100036965","variantCode":"100036965","name":"Pastramă de macrou afumat 140g","slug":"100036965-gastronatura-pastrama-de-macrou-afumat-140g","unitPriceLabel":"84,93 Lei/kg","brand":"Gastronatura","brandCode":"479","brandFilterCode":"gastronatura-b480","sku":"100036965","price":11.89,"originalPrice":null,"currencyCode":"RON","currency":"Lei","image":{"thumbnail":{"default":"https://cdn.freshful.ro/media/cache/sylius_shop_product_thumbnail/4a/c6/3e5a3dd31bc0e3028ea8ae8e5624.jpg"},"large":{"default":"https://cdn.freshful.ro/media/cache/freshful_large/4a/c6/3e5a3dd31bc0e3028ea8ae8e5624.jpg"},"extralarge":{"default":"https://cdn.freshful.ro/media/cache/sylius_shop_product_original/4a/c6/3e5a3dd31bc0e3028ea8ae8e5624.jpg"}},"label":null,"tags":[],"isAvailable":true,"maxAvailableQuantity":40,"maxAllowedQuantity":100,"breadcrumbs":[{"code":"2","name":"Carne & pește","slug":"2-carne-si-peste"},{"code":"207","name":"Pește afumat","slug":"207-peste-afumat"},{"code":"20703","name":"Macrou afumat","slug":"20703-macrou"},{"code":"100036965","name":"Pastramă de macrou afumat 140g","slug":"100036965-gastronatura-pastrama-de-macrou-afumat-140g"}],"activePromotion":null,"saveMe":null,"labels":[],"geniusPrice":null,"geniusUnitPricePerLabel":null,"banner":null,"discountLabel":null,"geniusDiscountLabel":null,"badge":null},{"code":"100097039","variantCode":"3033610067870","name":"Somon de Atlantic afumat 75g","slug":"100097039-labeyrie-somon-de-atlantic-afumat-75g","unitPriceLabel":"478,53 Lei/kg","brand":"Labeyrie","brandCode":"1627","brandFilterCode":"labeyrie-b1631","sku":"100097039","price":35.89,"originalPrice":null,"currencyCode":"RON","currency":"Lei","image":{"thumbnail":{"default":"https://cdn.freshful.ro/media/cache/sylius_shop_product_thumbnail/f5/dc/d199d194721b34415a640a1270db.jpg"},"large":{"default":"https://cdn.freshful.ro/media/cache/freshful_large/f5/dc/d199d194721b34415a640a1270db.jpg"},"extralarge":{"default":"https://cdn.freshful.ro/media/cache/sylius_shop_product_original/f5/dc/d199d194721b34415a640a1270db.jpg"}},"label":null,"tags":[],"isAvailable":true,"maxAvailableQuantity":26,"maxAllowedQuantity":100,"breadcrumbs":[{"code":"2","name":"Carne & pește","slug":"2-carne-si-peste"},{"code":"207","name":"Pește afumat","slug":"207-peste-afumat"},{"code":"20701","name":"Somon afumat","slug":"20701-somon"},{"code":"100097039","name":"Somon de Atlantic afumat 75g","slug":"100097039-labeyrie-somon-de-atlantic-afumat-75g"}],"activePromotion":null,"saveMe":null,"labels":[],"geniusPrice":null,"geniusUnitPricePerLabel":null,"banner":null,"discountLabel":null,"geniusDiscountLabel":null,"badge":null},{"code":"100036659","variantCode":"5949003403607","name":"Somon afumat feliat eco 100g","slug":"100036659-alfredo-seafood-somon-afumat-feliat-eco-100g","unitPriceLabel":"369,9 Lei/kg","brand":"Alfredo Seafood","brandCode":"221","brandFilterCode":"alfredo-seafood-b222","sku":"100036659","price":36.99,"originalPrice":null,"currencyCode":"RON","currency":"Lei","image":{"thumbnail":{"default":"https://cdn.freshful.ro/media/cache/sylius_shop_product_thumbnail/75/ca/e8178368101933fbf08d857e60fa.jpg"},"large":{"default":"https://cdn.freshful.ro/media/cache/freshful_large/75/ca/e8178368101933fbf08d857e60fa.jpg"},"extralarge":{"default":"https://cdn.freshful.ro/media/cache/sylius_shop_product_original/75/ca/e8178368101933fbf08d857e60fa.jpg"}},"label":null,"tags":[{"type":"Eco","text":"Eco","icon":"https://cdn.freshful.ro/assets/product_tags/eco.svg","iconPng":"https://cdn.freshful.ro/assets/product_tags/eco.png","backgroundColor":"#EFFBE4","textColor":"#66BB1B"}],"isAvailable":true,"maxAvailableQuantity":1,"maxAllowedQuantity":100,"breadcrumbs":[{"code":"2","name":"Carne & pește","slug":"2-carne-si-peste"},{"code":"207","name":"Pește afumat","slug":"207-peste-afumat"},{"code":"20701","name":"Somon afumat","slug":"20701-somon"},{"code":"100036659","name":"Somon afumat feliat eco 100g","slug":"100036659-alfredo-seafood-somon-afumat-feliat-eco-100g"}],"activePromotion":null,"saveMe":null,"labels":[],"geniusPrice":null,"geniusUnitPricePerLabel":null,"banner":null,"discountLabel":null,"geniusDiscountLabel":null,"badge":null},{"code":"100036757","variantCode":"5941899900703","name":"Păstrăv eviscerat afumat 280g","slug":"100036757-pescaria-magic-pastrav-eviscerat-afumat-280g","unitPriceLabel":"71,39 Lei/kg","brand":"Pescaria Magic","brandCode":"186","brandFilterCode":"pescaria-magic-b187","sku":"100036757","price":19.99,"originalPrice":null,"currencyCode":"RON","currency":"Lei","image":{"thumbnail":{"default":"https://cdn.freshful.ro/media/cache/sylius_shop_product_thumbnail/0c/77/e11ac16902533cbc11f5bae6f161.jpg"},"large":{"default":"https://cdn.freshful.ro/media/cache/freshful_large/0c/77/e11ac16902533cbc11f5bae6f161.jpg"},"extralarge":{"default":"https://cdn.freshful.ro/media/cache/sylius_shop_product_original/0c/77/e11ac16902533cbc11f5bae6f161.jpg"}},"label":{"text":"Mici producători","backgroundColor":"#7B61FF","textColor":"#FFFFFF"},"tags":[{"type":"MadeInRomania","text":"Made In Romania","icon":"https://cdn.freshful.ro/assets/product_tags/made_in_romania.svg","iconPng":"https://cdn.freshful.ro/assets/product_tags/made_in_romania.png","backgroundColor":"#EDF2FD","textColor":"#1653CA"}],"isAvailable":true,"maxAvailableQuantity":34,"maxAllowedQuantity":100,"breadcrumbs":[{"code":"2","name":"Carne & pește","slug":"2-carne-si-peste"},{"code":"207","name":"Pește afumat","slug":"207-peste-afumat"},{"code":"20704","name":"Păstrăv afumat","slug":"20704-pastrav"},{"code":"100036757","name":"Păstrăv eviscerat afumat 280g","slug":"100036757-pescaria-magic-pastrav-eviscerat-afumat-280g"}],"activePromotion":null,"saveMe":null,"labels":[{"type":"v1","items":[{"text":"Mici producători","backgroundColor":"#7B61FF","textColor":"#FFFFFF"}]}],"geniusPrice":null,"geniusUnitPricePerLabel":null,"banner":null,"discountLabel":null,"geniusDiscountLabel":null,"badge":null},{"code":"100151018","variantCode":"100151018","name":"File de somon afumat Masha și Ursul 50g","slug":"100151018-ocean-fish-file-de-somon-afumat-masha-si-ursul-50g","unitPriceLabel":"303,8 Lei/kg","brand":"Ocean Fish","brandCode":"191","brandFilterCode":"ocean-fish-b192","sku":"100151018","price":15.19,"originalPrice":null,"currencyCode":"RON","currency":"Lei","image":{"thumbnail":{"default":"https://cdn.freshful.ro/media/cache/sylius_shop_product_thumbnail/90/4c/b131920b09ba611432ce47f81546.jpg"},"large":{"default":"https://cdn.freshful.ro/media/cache/freshful_large/90/4c/b131920b09ba611432ce47f81546.jpg"},"extralarge":{"default":"https://cdn.freshful.ro/media/cache/sylius_shop_product_original/90/4c/b131920b09ba611432ce47f81546.jpg"}},"label":null,"tags":[{"type":"NoAddedSugar","text":"Fara zahar adaugat","icon":"https://cdn.freshful.ro/assets/product_tags/fara_zahar_adaugat.svg","iconPng":"https://cdn.freshful.ro/assets/product_tags/fara_zahar_adaugat.png","backgroundColor":"#F8EDF7","textColor":"#C05EBC"}],"isAvailable":true,"maxAvailableQuantity":20,"maxAllowedQuantity":100,"breadcrumbs":[{"code":"2","name":"Carne & pește","slug":"2-carne-si-peste"},{"code":"207","name":"Pește afumat","slug":"207-peste-afumat"},{"code":"20701","name":"Somon afumat","slug":"20701-somon"},{"code":"100151018","name":"File de somon afumat Masha și Ursul 50g","slug":"100151018-ocean-fish-file-de-somon-afumat-masha-si-ursul-50g"}],"activePromotion":null,"saveMe":{"isAvailable":true,"variantCode":"100151018-accsale","maxAvailableQuantity":7,"maxAllowedQuantity":100,"price":11.39,"originalPrice":15.19,"labels":[{"type":"v2","items":[{"text":"Save Me","backgroundColor":"#FF7070","textColor":"#FFFFFF"},{"text":"-25%","backgroundColor":"#333333","textColor":"#FFFFFF"}]},{"type":"v3","items":[{"text":"Expiră pe 07-03-2023","backgroundColor":"#FEF7DC","textColor":"#595959"}]}],"priceColor":"#FF7070","priceIcon":"https://cdn.freshful.ro/assets/save_me/priceIcon.png","unitPriceLabel":"227,8 Lei/kg","badge":null},"labels":[],"geniusPrice":null,"geniusUnitPricePerLabel":null,"banner":{"text":"Cumpără la 11.39 lei","textColor":"#FF7070","bgColor":"#FFF1F1","icon":"https://cdn.freshful.ro/assets/save_me/priceIcon.png","link":"https://www.freshful.ro/p/100151018-ocean-fish-file-de-somon-afumat-masha-si-ursul-50g?sm=true","type":"saveMe","analyticsEventType":"select_item","analyticsEventPayload":[]},"discountLabel":null,"geniusDiscountLabel":null,"badge":null}],"filters":{"countSelected":0,"items":[{"code":"brand","name":"Brand","countSelected":0,"values":[{"code":"alfredo-seafood-b222","name":"Alfredo Seafood","isSelected":false,"count":2},{"code":"doripesco-b176","name":"Doripesco","isSelected":false,"count":5},{"code":"gastronatura-b480","name":"Gastronatura","isSelected":false,"count":4},{"code":"hedonia-b777","name":"Hedonia","isSelected":false,"count":7},{"code":"labeyrie-b1631","name":"Labeyrie","isSelected":false,"count":4},{"code":"ocean-fish-b192","name":"Ocean Fish","isSelected":false,"count":4},{"code":"pescaria-magic-b187","name":"Pescaria Magic","isSelected":false,"count":2},{"code":"pastravaria-busteni-b3066","name":"Păstrăvăria Bușteni","isSelected":false,"count":3},{"code":"rafa-b508","name":"Rafa","isSelected":false,"count":1},{"code":"valeputna-b265","name":"Valeputna","isSelected":false,"count":1}]},{"code":"diet_lifestyle","name":"Dietă și lifestyle","countSelected":0,"values":[{"code":"eco-a83","name":"Eco","isSelected":false,"count":3},{"code":"fara-conservanti-a37","name":"Fara conservanti","isSelected":false,"count":11},{"code":"fara-e-uri-a84","name":"Fara E-uri","isSelected":false,"count":3},{"code":"fara-zahar-adaugat-a29","name":"Fara zahar adaugat","isSelected":false,"count":1},{"code":"made-in-romania-a85","name":"Made In Romania","isSelected":false,"count":14},{"code":"natural-a27","name":"Natural","isSelected":false,"count":11}]}]},"orderBy":[{"field":"price","direction":"asc","name":"Preț crescător","isSelected":false},{"field":"price","direction":"desc","name":"Preț descrescător","isSelected":false},{"field":"popularity","direction":"desc","name":"Cele mai populare","isSelected":true},{"field":"category","direction":"asc","name":"Categorie","isSelected":false}],"metaTitle":"Pește afumat - Gamă variată","metaDescription":"Vrei Pește afumat? Alege dintr-o gamă variată. Comanzi simplu și ai livrare rapidă, calitate și prospețime. Hai pe Freshful.ro","metaKeywords":null,"banners":[]}}