{"type":"subcategory","payload":{"analyticsListId":"category_208-peste-marinat","analyticsListName":"Category - Pește marinat","name":"Pește marinat","slug":"208-peste-marinat","image":null,"breadcrumbs":[{"code":"2","name":"Carne & pește","slug":"2-carne-si-peste"},{"code":"208","name":"Pește marinat","slug":"208-peste-marinat"}],"slots":[],"page":1,"limit":10,"pages":2,"count":18,"siblings":[{"name":"Carne de vită și oaie","slug":"201-carne-de-vita-si-oaie","selected":false},{"name":"Carne de porc","slug":"202-carne-de-porc","selected":false},{"name":"Carne de pasăre","slug":"203-carne-de-pasare","selected":false},{"name":"Alte cărnuri","slug":"204-alte-carnuri","selected":false},{"name":"Mici și specialități","slug":"205-mici-si-specialitati","selected":false},{"name":"Pește și sushi","slug":"206-peste-si-sushi","selected":false},{"name":"Pește afumat","slug":"207-peste-afumat","selected":false},{"name":"Pește marinat","slug":"208-peste-marinat","selected":true},{"name":"Icre și salată de icre","slug":"209-icre-si-salata-de-icre","selected":false},{"name":"Specialități de pește","slug":"210-specialitati-de-peste","selected":false}],"children":[{"name":"Toate produsele","slug":"208-peste-marinat","selected":true},{"name":"Anșoa","slug":"20801-ansoa","selected":false},{"name":"Hering marinat","slug":"20802-hering-marinat","selected":false},{"name":"Macrou marinat","slug":"20803-macrou-marinat","selected":false},{"name":"Păstrăv marinat","slug":"pastrav-marinat","selected":false},{"name":"Alte tipuri de pește marinat","slug":"alte-tipuri-de-peste-marinat","selected":false}],"products":[{"code":"100150138","variantCode":"100150138","name":"Zdrențe jăruite din păstrăv somonat în ulei de măsline 150g","slug":"100150138-pastravaria-busteni-zdrente-jaruite-din-pastrav-somonat-in-ulei-de-masline-150g","unitPriceLabel":"170,6 Lei/kg","brand":"Păstrăvăria Bușteni","brandCode":"2971","brandFilterCode":"pastravaria-busteni-b3066","sku":"100150138","price":25.59,"originalPrice":30.19,"currencyCode":"RON","currency":"Lei","image":{"thumbnail":{"default":"https://cdn.freshful.ro/media/cache/sylius_shop_product_thumbnail/65/cb/6c7c5911ef5c1fa9a5a4ab7db7a7.jpg"},"large":{"default":"https://cdn.freshful.ro/media/cache/freshful_large/65/cb/6c7c5911ef5c1fa9a5a4ab7db7a7.jpg"},"extralarge":{"default":"https://cdn.freshful.ro/media/cache/sylius_shop_product_original/65/cb/6c7c5911ef5c1fa9a5a4ab7db7a7.jpg"}},"label":{"text":"-15%","backgroundColor":"#FF9903","textColor":"#FFFFFF"},"tags":[{"type":"NoE","text":"Fara E-uri","icon":"https://cdn.freshful.ro/assets/product_tags/fara_euri.svg","iconPng":"https://cdn.freshful.ro/assets/product_tags/fara_euri.png","backgroundColor":"#FCF5DF","textColor":"#CAA316"},{"type":"Natural","text":"Natural","icon":"https://cdn.freshful.ro/assets/product_tags/natural.svg","iconPng":"https://cdn.freshful.ro/assets/product_tags/natural.png","backgroundColor":"#E9FCF2","textColor":"#18AF62"},{"type":"MadeInRomania","text":"Made In Romania","icon":"https://cdn.freshful.ro/assets/product_tags/made_in_romania.svg","iconPng":"https://cdn.freshful.ro/assets/product_tags/made_in_romania.png","backgroundColor":"#EDF2FD","textColor":"#1653CA"},{"type":"NoPreservatives","text":"Fara conservanti","icon":"https://cdn.freshful.ro/assets/product_tags/fara_conservanti.svg","iconPng":"https://cdn.freshful.ro/assets/product_tags/fara_conservanti.png","backgroundColor":"#F0F2FF","textColor":"#7889DD"}],"isAvailable":true,"maxAvailableQuantity":32,"maxAllowedQuantity":100,"breadcrumbs":[{"code":"2","name":"Carne & pește","slug":"2-carne-si-peste"},{"code":"208","name":"Pește marinat","slug":"208-peste-marinat"},{"code":"20805","name":"Păstrăv marinat","slug":"pastrav-marinat"},{"code":"100150138","name":"Zdrențe jăruite din păstrăv somonat în ulei de măsline 150g","slug":"100150138-pastravaria-busteni-zdrente-jaruite-din-pastrav-somonat-in-ulei-de-masline-150g"}],"activePromotion":{"code":"bunatatile-saptamanii-cw0923","name":"Preț redus","targetQuantity":null},"saveMe":null,"labels":[{"type":"v1","items":[{"text":"-15%","backgroundColor":"#FF9903","textColor":"#FFFFFF"}]}],"geniusPrice":null,"geniusUnitPricePerLabel":null,"banner":{"text":"Super preț","textColor":"#FF0000","bgColor":"#FFF2EC","icon":null,"link":"https://www.freshful.ro/oferte/bunatatile-saptamanii-cw0923","type":"promo","analyticsEventType":"select_promotion","analyticsEventPayload":{"promotion_id":"bunatatile-saptamanii-cw0923","promotion_name":"Oferta proaspătă a săptămânii"}},"discountLabel":"Economisești 15%","geniusDiscountLabel":null,"badge":null},{"code":"100063377","variantCode":"6420103023692","name":"File de hering marinat clasic 200g","slug":"100063377-ocean-fish-file-de-hering-marinat-clasic-200g","unitPriceLabel":"56,95 Lei/kg","brand":"Ocean Fish","brandCode":"191","brandFilterCode":"ocean-fish-b192","sku":"100063377","price":11.39,"originalPrice":null,"currencyCode":"RON","currency":"Lei","image":{"thumbnail":{"default":"https://cdn.freshful.ro/media/cache/sylius_shop_product_thumbnail/3b/cc/e48f9f9f45a74690ff5dd129716b.jpg"},"large":{"default":"https://cdn.freshful.ro/media/cache/freshful_large/3b/cc/e48f9f9f45a74690ff5dd129716b.jpg"},"extralarge":{"default":"https://cdn.freshful.ro/media/cache/sylius_shop_product_original/3b/cc/e48f9f9f45a74690ff5dd129716b.jpg"}},"label":null,"tags":[],"isAvailable":true,"maxAvailableQuantity":93,"maxAllowedQuantity":100,"breadcrumbs":[{"code":"2","name":"Carne & pește","slug":"2-carne-si-peste"},{"code":"208","name":"Pește marinat","slug":"208-peste-marinat"},{"code":"20802","name":"Hering marinat","slug":"20802-hering-marinat"},{"code":"100063377","name":"File de hering marinat clasic 200g","slug":"100063377-ocean-fish-file-de-hering-marinat-clasic-200g"}],"activePromotion":null,"saveMe":null,"labels":[],"geniusPrice":null,"geniusUnitPricePerLabel":null,"banner":null,"discountLabel":null,"geniusDiscountLabel":null,"badge":null},{"code":"100120185","variantCode":"100120185","name":"Macrou marinat 350g","slug":"100120185-deltaica-macrou-marinat-350g","unitPriceLabel":"31,4 Lei/kg","brand":"Deltaica","brandCode":"1685","brandFilterCode":"deltaica-b1689","sku":"100120185","price":10.99,"originalPrice":null,"currencyCode":"RON","currency":"Lei","image":{"thumbnail":{"default":"https://cdn.freshful.ro/media/cache/sylius_shop_product_thumbnail/cd/9e/2a2766faa91fe01bbc1b70bd6ae8.jpg"},"large":{"default":"https://cdn.freshful.ro/media/cache/freshful_large/cd/9e/2a2766faa91fe01bbc1b70bd6ae8.jpg"},"extralarge":{"default":"https://cdn.freshful.ro/media/cache/sylius_shop_product_original/cd/9e/2a2766faa91fe01bbc1b70bd6ae8.jpg"}},"label":null,"tags":[{"type":"NoPreservatives","text":"Fara conservanti","icon":"https://cdn.freshful.ro/assets/product_tags/fara_conservanti.svg","iconPng":"https://cdn.freshful.ro/assets/product_tags/fara_conservanti.png","backgroundColor":"#F0F2FF","textColor":"#7889DD"},{"type":"NoE","text":"Fara E-uri","icon":"https://cdn.freshful.ro/assets/product_tags/fara_euri.svg","iconPng":"https://cdn.freshful.ro/assets/product_tags/fara_euri.png","backgroundColor":"#FCF5DF","textColor":"#CAA316"}],"isAvailable":true,"maxAvailableQuantity":21,"maxAllowedQuantity":100,"breadcrumbs":[{"code":"2","name":"Carne & pește","slug":"2-carne-si-peste"},{"code":"208","name":"Pește marinat","slug":"208-peste-marinat"},{"code":"20803","name":"Macrou marinat","slug":"20803-macrou-marinat"},{"code":"100120185","name":"Macrou marinat 350g","slug":"100120185-deltaica-macrou-marinat-350g"}],"activePromotion":null,"saveMe":null,"labels":[],"geniusPrice":null,"geniusUnitPricePerLabel":null,"banner":null,"discountLabel":null,"geniusDiscountLabel":null,"badge":null},{"code":"100036664","variantCode":"5949003406684","name":"Fileuri de anșoa marinat cu usturoi 200g","slug":"100036664-alfredo-seafood-fileuri-de-ansoa-marinat-cu-usturoi-200g","unitPriceLabel":"99,45 Lei/kg","brand":"Alfredo Seafood","brandCode":"221","brandFilterCode":"alfredo-seafood-b222","sku":"100036664","price":19.89,"originalPrice":null,"currencyCode":"RON","currency":"Lei","image":{"thumbnail":{"default":"https://cdn.freshful.ro/media/cache/sylius_shop_product_thumbnail/15/01/5c0784f0c52f89d0d23bdc5dbb20.jpg"},"large":{"default":"https://cdn.freshful.ro/media/cache/freshful_large/15/01/5c0784f0c52f89d0d23bdc5dbb20.jpg"},"extralarge":{"default":"https://cdn.freshful.ro/media/cache/sylius_shop_product_original/15/01/5c0784f0c52f89d0d23bdc5dbb20.jpg"}},"label":null,"tags":[],"isAvailable":true,"maxAvailableQuantity":43,"maxAllowedQuantity":100,"breadcrumbs":[{"code":"2","name":"Carne & pește","slug":"2-carne-si-peste"},{"code":"208","name":"Pește marinat","slug":"208-peste-marinat"},{"code":"20801","name":"Anșoa","slug":"20801-ansoa"},{"code":"100036664","name":"Fileuri de anșoa marinat cu usturoi 200g","slug":"100036664-alfredo-seafood-fileuri-de-ansoa-marinat-cu-usturoi-200g"}],"activePromotion":null,"saveMe":null,"labels":[],"geniusPrice":null,"geniusUnitPricePerLabel":null,"banner":null,"discountLabel":null,"geniusDiscountLabel":null,"badge":null},{"code":"100120183","variantCode":"100120183","name":"Sardeluță marinată în vin 350g","slug":"100120183-deltaica-sardeluta-marinata-in-vin-350g","unitPriceLabel":"38,54 Lei/kg","brand":"Deltaica","brandCode":"1685","brandFilterCode":"deltaica-b1689","sku":"100120183","price":13.49,"originalPrice":null,"currencyCode":"RON","currency":"Lei","image":{"thumbnail":{"default":"https://cdn.freshful.ro/media/cache/sylius_shop_product_thumbnail/78/fe/81a55556edecfdc995f1ea3309c6.jpg"},"large":{"default":"https://cdn.freshful.ro/media/cache/freshful_large/78/fe/81a55556edecfdc995f1ea3309c6.jpg"},"extralarge":{"default":"https://cdn.freshful.ro/media/cache/sylius_shop_product_original/78/fe/81a55556edecfdc995f1ea3309c6.jpg"}},"label":null,"tags":[{"type":"NoE","text":"Fara E-uri","icon":"https://cdn.freshful.ro/assets/product_tags/fara_euri.svg","iconPng":"https://cdn.freshful.ro/assets/product_tags/fara_euri.png","backgroundColor":"#FCF5DF","textColor":"#CAA316"},{"type":"NoPreservatives","text":"Fara conservanti","icon":"https://cdn.freshful.ro/assets/product_tags/fara_conservanti.svg","iconPng":"https://cdn.freshful.ro/assets/product_tags/fara_conservanti.png","backgroundColor":"#F0F2FF","textColor":"#7889DD"}],"isAvailable":true,"maxAvailableQuantity":25,"maxAllowedQuantity":100,"breadcrumbs":[{"code":"2","name":"Carne & pește","slug":"2-carne-si-peste"},{"code":"208","name":"Pește marinat","slug":"208-peste-marinat"},{"code":"20802","name":"Hering marinat","slug":"20802-hering-marinat"},{"code":"100120183","name":"Sardeluță marinată în vin 350g","slug":"100120183-deltaica-sardeluta-marinata-in-vin-350g"}],"activePromotion":null,"saveMe":null,"labels":[],"geniusPrice":null,"geniusUnitPricePerLabel":null,"banner":null,"discountLabel":null,"geniusDiscountLabel":null,"badge":null},{"code":"100120181","variantCode":"100120181","name":"Sardeluță marinată în ulei 165g","slug":"100120181-deltaica-sardeluta-marinata-in-ulei-165g","unitPriceLabel":"52,06 Lei/kg","brand":"Deltaica","brandCode":"1685","brandFilterCode":"deltaica-b1689","sku":"100120181","price":8.59,"originalPrice":null,"currencyCode":"RON","currency":"Lei","image":{"thumbnail":{"default":"https://cdn.freshful.ro/media/cache/sylius_shop_product_thumbnail/02/ab/816bdf9a23446dd85cceb7b9e6a8.jpg"},"large":{"default":"https://cdn.freshful.ro/media/cache/freshful_large/02/ab/816bdf9a23446dd85cceb7b9e6a8.jpg"},"extralarge":{"default":"https://cdn.freshful.ro/media/cache/sylius_shop_product_original/02/ab/816bdf9a23446dd85cceb7b9e6a8.jpg"}},"label":null,"tags":[{"type":"MadeInRomania","text":"Made In Romania","icon":"https://cdn.freshful.ro/assets/product_tags/made_in_romania.svg","iconPng":"https://cdn.freshful.ro/assets/product_tags/made_in_romania.png","backgroundColor":"#EDF2FD","textColor":"#1653CA"},{"type":"NoE","text":"Fara E-uri","icon":"https://cdn.freshful.ro/assets/product_tags/fara_euri.svg","iconPng":"https://cdn.freshful.ro/assets/product_tags/fara_euri.png","backgroundColor":"#FCF5DF","textColor":"#CAA316"},{"type":"NoPreservatives","text":"Fara conservanti","icon":"https://cdn.freshful.ro/assets/product_tags/fara_conservanti.svg","iconPng":"https://cdn.freshful.ro/assets/product_tags/fara_conservanti.png","backgroundColor":"#F0F2FF","textColor":"#7889DD"}],"isAvailable":true,"maxAvailableQuantity":20,"maxAllowedQuantity":100,"breadcrumbs":[{"code":"2","name":"Carne & pește","slug":"2-carne-si-peste"},{"code":"208","name":"Pește marinat","slug":"208-peste-marinat"},{"code":"20802","name":"Hering marinat","slug":"20802-hering-marinat"},{"code":"100120181","name":"Sardeluță marinată în ulei 165g","slug":"100120181-deltaica-sardeluta-marinata-in-ulei-165g"}],"activePromotion":null,"saveMe":null,"labels":[],"geniusPrice":null,"geniusUnitPricePerLabel":null,"banner":null,"discountLabel":null,"geniusDiscountLabel":null,"badge":null},{"code":"100110192","variantCode":"100110192","name":"Rulouri hering cu usturoi 200g","slug":"100110192-rafa-rulouri-hering-cu-usturoi-200g","unitPriceLabel":"63,45 Lei/kg","brand":"Rafa","brandCode":"507","brandFilterCode":"rafa-b508","sku":"100110192","price":12.69,"originalPrice":null,"currencyCode":"RON","currency":"Lei","image":{"thumbnail":{"default":"https://cdn.freshful.ro/media/cache/sylius_shop_product_thumbnail/2e/c1/f5f2d5fdd09760fe2137174b30d1.jpg"},"large":{"default":"https://cdn.freshful.ro/media/cache/freshful_large/2e/c1/f5f2d5fdd09760fe2137174b30d1.jpg"},"extralarge":{"default":"https://cdn.freshful.ro/media/cache/sylius_shop_product_original/2e/c1/f5f2d5fdd09760fe2137174b30d1.jpg"}},"label":null,"tags":[],"isAvailable":true,"maxAvailableQuantity":11,"maxAllowedQuantity":100,"breadcrumbs":[{"code":"2","name":"Carne & pește","slug":"2-carne-si-peste"},{"code":"208","name":"Pește marinat","slug":"208-peste-marinat"},{"code":"20802","name":"Hering marinat","slug":"20802-hering-marinat"},{"code":"100110192","name":"Rulouri hering cu usturoi 200g","slug":"100110192-rafa-rulouri-hering-cu-usturoi-200g"}],"activePromotion":null,"saveMe":null,"labels":[],"geniusPrice":null,"geniusUnitPricePerLabel":null,"banner":null,"discountLabel":null,"geniusDiscountLabel":null,"badge":null},{"code":"100036663","variantCode":"5949003406714","name":"Fileuri de anșoa cu sos de ardei iute 200g","slug":"100036663-alfredo-seafood-fileuri-de-ansoa-cu-sos-de-ardei-iute-200g","unitPriceLabel":"99,9 Lei/kg","brand":"Alfredo Seafood","brandCode":"221","brandFilterCode":"alfredo-seafood-b222","sku":"100036663","price":19.98,"originalPrice":null,"currencyCode":"RON","currency":"Lei","image":{"thumbnail":{"default":"https://cdn.freshful.ro/media/cache/sylius_shop_product_thumbnail/22/ae/ab51d12f7bf4e07341624a4ee2d1.jpg"},"large":{"default":"https://cdn.freshful.ro/media/cache/freshful_large/22/ae/ab51d12f7bf4e07341624a4ee2d1.jpg"},"extralarge":{"default":"https://cdn.freshful.ro/media/cache/sylius_shop_product_original/22/ae/ab51d12f7bf4e07341624a4ee2d1.jpg"}},"label":null,"tags":[],"isAvailable":true,"maxAvailableQuantity":19,"maxAllowedQuantity":100,"breadcrumbs":[{"code":"2","name":"Carne & pește","slug":"2-carne-si-peste"},{"code":"208","name":"Pește marinat","slug":"208-peste-marinat"},{"code":"20801","name":"Anșoa","slug":"20801-ansoa"},{"code":"100036663","name":"Fileuri de anșoa cu sos de ardei iute 200g","slug":"100036663-alfredo-seafood-fileuri-de-ansoa-cu-sos-de-ardei-iute-200g"}],"activePromotion":null,"saveMe":null,"labels":[],"geniusPrice":null,"geniusUnitPricePerLabel":null,"banner":null,"discountLabel":null,"geniusDiscountLabel":null,"badge":null},{"code":"100036760","variantCode":"5941899900116","name":"Macrou marinat cu legume 600g","slug":"100036760-pescaria-magic-macrou-marinat-cu-legume-600g","unitPriceLabel":"28,32 Lei/kg","brand":"Pescaria Magic","brandCode":"186","brandFilterCode":"pescaria-magic-b187","sku":"100036760","price":16.99,"originalPrice":null,"currencyCode":"RON","currency":"Lei","image":{"thumbnail":{"default":"https://cdn.freshful.ro/media/cache/sylius_shop_product_thumbnail/8c/d0/503a38aa2ee26494cbedece16eff.jpg"},"large":{"default":"https://cdn.freshful.ro/media/cache/freshful_large/8c/d0/503a38aa2ee26494cbedece16eff.jpg"},"extralarge":{"default":"https://cdn.freshful.ro/media/cache/sylius_shop_product_original/8c/d0/503a38aa2ee26494cbedece16eff.jpg"}},"label":{"text":"Mici producători","backgroundColor":"#7B61FF","textColor":"#FFFFFF"},"tags":[],"isAvailable":true,"maxAvailableQuantity":10,"maxAllowedQuantity":100,"breadcrumbs":[{"code":"2","name":"Carne & pește","slug":"2-carne-si-peste"},{"code":"208","name":"Pește marinat","slug":"208-peste-marinat"},{"code":"20803","name":"Macrou marinat","slug":"20803-macrou-marinat"},{"code":"100036760","name":"Macrou marinat cu legume 600g","slug":"100036760-pescaria-magic-macrou-marinat-cu-legume-600g"}],"activePromotion":null,"saveMe":null,"labels":[{"type":"v1","items":[{"text":"Mici producători","backgroundColor":"#7B61FF","textColor":"#FFFFFF"}]}],"geniusPrice":null,"geniusUnitPricePerLabel":null,"banner":null,"discountLabel":null,"geniusDiscountLabel":null,"badge":null},{"code":"100120186","variantCode":"100120186","name":"Marinată lipovenească 500g","slug":"100120186-deltaica-marinata-lipoveneasca-500g","unitPriceLabel":"39,18 Lei/kg","brand":"Deltaica","brandCode":"1685","brandFilterCode":"deltaica-b1689","sku":"100120186","price":19.59,"originalPrice":null,"currencyCode":"RON","currency":"Lei","image":{"thumbnail":{"default":"https://cdn.freshful.ro/media/cache/sylius_shop_product_thumbnail/02/5d/5d9b4b1f15c302c09786de00dd15.jpg"},"large":{"default":"https://cdn.freshful.ro/media/cache/freshful_large/02/5d/5d9b4b1f15c302c09786de00dd15.jpg"},"extralarge":{"default":"https://cdn.freshful.ro/media/cache/sylius_shop_product_original/02/5d/5d9b4b1f15c302c09786de00dd15.jpg"}},"label":null,"tags":[{"type":"MadeInRomania","text":"Made In Romania","icon":"https://cdn.freshful.ro/assets/product_tags/made_in_romania.svg","iconPng":"https://cdn.freshful.ro/assets/product_tags/made_in_romania.png","backgroundColor":"#EDF2FD","textColor":"#1653CA"},{"type":"NoE","text":"Fara E-uri","icon":"https://cdn.freshful.ro/assets/product_tags/fara_euri.svg","iconPng":"https://cdn.freshful.ro/assets/product_tags/fara_euri.png","backgroundColor":"#FCF5DF","textColor":"#CAA316"},{"type":"NoPreservatives","text":"Fara conservanti","icon":"https://cdn.freshful.ro/assets/product_tags/fara_conservanti.svg","iconPng":"https://cdn.freshful.ro/assets/product_tags/fara_conservanti.png","backgroundColor":"#F0F2FF","textColor":"#7889DD"}],"isAvailable":true,"maxAvailableQuantity":5,"maxAllowedQuantity":100,"breadcrumbs":[{"code":"2","name":"Carne & pește","slug":"2-carne-si-peste"},{"code":"208","name":"Pește marinat","slug":"208-peste-marinat"},{"code":"20803","name":"Macrou marinat","slug":"20803-macrou-marinat"},{"code":"100120186","name":"Marinată lipovenească 500g","slug":"100120186-deltaica-marinata-lipoveneasca-500g"}],"activePromotion":null,"saveMe":null,"labels":[],"geniusPrice":null,"geniusUnitPricePerLabel":null,"banner":null,"discountLabel":null,"geniusDiscountLabel":null,"badge":null}],"filters":{"countSelected":0,"items":[{"code":"promotion","name":"Promoții","countSelected":0,"values":[{"code":"bunatatile-saptamanii-cw0923","name":"Oferta proaspătă a săptămânii","isSelected":false,"count":1}]},{"code":"brand","name":"Brand","countSelected":0,"values":[{"code":"alfredo-seafood-b222","name":"Alfredo Seafood","isSelected":false,"count":2},{"code":"deltaica-b1689","name":"Deltaica","isSelected":false,"count":7},{"code":"gastronatura-b480","name":"Gastronatura","isSelected":false,"count":1},{"code":"ocean-fish-b192","name":"Ocean Fish","isSelected":false,"count":3},{"code":"pescaria-magic-b187","name":"Pescaria Magic","isSelected":false,"count":1},{"code":"pastravaria-busteni-b3066","name":"Păstrăvăria Bușteni","isSelected":false,"count":3},{"code":"rafa-b508","name":"Rafa","isSelected":false,"count":1}]},{"code":"diet_lifestyle","name":"Dietă și lifestyle","countSelected":0,"values":[{"code":"fara-conservanti-a37","name":"Fara conservanti","isSelected":false,"count":10},{"code":"fara-e-uri-a84","name":"Fara E-uri","isSelected":false,"count":10},{"code":"made-in-romania-a85","name":"Made In Romania","isSelected":false,"count":8},{"code":"natural-a27","name":"Natural","isSelected":false,"count":3}]}]},"orderBy":[{"field":"price","direction":"asc","name":"Preț crescător","isSelected":false},{"field":"price","direction":"desc","name":"Preț descrescător","isSelected":false},{"field":"popularity","direction":"desc","name":"Cele mai populare","isSelected":true},{"field":"category","direction":"asc","name":"Categorie","isSelected":false}],"metaTitle":"Pește marinat - Gamă variată","metaDescription":"Vrei Pește marinat? Alege dintr-o gamă variată. Comanzi simplu și ai livrare rapidă, calitate și prospețime. Hai pe Freshful.ro","metaKeywords":null,"banners":[]}}