{"type":"subcategory","payload":{"analyticsListId":"category_20902-salata-de-icre","analyticsListName":"Category - Salată de icre","name":"Salată de icre","slug":"20902-salata-de-icre","image":null,"breadcrumbs":[{"code":"2","name":"Carne & pește","slug":"2-carne-si-peste"},{"code":"209","name":"Icre și salată de icre","slug":"209-icre-si-salata-de-icre"},{"code":"20902","name":"Salată de icre","slug":"20902-salata-de-icre"}],"slots":[],"page":1,"limit":10,"pages":4,"count":31,"siblings":[{"name":"Carne de vită și oaie","slug":"201-carne-de-vita-si-oaie","selected":false},{"name":"Carne de porc","slug":"202-carne-de-porc","selected":false},{"name":"Carne de pasăre","slug":"203-carne-de-pasare","selected":false},{"name":"Alte cărnuri","slug":"204-alte-carnuri","selected":false},{"name":"Mici și specialități","slug":"205-mici-si-specialitati","selected":false},{"name":"Pește și sushi","slug":"206-peste-si-sushi","selected":false},{"name":"Pește afumat","slug":"207-peste-afumat","selected":false},{"name":"Pește marinat","slug":"208-peste-marinat","selected":false},{"name":"Icre și salată de icre","slug":"209-icre-si-salata-de-icre","selected":true},{"name":"Specialități de pește","slug":"210-specialitati-de-peste","selected":false}],"children":[{"name":"Toate produsele","slug":"209-icre-si-salata-de-icre","selected":false},{"name":"Icre","slug":"20901-icre","selected":false},{"name":"Salată de icre","slug":"20902-salata-de-icre","selected":true}],"products":[{"code":"100120176","variantCode":"100120176","name":"Salată cu icre de crap și ceapă 100g","slug":"100120176-deltaica-salata-cu-icre-de-crap-si-ceapa-100g","unitPriceLabel":"65,9 Lei/kg","brand":"Deltaica","brandCode":"1685","brandFilterCode":"deltaica-b1689","sku":"100120176","price":6.59,"originalPrice":null,"currencyCode":"RON","currency":"Lei","image":{"thumbnail":{"default":"https://cdn.freshful.ro/media/cache/sylius_shop_product_thumbnail/7f/71/686d78814bfb3db9b7da95aa76d4.jpg"},"large":{"default":"https://cdn.freshful.ro/media/cache/freshful_large/7f/71/686d78814bfb3db9b7da95aa76d4.jpg"},"extralarge":{"default":"https://cdn.freshful.ro/media/cache/sylius_shop_product_original/7f/71/686d78814bfb3db9b7da95aa76d4.jpg"}},"label":null,"tags":[{"type":"MadeInRomania","text":"Made In Romania","icon":"https://cdn.freshful.ro/assets/product_tags/made_in_romania.svg","iconPng":"https://cdn.freshful.ro/assets/product_tags/made_in_romania.png","backgroundColor":"#EDF2FD","textColor":"#1653CA"},{"type":"NoPreservatives","text":"Fara conservanti","icon":"https://cdn.freshful.ro/assets/product_tags/fara_conservanti.svg","iconPng":"https://cdn.freshful.ro/assets/product_tags/fara_conservanti.png","backgroundColor":"#F0F2FF","textColor":"#7889DD"},{"type":"NoE","text":"Fara E-uri","icon":"https://cdn.freshful.ro/assets/product_tags/fara_euri.svg","iconPng":"https://cdn.freshful.ro/assets/product_tags/fara_euri.png","backgroundColor":"#FCF5DF","textColor":"#CAA316"}],"isAvailable":true,"maxAvailableQuantity":100,"maxAllowedQuantity":100,"breadcrumbs":[{"code":"2","name":"Carne & pește","slug":"2-carne-si-peste"},{"code":"209","name":"Icre și salată de icre","slug":"209-icre-si-salata-de-icre"},{"code":"20902","name":"Salată de icre","slug":"20902-salata-de-icre"},{"code":"100120176","name":"Salată cu icre de crap și ceapă 100g","slug":"100120176-deltaica-salata-cu-icre-de-crap-si-ceapa-100g"}],"activePromotion":null,"saveMe":null,"labels":[],"geniusPrice":null,"geniusUnitPricePerLabel":null,"banner":null,"discountLabel":null,"geniusDiscountLabel":null,"badge":null},{"code":"100120177","variantCode":"100120177","name":"Salată cu icre de știucă de Tulcea IGP 100g","slug":"100120177-deltaica-salata-cu-icre-de-stiuca-de-tulcea-igp-100g","unitPriceLabel":"129,9 Lei/kg","brand":"Deltaica","brandCode":"1685","brandFilterCode":"deltaica-b1689","sku":"100120177","price":12.99,"originalPrice":null,"currencyCode":"RON","currency":"Lei","image":{"thumbnail":{"default":"https://cdn.freshful.ro/media/cache/sylius_shop_product_thumbnail/3d/36/bcf957d241e611ee331b2f1aa8e4.jpg"},"large":{"default":"https://cdn.freshful.ro/media/cache/freshful_large/3d/36/bcf957d241e611ee331b2f1aa8e4.jpg"},"extralarge":{"default":"https://cdn.freshful.ro/media/cache/sylius_shop_product_original/3d/36/bcf957d241e611ee331b2f1aa8e4.jpg"}},"label":null,"tags":[{"type":"MadeInRomania","text":"Made In Romania","icon":"https://cdn.freshful.ro/assets/product_tags/made_in_romania.svg","iconPng":"https://cdn.freshful.ro/assets/product_tags/made_in_romania.png","backgroundColor":"#EDF2FD","textColor":"#1653CA"},{"type":"NoE","text":"Fara E-uri","icon":"https://cdn.freshful.ro/assets/product_tags/fara_euri.svg","iconPng":"https://cdn.freshful.ro/assets/product_tags/fara_euri.png","backgroundColor":"#FCF5DF","textColor":"#CAA316"},{"type":"NoPreservatives","text":"Fara conservanti","icon":"https://cdn.freshful.ro/assets/product_tags/fara_conservanti.svg","iconPng":"https://cdn.freshful.ro/assets/product_tags/fara_conservanti.png","backgroundColor":"#F0F2FF","textColor":"#7889DD"}],"isAvailable":true,"maxAvailableQuantity":50,"maxAllowedQuantity":100,"breadcrumbs":[{"code":"2","name":"Carne & pește","slug":"2-carne-si-peste"},{"code":"209","name":"Icre și salată de icre","slug":"209-icre-si-salata-de-icre"},{"code":"20902","name":"Salată de icre","slug":"20902-salata-de-icre"},{"code":"100120177","name":"Salată cu icre de știucă de Tulcea IGP 100g","slug":"100120177-deltaica-salata-cu-icre-de-stiuca-de-tulcea-igp-100g"}],"activePromotion":null,"saveMe":null,"labels":[],"geniusPrice":null,"geniusUnitPricePerLabel":null,"banner":null,"discountLabel":null,"geniusDiscountLabel":null,"badge":null},{"code":"100036968","variantCode":"5941330014730","name":"Salată cu icre de știucă 100g","slug":"100036968-gastronatura-salata-cu-icre-de-stiuca-100g","unitPriceLabel":"108,9 Lei/kg","brand":"Gastronatura","brandCode":"479","brandFilterCode":"gastronatura-b480","sku":"100036968","price":10.89,"originalPrice":null,"currencyCode":"RON","currency":"Lei","image":{"thumbnail":{"default":"https://cdn.freshful.ro/media/cache/sylius_shop_product_thumbnail/c9/63/b959c4763e10387efbc367e1d2ec.jpg"},"large":{"default":"https://cdn.freshful.ro/media/cache/freshful_large/c9/63/b959c4763e10387efbc367e1d2ec.jpg"},"extralarge":{"default":"https://cdn.freshful.ro/media/cache/sylius_shop_product_original/c9/63/b959c4763e10387efbc367e1d2ec.jpg"}},"label":null,"tags":[],"isAvailable":true,"maxAvailableQuantity":69,"maxAllowedQuantity":100,"breadcrumbs":[{"code":"2","name":"Carne & pește","slug":"2-carne-si-peste"},{"code":"209","name":"Icre și salată de icre","slug":"209-icre-si-salata-de-icre"},{"code":"20902","name":"Salată de icre","slug":"20902-salata-de-icre"},{"code":"100036968","name":"Salată cu icre de știucă 100g","slug":"100036968-gastronatura-salata-cu-icre-de-stiuca-100g"}],"activePromotion":null,"saveMe":null,"labels":[],"geniusPrice":null,"geniusUnitPricePerLabel":null,"banner":null,"discountLabel":null,"geniusDiscountLabel":null,"badge":null},{"code":"100031163","variantCode":"100031163","name":"Salată cu icre de crap și ceapă 150g","slug":"100031163-bonito-salata-cu-icre-de-crap-si-ceapa-150g","unitPriceLabel":"49,93 Lei/kg","brand":"Bonito","brandCode":"295","brandFilterCode":"bonito-b296","sku":"100031163","price":7.49,"originalPrice":null,"currencyCode":"RON","currency":"Lei","image":{"thumbnail":{"default":"https://cdn.freshful.ro/media/cache/sylius_shop_product_thumbnail/98/3d/0bc72ea55a766471438f2a05c455.jpg"},"large":{"default":"https://cdn.freshful.ro/media/cache/freshful_large/98/3d/0bc72ea55a766471438f2a05c455.jpg"},"extralarge":{"default":"https://cdn.freshful.ro/media/cache/sylius_shop_product_original/98/3d/0bc72ea55a766471438f2a05c455.jpg"}},"label":null,"tags":[],"isAvailable":true,"maxAvailableQuantity":31,"maxAllowedQuantity":100,"breadcrumbs":[{"code":"2","name":"Carne & pește","slug":"2-carne-si-peste"},{"code":"209","name":"Icre și salată de icre","slug":"209-icre-si-salata-de-icre"},{"code":"20902","name":"Salată de icre","slug":"20902-salata-de-icre"},{"code":"100031163","name":"Salată cu icre de crap și ceapă 150g","slug":"100031163-bonito-salata-cu-icre-de-crap-si-ceapa-150g"}],"activePromotion":null,"saveMe":null,"labels":[],"geniusPrice":null,"geniusUnitPricePerLabel":null,"banner":null,"discountLabel":null,"geniusDiscountLabel":null,"badge":null},{"code":"100120175","variantCode":"100120175","name":"Salată cu icre de crap 100g","slug":"100120175-deltaica-salata-cu-icre-de-crap-100g","unitPriceLabel":"65,9 Lei/kg","brand":"Deltaica","brandCode":"1685","brandFilterCode":"deltaica-b1689","sku":"100120175","price":6.59,"originalPrice":null,"currencyCode":"RON","currency":"Lei","image":{"thumbnail":{"default":"https://cdn.freshful.ro/media/cache/sylius_shop_product_thumbnail/f1/02/a6c7f2dbe735eda55fffc33be5a3.jpg"},"large":{"default":"https://cdn.freshful.ro/media/cache/freshful_large/f1/02/a6c7f2dbe735eda55fffc33be5a3.jpg"},"extralarge":{"default":"https://cdn.freshful.ro/media/cache/sylius_shop_product_original/f1/02/a6c7f2dbe735eda55fffc33be5a3.jpg"}},"label":null,"tags":[{"type":"NoPreservatives","text":"Fara conservanti","icon":"https://cdn.freshful.ro/assets/product_tags/fara_conservanti.svg","iconPng":"https://cdn.freshful.ro/assets/product_tags/fara_conservanti.png","backgroundColor":"#F0F2FF","textColor":"#7889DD"},{"type":"MadeInRomania","text":"Made In Romania","icon":"https://cdn.freshful.ro/assets/product_tags/made_in_romania.svg","iconPng":"https://cdn.freshful.ro/assets/product_tags/made_in_romania.png","backgroundColor":"#EDF2FD","textColor":"#1653CA"},{"type":"NoE","text":"Fara E-uri","icon":"https://cdn.freshful.ro/assets/product_tags/fara_euri.svg","iconPng":"https://cdn.freshful.ro/assets/product_tags/fara_euri.png","backgroundColor":"#FCF5DF","textColor":"#CAA316"}],"isAvailable":true,"maxAvailableQuantity":11,"maxAllowedQuantity":100,"breadcrumbs":[{"code":"2","name":"Carne & pește","slug":"2-carne-si-peste"},{"code":"209","name":"Icre și salată de icre","slug":"209-icre-si-salata-de-icre"},{"code":"20902","name":"Salată de icre","slug":"20902-salata-de-icre"},{"code":"100120175","name":"Salată cu icre de crap 100g","slug":"100120175-deltaica-salata-cu-icre-de-crap-100g"}],"activePromotion":null,"saveMe":null,"labels":[],"geniusPrice":null,"geniusUnitPricePerLabel":null,"banner":null,"discountLabel":null,"geniusDiscountLabel":null,"badge":null},{"code":"100120178","variantCode":"100120178","name":"Salată cu icre de știucă și ceapă 100g","slug":"100120178-deltaica-salata-cu-icre-de-stiuca-si-ceapa-100g","unitPriceLabel":"129,9 Lei/kg","brand":"Deltaica","brandCode":"1685","brandFilterCode":"deltaica-b1689","sku":"100120178","price":12.99,"originalPrice":null,"currencyCode":"RON","currency":"Lei","image":{"thumbnail":{"default":"https://cdn.freshful.ro/media/cache/sylius_shop_product_thumbnail/24/71/70c6c4c7f48267838c450c5b7475.jpg"},"large":{"default":"https://cdn.freshful.ro/media/cache/freshful_large/24/71/70c6c4c7f48267838c450c5b7475.jpg"},"extralarge":{"default":"https://cdn.freshful.ro/media/cache/sylius_shop_product_original/24/71/70c6c4c7f48267838c450c5b7475.jpg"}},"label":null,"tags":[{"type":"MadeInRomania","text":"Made In Romania","icon":"https://cdn.freshful.ro/assets/product_tags/made_in_romania.svg","iconPng":"https://cdn.freshful.ro/assets/product_tags/made_in_romania.png","backgroundColor":"#EDF2FD","textColor":"#1653CA"},{"type":"NoE","text":"Fara E-uri","icon":"https://cdn.freshful.ro/assets/product_tags/fara_euri.svg","iconPng":"https://cdn.freshful.ro/assets/product_tags/fara_euri.png","backgroundColor":"#FCF5DF","textColor":"#CAA316"},{"type":"NoPreservatives","text":"Fara conservanti","icon":"https://cdn.freshful.ro/assets/product_tags/fara_conservanti.svg","iconPng":"https://cdn.freshful.ro/assets/product_tags/fara_conservanti.png","backgroundColor":"#F0F2FF","textColor":"#7889DD"}],"isAvailable":true,"maxAvailableQuantity":46,"maxAllowedQuantity":100,"breadcrumbs":[{"code":"2","name":"Carne & pește","slug":"2-carne-si-peste"},{"code":"209","name":"Icre și salată de icre","slug":"209-icre-si-salata-de-icre"},{"code":"20902","name":"Salată de icre","slug":"20902-salata-de-icre"},{"code":"100120178","name":"Salată cu icre de știucă și ceapă 100g","slug":"100120178-deltaica-salata-cu-icre-de-stiuca-si-ceapa-100g"}],"activePromotion":null,"saveMe":null,"labels":[],"geniusPrice":null,"geniusUnitPricePerLabel":null,"banner":null,"discountLabel":null,"geniusDiscountLabel":null,"badge":null},{"code":"100150957","variantCode":"100150957","name":"Cremă cu icre de crap 70g","slug":"100150957-salmaris-crema-cu-icre-de-crap-70g","unitPriceLabel":"27,86 Lei/kg","brand":"Salmaris","brandCode":"296","brandFilterCode":"salmaris-b297","sku":"100150957","price":1.95,"originalPrice":null,"currencyCode":"RON","currency":"Lei","image":{"thumbnail":{"default":"https://cdn.freshful.ro/media/cache/sylius_shop_product_thumbnail/8e/08/152d3e8965de3f3063047b4ffa09.jpg"},"large":{"default":"https://cdn.freshful.ro/media/cache/freshful_large/8e/08/152d3e8965de3f3063047b4ffa09.jpg"},"extralarge":{"default":"https://cdn.freshful.ro/media/cache/sylius_shop_product_original/8e/08/152d3e8965de3f3063047b4ffa09.jpg"}},"label":{"text":"Primul preț","backgroundColor":"#3A0808","textColor":"#FFFFFF"},"tags":[],"isAvailable":true,"maxAvailableQuantity":1,"maxAllowedQuantity":100,"breadcrumbs":[{"code":"2","name":"Carne & pește","slug":"2-carne-si-peste"},{"code":"209","name":"Icre și salată de icre","slug":"209-icre-si-salata-de-icre"},{"code":"20902","name":"Salată de icre","slug":"20902-salata-de-icre"},{"code":"100150957","name":"Cremă cu icre de crap 70g","slug":"100150957-salmaris-crema-cu-icre-de-crap-70g"}],"activePromotion":null,"saveMe":null,"labels":[{"type":"v4","items":[{"text":"Primul","backgroundColor":"#3A0808","textColor":"#FFFFFF"},{"text":"preț","backgroundColor":"#BC0606","textColor":"#FFFFFF"}]}],"geniusPrice":null,"geniusUnitPricePerLabel":null,"banner":null,"discountLabel":null,"geniusDiscountLabel":null,"badge":null},{"code":"100036696","variantCode":"6422497003236","name":"Salată de icre de crap 160g","slug":"100036696-doripesco-salata-de-icre-de-crap-160g","unitPriceLabel":"96,88 Lei/kg","brand":"Doripesco","brandCode":"175","brandFilterCode":"doripesco-b176","sku":"100036696","price":15.5,"originalPrice":null,"currencyCode":"RON","currency":"Lei","image":{"thumbnail":{"default":"https://cdn.freshful.ro/media/cache/sylius_shop_product_thumbnail/4a/35/539dae9148d18905c7889082ffaa.jpg"},"large":{"default":"https://cdn.freshful.ro/media/cache/freshful_large/4a/35/539dae9148d18905c7889082ffaa.jpg"},"extralarge":{"default":"https://cdn.freshful.ro/media/cache/sylius_shop_product_original/4a/35/539dae9148d18905c7889082ffaa.jpg"}},"label":null,"tags":[{"type":"MadeInRomania","text":"Made In Romania","icon":"https://cdn.freshful.ro/assets/product_tags/made_in_romania.svg","iconPng":"https://cdn.freshful.ro/assets/product_tags/made_in_romania.png","backgroundColor":"#EDF2FD","textColor":"#1653CA"}],"isAvailable":true,"maxAvailableQuantity":41,"maxAllowedQuantity":100,"breadcrumbs":[{"code":"2","name":"Carne & pește","slug":"2-carne-si-peste"},{"code":"209","name":"Icre și salată de icre","slug":"209-icre-si-salata-de-icre"},{"code":"20902","name":"Salată de icre","slug":"20902-salata-de-icre"},{"code":"100036696","name":"Salată de icre de crap 160g","slug":"100036696-doripesco-salata-de-icre-de-crap-160g"}],"activePromotion":null,"saveMe":null,"labels":[],"geniusPrice":null,"geniusUnitPricePerLabel":null,"banner":null,"discountLabel":null,"geniusDiscountLabel":null,"badge":null},{"code":"100036613","variantCode":"100036613","name":"Salată icre știucă și crap cu ceapă 270g","slug":"100036613-biolife-caviar-salata-icre-stiuca-si-crap-cu-ceapa-270g","unitPriceLabel":"121,85 Lei/kg","brand":"Biolife Caviar","brandCode":"165","brandFilterCode":"biolife-caviar-b166","sku":"100036613","price":32.9,"originalPrice":null,"currencyCode":"RON","currency":"Lei","image":{"thumbnail":{"default":"https://cdn.freshful.ro/media/cache/sylius_shop_product_thumbnail/de/c5/7de172d623f3e249b6de0269ef30.jpg"},"large":{"default":"https://cdn.freshful.ro/media/cache/freshful_large/de/c5/7de172d623f3e249b6de0269ef30.jpg"},"extralarge":{"default":"https://cdn.freshful.ro/media/cache/sylius_shop_product_original/de/c5/7de172d623f3e249b6de0269ef30.jpg"}},"label":null,"tags":[{"type":"MadeInRomania","text":"Made In Romania","icon":"https://cdn.freshful.ro/assets/product_tags/made_in_romania.svg","iconPng":"https://cdn.freshful.ro/assets/product_tags/made_in_romania.png","backgroundColor":"#EDF2FD","textColor":"#1653CA"}],"isAvailable":true,"maxAvailableQuantity":29,"maxAllowedQuantity":100,"breadcrumbs":[{"code":"2","name":"Carne & pește","slug":"2-carne-si-peste"},{"code":"209","name":"Icre și salată de icre","slug":"209-icre-si-salata-de-icre"},{"code":"20902","name":"Salată de icre","slug":"20902-salata-de-icre"},{"code":"100036613","name":"Salată icre știucă și crap cu ceapă 270g","slug":"100036613-biolife-caviar-salata-icre-stiuca-si-crap-cu-ceapa-270g"}],"activePromotion":null,"saveMe":null,"labels":[],"geniusPrice":null,"geniusUnitPricePerLabel":null,"banner":null,"discountLabel":null,"geniusDiscountLabel":null,"badge":null},{"code":"100031165","variantCode":"100031165","name":"Salată cu icre hering și ceapă 150g","slug":"100031165-bonito-salata-cu-icre-hering-si-ceapa-150g","unitPriceLabel":"49,93 Lei/kg","brand":"Bonito","brandCode":"295","brandFilterCode":"bonito-b296","sku":"100031165","price":7.49,"originalPrice":null,"currencyCode":"RON","currency":"Lei","image":{"thumbnail":{"default":"https://cdn.freshful.ro/media/cache/sylius_shop_product_thumbnail/41/ab/3ff0a523a2f012d995a710450c9f.jpg"},"large":{"default":"https://cdn.freshful.ro/media/cache/freshful_large/41/ab/3ff0a523a2f012d995a710450c9f.jpg"},"extralarge":{"default":"https://cdn.freshful.ro/media/cache/sylius_shop_product_original/41/ab/3ff0a523a2f012d995a710450c9f.jpg"}},"label":null,"tags":[],"isAvailable":true,"maxAvailableQuantity":3,"maxAllowedQuantity":100,"breadcrumbs":[{"code":"2","name":"Carne & pește","slug":"2-carne-si-peste"},{"code":"209","name":"Icre și salată de icre","slug":"209-icre-si-salata-de-icre"},{"code":"20902","name":"Salată de icre","slug":"20902-salata-de-icre"},{"code":"100031165","name":"Salată cu icre hering și ceapă 150g","slug":"100031165-bonito-salata-cu-icre-hering-si-ceapa-150g"}],"activePromotion":null,"saveMe":null,"labels":[],"geniusPrice":null,"geniusUnitPricePerLabel":null,"banner":null,"discountLabel":null,"geniusDiscountLabel":null,"badge":null}],"filters":{"countSelected":0,"items":[{"code":"brand","name":"Brand","countSelected":0,"values":[{"code":"biolife-caviar-b166","name":"Biolife Caviar","isSelected":false,"count":4},{"code":"bonito-b296","name":"Bonito","isSelected":false,"count":2},{"code":"delta-fish-b173","name":"Delta Fish","isSelected":false,"count":3},{"code":"deltaica-b1689","name":"Deltaica","isSelected":false,"count":6},{"code":"doripesco-b176","name":"Doripesco","isSelected":false,"count":5},{"code":"gastronatura-b480","name":"Gastronatura","isSelected":false,"count":3},{"code":"pescaria-magic-b187","name":"Pescaria Magic","isSelected":false,"count":2},{"code":"salmaris-b297","name":"Salmaris","isSelected":false,"count":6}]},{"code":"diet_lifestyle","name":"Dietă și lifestyle","countSelected":0,"values":[{"code":"fara-conservanti-a37","name":"Fara conservanti","isSelected":false,"count":7},{"code":"fara-e-uri-a84","name":"Fara E-uri","isSelected":false,"count":6},{"code":"made-in-romania-a85","name":"Made In Romania","isSelected":false,"count":13}]}]},"orderBy":[{"field":"price","direction":"asc","name":"Preț crescător","isSelected":false},{"field":"price","direction":"desc","name":"Preț descrescător","isSelected":false},{"field":"popularity","direction":"desc","name":"Cele mai populare","isSelected":true},{"field":"category","direction":"asc","name":"Categorie","isSelected":false}],"metaTitle":"Salată de icre - Gamă variată","metaDescription":"Vrei Salată de icre? Alege dintr-o gamă variată. Comanzi simplu și ai livrare rapidă, calitate și prospețime. Hai pe Freshful.ro","metaKeywords":null,"banners":[]}}