{"type":"subcategory","payload":{"analyticsListId":"category_21007-pasta-de-peste","analyticsListName":"Category - Pastă de pește","name":"Pastă de pește","slug":"21007-pasta-de-peste","image":null,"breadcrumbs":[{"code":"2","name":"Carne & pește","slug":"2-carne-si-peste"},{"code":"210","name":"Specialități de pește","slug":"210-specialitati-de-peste"},{"code":"21007","name":"Pastă de pește","slug":"21007-pasta-de-peste"}],"slots":[],"page":1,"limit":10,"pages":2,"count":13,"siblings":[{"name":"Carne de vită și oaie","slug":"201-carne-de-vita-si-oaie","selected":false},{"name":"Carne de porc","slug":"202-carne-de-porc","selected":false},{"name":"Carne de pasăre","slug":"203-carne-de-pasare","selected":false},{"name":"Alte cărnuri","slug":"204-alte-carnuri","selected":false},{"name":"Mici și specialități","slug":"205-mici-si-specialitati","selected":false},{"name":"Pește și sushi","slug":"206-peste-si-sushi","selected":false},{"name":"Pește afumat","slug":"207-peste-afumat","selected":false},{"name":"Pește marinat","slug":"208-peste-marinat","selected":false},{"name":"Icre și salată de icre","slug":"209-icre-si-salata-de-icre","selected":false},{"name":"Specialități de pește","slug":"210-specialitati-de-peste","selected":true}],"children":[{"name":"Toate produsele","slug":"210-specialitati-de-peste","selected":false},{"name":"Cârnați din pește","slug":"21001-carnati-din-peste","selected":false},{"name":"Chiftele cu pește","slug":"21002-chifle-cu-peste","selected":false},{"name":"Creveți în ulei","slug":"21003-creveti-in-ulei","selected":false},{"name":"Caracatiță în ulei","slug":"21004-octopus-in-ulei","selected":false},{"name":"Fructe de mare în ulei","slug":"21005-fructe-de-mare-in-ulei","selected":false},{"name":"Pastă de pește","slug":"21007-pasta-de-peste","selected":true},{"name":"Surimi","slug":"21008-surimi","selected":false},{"name":"Zacuscă de pește","slug":"zacusca-de-peste","selected":false}],"products":[{"code":"100150131","variantCode":"100150131","name":"Fluștuc din păstrav curcubeu 100g","slug":"100150131-pastravaria-busteni-flustuc-din-pastrav-curcubeu-100g","unitPriceLabel":"189,9 Lei/kg","brand":"Păstrăvăria Bușteni","brandCode":"2971","brandFilterCode":"pastravaria-busteni-b3066","sku":"100150131","price":18.99,"originalPrice":22.39,"currencyCode":"RON","currency":"Lei","image":{"thumbnail":{"default":"https://cdn.freshful.ro/media/cache/sylius_shop_product_thumbnail/43/18/9e15ee17d327a282615b0f9e1213.jpg"},"large":{"default":"https://cdn.freshful.ro/media/cache/freshful_large/43/18/9e15ee17d327a282615b0f9e1213.jpg"},"extralarge":{"default":"https://cdn.freshful.ro/media/cache/sylius_shop_product_original/43/18/9e15ee17d327a282615b0f9e1213.jpg"}},"label":{"text":"-15%","backgroundColor":"#FF9903","textColor":"#FFFFFF"},"tags":[{"type":"NoE","text":"Fara E-uri","icon":"https://cdn.freshful.ro/assets/product_tags/fara_euri.svg","iconPng":"https://cdn.freshful.ro/assets/product_tags/fara_euri.png","backgroundColor":"#FCF5DF","textColor":"#CAA316"},{"type":"Natural","text":"Natural","icon":"https://cdn.freshful.ro/assets/product_tags/natural.svg","iconPng":"https://cdn.freshful.ro/assets/product_tags/natural.png","backgroundColor":"#E9FCF2","textColor":"#18AF62"},{"type":"MadeInRomania","text":"Made In Romania","icon":"https://cdn.freshful.ro/assets/product_tags/made_in_romania.svg","iconPng":"https://cdn.freshful.ro/assets/product_tags/made_in_romania.png","backgroundColor":"#EDF2FD","textColor":"#1653CA"},{"type":"NoPreservatives","text":"Fara conservanti","icon":"https://cdn.freshful.ro/assets/product_tags/fara_conservanti.svg","iconPng":"https://cdn.freshful.ro/assets/product_tags/fara_conservanti.png","backgroundColor":"#F0F2FF","textColor":"#7889DD"}],"isAvailable":true,"maxAvailableQuantity":20,"maxAllowedQuantity":100,"breadcrumbs":[{"code":"2","name":"Carne & pește","slug":"2-carne-si-peste"},{"code":"210","name":"Specialități de pește","slug":"210-specialitati-de-peste"},{"code":"21007","name":"Pastă de pește","slug":"21007-pasta-de-peste"},{"code":"100150131","name":"Fluștuc din păstrav curcubeu 100g","slug":"100150131-pastravaria-busteni-flustuc-din-pastrav-curcubeu-100g"}],"activePromotion":{"code":"bunatatile-saptamanii-cw0923","name":"Preț redus","targetQuantity":null},"saveMe":null,"labels":[{"type":"v1","items":[{"text":"-15%","backgroundColor":"#FF9903","textColor":"#FFFFFF"}]}],"geniusPrice":null,"geniusUnitPricePerLabel":null,"banner":{"text":"Super preț","textColor":"#FF0000","bgColor":"#FFF2EC","icon":null,"link":"https://www.freshful.ro/oferte/bunatatile-saptamanii-cw0923","type":"promo","analyticsEventType":"select_promotion","analyticsEventPayload":{"promotion_id":"bunatatile-saptamanii-cw0923","promotion_name":"Oferta proaspătă a săptămânii"}},"discountLabel":"Economisești 15%","geniusDiscountLabel":null,"badge":null},{"code":"100150135","variantCode":"100150135","name":"Pate din ficat și file de păstrăv 100g","slug":"100150135-pastravaria-busteni-pate-din-ficat-si-file-de-pastrav-100g","unitPriceLabel":"189,9 Lei/kg","brand":"Păstrăvăria Bușteni","brandCode":"2971","brandFilterCode":"pastravaria-busteni-b3066","sku":"100150135","price":18.99,"originalPrice":22.39,"currencyCode":"RON","currency":"Lei","image":{"thumbnail":{"default":"https://cdn.freshful.ro/media/cache/sylius_shop_product_thumbnail/fd/33/1142c78d5ac3417e1defd0127b02.jpg"},"large":{"default":"https://cdn.freshful.ro/media/cache/freshful_large/fd/33/1142c78d5ac3417e1defd0127b02.jpg"},"extralarge":{"default":"https://cdn.freshful.ro/media/cache/sylius_shop_product_original/fd/33/1142c78d5ac3417e1defd0127b02.jpg"}},"label":{"text":"-15%","backgroundColor":"#FF9903","textColor":"#FFFFFF"},"tags":[{"type":"NoE","text":"Fara E-uri","icon":"https://cdn.freshful.ro/assets/product_tags/fara_euri.svg","iconPng":"https://cdn.freshful.ro/assets/product_tags/fara_euri.png","backgroundColor":"#FCF5DF","textColor":"#CAA316"},{"type":"Natural","text":"Natural","icon":"https://cdn.freshful.ro/assets/product_tags/natural.svg","iconPng":"https://cdn.freshful.ro/assets/product_tags/natural.png","backgroundColor":"#E9FCF2","textColor":"#18AF62"},{"type":"MadeInRomania","text":"Made In Romania","icon":"https://cdn.freshful.ro/assets/product_tags/made_in_romania.svg","iconPng":"https://cdn.freshful.ro/assets/product_tags/made_in_romania.png","backgroundColor":"#EDF2FD","textColor":"#1653CA"},{"type":"NoPreservatives","text":"Fara conservanti","icon":"https://cdn.freshful.ro/assets/product_tags/fara_conservanti.svg","iconPng":"https://cdn.freshful.ro/assets/product_tags/fara_conservanti.png","backgroundColor":"#F0F2FF","textColor":"#7889DD"}],"isAvailable":true,"maxAvailableQuantity":24,"maxAllowedQuantity":100,"breadcrumbs":[{"code":"2","name":"Carne & pește","slug":"2-carne-si-peste"},{"code":"210","name":"Specialități de pește","slug":"210-specialitati-de-peste"},{"code":"21007","name":"Pastă de pește","slug":"21007-pasta-de-peste"},{"code":"100150135","name":"Pate din ficat și file de păstrăv 100g","slug":"100150135-pastravaria-busteni-pate-din-ficat-si-file-de-pastrav-100g"}],"activePromotion":{"code":"bunatatile-saptamanii-cw0923","name":"Preț redus","targetQuantity":null},"saveMe":{"isAvailable":true,"variantCode":"100150135-accsale","maxAvailableQuantity":15,"maxAllowedQuantity":100,"price":14.24,"originalPrice":18.99,"labels":[{"type":"v2","items":[{"text":"Save Me","backgroundColor":"#FF7070","textColor":"#FFFFFF"},{"text":"-25%","backgroundColor":"#333333","textColor":"#FFFFFF"}]},{"type":"v3","items":[{"text":"Expiră pe 08-03-2023","backgroundColor":"#FEF7DC","textColor":"#595959"}]}],"priceColor":"#FF7070","priceIcon":"https://cdn.freshful.ro/assets/save_me/priceIcon.png","unitPriceLabel":"142,4 Lei/kg","badge":null},"labels":[{"type":"v1","items":[{"text":"-15%","backgroundColor":"#FF9903","textColor":"#FFFFFF"}]}],"geniusPrice":null,"geniusUnitPricePerLabel":null,"banner":{"text":"Super preț","textColor":"#FF0000","bgColor":"#FFF2EC","icon":null,"link":"https://www.freshful.ro/oferte/bunatatile-saptamanii-cw0923","type":"promo","analyticsEventType":"select_promotion","analyticsEventPayload":{"promotion_id":"bunatatile-saptamanii-cw0923","promotion_name":"Oferta proaspătă a săptămânii"}},"discountLabel":"Economisești 15%","geniusDiscountLabel":null,"badge":null},{"code":"100036843","variantCode":"100036843","name":"Pate din păstrăv afumat cu smântână și usturoi Sburătoru' 190g","slug":"100036843-valeputna-pate-din-pastrav-afumat-cu-smantana-si-usturoi-sburatoru-190g","unitPriceLabel":"119 Lei/kg","brand":"Valeputna","brandCode":"264","brandFilterCode":"valeputna-b265","sku":"100036843","price":24.99,"originalPrice":29.49,"currencyCode":"RON","currency":"Lei","image":{"thumbnail":{"default":"https://cdn.freshful.ro/media/cache/sylius_shop_product_thumbnail/d7/ea/95ca3c7af18a5a53bd8ee323cf3f.jpg"},"large":{"default":"https://cdn.freshful.ro/media/cache/freshful_large/d7/ea/95ca3c7af18a5a53bd8ee323cf3f.jpg"},"extralarge":{"default":"https://cdn.freshful.ro/media/cache/sylius_shop_product_original/d7/ea/95ca3c7af18a5a53bd8ee323cf3f.jpg"}},"label":{"text":"-15%","backgroundColor":"#FF9903","textColor":"#FFFFFF"},"tags":[{"type":"Natural","text":"Natural","icon":"https://cdn.freshful.ro/assets/product_tags/natural.svg","iconPng":"https://cdn.freshful.ro/assets/product_tags/natural.png","backgroundColor":"#E9FCF2","textColor":"#18AF62"},{"type":"MadeInRomania","text":"Made In Romania","icon":"https://cdn.freshful.ro/assets/product_tags/made_in_romania.svg","iconPng":"https://cdn.freshful.ro/assets/product_tags/made_in_romania.png","backgroundColor":"#EDF2FD","textColor":"#1653CA"}],"isAvailable":true,"maxAvailableQuantity":37,"maxAllowedQuantity":100,"breadcrumbs":[{"code":"2","name":"Carne & pește","slug":"2-carne-si-peste"},{"code":"210","name":"Specialități de pește","slug":"210-specialitati-de-peste"},{"code":"21007","name":"Pastă de pește","slug":"21007-pasta-de-peste"},{"code":"100036843","name":"Pate din păstrăv afumat cu smântână și usturoi Sburătoru' 190g","slug":"100036843-valeputna-pate-din-pastrav-afumat-cu-smantana-si-usturoi-sburatoru-190g"}],"activePromotion":{"code":"bunatatile-saptamanii-cw0923","name":"Preț redus","targetQuantity":null},"saveMe":null,"labels":[{"type":"v1","items":[{"text":"-15%","backgroundColor":"#FF9903","textColor":"#FFFFFF"}]}],"geniusPrice":null,"geniusUnitPricePerLabel":null,"banner":{"text":"Super preț","textColor":"#FF0000","bgColor":"#FFF2EC","icon":null,"link":"https://www.freshful.ro/oferte/bunatatile-saptamanii-cw0923","type":"promo","analyticsEventType":"select_promotion","analyticsEventPayload":{"promotion_id":"bunatatile-saptamanii-cw0923","promotion_name":"Oferta proaspătă a săptămânii"}},"discountLabel":"Economisești 15%","geniusDiscountLabel":null,"badge":null},{"code":"100036699","variantCode":"6422497003465","name":"Cremă de păstrăv cu unt 140g","slug":"100036699-doripesco-crema-de-pastrav-cu-unt-140g","unitPriceLabel":"125 Lei/kg","brand":"Doripesco","brandCode":"175","brandFilterCode":"doripesco-b176","sku":"100036699","price":17.5,"originalPrice":null,"currencyCode":"RON","currency":"Lei","image":{"thumbnail":{"default":"https://cdn.freshful.ro/media/cache/sylius_shop_product_thumbnail/46/2b/fe11cbe09f25baf3eeb69d455a6f.jpg"},"large":{"default":"https://cdn.freshful.ro/media/cache/freshful_large/46/2b/fe11cbe09f25baf3eeb69d455a6f.jpg"},"extralarge":{"default":"https://cdn.freshful.ro/media/cache/sylius_shop_product_original/46/2b/fe11cbe09f25baf3eeb69d455a6f.jpg"}},"label":null,"tags":[{"type":"MadeInRomania","text":"Made In Romania","icon":"https://cdn.freshful.ro/assets/product_tags/made_in_romania.svg","iconPng":"https://cdn.freshful.ro/assets/product_tags/made_in_romania.png","backgroundColor":"#EDF2FD","textColor":"#1653CA"}],"isAvailable":true,"maxAvailableQuantity":36,"maxAllowedQuantity":100,"breadcrumbs":[{"code":"2","name":"Carne & pește","slug":"2-carne-si-peste"},{"code":"210","name":"Specialități de pește","slug":"210-specialitati-de-peste"},{"code":"21007","name":"Pastă de pește","slug":"21007-pasta-de-peste"},{"code":"100036699","name":"Cremă de păstrăv cu unt 140g","slug":"100036699-doripesco-crema-de-pastrav-cu-unt-140g"}],"activePromotion":null,"saveMe":null,"labels":[],"geniusPrice":null,"geniusUnitPricePerLabel":null,"banner":null,"discountLabel":null,"geniusDiscountLabel":null,"badge":null},{"code":"100031166","variantCode":"100031166","name":"Salată de ton cu maioneză 160g","slug":"100031166-bonito-salata-de-ton-cu-maioneza-160g","unitPriceLabel":"84,31 Lei/kg","brand":"Bonito","brandCode":"295","brandFilterCode":"bonito-b296","sku":"100031166","price":13.49,"originalPrice":null,"currencyCode":"RON","currency":"Lei","image":{"thumbnail":{"default":"https://cdn.freshful.ro/media/cache/sylius_shop_product_thumbnail/2a/08/f313fda08ba7c63d2d7c160ab62b.jpg"},"large":{"default":"https://cdn.freshful.ro/media/cache/freshful_large/2a/08/f313fda08ba7c63d2d7c160ab62b.jpg"},"extralarge":{"default":"https://cdn.freshful.ro/media/cache/sylius_shop_product_original/2a/08/f313fda08ba7c63d2d7c160ab62b.jpg"}},"label":null,"tags":[],"isAvailable":true,"maxAvailableQuantity":41,"maxAllowedQuantity":100,"breadcrumbs":[{"code":"2","name":"Carne & pește","slug":"2-carne-si-peste"},{"code":"210","name":"Specialități de pește","slug":"210-specialitati-de-peste"},{"code":"21007","name":"Pastă de pește","slug":"21007-pasta-de-peste"},{"code":"100031166","name":"Salată de ton cu maioneză 160g","slug":"100031166-bonito-salata-de-ton-cu-maioneza-160g"}],"activePromotion":null,"saveMe":null,"labels":[],"geniusPrice":null,"geniusUnitPricePerLabel":null,"banner":null,"discountLabel":null,"geniusDiscountLabel":null,"badge":null},{"code":"100036852","variantCode":"100036852","name":"Păstrăv afumat cu trufe Gourmandise 100g","slug":"100036852-valeputna-pastrav-afumat-cu-trufe-gourmandise-100g","unitPriceLabel":"294,9 Lei/kg","brand":"Valeputna","brandCode":"264","brandFilterCode":"valeputna-b265","sku":"100036852","price":29.49,"originalPrice":null,"currencyCode":"RON","currency":"Lei","image":{"thumbnail":{"default":"https://cdn.freshful.ro/media/cache/sylius_shop_product_thumbnail/25/4e/19d7d5639e5e3695d8d8c644ae16.jpg"},"large":{"default":"https://cdn.freshful.ro/media/cache/freshful_large/25/4e/19d7d5639e5e3695d8d8c644ae16.jpg"},"extralarge":{"default":"https://cdn.freshful.ro/media/cache/sylius_shop_product_original/25/4e/19d7d5639e5e3695d8d8c644ae16.jpg"}},"label":null,"tags":[{"type":"MadeInRomania","text":"Made In Romania","icon":"https://cdn.freshful.ro/assets/product_tags/made_in_romania.svg","iconPng":"https://cdn.freshful.ro/assets/product_tags/made_in_romania.png","backgroundColor":"#EDF2FD","textColor":"#1653CA"}],"isAvailable":true,"maxAvailableQuantity":25,"maxAllowedQuantity":100,"breadcrumbs":[{"code":"2","name":"Carne & pește","slug":"2-carne-si-peste"},{"code":"210","name":"Specialități de pește","slug":"210-specialitati-de-peste"},{"code":"21007","name":"Pastă de pește","slug":"21007-pasta-de-peste"},{"code":"100036852","name":"Păstrăv afumat cu trufe Gourmandise 100g","slug":"100036852-valeputna-pastrav-afumat-cu-trufe-gourmandise-100g"}],"activePromotion":null,"saveMe":null,"labels":[],"geniusPrice":null,"geniusUnitPricePerLabel":null,"banner":null,"discountLabel":null,"geniusDiscountLabel":null,"badge":null},{"code":"100148807","variantCode":"100148807","name":"Rillettes de somon 120g","slug":"100148807-guyader-rillettes-de-somon-120g","unitPriceLabel":"137,33 Lei/kg","brand":"Guyader","brandCode":"2864","brandFilterCode":"guyader-b2957","sku":"100148807","price":16.48,"originalPrice":null,"currencyCode":"RON","currency":"Lei","image":{"thumbnail":{"default":"https://cdn.freshful.ro/media/cache/sylius_shop_product_thumbnail/b6/43/5bcc5bc7124130f6e9bba85e9615.jpg"},"large":{"default":"https://cdn.freshful.ro/media/cache/freshful_large/b6/43/5bcc5bc7124130f6e9bba85e9615.jpg"},"extralarge":{"default":"https://cdn.freshful.ro/media/cache/sylius_shop_product_original/b6/43/5bcc5bc7124130f6e9bba85e9615.jpg"}},"label":null,"tags":[],"isAvailable":true,"maxAvailableQuantity":19,"maxAllowedQuantity":100,"breadcrumbs":[{"code":"2","name":"Carne & pește","slug":"2-carne-si-peste"},{"code":"210","name":"Specialități de pește","slug":"210-specialitati-de-peste"},{"code":"21007","name":"Pastă de pește","slug":"21007-pasta-de-peste"},{"code":"100148807","name":"Rillettes de somon 120g","slug":"100148807-guyader-rillettes-de-somon-120g"}],"activePromotion":null,"saveMe":null,"labels":[],"geniusPrice":null,"geniusUnitPricePerLabel":null,"banner":null,"discountLabel":null,"geniusDiscountLabel":null,"badge":null},{"code":"100036700","variantCode":"6422497001522","name":"Pastă de pește pescărească 130g","slug":"100036700-doripesco-pasta-de-peste-pescareasca-130g","unitPriceLabel":"99,92 Lei/kg","brand":"Doripesco","brandCode":"175","brandFilterCode":"doripesco-b176","sku":"100036700","price":12.99,"originalPrice":null,"currencyCode":"RON","currency":"Lei","image":{"thumbnail":{"default":"https://cdn.freshful.ro/media/cache/sylius_shop_product_thumbnail/2d/02/7b17c4ded3d6af633aa334626854.jpg"},"large":{"default":"https://cdn.freshful.ro/media/cache/freshful_large/2d/02/7b17c4ded3d6af633aa334626854.jpg"},"extralarge":{"default":"https://cdn.freshful.ro/media/cache/sylius_shop_product_original/2d/02/7b17c4ded3d6af633aa334626854.jpg"}},"label":null,"tags":[],"isAvailable":true,"maxAvailableQuantity":10,"maxAllowedQuantity":100,"breadcrumbs":[{"code":"2","name":"Carne & pește","slug":"2-carne-si-peste"},{"code":"210","name":"Specialități de pește","slug":"210-specialitati-de-peste"},{"code":"21007","name":"Pastă de pește","slug":"21007-pasta-de-peste"},{"code":"100036700","name":"Pastă de pește pescărească 130g","slug":"100036700-doripesco-pasta-de-peste-pescareasca-130g"}],"activePromotion":null,"saveMe":null,"labels":[],"geniusPrice":null,"geniusUnitPricePerLabel":null,"banner":null,"discountLabel":null,"geniusDiscountLabel":null,"badge":null},{"code":"100082796","variantCode":"100082796","name":"Pate de păstrăv afumat cu ardei iute și morcov Trutta Princeps 190g","slug":"100082796-valeputna-pate-de-pastrav-afumat-cu-ardei-iute-si-morcov-trutta-princeps-190g","unitPriceLabel":"142,81 Lei/kg","brand":"Valeputna","brandCode":"264","brandFilterCode":"valeputna-b265","sku":"100082796","price":29.99,"originalPrice":null,"currencyCode":"RON","currency":"Lei","image":{"thumbnail":{"default":"https://cdn.freshful.ro/media/cache/sylius_shop_product_thumbnail/29/59/3a587805ce3a1c35345e88625b42.jpg"},"large":{"default":"https://cdn.freshful.ro/media/cache/freshful_large/29/59/3a587805ce3a1c35345e88625b42.jpg"},"extralarge":{"default":"https://cdn.freshful.ro/media/cache/sylius_shop_product_original/29/59/3a587805ce3a1c35345e88625b42.jpg"}},"label":null,"tags":[{"type":"Natural","text":"Natural","icon":"https://cdn.freshful.ro/assets/product_tags/natural.svg","iconPng":"https://cdn.freshful.ro/assets/product_tags/natural.png","backgroundColor":"#E9FCF2","textColor":"#18AF62"},{"type":"MadeInRomania","text":"Made In Romania","icon":"https://cdn.freshful.ro/assets/product_tags/made_in_romania.svg","iconPng":"https://cdn.freshful.ro/assets/product_tags/made_in_romania.png","backgroundColor":"#EDF2FD","textColor":"#1653CA"}],"isAvailable":true,"maxAvailableQuantity":5,"maxAllowedQuantity":100,"breadcrumbs":[{"code":"2","name":"Carne & pește","slug":"2-carne-si-peste"},{"code":"210","name":"Specialități de pește","slug":"210-specialitati-de-peste"},{"code":"21007","name":"Pastă de pește","slug":"21007-pasta-de-peste"},{"code":"100082796","name":"Pate de păstrăv afumat cu ardei iute și morcov Trutta Princeps 190g","slug":"100082796-valeputna-pate-de-pastrav-afumat-cu-ardei-iute-si-morcov-trutta-princeps-190g"}],"activePromotion":null,"saveMe":null,"labels":[],"geniusPrice":null,"geniusUnitPricePerLabel":null,"banner":null,"discountLabel":null,"geniusDiscountLabel":null,"badge":null},{"code":"100148808","variantCode":"100148808","name":"Rillettes de ton alb 120g","slug":"100148808-guyader-rillettes-de-ton-alb-120g","unitPriceLabel":"162,42 Lei/kg","brand":"Guyader","brandCode":"2864","brandFilterCode":"guyader-b2957","sku":"100148808","price":19.49,"originalPrice":null,"currencyCode":"RON","currency":"Lei","image":{"thumbnail":{"default":"https://cdn.freshful.ro/media/cache/sylius_shop_product_thumbnail/ee/5a/541973fe89868d2d7cb880123139.jpg"},"large":{"default":"https://cdn.freshful.ro/media/cache/freshful_large/ee/5a/541973fe89868d2d7cb880123139.jpg"},"extralarge":{"default":"https://cdn.freshful.ro/media/cache/sylius_shop_product_original/ee/5a/541973fe89868d2d7cb880123139.jpg"}},"label":null,"tags":[],"isAvailable":true,"maxAvailableQuantity":14,"maxAllowedQuantity":100,"breadcrumbs":[{"code":"2","name":"Carne & pește","slug":"2-carne-si-peste"},{"code":"210","name":"Specialități de pește","slug":"210-specialitati-de-peste"},{"code":"21007","name":"Pastă de pește","slug":"21007-pasta-de-peste"},{"code":"100148808","name":"Rillettes de ton alb 120g","slug":"100148808-guyader-rillettes-de-ton-alb-120g"}],"activePromotion":null,"saveMe":null,"labels":[],"geniusPrice":null,"geniusUnitPricePerLabel":null,"banner":null,"discountLabel":null,"geniusDiscountLabel":null,"badge":null}],"filters":{"countSelected":0,"items":[{"code":"promotion","name":"Promoții","countSelected":0,"values":[{"code":"bunatatile-saptamanii-cw0923","name":"Oferta proaspătă a săptămânii","isSelected":false,"count":3}]},{"code":"brand","name":"Brand","countSelected":0,"values":[{"code":"bonito-b296","name":"Bonito","isSelected":false,"count":1},{"code":"doripesco-b176","name":"Doripesco","isSelected":false,"count":2},{"code":"guyader-b2957","name":"Guyader","isSelected":false,"count":3},{"code":"pastravaria-busteni-b3066","name":"Păstrăvăria Bușteni","isSelected":false,"count":2},{"code":"valeputna-b265","name":"Valeputna","isSelected":false,"count":5}]},{"code":"diet_lifestyle","name":"Dietă și lifestyle","countSelected":0,"values":[{"code":"fara-conservanti-a37","name":"Fara conservanti","isSelected":false,"count":2},{"code":"fara-e-uri-a84","name":"Fara E-uri","isSelected":false,"count":2},{"code":"made-in-romania-a85","name":"Made In Romania","isSelected":false,"count":8},{"code":"natural-a27","name":"Natural","isSelected":false,"count":6}]}]},"orderBy":[{"field":"price","direction":"asc","name":"Preț crescător","isSelected":false},{"field":"price","direction":"desc","name":"Preț descrescător","isSelected":false},{"field":"popularity","direction":"desc","name":"Cele mai populare","isSelected":true},{"field":"category","direction":"asc","name":"Categorie","isSelected":false}],"metaTitle":"Pastă de pește - Gamă variată","metaDescription":"Vrei Pastă de pește? Alege dintr-o gamă variată. Comanzi simplu și ai livrare rapidă, calitate și prospețime. Hai pe Freshful.ro","metaKeywords":null,"banners":[]}}