{"type":"subcategory","payload":{"analyticsListId":"category_301-fructe-proaspete","analyticsListName":"Category - Fructe proaspete","name":"Fructe proaspete","slug":"301-fructe-proaspete","image":null,"breadcrumbs":[{"code":"3","name":"Fructe & legume","slug":"3-fructe-si-legume"},{"code":"301","name":"Fructe proaspete","slug":"301-fructe-proaspete"}],"slots":[],"page":1,"limit":10,"pages":12,"count":119,"siblings":[{"name":"Fructe proaspete","slug":"301-fructe-proaspete","selected":true},{"name":"Legume proaspete","slug":"302-legume-proaspete","selected":false},{"name":"Verdețuri și ierburi aromatice","slug":"303-verdeturi-si-plante-aromatice","selected":false},{"name":"Fructe și legume uscate","slug":"304-fructe-uscate-crude","selected":false},{"name":"Sucuri naturale","slug":"305-sucuri-naturale","selected":false}],"children":[{"name":"Toate produsele","slug":"301-fructe-proaspete","selected":true},{"name":"Banane","slug":"30101-banane","selected":false},{"name":"Citrice","slug":"30102-citrice","selected":false},{"name":"Mere","slug":"30104-mere","selected":false},{"name":"Pere","slug":"30105-pere","selected":false},{"name":"Fructe de pădure","slug":"30107-fructe-de-padure","selected":false},{"name":"Fructe de sezon","slug":"30108-fructe-de-vara","selected":false},{"name":"Pepeni","slug":"30109-pepeni","selected":false},{"name":"Struguri","slug":"30110-struguri","selected":false},{"name":"Fructe exotice","slug":"30111-fructe-exotice","selected":false},{"name":"Kiwi","slug":"kiwi","selected":false}],"products":[{"code":"100066179","variantCode":"100066179","name":"Banane minim 700g maxim 1kg","slug":"100066179-no-brand-banane-minim-700g-maxim-1kg","unitPriceLabel":"8,54 Lei/kg","brand":null,"brandCode":null,"brandFilterCode":"no-brand-b83","sku":"100066179","price":7.26,"originalPrice":null,"currencyCode":"RON","currency":"Lei","image":{"thumbnail":{"default":"https://cdn.freshful.ro/media/cache/sylius_shop_product_thumbnail/bb/e2/8aff6c464205ec5c829baff8f8a1.jpg"},"large":{"default":"https://cdn.freshful.ro/media/cache/freshful_large/bb/e2/8aff6c464205ec5c829baff8f8a1.jpg"},"extralarge":{"default":"https://cdn.freshful.ro/media/cache/sylius_shop_product_original/bb/e2/8aff6c464205ec5c829baff8f8a1.jpg"}},"label":null,"tags":[],"isAvailable":true,"maxAvailableQuantity":29,"maxAllowedQuantity":30,"breadcrumbs":[{"code":"3","name":"Fructe & legume","slug":"3-fructe-si-legume"},{"code":"301","name":"Fructe proaspete","slug":"301-fructe-proaspete"},{"code":"30101","name":"Banane","slug":"30101-banane"},{"code":"100066179","name":"Banane minim 700g maxim 1kg","slug":"100066179-no-brand-banane-minim-700g-maxim-1kg"}],"activePromotion":null,"saveMe":null,"labels":[],"geniusPrice":null,"geniusUnitPricePerLabel":null,"banner":null,"discountLabel":null,"geniusDiscountLabel":null,"badge":null},{"code":"100071255","variantCode":"100071255","name":"Avocado 700g","slug":"100071255-no-brand-avocado-700g","unitPriceLabel":"20,65 Lei/kg","brand":null,"brandCode":null,"brandFilterCode":"no-brand-b83","sku":"100071255","price":15.49,"originalPrice":null,"currencyCode":"RON","currency":"Lei","image":{"thumbnail":{"default":"https://cdn.freshful.ro/media/cache/sylius_shop_product_thumbnail/74/a7/e20fd7751dd4a64fa5e779f93226.jpg"},"large":{"default":"https://cdn.freshful.ro/media/cache/freshful_large/74/a7/e20fd7751dd4a64fa5e779f93226.jpg"},"extralarge":{"default":"https://cdn.freshful.ro/media/cache/sylius_shop_product_original/74/a7/e20fd7751dd4a64fa5e779f93226.jpg"}},"label":{"text":"-20% cu Genius","backgroundColor":"#FEF3FA","textColor":"#CD015F"},"tags":[],"isAvailable":true,"maxAvailableQuantity":30,"maxAllowedQuantity":30,"breadcrumbs":[{"code":"3","name":"Fructe & legume","slug":"3-fructe-si-legume"},{"code":"301","name":"Fructe proaspete","slug":"301-fructe-proaspete"},{"code":"30111","name":"Fructe exotice","slug":"30111-fructe-exotice"},{"code":"100071255","name":"Avocado 700g","slug":"100071255-no-brand-avocado-700g"}],"activePromotion":null,"saveMe":null,"labels":[{"type":"gdeals","items":[{"text":"","backgroundColor":"","textColor":""}]},{"type":"v3","items":[{"text":"-20% cu Genius","backgroundColor":"#FEF3FA","textColor":"#CD015F"}]}],"geniusPrice":12.39,"geniusUnitPricePerLabel":"16,52 Lei/kg","banner":null,"discountLabel":null,"geniusDiscountLabel":"Economisești 20%","badge":null},{"code":"100071162","variantCode":"100071162","name":"Lămâi eco 500g","slug":"100071162-no-brand-lamai-eco-500g","unitPriceLabel":"13,28 Lei/kg","brand":null,"brandCode":null,"brandFilterCode":"no-brand-b83","sku":"100071162","price":6.64,"originalPrice":null,"currencyCode":"RON","currency":"Lei","image":{"thumbnail":{"default":"https://cdn.freshful.ro/media/cache/sylius_shop_product_thumbnail/39/ff/2ed3e89ab244c16792828a6c3bff.jpg"},"large":{"default":"https://cdn.freshful.ro/media/cache/freshful_large/39/ff/2ed3e89ab244c16792828a6c3bff.jpg"},"extralarge":{"default":"https://cdn.freshful.ro/media/cache/sylius_shop_product_original/39/ff/2ed3e89ab244c16792828a6c3bff.jpg"}},"label":{"text":"-20% cu Genius","backgroundColor":"#FEF3FA","textColor":"#CD015F"},"tags":[{"type":"Eco","text":"Eco","icon":"https://cdn.freshful.ro/assets/product_tags/eco.svg","iconPng":"https://cdn.freshful.ro/assets/product_tags/eco.png","backgroundColor":"#EFFBE4","textColor":"#66BB1B"}],"isAvailable":true,"maxAvailableQuantity":30,"maxAllowedQuantity":30,"breadcrumbs":[{"code":"3","name":"Fructe & legume","slug":"3-fructe-si-legume"},{"code":"301","name":"Fructe proaspete","slug":"301-fructe-proaspete"},{"code":"30102","name":"Citrice","slug":"30102-citrice"},{"code":"100071162","name":"Lămâi eco 500g","slug":"100071162-no-brand-lamai-eco-500g"}],"activePromotion":null,"saveMe":null,"labels":[{"type":"gdeals","items":[{"text":"","backgroundColor":"","textColor":""}]},{"type":"v3","items":[{"text":"-20% cu Genius","backgroundColor":"#FEF3FA","textColor":"#CD015F"}]}],"geniusPrice":5.31,"geniusUnitPricePerLabel":"10,62 Lei/kg","banner":null,"discountLabel":null,"geniusDiscountLabel":"Economisești 20%","badge":null},{"code":"100071163","variantCode":"100071163","name":"Lămâi netratate 500g","slug":"100071163-no-brand-lamai-netratate-500g","unitPriceLabel":"14,98 Lei/kg","brand":null,"brandCode":null,"brandFilterCode":"no-brand-b83","sku":"100071163","price":7.49,"originalPrice":null,"currencyCode":"RON","currency":"Lei","image":{"thumbnail":{"default":"https://cdn.freshful.ro/media/cache/sylius_shop_product_thumbnail/7e/4b/f3c9e2d2244b0c5c1d281f544bae.jpg"},"large":{"default":"https://cdn.freshful.ro/media/cache/freshful_large/7e/4b/f3c9e2d2244b0c5c1d281f544bae.jpg"},"extralarge":{"default":"https://cdn.freshful.ro/media/cache/sylius_shop_product_original/7e/4b/f3c9e2d2244b0c5c1d281f544bae.jpg"}},"label":null,"tags":[],"isAvailable":true,"maxAvailableQuantity":30,"maxAllowedQuantity":30,"breadcrumbs":[{"code":"3","name":"Fructe & legume","slug":"3-fructe-si-legume"},{"code":"301","name":"Fructe proaspete","slug":"301-fructe-proaspete"},{"code":"30102","name":"Citrice","slug":"30102-citrice"},{"code":"100071163","name":"Lămâi netratate 500g","slug":"100071163-no-brand-lamai-netratate-500g"}],"activePromotion":null,"saveMe":null,"labels":[],"geniusPrice":null,"geniusUnitPricePerLabel":null,"banner":null,"discountLabel":null,"geniusDiscountLabel":null,"badge":null},{"code":"100149637","variantCode":"100149637","name":"Lămâi eco Sicilia 500g","slug":"100149637-no-brand-lamai-eco-sicilia-500g","unitPriceLabel":"13,38 Lei/kg","brand":null,"brandCode":null,"brandFilterCode":"no-brand-b83","sku":"100149637","price":6.69,"originalPrice":null,"currencyCode":"RON","currency":"Lei","image":{"thumbnail":{"default":"https://cdn.freshful.ro/media/cache/sylius_shop_product_thumbnail/8b/ce/d7523f070bbf3229b55b75702753.jpg"},"large":{"default":"https://cdn.freshful.ro/media/cache/freshful_large/8b/ce/d7523f070bbf3229b55b75702753.jpg"},"extralarge":{"default":"https://cdn.freshful.ro/media/cache/sylius_shop_product_original/8b/ce/d7523f070bbf3229b55b75702753.jpg"}},"label":{"text":"Profită acum","backgroundColor":"#FF9903","textColor":"#FFFFFF"},"tags":[{"type":"Eco","text":"Eco","icon":"https://cdn.freshful.ro/assets/product_tags/eco.svg","iconPng":"https://cdn.freshful.ro/assets/product_tags/eco.png","backgroundColor":"#EFFBE4","textColor":"#66BB1B"}],"isAvailable":true,"maxAvailableQuantity":30,"maxAllowedQuantity":30,"breadcrumbs":[{"code":"3","name":"Fructe & legume","slug":"3-fructe-si-legume"},{"code":"301","name":"Fructe proaspete","slug":"301-fructe-proaspete"},{"code":"30102","name":"Citrice","slug":"30102-citrice"},{"code":"100149637","name":"Lămâi eco Sicilia 500g","slug":"100149637-no-brand-lamai-eco-sicilia-500g"}],"activePromotion":{"code":"freshful-top-deals-2023","name":"Preț avantajos","targetQuantity":null},"saveMe":null,"labels":[{"type":"v1","items":[{"text":"Profită acum","backgroundColor":"#FF9903","textColor":"#FFFFFF"}]}],"geniusPrice":null,"geniusUnitPricePerLabel":null,"banner":{"text":"Preț avantajos","textColor":"#F95510","bgColor":"#FEF1CD","icon":null,"link":"https://www.freshful.ro/oferte/freshful-top-deals-2023","type":"promo","analyticsEventType":"select_promotion","analyticsEventPayload":{"promotion_id":"freshful-top-deals-2023","promotion_name":"Profită de Top Deals"}},"discountLabel":null,"geniusDiscountLabel":null,"badge":null},{"code":"100071236","variantCode":"100071236","name":"Pepene Galia 1 buc","slug":"100071236-no-brand-pepene-galia-1-buc","unitPriceLabel":"12,99 Lei/kg","brand":null,"brandCode":null,"brandFilterCode":"no-brand-b83","sku":"100071236","price":12.99,"originalPrice":14.49,"currencyCode":"RON","currency":"Lei","image":{"thumbnail":{"default":"https://cdn.freshful.ro/media/cache/sylius_shop_product_thumbnail/3a/57/68538e8ffd9cc5d6354644abbf79.jpg"},"large":{"default":"https://cdn.freshful.ro/media/cache/freshful_large/3a/57/68538e8ffd9cc5d6354644abbf79.jpg"},"extralarge":{"default":"https://cdn.freshful.ro/media/cache/sylius_shop_product_original/3a/57/68538e8ffd9cc5d6354644abbf79.jpg"}},"label":{"text":"-10%","backgroundColor":"#FF9903","textColor":"#FFFFFF"},"tags":[],"isAvailable":true,"maxAvailableQuantity":1,"maxAllowedQuantity":1,"breadcrumbs":[{"code":"3","name":"Fructe & legume","slug":"3-fructe-si-legume"},{"code":"301","name":"Fructe proaspete","slug":"301-fructe-proaspete"},{"code":"30109","name":"Pepeni","slug":"30109-pepeni"},{"code":"100071236","name":"Pepene Galia 1 buc","slug":"100071236-no-brand-pepene-galia-1-buc"}],"activePromotion":{"code":"bunatatile-saptamanii-cw0923","name":"Preț redus","targetQuantity":null},"saveMe":null,"labels":[{"type":"v1","items":[{"text":"-10%","backgroundColor":"#FF9903","textColor":"#FFFFFF"}]}],"geniusPrice":null,"geniusUnitPricePerLabel":null,"banner":{"text":"Super preț","textColor":"#FF0000","bgColor":"#FFF2EC","icon":null,"link":"https://www.freshful.ro/oferte/bunatatile-saptamanii-cw0923","type":"promo","analyticsEventType":"select_promotion","analyticsEventPayload":{"promotion_id":"bunatatile-saptamanii-cw0923","promotion_name":"Oferta proaspătă a săptămânii"}},"discountLabel":"Economisești 10%","geniusDiscountLabel":null,"badge":null},{"code":"100151520","variantCode":"100151520","name":"Mere Idared 1kg","slug":"100151520-no-brand-mere-idared-1kg","unitPriceLabel":"2,99 Lei/kg","brand":null,"brandCode":null,"brandFilterCode":"no-brand-b83","sku":"100151520","price":2.99,"originalPrice":3.89,"currencyCode":"RON","currency":"Lei","image":{"thumbnail":{"default":"https://cdn.freshful.ro/media/cache/sylius_shop_product_thumbnail/2a/7f/8f1db7c2e0bc7fb1155e73f4314a.jpg"},"large":{"default":"https://cdn.freshful.ro/media/cache/freshful_large/2a/7f/8f1db7c2e0bc7fb1155e73f4314a.jpg"},"extralarge":{"default":"https://cdn.freshful.ro/media/cache/sylius_shop_product_original/2a/7f/8f1db7c2e0bc7fb1155e73f4314a.jpg"}},"label":{"text":"-23%","backgroundColor":"#FF9903","textColor":"#FFFFFF"},"tags":[],"isAvailable":true,"maxAvailableQuantity":30,"maxAllowedQuantity":30,"breadcrumbs":[{"code":"3","name":"Fructe & legume","slug":"3-fructe-si-legume"},{"code":"301","name":"Fructe proaspete","slug":"301-fructe-proaspete"},{"code":"30104","name":"Mere","slug":"30104-mere"},{"code":"100151520","name":"Mere Idared 1kg","slug":"100151520-no-brand-mere-idared-1kg"}],"activePromotion":{"code":"bunatatile-saptamanii-cw0923","name":"Preț redus","targetQuantity":null},"saveMe":null,"labels":[{"type":"v1","items":[{"text":"-23%","backgroundColor":"#FF9903","textColor":"#FFFFFF"}]}],"geniusPrice":null,"geniusUnitPricePerLabel":null,"banner":{"text":"Super preț","textColor":"#FF0000","bgColor":"#FFF2EC","icon":null,"link":"https://www.freshful.ro/oferte/bunatatile-saptamanii-cw0923","type":"promo","analyticsEventType":"select_promotion","analyticsEventPayload":{"promotion_id":"bunatatile-saptamanii-cw0923","promotion_name":"Oferta proaspătă a săptămânii"}},"discountLabel":"Economisești 23%","geniusDiscountLabel":null,"badge":null},{"code":"100071174","variantCode":"100071174","name":"Portocale 1kg","slug":"100071174-no-brand-portocale-1kg","unitPriceLabel":"5,49 Lei/kg","brand":null,"brandCode":null,"brandFilterCode":"no-brand-b83","sku":"100071174","price":5.49,"originalPrice":null,"currencyCode":"RON","currency":"Lei","image":{"thumbnail":{"default":"https://cdn.freshful.ro/media/cache/sylius_shop_product_thumbnail/cc/c8/8f4c31f43aa05206d533c9844be5.jpg"},"large":{"default":"https://cdn.freshful.ro/media/cache/freshful_large/cc/c8/8f4c31f43aa05206d533c9844be5.jpg"},"extralarge":{"default":"https://cdn.freshful.ro/media/cache/sylius_shop_product_original/cc/c8/8f4c31f43aa05206d533c9844be5.jpg"}},"label":null,"tags":[],"isAvailable":true,"maxAvailableQuantity":30,"maxAllowedQuantity":30,"breadcrumbs":[{"code":"3","name":"Fructe & legume","slug":"3-fructe-si-legume"},{"code":"301","name":"Fructe proaspete","slug":"301-fructe-proaspete"},{"code":"30102","name":"Citrice","slug":"30102-citrice"},{"code":"100071174","name":"Portocale 1kg","slug":"100071174-no-brand-portocale-1kg"}],"activePromotion":null,"saveMe":null,"labels":[],"geniusPrice":null,"geniusUnitPricePerLabel":null,"banner":null,"discountLabel":null,"geniusDiscountLabel":null,"badge":null},{"code":"100071218","variantCode":"100071218","name":"Căpșune 250g","slug":"100071218-no-brand-capsune-250g","unitPriceLabel":"39,96 Lei/kg","brand":null,"brandCode":null,"brandFilterCode":"no-brand-b83","sku":"100071218","price":9.99,"originalPrice":null,"currencyCode":"RON","currency":"Lei","image":{"thumbnail":{"default":"https://cdn.freshful.ro/media/cache/sylius_shop_product_thumbnail/4f/fd/9a0c35ced91c5bf568c30c740f96.jpg"},"large":{"default":"https://cdn.freshful.ro/media/cache/freshful_large/4f/fd/9a0c35ced91c5bf568c30c740f96.jpg"},"extralarge":{"default":"https://cdn.freshful.ro/media/cache/sylius_shop_product_original/4f/fd/9a0c35ced91c5bf568c30c740f96.jpg"}},"label":null,"tags":[],"isAvailable":true,"maxAvailableQuantity":30,"maxAllowedQuantity":30,"breadcrumbs":[{"code":"3","name":"Fructe & legume","slug":"3-fructe-si-legume"},{"code":"301","name":"Fructe proaspete","slug":"301-fructe-proaspete"},{"code":"30107","name":"Fructe de pădure","slug":"30107-fructe-de-padure"},{"code":"100071218","name":"Căpșune 250g","slug":"100071218-no-brand-capsune-250g"}],"activePromotion":null,"saveMe":null,"labels":[],"geniusPrice":null,"geniusUnitPricePerLabel":null,"banner":null,"discountLabel":null,"geniusDiscountLabel":null,"badge":null},{"code":"100071256","variantCode":"100071256","name":"Avocado eco 1 buc","slug":"100071256-no-brand-avocado-eco-1-buc","unitPriceLabel":"41,61 Lei/kg","brand":null,"brandCode":null,"brandFilterCode":"no-brand-b83","sku":"100071256","price":7.49,"originalPrice":null,"currencyCode":"RON","currency":"Lei","image":{"thumbnail":{"default":"https://cdn.freshful.ro/media/cache/sylius_shop_product_thumbnail/64/70/e82af99f8124568776386cf9bd80.jpg"},"large":{"default":"https://cdn.freshful.ro/media/cache/freshful_large/64/70/e82af99f8124568776386cf9bd80.jpg"},"extralarge":{"default":"https://cdn.freshful.ro/media/cache/sylius_shop_product_original/64/70/e82af99f8124568776386cf9bd80.jpg"}},"label":null,"tags":[{"type":"Eco","text":"Eco","icon":"https://cdn.freshful.ro/assets/product_tags/eco.svg","iconPng":"https://cdn.freshful.ro/assets/product_tags/eco.png","backgroundColor":"#EFFBE4","textColor":"#66BB1B"}],"isAvailable":true,"maxAvailableQuantity":30,"maxAllowedQuantity":30,"breadcrumbs":[{"code":"3","name":"Fructe & legume","slug":"3-fructe-si-legume"},{"code":"301","name":"Fructe proaspete","slug":"301-fructe-proaspete"},{"code":"30111","name":"Fructe exotice","slug":"30111-fructe-exotice"},{"code":"100071256","name":"Avocado eco 1 buc","slug":"100071256-no-brand-avocado-eco-1-buc"}],"activePromotion":null,"saveMe":null,"labels":[],"geniusPrice":null,"geniusUnitPricePerLabel":null,"banner":null,"discountLabel":null,"geniusDiscountLabel":null,"badge":null}],"filters":{"countSelected":0,"items":[{"code":"promotion","name":"Promoții","countSelected":0,"values":[{"code":"bunatatile-saptamanii-cw0923","name":"Oferta proaspătă a săptămânii","isSelected":false,"count":3},{"code":"freshful-top-deals-2023","name":"Profită de Top Deals","isSelected":false,"count":1}]},{"code":"brand","name":"Brand","countSelected":0,"values":[{"code":"din-livada-by-freshful-b2827","name":"Din Livada By Freshful","isSelected":false,"count":4},{"code":"glamour-b2398","name":"Glamour","isSelected":false,"count":1},{"code":"jingold-b2395","name":"Jingold","isSelected":false,"count":1},{"code":"livada-familia-popescu-b2013","name":"Livada Familia Popescu","isSelected":false,"count":1},{"code":"merryberry-b2709","name":"Merryberry","isSelected":false,"count":1},{"code":"vog-b2164","name":"Vog","isSelected":false,"count":1}]},{"code":"diet_lifestyle","name":"Dietă și lifestyle","countSelected":0,"values":[{"code":"eco-a83","name":"Eco","isSelected":false,"count":15},{"code":"made-in-romania-a85","name":"Made In Romania","isSelected":false,"count":14}]}]},"orderBy":[{"field":"price","direction":"asc","name":"Preț crescător","isSelected":false},{"field":"price","direction":"desc","name":"Preț descrescător","isSelected":false},{"field":"popularity","direction":"desc","name":"Cele mai populare","isSelected":true},{"field":"category","direction":"asc","name":"Categorie","isSelected":false}],"metaTitle":"Fructe proaspete - Gamă variată","metaDescription":"Vrei Fructe proaspete? Alege dintr-o gamă variată. Comanzi simplu și ai livrare rapidă, calitate și prospețime. Hai pe Freshful.ro","metaKeywords":null,"banners":[]}}