{"type":"subcategory","payload":{"analyticsListId":"category_30104-mere","analyticsListName":"Category - Mere","name":"Mere","slug":"30104-mere","image":null,"breadcrumbs":[{"code":"3","name":"Fructe & legume","slug":"3-fructe-si-legume"},{"code":"301","name":"Fructe proaspete","slug":"301-fructe-proaspete"},{"code":"30104","name":"Mere","slug":"30104-mere"}],"slots":[],"page":1,"limit":10,"pages":3,"count":23,"siblings":[{"name":"Fructe proaspete","slug":"301-fructe-proaspete","selected":true},{"name":"Legume proaspete","slug":"302-legume-proaspete","selected":false},{"name":"Verdețuri și ierburi aromatice","slug":"303-verdeturi-si-plante-aromatice","selected":false},{"name":"Fructe și legume uscate","slug":"304-fructe-uscate-crude","selected":false},{"name":"Sucuri naturale","slug":"305-sucuri-naturale","selected":false}],"children":[{"name":"Toate produsele","slug":"301-fructe-proaspete","selected":false},{"name":"Banane","slug":"30101-banane","selected":false},{"name":"Citrice","slug":"30102-citrice","selected":false},{"name":"Mere","slug":"30104-mere","selected":true},{"name":"Pere","slug":"30105-pere","selected":false},{"name":"Fructe de pădure","slug":"30107-fructe-de-padure","selected":false},{"name":"Fructe de sezon","slug":"30108-fructe-de-vara","selected":false},{"name":"Pepeni","slug":"30109-pepeni","selected":false},{"name":"Struguri","slug":"30110-struguri","selected":false},{"name":"Fructe exotice","slug":"30111-fructe-exotice","selected":false},{"name":"Kiwi","slug":"kiwi","selected":false}],"products":[{"code":"100151520","variantCode":"100151520","name":"Mere Idared 1kg","slug":"100151520-no-brand-mere-idared-1kg","unitPriceLabel":"2,99 Lei/kg","brand":null,"brandCode":null,"brandFilterCode":"no-brand-b83","sku":"100151520","price":2.99,"originalPrice":3.89,"currencyCode":"RON","currency":"Lei","image":{"thumbnail":{"default":"https://cdn.freshful.ro/media/cache/sylius_shop_product_thumbnail/2a/7f/8f1db7c2e0bc7fb1155e73f4314a.jpg"},"large":{"default":"https://cdn.freshful.ro/media/cache/freshful_large/2a/7f/8f1db7c2e0bc7fb1155e73f4314a.jpg"},"extralarge":{"default":"https://cdn.freshful.ro/media/cache/sylius_shop_product_original/2a/7f/8f1db7c2e0bc7fb1155e73f4314a.jpg"}},"label":{"text":"-23%","backgroundColor":"#FF9903","textColor":"#FFFFFF"},"tags":[],"isAvailable":true,"maxAvailableQuantity":30,"maxAllowedQuantity":30,"breadcrumbs":[{"code":"3","name":"Fructe & legume","slug":"3-fructe-si-legume"},{"code":"301","name":"Fructe proaspete","slug":"301-fructe-proaspete"},{"code":"30104","name":"Mere","slug":"30104-mere"},{"code":"100151520","name":"Mere Idared 1kg","slug":"100151520-no-brand-mere-idared-1kg"}],"activePromotion":{"code":"bunatatile-saptamanii-cw0923","name":"Preț redus","targetQuantity":null},"saveMe":null,"labels":[{"type":"v1","items":[{"text":"-23%","backgroundColor":"#FF9903","textColor":"#FFFFFF"}]}],"geniusPrice":null,"geniusUnitPricePerLabel":null,"banner":{"text":"Super preț","textColor":"#FF0000","bgColor":"#FFF2EC","icon":null,"link":"https://www.freshful.ro/oferte/bunatatile-saptamanii-cw0923","type":"promo","analyticsEventType":"select_promotion","analyticsEventPayload":{"promotion_id":"bunatatile-saptamanii-cw0923","promotion_name":"Oferta proaspătă a săptămânii"}},"discountLabel":"Economisești 23%","geniusDiscountLabel":null,"badge":null},{"code":"100144043","variantCode":"100144043","name":"Mere Golden de Voinești 1kg","slug":"100144043-no-brand-mere-golden-de-voinesti-1kg","unitPriceLabel":"4,99 Lei/kg","brand":null,"brandCode":null,"brandFilterCode":"no-brand-b83","sku":"100144043","price":4.99,"originalPrice":null,"currencyCode":"RON","currency":"Lei","image":{"thumbnail":{"default":"https://cdn.freshful.ro/media/cache/sylius_shop_product_thumbnail/c3/51/c04febcee94e7cf3c937c22b16df.jpg"},"large":{"default":"https://cdn.freshful.ro/media/cache/freshful_large/c3/51/c04febcee94e7cf3c937c22b16df.jpg"},"extralarge":{"default":"https://cdn.freshful.ro/media/cache/sylius_shop_product_original/c3/51/c04febcee94e7cf3c937c22b16df.jpg"}},"label":null,"tags":[{"type":"MadeInRomania","text":"Made In Romania","icon":"https://cdn.freshful.ro/assets/product_tags/made_in_romania.svg","iconPng":"https://cdn.freshful.ro/assets/product_tags/made_in_romania.png","backgroundColor":"#EDF2FD","textColor":"#1653CA"}],"isAvailable":true,"maxAvailableQuantity":30,"maxAllowedQuantity":30,"breadcrumbs":[{"code":"3","name":"Fructe & legume","slug":"3-fructe-si-legume"},{"code":"301","name":"Fructe proaspete","slug":"301-fructe-proaspete"},{"code":"30104","name":"Mere","slug":"30104-mere"},{"code":"100144043","name":"Mere Golden de Voinești 1kg","slug":"100144043-no-brand-mere-golden-de-voinesti-1kg"}],"activePromotion":null,"saveMe":null,"labels":[],"geniusPrice":null,"geniusUnitPricePerLabel":null,"banner":null,"discountLabel":null,"geniusDiscountLabel":null,"badge":null},{"code":"100144040","variantCode":"100144040","name":"Mere Jonathan de Voinești 1kg","slug":"100144040-no-brand-mere-jonathan-de-voinesti-1kg","unitPriceLabel":"4,99 Lei/kg","brand":null,"brandCode":null,"brandFilterCode":"no-brand-b83","sku":"100144040","price":4.99,"originalPrice":null,"currencyCode":"RON","currency":"Lei","image":{"thumbnail":{"default":"https://cdn.freshful.ro/media/cache/sylius_shop_product_thumbnail/53/f3/649c8f191f82ceab790ebd1911b3.jpg"},"large":{"default":"https://cdn.freshful.ro/media/cache/freshful_large/53/f3/649c8f191f82ceab790ebd1911b3.jpg"},"extralarge":{"default":"https://cdn.freshful.ro/media/cache/sylius_shop_product_original/53/f3/649c8f191f82ceab790ebd1911b3.jpg"}},"label":null,"tags":[{"type":"MadeInRomania","text":"Made In Romania","icon":"https://cdn.freshful.ro/assets/product_tags/made_in_romania.svg","iconPng":"https://cdn.freshful.ro/assets/product_tags/made_in_romania.png","backgroundColor":"#EDF2FD","textColor":"#1653CA"}],"isAvailable":true,"maxAvailableQuantity":30,"maxAllowedQuantity":30,"breadcrumbs":[{"code":"3","name":"Fructe & legume","slug":"3-fructe-si-legume"},{"code":"301","name":"Fructe proaspete","slug":"301-fructe-proaspete"},{"code":"30104","name":"Mere","slug":"30104-mere"},{"code":"100144040","name":"Mere Jonathan de Voinești 1kg","slug":"100144040-no-brand-mere-jonathan-de-voinesti-1kg"}],"activePromotion":null,"saveMe":null,"labels":[],"geniusPrice":null,"geniusUnitPricePerLabel":null,"banner":null,"discountLabel":null,"geniusDiscountLabel":null,"badge":null},{"code":"100144041","variantCode":"100144041","name":"Mere Idared de Voinești 1kg","slug":"100144041-no-brand-mere-idared-de-voinesti-1kg","unitPriceLabel":"4,99 Lei/kg","brand":null,"brandCode":null,"brandFilterCode":"no-brand-b83","sku":"100144041","price":4.99,"originalPrice":null,"currencyCode":"RON","currency":"Lei","image":{"thumbnail":{"default":"https://cdn.freshful.ro/media/cache/sylius_shop_product_thumbnail/15/fc/2196158acf09e20f5971e839f9a4.jpg"},"large":{"default":"https://cdn.freshful.ro/media/cache/freshful_large/15/fc/2196158acf09e20f5971e839f9a4.jpg"},"extralarge":{"default":"https://cdn.freshful.ro/media/cache/sylius_shop_product_original/15/fc/2196158acf09e20f5971e839f9a4.jpg"}},"label":{"text":"Primul preț","backgroundColor":"#3A0808","textColor":"#FFFFFF"},"tags":[{"type":"MadeInRomania","text":"Made In Romania","icon":"https://cdn.freshful.ro/assets/product_tags/made_in_romania.svg","iconPng":"https://cdn.freshful.ro/assets/product_tags/made_in_romania.png","backgroundColor":"#EDF2FD","textColor":"#1653CA"}],"isAvailable":true,"maxAvailableQuantity":30,"maxAllowedQuantity":30,"breadcrumbs":[{"code":"3","name":"Fructe & legume","slug":"3-fructe-si-legume"},{"code":"301","name":"Fructe proaspete","slug":"301-fructe-proaspete"},{"code":"30104","name":"Mere","slug":"30104-mere"},{"code":"100144041","name":"Mere Idared de Voinești 1kg","slug":"100144041-no-brand-mere-idared-de-voinesti-1kg"}],"activePromotion":null,"saveMe":null,"labels":[{"type":"v4","items":[{"text":"Primul","backgroundColor":"#3A0808","textColor":"#FFFFFF"},{"text":"preț","backgroundColor":"#BC0606","textColor":"#FFFFFF"}]}],"geniusPrice":null,"geniusUnitPricePerLabel":null,"banner":null,"discountLabel":null,"geniusDiscountLabel":null,"badge":null},{"code":"100071188","variantCode":"100071188","name":"Mere Royal Gala România 1kg","slug":"100071188-no-brand-mere-royal-gala-romania-1kg","unitPriceLabel":"5,49 Lei/kg","brand":null,"brandCode":null,"brandFilterCode":"no-brand-b83","sku":"100071188","price":5.49,"originalPrice":null,"currencyCode":"RON","currency":"Lei","image":{"thumbnail":{"default":"https://cdn.freshful.ro/media/cache/sylius_shop_product_thumbnail/32/34/e53a27decea3a75c4b604cf507b3.jpg"},"large":{"default":"https://cdn.freshful.ro/media/cache/freshful_large/32/34/e53a27decea3a75c4b604cf507b3.jpg"},"extralarge":{"default":"https://cdn.freshful.ro/media/cache/sylius_shop_product_original/32/34/e53a27decea3a75c4b604cf507b3.jpg"}},"label":null,"tags":[{"type":"MadeInRomania","text":"Made In Romania","icon":"https://cdn.freshful.ro/assets/product_tags/made_in_romania.svg","iconPng":"https://cdn.freshful.ro/assets/product_tags/made_in_romania.png","backgroundColor":"#EDF2FD","textColor":"#1653CA"}],"isAvailable":true,"maxAvailableQuantity":30,"maxAllowedQuantity":30,"breadcrumbs":[{"code":"3","name":"Fructe & legume","slug":"3-fructe-si-legume"},{"code":"301","name":"Fructe proaspete","slug":"301-fructe-proaspete"},{"code":"30104","name":"Mere","slug":"30104-mere"},{"code":"100071188","name":"Mere Royal Gala România 1kg","slug":"100071188-no-brand-mere-royal-gala-romania-1kg"}],"activePromotion":null,"saveMe":null,"labels":[],"geniusPrice":null,"geniusUnitPricePerLabel":null,"banner":null,"discountLabel":null,"geniusDiscountLabel":null,"badge":null},{"code":"100071183","variantCode":"100071183","name":"Mere roșii eco 4 buc","slug":"100071183-no-brand-mere-rosii-eco-4-buc","unitPriceLabel":"13,86 Lei/kg","brand":null,"brandCode":null,"brandFilterCode":"no-brand-b83","sku":"100071183","price":6.93,"originalPrice":null,"currencyCode":"RON","currency":"Lei","image":{"thumbnail":{"default":"https://cdn.freshful.ro/media/cache/sylius_shop_product_thumbnail/91/72/de073e6a9d9dd0f9d8878fdf3123.jpg"},"large":{"default":"https://cdn.freshful.ro/media/cache/freshful_large/91/72/de073e6a9d9dd0f9d8878fdf3123.jpg"},"extralarge":{"default":"https://cdn.freshful.ro/media/cache/sylius_shop_product_original/91/72/de073e6a9d9dd0f9d8878fdf3123.jpg"}},"label":null,"tags":[{"type":"Eco","text":"Eco","icon":"https://cdn.freshful.ro/assets/product_tags/eco.svg","iconPng":"https://cdn.freshful.ro/assets/product_tags/eco.png","backgroundColor":"#EFFBE4","textColor":"#66BB1B"}],"isAvailable":true,"maxAvailableQuantity":30,"maxAllowedQuantity":30,"breadcrumbs":[{"code":"3","name":"Fructe & legume","slug":"3-fructe-si-legume"},{"code":"301","name":"Fructe proaspete","slug":"301-fructe-proaspete"},{"code":"30104","name":"Mere","slug":"30104-mere"},{"code":"100071183","name":"Mere roșii eco 4 buc","slug":"100071183-no-brand-mere-rosii-eco-4-buc"}],"activePromotion":null,"saveMe":null,"labels":[],"geniusPrice":null,"geniusUnitPricePerLabel":null,"banner":null,"discountLabel":null,"geniusDiscountLabel":null,"badge":null},{"code":"100146994","variantCode":"100146994","name":"Mere Starkrimson România  1kg","slug":"100146994-no-brand-mere-starkrimson-romania-1kg","unitPriceLabel":"5,49 Lei/kg","brand":null,"brandCode":null,"brandFilterCode":"no-brand-b83","sku":"100146994","price":5.49,"originalPrice":null,"currencyCode":"RON","currency":"Lei","image":{"thumbnail":{"default":"https://cdn.freshful.ro/media/cache/sylius_shop_product_thumbnail/4d/d4/37f18f6d130d4fae56577a0dac96.jpg"},"large":{"default":"https://cdn.freshful.ro/media/cache/freshful_large/4d/d4/37f18f6d130d4fae56577a0dac96.jpg"},"extralarge":{"default":"https://cdn.freshful.ro/media/cache/sylius_shop_product_original/4d/d4/37f18f6d130d4fae56577a0dac96.jpg"}},"label":null,"tags":[{"type":"MadeInRomania","text":"Made In Romania","icon":"https://cdn.freshful.ro/assets/product_tags/made_in_romania.svg","iconPng":"https://cdn.freshful.ro/assets/product_tags/made_in_romania.png","backgroundColor":"#EDF2FD","textColor":"#1653CA"}],"isAvailable":true,"maxAvailableQuantity":30,"maxAllowedQuantity":30,"breadcrumbs":[{"code":"3","name":"Fructe & legume","slug":"3-fructe-si-legume"},{"code":"301","name":"Fructe proaspete","slug":"301-fructe-proaspete"},{"code":"30104","name":"Mere","slug":"30104-mere"},{"code":"100146994","name":"Mere Starkrimson România  1kg","slug":"100146994-no-brand-mere-starkrimson-romania-1kg"}],"activePromotion":null,"saveMe":null,"labels":[],"geniusPrice":null,"geniusUnitPricePerLabel":null,"banner":null,"discountLabel":null,"geniusDiscountLabel":null,"badge":null},{"code":"100136040","variantCode":"100136040","name":"Mere Granny Smith 4 buc","slug":"100136040-no-brand-mere-granny-smith-4-buc","unitPriceLabel":"14,98 Lei/kg","brand":null,"brandCode":null,"brandFilterCode":"no-brand-b83","sku":"100136040","price":7.49,"originalPrice":null,"currencyCode":"RON","currency":"Lei","image":{"thumbnail":{"default":"https://cdn.freshful.ro/media/cache/sylius_shop_product_thumbnail/62/83/c1480ceafaea5b9d28777d378ae8.jpg"},"large":{"default":"https://cdn.freshful.ro/media/cache/freshful_large/62/83/c1480ceafaea5b9d28777d378ae8.jpg"},"extralarge":{"default":"https://cdn.freshful.ro/media/cache/sylius_shop_product_original/62/83/c1480ceafaea5b9d28777d378ae8.jpg"}},"label":null,"tags":[],"isAvailable":true,"maxAvailableQuantity":30,"maxAllowedQuantity":30,"breadcrumbs":[{"code":"3","name":"Fructe & legume","slug":"3-fructe-si-legume"},{"code":"301","name":"Fructe proaspete","slug":"301-fructe-proaspete"},{"code":"30104","name":"Mere","slug":"30104-mere"},{"code":"100136040","name":"Mere Granny Smith 4 buc","slug":"100136040-no-brand-mere-granny-smith-4-buc"}],"activePromotion":null,"saveMe":null,"labels":[],"geniusPrice":null,"geniusUnitPricePerLabel":null,"banner":null,"discountLabel":null,"geniusDiscountLabel":null,"badge":null},{"code":"100071179","variantCode":"100071179","name":"Mere Golden România 1kg","slug":"100071179-no-brand-mere-golden-romania-1kg","unitPriceLabel":"4,99 Lei/kg","brand":null,"brandCode":null,"brandFilterCode":"no-brand-b83","sku":"100071179","price":4.99,"originalPrice":null,"currencyCode":"RON","currency":"Lei","image":{"thumbnail":{"default":"https://cdn.freshful.ro/media/cache/sylius_shop_product_thumbnail/f7/e6/f739da24370cddec8baa12a17360.jpg"},"large":{"default":"https://cdn.freshful.ro/media/cache/freshful_large/f7/e6/f739da24370cddec8baa12a17360.jpg"},"extralarge":{"default":"https://cdn.freshful.ro/media/cache/sylius_shop_product_original/f7/e6/f739da24370cddec8baa12a17360.jpg"}},"label":null,"tags":[{"type":"MadeInRomania","text":"Made In Romania","icon":"https://cdn.freshful.ro/assets/product_tags/made_in_romania.svg","iconPng":"https://cdn.freshful.ro/assets/product_tags/made_in_romania.png","backgroundColor":"#EDF2FD","textColor":"#1653CA"}],"isAvailable":true,"maxAvailableQuantity":30,"maxAllowedQuantity":30,"breadcrumbs":[{"code":"3","name":"Fructe & legume","slug":"3-fructe-si-legume"},{"code":"301","name":"Fructe proaspete","slug":"301-fructe-proaspete"},{"code":"30104","name":"Mere","slug":"30104-mere"},{"code":"100071179","name":"Mere Golden România 1kg","slug":"100071179-no-brand-mere-golden-romania-1kg"}],"activePromotion":null,"saveMe":null,"labels":[],"geniusPrice":null,"geniusUnitPricePerLabel":null,"banner":null,"discountLabel":null,"geniusDiscountLabel":null,"badge":null},{"code":"100144042","variantCode":"100144042","name":"Mere Florina de Voinești 1kg","slug":"100144042-no-brand-mere-florina-de-voinesti-1kg","unitPriceLabel":"4,99 Lei/kg","brand":null,"brandCode":null,"brandFilterCode":"no-brand-b83","sku":"100144042","price":4.99,"originalPrice":null,"currencyCode":"RON","currency":"Lei","image":{"thumbnail":{"default":"https://cdn.freshful.ro/media/cache/sylius_shop_product_thumbnail/bd/6b/c0792459dd36823c919000859a28.jpg"},"large":{"default":"https://cdn.freshful.ro/media/cache/freshful_large/bd/6b/c0792459dd36823c919000859a28.jpg"},"extralarge":{"default":"https://cdn.freshful.ro/media/cache/sylius_shop_product_original/bd/6b/c0792459dd36823c919000859a28.jpg"}},"label":null,"tags":[{"type":"MadeInRomania","text":"Made In Romania","icon":"https://cdn.freshful.ro/assets/product_tags/made_in_romania.svg","iconPng":"https://cdn.freshful.ro/assets/product_tags/made_in_romania.png","backgroundColor":"#EDF2FD","textColor":"#1653CA"}],"isAvailable":true,"maxAvailableQuantity":30,"maxAllowedQuantity":30,"breadcrumbs":[{"code":"3","name":"Fructe & legume","slug":"3-fructe-si-legume"},{"code":"301","name":"Fructe proaspete","slug":"301-fructe-proaspete"},{"code":"30104","name":"Mere","slug":"30104-mere"},{"code":"100144042","name":"Mere Florina de Voinești 1kg","slug":"100144042-no-brand-mere-florina-de-voinesti-1kg"}],"activePromotion":null,"saveMe":null,"labels":[],"geniusPrice":null,"geniusUnitPricePerLabel":null,"banner":null,"discountLabel":null,"geniusDiscountLabel":null,"badge":null}],"filters":{"countSelected":0,"items":[{"code":"promotion","name":"Promoții","countSelected":0,"values":[{"code":"bunatatile-saptamanii-cw0923","name":"Oferta proaspătă a săptămânii","isSelected":false,"count":1}]},{"code":"brand","name":"Brand","countSelected":0,"values":[{"code":"din-livada-by-freshful-b2827","name":"Din Livada By Freshful","isSelected":false,"count":4},{"code":"vog-b2164","name":"Vog","isSelected":false,"count":1}]},{"code":"diet_lifestyle","name":"Dietă și lifestyle","countSelected":0,"values":[{"code":"eco-a83","name":"Eco","isSelected":false,"count":3},{"code":"made-in-romania-a85","name":"Made In Romania","isSelected":false,"count":13}]}]},"orderBy":[{"field":"price","direction":"asc","name":"Preț crescător","isSelected":false},{"field":"price","direction":"desc","name":"Preț descrescător","isSelected":false},{"field":"popularity","direction":"desc","name":"Cele mai populare","isSelected":true},{"field":"category","direction":"asc","name":"Categorie","isSelected":false}],"metaTitle":"Mere - Gamă variată","metaDescription":"Vrei Mere? Alege dintr-o gamă variată. Comanzi simplu și ai livrare rapidă, calitate și prospețime. Hai pe Freshful.ro","metaKeywords":null,"banners":[]}}