{"type":"subcategory","payload":{"analyticsListId":"category_30102-citrice","analyticsListName":"Category - Citrice","name":"Citrice","slug":"30102-citrice","image":null,"breadcrumbs":[{"code":"3","name":"Fructe & legume","slug":"3-fructe-si-legume"},{"code":"301","name":"Fructe proaspete","slug":"301-fructe-proaspete"},{"code":"30102","name":"Citrice","slug":"30102-citrice"}],"slots":[],"page":1,"limit":10,"pages":3,"count":24,"siblings":[{"name":"Fructe proaspete","slug":"301-fructe-proaspete","selected":true},{"name":"Legume proaspete","slug":"302-legume-proaspete","selected":false},{"name":"Verdețuri și ierburi aromatice","slug":"303-verdeturi-si-plante-aromatice","selected":false},{"name":"Fructe și legume uscate","slug":"304-fructe-uscate-crude","selected":false},{"name":"Sucuri naturale","slug":"305-sucuri-naturale","selected":false}],"children":[{"name":"Toate produsele","slug":"301-fructe-proaspete","selected":false},{"name":"Banane","slug":"30101-banane","selected":false},{"name":"Citrice","slug":"30102-citrice","selected":true},{"name":"Mere","slug":"30104-mere","selected":false},{"name":"Pere","slug":"30105-pere","selected":false},{"name":"Fructe de pădure","slug":"30107-fructe-de-padure","selected":false},{"name":"Fructe de sezon","slug":"30108-fructe-de-vara","selected":false},{"name":"Pepeni","slug":"30109-pepeni","selected":false},{"name":"Struguri","slug":"30110-struguri","selected":false},{"name":"Fructe exotice","slug":"30111-fructe-exotice","selected":false},{"name":"Kiwi","slug":"kiwi","selected":false}],"products":[{"code":"100071162","variantCode":"100071162","name":"Lămâi eco 500g","slug":"100071162-no-brand-lamai-eco-500g","unitPriceLabel":"13,28 Lei/kg","brand":null,"brandCode":null,"brandFilterCode":"no-brand-b83","sku":"100071162","price":6.64,"originalPrice":null,"currencyCode":"RON","currency":"Lei","image":{"thumbnail":{"default":"https://cdn.freshful.ro/media/cache/sylius_shop_product_thumbnail/39/ff/2ed3e89ab244c16792828a6c3bff.jpg"},"large":{"default":"https://cdn.freshful.ro/media/cache/freshful_large/39/ff/2ed3e89ab244c16792828a6c3bff.jpg"},"extralarge":{"default":"https://cdn.freshful.ro/media/cache/sylius_shop_product_original/39/ff/2ed3e89ab244c16792828a6c3bff.jpg"}},"label":{"text":"-20% cu Genius","backgroundColor":"#FEF3FA","textColor":"#CD015F"},"tags":[{"type":"Eco","text":"Eco","icon":"https://cdn.freshful.ro/assets/product_tags/eco.svg","iconPng":"https://cdn.freshful.ro/assets/product_tags/eco.png","backgroundColor":"#EFFBE4","textColor":"#66BB1B"}],"isAvailable":true,"maxAvailableQuantity":30,"maxAllowedQuantity":30,"breadcrumbs":[{"code":"3","name":"Fructe & legume","slug":"3-fructe-si-legume"},{"code":"301","name":"Fructe proaspete","slug":"301-fructe-proaspete"},{"code":"30102","name":"Citrice","slug":"30102-citrice"},{"code":"100071162","name":"Lămâi eco 500g","slug":"100071162-no-brand-lamai-eco-500g"}],"activePromotion":null,"saveMe":null,"labels":[{"type":"gdeals","items":[{"text":"","backgroundColor":"","textColor":""}]},{"type":"v3","items":[{"text":"-20% cu Genius","backgroundColor":"#FEF3FA","textColor":"#CD015F"}]}],"geniusPrice":5.31,"geniusUnitPricePerLabel":"10,62 Lei/kg","banner":null,"discountLabel":null,"geniusDiscountLabel":"Economisești 20%","badge":null},{"code":"100071163","variantCode":"100071163","name":"Lămâi netratate 500g","slug":"100071163-no-brand-lamai-netratate-500g","unitPriceLabel":"14,98 Lei/kg","brand":null,"brandCode":null,"brandFilterCode":"no-brand-b83","sku":"100071163","price":7.49,"originalPrice":null,"currencyCode":"RON","currency":"Lei","image":{"thumbnail":{"default":"https://cdn.freshful.ro/media/cache/sylius_shop_product_thumbnail/7e/4b/f3c9e2d2244b0c5c1d281f544bae.jpg"},"large":{"default":"https://cdn.freshful.ro/media/cache/freshful_large/7e/4b/f3c9e2d2244b0c5c1d281f544bae.jpg"},"extralarge":{"default":"https://cdn.freshful.ro/media/cache/sylius_shop_product_original/7e/4b/f3c9e2d2244b0c5c1d281f544bae.jpg"}},"label":null,"tags":[],"isAvailable":true,"maxAvailableQuantity":30,"maxAllowedQuantity":30,"breadcrumbs":[{"code":"3","name":"Fructe & legume","slug":"3-fructe-si-legume"},{"code":"301","name":"Fructe proaspete","slug":"301-fructe-proaspete"},{"code":"30102","name":"Citrice","slug":"30102-citrice"},{"code":"100071163","name":"Lămâi netratate 500g","slug":"100071163-no-brand-lamai-netratate-500g"}],"activePromotion":null,"saveMe":null,"labels":[],"geniusPrice":null,"geniusUnitPricePerLabel":null,"banner":null,"discountLabel":null,"geniusDiscountLabel":null,"badge":null},{"code":"100149637","variantCode":"100149637","name":"Lămâi eco Sicilia 500g","slug":"100149637-no-brand-lamai-eco-sicilia-500g","unitPriceLabel":"13,38 Lei/kg","brand":null,"brandCode":null,"brandFilterCode":"no-brand-b83","sku":"100149637","price":6.69,"originalPrice":null,"currencyCode":"RON","currency":"Lei","image":{"thumbnail":{"default":"https://cdn.freshful.ro/media/cache/sylius_shop_product_thumbnail/8b/ce/d7523f070bbf3229b55b75702753.jpg"},"large":{"default":"https://cdn.freshful.ro/media/cache/freshful_large/8b/ce/d7523f070bbf3229b55b75702753.jpg"},"extralarge":{"default":"https://cdn.freshful.ro/media/cache/sylius_shop_product_original/8b/ce/d7523f070bbf3229b55b75702753.jpg"}},"label":{"text":"Profită acum","backgroundColor":"#FF9903","textColor":"#FFFFFF"},"tags":[{"type":"Eco","text":"Eco","icon":"https://cdn.freshful.ro/assets/product_tags/eco.svg","iconPng":"https://cdn.freshful.ro/assets/product_tags/eco.png","backgroundColor":"#EFFBE4","textColor":"#66BB1B"}],"isAvailable":true,"maxAvailableQuantity":30,"maxAllowedQuantity":30,"breadcrumbs":[{"code":"3","name":"Fructe & legume","slug":"3-fructe-si-legume"},{"code":"301","name":"Fructe proaspete","slug":"301-fructe-proaspete"},{"code":"30102","name":"Citrice","slug":"30102-citrice"},{"code":"100149637","name":"Lămâi eco Sicilia 500g","slug":"100149637-no-brand-lamai-eco-sicilia-500g"}],"activePromotion":{"code":"freshful-top-deals-2023","name":"Preț avantajos","targetQuantity":null},"saveMe":null,"labels":[{"type":"v1","items":[{"text":"Profită acum","backgroundColor":"#FF9903","textColor":"#FFFFFF"}]}],"geniusPrice":null,"geniusUnitPricePerLabel":null,"banner":{"text":"Preț avantajos","textColor":"#F95510","bgColor":"#FEF1CD","icon":null,"link":"https://www.freshful.ro/oferte/freshful-top-deals-2023","type":"promo","analyticsEventType":"select_promotion","analyticsEventPayload":{"promotion_id":"freshful-top-deals-2023","promotion_name":"Profită de Top Deals"}},"discountLabel":null,"geniusDiscountLabel":null,"badge":null},{"code":"100071174","variantCode":"100071174","name":"Portocale 1kg","slug":"100071174-no-brand-portocale-1kg","unitPriceLabel":"5,49 Lei/kg","brand":null,"brandCode":null,"brandFilterCode":"no-brand-b83","sku":"100071174","price":5.49,"originalPrice":null,"currencyCode":"RON","currency":"Lei","image":{"thumbnail":{"default":"https://cdn.freshful.ro/media/cache/sylius_shop_product_thumbnail/cc/c8/8f4c31f43aa05206d533c9844be5.jpg"},"large":{"default":"https://cdn.freshful.ro/media/cache/freshful_large/cc/c8/8f4c31f43aa05206d533c9844be5.jpg"},"extralarge":{"default":"https://cdn.freshful.ro/media/cache/sylius_shop_product_original/cc/c8/8f4c31f43aa05206d533c9844be5.jpg"}},"label":null,"tags":[],"isAvailable":true,"maxAvailableQuantity":30,"maxAllowedQuantity":30,"breadcrumbs":[{"code":"3","name":"Fructe & legume","slug":"3-fructe-si-legume"},{"code":"301","name":"Fructe proaspete","slug":"301-fructe-proaspete"},{"code":"30102","name":"Citrice","slug":"30102-citrice"},{"code":"100071174","name":"Portocale 1kg","slug":"100071174-no-brand-portocale-1kg"}],"activePromotion":null,"saveMe":null,"labels":[],"geniusPrice":null,"geniusUnitPricePerLabel":null,"banner":null,"discountLabel":null,"geniusDiscountLabel":null,"badge":null},{"code":"100071165","variantCode":"100071165","name":"Mandarine 1kg","slug":"100071165-no-brand-mandarine-1kg","unitPriceLabel":"6,49 Lei/kg","brand":null,"brandCode":null,"brandFilterCode":"no-brand-b83","sku":"100071165","price":6.49,"originalPrice":null,"currencyCode":"RON","currency":"Lei","image":{"thumbnail":{"default":"https://cdn.freshful.ro/media/cache/sylius_shop_product_thumbnail/53/4e/a2813f669bb3b41c46658fc917ed.jpg"},"large":{"default":"https://cdn.freshful.ro/media/cache/freshful_large/53/4e/a2813f669bb3b41c46658fc917ed.jpg"},"extralarge":{"default":"https://cdn.freshful.ro/media/cache/sylius_shop_product_original/53/4e/a2813f669bb3b41c46658fc917ed.jpg"}},"label":null,"tags":[],"isAvailable":true,"maxAvailableQuantity":30,"maxAllowedQuantity":30,"breadcrumbs":[{"code":"3","name":"Fructe & legume","slug":"3-fructe-si-legume"},{"code":"301","name":"Fructe proaspete","slug":"301-fructe-proaspete"},{"code":"30102","name":"Citrice","slug":"30102-citrice"},{"code":"100071165","name":"Mandarine 1kg","slug":"100071165-no-brand-mandarine-1kg"}],"activePromotion":null,"saveMe":null,"labels":[],"geniusPrice":null,"geniusUnitPricePerLabel":null,"banner":null,"discountLabel":null,"geniusDiscountLabel":null,"badge":null},{"code":"100066131","variantCode":"100066131","name":"Lămâi 500g","slug":"100066131-no-brand-lamai-500g","unitPriceLabel":"7,98 Lei/kg","brand":null,"brandCode":null,"brandFilterCode":"no-brand-b83","sku":"100066131","price":3.99,"originalPrice":null,"currencyCode":"RON","currency":"Lei","image":{"thumbnail":{"default":"https://cdn.freshful.ro/media/cache/sylius_shop_product_thumbnail/fb/75/d13a389cc35788862ec4dd0dc133.jpg"},"large":{"default":"https://cdn.freshful.ro/media/cache/freshful_large/fb/75/d13a389cc35788862ec4dd0dc133.jpg"},"extralarge":{"default":"https://cdn.freshful.ro/media/cache/sylius_shop_product_original/fb/75/d13a389cc35788862ec4dd0dc133.jpg"}},"label":null,"tags":[],"isAvailable":true,"maxAvailableQuantity":30,"maxAllowedQuantity":30,"breadcrumbs":[{"code":"3","name":"Fructe & legume","slug":"3-fructe-si-legume"},{"code":"301","name":"Fructe proaspete","slug":"301-fructe-proaspete"},{"code":"30102","name":"Citrice","slug":"30102-citrice"},{"code":"100066131","name":"Lămâi 500g","slug":"100066131-no-brand-lamai-500g"}],"activePromotion":null,"saveMe":null,"labels":[],"geniusPrice":null,"geniusUnitPricePerLabel":null,"banner":null,"discountLabel":null,"geniusDiscountLabel":null,"badge":null},{"code":"100071173","variantCode":"100071173","name":"Portocale netratate 1kg","slug":"100071173-no-brand-portocale-netratate-1kg","unitPriceLabel":"9,49 Lei/kg","brand":null,"brandCode":null,"brandFilterCode":"no-brand-b83","sku":"100071173","price":9.49,"originalPrice":null,"currencyCode":"RON","currency":"Lei","image":{"thumbnail":{"default":"https://cdn.freshful.ro/media/cache/sylius_shop_product_thumbnail/61/5c/edae4d9e66f05204cb2964010940.jpg"},"large":{"default":"https://cdn.freshful.ro/media/cache/freshful_large/61/5c/edae4d9e66f05204cb2964010940.jpg"},"extralarge":{"default":"https://cdn.freshful.ro/media/cache/sylius_shop_product_original/61/5c/edae4d9e66f05204cb2964010940.jpg"}},"label":null,"tags":[],"isAvailable":true,"maxAvailableQuantity":30,"maxAllowedQuantity":30,"breadcrumbs":[{"code":"3","name":"Fructe & legume","slug":"3-fructe-si-legume"},{"code":"301","name":"Fructe proaspete","slug":"301-fructe-proaspete"},{"code":"30102","name":"Citrice","slug":"30102-citrice"},{"code":"100071173","name":"Portocale netratate 1kg","slug":"100071173-no-brand-portocale-netratate-1kg"}],"activePromotion":null,"saveMe":null,"labels":[],"geniusPrice":null,"geniusUnitPricePerLabel":null,"banner":null,"discountLabel":null,"geniusDiscountLabel":null,"badge":null},{"code":"100071170","variantCode":"100071170","name":"Portocale extra 1kg","slug":"100071170-no-brand-portocale-extra-1kg","unitPriceLabel":"8,99 Lei/kg","brand":null,"brandCode":null,"brandFilterCode":"no-brand-b83","sku":"100071170","price":8.99,"originalPrice":null,"currencyCode":"RON","currency":"Lei","image":{"thumbnail":{"default":"https://cdn.freshful.ro/media/cache/sylius_shop_product_thumbnail/19/f2/822b3a702434ff7453220c58a77d.jpg"},"large":{"default":"https://cdn.freshful.ro/media/cache/freshful_large/19/f2/822b3a702434ff7453220c58a77d.jpg"},"extralarge":{"default":"https://cdn.freshful.ro/media/cache/sylius_shop_product_original/19/f2/822b3a702434ff7453220c58a77d.jpg"}},"label":null,"tags":[],"isAvailable":true,"maxAvailableQuantity":30,"maxAllowedQuantity":30,"breadcrumbs":[{"code":"3","name":"Fructe & legume","slug":"3-fructe-si-legume"},{"code":"301","name":"Fructe proaspete","slug":"301-fructe-proaspete"},{"code":"30102","name":"Citrice","slug":"30102-citrice"},{"code":"100071170","name":"Portocale extra 1kg","slug":"100071170-no-brand-portocale-extra-1kg"}],"activePromotion":null,"saveMe":null,"labels":[],"geniusPrice":null,"geniusUnitPricePerLabel":null,"banner":null,"discountLabel":null,"geniusDiscountLabel":null,"badge":null},{"code":"100071168","variantCode":"100071168","name":"Pomelo 1 buc","slug":"100071168-no-brand-pomelo-1-buc","unitPriceLabel":"12,99 Lei/kg","brand":null,"brandCode":null,"brandFilterCode":"no-brand-b83","sku":"100071168","price":12.99,"originalPrice":null,"currencyCode":"RON","currency":"Lei","image":{"thumbnail":{"default":"https://cdn.freshful.ro/media/cache/sylius_shop_product_thumbnail/05/ab/5a738ca544c704e79147ae625fe7.jpg"},"large":{"default":"https://cdn.freshful.ro/media/cache/freshful_large/05/ab/5a738ca544c704e79147ae625fe7.jpg"},"extralarge":{"default":"https://cdn.freshful.ro/media/cache/sylius_shop_product_original/05/ab/5a738ca544c704e79147ae625fe7.jpg"}},"label":null,"tags":[],"isAvailable":true,"maxAvailableQuantity":30,"maxAllowedQuantity":30,"breadcrumbs":[{"code":"3","name":"Fructe & legume","slug":"3-fructe-si-legume"},{"code":"301","name":"Fructe proaspete","slug":"301-fructe-proaspete"},{"code":"30102","name":"Citrice","slug":"30102-citrice"},{"code":"100071168","name":"Pomelo 1 buc","slug":"100071168-no-brand-pomelo-1-buc"}],"activePromotion":null,"saveMe":{"isAvailable":true,"variantCode":"100071168-accsale","maxAvailableQuantity":6,"maxAllowedQuantity":30,"price":9.09,"originalPrice":12.99,"labels":[{"type":"v2","items":[{"text":"Save Me","backgroundColor":"#FF7070","textColor":"#FFFFFF"},{"text":"-30%","backgroundColor":"#333333","textColor":"#FFFFFF"}]},{"type":"v3","items":[{"text":"A se consuma în 24h","backgroundColor":"#FEF7DC","textColor":"#595959"}]}],"priceColor":"#FF7070","priceIcon":"https://cdn.freshful.ro/assets/save_me/priceIcon.png","unitPriceLabel":"9,09 Lei/kg","badge":null},"labels":[],"geniusPrice":null,"geniusUnitPricePerLabel":null,"banner":null,"discountLabel":null,"geniusDiscountLabel":null,"badge":null},{"code":"100133315","variantCode":"100133315","name":"Mandarine Murcott 800g","slug":"100133315-no-brand-mandarine-murcott-800g","unitPriceLabel":"12,33 Lei/kg","brand":null,"brandCode":null,"brandFilterCode":"no-brand-b83","sku":"100133315","price":9.99,"originalPrice":null,"currencyCode":"RON","currency":"Lei","image":{"thumbnail":{"default":"https://cdn.freshful.ro/media/cache/sylius_shop_product_thumbnail/69/e0/209919506f0c0bc98e6db4b5297a.jpg"},"large":{"default":"https://cdn.freshful.ro/media/cache/freshful_large/69/e0/209919506f0c0bc98e6db4b5297a.jpg"},"extralarge":{"default":"https://cdn.freshful.ro/media/cache/sylius_shop_product_original/69/e0/209919506f0c0bc98e6db4b5297a.jpg"}},"label":null,"tags":[],"isAvailable":true,"maxAvailableQuantity":30,"maxAllowedQuantity":30,"breadcrumbs":[{"code":"3","name":"Fructe & legume","slug":"3-fructe-si-legume"},{"code":"301","name":"Fructe proaspete","slug":"301-fructe-proaspete"},{"code":"30102","name":"Citrice","slug":"30102-citrice"},{"code":"100133315","name":"Mandarine Murcott 800g","slug":"100133315-no-brand-mandarine-murcott-800g"}],"activePromotion":null,"saveMe":null,"labels":[],"geniusPrice":null,"geniusUnitPricePerLabel":null,"banner":null,"discountLabel":null,"geniusDiscountLabel":null,"badge":null}],"filters":{"countSelected":0,"items":[{"code":"promotion","name":"Promoții","countSelected":0,"values":[{"code":"freshful-top-deals-2023","name":"Profită de Top Deals","isSelected":false,"count":1}]},{"code":"brand","name":"Brand","countSelected":0,"values":[]},{"code":"diet_lifestyle","name":"Dietă și lifestyle","countSelected":0,"values":[{"code":"eco-a83","name":"Eco","isSelected":false,"count":6}]}]},"orderBy":[{"field":"price","direction":"asc","name":"Preț crescător","isSelected":false},{"field":"price","direction":"desc","name":"Preț descrescător","isSelected":false},{"field":"popularity","direction":"desc","name":"Cele mai populare","isSelected":true},{"field":"category","direction":"asc","name":"Categorie","isSelected":false}],"metaTitle":"Citrice - Gamă variată","metaDescription":"Vrei Citrice? Alege dintr-o gamă variată. Comanzi simplu și ai livrare rapidă, calitate și prospețime. Hai pe Freshful.ro","metaKeywords":null,"banners":[]}}