{"type":"subcategory","payload":{"analyticsListId":"category_30111-fructe-exotice","analyticsListName":"Category - Fructe exotice","name":"Fructe exotice","slug":"30111-fructe-exotice","image":null,"breadcrumbs":[{"code":"3","name":"Fructe & legume","slug":"3-fructe-si-legume"},{"code":"301","name":"Fructe proaspete","slug":"301-fructe-proaspete"},{"code":"30111","name":"Fructe exotice","slug":"30111-fructe-exotice"}],"slots":[],"page":1,"limit":10,"pages":3,"count":27,"siblings":[{"name":"Fructe proaspete","slug":"301-fructe-proaspete","selected":true},{"name":"Legume proaspete","slug":"302-legume-proaspete","selected":false},{"name":"Verdețuri și ierburi aromatice","slug":"303-verdeturi-si-plante-aromatice","selected":false},{"name":"Fructe și legume uscate","slug":"304-fructe-uscate-crude","selected":false},{"name":"Sucuri naturale","slug":"305-sucuri-naturale","selected":false}],"children":[{"name":"Toate produsele","slug":"301-fructe-proaspete","selected":false},{"name":"Banane","slug":"30101-banane","selected":false},{"name":"Citrice","slug":"30102-citrice","selected":false},{"name":"Mere","slug":"30104-mere","selected":false},{"name":"Pere","slug":"30105-pere","selected":false},{"name":"Fructe de pădure","slug":"30107-fructe-de-padure","selected":false},{"name":"Fructe de sezon","slug":"30108-fructe-de-vara","selected":false},{"name":"Pepeni","slug":"30109-pepeni","selected":false},{"name":"Struguri","slug":"30110-struguri","selected":false},{"name":"Fructe exotice","slug":"30111-fructe-exotice","selected":true},{"name":"Kiwi","slug":"kiwi","selected":false}],"products":[{"code":"100071255","variantCode":"100071255","name":"Avocado 700g","slug":"100071255-no-brand-avocado-700g","unitPriceLabel":"20,65 Lei/kg","brand":null,"brandCode":null,"brandFilterCode":"no-brand-b83","sku":"100071255","price":15.49,"originalPrice":null,"currencyCode":"RON","currency":"Lei","image":{"thumbnail":{"default":"https://cdn.freshful.ro/media/cache/sylius_shop_product_thumbnail/74/a7/e20fd7751dd4a64fa5e779f93226.jpg"},"large":{"default":"https://cdn.freshful.ro/media/cache/freshful_large/74/a7/e20fd7751dd4a64fa5e779f93226.jpg"},"extralarge":{"default":"https://cdn.freshful.ro/media/cache/sylius_shop_product_original/74/a7/e20fd7751dd4a64fa5e779f93226.jpg"}},"label":{"text":"-20% cu Genius","backgroundColor":"#FEF3FA","textColor":"#CD015F"},"tags":[],"isAvailable":true,"maxAvailableQuantity":30,"maxAllowedQuantity":30,"breadcrumbs":[{"code":"3","name":"Fructe & legume","slug":"3-fructe-si-legume"},{"code":"301","name":"Fructe proaspete","slug":"301-fructe-proaspete"},{"code":"30111","name":"Fructe exotice","slug":"30111-fructe-exotice"},{"code":"100071255","name":"Avocado 700g","slug":"100071255-no-brand-avocado-700g"}],"activePromotion":null,"saveMe":null,"labels":[{"type":"gdeals","items":[{"text":"","backgroundColor":"","textColor":""}]},{"type":"v3","items":[{"text":"-20% cu Genius","backgroundColor":"#FEF3FA","textColor":"#CD015F"}]}],"geniusPrice":12.39,"geniusUnitPricePerLabel":"16,52 Lei/kg","banner":null,"discountLabel":null,"geniusDiscountLabel":"Economisești 20%","badge":null},{"code":"100071256","variantCode":"100071256","name":"Avocado eco 1 buc","slug":"100071256-no-brand-avocado-eco-1-buc","unitPriceLabel":"41,61 Lei/kg","brand":null,"brandCode":null,"brandFilterCode":"no-brand-b83","sku":"100071256","price":7.49,"originalPrice":null,"currencyCode":"RON","currency":"Lei","image":{"thumbnail":{"default":"https://cdn.freshful.ro/media/cache/sylius_shop_product_thumbnail/64/70/e82af99f8124568776386cf9bd80.jpg"},"large":{"default":"https://cdn.freshful.ro/media/cache/freshful_large/64/70/e82af99f8124568776386cf9bd80.jpg"},"extralarge":{"default":"https://cdn.freshful.ro/media/cache/sylius_shop_product_original/64/70/e82af99f8124568776386cf9bd80.jpg"}},"label":null,"tags":[{"type":"Eco","text":"Eco","icon":"https://cdn.freshful.ro/assets/product_tags/eco.svg","iconPng":"https://cdn.freshful.ro/assets/product_tags/eco.png","backgroundColor":"#EFFBE4","textColor":"#66BB1B"}],"isAvailable":true,"maxAvailableQuantity":30,"maxAllowedQuantity":30,"breadcrumbs":[{"code":"3","name":"Fructe & legume","slug":"3-fructe-si-legume"},{"code":"301","name":"Fructe proaspete","slug":"301-fructe-proaspete"},{"code":"30111","name":"Fructe exotice","slug":"30111-fructe-exotice"},{"code":"100071256","name":"Avocado eco 1 buc","slug":"100071256-no-brand-avocado-eco-1-buc"}],"activePromotion":null,"saveMe":null,"labels":[],"geniusPrice":null,"geniusUnitPricePerLabel":null,"banner":null,"discountLabel":null,"geniusDiscountLabel":null,"badge":null},{"code":"100066134","variantCode":"100066134","name":"Mango 1 buc","slug":"100066134-no-brand-mango-1-buc","unitPriceLabel":"12,93 Lei/kg","brand":null,"brandCode":null,"brandFilterCode":"no-brand-b83","sku":"100066134","price":5.69,"originalPrice":null,"currencyCode":"RON","currency":"Lei","image":{"thumbnail":{"default":"https://cdn.freshful.ro/media/cache/sylius_shop_product_thumbnail/3b/81/32fa9a47bda68386307082fc0270.jpg"},"large":{"default":"https://cdn.freshful.ro/media/cache/freshful_large/3b/81/32fa9a47bda68386307082fc0270.jpg"},"extralarge":{"default":"https://cdn.freshful.ro/media/cache/sylius_shop_product_original/3b/81/32fa9a47bda68386307082fc0270.jpg"}},"label":null,"tags":[],"isAvailable":true,"maxAvailableQuantity":30,"maxAllowedQuantity":30,"breadcrumbs":[{"code":"3","name":"Fructe & legume","slug":"3-fructe-si-legume"},{"code":"301","name":"Fructe proaspete","slug":"301-fructe-proaspete"},{"code":"30111","name":"Fructe exotice","slug":"30111-fructe-exotice"},{"code":"100066134","name":"Mango 1 buc","slug":"100066134-no-brand-mango-1-buc"}],"activePromotion":null,"saveMe":null,"labels":[],"geniusPrice":null,"geniusUnitPricePerLabel":null,"banner":null,"discountLabel":null,"geniusDiscountLabel":null,"badge":null},{"code":"100071262","variantCode":"100071262","name":"Rodie 1 buc","slug":"100071262-no-brand-rodie-1-buc","unitPriceLabel":"11,84 Lei/kg","brand":null,"brandCode":null,"brandFilterCode":"no-brand-b83","sku":"100071262","price":3.79,"originalPrice":null,"currencyCode":"RON","currency":"Lei","image":{"thumbnail":{"default":"https://cdn.freshful.ro/media/cache/sylius_shop_product_thumbnail/4a/c0/8e288fa5ba09c0323210e8ed06cb.jpg"},"large":{"default":"https://cdn.freshful.ro/media/cache/freshful_large/4a/c0/8e288fa5ba09c0323210e8ed06cb.jpg"},"extralarge":{"default":"https://cdn.freshful.ro/media/cache/sylius_shop_product_original/4a/c0/8e288fa5ba09c0323210e8ed06cb.jpg"}},"label":null,"tags":[],"isAvailable":true,"maxAvailableQuantity":26,"maxAllowedQuantity":30,"breadcrumbs":[{"code":"3","name":"Fructe & legume","slug":"3-fructe-si-legume"},{"code":"301","name":"Fructe proaspete","slug":"301-fructe-proaspete"},{"code":"30111","name":"Fructe exotice","slug":"30111-fructe-exotice"},{"code":"100071262","name":"Rodie 1 buc","slug":"100071262-no-brand-rodie-1-buc"}],"activePromotion":null,"saveMe":null,"labels":[],"geniusPrice":null,"geniusUnitPricePerLabel":null,"banner":null,"discountLabel":null,"geniusDiscountLabel":null,"badge":null},{"code":"100071254","variantCode":"100071254","name":"Avocado 1 buc","slug":"100071254-no-brand-avocado-1-buc","unitPriceLabel":"30,18 Lei/kg","brand":null,"brandCode":null,"brandFilterCode":"no-brand-b83","sku":"100071254","price":6.64,"originalPrice":null,"currencyCode":"RON","currency":"Lei","image":{"thumbnail":{"default":"https://cdn.freshful.ro/media/cache/sylius_shop_product_thumbnail/86/fa/70b69db5c0cc3d041081e2e09771.jpg"},"large":{"default":"https://cdn.freshful.ro/media/cache/freshful_large/86/fa/70b69db5c0cc3d041081e2e09771.jpg"},"extralarge":{"default":"https://cdn.freshful.ro/media/cache/sylius_shop_product_original/86/fa/70b69db5c0cc3d041081e2e09771.jpg"}},"label":null,"tags":[],"isAvailable":true,"maxAvailableQuantity":30,"maxAllowedQuantity":30,"breadcrumbs":[{"code":"3","name":"Fructe & legume","slug":"3-fructe-si-legume"},{"code":"301","name":"Fructe proaspete","slug":"301-fructe-proaspete"},{"code":"30111","name":"Fructe exotice","slug":"30111-fructe-exotice"},{"code":"100071254","name":"Avocado 1 buc","slug":"100071254-no-brand-avocado-1-buc"}],"activePromotion":null,"saveMe":null,"labels":[],"geniusPrice":null,"geniusUnitPricePerLabel":null,"banner":null,"discountLabel":null,"geniusDiscountLabel":null,"badge":null},{"code":"100071251","variantCode":"100071251","name":"Ananas Gold 1 buc","slug":"100071251-no-brand-ananas-gold-1-buc","unitPriceLabel":"9,49 Lei/kg","brand":null,"brandCode":null,"brandFilterCode":"no-brand-b83","sku":"100071251","price":21.82,"originalPrice":null,"currencyCode":"RON","currency":"Lei","image":{"thumbnail":{"default":"https://cdn.freshful.ro/media/cache/sylius_shop_product_thumbnail/21/c0/c853bf5029acbc04f3fc5891e67a.jpg"},"large":{"default":"https://cdn.freshful.ro/media/cache/freshful_large/21/c0/c853bf5029acbc04f3fc5891e67a.jpg"},"extralarge":{"default":"https://cdn.freshful.ro/media/cache/sylius_shop_product_original/21/c0/c853bf5029acbc04f3fc5891e67a.jpg"}},"label":null,"tags":[],"isAvailable":true,"maxAvailableQuantity":30,"maxAllowedQuantity":30,"breadcrumbs":[{"code":"3","name":"Fructe & legume","slug":"3-fructe-si-legume"},{"code":"301","name":"Fructe proaspete","slug":"301-fructe-proaspete"},{"code":"30111","name":"Fructe exotice","slug":"30111-fructe-exotice"},{"code":"100071251","name":"Ananas Gold 1 buc","slug":"100071251-no-brand-ananas-gold-1-buc"}],"activePromotion":null,"saveMe":null,"labels":[],"geniusPrice":null,"geniusUnitPricePerLabel":null,"banner":null,"discountLabel":null,"geniusDiscountLabel":null,"badge":null},{"code":"100071253","variantCode":"100071253","name":"Mango eco 1 buc ","slug":"100071253-no-brand-mango-eco-1-buc","unitPriceLabel":"26,53 Lei/kg","brand":null,"brandCode":null,"brandFilterCode":"no-brand-b83","sku":"100071253","price":8.49,"originalPrice":null,"currencyCode":"RON","currency":"Lei","image":{"thumbnail":{"default":"https://cdn.freshful.ro/media/cache/sylius_shop_product_thumbnail/38/21/340d95e2511d0fe9003f3b288ed8.jpg"},"large":{"default":"https://cdn.freshful.ro/media/cache/freshful_large/38/21/340d95e2511d0fe9003f3b288ed8.jpg"},"extralarge":{"default":"https://cdn.freshful.ro/media/cache/sylius_shop_product_original/38/21/340d95e2511d0fe9003f3b288ed8.jpg"}},"label":null,"tags":[{"type":"Eco","text":"Eco","icon":"https://cdn.freshful.ro/assets/product_tags/eco.svg","iconPng":"https://cdn.freshful.ro/assets/product_tags/eco.png","backgroundColor":"#EFFBE4","textColor":"#66BB1B"}],"isAvailable":true,"maxAvailableQuantity":30,"maxAllowedQuantity":30,"breadcrumbs":[{"code":"3","name":"Fructe & legume","slug":"3-fructe-si-legume"},{"code":"301","name":"Fructe proaspete","slug":"301-fructe-proaspete"},{"code":"30111","name":"Fructe exotice","slug":"30111-fructe-exotice"},{"code":"100071253","name":"Mango eco 1 buc ","slug":"100071253-no-brand-mango-eco-1-buc"}],"activePromotion":null,"saveMe":null,"labels":[],"geniusPrice":null,"geniusUnitPricePerLabel":null,"banner":null,"discountLabel":null,"geniusDiscountLabel":null,"badge":null},{"code":"100071265","variantCode":"100071265","name":"Fructul pasiunii 125g","slug":"100071265-no-brand-fructul-pasiunii-125g","unitPriceLabel":"26,63 Lei/kg","brand":null,"brandCode":null,"brandFilterCode":"no-brand-b83","sku":"100071265","price":7.99,"originalPrice":null,"currencyCode":"RON","currency":"Lei","image":{"thumbnail":{"default":"https://cdn.freshful.ro/media/cache/sylius_shop_product_thumbnail/b3/cd/6cbf682eb90beb02c27c8875740d.jpg"},"large":{"default":"https://cdn.freshful.ro/media/cache/freshful_large/b3/cd/6cbf682eb90beb02c27c8875740d.jpg"},"extralarge":{"default":"https://cdn.freshful.ro/media/cache/sylius_shop_product_original/b3/cd/6cbf682eb90beb02c27c8875740d.jpg"}},"label":null,"tags":[],"isAvailable":true,"maxAvailableQuantity":30,"maxAllowedQuantity":30,"breadcrumbs":[{"code":"3","name":"Fructe & legume","slug":"3-fructe-si-legume"},{"code":"301","name":"Fructe proaspete","slug":"301-fructe-proaspete"},{"code":"30111","name":"Fructe exotice","slug":"30111-fructe-exotice"},{"code":"100071265","name":"Fructul pasiunii 125g","slug":"100071265-no-brand-fructul-pasiunii-125g"}],"activePromotion":null,"saveMe":null,"labels":[],"geniusPrice":null,"geniusUnitPricePerLabel":null,"banner":null,"discountLabel":null,"geniusDiscountLabel":null,"badge":null},{"code":"100066126","variantCode":"100066126","name":"Ananas 1 buc","slug":"100066126-no-brand-ananas-1-buc","unitPriceLabel":"8,49 Lei/kg","brand":null,"brandCode":null,"brandFilterCode":"no-brand-b83","sku":"100066126","price":9.34,"originalPrice":null,"currencyCode":"RON","currency":"Lei","image":{"thumbnail":{"default":"https://cdn.freshful.ro/media/cache/sylius_shop_product_thumbnail/e2/aa/70e405d1ffcbcf9f11fd782d9664.jpg"},"large":{"default":"https://cdn.freshful.ro/media/cache/freshful_large/e2/aa/70e405d1ffcbcf9f11fd782d9664.jpg"},"extralarge":{"default":"https://cdn.freshful.ro/media/cache/sylius_shop_product_original/e2/aa/70e405d1ffcbcf9f11fd782d9664.jpg"}},"label":null,"tags":[],"isAvailable":true,"maxAvailableQuantity":30,"maxAllowedQuantity":30,"breadcrumbs":[{"code":"3","name":"Fructe & legume","slug":"3-fructe-si-legume"},{"code":"301","name":"Fructe proaspete","slug":"301-fructe-proaspete"},{"code":"30111","name":"Fructe exotice","slug":"30111-fructe-exotice"},{"code":"100066126","name":"Ananas 1 buc","slug":"100066126-no-brand-ananas-1-buc"}],"activePromotion":null,"saveMe":null,"labels":[],"geniusPrice":null,"geniusUnitPricePerLabel":null,"banner":null,"discountLabel":null,"geniusDiscountLabel":null,"badge":null},{"code":"100129471","variantCode":"100129471","name":"Avocado Hass by air 1 buc","slug":"100129471-no-brand-avocado-hass-by-air-1-buc","unitPriceLabel":"55,96 Lei/kg","brand":null,"brandCode":null,"brandFilterCode":"no-brand-b83","sku":"100129471","price":13.99,"originalPrice":null,"currencyCode":"RON","currency":"Lei","image":{"thumbnail":{"default":"https://cdn.freshful.ro/media/cache/sylius_shop_product_thumbnail/5e/1b/a04abffcf7764702922d72bf2363.jpg"},"large":{"default":"https://cdn.freshful.ro/media/cache/freshful_large/5e/1b/a04abffcf7764702922d72bf2363.jpg"},"extralarge":{"default":"https://cdn.freshful.ro/media/cache/sylius_shop_product_original/5e/1b/a04abffcf7764702922d72bf2363.jpg"}},"label":{"text":"Premium","backgroundColor":"#2D2D2D","textColor":"#FFFFFF"},"tags":[],"isAvailable":true,"maxAvailableQuantity":30,"maxAllowedQuantity":30,"breadcrumbs":[{"code":"3","name":"Fructe & legume","slug":"3-fructe-si-legume"},{"code":"301","name":"Fructe proaspete","slug":"301-fructe-proaspete"},{"code":"30111","name":"Fructe exotice","slug":"30111-fructe-exotice"},{"code":"100129471","name":"Avocado Hass by air 1 buc","slug":"100129471-no-brand-avocado-hass-by-air-1-buc"}],"activePromotion":null,"saveMe":null,"labels":[{"type":"v1","items":[{"text":"Premium","backgroundColor":"#2D2D2D","textColor":"#FFFFFF"}]}],"geniusPrice":null,"geniusUnitPricePerLabel":null,"banner":null,"discountLabel":null,"geniusDiscountLabel":null,"badge":null}],"filters":{"countSelected":0,"items":[{"code":"promotion","name":"Promoții","countSelected":0,"values":[]},{"code":"brand","name":"Brand","countSelected":0,"values":[{"code":"glamour-b2398","name":"Glamour","isSelected":false,"count":1}]},{"code":"diet_lifestyle","name":"Dietă și lifestyle","countSelected":0,"values":[{"code":"eco-a83","name":"Eco","isSelected":false,"count":2}]}]},"orderBy":[{"field":"price","direction":"asc","name":"Preț crescător","isSelected":false},{"field":"price","direction":"desc","name":"Preț descrescător","isSelected":false},{"field":"popularity","direction":"desc","name":"Cele mai populare","isSelected":true},{"field":"category","direction":"asc","name":"Categorie","isSelected":false}],"metaTitle":"Fructe exotice - Gamă variată","metaDescription":"Vrei Fructe exotice? Alege dintr-o gamă variată. Comanzi simplu și ai livrare rapidă, calitate și prospețime. Hai pe Freshful.ro","metaKeywords":null,"banners":[]}}