{"type":"subcategory","payload":{"analyticsListId":"category_302-legume-proaspete","analyticsListName":"Category - Legume proaspete","name":"Legume proaspete","slug":"302-legume-proaspete","image":null,"breadcrumbs":[{"code":"3","name":"Fructe & legume","slug":"3-fructe-si-legume"},{"code":"302","name":"Legume proaspete","slug":"302-legume-proaspete"}],"slots":[],"page":1,"limit":10,"pages":14,"count":137,"siblings":[{"name":"Fructe proaspete","slug":"301-fructe-proaspete","selected":false},{"name":"Legume proaspete","slug":"302-legume-proaspete","selected":true},{"name":"Verdețuri și ierburi aromatice","slug":"303-verdeturi-si-plante-aromatice","selected":false},{"name":"Fructe și legume uscate","slug":"304-fructe-uscate-crude","selected":false},{"name":"Sucuri naturale","slug":"305-sucuri-naturale","selected":false}],"children":[{"name":"Toate produsele","slug":"302-legume-proaspete","selected":true},{"name":"Ardei","slug":"30201-ardei","selected":false},{"name":"Cartofi","slug":"30202-cartofi","selected":false},{"name":"Ceapă","slug":"30203-ceapa","selected":false},{"name":"Dovlecei, castraveți și vinete","slug":"30204-dovlecei-castraveti-si-vinete","selected":false},{"name":"Rădăcinoase","slug":"30205-radacinoase","selected":false},{"name":"Roșii","slug":"30206-rosii","selected":false},{"name":"Varză, broccoli și conopidă","slug":"30207-varza-brocoli-si-conopida","selected":false},{"name":"Usturoi","slug":"30208-usturoi","selected":false},{"name":"Ciuperci","slug":"30209-ciuperci","selected":false},{"name":"Fasole, mazăre și porumb","slug":"30210-fasole-mazare-si-porumb","selected":false},{"name":"Andive, anghinare și sparanghel","slug":"30211-andive-anghinare-si-sparanghel","selected":false},{"name":"Praz, fenicul și țelină","slug":"30212-praz-fenicul-si-telina","selected":false},{"name":"Lădițe și mixuri fresh","slug":"30213-ladite-si-mixuri-fresh","selected":false},{"name":"Borș și murături","slug":"30214-bors-si-muraturi","selected":false},{"name":"Legume snacks","slug":"30215-legume-snacks","selected":false}],"products":[{"code":"100066142","variantCode":"100066142","name":"Roșii cherry 500g","slug":"100066142-no-brand-rosii-cherry-500g","unitPriceLabel":"17,98 Lei/kg","brand":null,"brandCode":null,"brandFilterCode":"no-brand-b83","sku":"100066142","price":8.99,"originalPrice":null,"currencyCode":"RON","currency":"Lei","image":{"thumbnail":{"default":"https://cdn.freshful.ro/media/cache/sylius_shop_product_thumbnail/43/3a/69bddbe45cbfbf69f242070a29da.jpg"},"large":{"default":"https://cdn.freshful.ro/media/cache/freshful_large/43/3a/69bddbe45cbfbf69f242070a29da.jpg"},"extralarge":{"default":"https://cdn.freshful.ro/media/cache/sylius_shop_product_original/43/3a/69bddbe45cbfbf69f242070a29da.jpg"}},"label":null,"tags":[],"isAvailable":true,"maxAvailableQuantity":100,"maxAllowedQuantity":100,"breadcrumbs":[{"code":"3","name":"Fructe & legume","slug":"3-fructe-si-legume"},{"code":"302","name":"Legume proaspete","slug":"302-legume-proaspete"},{"code":"30206","name":"Roșii","slug":"30206-rosii"},{"code":"100066142","name":"Roșii cherry 500g","slug":"100066142-no-brand-rosii-cherry-500g"}],"activePromotion":null,"saveMe":null,"labels":[],"geniusPrice":null,"geniusUnitPricePerLabel":null,"banner":null,"discountLabel":null,"geniusDiscountLabel":null,"badge":null},{"code":"100071335","variantCode":"100071335","name":"Pătrunjel rădăcină România 500g","slug":"100071335-no-brand-patrunjel-radacina-romania-500g","unitPriceLabel":"9,98 Lei/kg","brand":null,"brandCode":null,"brandFilterCode":"no-brand-b83","sku":"100071335","price":4.99,"originalPrice":7.99,"currencyCode":"RON","currency":"Lei","image":{"thumbnail":{"default":"https://cdn.freshful.ro/media/cache/sylius_shop_product_thumbnail/ab/79/de85fe8d665c885629e2ccaced34.jpg"},"large":{"default":"https://cdn.freshful.ro/media/cache/freshful_large/ab/79/de85fe8d665c885629e2ccaced34.jpg"},"extralarge":{"default":"https://cdn.freshful.ro/media/cache/sylius_shop_product_original/ab/79/de85fe8d665c885629e2ccaced34.jpg"}},"label":{"text":"-37%","backgroundColor":"#FF9903","textColor":"#FFFFFF"},"tags":[{"type":"MadeInRomania","text":"Made In Romania","icon":"https://cdn.freshful.ro/assets/product_tags/made_in_romania.svg","iconPng":"https://cdn.freshful.ro/assets/product_tags/made_in_romania.png","backgroundColor":"#EDF2FD","textColor":"#1653CA"}],"isAvailable":true,"maxAvailableQuantity":100,"maxAllowedQuantity":100,"breadcrumbs":[{"code":"3","name":"Fructe & legume","slug":"3-fructe-si-legume"},{"code":"302","name":"Legume proaspete","slug":"302-legume-proaspete"},{"code":"30205","name":"Rădăcinoase","slug":"30205-radacinoase"},{"code":"100071335","name":"Pătrunjel rădăcină România 500g","slug":"100071335-no-brand-patrunjel-radacina-romania-500g"}],"activePromotion":{"code":"bunatatile-saptamanii-cw0923","name":"Preț redus","targetQuantity":null},"saveMe":null,"labels":[{"type":"v1","items":[{"text":"-37%","backgroundColor":"#FF9903","textColor":"#FFFFFF"}]}],"geniusPrice":null,"geniusUnitPricePerLabel":null,"banner":{"text":"Super preț","textColor":"#FF0000","bgColor":"#FFF2EC","icon":null,"link":"https://www.freshful.ro/oferte/bunatatile-saptamanii-cw0923","type":"promo","analyticsEventType":"select_promotion","analyticsEventPayload":{"promotion_id":"bunatatile-saptamanii-cw0923","promotion_name":"Oferta proaspătă a săptămânii"}},"discountLabel":"Economisești 37%","geniusDiscountLabel":null,"badge":null},{"code":"100071319","variantCode":"100071319","name":"Castravete Fabio 1 buc","slug":"100071319-no-brand-castravete-fabio-1-buc","unitPriceLabel":"6,64 Lei/buc","brand":null,"brandCode":null,"brandFilterCode":"no-brand-b83","sku":"100071319","price":6.64,"originalPrice":null,"currencyCode":"RON","currency":"Lei","image":{"thumbnail":{"default":"https://cdn.freshful.ro/media/cache/sylius_shop_product_thumbnail/05/07/f9fe6175d9590e7bdf579f3bb1b7.jpg"},"large":{"default":"https://cdn.freshful.ro/media/cache/freshful_large/05/07/f9fe6175d9590e7bdf579f3bb1b7.jpg"},"extralarge":{"default":"https://cdn.freshful.ro/media/cache/sylius_shop_product_original/05/07/f9fe6175d9590e7bdf579f3bb1b7.jpg"}},"label":null,"tags":[],"isAvailable":true,"maxAvailableQuantity":100,"maxAllowedQuantity":100,"breadcrumbs":[{"code":"3","name":"Fructe & legume","slug":"3-fructe-si-legume"},{"code":"302","name":"Legume proaspete","slug":"302-legume-proaspete"},{"code":"30204","name":"Dovlecei, castraveți și vinete","slug":"30204-dovlecei-castraveti-si-vinete"},{"code":"100071319","name":"Castravete Fabio 1 buc","slug":"100071319-no-brand-castravete-fabio-1-buc"}],"activePromotion":null,"saveMe":null,"labels":[],"geniusPrice":null,"geniusUnitPricePerLabel":null,"banner":null,"discountLabel":null,"geniusDiscountLabel":null,"badge":null},{"code":"100148193","variantCode":"100148193","name":"Ridichi roșii eco România 150g","slug":"100148193-no-brand-ridichi-rosii-eco-romania-150g","unitPriceLabel":"28,6 Lei/kg","brand":null,"brandCode":null,"brandFilterCode":"no-brand-b83","sku":"100148193","price":4.29,"originalPrice":5.29,"currencyCode":"RON","currency":"Lei","image":{"thumbnail":{"default":"https://cdn.freshful.ro/media/cache/sylius_shop_product_thumbnail/bb/a9/4ca515808b2e53765f306171ff92.jpg"},"large":{"default":"https://cdn.freshful.ro/media/cache/freshful_large/bb/a9/4ca515808b2e53765f306171ff92.jpg"},"extralarge":{"default":"https://cdn.freshful.ro/media/cache/sylius_shop_product_original/bb/a9/4ca515808b2e53765f306171ff92.jpg"}},"label":{"text":"-18%","backgroundColor":"#FF9903","textColor":"#FFFFFF"},"tags":[{"type":"MadeInRomania","text":"Made In Romania","icon":"https://cdn.freshful.ro/assets/product_tags/made_in_romania.svg","iconPng":"https://cdn.freshful.ro/assets/product_tags/made_in_romania.png","backgroundColor":"#EDF2FD","textColor":"#1653CA"},{"type":"Eco","text":"Eco","icon":"https://cdn.freshful.ro/assets/product_tags/eco.svg","iconPng":"https://cdn.freshful.ro/assets/product_tags/eco.png","backgroundColor":"#EFFBE4","textColor":"#66BB1B"}],"isAvailable":true,"maxAvailableQuantity":100,"maxAllowedQuantity":100,"breadcrumbs":[{"code":"3","name":"Fructe & legume","slug":"3-fructe-si-legume"},{"code":"302","name":"Legume proaspete","slug":"302-legume-proaspete"},{"code":"30205","name":"Rădăcinoase","slug":"30205-radacinoase"},{"code":"100148193","name":"Ridichi roșii eco România 150g","slug":"100148193-no-brand-ridichi-rosii-eco-romania-150g"}],"activePromotion":{"code":"bunatatile-saptamanii-cw0923","name":"Preț redus","targetQuantity":null},"saveMe":null,"labels":[{"type":"v1","items":[{"text":"-18%","backgroundColor":"#FF9903","textColor":"#FFFFFF"}]}],"geniusPrice":null,"geniusUnitPricePerLabel":null,"banner":{"text":"Super preț","textColor":"#FF0000","bgColor":"#FFF2EC","icon":null,"link":"https://www.freshful.ro/oferte/bunatatile-saptamanii-cw0923","type":"promo","analyticsEventType":"select_promotion","analyticsEventPayload":{"promotion_id":"bunatatile-saptamanii-cw0923","promotion_name":"Oferta proaspătă a săptămânii"}},"discountLabel":"Economisești 18%","geniusDiscountLabel":null,"badge":null},{"code":"100147005","variantCode":"100147005","name":"Ardei Bianca 1 buc","slug":"100147005-no-brand-ardei-bianca-1-buc","unitPriceLabel":"13,27 Lei/kg","brand":null,"brandCode":null,"brandFilterCode":"no-brand-b83","sku":"100147005","price":1.99,"originalPrice":2.49,"currencyCode":"RON","currency":"Lei","image":{"thumbnail":{"default":"https://cdn.freshful.ro/media/cache/sylius_shop_product_thumbnail/d8/3d/ce51a011a7abe0271c5001e26c73.jpg"},"large":{"default":"https://cdn.freshful.ro/media/cache/freshful_large/d8/3d/ce51a011a7abe0271c5001e26c73.jpg"},"extralarge":{"default":"https://cdn.freshful.ro/media/cache/sylius_shop_product_original/d8/3d/ce51a011a7abe0271c5001e26c73.jpg"}},"label":{"text":"-20%","backgroundColor":"#FF9903","textColor":"#FFFFFF"},"tags":[],"isAvailable":true,"maxAvailableQuantity":100,"maxAllowedQuantity":100,"breadcrumbs":[{"code":"3","name":"Fructe & legume","slug":"3-fructe-si-legume"},{"code":"302","name":"Legume proaspete","slug":"302-legume-proaspete"},{"code":"30201","name":"Ardei","slug":"30201-ardei"},{"code":"100147005","name":"Ardei Bianca 1 buc","slug":"100147005-no-brand-ardei-bianca-1-buc"}],"activePromotion":{"code":"bunatatile-saptamanii-cw0923","name":"Preț redus","targetQuantity":null},"saveMe":null,"labels":[{"type":"v1","items":[{"text":"-20%","backgroundColor":"#FF9903","textColor":"#FFFFFF"}]}],"geniusPrice":null,"geniusUnitPricePerLabel":null,"banner":{"text":"Super preț","textColor":"#FF0000","bgColor":"#FFF2EC","icon":null,"link":"https://www.freshful.ro/oferte/bunatatile-saptamanii-cw0923","type":"promo","analyticsEventType":"select_promotion","analyticsEventPayload":{"promotion_id":"bunatatile-saptamanii-cw0923","promotion_name":"Oferta proaspătă a săptămânii"}},"discountLabel":"Economisești 20%","geniusDiscountLabel":null,"badge":null},{"code":"100138690","variantCode":"100138690","name":"Morcovi 1 kg","slug":"100138690-no-brand-morcovi-1-kg","unitPriceLabel":"3,69 Lei/kg","brand":null,"brandCode":null,"brandFilterCode":"no-brand-b83","sku":"100138690","price":3.69,"originalPrice":null,"currencyCode":"RON","currency":"Lei","image":{"thumbnail":{"default":"https://cdn.freshful.ro/media/cache/sylius_shop_product_thumbnail/d4/fb/820e7d202aa44e558f4d9202b5c5.jpg"},"large":{"default":"https://cdn.freshful.ro/media/cache/freshful_large/d4/fb/820e7d202aa44e558f4d9202b5c5.jpg"},"extralarge":{"default":"https://cdn.freshful.ro/media/cache/sylius_shop_product_original/d4/fb/820e7d202aa44e558f4d9202b5c5.jpg"}},"label":null,"tags":[],"isAvailable":true,"maxAvailableQuantity":100,"maxAllowedQuantity":100,"breadcrumbs":[{"code":"3","name":"Fructe & legume","slug":"3-fructe-si-legume"},{"code":"302","name":"Legume proaspete","slug":"302-legume-proaspete"},{"code":"30205","name":"Rădăcinoase","slug":"30205-radacinoase"},{"code":"100138690","name":"Morcovi 1 kg","slug":"100138690-no-brand-morcovi-1-kg"}],"activePromotion":null,"saveMe":null,"labels":[],"geniusPrice":null,"geniusUnitPricePerLabel":null,"banner":null,"discountLabel":null,"geniusDiscountLabel":null,"badge":null},{"code":"100141011","variantCode":"100141011","name":"Cartofi albi România 1kg","slug":"100141011-no-brand-cartofi-albi-romania-1kg","unitPriceLabel":"4,75 Lei/kg","brand":null,"brandCode":null,"brandFilterCode":"no-brand-b83","sku":"100141011","price":4.75,"originalPrice":null,"currencyCode":"RON","currency":"Lei","image":{"thumbnail":{"default":"https://cdn.freshful.ro/media/cache/sylius_shop_product_thumbnail/33/a4/21f44d9283d74abe9d0cb4815ac4.jpg"},"large":{"default":"https://cdn.freshful.ro/media/cache/freshful_large/33/a4/21f44d9283d74abe9d0cb4815ac4.jpg"},"extralarge":{"default":"https://cdn.freshful.ro/media/cache/sylius_shop_product_original/33/a4/21f44d9283d74abe9d0cb4815ac4.jpg"}},"label":null,"tags":[{"type":"MadeInRomania","text":"Made In Romania","icon":"https://cdn.freshful.ro/assets/product_tags/made_in_romania.svg","iconPng":"https://cdn.freshful.ro/assets/product_tags/made_in_romania.png","backgroundColor":"#EDF2FD","textColor":"#1653CA"}],"isAvailable":true,"maxAvailableQuantity":100,"maxAllowedQuantity":100,"breadcrumbs":[{"code":"3","name":"Fructe & legume","slug":"3-fructe-si-legume"},{"code":"302","name":"Legume proaspete","slug":"302-legume-proaspete"},{"code":"30202","name":"Cartofi","slug":"30202-cartofi"},{"code":"100141011","name":"Cartofi albi România 1kg","slug":"100141011-no-brand-cartofi-albi-romania-1kg"}],"activePromotion":null,"saveMe":null,"labels":[],"geniusPrice":null,"geniusUnitPricePerLabel":null,"banner":null,"discountLabel":null,"geniusDiscountLabel":null,"badge":null},{"code":"100132994","variantCode":"100132994","name":"Ridichi roșii eco România 150g","slug":"100132994-roua-organic-ridichi-rosii-eco-romania-150g","unitPriceLabel":"28,6 Lei/kg","brand":"Roua Organic","brandCode":"1830","brandFilterCode":"roua-organic-b1834","sku":"100132994","price":4.29,"originalPrice":5.29,"currencyCode":"RON","currency":"Lei","image":{"thumbnail":{"default":"https://cdn.freshful.ro/media/cache/sylius_shop_product_thumbnail/8f/48/6dcbf999ee1d527acabfab9eb5d2.jpg"},"large":{"default":"https://cdn.freshful.ro/media/cache/freshful_large/8f/48/6dcbf999ee1d527acabfab9eb5d2.jpg"},"extralarge":{"default":"https://cdn.freshful.ro/media/cache/sylius_shop_product_original/8f/48/6dcbf999ee1d527acabfab9eb5d2.jpg"}},"label":{"text":"-18%","backgroundColor":"#FF9903","textColor":"#FFFFFF"},"tags":[{"type":"Eco","text":"Eco","icon":"https://cdn.freshful.ro/assets/product_tags/eco.svg","iconPng":"https://cdn.freshful.ro/assets/product_tags/eco.png","backgroundColor":"#EFFBE4","textColor":"#66BB1B"},{"type":"MadeInRomania","text":"Made In Romania","icon":"https://cdn.freshful.ro/assets/product_tags/made_in_romania.svg","iconPng":"https://cdn.freshful.ro/assets/product_tags/made_in_romania.png","backgroundColor":"#EDF2FD","textColor":"#1653CA"}],"isAvailable":true,"maxAvailableQuantity":100,"maxAllowedQuantity":100,"breadcrumbs":[{"code":"3","name":"Fructe & legume","slug":"3-fructe-si-legume"},{"code":"302","name":"Legume proaspete","slug":"302-legume-proaspete"},{"code":"30205","name":"Rădăcinoase","slug":"30205-radacinoase"},{"code":"100132994","name":"Ridichi roșii eco România 150g","slug":"100132994-roua-organic-ridichi-rosii-eco-romania-150g"}],"activePromotion":{"code":"bunatatile-saptamanii-cw0923","name":"Preț redus","targetQuantity":null},"saveMe":null,"labels":[{"type":"v1","items":[{"text":"-18%","backgroundColor":"#FF9903","textColor":"#FFFFFF"}]}],"geniusPrice":null,"geniusUnitPricePerLabel":null,"banner":{"text":"Super preț","textColor":"#FF0000","bgColor":"#FFF2EC","icon":null,"link":"https://www.freshful.ro/oferte/bunatatile-saptamanii-cw0923","type":"promo","analyticsEventType":"select_promotion","analyticsEventPayload":{"promotion_id":"bunatatile-saptamanii-cw0923","promotion_name":"Oferta proaspătă a săptămânii"}},"discountLabel":"Economisești 18%","geniusDiscountLabel":null,"badge":null},{"code":"100071296","variantCode":"100071296","name":"Cartofi albi noi 1kg","slug":"100071296-no-brand-cartofi-albi-noi-1kg","unitPriceLabel":"4,49 Lei/kg","brand":null,"brandCode":null,"brandFilterCode":"no-brand-b83","sku":"100071296","price":4.49,"originalPrice":5.99,"currencyCode":"RON","currency":"Lei","image":{"thumbnail":{"default":"https://cdn.freshful.ro/media/cache/sylius_shop_product_thumbnail/7b/66/dc9605a76c91efa889d37e611621.jpg"},"large":{"default":"https://cdn.freshful.ro/media/cache/freshful_large/7b/66/dc9605a76c91efa889d37e611621.jpg"},"extralarge":{"default":"https://cdn.freshful.ro/media/cache/sylius_shop_product_original/7b/66/dc9605a76c91efa889d37e611621.jpg"}},"label":{"text":"-25%","backgroundColor":"#FF9903","textColor":"#FFFFFF"},"tags":[],"isAvailable":true,"maxAvailableQuantity":100,"maxAllowedQuantity":100,"breadcrumbs":[{"code":"3","name":"Fructe & legume","slug":"3-fructe-si-legume"},{"code":"302","name":"Legume proaspete","slug":"302-legume-proaspete"},{"code":"30202","name":"Cartofi","slug":"30202-cartofi"},{"code":"100071296","name":"Cartofi albi noi 1kg","slug":"100071296-no-brand-cartofi-albi-noi-1kg"}],"activePromotion":{"code":"bunatatile-saptamanii-cw0923","name":"Preț redus","targetQuantity":null},"saveMe":null,"labels":[{"type":"v1","items":[{"text":"-25%","backgroundColor":"#FF9903","textColor":"#FFFFFF"}]}],"geniusPrice":null,"geniusUnitPricePerLabel":null,"banner":{"text":"Super preț","textColor":"#FF0000","bgColor":"#FFF2EC","icon":null,"link":"https://www.freshful.ro/oferte/bunatatile-saptamanii-cw0923","type":"promo","analyticsEventType":"select_promotion","analyticsEventPayload":{"promotion_id":"bunatatile-saptamanii-cw0923","promotion_name":"Oferta proaspătă a săptămânii"}},"discountLabel":"Economisești 25%","geniusDiscountLabel":null,"badge":null},{"code":"100066143","variantCode":"100066143","name":"Roșii cherry 250g","slug":"100066143-no-brand-rosii-cherry-250g","unitPriceLabel":"21,96 Lei/kg","brand":null,"brandCode":null,"brandFilterCode":"no-brand-b83","sku":"100066143","price":5.49,"originalPrice":null,"currencyCode":"RON","currency":"Lei","image":{"thumbnail":{"default":"https://cdn.freshful.ro/media/cache/sylius_shop_product_thumbnail/10/01/f9b2649bef5924d3e2c150e3626c.jpg"},"large":{"default":"https://cdn.freshful.ro/media/cache/freshful_large/10/01/f9b2649bef5924d3e2c150e3626c.jpg"},"extralarge":{"default":"https://cdn.freshful.ro/media/cache/sylius_shop_product_original/10/01/f9b2649bef5924d3e2c150e3626c.jpg"}},"label":null,"tags":[],"isAvailable":true,"maxAvailableQuantity":100,"maxAllowedQuantity":100,"breadcrumbs":[{"code":"3","name":"Fructe & legume","slug":"3-fructe-si-legume"},{"code":"302","name":"Legume proaspete","slug":"302-legume-proaspete"},{"code":"30206","name":"Roșii","slug":"30206-rosii"},{"code":"100066143","name":"Roșii cherry 250g","slug":"100066143-no-brand-rosii-cherry-250g"}],"activePromotion":null,"saveMe":null,"labels":[],"geniusPrice":null,"geniusUnitPricePerLabel":null,"banner":null,"discountLabel":null,"geniusDiscountLabel":null,"badge":null}],"filters":{"countSelected":0,"items":[{"code":"promotion","name":"Promoții","countSelected":0,"values":[{"code":"bunatatile-saptamanii-cw0923","name":"Oferta proaspătă a săptămânii","isSelected":false,"count":5}]},{"code":"brand","name":"Brand","countSelected":0,"values":[{"code":"biolider-b1027","name":"Biolider","isSelected":false,"count":8},{"code":"bucataria-domneasca-b275","name":"Bucătăria Domnească","isSelected":false,"count":4},{"code":"harvest-by-microgreens-b2754","name":"Harvest By Microgreens","isSelected":false,"count":15},{"code":"olympia-b244","name":"Olympia","isSelected":false,"count":2},{"code":"roua-organic-b1834","name":"Roua Organic","isSelected":false,"count":2}]},{"code":"diet_lifestyle","name":"Dietă și lifestyle","countSelected":0,"values":[{"code":"eco-a83","name":"Eco","isSelected":false,"count":9},{"code":"fara-gluten-a16","name":"Fara gluten","isSelected":false,"count":2},{"code":"made-in-romania-a85","name":"Made In Romania","isSelected":false,"count":40},{"code":"natural-a27","name":"Natural","isSelected":false,"count":1},{"code":"vegan-a24","name":"Vegan","isSelected":false,"count":2}]}]},"orderBy":[{"field":"price","direction":"asc","name":"Preț crescător","isSelected":false},{"field":"price","direction":"desc","name":"Preț descrescător","isSelected":false},{"field":"popularity","direction":"desc","name":"Cele mai populare","isSelected":true},{"field":"category","direction":"asc","name":"Categorie","isSelected":false}],"metaTitle":"Legume proaspete - Gamă variată","metaDescription":"Vrei Legume proaspete? Alege dintr-o gamă variată. Comanzi simplu și ai livrare rapidă, calitate și prospețime. Hai pe Freshful.ro","metaKeywords":null,"banners":[{"name":"Prim pret","position":2,"type":"listing","displayOnMobile":true,"image":{"jpg":"https://cdn.freshful.ro/media/image/87/b8/2c5353731cb930753b2e9388cb6c.jpg","webp":"https://cdn.freshful.ro/media/image/2f/81/31f258b5a853f724d1a0ee704aea.webp"},"imageResponsive":{"jpg":"https://cdn.freshful.ro/media/image/bc/92/2fd607eef07234c1e524156e1312.jpg","webp":"https://cdn.freshful.ro/media/image/87/db/5b4fc5253bb990fdd0477492ff28.webp"},"url":"/l/custom-listing-prim-pret"}]}}