{"type":"subcategory","payload":{"analyticsListId":"category_30205-radacinoase","analyticsListName":"Category - Rădăcinoase","name":"Rădăcinoase","slug":"30205-radacinoase","image":null,"breadcrumbs":[{"code":"3","name":"Fructe & legume","slug":"3-fructe-si-legume"},{"code":"302","name":"Legume proaspete","slug":"302-legume-proaspete"},{"code":"30205","name":"Rădăcinoase","slug":"30205-radacinoase"}],"slots":[],"page":1,"limit":10,"pages":2,"count":17,"siblings":[{"name":"Fructe proaspete","slug":"301-fructe-proaspete","selected":false},{"name":"Legume proaspete","slug":"302-legume-proaspete","selected":true},{"name":"Verdețuri și ierburi aromatice","slug":"303-verdeturi-si-plante-aromatice","selected":false},{"name":"Fructe și legume uscate","slug":"304-fructe-uscate-crude","selected":false},{"name":"Sucuri naturale","slug":"305-sucuri-naturale","selected":false}],"children":[{"name":"Toate produsele","slug":"302-legume-proaspete","selected":false},{"name":"Ardei","slug":"30201-ardei","selected":false},{"name":"Cartofi","slug":"30202-cartofi","selected":false},{"name":"Ceapă","slug":"30203-ceapa","selected":false},{"name":"Dovlecei, castraveți și vinete","slug":"30204-dovlecei-castraveti-si-vinete","selected":false},{"name":"Rădăcinoase","slug":"30205-radacinoase","selected":true},{"name":"Roșii","slug":"30206-rosii","selected":false},{"name":"Varză, broccoli și conopidă","slug":"30207-varza-brocoli-si-conopida","selected":false},{"name":"Usturoi","slug":"30208-usturoi","selected":false},{"name":"Ciuperci","slug":"30209-ciuperci","selected":false},{"name":"Fasole, mazăre și porumb","slug":"30210-fasole-mazare-si-porumb","selected":false},{"name":"Andive, anghinare și sparanghel","slug":"30211-andive-anghinare-si-sparanghel","selected":false},{"name":"Praz, fenicul și țelină","slug":"30212-praz-fenicul-si-telina","selected":false},{"name":"Lădițe și mixuri fresh","slug":"30213-ladite-si-mixuri-fresh","selected":false},{"name":"Borș și murături","slug":"30214-bors-si-muraturi","selected":false},{"name":"Legume snacks","slug":"30215-legume-snacks","selected":false}],"products":[{"code":"100071335","variantCode":"100071335","name":"Pătrunjel rădăcină România 500g","slug":"100071335-no-brand-patrunjel-radacina-romania-500g","unitPriceLabel":"9,98 Lei/kg","brand":null,"brandCode":null,"brandFilterCode":"no-brand-b83","sku":"100071335","price":4.99,"originalPrice":7.99,"currencyCode":"RON","currency":"Lei","image":{"thumbnail":{"default":"https://cdn.freshful.ro/media/cache/sylius_shop_product_thumbnail/ab/79/de85fe8d665c885629e2ccaced34.jpg"},"large":{"default":"https://cdn.freshful.ro/media/cache/freshful_large/ab/79/de85fe8d665c885629e2ccaced34.jpg"},"extralarge":{"default":"https://cdn.freshful.ro/media/cache/sylius_shop_product_original/ab/79/de85fe8d665c885629e2ccaced34.jpg"}},"label":{"text":"-37%","backgroundColor":"#FF9903","textColor":"#FFFFFF"},"tags":[{"type":"MadeInRomania","text":"Made In Romania","icon":"https://cdn.freshful.ro/assets/product_tags/made_in_romania.svg","iconPng":"https://cdn.freshful.ro/assets/product_tags/made_in_romania.png","backgroundColor":"#EDF2FD","textColor":"#1653CA"}],"isAvailable":true,"maxAvailableQuantity":100,"maxAllowedQuantity":100,"breadcrumbs":[{"code":"3","name":"Fructe & legume","slug":"3-fructe-si-legume"},{"code":"302","name":"Legume proaspete","slug":"302-legume-proaspete"},{"code":"30205","name":"Rădăcinoase","slug":"30205-radacinoase"},{"code":"100071335","name":"Pătrunjel rădăcină România 500g","slug":"100071335-no-brand-patrunjel-radacina-romania-500g"}],"activePromotion":{"code":"bunatatile-saptamanii-cw0923","name":"Preț redus","targetQuantity":null},"saveMe":null,"labels":[{"type":"v1","items":[{"text":"-37%","backgroundColor":"#FF9903","textColor":"#FFFFFF"}]}],"geniusPrice":null,"geniusUnitPricePerLabel":null,"banner":{"text":"Super preț","textColor":"#FF0000","bgColor":"#FFF2EC","icon":null,"link":"https://www.freshful.ro/oferte/bunatatile-saptamanii-cw0923","type":"promo","analyticsEventType":"select_promotion","analyticsEventPayload":{"promotion_id":"bunatatile-saptamanii-cw0923","promotion_name":"Oferta proaspătă a săptămânii"}},"discountLabel":"Economisești 37%","geniusDiscountLabel":null,"badge":null},{"code":"100148193","variantCode":"100148193","name":"Ridichi roșii eco România 150g","slug":"100148193-no-brand-ridichi-rosii-eco-romania-150g","unitPriceLabel":"28,6 Lei/kg","brand":null,"brandCode":null,"brandFilterCode":"no-brand-b83","sku":"100148193","price":4.29,"originalPrice":5.29,"currencyCode":"RON","currency":"Lei","image":{"thumbnail":{"default":"https://cdn.freshful.ro/media/cache/sylius_shop_product_thumbnail/bb/a9/4ca515808b2e53765f306171ff92.jpg"},"large":{"default":"https://cdn.freshful.ro/media/cache/freshful_large/bb/a9/4ca515808b2e53765f306171ff92.jpg"},"extralarge":{"default":"https://cdn.freshful.ro/media/cache/sylius_shop_product_original/bb/a9/4ca515808b2e53765f306171ff92.jpg"}},"label":{"text":"-18%","backgroundColor":"#FF9903","textColor":"#FFFFFF"},"tags":[{"type":"MadeInRomania","text":"Made In Romania","icon":"https://cdn.freshful.ro/assets/product_tags/made_in_romania.svg","iconPng":"https://cdn.freshful.ro/assets/product_tags/made_in_romania.png","backgroundColor":"#EDF2FD","textColor":"#1653CA"},{"type":"Eco","text":"Eco","icon":"https://cdn.freshful.ro/assets/product_tags/eco.svg","iconPng":"https://cdn.freshful.ro/assets/product_tags/eco.png","backgroundColor":"#EFFBE4","textColor":"#66BB1B"}],"isAvailable":true,"maxAvailableQuantity":100,"maxAllowedQuantity":100,"breadcrumbs":[{"code":"3","name":"Fructe & legume","slug":"3-fructe-si-legume"},{"code":"302","name":"Legume proaspete","slug":"302-legume-proaspete"},{"code":"30205","name":"Rădăcinoase","slug":"30205-radacinoase"},{"code":"100148193","name":"Ridichi roșii eco România 150g","slug":"100148193-no-brand-ridichi-rosii-eco-romania-150g"}],"activePromotion":{"code":"bunatatile-saptamanii-cw0923","name":"Preț redus","targetQuantity":null},"saveMe":null,"labels":[{"type":"v1","items":[{"text":"-18%","backgroundColor":"#FF9903","textColor":"#FFFFFF"}]}],"geniusPrice":null,"geniusUnitPricePerLabel":null,"banner":{"text":"Super preț","textColor":"#FF0000","bgColor":"#FFF2EC","icon":null,"link":"https://www.freshful.ro/oferte/bunatatile-saptamanii-cw0923","type":"promo","analyticsEventType":"select_promotion","analyticsEventPayload":{"promotion_id":"bunatatile-saptamanii-cw0923","promotion_name":"Oferta proaspătă a săptămânii"}},"discountLabel":"Economisești 18%","geniusDiscountLabel":null,"badge":null},{"code":"100138690","variantCode":"100138690","name":"Morcovi 1 kg","slug":"100138690-no-brand-morcovi-1-kg","unitPriceLabel":"3,69 Lei/kg","brand":null,"brandCode":null,"brandFilterCode":"no-brand-b83","sku":"100138690","price":3.69,"originalPrice":null,"currencyCode":"RON","currency":"Lei","image":{"thumbnail":{"default":"https://cdn.freshful.ro/media/cache/sylius_shop_product_thumbnail/d4/fb/820e7d202aa44e558f4d9202b5c5.jpg"},"large":{"default":"https://cdn.freshful.ro/media/cache/freshful_large/d4/fb/820e7d202aa44e558f4d9202b5c5.jpg"},"extralarge":{"default":"https://cdn.freshful.ro/media/cache/sylius_shop_product_original/d4/fb/820e7d202aa44e558f4d9202b5c5.jpg"}},"label":null,"tags":[],"isAvailable":true,"maxAvailableQuantity":100,"maxAllowedQuantity":100,"breadcrumbs":[{"code":"3","name":"Fructe & legume","slug":"3-fructe-si-legume"},{"code":"302","name":"Legume proaspete","slug":"302-legume-proaspete"},{"code":"30205","name":"Rădăcinoase","slug":"30205-radacinoase"},{"code":"100138690","name":"Morcovi 1 kg","slug":"100138690-no-brand-morcovi-1-kg"}],"activePromotion":null,"saveMe":null,"labels":[],"geniusPrice":null,"geniusUnitPricePerLabel":null,"banner":null,"discountLabel":null,"geniusDiscountLabel":null,"badge":null},{"code":"100132994","variantCode":"100132994","name":"Ridichi roșii eco România 150g","slug":"100132994-roua-organic-ridichi-rosii-eco-romania-150g","unitPriceLabel":"28,6 Lei/kg","brand":"Roua Organic","brandCode":"1830","brandFilterCode":"roua-organic-b1834","sku":"100132994","price":4.29,"originalPrice":5.29,"currencyCode":"RON","currency":"Lei","image":{"thumbnail":{"default":"https://cdn.freshful.ro/media/cache/sylius_shop_product_thumbnail/8f/48/6dcbf999ee1d527acabfab9eb5d2.jpg"},"large":{"default":"https://cdn.freshful.ro/media/cache/freshful_large/8f/48/6dcbf999ee1d527acabfab9eb5d2.jpg"},"extralarge":{"default":"https://cdn.freshful.ro/media/cache/sylius_shop_product_original/8f/48/6dcbf999ee1d527acabfab9eb5d2.jpg"}},"label":{"text":"-18%","backgroundColor":"#FF9903","textColor":"#FFFFFF"},"tags":[{"type":"Eco","text":"Eco","icon":"https://cdn.freshful.ro/assets/product_tags/eco.svg","iconPng":"https://cdn.freshful.ro/assets/product_tags/eco.png","backgroundColor":"#EFFBE4","textColor":"#66BB1B"},{"type":"MadeInRomania","text":"Made In Romania","icon":"https://cdn.freshful.ro/assets/product_tags/made_in_romania.svg","iconPng":"https://cdn.freshful.ro/assets/product_tags/made_in_romania.png","backgroundColor":"#EDF2FD","textColor":"#1653CA"}],"isAvailable":true,"maxAvailableQuantity":100,"maxAllowedQuantity":100,"breadcrumbs":[{"code":"3","name":"Fructe & legume","slug":"3-fructe-si-legume"},{"code":"302","name":"Legume proaspete","slug":"302-legume-proaspete"},{"code":"30205","name":"Rădăcinoase","slug":"30205-radacinoase"},{"code":"100132994","name":"Ridichi roșii eco România 150g","slug":"100132994-roua-organic-ridichi-rosii-eco-romania-150g"}],"activePromotion":{"code":"bunatatile-saptamanii-cw0923","name":"Preț redus","targetQuantity":null},"saveMe":null,"labels":[{"type":"v1","items":[{"text":"-18%","backgroundColor":"#FF9903","textColor":"#FFFFFF"}]}],"geniusPrice":null,"geniusUnitPricePerLabel":null,"banner":{"text":"Super preț","textColor":"#FF0000","bgColor":"#FFF2EC","icon":null,"link":"https://www.freshful.ro/oferte/bunatatile-saptamanii-cw0923","type":"promo","analyticsEventType":"select_promotion","analyticsEventPayload":{"promotion_id":"bunatatile-saptamanii-cw0923","promotion_name":"Oferta proaspătă a săptămânii"}},"discountLabel":"Economisești 18%","geniusDiscountLabel":null,"badge":null},{"code":"100071344","variantCode":"100071344","name":"Ridichi roz România, proaspăt culese 1 legătură","slug":"100071344-no-brand-ridichi-roz-romania-proaspat-culese-1-legatura","unitPriceLabel":"12,6 Lei/kg","brand":null,"brandCode":null,"brandFilterCode":"no-brand-b83","sku":"100071344","price":1.89,"originalPrice":null,"currencyCode":"RON","currency":"Lei","image":{"thumbnail":{"default":"https://cdn.freshful.ro/media/cache/sylius_shop_product_thumbnail/ef/96/08ab04bd9e54395c81e0122f715d.jpg"},"large":{"default":"https://cdn.freshful.ro/media/cache/freshful_large/ef/96/08ab04bd9e54395c81e0122f715d.jpg"},"extralarge":{"default":"https://cdn.freshful.ro/media/cache/sylius_shop_product_original/ef/96/08ab04bd9e54395c81e0122f715d.jpg"}},"label":{"text":"Proaspăt cules","backgroundColor":"#4CC464","textColor":"#FFFFFF"},"tags":[{"type":"MadeInRomania","text":"Made In Romania","icon":"https://cdn.freshful.ro/assets/product_tags/made_in_romania.svg","iconPng":"https://cdn.freshful.ro/assets/product_tags/made_in_romania.png","backgroundColor":"#EDF2FD","textColor":"#1653CA"}],"isAvailable":true,"maxAvailableQuantity":100,"maxAllowedQuantity":100,"breadcrumbs":[{"code":"3","name":"Fructe & legume","slug":"3-fructe-si-legume"},{"code":"302","name":"Legume proaspete","slug":"302-legume-proaspete"},{"code":"30205","name":"Rădăcinoase","slug":"30205-radacinoase"},{"code":"100071344","name":"Ridichi roz România, proaspăt culese 1 legătură","slug":"100071344-no-brand-ridichi-roz-romania-proaspat-culese-1-legatura"}],"activePromotion":null,"saveMe":null,"labels":[{"type":"v1","items":[{"text":"Proaspăt cules","backgroundColor":"#4CC464","textColor":"#FFFFFF"}]}],"geniusPrice":null,"geniusUnitPricePerLabel":null,"banner":null,"discountLabel":null,"geniusDiscountLabel":null,"badge":null},{"code":"100071333","variantCode":"100071333","name":"Morcovi eco 500g","slug":"100071333-no-brand-morcovi-eco-500g","unitPriceLabel":"13,98 Lei/kg","brand":null,"brandCode":null,"brandFilterCode":"no-brand-b83","sku":"100071333","price":6.99,"originalPrice":null,"currencyCode":"RON","currency":"Lei","image":{"thumbnail":{"default":"https://cdn.freshful.ro/media/cache/sylius_shop_product_thumbnail/83/96/c77d0e04e790abc415b234b4ca74.jpg"},"large":{"default":"https://cdn.freshful.ro/media/cache/freshful_large/83/96/c77d0e04e790abc415b234b4ca74.jpg"},"extralarge":{"default":"https://cdn.freshful.ro/media/cache/sylius_shop_product_original/83/96/c77d0e04e790abc415b234b4ca74.jpg"}},"label":null,"tags":[{"type":"Eco","text":"Eco","icon":"https://cdn.freshful.ro/assets/product_tags/eco.svg","iconPng":"https://cdn.freshful.ro/assets/product_tags/eco.png","backgroundColor":"#EFFBE4","textColor":"#66BB1B"}],"isAvailable":true,"maxAvailableQuantity":100,"maxAllowedQuantity":100,"breadcrumbs":[{"code":"3","name":"Fructe & legume","slug":"3-fructe-si-legume"},{"code":"302","name":"Legume proaspete","slug":"302-legume-proaspete"},{"code":"30205","name":"Rădăcinoase","slug":"30205-radacinoase"},{"code":"100071333","name":"Morcovi eco 500g","slug":"100071333-no-brand-morcovi-eco-500g"}],"activePromotion":null,"saveMe":null,"labels":[],"geniusPrice":null,"geniusUnitPricePerLabel":null,"banner":null,"discountLabel":null,"geniusDiscountLabel":null,"badge":null},{"code":"100071336","variantCode":"100071336","name":"Păstârnac rădăcină 500g","slug":"100071336-no-brand-pastarnac-radacina-500g","unitPriceLabel":"14,98 Lei/kg","brand":null,"brandCode":null,"brandFilterCode":"no-brand-b83","sku":"100071336","price":7.49,"originalPrice":null,"currencyCode":"RON","currency":"Lei","image":{"thumbnail":{"default":"https://cdn.freshful.ro/media/cache/sylius_shop_product_thumbnail/6f/8e/b3facd0c25d49519aed0434fc6d0.jpg"},"large":{"default":"https://cdn.freshful.ro/media/cache/freshful_large/6f/8e/b3facd0c25d49519aed0434fc6d0.jpg"},"extralarge":{"default":"https://cdn.freshful.ro/media/cache/sylius_shop_product_original/6f/8e/b3facd0c25d49519aed0434fc6d0.jpg"}},"label":null,"tags":[{"type":"MadeInRomania","text":"Made In Romania","icon":"https://cdn.freshful.ro/assets/product_tags/made_in_romania.svg","iconPng":"https://cdn.freshful.ro/assets/product_tags/made_in_romania.png","backgroundColor":"#EDF2FD","textColor":"#1653CA"}],"isAvailable":true,"maxAvailableQuantity":100,"maxAllowedQuantity":100,"breadcrumbs":[{"code":"3","name":"Fructe & legume","slug":"3-fructe-si-legume"},{"code":"302","name":"Legume proaspete","slug":"302-legume-proaspete"},{"code":"30205","name":"Rădăcinoase","slug":"30205-radacinoase"},{"code":"100071336","name":"Păstârnac rădăcină 500g","slug":"100071336-no-brand-pastarnac-radacina-500g"}],"activePromotion":null,"saveMe":null,"labels":[],"geniusPrice":null,"geniusUnitPricePerLabel":null,"banner":null,"discountLabel":null,"geniusDiscountLabel":null,"badge":null},{"code":"100066191","variantCode":"100066191","name":"Țelină rădăcină 1 buc","slug":"100066191-no-brand-telina-radacina-1-buc","unitPriceLabel":"6,86 Lei/kg","brand":null,"brandCode":null,"brandFilterCode":"no-brand-b83","sku":"100066191","price":5.49,"originalPrice":null,"currencyCode":"RON","currency":"Lei","image":{"thumbnail":{"default":"https://cdn.freshful.ro/media/cache/sylius_shop_product_thumbnail/1a/7b/351d8bd3f450bc72ae4cb39d6878.jpg"},"large":{"default":"https://cdn.freshful.ro/media/cache/freshful_large/1a/7b/351d8bd3f450bc72ae4cb39d6878.jpg"},"extralarge":{"default":"https://cdn.freshful.ro/media/cache/sylius_shop_product_original/1a/7b/351d8bd3f450bc72ae4cb39d6878.jpg"}},"label":null,"tags":[{"type":"MadeInRomania","text":"Made In Romania","icon":"https://cdn.freshful.ro/assets/product_tags/made_in_romania.svg","iconPng":"https://cdn.freshful.ro/assets/product_tags/made_in_romania.png","backgroundColor":"#EDF2FD","textColor":"#1653CA"}],"isAvailable":true,"maxAvailableQuantity":100,"maxAllowedQuantity":100,"breadcrumbs":[{"code":"3","name":"Fructe & legume","slug":"3-fructe-si-legume"},{"code":"302","name":"Legume proaspete","slug":"302-legume-proaspete"},{"code":"30205","name":"Rădăcinoase","slug":"30205-radacinoase"},{"code":"100066191","name":"Țelină rădăcină 1 buc","slug":"100066191-no-brand-telina-radacina-1-buc"}],"activePromotion":null,"saveMe":null,"labels":[],"geniusPrice":null,"geniusUnitPricePerLabel":null,"banner":null,"discountLabel":null,"geniusDiscountLabel":null,"badge":null},{"code":"100142895","variantCode":"100142895","name":"Sfeclă roșie România 1 buc","slug":"100142895-no-brand-sfecla-rosie-romania-1-buc","unitPriceLabel":"9,93 Lei/kg","brand":null,"brandCode":null,"brandFilterCode":"no-brand-b83","sku":"100142895","price":1.49,"originalPrice":null,"currencyCode":"RON","currency":"Lei","image":{"thumbnail":{"default":"https://cdn.freshful.ro/media/cache/sylius_shop_product_thumbnail/67/6b/54152c488b93c723cb9ffbcae2fc.jpg"},"large":{"default":"https://cdn.freshful.ro/media/cache/freshful_large/67/6b/54152c488b93c723cb9ffbcae2fc.jpg"},"extralarge":{"default":"https://cdn.freshful.ro/media/cache/sylius_shop_product_original/67/6b/54152c488b93c723cb9ffbcae2fc.jpg"}},"label":null,"tags":[{"type":"MadeInRomania","text":"Made In Romania","icon":"https://cdn.freshful.ro/assets/product_tags/made_in_romania.svg","iconPng":"https://cdn.freshful.ro/assets/product_tags/made_in_romania.png","backgroundColor":"#EDF2FD","textColor":"#1653CA"}],"isAvailable":true,"maxAvailableQuantity":100,"maxAllowedQuantity":100,"breadcrumbs":[{"code":"3","name":"Fructe & legume","slug":"3-fructe-si-legume"},{"code":"302","name":"Legume proaspete","slug":"302-legume-proaspete"},{"code":"30205","name":"Rădăcinoase","slug":"30205-radacinoase"},{"code":"100142895","name":"Sfeclă roșie România 1 buc","slug":"100142895-no-brand-sfecla-rosie-romania-1-buc"}],"activePromotion":null,"saveMe":null,"labels":[],"geniusPrice":null,"geniusUnitPricePerLabel":null,"banner":null,"discountLabel":null,"geniusDiscountLabel":null,"badge":null},{"code":"100071341","variantCode":"100071341","name":"Ghimbir eco 250g","slug":"100071341-no-brand-ghimbir-eco-250g","unitPriceLabel":"30,36 Lei/kg","brand":null,"brandCode":null,"brandFilterCode":"no-brand-b83","sku":"100071341","price":7.59,"originalPrice":null,"currencyCode":"RON","currency":"Lei","image":{"thumbnail":{"default":"https://cdn.freshful.ro/media/cache/sylius_shop_product_thumbnail/44/b9/76dffe05ec5e92aecb6e67dd181f.jpg"},"large":{"default":"https://cdn.freshful.ro/media/cache/freshful_large/44/b9/76dffe05ec5e92aecb6e67dd181f.jpg"},"extralarge":{"default":"https://cdn.freshful.ro/media/cache/sylius_shop_product_original/44/b9/76dffe05ec5e92aecb6e67dd181f.jpg"}},"label":null,"tags":[],"isAvailable":true,"maxAvailableQuantity":100,"maxAllowedQuantity":100,"breadcrumbs":[{"code":"3","name":"Fructe & legume","slug":"3-fructe-si-legume"},{"code":"302","name":"Legume proaspete","slug":"302-legume-proaspete"},{"code":"30205","name":"Rădăcinoase","slug":"30205-radacinoase"},{"code":"100071341","name":"Ghimbir eco 250g","slug":"100071341-no-brand-ghimbir-eco-250g"}],"activePromotion":null,"saveMe":null,"labels":[],"geniusPrice":null,"geniusUnitPricePerLabel":null,"banner":null,"discountLabel":null,"geniusDiscountLabel":null,"badge":null}],"filters":{"countSelected":0,"items":[{"code":"promotion","name":"Promoții","countSelected":0,"values":[{"code":"bunatatile-saptamanii-cw0923","name":"Oferta proaspătă a săptămânii","isSelected":false,"count":3}]},{"code":"brand","name":"Brand","countSelected":0,"values":[{"code":"roua-organic-b1834","name":"Roua Organic","isSelected":false,"count":1}]},{"code":"diet_lifestyle","name":"Dietă și lifestyle","countSelected":0,"values":[{"code":"eco-a83","name":"Eco","isSelected":false,"count":4},{"code":"made-in-romania-a85","name":"Made In Romania","isSelected":false,"count":7}]}]},"orderBy":[{"field":"price","direction":"asc","name":"Preț crescător","isSelected":false},{"field":"price","direction":"desc","name":"Preț descrescător","isSelected":false},{"field":"popularity","direction":"desc","name":"Cele mai populare","isSelected":true},{"field":"category","direction":"asc","name":"Categorie","isSelected":false}],"metaTitle":"Rădăcinoase - Gamă variată","metaDescription":"Vrei Rădăcinoase? Alege dintr-o gamă variată. Comanzi simplu și ai livrare rapidă, calitate și prospețime. Hai pe Freshful.ro","metaKeywords":null,"banners":[]}}