{"type":"subcategory","payload":{"analyticsListId":"category_303-verdeturi-si-plante-aromatice","analyticsListName":"Category - Verdețuri și ierburi aromatice","name":"Verdețuri și ierburi aromatice","slug":"303-verdeturi-si-plante-aromatice","image":null,"breadcrumbs":[{"code":"3","name":"Fructe & legume","slug":"3-fructe-si-legume"},{"code":"303","name":"Verdețuri și ierburi aromatice","slug":"303-verdeturi-si-plante-aromatice"}],"slots":[],"page":1,"limit":10,"pages":6,"count":56,"siblings":[{"name":"Fructe proaspete","slug":"301-fructe-proaspete","selected":false},{"name":"Legume proaspete","slug":"302-legume-proaspete","selected":false},{"name":"Verdețuri și ierburi aromatice","slug":"303-verdeturi-si-plante-aromatice","selected":true},{"name":"Fructe și legume uscate","slug":"304-fructe-uscate-crude","selected":false},{"name":"Sucuri naturale","slug":"305-sucuri-naturale","selected":false}],"children":[{"name":"Toate produsele","slug":"303-verdeturi-si-plante-aromatice","selected":true},{"name":"Salate","slug":"30301-salate","selected":false},{"name":"Germeni și microplante","slug":"30302-germeni","selected":false},{"name":"Verdețuri","slug":"30303-verdeturi","selected":false},{"name":"Ierburi aromatice","slug":"30304-plante-aromate","selected":false},{"name":"Dressing fresh pentru salată","slug":"dressing-fresh-pentru-salata","selected":false}],"products":[{"code":"100071428","variantCode":"100071428","name":"Pătrunjel proaspăt cules 1 legătură","slug":"100071428-no-brand-patrunjel-proaspat-cules-1-legatura","unitPriceLabel":"","brand":null,"brandCode":null,"brandFilterCode":"no-brand-b83","sku":"100071428","price":1.29,"originalPrice":null,"currencyCode":"RON","currency":"Lei","image":{"thumbnail":{"default":"https://cdn.freshful.ro/media/cache/sylius_shop_product_thumbnail/f6/34/e420e70ab92011c9e2b423d4fb01.jpg"},"large":{"default":"https://cdn.freshful.ro/media/cache/freshful_large/f6/34/e420e70ab92011c9e2b423d4fb01.jpg"},"extralarge":{"default":"https://cdn.freshful.ro/media/cache/sylius_shop_product_original/f6/34/e420e70ab92011c9e2b423d4fb01.jpg"}},"label":{"text":"Proaspăt cules","backgroundColor":"#4CC464","textColor":"#FFFFFF"},"tags":[{"type":"MadeInRomania","text":"Made In Romania","icon":"https://cdn.freshful.ro/assets/product_tags/made_in_romania.svg","iconPng":"https://cdn.freshful.ro/assets/product_tags/made_in_romania.png","backgroundColor":"#EDF2FD","textColor":"#1653CA"}],"isAvailable":true,"maxAvailableQuantity":100,"maxAllowedQuantity":100,"breadcrumbs":[{"code":"3","name":"Fructe & legume","slug":"3-fructe-si-legume"},{"code":"303","name":"Verdețuri și ierburi aromatice","slug":"303-verdeturi-si-plante-aromatice"},{"code":"30303","name":"Verdețuri","slug":"30303-verdeturi"},{"code":"100071428","name":"Pătrunjel proaspăt cules 1 legătură","slug":"100071428-no-brand-patrunjel-proaspat-cules-1-legatura"}],"activePromotion":null,"saveMe":null,"labels":[{"type":"v1","items":[{"text":"Proaspăt cules","backgroundColor":"#4CC464","textColor":"#FFFFFF"}]}],"geniusPrice":null,"geniusUnitPricePerLabel":null,"banner":null,"discountLabel":null,"geniusDiscountLabel":null,"badge":null},{"code":"100071434","variantCode":"100071434","name":"Ceapă verde, proaspăt culeasă 1 buc","slug":"100071434-no-brand-ceapa-verde-proaspat-culeasa-1-buc","unitPriceLabel":"1,89 Lei/buc","brand":null,"brandCode":null,"brandFilterCode":"no-brand-b83","sku":"100071434","price":1.89,"originalPrice":null,"currencyCode":"RON","currency":"Lei","image":{"thumbnail":{"default":"https://cdn.freshful.ro/media/cache/sylius_shop_product_thumbnail/ef/f2/50da638ee3c8301992e0b20f912e.jpg"},"large":{"default":"https://cdn.freshful.ro/media/cache/freshful_large/ef/f2/50da638ee3c8301992e0b20f912e.jpg"},"extralarge":{"default":"https://cdn.freshful.ro/media/cache/sylius_shop_product_original/ef/f2/50da638ee3c8301992e0b20f912e.jpg"}},"label":{"text":"Proaspăt cules","backgroundColor":"#4CC464","textColor":"#FFFFFF"},"tags":[{"type":"MadeInRomania","text":"Made In Romania","icon":"https://cdn.freshful.ro/assets/product_tags/made_in_romania.svg","iconPng":"https://cdn.freshful.ro/assets/product_tags/made_in_romania.png","backgroundColor":"#EDF2FD","textColor":"#1653CA"}],"isAvailable":true,"maxAvailableQuantity":100,"maxAllowedQuantity":100,"breadcrumbs":[{"code":"3","name":"Fructe & legume","slug":"3-fructe-si-legume"},{"code":"303","name":"Verdețuri și ierburi aromatice","slug":"303-verdeturi-si-plante-aromatice"},{"code":"30303","name":"Verdețuri","slug":"30303-verdeturi"},{"code":"100071434","name":"Ceapă verde, proaspăt culeasă 1 buc","slug":"100071434-no-brand-ceapa-verde-proaspat-culeasa-1-buc"}],"activePromotion":null,"saveMe":null,"labels":[{"type":"v1","items":[{"text":"Proaspăt cules","backgroundColor":"#4CC464","textColor":"#FFFFFF"}]}],"geniusPrice":null,"geniusUnitPricePerLabel":null,"banner":null,"discountLabel":null,"geniusDiscountLabel":null,"badge":null},{"code":"100046493","variantCode":"5941218004181","name":"Salată țărănească 180g","slug":"100046493-eisberg-salata-taraneasca-180g","unitPriceLabel":"33,28 Lei/kg","brand":"Eisberg","brandCode":"232","brandFilterCode":"eisberg-b233","sku":"100046493","price":5.99,"originalPrice":7.69,"currencyCode":"RON","currency":"Lei","image":{"thumbnail":{"default":"https://cdn.freshful.ro/media/cache/sylius_shop_product_thumbnail/40/36/09eb714145f6659ff14340dd28fa.jpg"},"large":{"default":"https://cdn.freshful.ro/media/cache/freshful_large/40/36/09eb714145f6659ff14340dd28fa.jpg"},"extralarge":{"default":"https://cdn.freshful.ro/media/cache/sylius_shop_product_original/40/36/09eb714145f6659ff14340dd28fa.jpg"}},"label":{"text":"-22%","backgroundColor":"#FF9903","textColor":"#FFFFFF"},"tags":[],"isAvailable":true,"maxAvailableQuantity":47,"maxAllowedQuantity":100,"breadcrumbs":[{"code":"3","name":"Fructe & legume","slug":"3-fructe-si-legume"},{"code":"303","name":"Verdețuri și ierburi aromatice","slug":"303-verdeturi-si-plante-aromatice"},{"code":"30301","name":"Salate","slug":"30301-salate"},{"code":"100046493","name":"Salată țărănească 180g","slug":"100046493-eisberg-salata-taraneasca-180g"}],"activePromotion":{"code":"bunatatile-saptamanii-cw0923","name":"Preț redus","targetQuantity":null},"saveMe":null,"labels":[{"type":"v1","items":[{"text":"-22%","backgroundColor":"#FF9903","textColor":"#FFFFFF"}]}],"geniusPrice":null,"geniusUnitPricePerLabel":null,"banner":{"text":"Super preț","textColor":"#FF0000","bgColor":"#FFF2EC","icon":null,"link":"https://www.freshful.ro/oferte/bunatatile-saptamanii-cw0923","type":"promo","analyticsEventType":"select_promotion","analyticsEventPayload":{"promotion_id":"bunatatile-saptamanii-cw0923","promotion_name":"Oferta proaspătă a săptămânii"}},"discountLabel":"Economisești 22%","geniusDiscountLabel":null,"badge":null},{"code":"100071421","variantCode":"100071421","name":"Salată verde, proaspăt culeasă 1 buc","slug":"100071421-no-brand-salata-verde-proaspat-culeasa-1-buc","unitPriceLabel":"","brand":null,"brandCode":null,"brandFilterCode":"no-brand-b83","sku":"100071421","price":3.41,"originalPrice":null,"currencyCode":"RON","currency":"Lei","image":{"thumbnail":{"default":"https://cdn.freshful.ro/media/cache/sylius_shop_product_thumbnail/41/c4/773d8683abd843f0ef78db5ac79a.jpg"},"large":{"default":"https://cdn.freshful.ro/media/cache/freshful_large/41/c4/773d8683abd843f0ef78db5ac79a.jpg"},"extralarge":{"default":"https://cdn.freshful.ro/media/cache/sylius_shop_product_original/41/c4/773d8683abd843f0ef78db5ac79a.jpg"}},"label":{"text":"Proaspăt cules","backgroundColor":"#4CC464","textColor":"#FFFFFF"},"tags":[{"type":"MadeInRomania","text":"Made In Romania","icon":"https://cdn.freshful.ro/assets/product_tags/made_in_romania.svg","iconPng":"https://cdn.freshful.ro/assets/product_tags/made_in_romania.png","backgroundColor":"#EDF2FD","textColor":"#1653CA"}],"isAvailable":true,"maxAvailableQuantity":100,"maxAllowedQuantity":100,"breadcrumbs":[{"code":"3","name":"Fructe & legume","slug":"3-fructe-si-legume"},{"code":"303","name":"Verdețuri și ierburi aromatice","slug":"303-verdeturi-si-plante-aromatice"},{"code":"30301","name":"Salate","slug":"30301-salate"},{"code":"100071421","name":"Salată verde, proaspăt culeasă 1 buc","slug":"100071421-no-brand-salata-verde-proaspat-culeasa-1-buc"}],"activePromotion":null,"saveMe":null,"labels":[{"type":"v1","items":[{"text":"Proaspăt cules","backgroundColor":"#4CC464","textColor":"#FFFFFF"}]}],"geniusPrice":null,"geniusUnitPricePerLabel":null,"banner":null,"discountLabel":null,"geniusDiscountLabel":null,"badge":null},{"code":"100110316","variantCode":"100110316","name":"Salată verde eco România","slug":"100110316-roua-organic-salata-verde-eco-romania","unitPriceLabel":"","brand":"Roua Organic","brandCode":"1830","brandFilterCode":"roua-organic-b1834","sku":"100110316","price":4.99,"originalPrice":null,"currencyCode":"RON","currency":"Lei","image":{"thumbnail":{"default":"https://cdn.freshful.ro/media/cache/sylius_shop_product_thumbnail/30/fa/1e6f33b0bc3efae90d733cd0959e.jpg"},"large":{"default":"https://cdn.freshful.ro/media/cache/freshful_large/30/fa/1e6f33b0bc3efae90d733cd0959e.jpg"},"extralarge":{"default":"https://cdn.freshful.ro/media/cache/sylius_shop_product_original/30/fa/1e6f33b0bc3efae90d733cd0959e.jpg"}},"label":{"text":"Mici producători","backgroundColor":"#7B61FF","textColor":"#FFFFFF"},"tags":[{"type":"Eco","text":"Eco","icon":"https://cdn.freshful.ro/assets/product_tags/eco.svg","iconPng":"https://cdn.freshful.ro/assets/product_tags/eco.png","backgroundColor":"#EFFBE4","textColor":"#66BB1B"},{"type":"MadeInRomania","text":"Made In Romania","icon":"https://cdn.freshful.ro/assets/product_tags/made_in_romania.svg","iconPng":"https://cdn.freshful.ro/assets/product_tags/made_in_romania.png","backgroundColor":"#EDF2FD","textColor":"#1653CA"}],"isAvailable":true,"maxAvailableQuantity":100,"maxAllowedQuantity":100,"breadcrumbs":[{"code":"3","name":"Fructe & legume","slug":"3-fructe-si-legume"},{"code":"303","name":"Verdețuri și ierburi aromatice","slug":"303-verdeturi-si-plante-aromatice"},{"code":"30301","name":"Salate","slug":"30301-salate"},{"code":"100110316","name":"Salată verde eco România","slug":"100110316-roua-organic-salata-verde-eco-romania"}],"activePromotion":null,"saveMe":null,"labels":[{"type":"v1","items":[{"text":"Mici producători","backgroundColor":"#7B61FF","textColor":"#FFFFFF"}]}],"geniusPrice":null,"geniusUnitPricePerLabel":null,"banner":null,"discountLabel":null,"geniusDiscountLabel":null,"badge":null},{"code":"100046137","variantCode":"5941884300211","name":"Baby spanac 100g","slug":"100046137-oliveris-baby-spanac-100g","unitPriceLabel":"54,9 Lei/kg","brand":"Oliveris","brandCode":"706","brandFilterCode":"oliveris-b707","sku":"100046137","price":5.49,"originalPrice":null,"currencyCode":"RON","currency":"Lei","image":{"thumbnail":{"default":"https://cdn.freshful.ro/media/cache/sylius_shop_product_thumbnail/b0/7d/b6d91a5235c3952dd6e79702f00e.jpg"},"large":{"default":"https://cdn.freshful.ro/media/cache/freshful_large/b0/7d/b6d91a5235c3952dd6e79702f00e.jpg"},"extralarge":{"default":"https://cdn.freshful.ro/media/cache/sylius_shop_product_original/b0/7d/b6d91a5235c3952dd6e79702f00e.jpg"}},"label":null,"tags":[],"isAvailable":true,"maxAvailableQuantity":100,"maxAllowedQuantity":100,"breadcrumbs":[{"code":"3","name":"Fructe & legume","slug":"3-fructe-si-legume"},{"code":"303","name":"Verdețuri și ierburi aromatice","slug":"303-verdeturi-si-plante-aromatice"},{"code":"30301","name":"Salate","slug":"30301-salate"},{"code":"100046137","name":"Baby spanac 100g","slug":"100046137-oliveris-baby-spanac-100g"}],"activePromotion":null,"saveMe":null,"labels":[],"geniusPrice":null,"geniusUnitPricePerLabel":null,"banner":null,"discountLabel":null,"geniusDiscountLabel":null,"badge":null},{"code":"100046494","variantCode":"5941218004143","name":"Salată Bucuria 180g","slug":"100046494-eisberg-salata-bucuria-180g","unitPriceLabel":"33,28 Lei/kg","brand":"Eisberg","brandCode":"232","brandFilterCode":"eisberg-b233","sku":"100046494","price":5.99,"originalPrice":null,"currencyCode":"RON","currency":"Lei","image":{"thumbnail":{"default":"https://cdn.freshful.ro/media/cache/sylius_shop_product_thumbnail/d5/14/9b8f9011e6471839a3c64cd8e227.jpg"},"large":{"default":"https://cdn.freshful.ro/media/cache/freshful_large/d5/14/9b8f9011e6471839a3c64cd8e227.jpg"},"extralarge":{"default":"https://cdn.freshful.ro/media/cache/sylius_shop_product_original/d5/14/9b8f9011e6471839a3c64cd8e227.jpg"}},"label":null,"tags":[],"isAvailable":true,"maxAvailableQuantity":63,"maxAllowedQuantity":100,"breadcrumbs":[{"code":"3","name":"Fructe & legume","slug":"3-fructe-si-legume"},{"code":"303","name":"Verdețuri și ierburi aromatice","slug":"303-verdeturi-si-plante-aromatice"},{"code":"30301","name":"Salate","slug":"30301-salate"},{"code":"100046494","name":"Salată Bucuria 180g","slug":"100046494-eisberg-salata-bucuria-180g"}],"activePromotion":null,"saveMe":null,"labels":[],"geniusPrice":null,"geniusUnitPricePerLabel":null,"banner":null,"discountLabel":null,"geniusDiscountLabel":null,"badge":null},{"code":"100044089","variantCode":"5940000000219","name":"Busuioc 30g","slug":"100044089-coral-biogreens-busuioc-30g","unitPriceLabel":"16,3 Lei/kg","brand":"Coral Biogreens","brandCode":"335","brandFilterCode":"coral-biogreens-b336","sku":"100044089","price":4.89,"originalPrice":null,"currencyCode":"RON","currency":"Lei","image":{"thumbnail":{"default":"https://cdn.freshful.ro/media/cache/sylius_shop_product_thumbnail/8d/68/652d1510903be68949830720aee5.jpg"},"large":{"default":"https://cdn.freshful.ro/media/cache/freshful_large/8d/68/652d1510903be68949830720aee5.jpg"},"extralarge":{"default":"https://cdn.freshful.ro/media/cache/sylius_shop_product_original/8d/68/652d1510903be68949830720aee5.jpg"}},"label":null,"tags":[],"isAvailable":true,"maxAvailableQuantity":100,"maxAllowedQuantity":100,"breadcrumbs":[{"code":"3","name":"Fructe & legume","slug":"3-fructe-si-legume"},{"code":"303","name":"Verdețuri și ierburi aromatice","slug":"303-verdeturi-si-plante-aromatice"},{"code":"30304","name":"Ierburi aromatice","slug":"30304-plante-aromate"},{"code":"100044089","name":"Busuioc 30g","slug":"100044089-coral-biogreens-busuioc-30g"}],"activePromotion":null,"saveMe":null,"labels":[],"geniusPrice":null,"geniusUnitPricePerLabel":null,"banner":null,"discountLabel":null,"geniusDiscountLabel":null,"badge":null},{"code":"100046135","variantCode":"100046135","name":"Salată Misticanza 150g","slug":"100046135-oliveris-salata-misticanza-150g","unitPriceLabel":"39,93 Lei/kg","brand":"Oliveris","brandCode":"706","brandFilterCode":"oliveris-b707","sku":"100046135","price":5.99,"originalPrice":null,"currencyCode":"RON","currency":"Lei","image":{"thumbnail":{"default":"https://cdn.freshful.ro/media/cache/sylius_shop_product_thumbnail/83/d1/6d068d64ce38a9ee384f7144f9b1.jpg"},"large":{"default":"https://cdn.freshful.ro/media/cache/freshful_large/83/d1/6d068d64ce38a9ee384f7144f9b1.jpg"},"extralarge":{"default":"https://cdn.freshful.ro/media/cache/sylius_shop_product_original/83/d1/6d068d64ce38a9ee384f7144f9b1.jpg"}},"label":null,"tags":[],"isAvailable":true,"maxAvailableQuantity":100,"maxAllowedQuantity":100,"breadcrumbs":[{"code":"3","name":"Fructe & legume","slug":"3-fructe-si-legume"},{"code":"303","name":"Verdețuri și ierburi aromatice","slug":"303-verdeturi-si-plante-aromatice"},{"code":"30301","name":"Salate","slug":"30301-salate"},{"code":"100046135","name":"Salată Misticanza 150g","slug":"100046135-oliveris-salata-misticanza-150g"}],"activePromotion":null,"saveMe":null,"labels":[],"geniusPrice":null,"geniusUnitPricePerLabel":null,"banner":null,"discountLabel":null,"geniusDiscountLabel":null,"badge":null},{"code":"100046491","variantCode":"5941218004860","name":"Salată valeriană ecologică 100g","slug":"100046491-eisberg-salata-valeriana-ecologica-100g","unitPriceLabel":"54,9 Lei/kg","brand":"Eisberg","brandCode":"232","brandFilterCode":"eisberg-b233","sku":"100046491","price":5.49,"originalPrice":null,"currencyCode":"RON","currency":"Lei","image":{"thumbnail":{"default":"https://cdn.freshful.ro/media/cache/sylius_shop_product_thumbnail/39/9b/6254839cb8d4a80e71176758a7fb.jpg"},"large":{"default":"https://cdn.freshful.ro/media/cache/freshful_large/39/9b/6254839cb8d4a80e71176758a7fb.jpg"},"extralarge":{"default":"https://cdn.freshful.ro/media/cache/sylius_shop_product_original/39/9b/6254839cb8d4a80e71176758a7fb.jpg"}},"label":null,"tags":[{"type":"Eco","text":"Eco","icon":"https://cdn.freshful.ro/assets/product_tags/eco.svg","iconPng":"https://cdn.freshful.ro/assets/product_tags/eco.png","backgroundColor":"#EFFBE4","textColor":"#66BB1B"}],"isAvailable":true,"maxAvailableQuantity":50,"maxAllowedQuantity":100,"breadcrumbs":[{"code":"3","name":"Fructe & legume","slug":"3-fructe-si-legume"},{"code":"303","name":"Verdețuri și ierburi aromatice","slug":"303-verdeturi-si-plante-aromatice"},{"code":"30301","name":"Salate","slug":"30301-salate"},{"code":"100046491","name":"Salată valeriană ecologică 100g","slug":"100046491-eisberg-salata-valeriana-ecologica-100g"}],"activePromotion":null,"saveMe":null,"labels":[],"geniusPrice":null,"geniusUnitPricePerLabel":null,"banner":null,"discountLabel":null,"geniusDiscountLabel":null,"badge":null}],"filters":{"countSelected":0,"items":[{"code":"promotion","name":"Promoții","countSelected":0,"values":[{"code":"bunatatile-saptamanii-cw0923","name":"Oferta proaspătă a săptămânii","isSelected":false,"count":2}]},{"code":"brand","name":"Brand","countSelected":0,"values":[{"code":"coral-biogreens-b336","name":"Coral Biogreens","isSelected":false,"count":11},{"code":"eisberg-b233","name":"Eisberg","isSelected":false,"count":11},{"code":"ikombucha-b3074","name":"iKombucha","isSelected":false,"count":1},{"code":"microgreens-b1261","name":"Microgreens","isSelected":false,"count":7},{"code":"oliveris-b707","name":"Oliveris","isSelected":false,"count":5},{"code":"roua-organic-b1834","name":"Roua Organic","isSelected":false,"count":1},{"code":"terra-verde-b2338","name":"Terra Verde","isSelected":false,"count":4}]},{"code":"diet_lifestyle","name":"Dietă și lifestyle","countSelected":0,"values":[{"code":"eco-a83","name":"Eco","isSelected":false,"count":9},{"code":"made-in-romania-a85","name":"Made In Romania","isSelected":false,"count":27},{"code":"natural-a27","name":"Natural","isSelected":false,"count":6}]}]},"orderBy":[{"field":"price","direction":"asc","name":"Preț crescător","isSelected":false},{"field":"price","direction":"desc","name":"Preț descrescător","isSelected":false},{"field":"popularity","direction":"desc","name":"Cele mai populare","isSelected":true},{"field":"category","direction":"asc","name":"Categorie","isSelected":false}],"metaTitle":"Verdețuri și ierburi aromatice - Gamă variată","metaDescription":"Vrei Verdețuri și ierburi aromatice? Alege dintr-o gamă variată. Comanzi simplu și ai livrare rapidă, calitate și prospețime. Hai pe Freshful.ro","metaKeywords":null,"banners":[]}}