{"type":"subcategory","payload":{"analyticsListId":"category_304-fructe-uscate-crude","analyticsListName":"Category - Fructe și legume uscate","name":"Fructe și legume uscate","slug":"304-fructe-uscate-crude","image":null,"breadcrumbs":[{"code":"3","name":"Fructe & legume","slug":"3-fructe-si-legume"},{"code":"304","name":"Fructe și legume uscate","slug":"304-fructe-uscate-crude"}],"slots":[],"page":1,"limit":10,"pages":8,"count":80,"siblings":[{"name":"Fructe proaspete","slug":"301-fructe-proaspete","selected":false},{"name":"Legume proaspete","slug":"302-legume-proaspete","selected":false},{"name":"Verdețuri și ierburi aromatice","slug":"303-verdeturi-si-plante-aromatice","selected":false},{"name":"Fructe și legume uscate","slug":"304-fructe-uscate-crude","selected":true},{"name":"Sucuri naturale","slug":"305-sucuri-naturale","selected":false}],"children":[{"name":"Toate produsele","slug":"304-fructe-uscate-crude","selected":true},{"name":"Nuci și semințe","slug":"30401-fructe-uscate","selected":false},{"name":"Fructe deshidratate și confiate","slug":"30402-fructe-deshidratate-si-confiate","selected":false},{"name":"Legume deshidratate","slug":"legume-deshidratate","selected":false}],"products":[{"code":"100093742","variantCode":"5941232412504","name":"Semințe chia ecologice 200g","slug":"100093742-driedfruits-seminte-chia-ecologice-200g","unitPriceLabel":"43,45 Lei/kg","brand":"Driedfruits","brandCode":"354","brandFilterCode":"driedfruits-b355","sku":"100093742","price":8.69,"originalPrice":10.99,"currencyCode":"RON","currency":"Lei","image":{"thumbnail":{"default":"https://cdn.freshful.ro/media/cache/sylius_shop_product_thumbnail/a0/1e/757b42da3fe9e2f9a61d6e0ce0c9.jpg"},"large":{"default":"https://cdn.freshful.ro/media/cache/freshful_large/a0/1e/757b42da3fe9e2f9a61d6e0ce0c9.jpg"},"extralarge":{"default":"https://cdn.freshful.ro/media/cache/sylius_shop_product_original/a0/1e/757b42da3fe9e2f9a61d6e0ce0c9.jpg"}},"label":{"text":"-20%","backgroundColor":"#FF9903","textColor":"#FFFFFF"},"tags":[{"type":"Eco","text":"Eco","icon":"https://cdn.freshful.ro/assets/product_tags/eco.svg","iconPng":"https://cdn.freshful.ro/assets/product_tags/eco.png","backgroundColor":"#EFFBE4","textColor":"#66BB1B"}],"isAvailable":true,"maxAvailableQuantity":60,"maxAllowedQuantity":100,"breadcrumbs":[{"code":"3","name":"Fructe & legume","slug":"3-fructe-si-legume"},{"code":"304","name":"Fructe și legume uscate","slug":"304-fructe-uscate-crude"},{"code":"30401","name":"Nuci și semințe","slug":"30401-fructe-uscate"},{"code":"100093742","name":"Semințe chia ecologice 200g","slug":"100093742-driedfruits-seminte-chia-ecologice-200g"}],"activePromotion":{"code":"bunatatile-saptamanii-cw0923","name":"Preț redus","targetQuantity":null},"saveMe":null,"labels":[{"type":"v1","items":[{"text":"-20%","backgroundColor":"#FF9903","textColor":"#FFFFFF"}]}],"geniusPrice":null,"geniusUnitPricePerLabel":null,"banner":{"text":"Super preț","textColor":"#FF0000","bgColor":"#FFF2EC","icon":null,"link":"https://www.freshful.ro/oferte/bunatatile-saptamanii-cw0923","type":"promo","analyticsEventType":"select_promotion","analyticsEventPayload":{"promotion_id":"bunatatile-saptamanii-cw0923","promotion_name":"Oferta proaspătă a săptămânii"}},"discountLabel":"Economisești 20%","geniusDiscountLabel":null,"badge":null},{"code":"100093753","variantCode":"5941232421643","name":"Prune deshidratate fără sâmbure 500g","slug":"100093753-driedfruits-prune-deshidratate-fara-sambure-500g","unitPriceLabel":"32,15 Lei/kg","brand":"Driedfruits","brandCode":"354","brandFilterCode":"driedfruits-b355","sku":"100093753","price":19.29,"originalPrice":21.49,"currencyCode":"RON","currency":"Lei","image":{"thumbnail":{"default":"https://cdn.freshful.ro/media/cache/sylius_shop_product_thumbnail/b2/96/4668d350c79e68c7f7c0672a1978.jpg"},"large":{"default":"https://cdn.freshful.ro/media/cache/freshful_large/b2/96/4668d350c79e68c7f7c0672a1978.jpg"},"extralarge":{"default":"https://cdn.freshful.ro/media/cache/sylius_shop_product_original/b2/96/4668d350c79e68c7f7c0672a1978.jpg"}},"label":{"text":"-10%","backgroundColor":"#FF9903","textColor":"#FFFFFF"},"tags":[],"isAvailable":true,"maxAvailableQuantity":96,"maxAllowedQuantity":100,"breadcrumbs":[{"code":"3","name":"Fructe & legume","slug":"3-fructe-si-legume"},{"code":"304","name":"Fructe și legume uscate","slug":"304-fructe-uscate-crude"},{"code":"30402","name":"Fructe deshidratate și confiate","slug":"30402-fructe-deshidratate-si-confiate"},{"code":"100093753","name":"Prune deshidratate fără sâmbure 500g","slug":"100093753-driedfruits-prune-deshidratate-fara-sambure-500g"}],"activePromotion":{"code":"bunatatile-saptamanii-cw0923","name":"Preț redus","targetQuantity":null},"saveMe":null,"labels":[{"type":"v1","items":[{"text":"-10%","backgroundColor":"#FF9903","textColor":"#FFFFFF"}]}],"geniusPrice":null,"geniusUnitPricePerLabel":null,"banner":{"text":"Super preț","textColor":"#FF0000","bgColor":"#FFF2EC","icon":null,"link":"https://www.freshful.ro/oferte/bunatatile-saptamanii-cw0923","type":"promo","analyticsEventType":"select_promotion","analyticsEventPayload":{"promotion_id":"bunatatile-saptamanii-cw0923","promotion_name":"Oferta proaspătă a săptămânii"}},"discountLabel":"Economisești 10%","geniusDiscountLabel":null,"badge":null},{"code":"100093738","variantCode":"5941232423715","name":"Nuci pecan 100g","slug":"100093738-driedfruits-nuci-pecan-100g","unitPriceLabel":"159 Lei/kg","brand":"Driedfruits","brandCode":"354","brandFilterCode":"driedfruits-b355","sku":"100093738","price":17.49,"originalPrice":22,"currencyCode":"RON","currency":"Lei","image":{"thumbnail":{"default":"https://cdn.freshful.ro/media/cache/sylius_shop_product_thumbnail/7a/eb/634f73c51791197c55125227ca01.jpg"},"large":{"default":"https://cdn.freshful.ro/media/cache/freshful_large/7a/eb/634f73c51791197c55125227ca01.jpg"},"extralarge":{"default":"https://cdn.freshful.ro/media/cache/sylius_shop_product_original/7a/eb/634f73c51791197c55125227ca01.jpg"}},"label":{"text":"-20%","backgroundColor":"#FF9903","textColor":"#FFFFFF"},"tags":[],"isAvailable":true,"maxAvailableQuantity":100,"maxAllowedQuantity":100,"breadcrumbs":[{"code":"3","name":"Fructe & legume","slug":"3-fructe-si-legume"},{"code":"304","name":"Fructe și legume uscate","slug":"304-fructe-uscate-crude"},{"code":"30401","name":"Nuci și semințe","slug":"30401-fructe-uscate"},{"code":"100093738","name":"Nuci pecan 100g","slug":"100093738-driedfruits-nuci-pecan-100g"}],"activePromotion":{"code":"bunatatile-saptamanii-cw0923","name":"Preț redus","targetQuantity":null},"saveMe":null,"labels":[{"type":"v1","items":[{"text":"-20%","backgroundColor":"#FF9903","textColor":"#FFFFFF"}]}],"geniusPrice":null,"geniusUnitPricePerLabel":null,"banner":{"text":"Super preț","textColor":"#FF0000","bgColor":"#FFF2EC","icon":null,"link":"https://www.freshful.ro/oferte/bunatatile-saptamanii-cw0923","type":"promo","analyticsEventType":"select_promotion","analyticsEventPayload":{"promotion_id":"bunatatile-saptamanii-cw0923","promotion_name":"Oferta proaspătă a săptămânii"}},"discountLabel":"Economisești 20%","geniusDiscountLabel":null,"badge":null},{"code":"100093752","variantCode":"5941232411798","name":"Curmale deshidratate ecologice 200g","slug":"100093752-driedfruits-curmale-deshidratate-ecologice-200g","unitPriceLabel":"35,67 Lei/kg","brand":"Driedfruits","brandCode":"354","brandFilterCode":"driedfruits-b355","sku":"100093752","price":7.49,"originalPrice":null,"currencyCode":"RON","currency":"Lei","image":{"thumbnail":{"default":"https://cdn.freshful.ro/media/cache/sylius_shop_product_thumbnail/b5/cd/5374efbc019546f01afb390221f1.jpg"},"large":{"default":"https://cdn.freshful.ro/media/cache/freshful_large/b5/cd/5374efbc019546f01afb390221f1.jpg"},"extralarge":{"default":"https://cdn.freshful.ro/media/cache/sylius_shop_product_original/b5/cd/5374efbc019546f01afb390221f1.jpg"}},"label":null,"tags":[{"type":"Eco","text":"Eco","icon":"https://cdn.freshful.ro/assets/product_tags/eco.svg","iconPng":"https://cdn.freshful.ro/assets/product_tags/eco.png","backgroundColor":"#EFFBE4","textColor":"#66BB1B"}],"isAvailable":true,"maxAvailableQuantity":67,"maxAllowedQuantity":100,"breadcrumbs":[{"code":"3","name":"Fructe & legume","slug":"3-fructe-si-legume"},{"code":"304","name":"Fructe și legume uscate","slug":"304-fructe-uscate-crude"},{"code":"30402","name":"Fructe deshidratate și confiate","slug":"30402-fructe-deshidratate-si-confiate"},{"code":"100093752","name":"Curmale deshidratate ecologice 200g","slug":"100093752-driedfruits-curmale-deshidratate-ecologice-200g"}],"activePromotion":null,"saveMe":null,"labels":[],"geniusPrice":null,"geniusUnitPricePerLabel":null,"banner":null,"discountLabel":null,"geniusDiscountLabel":null,"badge":null},{"code":"100093758","variantCode":"5941232409566","name":"Stafide brune ecologice 200g","slug":"100093758-driedfruits-stafide-brune-ecologice-200g","unitPriceLabel":"38,05 Lei/kg","brand":"Driedfruits","brandCode":"354","brandFilterCode":"driedfruits-b355","sku":"100093758","price":7.99,"originalPrice":null,"currencyCode":"RON","currency":"Lei","image":{"thumbnail":{"default":"https://cdn.freshful.ro/media/cache/sylius_shop_product_thumbnail/25/5f/d9247c08afea6883468be3d71e51.jpg"},"large":{"default":"https://cdn.freshful.ro/media/cache/freshful_large/25/5f/d9247c08afea6883468be3d71e51.jpg"},"extralarge":{"default":"https://cdn.freshful.ro/media/cache/sylius_shop_product_original/25/5f/d9247c08afea6883468be3d71e51.jpg"}},"label":null,"tags":[{"type":"Eco","text":"Eco","icon":"https://cdn.freshful.ro/assets/product_tags/eco.svg","iconPng":"https://cdn.freshful.ro/assets/product_tags/eco.png","backgroundColor":"#EFFBE4","textColor":"#66BB1B"}],"isAvailable":true,"maxAvailableQuantity":22,"maxAllowedQuantity":100,"breadcrumbs":[{"code":"3","name":"Fructe & legume","slug":"3-fructe-si-legume"},{"code":"304","name":"Fructe și legume uscate","slug":"304-fructe-uscate-crude"},{"code":"30402","name":"Fructe deshidratate și confiate","slug":"30402-fructe-deshidratate-si-confiate"},{"code":"100093758","name":"Stafide brune ecologice 200g","slug":"100093758-driedfruits-stafide-brune-ecologice-200g"}],"activePromotion":null,"saveMe":null,"labels":[],"geniusPrice":null,"geniusUnitPricePerLabel":null,"banner":null,"discountLabel":null,"geniusDiscountLabel":null,"badge":null},{"code":"100093734","variantCode":"5941232414805","name":"Migdale crude ecologice 100g","slug":"100093734-driedfruits-migdale-crude-ecologice-100g","unitPriceLabel":"145,36 Lei/kg","brand":"Driedfruits","brandCode":"354","brandFilterCode":"driedfruits-b355","sku":"100093734","price":15.99,"originalPrice":null,"currencyCode":"RON","currency":"Lei","image":{"thumbnail":{"default":"https://cdn.freshful.ro/media/cache/sylius_shop_product_thumbnail/4b/32/90ef6ce6069d6fde570f8b86ed66.jpg"},"large":{"default":"https://cdn.freshful.ro/media/cache/freshful_large/4b/32/90ef6ce6069d6fde570f8b86ed66.jpg"},"extralarge":{"default":"https://cdn.freshful.ro/media/cache/sylius_shop_product_original/4b/32/90ef6ce6069d6fde570f8b86ed66.jpg"}},"label":null,"tags":[{"type":"Eco","text":"Eco","icon":"https://cdn.freshful.ro/assets/product_tags/eco.svg","iconPng":"https://cdn.freshful.ro/assets/product_tags/eco.png","backgroundColor":"#EFFBE4","textColor":"#66BB1B"}],"isAvailable":true,"maxAvailableQuantity":100,"maxAllowedQuantity":100,"breadcrumbs":[{"code":"3","name":"Fructe & legume","slug":"3-fructe-si-legume"},{"code":"304","name":"Fructe și legume uscate","slug":"304-fructe-uscate-crude"},{"code":"30401","name":"Nuci și semințe","slug":"30401-fructe-uscate"},{"code":"100093734","name":"Migdale crude ecologice 100g","slug":"100093734-driedfruits-migdale-crude-ecologice-100g"}],"activePromotion":null,"saveMe":null,"labels":[],"geniusPrice":null,"geniusUnitPricePerLabel":null,"banner":null,"discountLabel":null,"geniusDiscountLabel":null,"badge":null},{"code":"100148560","variantCode":"100148560","name":"Migdale crude în coajă 200g","slug":"100148560-bunatati-cu-gust-migdale-crude-in-coaja-200g","unitPriceLabel":"64,95 Lei/kg","brand":"Bunătăți cu gust","brandCode":"320","brandFilterCode":"bunatati-cu-gust-b321","sku":"100148560","price":12.99,"originalPrice":null,"currencyCode":"RON","currency":"Lei","image":{"thumbnail":{"default":"https://cdn.freshful.ro/media/cache/sylius_shop_product_thumbnail/15/81/47a9e8dc568094ce62aaba85c0dd.jpg"},"large":{"default":"https://cdn.freshful.ro/media/cache/freshful_large/15/81/47a9e8dc568094ce62aaba85c0dd.jpg"},"extralarge":{"default":"https://cdn.freshful.ro/media/cache/sylius_shop_product_original/15/81/47a9e8dc568094ce62aaba85c0dd.jpg"}},"label":null,"tags":[],"isAvailable":true,"maxAvailableQuantity":82,"maxAllowedQuantity":100,"breadcrumbs":[{"code":"3","name":"Fructe & legume","slug":"3-fructe-si-legume"},{"code":"304","name":"Fructe și legume uscate","slug":"304-fructe-uscate-crude"},{"code":"30401","name":"Nuci și semințe","slug":"30401-fructe-uscate"},{"code":"100148560","name":"Migdale crude în coajă 200g","slug":"100148560-bunatati-cu-gust-migdale-crude-in-coaja-200g"}],"activePromotion":null,"saveMe":null,"labels":[],"geniusPrice":null,"geniusUnitPricePerLabel":null,"banner":null,"discountLabel":null,"geniusDiscountLabel":null,"badge":null},{"code":"100098013","variantCode":"5941232423814","name":"Susan 100g","slug":"100098013-driedfruits-susan-100g","unitPriceLabel":"54,45 Lei/kg","brand":"Driedfruits","brandCode":"354","brandFilterCode":"driedfruits-b355","sku":"100098013","price":5.99,"originalPrice":null,"currencyCode":"RON","currency":"Lei","image":{"thumbnail":{"default":"https://cdn.freshful.ro/media/cache/sylius_shop_product_thumbnail/e0/70/1326c2901ce5a6528a9f2ccd4438.jpg"},"large":{"default":"https://cdn.freshful.ro/media/cache/freshful_large/e0/70/1326c2901ce5a6528a9f2ccd4438.jpg"},"extralarge":{"default":"https://cdn.freshful.ro/media/cache/sylius_shop_product_original/e0/70/1326c2901ce5a6528a9f2ccd4438.jpg"}},"label":null,"tags":[],"isAvailable":true,"maxAvailableQuantity":80,"maxAllowedQuantity":100,"breadcrumbs":[{"code":"3","name":"Fructe & legume","slug":"3-fructe-si-legume"},{"code":"304","name":"Fructe și legume uscate","slug":"304-fructe-uscate-crude"},{"code":"30401","name":"Nuci și semințe","slug":"30401-fructe-uscate"},{"code":"100098013","name":"Susan 100g","slug":"100098013-driedfruits-susan-100g"}],"activePromotion":null,"saveMe":null,"labels":[],"geniusPrice":null,"geniusUnitPricePerLabel":null,"banner":null,"discountLabel":null,"geniusDiscountLabel":null,"badge":null},{"code":"100148556","variantCode":"100148556","name":"Alune de pădure crude 200g","slug":"100148556-bunatati-cu-gust-alune-de-padure-crude-200g","unitPriceLabel":"79,95 Lei/kg","brand":"Bunătăți cu gust","brandCode":"320","brandFilterCode":"bunatati-cu-gust-b321","sku":"100148556","price":15.99,"originalPrice":null,"currencyCode":"RON","currency":"Lei","image":{"thumbnail":{"default":"https://cdn.freshful.ro/media/cache/sylius_shop_product_thumbnail/ec/e3/a9eb09e3ee7551bb63a640100a89.jpg"},"large":{"default":"https://cdn.freshful.ro/media/cache/freshful_large/ec/e3/a9eb09e3ee7551bb63a640100a89.jpg"},"extralarge":{"default":"https://cdn.freshful.ro/media/cache/sylius_shop_product_original/ec/e3/a9eb09e3ee7551bb63a640100a89.jpg"}},"label":null,"tags":[],"isAvailable":true,"maxAvailableQuantity":45,"maxAllowedQuantity":100,"breadcrumbs":[{"code":"3","name":"Fructe & legume","slug":"3-fructe-si-legume"},{"code":"304","name":"Fructe și legume uscate","slug":"304-fructe-uscate-crude"},{"code":"30401","name":"Nuci și semințe","slug":"30401-fructe-uscate"},{"code":"100148556","name":"Alune de pădure crude 200g","slug":"100148556-bunatati-cu-gust-alune-de-padure-crude-200g"}],"activePromotion":null,"saveMe":null,"labels":[],"geniusPrice":null,"geniusUnitPricePerLabel":null,"banner":null,"discountLabel":null,"geniusDiscountLabel":null,"badge":null},{"code":"100093761","variantCode":"5941232409429","name":"Banana chips 100g","slug":"100093761-driedfruits-banana-chips-100g","unitPriceLabel":"31,73 Lei/kg","brand":"Driedfruits","brandCode":"354","brandFilterCode":"driedfruits-b355","sku":"100093761","price":3.49,"originalPrice":null,"currencyCode":"RON","currency":"Lei","image":{"thumbnail":{"default":"https://cdn.freshful.ro/media/cache/sylius_shop_product_thumbnail/2a/87/9ebdff9b6c830b58d19a1ee0cee7.jpg"},"large":{"default":"https://cdn.freshful.ro/media/cache/freshful_large/2a/87/9ebdff9b6c830b58d19a1ee0cee7.jpg"},"extralarge":{"default":"https://cdn.freshful.ro/media/cache/sylius_shop_product_original/2a/87/9ebdff9b6c830b58d19a1ee0cee7.jpg"}},"label":null,"tags":[],"isAvailable":true,"maxAvailableQuantity":89,"maxAllowedQuantity":100,"breadcrumbs":[{"code":"3","name":"Fructe & legume","slug":"3-fructe-si-legume"},{"code":"304","name":"Fructe și legume uscate","slug":"304-fructe-uscate-crude"},{"code":"30402","name":"Fructe deshidratate și confiate","slug":"30402-fructe-deshidratate-si-confiate"},{"code":"100093761","name":"Banana chips 100g","slug":"100093761-driedfruits-banana-chips-100g"}],"activePromotion":null,"saveMe":null,"labels":[],"geniusPrice":null,"geniusUnitPricePerLabel":null,"banner":null,"discountLabel":null,"geniusDiscountLabel":null,"badge":null}],"filters":{"countSelected":0,"items":[{"code":"promotion","name":"Promoții","countSelected":0,"values":[{"code":"bunatatile-saptamanii-cw0923","name":"Oferta proaspătă a săptămânii","isSelected":false,"count":3}]},{"code":"brand","name":"Brand","countSelected":0,"values":[{"code":"bunatati-cu-gust-b321","name":"Bunătăți cu gust","isSelected":false,"count":14},{"code":"dr-ensa-b1100","name":"Dr.Ensa","isSelected":false,"count":4},{"code":"driedfruits-b355","name":"Driedfruits","isSelected":false,"count":31},{"code":"fruvit-b3068","name":"Fruvit","isSelected":false,"count":6},{"code":"lyolife-b242","name":"Lyolife","isSelected":false,"count":4},{"code":"pomul-regal-b3067","name":"Pomul Regal","isSelected":false,"count":3},{"code":"pronat-b913","name":"Pronat","isSelected":false,"count":1}]},{"code":"diet_lifestyle","name":"Dietă și lifestyle","countSelected":0,"values":[{"code":"eco-a83","name":"Eco","isSelected":false,"count":12},{"code":"fara-zahar-adaugat-a29","name":"Fara zahar adaugat","isSelected":false,"count":5},{"code":"made-in-romania-a85","name":"Made In Romania","isSelected":false,"count":3},{"code":"natural-a27","name":"Natural","isSelected":false,"count":11}]}]},"orderBy":[{"field":"price","direction":"asc","name":"Preț crescător","isSelected":false},{"field":"price","direction":"desc","name":"Preț descrescător","isSelected":false},{"field":"popularity","direction":"desc","name":"Cele mai populare","isSelected":true},{"field":"category","direction":"asc","name":"Categorie","isSelected":false}],"metaTitle":"Fructe și legume uscate - Gamă variată","metaDescription":"Vrei Fructe și legume uscate? Alege dintr-o gamă variată. Comanzi simplu și ai livrare rapidă, calitate și prospețime. Hai pe Freshful.ro","metaKeywords":null,"banners":[]}}