{"type":"subcategory","payload":{"analyticsListId":"category_30401-fructe-uscate","analyticsListName":"Category - Nuci și semințe","name":"Nuci și semințe","slug":"30401-fructe-uscate","image":null,"breadcrumbs":[{"code":"3","name":"Fructe & legume","slug":"3-fructe-si-legume"},{"code":"304","name":"Fructe și legume uscate","slug":"304-fructe-uscate-crude"},{"code":"30401","name":"Nuci și semințe","slug":"30401-fructe-uscate"}],"slots":[],"page":1,"limit":10,"pages":5,"count":45,"siblings":[{"name":"Fructe proaspete","slug":"301-fructe-proaspete","selected":false},{"name":"Legume proaspete","slug":"302-legume-proaspete","selected":false},{"name":"Verdețuri și ierburi aromatice","slug":"303-verdeturi-si-plante-aromatice","selected":false},{"name":"Fructe și legume uscate","slug":"304-fructe-uscate-crude","selected":true},{"name":"Sucuri naturale","slug":"305-sucuri-naturale","selected":false}],"children":[{"name":"Toate produsele","slug":"304-fructe-uscate-crude","selected":false},{"name":"Nuci și semințe","slug":"30401-fructe-uscate","selected":true},{"name":"Fructe deshidratate și confiate","slug":"30402-fructe-deshidratate-si-confiate","selected":false},{"name":"Legume deshidratate","slug":"legume-deshidratate","selected":false}],"products":[{"code":"100093742","variantCode":"5941232412504","name":"Semințe chia ecologice 200g","slug":"100093742-driedfruits-seminte-chia-ecologice-200g","unitPriceLabel":"43,45 Lei/kg","brand":"Driedfruits","brandCode":"354","brandFilterCode":"driedfruits-b355","sku":"100093742","price":8.69,"originalPrice":10.99,"currencyCode":"RON","currency":"Lei","image":{"thumbnail":{"default":"https://cdn.freshful.ro/media/cache/sylius_shop_product_thumbnail/a0/1e/757b42da3fe9e2f9a61d6e0ce0c9.jpg"},"large":{"default":"https://cdn.freshful.ro/media/cache/freshful_large/a0/1e/757b42da3fe9e2f9a61d6e0ce0c9.jpg"},"extralarge":{"default":"https://cdn.freshful.ro/media/cache/sylius_shop_product_original/a0/1e/757b42da3fe9e2f9a61d6e0ce0c9.jpg"}},"label":{"text":"-20%","backgroundColor":"#FF9903","textColor":"#FFFFFF"},"tags":[{"type":"Eco","text":"Eco","icon":"https://cdn.freshful.ro/assets/product_tags/eco.svg","iconPng":"https://cdn.freshful.ro/assets/product_tags/eco.png","backgroundColor":"#EFFBE4","textColor":"#66BB1B"}],"isAvailable":true,"maxAvailableQuantity":60,"maxAllowedQuantity":100,"breadcrumbs":[{"code":"3","name":"Fructe & legume","slug":"3-fructe-si-legume"},{"code":"304","name":"Fructe și legume uscate","slug":"304-fructe-uscate-crude"},{"code":"30401","name":"Nuci și semințe","slug":"30401-fructe-uscate"},{"code":"100093742","name":"Semințe chia ecologice 200g","slug":"100093742-driedfruits-seminte-chia-ecologice-200g"}],"activePromotion":{"code":"bunatatile-saptamanii-cw0923","name":"Preț redus","targetQuantity":null},"saveMe":null,"labels":[{"type":"v1","items":[{"text":"-20%","backgroundColor":"#FF9903","textColor":"#FFFFFF"}]}],"geniusPrice":null,"geniusUnitPricePerLabel":null,"banner":{"text":"Super preț","textColor":"#FF0000","bgColor":"#FFF2EC","icon":null,"link":"https://www.freshful.ro/oferte/bunatatile-saptamanii-cw0923","type":"promo","analyticsEventType":"select_promotion","analyticsEventPayload":{"promotion_id":"bunatatile-saptamanii-cw0923","promotion_name":"Oferta proaspătă a săptămânii"}},"discountLabel":"Economisești 20%","geniusDiscountLabel":null,"badge":null},{"code":"100093738","variantCode":"5941232423715","name":"Nuci pecan 100g","slug":"100093738-driedfruits-nuci-pecan-100g","unitPriceLabel":"159 Lei/kg","brand":"Driedfruits","brandCode":"354","brandFilterCode":"driedfruits-b355","sku":"100093738","price":17.49,"originalPrice":22,"currencyCode":"RON","currency":"Lei","image":{"thumbnail":{"default":"https://cdn.freshful.ro/media/cache/sylius_shop_product_thumbnail/7a/eb/634f73c51791197c55125227ca01.jpg"},"large":{"default":"https://cdn.freshful.ro/media/cache/freshful_large/7a/eb/634f73c51791197c55125227ca01.jpg"},"extralarge":{"default":"https://cdn.freshful.ro/media/cache/sylius_shop_product_original/7a/eb/634f73c51791197c55125227ca01.jpg"}},"label":{"text":"-20%","backgroundColor":"#FF9903","textColor":"#FFFFFF"},"tags":[],"isAvailable":true,"maxAvailableQuantity":100,"maxAllowedQuantity":100,"breadcrumbs":[{"code":"3","name":"Fructe & legume","slug":"3-fructe-si-legume"},{"code":"304","name":"Fructe și legume uscate","slug":"304-fructe-uscate-crude"},{"code":"30401","name":"Nuci și semințe","slug":"30401-fructe-uscate"},{"code":"100093738","name":"Nuci pecan 100g","slug":"100093738-driedfruits-nuci-pecan-100g"}],"activePromotion":{"code":"bunatatile-saptamanii-cw0923","name":"Preț redus","targetQuantity":null},"saveMe":null,"labels":[{"type":"v1","items":[{"text":"-20%","backgroundColor":"#FF9903","textColor":"#FFFFFF"}]}],"geniusPrice":null,"geniusUnitPricePerLabel":null,"banner":{"text":"Super preț","textColor":"#FF0000","bgColor":"#FFF2EC","icon":null,"link":"https://www.freshful.ro/oferte/bunatatile-saptamanii-cw0923","type":"promo","analyticsEventType":"select_promotion","analyticsEventPayload":{"promotion_id":"bunatatile-saptamanii-cw0923","promotion_name":"Oferta proaspătă a săptămânii"}},"discountLabel":"Economisești 20%","geniusDiscountLabel":null,"badge":null},{"code":"100093734","variantCode":"5941232414805","name":"Migdale crude ecologice 100g","slug":"100093734-driedfruits-migdale-crude-ecologice-100g","unitPriceLabel":"145,36 Lei/kg","brand":"Driedfruits","brandCode":"354","brandFilterCode":"driedfruits-b355","sku":"100093734","price":15.99,"originalPrice":null,"currencyCode":"RON","currency":"Lei","image":{"thumbnail":{"default":"https://cdn.freshful.ro/media/cache/sylius_shop_product_thumbnail/4b/32/90ef6ce6069d6fde570f8b86ed66.jpg"},"large":{"default":"https://cdn.freshful.ro/media/cache/freshful_large/4b/32/90ef6ce6069d6fde570f8b86ed66.jpg"},"extralarge":{"default":"https://cdn.freshful.ro/media/cache/sylius_shop_product_original/4b/32/90ef6ce6069d6fde570f8b86ed66.jpg"}},"label":null,"tags":[{"type":"Eco","text":"Eco","icon":"https://cdn.freshful.ro/assets/product_tags/eco.svg","iconPng":"https://cdn.freshful.ro/assets/product_tags/eco.png","backgroundColor":"#EFFBE4","textColor":"#66BB1B"}],"isAvailable":true,"maxAvailableQuantity":100,"maxAllowedQuantity":100,"breadcrumbs":[{"code":"3","name":"Fructe & legume","slug":"3-fructe-si-legume"},{"code":"304","name":"Fructe și legume uscate","slug":"304-fructe-uscate-crude"},{"code":"30401","name":"Nuci și semințe","slug":"30401-fructe-uscate"},{"code":"100093734","name":"Migdale crude ecologice 100g","slug":"100093734-driedfruits-migdale-crude-ecologice-100g"}],"activePromotion":null,"saveMe":null,"labels":[],"geniusPrice":null,"geniusUnitPricePerLabel":null,"banner":null,"discountLabel":null,"geniusDiscountLabel":null,"badge":null},{"code":"100148560","variantCode":"100148560","name":"Migdale crude în coajă 200g","slug":"100148560-bunatati-cu-gust-migdale-crude-in-coaja-200g","unitPriceLabel":"64,95 Lei/kg","brand":"Bunătăți cu gust","brandCode":"320","brandFilterCode":"bunatati-cu-gust-b321","sku":"100148560","price":12.99,"originalPrice":null,"currencyCode":"RON","currency":"Lei","image":{"thumbnail":{"default":"https://cdn.freshful.ro/media/cache/sylius_shop_product_thumbnail/15/81/47a9e8dc568094ce62aaba85c0dd.jpg"},"large":{"default":"https://cdn.freshful.ro/media/cache/freshful_large/15/81/47a9e8dc568094ce62aaba85c0dd.jpg"},"extralarge":{"default":"https://cdn.freshful.ro/media/cache/sylius_shop_product_original/15/81/47a9e8dc568094ce62aaba85c0dd.jpg"}},"label":null,"tags":[],"isAvailable":true,"maxAvailableQuantity":82,"maxAllowedQuantity":100,"breadcrumbs":[{"code":"3","name":"Fructe & legume","slug":"3-fructe-si-legume"},{"code":"304","name":"Fructe și legume uscate","slug":"304-fructe-uscate-crude"},{"code":"30401","name":"Nuci și semințe","slug":"30401-fructe-uscate"},{"code":"100148560","name":"Migdale crude în coajă 200g","slug":"100148560-bunatati-cu-gust-migdale-crude-in-coaja-200g"}],"activePromotion":null,"saveMe":null,"labels":[],"geniusPrice":null,"geniusUnitPricePerLabel":null,"banner":null,"discountLabel":null,"geniusDiscountLabel":null,"badge":null},{"code":"100098013","variantCode":"5941232423814","name":"Susan 100g","slug":"100098013-driedfruits-susan-100g","unitPriceLabel":"54,45 Lei/kg","brand":"Driedfruits","brandCode":"354","brandFilterCode":"driedfruits-b355","sku":"100098013","price":5.99,"originalPrice":null,"currencyCode":"RON","currency":"Lei","image":{"thumbnail":{"default":"https://cdn.freshful.ro/media/cache/sylius_shop_product_thumbnail/e0/70/1326c2901ce5a6528a9f2ccd4438.jpg"},"large":{"default":"https://cdn.freshful.ro/media/cache/freshful_large/e0/70/1326c2901ce5a6528a9f2ccd4438.jpg"},"extralarge":{"default":"https://cdn.freshful.ro/media/cache/sylius_shop_product_original/e0/70/1326c2901ce5a6528a9f2ccd4438.jpg"}},"label":null,"tags":[],"isAvailable":true,"maxAvailableQuantity":80,"maxAllowedQuantity":100,"breadcrumbs":[{"code":"3","name":"Fructe & legume","slug":"3-fructe-si-legume"},{"code":"304","name":"Fructe și legume uscate","slug":"304-fructe-uscate-crude"},{"code":"30401","name":"Nuci și semințe","slug":"30401-fructe-uscate"},{"code":"100098013","name":"Susan 100g","slug":"100098013-driedfruits-susan-100g"}],"activePromotion":null,"saveMe":null,"labels":[],"geniusPrice":null,"geniusUnitPricePerLabel":null,"banner":null,"discountLabel":null,"geniusDiscountLabel":null,"badge":null},{"code":"100148556","variantCode":"100148556","name":"Alune de pădure crude 200g","slug":"100148556-bunatati-cu-gust-alune-de-padure-crude-200g","unitPriceLabel":"79,95 Lei/kg","brand":"Bunătăți cu gust","brandCode":"320","brandFilterCode":"bunatati-cu-gust-b321","sku":"100148556","price":15.99,"originalPrice":null,"currencyCode":"RON","currency":"Lei","image":{"thumbnail":{"default":"https://cdn.freshful.ro/media/cache/sylius_shop_product_thumbnail/ec/e3/a9eb09e3ee7551bb63a640100a89.jpg"},"large":{"default":"https://cdn.freshful.ro/media/cache/freshful_large/ec/e3/a9eb09e3ee7551bb63a640100a89.jpg"},"extralarge":{"default":"https://cdn.freshful.ro/media/cache/sylius_shop_product_original/ec/e3/a9eb09e3ee7551bb63a640100a89.jpg"}},"label":null,"tags":[],"isAvailable":true,"maxAvailableQuantity":45,"maxAllowedQuantity":100,"breadcrumbs":[{"code":"3","name":"Fructe & legume","slug":"3-fructe-si-legume"},{"code":"304","name":"Fructe și legume uscate","slug":"304-fructe-uscate-crude"},{"code":"30401","name":"Nuci și semințe","slug":"30401-fructe-uscate"},{"code":"100148556","name":"Alune de pădure crude 200g","slug":"100148556-bunatati-cu-gust-alune-de-padure-crude-200g"}],"activePromotion":null,"saveMe":null,"labels":[],"geniusPrice":null,"geniusUnitPricePerLabel":null,"banner":null,"discountLabel":null,"geniusDiscountLabel":null,"badge":null},{"code":"100047620","variantCode":"100047620","name":"Muguri de pin 100g","slug":"100047620-bunatati-cu-gust-muguri-de-pin-100g","unitPriceLabel":"339,9 Lei/kg","brand":"Bunătăți cu gust","brandCode":"320","brandFilterCode":"bunatati-cu-gust-b321","sku":"100047620","price":33.99,"originalPrice":null,"currencyCode":"RON","currency":"Lei","image":{"thumbnail":{"default":"https://cdn.freshful.ro/media/cache/sylius_shop_product_thumbnail/03/6a/bbffcd72c917190ebd1bb0b77e2e.jpg"},"large":{"default":"https://cdn.freshful.ro/media/cache/freshful_large/03/6a/bbffcd72c917190ebd1bb0b77e2e.jpg"},"extralarge":{"default":"https://cdn.freshful.ro/media/cache/sylius_shop_product_original/03/6a/bbffcd72c917190ebd1bb0b77e2e.jpg"}},"label":null,"tags":[],"isAvailable":true,"maxAvailableQuantity":60,"maxAllowedQuantity":100,"breadcrumbs":[{"code":"3","name":"Fructe & legume","slug":"3-fructe-si-legume"},{"code":"304","name":"Fructe și legume uscate","slug":"304-fructe-uscate-crude"},{"code":"30401","name":"Nuci și semințe","slug":"30401-fructe-uscate"},{"code":"100047620","name":"Muguri de pin 100g","slug":"100047620-bunatati-cu-gust-muguri-de-pin-100g"}],"activePromotion":null,"saveMe":null,"labels":[],"geniusPrice":null,"geniusUnitPricePerLabel":null,"banner":null,"discountLabel":null,"geniusDiscountLabel":null,"badge":null},{"code":"100148558","variantCode":"100148558","name":"Fulgi de migdale 150g","slug":"100148558-bunatati-cu-gust-fulgi-de-migdale-150g","unitPriceLabel":"106,6 Lei/kg","brand":"Bunătăți cu gust","brandCode":"320","brandFilterCode":"bunatati-cu-gust-b321","sku":"100148558","price":15.99,"originalPrice":null,"currencyCode":"RON","currency":"Lei","image":{"thumbnail":{"default":"https://cdn.freshful.ro/media/cache/sylius_shop_product_thumbnail/bb/db/f6f605a0e2beef0c89d2b55b32fe.jpg"},"large":{"default":"https://cdn.freshful.ro/media/cache/freshful_large/bb/db/f6f605a0e2beef0c89d2b55b32fe.jpg"},"extralarge":{"default":"https://cdn.freshful.ro/media/cache/sylius_shop_product_original/bb/db/f6f605a0e2beef0c89d2b55b32fe.jpg"}},"label":null,"tags":[],"isAvailable":true,"maxAvailableQuantity":100,"maxAllowedQuantity":100,"breadcrumbs":[{"code":"3","name":"Fructe & legume","slug":"3-fructe-si-legume"},{"code":"304","name":"Fructe și legume uscate","slug":"304-fructe-uscate-crude"},{"code":"30401","name":"Nuci și semințe","slug":"30401-fructe-uscate"},{"code":"100148558","name":"Fulgi de migdale 150g","slug":"100148558-bunatati-cu-gust-fulgi-de-migdale-150g"}],"activePromotion":null,"saveMe":null,"labels":[],"geniusPrice":null,"geniusUnitPricePerLabel":null,"banner":null,"discountLabel":null,"geniusDiscountLabel":null,"badge":null},{"code":"100047619","variantCode":"100047619","name":"Nuci braziliene 200g","slug":"100047619-bunatati-cu-gust-nuci-braziliene-200g","unitPriceLabel":"124,95 Lei/kg","brand":"Bunătăți cu gust","brandCode":"320","brandFilterCode":"bunatati-cu-gust-b321","sku":"100047619","price":24.99,"originalPrice":null,"currencyCode":"RON","currency":"Lei","image":{"thumbnail":{"default":"https://cdn.freshful.ro/media/cache/sylius_shop_product_thumbnail/e5/42/377661f3a83c956ddfa93913ce7e.jpg"},"large":{"default":"https://cdn.freshful.ro/media/cache/freshful_large/e5/42/377661f3a83c956ddfa93913ce7e.jpg"},"extralarge":{"default":"https://cdn.freshful.ro/media/cache/sylius_shop_product_original/e5/42/377661f3a83c956ddfa93913ce7e.jpg"}},"label":null,"tags":[],"isAvailable":true,"maxAvailableQuantity":54,"maxAllowedQuantity":100,"breadcrumbs":[{"code":"3","name":"Fructe & legume","slug":"3-fructe-si-legume"},{"code":"304","name":"Fructe și legume uscate","slug":"304-fructe-uscate-crude"},{"code":"30401","name":"Nuci și semințe","slug":"30401-fructe-uscate"},{"code":"100047619","name":"Nuci braziliene 200g","slug":"100047619-bunatati-cu-gust-nuci-braziliene-200g"}],"activePromotion":null,"saveMe":null,"labels":[],"geniusPrice":null,"geniusUnitPricePerLabel":null,"banner":null,"discountLabel":null,"geniusDiscountLabel":null,"badge":null},{"code":"100093741","variantCode":"5941232423777","name":"Semințe floarea-soarelui decojite crude 250g","slug":"100093741-driedfruits-seminte-floarea-soarelui-decojite-crude-250g","unitPriceLabel":"11,63 Lei/kg","brand":"Driedfruits","brandCode":"354","brandFilterCode":"driedfruits-b355","sku":"100093741","price":3.49,"originalPrice":null,"currencyCode":"RON","currency":"Lei","image":{"thumbnail":{"default":"https://cdn.freshful.ro/media/cache/sylius_shop_product_thumbnail/9c/7c/5f2c9f99dd661f2edd86108129e8.jpg"},"large":{"default":"https://cdn.freshful.ro/media/cache/freshful_large/9c/7c/5f2c9f99dd661f2edd86108129e8.jpg"},"extralarge":{"default":"https://cdn.freshful.ro/media/cache/sylius_shop_product_original/9c/7c/5f2c9f99dd661f2edd86108129e8.jpg"}},"label":null,"tags":[],"isAvailable":true,"maxAvailableQuantity":88,"maxAllowedQuantity":100,"breadcrumbs":[{"code":"3","name":"Fructe & legume","slug":"3-fructe-si-legume"},{"code":"304","name":"Fructe și legume uscate","slug":"304-fructe-uscate-crude"},{"code":"30401","name":"Nuci și semințe","slug":"30401-fructe-uscate"},{"code":"100093741","name":"Semințe floarea-soarelui decojite crude 250g","slug":"100093741-driedfruits-seminte-floarea-soarelui-decojite-crude-250g"}],"activePromotion":null,"saveMe":null,"labels":[],"geniusPrice":null,"geniusUnitPricePerLabel":null,"banner":null,"discountLabel":null,"geniusDiscountLabel":null,"badge":null}],"filters":{"countSelected":0,"items":[{"code":"promotion","name":"Promoții","countSelected":0,"values":[{"code":"bunatatile-saptamanii-cw0923","name":"Oferta proaspătă a săptămânii","isSelected":false,"count":2}]},{"code":"brand","name":"Brand","countSelected":0,"values":[{"code":"bunatati-cu-gust-b321","name":"Bunătăți cu gust","isSelected":false,"count":12},{"code":"dr-ensa-b1100","name":"Dr.Ensa","isSelected":false,"count":4},{"code":"driedfruits-b355","name":"Driedfruits","isSelected":false,"count":19},{"code":"pomul-regal-b3067","name":"Pomul Regal","isSelected":false,"count":3},{"code":"pronat-b913","name":"Pronat","isSelected":false,"count":1}]},{"code":"diet_lifestyle","name":"Dietă și lifestyle","countSelected":0,"values":[{"code":"eco-a83","name":"Eco","isSelected":false,"count":10},{"code":"natural-a27","name":"Natural","isSelected":false,"count":4}]}]},"orderBy":[{"field":"price","direction":"asc","name":"Preț crescător","isSelected":false},{"field":"price","direction":"desc","name":"Preț descrescător","isSelected":false},{"field":"popularity","direction":"desc","name":"Cele mai populare","isSelected":true},{"field":"category","direction":"asc","name":"Categorie","isSelected":false}],"metaTitle":"Nuci și semințe - Gamă variată","metaDescription":"Vrei Nuci și semințe? Alege dintr-o gamă variată. Comanzi simplu și ai livrare rapidă, calitate și prospețime. Hai pe Freshful.ro","metaKeywords":null,"banners":[]}}