{"type":"subcategory","payload":{"analyticsListId":"category_30402-fructe-deshidratate-si-confiate","analyticsListName":"Category - Fructe deshidratate și confiate","name":"Fructe deshidratate și confiate","slug":"30402-fructe-deshidratate-si-confiate","image":null,"breadcrumbs":[{"code":"3","name":"Fructe & legume","slug":"3-fructe-si-legume"},{"code":"304","name":"Fructe și legume uscate","slug":"304-fructe-uscate-crude"},{"code":"30402","name":"Fructe deshidratate și confiate","slug":"30402-fructe-deshidratate-si-confiate"}],"slots":[],"page":1,"limit":10,"pages":3,"count":29,"siblings":[{"name":"Fructe proaspete","slug":"301-fructe-proaspete","selected":false},{"name":"Legume proaspete","slug":"302-legume-proaspete","selected":false},{"name":"Verdețuri și ierburi aromatice","slug":"303-verdeturi-si-plante-aromatice","selected":false},{"name":"Fructe și legume uscate","slug":"304-fructe-uscate-crude","selected":true},{"name":"Sucuri naturale","slug":"305-sucuri-naturale","selected":false}],"children":[{"name":"Toate produsele","slug":"304-fructe-uscate-crude","selected":false},{"name":"Nuci și semințe","slug":"30401-fructe-uscate","selected":false},{"name":"Fructe deshidratate și confiate","slug":"30402-fructe-deshidratate-si-confiate","selected":true},{"name":"Legume deshidratate","slug":"legume-deshidratate","selected":false}],"products":[{"code":"100093753","variantCode":"5941232421643","name":"Prune deshidratate fără sâmbure 500g","slug":"100093753-driedfruits-prune-deshidratate-fara-sambure-500g","unitPriceLabel":"32,15 Lei/kg","brand":"Driedfruits","brandCode":"354","brandFilterCode":"driedfruits-b355","sku":"100093753","price":19.29,"originalPrice":21.49,"currencyCode":"RON","currency":"Lei","image":{"thumbnail":{"default":"https://cdn.freshful.ro/media/cache/sylius_shop_product_thumbnail/b2/96/4668d350c79e68c7f7c0672a1978.jpg"},"large":{"default":"https://cdn.freshful.ro/media/cache/freshful_large/b2/96/4668d350c79e68c7f7c0672a1978.jpg"},"extralarge":{"default":"https://cdn.freshful.ro/media/cache/sylius_shop_product_original/b2/96/4668d350c79e68c7f7c0672a1978.jpg"}},"label":{"text":"-10%","backgroundColor":"#FF9903","textColor":"#FFFFFF"},"tags":[],"isAvailable":true,"maxAvailableQuantity":96,"maxAllowedQuantity":100,"breadcrumbs":[{"code":"3","name":"Fructe & legume","slug":"3-fructe-si-legume"},{"code":"304","name":"Fructe și legume uscate","slug":"304-fructe-uscate-crude"},{"code":"30402","name":"Fructe deshidratate și confiate","slug":"30402-fructe-deshidratate-si-confiate"},{"code":"100093753","name":"Prune deshidratate fără sâmbure 500g","slug":"100093753-driedfruits-prune-deshidratate-fara-sambure-500g"}],"activePromotion":{"code":"bunatatile-saptamanii-cw0923","name":"Preț redus","targetQuantity":null},"saveMe":null,"labels":[{"type":"v1","items":[{"text":"-10%","backgroundColor":"#FF9903","textColor":"#FFFFFF"}]}],"geniusPrice":null,"geniusUnitPricePerLabel":null,"banner":{"text":"Super preț","textColor":"#FF0000","bgColor":"#FFF2EC","icon":null,"link":"https://www.freshful.ro/oferte/bunatatile-saptamanii-cw0923","type":"promo","analyticsEventType":"select_promotion","analyticsEventPayload":{"promotion_id":"bunatatile-saptamanii-cw0923","promotion_name":"Oferta proaspătă a săptămânii"}},"discountLabel":"Economisești 10%","geniusDiscountLabel":null,"badge":null},{"code":"100093752","variantCode":"5941232411798","name":"Curmale deshidratate ecologice 200g","slug":"100093752-driedfruits-curmale-deshidratate-ecologice-200g","unitPriceLabel":"35,67 Lei/kg","brand":"Driedfruits","brandCode":"354","brandFilterCode":"driedfruits-b355","sku":"100093752","price":7.49,"originalPrice":null,"currencyCode":"RON","currency":"Lei","image":{"thumbnail":{"default":"https://cdn.freshful.ro/media/cache/sylius_shop_product_thumbnail/b5/cd/5374efbc019546f01afb390221f1.jpg"},"large":{"default":"https://cdn.freshful.ro/media/cache/freshful_large/b5/cd/5374efbc019546f01afb390221f1.jpg"},"extralarge":{"default":"https://cdn.freshful.ro/media/cache/sylius_shop_product_original/b5/cd/5374efbc019546f01afb390221f1.jpg"}},"label":null,"tags":[{"type":"Eco","text":"Eco","icon":"https://cdn.freshful.ro/assets/product_tags/eco.svg","iconPng":"https://cdn.freshful.ro/assets/product_tags/eco.png","backgroundColor":"#EFFBE4","textColor":"#66BB1B"}],"isAvailable":true,"maxAvailableQuantity":67,"maxAllowedQuantity":100,"breadcrumbs":[{"code":"3","name":"Fructe & legume","slug":"3-fructe-si-legume"},{"code":"304","name":"Fructe și legume uscate","slug":"304-fructe-uscate-crude"},{"code":"30402","name":"Fructe deshidratate și confiate","slug":"30402-fructe-deshidratate-si-confiate"},{"code":"100093752","name":"Curmale deshidratate ecologice 200g","slug":"100093752-driedfruits-curmale-deshidratate-ecologice-200g"}],"activePromotion":null,"saveMe":null,"labels":[],"geniusPrice":null,"geniusUnitPricePerLabel":null,"banner":null,"discountLabel":null,"geniusDiscountLabel":null,"badge":null},{"code":"100093758","variantCode":"5941232409566","name":"Stafide brune ecologice 200g","slug":"100093758-driedfruits-stafide-brune-ecologice-200g","unitPriceLabel":"38,05 Lei/kg","brand":"Driedfruits","brandCode":"354","brandFilterCode":"driedfruits-b355","sku":"100093758","price":7.99,"originalPrice":null,"currencyCode":"RON","currency":"Lei","image":{"thumbnail":{"default":"https://cdn.freshful.ro/media/cache/sylius_shop_product_thumbnail/25/5f/d9247c08afea6883468be3d71e51.jpg"},"large":{"default":"https://cdn.freshful.ro/media/cache/freshful_large/25/5f/d9247c08afea6883468be3d71e51.jpg"},"extralarge":{"default":"https://cdn.freshful.ro/media/cache/sylius_shop_product_original/25/5f/d9247c08afea6883468be3d71e51.jpg"}},"label":null,"tags":[{"type":"Eco","text":"Eco","icon":"https://cdn.freshful.ro/assets/product_tags/eco.svg","iconPng":"https://cdn.freshful.ro/assets/product_tags/eco.png","backgroundColor":"#EFFBE4","textColor":"#66BB1B"}],"isAvailable":true,"maxAvailableQuantity":22,"maxAllowedQuantity":100,"breadcrumbs":[{"code":"3","name":"Fructe & legume","slug":"3-fructe-si-legume"},{"code":"304","name":"Fructe și legume uscate","slug":"304-fructe-uscate-crude"},{"code":"30402","name":"Fructe deshidratate și confiate","slug":"30402-fructe-deshidratate-si-confiate"},{"code":"100093758","name":"Stafide brune ecologice 200g","slug":"100093758-driedfruits-stafide-brune-ecologice-200g"}],"activePromotion":null,"saveMe":null,"labels":[],"geniusPrice":null,"geniusUnitPricePerLabel":null,"banner":null,"discountLabel":null,"geniusDiscountLabel":null,"badge":null},{"code":"100093761","variantCode":"5941232409429","name":"Banana chips 100g","slug":"100093761-driedfruits-banana-chips-100g","unitPriceLabel":"31,73 Lei/kg","brand":"Driedfruits","brandCode":"354","brandFilterCode":"driedfruits-b355","sku":"100093761","price":3.49,"originalPrice":null,"currencyCode":"RON","currency":"Lei","image":{"thumbnail":{"default":"https://cdn.freshful.ro/media/cache/sylius_shop_product_thumbnail/2a/87/9ebdff9b6c830b58d19a1ee0cee7.jpg"},"large":{"default":"https://cdn.freshful.ro/media/cache/freshful_large/2a/87/9ebdff9b6c830b58d19a1ee0cee7.jpg"},"extralarge":{"default":"https://cdn.freshful.ro/media/cache/sylius_shop_product_original/2a/87/9ebdff9b6c830b58d19a1ee0cee7.jpg"}},"label":null,"tags":[],"isAvailable":true,"maxAvailableQuantity":89,"maxAllowedQuantity":100,"breadcrumbs":[{"code":"3","name":"Fructe & legume","slug":"3-fructe-si-legume"},{"code":"304","name":"Fructe și legume uscate","slug":"304-fructe-uscate-crude"},{"code":"30402","name":"Fructe deshidratate și confiate","slug":"30402-fructe-deshidratate-si-confiate"},{"code":"100093761","name":"Banana chips 100g","slug":"100093761-driedfruits-banana-chips-100g"}],"activePromotion":null,"saveMe":null,"labels":[],"geniusPrice":null,"geniusUnitPricePerLabel":null,"banner":null,"discountLabel":null,"geniusDiscountLabel":null,"badge":null},{"code":"100148557","variantCode":"100148557","name":"Curmale fără sâmburi 200g","slug":"100148557-bunatati-cu-gust-curmale-fara-samburi-200g","unitPriceLabel":"34,95 Lei/kg","brand":"Bunătăți cu gust","brandCode":"320","brandFilterCode":"bunatati-cu-gust-b321","sku":"100148557","price":6.99,"originalPrice":null,"currencyCode":"RON","currency":"Lei","image":{"thumbnail":{"default":"https://cdn.freshful.ro/media/cache/sylius_shop_product_thumbnail/55/a1/172c785dc879c2c242de583a6eeb.jpg"},"large":{"default":"https://cdn.freshful.ro/media/cache/freshful_large/55/a1/172c785dc879c2c242de583a6eeb.jpg"},"extralarge":{"default":"https://cdn.freshful.ro/media/cache/sylius_shop_product_original/55/a1/172c785dc879c2c242de583a6eeb.jpg"}},"label":null,"tags":[],"isAvailable":true,"maxAvailableQuantity":53,"maxAllowedQuantity":100,"breadcrumbs":[{"code":"3","name":"Fructe & legume","slug":"3-fructe-si-legume"},{"code":"304","name":"Fructe și legume uscate","slug":"304-fructe-uscate-crude"},{"code":"30402","name":"Fructe deshidratate și confiate","slug":"30402-fructe-deshidratate-si-confiate"},{"code":"100148557","name":"Curmale fără sâmburi 200g","slug":"100148557-bunatati-cu-gust-curmale-fara-samburi-200g"}],"activePromotion":null,"saveMe":null,"labels":[],"geniusPrice":null,"geniusUnitPricePerLabel":null,"banner":null,"discountLabel":null,"geniusDiscountLabel":null,"badge":null},{"code":"100098010","variantCode":"5941232001883","name":"Caise deshidratate fără sâmburi 200g","slug":"100098010-driedfruits-caise-deshidratate-fara-samburi-200g","unitPriceLabel":"92,86 Lei/kg","brand":"Driedfruits","brandCode":"354","brandFilterCode":"driedfruits-b355","sku":"100098010","price":19.5,"originalPrice":null,"currencyCode":"RON","currency":"Lei","image":{"thumbnail":{"default":"https://cdn.freshful.ro/media/cache/sylius_shop_product_thumbnail/4c/7c/1c9808c13d18343366f718c19a73.jpg"},"large":{"default":"https://cdn.freshful.ro/media/cache/freshful_large/4c/7c/1c9808c13d18343366f718c19a73.jpg"},"extralarge":{"default":"https://cdn.freshful.ro/media/cache/sylius_shop_product_original/4c/7c/1c9808c13d18343366f718c19a73.jpg"}},"label":null,"tags":[],"isAvailable":true,"maxAvailableQuantity":58,"maxAllowedQuantity":100,"breadcrumbs":[{"code":"3","name":"Fructe & legume","slug":"3-fructe-si-legume"},{"code":"304","name":"Fructe și legume uscate","slug":"304-fructe-uscate-crude"},{"code":"30402","name":"Fructe deshidratate și confiate","slug":"30402-fructe-deshidratate-si-confiate"},{"code":"100098010","name":"Caise deshidratate fără sâmburi 200g","slug":"100098010-driedfruits-caise-deshidratate-fara-samburi-200g"}],"activePromotion":null,"saveMe":null,"labels":[],"geniusPrice":null,"geniusUnitPricePerLabel":null,"banner":null,"discountLabel":null,"geniusDiscountLabel":null,"badge":null},{"code":"100093762","variantCode":"5941232409344","name":"Ananas confiat 100g","slug":"100093762-driedfruits-ananas-confiat-100g","unitPriceLabel":"49,91 Lei/kg","brand":"Driedfruits","brandCode":"354","brandFilterCode":"driedfruits-b355","sku":"100093762","price":5.49,"originalPrice":null,"currencyCode":"RON","currency":"Lei","image":{"thumbnail":{"default":"https://cdn.freshful.ro/media/cache/sylius_shop_product_thumbnail/f3/9b/41e4211f40468bec22b3c9886b48.jpg"},"large":{"default":"https://cdn.freshful.ro/media/cache/freshful_large/f3/9b/41e4211f40468bec22b3c9886b48.jpg"},"extralarge":{"default":"https://cdn.freshful.ro/media/cache/sylius_shop_product_original/f3/9b/41e4211f40468bec22b3c9886b48.jpg"}},"label":null,"tags":[],"isAvailable":true,"maxAvailableQuantity":63,"maxAllowedQuantity":100,"breadcrumbs":[{"code":"3","name":"Fructe & legume","slug":"3-fructe-si-legume"},{"code":"304","name":"Fructe și legume uscate","slug":"304-fructe-uscate-crude"},{"code":"30402","name":"Fructe deshidratate și confiate","slug":"30402-fructe-deshidratate-si-confiate"},{"code":"100093762","name":"Ananas confiat 100g","slug":"100093762-driedfruits-ananas-confiat-100g"}],"activePromotion":null,"saveMe":null,"labels":[],"geniusPrice":null,"geniusUnitPricePerLabel":null,"banner":null,"discountLabel":null,"geniusDiscountLabel":null,"badge":null},{"code":"100149121","variantCode":"100149121","name":"Stafide aurii 200g","slug":"100149121-no-brand-stafide-aurii-200g","unitPriceLabel":"39,97 Lei/kg","brand":null,"brandCode":null,"brandFilterCode":"no-brand-b83","sku":"100149121","price":11.99,"originalPrice":null,"currencyCode":"RON","currency":"Lei","image":{"thumbnail":{"default":"https://cdn.freshful.ro/media/cache/sylius_shop_product_thumbnail/a6/33/445ccd825041a82245b6d1e6ee40.jpg"},"large":{"default":"https://cdn.freshful.ro/media/cache/freshful_large/a6/33/445ccd825041a82245b6d1e6ee40.jpg"},"extralarge":{"default":"https://cdn.freshful.ro/media/cache/sylius_shop_product_original/a6/33/445ccd825041a82245b6d1e6ee40.jpg"}},"label":null,"tags":[{"type":"Natural","text":"Natural","icon":"https://cdn.freshful.ro/assets/product_tags/natural.svg","iconPng":"https://cdn.freshful.ro/assets/product_tags/natural.png","backgroundColor":"#E9FCF2","textColor":"#18AF62"}],"isAvailable":true,"maxAvailableQuantity":22,"maxAllowedQuantity":100,"breadcrumbs":[{"code":"3","name":"Fructe & legume","slug":"3-fructe-si-legume"},{"code":"304","name":"Fructe și legume uscate","slug":"304-fructe-uscate-crude"},{"code":"30402","name":"Fructe deshidratate și confiate","slug":"30402-fructe-deshidratate-si-confiate"},{"code":"100149121","name":"Stafide aurii 200g","slug":"100149121-no-brand-stafide-aurii-200g"}],"activePromotion":null,"saveMe":null,"labels":[],"geniusPrice":null,"geniusUnitPricePerLabel":null,"banner":null,"discountLabel":null,"geniusDiscountLabel":null,"badge":null},{"code":"100093760","variantCode":"5941232409351","name":"Papaya cub confiat 100g","slug":"100093760-driedfruits-papaya-cub-confiat-100g","unitPriceLabel":"54,45 Lei/kg","brand":"Driedfruits","brandCode":"354","brandFilterCode":"driedfruits-b355","sku":"100093760","price":5.99,"originalPrice":null,"currencyCode":"RON","currency":"Lei","image":{"thumbnail":{"default":"https://cdn.freshful.ro/media/cache/sylius_shop_product_thumbnail/08/69/c291a9271d54dce80ab3a5ca694f.jpg"},"large":{"default":"https://cdn.freshful.ro/media/cache/freshful_large/08/69/c291a9271d54dce80ab3a5ca694f.jpg"},"extralarge":{"default":"https://cdn.freshful.ro/media/cache/sylius_shop_product_original/08/69/c291a9271d54dce80ab3a5ca694f.jpg"}},"label":null,"tags":[],"isAvailable":true,"maxAvailableQuantity":43,"maxAllowedQuantity":100,"breadcrumbs":[{"code":"3","name":"Fructe & legume","slug":"3-fructe-si-legume"},{"code":"304","name":"Fructe și legume uscate","slug":"304-fructe-uscate-crude"},{"code":"30402","name":"Fructe deshidratate și confiate","slug":"30402-fructe-deshidratate-si-confiate"},{"code":"100093760","name":"Papaya cub confiat 100g","slug":"100093760-driedfruits-papaya-cub-confiat-100g"}],"activePromotion":null,"saveMe":null,"labels":[],"geniusPrice":null,"geniusUnitPricePerLabel":null,"banner":null,"discountLabel":null,"geniusDiscountLabel":null,"badge":null},{"code":"100148563","variantCode":"100148563","name":"Stafide brune 200g","slug":"100148563-bunatati-cu-gust-stafide-brune-200g","unitPriceLabel":"29,95 Lei/kg","brand":"Bunătăți cu gust","brandCode":"320","brandFilterCode":"bunatati-cu-gust-b321","sku":"100148563","price":5.99,"originalPrice":null,"currencyCode":"RON","currency":"Lei","image":{"thumbnail":{"default":"https://cdn.freshful.ro/media/cache/sylius_shop_product_thumbnail/f9/90/f9a52d64d7df00994a9d30ce5426.jpg"},"large":{"default":"https://cdn.freshful.ro/media/cache/freshful_large/f9/90/f9a52d64d7df00994a9d30ce5426.jpg"},"extralarge":{"default":"https://cdn.freshful.ro/media/cache/sylius_shop_product_original/f9/90/f9a52d64d7df00994a9d30ce5426.jpg"}},"label":null,"tags":[],"isAvailable":true,"maxAvailableQuantity":48,"maxAllowedQuantity":100,"breadcrumbs":[{"code":"3","name":"Fructe & legume","slug":"3-fructe-si-legume"},{"code":"304","name":"Fructe și legume uscate","slug":"304-fructe-uscate-crude"},{"code":"30402","name":"Fructe deshidratate și confiate","slug":"30402-fructe-deshidratate-si-confiate"},{"code":"100148563","name":"Stafide brune 200g","slug":"100148563-bunatati-cu-gust-stafide-brune-200g"}],"activePromotion":null,"saveMe":null,"labels":[],"geniusPrice":null,"geniusUnitPricePerLabel":null,"banner":null,"discountLabel":null,"geniusDiscountLabel":null,"badge":null}],"filters":{"countSelected":0,"items":[{"code":"promotion","name":"Promoții","countSelected":0,"values":[{"code":"bunatatile-saptamanii-cw0923","name":"Oferta proaspătă a săptămânii","isSelected":false,"count":1}]},{"code":"brand","name":"Brand","countSelected":0,"values":[{"code":"bunatati-cu-gust-b321","name":"Bunătăți cu gust","isSelected":false,"count":2},{"code":"driedfruits-b355","name":"Driedfruits","isSelected":false,"count":12},{"code":"fruvit-b3068","name":"Fruvit","isSelected":false,"count":6},{"code":"lyolife-b242","name":"Lyolife","isSelected":false,"count":4}]},{"code":"diet_lifestyle","name":"Dietă și lifestyle","countSelected":0,"values":[{"code":"eco-a83","name":"Eco","isSelected":false,"count":2},{"code":"fara-zahar-adaugat-a29","name":"Fara zahar adaugat","isSelected":false,"count":5},{"code":"natural-a27","name":"Natural","isSelected":false,"count":7}]}]},"orderBy":[{"field":"price","direction":"asc","name":"Preț crescător","isSelected":false},{"field":"price","direction":"desc","name":"Preț descrescător","isSelected":false},{"field":"popularity","direction":"desc","name":"Cele mai populare","isSelected":true},{"field":"category","direction":"asc","name":"Categorie","isSelected":false}],"metaTitle":"Fructe deshidratate și confiate - Gamă variată","metaDescription":"Vrei Fructe deshidratate și confiate? Alege dintr-o gamă variată. Comanzi simplu și ai livrare rapidă, calitate și prospețime. Hai pe Freshful.ro","metaKeywords":null,"banners":[]}}