{"type":"subcategory","payload":{"analyticsListId":"category_305-sucuri-naturale","analyticsListName":"Category - Sucuri naturale","name":"Sucuri naturale","slug":"305-sucuri-naturale","image":null,"breadcrumbs":[{"code":"3","name":"Fructe & legume","slug":"3-fructe-si-legume"},{"code":"305","name":"Sucuri naturale","slug":"305-sucuri-naturale"}],"slots":[],"page":1,"limit":10,"pages":6,"count":56,"siblings":[{"name":"Fructe proaspete","slug":"301-fructe-proaspete","selected":false},{"name":"Legume proaspete","slug":"302-legume-proaspete","selected":false},{"name":"Verdețuri și ierburi aromatice","slug":"303-verdeturi-si-plante-aromatice","selected":false},{"name":"Fructe și legume uscate","slug":"304-fructe-uscate-crude","selected":false},{"name":"Sucuri naturale","slug":"305-sucuri-naturale","selected":true}],"children":[{"name":"Toate produsele","slug":"305-sucuri-naturale","selected":true},{"name":"Sucuri din fructe proaspete","slug":"30501-sucuri-fresh-proaspete","selected":false},{"name":"Limonade","slug":"30502-limonade","selected":false},{"name":"Smoothies","slug":"30503-smoothie","selected":false},{"name":"Ice Tea natural","slug":"30504-ice-tea-natural","selected":false}],"products":[{"code":"100044183","variantCode":"5941884601127","name":"Smuti cocos și ananas 250ml","slug":"100044183-sloop-smuti-cocos-si-ananas-250ml","unitPriceLabel":"37,96 Lei/l","brand":"SLooP","brandCode":"242","brandFilterCode":"sloop-b243","sku":"100044183","price":9.49,"originalPrice":10.99,"currencyCode":"RON","currency":"Lei","image":{"thumbnail":{"default":"https://cdn.freshful.ro/media/cache/sylius_shop_product_thumbnail/85/83/e1dde47b2632da3535900b5a5245.jpg"},"large":{"default":"https://cdn.freshful.ro/media/cache/freshful_large/85/83/e1dde47b2632da3535900b5a5245.jpg"},"extralarge":{"default":"https://cdn.freshful.ro/media/cache/sylius_shop_product_original/85/83/e1dde47b2632da3535900b5a5245.jpg"}},"label":{"text":"-13%","backgroundColor":"#FF9903","textColor":"#FFFFFF"},"tags":[{"type":"NoAddedSugar","text":"Fara zahar adaugat","icon":"https://cdn.freshful.ro/assets/product_tags/fara_zahar_adaugat.svg","iconPng":"https://cdn.freshful.ro/assets/product_tags/fara_zahar_adaugat.png","backgroundColor":"#F8EDF7","textColor":"#C05EBC"},{"type":"NoPreservatives","text":"Fara conservanti","icon":"https://cdn.freshful.ro/assets/product_tags/fara_conservanti.svg","iconPng":"https://cdn.freshful.ro/assets/product_tags/fara_conservanti.png","backgroundColor":"#F0F2FF","textColor":"#7889DD"}],"isAvailable":true,"maxAvailableQuantity":95,"maxAllowedQuantity":100,"breadcrumbs":[{"code":"3","name":"Fructe & legume","slug":"3-fructe-si-legume"},{"code":"305","name":"Sucuri naturale","slug":"305-sucuri-naturale"},{"code":"30503","name":"Smoothies","slug":"30503-smoothie"},{"code":"100044183","name":"Smuti cocos și ananas 250ml","slug":"100044183-sloop-smuti-cocos-si-ananas-250ml"}],"activePromotion":{"code":"bunatatile-saptamanii-cw0923","name":"Preț redus","targetQuantity":null},"saveMe":null,"labels":[{"type":"v1","items":[{"text":"-13%","backgroundColor":"#FF9903","textColor":"#FFFFFF"}]}],"geniusPrice":null,"geniusUnitPricePerLabel":null,"banner":{"text":"Super preț","textColor":"#FF0000","bgColor":"#FFF2EC","icon":null,"link":"https://www.freshful.ro/oferte/bunatatile-saptamanii-cw0923","type":"promo","analyticsEventType":"select_promotion","analyticsEventPayload":{"promotion_id":"bunatatile-saptamanii-cw0923","promotion_name":"Oferta proaspătă a săptămânii"}},"discountLabel":"Economisești 13%","geniusDiscountLabel":null,"badge":null},{"code":"100046097","variantCode":"5202178300042","name":"Suc de portocale 1l","slug":"100046097-olympus-suc-de-portocale-1l","unitPriceLabel":"12,24 Lei/l","brand":"Olympus","brandCode":"45","brandFilterCode":"olympus-b40","sku":"100046097","price":12.24,"originalPrice":null,"currencyCode":"RON","currency":"Lei","image":{"thumbnail":{"default":"https://cdn.freshful.ro/media/cache/sylius_shop_product_thumbnail/66/96/9a3f3161a5535f7e432815eb6403.jpg"},"large":{"default":"https://cdn.freshful.ro/media/cache/freshful_large/66/96/9a3f3161a5535f7e432815eb6403.jpg"},"extralarge":{"default":"https://cdn.freshful.ro/media/cache/sylius_shop_product_original/66/96/9a3f3161a5535f7e432815eb6403.jpg"}},"label":null,"tags":[],"isAvailable":true,"maxAvailableQuantity":100,"maxAllowedQuantity":100,"breadcrumbs":[{"code":"3","name":"Fructe & legume","slug":"3-fructe-si-legume"},{"code":"305","name":"Sucuri naturale","slug":"305-sucuri-naturale"},{"code":"30501","name":"Sucuri din fructe proaspete","slug":"30501-sucuri-fresh-proaspete"},{"code":"100046097","name":"Suc de portocale 1l","slug":"100046097-olympus-suc-de-portocale-1l"}],"activePromotion":null,"saveMe":null,"labels":[],"geniusPrice":null,"geniusUnitPricePerLabel":null,"banner":null,"discountLabel":null,"geniusDiscountLabel":null,"badge":null},{"code":"100044650","variantCode":"5942329101219","name":"Raw shot ghimbir 60ml","slug":"100044650-urban-monkey-raw-shot-ghimbir-60ml","unitPriceLabel":"137,5 Lei/l","brand":"Urban Monkey","brandCode":"236","brandFilterCode":"urban-monkey-b237","sku":"100044650","price":8.25,"originalPrice":null,"currencyCode":"RON","currency":"Lei","image":{"thumbnail":{"default":"https://cdn.freshful.ro/media/cache/sylius_shop_product_thumbnail/40/f9/b803a9f89d0e2a66a25f44aedfe2.jpg"},"large":{"default":"https://cdn.freshful.ro/media/cache/freshful_large/40/f9/b803a9f89d0e2a66a25f44aedfe2.jpg"},"extralarge":{"default":"https://cdn.freshful.ro/media/cache/sylius_shop_product_original/40/f9/b803a9f89d0e2a66a25f44aedfe2.jpg"}},"label":null,"tags":[],"isAvailable":true,"maxAvailableQuantity":52,"maxAllowedQuantity":100,"breadcrumbs":[{"code":"3","name":"Fructe & legume","slug":"3-fructe-si-legume"},{"code":"305","name":"Sucuri naturale","slug":"305-sucuri-naturale"},{"code":"30503","name":"Smoothies","slug":"30503-smoothie"},{"code":"100044650","name":"Raw shot ghimbir 60ml","slug":"100044650-urban-monkey-raw-shot-ghimbir-60ml"}],"activePromotion":null,"saveMe":null,"labels":[],"geniusPrice":null,"geniusUnitPricePerLabel":null,"banner":null,"discountLabel":null,"geniusDiscountLabel":null,"badge":null},{"code":"100047656","variantCode":"642108847790","name":"Limonadă ananas și miere 500ml","slug":"100047656-ohvaz-limonada-ananas-si-miere-500ml","unitPriceLabel":"27,98 Lei/kg","brand":"Ohvăz","brandCode":"125","brandFilterCode":"ohvaz-b109","sku":"100047656","price":13.99,"originalPrice":null,"currencyCode":"RON","currency":"Lei","image":{"thumbnail":{"default":"https://cdn.freshful.ro/media/cache/sylius_shop_product_thumbnail/cf/e3/a84eb4e28f209bb25d131c248c18.jpg"},"large":{"default":"https://cdn.freshful.ro/media/cache/freshful_large/cf/e3/a84eb4e28f209bb25d131c248c18.jpg"},"extralarge":{"default":"https://cdn.freshful.ro/media/cache/sylius_shop_product_original/cf/e3/a84eb4e28f209bb25d131c248c18.jpg"}},"label":{"text":"Mici producători","backgroundColor":"#7B61FF","textColor":"#FFFFFF"},"tags":[{"type":"Natural","text":"Natural","icon":"https://cdn.freshful.ro/assets/product_tags/natural.svg","iconPng":"https://cdn.freshful.ro/assets/product_tags/natural.png","backgroundColor":"#E9FCF2","textColor":"#18AF62"},{"type":"NoAddedSugar","text":"Fara zahar adaugat","icon":"https://cdn.freshful.ro/assets/product_tags/fara_zahar_adaugat.svg","iconPng":"https://cdn.freshful.ro/assets/product_tags/fara_zahar_adaugat.png","backgroundColor":"#F8EDF7","textColor":"#C05EBC"},{"type":"NoPreservatives","text":"Fara conservanti","icon":"https://cdn.freshful.ro/assets/product_tags/fara_conservanti.svg","iconPng":"https://cdn.freshful.ro/assets/product_tags/fara_conservanti.png","backgroundColor":"#F0F2FF","textColor":"#7889DD"}],"isAvailable":true,"maxAvailableQuantity":1,"maxAllowedQuantity":100,"breadcrumbs":[{"code":"3","name":"Fructe & legume","slug":"3-fructe-si-legume"},{"code":"305","name":"Sucuri naturale","slug":"305-sucuri-naturale"},{"code":"30502","name":"Limonade","slug":"30502-limonade"},{"code":"100047656","name":"Limonadă ananas și miere 500ml","slug":"100047656-ohvaz-limonada-ananas-si-miere-500ml"}],"activePromotion":null,"saveMe":null,"labels":[{"type":"v1","items":[{"text":"Mici producători","backgroundColor":"#7B61FF","textColor":"#FFFFFF"}]}],"geniusPrice":null,"geniusUnitPricePerLabel":null,"banner":null,"discountLabel":null,"geniusDiscountLabel":null,"badge":null},{"code":"100046112","variantCode":"5202178005534","name":"Suc de portocale, mandarine, portocale roșii, mere 1l","slug":"100046112-olympus-suc-de-portocale-mandarine-portocale-rosii-mere-1l","unitPriceLabel":"13,99 Lei/l","brand":"Olympus","brandCode":"45","brandFilterCode":"olympus-b40","sku":"100046112","price":13.99,"originalPrice":null,"currencyCode":"RON","currency":"Lei","image":{"thumbnail":{"default":"https://cdn.freshful.ro/media/cache/sylius_shop_product_thumbnail/a3/67/0796d1109c4b34f5b223ff805105.jpg"},"large":{"default":"https://cdn.freshful.ro/media/cache/freshful_large/a3/67/0796d1109c4b34f5b223ff805105.jpg"},"extralarge":{"default":"https://cdn.freshful.ro/media/cache/sylius_shop_product_original/a3/67/0796d1109c4b34f5b223ff805105.jpg"}},"label":null,"tags":[{"type":"Natural","text":"Natural","icon":"https://cdn.freshful.ro/assets/product_tags/natural.svg","iconPng":"https://cdn.freshful.ro/assets/product_tags/natural.png","backgroundColor":"#E9FCF2","textColor":"#18AF62"}],"isAvailable":true,"maxAvailableQuantity":19,"maxAllowedQuantity":100,"breadcrumbs":[{"code":"3","name":"Fructe & legume","slug":"3-fructe-si-legume"},{"code":"305","name":"Sucuri naturale","slug":"305-sucuri-naturale"},{"code":"30501","name":"Sucuri din fructe proaspete","slug":"30501-sucuri-fresh-proaspete"},{"code":"100046112","name":"Suc de portocale, mandarine, portocale roșii, mere 1l","slug":"100046112-olympus-suc-de-portocale-mandarine-portocale-rosii-mere-1l"}],"activePromotion":null,"saveMe":null,"labels":[],"geniusPrice":null,"geniusUnitPricePerLabel":null,"banner":null,"discountLabel":null,"geniusDiscountLabel":null,"badge":null},{"code":"100150240","variantCode":"100150240","name":"Kombucha băutură probiotică energizantă cu miere și soc 330ml","slug":"100150240-ikombucha-kombucha-bautura-probiotica-energizanta-cu-miere-si-soc-330ml","unitPriceLabel":"45,42 Lei/l","brand":"iKombucha","brandCode":"2980","brandFilterCode":"ikombucha-b3074","sku":"100150240","price":14.99,"originalPrice":null,"currencyCode":"RON","currency":"Lei","image":{"thumbnail":{"default":"https://cdn.freshful.ro/media/cache/sylius_shop_product_thumbnail/05/6f/b59d321f3465c9cd9b1383a25f6c.jpg"},"large":{"default":"https://cdn.freshful.ro/media/cache/freshful_large/05/6f/b59d321f3465c9cd9b1383a25f6c.jpg"},"extralarge":{"default":"https://cdn.freshful.ro/media/cache/sylius_shop_product_original/05/6f/b59d321f3465c9cd9b1383a25f6c.jpg"}},"label":{"text":"Mici producători","backgroundColor":"#7B61FF","textColor":"#FFFFFF"},"tags":[],"isAvailable":true,"maxAvailableQuantity":100,"maxAllowedQuantity":100,"breadcrumbs":[{"code":"3","name":"Fructe & legume","slug":"3-fructe-si-legume"},{"code":"305","name":"Sucuri naturale","slug":"305-sucuri-naturale"},{"code":"30504","name":"Ice Tea natural","slug":"30504-ice-tea-natural"},{"code":"100150240","name":"Kombucha băutură probiotică energizantă cu miere și soc 330ml","slug":"100150240-ikombucha-kombucha-bautura-probiotica-energizanta-cu-miere-si-soc-330ml"}],"activePromotion":null,"saveMe":null,"labels":[{"type":"v1","items":[{"text":"Mici producători","backgroundColor":"#7B61FF","textColor":"#FFFFFF"}]}],"geniusPrice":null,"geniusUnitPricePerLabel":null,"banner":null,"discountLabel":null,"geniusDiscountLabel":null,"badge":null},{"code":"100044652","variantCode":"5942329100502","name":"Raw shot cătină 60ml","slug":"100044652-urban-monkey-raw-shot-catina-60ml","unitPriceLabel":"83,17 Lei/l","brand":"Urban Monkey","brandCode":"236","brandFilterCode":"urban-monkey-b237","sku":"100044652","price":4.99,"originalPrice":null,"currencyCode":"RON","currency":"Lei","image":{"thumbnail":{"default":"https://cdn.freshful.ro/media/cache/sylius_shop_product_thumbnail/1d/a9/21965e9c2ce88409e73761e00580.jpg"},"large":{"default":"https://cdn.freshful.ro/media/cache/freshful_large/1d/a9/21965e9c2ce88409e73761e00580.jpg"},"extralarge":{"default":"https://cdn.freshful.ro/media/cache/sylius_shop_product_original/1d/a9/21965e9c2ce88409e73761e00580.jpg"}},"label":null,"tags":[],"isAvailable":true,"maxAvailableQuantity":100,"maxAllowedQuantity":100,"breadcrumbs":[{"code":"3","name":"Fructe & legume","slug":"3-fructe-si-legume"},{"code":"305","name":"Sucuri naturale","slug":"305-sucuri-naturale"},{"code":"30503","name":"Smoothies","slug":"30503-smoothie"},{"code":"100044652","name":"Raw shot cătină 60ml","slug":"100044652-urban-monkey-raw-shot-catina-60ml"}],"activePromotion":null,"saveMe":null,"labels":[],"geniusPrice":null,"geniusUnitPricePerLabel":null,"banner":null,"discountLabel":null,"geniusDiscountLabel":null,"badge":null},{"code":"100046099","variantCode":"100046099","name":"Suc de 9 fructe cu 7 vitamine 1l","slug":"100046099-olympus-suc-de-9-fructe-cu-7-vitamine-1l","unitPriceLabel":"13,59 Lei/l","brand":"Olympus","brandCode":"45","brandFilterCode":"olympus-b40","sku":"100046099","price":13.59,"originalPrice":null,"currencyCode":"RON","currency":"Lei","image":{"thumbnail":{"default":"https://cdn.freshful.ro/media/cache/sylius_shop_product_thumbnail/9c/3b/f141b580b1a61e65fb50babc8dca.jpg"},"large":{"default":"https://cdn.freshful.ro/media/cache/freshful_large/9c/3b/f141b580b1a61e65fb50babc8dca.jpg"},"extralarge":{"default":"https://cdn.freshful.ro/media/cache/sylius_shop_product_original/9c/3b/f141b580b1a61e65fb50babc8dca.jpg"}},"label":null,"tags":[{"type":"Natural","text":"Natural","icon":"https://cdn.freshful.ro/assets/product_tags/natural.svg","iconPng":"https://cdn.freshful.ro/assets/product_tags/natural.png","backgroundColor":"#E9FCF2","textColor":"#18AF62"}],"isAvailable":true,"maxAvailableQuantity":46,"maxAllowedQuantity":100,"breadcrumbs":[{"code":"3","name":"Fructe & legume","slug":"3-fructe-si-legume"},{"code":"305","name":"Sucuri naturale","slug":"305-sucuri-naturale"},{"code":"30501","name":"Sucuri din fructe proaspete","slug":"30501-sucuri-fresh-proaspete"},{"code":"100046099","name":"Suc de 9 fructe cu 7 vitamine 1l","slug":"100046099-olympus-suc-de-9-fructe-cu-7-vitamine-1l"}],"activePromotion":null,"saveMe":null,"labels":[],"geniusPrice":null,"geniusUnitPricePerLabel":null,"banner":null,"discountLabel":null,"geniusDiscountLabel":null,"badge":null},{"code":"100046103","variantCode":"5202178040047","name":"Suc de mere, portocale, morcovi 1l","slug":"100046103-olympus-suc-de-mere-portocale-morcovi-1l","unitPriceLabel":"13,1 Lei/l","brand":"Olympus","brandCode":"45","brandFilterCode":"olympus-b40","sku":"100046103","price":13.1,"originalPrice":null,"currencyCode":"RON","currency":"Lei","image":{"thumbnail":{"default":"https://cdn.freshful.ro/media/cache/sylius_shop_product_thumbnail/69/40/639bb38123978940f428c84f6190.jpg"},"large":{"default":"https://cdn.freshful.ro/media/cache/freshful_large/69/40/639bb38123978940f428c84f6190.jpg"},"extralarge":{"default":"https://cdn.freshful.ro/media/cache/sylius_shop_product_original/69/40/639bb38123978940f428c84f6190.jpg"}},"label":null,"tags":[],"isAvailable":true,"maxAvailableQuantity":21,"maxAllowedQuantity":100,"breadcrumbs":[{"code":"3","name":"Fructe & legume","slug":"3-fructe-si-legume"},{"code":"305","name":"Sucuri naturale","slug":"305-sucuri-naturale"},{"code":"30501","name":"Sucuri din fructe proaspete","slug":"30501-sucuri-fresh-proaspete"},{"code":"100046103","name":"Suc de mere, portocale, morcovi 1l","slug":"100046103-olympus-suc-de-mere-portocale-morcovi-1l"}],"activePromotion":null,"saveMe":null,"labels":[],"geniusPrice":null,"geniusUnitPricePerLabel":null,"banner":null,"discountLabel":null,"geniusDiscountLabel":null,"badge":null},{"code":"100044656","variantCode":"5942329100021","name":"Raw juice Yummy Yummy 500ml","slug":"100044656-urban-monkey-raw-juice-yummy-yummy-500ml","unitPriceLabel":"35,78 Lei/l","brand":"Urban Monkey","brandCode":"236","brandFilterCode":"urban-monkey-b237","sku":"100044656","price":17.89,"originalPrice":null,"currencyCode":"RON","currency":"Lei","image":{"thumbnail":{"default":"https://cdn.freshful.ro/media/cache/sylius_shop_product_thumbnail/1f/f2/cac12a504f8076555660b0d5fd85.jpg"},"large":{"default":"https://cdn.freshful.ro/media/cache/freshful_large/1f/f2/cac12a504f8076555660b0d5fd85.jpg"},"extralarge":{"default":"https://cdn.freshful.ro/media/cache/sylius_shop_product_original/1f/f2/cac12a504f8076555660b0d5fd85.jpg"}},"label":null,"tags":[],"isAvailable":true,"maxAvailableQuantity":40,"maxAllowedQuantity":100,"breadcrumbs":[{"code":"3","name":"Fructe & legume","slug":"3-fructe-si-legume"},{"code":"305","name":"Sucuri naturale","slug":"305-sucuri-naturale"},{"code":"30501","name":"Sucuri din fructe proaspete","slug":"30501-sucuri-fresh-proaspete"},{"code":"100044656","name":"Raw juice Yummy Yummy 500ml","slug":"100044656-urban-monkey-raw-juice-yummy-yummy-500ml"}],"activePromotion":null,"saveMe":null,"labels":[],"geniusPrice":null,"geniusUnitPricePerLabel":null,"banner":null,"discountLabel":null,"geniusDiscountLabel":null,"badge":null}],"filters":{"countSelected":0,"items":[{"code":"promotion","name":"Promoții","countSelected":0,"values":[{"code":"bunatatile-saptamanii-cw0923","name":"Oferta proaspătă a săptămânii","isSelected":false,"count":1}]},{"code":"brand","name":"Brand","countSelected":0,"values":[{"code":"ikombucha-b3074","name":"iKombucha","isSelected":false,"count":6},{"code":"ohvaz-b109","name":"Ohvăz","isSelected":false,"count":4},{"code":"olympus-b40","name":"Olympus","isSelected":false,"count":17},{"code":"sloop-b243","name":"SLooP","isSelected":false,"count":11},{"code":"urban-monkey-b237","name":"Urban Monkey","isSelected":false,"count":9}]},{"code":"diet_lifestyle","name":"Dietă și lifestyle","countSelected":0,"values":[{"code":"fara-conservanti-a37","name":"Fara conservanti","isSelected":false,"count":22},{"code":"fara-zahar-adaugat-a29","name":"Fara zahar adaugat","isSelected":false,"count":26},{"code":"made-in-romania-a85","name":"Made In Romania","isSelected":false,"count":7},{"code":"natural-a27","name":"Natural","isSelected":false,"count":13}]}]},"orderBy":[{"field":"price","direction":"asc","name":"Preț crescător","isSelected":false},{"field":"price","direction":"desc","name":"Preț descrescător","isSelected":false},{"field":"popularity","direction":"desc","name":"Cele mai populare","isSelected":true},{"field":"category","direction":"asc","name":"Categorie","isSelected":false}],"metaTitle":"Sucuri naturale - Gamă variată","metaDescription":"Vrei Sucuri naturale? Alege dintr-o gamă variată. Comanzi simplu și ai livrare rapidă, calitate și prospețime. Hai pe Freshful.ro","metaKeywords":null,"banners":[{"name":"Fara zahar Listing","position":3,"type":"listing","displayOnMobile":true,"image":{"jpg":"https://cdn.freshful.ro/media/image/3e/ce/ca41a652d1df0f3e9f7d64d16146.jpg","webp":"https://cdn.freshful.ro/media/image/2a/0a/5828460e6ff411f8230326cec8ab.webp"},"imageResponsive":{"jpg":"https://cdn.freshful.ro/media/image/00/68/3c2d552e2782af7732b1418cf0f2.jpg","webp":"https://cdn.freshful.ro/media/image/be/4b/bd4537c3be610c331a83b68cffd7.webp"},"url":"/l/listing-produse-fara-zahar"}]}}