{"type":"subcategory","payload":{"analyticsListId":"category_30501-sucuri-fresh-proaspete","analyticsListName":"Category - Sucuri din fructe proaspete","name":"Sucuri din fructe proaspete","slug":"30501-sucuri-fresh-proaspete","image":null,"breadcrumbs":[{"code":"3","name":"Fructe & legume","slug":"3-fructe-si-legume"},{"code":"305","name":"Sucuri naturale","slug":"305-sucuri-naturale"},{"code":"30501","name":"Sucuri din fructe proaspete","slug":"30501-sucuri-fresh-proaspete"}],"slots":[],"page":1,"limit":10,"pages":3,"count":24,"siblings":[{"name":"Fructe proaspete","slug":"301-fructe-proaspete","selected":false},{"name":"Legume proaspete","slug":"302-legume-proaspete","selected":false},{"name":"Verdețuri și ierburi aromatice","slug":"303-verdeturi-si-plante-aromatice","selected":false},{"name":"Fructe și legume uscate","slug":"304-fructe-uscate-crude","selected":false},{"name":"Sucuri naturale","slug":"305-sucuri-naturale","selected":true}],"children":[{"name":"Toate produsele","slug":"305-sucuri-naturale","selected":false},{"name":"Sucuri din fructe proaspete","slug":"30501-sucuri-fresh-proaspete","selected":true},{"name":"Limonade","slug":"30502-limonade","selected":false},{"name":"Smoothies","slug":"30503-smoothie","selected":false},{"name":"Ice Tea natural","slug":"30504-ice-tea-natural","selected":false}],"products":[{"code":"100046097","variantCode":"5202178300042","name":"Suc de portocale 1l","slug":"100046097-olympus-suc-de-portocale-1l","unitPriceLabel":"12,24 Lei/l","brand":"Olympus","brandCode":"45","brandFilterCode":"olympus-b40","sku":"100046097","price":12.24,"originalPrice":null,"currencyCode":"RON","currency":"Lei","image":{"thumbnail":{"default":"https://cdn.freshful.ro/media/cache/sylius_shop_product_thumbnail/66/96/9a3f3161a5535f7e432815eb6403.jpg"},"large":{"default":"https://cdn.freshful.ro/media/cache/freshful_large/66/96/9a3f3161a5535f7e432815eb6403.jpg"},"extralarge":{"default":"https://cdn.freshful.ro/media/cache/sylius_shop_product_original/66/96/9a3f3161a5535f7e432815eb6403.jpg"}},"label":null,"tags":[],"isAvailable":true,"maxAvailableQuantity":100,"maxAllowedQuantity":100,"breadcrumbs":[{"code":"3","name":"Fructe & legume","slug":"3-fructe-si-legume"},{"code":"305","name":"Sucuri naturale","slug":"305-sucuri-naturale"},{"code":"30501","name":"Sucuri din fructe proaspete","slug":"30501-sucuri-fresh-proaspete"},{"code":"100046097","name":"Suc de portocale 1l","slug":"100046097-olympus-suc-de-portocale-1l"}],"activePromotion":null,"saveMe":null,"labels":[],"geniusPrice":null,"geniusUnitPricePerLabel":null,"banner":null,"discountLabel":null,"geniusDiscountLabel":null,"badge":null},{"code":"100046112","variantCode":"5202178005534","name":"Suc de portocale, mandarine, portocale roșii, mere 1l","slug":"100046112-olympus-suc-de-portocale-mandarine-portocale-rosii-mere-1l","unitPriceLabel":"13,99 Lei/l","brand":"Olympus","brandCode":"45","brandFilterCode":"olympus-b40","sku":"100046112","price":13.99,"originalPrice":null,"currencyCode":"RON","currency":"Lei","image":{"thumbnail":{"default":"https://cdn.freshful.ro/media/cache/sylius_shop_product_thumbnail/a3/67/0796d1109c4b34f5b223ff805105.jpg"},"large":{"default":"https://cdn.freshful.ro/media/cache/freshful_large/a3/67/0796d1109c4b34f5b223ff805105.jpg"},"extralarge":{"default":"https://cdn.freshful.ro/media/cache/sylius_shop_product_original/a3/67/0796d1109c4b34f5b223ff805105.jpg"}},"label":null,"tags":[{"type":"Natural","text":"Natural","icon":"https://cdn.freshful.ro/assets/product_tags/natural.svg","iconPng":"https://cdn.freshful.ro/assets/product_tags/natural.png","backgroundColor":"#E9FCF2","textColor":"#18AF62"}],"isAvailable":true,"maxAvailableQuantity":19,"maxAllowedQuantity":100,"breadcrumbs":[{"code":"3","name":"Fructe & legume","slug":"3-fructe-si-legume"},{"code":"305","name":"Sucuri naturale","slug":"305-sucuri-naturale"},{"code":"30501","name":"Sucuri din fructe proaspete","slug":"30501-sucuri-fresh-proaspete"},{"code":"100046112","name":"Suc de portocale, mandarine, portocale roșii, mere 1l","slug":"100046112-olympus-suc-de-portocale-mandarine-portocale-rosii-mere-1l"}],"activePromotion":null,"saveMe":null,"labels":[],"geniusPrice":null,"geniusUnitPricePerLabel":null,"banner":null,"discountLabel":null,"geniusDiscountLabel":null,"badge":null},{"code":"100046099","variantCode":"100046099","name":"Suc de 9 fructe cu 7 vitamine 1l","slug":"100046099-olympus-suc-de-9-fructe-cu-7-vitamine-1l","unitPriceLabel":"13,59 Lei/l","brand":"Olympus","brandCode":"45","brandFilterCode":"olympus-b40","sku":"100046099","price":13.59,"originalPrice":null,"currencyCode":"RON","currency":"Lei","image":{"thumbnail":{"default":"https://cdn.freshful.ro/media/cache/sylius_shop_product_thumbnail/9c/3b/f141b580b1a61e65fb50babc8dca.jpg"},"large":{"default":"https://cdn.freshful.ro/media/cache/freshful_large/9c/3b/f141b580b1a61e65fb50babc8dca.jpg"},"extralarge":{"default":"https://cdn.freshful.ro/media/cache/sylius_shop_product_original/9c/3b/f141b580b1a61e65fb50babc8dca.jpg"}},"label":null,"tags":[{"type":"Natural","text":"Natural","icon":"https://cdn.freshful.ro/assets/product_tags/natural.svg","iconPng":"https://cdn.freshful.ro/assets/product_tags/natural.png","backgroundColor":"#E9FCF2","textColor":"#18AF62"}],"isAvailable":true,"maxAvailableQuantity":46,"maxAllowedQuantity":100,"breadcrumbs":[{"code":"3","name":"Fructe & legume","slug":"3-fructe-si-legume"},{"code":"305","name":"Sucuri naturale","slug":"305-sucuri-naturale"},{"code":"30501","name":"Sucuri din fructe proaspete","slug":"30501-sucuri-fresh-proaspete"},{"code":"100046099","name":"Suc de 9 fructe cu 7 vitamine 1l","slug":"100046099-olympus-suc-de-9-fructe-cu-7-vitamine-1l"}],"activePromotion":null,"saveMe":null,"labels":[],"geniusPrice":null,"geniusUnitPricePerLabel":null,"banner":null,"discountLabel":null,"geniusDiscountLabel":null,"badge":null},{"code":"100046103","variantCode":"5202178040047","name":"Suc de mere, portocale, morcovi 1l","slug":"100046103-olympus-suc-de-mere-portocale-morcovi-1l","unitPriceLabel":"13,1 Lei/l","brand":"Olympus","brandCode":"45","brandFilterCode":"olympus-b40","sku":"100046103","price":13.1,"originalPrice":null,"currencyCode":"RON","currency":"Lei","image":{"thumbnail":{"default":"https://cdn.freshful.ro/media/cache/sylius_shop_product_thumbnail/69/40/639bb38123978940f428c84f6190.jpg"},"large":{"default":"https://cdn.freshful.ro/media/cache/freshful_large/69/40/639bb38123978940f428c84f6190.jpg"},"extralarge":{"default":"https://cdn.freshful.ro/media/cache/sylius_shop_product_original/69/40/639bb38123978940f428c84f6190.jpg"}},"label":null,"tags":[],"isAvailable":true,"maxAvailableQuantity":21,"maxAllowedQuantity":100,"breadcrumbs":[{"code":"3","name":"Fructe & legume","slug":"3-fructe-si-legume"},{"code":"305","name":"Sucuri naturale","slug":"305-sucuri-naturale"},{"code":"30501","name":"Sucuri din fructe proaspete","slug":"30501-sucuri-fresh-proaspete"},{"code":"100046103","name":"Suc de mere, portocale, morcovi 1l","slug":"100046103-olympus-suc-de-mere-portocale-morcovi-1l"}],"activePromotion":null,"saveMe":null,"labels":[],"geniusPrice":null,"geniusUnitPricePerLabel":null,"banner":null,"discountLabel":null,"geniusDiscountLabel":null,"badge":null},{"code":"100044656","variantCode":"5942329100021","name":"Raw juice Yummy Yummy 500ml","slug":"100044656-urban-monkey-raw-juice-yummy-yummy-500ml","unitPriceLabel":"35,78 Lei/l","brand":"Urban Monkey","brandCode":"236","brandFilterCode":"urban-monkey-b237","sku":"100044656","price":17.89,"originalPrice":null,"currencyCode":"RON","currency":"Lei","image":{"thumbnail":{"default":"https://cdn.freshful.ro/media/cache/sylius_shop_product_thumbnail/1f/f2/cac12a504f8076555660b0d5fd85.jpg"},"large":{"default":"https://cdn.freshful.ro/media/cache/freshful_large/1f/f2/cac12a504f8076555660b0d5fd85.jpg"},"extralarge":{"default":"https://cdn.freshful.ro/media/cache/sylius_shop_product_original/1f/f2/cac12a504f8076555660b0d5fd85.jpg"}},"label":null,"tags":[],"isAvailable":true,"maxAvailableQuantity":40,"maxAllowedQuantity":100,"breadcrumbs":[{"code":"3","name":"Fructe & legume","slug":"3-fructe-si-legume"},{"code":"305","name":"Sucuri naturale","slug":"305-sucuri-naturale"},{"code":"30501","name":"Sucuri din fructe proaspete","slug":"30501-sucuri-fresh-proaspete"},{"code":"100044656","name":"Raw juice Yummy Yummy 500ml","slug":"100044656-urban-monkey-raw-juice-yummy-yummy-500ml"}],"activePromotion":null,"saveMe":null,"labels":[],"geniusPrice":null,"geniusUnitPricePerLabel":null,"banner":null,"discountLabel":null,"geniusDiscountLabel":null,"badge":null},{"code":"100046098","variantCode":"100046098","name":"Suc de portocale, mere, sfeclă roșie și morcovi 1l","slug":"100046098-olympus-suc-de-portocale-mere-sfecla-rosie-si-morcovi-1l","unitPriceLabel":"13,99 Lei/l","brand":"Olympus","brandCode":"45","brandFilterCode":"olympus-b40","sku":"100046098","price":13.99,"originalPrice":null,"currencyCode":"RON","currency":"Lei","image":{"thumbnail":{"default":"https://cdn.freshful.ro/media/cache/sylius_shop_product_thumbnail/f5/b6/6b84c571d4919470308903e00066.jpg"},"large":{"default":"https://cdn.freshful.ro/media/cache/freshful_large/f5/b6/6b84c571d4919470308903e00066.jpg"},"extralarge":{"default":"https://cdn.freshful.ro/media/cache/sylius_shop_product_original/f5/b6/6b84c571d4919470308903e00066.jpg"}},"label":null,"tags":[{"type":"Natural","text":"Natural","icon":"https://cdn.freshful.ro/assets/product_tags/natural.svg","iconPng":"https://cdn.freshful.ro/assets/product_tags/natural.png","backgroundColor":"#E9FCF2","textColor":"#18AF62"}],"isAvailable":true,"maxAvailableQuantity":8,"maxAllowedQuantity":100,"breadcrumbs":[{"code":"3","name":"Fructe & legume","slug":"3-fructe-si-legume"},{"code":"305","name":"Sucuri naturale","slug":"305-sucuri-naturale"},{"code":"30501","name":"Sucuri din fructe proaspete","slug":"30501-sucuri-fresh-proaspete"},{"code":"100046098","name":"Suc de portocale, mere, sfeclă roșie și morcovi 1l","slug":"100046098-olympus-suc-de-portocale-mere-sfecla-rosie-si-morcovi-1l"}],"activePromotion":null,"saveMe":null,"labels":[],"geniusPrice":null,"geniusUnitPricePerLabel":null,"banner":null,"discountLabel":null,"geniusDiscountLabel":null,"badge":null},{"code":"100044646","variantCode":"5942329100854","name":"Raw juice Iron wow man 330ml","slug":"100044646-urban-monkey-raw-juice-iron-wow-man-330ml","unitPriceLabel":"42,85 Lei/l","brand":"Urban Monkey","brandCode":"236","brandFilterCode":"urban-monkey-b237","sku":"100044646","price":14.14,"originalPrice":null,"currencyCode":"RON","currency":"Lei","image":{"thumbnail":{"default":"https://cdn.freshful.ro/media/cache/sylius_shop_product_thumbnail/bf/14/e74f10ed149ccd102b403dd7657c.jpg"},"large":{"default":"https://cdn.freshful.ro/media/cache/freshful_large/bf/14/e74f10ed149ccd102b403dd7657c.jpg"},"extralarge":{"default":"https://cdn.freshful.ro/media/cache/sylius_shop_product_original/bf/14/e74f10ed149ccd102b403dd7657c.jpg"}},"label":null,"tags":[],"isAvailable":true,"maxAvailableQuantity":15,"maxAllowedQuantity":100,"breadcrumbs":[{"code":"3","name":"Fructe & legume","slug":"3-fructe-si-legume"},{"code":"305","name":"Sucuri naturale","slug":"305-sucuri-naturale"},{"code":"30501","name":"Sucuri din fructe proaspete","slug":"30501-sucuri-fresh-proaspete"},{"code":"100044646","name":"Raw juice Iron wow man 330ml","slug":"100044646-urban-monkey-raw-juice-iron-wow-man-330ml"}],"activePromotion":null,"saveMe":null,"labels":[],"geniusPrice":null,"geniusUnitPricePerLabel":null,"banner":null,"discountLabel":null,"geniusDiscountLabel":null,"badge":null},{"code":"100046096","variantCode":"5202178305047","name":"Suc de portocale 500ml","slug":"100046096-olympus-suc-de-portocale-500ml","unitPriceLabel":"15,98 Lei/l","brand":"Olympus","brandCode":"45","brandFilterCode":"olympus-b40","sku":"100046096","price":7.99,"originalPrice":null,"currencyCode":"RON","currency":"Lei","image":{"thumbnail":{"default":"https://cdn.freshful.ro/media/cache/sylius_shop_product_thumbnail/96/5f/182a80acb8d2cc320a5131942166.jpg"},"large":{"default":"https://cdn.freshful.ro/media/cache/freshful_large/96/5f/182a80acb8d2cc320a5131942166.jpg"},"extralarge":{"default":"https://cdn.freshful.ro/media/cache/sylius_shop_product_original/96/5f/182a80acb8d2cc320a5131942166.jpg"}},"label":null,"tags":[{"type":"Natural","text":"Natural","icon":"https://cdn.freshful.ro/assets/product_tags/natural.svg","iconPng":"https://cdn.freshful.ro/assets/product_tags/natural.png","backgroundColor":"#E9FCF2","textColor":"#18AF62"}],"isAvailable":true,"maxAvailableQuantity":33,"maxAllowedQuantity":100,"breadcrumbs":[{"code":"3","name":"Fructe & legume","slug":"3-fructe-si-legume"},{"code":"305","name":"Sucuri naturale","slug":"305-sucuri-naturale"},{"code":"30501","name":"Sucuri din fructe proaspete","slug":"30501-sucuri-fresh-proaspete"},{"code":"100046096","name":"Suc de portocale 500ml","slug":"100046096-olympus-suc-de-portocale-500ml"}],"activePromotion":null,"saveMe":null,"labels":[],"geniusPrice":null,"geniusUnitPricePerLabel":null,"banner":null,"discountLabel":null,"geniusDiscountLabel":null,"badge":null},{"code":"100046105","variantCode":"5202178005541","name":"Suc de mere, aronia, struguri, rodie 1l","slug":"100046105-olympus-suc-de-mere-aronia-struguri-rodie-1l","unitPriceLabel":"13,29 Lei/l","brand":"Olympus","brandCode":"45","brandFilterCode":"olympus-b40","sku":"100046105","price":13.29,"originalPrice":null,"currencyCode":"RON","currency":"Lei","image":{"thumbnail":{"default":"https://cdn.freshful.ro/media/cache/sylius_shop_product_thumbnail/b6/b6/0eabe58a576bd5350eaf720937ca.jpg"},"large":{"default":"https://cdn.freshful.ro/media/cache/freshful_large/b6/b6/0eabe58a576bd5350eaf720937ca.jpg"},"extralarge":{"default":"https://cdn.freshful.ro/media/cache/sylius_shop_product_original/b6/b6/0eabe58a576bd5350eaf720937ca.jpg"}},"label":null,"tags":[{"type":"Natural","text":"Natural","icon":"https://cdn.freshful.ro/assets/product_tags/natural.svg","iconPng":"https://cdn.freshful.ro/assets/product_tags/natural.png","backgroundColor":"#E9FCF2","textColor":"#18AF62"}],"isAvailable":true,"maxAvailableQuantity":20,"maxAllowedQuantity":100,"breadcrumbs":[{"code":"3","name":"Fructe & legume","slug":"3-fructe-si-legume"},{"code":"305","name":"Sucuri naturale","slug":"305-sucuri-naturale"},{"code":"30501","name":"Sucuri din fructe proaspete","slug":"30501-sucuri-fresh-proaspete"},{"code":"100046105","name":"Suc de mere, aronia, struguri, rodie 1l","slug":"100046105-olympus-suc-de-mere-aronia-struguri-rodie-1l"}],"activePromotion":null,"saveMe":null,"labels":[],"geniusPrice":null,"geniusUnitPricePerLabel":null,"banner":null,"discountLabel":null,"geniusDiscountLabel":null,"badge":null},{"code":"100046104","variantCode":"100046104","name":"Suc de mere și piersici 1l","slug":"100046104-olympus-suc-de-mere-si-piersici-1l","unitPriceLabel":"14,14 Lei/l","brand":"Olympus","brandCode":"45","brandFilterCode":"olympus-b40","sku":"100046104","price":14.14,"originalPrice":null,"currencyCode":"RON","currency":"Lei","image":{"thumbnail":{"default":"https://cdn.freshful.ro/media/cache/sylius_shop_product_thumbnail/0a/2a/acd97203c40e8351b9f81bb80a05.jpg"},"large":{"default":"https://cdn.freshful.ro/media/cache/freshful_large/0a/2a/acd97203c40e8351b9f81bb80a05.jpg"},"extralarge":{"default":"https://cdn.freshful.ro/media/cache/sylius_shop_product_original/0a/2a/acd97203c40e8351b9f81bb80a05.jpg"}},"label":null,"tags":[{"type":"Natural","text":"Natural","icon":"https://cdn.freshful.ro/assets/product_tags/natural.svg","iconPng":"https://cdn.freshful.ro/assets/product_tags/natural.png","backgroundColor":"#E9FCF2","textColor":"#18AF62"}],"isAvailable":true,"maxAvailableQuantity":39,"maxAllowedQuantity":100,"breadcrumbs":[{"code":"3","name":"Fructe & legume","slug":"3-fructe-si-legume"},{"code":"305","name":"Sucuri naturale","slug":"305-sucuri-naturale"},{"code":"30501","name":"Sucuri din fructe proaspete","slug":"30501-sucuri-fresh-proaspete"},{"code":"100046104","name":"Suc de mere și piersici 1l","slug":"100046104-olympus-suc-de-mere-si-piersici-1l"}],"activePromotion":null,"saveMe":null,"labels":[],"geniusPrice":null,"geniusUnitPricePerLabel":null,"banner":null,"discountLabel":null,"geniusDiscountLabel":null,"badge":null}],"filters":{"countSelected":0,"items":[{"code":"brand","name":"Brand","countSelected":0,"values":[{"code":"olympus-b40","name":"Olympus","isSelected":false,"count":12},{"code":"urban-monkey-b237","name":"Urban Monkey","isSelected":false,"count":3}]},{"code":"diet_lifestyle","name":"Dietă și lifestyle","countSelected":0,"values":[{"code":"fara-conservanti-a37","name":"Fara conservanti","isSelected":false,"count":7},{"code":"fara-zahar-adaugat-a29","name":"Fara zahar adaugat","isSelected":false,"count":6},{"code":"made-in-romania-a85","name":"Made In Romania","isSelected":false,"count":7},{"code":"natural-a27","name":"Natural","isSelected":false,"count":9}]}]},"orderBy":[{"field":"price","direction":"asc","name":"Preț crescător","isSelected":false},{"field":"price","direction":"desc","name":"Preț descrescător","isSelected":false},{"field":"popularity","direction":"desc","name":"Cele mai populare","isSelected":true},{"field":"category","direction":"asc","name":"Categorie","isSelected":false}],"metaTitle":"Sucuri din fructe proaspete - Gamă variată","metaDescription":"Vrei Sucuri din fructe proaspete? Alege dintr-o gamă variată. Comanzi simplu și ai livrare rapidă, calitate și prospețime. Hai pe Freshful.ro","metaKeywords":null,"banners":[]}}