{"type":"subcategory","payload":{"analyticsListId":"category_30503-smoothie","analyticsListName":"Category - Smoothies","name":"Smoothies","slug":"30503-smoothie","image":null,"breadcrumbs":[{"code":"3","name":"Fructe & legume","slug":"3-fructe-si-legume"},{"code":"305","name":"Sucuri naturale","slug":"305-sucuri-naturale"},{"code":"30503","name":"Smoothies","slug":"30503-smoothie"}],"slots":[],"page":1,"limit":10,"pages":2,"count":17,"siblings":[{"name":"Fructe proaspete","slug":"301-fructe-proaspete","selected":false},{"name":"Legume proaspete","slug":"302-legume-proaspete","selected":false},{"name":"Verdețuri și ierburi aromatice","slug":"303-verdeturi-si-plante-aromatice","selected":false},{"name":"Fructe și legume uscate","slug":"304-fructe-uscate-crude","selected":false},{"name":"Sucuri naturale","slug":"305-sucuri-naturale","selected":true}],"children":[{"name":"Toate produsele","slug":"305-sucuri-naturale","selected":false},{"name":"Sucuri din fructe proaspete","slug":"30501-sucuri-fresh-proaspete","selected":false},{"name":"Limonade","slug":"30502-limonade","selected":false},{"name":"Smoothies","slug":"30503-smoothie","selected":true},{"name":"Ice Tea natural","slug":"30504-ice-tea-natural","selected":false}],"products":[{"code":"100044183","variantCode":"5941884601127","name":"Smuti cocos și ananas 250ml","slug":"100044183-sloop-smuti-cocos-si-ananas-250ml","unitPriceLabel":"37,96 Lei/l","brand":"SLooP","brandCode":"242","brandFilterCode":"sloop-b243","sku":"100044183","price":9.49,"originalPrice":10.99,"currencyCode":"RON","currency":"Lei","image":{"thumbnail":{"default":"https://cdn.freshful.ro/media/cache/sylius_shop_product_thumbnail/85/83/e1dde47b2632da3535900b5a5245.jpg"},"large":{"default":"https://cdn.freshful.ro/media/cache/freshful_large/85/83/e1dde47b2632da3535900b5a5245.jpg"},"extralarge":{"default":"https://cdn.freshful.ro/media/cache/sylius_shop_product_original/85/83/e1dde47b2632da3535900b5a5245.jpg"}},"label":{"text":"-13%","backgroundColor":"#FF9903","textColor":"#FFFFFF"},"tags":[{"type":"NoAddedSugar","text":"Fara zahar adaugat","icon":"https://cdn.freshful.ro/assets/product_tags/fara_zahar_adaugat.svg","iconPng":"https://cdn.freshful.ro/assets/product_tags/fara_zahar_adaugat.png","backgroundColor":"#F8EDF7","textColor":"#C05EBC"},{"type":"NoPreservatives","text":"Fara conservanti","icon":"https://cdn.freshful.ro/assets/product_tags/fara_conservanti.svg","iconPng":"https://cdn.freshful.ro/assets/product_tags/fara_conservanti.png","backgroundColor":"#F0F2FF","textColor":"#7889DD"}],"isAvailable":true,"maxAvailableQuantity":95,"maxAllowedQuantity":100,"breadcrumbs":[{"code":"3","name":"Fructe & legume","slug":"3-fructe-si-legume"},{"code":"305","name":"Sucuri naturale","slug":"305-sucuri-naturale"},{"code":"30503","name":"Smoothies","slug":"30503-smoothie"},{"code":"100044183","name":"Smuti cocos și ananas 250ml","slug":"100044183-sloop-smuti-cocos-si-ananas-250ml"}],"activePromotion":{"code":"bunatatile-saptamanii-cw0923","name":"Preț redus","targetQuantity":null},"saveMe":null,"labels":[{"type":"v1","items":[{"text":"-13%","backgroundColor":"#FF9903","textColor":"#FFFFFF"}]}],"geniusPrice":null,"geniusUnitPricePerLabel":null,"banner":{"text":"Super preț","textColor":"#FF0000","bgColor":"#FFF2EC","icon":null,"link":"https://www.freshful.ro/oferte/bunatatile-saptamanii-cw0923","type":"promo","analyticsEventType":"select_promotion","analyticsEventPayload":{"promotion_id":"bunatatile-saptamanii-cw0923","promotion_name":"Oferta proaspătă a săptămânii"}},"discountLabel":"Economisești 13%","geniusDiscountLabel":null,"badge":null},{"code":"100044650","variantCode":"5942329101219","name":"Raw shot ghimbir 60ml","slug":"100044650-urban-monkey-raw-shot-ghimbir-60ml","unitPriceLabel":"137,5 Lei/l","brand":"Urban Monkey","brandCode":"236","brandFilterCode":"urban-monkey-b237","sku":"100044650","price":8.25,"originalPrice":null,"currencyCode":"RON","currency":"Lei","image":{"thumbnail":{"default":"https://cdn.freshful.ro/media/cache/sylius_shop_product_thumbnail/40/f9/b803a9f89d0e2a66a25f44aedfe2.jpg"},"large":{"default":"https://cdn.freshful.ro/media/cache/freshful_large/40/f9/b803a9f89d0e2a66a25f44aedfe2.jpg"},"extralarge":{"default":"https://cdn.freshful.ro/media/cache/sylius_shop_product_original/40/f9/b803a9f89d0e2a66a25f44aedfe2.jpg"}},"label":null,"tags":[],"isAvailable":true,"maxAvailableQuantity":52,"maxAllowedQuantity":100,"breadcrumbs":[{"code":"3","name":"Fructe & legume","slug":"3-fructe-si-legume"},{"code":"305","name":"Sucuri naturale","slug":"305-sucuri-naturale"},{"code":"30503","name":"Smoothies","slug":"30503-smoothie"},{"code":"100044650","name":"Raw shot ghimbir 60ml","slug":"100044650-urban-monkey-raw-shot-ghimbir-60ml"}],"activePromotion":null,"saveMe":null,"labels":[],"geniusPrice":null,"geniusUnitPricePerLabel":null,"banner":null,"discountLabel":null,"geniusDiscountLabel":null,"badge":null},{"code":"100044652","variantCode":"5942329100502","name":"Raw shot cătină 60ml","slug":"100044652-urban-monkey-raw-shot-catina-60ml","unitPriceLabel":"83,17 Lei/l","brand":"Urban Monkey","brandCode":"236","brandFilterCode":"urban-monkey-b237","sku":"100044652","price":4.99,"originalPrice":null,"currencyCode":"RON","currency":"Lei","image":{"thumbnail":{"default":"https://cdn.freshful.ro/media/cache/sylius_shop_product_thumbnail/1d/a9/21965e9c2ce88409e73761e00580.jpg"},"large":{"default":"https://cdn.freshful.ro/media/cache/freshful_large/1d/a9/21965e9c2ce88409e73761e00580.jpg"},"extralarge":{"default":"https://cdn.freshful.ro/media/cache/sylius_shop_product_original/1d/a9/21965e9c2ce88409e73761e00580.jpg"}},"label":null,"tags":[],"isAvailable":true,"maxAvailableQuantity":100,"maxAllowedQuantity":100,"breadcrumbs":[{"code":"3","name":"Fructe & legume","slug":"3-fructe-si-legume"},{"code":"305","name":"Sucuri naturale","slug":"305-sucuri-naturale"},{"code":"30503","name":"Smoothies","slug":"30503-smoothie"},{"code":"100044652","name":"Raw shot cătină 60ml","slug":"100044652-urban-monkey-raw-shot-catina-60ml"}],"activePromotion":null,"saveMe":null,"labels":[],"geniusPrice":null,"geniusUnitPricePerLabel":null,"banner":null,"discountLabel":null,"geniusDiscountLabel":null,"badge":null},{"code":"100135233","variantCode":"100135233","name":"Raw Shot Vitamin C 60ml","slug":"100135233-urban-monkey-raw-shot-vitamin-c-60ml","unitPriceLabel":"99,83 Lei/l","brand":"Urban Monkey","brandCode":"236","brandFilterCode":"urban-monkey-b237","sku":"100135233","price":5.99,"originalPrice":null,"currencyCode":"RON","currency":"Lei","image":{"thumbnail":{"default":"https://cdn.freshful.ro/media/cache/sylius_shop_product_thumbnail/97/c2/fcb1b00968185323171865ddba65.jpg"},"large":{"default":"https://cdn.freshful.ro/media/cache/freshful_large/97/c2/fcb1b00968185323171865ddba65.jpg"},"extralarge":{"default":"https://cdn.freshful.ro/media/cache/sylius_shop_product_original/97/c2/fcb1b00968185323171865ddba65.jpg"}},"label":null,"tags":[],"isAvailable":true,"maxAvailableQuantity":100,"maxAllowedQuantity":100,"breadcrumbs":[{"code":"3","name":"Fructe & legume","slug":"3-fructe-si-legume"},{"code":"305","name":"Sucuri naturale","slug":"305-sucuri-naturale"},{"code":"30503","name":"Smoothies","slug":"30503-smoothie"},{"code":"100135233","name":"Raw Shot Vitamin C 60ml","slug":"100135233-urban-monkey-raw-shot-vitamin-c-60ml"}],"activePromotion":null,"saveMe":null,"labels":[],"geniusPrice":null,"geniusUnitPricePerLabel":null,"banner":null,"discountLabel":null,"geniusDiscountLabel":null,"badge":null},{"code":"100150676","variantCode":"100150676","name":"Shot cu moringa, cărbune activ și ghimbir 125ml","slug":"100150676-sloop-shot-cu-moringa-carbune-activ-si-ghimbir-125ml","unitPriceLabel":"79,92 Lei/l","brand":"SLooP","brandCode":"242","brandFilterCode":"sloop-b243","sku":"100150676","price":9.99,"originalPrice":null,"currencyCode":"RON","currency":"Lei","image":{"thumbnail":{"default":"https://cdn.freshful.ro/media/cache/sylius_shop_product_thumbnail/b7/5c/1bcd4eef8cdce17958ca271c95c0.jpg"},"large":{"default":"https://cdn.freshful.ro/media/cache/freshful_large/b7/5c/1bcd4eef8cdce17958ca271c95c0.jpg"},"extralarge":{"default":"https://cdn.freshful.ro/media/cache/sylius_shop_product_original/b7/5c/1bcd4eef8cdce17958ca271c95c0.jpg"}},"label":null,"tags":[{"type":"NoAddedSugar","text":"Fara zahar adaugat","icon":"https://cdn.freshful.ro/assets/product_tags/fara_zahar_adaugat.svg","iconPng":"https://cdn.freshful.ro/assets/product_tags/fara_zahar_adaugat.png","backgroundColor":"#F8EDF7","textColor":"#C05EBC"},{"type":"NoPreservatives","text":"Fara conservanti","icon":"https://cdn.freshful.ro/assets/product_tags/fara_conservanti.svg","iconPng":"https://cdn.freshful.ro/assets/product_tags/fara_conservanti.png","backgroundColor":"#F0F2FF","textColor":"#7889DD"}],"isAvailable":true,"maxAvailableQuantity":76,"maxAllowedQuantity":100,"breadcrumbs":[{"code":"3","name":"Fructe & legume","slug":"3-fructe-si-legume"},{"code":"305","name":"Sucuri naturale","slug":"305-sucuri-naturale"},{"code":"30503","name":"Smoothies","slug":"30503-smoothie"},{"code":"100150676","name":"Shot cu moringa, cărbune activ și ghimbir 125ml","slug":"100150676-sloop-shot-cu-moringa-carbune-activ-si-ghimbir-125ml"}],"activePromotion":null,"saveMe":null,"labels":[],"geniusPrice":null,"geniusUnitPricePerLabel":null,"banner":null,"discountLabel":null,"geniusDiscountLabel":null,"badge":null},{"code":"100044648","variantCode":"5942329100960","name":"Raw smoothie Avo nation 250ml","slug":"100044648-urban-monkey-raw-smoothie-avo-nation-250ml","unitPriceLabel":"49,36 Lei/l","brand":"Urban Monkey","brandCode":"236","brandFilterCode":"urban-monkey-b237","sku":"100044648","price":12.34,"originalPrice":null,"currencyCode":"RON","currency":"Lei","image":{"thumbnail":{"default":"https://cdn.freshful.ro/media/cache/sylius_shop_product_thumbnail/b9/57/74c7825437631834ddf0de197748.jpg"},"large":{"default":"https://cdn.freshful.ro/media/cache/freshful_large/b9/57/74c7825437631834ddf0de197748.jpg"},"extralarge":{"default":"https://cdn.freshful.ro/media/cache/sylius_shop_product_original/b9/57/74c7825437631834ddf0de197748.jpg"}},"label":null,"tags":[],"isAvailable":true,"maxAvailableQuantity":2,"maxAllowedQuantity":100,"breadcrumbs":[{"code":"3","name":"Fructe & legume","slug":"3-fructe-si-legume"},{"code":"305","name":"Sucuri naturale","slug":"305-sucuri-naturale"},{"code":"30503","name":"Smoothies","slug":"30503-smoothie"},{"code":"100044648","name":"Raw smoothie Avo nation 250ml","slug":"100044648-urban-monkey-raw-smoothie-avo-nation-250ml"}],"activePromotion":null,"saveMe":null,"labels":[],"geniusPrice":null,"geniusUnitPricePerLabel":null,"banner":null,"discountLabel":null,"geniusDiscountLabel":null,"badge":null},{"code":"100135234","variantCode":"100135234","name":"Raw Shot Vitamin D 60ml","slug":"100135234-urban-monkey-raw-shot-vitamin-d-60ml","unitPriceLabel":"141,5 Lei/l","brand":"Urban Monkey","brandCode":"236","brandFilterCode":"urban-monkey-b237","sku":"100135234","price":8.49,"originalPrice":null,"currencyCode":"RON","currency":"Lei","image":{"thumbnail":{"default":"https://cdn.freshful.ro/media/cache/sylius_shop_product_thumbnail/49/4f/c85e7416911e8719e10aacba36dc.jpg"},"large":{"default":"https://cdn.freshful.ro/media/cache/freshful_large/49/4f/c85e7416911e8719e10aacba36dc.jpg"},"extralarge":{"default":"https://cdn.freshful.ro/media/cache/sylius_shop_product_original/49/4f/c85e7416911e8719e10aacba36dc.jpg"}},"label":null,"tags":[],"isAvailable":true,"maxAvailableQuantity":43,"maxAllowedQuantity":100,"breadcrumbs":[{"code":"3","name":"Fructe & legume","slug":"3-fructe-si-legume"},{"code":"305","name":"Sucuri naturale","slug":"305-sucuri-naturale"},{"code":"30503","name":"Smoothies","slug":"30503-smoothie"},{"code":"100135234","name":"Raw Shot Vitamin D 60ml","slug":"100135234-urban-monkey-raw-shot-vitamin-d-60ml"}],"activePromotion":null,"saveMe":null,"labels":[],"geniusPrice":null,"geniusUnitPricePerLabel":null,"banner":null,"discountLabel":null,"geniusDiscountLabel":null,"badge":null},{"code":"100044187","variantCode":"5941884601189","name":"Smuti Fructul Dragonului 250ml","slug":"100044187-sloop-smuti-fructul-dragonului-250ml","unitPriceLabel":"43,96 Lei/l","brand":"SLooP","brandCode":"242","brandFilterCode":"sloop-b243","sku":"100044187","price":10.99,"originalPrice":null,"currencyCode":"RON","currency":"Lei","image":{"thumbnail":{"default":"https://cdn.freshful.ro/media/cache/sylius_shop_product_thumbnail/39/2e/2ffa0b0de05653171b0017b3e843.jpg"},"large":{"default":"https://cdn.freshful.ro/media/cache/freshful_large/39/2e/2ffa0b0de05653171b0017b3e843.jpg"},"extralarge":{"default":"https://cdn.freshful.ro/media/cache/sylius_shop_product_original/39/2e/2ffa0b0de05653171b0017b3e843.jpg"}},"label":null,"tags":[{"type":"NoAddedSugar","text":"Fara zahar adaugat","icon":"https://cdn.freshful.ro/assets/product_tags/fara_zahar_adaugat.svg","iconPng":"https://cdn.freshful.ro/assets/product_tags/fara_zahar_adaugat.png","backgroundColor":"#F8EDF7","textColor":"#C05EBC"},{"type":"NoPreservatives","text":"Fara conservanti","icon":"https://cdn.freshful.ro/assets/product_tags/fara_conservanti.svg","iconPng":"https://cdn.freshful.ro/assets/product_tags/fara_conservanti.png","backgroundColor":"#F0F2FF","textColor":"#7889DD"}],"isAvailable":true,"maxAvailableQuantity":100,"maxAllowedQuantity":100,"breadcrumbs":[{"code":"3","name":"Fructe & legume","slug":"3-fructe-si-legume"},{"code":"305","name":"Sucuri naturale","slug":"305-sucuri-naturale"},{"code":"30503","name":"Smoothies","slug":"30503-smoothie"},{"code":"100044187","name":"Smuti Fructul Dragonului 250ml","slug":"100044187-sloop-smuti-fructul-dragonului-250ml"}],"activePromotion":null,"saveMe":null,"labels":[],"geniusPrice":null,"geniusUnitPricePerLabel":null,"banner":null,"discountLabel":null,"geniusDiscountLabel":null,"badge":null},{"code":"100150671","variantCode":"100150671","name":"Smuti Up Doer cu cocos, ananas, chia și spirulină 250ml","slug":"100150671-sloop-smuti-up-doer-cu-cocos-ananas-chia-si-spirulina-250ml","unitPriceLabel":"49,96 Lei/l","brand":"SLooP","brandCode":"242","brandFilterCode":"sloop-b243","sku":"100150671","price":12.49,"originalPrice":null,"currencyCode":"RON","currency":"Lei","image":{"thumbnail":{"default":"https://cdn.freshful.ro/media/cache/sylius_shop_product_thumbnail/01/a2/002215e19fae1e5c77a79ee55344.jpg"},"large":{"default":"https://cdn.freshful.ro/media/cache/freshful_large/01/a2/002215e19fae1e5c77a79ee55344.jpg"},"extralarge":{"default":"https://cdn.freshful.ro/media/cache/sylius_shop_product_original/01/a2/002215e19fae1e5c77a79ee55344.jpg"}},"label":null,"tags":[{"type":"NoAddedSugar","text":"Fara zahar adaugat","icon":"https://cdn.freshful.ro/assets/product_tags/fara_zahar_adaugat.svg","iconPng":"https://cdn.freshful.ro/assets/product_tags/fara_zahar_adaugat.png","backgroundColor":"#F8EDF7","textColor":"#C05EBC"},{"type":"NoPreservatives","text":"Fara conservanti","icon":"https://cdn.freshful.ro/assets/product_tags/fara_conservanti.svg","iconPng":"https://cdn.freshful.ro/assets/product_tags/fara_conservanti.png","backgroundColor":"#F0F2FF","textColor":"#7889DD"}],"isAvailable":true,"maxAvailableQuantity":35,"maxAllowedQuantity":100,"breadcrumbs":[{"code":"3","name":"Fructe & legume","slug":"3-fructe-si-legume"},{"code":"305","name":"Sucuri naturale","slug":"305-sucuri-naturale"},{"code":"30503","name":"Smoothies","slug":"30503-smoothie"},{"code":"100150671","name":"Smuti Up Doer cu cocos, ananas, chia și spirulină 250ml","slug":"100150671-sloop-smuti-up-doer-cu-cocos-ananas-chia-si-spirulina-250ml"}],"activePromotion":null,"saveMe":null,"labels":[],"geniusPrice":null,"geniusUnitPricePerLabel":null,"banner":null,"discountLabel":null,"geniusDiscountLabel":null,"badge":null},{"code":"100150673","variantCode":"100150673","name":"Smuti Up Doer cu mango, fructul pasiunii și chia 250ml","slug":"100150673-sloop-smuti-up-doer-cu-mango-fructul-pasiunii-si-chia-250ml","unitPriceLabel":"49,96 Lei/l","brand":"SLooP","brandCode":"242","brandFilterCode":"sloop-b243","sku":"100150673","price":12.49,"originalPrice":null,"currencyCode":"RON","currency":"Lei","image":{"thumbnail":{"default":"https://cdn.freshful.ro/media/cache/sylius_shop_product_thumbnail/4d/43/e171f56f71f9dfe222f90103cb61.jpg"},"large":{"default":"https://cdn.freshful.ro/media/cache/freshful_large/4d/43/e171f56f71f9dfe222f90103cb61.jpg"},"extralarge":{"default":"https://cdn.freshful.ro/media/cache/sylius_shop_product_original/4d/43/e171f56f71f9dfe222f90103cb61.jpg"}},"label":null,"tags":[{"type":"NoAddedSugar","text":"Fara zahar adaugat","icon":"https://cdn.freshful.ro/assets/product_tags/fara_zahar_adaugat.svg","iconPng":"https://cdn.freshful.ro/assets/product_tags/fara_zahar_adaugat.png","backgroundColor":"#F8EDF7","textColor":"#C05EBC"},{"type":"NoPreservatives","text":"Fara conservanti","icon":"https://cdn.freshful.ro/assets/product_tags/fara_conservanti.svg","iconPng":"https://cdn.freshful.ro/assets/product_tags/fara_conservanti.png","backgroundColor":"#F0F2FF","textColor":"#7889DD"}],"isAvailable":true,"maxAvailableQuantity":100,"maxAllowedQuantity":100,"breadcrumbs":[{"code":"3","name":"Fructe & legume","slug":"3-fructe-si-legume"},{"code":"305","name":"Sucuri naturale","slug":"305-sucuri-naturale"},{"code":"30503","name":"Smoothies","slug":"30503-smoothie"},{"code":"100150673","name":"Smuti Up Doer cu mango, fructul pasiunii și chia 250ml","slug":"100150673-sloop-smuti-up-doer-cu-mango-fructul-pasiunii-si-chia-250ml"}],"activePromotion":null,"saveMe":null,"labels":[],"geniusPrice":null,"geniusUnitPricePerLabel":null,"banner":null,"discountLabel":null,"geniusDiscountLabel":null,"badge":null}],"filters":{"countSelected":0,"items":[{"code":"promotion","name":"Promoții","countSelected":0,"values":[{"code":"bunatatile-saptamanii-cw0923","name":"Oferta proaspătă a săptămânii","isSelected":false,"count":1}]},{"code":"brand","name":"Brand","countSelected":0,"values":[{"code":"sloop-b243","name":"SLooP","isSelected":false,"count":11},{"code":"urban-monkey-b237","name":"Urban Monkey","isSelected":false,"count":6}]},{"code":"diet_lifestyle","name":"Dietă și lifestyle","countSelected":0,"values":[{"code":"fara-conservanti-a37","name":"Fara conservanti","isSelected":false,"count":11},{"code":"fara-zahar-adaugat-a29","name":"Fara zahar adaugat","isSelected":false,"count":11}]}]},"orderBy":[{"field":"price","direction":"asc","name":"Preț crescător","isSelected":false},{"field":"price","direction":"desc","name":"Preț descrescător","isSelected":false},{"field":"popularity","direction":"desc","name":"Cele mai populare","isSelected":true},{"field":"category","direction":"asc","name":"Categorie","isSelected":false}],"metaTitle":"Smoothies - Gamă variată","metaDescription":"Vrei Smoothies? Alege dintr-o gamă variată. Comanzi simplu și ai livrare rapidă, calitate și prospețime. Hai pe Freshful.ro","metaKeywords":null,"banners":[]}}