{"type":"subcategory","payload":{"analyticsListId":"category_30504-ice-tea-natural","analyticsListName":"Category - Ice Tea natural","name":"Ice Tea natural","slug":"30504-ice-tea-natural","image":null,"breadcrumbs":[{"code":"3","name":"Fructe & legume","slug":"3-fructe-si-legume"},{"code":"305","name":"Sucuri naturale","slug":"305-sucuri-naturale"},{"code":"30504","name":"Ice Tea natural","slug":"30504-ice-tea-natural"}],"slots":[],"page":1,"limit":10,"pages":2,"count":11,"siblings":[{"name":"Fructe proaspete","slug":"301-fructe-proaspete","selected":false},{"name":"Legume proaspete","slug":"302-legume-proaspete","selected":false},{"name":"Verdețuri și ierburi aromatice","slug":"303-verdeturi-si-plante-aromatice","selected":false},{"name":"Fructe și legume uscate","slug":"304-fructe-uscate-crude","selected":false},{"name":"Sucuri naturale","slug":"305-sucuri-naturale","selected":true}],"children":[{"name":"Toate produsele","slug":"305-sucuri-naturale","selected":false},{"name":"Sucuri din fructe proaspete","slug":"30501-sucuri-fresh-proaspete","selected":false},{"name":"Limonade","slug":"30502-limonade","selected":false},{"name":"Smoothies","slug":"30503-smoothie","selected":false},{"name":"Ice Tea natural","slug":"30504-ice-tea-natural","selected":true}],"products":[{"code":"100150240","variantCode":"100150240","name":"Kombucha băutură probiotică energizantă cu miere și soc 330ml","slug":"100150240-ikombucha-kombucha-bautura-probiotica-energizanta-cu-miere-si-soc-330ml","unitPriceLabel":"45,42 Lei/l","brand":"iKombucha","brandCode":"2980","brandFilterCode":"ikombucha-b3074","sku":"100150240","price":14.99,"originalPrice":null,"currencyCode":"RON","currency":"Lei","image":{"thumbnail":{"default":"https://cdn.freshful.ro/media/cache/sylius_shop_product_thumbnail/05/6f/b59d321f3465c9cd9b1383a25f6c.jpg"},"large":{"default":"https://cdn.freshful.ro/media/cache/freshful_large/05/6f/b59d321f3465c9cd9b1383a25f6c.jpg"},"extralarge":{"default":"https://cdn.freshful.ro/media/cache/sylius_shop_product_original/05/6f/b59d321f3465c9cd9b1383a25f6c.jpg"}},"label":{"text":"Mici producători","backgroundColor":"#7B61FF","textColor":"#FFFFFF"},"tags":[],"isAvailable":true,"maxAvailableQuantity":100,"maxAllowedQuantity":100,"breadcrumbs":[{"code":"3","name":"Fructe & legume","slug":"3-fructe-si-legume"},{"code":"305","name":"Sucuri naturale","slug":"305-sucuri-naturale"},{"code":"30504","name":"Ice Tea natural","slug":"30504-ice-tea-natural"},{"code":"100150240","name":"Kombucha băutură probiotică energizantă cu miere și soc 330ml","slug":"100150240-ikombucha-kombucha-bautura-probiotica-energizanta-cu-miere-si-soc-330ml"}],"activePromotion":null,"saveMe":null,"labels":[{"type":"v1","items":[{"text":"Mici producători","backgroundColor":"#7B61FF","textColor":"#FFFFFF"}]}],"geniusPrice":null,"geniusUnitPricePerLabel":null,"banner":null,"discountLabel":null,"geniusDiscountLabel":null,"badge":null},{"code":"100046107","variantCode":"5202178006135","name":"Ceai de la munte piersică 500ml","slug":"100046107-olympus-ceai-de-la-munte-piersica-500ml","unitPriceLabel":"13,08 Lei/l","brand":"Olympus","brandCode":"45","brandFilterCode":"olympus-b40","sku":"100046107","price":6.54,"originalPrice":null,"currencyCode":"RON","currency":"Lei","image":{"thumbnail":{"default":"https://cdn.freshful.ro/media/cache/sylius_shop_product_thumbnail/f5/9b/2fe3db32e023e9edc885192e1041.jpg"},"large":{"default":"https://cdn.freshful.ro/media/cache/freshful_large/f5/9b/2fe3db32e023e9edc885192e1041.jpg"},"extralarge":{"default":"https://cdn.freshful.ro/media/cache/sylius_shop_product_original/f5/9b/2fe3db32e023e9edc885192e1041.jpg"}},"label":null,"tags":[{"type":"NoAddedSugar","text":"Fara zahar adaugat","icon":"https://cdn.freshful.ro/assets/product_tags/fara_zahar_adaugat.svg","iconPng":"https://cdn.freshful.ro/assets/product_tags/fara_zahar_adaugat.png","backgroundColor":"#F8EDF7","textColor":"#C05EBC"}],"isAvailable":true,"maxAvailableQuantity":81,"maxAllowedQuantity":100,"breadcrumbs":[{"code":"3","name":"Fructe & legume","slug":"3-fructe-si-legume"},{"code":"305","name":"Sucuri naturale","slug":"305-sucuri-naturale"},{"code":"30504","name":"Ice Tea natural","slug":"30504-ice-tea-natural"},{"code":"100046107","name":"Ceai de la munte piersică 500ml","slug":"100046107-olympus-ceai-de-la-munte-piersica-500ml"}],"activePromotion":null,"saveMe":null,"labels":[],"geniusPrice":null,"geniusUnitPricePerLabel":null,"banner":null,"discountLabel":null,"geniusDiscountLabel":null,"badge":null},{"code":"100046108","variantCode":"5202178006142","name":"Ceai de la munte mentă 500ml","slug":"100046108-olympus-ceai-de-la-munte-menta-500ml","unitPriceLabel":"13,08 Lei/l","brand":"Olympus","brandCode":"45","brandFilterCode":"olympus-b40","sku":"100046108","price":6.54,"originalPrice":null,"currencyCode":"RON","currency":"Lei","image":{"thumbnail":{"default":"https://cdn.freshful.ro/media/cache/sylius_shop_product_thumbnail/ab/5a/a2bcb78b2fbeccc2187d486ff7c8.jpg"},"large":{"default":"https://cdn.freshful.ro/media/cache/freshful_large/ab/5a/a2bcb78b2fbeccc2187d486ff7c8.jpg"},"extralarge":{"default":"https://cdn.freshful.ro/media/cache/sylius_shop_product_original/ab/5a/a2bcb78b2fbeccc2187d486ff7c8.jpg"}},"label":null,"tags":[{"type":"NoAddedSugar","text":"Fara zahar adaugat","icon":"https://cdn.freshful.ro/assets/product_tags/fara_zahar_adaugat.svg","iconPng":"https://cdn.freshful.ro/assets/product_tags/fara_zahar_adaugat.png","backgroundColor":"#F8EDF7","textColor":"#C05EBC"}],"isAvailable":true,"maxAvailableQuantity":77,"maxAllowedQuantity":100,"breadcrumbs":[{"code":"3","name":"Fructe & legume","slug":"3-fructe-si-legume"},{"code":"305","name":"Sucuri naturale","slug":"305-sucuri-naturale"},{"code":"30504","name":"Ice Tea natural","slug":"30504-ice-tea-natural"},{"code":"100046108","name":"Ceai de la munte mentă 500ml","slug":"100046108-olympus-ceai-de-la-munte-menta-500ml"}],"activePromotion":null,"saveMe":null,"labels":[],"geniusPrice":null,"geniusUnitPricePerLabel":null,"banner":null,"discountLabel":null,"geniusDiscountLabel":null,"badge":null},{"code":"100046110","variantCode":"5202178006104","name":"Ceai de la munte lămâie 500ml","slug":"100046110-olympus-ceai-de-la-munte-lamaie-500ml","unitPriceLabel":"13,08 Lei/l","brand":"Olympus","brandCode":"45","brandFilterCode":"olympus-b40","sku":"100046110","price":6.54,"originalPrice":null,"currencyCode":"RON","currency":"Lei","image":{"thumbnail":{"default":"https://cdn.freshful.ro/media/cache/sylius_shop_product_thumbnail/0a/ff/0a5296eb27691f86ab27e775c5c9.jpg"},"large":{"default":"https://cdn.freshful.ro/media/cache/freshful_large/0a/ff/0a5296eb27691f86ab27e775c5c9.jpg"},"extralarge":{"default":"https://cdn.freshful.ro/media/cache/sylius_shop_product_original/0a/ff/0a5296eb27691f86ab27e775c5c9.jpg"}},"label":null,"tags":[{"type":"NoAddedSugar","text":"Fara zahar adaugat","icon":"https://cdn.freshful.ro/assets/product_tags/fara_zahar_adaugat.svg","iconPng":"https://cdn.freshful.ro/assets/product_tags/fara_zahar_adaugat.png","backgroundColor":"#F8EDF7","textColor":"#C05EBC"}],"isAvailable":true,"maxAvailableQuantity":92,"maxAllowedQuantity":100,"breadcrumbs":[{"code":"3","name":"Fructe & legume","slug":"3-fructe-si-legume"},{"code":"305","name":"Sucuri naturale","slug":"305-sucuri-naturale"},{"code":"30504","name":"Ice Tea natural","slug":"30504-ice-tea-natural"},{"code":"100046110","name":"Ceai de la munte lămâie 500ml","slug":"100046110-olympus-ceai-de-la-munte-lamaie-500ml"}],"activePromotion":null,"saveMe":null,"labels":[],"geniusPrice":null,"geniusUnitPricePerLabel":null,"banner":null,"discountLabel":null,"geniusDiscountLabel":null,"badge":null},{"code":"100150241","variantCode":"100150241","name":"Kombucha băutură probiotică energizantă cu ceai verde 330ml","slug":"100150241-ikombucha-kombucha-bautura-probiotica-energizanta-cu-ceai-verde-330ml","unitPriceLabel":"45,42 Lei/l","brand":"iKombucha","brandCode":"2980","brandFilterCode":"ikombucha-b3074","sku":"100150241","price":14.99,"originalPrice":null,"currencyCode":"RON","currency":"Lei","image":{"thumbnail":{"default":"https://cdn.freshful.ro/media/cache/sylius_shop_product_thumbnail/fb/08/a2f9bbb3dcddfe80bdd3c205e281.jpg"},"large":{"default":"https://cdn.freshful.ro/media/cache/freshful_large/fb/08/a2f9bbb3dcddfe80bdd3c205e281.jpg"},"extralarge":{"default":"https://cdn.freshful.ro/media/cache/sylius_shop_product_original/fb/08/a2f9bbb3dcddfe80bdd3c205e281.jpg"}},"label":{"text":"Mici producători","backgroundColor":"#7B61FF","textColor":"#FFFFFF"},"tags":[],"isAvailable":true,"maxAvailableQuantity":89,"maxAllowedQuantity":100,"breadcrumbs":[{"code":"3","name":"Fructe & legume","slug":"3-fructe-si-legume"},{"code":"305","name":"Sucuri naturale","slug":"305-sucuri-naturale"},{"code":"30504","name":"Ice Tea natural","slug":"30504-ice-tea-natural"},{"code":"100150241","name":"Kombucha băutură probiotică energizantă cu ceai verde 330ml","slug":"100150241-ikombucha-kombucha-bautura-probiotica-energizanta-cu-ceai-verde-330ml"}],"activePromotion":null,"saveMe":null,"labels":[{"type":"v1","items":[{"text":"Mici producători","backgroundColor":"#7B61FF","textColor":"#FFFFFF"}]}],"geniusPrice":null,"geniusUnitPricePerLabel":null,"banner":null,"discountLabel":null,"geniusDiscountLabel":null,"badge":null},{"code":"100150242","variantCode":"100150242","name":"Kombucha băutură probiotică energizantă cu trandafir și hibiscus 330ml","slug":"100150242-ikombucha-kombucha-bautura-probiotica-energizanta-cu-trandafir-si-hibiscus-330ml","unitPriceLabel":"45,42 Lei/l","brand":"iKombucha","brandCode":"2980","brandFilterCode":"ikombucha-b3074","sku":"100150242","price":14.99,"originalPrice":null,"currencyCode":"RON","currency":"Lei","image":{"thumbnail":{"default":"https://cdn.freshful.ro/media/cache/sylius_shop_product_thumbnail/70/d9/1f1ebe21f80a5ff3a6278b7f0b69.jpg"},"large":{"default":"https://cdn.freshful.ro/media/cache/freshful_large/70/d9/1f1ebe21f80a5ff3a6278b7f0b69.jpg"},"extralarge":{"default":"https://cdn.freshful.ro/media/cache/sylius_shop_product_original/70/d9/1f1ebe21f80a5ff3a6278b7f0b69.jpg"}},"label":{"text":"Mici producători","backgroundColor":"#7B61FF","textColor":"#FFFFFF"},"tags":[],"isAvailable":true,"maxAvailableQuantity":15,"maxAllowedQuantity":100,"breadcrumbs":[{"code":"3","name":"Fructe & legume","slug":"3-fructe-si-legume"},{"code":"305","name":"Sucuri naturale","slug":"305-sucuri-naturale"},{"code":"30504","name":"Ice Tea natural","slug":"30504-ice-tea-natural"},{"code":"100150242","name":"Kombucha băutură probiotică energizantă cu trandafir și hibiscus 330ml","slug":"100150242-ikombucha-kombucha-bautura-probiotica-energizanta-cu-trandafir-si-hibiscus-330ml"}],"activePromotion":null,"saveMe":null,"labels":[{"type":"v1","items":[{"text":"Mici producători","backgroundColor":"#7B61FF","textColor":"#FFFFFF"}]}],"geniusPrice":null,"geniusUnitPricePerLabel":null,"banner":null,"discountLabel":null,"geniusDiscountLabel":null,"badge":null},{"code":"100046109","variantCode":"5202178006128","name":"Ceai de la munte rodie 500ml","slug":"100046109-olympus-ceai-de-la-munte-rodie-500ml","unitPriceLabel":"14,38 Lei/l","brand":"Olympus","brandCode":"45","brandFilterCode":"olympus-b40","sku":"100046109","price":7.19,"originalPrice":null,"currencyCode":"RON","currency":"Lei","image":{"thumbnail":{"default":"https://cdn.freshful.ro/media/cache/sylius_shop_product_thumbnail/aa/4a/eb8f31648068d2f5126749194c88.jpg"},"large":{"default":"https://cdn.freshful.ro/media/cache/freshful_large/aa/4a/eb8f31648068d2f5126749194c88.jpg"},"extralarge":{"default":"https://cdn.freshful.ro/media/cache/sylius_shop_product_original/aa/4a/eb8f31648068d2f5126749194c88.jpg"}},"label":null,"tags":[{"type":"NoAddedSugar","text":"Fara zahar adaugat","icon":"https://cdn.freshful.ro/assets/product_tags/fara_zahar_adaugat.svg","iconPng":"https://cdn.freshful.ro/assets/product_tags/fara_zahar_adaugat.png","backgroundColor":"#F8EDF7","textColor":"#C05EBC"}],"isAvailable":true,"maxAvailableQuantity":42,"maxAllowedQuantity":100,"breadcrumbs":[{"code":"3","name":"Fructe & legume","slug":"3-fructe-si-legume"},{"code":"305","name":"Sucuri naturale","slug":"305-sucuri-naturale"},{"code":"30504","name":"Ice Tea natural","slug":"30504-ice-tea-natural"},{"code":"100046109","name":"Ceai de la munte rodie 500ml","slug":"100046109-olympus-ceai-de-la-munte-rodie-500ml"}],"activePromotion":null,"saveMe":null,"labels":[],"geniusPrice":null,"geniusUnitPricePerLabel":null,"banner":null,"discountLabel":null,"geniusDiscountLabel":null,"badge":null},{"code":"100046106","variantCode":"5202178006111","name":"Ceai de la munte aronia 500ml","slug":"100046106-olympus-ceai-de-la-munte-aronia-500ml","unitPriceLabel":"14,38 Lei/l","brand":"Olympus","brandCode":"45","brandFilterCode":"olympus-b40","sku":"100046106","price":7.19,"originalPrice":null,"currencyCode":"RON","currency":"Lei","image":{"thumbnail":{"default":"https://cdn.freshful.ro/media/cache/sylius_shop_product_thumbnail/a5/e2/5a4c34c29536885a7a6cba4fb971.jpg"},"large":{"default":"https://cdn.freshful.ro/media/cache/freshful_large/a5/e2/5a4c34c29536885a7a6cba4fb971.jpg"},"extralarge":{"default":"https://cdn.freshful.ro/media/cache/sylius_shop_product_original/a5/e2/5a4c34c29536885a7a6cba4fb971.jpg"}},"label":null,"tags":[{"type":"NoAddedSugar","text":"Fara zahar adaugat","icon":"https://cdn.freshful.ro/assets/product_tags/fara_zahar_adaugat.svg","iconPng":"https://cdn.freshful.ro/assets/product_tags/fara_zahar_adaugat.png","backgroundColor":"#F8EDF7","textColor":"#C05EBC"}],"isAvailable":true,"maxAvailableQuantity":23,"maxAllowedQuantity":100,"breadcrumbs":[{"code":"3","name":"Fructe & legume","slug":"3-fructe-si-legume"},{"code":"305","name":"Sucuri naturale","slug":"305-sucuri-naturale"},{"code":"30504","name":"Ice Tea natural","slug":"30504-ice-tea-natural"},{"code":"100046106","name":"Ceai de la munte aronia 500ml","slug":"100046106-olympus-ceai-de-la-munte-aronia-500ml"}],"activePromotion":null,"saveMe":null,"labels":[],"geniusPrice":null,"geniusUnitPricePerLabel":null,"banner":null,"discountLabel":null,"geniusDiscountLabel":null,"badge":null},{"code":"100150239","variantCode":"100150239","name":"Kombucha băutură probiotică energizantă cu lavandă 330ml","slug":"100150239-ikombucha-kombucha-bautura-probiotica-energizanta-cu-lavanda-330ml","unitPriceLabel":"45,42 Lei/l","brand":"iKombucha","brandCode":"2980","brandFilterCode":"ikombucha-b3074","sku":"100150239","price":14.99,"originalPrice":null,"currencyCode":"RON","currency":"Lei","image":{"thumbnail":{"default":"https://cdn.freshful.ro/media/cache/sylius_shop_product_thumbnail/06/e7/ec5609f8527a90851b077febdd1e.jpg"},"large":{"default":"https://cdn.freshful.ro/media/cache/freshful_large/06/e7/ec5609f8527a90851b077febdd1e.jpg"},"extralarge":{"default":"https://cdn.freshful.ro/media/cache/sylius_shop_product_original/06/e7/ec5609f8527a90851b077febdd1e.jpg"}},"label":{"text":"Mici producători","backgroundColor":"#7B61FF","textColor":"#FFFFFF"},"tags":[],"isAvailable":true,"maxAvailableQuantity":43,"maxAllowedQuantity":100,"breadcrumbs":[{"code":"3","name":"Fructe & legume","slug":"3-fructe-si-legume"},{"code":"305","name":"Sucuri naturale","slug":"305-sucuri-naturale"},{"code":"30504","name":"Ice Tea natural","slug":"30504-ice-tea-natural"},{"code":"100150239","name":"Kombucha băutură probiotică energizantă cu lavandă 330ml","slug":"100150239-ikombucha-kombucha-bautura-probiotica-energizanta-cu-lavanda-330ml"}],"activePromotion":null,"saveMe":null,"labels":[{"type":"v1","items":[{"text":"Mici producători","backgroundColor":"#7B61FF","textColor":"#FFFFFF"}]}],"geniusPrice":null,"geniusUnitPricePerLabel":null,"banner":null,"discountLabel":null,"geniusDiscountLabel":null,"badge":null},{"code":"100150238","variantCode":"100150238","name":"Kombucha băutură probiotică energizantă cu cardamom 330ml","slug":"100150238-ikombucha-kombucha-bautura-probiotica-energizanta-cu-cardamom-330ml","unitPriceLabel":"45,42 Lei/l","brand":"iKombucha","brandCode":"2980","brandFilterCode":"ikombucha-b3074","sku":"100150238","price":14.99,"originalPrice":null,"currencyCode":"RON","currency":"Lei","image":{"thumbnail":{"default":"https://cdn.freshful.ro/media/cache/sylius_shop_product_thumbnail/b5/a6/696a4b8d99cdefff178bb080ed65.jpg"},"large":{"default":"https://cdn.freshful.ro/media/cache/freshful_large/b5/a6/696a4b8d99cdefff178bb080ed65.jpg"},"extralarge":{"default":"https://cdn.freshful.ro/media/cache/sylius_shop_product_original/b5/a6/696a4b8d99cdefff178bb080ed65.jpg"}},"label":{"text":"Mici producători","backgroundColor":"#7B61FF","textColor":"#FFFFFF"},"tags":[],"isAvailable":true,"maxAvailableQuantity":25,"maxAllowedQuantity":100,"breadcrumbs":[{"code":"3","name":"Fructe & legume","slug":"3-fructe-si-legume"},{"code":"305","name":"Sucuri naturale","slug":"305-sucuri-naturale"},{"code":"30504","name":"Ice Tea natural","slug":"30504-ice-tea-natural"},{"code":"100150238","name":"Kombucha băutură probiotică energizantă cu cardamom 330ml","slug":"100150238-ikombucha-kombucha-bautura-probiotica-energizanta-cu-cardamom-330ml"}],"activePromotion":null,"saveMe":null,"labels":[{"type":"v1","items":[{"text":"Mici producători","backgroundColor":"#7B61FF","textColor":"#FFFFFF"}]}],"geniusPrice":null,"geniusUnitPricePerLabel":null,"banner":null,"discountLabel":null,"geniusDiscountLabel":null,"badge":null}],"filters":{"countSelected":0,"items":[{"code":"brand","name":"Brand","countSelected":0,"values":[{"code":"ikombucha-b3074","name":"iKombucha","isSelected":false,"count":6},{"code":"olympus-b40","name":"Olympus","isSelected":false,"count":5}]},{"code":"diet_lifestyle","name":"Dietă și lifestyle","countSelected":0,"values":[{"code":"fara-zahar-adaugat-a29","name":"Fara zahar adaugat","isSelected":false,"count":5}]}]},"orderBy":[{"field":"price","direction":"asc","name":"Preț crescător","isSelected":false},{"field":"price","direction":"desc","name":"Preț descrescător","isSelected":false},{"field":"popularity","direction":"desc","name":"Cele mai populare","isSelected":true},{"field":"category","direction":"asc","name":"Categorie","isSelected":false}],"metaTitle":"Ice Tea natural - Gamă variată","metaDescription":"Vrei Ice Tea natural? Alege dintr-o gamă variată. Comanzi simplu și ai livrare rapidă, calitate și prospețime. Hai pe Freshful.ro","metaKeywords":null,"banners":[]}}