{"type":"subcategory","payload":{"analyticsListId":"category_40101-lapte-proaspat","analyticsListName":"Category - Lapte proaspăt","name":"Lapte proaspăt","slug":"40101-lapte-proaspat","image":null,"breadcrumbs":[{"code":"4","name":"Lactate & ouă","slug":"4-lactate-branzeturi-si-oua"},{"code":"401","name":"Lapte, smântână și brânză proaspătă","slug":"401-lapte-smantana-si-branza-proaspata"},{"code":"40101","name":"Lapte proaspăt","slug":"40101-lapte-proaspat"}],"slots":[],"page":1,"limit":10,"pages":5,"count":42,"siblings":[{"name":"Lapte, smântână și brânză proaspătă","slug":"401-lapte-smantana-si-branza-proaspata","selected":true},{"name":"Unt","slug":"402-unt-si-margarina","selected":false},{"name":"Lactate UHT","slug":"403-lactate-uht","selected":false},{"name":"Iaurt, desert și sana","slug":"404-iaurt-desert-si-sana","selected":false},{"name":"Ouă","slug":"405-oua","selected":false},{"name":"Brânzeturi","slug":"406-branzeturi","selected":false},{"name":"Lapte și lactate ECO","slug":"lapte-si-lactate-eco","selected":false},{"name":"Amestecuri lactate și grasimi vegetale","slug":"amestecuri-lactate-si-grasimi-vegetale","selected":false}],"children":[{"name":"Toate produsele","slug":"401-lapte-smantana-si-branza-proaspata","selected":false},{"name":"Lapte proaspăt","slug":"40101-lapte-proaspat","selected":true},{"name":"Smântână proaspătă","slug":"40102-smantana","selected":false},{"name":"Brânză proaspătă","slug":"40103-branza-proaspata","selected":false}],"products":[{"code":"100032078","variantCode":"5941875900376","name":"Lapte de consum 3.7% grăsime 1l","slug":"100032078-olympus-lapte-de-consum-3-7-grasime-1l","unitPriceLabel":"7,99 Lei/l","brand":"Olympus","brandCode":"45","brandFilterCode":"olympus-b40","sku":"100032078","price":7.99,"originalPrice":9.99,"currencyCode":"RON","currency":"Lei","image":{"thumbnail":{"default":"https://cdn.freshful.ro/media/cache/sylius_shop_product_thumbnail/d0/58/f3353f6687cc5527de807dc6b490.jpg"},"large":{"default":"https://cdn.freshful.ro/media/cache/freshful_large/d0/58/f3353f6687cc5527de807dc6b490.jpg"},"extralarge":{"default":"https://cdn.freshful.ro/media/cache/sylius_shop_product_original/d0/58/f3353f6687cc5527de807dc6b490.jpg"}},"label":{"text":"-20%","backgroundColor":"#FF9903","textColor":"#FFFFFF"},"tags":[{"type":"MadeInRomania","text":"Made In Romania","icon":"https://cdn.freshful.ro/assets/product_tags/made_in_romania.svg","iconPng":"https://cdn.freshful.ro/assets/product_tags/made_in_romania.png","backgroundColor":"#EDF2FD","textColor":"#1653CA"}],"isAvailable":true,"maxAvailableQuantity":6,"maxAllowedQuantity":6,"breadcrumbs":[{"code":"4","name":"Lactate & ouă","slug":"4-lactate-branzeturi-si-oua"},{"code":"401","name":"Lapte, smântână și brânză proaspătă","slug":"401-lapte-smantana-si-branza-proaspata"},{"code":"40101","name":"Lapte proaspăt","slug":"40101-lapte-proaspat"},{"code":"100032078","name":"Lapte de consum 3.7% grăsime 1l","slug":"100032078-olympus-lapte-de-consum-3-7-grasime-1l"}],"activePromotion":{"code":"superpreturile-saptamanii","name":"Preț redus","targetQuantity":null},"saveMe":null,"labels":[{"type":"v1","items":[{"text":"-20%","backgroundColor":"#FF9903","textColor":"#FFFFFF"}]}],"geniusPrice":null,"geniusUnitPricePerLabel":null,"banner":{"text":"Super preț","textColor":"#FF0000","bgColor":"#FFF2EC","icon":null,"link":"https://www.freshful.ro/oferte/superpreturile-saptamanii","type":"promo","analyticsEventType":"select_promotion","analyticsEventPayload":{"promotion_id":"superpreturile-saptamanii","promotion_name":"Superprețurile zilei"}},"discountLabel":"Economisești 20%","geniusDiscountLabel":null,"badge":null},{"code":"100030286","variantCode":"5941065003337","name":"Lapte din inima Ardealului 1.5% grăsime 1l","slug":"100030286-napolact-lapte-din-inima-ardealului-1-5-grasime-1l","unitPriceLabel":"7,99 Lei/l","brand":"Napolact","brandCode":"79","brandFilterCode":"napolact-b77","sku":"100030286","price":7.99,"originalPrice":8.99,"currencyCode":"RON","currency":"Lei","image":{"thumbnail":{"default":"https://cdn.freshful.ro/media/cache/sylius_shop_product_thumbnail/22/a3/a03caf07fe96b2fbc4e3c67ac8ac.jpg"},"large":{"default":"https://cdn.freshful.ro/media/cache/freshful_large/22/a3/a03caf07fe96b2fbc4e3c67ac8ac.jpg"},"extralarge":{"default":"https://cdn.freshful.ro/media/cache/sylius_shop_product_original/22/a3/a03caf07fe96b2fbc4e3c67ac8ac.jpg"}},"label":{"text":"-11%","backgroundColor":"#FF9903","textColor":"#FFFFFF"},"tags":[{"type":"MadeInRomania","text":"Made In Romania","icon":"https://cdn.freshful.ro/assets/product_tags/made_in_romania.svg","iconPng":"https://cdn.freshful.ro/assets/product_tags/made_in_romania.png","backgroundColor":"#EDF2FD","textColor":"#1653CA"}],"isAvailable":true,"maxAvailableQuantity":4,"maxAllowedQuantity":4,"breadcrumbs":[{"code":"4","name":"Lactate & ouă","slug":"4-lactate-branzeturi-si-oua"},{"code":"401","name":"Lapte, smântână și brânză proaspătă","slug":"401-lapte-smantana-si-branza-proaspata"},{"code":"40101","name":"Lapte proaspăt","slug":"40101-lapte-proaspat"},{"code":"100030286","name":"Lapte din inima Ardealului 1.5% grăsime 1l","slug":"100030286-napolact-lapte-din-inima-ardealului-1-5-grasime-1l"}],"activePromotion":{"code":"freshful-top-deals-2023","name":"Preț redus","targetQuantity":null},"saveMe":null,"labels":[{"type":"v1","items":[{"text":"-11%","backgroundColor":"#FF9903","textColor":"#FFFFFF"}]}],"geniusPrice":null,"geniusUnitPricePerLabel":null,"banner":{"text":"Super preț","textColor":"#FF0000","bgColor":"#FFF2EC","icon":null,"link":"https://www.freshful.ro/oferte/freshful-top-deals-2023","type":"promo","analyticsEventType":"select_promotion","analyticsEventPayload":{"promotion_id":"freshful-top-deals-2023","promotion_name":"Profită de Top Deals"}},"discountLabel":"Economisești 11%","geniusDiscountLabel":null,"badge":null},{"code":"100138896","variantCode":"100138896","name":"Lapte fără lactoză, 3.5% grăsime  1l","slug":"100138896-napolact-lapte-fara-lactoza-3-5-grasime-1l","unitPriceLabel":"8,99 Lei/l","brand":"Napolact","brandCode":"79","brandFilterCode":"napolact-b77","sku":"100138896","price":8.99,"originalPrice":10.99,"currencyCode":"RON","currency":"Lei","image":{"thumbnail":{"default":"https://cdn.freshful.ro/media/cache/sylius_shop_product_thumbnail/a3/0e/7879af512fb3b7de8b08f24fc0e0.jpg"},"large":{"default":"https://cdn.freshful.ro/media/cache/freshful_large/a3/0e/7879af512fb3b7de8b08f24fc0e0.jpg"},"extralarge":{"default":"https://cdn.freshful.ro/media/cache/sylius_shop_product_original/a3/0e/7879af512fb3b7de8b08f24fc0e0.jpg"}},"label":{"text":"-18%","backgroundColor":"#FF9903","textColor":"#FFFFFF"},"tags":[{"type":"LactoseFree","text":"Fara lactoza","icon":"https://cdn.freshful.ro/assets/product_tags/fara_lactoza.svg","iconPng":"https://cdn.freshful.ro/assets/product_tags/fara_lactoza.png","backgroundColor":"#E9F7FB","textColor":"#25A6D0"},{"type":"MadeInRomania","text":"Made In Romania","icon":"https://cdn.freshful.ro/assets/product_tags/made_in_romania.svg","iconPng":"https://cdn.freshful.ro/assets/product_tags/made_in_romania.png","backgroundColor":"#EDF2FD","textColor":"#1653CA"}],"isAvailable":true,"maxAvailableQuantity":100,"maxAllowedQuantity":100,"breadcrumbs":[{"code":"4","name":"Lactate & ouă","slug":"4-lactate-branzeturi-si-oua"},{"code":"401","name":"Lapte, smântână și brânză proaspătă","slug":"401-lapte-smantana-si-branza-proaspata"},{"code":"40101","name":"Lapte proaspăt","slug":"40101-lapte-proaspat"},{"code":"100138896","name":"Lapte fără lactoză, 3.5% grăsime  1l","slug":"100138896-napolact-lapte-fara-lactoza-3-5-grasime-1l"}],"activePromotion":{"code":"special-produse-vegane-mar23","name":"Preț redus","targetQuantity":null},"saveMe":null,"labels":[{"type":"v1","items":[{"text":"-18%","backgroundColor":"#FF9903","textColor":"#FFFFFF"}]}],"geniusPrice":null,"geniusUnitPricePerLabel":null,"banner":{"text":"Super preț","textColor":"#FF0000","bgColor":"#FFF2EC","icon":null,"link":"https://www.freshful.ro/oferte/special-produse-vegane-mar23","type":"promo","analyticsEventType":"select_promotion","analyticsEventPayload":{"promotion_id":"special-produse-vegane-mar23","promotion_name":"Și bun, și de post"}},"discountLabel":"Economisești 18%","geniusDiscountLabel":null,"badge":null},{"code":"100138895","variantCode":"100138895","name":"Lapte fără lactoză 1.5% 1l","slug":"100138895-napolact-lapte-fara-lactoza-1-5-1l","unitPriceLabel":"8,99 Lei/l","brand":"Napolact","brandCode":"79","brandFilterCode":"napolact-b77","sku":"100138895","price":8.99,"originalPrice":10.49,"currencyCode":"RON","currency":"Lei","image":{"thumbnail":{"default":"https://cdn.freshful.ro/media/cache/sylius_shop_product_thumbnail/e1/cc/6fa61aea8235ca041ac4e0d1def2.jpg"},"large":{"default":"https://cdn.freshful.ro/media/cache/freshful_large/e1/cc/6fa61aea8235ca041ac4e0d1def2.jpg"},"extralarge":{"default":"https://cdn.freshful.ro/media/cache/sylius_shop_product_original/e1/cc/6fa61aea8235ca041ac4e0d1def2.jpg"}},"label":{"text":"-14%","backgroundColor":"#FF9903","textColor":"#FFFFFF"},"tags":[{"type":"LactoseFree","text":"Fara lactoza","icon":"https://cdn.freshful.ro/assets/product_tags/fara_lactoza.svg","iconPng":"https://cdn.freshful.ro/assets/product_tags/fara_lactoza.png","backgroundColor":"#E9F7FB","textColor":"#25A6D0"},{"type":"MadeInRomania","text":"Made In Romania","icon":"https://cdn.freshful.ro/assets/product_tags/made_in_romania.svg","iconPng":"https://cdn.freshful.ro/assets/product_tags/made_in_romania.png","backgroundColor":"#EDF2FD","textColor":"#1653CA"}],"isAvailable":true,"maxAvailableQuantity":100,"maxAllowedQuantity":100,"breadcrumbs":[{"code":"4","name":"Lactate & ouă","slug":"4-lactate-branzeturi-si-oua"},{"code":"401","name":"Lapte, smântână și brânză proaspătă","slug":"401-lapte-smantana-si-branza-proaspata"},{"code":"40101","name":"Lapte proaspăt","slug":"40101-lapte-proaspat"},{"code":"100138895","name":"Lapte fără lactoză 1.5% 1l","slug":"100138895-napolact-lapte-fara-lactoza-1-5-1l"}],"activePromotion":{"code":"special-produse-vegane-mar23","name":"Preț redus","targetQuantity":null},"saveMe":null,"labels":[{"type":"v1","items":[{"text":"-14%","backgroundColor":"#FF9903","textColor":"#FFFFFF"}]}],"geniusPrice":null,"geniusUnitPricePerLabel":null,"banner":{"text":"Super preț","textColor":"#FF0000","bgColor":"#FFF2EC","icon":null,"link":"https://www.freshful.ro/oferte/special-produse-vegane-mar23","type":"promo","analyticsEventType":"select_promotion","analyticsEventPayload":{"promotion_id":"special-produse-vegane-mar23","promotion_name":"Și bun, și de post"}},"discountLabel":"Economisești 14%","geniusDiscountLabel":null,"badge":null},{"code":"100003632","variantCode":"5941905044018","name":"Lapte de la vacă 3.8-4.1% grăsime 1l","slug":"100003632-laptaria-cu-caimac-lapte-de-la-vaca-3-8-4-1-grasime-1l","unitPriceLabel":"11,59 Lei/l","brand":"Lăptăria cu caimac","brandCode":"1","brandFilterCode":"laptaria-cu-caimac-b1","sku":"100003632","price":11.59,"originalPrice":null,"currencyCode":"RON","currency":"Lei","image":{"thumbnail":{"default":"https://cdn.freshful.ro/media/cache/sylius_shop_product_thumbnail/71/1e/7dddeae4da51a8a85dfd2c876a21.jpg"},"large":{"default":"https://cdn.freshful.ro/media/cache/freshful_large/71/1e/7dddeae4da51a8a85dfd2c876a21.jpg"},"extralarge":{"default":"https://cdn.freshful.ro/media/cache/sylius_shop_product_original/71/1e/7dddeae4da51a8a85dfd2c876a21.jpg"}},"label":null,"tags":[{"type":"MadeInRomania","text":"Made In Romania","icon":"https://cdn.freshful.ro/assets/product_tags/made_in_romania.svg","iconPng":"https://cdn.freshful.ro/assets/product_tags/made_in_romania.png","backgroundColor":"#EDF2FD","textColor":"#1653CA"}],"isAvailable":true,"maxAvailableQuantity":100,"maxAllowedQuantity":100,"breadcrumbs":[{"code":"4","name":"Lactate & ouă","slug":"4-lactate-branzeturi-si-oua"},{"code":"401","name":"Lapte, smântână și brânză proaspătă","slug":"401-lapte-smantana-si-branza-proaspata"},{"code":"40101","name":"Lapte proaspăt","slug":"40101-lapte-proaspat"},{"code":"100003632","name":"Lapte de la vacă 3.8-4.1% grăsime 1l","slug":"100003632-laptaria-cu-caimac-lapte-de-la-vaca-3-8-4-1-grasime-1l"}],"activePromotion":null,"saveMe":null,"labels":[],"geniusPrice":null,"geniusUnitPricePerLabel":null,"banner":null,"discountLabel":null,"geniusDiscountLabel":null,"badge":null},{"code":"100032059","variantCode":"100032059","name":"Lapte de consum 1.7% grăsime 1.5l","slug":"100032059-olympus-lapte-de-consum-1-7-grasime-1-5l","unitPriceLabel":"7,93 Lei/l","brand":"Olympus","brandCode":"45","brandFilterCode":"olympus-b40","sku":"100032059","price":11.89,"originalPrice":12.79,"currencyCode":"RON","currency":"Lei","image":{"thumbnail":{"default":"https://cdn.freshful.ro/media/cache/sylius_shop_product_thumbnail/72/96/0ae3363b0337c60c9df523713778.jpg"},"large":{"default":"https://cdn.freshful.ro/media/cache/freshful_large/72/96/0ae3363b0337c60c9df523713778.jpg"},"extralarge":{"default":"https://cdn.freshful.ro/media/cache/sylius_shop_product_original/72/96/0ae3363b0337c60c9df523713778.jpg"}},"label":{"text":"-7%","backgroundColor":"#FF9903","textColor":"#FFFFFF"},"tags":[{"type":"MadeInRomania","text":"Made In Romania","icon":"https://cdn.freshful.ro/assets/product_tags/made_in_romania.svg","iconPng":"https://cdn.freshful.ro/assets/product_tags/made_in_romania.png","backgroundColor":"#EDF2FD","textColor":"#1653CA"}],"isAvailable":true,"maxAvailableQuantity":4,"maxAllowedQuantity":4,"breadcrumbs":[{"code":"4","name":"Lactate & ouă","slug":"4-lactate-branzeturi-si-oua"},{"code":"401","name":"Lapte, smântână și brânză proaspătă","slug":"401-lapte-smantana-si-branza-proaspata"},{"code":"40101","name":"Lapte proaspăt","slug":"40101-lapte-proaspat"},{"code":"100032059","name":"Lapte de consum 1.7% grăsime 1.5l","slug":"100032059-olympus-lapte-de-consum-1-7-grasime-1-5l"}],"activePromotion":{"code":"freshful-top-deals-2023","name":"Preț redus","targetQuantity":null},"saveMe":null,"labels":[{"type":"v1","items":[{"text":"-7%","backgroundColor":"#FF9903","textColor":"#FFFFFF"}]}],"geniusPrice":null,"geniusUnitPricePerLabel":null,"banner":{"text":"Super preț","textColor":"#FF0000","bgColor":"#FFF2EC","icon":null,"link":"https://www.freshful.ro/oferte/freshful-top-deals-2023","type":"promo","analyticsEventType":"select_promotion","analyticsEventPayload":{"promotion_id":"freshful-top-deals-2023","promotion_name":"Profită de Top Deals"}},"discountLabel":"Economisești 7%","geniusDiscountLabel":null,"badge":null},{"code":"100003515","variantCode":"4025500135614","name":"Lapte cu banane 400g","slug":"100003515-muller-lapte-cu-banane-400g","unitPriceLabel":"17,23 Lei/kg","brand":"Müller","brandCode":"258","brandFilterCode":"muller-b259","sku":"100003515","price":6.89,"originalPrice":7.69,"currencyCode":"RON","currency":"Lei","image":{"thumbnail":{"default":"https://cdn.freshful.ro/media/cache/sylius_shop_product_thumbnail/08/86/62a122d1fef8b336014e7a70b2fe.jpg"},"large":{"default":"https://cdn.freshful.ro/media/cache/freshful_large/08/86/62a122d1fef8b336014e7a70b2fe.jpg"},"extralarge":{"default":"https://cdn.freshful.ro/media/cache/sylius_shop_product_original/08/86/62a122d1fef8b336014e7a70b2fe.jpg"}},"label":{"text":"-10%","backgroundColor":"#FF9903","textColor":"#FFFFFF"},"tags":[],"isAvailable":true,"maxAvailableQuantity":16,"maxAllowedQuantity":100,"breadcrumbs":[{"code":"4","name":"Lactate & ouă","slug":"4-lactate-branzeturi-si-oua"},{"code":"401","name":"Lapte, smântână și brânză proaspătă","slug":"401-lapte-smantana-si-branza-proaspata"},{"code":"40101","name":"Lapte proaspăt","slug":"40101-lapte-proaspat"},{"code":"100003515","name":"Lapte cu banane 400g","slug":"100003515-muller-lapte-cu-banane-400g"}],"activePromotion":{"code":"bunatatile-saptamanii-cw0923","name":"Preț redus","targetQuantity":null},"saveMe":null,"labels":[{"type":"v1","items":[{"text":"-10%","backgroundColor":"#FF9903","textColor":"#FFFFFF"}]}],"geniusPrice":null,"geniusUnitPricePerLabel":null,"banner":{"text":"Super preț","textColor":"#FF0000","bgColor":"#FFF2EC","icon":null,"link":"https://www.freshful.ro/oferte/bunatatile-saptamanii-cw0923","type":"promo","analyticsEventType":"select_promotion","analyticsEventPayload":{"promotion_id":"bunatatile-saptamanii-cw0923","promotion_name":"Oferta proaspătă a săptămânii"}},"discountLabel":"Economisești 10%","geniusDiscountLabel":null,"badge":null},{"code":"100003512","variantCode":"4025500132477","name":"Lapte cu ciocolată 400g","slug":"100003512-muller-lapte-cu-ciocolata-400g","unitPriceLabel":"17,23 Lei/kg","brand":"Müller","brandCode":"258","brandFilterCode":"muller-b259","sku":"100003512","price":6.89,"originalPrice":7.69,"currencyCode":"RON","currency":"Lei","image":{"thumbnail":{"default":"https://cdn.freshful.ro/media/cache/sylius_shop_product_thumbnail/44/8b/eeb18bee0623b879195d12849199.jpg"},"large":{"default":"https://cdn.freshful.ro/media/cache/freshful_large/44/8b/eeb18bee0623b879195d12849199.jpg"},"extralarge":{"default":"https://cdn.freshful.ro/media/cache/sylius_shop_product_original/44/8b/eeb18bee0623b879195d12849199.jpg"}},"label":{"text":"-10%","backgroundColor":"#FF9903","textColor":"#FFFFFF"},"tags":[],"isAvailable":true,"maxAvailableQuantity":19,"maxAllowedQuantity":100,"breadcrumbs":[{"code":"4","name":"Lactate & ouă","slug":"4-lactate-branzeturi-si-oua"},{"code":"401","name":"Lapte, smântână și brânză proaspătă","slug":"401-lapte-smantana-si-branza-proaspata"},{"code":"40101","name":"Lapte proaspăt","slug":"40101-lapte-proaspat"},{"code":"100003512","name":"Lapte cu ciocolată 400g","slug":"100003512-muller-lapte-cu-ciocolata-400g"}],"activePromotion":{"code":"bunatatile-saptamanii-cw0923","name":"Preț redus","targetQuantity":null},"saveMe":null,"labels":[{"type":"v1","items":[{"text":"-10%","backgroundColor":"#FF9903","textColor":"#FFFFFF"}]}],"geniusPrice":null,"geniusUnitPricePerLabel":null,"banner":{"text":"Super preț","textColor":"#FF0000","bgColor":"#FFF2EC","icon":null,"link":"https://www.freshful.ro/oferte/bunatatile-saptamanii-cw0923","type":"promo","analyticsEventType":"select_promotion","analyticsEventPayload":{"promotion_id":"bunatatile-saptamanii-cw0923","promotion_name":"Oferta proaspătă a săptămânii"}},"discountLabel":"Economisești 10%","geniusDiscountLabel":null,"badge":null},{"code":"100135194","variantCode":"100135194","name":"Lapte 3.5% grăsime 1.7l","slug":"100135194-napolact-lapte-3-5-grasime-1-7l","unitPriceLabel":"10,58 Lei/l","brand":"Napolact","brandCode":"79","brandFilterCode":"napolact-b77","sku":"100135194","price":17.99,"originalPrice":null,"currencyCode":"RON","currency":"Lei","image":{"thumbnail":{"default":"https://cdn.freshful.ro/media/cache/sylius_shop_product_thumbnail/e5/df/7bd1edf623fafef13030943893cd.jpg"},"large":{"default":"https://cdn.freshful.ro/media/cache/freshful_large/e5/df/7bd1edf623fafef13030943893cd.jpg"},"extralarge":{"default":"https://cdn.freshful.ro/media/cache/sylius_shop_product_original/e5/df/7bd1edf623fafef13030943893cd.jpg"}},"label":null,"tags":[{"type":"MadeInRomania","text":"Made In Romania","icon":"https://cdn.freshful.ro/assets/product_tags/made_in_romania.svg","iconPng":"https://cdn.freshful.ro/assets/product_tags/made_in_romania.png","backgroundColor":"#EDF2FD","textColor":"#1653CA"}],"isAvailable":true,"maxAvailableQuantity":100,"maxAllowedQuantity":100,"breadcrumbs":[{"code":"4","name":"Lactate & ouă","slug":"4-lactate-branzeturi-si-oua"},{"code":"401","name":"Lapte, smântână și brânză proaspătă","slug":"401-lapte-smantana-si-branza-proaspata"},{"code":"40101","name":"Lapte proaspăt","slug":"40101-lapte-proaspat"},{"code":"100135194","name":"Lapte 3.5% grăsime 1.7l","slug":"100135194-napolact-lapte-3-5-grasime-1-7l"}],"activePromotion":null,"saveMe":null,"labels":[],"geniusPrice":null,"geniusUnitPricePerLabel":null,"banner":null,"discountLabel":null,"geniusDiscountLabel":null,"badge":null},{"code":"100004014","variantCode":"5941355000671","name":"Lapte 1.5% grăsime 1l","slug":"100004014-zuzu-lapte-1-5-grasime-1l","unitPriceLabel":"7,99 Lei/l","brand":"Zuzu","brandCode":"5","brandFilterCode":"zuzu-b45","sku":"100004014","price":7.99,"originalPrice":null,"currencyCode":"RON","currency":"Lei","image":{"thumbnail":{"default":"https://cdn.freshful.ro/media/cache/sylius_shop_product_thumbnail/a8/dc/f4f29bbdd5e123ea57de852ec279.jpg"},"large":{"default":"https://cdn.freshful.ro/media/cache/freshful_large/a8/dc/f4f29bbdd5e123ea57de852ec279.jpg"},"extralarge":{"default":"https://cdn.freshful.ro/media/cache/sylius_shop_product_original/a8/dc/f4f29bbdd5e123ea57de852ec279.jpg"}},"label":null,"tags":[{"type":"MadeInRomania","text":"Made In Romania","icon":"https://cdn.freshful.ro/assets/product_tags/made_in_romania.svg","iconPng":"https://cdn.freshful.ro/assets/product_tags/made_in_romania.png","backgroundColor":"#EDF2FD","textColor":"#1653CA"}],"isAvailable":true,"maxAvailableQuantity":4,"maxAllowedQuantity":4,"breadcrumbs":[{"code":"4","name":"Lactate & ouă","slug":"4-lactate-branzeturi-si-oua"},{"code":"401","name":"Lapte, smântână și brânză proaspătă","slug":"401-lapte-smantana-si-branza-proaspata"},{"code":"40101","name":"Lapte proaspăt","slug":"40101-lapte-proaspat"},{"code":"100004014","name":"Lapte 1.5% grăsime 1l","slug":"100004014-zuzu-lapte-1-5-grasime-1l"}],"activePromotion":null,"saveMe":null,"labels":[],"geniusPrice":null,"geniusUnitPricePerLabel":null,"banner":null,"discountLabel":null,"geniusDiscountLabel":null,"badge":null}],"filters":{"countSelected":0,"items":[{"code":"promotion","name":"Promoții","countSelected":0,"values":[{"code":"bunatatile-saptamanii-cw0923","name":"Oferta proaspătă a săptămânii","isSelected":false,"count":2},{"code":"freshful-top-deals-2023","name":"Profită de Top Deals","isSelected":false,"count":2},{"code":"superpreturile-saptamanii","name":"Superprețurile zilei","isSelected":false,"count":1},{"code":"special-produse-vegane-mar23","name":"Și bun, și de post","isSelected":false,"count":2}]},{"code":"brand","name":"Brand","countSelected":0,"values":[{"code":"5-to-go-b2826","name":"5 To Go","isSelected":false,"count":2},{"code":"artesana-b219","name":"Artesana","isSelected":false,"count":1},{"code":"covalact-b785","name":"Covalact","isSelected":false,"count":1},{"code":"huzur-b2725","name":"HUZUR","isSelected":false,"count":1},{"code":"laptaria-cu-caimac-b1","name":"Lăptăria cu caimac","isSelected":false,"count":2},{"code":"monor-b326","name":"Monor","isSelected":false,"count":5},{"code":"muller-b259","name":"Müller","isSelected":false,"count":6},{"code":"napolact-b77","name":"Napolact","isSelected":false,"count":6},{"code":"olympus-b40","name":"Olympus","isSelected":false,"count":7},{"code":"starbucks-b227","name":"Starbucks","isSelected":false,"count":6},{"code":"unirea-gospodarilor-b1888","name":"Unirea Gospodarilor","isSelected":false,"count":1},{"code":"zuzu-b45","name":"Zuzu","isSelected":false,"count":4}]},{"code":"diet_lifestyle","name":"Dietă și lifestyle","countSelected":0,"values":[{"code":"fara-lactoza-a38","name":"Fara lactoza","isSelected":false,"count":2},{"code":"made-in-romania-a85","name":"Made In Romania","isSelected":false,"count":27},{"code":"natural-a27","name":"Natural","isSelected":false,"count":1}]}]},"orderBy":[{"field":"price","direction":"asc","name":"Preț crescător","isSelected":false},{"field":"price","direction":"desc","name":"Preț descrescător","isSelected":false},{"field":"popularity","direction":"desc","name":"Cele mai populare","isSelected":true},{"field":"category","direction":"asc","name":"Categorie","isSelected":false}],"metaTitle":"Lapte proaspăt - Gamă variată","metaDescription":"Vrei Lapte proaspăt? Alege dintr-o gamă variată. Comanzi simplu și ai livrare rapidă, calitate și prospețime. Hai pe Freshful.ro","metaKeywords":null,"banners":[]}}