{"type":"subcategory","payload":{"analyticsListId":"category_40103-branza-proaspata","analyticsListName":"Category - Brânză proaspătă","name":"Brânză proaspătă","slug":"40103-branza-proaspata","image":null,"breadcrumbs":[{"code":"4","name":"Lactate & ouă","slug":"4-lactate-branzeturi-si-oua"},{"code":"401","name":"Lapte, smântână și brânză proaspătă","slug":"401-lapte-smantana-si-branza-proaspata"},{"code":"40103","name":"Brânză proaspătă","slug":"40103-branza-proaspata"}],"slots":[],"page":1,"limit":10,"pages":3,"count":23,"siblings":[{"name":"Lapte, smântână și brânză proaspătă","slug":"401-lapte-smantana-si-branza-proaspata","selected":true},{"name":"Unt","slug":"402-unt-si-margarina","selected":false},{"name":"Lactate UHT","slug":"403-lactate-uht","selected":false},{"name":"Iaurt, desert și sana","slug":"404-iaurt-desert-si-sana","selected":false},{"name":"Ouă","slug":"405-oua","selected":false},{"name":"Brânzeturi","slug":"406-branzeturi","selected":false},{"name":"Lapte și lactate ECO","slug":"lapte-si-lactate-eco","selected":false},{"name":"Amestecuri lactate și grasimi vegetale","slug":"amestecuri-lactate-si-grasimi-vegetale","selected":false}],"children":[{"name":"Toate produsele","slug":"401-lapte-smantana-si-branza-proaspata","selected":false},{"name":"Lapte proaspăt","slug":"40101-lapte-proaspat","selected":false},{"name":"Smântână proaspătă","slug":"40102-smantana","selected":false},{"name":"Brânză proaspătă","slug":"40103-branza-proaspata","selected":true}],"products":[{"code":"100142607","variantCode":"100142607","name":"Brânză de vaci 320g","slug":"100142607-artesana-branza-de-vaci-320g","unitPriceLabel":"31,22 Lei/kg","brand":"Artesana","brandCode":"218","brandFilterCode":"artesana-b219","sku":"100142607","price":9.99,"originalPrice":11.99,"currencyCode":"RON","currency":"Lei","image":{"thumbnail":{"default":"https://cdn.freshful.ro/media/cache/sylius_shop_product_thumbnail/b3/84/d796bb0d534619db196f8d0641be.jpg"},"large":{"default":"https://cdn.freshful.ro/media/cache/freshful_large/b3/84/d796bb0d534619db196f8d0641be.jpg"},"extralarge":{"default":"https://cdn.freshful.ro/media/cache/sylius_shop_product_original/b3/84/d796bb0d534619db196f8d0641be.jpg"}},"label":{"text":"-16%","backgroundColor":"#FF9903","textColor":"#FFFFFF"},"tags":[{"type":"MadeInRomania","text":"Made In Romania","icon":"https://cdn.freshful.ro/assets/product_tags/made_in_romania.svg","iconPng":"https://cdn.freshful.ro/assets/product_tags/made_in_romania.png","backgroundColor":"#EDF2FD","textColor":"#1653CA"}],"isAvailable":true,"maxAvailableQuantity":91,"maxAllowedQuantity":100,"breadcrumbs":[{"code":"4","name":"Lactate & ouă","slug":"4-lactate-branzeturi-si-oua"},{"code":"401","name":"Lapte, smântână și brânză proaspătă","slug":"401-lapte-smantana-si-branza-proaspata"},{"code":"40103","name":"Brânză proaspătă","slug":"40103-branza-proaspata"},{"code":"100142607","name":"Brânză de vaci 320g","slug":"100142607-artesana-branza-de-vaci-320g"}],"activePromotion":{"code":"bunatatile-saptamanii-cw0923","name":"Preț redus","targetQuantity":null},"saveMe":null,"labels":[{"type":"v1","items":[{"text":"-16%","backgroundColor":"#FF9903","textColor":"#FFFFFF"}]}],"geniusPrice":null,"geniusUnitPricePerLabel":null,"banner":{"text":"Super preț","textColor":"#FF0000","bgColor":"#FFF2EC","icon":null,"link":"https://www.freshful.ro/oferte/bunatatile-saptamanii-cw0923","type":"promo","analyticsEventType":"select_promotion","analyticsEventPayload":{"promotion_id":"bunatatile-saptamanii-cw0923","promotion_name":"Oferta proaspătă a săptămânii"}},"discountLabel":"Economisești 16%","geniusDiscountLabel":null,"badge":null},{"code":"100047555","variantCode":"100047555","name":"Brânză Făgăraș 185g","slug":"100047555-covalact-branza-fagaras-185g","unitPriceLabel":"28,16 Lei/kg","brand":"Covalact","brandCode":"784","brandFilterCode":"covalact-b785","sku":"100047555","price":5.35,"originalPrice":null,"currencyCode":"RON","currency":"Lei","image":{"thumbnail":{"default":"https://cdn.freshful.ro/media/cache/sylius_shop_product_thumbnail/78/83/2c931ccbc8c1cf6c197cb9be838f.jpg"},"large":{"default":"https://cdn.freshful.ro/media/cache/freshful_large/78/83/2c931ccbc8c1cf6c197cb9be838f.jpg"},"extralarge":{"default":"https://cdn.freshful.ro/media/cache/sylius_shop_product_original/78/83/2c931ccbc8c1cf6c197cb9be838f.jpg"}},"label":null,"tags":[{"type":"MadeInRomania","text":"Made In Romania","icon":"https://cdn.freshful.ro/assets/product_tags/made_in_romania.svg","iconPng":"https://cdn.freshful.ro/assets/product_tags/made_in_romania.png","backgroundColor":"#EDF2FD","textColor":"#1653CA"}],"isAvailable":true,"maxAvailableQuantity":6,"maxAllowedQuantity":6,"breadcrumbs":[{"code":"4","name":"Lactate & ouă","slug":"4-lactate-branzeturi-si-oua"},{"code":"401","name":"Lapte, smântână și brânză proaspătă","slug":"401-lapte-smantana-si-branza-proaspata"},{"code":"40103","name":"Brânză proaspătă","slug":"40103-branza-proaspata"},{"code":"100047555","name":"Brânză Făgăraș 185g","slug":"100047555-covalact-branza-fagaras-185g"}],"activePromotion":null,"saveMe":null,"labels":[],"geniusPrice":null,"geniusUnitPricePerLabel":null,"banner":null,"discountLabel":null,"geniusDiscountLabel":null,"badge":null},{"code":"100141824","variantCode":"100141824","name":"Granule de brânză Cottage cu smântână 2% grăsime 180g","slug":"100141824-olympus-granule-de-branza-cottage-cu-smantana-2-grasime-180g","unitPriceLabel":"37,72 Lei/kg","brand":"Olympus","brandCode":"45","brandFilterCode":"olympus-b40","sku":"100141824","price":6.79,"originalPrice":null,"currencyCode":"RON","currency":"Lei","image":{"thumbnail":{"default":"https://cdn.freshful.ro/media/cache/sylius_shop_product_thumbnail/3d/0b/a1b0f1f8b70d39200e4ea88e4475.jpg"},"large":{"default":"https://cdn.freshful.ro/media/cache/freshful_large/3d/0b/a1b0f1f8b70d39200e4ea88e4475.jpg"},"extralarge":{"default":"https://cdn.freshful.ro/media/cache/sylius_shop_product_original/3d/0b/a1b0f1f8b70d39200e4ea88e4475.jpg"}},"label":null,"tags":[{"type":"MadeInRomania","text":"Made In Romania","icon":"https://cdn.freshful.ro/assets/product_tags/made_in_romania.svg","iconPng":"https://cdn.freshful.ro/assets/product_tags/made_in_romania.png","backgroundColor":"#EDF2FD","textColor":"#1653CA"}],"isAvailable":true,"maxAvailableQuantity":100,"maxAllowedQuantity":100,"breadcrumbs":[{"code":"4","name":"Lactate & ouă","slug":"4-lactate-branzeturi-si-oua"},{"code":"401","name":"Lapte, smântână și brânză proaspătă","slug":"401-lapte-smantana-si-branza-proaspata"},{"code":"40103","name":"Brânză proaspătă","slug":"40103-branza-proaspata"},{"code":"100141824","name":"Granule de brânză Cottage cu smântână 2% grăsime 180g","slug":"100141824-olympus-granule-de-branza-cottage-cu-smantana-2-grasime-180g"}],"activePromotion":null,"saveMe":null,"labels":[],"geniusPrice":null,"geniusUnitPricePerLabel":null,"banner":null,"discountLabel":null,"geniusDiscountLabel":null,"badge":null},{"code":"100039304","variantCode":"5941872202312","name":"Brânză proaspătă de vaci de Ibănești grasă 450g","slug":"100039304-mirdatod-branza-proaspata-de-vaci-de-ibanesti-grasa-450g","unitPriceLabel":"28,87 Lei/kg","brand":"Mirdatod","brandCode":"755","brandFilterCode":"mirdatod-b756","sku":"100039304","price":12.99,"originalPrice":null,"currencyCode":"RON","currency":"Lei","image":{"thumbnail":{"default":"https://cdn.freshful.ro/media/cache/sylius_shop_product_thumbnail/c3/12/5aeef17aba3427794929ff05d3e1.jpg"},"large":{"default":"https://cdn.freshful.ro/media/cache/freshful_large/c3/12/5aeef17aba3427794929ff05d3e1.jpg"},"extralarge":{"default":"https://cdn.freshful.ro/media/cache/sylius_shop_product_original/c3/12/5aeef17aba3427794929ff05d3e1.jpg"}},"label":{"text":"Mici producători","backgroundColor":"#7B61FF","textColor":"#FFFFFF"},"tags":[{"type":"MadeInRomania","text":"Made In Romania","icon":"https://cdn.freshful.ro/assets/product_tags/made_in_romania.svg","iconPng":"https://cdn.freshful.ro/assets/product_tags/made_in_romania.png","backgroundColor":"#EDF2FD","textColor":"#1653CA"}],"isAvailable":true,"maxAvailableQuantity":100,"maxAllowedQuantity":100,"breadcrumbs":[{"code":"4","name":"Lactate & ouă","slug":"4-lactate-branzeturi-si-oua"},{"code":"401","name":"Lapte, smântână și brânză proaspătă","slug":"401-lapte-smantana-si-branza-proaspata"},{"code":"40103","name":"Brânză proaspătă","slug":"40103-branza-proaspata"},{"code":"100039304","name":"Brânză proaspătă de vaci de Ibănești grasă 450g","slug":"100039304-mirdatod-branza-proaspata-de-vaci-de-ibanesti-grasa-450g"}],"activePromotion":null,"saveMe":null,"labels":[{"type":"v1","items":[{"text":"Mici producători","backgroundColor":"#7B61FF","textColor":"#FFFFFF"}]}],"geniusPrice":null,"geniusUnitPricePerLabel":null,"banner":null,"discountLabel":null,"geniusDiscountLabel":null,"badge":null},{"code":"100031718","variantCode":"5941238013736","name":"Mărgele de brânză cu smântână 180g","slug":"100031718-hochland-margele-de-branza-cu-smantana-180g","unitPriceLabel":"33,83 Lei/kg","brand":"Hochland","brandCode":"143","brandFilterCode":"hochland-b127","sku":"100031718","price":6.09,"originalPrice":null,"currencyCode":"RON","currency":"Lei","image":{"thumbnail":{"default":"https://cdn.freshful.ro/media/cache/sylius_shop_product_thumbnail/22/01/cbc6e1b6fc47b8716f7967a396a3.jpg"},"large":{"default":"https://cdn.freshful.ro/media/cache/freshful_large/22/01/cbc6e1b6fc47b8716f7967a396a3.jpg"},"extralarge":{"default":"https://cdn.freshful.ro/media/cache/sylius_shop_product_original/22/01/cbc6e1b6fc47b8716f7967a396a3.jpg"}},"label":null,"tags":[],"isAvailable":true,"maxAvailableQuantity":100,"maxAllowedQuantity":100,"breadcrumbs":[{"code":"4","name":"Lactate & ouă","slug":"4-lactate-branzeturi-si-oua"},{"code":"401","name":"Lapte, smântână și brânză proaspătă","slug":"401-lapte-smantana-si-branza-proaspata"},{"code":"40103","name":"Brânză proaspătă","slug":"40103-branza-proaspata"},{"code":"100031718","name":"Mărgele de brânză cu smântână 180g","slug":"100031718-hochland-margele-de-branza-cu-smantana-180g"}],"activePromotion":null,"saveMe":null,"labels":[],"geniusPrice":null,"geniusUnitPricePerLabel":null,"banner":null,"discountLabel":null,"geniusDiscountLabel":null,"badge":null},{"code":"100032715","variantCode":"100032715","name":"Brânză proaspătă de vaci cu smântână Făgăraș 175g","slug":"100032715-monor-branza-proaspata-de-vaci-cu-smantana-fagaras-175g","unitPriceLabel":"34,23 Lei/kg","brand":"Monor","brandCode":"325","brandFilterCode":"monor-b326","sku":"100032715","price":5.99,"originalPrice":null,"currencyCode":"RON","currency":"Lei","image":{"thumbnail":{"default":"https://cdn.freshful.ro/media/cache/sylius_shop_product_thumbnail/12/86/106c981b0e0d7495927b375cfbbe.jpg"},"large":{"default":"https://cdn.freshful.ro/media/cache/freshful_large/12/86/106c981b0e0d7495927b375cfbbe.jpg"},"extralarge":{"default":"https://cdn.freshful.ro/media/cache/sylius_shop_product_original/12/86/106c981b0e0d7495927b375cfbbe.jpg"}},"label":null,"tags":[{"type":"MadeInRomania","text":"Made In Romania","icon":"https://cdn.freshful.ro/assets/product_tags/made_in_romania.svg","iconPng":"https://cdn.freshful.ro/assets/product_tags/made_in_romania.png","backgroundColor":"#EDF2FD","textColor":"#1653CA"}],"isAvailable":true,"maxAvailableQuantity":6,"maxAllowedQuantity":6,"breadcrumbs":[{"code":"4","name":"Lactate & ouă","slug":"4-lactate-branzeturi-si-oua"},{"code":"401","name":"Lapte, smântână și brânză proaspătă","slug":"401-lapte-smantana-si-branza-proaspata"},{"code":"40103","name":"Brânză proaspătă","slug":"40103-branza-proaspata"},{"code":"100032715","name":"Brânză proaspătă de vaci cu smântână Făgăraș 175g","slug":"100032715-monor-branza-proaspata-de-vaci-cu-smantana-fagaras-175g"}],"activePromotion":null,"saveMe":null,"labels":[],"geniusPrice":null,"geniusUnitPricePerLabel":null,"banner":null,"discountLabel":null,"geniusDiscountLabel":null,"badge":null},{"code":"100032024","variantCode":"100032024","name":"Brânză de vaci ușoară 0.5% grăsime 200g","slug":"100032024-olympus-branza-de-vaci-usoara-0-5-grasime-200g","unitPriceLabel":"29,95 Lei/kg","brand":"Olympus","brandCode":"45","brandFilterCode":"olympus-b40","sku":"100032024","price":5.99,"originalPrice":null,"currencyCode":"RON","currency":"Lei","image":{"thumbnail":{"default":"https://cdn.freshful.ro/media/cache/sylius_shop_product_thumbnail/ef/b6/3d1ce708154e24f6d67701d6d3cd.jpg"},"large":{"default":"https://cdn.freshful.ro/media/cache/freshful_large/ef/b6/3d1ce708154e24f6d67701d6d3cd.jpg"},"extralarge":{"default":"https://cdn.freshful.ro/media/cache/sylius_shop_product_original/ef/b6/3d1ce708154e24f6d67701d6d3cd.jpg"}},"label":null,"tags":[{"type":"MadeInRomania","text":"Made In Romania","icon":"https://cdn.freshful.ro/assets/product_tags/made_in_romania.svg","iconPng":"https://cdn.freshful.ro/assets/product_tags/made_in_romania.png","backgroundColor":"#EDF2FD","textColor":"#1653CA"}],"isAvailable":true,"maxAvailableQuantity":100,"maxAllowedQuantity":100,"breadcrumbs":[{"code":"4","name":"Lactate & ouă","slug":"4-lactate-branzeturi-si-oua"},{"code":"401","name":"Lapte, smântână și brânză proaspătă","slug":"401-lapte-smantana-si-branza-proaspata"},{"code":"40103","name":"Brânză proaspătă","slug":"40103-branza-proaspata"},{"code":"100032024","name":"Brânză de vaci ușoară 0.5% grăsime 200g","slug":"100032024-olympus-branza-de-vaci-usoara-0-5-grasime-200g"}],"activePromotion":null,"saveMe":null,"labels":[],"geniusPrice":null,"geniusUnitPricePerLabel":null,"banner":null,"discountLabel":null,"geniusDiscountLabel":null,"badge":null},{"code":"100034377","variantCode":"100034377","name":"Brânză Cottage light 2.2% grăsime 175g","slug":"100034377-delaco-branza-cottage-light-2-2-grasime-175g","unitPriceLabel":"44,29 Lei/kg","brand":"Delaco","brandCode":"225","brandFilterCode":"delaco-b226","sku":"100034377","price":7.75,"originalPrice":null,"currencyCode":"RON","currency":"Lei","image":{"thumbnail":{"default":"https://cdn.freshful.ro/media/cache/sylius_shop_product_thumbnail/0f/a1/8daafb2cc3775942ba05d5f61fc6.jpg"},"large":{"default":"https://cdn.freshful.ro/media/cache/freshful_large/0f/a1/8daafb2cc3775942ba05d5f61fc6.jpg"},"extralarge":{"default":"https://cdn.freshful.ro/media/cache/sylius_shop_product_original/0f/a1/8daafb2cc3775942ba05d5f61fc6.jpg"}},"label":null,"tags":[],"isAvailable":true,"maxAvailableQuantity":100,"maxAllowedQuantity":100,"breadcrumbs":[{"code":"4","name":"Lactate & ouă","slug":"4-lactate-branzeturi-si-oua"},{"code":"401","name":"Lapte, smântână și brânză proaspătă","slug":"401-lapte-smantana-si-branza-proaspata"},{"code":"40103","name":"Brânză proaspătă","slug":"40103-branza-proaspata"},{"code":"100034377","name":"Brânză Cottage light 2.2% grăsime 175g","slug":"100034377-delaco-branza-cottage-light-2-2-grasime-175g"}],"activePromotion":null,"saveMe":null,"labels":[],"geniusPrice":null,"geniusUnitPricePerLabel":null,"banner":null,"discountLabel":null,"geniusDiscountLabel":null,"badge":null},{"code":"100143934","variantCode":"100143934","name":"Granule de brânză Cottage cu cremă de brânză 165g","slug":"100143934-almette-granule-de-branza-cottage-cu-crema-de-branza-165g","unitPriceLabel":"40,91 Lei/kg","brand":"Almette","brandCode":"142","brandFilterCode":"almette-b126","sku":"100143934","price":6.75,"originalPrice":null,"currencyCode":"RON","currency":"Lei","image":{"thumbnail":{"default":"https://cdn.freshful.ro/media/cache/sylius_shop_product_thumbnail/18/8e/b899d0976ce06c38e57415a23292.jpg"},"large":{"default":"https://cdn.freshful.ro/media/cache/freshful_large/18/8e/b899d0976ce06c38e57415a23292.jpg"},"extralarge":{"default":"https://cdn.freshful.ro/media/cache/sylius_shop_product_original/18/8e/b899d0976ce06c38e57415a23292.jpg"}},"label":null,"tags":[],"isAvailable":true,"maxAvailableQuantity":100,"maxAllowedQuantity":100,"breadcrumbs":[{"code":"4","name":"Lactate & ouă","slug":"4-lactate-branzeturi-si-oua"},{"code":"401","name":"Lapte, smântână și brânză proaspătă","slug":"401-lapte-smantana-si-branza-proaspata"},{"code":"40103","name":"Brânză proaspătă","slug":"40103-branza-proaspata"},{"code":"100143934","name":"Granule de brânză Cottage cu cremă de brânză 165g","slug":"100143934-almette-granule-de-branza-cottage-cu-crema-de-branza-165g"}],"activePromotion":null,"saveMe":null,"labels":[],"geniusPrice":null,"geniusUnitPricePerLabel":null,"banner":null,"discountLabel":null,"geniusDiscountLabel":null,"badge":null},{"code":"100047556","variantCode":"100047556","name":"Brânzică de casă 180g","slug":"100047556-covalact-branzica-de-casa-180g","unitPriceLabel":"36,39 Lei/kg","brand":"Covalact","brandCode":"784","brandFilterCode":"covalact-b785","sku":"100047556","price":6.55,"originalPrice":null,"currencyCode":"RON","currency":"Lei","image":{"thumbnail":{"default":"https://cdn.freshful.ro/media/cache/sylius_shop_product_thumbnail/b4/9a/a3a8f069f9509586181bf0d5f364.jpg"},"large":{"default":"https://cdn.freshful.ro/media/cache/freshful_large/b4/9a/a3a8f069f9509586181bf0d5f364.jpg"},"extralarge":{"default":"https://cdn.freshful.ro/media/cache/sylius_shop_product_original/b4/9a/a3a8f069f9509586181bf0d5f364.jpg"}},"label":null,"tags":[{"type":"MadeInRomania","text":"Made In Romania","icon":"https://cdn.freshful.ro/assets/product_tags/made_in_romania.svg","iconPng":"https://cdn.freshful.ro/assets/product_tags/made_in_romania.png","backgroundColor":"#EDF2FD","textColor":"#1653CA"}],"isAvailable":true,"maxAvailableQuantity":100,"maxAllowedQuantity":100,"breadcrumbs":[{"code":"4","name":"Lactate & ouă","slug":"4-lactate-branzeturi-si-oua"},{"code":"401","name":"Lapte, smântână și brânză proaspătă","slug":"401-lapte-smantana-si-branza-proaspata"},{"code":"40103","name":"Brânză proaspătă","slug":"40103-branza-proaspata"},{"code":"100047556","name":"Brânzică de casă 180g","slug":"100047556-covalact-branzica-de-casa-180g"}],"activePromotion":null,"saveMe":null,"labels":[],"geniusPrice":null,"geniusUnitPricePerLabel":null,"banner":null,"discountLabel":null,"geniusDiscountLabel":null,"badge":null}],"filters":{"countSelected":0,"items":[{"code":"promotion","name":"Promoții","countSelected":0,"values":[{"code":"bunatatile-saptamanii-cw0923","name":"Oferta proaspătă a săptămânii","isSelected":false,"count":1}]},{"code":"brand","name":"Brand","countSelected":0,"values":[{"code":"almette-b126","name":"Almette","isSelected":false,"count":3},{"code":"artesana-b219","name":"Artesana","isSelected":false,"count":1},{"code":"campina-b80","name":"Campina","isSelected":false,"count":1},{"code":"covalact-b785","name":"Covalact","isSelected":false,"count":4},{"code":"delaco-b226","name":"Delaco","isSelected":false,"count":3},{"code":"hochland-b127","name":"Hochland","isSelected":false,"count":2},{"code":"huzur-b2725","name":"HUZUR","isSelected":false,"count":1},{"code":"ladorna-b595","name":"LaDORNA","isSelected":false,"count":1},{"code":"mirdatod-b756","name":"Mirdatod","isSelected":false,"count":1},{"code":"monor-b326","name":"Monor","isSelected":false,"count":1},{"code":"olympus-b40","name":"Olympus","isSelected":false,"count":3},{"code":"philadelphia-b65","name":"Philadelphia","isSelected":false,"count":1},{"code":"raraul-b12","name":"Rarăul","isSelected":false,"count":1}]},{"code":"diet_lifestyle","name":"Dietă și lifestyle","countSelected":0,"values":[{"code":"fara-conservanti-a37","name":"Fara conservanti","isSelected":false,"count":2},{"code":"made-in-romania-a85","name":"Made In Romania","isSelected":false,"count":13}]}]},"orderBy":[{"field":"price","direction":"asc","name":"Preț crescător","isSelected":false},{"field":"price","direction":"desc","name":"Preț descrescător","isSelected":false},{"field":"popularity","direction":"desc","name":"Cele mai populare","isSelected":true},{"field":"category","direction":"asc","name":"Categorie","isSelected":false}],"metaTitle":"Brânză proaspătă - Gamă variată","metaDescription":"Vrei Brânză proaspătă? Alege dintr-o gamă variată. Comanzi simplu și ai livrare rapidă, calitate și prospețime. Hai pe Freshful.ro","metaKeywords":null,"banners":[]}}