{"type":"subcategory","payload":{"analyticsListId":"category_40102-smantana","analyticsListName":"Category - Smântână proaspătă","name":"Smântână proaspătă","slug":"40102-smantana","image":null,"breadcrumbs":[{"code":"4","name":"Lactate & ouă","slug":"4-lactate-branzeturi-si-oua"},{"code":"401","name":"Lapte, smântână și brânză proaspătă","slug":"401-lapte-smantana-si-branza-proaspata"},{"code":"40102","name":"Smântână proaspătă","slug":"40102-smantana"}],"slots":[],"page":1,"limit":10,"pages":4,"count":35,"siblings":[{"name":"Lapte, smântână și brânză proaspătă","slug":"401-lapte-smantana-si-branza-proaspata","selected":true},{"name":"Unt","slug":"402-unt-si-margarina","selected":false},{"name":"Lactate UHT","slug":"403-lactate-uht","selected":false},{"name":"Iaurt, desert și sana","slug":"404-iaurt-desert-si-sana","selected":false},{"name":"Ouă","slug":"405-oua","selected":false},{"name":"Brânzeturi","slug":"406-branzeturi","selected":false},{"name":"Lapte și lactate ECO","slug":"lapte-si-lactate-eco","selected":false},{"name":"Amestecuri lactate și grasimi vegetale","slug":"amestecuri-lactate-si-grasimi-vegetale","selected":false}],"children":[{"name":"Toate produsele","slug":"401-lapte-smantana-si-branza-proaspata","selected":false},{"name":"Lapte proaspăt","slug":"40101-lapte-proaspat","selected":false},{"name":"Smântână proaspătă","slug":"40102-smantana","selected":true},{"name":"Brânză proaspătă","slug":"40103-branza-proaspata","selected":false}],"products":[{"code":"100039334","variantCode":"5941872202275","name":"Smântână de Ibănești 15% grăsime 400g","slug":"100039334-mirdatod-smantana-de-ibanesti-15-grasime-400g","unitPriceLabel":"21,23 Lei/kg","brand":"Mirdatod","brandCode":"755","brandFilterCode":"mirdatod-b756","sku":"100039334","price":8.49,"originalPrice":9.99,"currencyCode":"RON","currency":"Lei","image":{"thumbnail":{"default":"https://cdn.freshful.ro/media/cache/sylius_shop_product_thumbnail/2d/93/581e6071e17fe6c8ef01ca674fe1.jpg"},"large":{"default":"https://cdn.freshful.ro/media/cache/freshful_large/2d/93/581e6071e17fe6c8ef01ca674fe1.jpg"},"extralarge":{"default":"https://cdn.freshful.ro/media/cache/sylius_shop_product_original/2d/93/581e6071e17fe6c8ef01ca674fe1.jpg"}},"label":{"text":"-15%","backgroundColor":"#FF9903","textColor":"#FFFFFF"},"tags":[{"type":"MadeInRomania","text":"Made In Romania","icon":"https://cdn.freshful.ro/assets/product_tags/made_in_romania.svg","iconPng":"https://cdn.freshful.ro/assets/product_tags/made_in_romania.png","backgroundColor":"#EDF2FD","textColor":"#1653CA"}],"isAvailable":true,"maxAvailableQuantity":82,"maxAllowedQuantity":100,"breadcrumbs":[{"code":"4","name":"Lactate & ouă","slug":"4-lactate-branzeturi-si-oua"},{"code":"401","name":"Lapte, smântână și brânză proaspătă","slug":"401-lapte-smantana-si-branza-proaspata"},{"code":"40102","name":"Smântână proaspătă","slug":"40102-smantana"},{"code":"100039334","name":"Smântână de Ibănești 15% grăsime 400g","slug":"100039334-mirdatod-smantana-de-ibanesti-15-grasime-400g"}],"activePromotion":{"code":"bunatatile-saptamanii-cw0923","name":"Preț redus","targetQuantity":null},"saveMe":null,"labels":[{"type":"v1","items":[{"text":"-15%","backgroundColor":"#FF9903","textColor":"#FFFFFF"}]}],"geniusPrice":null,"geniusUnitPricePerLabel":null,"banner":{"text":"Super preț","textColor":"#FF0000","bgColor":"#FFF2EC","icon":null,"link":"https://www.freshful.ro/oferte/bunatatile-saptamanii-cw0923","type":"promo","analyticsEventType":"select_promotion","analyticsEventPayload":{"promotion_id":"bunatatile-saptamanii-cw0923","promotion_name":"Oferta proaspătă a săptămânii"}},"discountLabel":"Economisești 15%","geniusDiscountLabel":null,"badge":null},{"code":"100003634","variantCode":"5941905044216","name":"Smântână dolofană 33-36% grăsime 190g","slug":"100003634-laptaria-cu-caimac-smantana-dolofana-33-36-grasime-190g","unitPriceLabel":"57,32 Lei/kg","brand":"Lăptăria cu caimac","brandCode":"1","brandFilterCode":"laptaria-cu-caimac-b1","sku":"100003634","price":10.89,"originalPrice":null,"currencyCode":"RON","currency":"Lei","image":{"thumbnail":{"default":"https://cdn.freshful.ro/media/cache/sylius_shop_product_thumbnail/26/dc/8d04b515fb6e6f983301a6988a99.jpg"},"large":{"default":"https://cdn.freshful.ro/media/cache/freshful_large/26/dc/8d04b515fb6e6f983301a6988a99.jpg"},"extralarge":{"default":"https://cdn.freshful.ro/media/cache/sylius_shop_product_original/26/dc/8d04b515fb6e6f983301a6988a99.jpg"}},"label":null,"tags":[{"type":"MadeInRomania","text":"Made In Romania","icon":"https://cdn.freshful.ro/assets/product_tags/made_in_romania.svg","iconPng":"https://cdn.freshful.ro/assets/product_tags/made_in_romania.png","backgroundColor":"#EDF2FD","textColor":"#1653CA"}],"isAvailable":true,"maxAvailableQuantity":100,"maxAllowedQuantity":100,"breadcrumbs":[{"code":"4","name":"Lactate & ouă","slug":"4-lactate-branzeturi-si-oua"},{"code":"401","name":"Lapte, smântână și brânză proaspătă","slug":"401-lapte-smantana-si-branza-proaspata"},{"code":"40102","name":"Smântână proaspătă","slug":"40102-smantana"},{"code":"100003634","name":"Smântână dolofană 33-36% grăsime 190g","slug":"100003634-laptaria-cu-caimac-smantana-dolofana-33-36-grasime-190g"}],"activePromotion":null,"saveMe":null,"labels":[],"geniusPrice":null,"geniusUnitPricePerLabel":null,"banner":null,"discountLabel":null,"geniusDiscountLabel":null,"badge":null},{"code":"100004023","variantCode":"5941355000374","name":"Smântână 12% grăsime 200g","slug":"100004023-albalact-smantana-12-grasime-200g","unitPriceLabel":"20,95 Lei/kg","brand":"Albalact","brandCode":"8","brandFilterCode":"albalact-b78","sku":"100004023","price":4.19,"originalPrice":null,"currencyCode":"RON","currency":"Lei","image":{"thumbnail":{"default":"https://cdn.freshful.ro/media/cache/sylius_shop_product_thumbnail/fd/d5/73e4ace1629a73917950da07dbc5.jpg"},"large":{"default":"https://cdn.freshful.ro/media/cache/freshful_large/fd/d5/73e4ace1629a73917950da07dbc5.jpg"},"extralarge":{"default":"https://cdn.freshful.ro/media/cache/sylius_shop_product_original/fd/d5/73e4ace1629a73917950da07dbc5.jpg"}},"label":null,"tags":[{"type":"MadeInRomania","text":"Made In Romania","icon":"https://cdn.freshful.ro/assets/product_tags/made_in_romania.svg","iconPng":"https://cdn.freshful.ro/assets/product_tags/made_in_romania.png","backgroundColor":"#EDF2FD","textColor":"#1653CA"}],"isAvailable":true,"maxAvailableQuantity":100,"maxAllowedQuantity":100,"breadcrumbs":[{"code":"4","name":"Lactate & ouă","slug":"4-lactate-branzeturi-si-oua"},{"code":"401","name":"Lapte, smântână și brânză proaspătă","slug":"401-lapte-smantana-si-branza-proaspata"},{"code":"40102","name":"Smântână proaspătă","slug":"40102-smantana"},{"code":"100004023","name":"Smântână 12% grăsime 200g","slug":"100004023-albalact-smantana-12-grasime-200g"}],"activePromotion":null,"saveMe":null,"labels":[],"geniusPrice":null,"geniusUnitPricePerLabel":null,"banner":null,"discountLabel":null,"geniusDiscountLabel":null,"badge":null},{"code":"100030291","variantCode":"5948686005047","name":"Smântână Prima 25% grăsime 300g","slug":"100030291-napolact-smantana-prima-25-grasime-300g","unitPriceLabel":"41,63 Lei/kg","brand":"Napolact","brandCode":"79","brandFilterCode":"napolact-b77","sku":"100030291","price":12.49,"originalPrice":null,"currencyCode":"RON","currency":"Lei","image":{"thumbnail":{"default":"https://cdn.freshful.ro/media/cache/sylius_shop_product_thumbnail/b5/bf/b19016962b3df1ebfd6c90dc5041.jpg"},"large":{"default":"https://cdn.freshful.ro/media/cache/freshful_large/b5/bf/b19016962b3df1ebfd6c90dc5041.jpg"},"extralarge":{"default":"https://cdn.freshful.ro/media/cache/sylius_shop_product_original/b5/bf/b19016962b3df1ebfd6c90dc5041.jpg"}},"label":null,"tags":[{"type":"MadeInRomania","text":"Made In Romania","icon":"https://cdn.freshful.ro/assets/product_tags/made_in_romania.svg","iconPng":"https://cdn.freshful.ro/assets/product_tags/made_in_romania.png","backgroundColor":"#EDF2FD","textColor":"#1653CA"}],"isAvailable":true,"maxAvailableQuantity":100,"maxAllowedQuantity":100,"breadcrumbs":[{"code":"4","name":"Lactate & ouă","slug":"4-lactate-branzeturi-si-oua"},{"code":"401","name":"Lapte, smântână și brânză proaspătă","slug":"401-lapte-smantana-si-branza-proaspata"},{"code":"40102","name":"Smântână proaspătă","slug":"40102-smantana"},{"code":"100030291","name":"Smântână Prima 25% grăsime 300g","slug":"100030291-napolact-smantana-prima-25-grasime-300g"}],"activePromotion":null,"saveMe":null,"labels":[],"geniusPrice":null,"geniusUnitPricePerLabel":null,"banner":null,"discountLabel":null,"geniusDiscountLabel":null,"badge":null},{"code":"100105074","variantCode":"100105074","name":"Smântână 20% grăsime 200g","slug":"100105074-olympus-smantana-20-grasime-200g","unitPriceLabel":"27,45 Lei/kg","brand":"Olympus","brandCode":"45","brandFilterCode":"olympus-b40","sku":"100105074","price":5.49,"originalPrice":null,"currencyCode":"RON","currency":"Lei","image":{"thumbnail":{"default":"https://cdn.freshful.ro/media/cache/sylius_shop_product_thumbnail/da/17/8c7bacf533147cab19b9a611559b.jpg"},"large":{"default":"https://cdn.freshful.ro/media/cache/freshful_large/da/17/8c7bacf533147cab19b9a611559b.jpg"},"extralarge":{"default":"https://cdn.freshful.ro/media/cache/sylius_shop_product_original/da/17/8c7bacf533147cab19b9a611559b.jpg"}},"label":null,"tags":[{"type":"MadeInRomania","text":"Made In Romania","icon":"https://cdn.freshful.ro/assets/product_tags/made_in_romania.svg","iconPng":"https://cdn.freshful.ro/assets/product_tags/made_in_romania.png","backgroundColor":"#EDF2FD","textColor":"#1653CA"}],"isAvailable":true,"maxAvailableQuantity":100,"maxAllowedQuantity":100,"breadcrumbs":[{"code":"4","name":"Lactate & ouă","slug":"4-lactate-branzeturi-si-oua"},{"code":"401","name":"Lapte, smântână și brânză proaspătă","slug":"401-lapte-smantana-si-branza-proaspata"},{"code":"40102","name":"Smântână proaspătă","slug":"40102-smantana"},{"code":"100105074","name":"Smântână 20% grăsime 200g","slug":"100105074-olympus-smantana-20-grasime-200g"}],"activePromotion":null,"saveMe":null,"labels":[],"geniusPrice":null,"geniusUnitPricePerLabel":null,"banner":null,"discountLabel":null,"geniusDiscountLabel":null,"badge":null},{"code":"100003635","variantCode":"5941905044292","name":"Smântână proaspătă 33-36% grăsime 400g","slug":"100003635-laptaria-cu-caimac-smantana-proaspata-33-36-grasime-400g","unitPriceLabel":"45,98 Lei/kg","brand":"Lăptăria cu caimac","brandCode":"1","brandFilterCode":"laptaria-cu-caimac-b1","sku":"100003635","price":18.39,"originalPrice":null,"currencyCode":"RON","currency":"Lei","image":{"thumbnail":{"default":"https://cdn.freshful.ro/media/cache/sylius_shop_product_thumbnail/c0/2d/3a5097c9688b554ac3a1268f8808.jpg"},"large":{"default":"https://cdn.freshful.ro/media/cache/freshful_large/c0/2d/3a5097c9688b554ac3a1268f8808.jpg"},"extralarge":{"default":"https://cdn.freshful.ro/media/cache/sylius_shop_product_original/c0/2d/3a5097c9688b554ac3a1268f8808.jpg"}},"label":null,"tags":[{"type":"MadeInRomania","text":"Made In Romania","icon":"https://cdn.freshful.ro/assets/product_tags/made_in_romania.svg","iconPng":"https://cdn.freshful.ro/assets/product_tags/made_in_romania.png","backgroundColor":"#EDF2FD","textColor":"#1653CA"}],"isAvailable":true,"maxAvailableQuantity":94,"maxAllowedQuantity":100,"breadcrumbs":[{"code":"4","name":"Lactate & ouă","slug":"4-lactate-branzeturi-si-oua"},{"code":"401","name":"Lapte, smântână și brânză proaspătă","slug":"401-lapte-smantana-si-branza-proaspata"},{"code":"40102","name":"Smântână proaspătă","slug":"40102-smantana"},{"code":"100003635","name":"Smântână proaspătă 33-36% grăsime 400g","slug":"100003635-laptaria-cu-caimac-smantana-proaspata-33-36-grasime-400g"}],"activePromotion":null,"saveMe":null,"labels":[],"geniusPrice":null,"geniusUnitPricePerLabel":null,"banner":null,"discountLabel":null,"geniusDiscountLabel":null,"badge":null},{"code":"100003549","variantCode":"4025500150785","name":"Smântână 24% grăsime 375g","slug":"100003549-muller-smantana-24-grasime-375g","unitPriceLabel":"34,64 Lei/kg","brand":"Müller","brandCode":"258","brandFilterCode":"muller-b259","sku":"100003549","price":12.99,"originalPrice":null,"currencyCode":"RON","currency":"Lei","image":{"thumbnail":{"default":"https://cdn.freshful.ro/media/cache/sylius_shop_product_thumbnail/fe/31/b84b0cdedfd627bc3189dcc4b46b.jpg"},"large":{"default":"https://cdn.freshful.ro/media/cache/freshful_large/fe/31/b84b0cdedfd627bc3189dcc4b46b.jpg"},"extralarge":{"default":"https://cdn.freshful.ro/media/cache/sylius_shop_product_original/fe/31/b84b0cdedfd627bc3189dcc4b46b.jpg"}},"label":null,"tags":[],"isAvailable":true,"maxAvailableQuantity":84,"maxAllowedQuantity":100,"breadcrumbs":[{"code":"4","name":"Lactate & ouă","slug":"4-lactate-branzeturi-si-oua"},{"code":"401","name":"Lapte, smântână și brânză proaspătă","slug":"401-lapte-smantana-si-branza-proaspata"},{"code":"40102","name":"Smântână proaspătă","slug":"40102-smantana"},{"code":"100003549","name":"Smântână 24% grăsime 375g","slug":"100003549-muller-smantana-24-grasime-375g"}],"activePromotion":null,"saveMe":null,"labels":[],"geniusPrice":null,"geniusUnitPricePerLabel":null,"banner":null,"discountLabel":null,"geniusDiscountLabel":null,"badge":null},{"code":"100134492","variantCode":"100134492","name":"Smântână 20% grăsime 200g","slug":"100134492-nucet-smantana-20-grasime-200g","unitPriceLabel":"27,45 Lei/kg","brand":"Nucet","brandCode":"2518","brandFilterCode":"nucet-b2523","sku":"100134492","price":5.49,"originalPrice":null,"currencyCode":"RON","currency":"Lei","image":{"thumbnail":{"default":"https://cdn.freshful.ro/media/cache/sylius_shop_product_thumbnail/3f/4a/43f17d602a2499911b4febeee6d0.jpg"},"large":{"default":"https://cdn.freshful.ro/media/cache/freshful_large/3f/4a/43f17d602a2499911b4febeee6d0.jpg"},"extralarge":{"default":"https://cdn.freshful.ro/media/cache/sylius_shop_product_original/3f/4a/43f17d602a2499911b4febeee6d0.jpg"}},"label":{"text":"Mici producători","backgroundColor":"#7B61FF","textColor":"#FFFFFF"},"tags":[{"type":"NoE","text":"Fara E-uri","icon":"https://cdn.freshful.ro/assets/product_tags/fara_euri.svg","iconPng":"https://cdn.freshful.ro/assets/product_tags/fara_euri.png","backgroundColor":"#FCF5DF","textColor":"#CAA316"},{"type":"MadeInRomania","text":"Made In Romania","icon":"https://cdn.freshful.ro/assets/product_tags/made_in_romania.svg","iconPng":"https://cdn.freshful.ro/assets/product_tags/made_in_romania.png","backgroundColor":"#EDF2FD","textColor":"#1653CA"}],"isAvailable":true,"maxAvailableQuantity":100,"maxAllowedQuantity":100,"breadcrumbs":[{"code":"4","name":"Lactate & ouă","slug":"4-lactate-branzeturi-si-oua"},{"code":"401","name":"Lapte, smântână și brânză proaspătă","slug":"401-lapte-smantana-si-branza-proaspata"},{"code":"40102","name":"Smântână proaspătă","slug":"40102-smantana"},{"code":"100134492","name":"Smântână 20% grăsime 200g","slug":"100134492-nucet-smantana-20-grasime-200g"}],"activePromotion":null,"saveMe":null,"labels":[{"type":"v1","items":[{"text":"Mici producători","backgroundColor":"#7B61FF","textColor":"#FFFFFF"}]}],"geniusPrice":null,"geniusUnitPricePerLabel":null,"banner":null,"discountLabel":null,"geniusDiscountLabel":null,"badge":null},{"code":"100039326","variantCode":"5941872201209","name":"Smântână de Ibănești 35% grăsime 500g","slug":"100039326-mirdatod-smantana-de-ibanesti-35-grasime-500g","unitPriceLabel":"39,58 Lei/kg","brand":"Mirdatod","brandCode":"755","brandFilterCode":"mirdatod-b756","sku":"100039326","price":19.79,"originalPrice":null,"currencyCode":"RON","currency":"Lei","image":{"thumbnail":{"default":"https://cdn.freshful.ro/media/cache/sylius_shop_product_thumbnail/92/9c/a9168756c11df2c159e243503df0.jpg"},"large":{"default":"https://cdn.freshful.ro/media/cache/freshful_large/92/9c/a9168756c11df2c159e243503df0.jpg"},"extralarge":{"default":"https://cdn.freshful.ro/media/cache/sylius_shop_product_original/92/9c/a9168756c11df2c159e243503df0.jpg"}},"label":{"text":"Mici producători","backgroundColor":"#7B61FF","textColor":"#FFFFFF"},"tags":[{"type":"MadeInRomania","text":"Made In Romania","icon":"https://cdn.freshful.ro/assets/product_tags/made_in_romania.svg","iconPng":"https://cdn.freshful.ro/assets/product_tags/made_in_romania.png","backgroundColor":"#EDF2FD","textColor":"#1653CA"}],"isAvailable":true,"maxAvailableQuantity":82,"maxAllowedQuantity":100,"breadcrumbs":[{"code":"4","name":"Lactate & ouă","slug":"4-lactate-branzeturi-si-oua"},{"code":"401","name":"Lapte, smântână și brânză proaspătă","slug":"401-lapte-smantana-si-branza-proaspata"},{"code":"40102","name":"Smântână proaspătă","slug":"40102-smantana"},{"code":"100039326","name":"Smântână de Ibănești 35% grăsime 500g","slug":"100039326-mirdatod-smantana-de-ibanesti-35-grasime-500g"}],"activePromotion":null,"saveMe":null,"labels":[{"type":"v1","items":[{"text":"Mici producători","backgroundColor":"#7B61FF","textColor":"#FFFFFF"}]}],"geniusPrice":null,"geniusUnitPricePerLabel":null,"banner":null,"discountLabel":null,"geniusDiscountLabel":null,"badge":null},{"code":"100030290","variantCode":"5941065003207","name":"Smântână Gospodar 15% grăsime 300g","slug":"100030290-napolact-smantana-gospodar-15-grasime-300g","unitPriceLabel":"33,3 Lei/kg","brand":"Napolact","brandCode":"79","brandFilterCode":"napolact-b77","sku":"100030290","price":9.99,"originalPrice":null,"currencyCode":"RON","currency":"Lei","image":{"thumbnail":{"default":"https://cdn.freshful.ro/media/cache/sylius_shop_product_thumbnail/0a/38/6fe3a980a89c92f7842bc23d241b.jpg"},"large":{"default":"https://cdn.freshful.ro/media/cache/freshful_large/0a/38/6fe3a980a89c92f7842bc23d241b.jpg"},"extralarge":{"default":"https://cdn.freshful.ro/media/cache/sylius_shop_product_original/0a/38/6fe3a980a89c92f7842bc23d241b.jpg"}},"label":null,"tags":[{"type":"MadeInRomania","text":"Made In Romania","icon":"https://cdn.freshful.ro/assets/product_tags/made_in_romania.svg","iconPng":"https://cdn.freshful.ro/assets/product_tags/made_in_romania.png","backgroundColor":"#EDF2FD","textColor":"#1653CA"}],"isAvailable":true,"maxAvailableQuantity":60,"maxAllowedQuantity":100,"breadcrumbs":[{"code":"4","name":"Lactate & ouă","slug":"4-lactate-branzeturi-si-oua"},{"code":"401","name":"Lapte, smântână și brânză proaspătă","slug":"401-lapte-smantana-si-branza-proaspata"},{"code":"40102","name":"Smântână proaspătă","slug":"40102-smantana"},{"code":"100030290","name":"Smântână Gospodar 15% grăsime 300g","slug":"100030290-napolact-smantana-gospodar-15-grasime-300g"}],"activePromotion":null,"saveMe":null,"labels":[],"geniusPrice":null,"geniusUnitPricePerLabel":null,"banner":null,"discountLabel":null,"geniusDiscountLabel":null,"badge":null}],"filters":{"countSelected":0,"items":[{"code":"promotion","name":"Promoții","countSelected":0,"values":[{"code":"bunatatile-saptamanii-cw0923","name":"Oferta proaspătă a săptămânii","isSelected":false,"count":1}]},{"code":"brand","name":"Brand","countSelected":0,"values":[{"code":"albalact-b78","name":"Albalact","isSelected":false,"count":6},{"code":"artesana-b219","name":"Artesana","isSelected":false,"count":1},{"code":"casa-buna-b26","name":"Casa Bună","isSelected":false,"count":1},{"code":"covalact-b785","name":"Covalact","isSelected":false,"count":1},{"code":"five-continents-b1399","name":"Five Continents","isSelected":false,"count":1},{"code":"huzur-b2725","name":"HUZUR","isSelected":false,"count":4},{"code":"laptaria-cu-caimac-b1","name":"Lăptăria cu caimac","isSelected":false,"count":2},{"code":"mirdatod-b756","name":"Mirdatod","isSelected":false,"count":4},{"code":"mizo-b535","name":"Mizo","isSelected":false,"count":2},{"code":"muller-b259","name":"Müller","isSelected":false,"count":4},{"code":"napolact-b77","name":"Napolact","isSelected":false,"count":3},{"code":"nucet-b2523","name":"Nucet","isSelected":false,"count":3},{"code":"olympus-b40","name":"Olympus","isSelected":false,"count":2},{"code":"ploo-n-gura-b887","name":"Ploo-N Gură","isSelected":false,"count":1}]},{"code":"diet_lifestyle","name":"Dietă și lifestyle","countSelected":0,"values":[{"code":"fara-e-uri-a84","name":"Fara E-uri","isSelected":false,"count":3},{"code":"fara-lactoza-a38","name":"Fara lactoza","isSelected":false,"count":2},{"code":"made-in-romania-a85","name":"Made In Romania","isSelected":false,"count":27},{"code":"natural-a27","name":"Natural","isSelected":false,"count":1}]}]},"orderBy":[{"field":"price","direction":"asc","name":"Preț crescător","isSelected":false},{"field":"price","direction":"desc","name":"Preț descrescător","isSelected":false},{"field":"popularity","direction":"desc","name":"Cele mai populare","isSelected":true},{"field":"category","direction":"asc","name":"Categorie","isSelected":false}],"metaTitle":"Smântână proaspătă - Gamă variată","metaDescription":"Vrei Smântână proaspătă? Alege dintr-o gamă variată. Comanzi simplu și ai livrare rapidă, calitate și prospețime. Hai pe Freshful.ro","metaKeywords":null,"banners":[]}}