{"type":"subcategory","payload":{"analyticsListId":"category_402-unt-si-margarina","analyticsListName":"Category - Unt","name":"Unt","slug":"402-unt-si-margarina","image":null,"breadcrumbs":[{"code":"4","name":"Lactate & ouă","slug":"4-lactate-branzeturi-si-oua"},{"code":"402","name":"Unt","slug":"402-unt-si-margarina"}],"slots":[],"page":1,"limit":10,"pages":5,"count":47,"siblings":[{"name":"Lapte, smântână și brânză proaspătă","slug":"401-lapte-smantana-si-branza-proaspata","selected":false},{"name":"Unt","slug":"402-unt-si-margarina","selected":true},{"name":"Lactate UHT","slug":"403-lactate-uht","selected":false},{"name":"Iaurt, desert și sana","slug":"404-iaurt-desert-si-sana","selected":false},{"name":"Ouă","slug":"405-oua","selected":false},{"name":"Brânzeturi","slug":"406-branzeturi","selected":false},{"name":"Lapte și lactate ECO","slug":"lapte-si-lactate-eco","selected":false},{"name":"Amestecuri lactate și grasimi vegetale","slug":"amestecuri-lactate-si-grasimi-vegetale","selected":false}],"children":[{"name":"Toate produsele","slug":"402-unt-si-margarina","selected":true},{"name":"Unt dulce","slug":"40201-unt","selected":false},{"name":"Unt sărat","slug":"unt-sarat","selected":false},{"name":"Unt aromatizat","slug":"unt-aromatizat","selected":false},{"name":"Unt fără lactoză","slug":"unt-fara-lactoza","selected":false}],"products":[{"code":"100038811","variantCode":"3228022000298","name":"Unt 40% grăsime, 250g","slug":"100038811-president-unt-40-grasime-250g","unitPriceLabel":"67,96 Lei/kg","brand":"President","brandCode":"593","brandFilterCode":"president-b594","sku":"100038811","price":16.99,"originalPrice":20.49,"currencyCode":"RON","currency":"Lei","image":{"thumbnail":{"default":"https://cdn.freshful.ro/media/cache/sylius_shop_product_thumbnail/4f/82/f993cccdb7330db55f3639d4fac9.jpg"},"large":{"default":"https://cdn.freshful.ro/media/cache/freshful_large/4f/82/f993cccdb7330db55f3639d4fac9.jpg"},"extralarge":{"default":"https://cdn.freshful.ro/media/cache/sylius_shop_product_original/4f/82/f993cccdb7330db55f3639d4fac9.jpg"}},"label":{"text":"-17%","backgroundColor":"#FF9903","textColor":"#FFFFFF"},"tags":[],"isAvailable":true,"maxAvailableQuantity":100,"maxAllowedQuantity":100,"breadcrumbs":[{"code":"4","name":"Lactate & ouă","slug":"4-lactate-branzeturi-si-oua"},{"code":"402","name":"Unt","slug":"402-unt-si-margarina"},{"code":"40201","name":"Unt dulce","slug":"40201-unt"},{"code":"100038811","name":"Unt 40% grăsime, 250g","slug":"100038811-president-unt-40-grasime-250g"}],"activePromotion":{"code":"bunatatile-saptamanii-cw0923","name":"Preț redus","targetQuantity":null},"saveMe":null,"labels":[{"type":"v1","items":[{"text":"-17%","backgroundColor":"#FF9903","textColor":"#FFFFFF"}]}],"geniusPrice":null,"geniusUnitPricePerLabel":null,"banner":{"text":"Super preț","textColor":"#FF0000","bgColor":"#FFF2EC","icon":null,"link":"https://www.freshful.ro/oferte/bunatatile-saptamanii-cw0923","type":"promo","analyticsEventType":"select_promotion","analyticsEventPayload":{"promotion_id":"bunatatile-saptamanii-cw0923","promotion_name":"Oferta proaspătă a săptămânii"}},"discountLabel":"Economisești 17%","geniusDiscountLabel":null,"badge":null},{"code":"100098585","variantCode":"8002710415367","name":"Unt 82% grăsime 250g","slug":"100098585-zanetti-unt-82-grasime-250g","unitPriceLabel":"91,96 Lei/kg","brand":"Zanetti","brandCode":"222","brandFilterCode":"zanetti-b223","sku":"100098585","price":22.99,"originalPrice":25.49,"currencyCode":"RON","currency":"Lei","image":{"thumbnail":{"default":"https://cdn.freshful.ro/media/cache/sylius_shop_product_thumbnail/b7/98/a1892a47ba4eb13139129af7747d.jpg"},"large":{"default":"https://cdn.freshful.ro/media/cache/freshful_large/b7/98/a1892a47ba4eb13139129af7747d.jpg"},"extralarge":{"default":"https://cdn.freshful.ro/media/cache/sylius_shop_product_original/b7/98/a1892a47ba4eb13139129af7747d.jpg"}},"label":{"text":"-9%","backgroundColor":"#FF9903","textColor":"#FFFFFF"},"tags":[],"isAvailable":true,"maxAvailableQuantity":16,"maxAllowedQuantity":100,"breadcrumbs":[{"code":"4","name":"Lactate & ouă","slug":"4-lactate-branzeturi-si-oua"},{"code":"402","name":"Unt","slug":"402-unt-si-margarina"},{"code":"40201","name":"Unt dulce","slug":"40201-unt"},{"code":"100098585","name":"Unt 82% grăsime 250g","slug":"100098585-zanetti-unt-82-grasime-250g"}],"activePromotion":{"code":"bunatatile-saptamanii-cw0923","name":"Preț redus","targetQuantity":null},"saveMe":null,"labels":[{"type":"v1","items":[{"text":"-9%","backgroundColor":"#FF9903","textColor":"#FFFFFF"}]}],"geniusPrice":null,"geniusUnitPricePerLabel":null,"banner":{"text":"Super preț","textColor":"#FF0000","bgColor":"#FFF2EC","icon":null,"link":"https://www.freshful.ro/oferte/bunatatile-saptamanii-cw0923","type":"promo","analyticsEventType":"select_promotion","analyticsEventPayload":{"promotion_id":"bunatatile-saptamanii-cw0923","promotion_name":"Oferta proaspătă a săptămânii"}},"discountLabel":"Economisești 9%","geniusDiscountLabel":null,"badge":null},{"code":"100134498","variantCode":"100134498","name":"Unt Pur 82% grăsime, 200g","slug":"100134498-nucet-unt-pur-82-grasime-200g","unitPriceLabel":"64,95 Lei/kg","brand":"Nucet","brandCode":"2518","brandFilterCode":"nucet-b2523","sku":"100134498","price":12.99,"originalPrice":null,"currencyCode":"RON","currency":"Lei","image":{"thumbnail":{"default":"https://cdn.freshful.ro/media/cache/sylius_shop_product_thumbnail/ec/ae/90d2f818f3546d2959a7b7390ef4.jpg"},"large":{"default":"https://cdn.freshful.ro/media/cache/freshful_large/ec/ae/90d2f818f3546d2959a7b7390ef4.jpg"},"extralarge":{"default":"https://cdn.freshful.ro/media/cache/sylius_shop_product_original/ec/ae/90d2f818f3546d2959a7b7390ef4.jpg"}},"label":{"text":"Primul preț","backgroundColor":"#3A0808","textColor":"#FFFFFF"},"tags":[{"type":"NoE","text":"Fara E-uri","icon":"https://cdn.freshful.ro/assets/product_tags/fara_euri.svg","iconPng":"https://cdn.freshful.ro/assets/product_tags/fara_euri.png","backgroundColor":"#FCF5DF","textColor":"#CAA316"},{"type":"MadeInRomania","text":"Made In Romania","icon":"https://cdn.freshful.ro/assets/product_tags/made_in_romania.svg","iconPng":"https://cdn.freshful.ro/assets/product_tags/made_in_romania.png","backgroundColor":"#EDF2FD","textColor":"#1653CA"}],"isAvailable":true,"maxAvailableQuantity":100,"maxAllowedQuantity":100,"breadcrumbs":[{"code":"4","name":"Lactate & ouă","slug":"4-lactate-branzeturi-si-oua"},{"code":"402","name":"Unt","slug":"402-unt-si-margarina"},{"code":"40201","name":"Unt dulce","slug":"40201-unt"},{"code":"100134498","name":"Unt Pur 82% grăsime, 200g","slug":"100134498-nucet-unt-pur-82-grasime-200g"}],"activePromotion":null,"saveMe":null,"labels":[{"type":"v4","items":[{"text":"Primul","backgroundColor":"#3A0808","textColor":"#FFFFFF"},{"text":"preț","backgroundColor":"#BC0606","textColor":"#FFFFFF"}]}],"geniusPrice":null,"geniusUnitPricePerLabel":null,"banner":null,"discountLabel":null,"geniusDiscountLabel":null,"badge":null},{"code":"100039328","variantCode":"5941872202060","name":"Unt de Ibănești 82% grăsime 200g","slug":"100039328-mirdatod-unt-de-ibanesti-82-grasime-200g","unitPriceLabel":"87,45 Lei/kg","brand":"Mirdatod","brandCode":"755","brandFilterCode":"mirdatod-b756","sku":"100039328","price":17.49,"originalPrice":null,"currencyCode":"RON","currency":"Lei","image":{"thumbnail":{"default":"https://cdn.freshful.ro/media/cache/sylius_shop_product_thumbnail/3f/0b/761da938f393b4d6982164ca640b.jpg"},"large":{"default":"https://cdn.freshful.ro/media/cache/freshful_large/3f/0b/761da938f393b4d6982164ca640b.jpg"},"extralarge":{"default":"https://cdn.freshful.ro/media/cache/sylius_shop_product_original/3f/0b/761da938f393b4d6982164ca640b.jpg"}},"label":{"text":"Mici producători","backgroundColor":"#7B61FF","textColor":"#FFFFFF"},"tags":[{"type":"MadeInRomania","text":"Made In Romania","icon":"https://cdn.freshful.ro/assets/product_tags/made_in_romania.svg","iconPng":"https://cdn.freshful.ro/assets/product_tags/made_in_romania.png","backgroundColor":"#EDF2FD","textColor":"#1653CA"}],"isAvailable":true,"maxAvailableQuantity":100,"maxAllowedQuantity":100,"breadcrumbs":[{"code":"4","name":"Lactate & ouă","slug":"4-lactate-branzeturi-si-oua"},{"code":"402","name":"Unt","slug":"402-unt-si-margarina"},{"code":"40201","name":"Unt dulce","slug":"40201-unt"},{"code":"100039328","name":"Unt de Ibănești 82% grăsime 200g","slug":"100039328-mirdatod-unt-de-ibanesti-82-grasime-200g"}],"activePromotion":null,"saveMe":null,"labels":[{"type":"v1","items":[{"text":"Mici producători","backgroundColor":"#7B61FF","textColor":"#FFFFFF"}]}],"geniusPrice":null,"geniusUnitPricePerLabel":null,"banner":null,"discountLabel":null,"geniusDiscountLabel":null,"badge":null},{"code":"100038806","variantCode":"3228022910023","name":"Unt nesărat, 82% grăsime, 200g","slug":"100038806-president-unt-nesarat-82-grasime-200g","unitPriceLabel":"102,45 Lei/kg","brand":"President","brandCode":"593","brandFilterCode":"president-b594","sku":"100038806","price":20.49,"originalPrice":null,"currencyCode":"RON","currency":"Lei","image":{"thumbnail":{"default":"https://cdn.freshful.ro/media/cache/sylius_shop_product_thumbnail/7a/78/eec276fd80fa15cd49dcb37fdaaf.jpg"},"large":{"default":"https://cdn.freshful.ro/media/cache/freshful_large/7a/78/eec276fd80fa15cd49dcb37fdaaf.jpg"},"extralarge":{"default":"https://cdn.freshful.ro/media/cache/sylius_shop_product_original/7a/78/eec276fd80fa15cd49dcb37fdaaf.jpg"}},"label":null,"tags":[{"type":"saltFree","text":"Fara sare","icon":"https://cdn.freshful.ro/assets/product_tags/salt_free.svg","iconPng":"https://cdn.freshful.ro/assets/product_tags/salt_free.png","backgroundColor":"#E9F6F1","textColor":"#46AB86"}],"isAvailable":true,"maxAvailableQuantity":100,"maxAllowedQuantity":100,"breadcrumbs":[{"code":"4","name":"Lactate & ouă","slug":"4-lactate-branzeturi-si-oua"},{"code":"402","name":"Unt","slug":"402-unt-si-margarina"},{"code":"40201","name":"Unt dulce","slug":"40201-unt"},{"code":"100038806","name":"Unt nesărat, 82% grăsime, 200g","slug":"100038806-president-unt-nesarat-82-grasime-200g"}],"activePromotion":null,"saveMe":null,"labels":[],"geniusPrice":null,"geniusUnitPricePerLabel":null,"banner":null,"discountLabel":null,"geniusDiscountLabel":null,"badge":null},{"code":"100035353","variantCode":"100035353","name":"Unt dulce 200g","slug":"100035353-kerrygold-unt-dulce-200g","unitPriceLabel":"102,45 Lei/kg","brand":"Kerrygold","brandCode":"71","brandFilterCode":"kerrygold-b69","sku":"100035353","price":20.49,"originalPrice":null,"currencyCode":"RON","currency":"Lei","image":{"thumbnail":{"default":"https://cdn.freshful.ro/media/cache/sylius_shop_product_thumbnail/54/6d/46a6a7393ef97c30a261a4b53696.jpg"},"large":{"default":"https://cdn.freshful.ro/media/cache/freshful_large/54/6d/46a6a7393ef97c30a261a4b53696.jpg"},"extralarge":{"default":"https://cdn.freshful.ro/media/cache/sylius_shop_product_original/54/6d/46a6a7393ef97c30a261a4b53696.jpg"}},"label":null,"tags":[],"isAvailable":true,"maxAvailableQuantity":100,"maxAllowedQuantity":100,"breadcrumbs":[{"code":"4","name":"Lactate & ouă","slug":"4-lactate-branzeturi-si-oua"},{"code":"402","name":"Unt","slug":"402-unt-si-margarina"},{"code":"40201","name":"Unt dulce","slug":"40201-unt"},{"code":"100035353","name":"Unt dulce 200g","slug":"100035353-kerrygold-unt-dulce-200g"}],"activePromotion":null,"saveMe":null,"labels":[],"geniusPrice":null,"geniusUnitPricePerLabel":null,"banner":null,"discountLabel":null,"geniusDiscountLabel":null,"badge":null},{"code":"100145106","variantCode":"100145106","name":"Unt irlandez natural, nesărat, 82% grăsime, 200g","slug":"100145106-dublin-dairy-unt-irlandez-natural-nesarat-82-grasime-200g","unitPriceLabel":"84,9 Lei/kg","brand":"Dublin Dairy","brandCode":"2803","brandFilterCode":"dublin-dairy-b2890","sku":"100145106","price":16.98,"originalPrice":null,"currencyCode":"RON","currency":"Lei","image":{"thumbnail":{"default":"https://cdn.freshful.ro/media/cache/sylius_shop_product_thumbnail/c5/e5/72b9476e45798ce094c3f535f08f.jpg"},"large":{"default":"https://cdn.freshful.ro/media/cache/freshful_large/c5/e5/72b9476e45798ce094c3f535f08f.jpg"},"extralarge":{"default":"https://cdn.freshful.ro/media/cache/sylius_shop_product_original/c5/e5/72b9476e45798ce094c3f535f08f.jpg"}},"label":null,"tags":[{"type":"saltFree","text":"Fara sare","icon":"https://cdn.freshful.ro/assets/product_tags/salt_free.svg","iconPng":"https://cdn.freshful.ro/assets/product_tags/salt_free.png","backgroundColor":"#E9F6F1","textColor":"#46AB86"},{"type":"Natural","text":"Natural","icon":"https://cdn.freshful.ro/assets/product_tags/natural.svg","iconPng":"https://cdn.freshful.ro/assets/product_tags/natural.png","backgroundColor":"#E9FCF2","textColor":"#18AF62"}],"isAvailable":true,"maxAvailableQuantity":100,"maxAllowedQuantity":100,"breadcrumbs":[{"code":"4","name":"Lactate & ouă","slug":"4-lactate-branzeturi-si-oua"},{"code":"402","name":"Unt","slug":"402-unt-si-margarina"},{"code":"40201","name":"Unt dulce","slug":"40201-unt"},{"code":"100145106","name":"Unt irlandez natural, nesărat, 82% grăsime, 200g","slug":"100145106-dublin-dairy-unt-irlandez-natural-nesarat-82-grasime-200g"}],"activePromotion":null,"saveMe":null,"labels":[],"geniusPrice":null,"geniusUnitPricePerLabel":null,"banner":null,"discountLabel":null,"geniusDiscountLabel":null,"badge":null},{"code":"100140628","variantCode":"100140628","name":"Unt 60% grăsime 180g","slug":"100140628-bunisim-unt-60-grasime-180g","unitPriceLabel":"47,5 Lei/kg","brand":"Bunisim","brandCode":"2691","brandFilterCode":"bunisim-b2694","sku":"100140628","price":8.55,"originalPrice":null,"currencyCode":"RON","currency":"Lei","image":{"thumbnail":{"default":"https://cdn.freshful.ro/media/cache/sylius_shop_product_thumbnail/97/18/95cf14dc84f1843ac775d4930401.jpg"},"large":{"default":"https://cdn.freshful.ro/media/cache/freshful_large/97/18/95cf14dc84f1843ac775d4930401.jpg"},"extralarge":{"default":"https://cdn.freshful.ro/media/cache/sylius_shop_product_original/97/18/95cf14dc84f1843ac775d4930401.jpg"}},"label":{"text":"Primul preț","backgroundColor":"#3A0808","textColor":"#FFFFFF"},"tags":[{"type":"MadeInRomania","text":"Made In Romania","icon":"https://cdn.freshful.ro/assets/product_tags/made_in_romania.svg","iconPng":"https://cdn.freshful.ro/assets/product_tags/made_in_romania.png","backgroundColor":"#EDF2FD","textColor":"#1653CA"}],"isAvailable":true,"maxAvailableQuantity":100,"maxAllowedQuantity":100,"breadcrumbs":[{"code":"4","name":"Lactate & ouă","slug":"4-lactate-branzeturi-si-oua"},{"code":"402","name":"Unt","slug":"402-unt-si-margarina"},{"code":"40201","name":"Unt dulce","slug":"40201-unt"},{"code":"100140628","name":"Unt 60% grăsime 180g","slug":"100140628-bunisim-unt-60-grasime-180g"}],"activePromotion":null,"saveMe":null,"labels":[{"type":"v4","items":[{"text":"Primul","backgroundColor":"#3A0808","textColor":"#FFFFFF"},{"text":"preț","backgroundColor":"#BC0606","textColor":"#FFFFFF"}]}],"geniusPrice":null,"geniusUnitPricePerLabel":null,"banner":null,"discountLabel":null,"geniusDiscountLabel":null,"badge":null},{"code":"100030345","variantCode":"5941065012056","name":"Unt 82% grăsime, 180g","slug":"100030345-napolact-unt-82-grasime-180g","unitPriceLabel":"111,06 Lei/kg","brand":"Napolact","brandCode":"79","brandFilterCode":"napolact-b77","sku":"100030345","price":19.99,"originalPrice":null,"currencyCode":"RON","currency":"Lei","image":{"thumbnail":{"default":"https://cdn.freshful.ro/media/cache/sylius_shop_product_thumbnail/67/f7/9540e6a62e6b06272781ee4708da.jpg"},"large":{"default":"https://cdn.freshful.ro/media/cache/freshful_large/67/f7/9540e6a62e6b06272781ee4708da.jpg"},"extralarge":{"default":"https://cdn.freshful.ro/media/cache/sylius_shop_product_original/67/f7/9540e6a62e6b06272781ee4708da.jpg"}},"label":null,"tags":[{"type":"MadeInRomania","text":"Made In Romania","icon":"https://cdn.freshful.ro/assets/product_tags/made_in_romania.svg","iconPng":"https://cdn.freshful.ro/assets/product_tags/made_in_romania.png","backgroundColor":"#EDF2FD","textColor":"#1653CA"}],"isAvailable":true,"maxAvailableQuantity":100,"maxAllowedQuantity":100,"breadcrumbs":[{"code":"4","name":"Lactate & ouă","slug":"4-lactate-branzeturi-si-oua"},{"code":"402","name":"Unt","slug":"402-unt-si-margarina"},{"code":"40201","name":"Unt dulce","slug":"40201-unt"},{"code":"100030345","name":"Unt 82% grăsime, 180g","slug":"100030345-napolact-unt-82-grasime-180g"}],"activePromotion":null,"saveMe":null,"labels":[],"geniusPrice":null,"geniusUnitPricePerLabel":null,"banner":null,"discountLabel":null,"geniusDiscountLabel":null,"badge":null},{"code":"100004029","variantCode":"5941355000220","name":"Unt de masă B, 65% grăsime, 200g","slug":"100004029-de-albalact-unt-de-masa-b-65-grasime-200g","unitPriceLabel":"68,75 Lei/kg","brand":"De Albalact","brandCode":"9","brandFilterCode":"de-albalact-b82","sku":"100004029","price":13.75,"originalPrice":null,"currencyCode":"RON","currency":"Lei","image":{"thumbnail":{"default":"https://cdn.freshful.ro/media/cache/sylius_shop_product_thumbnail/49/8c/ab7e72a0f63a5b1e9460fd124ce2.jpg"},"large":{"default":"https://cdn.freshful.ro/media/cache/freshful_large/49/8c/ab7e72a0f63a5b1e9460fd124ce2.jpg"},"extralarge":{"default":"https://cdn.freshful.ro/media/cache/sylius_shop_product_original/49/8c/ab7e72a0f63a5b1e9460fd124ce2.jpg"}},"label":null,"tags":[{"type":"MadeInRomania","text":"Made In Romania","icon":"https://cdn.freshful.ro/assets/product_tags/made_in_romania.svg","iconPng":"https://cdn.freshful.ro/assets/product_tags/made_in_romania.png","backgroundColor":"#EDF2FD","textColor":"#1653CA"}],"isAvailable":true,"maxAvailableQuantity":100,"maxAllowedQuantity":100,"breadcrumbs":[{"code":"4","name":"Lactate & ouă","slug":"4-lactate-branzeturi-si-oua"},{"code":"402","name":"Unt","slug":"402-unt-si-margarina"},{"code":"40201","name":"Unt dulce","slug":"40201-unt"},{"code":"100004029","name":"Unt de masă B, 65% grăsime, 200g","slug":"100004029-de-albalact-unt-de-masa-b-65-grasime-200g"}],"activePromotion":null,"saveMe":null,"labels":[],"geniusPrice":null,"geniusUnitPricePerLabel":null,"banner":null,"discountLabel":null,"geniusDiscountLabel":null,"badge":null}],"filters":{"countSelected":0,"items":[{"code":"promotion","name":"Promoții","countSelected":0,"values":[{"code":"bunatatile-saptamanii-cw0923","name":"Oferta proaspătă a săptămânii","isSelected":false,"count":2}]},{"code":"brand","name":"Brand","countSelected":0,"values":[{"code":"al-dar-b2716","name":"Al Dar","isSelected":false,"count":1},{"code":"bunisim-b2694","name":"Bunisim","isSelected":false,"count":1},{"code":"covalact-b785","name":"Covalact","isSelected":false,"count":2},{"code":"de-albalact-b82","name":"De Albalact","isSelected":false,"count":1},{"code":"dublin-dairy-b2890","name":"Dublin Dairy","isSelected":false,"count":1},{"code":"elle-vire-b468","name":"Elle&Vire","isSelected":false,"count":2},{"code":"goat-farm-b2893","name":"Goat Farm","isSelected":false,"count":1},{"code":"huzur-b2725","name":"HUZUR","isSelected":false,"count":1},{"code":"kerrygold-b69","name":"Kerrygold","isSelected":false,"count":1},{"code":"lacto-food-b378","name":"Lacto Food","isSelected":false,"count":3},{"code":"lurpak-b228","name":"Lurpak","isSelected":false,"count":1},{"code":"laptaria-cu-caimac-b1","name":"Lăptăria cu caimac","isSelected":false,"count":2},{"code":"meggle-b498","name":"Meggle","isSelected":false,"count":1},{"code":"minusl-b401","name":"MinusL","isSelected":false,"count":1},{"code":"mirdatod-b756","name":"Mirdatod","isSelected":false,"count":1},{"code":"mizo-b535","name":"Mizo","isSelected":false,"count":2},{"code":"monor-b326","name":"Monor","isSelected":false,"count":1},{"code":"muller-b259","name":"Müller","isSelected":false,"count":1},{"code":"napolact-b77","name":"Napolact","isSelected":false,"count":2},{"code":"nucet-b2523","name":"Nucet","isSelected":false,"count":2},{"code":"olympus-b40","name":"Olympus","isSelected":false,"count":3},{"code":"parmareggio-b412","name":"Parmareggio","isSelected":false,"count":2},{"code":"paysan-breton-b1657","name":"Paysan Breton","isSelected":false,"count":3},{"code":"president-b594","name":"President","isSelected":false,"count":7},{"code":"sas-briois-b3260","name":"Sas Briois","isSelected":false,"count":1},{"code":"torockoi-b828","name":"Torockoi","isSelected":false,"count":1},{"code":"unirea-gospodarilor-b1888","name":"Unirea Gospodarilor","isSelected":false,"count":1},{"code":"zanetti-b223","name":"Zanetti","isSelected":false,"count":1}]},{"code":"diet_lifestyle","name":"Dietă și lifestyle","countSelected":0,"values":[{"code":"fara-conservanti-a37","name":"Fara conservanti","isSelected":false,"count":1},{"code":"fara-e-uri-a84","name":"Fara E-uri","isSelected":false,"count":3},{"code":"fara-lactoza-a38","name":"Fara lactoza","isSelected":false,"count":3},{"code":"fara-sare-a52","name":"Fara sare","isSelected":false,"count":5},{"code":"made-in-romania-a85","name":"Made In Romania","isSelected":false,"count":14},{"code":"natural-a27","name":"Natural","isSelected":false,"count":6}]}]},"orderBy":[{"field":"price","direction":"asc","name":"Preț crescător","isSelected":false},{"field":"price","direction":"desc","name":"Preț descrescător","isSelected":false},{"field":"popularity","direction":"desc","name":"Cele mai populare","isSelected":true},{"field":"category","direction":"asc","name":"Categorie","isSelected":false}],"metaTitle":"Unt - Gamă variată","metaDescription":"Vrei Unt? Alege dintr-o gamă variată. Comanzi simplu și ai livrare rapidă, calitate și prospețime. Hai pe Freshful.ro","metaKeywords":null,"banners":[{"name":"My Maia Listing","position":3,"type":"listing","displayOnMobile":true,"image":{"jpg":"https://cdn.freshful.ro/media/image/dc/d4/0a378524ce8d6f5360b2caca28aa.jpg","webp":"https://cdn.freshful.ro/media/image/2d/5a/168172cd83f99454c3d3579f8d75.webp"},"imageResponsive":{"jpg":"https://cdn.freshful.ro/media/image/55/15/ddedfe179dd52b5bebac06835470.jpg","webp":"https://cdn.freshful.ro/media/image/7e/02/cfeb05518d4c56d568bfcca4966d.webp"},"url":"/l/listing-my-maia-by-freshful"}]}}