{"type":"subcategory","payload":{"analyticsListId":"category_403-lactate-uht","analyticsListName":"Category - Lactate UHT","name":"Lactate UHT","slug":"403-lactate-uht","image":null,"breadcrumbs":[{"code":"4","name":"Lactate & ouă","slug":"4-lactate-branzeturi-si-oua"},{"code":"403","name":"Lactate UHT","slug":"403-lactate-uht"}],"slots":[],"page":1,"limit":10,"pages":6,"count":51,"siblings":[{"name":"Lapte, smântână și brânză proaspătă","slug":"401-lapte-smantana-si-branza-proaspata","selected":false},{"name":"Unt","slug":"402-unt-si-margarina","selected":false},{"name":"Lactate UHT","slug":"403-lactate-uht","selected":true},{"name":"Iaurt, desert și sana","slug":"404-iaurt-desert-si-sana","selected":false},{"name":"Ouă","slug":"405-oua","selected":false},{"name":"Brânzeturi","slug":"406-branzeturi","selected":false},{"name":"Lapte și lactate ECO","slug":"lapte-si-lactate-eco","selected":false},{"name":"Amestecuri lactate și grasimi vegetale","slug":"amestecuri-lactate-si-grasimi-vegetale","selected":false}],"children":[{"name":"Toate produsele","slug":"403-lactate-uht","selected":true},{"name":"Lapte UHT","slug":"40301-lapte-uht","selected":false},{"name":"Smântână, sosuri și creme UHT","slug":"40303-smantana-sosuri-si-creme-uht","selected":false},{"name":"Frișcă","slug":"40304-frisca","selected":false}],"products":[{"code":"100032072","variantCode":"5941875904138","name":"Smântână lichidă 35% grăsime 1l","slug":"100032072-olympus-smantana-lichida-35-grasime-1l","unitPriceLabel":"23,99 Lei/l","brand":"Olympus","brandCode":"45","brandFilterCode":"olympus-b40","sku":"100032072","price":23.99,"originalPrice":31.99,"currencyCode":"RON","currency":"Lei","image":{"thumbnail":{"default":"https://cdn.freshful.ro/media/cache/sylius_shop_product_thumbnail/9c/cb/645792492ba8f7e9849e149b5f40.jpg"},"large":{"default":"https://cdn.freshful.ro/media/cache/freshful_large/9c/cb/645792492ba8f7e9849e149b5f40.jpg"},"extralarge":{"default":"https://cdn.freshful.ro/media/cache/sylius_shop_product_original/9c/cb/645792492ba8f7e9849e149b5f40.jpg"}},"label":{"text":"-25%","backgroundColor":"#FF9903","textColor":"#FFFFFF"},"tags":[],"isAvailable":true,"maxAvailableQuantity":100,"maxAllowedQuantity":100,"breadcrumbs":[{"code":"4","name":"Lactate & ouă","slug":"4-lactate-branzeturi-si-oua"},{"code":"403","name":"Lactate UHT","slug":"403-lactate-uht"},{"code":"40303","name":"Smântână, sosuri și creme UHT","slug":"40303-smantana-sosuri-si-creme-uht"},{"code":"100032072","name":"Smântână lichidă 35% grăsime 1l","slug":"100032072-olympus-smantana-lichida-35-grasime-1l"}],"activePromotion":{"code":"bunatatile-saptamanii-cw0923","name":"Preț redus","targetQuantity":null},"saveMe":null,"labels":[{"type":"v1","items":[{"text":"-25%","backgroundColor":"#FF9903","textColor":"#FFFFFF"}]}],"geniusPrice":null,"geniusUnitPricePerLabel":null,"banner":{"text":"Super preț","textColor":"#FF0000","bgColor":"#FFF2EC","icon":null,"link":"https://www.freshful.ro/oferte/bunatatile-saptamanii-cw0923","type":"promo","analyticsEventType":"select_promotion","analyticsEventPayload":{"promotion_id":"bunatatile-saptamanii-cw0923","promotion_name":"Oferta proaspătă a săptămânii"}},"discountLabel":"Economisești 25%","geniusDiscountLabel":null,"badge":null},{"code":"100032073","variantCode":"5203149006215","name":"Smântână lichidă, 20% grăsime 200ml","slug":"100032073-olympus-smantana-lichida-20-grasime-200ml","unitPriceLabel":"29,95 Lei/l","brand":"Olympus","brandCode":"45","brandFilterCode":"olympus-b40","sku":"100032073","price":5.99,"originalPrice":null,"currencyCode":"RON","currency":"Lei","image":{"thumbnail":{"default":"https://cdn.freshful.ro/media/cache/sylius_shop_product_thumbnail/04/5b/47cfb56cfb72a94ddaf31a1d2412.jpg"},"large":{"default":"https://cdn.freshful.ro/media/cache/freshful_large/04/5b/47cfb56cfb72a94ddaf31a1d2412.jpg"},"extralarge":{"default":"https://cdn.freshful.ro/media/cache/sylius_shop_product_original/04/5b/47cfb56cfb72a94ddaf31a1d2412.jpg"}},"label":null,"tags":[],"isAvailable":true,"maxAvailableQuantity":100,"maxAllowedQuantity":100,"breadcrumbs":[{"code":"4","name":"Lactate & ouă","slug":"4-lactate-branzeturi-si-oua"},{"code":"403","name":"Lactate UHT","slug":"403-lactate-uht"},{"code":"40303","name":"Smântână, sosuri și creme UHT","slug":"40303-smantana-sosuri-si-creme-uht"},{"code":"100032073","name":"Smântână lichidă, 20% grăsime 200ml","slug":"100032073-olympus-smantana-lichida-20-grasime-200ml"}],"activePromotion":null,"saveMe":null,"labels":[],"geniusPrice":null,"geniusUnitPricePerLabel":null,"banner":null,"discountLabel":null,"geniusDiscountLabel":null,"badge":null},{"code":"100038789","variantCode":"5941192110861","name":"Lapte UHT fără lactoză, 1.5% grăsime, „Zile ușoare” 1l","slug":"100038789-ladorna-lapte-uht-fara-lactoza-1-5-grasime-zile-usoare-1l","unitPriceLabel":"10,79 Lei/l","brand":"LaDORNA","brandCode":"594","brandFilterCode":"ladorna-b595","sku":"100038789","price":10.79,"originalPrice":null,"currencyCode":"RON","currency":"Lei","image":{"thumbnail":{"default":"https://cdn.freshful.ro/media/cache/sylius_shop_product_thumbnail/5d/8d/cf6300b4f91156f6b0a3df446a6a.jpg"},"large":{"default":"https://cdn.freshful.ro/media/cache/freshful_large/5d/8d/cf6300b4f91156f6b0a3df446a6a.jpg"},"extralarge":{"default":"https://cdn.freshful.ro/media/cache/sylius_shop_product_original/5d/8d/cf6300b4f91156f6b0a3df446a6a.jpg"}},"label":null,"tags":[{"type":"LactoseFree","text":"Fara lactoza","icon":"https://cdn.freshful.ro/assets/product_tags/fara_lactoza.svg","iconPng":"https://cdn.freshful.ro/assets/product_tags/fara_lactoza.png","backgroundColor":"#E9F7FB","textColor":"#25A6D0"},{"type":"MadeInRomania","text":"Made In Romania","icon":"https://cdn.freshful.ro/assets/product_tags/made_in_romania.svg","iconPng":"https://cdn.freshful.ro/assets/product_tags/made_in_romania.png","backgroundColor":"#EDF2FD","textColor":"#1653CA"}],"isAvailable":true,"maxAvailableQuantity":100,"maxAllowedQuantity":100,"breadcrumbs":[{"code":"4","name":"Lactate & ouă","slug":"4-lactate-branzeturi-si-oua"},{"code":"403","name":"Lactate UHT","slug":"403-lactate-uht"},{"code":"40301","name":"Lapte UHT","slug":"40301-lapte-uht"},{"code":"100038789","name":"Lapte UHT fără lactoză, 1.5% grăsime, „Zile ușoare” 1l","slug":"100038789-ladorna-lapte-uht-fara-lactoza-1-5-grasime-zile-usoare-1l"}],"activePromotion":null,"saveMe":null,"labels":[],"geniusPrice":null,"geniusUnitPricePerLabel":null,"banner":null,"discountLabel":null,"geniusDiscountLabel":null,"badge":null},{"code":"100032077","variantCode":"5203149006208","name":"Smântână lichidă UHT 35% grăsime 200ml","slug":"100032077-olympus-smantana-lichida-uht-35-grasime-200ml","unitPriceLabel":"36,95 Lei/kg","brand":"Olympus","brandCode":"45","brandFilterCode":"olympus-b40","sku":"100032077","price":7.39,"originalPrice":null,"currencyCode":"RON","currency":"Lei","image":{"thumbnail":{"default":"https://cdn.freshful.ro/media/cache/sylius_shop_product_thumbnail/ab/59/a8ae09a9175923c5c6ed716cdac5.jpg"},"large":{"default":"https://cdn.freshful.ro/media/cache/freshful_large/ab/59/a8ae09a9175923c5c6ed716cdac5.jpg"},"extralarge":{"default":"https://cdn.freshful.ro/media/cache/sylius_shop_product_original/ab/59/a8ae09a9175923c5c6ed716cdac5.jpg"}},"label":null,"tags":[],"isAvailable":true,"maxAvailableQuantity":100,"maxAllowedQuantity":100,"breadcrumbs":[{"code":"4","name":"Lactate & ouă","slug":"4-lactate-branzeturi-si-oua"},{"code":"403","name":"Lactate UHT","slug":"403-lactate-uht"},{"code":"40303","name":"Smântână, sosuri și creme UHT","slug":"40303-smantana-sosuri-si-creme-uht"},{"code":"100032077","name":"Smântână lichidă UHT 35% grăsime 200ml","slug":"100032077-olympus-smantana-lichida-uht-35-grasime-200ml"}],"activePromotion":null,"saveMe":null,"labels":[],"geniusPrice":null,"geniusUnitPricePerLabel":null,"banner":null,"discountLabel":null,"geniusDiscountLabel":null,"badge":null},{"code":"100143780","variantCode":"100143780","name":"Lapte UHT 1.5% grăsime 1l","slug":"100143780-no-brand-lapte-uht-1-5-grasime-1l","unitPriceLabel":"5,7 Lei/l","brand":"Sole","brandCode":"3005","brandFilterCode":"sole-b3099","sku":"100143780","price":5.7,"originalPrice":null,"currencyCode":"RON","currency":"Lei","image":{"thumbnail":{"default":"https://cdn.freshful.ro/media/cache/sylius_shop_product_thumbnail/13/f3/b46539f51a2a14134ced7b9eb594.jpg"},"large":{"default":"https://cdn.freshful.ro/media/cache/freshful_large/13/f3/b46539f51a2a14134ced7b9eb594.jpg"},"extralarge":{"default":"https://cdn.freshful.ro/media/cache/sylius_shop_product_original/13/f3/b46539f51a2a14134ced7b9eb594.jpg"}},"label":{"text":"Primul preț","backgroundColor":"#3A0808","textColor":"#FFFFFF"},"tags":[],"isAvailable":true,"maxAvailableQuantity":100,"maxAllowedQuantity":100,"breadcrumbs":[{"code":"4","name":"Lactate & ouă","slug":"4-lactate-branzeturi-si-oua"},{"code":"403","name":"Lactate UHT","slug":"403-lactate-uht"},{"code":"40301","name":"Lapte UHT","slug":"40301-lapte-uht"},{"code":"100143780","name":"Lapte UHT 1.5% grăsime 1l","slug":"100143780-no-brand-lapte-uht-1-5-grasime-1l"}],"activePromotion":null,"saveMe":null,"labels":[{"type":"v4","items":[{"text":"Primul","backgroundColor":"#3A0808","textColor":"#FFFFFF"},{"text":"preț","backgroundColor":"#BC0606","textColor":"#FFFFFF"}]}],"geniusPrice":null,"geniusUnitPricePerLabel":null,"banner":null,"discountLabel":null,"geniusDiscountLabel":null,"badge":null},{"code":"100038791","variantCode":"5941192110885","name":"Lapte UHT fără lactoză, 3.5% grăsime, „Zile ușoare” 1l","slug":"100038791-ladorna-lapte-uht-fara-lactoza-3-5-grasime-zile-usoare-1l","unitPriceLabel":"11,49 Lei/l","brand":"LaDORNA","brandCode":"594","brandFilterCode":"ladorna-b595","sku":"100038791","price":11.49,"originalPrice":null,"currencyCode":"RON","currency":"Lei","image":{"thumbnail":{"default":"https://cdn.freshful.ro/media/cache/sylius_shop_product_thumbnail/92/e0/698a6efda85202f55d27023671bf.jpg"},"large":{"default":"https://cdn.freshful.ro/media/cache/freshful_large/92/e0/698a6efda85202f55d27023671bf.jpg"},"extralarge":{"default":"https://cdn.freshful.ro/media/cache/sylius_shop_product_original/92/e0/698a6efda85202f55d27023671bf.jpg"}},"label":null,"tags":[{"type":"LactoseFree","text":"Fara lactoza","icon":"https://cdn.freshful.ro/assets/product_tags/fara_lactoza.svg","iconPng":"https://cdn.freshful.ro/assets/product_tags/fara_lactoza.png","backgroundColor":"#E9F7FB","textColor":"#25A6D0"},{"type":"MadeInRomania","text":"Made In Romania","icon":"https://cdn.freshful.ro/assets/product_tags/made_in_romania.svg","iconPng":"https://cdn.freshful.ro/assets/product_tags/made_in_romania.png","backgroundColor":"#EDF2FD","textColor":"#1653CA"}],"isAvailable":true,"maxAvailableQuantity":100,"maxAllowedQuantity":100,"breadcrumbs":[{"code":"4","name":"Lactate & ouă","slug":"4-lactate-branzeturi-si-oua"},{"code":"403","name":"Lactate UHT","slug":"403-lactate-uht"},{"code":"40301","name":"Lapte UHT","slug":"40301-lapte-uht"},{"code":"100038791","name":"Lapte UHT fără lactoză, 3.5% grăsime, „Zile ușoare” 1l","slug":"100038791-ladorna-lapte-uht-fara-lactoza-3-5-grasime-zile-usoare-1l"}],"activePromotion":null,"saveMe":null,"labels":[],"geniusPrice":null,"geniusUnitPricePerLabel":null,"banner":null,"discountLabel":null,"geniusDiscountLabel":null,"badge":null},{"code":"100038786","variantCode":"5941192101838","name":"Lapte UHT 1.5% grăsime 1l","slug":"100038786-ladorna-lapte-uht-1-5-grasime-1l","unitPriceLabel":"7,79 Lei/l","brand":"LaDORNA","brandCode":"594","brandFilterCode":"ladorna-b595","sku":"100038786","price":7.79,"originalPrice":null,"currencyCode":"RON","currency":"Lei","image":{"thumbnail":{"default":"https://cdn.freshful.ro/media/cache/sylius_shop_product_thumbnail/61/fa/362447654a9b3b23b1c80e805181.jpg"},"large":{"default":"https://cdn.freshful.ro/media/cache/freshful_large/61/fa/362447654a9b3b23b1c80e805181.jpg"},"extralarge":{"default":"https://cdn.freshful.ro/media/cache/sylius_shop_product_original/61/fa/362447654a9b3b23b1c80e805181.jpg"}},"label":null,"tags":[{"type":"MadeInRomania","text":"Made In Romania","icon":"https://cdn.freshful.ro/assets/product_tags/made_in_romania.svg","iconPng":"https://cdn.freshful.ro/assets/product_tags/made_in_romania.png","backgroundColor":"#EDF2FD","textColor":"#1653CA"}],"isAvailable":true,"maxAvailableQuantity":100,"maxAllowedQuantity":100,"breadcrumbs":[{"code":"4","name":"Lactate & ouă","slug":"4-lactate-branzeturi-si-oua"},{"code":"403","name":"Lactate UHT","slug":"403-lactate-uht"},{"code":"40301","name":"Lapte UHT","slug":"40301-lapte-uht"},{"code":"100038786","name":"Lapte UHT 1.5% grăsime 1l","slug":"100038786-ladorna-lapte-uht-1-5-grasime-1l"}],"activePromotion":null,"saveMe":null,"labels":[],"geniusPrice":null,"geniusUnitPricePerLabel":null,"banner":null,"discountLabel":null,"geniusDiscountLabel":null,"badge":null},{"code":"100128874","variantCode":"100128874","name":"Lapte Barista UHT 3.5% grăsime 1l","slug":"100128874-meggle-lapte-barista-uht-3-5-grasime-1l","unitPriceLabel":"10,89 Lei/l","brand":"Meggle","brandCode":"497","brandFilterCode":"meggle-b498","sku":"100128874","price":10.89,"originalPrice":null,"currencyCode":"RON","currency":"Lei","image":{"thumbnail":{"default":"https://cdn.freshful.ro/media/cache/sylius_shop_product_thumbnail/71/12/b994bf89bdff835787e35ed196c1.jpg"},"large":{"default":"https://cdn.freshful.ro/media/cache/freshful_large/71/12/b994bf89bdff835787e35ed196c1.jpg"},"extralarge":{"default":"https://cdn.freshful.ro/media/cache/sylius_shop_product_original/71/12/b994bf89bdff835787e35ed196c1.jpg"}},"label":null,"tags":[],"isAvailable":true,"maxAvailableQuantity":100,"maxAllowedQuantity":100,"breadcrumbs":[{"code":"4","name":"Lactate & ouă","slug":"4-lactate-branzeturi-si-oua"},{"code":"403","name":"Lactate UHT","slug":"403-lactate-uht"},{"code":"40301","name":"Lapte UHT","slug":"40301-lapte-uht"},{"code":"100128874","name":"Lapte Barista UHT 3.5% grăsime 1l","slug":"100128874-meggle-lapte-barista-uht-3-5-grasime-1l"}],"activePromotion":null,"saveMe":null,"labels":[],"geniusPrice":null,"geniusUnitPricePerLabel":null,"banner":null,"discountLabel":null,"geniusDiscountLabel":null,"badge":null},{"code":"100038796","variantCode":"5941192110519","name":"Smântână UHT pentru gătit 20% grăsime 200ml","slug":"100038796-ladorna-smantana-uht-pentru-gatit-20-grasime-200ml","unitPriceLabel":"33,45 Lei/l","brand":"LaDORNA","brandCode":"594","brandFilterCode":"ladorna-b595","sku":"100038796","price":6.69,"originalPrice":null,"currencyCode":"RON","currency":"Lei","image":{"thumbnail":{"default":"https://cdn.freshful.ro/media/cache/sylius_shop_product_thumbnail/73/07/c533fb8f6cb25236a6a393c2c5dc.jpg"},"large":{"default":"https://cdn.freshful.ro/media/cache/freshful_large/73/07/c533fb8f6cb25236a6a393c2c5dc.jpg"},"extralarge":{"default":"https://cdn.freshful.ro/media/cache/sylius_shop_product_original/73/07/c533fb8f6cb25236a6a393c2c5dc.jpg"}},"label":null,"tags":[{"type":"MadeInRomania","text":"Made In Romania","icon":"https://cdn.freshful.ro/assets/product_tags/made_in_romania.svg","iconPng":"https://cdn.freshful.ro/assets/product_tags/made_in_romania.png","backgroundColor":"#EDF2FD","textColor":"#1653CA"}],"isAvailable":true,"maxAvailableQuantity":100,"maxAllowedQuantity":100,"breadcrumbs":[{"code":"4","name":"Lactate & ouă","slug":"4-lactate-branzeturi-si-oua"},{"code":"403","name":"Lactate UHT","slug":"403-lactate-uht"},{"code":"40303","name":"Smântână, sosuri și creme UHT","slug":"40303-smantana-sosuri-si-creme-uht"},{"code":"100038796","name":"Smântână UHT pentru gătit 20% grăsime 200ml","slug":"100038796-ladorna-smantana-uht-pentru-gatit-20-grasime-200ml"}],"activePromotion":null,"saveMe":null,"labels":[],"geniusPrice":null,"geniusUnitPricePerLabel":null,"banner":null,"discountLabel":null,"geniusDiscountLabel":null,"badge":null},{"code":"100140929","variantCode":"100140929","name":"Lapte Barista UHT pentru cafea 3,5% grăsime, 1l","slug":"100140929-zuzu-barista-lapte-barista-uht-pentru-cafea-3-5-grasime-1l","unitPriceLabel":"9,85 Lei/l","brand":"Zuzu Barista","brandCode":"2697","brandFilterCode":"zuzu-barista-b2705","sku":"100140929","price":9.85,"originalPrice":null,"currencyCode":"RON","currency":"Lei","image":{"thumbnail":{"default":"https://cdn.freshful.ro/media/cache/sylius_shop_product_thumbnail/35/bb/7fd6a42145bd4536f280dc6eefce.jpg"},"large":{"default":"https://cdn.freshful.ro/media/cache/freshful_large/35/bb/7fd6a42145bd4536f280dc6eefce.jpg"},"extralarge":{"default":"https://cdn.freshful.ro/media/cache/sylius_shop_product_original/35/bb/7fd6a42145bd4536f280dc6eefce.jpg"}},"label":null,"tags":[],"isAvailable":true,"maxAvailableQuantity":100,"maxAllowedQuantity":100,"breadcrumbs":[{"code":"4","name":"Lactate & ouă","slug":"4-lactate-branzeturi-si-oua"},{"code":"403","name":"Lactate UHT","slug":"403-lactate-uht"},{"code":"40301","name":"Lapte UHT","slug":"40301-lapte-uht"},{"code":"100140929","name":"Lapte Barista UHT pentru cafea 3,5% grăsime, 1l","slug":"100140929-zuzu-barista-lapte-barista-uht-pentru-cafea-3-5-grasime-1l"}],"activePromotion":null,"saveMe":null,"labels":[],"geniusPrice":null,"geniusUnitPricePerLabel":null,"banner":null,"discountLabel":null,"geniusDiscountLabel":null,"badge":null}],"filters":{"countSelected":0,"items":[{"code":"promotion","name":"Promoții","countSelected":0,"values":[{"code":"bunatatile-saptamanii-cw0923","name":"Oferta proaspătă a săptămânii","isSelected":false,"count":1}]},{"code":"brand","name":"Brand","countSelected":0,"values":[{"code":"5-to-go-b2826","name":"5 To Go","isSelected":false,"count":1},{"code":"campina-b80","name":"Campina","isSelected":false,"count":2},{"code":"elle-vire-b468","name":"Elle&Vire","isSelected":false,"count":1},{"code":"fulga-b23","name":"Fulga","isSelected":false,"count":2},{"code":"hochwald-b1672","name":"Hochwald","isSelected":false,"count":1},{"code":"ladorna-b595","name":"LaDORNA","isSelected":false,"count":10},{"code":"meggle-b498","name":"Meggle","isSelected":false,"count":9},{"code":"mizo-b535","name":"Mizo","isSelected":false,"count":3},{"code":"muller-b259","name":"Müller","isSelected":false,"count":2},{"code":"oatnestly-b2953","name":"Oatnestly","isSelected":false,"count":1},{"code":"olympus-b40","name":"Olympus","isSelected":false,"count":5},{"code":"sole-b3099","name":"Sole","isSelected":false,"count":2},{"code":"starbucks-b227","name":"Starbucks","isSelected":false,"count":2},{"code":"sterilgarda-b411","name":"Sterilgarda","isSelected":false,"count":1},{"code":"voila-b1668","name":"Voilà","isSelected":false,"count":4},{"code":"yopro-b31","name":"Yopro","isSelected":false,"count":2},{"code":"zuzu-barista-b2705","name":"Zuzu Barista","isSelected":false,"count":1},{"code":"zuzu-fit-b34","name":"Zuzu Fit","isSelected":false,"count":2}]},{"code":"diet_lifestyle","name":"Dietă și lifestyle","countSelected":0,"values":[{"code":"fara-gluten-a16","name":"Fara gluten","isSelected":false,"count":2},{"code":"fara-lactoza-a38","name":"Fara lactoza","isSelected":false,"count":7},{"code":"fara-zahar-adaugat-a29","name":"Fara zahar adaugat","isSelected":false,"count":3},{"code":"made-in-romania-a85","name":"Made In Romania","isSelected":false,"count":9},{"code":"vegan-a24","name":"Vegan","isSelected":false,"count":1}]}]},"orderBy":[{"field":"price","direction":"asc","name":"Preț crescător","isSelected":false},{"field":"price","direction":"desc","name":"Preț descrescător","isSelected":false},{"field":"popularity","direction":"desc","name":"Cele mai populare","isSelected":true},{"field":"category","direction":"asc","name":"Categorie","isSelected":false}],"metaTitle":"Lactate UHT - Gamă variată","metaDescription":"Vrei Lactate UHT? Alege dintr-o gamă variată. Comanzi simplu și ai livrare rapidă, calitate și prospețime. Hai pe Freshful.ro","metaKeywords":null,"banners":[]}}