{"type":"subcategory","payload":{"analyticsListId":"category_40301-lapte-uht","analyticsListName":"Category - Lapte UHT","name":"Lapte UHT","slug":"40301-lapte-uht","image":null,"breadcrumbs":[{"code":"4","name":"Lactate & ouă","slug":"4-lactate-branzeturi-si-oua"},{"code":"403","name":"Lactate UHT","slug":"403-lactate-uht"},{"code":"40301","name":"Lapte UHT","slug":"40301-lapte-uht"}],"slots":[],"page":1,"limit":10,"pages":4,"count":32,"siblings":[{"name":"Lapte, smântână și brânză proaspătă","slug":"401-lapte-smantana-si-branza-proaspata","selected":false},{"name":"Unt","slug":"402-unt-si-margarina","selected":false},{"name":"Lactate UHT","slug":"403-lactate-uht","selected":true},{"name":"Iaurt, desert și sana","slug":"404-iaurt-desert-si-sana","selected":false},{"name":"Ouă","slug":"405-oua","selected":false},{"name":"Brânzeturi","slug":"406-branzeturi","selected":false},{"name":"Lapte și lactate ECO","slug":"lapte-si-lactate-eco","selected":false},{"name":"Amestecuri lactate și grasimi vegetale","slug":"amestecuri-lactate-si-grasimi-vegetale","selected":false}],"children":[{"name":"Toate produsele","slug":"403-lactate-uht","selected":false},{"name":"Lapte UHT","slug":"40301-lapte-uht","selected":true},{"name":"Smântână, sosuri și creme UHT","slug":"40303-smantana-sosuri-si-creme-uht","selected":false},{"name":"Frișcă","slug":"40304-frisca","selected":false}],"products":[{"code":"100038789","variantCode":"5941192110861","name":"Lapte UHT fără lactoză, 1.5% grăsime, „Zile ușoare” 1l","slug":"100038789-ladorna-lapte-uht-fara-lactoza-1-5-grasime-zile-usoare-1l","unitPriceLabel":"10,79 Lei/l","brand":"LaDORNA","brandCode":"594","brandFilterCode":"ladorna-b595","sku":"100038789","price":10.79,"originalPrice":null,"currencyCode":"RON","currency":"Lei","image":{"thumbnail":{"default":"https://cdn.freshful.ro/media/cache/sylius_shop_product_thumbnail/5d/8d/cf6300b4f91156f6b0a3df446a6a.jpg"},"large":{"default":"https://cdn.freshful.ro/media/cache/freshful_large/5d/8d/cf6300b4f91156f6b0a3df446a6a.jpg"},"extralarge":{"default":"https://cdn.freshful.ro/media/cache/sylius_shop_product_original/5d/8d/cf6300b4f91156f6b0a3df446a6a.jpg"}},"label":null,"tags":[{"type":"LactoseFree","text":"Fara lactoza","icon":"https://cdn.freshful.ro/assets/product_tags/fara_lactoza.svg","iconPng":"https://cdn.freshful.ro/assets/product_tags/fara_lactoza.png","backgroundColor":"#E9F7FB","textColor":"#25A6D0"},{"type":"MadeInRomania","text":"Made In Romania","icon":"https://cdn.freshful.ro/assets/product_tags/made_in_romania.svg","iconPng":"https://cdn.freshful.ro/assets/product_tags/made_in_romania.png","backgroundColor":"#EDF2FD","textColor":"#1653CA"}],"isAvailable":true,"maxAvailableQuantity":100,"maxAllowedQuantity":100,"breadcrumbs":[{"code":"4","name":"Lactate & ouă","slug":"4-lactate-branzeturi-si-oua"},{"code":"403","name":"Lactate UHT","slug":"403-lactate-uht"},{"code":"40301","name":"Lapte UHT","slug":"40301-lapte-uht"},{"code":"100038789","name":"Lapte UHT fără lactoză, 1.5% grăsime, „Zile ușoare” 1l","slug":"100038789-ladorna-lapte-uht-fara-lactoza-1-5-grasime-zile-usoare-1l"}],"activePromotion":null,"saveMe":null,"labels":[],"geniusPrice":null,"geniusUnitPricePerLabel":null,"banner":null,"discountLabel":null,"geniusDiscountLabel":null,"badge":null},{"code":"100143780","variantCode":"100143780","name":"Lapte UHT 1.5% grăsime 1l","slug":"100143780-no-brand-lapte-uht-1-5-grasime-1l","unitPriceLabel":"5,7 Lei/l","brand":"Sole","brandCode":"3005","brandFilterCode":"sole-b3099","sku":"100143780","price":5.7,"originalPrice":null,"currencyCode":"RON","currency":"Lei","image":{"thumbnail":{"default":"https://cdn.freshful.ro/media/cache/sylius_shop_product_thumbnail/13/f3/b46539f51a2a14134ced7b9eb594.jpg"},"large":{"default":"https://cdn.freshful.ro/media/cache/freshful_large/13/f3/b46539f51a2a14134ced7b9eb594.jpg"},"extralarge":{"default":"https://cdn.freshful.ro/media/cache/sylius_shop_product_original/13/f3/b46539f51a2a14134ced7b9eb594.jpg"}},"label":{"text":"Primul preț","backgroundColor":"#3A0808","textColor":"#FFFFFF"},"tags":[],"isAvailable":true,"maxAvailableQuantity":100,"maxAllowedQuantity":100,"breadcrumbs":[{"code":"4","name":"Lactate & ouă","slug":"4-lactate-branzeturi-si-oua"},{"code":"403","name":"Lactate UHT","slug":"403-lactate-uht"},{"code":"40301","name":"Lapte UHT","slug":"40301-lapte-uht"},{"code":"100143780","name":"Lapte UHT 1.5% grăsime 1l","slug":"100143780-no-brand-lapte-uht-1-5-grasime-1l"}],"activePromotion":null,"saveMe":null,"labels":[{"type":"v4","items":[{"text":"Primul","backgroundColor":"#3A0808","textColor":"#FFFFFF"},{"text":"preț","backgroundColor":"#BC0606","textColor":"#FFFFFF"}]}],"geniusPrice":null,"geniusUnitPricePerLabel":null,"banner":null,"discountLabel":null,"geniusDiscountLabel":null,"badge":null},{"code":"100038791","variantCode":"5941192110885","name":"Lapte UHT fără lactoză, 3.5% grăsime, „Zile ușoare” 1l","slug":"100038791-ladorna-lapte-uht-fara-lactoza-3-5-grasime-zile-usoare-1l","unitPriceLabel":"11,49 Lei/l","brand":"LaDORNA","brandCode":"594","brandFilterCode":"ladorna-b595","sku":"100038791","price":11.49,"originalPrice":null,"currencyCode":"RON","currency":"Lei","image":{"thumbnail":{"default":"https://cdn.freshful.ro/media/cache/sylius_shop_product_thumbnail/92/e0/698a6efda85202f55d27023671bf.jpg"},"large":{"default":"https://cdn.freshful.ro/media/cache/freshful_large/92/e0/698a6efda85202f55d27023671bf.jpg"},"extralarge":{"default":"https://cdn.freshful.ro/media/cache/sylius_shop_product_original/92/e0/698a6efda85202f55d27023671bf.jpg"}},"label":null,"tags":[{"type":"LactoseFree","text":"Fara lactoza","icon":"https://cdn.freshful.ro/assets/product_tags/fara_lactoza.svg","iconPng":"https://cdn.freshful.ro/assets/product_tags/fara_lactoza.png","backgroundColor":"#E9F7FB","textColor":"#25A6D0"},{"type":"MadeInRomania","text":"Made In Romania","icon":"https://cdn.freshful.ro/assets/product_tags/made_in_romania.svg","iconPng":"https://cdn.freshful.ro/assets/product_tags/made_in_romania.png","backgroundColor":"#EDF2FD","textColor":"#1653CA"}],"isAvailable":true,"maxAvailableQuantity":100,"maxAllowedQuantity":100,"breadcrumbs":[{"code":"4","name":"Lactate & ouă","slug":"4-lactate-branzeturi-si-oua"},{"code":"403","name":"Lactate UHT","slug":"403-lactate-uht"},{"code":"40301","name":"Lapte UHT","slug":"40301-lapte-uht"},{"code":"100038791","name":"Lapte UHT fără lactoză, 3.5% grăsime, „Zile ușoare” 1l","slug":"100038791-ladorna-lapte-uht-fara-lactoza-3-5-grasime-zile-usoare-1l"}],"activePromotion":null,"saveMe":null,"labels":[],"geniusPrice":null,"geniusUnitPricePerLabel":null,"banner":null,"discountLabel":null,"geniusDiscountLabel":null,"badge":null},{"code":"100038786","variantCode":"5941192101838","name":"Lapte UHT 1.5% grăsime 1l","slug":"100038786-ladorna-lapte-uht-1-5-grasime-1l","unitPriceLabel":"7,79 Lei/l","brand":"LaDORNA","brandCode":"594","brandFilterCode":"ladorna-b595","sku":"100038786","price":7.79,"originalPrice":null,"currencyCode":"RON","currency":"Lei","image":{"thumbnail":{"default":"https://cdn.freshful.ro/media/cache/sylius_shop_product_thumbnail/61/fa/362447654a9b3b23b1c80e805181.jpg"},"large":{"default":"https://cdn.freshful.ro/media/cache/freshful_large/61/fa/362447654a9b3b23b1c80e805181.jpg"},"extralarge":{"default":"https://cdn.freshful.ro/media/cache/sylius_shop_product_original/61/fa/362447654a9b3b23b1c80e805181.jpg"}},"label":null,"tags":[{"type":"MadeInRomania","text":"Made In Romania","icon":"https://cdn.freshful.ro/assets/product_tags/made_in_romania.svg","iconPng":"https://cdn.freshful.ro/assets/product_tags/made_in_romania.png","backgroundColor":"#EDF2FD","textColor":"#1653CA"}],"isAvailable":true,"maxAvailableQuantity":100,"maxAllowedQuantity":100,"breadcrumbs":[{"code":"4","name":"Lactate & ouă","slug":"4-lactate-branzeturi-si-oua"},{"code":"403","name":"Lactate UHT","slug":"403-lactate-uht"},{"code":"40301","name":"Lapte UHT","slug":"40301-lapte-uht"},{"code":"100038786","name":"Lapte UHT 1.5% grăsime 1l","slug":"100038786-ladorna-lapte-uht-1-5-grasime-1l"}],"activePromotion":null,"saveMe":null,"labels":[],"geniusPrice":null,"geniusUnitPricePerLabel":null,"banner":null,"discountLabel":null,"geniusDiscountLabel":null,"badge":null},{"code":"100128874","variantCode":"100128874","name":"Lapte Barista UHT 3.5% grăsime 1l","slug":"100128874-meggle-lapte-barista-uht-3-5-grasime-1l","unitPriceLabel":"10,89 Lei/l","brand":"Meggle","brandCode":"497","brandFilterCode":"meggle-b498","sku":"100128874","price":10.89,"originalPrice":null,"currencyCode":"RON","currency":"Lei","image":{"thumbnail":{"default":"https://cdn.freshful.ro/media/cache/sylius_shop_product_thumbnail/71/12/b994bf89bdff835787e35ed196c1.jpg"},"large":{"default":"https://cdn.freshful.ro/media/cache/freshful_large/71/12/b994bf89bdff835787e35ed196c1.jpg"},"extralarge":{"default":"https://cdn.freshful.ro/media/cache/sylius_shop_product_original/71/12/b994bf89bdff835787e35ed196c1.jpg"}},"label":null,"tags":[],"isAvailable":true,"maxAvailableQuantity":100,"maxAllowedQuantity":100,"breadcrumbs":[{"code":"4","name":"Lactate & ouă","slug":"4-lactate-branzeturi-si-oua"},{"code":"403","name":"Lactate UHT","slug":"403-lactate-uht"},{"code":"40301","name":"Lapte UHT","slug":"40301-lapte-uht"},{"code":"100128874","name":"Lapte Barista UHT 3.5% grăsime 1l","slug":"100128874-meggle-lapte-barista-uht-3-5-grasime-1l"}],"activePromotion":null,"saveMe":null,"labels":[],"geniusPrice":null,"geniusUnitPricePerLabel":null,"banner":null,"discountLabel":null,"geniusDiscountLabel":null,"badge":null},{"code":"100140929","variantCode":"100140929","name":"Lapte Barista UHT pentru cafea 3,5% grăsime, 1l","slug":"100140929-zuzu-barista-lapte-barista-uht-pentru-cafea-3-5-grasime-1l","unitPriceLabel":"9,85 Lei/l","brand":"Zuzu Barista","brandCode":"2697","brandFilterCode":"zuzu-barista-b2705","sku":"100140929","price":9.85,"originalPrice":null,"currencyCode":"RON","currency":"Lei","image":{"thumbnail":{"default":"https://cdn.freshful.ro/media/cache/sylius_shop_product_thumbnail/35/bb/7fd6a42145bd4536f280dc6eefce.jpg"},"large":{"default":"https://cdn.freshful.ro/media/cache/freshful_large/35/bb/7fd6a42145bd4536f280dc6eefce.jpg"},"extralarge":{"default":"https://cdn.freshful.ro/media/cache/sylius_shop_product_original/35/bb/7fd6a42145bd4536f280dc6eefce.jpg"}},"label":null,"tags":[],"isAvailable":true,"maxAvailableQuantity":100,"maxAllowedQuantity":100,"breadcrumbs":[{"code":"4","name":"Lactate & ouă","slug":"4-lactate-branzeturi-si-oua"},{"code":"403","name":"Lactate UHT","slug":"403-lactate-uht"},{"code":"40301","name":"Lapte UHT","slug":"40301-lapte-uht"},{"code":"100140929","name":"Lapte Barista UHT pentru cafea 3,5% grăsime, 1l","slug":"100140929-zuzu-barista-lapte-barista-uht-pentru-cafea-3-5-grasime-1l"}],"activePromotion":null,"saveMe":null,"labels":[],"geniusPrice":null,"geniusUnitPricePerLabel":null,"banner":null,"discountLabel":null,"geniusDiscountLabel":null,"badge":null},{"code":"100143781","variantCode":"100143781","name":"Lapte UHT 3.5% grăsime 1l","slug":"100143781-no-brand-lapte-uht-3-5-grasime-1l","unitPriceLabel":"6,59 Lei/l","brand":"Sole","brandCode":"3005","brandFilterCode":"sole-b3099","sku":"100143781","price":6.59,"originalPrice":null,"currencyCode":"RON","currency":"Lei","image":{"thumbnail":{"default":"https://cdn.freshful.ro/media/cache/sylius_shop_product_thumbnail/7e/3d/723ab51040a83119d41a55759d4f.jpg"},"large":{"default":"https://cdn.freshful.ro/media/cache/freshful_large/7e/3d/723ab51040a83119d41a55759d4f.jpg"},"extralarge":{"default":"https://cdn.freshful.ro/media/cache/sylius_shop_product_original/7e/3d/723ab51040a83119d41a55759d4f.jpg"}},"label":{"text":"Primul preț","backgroundColor":"#3A0808","textColor":"#FFFFFF"},"tags":[],"isAvailable":true,"maxAvailableQuantity":100,"maxAllowedQuantity":100,"breadcrumbs":[{"code":"4","name":"Lactate & ouă","slug":"4-lactate-branzeturi-si-oua"},{"code":"403","name":"Lactate UHT","slug":"403-lactate-uht"},{"code":"40301","name":"Lapte UHT","slug":"40301-lapte-uht"},{"code":"100143781","name":"Lapte UHT 3.5% grăsime 1l","slug":"100143781-no-brand-lapte-uht-3-5-grasime-1l"}],"activePromotion":null,"saveMe":null,"labels":[{"type":"v4","items":[{"text":"Primul","backgroundColor":"#3A0808","textColor":"#FFFFFF"},{"text":"preț","backgroundColor":"#BC0606","textColor":"#FFFFFF"}]}],"geniusPrice":null,"geniusUnitPricePerLabel":null,"banner":null,"discountLabel":null,"geniusDiscountLabel":null,"badge":null},{"code":"100038795","variantCode":"100038795","name":"Lapte UHT pentru cafea 10% grăsime 10x9.8ml","slug":"100038795-ladorna-lapte-uht-pentru-cafea-10-grasime-10x9-8ml","unitPriceLabel":"31,5 Lei/kg","brand":"LaDORNA","brandCode":"594","brandFilterCode":"ladorna-b595","sku":"100038795","price":3.15,"originalPrice":null,"currencyCode":"RON","currency":"Lei","image":{"thumbnail":{"default":"https://cdn.freshful.ro/media/cache/sylius_shop_product_thumbnail/f5/5b/2659dc24404a3ddb6e3cbb3e5665.jpg"},"large":{"default":"https://cdn.freshful.ro/media/cache/freshful_large/f5/5b/2659dc24404a3ddb6e3cbb3e5665.jpg"},"extralarge":{"default":"https://cdn.freshful.ro/media/cache/sylius_shop_product_original/f5/5b/2659dc24404a3ddb6e3cbb3e5665.jpg"}},"label":null,"tags":[],"isAvailable":true,"maxAvailableQuantity":100,"maxAllowedQuantity":100,"breadcrumbs":[{"code":"4","name":"Lactate & ouă","slug":"4-lactate-branzeturi-si-oua"},{"code":"403","name":"Lactate UHT","slug":"403-lactate-uht"},{"code":"40301","name":"Lapte UHT","slug":"40301-lapte-uht"},{"code":"100038795","name":"Lapte UHT pentru cafea 10% grăsime 10x9.8ml","slug":"100038795-ladorna-lapte-uht-pentru-cafea-10-grasime-10x9-8ml"}],"activePromotion":null,"saveMe":null,"labels":[],"geniusPrice":null,"geniusUnitPricePerLabel":null,"banner":null,"discountLabel":null,"geniusDiscountLabel":null,"badge":null},{"code":"100038792","variantCode":"5941192110304","name":"Lapte UHT fără lactoză, 1.5% grăsime, „Zile ușoare” 500ml","slug":"100038792-ladorna-lapte-uht-fara-lactoza-1-5-grasime-zile-usoare-500ml","unitPriceLabel":"5,99 Lei/l","brand":"LaDORNA","brandCode":"594","brandFilterCode":"ladorna-b595","sku":"100038792","price":5.99,"originalPrice":null,"currencyCode":"RON","currency":"Lei","image":{"thumbnail":{"default":"https://cdn.freshful.ro/media/cache/sylius_shop_product_thumbnail/b8/b8/33e27a8f9bea3774d65c7bc90907.jpg"},"large":{"default":"https://cdn.freshful.ro/media/cache/freshful_large/b8/b8/33e27a8f9bea3774d65c7bc90907.jpg"},"extralarge":{"default":"https://cdn.freshful.ro/media/cache/sylius_shop_product_original/b8/b8/33e27a8f9bea3774d65c7bc90907.jpg"}},"label":null,"tags":[{"type":"LactoseFree","text":"Fara lactoza","icon":"https://cdn.freshful.ro/assets/product_tags/fara_lactoza.svg","iconPng":"https://cdn.freshful.ro/assets/product_tags/fara_lactoza.png","backgroundColor":"#E9F7FB","textColor":"#25A6D0"}],"isAvailable":true,"maxAvailableQuantity":100,"maxAllowedQuantity":100,"breadcrumbs":[{"code":"4","name":"Lactate & ouă","slug":"4-lactate-branzeturi-si-oua"},{"code":"403","name":"Lactate UHT","slug":"403-lactate-uht"},{"code":"40301","name":"Lapte UHT","slug":"40301-lapte-uht"},{"code":"100038792","name":"Lapte UHT fără lactoză, 1.5% grăsime, „Zile ușoare” 500ml","slug":"100038792-ladorna-lapte-uht-fara-lactoza-1-5-grasime-zile-usoare-500ml"}],"activePromotion":null,"saveMe":null,"labels":[],"geniusPrice":null,"geniusUnitPricePerLabel":null,"banner":null,"discountLabel":null,"geniusDiscountLabel":null,"badge":null},{"code":"100114437","variantCode":"100114437","name":"Lapte UHT fără lactoză 1.5% grăsime 1l","slug":"100114437-mizo-lapte-uht-fara-lactoza-1-5-grasime-1l","unitPriceLabel":"8,99 Lei/l","brand":"Mizo","brandCode":"534","brandFilterCode":"mizo-b535","sku":"100114437","price":8.99,"originalPrice":null,"currencyCode":"RON","currency":"Lei","image":{"thumbnail":{"default":"https://cdn.freshful.ro/media/cache/sylius_shop_product_thumbnail/e0/92/00a25b355fe6b64b6725dc199f48.jpg"},"large":{"default":"https://cdn.freshful.ro/media/cache/freshful_large/e0/92/00a25b355fe6b64b6725dc199f48.jpg"},"extralarge":{"default":"https://cdn.freshful.ro/media/cache/sylius_shop_product_original/e0/92/00a25b355fe6b64b6725dc199f48.jpg"}},"label":null,"tags":[{"type":"LactoseFree","text":"Fara lactoza","icon":"https://cdn.freshful.ro/assets/product_tags/fara_lactoza.svg","iconPng":"https://cdn.freshful.ro/assets/product_tags/fara_lactoza.png","backgroundColor":"#E9F7FB","textColor":"#25A6D0"}],"isAvailable":true,"maxAvailableQuantity":100,"maxAllowedQuantity":100,"breadcrumbs":[{"code":"4","name":"Lactate & ouă","slug":"4-lactate-branzeturi-si-oua"},{"code":"403","name":"Lactate UHT","slug":"403-lactate-uht"},{"code":"40301","name":"Lapte UHT","slug":"40301-lapte-uht"},{"code":"100114437","name":"Lapte UHT fără lactoză 1.5% grăsime 1l","slug":"100114437-mizo-lapte-uht-fara-lactoza-1-5-grasime-1l"}],"activePromotion":null,"saveMe":null,"labels":[],"geniusPrice":null,"geniusUnitPricePerLabel":null,"banner":null,"discountLabel":null,"geniusDiscountLabel":null,"badge":null}],"filters":{"countSelected":0,"items":[{"code":"brand","name":"Brand","countSelected":0,"values":[{"code":"5-to-go-b2826","name":"5 To Go","isSelected":false,"count":1},{"code":"fulga-b23","name":"Fulga","isSelected":false,"count":2},{"code":"hochwald-b1672","name":"Hochwald","isSelected":false,"count":1},{"code":"ladorna-b595","name":"LaDORNA","isSelected":false,"count":5},{"code":"meggle-b498","name":"Meggle","isSelected":false,"count":5},{"code":"mizo-b535","name":"Mizo","isSelected":false,"count":3},{"code":"muller-b259","name":"Müller","isSelected":false,"count":2},{"code":"oatnestly-b2953","name":"Oatnestly","isSelected":false,"count":1},{"code":"olympus-b40","name":"Olympus","isSelected":false,"count":2},{"code":"sole-b3099","name":"Sole","isSelected":false,"count":2},{"code":"starbucks-b227","name":"Starbucks","isSelected":false,"count":2},{"code":"sterilgarda-b411","name":"Sterilgarda","isSelected":false,"count":1},{"code":"yopro-b31","name":"Yopro","isSelected":false,"count":2},{"code":"zuzu-barista-b2705","name":"Zuzu Barista","isSelected":false,"count":1},{"code":"zuzu-fit-b34","name":"Zuzu Fit","isSelected":false,"count":2}]},{"code":"diet_lifestyle","name":"Dietă și lifestyle","countSelected":0,"values":[{"code":"fara-gluten-a16","name":"Fara gluten","isSelected":false,"count":2},{"code":"fara-lactoza-a38","name":"Fara lactoza","isSelected":false,"count":7},{"code":"fara-zahar-adaugat-a29","name":"Fara zahar adaugat","isSelected":false,"count":3},{"code":"made-in-romania-a85","name":"Made In Romania","isSelected":false,"count":5},{"code":"vegan-a24","name":"Vegan","isSelected":false,"count":1}]}]},"orderBy":[{"field":"price","direction":"asc","name":"Preț crescător","isSelected":false},{"field":"price","direction":"desc","name":"Preț descrescător","isSelected":false},{"field":"popularity","direction":"desc","name":"Cele mai populare","isSelected":true},{"field":"category","direction":"asc","name":"Categorie","isSelected":false}],"metaTitle":"Lapte UHT - Gamă variată","metaDescription":"Vrei Lapte UHT? Alege dintr-o gamă variată. Comanzi simplu și ai livrare rapidă, calitate și prospețime. Hai pe Freshful.ro","metaKeywords":null,"banners":[]}}