{"type":"subcategory","payload":{"analyticsListId":"category_40303-smantana-sosuri-si-creme-uht","analyticsListName":"Category - Smântână, sosuri și creme UHT","name":"Smântână, sosuri și creme UHT","slug":"40303-smantana-sosuri-si-creme-uht","image":null,"breadcrumbs":[{"code":"4","name":"Lactate & ouă","slug":"4-lactate-branzeturi-si-oua"},{"code":"403","name":"Lactate UHT","slug":"403-lactate-uht"},{"code":"40303","name":"Smântână, sosuri și creme UHT","slug":"40303-smantana-sosuri-si-creme-uht"}],"slots":[],"page":1,"limit":10,"pages":2,"count":12,"siblings":[{"name":"Lapte, smântână și brânză proaspătă","slug":"401-lapte-smantana-si-branza-proaspata","selected":false},{"name":"Unt","slug":"402-unt-si-margarina","selected":false},{"name":"Lactate UHT","slug":"403-lactate-uht","selected":true},{"name":"Iaurt, desert și sana","slug":"404-iaurt-desert-si-sana","selected":false},{"name":"Ouă","slug":"405-oua","selected":false},{"name":"Brânzeturi","slug":"406-branzeturi","selected":false},{"name":"Lapte și lactate ECO","slug":"lapte-si-lactate-eco","selected":false},{"name":"Amestecuri lactate și grasimi vegetale","slug":"amestecuri-lactate-si-grasimi-vegetale","selected":false}],"children":[{"name":"Toate produsele","slug":"403-lactate-uht","selected":false},{"name":"Lapte UHT","slug":"40301-lapte-uht","selected":false},{"name":"Smântână, sosuri și creme UHT","slug":"40303-smantana-sosuri-si-creme-uht","selected":true},{"name":"Frișcă","slug":"40304-frisca","selected":false}],"products":[{"code":"100032072","variantCode":"5941875904138","name":"Smântână lichidă 35% grăsime 1l","slug":"100032072-olympus-smantana-lichida-35-grasime-1l","unitPriceLabel":"23,99 Lei/l","brand":"Olympus","brandCode":"45","brandFilterCode":"olympus-b40","sku":"100032072","price":23.99,"originalPrice":31.99,"currencyCode":"RON","currency":"Lei","image":{"thumbnail":{"default":"https://cdn.freshful.ro/media/cache/sylius_shop_product_thumbnail/9c/cb/645792492ba8f7e9849e149b5f40.jpg"},"large":{"default":"https://cdn.freshful.ro/media/cache/freshful_large/9c/cb/645792492ba8f7e9849e149b5f40.jpg"},"extralarge":{"default":"https://cdn.freshful.ro/media/cache/sylius_shop_product_original/9c/cb/645792492ba8f7e9849e149b5f40.jpg"}},"label":{"text":"-25%","backgroundColor":"#FF9903","textColor":"#FFFFFF"},"tags":[],"isAvailable":true,"maxAvailableQuantity":100,"maxAllowedQuantity":100,"breadcrumbs":[{"code":"4","name":"Lactate & ouă","slug":"4-lactate-branzeturi-si-oua"},{"code":"403","name":"Lactate UHT","slug":"403-lactate-uht"},{"code":"40303","name":"Smântână, sosuri și creme UHT","slug":"40303-smantana-sosuri-si-creme-uht"},{"code":"100032072","name":"Smântână lichidă 35% grăsime 1l","slug":"100032072-olympus-smantana-lichida-35-grasime-1l"}],"activePromotion":{"code":"bunatatile-saptamanii-cw0923","name":"Preț redus","targetQuantity":null},"saveMe":null,"labels":[{"type":"v1","items":[{"text":"-25%","backgroundColor":"#FF9903","textColor":"#FFFFFF"}]}],"geniusPrice":null,"geniusUnitPricePerLabel":null,"banner":{"text":"Super preț","textColor":"#FF0000","bgColor":"#FFF2EC","icon":null,"link":"https://www.freshful.ro/oferte/bunatatile-saptamanii-cw0923","type":"promo","analyticsEventType":"select_promotion","analyticsEventPayload":{"promotion_id":"bunatatile-saptamanii-cw0923","promotion_name":"Oferta proaspătă a săptămânii"}},"discountLabel":"Economisești 25%","geniusDiscountLabel":null,"badge":null},{"code":"100032073","variantCode":"5203149006215","name":"Smântână lichidă, 20% grăsime 200ml","slug":"100032073-olympus-smantana-lichida-20-grasime-200ml","unitPriceLabel":"29,95 Lei/l","brand":"Olympus","brandCode":"45","brandFilterCode":"olympus-b40","sku":"100032073","price":5.99,"originalPrice":null,"currencyCode":"RON","currency":"Lei","image":{"thumbnail":{"default":"https://cdn.freshful.ro/media/cache/sylius_shop_product_thumbnail/04/5b/47cfb56cfb72a94ddaf31a1d2412.jpg"},"large":{"default":"https://cdn.freshful.ro/media/cache/freshful_large/04/5b/47cfb56cfb72a94ddaf31a1d2412.jpg"},"extralarge":{"default":"https://cdn.freshful.ro/media/cache/sylius_shop_product_original/04/5b/47cfb56cfb72a94ddaf31a1d2412.jpg"}},"label":null,"tags":[],"isAvailable":true,"maxAvailableQuantity":100,"maxAllowedQuantity":100,"breadcrumbs":[{"code":"4","name":"Lactate & ouă","slug":"4-lactate-branzeturi-si-oua"},{"code":"403","name":"Lactate UHT","slug":"403-lactate-uht"},{"code":"40303","name":"Smântână, sosuri și creme UHT","slug":"40303-smantana-sosuri-si-creme-uht"},{"code":"100032073","name":"Smântână lichidă, 20% grăsime 200ml","slug":"100032073-olympus-smantana-lichida-20-grasime-200ml"}],"activePromotion":null,"saveMe":null,"labels":[],"geniusPrice":null,"geniusUnitPricePerLabel":null,"banner":null,"discountLabel":null,"geniusDiscountLabel":null,"badge":null},{"code":"100032077","variantCode":"5203149006208","name":"Smântână lichidă UHT 35% grăsime 200ml","slug":"100032077-olympus-smantana-lichida-uht-35-grasime-200ml","unitPriceLabel":"36,95 Lei/kg","brand":"Olympus","brandCode":"45","brandFilterCode":"olympus-b40","sku":"100032077","price":7.39,"originalPrice":null,"currencyCode":"RON","currency":"Lei","image":{"thumbnail":{"default":"https://cdn.freshful.ro/media/cache/sylius_shop_product_thumbnail/ab/59/a8ae09a9175923c5c6ed716cdac5.jpg"},"large":{"default":"https://cdn.freshful.ro/media/cache/freshful_large/ab/59/a8ae09a9175923c5c6ed716cdac5.jpg"},"extralarge":{"default":"https://cdn.freshful.ro/media/cache/sylius_shop_product_original/ab/59/a8ae09a9175923c5c6ed716cdac5.jpg"}},"label":null,"tags":[],"isAvailable":true,"maxAvailableQuantity":100,"maxAllowedQuantity":100,"breadcrumbs":[{"code":"4","name":"Lactate & ouă","slug":"4-lactate-branzeturi-si-oua"},{"code":"403","name":"Lactate UHT","slug":"403-lactate-uht"},{"code":"40303","name":"Smântână, sosuri și creme UHT","slug":"40303-smantana-sosuri-si-creme-uht"},{"code":"100032077","name":"Smântână lichidă UHT 35% grăsime 200ml","slug":"100032077-olympus-smantana-lichida-uht-35-grasime-200ml"}],"activePromotion":null,"saveMe":null,"labels":[],"geniusPrice":null,"geniusUnitPricePerLabel":null,"banner":null,"discountLabel":null,"geniusDiscountLabel":null,"badge":null},{"code":"100038796","variantCode":"5941192110519","name":"Smântână UHT pentru gătit 20% grăsime 200ml","slug":"100038796-ladorna-smantana-uht-pentru-gatit-20-grasime-200ml","unitPriceLabel":"33,45 Lei/l","brand":"LaDORNA","brandCode":"594","brandFilterCode":"ladorna-b595","sku":"100038796","price":6.69,"originalPrice":null,"currencyCode":"RON","currency":"Lei","image":{"thumbnail":{"default":"https://cdn.freshful.ro/media/cache/sylius_shop_product_thumbnail/73/07/c533fb8f6cb25236a6a393c2c5dc.jpg"},"large":{"default":"https://cdn.freshful.ro/media/cache/freshful_large/73/07/c533fb8f6cb25236a6a393c2c5dc.jpg"},"extralarge":{"default":"https://cdn.freshful.ro/media/cache/sylius_shop_product_original/73/07/c533fb8f6cb25236a6a393c2c5dc.jpg"}},"label":null,"tags":[{"type":"MadeInRomania","text":"Made In Romania","icon":"https://cdn.freshful.ro/assets/product_tags/made_in_romania.svg","iconPng":"https://cdn.freshful.ro/assets/product_tags/made_in_romania.png","backgroundColor":"#EDF2FD","textColor":"#1653CA"}],"isAvailable":true,"maxAvailableQuantity":100,"maxAllowedQuantity":100,"breadcrumbs":[{"code":"4","name":"Lactate & ouă","slug":"4-lactate-branzeturi-si-oua"},{"code":"403","name":"Lactate UHT","slug":"403-lactate-uht"},{"code":"40303","name":"Smântână, sosuri și creme UHT","slug":"40303-smantana-sosuri-si-creme-uht"},{"code":"100038796","name":"Smântână UHT pentru gătit 20% grăsime 200ml","slug":"100038796-ladorna-smantana-uht-pentru-gatit-20-grasime-200ml"}],"activePromotion":null,"saveMe":null,"labels":[],"geniusPrice":null,"geniusUnitPricePerLabel":null,"banner":null,"discountLabel":null,"geniusDiscountLabel":null,"badge":null},{"code":"100038797","variantCode":"5941192108226","name":"Smântână UHT pentru gătit 32% grăsime 200ml","slug":"100038797-ladorna-smantana-uht-pentru-gatit-32-grasime-200ml","unitPriceLabel":"37,95 Lei/l","brand":"LaDORNA","brandCode":"594","brandFilterCode":"ladorna-b595","sku":"100038797","price":7.59,"originalPrice":null,"currencyCode":"RON","currency":"Lei","image":{"thumbnail":{"default":"https://cdn.freshful.ro/media/cache/sylius_shop_product_thumbnail/1e/ac/0304e3cf35ea99a9de1fe33c75c8.jpg"},"large":{"default":"https://cdn.freshful.ro/media/cache/freshful_large/1e/ac/0304e3cf35ea99a9de1fe33c75c8.jpg"},"extralarge":{"default":"https://cdn.freshful.ro/media/cache/sylius_shop_product_original/1e/ac/0304e3cf35ea99a9de1fe33c75c8.jpg"}},"label":null,"tags":[{"type":"MadeInRomania","text":"Made In Romania","icon":"https://cdn.freshful.ro/assets/product_tags/made_in_romania.svg","iconPng":"https://cdn.freshful.ro/assets/product_tags/made_in_romania.png","backgroundColor":"#EDF2FD","textColor":"#1653CA"}],"isAvailable":true,"maxAvailableQuantity":100,"maxAllowedQuantity":100,"breadcrumbs":[{"code":"4","name":"Lactate & ouă","slug":"4-lactate-branzeturi-si-oua"},{"code":"403","name":"Lactate UHT","slug":"403-lactate-uht"},{"code":"40303","name":"Smântână, sosuri și creme UHT","slug":"40303-smantana-sosuri-si-creme-uht"},{"code":"100038797","name":"Smântână UHT pentru gătit 32% grăsime 200ml","slug":"100038797-ladorna-smantana-uht-pentru-gatit-32-grasime-200ml"}],"activePromotion":null,"saveMe":null,"labels":[],"geniusPrice":null,"geniusUnitPricePerLabel":null,"banner":null,"discountLabel":null,"geniusDiscountLabel":null,"badge":null},{"code":"100129032","variantCode":"100129032","name":"Smântână UHT pentru gătit 20% grăsime 500ml","slug":"100129032-meggle-smantana-uht-pentru-gatit-20-grasime-500ml","unitPriceLabel":"30,98 Lei/l","brand":"Meggle","brandCode":"497","brandFilterCode":"meggle-b498","sku":"100129032","price":15.49,"originalPrice":null,"currencyCode":"RON","currency":"Lei","image":{"thumbnail":{"default":"https://cdn.freshful.ro/media/cache/sylius_shop_product_thumbnail/9b/fa/444c873959a874debd004eceb072.jpg"},"large":{"default":"https://cdn.freshful.ro/media/cache/freshful_large/9b/fa/444c873959a874debd004eceb072.jpg"},"extralarge":{"default":"https://cdn.freshful.ro/media/cache/sylius_shop_product_original/9b/fa/444c873959a874debd004eceb072.jpg"}},"label":null,"tags":[],"isAvailable":true,"maxAvailableQuantity":80,"maxAllowedQuantity":100,"breadcrumbs":[{"code":"4","name":"Lactate & ouă","slug":"4-lactate-branzeturi-si-oua"},{"code":"403","name":"Lactate UHT","slug":"403-lactate-uht"},{"code":"40303","name":"Smântână, sosuri și creme UHT","slug":"40303-smantana-sosuri-si-creme-uht"},{"code":"100129032","name":"Smântână UHT pentru gătit 20% grăsime 500ml","slug":"100129032-meggle-smantana-uht-pentru-gatit-20-grasime-500ml"}],"activePromotion":null,"saveMe":null,"labels":[],"geniusPrice":null,"geniusUnitPricePerLabel":null,"banner":null,"discountLabel":null,"geniusDiscountLabel":null,"badge":null},{"code":"100133208","variantCode":"100133208","name":"Smântână pentru gătit 30% grăsime 200ml","slug":"100133208-voila-smantana-pentru-gatit-30-grasime-200ml","unitPriceLabel":"37,45 Lei/l","brand":"Voilà","brandCode":"1664","brandFilterCode":"voila-b1668","sku":"100133208","price":7.49,"originalPrice":null,"currencyCode":"RON","currency":"Lei","image":{"thumbnail":{"default":"https://cdn.freshful.ro/media/cache/sylius_shop_product_thumbnail/95/da/f44f1d5cac5667cd1b40ae8385bf.jpg"},"large":{"default":"https://cdn.freshful.ro/media/cache/freshful_large/95/da/f44f1d5cac5667cd1b40ae8385bf.jpg"},"extralarge":{"default":"https://cdn.freshful.ro/media/cache/sylius_shop_product_original/95/da/f44f1d5cac5667cd1b40ae8385bf.jpg"}},"label":null,"tags":[],"isAvailable":true,"maxAvailableQuantity":50,"maxAllowedQuantity":100,"breadcrumbs":[{"code":"4","name":"Lactate & ouă","slug":"4-lactate-branzeturi-si-oua"},{"code":"403","name":"Lactate UHT","slug":"403-lactate-uht"},{"code":"40303","name":"Smântână, sosuri și creme UHT","slug":"40303-smantana-sosuri-si-creme-uht"},{"code":"100133208","name":"Smântână pentru gătit 30% grăsime 200ml","slug":"100133208-voila-smantana-pentru-gatit-30-grasime-200ml"}],"activePromotion":null,"saveMe":null,"labels":[],"geniusPrice":null,"geniusUnitPricePerLabel":null,"banner":null,"discountLabel":null,"geniusDiscountLabel":null,"badge":null},{"code":"100038793","variantCode":"5941192108219","name":"Smântână UHT pentru gătit 32% grăsime 1l","slug":"100038793-ladorna-smantana-uht-pentru-gatit-32-grasime-1l","unitPriceLabel":"28,49 Lei/l","brand":"LaDORNA","brandCode":"594","brandFilterCode":"ladorna-b595","sku":"100038793","price":28.49,"originalPrice":null,"currencyCode":"RON","currency":"Lei","image":{"thumbnail":{"default":"https://cdn.freshful.ro/media/cache/sylius_shop_product_thumbnail/4f/2f/df9cc940b42083f8cf5efb68ea3d.jpg"},"large":{"default":"https://cdn.freshful.ro/media/cache/freshful_large/4f/2f/df9cc940b42083f8cf5efb68ea3d.jpg"},"extralarge":{"default":"https://cdn.freshful.ro/media/cache/sylius_shop_product_original/4f/2f/df9cc940b42083f8cf5efb68ea3d.jpg"}},"label":null,"tags":[{"type":"MadeInRomania","text":"Made In Romania","icon":"https://cdn.freshful.ro/assets/product_tags/made_in_romania.svg","iconPng":"https://cdn.freshful.ro/assets/product_tags/made_in_romania.png","backgroundColor":"#EDF2FD","textColor":"#1653CA"}],"isAvailable":true,"maxAvailableQuantity":26,"maxAllowedQuantity":100,"breadcrumbs":[{"code":"4","name":"Lactate & ouă","slug":"4-lactate-branzeturi-si-oua"},{"code":"403","name":"Lactate UHT","slug":"403-lactate-uht"},{"code":"40303","name":"Smântână, sosuri și creme UHT","slug":"40303-smantana-sosuri-si-creme-uht"},{"code":"100038793","name":"Smântână UHT pentru gătit 32% grăsime 1l","slug":"100038793-ladorna-smantana-uht-pentru-gatit-32-grasime-1l"}],"activePromotion":null,"saveMe":null,"labels":[],"geniusPrice":null,"geniusUnitPricePerLabel":null,"banner":null,"discountLabel":null,"geniusDiscountLabel":null,"badge":null},{"code":"100030285","variantCode":"100030285","name":"Smântână lichidă UHT pentru gătit 20% grăsime 1l","slug":"100030285-campina-smantana-lichida-uht-pentru-gatit-20-grasime-1l","unitPriceLabel":"25,99 Lei/l","brand":"Campina","brandCode":"81","brandFilterCode":"campina-b80","sku":"100030285","price":25.99,"originalPrice":null,"currencyCode":"RON","currency":"Lei","image":{"thumbnail":{"default":"https://cdn.freshful.ro/media/cache/sylius_shop_product_thumbnail/f5/ea/8f8f7a6391dfe3d776ce2d4492df.jpg"},"large":{"default":"https://cdn.freshful.ro/media/cache/freshful_large/f5/ea/8f8f7a6391dfe3d776ce2d4492df.jpg"},"extralarge":{"default":"https://cdn.freshful.ro/media/cache/sylius_shop_product_original/f5/ea/8f8f7a6391dfe3d776ce2d4492df.jpg"}},"label":null,"tags":[],"isAvailable":true,"maxAvailableQuantity":25,"maxAllowedQuantity":100,"breadcrumbs":[{"code":"4","name":"Lactate & ouă","slug":"4-lactate-branzeturi-si-oua"},{"code":"403","name":"Lactate UHT","slug":"403-lactate-uht"},{"code":"40303","name":"Smântână, sosuri și creme UHT","slug":"40303-smantana-sosuri-si-creme-uht"},{"code":"100030285","name":"Smântână lichidă UHT pentru gătit 20% grăsime 1l","slug":"100030285-campina-smantana-lichida-uht-pentru-gatit-20-grasime-1l"}],"activePromotion":null,"saveMe":null,"labels":[],"geniusPrice":null,"geniusUnitPricePerLabel":null,"banner":null,"discountLabel":null,"geniusDiscountLabel":null,"badge":null},{"code":"100133210","variantCode":"100133210","name":"Smântână pentru gătit 35% grăsime 1l","slug":"100133210-voila-smantana-pentru-gatit-35-grasime-1l","unitPriceLabel":"29,99 Lei/lt","brand":"Voilà","brandCode":"1664","brandFilterCode":"voila-b1668","sku":"100133210","price":29.99,"originalPrice":null,"currencyCode":"RON","currency":"Lei","image":{"thumbnail":{"default":"https://cdn.freshful.ro/media/cache/sylius_shop_product_thumbnail/f2/d9/56c385232eccf1ded8086e40c755.jpg"},"large":{"default":"https://cdn.freshful.ro/media/cache/freshful_large/f2/d9/56c385232eccf1ded8086e40c755.jpg"},"extralarge":{"default":"https://cdn.freshful.ro/media/cache/sylius_shop_product_original/f2/d9/56c385232eccf1ded8086e40c755.jpg"}},"label":null,"tags":[],"isAvailable":true,"maxAvailableQuantity":10,"maxAllowedQuantity":100,"breadcrumbs":[{"code":"4","name":"Lactate & ouă","slug":"4-lactate-branzeturi-si-oua"},{"code":"403","name":"Lactate UHT","slug":"403-lactate-uht"},{"code":"40303","name":"Smântână, sosuri și creme UHT","slug":"40303-smantana-sosuri-si-creme-uht"},{"code":"100133210","name":"Smântână pentru gătit 35% grăsime 1l","slug":"100133210-voila-smantana-pentru-gatit-35-grasime-1l"}],"activePromotion":null,"saveMe":null,"labels":[],"geniusPrice":null,"geniusUnitPricePerLabel":null,"banner":null,"discountLabel":null,"geniusDiscountLabel":null,"badge":null}],"filters":{"countSelected":0,"items":[{"code":"promotion","name":"Promoții","countSelected":0,"values":[{"code":"bunatatile-saptamanii-cw0923","name":"Oferta proaspătă a săptămânii","isSelected":false,"count":1}]},{"code":"brand","name":"Brand","countSelected":0,"values":[{"code":"campina-b80","name":"Campina","isSelected":false,"count":1},{"code":"ladorna-b595","name":"LaDORNA","isSelected":false,"count":3},{"code":"meggle-b498","name":"Meggle","isSelected":false,"count":3},{"code":"olympus-b40","name":"Olympus","isSelected":false,"count":3},{"code":"voila-b1668","name":"Voilà","isSelected":false,"count":2}]},{"code":"diet_lifestyle","name":"Dietă și lifestyle","countSelected":0,"values":[{"code":"made-in-romania-a85","name":"Made In Romania","isSelected":false,"count":3}]}]},"orderBy":[{"field":"price","direction":"asc","name":"Preț crescător","isSelected":false},{"field":"price","direction":"desc","name":"Preț descrescător","isSelected":false},{"field":"popularity","direction":"desc","name":"Cele mai populare","isSelected":true},{"field":"category","direction":"asc","name":"Categorie","isSelected":false}],"metaTitle":"Smântână, sosuri și creme UHT - Gamă variată","metaDescription":"Vrei Smântână, sosuri și creme UHT? Alege dintr-o gamă variată. Comanzi simplu și ai livrare rapidă, calitate și prospețime. Hai pe Freshful.ro","metaKeywords":null,"banners":[]}}