{"type":"subcategory","payload":{"analyticsListId":"category_404-iaurt-desert-si-sana","analyticsListName":"Category - Iaurt, desert și sana","name":"Iaurt, desert și sana","slug":"404-iaurt-desert-si-sana","image":null,"breadcrumbs":[{"code":"4","name":"Lactate & ouă","slug":"4-lactate-branzeturi-si-oua"},{"code":"404","name":"Iaurt, desert și sana","slug":"404-iaurt-desert-si-sana"}],"slots":[],"page":1,"limit":10,"pages":26,"count":260,"siblings":[{"name":"Lapte, smântână și brânză proaspătă","slug":"401-lapte-smantana-si-branza-proaspata","selected":false},{"name":"Unt","slug":"402-unt-si-margarina","selected":false},{"name":"Lactate UHT","slug":"403-lactate-uht","selected":false},{"name":"Iaurt, desert și sana","slug":"404-iaurt-desert-si-sana","selected":true},{"name":"Ouă","slug":"405-oua","selected":false},{"name":"Brânzeturi","slug":"406-branzeturi","selected":false},{"name":"Lapte și lactate ECO","slug":"lapte-si-lactate-eco","selected":false},{"name":"Amestecuri lactate și grasimi vegetale","slug":"amestecuri-lactate-si-grasimi-vegetale","selected":false}],"children":[{"name":"Toate produsele","slug":"404-iaurt-desert-si-sana","selected":true},{"name":"Probiotice și bifidus","slug":"40401-probiotice-si-bifidus","selected":false},{"name":"Iaurturi și deserturi fără lactoză","slug":"40402-iaurturi-si-deserturi-fara-lactoza","selected":false},{"name":"Iaurt simplu","slug":"40403-iaurt-simplu","selected":false},{"name":"Iaurt cu fructe și arome","slug":"40404-iaurt-fructe-si-cu-arome","selected":false},{"name":"Iaurt de băut","slug":"40405-iaurt-de-baut","selected":false},{"name":"Lactate dietetice","slug":"40407-lactate-dietetice","selected":false},{"name":"Deserturi","slug":"40409-deserturi","selected":false},{"name":"Lapte bătut, chefir și sana","slug":"40410-lapte-batut-chefir-si-sana","selected":false},{"name":"Produse lactate pentru copii","slug":"40411-produse-lactate-pentru-copii","selected":false}],"products":[{"code":"100143880","variantCode":"100143880","name":"Iaurt grecesc 10% grăsime, 500g","slug":"100143880-kolios-iaurt-grecesc-10-grasime-500g","unitPriceLabel":"25,98 Lei/kg","brand":"Kolios","brandCode":"2781","brandFilterCode":"kolios-b2855","sku":"100143880","price":12.99,"originalPrice":null,"currencyCode":"RON","currency":"Lei","image":{"thumbnail":{"default":"https://cdn.freshful.ro/media/cache/sylius_shop_product_thumbnail/2b/51/7076ecb270baf7e50099506a2ed3.jpg"},"large":{"default":"https://cdn.freshful.ro/media/cache/freshful_large/2b/51/7076ecb270baf7e50099506a2ed3.jpg"},"extralarge":{"default":"https://cdn.freshful.ro/media/cache/sylius_shop_product_original/2b/51/7076ecb270baf7e50099506a2ed3.jpg"}},"label":{"text":"-20% cu Genius","backgroundColor":"#FEF3FA","textColor":"#CD015F"},"tags":[{"type":"Natural","text":"Natural","icon":"https://cdn.freshful.ro/assets/product_tags/natural.svg","iconPng":"https://cdn.freshful.ro/assets/product_tags/natural.png","backgroundColor":"#E9FCF2","textColor":"#18AF62"}],"isAvailable":true,"maxAvailableQuantity":100,"maxAllowedQuantity":100,"breadcrumbs":[{"code":"4","name":"Lactate & ouă","slug":"4-lactate-branzeturi-si-oua"},{"code":"404","name":"Iaurt, desert și sana","slug":"404-iaurt-desert-si-sana"},{"code":"40403","name":"Iaurt simplu","slug":"40403-iaurt-simplu"},{"code":"100143880","name":"Iaurt grecesc 10% grăsime, 500g","slug":"100143880-kolios-iaurt-grecesc-10-grasime-500g"}],"activePromotion":null,"saveMe":null,"labels":[{"type":"gdeals","items":[{"text":"","backgroundColor":"","textColor":""}]},{"type":"v3","items":[{"text":"-20% cu Genius","backgroundColor":"#FEF3FA","textColor":"#CD015F"}]}],"geniusPrice":10.39,"geniusUnitPricePerLabel":"20,78 Lei/kg","banner":null,"discountLabel":null,"geniusDiscountLabel":"Economisești 20%","badge":null},{"code":"100035556","variantCode":"5941850960616","name":"Kefir din lapte de capră 300g","slug":"100035556-gustolact-kefir-din-lapte-de-capra-300g","unitPriceLabel":"18,3 Lei/kg","brand":"Gustolact","brandCode":"501","brandFilterCode":"gustolact-b502","sku":"100035556","price":5.49,"originalPrice":6.49,"currencyCode":"RON","currency":"Lei","image":{"thumbnail":{"default":"https://cdn.freshful.ro/media/cache/sylius_shop_product_thumbnail/c9/05/bb60e749a4ac7952f7bed9a42b9c.jpg"},"large":{"default":"https://cdn.freshful.ro/media/cache/freshful_large/c9/05/bb60e749a4ac7952f7bed9a42b9c.jpg"},"extralarge":{"default":"https://cdn.freshful.ro/media/cache/sylius_shop_product_original/c9/05/bb60e749a4ac7952f7bed9a42b9c.jpg"}},"label":{"text":"-15%","backgroundColor":"#FF9903","textColor":"#FFFFFF"},"tags":[{"type":"MadeInRomania","text":"Made In Romania","icon":"https://cdn.freshful.ro/assets/product_tags/made_in_romania.svg","iconPng":"https://cdn.freshful.ro/assets/product_tags/made_in_romania.png","backgroundColor":"#EDF2FD","textColor":"#1653CA"}],"isAvailable":true,"maxAvailableQuantity":58,"maxAllowedQuantity":100,"breadcrumbs":[{"code":"4","name":"Lactate & ouă","slug":"4-lactate-branzeturi-si-oua"},{"code":"404","name":"Iaurt, desert și sana","slug":"404-iaurt-desert-si-sana"},{"code":"40410","name":"Lapte bătut, chefir și sana","slug":"40410-lapte-batut-chefir-si-sana"},{"code":"100035556","name":"Kefir din lapte de capră 300g","slug":"100035556-gustolact-kefir-din-lapte-de-capra-300g"}],"activePromotion":{"code":"bunatatile-saptamanii-cw0923","name":"Preț redus","targetQuantity":null},"saveMe":null,"labels":[{"type":"v1","items":[{"text":"-15%","backgroundColor":"#FF9903","textColor":"#FFFFFF"}]}],"geniusPrice":null,"geniusUnitPricePerLabel":null,"banner":{"text":"Super preț","textColor":"#FF0000","bgColor":"#FFF2EC","icon":null,"link":"https://www.freshful.ro/oferte/bunatatile-saptamanii-cw0923","type":"promo","analyticsEventType":"select_promotion","analyticsEventPayload":{"promotion_id":"bunatatile-saptamanii-cw0923","promotion_name":"Oferta proaspătă a săptămânii"}},"discountLabel":"Economisești 15%","geniusDiscountLabel":null,"badge":null},{"code":"100145104","variantCode":"100145104","name":"Profiterol 450g","slug":"100145104-dolce-italia-profiterol-450g","unitPriceLabel":"46,64 Lei/kg","brand":"Dolce Italia","brandCode":"2802","brandFilterCode":"dolce-italia-b2889","sku":"100145104","price":20.99,"originalPrice":23.49,"currencyCode":"RON","currency":"Lei","image":{"thumbnail":{"default":"https://cdn.freshful.ro/media/cache/sylius_shop_product_thumbnail/72/8e/0ebac27bb0639003c956c07a02c3.jpg"},"large":{"default":"https://cdn.freshful.ro/media/cache/freshful_large/72/8e/0ebac27bb0639003c956c07a02c3.jpg"},"extralarge":{"default":"https://cdn.freshful.ro/media/cache/sylius_shop_product_original/72/8e/0ebac27bb0639003c956c07a02c3.jpg"}},"label":{"text":"-10%","backgroundColor":"#FF9903","textColor":"#FFFFFF"},"tags":[],"isAvailable":true,"maxAvailableQuantity":83,"maxAllowedQuantity":100,"breadcrumbs":[{"code":"4","name":"Lactate & ouă","slug":"4-lactate-branzeturi-si-oua"},{"code":"404","name":"Iaurt, desert și sana","slug":"404-iaurt-desert-si-sana"},{"code":"40409","name":"Deserturi","slug":"40409-deserturi"},{"code":"100145104","name":"Profiterol 450g","slug":"100145104-dolce-italia-profiterol-450g"}],"activePromotion":{"code":"bunatatile-saptamanii-cw0923","name":"Preț redus","targetQuantity":null},"saveMe":null,"labels":[{"type":"v1","items":[{"text":"-10%","backgroundColor":"#FF9903","textColor":"#FFFFFF"}]}],"geniusPrice":null,"geniusUnitPricePerLabel":null,"banner":{"text":"Super preț","textColor":"#FF0000","bgColor":"#FFF2EC","icon":null,"link":"https://www.freshful.ro/oferte/bunatatile-saptamanii-cw0923","type":"promo","analyticsEventType":"select_promotion","analyticsEventPayload":{"promotion_id":"bunatatile-saptamanii-cw0923","promotion_name":"Oferta proaspătă a săptămânii"}},"discountLabel":"Economisești 10%","geniusDiscountLabel":null,"badge":null},{"code":"100145105","variantCode":"100145105","name":"Tiramisu 500g","slug":"100145105-dolce-italia-tiramisu-500g","unitPriceLabel":"41,98 Lei/kg","brand":"Dolce Italia","brandCode":"2802","brandFilterCode":"dolce-italia-b2889","sku":"100145105","price":20.99,"originalPrice":23.49,"currencyCode":"RON","currency":"Lei","image":{"thumbnail":{"default":"https://cdn.freshful.ro/media/cache/sylius_shop_product_thumbnail/9f/dd/d79c09bd79eb7a8980e534f6f9d8.jpg"},"large":{"default":"https://cdn.freshful.ro/media/cache/freshful_large/9f/dd/d79c09bd79eb7a8980e534f6f9d8.jpg"},"extralarge":{"default":"https://cdn.freshful.ro/media/cache/sylius_shop_product_original/9f/dd/d79c09bd79eb7a8980e534f6f9d8.jpg"}},"label":{"text":"-10%","backgroundColor":"#FF9903","textColor":"#FFFFFF"},"tags":[{"type":"NoPreservatives","text":"Fara conservanti","icon":"https://cdn.freshful.ro/assets/product_tags/fara_conservanti.svg","iconPng":"https://cdn.freshful.ro/assets/product_tags/fara_conservanti.png","backgroundColor":"#F0F2FF","textColor":"#7889DD"}],"isAvailable":true,"maxAvailableQuantity":56,"maxAllowedQuantity":100,"breadcrumbs":[{"code":"4","name":"Lactate & ouă","slug":"4-lactate-branzeturi-si-oua"},{"code":"404","name":"Iaurt, desert și sana","slug":"404-iaurt-desert-si-sana"},{"code":"40409","name":"Deserturi","slug":"40409-deserturi"},{"code":"100145105","name":"Tiramisu 500g","slug":"100145105-dolce-italia-tiramisu-500g"}],"activePromotion":{"code":"bunatatile-saptamanii-cw0923","name":"Preț redus","targetQuantity":null},"saveMe":null,"labels":[{"type":"v1","items":[{"text":"-10%","backgroundColor":"#FF9903","textColor":"#FFFFFF"}]}],"geniusPrice":null,"geniusUnitPricePerLabel":null,"banner":{"text":"Super preț","textColor":"#FF0000","bgColor":"#FFF2EC","icon":null,"link":"https://www.freshful.ro/oferte/bunatatile-saptamanii-cw0923","type":"promo","analyticsEventType":"select_promotion","analyticsEventPayload":{"promotion_id":"bunatatile-saptamanii-cw0923","promotion_name":"Oferta proaspătă a săptămânii"}},"discountLabel":"Economisești 10%","geniusDiscountLabel":null,"badge":null},{"code":"100032081","variantCode":"5941875901496","name":"Iaurt cu specific grecesc natur 10% grăsime 4x150g","slug":"100032081-olympus-iaurt-cu-specific-grecesc-natur-10-grasime-4x150g","unitPriceLabel":"19,48 Lei/kg","brand":"Olympus","brandCode":"45","brandFilterCode":"olympus-b40","sku":"100032081","price":11.69,"originalPrice":null,"currencyCode":"RON","currency":"Lei","image":{"thumbnail":{"default":"https://cdn.freshful.ro/media/cache/sylius_shop_product_thumbnail/5e/d8/510f38d8bdd7e5240bd7178a3e45.jpg"},"large":{"default":"https://cdn.freshful.ro/media/cache/freshful_large/5e/d8/510f38d8bdd7e5240bd7178a3e45.jpg"},"extralarge":{"default":"https://cdn.freshful.ro/media/cache/sylius_shop_product_original/5e/d8/510f38d8bdd7e5240bd7178a3e45.jpg"}},"label":null,"tags":[{"type":"MadeInRomania","text":"Made In Romania","icon":"https://cdn.freshful.ro/assets/product_tags/made_in_romania.svg","iconPng":"https://cdn.freshful.ro/assets/product_tags/made_in_romania.png","backgroundColor":"#EDF2FD","textColor":"#1653CA"}],"isAvailable":true,"maxAvailableQuantity":100,"maxAllowedQuantity":100,"breadcrumbs":[{"code":"4","name":"Lactate & ouă","slug":"4-lactate-branzeturi-si-oua"},{"code":"404","name":"Iaurt, desert și sana","slug":"404-iaurt-desert-si-sana"},{"code":"40403","name":"Iaurt simplu","slug":"40403-iaurt-simplu"},{"code":"100032081","name":"Iaurt cu specific grecesc natur 10% grăsime 4x150g","slug":"100032081-olympus-iaurt-cu-specific-grecesc-natur-10-grasime-4x150g"}],"activePromotion":null,"saveMe":null,"labels":[],"geniusPrice":null,"geniusUnitPricePerLabel":null,"banner":null,"discountLabel":null,"geniusDiscountLabel":null,"badge":null},{"code":"100032038","variantCode":"5941875901502","name":"Iaurt cu specific grecesc, 2% grăsime 4x150g","slug":"100032038-olympus-iaurt-cu-specific-grecesc-2-grasime-4x150g","unitPriceLabel":"19,48 Lei/kg","brand":"Olympus","brandCode":"45","brandFilterCode":"olympus-b40","sku":"100032038","price":11.69,"originalPrice":null,"currencyCode":"RON","currency":"Lei","image":{"thumbnail":{"default":"https://cdn.freshful.ro/media/cache/sylius_shop_product_thumbnail/82/85/4e42a0cdf364dc7fcb74340ca275.jpg"},"large":{"default":"https://cdn.freshful.ro/media/cache/freshful_large/82/85/4e42a0cdf364dc7fcb74340ca275.jpg"},"extralarge":{"default":"https://cdn.freshful.ro/media/cache/sylius_shop_product_original/82/85/4e42a0cdf364dc7fcb74340ca275.jpg"}},"label":null,"tags":[],"isAvailable":true,"maxAvailableQuantity":100,"maxAllowedQuantity":100,"breadcrumbs":[{"code":"4","name":"Lactate & ouă","slug":"4-lactate-branzeturi-si-oua"},{"code":"404","name":"Iaurt, desert și sana","slug":"404-iaurt-desert-si-sana"},{"code":"40403","name":"Iaurt simplu","slug":"40403-iaurt-simplu"},{"code":"100032038","name":"Iaurt cu specific grecesc, 2% grăsime 4x150g","slug":"100032038-olympus-iaurt-cu-specific-grecesc-2-grasime-4x150g"}],"activePromotion":null,"saveMe":null,"labels":[],"geniusPrice":null,"geniusUnitPricePerLabel":null,"banner":null,"discountLabel":null,"geniusDiscountLabel":null,"badge":null},{"code":"100003641","variantCode":"5941905044049","name":"Iaurt natural 5% grăsime 300g","slug":"100003641-laptaria-cu-caimac-iaurt-natural-5-grasime-300g","unitPriceLabel":"26,63 Lei/kg","brand":"Lăptăria cu caimac","brandCode":"1","brandFilterCode":"laptaria-cu-caimac-b1","sku":"100003641","price":7.99,"originalPrice":null,"currencyCode":"RON","currency":"Lei","image":{"thumbnail":{"default":"https://cdn.freshful.ro/media/cache/sylius_shop_product_thumbnail/ca/16/481a7d8fb849728f4698d922eef1.jpg"},"large":{"default":"https://cdn.freshful.ro/media/cache/freshful_large/ca/16/481a7d8fb849728f4698d922eef1.jpg"},"extralarge":{"default":"https://cdn.freshful.ro/media/cache/sylius_shop_product_original/ca/16/481a7d8fb849728f4698d922eef1.jpg"}},"label":null,"tags":[{"type":"Natural","text":"Natural","icon":"https://cdn.freshful.ro/assets/product_tags/natural.svg","iconPng":"https://cdn.freshful.ro/assets/product_tags/natural.png","backgroundColor":"#E9FCF2","textColor":"#18AF62"},{"type":"MadeInRomania","text":"Made In Romania","icon":"https://cdn.freshful.ro/assets/product_tags/made_in_romania.svg","iconPng":"https://cdn.freshful.ro/assets/product_tags/made_in_romania.png","backgroundColor":"#EDF2FD","textColor":"#1653CA"}],"isAvailable":true,"maxAvailableQuantity":100,"maxAllowedQuantity":100,"breadcrumbs":[{"code":"4","name":"Lactate & ouă","slug":"4-lactate-branzeturi-si-oua"},{"code":"404","name":"Iaurt, desert și sana","slug":"404-iaurt-desert-si-sana"},{"code":"40403","name":"Iaurt simplu","slug":"40403-iaurt-simplu"},{"code":"100003641","name":"Iaurt natural 5% grăsime 300g","slug":"100003641-laptaria-cu-caimac-iaurt-natural-5-grasime-300g"}],"activePromotion":null,"saveMe":null,"labels":[],"geniusPrice":null,"geniusUnitPricePerLabel":null,"banner":null,"discountLabel":null,"geniusDiscountLabel":null,"badge":null},{"code":"100030303","variantCode":"5941065012438","name":"Chefir 3.3% grăsime 900g","slug":"100030303-napolact-chefir-3-3-grasime-900g","unitPriceLabel":"11,1 Lei/kg","brand":"Napolact","brandCode":"79","brandFilterCode":"napolact-b77","sku":"100030303","price":9.99,"originalPrice":null,"currencyCode":"RON","currency":"Lei","image":{"thumbnail":{"default":"https://cdn.freshful.ro/media/cache/sylius_shop_product_thumbnail/0b/13/58cb3c037e849239fea17ca2aa6b.jpg"},"large":{"default":"https://cdn.freshful.ro/media/cache/freshful_large/0b/13/58cb3c037e849239fea17ca2aa6b.jpg"},"extralarge":{"default":"https://cdn.freshful.ro/media/cache/sylius_shop_product_original/0b/13/58cb3c037e849239fea17ca2aa6b.jpg"}},"label":null,"tags":[{"type":"MadeInRomania","text":"Made In Romania","icon":"https://cdn.freshful.ro/assets/product_tags/made_in_romania.svg","iconPng":"https://cdn.freshful.ro/assets/product_tags/made_in_romania.png","backgroundColor":"#EDF2FD","textColor":"#1653CA"}],"isAvailable":true,"maxAvailableQuantity":100,"maxAllowedQuantity":100,"breadcrumbs":[{"code":"4","name":"Lactate & ouă","slug":"4-lactate-branzeturi-si-oua"},{"code":"404","name":"Iaurt, desert și sana","slug":"404-iaurt-desert-si-sana"},{"code":"40410","name":"Lapte bătut, chefir și sana","slug":"40410-lapte-batut-chefir-si-sana"},{"code":"100030303","name":"Chefir 3.3% grăsime 900g","slug":"100030303-napolact-chefir-3-3-grasime-900g"}],"activePromotion":null,"saveMe":null,"labels":[],"geniusPrice":null,"geniusUnitPricePerLabel":null,"banner":null,"discountLabel":null,"geniusDiscountLabel":null,"badge":null},{"code":"100030301","variantCode":"5941065012421","name":"Chefir 3.3% grăsime 330g","slug":"100030301-napolact-chefir-3-3-grasime-330g","unitPriceLabel":"15,73 Lei/kg","brand":"Napolact","brandCode":"79","brandFilterCode":"napolact-b77","sku":"100030301","price":5.19,"originalPrice":null,"currencyCode":"RON","currency":"Lei","image":{"thumbnail":{"default":"https://cdn.freshful.ro/media/cache/sylius_shop_product_thumbnail/72/56/791d8af44166050b278532d14ab4.jpg"},"large":{"default":"https://cdn.freshful.ro/media/cache/freshful_large/72/56/791d8af44166050b278532d14ab4.jpg"},"extralarge":{"default":"https://cdn.freshful.ro/media/cache/sylius_shop_product_original/72/56/791d8af44166050b278532d14ab4.jpg"}},"label":null,"tags":[{"type":"MadeInRomania","text":"Made In Romania","icon":"https://cdn.freshful.ro/assets/product_tags/made_in_romania.svg","iconPng":"https://cdn.freshful.ro/assets/product_tags/made_in_romania.png","backgroundColor":"#EDF2FD","textColor":"#1653CA"}],"isAvailable":true,"maxAvailableQuantity":100,"maxAllowedQuantity":100,"breadcrumbs":[{"code":"4","name":"Lactate & ouă","slug":"4-lactate-branzeturi-si-oua"},{"code":"404","name":"Iaurt, desert și sana","slug":"404-iaurt-desert-si-sana"},{"code":"40410","name":"Lapte bătut, chefir și sana","slug":"40410-lapte-batut-chefir-si-sana"},{"code":"100030301","name":"Chefir 3.3% grăsime 330g","slug":"100030301-napolact-chefir-3-3-grasime-330g"}],"activePromotion":null,"saveMe":null,"labels":[],"geniusPrice":null,"geniusUnitPricePerLabel":null,"banner":null,"discountLabel":null,"geniusDiscountLabel":null,"badge":null},{"code":"100003485","variantCode":"4025500186821","name":"Kefir Kalinka 500g","slug":"100003485-muller-kefir-kalinka-500g","unitPriceLabel":"14,1 Lei/kg","brand":"Müller","brandCode":"258","brandFilterCode":"muller-b259","sku":"100003485","price":7.05,"originalPrice":null,"currencyCode":"RON","currency":"Lei","image":{"thumbnail":{"default":"https://cdn.freshful.ro/media/cache/sylius_shop_product_thumbnail/4a/84/1b0da0326e2f1d7d974e340a79ae.jpg"},"large":{"default":"https://cdn.freshful.ro/media/cache/freshful_large/4a/84/1b0da0326e2f1d7d974e340a79ae.jpg"},"extralarge":{"default":"https://cdn.freshful.ro/media/cache/sylius_shop_product_original/4a/84/1b0da0326e2f1d7d974e340a79ae.jpg"}},"label":null,"tags":[],"isAvailable":true,"maxAvailableQuantity":100,"maxAllowedQuantity":100,"breadcrumbs":[{"code":"4","name":"Lactate & ouă","slug":"4-lactate-branzeturi-si-oua"},{"code":"404","name":"Iaurt, desert și sana","slug":"404-iaurt-desert-si-sana"},{"code":"40407","name":"Lactate dietetice","slug":"40407-lactate-dietetice"},{"code":"100003485","name":"Kefir Kalinka 500g","slug":"100003485-muller-kefir-kalinka-500g"}],"activePromotion":null,"saveMe":null,"labels":[],"geniusPrice":null,"geniusUnitPricePerLabel":null,"banner":null,"discountLabel":null,"geniusDiscountLabel":null,"badge":null}],"filters":{"countSelected":0,"items":[{"code":"promotion","name":"Promoții","countSelected":0,"values":[{"code":"bunatatile-saptamanii-cw0923","name":"Oferta proaspătă a săptămânii","isSelected":false,"count":3}]},{"code":"brand","name":"Brand","countSelected":0,"values":[{"code":"actimel-b38","name":"Actimel","isSelected":false,"count":10},{"code":"activia-b37","name":"Activia","isSelected":false,"count":17},{"code":"al-dar-b2716","name":"Al Dar","isSelected":false,"count":4},{"code":"albalact-b78","name":"Albalact","isSelected":false,"count":1},{"code":"artesana-b219","name":"Artesana","isSelected":false,"count":11},{"code":"colectar-b383","name":"Colectar","isSelected":false,"count":5},{"code":"covalact-b785","name":"Covalact","isSelected":false,"count":9},{"code":"cremosso-b33","name":"Cremosso","isSelected":false,"count":8},{"code":"danette-b28","name":"Danette","isSelected":false,"count":3},{"code":"danone-b27","name":"Danone","isSelected":false,"count":6},{"code":"danonino-b30","name":"Danonino","isSelected":false,"count":6},{"code":"delicios-b32","name":"Delicios","isSelected":false,"count":1},{"code":"dolce-italia-b2889","name":"Dolce Italia","isSelected":false,"count":2},{"code":"dots-b81","name":"Dots","isSelected":false,"count":1},{"code":"dr-oetker-b51","name":"Dr. Oetker","isSelected":false,"count":7},{"code":"eti-b29","name":"Eti","isSelected":false,"count":1},{"code":"exquisa-b396","name":"Exquisa","isSelected":false,"count":2},{"code":"gustolact-b502","name":"Gustolact","isSelected":false,"count":7},{"code":"huzur-b2725","name":"HUZUR","isSelected":false,"count":6},{"code":"kinder-b11","name":"Kinder","isSelected":false,"count":5},{"code":"kit-kat-b3","name":"Kit Kat","isSelected":false,"count":1},{"code":"kolios-b2855","name":"Kolios","isSelected":false,"count":8},{"code":"laptaria-cu-caimac-b1","name":"Lăptăria cu caimac","isSelected":false,"count":7},{"code":"milka-b470","name":"Milka","isSelected":false,"count":1},{"code":"mirdatod-b756","name":"Mirdatod","isSelected":false,"count":6},{"code":"mizo-b535","name":"Mizo","isSelected":false,"count":2},{"code":"monor-b326","name":"Monor","isSelected":false,"count":6},{"code":"muller-b259","name":"Müller","isSelected":false,"count":45},{"code":"napolact-b77","name":"Napolact","isSelected":false,"count":7},{"code":"nesquik-b56","name":"Nesquik","isSelected":false,"count":2},{"code":"nucet-b2523","name":"Nucet","isSelected":false,"count":5},{"code":"ohvaz-b109","name":"Ohvăz","isSelected":false,"count":5},{"code":"olympus-b40","name":"Olympus","isSelected":false,"count":22},{"code":"oreo-b469","name":"Oreo","isSelected":false,"count":1},{"code":"ploo-n-gura-b887","name":"Ploo-N Gură","isSelected":false,"count":3},{"code":"smarties-b5","name":"Smarties","isSelected":false,"count":1},{"code":"unirea-gospodarilor-b1888","name":"Unirea Gospodarilor","isSelected":false,"count":4},{"code":"yopro-b31","name":"Yopro","isSelected":false,"count":4},{"code":"zuzu-b45","name":"Zuzu","isSelected":false,"count":9},{"code":"zuzu-divin-b7","name":"Zuzu Divin","isSelected":false,"count":2},{"code":"zuzu-dolce-b2","name":"Zuzu Dolce","isSelected":false,"count":4},{"code":"zuzu-max-b9","name":"Zuzu Max","isSelected":false,"count":1},{"code":"zuzu-stors-b8","name":"Zuzu Stors","isSelected":false,"count":2}]},{"code":"diet_lifestyle","name":"Dietă și lifestyle","countSelected":0,"values":[{"code":"fara-conservanti-a37","name":"Fara conservanti","isSelected":false,"count":7},{"code":"fara-e-uri-a84","name":"Fara E-uri","isSelected":false,"count":5},{"code":"fara-lactoza-a38","name":"Fara lactoza","isSelected":false,"count":2},{"code":"fara-zahar-adaugat-a29","name":"Fara zahar adaugat","isSelected":false,"count":17},{"code":"made-in-romania-a85","name":"Made In Romania","isSelected":false,"count":123},{"code":"natural-a27","name":"Natural","isSelected":false,"count":20}]}]},"orderBy":[{"field":"price","direction":"asc","name":"Preț crescător","isSelected":false},{"field":"price","direction":"desc","name":"Preț descrescător","isSelected":false},{"field":"popularity","direction":"desc","name":"Cele mai populare","isSelected":true},{"field":"category","direction":"asc","name":"Categorie","isSelected":false}],"metaTitle":"Iaurt, desert și sana - Gamă variată","metaDescription":"Vrei Iaurt, desert și sana? Alege dintr-o gamă variată. Comanzi simplu și ai livrare rapidă, calitate și prospețime. Hai pe Freshful.ro","metaKeywords":null,"banners":[]}}