{"type":"subcategory","payload":{"analyticsListId":"category_40407-lactate-dietetice","analyticsListName":"Category - Lactate dietetice","name":"Lactate dietetice","slug":"40407-lactate-dietetice","image":null,"breadcrumbs":[{"code":"4","name":"Lactate & ouă","slug":"4-lactate-branzeturi-si-oua"},{"code":"404","name":"Iaurt, desert și sana","slug":"404-iaurt-desert-si-sana"},{"code":"40407","name":"Lactate dietetice","slug":"40407-lactate-dietetice"}],"slots":[],"page":1,"limit":10,"pages":2,"count":13,"siblings":[{"name":"Lapte, smântână și brânză proaspătă","slug":"401-lapte-smantana-si-branza-proaspata","selected":false},{"name":"Unt","slug":"402-unt-si-margarina","selected":false},{"name":"Lactate UHT","slug":"403-lactate-uht","selected":false},{"name":"Iaurt, desert și sana","slug":"404-iaurt-desert-si-sana","selected":true},{"name":"Ouă","slug":"405-oua","selected":false},{"name":"Brânzeturi","slug":"406-branzeturi","selected":false},{"name":"Lapte și lactate ECO","slug":"lapte-si-lactate-eco","selected":false},{"name":"Amestecuri lactate și grasimi vegetale","slug":"amestecuri-lactate-si-grasimi-vegetale","selected":false}],"children":[{"name":"Toate produsele","slug":"404-iaurt-desert-si-sana","selected":false},{"name":"Probiotice și bifidus","slug":"40401-probiotice-si-bifidus","selected":false},{"name":"Iaurturi și deserturi fără lactoză","slug":"40402-iaurturi-si-deserturi-fara-lactoza","selected":false},{"name":"Iaurt simplu","slug":"40403-iaurt-simplu","selected":false},{"name":"Iaurt cu fructe și arome","slug":"40404-iaurt-fructe-si-cu-arome","selected":false},{"name":"Iaurt de băut","slug":"40405-iaurt-de-baut","selected":false},{"name":"Lactate dietetice","slug":"40407-lactate-dietetice","selected":true},{"name":"Deserturi","slug":"40409-deserturi","selected":false},{"name":"Lapte bătut, chefir și sana","slug":"40410-lapte-batut-chefir-si-sana","selected":false},{"name":"Produse lactate pentru copii","slug":"40411-produse-lactate-pentru-copii","selected":false}],"products":[{"code":"100003485","variantCode":"4025500186821","name":"Kefir Kalinka 500g","slug":"100003485-muller-kefir-kalinka-500g","unitPriceLabel":"14,1 Lei/kg","brand":"Müller","brandCode":"258","brandFilterCode":"muller-b259","sku":"100003485","price":7.05,"originalPrice":null,"currencyCode":"RON","currency":"Lei","image":{"thumbnail":{"default":"https://cdn.freshful.ro/media/cache/sylius_shop_product_thumbnail/4a/84/1b0da0326e2f1d7d974e340a79ae.jpg"},"large":{"default":"https://cdn.freshful.ro/media/cache/freshful_large/4a/84/1b0da0326e2f1d7d974e340a79ae.jpg"},"extralarge":{"default":"https://cdn.freshful.ro/media/cache/sylius_shop_product_original/4a/84/1b0da0326e2f1d7d974e340a79ae.jpg"}},"label":null,"tags":[],"isAvailable":true,"maxAvailableQuantity":100,"maxAllowedQuantity":100,"breadcrumbs":[{"code":"4","name":"Lactate & ouă","slug":"4-lactate-branzeturi-si-oua"},{"code":"404","name":"Iaurt, desert și sana","slug":"404-iaurt-desert-si-sana"},{"code":"40407","name":"Lactate dietetice","slug":"40407-lactate-dietetice"},{"code":"100003485","name":"Kefir Kalinka 500g","slug":"100003485-muller-kefir-kalinka-500g"}],"activePromotion":null,"saveMe":null,"labels":[],"geniusPrice":null,"geniusUnitPricePerLabel":null,"banner":null,"discountLabel":null,"geniusDiscountLabel":null,"badge":null},{"code":"100047574","variantCode":"100047574","name":"Sana ușoară 0.7% grăsime 330g","slug":"100047574-covalact-sana-usoara-0-7-grasime-330g","unitPriceLabel":"15,12 Lei/kg","brand":"Covalact","brandCode":"784","brandFilterCode":"covalact-b785","sku":"100047574","price":4.99,"originalPrice":null,"currencyCode":"RON","currency":"Lei","image":{"thumbnail":{"default":"https://cdn.freshful.ro/media/cache/sylius_shop_product_thumbnail/a9/24/617c00b6dea2006ecabedab8614d.jpg"},"large":{"default":"https://cdn.freshful.ro/media/cache/freshful_large/a9/24/617c00b6dea2006ecabedab8614d.jpg"},"extralarge":{"default":"https://cdn.freshful.ro/media/cache/sylius_shop_product_original/a9/24/617c00b6dea2006ecabedab8614d.jpg"}},"label":null,"tags":[{"type":"MadeInRomania","text":"Made In Romania","icon":"https://cdn.freshful.ro/assets/product_tags/made_in_romania.svg","iconPng":"https://cdn.freshful.ro/assets/product_tags/made_in_romania.png","backgroundColor":"#EDF2FD","textColor":"#1653CA"}],"isAvailable":true,"maxAvailableQuantity":100,"maxAllowedQuantity":100,"breadcrumbs":[{"code":"4","name":"Lactate & ouă","slug":"4-lactate-branzeturi-si-oua"},{"code":"404","name":"Iaurt, desert și sana","slug":"404-iaurt-desert-si-sana"},{"code":"40407","name":"Lactate dietetice","slug":"40407-lactate-dietetice"},{"code":"100047574","name":"Sana ușoară 0.7% grăsime 330g","slug":"100047574-covalact-sana-usoara-0-7-grasime-330g"}],"activePromotion":null,"saveMe":null,"labels":[],"geniusPrice":null,"geniusUnitPricePerLabel":null,"banner":null,"discountLabel":null,"geniusDiscountLabel":null,"badge":null},{"code":"100047573","variantCode":"100047573","name":"Chefir ușor 0.7% grăsime 900g","slug":"100047573-covalact-chefir-usor-0-7-grasime-900g","unitPriceLabel":"10,54 Lei/kg","brand":"Covalact","brandCode":"784","brandFilterCode":"covalact-b785","sku":"100047573","price":9.49,"originalPrice":null,"currencyCode":"RON","currency":"Lei","image":{"thumbnail":{"default":"https://cdn.freshful.ro/media/cache/sylius_shop_product_thumbnail/e9/3f/49f1a592b2850e3e563819fa8e25.jpg"},"large":{"default":"https://cdn.freshful.ro/media/cache/freshful_large/e9/3f/49f1a592b2850e3e563819fa8e25.jpg"},"extralarge":{"default":"https://cdn.freshful.ro/media/cache/sylius_shop_product_original/e9/3f/49f1a592b2850e3e563819fa8e25.jpg"}},"label":null,"tags":[{"type":"MadeInRomania","text":"Made In Romania","icon":"https://cdn.freshful.ro/assets/product_tags/made_in_romania.svg","iconPng":"https://cdn.freshful.ro/assets/product_tags/made_in_romania.png","backgroundColor":"#EDF2FD","textColor":"#1653CA"}],"isAvailable":true,"maxAvailableQuantity":33,"maxAllowedQuantity":100,"breadcrumbs":[{"code":"4","name":"Lactate & ouă","slug":"4-lactate-branzeturi-si-oua"},{"code":"404","name":"Iaurt, desert și sana","slug":"404-iaurt-desert-si-sana"},{"code":"40407","name":"Lactate dietetice","slug":"40407-lactate-dietetice"},{"code":"100047573","name":"Chefir ușor 0.7% grăsime 900g","slug":"100047573-covalact-chefir-usor-0-7-grasime-900g"}],"activePromotion":null,"saveMe":null,"labels":[],"geniusPrice":null,"geniusUnitPricePerLabel":null,"banner":null,"discountLabel":null,"geniusDiscountLabel":null,"badge":null},{"code":"100089992","variantCode":"642108848186","name":"Budincă de chia cu vișine și mango 300g","slug":"100089992-ohvaz-budinca-de-chia-cu-visine-si-mango-300g","unitPriceLabel":"56,63 Lei/kg","brand":"Ohvăz","brandCode":"125","brandFilterCode":"ohvaz-b109","sku":"100089992","price":16.99,"originalPrice":null,"currencyCode":"RON","currency":"Lei","image":{"thumbnail":{"default":"https://cdn.freshful.ro/media/cache/sylius_shop_product_thumbnail/d9/55/1a0887937a999da67271669e97d3.jpg"},"large":{"default":"https://cdn.freshful.ro/media/cache/freshful_large/d9/55/1a0887937a999da67271669e97d3.jpg"},"extralarge":{"default":"https://cdn.freshful.ro/media/cache/sylius_shop_product_original/d9/55/1a0887937a999da67271669e97d3.jpg"}},"label":{"text":"Mici producători","backgroundColor":"#7B61FF","textColor":"#FFFFFF"},"tags":[{"type":"NoAddedSugar","text":"Fara zahar adaugat","icon":"https://cdn.freshful.ro/assets/product_tags/fara_zahar_adaugat.svg","iconPng":"https://cdn.freshful.ro/assets/product_tags/fara_zahar_adaugat.png","backgroundColor":"#F8EDF7","textColor":"#C05EBC"},{"type":"NoPreservatives","text":"Fara conservanti","icon":"https://cdn.freshful.ro/assets/product_tags/fara_conservanti.svg","iconPng":"https://cdn.freshful.ro/assets/product_tags/fara_conservanti.png","backgroundColor":"#F0F2FF","textColor":"#7889DD"}],"isAvailable":true,"maxAvailableQuantity":17,"maxAllowedQuantity":100,"breadcrumbs":[{"code":"4","name":"Lactate & ouă","slug":"4-lactate-branzeturi-si-oua"},{"code":"404","name":"Iaurt, desert și sana","slug":"404-iaurt-desert-si-sana"},{"code":"40407","name":"Lactate dietetice","slug":"40407-lactate-dietetice"},{"code":"100089992","name":"Budincă de chia cu vișine și mango 300g","slug":"100089992-ohvaz-budinca-de-chia-cu-visine-si-mango-300g"}],"activePromotion":null,"saveMe":null,"labels":[{"type":"v1","items":[{"text":"Mici producători","backgroundColor":"#7B61FF","textColor":"#FFFFFF"}]}],"geniusPrice":null,"geniusUnitPricePerLabel":null,"banner":null,"discountLabel":null,"geniusDiscountLabel":null,"badge":null},{"code":"100143883","variantCode":"100143883","name":"Iaurt grecesc 0% grăsime, 150g","slug":"100143883-kolios-iaurt-grecesc-0-grasime-150g","unitPriceLabel":"26,6 Lei/kg","brand":"Kolios","brandCode":"2781","brandFilterCode":"kolios-b2855","sku":"100143883","price":3.99,"originalPrice":null,"currencyCode":"RON","currency":"Lei","image":{"thumbnail":{"default":"https://cdn.freshful.ro/media/cache/sylius_shop_product_thumbnail/73/ca/d287d90cf308d5a85fab989b061c.jpg"},"large":{"default":"https://cdn.freshful.ro/media/cache/freshful_large/73/ca/d287d90cf308d5a85fab989b061c.jpg"},"extralarge":{"default":"https://cdn.freshful.ro/media/cache/sylius_shop_product_original/73/ca/d287d90cf308d5a85fab989b061c.jpg"}},"label":null,"tags":[{"type":"Natural","text":"Natural","icon":"https://cdn.freshful.ro/assets/product_tags/natural.svg","iconPng":"https://cdn.freshful.ro/assets/product_tags/natural.png","backgroundColor":"#E9FCF2","textColor":"#18AF62"}],"isAvailable":true,"maxAvailableQuantity":100,"maxAllowedQuantity":100,"breadcrumbs":[{"code":"4","name":"Lactate & ouă","slug":"4-lactate-branzeturi-si-oua"},{"code":"404","name":"Iaurt, desert și sana","slug":"404-iaurt-desert-si-sana"},{"code":"40407","name":"Lactate dietetice","slug":"40407-lactate-dietetice"},{"code":"100143883","name":"Iaurt grecesc 0% grăsime, 150g","slug":"100143883-kolios-iaurt-grecesc-0-grasime-150g"}],"activePromotion":null,"saveMe":null,"labels":[],"geniusPrice":null,"geniusUnitPricePerLabel":null,"banner":null,"discountLabel":null,"geniusDiscountLabel":null,"badge":null},{"code":"100035625","variantCode":"100035625","name":"Ovăz cu merișoare și cocos 300g","slug":"100035625-ohvaz-ovaz-cu-merisoare-si-cocos-300g","unitPriceLabel":"56,63 Lei/kg","brand":"Ohvăz","brandCode":"125","brandFilterCode":"ohvaz-b109","sku":"100035625","price":16.99,"originalPrice":null,"currencyCode":"RON","currency":"Lei","image":{"thumbnail":{"default":"https://cdn.freshful.ro/media/cache/sylius_shop_product_thumbnail/37/87/8053879edd0678703816a29ab945.jpg"},"large":{"default":"https://cdn.freshful.ro/media/cache/freshful_large/37/87/8053879edd0678703816a29ab945.jpg"},"extralarge":{"default":"https://cdn.freshful.ro/media/cache/sylius_shop_product_original/37/87/8053879edd0678703816a29ab945.jpg"}},"label":{"text":"Mici producători","backgroundColor":"#7B61FF","textColor":"#FFFFFF"},"tags":[{"type":"NoAddedSugar","text":"Fara zahar adaugat","icon":"https://cdn.freshful.ro/assets/product_tags/fara_zahar_adaugat.svg","iconPng":"https://cdn.freshful.ro/assets/product_tags/fara_zahar_adaugat.png","backgroundColor":"#F8EDF7","textColor":"#C05EBC"},{"type":"NoPreservatives","text":"Fara conservanti","icon":"https://cdn.freshful.ro/assets/product_tags/fara_conservanti.svg","iconPng":"https://cdn.freshful.ro/assets/product_tags/fara_conservanti.png","backgroundColor":"#F0F2FF","textColor":"#7889DD"}],"isAvailable":true,"maxAvailableQuantity":24,"maxAllowedQuantity":100,"breadcrumbs":[{"code":"4","name":"Lactate & ouă","slug":"4-lactate-branzeturi-si-oua"},{"code":"404","name":"Iaurt, desert și sana","slug":"404-iaurt-desert-si-sana"},{"code":"40407","name":"Lactate dietetice","slug":"40407-lactate-dietetice"},{"code":"100035625","name":"Ovăz cu merișoare și cocos 300g","slug":"100035625-ohvaz-ovaz-cu-merisoare-si-cocos-300g"}],"activePromotion":null,"saveMe":null,"labels":[{"type":"v1","items":[{"text":"Mici producători","backgroundColor":"#7B61FF","textColor":"#FFFFFF"}]}],"geniusPrice":null,"geniusUnitPricePerLabel":null,"banner":null,"discountLabel":null,"geniusDiscountLabel":null,"badge":null},{"code":"100035627","variantCode":"100035627","name":"Ovăz cu ciocolată, ananas și crumble 300g","slug":"100035627-ohvaz-ovaz-cu-ciocolata-ananas-si-crumble-300g","unitPriceLabel":"59,97 Lei/kg","brand":"Ohvăz","brandCode":"125","brandFilterCode":"ohvaz-b109","sku":"100035627","price":17.99,"originalPrice":null,"currencyCode":"RON","currency":"Lei","image":{"thumbnail":{"default":"https://cdn.freshful.ro/media/cache/sylius_shop_product_thumbnail/85/74/60e9e5d8318463259439e9ddcdd1.jpg"},"large":{"default":"https://cdn.freshful.ro/media/cache/freshful_large/85/74/60e9e5d8318463259439e9ddcdd1.jpg"},"extralarge":{"default":"https://cdn.freshful.ro/media/cache/sylius_shop_product_original/85/74/60e9e5d8318463259439e9ddcdd1.jpg"}},"label":{"text":"Mici producători","backgroundColor":"#7B61FF","textColor":"#FFFFFF"},"tags":[{"type":"Natural","text":"Natural","icon":"https://cdn.freshful.ro/assets/product_tags/natural.svg","iconPng":"https://cdn.freshful.ro/assets/product_tags/natural.png","backgroundColor":"#E9FCF2","textColor":"#18AF62"},{"type":"NoAddedSugar","text":"Fara zahar adaugat","icon":"https://cdn.freshful.ro/assets/product_tags/fara_zahar_adaugat.svg","iconPng":"https://cdn.freshful.ro/assets/product_tags/fara_zahar_adaugat.png","backgroundColor":"#F8EDF7","textColor":"#C05EBC"},{"type":"NoPreservatives","text":"Fara conservanti","icon":"https://cdn.freshful.ro/assets/product_tags/fara_conservanti.svg","iconPng":"https://cdn.freshful.ro/assets/product_tags/fara_conservanti.png","backgroundColor":"#F0F2FF","textColor":"#7889DD"}],"isAvailable":true,"maxAvailableQuantity":23,"maxAllowedQuantity":100,"breadcrumbs":[{"code":"4","name":"Lactate & ouă","slug":"4-lactate-branzeturi-si-oua"},{"code":"404","name":"Iaurt, desert și sana","slug":"404-iaurt-desert-si-sana"},{"code":"40407","name":"Lactate dietetice","slug":"40407-lactate-dietetice"},{"code":"100035627","name":"Ovăz cu ciocolată, ananas și crumble 300g","slug":"100035627-ohvaz-ovaz-cu-ciocolata-ananas-si-crumble-300g"}],"activePromotion":null,"saveMe":null,"labels":[{"type":"v1","items":[{"text":"Mici producători","backgroundColor":"#7B61FF","textColor":"#FFFFFF"}]}],"geniusPrice":null,"geniusUnitPricePerLabel":null,"banner":null,"discountLabel":null,"geniusDiscountLabel":null,"badge":null},{"code":"100032723","variantCode":"100032723","name":"Kefir light 0,1% grăsime 330g","slug":"100032723-monor-kefir-light-0-1-grasime-330g","unitPriceLabel":"12,09 Lei/kg","brand":"Monor","brandCode":"325","brandFilterCode":"monor-b326","sku":"100032723","price":3.99,"originalPrice":null,"currencyCode":"RON","currency":"Lei","image":{"thumbnail":{"default":"https://cdn.freshful.ro/media/cache/sylius_shop_product_thumbnail/de/40/a07d36df25f239ef9629b8f0f591.jpg"},"large":{"default":"https://cdn.freshful.ro/media/cache/freshful_large/de/40/a07d36df25f239ef9629b8f0f591.jpg"},"extralarge":{"default":"https://cdn.freshful.ro/media/cache/sylius_shop_product_original/de/40/a07d36df25f239ef9629b8f0f591.jpg"}},"label":null,"tags":[{"type":"MadeInRomania","text":"Made In Romania","icon":"https://cdn.freshful.ro/assets/product_tags/made_in_romania.svg","iconPng":"https://cdn.freshful.ro/assets/product_tags/made_in_romania.png","backgroundColor":"#EDF2FD","textColor":"#1653CA"}],"isAvailable":true,"maxAvailableQuantity":83,"maxAllowedQuantity":100,"breadcrumbs":[{"code":"4","name":"Lactate & ouă","slug":"4-lactate-branzeturi-si-oua"},{"code":"404","name":"Iaurt, desert și sana","slug":"404-iaurt-desert-si-sana"},{"code":"40407","name":"Lactate dietetice","slug":"40407-lactate-dietetice"},{"code":"100032723","name":"Kefir light 0,1% grăsime 330g","slug":"100032723-monor-kefir-light-0-1-grasime-330g"}],"activePromotion":null,"saveMe":null,"labels":[],"geniusPrice":null,"geniusUnitPricePerLabel":null,"banner":null,"discountLabel":null,"geniusDiscountLabel":null,"badge":null},{"code":"100032037","variantCode":"100032037","name":"Iaurt natur cu specific grecesc 0% grăsime 150g","slug":"100032037-olympus-iaurt-natur-cu-specific-grecesc-0-grasime-150g","unitPriceLabel":"21 Lei/kg","brand":"Olympus","brandCode":"45","brandFilterCode":"olympus-b40","sku":"100032037","price":3.15,"originalPrice":null,"currencyCode":"RON","currency":"Lei","image":{"thumbnail":{"default":"https://cdn.freshful.ro/media/cache/sylius_shop_product_thumbnail/31/43/2dfcd7a9d27cd1f7bdeb3c8a9654.jpg"},"large":{"default":"https://cdn.freshful.ro/media/cache/freshful_large/31/43/2dfcd7a9d27cd1f7bdeb3c8a9654.jpg"},"extralarge":{"default":"https://cdn.freshful.ro/media/cache/sylius_shop_product_original/31/43/2dfcd7a9d27cd1f7bdeb3c8a9654.jpg"}},"label":null,"tags":[{"type":"MadeInRomania","text":"Made In Romania","icon":"https://cdn.freshful.ro/assets/product_tags/made_in_romania.svg","iconPng":"https://cdn.freshful.ro/assets/product_tags/made_in_romania.png","backgroundColor":"#EDF2FD","textColor":"#1653CA"}],"isAvailable":true,"maxAvailableQuantity":81,"maxAllowedQuantity":100,"breadcrumbs":[{"code":"4","name":"Lactate & ouă","slug":"4-lactate-branzeturi-si-oua"},{"code":"404","name":"Iaurt, desert și sana","slug":"404-iaurt-desert-si-sana"},{"code":"40407","name":"Lactate dietetice","slug":"40407-lactate-dietetice"},{"code":"100032037","name":"Iaurt natur cu specific grecesc 0% grăsime 150g","slug":"100032037-olympus-iaurt-natur-cu-specific-grecesc-0-grasime-150g"}],"activePromotion":null,"saveMe":null,"labels":[],"geniusPrice":null,"geniusUnitPricePerLabel":null,"banner":null,"discountLabel":null,"geniusDiscountLabel":null,"badge":null},{"code":"100004060","variantCode":"5941355006567","name":"Iaurt 0,1% grăsime 140g","slug":"100004060-zuzu-iaurt-0-1-grasime-140g","unitPriceLabel":"10,64 Lei/kg","brand":"Zuzu","brandCode":"5","brandFilterCode":"zuzu-b45","sku":"100004060","price":1.49,"originalPrice":null,"currencyCode":"RON","currency":"Lei","image":{"thumbnail":{"default":"https://cdn.freshful.ro/media/cache/sylius_shop_product_thumbnail/82/7c/875f2234a7521803e1f1c53b475c.jpg"},"large":{"default":"https://cdn.freshful.ro/media/cache/freshful_large/82/7c/875f2234a7521803e1f1c53b475c.jpg"},"extralarge":{"default":"https://cdn.freshful.ro/media/cache/sylius_shop_product_original/82/7c/875f2234a7521803e1f1c53b475c.jpg"}},"label":null,"tags":[],"isAvailable":true,"maxAvailableQuantity":45,"maxAllowedQuantity":100,"breadcrumbs":[{"code":"4","name":"Lactate & ouă","slug":"4-lactate-branzeturi-si-oua"},{"code":"404","name":"Iaurt, desert și sana","slug":"404-iaurt-desert-si-sana"},{"code":"40407","name":"Lactate dietetice","slug":"40407-lactate-dietetice"},{"code":"100004060","name":"Iaurt 0,1% grăsime 140g","slug":"100004060-zuzu-iaurt-0-1-grasime-140g"}],"activePromotion":null,"saveMe":null,"labels":[],"geniusPrice":null,"geniusUnitPricePerLabel":null,"banner":null,"discountLabel":null,"geniusDiscountLabel":null,"badge":null}],"filters":{"countSelected":0,"items":[{"code":"brand","name":"Brand","countSelected":0,"values":[{"code":"covalact-b785","name":"Covalact","isSelected":false,"count":2},{"code":"kolios-b2855","name":"Kolios","isSelected":false,"count":1},{"code":"monor-b326","name":"Monor","isSelected":false,"count":2},{"code":"muller-b259","name":"Müller","isSelected":false,"count":1},{"code":"ohvaz-b109","name":"Ohvăz","isSelected":false,"count":5},{"code":"olympus-b40","name":"Olympus","isSelected":false,"count":1},{"code":"zuzu-b45","name":"Zuzu","isSelected":false,"count":1}]},{"code":"diet_lifestyle","name":"Dietă și lifestyle","countSelected":0,"values":[{"code":"fara-conservanti-a37","name":"Fara conservanti","isSelected":false,"count":5},{"code":"fara-zahar-adaugat-a29","name":"Fara zahar adaugat","isSelected":false,"count":5},{"code":"made-in-romania-a85","name":"Made In Romania","isSelected":false,"count":5},{"code":"natural-a27","name":"Natural","isSelected":false,"count":2}]}]},"orderBy":[{"field":"price","direction":"asc","name":"Preț crescător","isSelected":false},{"field":"price","direction":"desc","name":"Preț descrescător","isSelected":false},{"field":"popularity","direction":"desc","name":"Cele mai populare","isSelected":true},{"field":"category","direction":"asc","name":"Categorie","isSelected":false}],"metaTitle":"Lactate dietetice - Gamă variată","metaDescription":"Vrei Lactate dietetice? Alege dintr-o gamă variată. Comanzi simplu și ai livrare rapidă, calitate și prospețime. Hai pe Freshful.ro","metaKeywords":null,"banners":[]}}