{"type":"subcategory","payload":{"analyticsListId":"category_40404-iaurt-fructe-si-cu-arome","analyticsListName":"Category - Iaurt cu fructe și arome","name":"Iaurt cu fructe și arome","slug":"40404-iaurt-fructe-si-cu-arome","image":null,"breadcrumbs":[{"code":"4","name":"Lactate & ouă","slug":"4-lactate-branzeturi-si-oua"},{"code":"404","name":"Iaurt, desert și sana","slug":"404-iaurt-desert-si-sana"},{"code":"40404","name":"Iaurt cu fructe și arome","slug":"40404-iaurt-fructe-si-cu-arome"}],"slots":[],"page":1,"limit":10,"pages":5,"count":44,"siblings":[{"name":"Lapte, smântână și brânză proaspătă","slug":"401-lapte-smantana-si-branza-proaspata","selected":false},{"name":"Unt","slug":"402-unt-si-margarina","selected":false},{"name":"Lactate UHT","slug":"403-lactate-uht","selected":false},{"name":"Iaurt, desert și sana","slug":"404-iaurt-desert-si-sana","selected":true},{"name":"Ouă","slug":"405-oua","selected":false},{"name":"Brânzeturi","slug":"406-branzeturi","selected":false},{"name":"Lapte și lactate ECO","slug":"lapte-si-lactate-eco","selected":false},{"name":"Amestecuri lactate și grasimi vegetale","slug":"amestecuri-lactate-si-grasimi-vegetale","selected":false}],"children":[{"name":"Toate produsele","slug":"404-iaurt-desert-si-sana","selected":false},{"name":"Probiotice și bifidus","slug":"40401-probiotice-si-bifidus","selected":false},{"name":"Iaurturi și deserturi fără lactoză","slug":"40402-iaurturi-si-deserturi-fara-lactoza","selected":false},{"name":"Iaurt simplu","slug":"40403-iaurt-simplu","selected":false},{"name":"Iaurt cu fructe și arome","slug":"40404-iaurt-fructe-si-cu-arome","selected":true},{"name":"Iaurt de băut","slug":"40405-iaurt-de-baut","selected":false},{"name":"Lactate dietetice","slug":"40407-lactate-dietetice","selected":false},{"name":"Deserturi","slug":"40409-deserturi","selected":false},{"name":"Lapte bătut, chefir și sana","slug":"40410-lapte-batut-chefir-si-sana","selected":false},{"name":"Produse lactate pentru copii","slug":"40411-produse-lactate-pentru-copii","selected":false}],"products":[{"code":"100003519","variantCode":"4025500105341","name":"Iaurt cu bucăți de cireșe 500g","slug":"100003519-muller-iaurt-cu-bucati-de-cirese-500g","unitPriceLabel":"18,78 Lei/kg","brand":"Müller","brandCode":"258","brandFilterCode":"muller-b259","sku":"100003519","price":9.39,"originalPrice":null,"currencyCode":"RON","currency":"Lei","image":{"thumbnail":{"default":"https://cdn.freshful.ro/media/cache/sylius_shop_product_thumbnail/d5/40/d71e6e164087d12f8fe0f5ec2a7c.jpg"},"large":{"default":"https://cdn.freshful.ro/media/cache/freshful_large/d5/40/d71e6e164087d12f8fe0f5ec2a7c.jpg"},"extralarge":{"default":"https://cdn.freshful.ro/media/cache/sylius_shop_product_original/d5/40/d71e6e164087d12f8fe0f5ec2a7c.jpg"}},"label":null,"tags":[],"isAvailable":true,"maxAvailableQuantity":90,"maxAllowedQuantity":100,"breadcrumbs":[{"code":"4","name":"Lactate & ouă","slug":"4-lactate-branzeturi-si-oua"},{"code":"404","name":"Iaurt, desert și sana","slug":"404-iaurt-desert-si-sana"},{"code":"40404","name":"Iaurt cu fructe și arome","slug":"40404-iaurt-fructe-si-cu-arome"},{"code":"100003519","name":"Iaurt cu bucăți de cireșe 500g","slug":"100003519-muller-iaurt-cu-bucati-de-cirese-500g"}],"activePromotion":null,"saveMe":null,"labels":[],"geniusPrice":null,"geniusUnitPricePerLabel":null,"banner":null,"discountLabel":null,"geniusDiscountLabel":null,"badge":null},{"code":"100003527","variantCode":"4025500204938","name":"Pachet iaurt cu bucăți de cireșe 2x125g","slug":"100003527-muller-pachet-iaurt-cu-bucati-de-cirese-2x125g","unitPriceLabel":"23,96 Lei/kg","brand":"Müller","brandCode":"258","brandFilterCode":"muller-b259","sku":"100003527","price":5.99,"originalPrice":null,"currencyCode":"RON","currency":"Lei","image":{"thumbnail":{"default":"https://cdn.freshful.ro/media/cache/sylius_shop_product_thumbnail/b7/d5/846ea54c3d12ee0ec45daebf1d95.jpg"},"large":{"default":"https://cdn.freshful.ro/media/cache/freshful_large/b7/d5/846ea54c3d12ee0ec45daebf1d95.jpg"},"extralarge":{"default":"https://cdn.freshful.ro/media/cache/sylius_shop_product_original/b7/d5/846ea54c3d12ee0ec45daebf1d95.jpg"}},"label":null,"tags":[],"isAvailable":true,"maxAvailableQuantity":87,"maxAllowedQuantity":100,"breadcrumbs":[{"code":"4","name":"Lactate & ouă","slug":"4-lactate-branzeturi-si-oua"},{"code":"404","name":"Iaurt, desert și sana","slug":"404-iaurt-desert-si-sana"},{"code":"40404","name":"Iaurt cu fructe și arome","slug":"40404-iaurt-fructe-si-cu-arome"},{"code":"100003527","name":"Pachet iaurt cu bucăți de cireșe 2x125g","slug":"100003527-muller-pachet-iaurt-cu-bucati-de-cirese-2x125g"}],"activePromotion":null,"saveMe":null,"labels":[],"geniusPrice":null,"geniusUnitPricePerLabel":null,"banner":null,"discountLabel":null,"geniusDiscountLabel":null,"badge":null},{"code":"100003526","variantCode":"4025500204976","name":"Pachet iaurt cu bucăți de piersici și caise 2x125g","slug":"100003526-muller-pachet-iaurt-cu-bucati-de-piersici-si-caise-2x125g","unitPriceLabel":"23,4 Lei/kg","brand":"Müller","brandCode":"258","brandFilterCode":"muller-b259","sku":"100003526","price":5.85,"originalPrice":null,"currencyCode":"RON","currency":"Lei","image":{"thumbnail":{"default":"https://cdn.freshful.ro/media/cache/sylius_shop_product_thumbnail/84/77/1f9d0c01d4baccfb707ce82b4fed.jpg"},"large":{"default":"https://cdn.freshful.ro/media/cache/freshful_large/84/77/1f9d0c01d4baccfb707ce82b4fed.jpg"},"extralarge":{"default":"https://cdn.freshful.ro/media/cache/sylius_shop_product_original/84/77/1f9d0c01d4baccfb707ce82b4fed.jpg"}},"label":null,"tags":[],"isAvailable":true,"maxAvailableQuantity":81,"maxAllowedQuantity":100,"breadcrumbs":[{"code":"4","name":"Lactate & ouă","slug":"4-lactate-branzeturi-si-oua"},{"code":"404","name":"Iaurt, desert și sana","slug":"404-iaurt-desert-si-sana"},{"code":"40404","name":"Iaurt cu fructe și arome","slug":"40404-iaurt-fructe-si-cu-arome"},{"code":"100003526","name":"Pachet iaurt cu bucăți de piersici și caise 2x125g","slug":"100003526-muller-pachet-iaurt-cu-bucati-de-piersici-si-caise-2x125g"}],"activePromotion":null,"saveMe":null,"labels":[],"geniusPrice":null,"geniusUnitPricePerLabel":null,"banner":null,"discountLabel":null,"geniusDiscountLabel":null,"badge":null},{"code":"100003507","variantCode":"100003507","name":"Iaurt cu biluțe de ciocolată Mix 130g ","slug":"100003507-muller-iaurt-cu-bilute-de-ciocolata-mix-130g","unitPriceLabel":"36,85 Lei/kg","brand":"Müller","brandCode":"258","brandFilterCode":"muller-b259","sku":"100003507","price":4.79,"originalPrice":null,"currencyCode":"RON","currency":"Lei","image":{"thumbnail":{"default":"https://cdn.freshful.ro/media/cache/sylius_shop_product_thumbnail/ca/54/2bf2261579e9463cc596d9329fb4.jpg"},"large":{"default":"https://cdn.freshful.ro/media/cache/freshful_large/ca/54/2bf2261579e9463cc596d9329fb4.jpg"},"extralarge":{"default":"https://cdn.freshful.ro/media/cache/sylius_shop_product_original/ca/54/2bf2261579e9463cc596d9329fb4.jpg"}},"label":null,"tags":[],"isAvailable":true,"maxAvailableQuantity":62,"maxAllowedQuantity":100,"breadcrumbs":[{"code":"4","name":"Lactate & ouă","slug":"4-lactate-branzeturi-si-oua"},{"code":"404","name":"Iaurt, desert și sana","slug":"404-iaurt-desert-si-sana"},{"code":"40404","name":"Iaurt cu fructe și arome","slug":"40404-iaurt-fructe-si-cu-arome"},{"code":"100003507","name":"Iaurt cu biluțe de ciocolată Mix 130g ","slug":"100003507-muller-iaurt-cu-bilute-de-ciocolata-mix-130g"}],"activePromotion":null,"saveMe":null,"labels":[],"geniusPrice":null,"geniusUnitPricePerLabel":null,"banner":null,"discountLabel":null,"geniusDiscountLabel":null,"badge":null},{"code":"100003521","variantCode":"100003521","name":"Iaurt cu bucăți de piersici și caise 500g","slug":"100003521-muller-iaurt-cu-bucati-de-piersici-si-caise-500g","unitPriceLabel":"19,38 Lei/kg","brand":"Müller","brandCode":"258","brandFilterCode":"muller-b259","sku":"100003521","price":9.69,"originalPrice":null,"currencyCode":"RON","currency":"Lei","image":{"thumbnail":{"default":"https://cdn.freshful.ro/media/cache/sylius_shop_product_thumbnail/1a/2e/d23ddb0b426567e39539bbf75d41.jpg"},"large":{"default":"https://cdn.freshful.ro/media/cache/freshful_large/1a/2e/d23ddb0b426567e39539bbf75d41.jpg"},"extralarge":{"default":"https://cdn.freshful.ro/media/cache/sylius_shop_product_original/1a/2e/d23ddb0b426567e39539bbf75d41.jpg"}},"label":null,"tags":[],"isAvailable":true,"maxAvailableQuantity":66,"maxAllowedQuantity":100,"breadcrumbs":[{"code":"4","name":"Lactate & ouă","slug":"4-lactate-branzeturi-si-oua"},{"code":"404","name":"Iaurt, desert și sana","slug":"404-iaurt-desert-si-sana"},{"code":"40404","name":"Iaurt cu fructe și arome","slug":"40404-iaurt-fructe-si-cu-arome"},{"code":"100003521","name":"Iaurt cu bucăți de piersici și caise 500g","slug":"100003521-muller-iaurt-cu-bucati-de-piersici-si-caise-500g"}],"activePromotion":null,"saveMe":null,"labels":[],"geniusPrice":null,"geniusUnitPricePerLabel":null,"banner":null,"discountLabel":null,"geniusDiscountLabel":null,"badge":null},{"code":"100003523","variantCode":"4025500204914","name":"Pachet iaurt cu bucăți de căpșuni 2x125g","slug":"100003523-muller-pachet-iaurt-cu-bucati-de-capsuni-2x125g","unitPriceLabel":"23,96 Lei/kg","brand":"Müller","brandCode":"258","brandFilterCode":"muller-b259","sku":"100003523","price":5.99,"originalPrice":null,"currencyCode":"RON","currency":"Lei","image":{"thumbnail":{"default":"https://cdn.freshful.ro/media/cache/sylius_shop_product_thumbnail/f2/1b/51bb4b3453da819dfd072128b6e8.jpg"},"large":{"default":"https://cdn.freshful.ro/media/cache/freshful_large/f2/1b/51bb4b3453da819dfd072128b6e8.jpg"},"extralarge":{"default":"https://cdn.freshful.ro/media/cache/sylius_shop_product_original/f2/1b/51bb4b3453da819dfd072128b6e8.jpg"}},"label":null,"tags":[],"isAvailable":true,"maxAvailableQuantity":54,"maxAllowedQuantity":100,"breadcrumbs":[{"code":"4","name":"Lactate & ouă","slug":"4-lactate-branzeturi-si-oua"},{"code":"404","name":"Iaurt, desert și sana","slug":"404-iaurt-desert-si-sana"},{"code":"40404","name":"Iaurt cu fructe și arome","slug":"40404-iaurt-fructe-si-cu-arome"},{"code":"100003523","name":"Pachet iaurt cu bucăți de căpșuni 2x125g","slug":"100003523-muller-pachet-iaurt-cu-bucati-de-capsuni-2x125g"}],"activePromotion":null,"saveMe":null,"labels":[],"geniusPrice":null,"geniusUnitPricePerLabel":null,"banner":null,"discountLabel":null,"geniusDiscountLabel":null,"badge":null},{"code":"100003522","variantCode":"4025500168087","name":"Iaurt cu stracciatella 500g","slug":"100003522-muller-iaurt-cu-stracciatella-500g","unitPriceLabel":"19,38 Lei/kg","brand":"Müller","brandCode":"258","brandFilterCode":"muller-b259","sku":"100003522","price":9.69,"originalPrice":null,"currencyCode":"RON","currency":"Lei","image":{"thumbnail":{"default":"https://cdn.freshful.ro/media/cache/sylius_shop_product_thumbnail/cf/40/431e5b73675408984e3beee52bb6.jpg"},"large":{"default":"https://cdn.freshful.ro/media/cache/freshful_large/cf/40/431e5b73675408984e3beee52bb6.jpg"},"extralarge":{"default":"https://cdn.freshful.ro/media/cache/sylius_shop_product_original/cf/40/431e5b73675408984e3beee52bb6.jpg"}},"label":null,"tags":[],"isAvailable":true,"maxAvailableQuantity":68,"maxAllowedQuantity":100,"breadcrumbs":[{"code":"4","name":"Lactate & ouă","slug":"4-lactate-branzeturi-si-oua"},{"code":"404","name":"Iaurt, desert și sana","slug":"404-iaurt-desert-si-sana"},{"code":"40404","name":"Iaurt cu fructe și arome","slug":"40404-iaurt-fructe-si-cu-arome"},{"code":"100003522","name":"Iaurt cu stracciatella 500g","slug":"100003522-muller-iaurt-cu-stracciatella-500g"}],"activePromotion":null,"saveMe":null,"labels":[],"geniusPrice":null,"geniusUnitPricePerLabel":null,"banner":null,"discountLabel":null,"geniusDiscountLabel":null,"badge":null},{"code":"100003520","variantCode":"4025500002282","name":"Iaurt cu bucăți de mure și zmeură 500g","slug":"100003520-muller-iaurt-cu-bucati-de-mure-si-zmeura-500g","unitPriceLabel":"19,38 Lei/kg","brand":"Müller","brandCode":"258","brandFilterCode":"muller-b259","sku":"100003520","price":9.69,"originalPrice":null,"currencyCode":"RON","currency":"Lei","image":{"thumbnail":{"default":"https://cdn.freshful.ro/media/cache/sylius_shop_product_thumbnail/43/16/d9d4d81bb3c5b8f7172f4753b5a7.jpg"},"large":{"default":"https://cdn.freshful.ro/media/cache/freshful_large/43/16/d9d4d81bb3c5b8f7172f4753b5a7.jpg"},"extralarge":{"default":"https://cdn.freshful.ro/media/cache/sylius_shop_product_original/43/16/d9d4d81bb3c5b8f7172f4753b5a7.jpg"}},"label":null,"tags":[],"isAvailable":true,"maxAvailableQuantity":52,"maxAllowedQuantity":100,"breadcrumbs":[{"code":"4","name":"Lactate & ouă","slug":"4-lactate-branzeturi-si-oua"},{"code":"404","name":"Iaurt, desert și sana","slug":"404-iaurt-desert-si-sana"},{"code":"40404","name":"Iaurt cu fructe și arome","slug":"40404-iaurt-fructe-si-cu-arome"},{"code":"100003520","name":"Iaurt cu bucăți de mure și zmeură 500g","slug":"100003520-muller-iaurt-cu-bucati-de-mure-si-zmeura-500g"}],"activePromotion":null,"saveMe":null,"labels":[],"geniusPrice":null,"geniusUnitPricePerLabel":null,"banner":null,"discountLabel":null,"geniusDiscountLabel":null,"badge":null},{"code":"100003518","variantCode":"100003518","name":"Iaurt cu bucăți de căpșuni 500g","slug":"100003518-muller-iaurt-cu-bucati-de-capsuni-500g","unitPriceLabel":"19,38 Lei/kg","brand":"Müller","brandCode":"258","brandFilterCode":"muller-b259","sku":"100003518","price":9.69,"originalPrice":null,"currencyCode":"RON","currency":"Lei","image":{"thumbnail":{"default":"https://cdn.freshful.ro/media/cache/sylius_shop_product_thumbnail/2a/0e/800a7b7b843e0fa4a3b208e4db2e.jpg"},"large":{"default":"https://cdn.freshful.ro/media/cache/freshful_large/2a/0e/800a7b7b843e0fa4a3b208e4db2e.jpg"},"extralarge":{"default":"https://cdn.freshful.ro/media/cache/sylius_shop_product_original/2a/0e/800a7b7b843e0fa4a3b208e4db2e.jpg"}},"label":null,"tags":[],"isAvailable":true,"maxAvailableQuantity":81,"maxAllowedQuantity":100,"breadcrumbs":[{"code":"4","name":"Lactate & ouă","slug":"4-lactate-branzeturi-si-oua"},{"code":"404","name":"Iaurt, desert și sana","slug":"404-iaurt-desert-si-sana"},{"code":"40404","name":"Iaurt cu fructe și arome","slug":"40404-iaurt-fructe-si-cu-arome"},{"code":"100003518","name":"Iaurt cu bucăți de căpșuni 500g","slug":"100003518-muller-iaurt-cu-bucati-de-capsuni-500g"}],"activePromotion":null,"saveMe":null,"labels":[],"geniusPrice":null,"geniusUnitPricePerLabel":null,"banner":null,"discountLabel":null,"geniusDiscountLabel":null,"badge":null},{"code":"100003528","variantCode":"4025500205072","name":"Pachet iaurt cu stracciatella 2x125g","slug":"100003528-muller-pachet-iaurt-cu-stracciatella-2x125g","unitPriceLabel":"23,4 Lei/kg","brand":"Müller","brandCode":"258","brandFilterCode":"muller-b259","sku":"100003528","price":5.85,"originalPrice":null,"currencyCode":"RON","currency":"Lei","image":{"thumbnail":{"default":"https://cdn.freshful.ro/media/cache/sylius_shop_product_thumbnail/84/f9/cd6c776d8cd5d0cc0e0909999701.jpg"},"large":{"default":"https://cdn.freshful.ro/media/cache/freshful_large/84/f9/cd6c776d8cd5d0cc0e0909999701.jpg"},"extralarge":{"default":"https://cdn.freshful.ro/media/cache/sylius_shop_product_original/84/f9/cd6c776d8cd5d0cc0e0909999701.jpg"}},"label":null,"tags":[],"isAvailable":true,"maxAvailableQuantity":54,"maxAllowedQuantity":100,"breadcrumbs":[{"code":"4","name":"Lactate & ouă","slug":"4-lactate-branzeturi-si-oua"},{"code":"404","name":"Iaurt, desert și sana","slug":"404-iaurt-desert-si-sana"},{"code":"40404","name":"Iaurt cu fructe și arome","slug":"40404-iaurt-fructe-si-cu-arome"},{"code":"100003528","name":"Pachet iaurt cu stracciatella 2x125g","slug":"100003528-muller-pachet-iaurt-cu-stracciatella-2x125g"}],"activePromotion":null,"saveMe":null,"labels":[],"geniusPrice":null,"geniusUnitPricePerLabel":null,"banner":null,"discountLabel":null,"geniusDiscountLabel":null,"badge":null}],"filters":{"countSelected":0,"items":[{"code":"brand","name":"Brand","countSelected":0,"values":[{"code":"cremosso-b33","name":"Cremosso","isSelected":false,"count":6},{"code":"delicios-b32","name":"Delicios","isSelected":false,"count":1},{"code":"gustolact-b502","name":"Gustolact","isSelected":false,"count":2},{"code":"kolios-b2855","name":"Kolios","isSelected":false,"count":3},{"code":"muller-b259","name":"Müller","isSelected":false,"count":22},{"code":"olympus-b40","name":"Olympus","isSelected":false,"count":4},{"code":"zuzu-b45","name":"Zuzu","isSelected":false,"count":5},{"code":"zuzu-dolce-b2","name":"Zuzu Dolce","isSelected":false,"count":1}]},{"code":"diet_lifestyle","name":"Dietă și lifestyle","countSelected":0,"values":[{"code":"made-in-romania-a85","name":"Made In Romania","isSelected":false,"count":11},{"code":"natural-a27","name":"Natural","isSelected":false,"count":1}]}]},"orderBy":[{"field":"price","direction":"asc","name":"Preț crescător","isSelected":false},{"field":"price","direction":"desc","name":"Preț descrescător","isSelected":false},{"field":"popularity","direction":"desc","name":"Cele mai populare","isSelected":true},{"field":"category","direction":"asc","name":"Categorie","isSelected":false}],"metaTitle":"Iaurt cu fructe și arome - Gamă variată","metaDescription":"Vrei Iaurt cu fructe și arome? Alege dintr-o gamă variată. Comanzi simplu și ai livrare rapidă, calitate și prospețime. Hai pe Freshful.ro","metaKeywords":null,"banners":[]}}