{"type":"subcategory","payload":{"analyticsListId":"category_40409-deserturi","analyticsListName":"Category - Deserturi","name":"Deserturi","slug":"40409-deserturi","image":null,"breadcrumbs":[{"code":"4","name":"Lactate & ouă","slug":"4-lactate-branzeturi-si-oua"},{"code":"404","name":"Iaurt, desert și sana","slug":"404-iaurt-desert-si-sana"},{"code":"40409","name":"Deserturi","slug":"40409-deserturi"}],"slots":[],"page":1,"limit":10,"pages":4,"count":37,"siblings":[{"name":"Lapte, smântână și brânză proaspătă","slug":"401-lapte-smantana-si-branza-proaspata","selected":false},{"name":"Unt","slug":"402-unt-si-margarina","selected":false},{"name":"Lactate UHT","slug":"403-lactate-uht","selected":false},{"name":"Iaurt, desert și sana","slug":"404-iaurt-desert-si-sana","selected":true},{"name":"Ouă","slug":"405-oua","selected":false},{"name":"Brânzeturi","slug":"406-branzeturi","selected":false},{"name":"Lapte și lactate ECO","slug":"lapte-si-lactate-eco","selected":false},{"name":"Amestecuri lactate și grasimi vegetale","slug":"amestecuri-lactate-si-grasimi-vegetale","selected":false}],"children":[{"name":"Toate produsele","slug":"404-iaurt-desert-si-sana","selected":false},{"name":"Probiotice și bifidus","slug":"40401-probiotice-si-bifidus","selected":false},{"name":"Iaurturi și deserturi fără lactoză","slug":"40402-iaurturi-si-deserturi-fara-lactoza","selected":false},{"name":"Iaurt simplu","slug":"40403-iaurt-simplu","selected":false},{"name":"Iaurt cu fructe și arome","slug":"40404-iaurt-fructe-si-cu-arome","selected":false},{"name":"Iaurt de băut","slug":"40405-iaurt-de-baut","selected":false},{"name":"Lactate dietetice","slug":"40407-lactate-dietetice","selected":false},{"name":"Deserturi","slug":"40409-deserturi","selected":true},{"name":"Lapte bătut, chefir și sana","slug":"40410-lapte-batut-chefir-si-sana","selected":false},{"name":"Produse lactate pentru copii","slug":"40411-produse-lactate-pentru-copii","selected":false}],"products":[{"code":"100145104","variantCode":"100145104","name":"Profiterol 450g","slug":"100145104-dolce-italia-profiterol-450g","unitPriceLabel":"46,64 Lei/kg","brand":"Dolce Italia","brandCode":"2802","brandFilterCode":"dolce-italia-b2889","sku":"100145104","price":20.99,"originalPrice":23.49,"currencyCode":"RON","currency":"Lei","image":{"thumbnail":{"default":"https://cdn.freshful.ro/media/cache/sylius_shop_product_thumbnail/72/8e/0ebac27bb0639003c956c07a02c3.jpg"},"large":{"default":"https://cdn.freshful.ro/media/cache/freshful_large/72/8e/0ebac27bb0639003c956c07a02c3.jpg"},"extralarge":{"default":"https://cdn.freshful.ro/media/cache/sylius_shop_product_original/72/8e/0ebac27bb0639003c956c07a02c3.jpg"}},"label":{"text":"-10%","backgroundColor":"#FF9903","textColor":"#FFFFFF"},"tags":[],"isAvailable":true,"maxAvailableQuantity":83,"maxAllowedQuantity":100,"breadcrumbs":[{"code":"4","name":"Lactate & ouă","slug":"4-lactate-branzeturi-si-oua"},{"code":"404","name":"Iaurt, desert și sana","slug":"404-iaurt-desert-si-sana"},{"code":"40409","name":"Deserturi","slug":"40409-deserturi"},{"code":"100145104","name":"Profiterol 450g","slug":"100145104-dolce-italia-profiterol-450g"}],"activePromotion":{"code":"bunatatile-saptamanii-cw0923","name":"Preț redus","targetQuantity":null},"saveMe":null,"labels":[{"type":"v1","items":[{"text":"-10%","backgroundColor":"#FF9903","textColor":"#FFFFFF"}]}],"geniusPrice":null,"geniusUnitPricePerLabel":null,"banner":{"text":"Super preț","textColor":"#FF0000","bgColor":"#FFF2EC","icon":null,"link":"https://www.freshful.ro/oferte/bunatatile-saptamanii-cw0923","type":"promo","analyticsEventType":"select_promotion","analyticsEventPayload":{"promotion_id":"bunatatile-saptamanii-cw0923","promotion_name":"Oferta proaspătă a săptămânii"}},"discountLabel":"Economisești 10%","geniusDiscountLabel":null,"badge":null},{"code":"100145105","variantCode":"100145105","name":"Tiramisu 500g","slug":"100145105-dolce-italia-tiramisu-500g","unitPriceLabel":"41,98 Lei/kg","brand":"Dolce Italia","brandCode":"2802","brandFilterCode":"dolce-italia-b2889","sku":"100145105","price":20.99,"originalPrice":23.49,"currencyCode":"RON","currency":"Lei","image":{"thumbnail":{"default":"https://cdn.freshful.ro/media/cache/sylius_shop_product_thumbnail/9f/dd/d79c09bd79eb7a8980e534f6f9d8.jpg"},"large":{"default":"https://cdn.freshful.ro/media/cache/freshful_large/9f/dd/d79c09bd79eb7a8980e534f6f9d8.jpg"},"extralarge":{"default":"https://cdn.freshful.ro/media/cache/sylius_shop_product_original/9f/dd/d79c09bd79eb7a8980e534f6f9d8.jpg"}},"label":{"text":"-10%","backgroundColor":"#FF9903","textColor":"#FFFFFF"},"tags":[{"type":"NoPreservatives","text":"Fara conservanti","icon":"https://cdn.freshful.ro/assets/product_tags/fara_conservanti.svg","iconPng":"https://cdn.freshful.ro/assets/product_tags/fara_conservanti.png","backgroundColor":"#F0F2FF","textColor":"#7889DD"}],"isAvailable":true,"maxAvailableQuantity":56,"maxAllowedQuantity":100,"breadcrumbs":[{"code":"4","name":"Lactate & ouă","slug":"4-lactate-branzeturi-si-oua"},{"code":"404","name":"Iaurt, desert și sana","slug":"404-iaurt-desert-si-sana"},{"code":"40409","name":"Deserturi","slug":"40409-deserturi"},{"code":"100145105","name":"Tiramisu 500g","slug":"100145105-dolce-italia-tiramisu-500g"}],"activePromotion":{"code":"bunatatile-saptamanii-cw0923","name":"Preț redus","targetQuantity":null},"saveMe":null,"labels":[{"type":"v1","items":[{"text":"-10%","backgroundColor":"#FF9903","textColor":"#FFFFFF"}]}],"geniusPrice":null,"geniusUnitPricePerLabel":null,"banner":{"text":"Super preț","textColor":"#FF0000","bgColor":"#FFF2EC","icon":null,"link":"https://www.freshful.ro/oferte/bunatatile-saptamanii-cw0923","type":"promo","analyticsEventType":"select_promotion","analyticsEventPayload":{"promotion_id":"bunatatile-saptamanii-cw0923","promotion_name":"Oferta proaspătă a săptămânii"}},"discountLabel":"Economisești 10%","geniusDiscountLabel":null,"badge":null},{"code":"100032526","variantCode":"4008400290423","name":"Prăjitură cu lapte Pingui 4x30g","slug":"100032526-kinder-prajitura-cu-lapte-pingui-4x30g","unitPriceLabel":"66,29 Lei/kg","brand":"Kinder","brandCode":"19","brandFilterCode":"kinder-b11","sku":"100032526","price":8.22,"originalPrice":null,"currencyCode":"RON","currency":"Lei","image":{"thumbnail":{"default":"https://cdn.freshful.ro/media/cache/sylius_shop_product_thumbnail/cd/88/7913d5bb40c052958f5d21045ceb.jpg"},"large":{"default":"https://cdn.freshful.ro/media/cache/freshful_large/cd/88/7913d5bb40c052958f5d21045ceb.jpg"},"extralarge":{"default":"https://cdn.freshful.ro/media/cache/sylius_shop_product_original/cd/88/7913d5bb40c052958f5d21045ceb.jpg"}},"label":null,"tags":[],"isAvailable":true,"maxAvailableQuantity":100,"maxAllowedQuantity":100,"breadcrumbs":[{"code":"4","name":"Lactate & ouă","slug":"4-lactate-branzeturi-si-oua"},{"code":"404","name":"Iaurt, desert și sana","slug":"404-iaurt-desert-si-sana"},{"code":"40409","name":"Deserturi","slug":"40409-deserturi"},{"code":"100032526","name":"Prăjitură cu lapte Pingui 4x30g","slug":"100032526-kinder-prajitura-cu-lapte-pingui-4x30g"}],"activePromotion":null,"saveMe":null,"labels":[],"geniusPrice":null,"geniusUnitPricePerLabel":null,"banner":null,"discountLabel":null,"geniusDiscountLabel":null,"badge":null},{"code":"100037232","variantCode":"4023600013474","name":"Budincă proteică cu ciocolată 400g","slug":"100037232-dr-oetker-budinca-proteica-cu-ciocolata-400g","unitPriceLabel":"42,48 Lei/kg","brand":"Dr. Oetker","brandCode":"55","brandFilterCode":"dr-oetker-b51","sku":"100037232","price":16.99,"originalPrice":null,"currencyCode":"RON","currency":"Lei","image":{"thumbnail":{"default":"https://cdn.freshful.ro/media/cache/sylius_shop_product_thumbnail/1e/90/d1bcd8f8486c9d79bbe8822eba1c.jpg"},"large":{"default":"https://cdn.freshful.ro/media/cache/freshful_large/1e/90/d1bcd8f8486c9d79bbe8822eba1c.jpg"},"extralarge":{"default":"https://cdn.freshful.ro/media/cache/sylius_shop_product_original/1e/90/d1bcd8f8486c9d79bbe8822eba1c.jpg"}},"label":null,"tags":[{"type":"NoAddedSugar","text":"Fara zahar adaugat","icon":"https://cdn.freshful.ro/assets/product_tags/fara_zahar_adaugat.svg","iconPng":"https://cdn.freshful.ro/assets/product_tags/fara_zahar_adaugat.png","backgroundColor":"#F8EDF7","textColor":"#C05EBC"}],"isAvailable":true,"maxAvailableQuantity":100,"maxAllowedQuantity":100,"breadcrumbs":[{"code":"4","name":"Lactate & ouă","slug":"4-lactate-branzeturi-si-oua"},{"code":"404","name":"Iaurt, desert și sana","slug":"404-iaurt-desert-si-sana"},{"code":"40409","name":"Deserturi","slug":"40409-deserturi"},{"code":"100037232","name":"Budincă proteică cu ciocolată 400g","slug":"100037232-dr-oetker-budinca-proteica-cu-ciocolata-400g"}],"activePromotion":null,"saveMe":null,"labels":[],"geniusPrice":null,"geniusUnitPricePerLabel":null,"banner":null,"discountLabel":null,"geniusDiscountLabel":null,"badge":null},{"code":"100037231","variantCode":"4023600013511","name":"Budincă proteică cu griș 400g","slug":"100037231-dr-oetker-budinca-proteica-cu-gris-400g","unitPriceLabel":"29,73 Lei/kg","brand":"Dr. Oetker","brandCode":"55","brandFilterCode":"dr-oetker-b51","sku":"100037231","price":11.89,"originalPrice":null,"currencyCode":"RON","currency":"Lei","image":{"thumbnail":{"default":"https://cdn.freshful.ro/media/cache/sylius_shop_product_thumbnail/24/14/9a1b3c3f3a66ca13c9e6321b5ffc.jpg"},"large":{"default":"https://cdn.freshful.ro/media/cache/freshful_large/24/14/9a1b3c3f3a66ca13c9e6321b5ffc.jpg"},"extralarge":{"default":"https://cdn.freshful.ro/media/cache/sylius_shop_product_original/24/14/9a1b3c3f3a66ca13c9e6321b5ffc.jpg"}},"label":null,"tags":[{"type":"NoAddedSugar","text":"Fara zahar adaugat","icon":"https://cdn.freshful.ro/assets/product_tags/fara_zahar_adaugat.svg","iconPng":"https://cdn.freshful.ro/assets/product_tags/fara_zahar_adaugat.png","backgroundColor":"#F8EDF7","textColor":"#C05EBC"}],"isAvailable":true,"maxAvailableQuantity":88,"maxAllowedQuantity":100,"breadcrumbs":[{"code":"4","name":"Lactate & ouă","slug":"4-lactate-branzeturi-si-oua"},{"code":"404","name":"Iaurt, desert și sana","slug":"404-iaurt-desert-si-sana"},{"code":"40409","name":"Deserturi","slug":"40409-deserturi"},{"code":"100037231","name":"Budincă proteică cu griș 400g","slug":"100037231-dr-oetker-budinca-proteica-cu-gris-400g"}],"activePromotion":null,"saveMe":null,"labels":[],"geniusPrice":null,"geniusUnitPricePerLabel":null,"banner":null,"discountLabel":null,"geniusDiscountLabel":null,"badge":null},{"code":"100037233","variantCode":"4023600013498","name":"Budincă proteică cu vanilie 400g","slug":"100037233-dr-oetker-budinca-proteica-cu-vanilie-400g","unitPriceLabel":"42,48 Lei/kg","brand":"Dr. Oetker","brandCode":"55","brandFilterCode":"dr-oetker-b51","sku":"100037233","price":16.99,"originalPrice":null,"currencyCode":"RON","currency":"Lei","image":{"thumbnail":{"default":"https://cdn.freshful.ro/media/cache/sylius_shop_product_thumbnail/9b/13/c5409d11d3fa4f795661ac772419.jpg"},"large":{"default":"https://cdn.freshful.ro/media/cache/freshful_large/9b/13/c5409d11d3fa4f795661ac772419.jpg"},"extralarge":{"default":"https://cdn.freshful.ro/media/cache/sylius_shop_product_original/9b/13/c5409d11d3fa4f795661ac772419.jpg"}},"label":null,"tags":[{"type":"NoAddedSugar","text":"Fara zahar adaugat","icon":"https://cdn.freshful.ro/assets/product_tags/fara_zahar_adaugat.svg","iconPng":"https://cdn.freshful.ro/assets/product_tags/fara_zahar_adaugat.png","backgroundColor":"#F8EDF7","textColor":"#C05EBC"}],"isAvailable":true,"maxAvailableQuantity":100,"maxAllowedQuantity":100,"breadcrumbs":[{"code":"4","name":"Lactate & ouă","slug":"4-lactate-branzeturi-si-oua"},{"code":"404","name":"Iaurt, desert și sana","slug":"404-iaurt-desert-si-sana"},{"code":"40409","name":"Deserturi","slug":"40409-deserturi"},{"code":"100037233","name":"Budincă proteică cu vanilie 400g","slug":"100037233-dr-oetker-budinca-proteica-cu-vanilie-400g"}],"activePromotion":null,"saveMe":null,"labels":[],"geniusPrice":null,"geniusUnitPricePerLabel":null,"banner":null,"discountLabel":null,"geniusDiscountLabel":null,"badge":null},{"code":"100004470","variantCode":"8690526067803","name":"Prăjitură Milk Burger cu lapte și miere 35g ","slug":"100004470-eti-prajitura-milk-burger-cu-lapte-si-miere-35g","unitPriceLabel":"64,29 Lei/kg","brand":"Eti","brandCode":"35","brandFilterCode":"eti-b29","sku":"100004470","price":2.25,"originalPrice":null,"currencyCode":"RON","currency":"Lei","image":{"thumbnail":{"default":"https://cdn.freshful.ro/media/cache/sylius_shop_product_thumbnail/24/40/95c3c4fa47386599f5f07ce17a59.jpg"},"large":{"default":"https://cdn.freshful.ro/media/cache/freshful_large/24/40/95c3c4fa47386599f5f07ce17a59.jpg"},"extralarge":{"default":"https://cdn.freshful.ro/media/cache/sylius_shop_product_original/24/40/95c3c4fa47386599f5f07ce17a59.jpg"}},"label":null,"tags":[],"isAvailable":true,"maxAvailableQuantity":100,"maxAllowedQuantity":100,"breadcrumbs":[{"code":"4","name":"Lactate & ouă","slug":"4-lactate-branzeturi-si-oua"},{"code":"404","name":"Iaurt, desert și sana","slug":"404-iaurt-desert-si-sana"},{"code":"40409","name":"Deserturi","slug":"40409-deserturi"},{"code":"100004470","name":"Prăjitură Milk Burger cu lapte și miere 35g ","slug":"100004470-eti-prajitura-milk-burger-cu-lapte-si-miere-35g"}],"activePromotion":null,"saveMe":null,"labels":[],"geniusPrice":null,"geniusUnitPricePerLabel":null,"banner":null,"discountLabel":null,"geniusDiscountLabel":null,"badge":null},{"code":"100138420","variantCode":"100138420","name":"Orez cu lapte și scorțișoară fără zahăr adăugat 200g","slug":"100138420-muller-orez-cu-lapte-si-scortisoara-fara-zahar-adaugat-200g","unitPriceLabel":"27,45 Lei/kg","brand":"Müller","brandCode":"258","brandFilterCode":"muller-b259","sku":"100138420","price":5.49,"originalPrice":null,"currencyCode":"RON","currency":"Lei","image":{"thumbnail":{"default":"https://cdn.freshful.ro/media/cache/sylius_shop_product_thumbnail/c2/6e/36cd737ea6231d2ec7b89f68268d.jpg"},"large":{"default":"https://cdn.freshful.ro/media/cache/freshful_large/c2/6e/36cd737ea6231d2ec7b89f68268d.jpg"},"extralarge":{"default":"https://cdn.freshful.ro/media/cache/sylius_shop_product_original/c2/6e/36cd737ea6231d2ec7b89f68268d.jpg"}},"label":null,"tags":[{"type":"NoAddedSugar","text":"Fara zahar adaugat","icon":"https://cdn.freshful.ro/assets/product_tags/fara_zahar_adaugat.svg","iconPng":"https://cdn.freshful.ro/assets/product_tags/fara_zahar_adaugat.png","backgroundColor":"#F8EDF7","textColor":"#C05EBC"}],"isAvailable":true,"maxAvailableQuantity":53,"maxAllowedQuantity":100,"breadcrumbs":[{"code":"4","name":"Lactate & ouă","slug":"4-lactate-branzeturi-si-oua"},{"code":"404","name":"Iaurt, desert și sana","slug":"404-iaurt-desert-si-sana"},{"code":"40409","name":"Deserturi","slug":"40409-deserturi"},{"code":"100138420","name":"Orez cu lapte și scorțișoară fără zahăr adăugat 200g","slug":"100138420-muller-orez-cu-lapte-si-scortisoara-fara-zahar-adaugat-200g"}],"activePromotion":null,"saveMe":null,"labels":[],"geniusPrice":null,"geniusUnitPricePerLabel":null,"banner":null,"discountLabel":null,"geniusDiscountLabel":null,"badge":null},{"code":"100003533","variantCode":"100003533","name":"Budincă de griș și sos de cireșe 450g","slug":"100003533-muller-budinca-de-gris-si-sos-de-cirese-450g","unitPriceLabel":"19,22 Lei/kg","brand":"Müller","brandCode":"258","brandFilterCode":"muller-b259","sku":"100003533","price":8.65,"originalPrice":null,"currencyCode":"RON","currency":"Lei","image":{"thumbnail":{"default":"https://cdn.freshful.ro/media/cache/sylius_shop_product_thumbnail/60/0a/d53bc43a252edc46a2f6588eb1fd.jpg"},"large":{"default":"https://cdn.freshful.ro/media/cache/freshful_large/60/0a/d53bc43a252edc46a2f6588eb1fd.jpg"},"extralarge":{"default":"https://cdn.freshful.ro/media/cache/sylius_shop_product_original/60/0a/d53bc43a252edc46a2f6588eb1fd.jpg"}},"label":null,"tags":[],"isAvailable":true,"maxAvailableQuantity":49,"maxAllowedQuantity":100,"breadcrumbs":[{"code":"4","name":"Lactate & ouă","slug":"4-lactate-branzeturi-si-oua"},{"code":"404","name":"Iaurt, desert și sana","slug":"404-iaurt-desert-si-sana"},{"code":"40409","name":"Deserturi","slug":"40409-deserturi"},{"code":"100003533","name":"Budincă de griș și sos de cireșe 450g","slug":"100003533-muller-budinca-de-gris-si-sos-de-cirese-450g"}],"activePromotion":null,"saveMe":null,"labels":[],"geniusPrice":null,"geniusUnitPricePerLabel":null,"banner":null,"discountLabel":null,"geniusDiscountLabel":null,"badge":null},{"code":"100004469","variantCode":"5997536140131","name":"Budincă cu gust de vanilie 125g","slug":"100004469-danette-budinca-cu-gust-de-vanilie-125g","unitPriceLabel":"25,52 Lei/kg","brand":"Danette","brandCode":"34","brandFilterCode":"danette-b28","sku":"100004469","price":3.19,"originalPrice":null,"currencyCode":"RON","currency":"Lei","image":{"thumbnail":{"default":"https://cdn.freshful.ro/media/cache/sylius_shop_product_thumbnail/57/8d/eb06c3c6a8ef3580494732d42471.jpg"},"large":{"default":"https://cdn.freshful.ro/media/cache/freshful_large/57/8d/eb06c3c6a8ef3580494732d42471.jpg"},"extralarge":{"default":"https://cdn.freshful.ro/media/cache/sylius_shop_product_original/57/8d/eb06c3c6a8ef3580494732d42471.jpg"}},"label":null,"tags":[],"isAvailable":true,"maxAvailableQuantity":100,"maxAllowedQuantity":100,"breadcrumbs":[{"code":"4","name":"Lactate & ouă","slug":"4-lactate-branzeturi-si-oua"},{"code":"404","name":"Iaurt, desert și sana","slug":"404-iaurt-desert-si-sana"},{"code":"40409","name":"Deserturi","slug":"40409-deserturi"},{"code":"100004469","name":"Budincă cu gust de vanilie 125g","slug":"100004469-danette-budinca-cu-gust-de-vanilie-125g"}],"activePromotion":null,"saveMe":null,"labels":[],"geniusPrice":null,"geniusUnitPricePerLabel":null,"banner":null,"discountLabel":null,"geniusDiscountLabel":null,"badge":null}],"filters":{"countSelected":0,"items":[{"code":"promotion","name":"Promoții","countSelected":0,"values":[{"code":"bunatatile-saptamanii-cw0923","name":"Oferta proaspătă a săptămânii","isSelected":false,"count":2}]},{"code":"brand","name":"Brand","countSelected":0,"values":[{"code":"danette-b28","name":"Danette","isSelected":false,"count":3},{"code":"dolce-italia-b2889","name":"Dolce Italia","isSelected":false,"count":2},{"code":"dots-b81","name":"Dots","isSelected":false,"count":1},{"code":"dr-oetker-b51","name":"Dr. Oetker","isSelected":false,"count":3},{"code":"eti-b29","name":"Eti","isSelected":false,"count":1},{"code":"exquisa-b396","name":"Exquisa","isSelected":false,"count":2},{"code":"kinder-b11","name":"Kinder","isSelected":false,"count":4},{"code":"milka-b470","name":"Milka","isSelected":false,"count":1},{"code":"muller-b259","name":"Müller","isSelected":false,"count":15},{"code":"nesquik-b56","name":"Nesquik","isSelected":false,"count":1},{"code":"oreo-b469","name":"Oreo","isSelected":false,"count":1},{"code":"zuzu-dolce-b2","name":"Zuzu Dolce","isSelected":false,"count":3}]},{"code":"diet_lifestyle","name":"Dietă și lifestyle","countSelected":0,"values":[{"code":"fara-conservanti-a37","name":"Fara conservanti","isSelected":false,"count":1},{"code":"fara-zahar-adaugat-a29","name":"Fara zahar adaugat","isSelected":false,"count":11}]}]},"orderBy":[{"field":"price","direction":"asc","name":"Preț crescător","isSelected":false},{"field":"price","direction":"desc","name":"Preț descrescător","isSelected":false},{"field":"popularity","direction":"desc","name":"Cele mai populare","isSelected":true},{"field":"category","direction":"asc","name":"Categorie","isSelected":false}],"metaTitle":"Deserturi - Gamă variată","metaDescription":"Vrei Deserturi? Alege dintr-o gamă variată. Comanzi simplu și ai livrare rapidă, calitate și prospețime. Hai pe Freshful.ro","metaKeywords":null,"banners":[]}}