{"type":"subcategory","payload":{"analyticsListId":"category_40403-iaurt-simplu","analyticsListName":"Category - Iaurt simplu","name":"Iaurt simplu","slug":"40403-iaurt-simplu","image":null,"breadcrumbs":[{"code":"4","name":"Lactate & ouă","slug":"4-lactate-branzeturi-si-oua"},{"code":"404","name":"Iaurt, desert și sana","slug":"404-iaurt-desert-si-sana"},{"code":"40403","name":"Iaurt simplu","slug":"40403-iaurt-simplu"}],"slots":[],"page":1,"limit":10,"pages":7,"count":64,"siblings":[{"name":"Lapte, smântână și brânză proaspătă","slug":"401-lapte-smantana-si-branza-proaspata","selected":false},{"name":"Unt","slug":"402-unt-si-margarina","selected":false},{"name":"Lactate UHT","slug":"403-lactate-uht","selected":false},{"name":"Iaurt, desert și sana","slug":"404-iaurt-desert-si-sana","selected":true},{"name":"Ouă","slug":"405-oua","selected":false},{"name":"Brânzeturi","slug":"406-branzeturi","selected":false},{"name":"Lapte și lactate ECO","slug":"lapte-si-lactate-eco","selected":false},{"name":"Amestecuri lactate și grasimi vegetale","slug":"amestecuri-lactate-si-grasimi-vegetale","selected":false}],"children":[{"name":"Toate produsele","slug":"404-iaurt-desert-si-sana","selected":false},{"name":"Probiotice și bifidus","slug":"40401-probiotice-si-bifidus","selected":false},{"name":"Iaurturi și deserturi fără lactoză","slug":"40402-iaurturi-si-deserturi-fara-lactoza","selected":false},{"name":"Iaurt simplu","slug":"40403-iaurt-simplu","selected":true},{"name":"Iaurt cu fructe și arome","slug":"40404-iaurt-fructe-si-cu-arome","selected":false},{"name":"Iaurt de băut","slug":"40405-iaurt-de-baut","selected":false},{"name":"Lactate dietetice","slug":"40407-lactate-dietetice","selected":false},{"name":"Deserturi","slug":"40409-deserturi","selected":false},{"name":"Lapte bătut, chefir și sana","slug":"40410-lapte-batut-chefir-si-sana","selected":false},{"name":"Produse lactate pentru copii","slug":"40411-produse-lactate-pentru-copii","selected":false}],"products":[{"code":"100143880","variantCode":"100143880","name":"Iaurt grecesc 10% grăsime, 500g","slug":"100143880-kolios-iaurt-grecesc-10-grasime-500g","unitPriceLabel":"25,98 Lei/kg","brand":"Kolios","brandCode":"2781","brandFilterCode":"kolios-b2855","sku":"100143880","price":12.99,"originalPrice":null,"currencyCode":"RON","currency":"Lei","image":{"thumbnail":{"default":"https://cdn.freshful.ro/media/cache/sylius_shop_product_thumbnail/2b/51/7076ecb270baf7e50099506a2ed3.jpg"},"large":{"default":"https://cdn.freshful.ro/media/cache/freshful_large/2b/51/7076ecb270baf7e50099506a2ed3.jpg"},"extralarge":{"default":"https://cdn.freshful.ro/media/cache/sylius_shop_product_original/2b/51/7076ecb270baf7e50099506a2ed3.jpg"}},"label":{"text":"-20% cu Genius","backgroundColor":"#FEF3FA","textColor":"#CD015F"},"tags":[{"type":"Natural","text":"Natural","icon":"https://cdn.freshful.ro/assets/product_tags/natural.svg","iconPng":"https://cdn.freshful.ro/assets/product_tags/natural.png","backgroundColor":"#E9FCF2","textColor":"#18AF62"}],"isAvailable":true,"maxAvailableQuantity":100,"maxAllowedQuantity":100,"breadcrumbs":[{"code":"4","name":"Lactate & ouă","slug":"4-lactate-branzeturi-si-oua"},{"code":"404","name":"Iaurt, desert și sana","slug":"404-iaurt-desert-si-sana"},{"code":"40403","name":"Iaurt simplu","slug":"40403-iaurt-simplu"},{"code":"100143880","name":"Iaurt grecesc 10% grăsime, 500g","slug":"100143880-kolios-iaurt-grecesc-10-grasime-500g"}],"activePromotion":null,"saveMe":null,"labels":[{"type":"gdeals","items":[{"text":"","backgroundColor":"","textColor":""}]},{"type":"v3","items":[{"text":"-20% cu Genius","backgroundColor":"#FEF3FA","textColor":"#CD015F"}]}],"geniusPrice":10.39,"geniusUnitPricePerLabel":"20,78 Lei/kg","banner":null,"discountLabel":null,"geniusDiscountLabel":"Economisești 20%","badge":null},{"code":"100032081","variantCode":"5941875901496","name":"Iaurt cu specific grecesc natur 10% grăsime 4x150g","slug":"100032081-olympus-iaurt-cu-specific-grecesc-natur-10-grasime-4x150g","unitPriceLabel":"19,48 Lei/kg","brand":"Olympus","brandCode":"45","brandFilterCode":"olympus-b40","sku":"100032081","price":11.69,"originalPrice":null,"currencyCode":"RON","currency":"Lei","image":{"thumbnail":{"default":"https://cdn.freshful.ro/media/cache/sylius_shop_product_thumbnail/5e/d8/510f38d8bdd7e5240bd7178a3e45.jpg"},"large":{"default":"https://cdn.freshful.ro/media/cache/freshful_large/5e/d8/510f38d8bdd7e5240bd7178a3e45.jpg"},"extralarge":{"default":"https://cdn.freshful.ro/media/cache/sylius_shop_product_original/5e/d8/510f38d8bdd7e5240bd7178a3e45.jpg"}},"label":null,"tags":[{"type":"MadeInRomania","text":"Made In Romania","icon":"https://cdn.freshful.ro/assets/product_tags/made_in_romania.svg","iconPng":"https://cdn.freshful.ro/assets/product_tags/made_in_romania.png","backgroundColor":"#EDF2FD","textColor":"#1653CA"}],"isAvailable":true,"maxAvailableQuantity":100,"maxAllowedQuantity":100,"breadcrumbs":[{"code":"4","name":"Lactate & ouă","slug":"4-lactate-branzeturi-si-oua"},{"code":"404","name":"Iaurt, desert și sana","slug":"404-iaurt-desert-si-sana"},{"code":"40403","name":"Iaurt simplu","slug":"40403-iaurt-simplu"},{"code":"100032081","name":"Iaurt cu specific grecesc natur 10% grăsime 4x150g","slug":"100032081-olympus-iaurt-cu-specific-grecesc-natur-10-grasime-4x150g"}],"activePromotion":null,"saveMe":null,"labels":[],"geniusPrice":null,"geniusUnitPricePerLabel":null,"banner":null,"discountLabel":null,"geniusDiscountLabel":null,"badge":null},{"code":"100032038","variantCode":"5941875901502","name":"Iaurt cu specific grecesc, 2% grăsime 4x150g","slug":"100032038-olympus-iaurt-cu-specific-grecesc-2-grasime-4x150g","unitPriceLabel":"19,48 Lei/kg","brand":"Olympus","brandCode":"45","brandFilterCode":"olympus-b40","sku":"100032038","price":11.69,"originalPrice":null,"currencyCode":"RON","currency":"Lei","image":{"thumbnail":{"default":"https://cdn.freshful.ro/media/cache/sylius_shop_product_thumbnail/82/85/4e42a0cdf364dc7fcb74340ca275.jpg"},"large":{"default":"https://cdn.freshful.ro/media/cache/freshful_large/82/85/4e42a0cdf364dc7fcb74340ca275.jpg"},"extralarge":{"default":"https://cdn.freshful.ro/media/cache/sylius_shop_product_original/82/85/4e42a0cdf364dc7fcb74340ca275.jpg"}},"label":null,"tags":[],"isAvailable":true,"maxAvailableQuantity":100,"maxAllowedQuantity":100,"breadcrumbs":[{"code":"4","name":"Lactate & ouă","slug":"4-lactate-branzeturi-si-oua"},{"code":"404","name":"Iaurt, desert și sana","slug":"404-iaurt-desert-si-sana"},{"code":"40403","name":"Iaurt simplu","slug":"40403-iaurt-simplu"},{"code":"100032038","name":"Iaurt cu specific grecesc, 2% grăsime 4x150g","slug":"100032038-olympus-iaurt-cu-specific-grecesc-2-grasime-4x150g"}],"activePromotion":null,"saveMe":null,"labels":[],"geniusPrice":null,"geniusUnitPricePerLabel":null,"banner":null,"discountLabel":null,"geniusDiscountLabel":null,"badge":null},{"code":"100003641","variantCode":"5941905044049","name":"Iaurt natural 5% grăsime 300g","slug":"100003641-laptaria-cu-caimac-iaurt-natural-5-grasime-300g","unitPriceLabel":"26,63 Lei/kg","brand":"Lăptăria cu caimac","brandCode":"1","brandFilterCode":"laptaria-cu-caimac-b1","sku":"100003641","price":7.99,"originalPrice":null,"currencyCode":"RON","currency":"Lei","image":{"thumbnail":{"default":"https://cdn.freshful.ro/media/cache/sylius_shop_product_thumbnail/ca/16/481a7d8fb849728f4698d922eef1.jpg"},"large":{"default":"https://cdn.freshful.ro/media/cache/freshful_large/ca/16/481a7d8fb849728f4698d922eef1.jpg"},"extralarge":{"default":"https://cdn.freshful.ro/media/cache/sylius_shop_product_original/ca/16/481a7d8fb849728f4698d922eef1.jpg"}},"label":null,"tags":[{"type":"Natural","text":"Natural","icon":"https://cdn.freshful.ro/assets/product_tags/natural.svg","iconPng":"https://cdn.freshful.ro/assets/product_tags/natural.png","backgroundColor":"#E9FCF2","textColor":"#18AF62"},{"type":"MadeInRomania","text":"Made In Romania","icon":"https://cdn.freshful.ro/assets/product_tags/made_in_romania.svg","iconPng":"https://cdn.freshful.ro/assets/product_tags/made_in_romania.png","backgroundColor":"#EDF2FD","textColor":"#1653CA"}],"isAvailable":true,"maxAvailableQuantity":100,"maxAllowedQuantity":100,"breadcrumbs":[{"code":"4","name":"Lactate & ouă","slug":"4-lactate-branzeturi-si-oua"},{"code":"404","name":"Iaurt, desert și sana","slug":"404-iaurt-desert-si-sana"},{"code":"40403","name":"Iaurt simplu","slug":"40403-iaurt-simplu"},{"code":"100003641","name":"Iaurt natural 5% grăsime 300g","slug":"100003641-laptaria-cu-caimac-iaurt-natural-5-grasime-300g"}],"activePromotion":null,"saveMe":null,"labels":[],"geniusPrice":null,"geniusUnitPricePerLabel":null,"banner":null,"discountLabel":null,"geniusDiscountLabel":null,"badge":null},{"code":"100004062","variantCode":"100004062","name":"Iaurt natural 2% grăsime 150g","slug":"100004062-zuzu-stors-iaurt-natural-2-grasime-150g","unitPriceLabel":"25 Lei/kg","brand":"Zuzu Stors","brandCode":"16","brandFilterCode":"zuzu-stors-b8","sku":"100004062","price":3.75,"originalPrice":null,"currencyCode":"RON","currency":"Lei","image":{"thumbnail":{"default":"https://cdn.freshful.ro/media/cache/sylius_shop_product_thumbnail/37/75/85b5850806e7083df4df553fa246.jpg"},"large":{"default":"https://cdn.freshful.ro/media/cache/freshful_large/37/75/85b5850806e7083df4df553fa246.jpg"},"extralarge":{"default":"https://cdn.freshful.ro/media/cache/sylius_shop_product_original/37/75/85b5850806e7083df4df553fa246.jpg"}},"label":null,"tags":[{"type":"Natural","text":"Natural","icon":"https://cdn.freshful.ro/assets/product_tags/natural.svg","iconPng":"https://cdn.freshful.ro/assets/product_tags/natural.png","backgroundColor":"#E9FCF2","textColor":"#18AF62"},{"type":"MadeInRomania","text":"Made In Romania","icon":"https://cdn.freshful.ro/assets/product_tags/made_in_romania.svg","iconPng":"https://cdn.freshful.ro/assets/product_tags/made_in_romania.png","backgroundColor":"#EDF2FD","textColor":"#1653CA"}],"isAvailable":true,"maxAvailableQuantity":100,"maxAllowedQuantity":100,"breadcrumbs":[{"code":"4","name":"Lactate & ouă","slug":"4-lactate-branzeturi-si-oua"},{"code":"404","name":"Iaurt, desert și sana","slug":"404-iaurt-desert-si-sana"},{"code":"40403","name":"Iaurt simplu","slug":"40403-iaurt-simplu"},{"code":"100004062","name":"Iaurt natural 2% grăsime 150g","slug":"100004062-zuzu-stors-iaurt-natural-2-grasime-150g"}],"activePromotion":null,"saveMe":null,"labels":[],"geniusPrice":null,"geniusUnitPricePerLabel":null,"banner":null,"discountLabel":null,"geniusDiscountLabel":null,"badge":null},{"code":"100032035","variantCode":"100032035","name":"Iaurt Stragghisto cu specific grecesc 2% grăsime 150g","slug":"100032035-olympus-iaurt-stragghisto-cu-specific-grecesc-2-grasime-150g","unitPriceLabel":"25,27 Lei/kg","brand":"Olympus","brandCode":"45","brandFilterCode":"olympus-b40","sku":"100032035","price":3.79,"originalPrice":null,"currencyCode":"RON","currency":"Lei","image":{"thumbnail":{"default":"https://cdn.freshful.ro/media/cache/sylius_shop_product_thumbnail/70/2f/d653c038228b6e4843334d641c70.jpg"},"large":{"default":"https://cdn.freshful.ro/media/cache/freshful_large/70/2f/d653c038228b6e4843334d641c70.jpg"},"extralarge":{"default":"https://cdn.freshful.ro/media/cache/sylius_shop_product_original/70/2f/d653c038228b6e4843334d641c70.jpg"}},"label":null,"tags":[{"type":"MadeInRomania","text":"Made In Romania","icon":"https://cdn.freshful.ro/assets/product_tags/made_in_romania.svg","iconPng":"https://cdn.freshful.ro/assets/product_tags/made_in_romania.png","backgroundColor":"#EDF2FD","textColor":"#1653CA"}],"isAvailable":true,"maxAvailableQuantity":100,"maxAllowedQuantity":100,"breadcrumbs":[{"code":"4","name":"Lactate & ouă","slug":"4-lactate-branzeturi-si-oua"},{"code":"404","name":"Iaurt, desert și sana","slug":"404-iaurt-desert-si-sana"},{"code":"40403","name":"Iaurt simplu","slug":"40403-iaurt-simplu"},{"code":"100032035","name":"Iaurt Stragghisto cu specific grecesc 2% grăsime 150g","slug":"100032035-olympus-iaurt-stragghisto-cu-specific-grecesc-2-grasime-150g"}],"activePromotion":null,"saveMe":null,"labels":[],"geniusPrice":null,"geniusUnitPricePerLabel":null,"banner":null,"discountLabel":null,"geniusDiscountLabel":null,"badge":null},{"code":"100143881","variantCode":"100143881","name":"Iaurt grecesc 10% grăsime, 150g","slug":"100143881-kolios-iaurt-grecesc-10-grasime-150g","unitPriceLabel":"33,27 Lei/kg","brand":"Kolios","brandCode":"2781","brandFilterCode":"kolios-b2855","sku":"100143881","price":4.99,"originalPrice":null,"currencyCode":"RON","currency":"Lei","image":{"thumbnail":{"default":"https://cdn.freshful.ro/media/cache/sylius_shop_product_thumbnail/f8/7f/8212123b0e56e4f0e308f40ce6e7.jpg"},"large":{"default":"https://cdn.freshful.ro/media/cache/freshful_large/f8/7f/8212123b0e56e4f0e308f40ce6e7.jpg"},"extralarge":{"default":"https://cdn.freshful.ro/media/cache/sylius_shop_product_original/f8/7f/8212123b0e56e4f0e308f40ce6e7.jpg"}},"label":null,"tags":[{"type":"Natural","text":"Natural","icon":"https://cdn.freshful.ro/assets/product_tags/natural.svg","iconPng":"https://cdn.freshful.ro/assets/product_tags/natural.png","backgroundColor":"#E9FCF2","textColor":"#18AF62"}],"isAvailable":true,"maxAvailableQuantity":100,"maxAllowedQuantity":100,"breadcrumbs":[{"code":"4","name":"Lactate & ouă","slug":"4-lactate-branzeturi-si-oua"},{"code":"404","name":"Iaurt, desert și sana","slug":"404-iaurt-desert-si-sana"},{"code":"40403","name":"Iaurt simplu","slug":"40403-iaurt-simplu"},{"code":"100143881","name":"Iaurt grecesc 10% grăsime, 150g","slug":"100143881-kolios-iaurt-grecesc-10-grasime-150g"}],"activePromotion":null,"saveMe":null,"labels":[],"geniusPrice":null,"geniusUnitPricePerLabel":null,"banner":null,"discountLabel":null,"geniusDiscountLabel":null,"badge":null},{"code":"100142583","variantCode":"100142583","name":"Iaurt natural din lapte de vacă 160g","slug":"100142583-artesana-iaurt-natural-din-lapte-de-vaca-160g","unitPriceLabel":"27,44 Lei/kg","brand":"Artesana","brandCode":"218","brandFilterCode":"artesana-b219","sku":"100142583","price":4.39,"originalPrice":null,"currencyCode":"RON","currency":"Lei","image":{"thumbnail":{"default":"https://cdn.freshful.ro/media/cache/sylius_shop_product_thumbnail/bf/f2/fa041c69fe6591fe042099e783d3.jpg"},"large":{"default":"https://cdn.freshful.ro/media/cache/freshful_large/bf/f2/fa041c69fe6591fe042099e783d3.jpg"},"extralarge":{"default":"https://cdn.freshful.ro/media/cache/sylius_shop_product_original/bf/f2/fa041c69fe6591fe042099e783d3.jpg"}},"label":null,"tags":[{"type":"Natural","text":"Natural","icon":"https://cdn.freshful.ro/assets/product_tags/natural.svg","iconPng":"https://cdn.freshful.ro/assets/product_tags/natural.png","backgroundColor":"#E9FCF2","textColor":"#18AF62"},{"type":"MadeInRomania","text":"Made In Romania","icon":"https://cdn.freshful.ro/assets/product_tags/made_in_romania.svg","iconPng":"https://cdn.freshful.ro/assets/product_tags/made_in_romania.png","backgroundColor":"#EDF2FD","textColor":"#1653CA"}],"isAvailable":true,"maxAvailableQuantity":100,"maxAllowedQuantity":100,"breadcrumbs":[{"code":"4","name":"Lactate & ouă","slug":"4-lactate-branzeturi-si-oua"},{"code":"404","name":"Iaurt, desert și sana","slug":"404-iaurt-desert-si-sana"},{"code":"40403","name":"Iaurt simplu","slug":"40403-iaurt-simplu"},{"code":"100142583","name":"Iaurt natural din lapte de vacă 160g","slug":"100142583-artesana-iaurt-natural-din-lapte-de-vaca-160g"}],"activePromotion":null,"saveMe":null,"labels":[],"geniusPrice":null,"geniusUnitPricePerLabel":null,"banner":null,"discountLabel":null,"geniusDiscountLabel":null,"badge":null},{"code":"100003640","variantCode":"5941905044186","name":"Iaurt de 10, 10% grăsime 190g","slug":"100003640-laptaria-cu-caimac-iaurt-de-10-10-grasime-190g","unitPriceLabel":"44,68 Lei/kg","brand":"Lăptăria cu caimac","brandCode":"1","brandFilterCode":"laptaria-cu-caimac-b1","sku":"100003640","price":8.49,"originalPrice":null,"currencyCode":"RON","currency":"Lei","image":{"thumbnail":{"default":"https://cdn.freshful.ro/media/cache/sylius_shop_product_thumbnail/3d/8e/8d4957b7ecbed247bf458a26b1a5.jpg"},"large":{"default":"https://cdn.freshful.ro/media/cache/freshful_large/3d/8e/8d4957b7ecbed247bf458a26b1a5.jpg"},"extralarge":{"default":"https://cdn.freshful.ro/media/cache/sylius_shop_product_original/3d/8e/8d4957b7ecbed247bf458a26b1a5.jpg"}},"label":null,"tags":[{"type":"MadeInRomania","text":"Made In Romania","icon":"https://cdn.freshful.ro/assets/product_tags/made_in_romania.svg","iconPng":"https://cdn.freshful.ro/assets/product_tags/made_in_romania.png","backgroundColor":"#EDF2FD","textColor":"#1653CA"}],"isAvailable":true,"maxAvailableQuantity":100,"maxAllowedQuantity":100,"breadcrumbs":[{"code":"4","name":"Lactate & ouă","slug":"4-lactate-branzeturi-si-oua"},{"code":"404","name":"Iaurt, desert și sana","slug":"404-iaurt-desert-si-sana"},{"code":"40403","name":"Iaurt simplu","slug":"40403-iaurt-simplu"},{"code":"100003640","name":"Iaurt de 10, 10% grăsime 190g","slug":"100003640-laptaria-cu-caimac-iaurt-de-10-10-grasime-190g"}],"activePromotion":null,"saveMe":null,"labels":[],"geniusPrice":null,"geniusUnitPricePerLabel":null,"banner":null,"discountLabel":null,"geniusDiscountLabel":null,"badge":null},{"code":"100134479","variantCode":"100134479","name":"Iaurt Bun 2.8% grăsime 900g","slug":"100134479-nucet-iaurt-bun-2-8-grasime-900g","unitPriceLabel":"11,1 Lei/kg","brand":"Nucet","brandCode":"2518","brandFilterCode":"nucet-b2523","sku":"100134479","price":9.99,"originalPrice":null,"currencyCode":"RON","currency":"Lei","image":{"thumbnail":{"default":"https://cdn.freshful.ro/media/cache/sylius_shop_product_thumbnail/eb/9c/2682b17b87d7f5eaf8a9cea0a9c2.jpg"},"large":{"default":"https://cdn.freshful.ro/media/cache/freshful_large/eb/9c/2682b17b87d7f5eaf8a9cea0a9c2.jpg"},"extralarge":{"default":"https://cdn.freshful.ro/media/cache/sylius_shop_product_original/eb/9c/2682b17b87d7f5eaf8a9cea0a9c2.jpg"}},"label":{"text":"Mici producători","backgroundColor":"#7B61FF","textColor":"#FFFFFF"},"tags":[{"type":"NoE","text":"Fara E-uri","icon":"https://cdn.freshful.ro/assets/product_tags/fara_euri.svg","iconPng":"https://cdn.freshful.ro/assets/product_tags/fara_euri.png","backgroundColor":"#FCF5DF","textColor":"#CAA316"},{"type":"MadeInRomania","text":"Made In Romania","icon":"https://cdn.freshful.ro/assets/product_tags/made_in_romania.svg","iconPng":"https://cdn.freshful.ro/assets/product_tags/made_in_romania.png","backgroundColor":"#EDF2FD","textColor":"#1653CA"}],"isAvailable":true,"maxAvailableQuantity":100,"maxAllowedQuantity":100,"breadcrumbs":[{"code":"4","name":"Lactate & ouă","slug":"4-lactate-branzeturi-si-oua"},{"code":"404","name":"Iaurt, desert și sana","slug":"404-iaurt-desert-si-sana"},{"code":"40403","name":"Iaurt simplu","slug":"40403-iaurt-simplu"},{"code":"100134479","name":"Iaurt Bun 2.8% grăsime 900g","slug":"100134479-nucet-iaurt-bun-2-8-grasime-900g"}],"activePromotion":null,"saveMe":null,"labels":[{"type":"v1","items":[{"text":"Mici producători","backgroundColor":"#7B61FF","textColor":"#FFFFFF"}]}],"geniusPrice":null,"geniusUnitPricePerLabel":null,"banner":null,"discountLabel":null,"geniusDiscountLabel":null,"badge":null}],"filters":{"countSelected":0,"items":[{"code":"promotion","name":"Promoții","countSelected":0,"values":[]},{"code":"brand","name":"Brand","countSelected":0,"values":[{"code":"al-dar-b2716","name":"Al Dar","isSelected":false,"count":2},{"code":"artesana-b219","name":"Artesana","isSelected":false,"count":4},{"code":"colectar-b383","name":"Colectar","isSelected":false,"count":4},{"code":"covalact-b785","name":"Covalact","isSelected":false,"count":2},{"code":"cremosso-b33","name":"Cremosso","isSelected":false,"count":2},{"code":"danone-b27","name":"Danone","isSelected":false,"count":3},{"code":"gustolact-b502","name":"Gustolact","isSelected":false,"count":1},{"code":"huzur-b2725","name":"HUZUR","isSelected":false,"count":2},{"code":"kolios-b2855","name":"Kolios","isSelected":false,"count":4},{"code":"laptaria-cu-caimac-b1","name":"Lăptăria cu caimac","isSelected":false,"count":4},{"code":"mirdatod-b756","name":"Mirdatod","isSelected":false,"count":4},{"code":"monor-b326","name":"Monor","isSelected":false,"count":1},{"code":"muller-b259","name":"Müller","isSelected":false,"count":4},{"code":"napolact-b77","name":"Napolact","isSelected":false,"count":1},{"code":"nucet-b2523","name":"Nucet","isSelected":false,"count":1},{"code":"olympus-b40","name":"Olympus","isSelected":false,"count":13},{"code":"unirea-gospodarilor-b1888","name":"Unirea Gospodarilor","isSelected":false,"count":1},{"code":"yopro-b31","name":"Yopro","isSelected":false,"count":4},{"code":"zuzu-b45","name":"Zuzu","isSelected":false,"count":3},{"code":"zuzu-divin-b7","name":"Zuzu Divin","isSelected":false,"count":2},{"code":"zuzu-max-b9","name":"Zuzu Max","isSelected":false,"count":1},{"code":"zuzu-stors-b8","name":"Zuzu Stors","isSelected":false,"count":1}]},{"code":"diet_lifestyle","name":"Dietă și lifestyle","countSelected":0,"values":[{"code":"fara-e-uri-a84","name":"Fara E-uri","isSelected":false,"count":1},{"code":"fara-zahar-adaugat-a29","name":"Fara zahar adaugat","isSelected":false,"count":1},{"code":"made-in-romania-a85","name":"Made In Romania","isSelected":false,"count":41},{"code":"natural-a27","name":"Natural","isSelected":false,"count":13}]}]},"orderBy":[{"field":"price","direction":"asc","name":"Preț crescător","isSelected":false},{"field":"price","direction":"desc","name":"Preț descrescător","isSelected":false},{"field":"popularity","direction":"desc","name":"Cele mai populare","isSelected":true},{"field":"category","direction":"asc","name":"Categorie","isSelected":false}],"metaTitle":"Iaurt simplu - Gamă variată","metaDescription":"Vrei Iaurt simplu? Alege dintr-o gamă variată. Comanzi simplu și ai livrare rapidă, calitate și prospețime. Hai pe Freshful.ro","metaKeywords":null,"banners":[]}}