{"type":"subcategory","payload":{"analyticsListId":"category_40401-probiotice-si-bifidus","analyticsListName":"Category - Probiotice și bifidus","name":"Probiotice și bifidus","slug":"40401-probiotice-si-bifidus","image":null,"breadcrumbs":[{"code":"4","name":"Lactate & ouă","slug":"4-lactate-branzeturi-si-oua"},{"code":"404","name":"Iaurt, desert și sana","slug":"404-iaurt-desert-si-sana"},{"code":"40401","name":"Probiotice și bifidus","slug":"40401-probiotice-si-bifidus"}],"slots":[],"page":1,"limit":10,"pages":4,"count":33,"siblings":[{"name":"Lapte, smântână și brânză proaspătă","slug":"401-lapte-smantana-si-branza-proaspata","selected":false},{"name":"Unt","slug":"402-unt-si-margarina","selected":false},{"name":"Lactate UHT","slug":"403-lactate-uht","selected":false},{"name":"Iaurt, desert și sana","slug":"404-iaurt-desert-si-sana","selected":true},{"name":"Ouă","slug":"405-oua","selected":false},{"name":"Brânzeturi","slug":"406-branzeturi","selected":false},{"name":"Lapte și lactate ECO","slug":"lapte-si-lactate-eco","selected":false},{"name":"Amestecuri lactate și grasimi vegetale","slug":"amestecuri-lactate-si-grasimi-vegetale","selected":false}],"children":[{"name":"Toate produsele","slug":"404-iaurt-desert-si-sana","selected":false},{"name":"Probiotice și bifidus","slug":"40401-probiotice-si-bifidus","selected":true},{"name":"Iaurturi și deserturi fără lactoză","slug":"40402-iaurturi-si-deserturi-fara-lactoza","selected":false},{"name":"Iaurt simplu","slug":"40403-iaurt-simplu","selected":false},{"name":"Iaurt cu fructe și arome","slug":"40404-iaurt-fructe-si-cu-arome","selected":false},{"name":"Iaurt de băut","slug":"40405-iaurt-de-baut","selected":false},{"name":"Lactate dietetice","slug":"40407-lactate-dietetice","selected":false},{"name":"Deserturi","slug":"40409-deserturi","selected":false},{"name":"Lapte bătut, chefir și sana","slug":"40410-lapte-batut-chefir-si-sana","selected":false},{"name":"Produse lactate pentru copii","slug":"40411-produse-lactate-pentru-copii","selected":false}],"products":[{"code":"100004542","variantCode":"5941209014274","name":"Iaurt de băut cu căpșuni 8x100g","slug":"100004542-actimel-iaurt-de-baut-cu-capsuni-8x100g","unitPriceLabel":"20,36 Lei/kg","brand":"Actimel","brandCode":"43","brandFilterCode":"actimel-b38","sku":"100004542","price":16.29,"originalPrice":null,"currencyCode":"RON","currency":"Lei","image":{"thumbnail":{"default":"https://cdn.freshful.ro/media/cache/sylius_shop_product_thumbnail/d7/41/6467224c770d3d412438b820411e.jpg"},"large":{"default":"https://cdn.freshful.ro/media/cache/freshful_large/d7/41/6467224c770d3d412438b820411e.jpg"},"extralarge":{"default":"https://cdn.freshful.ro/media/cache/sylius_shop_product_original/d7/41/6467224c770d3d412438b820411e.jpg"}},"label":null,"tags":[],"isAvailable":true,"maxAvailableQuantity":100,"maxAllowedQuantity":100,"breadcrumbs":[{"code":"4","name":"Lactate & ouă","slug":"4-lactate-branzeturi-si-oua"},{"code":"404","name":"Iaurt, desert și sana","slug":"404-iaurt-desert-si-sana"},{"code":"40401","name":"Probiotice și bifidus","slug":"40401-probiotice-si-bifidus"},{"code":"100004542","name":"Iaurt de băut cu căpșuni 8x100g","slug":"100004542-actimel-iaurt-de-baut-cu-capsuni-8x100g"}],"activePromotion":null,"saveMe":null,"labels":[],"geniusPrice":null,"geniusUnitPricePerLabel":null,"banner":null,"discountLabel":null,"geniusDiscountLabel":null,"badge":null},{"code":"100004534","variantCode":"5941209019446","name":"Iaurt de băut cu căpșuni 4x100g","slug":"100004534-actimel-iaurt-de-baut-cu-capsuni-4x100g","unitPriceLabel":"22,98 Lei/kg","brand":"Actimel","brandCode":"43","brandFilterCode":"actimel-b38","sku":"100004534","price":9.19,"originalPrice":null,"currencyCode":"RON","currency":"Lei","image":{"thumbnail":{"default":"https://cdn.freshful.ro/media/cache/sylius_shop_product_thumbnail/a8/ed/1d6efdbd8b8168f91e21b3e3ebdb.jpg"},"large":{"default":"https://cdn.freshful.ro/media/cache/freshful_large/a8/ed/1d6efdbd8b8168f91e21b3e3ebdb.jpg"},"extralarge":{"default":"https://cdn.freshful.ro/media/cache/sylius_shop_product_original/a8/ed/1d6efdbd8b8168f91e21b3e3ebdb.jpg"}},"label":null,"tags":[],"isAvailable":true,"maxAvailableQuantity":100,"maxAllowedQuantity":100,"breadcrumbs":[{"code":"4","name":"Lactate & ouă","slug":"4-lactate-branzeturi-si-oua"},{"code":"404","name":"Iaurt, desert și sana","slug":"404-iaurt-desert-si-sana"},{"code":"40401","name":"Probiotice și bifidus","slug":"40401-probiotice-si-bifidus"},{"code":"100004534","name":"Iaurt de băut cu căpșuni 4x100g","slug":"100004534-actimel-iaurt-de-baut-cu-capsuni-4x100g"}],"activePromotion":null,"saveMe":{"isAvailable":true,"variantCode":"5941209019446-accsale","maxAvailableQuantity":50,"maxAllowedQuantity":100,"price":7.35,"originalPrice":9.19,"labels":[{"type":"v2","items":[{"text":"Save Me","backgroundColor":"#FF7070","textColor":"#FFFFFF"},{"text":"-20%","backgroundColor":"#333333","textColor":"#FFFFFF"}]},{"type":"v3","items":[{"text":"Expiră pe 04-03-2023","backgroundColor":"#FEF7DC","textColor":"#595959"}]}],"priceColor":"#FF7070","priceIcon":"https://cdn.freshful.ro/assets/save_me/priceIcon.png","unitPriceLabel":"18,38 Lei/kg","badge":null},"labels":[],"geniusPrice":null,"geniusUnitPricePerLabel":null,"banner":{"text":"Cumpără la 7.35 lei","textColor":"#FF7070","bgColor":"#FFF1F1","icon":"https://cdn.freshful.ro/assets/save_me/priceIcon.png","link":"https://www.freshful.ro/p/100004534-actimel-iaurt-de-baut-cu-capsuni-4x100g?sm=true","type":"saveMe","analyticsEventType":"select_item","analyticsEventPayload":[]},"discountLabel":null,"geniusDiscountLabel":null,"badge":null},{"code":"100004545","variantCode":"5941209010139","name":"Iaurt Mic dejun cu căpșuni și fulgi de cereale 168g","slug":"100004545-activia-iaurt-mic-dejun-cu-capsuni-si-fulgi-de-cereale-168g","unitPriceLabel":"25 Lei/kg","brand":"Activia","brandCode":"42","brandFilterCode":"activia-b37","sku":"100004545","price":4.2,"originalPrice":null,"currencyCode":"RON","currency":"Lei","image":{"thumbnail":{"default":"https://cdn.freshful.ro/media/cache/sylius_shop_product_thumbnail/cf/02/8f6871a996e7e45dced3634c4f06.jpg"},"large":{"default":"https://cdn.freshful.ro/media/cache/freshful_large/cf/02/8f6871a996e7e45dced3634c4f06.jpg"},"extralarge":{"default":"https://cdn.freshful.ro/media/cache/sylius_shop_product_original/cf/02/8f6871a996e7e45dced3634c4f06.jpg"}},"label":null,"tags":[],"isAvailable":true,"maxAvailableQuantity":100,"maxAllowedQuantity":100,"breadcrumbs":[{"code":"4","name":"Lactate & ouă","slug":"4-lactate-branzeturi-si-oua"},{"code":"404","name":"Iaurt, desert și sana","slug":"404-iaurt-desert-si-sana"},{"code":"40401","name":"Probiotice și bifidus","slug":"40401-probiotice-si-bifidus"},{"code":"100004545","name":"Iaurt Mic dejun cu căpșuni și fulgi de cereale 168g","slug":"100004545-activia-iaurt-mic-dejun-cu-capsuni-si-fulgi-de-cereale-168g"}],"activePromotion":null,"saveMe":null,"labels":[],"geniusPrice":null,"geniusUnitPricePerLabel":null,"banner":null,"discountLabel":null,"geniusDiscountLabel":null,"badge":null},{"code":"100004073","variantCode":"5941355013152","name":"Iaurt natural 2% grăsime Bifidus 150g","slug":"100004073-zuzu-stors-iaurt-natural-2-grasime-bifidus-150g","unitPriceLabel":"23,93 Lei/kg","brand":"Zuzu Stors","brandCode":"16","brandFilterCode":"zuzu-stors-b8","sku":"100004073","price":3.59,"originalPrice":null,"currencyCode":"RON","currency":"Lei","image":{"thumbnail":{"default":"https://cdn.freshful.ro/media/cache/sylius_shop_product_thumbnail/b7/3c/0f8d70c4dfc7645a8b8dda8874cd.jpg"},"large":{"default":"https://cdn.freshful.ro/media/cache/freshful_large/b7/3c/0f8d70c4dfc7645a8b8dda8874cd.jpg"},"extralarge":{"default":"https://cdn.freshful.ro/media/cache/sylius_shop_product_original/b7/3c/0f8d70c4dfc7645a8b8dda8874cd.jpg"}},"label":null,"tags":[{"type":"Natural","text":"Natural","icon":"https://cdn.freshful.ro/assets/product_tags/natural.svg","iconPng":"https://cdn.freshful.ro/assets/product_tags/natural.png","backgroundColor":"#E9FCF2","textColor":"#18AF62"},{"type":"MadeInRomania","text":"Made In Romania","icon":"https://cdn.freshful.ro/assets/product_tags/made_in_romania.svg","iconPng":"https://cdn.freshful.ro/assets/product_tags/made_in_romania.png","backgroundColor":"#EDF2FD","textColor":"#1653CA"}],"isAvailable":true,"maxAvailableQuantity":100,"maxAllowedQuantity":100,"breadcrumbs":[{"code":"4","name":"Lactate & ouă","slug":"4-lactate-branzeturi-si-oua"},{"code":"404","name":"Iaurt, desert și sana","slug":"404-iaurt-desert-si-sana"},{"code":"40401","name":"Probiotice și bifidus","slug":"40401-probiotice-si-bifidus"},{"code":"100004073","name":"Iaurt natural 2% grăsime Bifidus 150g","slug":"100004073-zuzu-stors-iaurt-natural-2-grasime-bifidus-150g"}],"activePromotion":null,"saveMe":null,"labels":[],"geniusPrice":null,"geniusUnitPricePerLabel":null,"banner":null,"discountLabel":null,"geniusDiscountLabel":null,"badge":null},{"code":"100136861","variantCode":"100136861","name":"Iaurt Mic dejun cremos cu mix de fulgi de porumb 168g","slug":"100136861-activia-iaurt-mic-dejun-cremos-cu-mix-de-fulgi-de-porumb-168g","unitPriceLabel":"25 Lei/kg","brand":"Activia","brandCode":"42","brandFilterCode":"activia-b37","sku":"100136861","price":4.2,"originalPrice":null,"currencyCode":"RON","currency":"Lei","image":{"thumbnail":{"default":"https://cdn.freshful.ro/media/cache/sylius_shop_product_thumbnail/fd/c5/0f7ba5f6977cbe8749cf1751d10f.jpg"},"large":{"default":"https://cdn.freshful.ro/media/cache/freshful_large/fd/c5/0f7ba5f6977cbe8749cf1751d10f.jpg"},"extralarge":{"default":"https://cdn.freshful.ro/media/cache/sylius_shop_product_original/fd/c5/0f7ba5f6977cbe8749cf1751d10f.jpg"}},"label":null,"tags":[],"isAvailable":true,"maxAvailableQuantity":100,"maxAllowedQuantity":100,"breadcrumbs":[{"code":"4","name":"Lactate & ouă","slug":"4-lactate-branzeturi-si-oua"},{"code":"404","name":"Iaurt, desert și sana","slug":"404-iaurt-desert-si-sana"},{"code":"40401","name":"Probiotice și bifidus","slug":"40401-probiotice-si-bifidus"},{"code":"100136861","name":"Iaurt Mic dejun cremos cu mix de fulgi de porumb 168g","slug":"100136861-activia-iaurt-mic-dejun-cremos-cu-mix-de-fulgi-de-porumb-168g"}],"activePromotion":null,"saveMe":null,"labels":[],"geniusPrice":null,"geniusUnitPricePerLabel":null,"banner":null,"discountLabel":null,"geniusDiscountLabel":null,"badge":null},{"code":"100004541","variantCode":"5997536134314","name":"Iaurt de băut cu căpșuni și banane 4x100g","slug":"100004541-actimel-iaurt-de-baut-cu-capsuni-si-banane-4x100g","unitPriceLabel":"28,73 Lei/kg","brand":"Actimel","brandCode":"43","brandFilterCode":"actimel-b38","sku":"100004541","price":11.49,"originalPrice":null,"currencyCode":"RON","currency":"Lei","image":{"thumbnail":{"default":"https://cdn.freshful.ro/media/cache/sylius_shop_product_thumbnail/1a/f4/bcaee0f4ac48023f783880623564.jpg"},"large":{"default":"https://cdn.freshful.ro/media/cache/freshful_large/1a/f4/bcaee0f4ac48023f783880623564.jpg"},"extralarge":{"default":"https://cdn.freshful.ro/media/cache/sylius_shop_product_original/1a/f4/bcaee0f4ac48023f783880623564.jpg"}},"label":null,"tags":[],"isAvailable":true,"maxAvailableQuantity":68,"maxAllowedQuantity":100,"breadcrumbs":[{"code":"4","name":"Lactate & ouă","slug":"4-lactate-branzeturi-si-oua"},{"code":"404","name":"Iaurt, desert și sana","slug":"404-iaurt-desert-si-sana"},{"code":"40401","name":"Probiotice și bifidus","slug":"40401-probiotice-si-bifidus"},{"code":"100004541","name":"Iaurt de băut cu căpșuni și banane 4x100g","slug":"100004541-actimel-iaurt-de-baut-cu-capsuni-si-banane-4x100g"}],"activePromotion":null,"saveMe":null,"labels":[],"geniusPrice":null,"geniusUnitPricePerLabel":null,"banner":null,"discountLabel":null,"geniusDiscountLabel":null,"badge":null},{"code":"100004514","variantCode":"5941209012737","name":"Iaurt natur 8x125g","slug":"100004514-activia-iaurt-natur-8x125g","unitPriceLabel":"14,35 Lei/kg","brand":"Activia","brandCode":"42","brandFilterCode":"activia-b37","sku":"100004514","price":14.35,"originalPrice":null,"currencyCode":"RON","currency":"Lei","image":{"thumbnail":{"default":"https://cdn.freshful.ro/media/cache/sylius_shop_product_thumbnail/70/60/02ddb0c9bc9787cb7f44109ab20e.jpg"},"large":{"default":"https://cdn.freshful.ro/media/cache/freshful_large/70/60/02ddb0c9bc9787cb7f44109ab20e.jpg"},"extralarge":{"default":"https://cdn.freshful.ro/media/cache/sylius_shop_product_original/70/60/02ddb0c9bc9787cb7f44109ab20e.jpg"}},"label":null,"tags":[{"type":"MadeInRomania","text":"Made In Romania","icon":"https://cdn.freshful.ro/assets/product_tags/made_in_romania.svg","iconPng":"https://cdn.freshful.ro/assets/product_tags/made_in_romania.png","backgroundColor":"#EDF2FD","textColor":"#1653CA"}],"isAvailable":true,"maxAvailableQuantity":42,"maxAllowedQuantity":100,"breadcrumbs":[{"code":"4","name":"Lactate & ouă","slug":"4-lactate-branzeturi-si-oua"},{"code":"404","name":"Iaurt, desert și sana","slug":"404-iaurt-desert-si-sana"},{"code":"40401","name":"Probiotice și bifidus","slug":"40401-probiotice-si-bifidus"},{"code":"100004514","name":"Iaurt natur 8x125g","slug":"100004514-activia-iaurt-natur-8x125g"}],"activePromotion":null,"saveMe":null,"labels":[],"geniusPrice":null,"geniusUnitPricePerLabel":null,"banner":null,"discountLabel":null,"geniusDiscountLabel":null,"badge":null},{"code":"100004533","variantCode":"5941209012362","name":"Iaurt de băut cu fibre 3x320g","slug":"100004533-activia-iaurt-de-baut-cu-fibre-3x320g","unitPriceLabel":"14,84 Lei/kg","brand":"Activia","brandCode":"42","brandFilterCode":"activia-b37","sku":"100004533","price":14.25,"originalPrice":null,"currencyCode":"RON","currency":"Lei","image":{"thumbnail":{"default":"https://cdn.freshful.ro/media/cache/sylius_shop_product_thumbnail/9b/35/4b8a266524129c00bec942b671cc.jpg"},"large":{"default":"https://cdn.freshful.ro/media/cache/freshful_large/9b/35/4b8a266524129c00bec942b671cc.jpg"},"extralarge":{"default":"https://cdn.freshful.ro/media/cache/sylius_shop_product_original/9b/35/4b8a266524129c00bec942b671cc.jpg"}},"label":null,"tags":[{"type":"MadeInRomania","text":"Made In Romania","icon":"https://cdn.freshful.ro/assets/product_tags/made_in_romania.svg","iconPng":"https://cdn.freshful.ro/assets/product_tags/made_in_romania.png","backgroundColor":"#EDF2FD","textColor":"#1653CA"}],"isAvailable":true,"maxAvailableQuantity":58,"maxAllowedQuantity":100,"breadcrumbs":[{"code":"4","name":"Lactate & ouă","slug":"4-lactate-branzeturi-si-oua"},{"code":"404","name":"Iaurt, desert și sana","slug":"404-iaurt-desert-si-sana"},{"code":"40401","name":"Probiotice și bifidus","slug":"40401-probiotice-si-bifidus"},{"code":"100004533","name":"Iaurt de băut cu fibre 3x320g","slug":"100004533-activia-iaurt-de-baut-cu-fibre-3x320g"}],"activePromotion":null,"saveMe":null,"labels":[],"geniusPrice":null,"geniusUnitPricePerLabel":null,"banner":null,"discountLabel":null,"geniusDiscountLabel":null,"badge":null},{"code":"100004522","variantCode":"59465522","name":"Iaurt de băut natur 320g","slug":"100004522-activia-iaurt-de-baut-natur-320g","unitPriceLabel":"14,53 Lei/kg","brand":"Activia","brandCode":"42","brandFilterCode":"activia-b37","sku":"100004522","price":4.65,"originalPrice":null,"currencyCode":"RON","currency":"Lei","image":{"thumbnail":{"default":"https://cdn.freshful.ro/media/cache/sylius_shop_product_thumbnail/92/b9/08e0959344b98dbae7e2040502e5.jpg"},"large":{"default":"https://cdn.freshful.ro/media/cache/freshful_large/92/b9/08e0959344b98dbae7e2040502e5.jpg"},"extralarge":{"default":"https://cdn.freshful.ro/media/cache/sylius_shop_product_original/92/b9/08e0959344b98dbae7e2040502e5.jpg"}},"label":null,"tags":[],"isAvailable":true,"maxAvailableQuantity":100,"maxAllowedQuantity":100,"breadcrumbs":[{"code":"4","name":"Lactate & ouă","slug":"4-lactate-branzeturi-si-oua"},{"code":"404","name":"Iaurt, desert și sana","slug":"404-iaurt-desert-si-sana"},{"code":"40401","name":"Probiotice și bifidus","slug":"40401-probiotice-si-bifidus"},{"code":"100004522","name":"Iaurt de băut natur 320g","slug":"100004522-activia-iaurt-de-baut-natur-320g"}],"activePromotion":null,"saveMe":null,"labels":[],"geniusPrice":null,"geniusUnitPricePerLabel":null,"banner":null,"discountLabel":null,"geniusDiscountLabel":null,"badge":null},{"code":"100004543","variantCode":"5941209014298","name":"Iaurt de băut cu fructe de pădure 8x100g","slug":"100004543-actimel-iaurt-de-baut-cu-fructe-de-padure-8x100g","unitPriceLabel":"20,36 Lei/kg","brand":"Actimel","brandCode":"43","brandFilterCode":"actimel-b38","sku":"100004543","price":16.29,"originalPrice":null,"currencyCode":"RON","currency":"Lei","image":{"thumbnail":{"default":"https://cdn.freshful.ro/media/cache/sylius_shop_product_thumbnail/2e/98/00d4a7673acd1f21c0f440184c20.jpg"},"large":{"default":"https://cdn.freshful.ro/media/cache/freshful_large/2e/98/00d4a7673acd1f21c0f440184c20.jpg"},"extralarge":{"default":"https://cdn.freshful.ro/media/cache/sylius_shop_product_original/2e/98/00d4a7673acd1f21c0f440184c20.jpg"}},"label":null,"tags":[],"isAvailable":true,"maxAvailableQuantity":48,"maxAllowedQuantity":100,"breadcrumbs":[{"code":"4","name":"Lactate & ouă","slug":"4-lactate-branzeturi-si-oua"},{"code":"404","name":"Iaurt, desert și sana","slug":"404-iaurt-desert-si-sana"},{"code":"40401","name":"Probiotice și bifidus","slug":"40401-probiotice-si-bifidus"},{"code":"100004543","name":"Iaurt de băut cu fructe de pădure 8x100g","slug":"100004543-actimel-iaurt-de-baut-cu-fructe-de-padure-8x100g"}],"activePromotion":null,"saveMe":null,"labels":[],"geniusPrice":null,"geniusUnitPricePerLabel":null,"banner":null,"discountLabel":null,"geniusDiscountLabel":null,"badge":null}],"filters":{"countSelected":0,"items":[{"code":"brand","name":"Brand","countSelected":0,"values":[{"code":"actimel-b38","name":"Actimel","isSelected":false,"count":10},{"code":"activia-b37","name":"Activia","isSelected":false,"count":17},{"code":"artesana-b219","name":"Artesana","isSelected":false,"count":2},{"code":"gustolact-b502","name":"Gustolact","isSelected":false,"count":1},{"code":"olympus-b40","name":"Olympus","isSelected":false,"count":2},{"code":"zuzu-stors-b8","name":"Zuzu Stors","isSelected":false,"count":1}]},{"code":"diet_lifestyle","name":"Dietă și lifestyle","countSelected":0,"values":[{"code":"made-in-romania-a85","name":"Made In Romania","isSelected":false,"count":18},{"code":"natural-a27","name":"Natural","isSelected":false,"count":3}]}]},"orderBy":[{"field":"price","direction":"asc","name":"Preț crescător","isSelected":false},{"field":"price","direction":"desc","name":"Preț descrescător","isSelected":false},{"field":"popularity","direction":"desc","name":"Cele mai populare","isSelected":true},{"field":"category","direction":"asc","name":"Categorie","isSelected":false}],"metaTitle":"Probiotice și bifidus - Gamă variată","metaDescription":"Vrei Probiotice și bifidus? Alege dintr-o gamă variată. Comanzi simplu și ai livrare rapidă, calitate și prospețime. Hai pe Freshful.ro","metaKeywords":null,"banners":[]}}