{"type":"subcategory","payload":{"analyticsListId":"category_40411-produse-lactate-pentru-copii","analyticsListName":"Category - Produse lactate pentru copii","name":"Produse lactate pentru copii","slug":"40411-produse-lactate-pentru-copii","image":null,"breadcrumbs":[{"code":"4","name":"Lactate & ouă","slug":"4-lactate-branzeturi-si-oua"},{"code":"404","name":"Iaurt, desert și sana","slug":"404-iaurt-desert-si-sana"},{"code":"40411","name":"Produse lactate pentru copii","slug":"40411-produse-lactate-pentru-copii"}],"slots":[],"page":1,"limit":10,"pages":2,"count":16,"siblings":[{"name":"Lapte, smântână și brânză proaspătă","slug":"401-lapte-smantana-si-branza-proaspata","selected":false},{"name":"Unt","slug":"402-unt-si-margarina","selected":false},{"name":"Lactate UHT","slug":"403-lactate-uht","selected":false},{"name":"Iaurt, desert și sana","slug":"404-iaurt-desert-si-sana","selected":true},{"name":"Ouă","slug":"405-oua","selected":false},{"name":"Brânzeturi","slug":"406-branzeturi","selected":false},{"name":"Lapte și lactate ECO","slug":"lapte-si-lactate-eco","selected":false},{"name":"Amestecuri lactate și grasimi vegetale","slug":"amestecuri-lactate-si-grasimi-vegetale","selected":false}],"children":[{"name":"Toate produsele","slug":"404-iaurt-desert-si-sana","selected":false},{"name":"Probiotice și bifidus","slug":"40401-probiotice-si-bifidus","selected":false},{"name":"Iaurturi și deserturi fără lactoză","slug":"40402-iaurturi-si-deserturi-fara-lactoza","selected":false},{"name":"Iaurt simplu","slug":"40403-iaurt-simplu","selected":false},{"name":"Iaurt cu fructe și arome","slug":"40404-iaurt-fructe-si-cu-arome","selected":false},{"name":"Iaurt de băut","slug":"40405-iaurt-de-baut","selected":false},{"name":"Lactate dietetice","slug":"40407-lactate-dietetice","selected":false},{"name":"Deserturi","slug":"40409-deserturi","selected":false},{"name":"Lapte bătut, chefir și sana","slug":"40410-lapte-batut-chefir-si-sana","selected":false},{"name":"Produse lactate pentru copii","slug":"40411-produse-lactate-pentru-copii","selected":true}],"products":[{"code":"100032528","variantCode":"4008400553023","name":"Desert cu alune și caramel Maxi King 35g","slug":"100032528-kinder-desert-cu-alune-si-caramel-maxi-king-35g","unitPriceLabel":"75,76 Lei/kg","brand":"Kinder","brandCode":"19","brandFilterCode":"kinder-b11","sku":"100032528","price":2.75,"originalPrice":null,"currencyCode":"RON","currency":"Lei","image":{"thumbnail":{"default":"https://cdn.freshful.ro/media/cache/sylius_shop_product_thumbnail/06/b1/53a7a5da8d260ef6cc7606eaa1d0.jpg"},"large":{"default":"https://cdn.freshful.ro/media/cache/freshful_large/06/b1/53a7a5da8d260ef6cc7606eaa1d0.jpg"},"extralarge":{"default":"https://cdn.freshful.ro/media/cache/sylius_shop_product_original/06/b1/53a7a5da8d260ef6cc7606eaa1d0.jpg"}},"label":null,"tags":[],"isAvailable":true,"maxAvailableQuantity":100,"maxAllowedQuantity":100,"breadcrumbs":[{"code":"4","name":"Lactate & ouă","slug":"4-lactate-branzeturi-si-oua"},{"code":"404","name":"Iaurt, desert și sana","slug":"404-iaurt-desert-si-sana"},{"code":"40411","name":"Produse lactate pentru copii","slug":"40411-produse-lactate-pentru-copii"},{"code":"100032528","name":"Desert cu alune și caramel Maxi King 35g","slug":"100032528-kinder-desert-cu-alune-si-caramel-maxi-king-35g"}],"activePromotion":null,"saveMe":null,"labels":[],"geniusPrice":null,"geniusUnitPricePerLabel":null,"banner":null,"discountLabel":null,"geniusDiscountLabel":null,"badge":null},{"code":"100037239","variantCode":"4023600202304","name":"Paula budincă cu gust de vanilie și ciocolată 4x125g","slug":"100037239-dr-oetker-paula-budinca-cu-gust-de-vanilie-si-ciocolata-4x125g","unitPriceLabel":"27,98 Lei/kg","brand":"Dr. Oetker","brandCode":"55","brandFilterCode":"dr-oetker-b51","sku":"100037239","price":13.99,"originalPrice":null,"currencyCode":"RON","currency":"Lei","image":{"thumbnail":{"default":"https://cdn.freshful.ro/media/cache/sylius_shop_product_thumbnail/0e/e1/cb6f782242be7c943901525cabe2.jpg"},"large":{"default":"https://cdn.freshful.ro/media/cache/freshful_large/0e/e1/cb6f782242be7c943901525cabe2.jpg"},"extralarge":{"default":"https://cdn.freshful.ro/media/cache/sylius_shop_product_original/0e/e1/cb6f782242be7c943901525cabe2.jpg"}},"label":null,"tags":[],"isAvailable":true,"maxAvailableQuantity":51,"maxAllowedQuantity":100,"breadcrumbs":[{"code":"4","name":"Lactate & ouă","slug":"4-lactate-branzeturi-si-oua"},{"code":"404","name":"Iaurt, desert și sana","slug":"404-iaurt-desert-si-sana"},{"code":"40411","name":"Produse lactate pentru copii","slug":"40411-produse-lactate-pentru-copii"},{"code":"100037239","name":"Paula budincă cu gust de vanilie și ciocolată 4x125g","slug":"100037239-dr-oetker-paula-budinca-cu-gust-de-vanilie-si-ciocolata-4x125g"}],"activePromotion":null,"saveMe":null,"labels":[],"geniusPrice":null,"geniusUnitPricePerLabel":null,"banner":null,"discountLabel":null,"geniusDiscountLabel":null,"badge":null},{"code":"100004475","variantCode":"100004475","name":"Brânzică de vaci pentru copii cu piure de banane, mere și morcov 4x50g","slug":"100004475-danonino-branzica-de-vaci-pentru-copii-cu-piure-de-banane-mere-si-morcov-4x50g","unitPriceLabel":"28,95 Lei/kg","brand":"Danonino","brandCode":"36","brandFilterCode":"danonino-b30","sku":"100004475","price":5.79,"originalPrice":null,"currencyCode":"RON","currency":"Lei","image":{"thumbnail":{"default":"https://cdn.freshful.ro/media/cache/sylius_shop_product_thumbnail/73/44/4a3a022578f00ef710cafee98298.jpg"},"large":{"default":"https://cdn.freshful.ro/media/cache/freshful_large/73/44/4a3a022578f00ef710cafee98298.jpg"},"extralarge":{"default":"https://cdn.freshful.ro/media/cache/sylius_shop_product_original/73/44/4a3a022578f00ef710cafee98298.jpg"}},"label":null,"tags":[],"isAvailable":true,"maxAvailableQuantity":40,"maxAllowedQuantity":100,"breadcrumbs":[{"code":"4","name":"Lactate & ouă","slug":"4-lactate-branzeturi-si-oua"},{"code":"404","name":"Iaurt, desert și sana","slug":"404-iaurt-desert-si-sana"},{"code":"40411","name":"Produse lactate pentru copii","slug":"40411-produse-lactate-pentru-copii"},{"code":"100004475","name":"Brânzică de vaci pentru copii cu piure de banane, mere și morcov 4x50g","slug":"100004475-danonino-branzica-de-vaci-pentru-copii-cu-piure-de-banane-mere-si-morcov-4x50g"}],"activePromotion":null,"saveMe":null,"labels":[],"geniusPrice":null,"geniusUnitPricePerLabel":null,"banner":null,"discountLabel":null,"geniusDiscountLabel":null,"badge":null},{"code":"100004511","variantCode":"5941209010825","name":"Iaurt de băut cu piure de banane 4x100g","slug":"100004511-danonino-iaurt-de-baut-cu-piure-de-banane-4x100g","unitPriceLabel":"20,13 Lei/kg","brand":"Danonino","brandCode":"36","brandFilterCode":"danonino-b30","sku":"100004511","price":8.05,"originalPrice":null,"currencyCode":"RON","currency":"Lei","image":{"thumbnail":{"default":"https://cdn.freshful.ro/media/cache/sylius_shop_product_thumbnail/7d/90/db28bc83b927a2a91992df7e9fef.jpg"},"large":{"default":"https://cdn.freshful.ro/media/cache/freshful_large/7d/90/db28bc83b927a2a91992df7e9fef.jpg"},"extralarge":{"default":"https://cdn.freshful.ro/media/cache/sylius_shop_product_original/7d/90/db28bc83b927a2a91992df7e9fef.jpg"}},"label":null,"tags":[{"type":"NoPreservatives","text":"Fara conservanti","icon":"https://cdn.freshful.ro/assets/product_tags/fara_conservanti.svg","iconPng":"https://cdn.freshful.ro/assets/product_tags/fara_conservanti.png","backgroundColor":"#F0F2FF","textColor":"#7889DD"}],"isAvailable":true,"maxAvailableQuantity":28,"maxAllowedQuantity":100,"breadcrumbs":[{"code":"4","name":"Lactate & ouă","slug":"4-lactate-branzeturi-si-oua"},{"code":"404","name":"Iaurt, desert și sana","slug":"404-iaurt-desert-si-sana"},{"code":"40411","name":"Produse lactate pentru copii","slug":"40411-produse-lactate-pentru-copii"},{"code":"100004511","name":"Iaurt de băut cu piure de banane 4x100g","slug":"100004511-danonino-iaurt-de-baut-cu-piure-de-banane-4x100g"}],"activePromotion":null,"saveMe":null,"labels":[],"geniusPrice":null,"geniusUnitPricePerLabel":null,"banner":null,"discountLabel":null,"geniusDiscountLabel":null,"badge":null},{"code":"100004508","variantCode":"5941209015998","name":"Iaurt de băut cu căpșuni 70g","slug":"100004508-danonino-iaurt-de-baut-cu-capsuni-70g","unitPriceLabel":"47,86 Lei/kg","brand":"Danonino","brandCode":"36","brandFilterCode":"danonino-b30","sku":"100004508","price":3.35,"originalPrice":null,"currencyCode":"RON","currency":"Lei","image":{"thumbnail":{"default":"https://cdn.freshful.ro/media/cache/sylius_shop_product_thumbnail/f7/fb/de092f5f0ea891859028336ded3a.jpg"},"large":{"default":"https://cdn.freshful.ro/media/cache/freshful_large/f7/fb/de092f5f0ea891859028336ded3a.jpg"},"extralarge":{"default":"https://cdn.freshful.ro/media/cache/sylius_shop_product_original/f7/fb/de092f5f0ea891859028336ded3a.jpg"}},"label":null,"tags":[],"isAvailable":true,"maxAvailableQuantity":50,"maxAllowedQuantity":100,"breadcrumbs":[{"code":"4","name":"Lactate & ouă","slug":"4-lactate-branzeturi-si-oua"},{"code":"404","name":"Iaurt, desert și sana","slug":"404-iaurt-desert-si-sana"},{"code":"40411","name":"Produse lactate pentru copii","slug":"40411-produse-lactate-pentru-copii"},{"code":"100004508","name":"Iaurt de băut cu căpșuni 70g","slug":"100004508-danonino-iaurt-de-baut-cu-capsuni-70g"}],"activePromotion":null,"saveMe":null,"labels":[],"geniusPrice":null,"geniusUnitPricePerLabel":null,"banner":null,"discountLabel":null,"geniusDiscountLabel":null,"badge":null},{"code":"100126320","variantCode":"100126320","name":"Iaurt mix Tom&Jerry iaurt vanile 140g","slug":"100126320-muller-iaurt-mix-tom-jerry-iaurt-vanile-140g","unitPriceLabel":"34,21 Lei/kg","brand":"Müller","brandCode":"258","brandFilterCode":"muller-b259","sku":"100126320","price":4.79,"originalPrice":null,"currencyCode":"RON","currency":"Lei","image":{"thumbnail":{"default":"https://cdn.freshful.ro/media/cache/sylius_shop_product_thumbnail/96/7e/9b8a256f57837c2808571502752b.jpg"},"large":{"default":"https://cdn.freshful.ro/media/cache/freshful_large/96/7e/9b8a256f57837c2808571502752b.jpg"},"extralarge":{"default":"https://cdn.freshful.ro/media/cache/sylius_shop_product_original/96/7e/9b8a256f57837c2808571502752b.jpg"}},"label":null,"tags":[],"isAvailable":true,"maxAvailableQuantity":76,"maxAllowedQuantity":100,"breadcrumbs":[{"code":"4","name":"Lactate & ouă","slug":"4-lactate-branzeturi-si-oua"},{"code":"404","name":"Iaurt, desert și sana","slug":"404-iaurt-desert-si-sana"},{"code":"40411","name":"Produse lactate pentru copii","slug":"40411-produse-lactate-pentru-copii"},{"code":"100126320","name":"Iaurt mix Tom&Jerry iaurt vanile 140g","slug":"100126320-muller-iaurt-mix-tom-jerry-iaurt-vanile-140g"}],"activePromotion":null,"saveMe":null,"labels":[],"geniusPrice":null,"geniusUnitPricePerLabel":null,"banner":null,"discountLabel":null,"geniusDiscountLabel":null,"badge":null},{"code":"100004045","variantCode":"3023290014318","name":"Iaurt cu bile de cereale 120g ","slug":"100004045-nesquik-iaurt-cu-bile-de-cereale-120g","unitPriceLabel":"42,92 Lei/kg","brand":"Nesquik","brandCode":"6","brandFilterCode":"nesquik-b56","sku":"100004045","price":5.15,"originalPrice":null,"currencyCode":"RON","currency":"Lei","image":{"thumbnail":{"default":"https://cdn.freshful.ro/media/cache/sylius_shop_product_thumbnail/7c/6a/ac4b12b0e51aa46e7de449361803.jpg"},"large":{"default":"https://cdn.freshful.ro/media/cache/freshful_large/7c/6a/ac4b12b0e51aa46e7de449361803.jpg"},"extralarge":{"default":"https://cdn.freshful.ro/media/cache/sylius_shop_product_original/7c/6a/ac4b12b0e51aa46e7de449361803.jpg"}},"label":null,"tags":[],"isAvailable":true,"maxAvailableQuantity":44,"maxAllowedQuantity":100,"breadcrumbs":[{"code":"4","name":"Lactate & ouă","slug":"4-lactate-branzeturi-si-oua"},{"code":"404","name":"Iaurt, desert și sana","slug":"404-iaurt-desert-si-sana"},{"code":"40411","name":"Produse lactate pentru copii","slug":"40411-produse-lactate-pentru-copii"},{"code":"100004045","name":"Iaurt cu bile de cereale 120g ","slug":"100004045-nesquik-iaurt-cu-bile-de-cereale-120g"}],"activePromotion":null,"saveMe":null,"labels":[],"geniusPrice":null,"geniusUnitPricePerLabel":null,"banner":null,"discountLabel":null,"geniusDiscountLabel":null,"badge":null},{"code":"100004507","variantCode":"5941209016018","name":"Iaurt cu piure de căpșuni și banane 70g","slug":"100004507-danonino-iaurt-cu-piure-de-capsuni-si-banane-70g","unitPriceLabel":"47,86 Lei/kg","brand":"Danonino","brandCode":"36","brandFilterCode":"danonino-b30","sku":"100004507","price":3.35,"originalPrice":null,"currencyCode":"RON","currency":"Lei","image":{"thumbnail":{"default":"https://cdn.freshful.ro/media/cache/sylius_shop_product_thumbnail/4f/2d/44c056c34fac8174e37120ac25d6.jpg"},"large":{"default":"https://cdn.freshful.ro/media/cache/freshful_large/4f/2d/44c056c34fac8174e37120ac25d6.jpg"},"extralarge":{"default":"https://cdn.freshful.ro/media/cache/sylius_shop_product_original/4f/2d/44c056c34fac8174e37120ac25d6.jpg"}},"label":null,"tags":[],"isAvailable":true,"maxAvailableQuantity":38,"maxAllowedQuantity":100,"breadcrumbs":[{"code":"4","name":"Lactate & ouă","slug":"4-lactate-branzeturi-si-oua"},{"code":"404","name":"Iaurt, desert și sana","slug":"404-iaurt-desert-si-sana"},{"code":"40411","name":"Produse lactate pentru copii","slug":"40411-produse-lactate-pentru-copii"},{"code":"100004507","name":"Iaurt cu piure de căpșuni și banane 70g","slug":"100004507-danonino-iaurt-cu-piure-de-capsuni-si-banane-70g"}],"activePromotion":null,"saveMe":null,"labels":[],"geniusPrice":null,"geniusUnitPricePerLabel":null,"banner":null,"discountLabel":null,"geniusDiscountLabel":null,"badge":null},{"code":"100037237","variantCode":"4023600202281","name":"Budincă cu gust de ciocolată și vanilie Paula 4x125g","slug":"100037237-dr-oetker-budinca-cu-gust-de-ciocolata-si-vanilie-paula-4x125g","unitPriceLabel":"27,18 Lei/kg","brand":"Dr. Oetker","brandCode":"55","brandFilterCode":"dr-oetker-b51","sku":"100037237","price":13.59,"originalPrice":null,"currencyCode":"RON","currency":"Lei","image":{"thumbnail":{"default":"https://cdn.freshful.ro/media/cache/sylius_shop_product_thumbnail/aa/3c/dc32712f44320c50847affa193af.jpg"},"large":{"default":"https://cdn.freshful.ro/media/cache/freshful_large/aa/3c/dc32712f44320c50847affa193af.jpg"},"extralarge":{"default":"https://cdn.freshful.ro/media/cache/sylius_shop_product_original/aa/3c/dc32712f44320c50847affa193af.jpg"}},"label":null,"tags":[],"isAvailable":true,"maxAvailableQuantity":8,"maxAllowedQuantity":100,"breadcrumbs":[{"code":"4","name":"Lactate & ouă","slug":"4-lactate-branzeturi-si-oua"},{"code":"404","name":"Iaurt, desert și sana","slug":"404-iaurt-desert-si-sana"},{"code":"40411","name":"Produse lactate pentru copii","slug":"40411-produse-lactate-pentru-copii"},{"code":"100037237","name":"Budincă cu gust de ciocolată și vanilie Paula 4x125g","slug":"100037237-dr-oetker-budinca-cu-gust-de-ciocolata-si-vanilie-paula-4x125g"}],"activePromotion":null,"saveMe":null,"labels":[],"geniusPrice":null,"geniusUnitPricePerLabel":null,"banner":null,"discountLabel":null,"geniusDiscountLabel":null,"badge":null},{"code":"100126321","variantCode":"100126321","name":"Iaurt mix tom&jerry iaurt cu steluțe ciocolată 140g","slug":"100126321-muller-iaurt-mix-tom-jerry-iaurt-cu-stelute-ciocolata-140g","unitPriceLabel":"34,93 Lei/kg","brand":"Müller","brandCode":"258","brandFilterCode":"muller-b259","sku":"100126321","price":4.89,"originalPrice":null,"currencyCode":"RON","currency":"Lei","image":{"thumbnail":{"default":"https://cdn.freshful.ro/media/cache/sylius_shop_product_thumbnail/30/55/e4b55fb368718b201587143ccfd9.jpg"},"large":{"default":"https://cdn.freshful.ro/media/cache/freshful_large/30/55/e4b55fb368718b201587143ccfd9.jpg"},"extralarge":{"default":"https://cdn.freshful.ro/media/cache/sylius_shop_product_original/30/55/e4b55fb368718b201587143ccfd9.jpg"}},"label":null,"tags":[],"isAvailable":true,"maxAvailableQuantity":22,"maxAllowedQuantity":100,"breadcrumbs":[{"code":"4","name":"Lactate & ouă","slug":"4-lactate-branzeturi-si-oua"},{"code":"404","name":"Iaurt, desert și sana","slug":"404-iaurt-desert-si-sana"},{"code":"40411","name":"Produse lactate pentru copii","slug":"40411-produse-lactate-pentru-copii"},{"code":"100126321","name":"Iaurt mix tom&jerry iaurt cu steluțe ciocolată 140g","slug":"100126321-muller-iaurt-mix-tom-jerry-iaurt-cu-stelute-ciocolata-140g"}],"activePromotion":null,"saveMe":null,"labels":[],"geniusPrice":null,"geniusUnitPricePerLabel":null,"banner":null,"discountLabel":null,"geniusDiscountLabel":null,"badge":null}],"filters":{"countSelected":0,"items":[{"code":"brand","name":"Brand","countSelected":0,"values":[{"code":"danonino-b30","name":"Danonino","isSelected":false,"count":6},{"code":"dr-oetker-b51","name":"Dr. Oetker","isSelected":false,"count":4},{"code":"kinder-b11","name":"Kinder","isSelected":false,"count":1},{"code":"kit-kat-b3","name":"Kit Kat","isSelected":false,"count":1},{"code":"muller-b259","name":"Müller","isSelected":false,"count":2},{"code":"nesquik-b56","name":"Nesquik","isSelected":false,"count":1},{"code":"smarties-b5","name":"Smarties","isSelected":false,"count":1}]},{"code":"diet_lifestyle","name":"Dietă și lifestyle","countSelected":0,"values":[{"code":"fara-conservanti-a37","name":"Fara conservanti","isSelected":false,"count":1}]}]},"orderBy":[{"field":"price","direction":"asc","name":"Preț crescător","isSelected":false},{"field":"price","direction":"desc","name":"Preț descrescător","isSelected":false},{"field":"popularity","direction":"desc","name":"Cele mai populare","isSelected":true},{"field":"category","direction":"asc","name":"Categorie","isSelected":false}],"metaTitle":"Produse lactate pentru copii - Gamă variată","metaDescription":"Vrei Produse lactate pentru copii? Alege dintr-o gamă variată. Comanzi simplu și ai livrare rapidă, calitate și prospețime. Hai pe Freshful.ro","metaKeywords":null,"banners":[]}}