{"type":"subcategory","payload":{"analyticsListId":"category_40410-lapte-batut-chefir-si-sana","analyticsListName":"Category - Lapte bătut, chefir și sana","name":"Lapte bătut, chefir și sana","slug":"40410-lapte-batut-chefir-si-sana","image":null,"breadcrumbs":[{"code":"4","name":"Lactate & ouă","slug":"4-lactate-branzeturi-si-oua"},{"code":"404","name":"Iaurt, desert și sana","slug":"404-iaurt-desert-si-sana"},{"code":"40410","name":"Lapte bătut, chefir și sana","slug":"40410-lapte-batut-chefir-si-sana"}],"slots":[],"page":1,"limit":10,"pages":5,"count":46,"siblings":[{"name":"Lapte, smântână și brânză proaspătă","slug":"401-lapte-smantana-si-branza-proaspata","selected":false},{"name":"Unt","slug":"402-unt-si-margarina","selected":false},{"name":"Lactate UHT","slug":"403-lactate-uht","selected":false},{"name":"Iaurt, desert și sana","slug":"404-iaurt-desert-si-sana","selected":true},{"name":"Ouă","slug":"405-oua","selected":false},{"name":"Brânzeturi","slug":"406-branzeturi","selected":false},{"name":"Lapte și lactate ECO","slug":"lapte-si-lactate-eco","selected":false},{"name":"Amestecuri lactate și grasimi vegetale","slug":"amestecuri-lactate-si-grasimi-vegetale","selected":false}],"children":[{"name":"Toate produsele","slug":"404-iaurt-desert-si-sana","selected":false},{"name":"Probiotice și bifidus","slug":"40401-probiotice-si-bifidus","selected":false},{"name":"Iaurturi și deserturi fără lactoză","slug":"40402-iaurturi-si-deserturi-fara-lactoza","selected":false},{"name":"Iaurt simplu","slug":"40403-iaurt-simplu","selected":false},{"name":"Iaurt cu fructe și arome","slug":"40404-iaurt-fructe-si-cu-arome","selected":false},{"name":"Iaurt de băut","slug":"40405-iaurt-de-baut","selected":false},{"name":"Lactate dietetice","slug":"40407-lactate-dietetice","selected":false},{"name":"Deserturi","slug":"40409-deserturi","selected":false},{"name":"Lapte bătut, chefir și sana","slug":"40410-lapte-batut-chefir-si-sana","selected":true},{"name":"Produse lactate pentru copii","slug":"40411-produse-lactate-pentru-copii","selected":false}],"products":[{"code":"100035556","variantCode":"5941850960616","name":"Kefir din lapte de capră 300g","slug":"100035556-gustolact-kefir-din-lapte-de-capra-300g","unitPriceLabel":"18,3 Lei/kg","brand":"Gustolact","brandCode":"501","brandFilterCode":"gustolact-b502","sku":"100035556","price":5.49,"originalPrice":6.49,"currencyCode":"RON","currency":"Lei","image":{"thumbnail":{"default":"https://cdn.freshful.ro/media/cache/sylius_shop_product_thumbnail/c9/05/bb60e749a4ac7952f7bed9a42b9c.jpg"},"large":{"default":"https://cdn.freshful.ro/media/cache/freshful_large/c9/05/bb60e749a4ac7952f7bed9a42b9c.jpg"},"extralarge":{"default":"https://cdn.freshful.ro/media/cache/sylius_shop_product_original/c9/05/bb60e749a4ac7952f7bed9a42b9c.jpg"}},"label":{"text":"-15%","backgroundColor":"#FF9903","textColor":"#FFFFFF"},"tags":[{"type":"MadeInRomania","text":"Made In Romania","icon":"https://cdn.freshful.ro/assets/product_tags/made_in_romania.svg","iconPng":"https://cdn.freshful.ro/assets/product_tags/made_in_romania.png","backgroundColor":"#EDF2FD","textColor":"#1653CA"}],"isAvailable":true,"maxAvailableQuantity":58,"maxAllowedQuantity":100,"breadcrumbs":[{"code":"4","name":"Lactate & ouă","slug":"4-lactate-branzeturi-si-oua"},{"code":"404","name":"Iaurt, desert și sana","slug":"404-iaurt-desert-si-sana"},{"code":"40410","name":"Lapte bătut, chefir și sana","slug":"40410-lapte-batut-chefir-si-sana"},{"code":"100035556","name":"Kefir din lapte de capră 300g","slug":"100035556-gustolact-kefir-din-lapte-de-capra-300g"}],"activePromotion":{"code":"bunatatile-saptamanii-cw0923","name":"Preț redus","targetQuantity":null},"saveMe":null,"labels":[{"type":"v1","items":[{"text":"-15%","backgroundColor":"#FF9903","textColor":"#FFFFFF"}]}],"geniusPrice":null,"geniusUnitPricePerLabel":null,"banner":{"text":"Super preț","textColor":"#FF0000","bgColor":"#FFF2EC","icon":null,"link":"https://www.freshful.ro/oferte/bunatatile-saptamanii-cw0923","type":"promo","analyticsEventType":"select_promotion","analyticsEventPayload":{"promotion_id":"bunatatile-saptamanii-cw0923","promotion_name":"Oferta proaspătă a săptămânii"}},"discountLabel":"Economisești 15%","geniusDiscountLabel":null,"badge":null},{"code":"100030303","variantCode":"5941065012438","name":"Chefir 3.3% grăsime 900g","slug":"100030303-napolact-chefir-3-3-grasime-900g","unitPriceLabel":"11,1 Lei/kg","brand":"Napolact","brandCode":"79","brandFilterCode":"napolact-b77","sku":"100030303","price":9.99,"originalPrice":null,"currencyCode":"RON","currency":"Lei","image":{"thumbnail":{"default":"https://cdn.freshful.ro/media/cache/sylius_shop_product_thumbnail/0b/13/58cb3c037e849239fea17ca2aa6b.jpg"},"large":{"default":"https://cdn.freshful.ro/media/cache/freshful_large/0b/13/58cb3c037e849239fea17ca2aa6b.jpg"},"extralarge":{"default":"https://cdn.freshful.ro/media/cache/sylius_shop_product_original/0b/13/58cb3c037e849239fea17ca2aa6b.jpg"}},"label":null,"tags":[{"type":"MadeInRomania","text":"Made In Romania","icon":"https://cdn.freshful.ro/assets/product_tags/made_in_romania.svg","iconPng":"https://cdn.freshful.ro/assets/product_tags/made_in_romania.png","backgroundColor":"#EDF2FD","textColor":"#1653CA"}],"isAvailable":true,"maxAvailableQuantity":100,"maxAllowedQuantity":100,"breadcrumbs":[{"code":"4","name":"Lactate & ouă","slug":"4-lactate-branzeturi-si-oua"},{"code":"404","name":"Iaurt, desert și sana","slug":"404-iaurt-desert-si-sana"},{"code":"40410","name":"Lapte bătut, chefir și sana","slug":"40410-lapte-batut-chefir-si-sana"},{"code":"100030303","name":"Chefir 3.3% grăsime 900g","slug":"100030303-napolact-chefir-3-3-grasime-900g"}],"activePromotion":null,"saveMe":null,"labels":[],"geniusPrice":null,"geniusUnitPricePerLabel":null,"banner":null,"discountLabel":null,"geniusDiscountLabel":null,"badge":null},{"code":"100030301","variantCode":"5941065012421","name":"Chefir 3.3% grăsime 330g","slug":"100030301-napolact-chefir-3-3-grasime-330g","unitPriceLabel":"15,73 Lei/kg","brand":"Napolact","brandCode":"79","brandFilterCode":"napolact-b77","sku":"100030301","price":5.19,"originalPrice":null,"currencyCode":"RON","currency":"Lei","image":{"thumbnail":{"default":"https://cdn.freshful.ro/media/cache/sylius_shop_product_thumbnail/72/56/791d8af44166050b278532d14ab4.jpg"},"large":{"default":"https://cdn.freshful.ro/media/cache/freshful_large/72/56/791d8af44166050b278532d14ab4.jpg"},"extralarge":{"default":"https://cdn.freshful.ro/media/cache/sylius_shop_product_original/72/56/791d8af44166050b278532d14ab4.jpg"}},"label":null,"tags":[{"type":"MadeInRomania","text":"Made In Romania","icon":"https://cdn.freshful.ro/assets/product_tags/made_in_romania.svg","iconPng":"https://cdn.freshful.ro/assets/product_tags/made_in_romania.png","backgroundColor":"#EDF2FD","textColor":"#1653CA"}],"isAvailable":true,"maxAvailableQuantity":100,"maxAllowedQuantity":100,"breadcrumbs":[{"code":"4","name":"Lactate & ouă","slug":"4-lactate-branzeturi-si-oua"},{"code":"404","name":"Iaurt, desert și sana","slug":"404-iaurt-desert-si-sana"},{"code":"40410","name":"Lapte bătut, chefir și sana","slug":"40410-lapte-batut-chefir-si-sana"},{"code":"100030301","name":"Chefir 3.3% grăsime 330g","slug":"100030301-napolact-chefir-3-3-grasime-330g"}],"activePromotion":null,"saveMe":null,"labels":[],"geniusPrice":null,"geniusUnitPricePerLabel":null,"banner":null,"discountLabel":null,"geniusDiscountLabel":null,"badge":null},{"code":"100141755","variantCode":"100141755","name":"Kefir 3,5% grăsime 330g","slug":"100141755-nucet-kefir-3-5-grasime-330g","unitPriceLabel":"12,09 Lei/kg","brand":"Nucet","brandCode":"2518","brandFilterCode":"nucet-b2523","sku":"100141755","price":3.99,"originalPrice":null,"currencyCode":"RON","currency":"Lei","image":{"thumbnail":{"default":"https://cdn.freshful.ro/media/cache/sylius_shop_product_thumbnail/40/50/0857d9e1792761b345afc88a8d12.jpg"},"large":{"default":"https://cdn.freshful.ro/media/cache/freshful_large/40/50/0857d9e1792761b345afc88a8d12.jpg"},"extralarge":{"default":"https://cdn.freshful.ro/media/cache/sylius_shop_product_original/40/50/0857d9e1792761b345afc88a8d12.jpg"}},"label":{"text":"Mici producători","backgroundColor":"#7B61FF","textColor":"#FFFFFF"},"tags":[{"type":"NoE","text":"Fara E-uri","icon":"https://cdn.freshful.ro/assets/product_tags/fara_euri.svg","iconPng":"https://cdn.freshful.ro/assets/product_tags/fara_euri.png","backgroundColor":"#FCF5DF","textColor":"#CAA316"},{"type":"MadeInRomania","text":"Made In Romania","icon":"https://cdn.freshful.ro/assets/product_tags/made_in_romania.svg","iconPng":"https://cdn.freshful.ro/assets/product_tags/made_in_romania.png","backgroundColor":"#EDF2FD","textColor":"#1653CA"}],"isAvailable":true,"maxAvailableQuantity":100,"maxAllowedQuantity":100,"breadcrumbs":[{"code":"4","name":"Lactate & ouă","slug":"4-lactate-branzeturi-si-oua"},{"code":"404","name":"Iaurt, desert și sana","slug":"404-iaurt-desert-si-sana"},{"code":"40410","name":"Lapte bătut, chefir și sana","slug":"40410-lapte-batut-chefir-si-sana"},{"code":"100141755","name":"Kefir 3,5% grăsime 330g","slug":"100141755-nucet-kefir-3-5-grasime-330g"}],"activePromotion":null,"saveMe":null,"labels":[{"type":"v1","items":[{"text":"Mici producători","backgroundColor":"#7B61FF","textColor":"#FFFFFF"}]}],"geniusPrice":null,"geniusUnitPricePerLabel":null,"banner":null,"discountLabel":null,"geniusDiscountLabel":null,"badge":null},{"code":"100003484","variantCode":"4025500259464","name":"Ayran 500g","slug":"100003484-muller-ayran-500g","unitPriceLabel":"11,98 Lei/l","brand":"Müller","brandCode":"258","brandFilterCode":"muller-b259","sku":"100003484","price":5.99,"originalPrice":null,"currencyCode":"RON","currency":"Lei","image":{"thumbnail":{"default":"https://cdn.freshful.ro/media/cache/sylius_shop_product_thumbnail/54/e5/b0c476e77a4e7d25d543a61fd4c1.jpg"},"large":{"default":"https://cdn.freshful.ro/media/cache/freshful_large/54/e5/b0c476e77a4e7d25d543a61fd4c1.jpg"},"extralarge":{"default":"https://cdn.freshful.ro/media/cache/sylius_shop_product_original/54/e5/b0c476e77a4e7d25d543a61fd4c1.jpg"}},"label":null,"tags":[],"isAvailable":true,"maxAvailableQuantity":100,"maxAllowedQuantity":100,"breadcrumbs":[{"code":"4","name":"Lactate & ouă","slug":"4-lactate-branzeturi-si-oua"},{"code":"404","name":"Iaurt, desert și sana","slug":"404-iaurt-desert-si-sana"},{"code":"40410","name":"Lapte bătut, chefir și sana","slug":"40410-lapte-batut-chefir-si-sana"},{"code":"100003484","name":"Ayran 500g","slug":"100003484-muller-ayran-500g"}],"activePromotion":null,"saveMe":null,"labels":[],"geniusPrice":null,"geniusUnitPricePerLabel":null,"banner":null,"discountLabel":null,"geniusDiscountLabel":null,"badge":null},{"code":"100142588","variantCode":"100142588","name":"Kefir din lapte de vacă 350ml","slug":"100142588-artesana-kefir-din-lapte-de-vaca-350ml","unitPriceLabel":"24,26 Lei/l","brand":"Artesana","brandCode":"218","brandFilterCode":"artesana-b219","sku":"100142588","price":8.49,"originalPrice":null,"currencyCode":"RON","currency":"Lei","image":{"thumbnail":{"default":"https://cdn.freshful.ro/media/cache/sylius_shop_product_thumbnail/8a/f4/b0efa1ec0bb7352d1d6efc3bd10a.jpg"},"large":{"default":"https://cdn.freshful.ro/media/cache/freshful_large/8a/f4/b0efa1ec0bb7352d1d6efc3bd10a.jpg"},"extralarge":{"default":"https://cdn.freshful.ro/media/cache/sylius_shop_product_original/8a/f4/b0efa1ec0bb7352d1d6efc3bd10a.jpg"}},"label":null,"tags":[{"type":"MadeInRomania","text":"Made In Romania","icon":"https://cdn.freshful.ro/assets/product_tags/made_in_romania.svg","iconPng":"https://cdn.freshful.ro/assets/product_tags/made_in_romania.png","backgroundColor":"#EDF2FD","textColor":"#1653CA"}],"isAvailable":true,"maxAvailableQuantity":100,"maxAllowedQuantity":100,"breadcrumbs":[{"code":"4","name":"Lactate & ouă","slug":"4-lactate-branzeturi-si-oua"},{"code":"404","name":"Iaurt, desert și sana","slug":"404-iaurt-desert-si-sana"},{"code":"40410","name":"Lapte bătut, chefir și sana","slug":"40410-lapte-batut-chefir-si-sana"},{"code":"100142588","name":"Kefir din lapte de vacă 350ml","slug":"100142588-artesana-kefir-din-lapte-de-vaca-350ml"}],"activePromotion":null,"saveMe":null,"labels":[],"geniusPrice":null,"geniusUnitPricePerLabel":null,"banner":null,"discountLabel":null,"geniusDiscountLabel":null,"badge":null},{"code":"100142600","variantCode":"100142600","name":"Kefir din lapte de capră 350ml","slug":"100142600-artesana-kefir-din-lapte-de-capra-350ml","unitPriceLabel":"28,54 Lei/l","brand":"Artesana","brandCode":"218","brandFilterCode":"artesana-b219","sku":"100142600","price":9.99,"originalPrice":null,"currencyCode":"RON","currency":"Lei","image":{"thumbnail":{"default":"https://cdn.freshful.ro/media/cache/sylius_shop_product_thumbnail/4f/0a/13916a2d4149720622aef8c4ff65.jpg"},"large":{"default":"https://cdn.freshful.ro/media/cache/freshful_large/4f/0a/13916a2d4149720622aef8c4ff65.jpg"},"extralarge":{"default":"https://cdn.freshful.ro/media/cache/sylius_shop_product_original/4f/0a/13916a2d4149720622aef8c4ff65.jpg"}},"label":null,"tags":[{"type":"MadeInRomania","text":"Made In Romania","icon":"https://cdn.freshful.ro/assets/product_tags/made_in_romania.svg","iconPng":"https://cdn.freshful.ro/assets/product_tags/made_in_romania.png","backgroundColor":"#EDF2FD","textColor":"#1653CA"}],"isAvailable":true,"maxAvailableQuantity":100,"maxAllowedQuantity":100,"breadcrumbs":[{"code":"4","name":"Lactate & ouă","slug":"4-lactate-branzeturi-si-oua"},{"code":"404","name":"Iaurt, desert și sana","slug":"404-iaurt-desert-si-sana"},{"code":"40410","name":"Lapte bătut, chefir și sana","slug":"40410-lapte-batut-chefir-si-sana"},{"code":"100142600","name":"Kefir din lapte de capră 350ml","slug":"100142600-artesana-kefir-din-lapte-de-capra-350ml"}],"activePromotion":null,"saveMe":null,"labels":[],"geniusPrice":null,"geniusUnitPricePerLabel":null,"banner":null,"discountLabel":null,"geniusDiscountLabel":null,"badge":null},{"code":"100030298","variantCode":"5941065004426","name":"Sana 3.5% grăsime 330g","slug":"100030298-napolact-sana-3-5-grasime-330g","unitPriceLabel":"16,03 Lei/kg","brand":"Napolact","brandCode":"79","brandFilterCode":"napolact-b77","sku":"100030298","price":5.29,"originalPrice":null,"currencyCode":"RON","currency":"Lei","image":{"thumbnail":{"default":"https://cdn.freshful.ro/media/cache/sylius_shop_product_thumbnail/f0/5d/6bb6fe37c2b5bb2b975716067101.jpg"},"large":{"default":"https://cdn.freshful.ro/media/cache/freshful_large/f0/5d/6bb6fe37c2b5bb2b975716067101.jpg"},"extralarge":{"default":"https://cdn.freshful.ro/media/cache/sylius_shop_product_original/f0/5d/6bb6fe37c2b5bb2b975716067101.jpg"}},"label":null,"tags":[{"type":"MadeInRomania","text":"Made In Romania","icon":"https://cdn.freshful.ro/assets/product_tags/made_in_romania.svg","iconPng":"https://cdn.freshful.ro/assets/product_tags/made_in_romania.png","backgroundColor":"#EDF2FD","textColor":"#1653CA"}],"isAvailable":true,"maxAvailableQuantity":64,"maxAllowedQuantity":100,"breadcrumbs":[{"code":"4","name":"Lactate & ouă","slug":"4-lactate-branzeturi-si-oua"},{"code":"404","name":"Iaurt, desert și sana","slug":"404-iaurt-desert-si-sana"},{"code":"40410","name":"Lapte bătut, chefir și sana","slug":"40410-lapte-batut-chefir-si-sana"},{"code":"100030298","name":"Sana 3.5% grăsime 330g","slug":"100030298-napolact-sana-3-5-grasime-330g"}],"activePromotion":null,"saveMe":null,"labels":[],"geniusPrice":null,"geniusUnitPricePerLabel":null,"banner":null,"discountLabel":null,"geniusDiscountLabel":null,"badge":null},{"code":"100047580","variantCode":"100047580","name":"Chefir 3.3% grăsime 330g","slug":"100047580-covalact-chefir-3-3-grasime-330g","unitPriceLabel":"12,58 Lei/kg","brand":"Covalact","brandCode":"784","brandFilterCode":"covalact-b785","sku":"100047580","price":4.15,"originalPrice":null,"currencyCode":"RON","currency":"Lei","image":{"thumbnail":{"default":"https://cdn.freshful.ro/media/cache/sylius_shop_product_thumbnail/4e/83/04def623cd9022ae101e5f3544bd.jpg"},"large":{"default":"https://cdn.freshful.ro/media/cache/freshful_large/4e/83/04def623cd9022ae101e5f3544bd.jpg"},"extralarge":{"default":"https://cdn.freshful.ro/media/cache/sylius_shop_product_original/4e/83/04def623cd9022ae101e5f3544bd.jpg"}},"label":null,"tags":[{"type":"MadeInRomania","text":"Made In Romania","icon":"https://cdn.freshful.ro/assets/product_tags/made_in_romania.svg","iconPng":"https://cdn.freshful.ro/assets/product_tags/made_in_romania.png","backgroundColor":"#EDF2FD","textColor":"#1653CA"}],"isAvailable":true,"maxAvailableQuantity":95,"maxAllowedQuantity":100,"breadcrumbs":[{"code":"4","name":"Lactate & ouă","slug":"4-lactate-branzeturi-si-oua"},{"code":"404","name":"Iaurt, desert și sana","slug":"404-iaurt-desert-si-sana"},{"code":"40410","name":"Lapte bătut, chefir și sana","slug":"40410-lapte-batut-chefir-si-sana"},{"code":"100047580","name":"Chefir 3.3% grăsime 330g","slug":"100047580-covalact-chefir-3-3-grasime-330g"}],"activePromotion":null,"saveMe":null,"labels":[],"geniusPrice":null,"geniusUnitPricePerLabel":null,"banner":null,"discountLabel":null,"geniusDiscountLabel":null,"badge":null},{"code":"100141756","variantCode":"100141756","name":"Sana 3,5% grăsime 330g","slug":"100141756-nucet-sana-3-5-grasime-330g","unitPriceLabel":"12,09 Lei/kg","brand":"Nucet","brandCode":"2518","brandFilterCode":"nucet-b2523","sku":"100141756","price":3.99,"originalPrice":null,"currencyCode":"RON","currency":"Lei","image":{"thumbnail":{"default":"https://cdn.freshful.ro/media/cache/sylius_shop_product_thumbnail/3d/05/b7c534cc391a0ba2b6dab0d9b21c.jpg"},"large":{"default":"https://cdn.freshful.ro/media/cache/freshful_large/3d/05/b7c534cc391a0ba2b6dab0d9b21c.jpg"},"extralarge":{"default":"https://cdn.freshful.ro/media/cache/sylius_shop_product_original/3d/05/b7c534cc391a0ba2b6dab0d9b21c.jpg"}},"label":{"text":"Mici producători","backgroundColor":"#7B61FF","textColor":"#FFFFFF"},"tags":[{"type":"NoE","text":"Fara E-uri","icon":"https://cdn.freshful.ro/assets/product_tags/fara_euri.svg","iconPng":"https://cdn.freshful.ro/assets/product_tags/fara_euri.png","backgroundColor":"#FCF5DF","textColor":"#CAA316"},{"type":"MadeInRomania","text":"Made In Romania","icon":"https://cdn.freshful.ro/assets/product_tags/made_in_romania.svg","iconPng":"https://cdn.freshful.ro/assets/product_tags/made_in_romania.png","backgroundColor":"#EDF2FD","textColor":"#1653CA"}],"isAvailable":true,"maxAvailableQuantity":90,"maxAllowedQuantity":100,"breadcrumbs":[{"code":"4","name":"Lactate & ouă","slug":"4-lactate-branzeturi-si-oua"},{"code":"404","name":"Iaurt, desert și sana","slug":"404-iaurt-desert-si-sana"},{"code":"40410","name":"Lapte bătut, chefir și sana","slug":"40410-lapte-batut-chefir-si-sana"},{"code":"100141756","name":"Sana 3,5% grăsime 330g","slug":"100141756-nucet-sana-3-5-grasime-330g"}],"activePromotion":null,"saveMe":null,"labels":[{"type":"v1","items":[{"text":"Mici producători","backgroundColor":"#7B61FF","textColor":"#FFFFFF"}]}],"geniusPrice":null,"geniusUnitPricePerLabel":null,"banner":null,"discountLabel":null,"geniusDiscountLabel":null,"badge":null}],"filters":{"countSelected":0,"items":[{"code":"promotion","name":"Promoții","countSelected":0,"values":[{"code":"bunatatile-saptamanii-cw0923","name":"Oferta proaspătă a săptămânii","isSelected":false,"count":1}]},{"code":"brand","name":"Brand","countSelected":0,"values":[{"code":"al-dar-b2716","name":"Al Dar","isSelected":false,"count":2},{"code":"albalact-b78","name":"Albalact","isSelected":false,"count":1},{"code":"artesana-b219","name":"Artesana","isSelected":false,"count":4},{"code":"colectar-b383","name":"Colectar","isSelected":false,"count":1},{"code":"covalact-b785","name":"Covalact","isSelected":false,"count":5},{"code":"danone-b27","name":"Danone","isSelected":false,"count":2},{"code":"gustolact-b502","name":"Gustolact","isSelected":false,"count":3},{"code":"huzur-b2725","name":"HUZUR","isSelected":false,"count":4},{"code":"laptaria-cu-caimac-b1","name":"Lăptăria cu caimac","isSelected":false,"count":3},{"code":"mirdatod-b756","name":"Mirdatod","isSelected":false,"count":2},{"code":"monor-b326","name":"Monor","isSelected":false,"count":3},{"code":"muller-b259","name":"Müller","isSelected":false,"count":1},{"code":"napolact-b77","name":"Napolact","isSelected":false,"count":5},{"code":"nucet-b2523","name":"Nucet","isSelected":false,"count":3},{"code":"olympus-b40","name":"Olympus","isSelected":false,"count":2},{"code":"ploo-n-gura-b887","name":"Ploo-N Gură","isSelected":false,"count":3},{"code":"unirea-gospodarilor-b1888","name":"Unirea Gospodarilor","isSelected":false,"count":2}]},{"code":"diet_lifestyle","name":"Dietă și lifestyle","countSelected":0,"values":[{"code":"fara-e-uri-a84","name":"Fara E-uri","isSelected":false,"count":3},{"code":"made-in-romania-a85","name":"Made In Romania","isSelected":false,"count":43}]}]},"orderBy":[{"field":"price","direction":"asc","name":"Preț crescător","isSelected":false},{"field":"price","direction":"desc","name":"Preț descrescător","isSelected":false},{"field":"popularity","direction":"desc","name":"Cele mai populare","isSelected":true},{"field":"category","direction":"asc","name":"Categorie","isSelected":false}],"metaTitle":"Lapte bătut, chefir și sana - Gamă variată","metaDescription":"Vrei Lapte bătut, chefir și sana? Alege dintr-o gamă variată. Comanzi simplu și ai livrare rapidă, calitate și prospețime. Hai pe Freshful.ro","metaKeywords":null,"banners":[]}}