{"type":"subcategory","payload":{"analyticsListId":"category_405-oua","analyticsListName":"Category - Ouă","name":"Ouă","slug":"405-oua","image":null,"breadcrumbs":[{"code":"4","name":"Lactate & ouă","slug":"4-lactate-branzeturi-si-oua"},{"code":"405","name":"Ouă","slug":"405-oua"}],"slots":[],"page":1,"limit":10,"pages":2,"count":20,"siblings":[{"name":"Lapte, smântână și brânză proaspătă","slug":"401-lapte-smantana-si-branza-proaspata","selected":false},{"name":"Unt","slug":"402-unt-si-margarina","selected":false},{"name":"Lactate UHT","slug":"403-lactate-uht","selected":false},{"name":"Iaurt, desert și sana","slug":"404-iaurt-desert-si-sana","selected":false},{"name":"Ouă","slug":"405-oua","selected":true},{"name":"Brânzeturi","slug":"406-branzeturi","selected":false},{"name":"Lapte și lactate ECO","slug":"lapte-si-lactate-eco","selected":false},{"name":"Amestecuri lactate și grasimi vegetale","slug":"amestecuri-lactate-si-grasimi-vegetale","selected":false}],"children":[{"name":"Toate produsele","slug":"405-oua","selected":true},{"name":"Ouă de prepeliță","slug":"40501-oua-de-prepelita","selected":false},{"name":"Ouă găină cod 0 ECO","slug":"40502-oua-gaina-cod-0-ecologice","selected":false},{"name":"Ouă găină cod 1","slug":"40503-oua-gaina-cod-1","selected":false},{"name":"Ouă găină cod 2","slug":"40504-oua-gaina-cod-2","selected":false},{"name":"Ouă lichide","slug":"oua-lichid","selected":false}],"products":[{"code":"100045317","variantCode":"6425309000010","name":"Ouă de prepelițe hrănite natural 24 buc","slug":"100045317-ecofarm-oua-de-prepelite-hranite-natural-24-buc","unitPriceLabel":"29,97 Lei/kg","brand":"Ecofarm","brandCode":"828","brandFilterCode":"ecofarm-b829","sku":"100045317","price":8.99,"originalPrice":10.99,"currencyCode":"RON","currency":"Lei","image":{"thumbnail":{"default":"https://cdn.freshful.ro/media/cache/sylius_shop_product_thumbnail/6b/7b/76b7a484f313f628334efbe5f8fc.jpg"},"large":{"default":"https://cdn.freshful.ro/media/cache/freshful_large/6b/7b/76b7a484f313f628334efbe5f8fc.jpg"},"extralarge":{"default":"https://cdn.freshful.ro/media/cache/sylius_shop_product_original/6b/7b/76b7a484f313f628334efbe5f8fc.jpg"}},"label":{"text":"-18%","backgroundColor":"#FF9903","textColor":"#FFFFFF"},"tags":[{"type":"MadeInRomania","text":"Made In Romania","icon":"https://cdn.freshful.ro/assets/product_tags/made_in_romania.svg","iconPng":"https://cdn.freshful.ro/assets/product_tags/made_in_romania.png","backgroundColor":"#EDF2FD","textColor":"#1653CA"}],"isAvailable":true,"maxAvailableQuantity":100,"maxAllowedQuantity":100,"breadcrumbs":[{"code":"4","name":"Lactate & ouă","slug":"4-lactate-branzeturi-si-oua"},{"code":"405","name":"Ouă","slug":"405-oua"},{"code":"40501","name":"Ouă de prepeliță","slug":"40501-oua-de-prepelita"},{"code":"100045317","name":"Ouă de prepelițe hrănite natural 24 buc","slug":"100045317-ecofarm-oua-de-prepelite-hranite-natural-24-buc"}],"activePromotion":{"code":"bunatatile-saptamanii-cw0923","name":"Preț redus","targetQuantity":null},"saveMe":null,"labels":[{"type":"v1","items":[{"text":"-18%","backgroundColor":"#FF9903","textColor":"#FFFFFF"}]}],"geniusPrice":null,"geniusUnitPricePerLabel":null,"banner":{"text":"Super preț","textColor":"#FF0000","bgColor":"#FFF2EC","icon":null,"link":"https://www.freshful.ro/oferte/bunatatile-saptamanii-cw0923","type":"promo","analyticsEventType":"select_promotion","analyticsEventPayload":{"promotion_id":"bunatatile-saptamanii-cw0923","promotion_name":"Oferta proaspătă a săptămânii"}},"discountLabel":"Economisești 18%","geniusDiscountLabel":null,"badge":null},{"code":"100101624","variantCode":"100101624","name":"Ouă ecologice, mărime M, cod 0, 6 buc","slug":"100101624-cortina-bio-oua-ecologice-marime-m-cod-0-6-buc","unitPriceLabel":"1,92 Lei/buc","brand":"Cortina Bio","brandCode":"1576","brandFilterCode":"cortina-bio-b1580","sku":"100101624","price":11.49,"originalPrice":null,"currencyCode":"RON","currency":"Lei","image":{"thumbnail":{"default":"https://cdn.freshful.ro/media/cache/sylius_shop_product_thumbnail/3f/7c/1aa0c4d83f1e0724f37505209eab.jpg"},"large":{"default":"https://cdn.freshful.ro/media/cache/freshful_large/3f/7c/1aa0c4d83f1e0724f37505209eab.jpg"},"extralarge":{"default":"https://cdn.freshful.ro/media/cache/sylius_shop_product_original/3f/7c/1aa0c4d83f1e0724f37505209eab.jpg"}},"label":{"text":"-20% cu Genius","backgroundColor":"#FEF3FA","textColor":"#CD015F"},"tags":[{"type":"MadeInRomania","text":"Made In Romania","icon":"https://cdn.freshful.ro/assets/product_tags/made_in_romania.svg","iconPng":"https://cdn.freshful.ro/assets/product_tags/made_in_romania.png","backgroundColor":"#EDF2FD","textColor":"#1653CA"},{"type":"Eco","text":"Eco","icon":"https://cdn.freshful.ro/assets/product_tags/eco.svg","iconPng":"https://cdn.freshful.ro/assets/product_tags/eco.png","backgroundColor":"#EFFBE4","textColor":"#66BB1B"}],"isAvailable":true,"maxAvailableQuantity":72,"maxAllowedQuantity":100,"breadcrumbs":[{"code":"4","name":"Lactate & ouă","slug":"4-lactate-branzeturi-si-oua"},{"code":"405","name":"Ouă","slug":"405-oua"},{"code":"40502","name":"Ouă găină cod 0 ECO","slug":"40502-oua-gaina-cod-0-ecologice"},{"code":"100101624","name":"Ouă ecologice, mărime M, cod 0, 6 buc","slug":"100101624-cortina-bio-oua-ecologice-marime-m-cod-0-6-buc"}],"activePromotion":null,"saveMe":null,"labels":[{"type":"gdeals","items":[{"text":"","backgroundColor":"","textColor":""}]},{"type":"v3","items":[{"text":"-20% cu Genius","backgroundColor":"#FEF3FA","textColor":"#CD015F"}]}],"geniusPrice":9.19,"geniusUnitPricePerLabel":"1,53 Lei/buc","banner":null,"discountLabel":null,"geniusDiscountLabel":"Economisești 20%","badge":null},{"code":"100059930","variantCode":"100059930","name":"Ouă ecologice, mărime M-L, cod 0, 10 buc","slug":"100059930-oua-de-tara-oua-ecologice-marime-m-l-cod-0-10-buc","unitPriceLabel":"1,8 Lei/buc","brand":"Ouă de țară","brandCode":"916","brandFilterCode":"oua-de-tara-b917","sku":"100059930","price":17.99,"originalPrice":null,"currencyCode":"RON","currency":"Lei","image":{"thumbnail":{"default":"https://cdn.freshful.ro/media/cache/sylius_shop_product_thumbnail/47/06/d94d8203653e4f253637f154c1a3.jpg"},"large":{"default":"https://cdn.freshful.ro/media/cache/freshful_large/47/06/d94d8203653e4f253637f154c1a3.jpg"},"extralarge":{"default":"https://cdn.freshful.ro/media/cache/sylius_shop_product_original/47/06/d94d8203653e4f253637f154c1a3.jpg"}},"label":null,"tags":[{"type":"Eco","text":"Eco","icon":"https://cdn.freshful.ro/assets/product_tags/eco.svg","iconPng":"https://cdn.freshful.ro/assets/product_tags/eco.png","backgroundColor":"#EFFBE4","textColor":"#66BB1B"}],"isAvailable":true,"maxAvailableQuantity":100,"maxAllowedQuantity":100,"breadcrumbs":[{"code":"4","name":"Lactate & ouă","slug":"4-lactate-branzeturi-si-oua"},{"code":"405","name":"Ouă","slug":"405-oua"},{"code":"40502","name":"Ouă găină cod 0 ECO","slug":"40502-oua-gaina-cod-0-ecologice"},{"code":"100059930","name":"Ouă ecologice, mărime M-L, cod 0, 10 buc","slug":"100059930-oua-de-tara-oua-ecologice-marime-m-l-cod-0-10-buc"}],"activePromotion":null,"saveMe":null,"labels":[],"geniusPrice":null,"geniusUnitPricePerLabel":null,"banner":null,"discountLabel":null,"geniusDiscountLabel":null,"badge":null},{"code":"100038980","variantCode":"5941460008562","name":"Ouă Chef, mărime L, cod 2, 20 buc","slug":"100038980-agricola-oua-chef-marime-l-cod-2-20-buc","unitPriceLabel":"1,05 Lei/buc","brand":"Agricola","brandCode":"70","brandFilterCode":"agricola-b68","sku":"100038980","price":20.99,"originalPrice":null,"currencyCode":"RON","currency":"Lei","image":{"thumbnail":{"default":"https://cdn.freshful.ro/media/cache/sylius_shop_product_thumbnail/1a/fb/7194a29c3f9145ecce2daa90deaa.jpg"},"large":{"default":"https://cdn.freshful.ro/media/cache/freshful_large/1a/fb/7194a29c3f9145ecce2daa90deaa.jpg"},"extralarge":{"default":"https://cdn.freshful.ro/media/cache/sylius_shop_product_original/1a/fb/7194a29c3f9145ecce2daa90deaa.jpg"}},"label":null,"tags":[{"type":"MadeInRomania","text":"Made In Romania","icon":"https://cdn.freshful.ro/assets/product_tags/made_in_romania.svg","iconPng":"https://cdn.freshful.ro/assets/product_tags/made_in_romania.png","backgroundColor":"#EDF2FD","textColor":"#1653CA"}],"isAvailable":true,"maxAvailableQuantity":100,"maxAllowedQuantity":100,"breadcrumbs":[{"code":"4","name":"Lactate & ouă","slug":"4-lactate-branzeturi-si-oua"},{"code":"405","name":"Ouă","slug":"405-oua"},{"code":"40504","name":"Ouă găină cod 2","slug":"40504-oua-gaina-cod-2"},{"code":"100038980","name":"Ouă Chef, mărime L, cod 2, 20 buc","slug":"100038980-agricola-oua-chef-marime-l-cod-2-20-buc"}],"activePromotion":null,"saveMe":null,"labels":[],"geniusPrice":null,"geniusUnitPricePerLabel":null,"banner":null,"discountLabel":null,"geniusDiscountLabel":null,"badge":null},{"code":"100086728","variantCode":"100086728","name":"Ouă proaspete, mărime M, cod 2, 10 buc","slug":"100086728-din-ograda-oua-proaspete-marime-m-cod-2-10-buc","unitPriceLabel":"1,06 Lei/buc","brand":"Din Ogradă","brandCode":"1499","brandFilterCode":"din-ograda-b1503","sku":"100086728","price":10.55,"originalPrice":null,"currencyCode":"RON","currency":"Lei","image":{"thumbnail":{"default":"https://cdn.freshful.ro/media/cache/sylius_shop_product_thumbnail/71/9c/0959d595805f2aa499b10a6a745b.jpg"},"large":{"default":"https://cdn.freshful.ro/media/cache/freshful_large/71/9c/0959d595805f2aa499b10a6a745b.jpg"},"extralarge":{"default":"https://cdn.freshful.ro/media/cache/sylius_shop_product_original/71/9c/0959d595805f2aa499b10a6a745b.jpg"}},"label":{"text":"Primul preț","backgroundColor":"#3A0808","textColor":"#FFFFFF"},"tags":[{"type":"MadeInRomania","text":"Made In Romania","icon":"https://cdn.freshful.ro/assets/product_tags/made_in_romania.svg","iconPng":"https://cdn.freshful.ro/assets/product_tags/made_in_romania.png","backgroundColor":"#EDF2FD","textColor":"#1653CA"}],"isAvailable":true,"maxAvailableQuantity":100,"maxAllowedQuantity":100,"breadcrumbs":[{"code":"4","name":"Lactate & ouă","slug":"4-lactate-branzeturi-si-oua"},{"code":"405","name":"Ouă","slug":"405-oua"},{"code":"40504","name":"Ouă găină cod 2","slug":"40504-oua-gaina-cod-2"},{"code":"100086728","name":"Ouă proaspete, mărime M, cod 2, 10 buc","slug":"100086728-din-ograda-oua-proaspete-marime-m-cod-2-10-buc"}],"activePromotion":null,"saveMe":null,"labels":[{"type":"v4","items":[{"text":"Primul","backgroundColor":"#3A0808","textColor":"#FFFFFF"},{"text":"preț","backgroundColor":"#BC0606","textColor":"#FFFFFF"}]}],"geniusPrice":null,"geniusUnitPricePerLabel":null,"banner":null,"discountLabel":null,"geniusDiscountLabel":null,"badge":null},{"code":"100038979","variantCode":"5941460013559","name":"Ouă Chef, mărime L, cod 2, 10 buc","slug":"100038979-agricola-oua-chef-marime-l-cod-2-10-buc","unitPriceLabel":"1,4 Lei/buc","brand":"Agricola","brandCode":"70","brandFilterCode":"agricola-b68","sku":"100038979","price":13.99,"originalPrice":null,"currencyCode":"RON","currency":"Lei","image":{"thumbnail":{"default":"https://cdn.freshful.ro/media/cache/sylius_shop_product_thumbnail/83/07/00c505a29fdc530c0916712993d9.jpg"},"large":{"default":"https://cdn.freshful.ro/media/cache/freshful_large/83/07/00c505a29fdc530c0916712993d9.jpg"},"extralarge":{"default":"https://cdn.freshful.ro/media/cache/sylius_shop_product_original/83/07/00c505a29fdc530c0916712993d9.jpg"}},"label":null,"tags":[{"type":"MadeInRomania","text":"Made In Romania","icon":"https://cdn.freshful.ro/assets/product_tags/made_in_romania.svg","iconPng":"https://cdn.freshful.ro/assets/product_tags/made_in_romania.png","backgroundColor":"#EDF2FD","textColor":"#1653CA"}],"isAvailable":true,"maxAvailableQuantity":100,"maxAllowedQuantity":100,"breadcrumbs":[{"code":"4","name":"Lactate & ouă","slug":"4-lactate-branzeturi-si-oua"},{"code":"405","name":"Ouă","slug":"405-oua"},{"code":"40504","name":"Ouă găină cod 2","slug":"40504-oua-gaina-cod-2"},{"code":"100038979","name":"Ouă Chef, mărime L, cod 2, 10 buc","slug":"100038979-agricola-oua-chef-marime-l-cod-2-10-buc"}],"activePromotion":null,"saveMe":{"isAvailable":true,"variantCode":"5941460013559-accsale","maxAvailableQuantity":100,"maxAllowedQuantity":100,"price":11.19,"originalPrice":13.99,"labels":[{"type":"v2","items":[{"text":"Save Me","backgroundColor":"#FF7070","textColor":"#FFFFFF"},{"text":"-20%","backgroundColor":"#333333","textColor":"#FFFFFF"}]},{"type":"v3","items":[{"text":"Expiră pe 07-03-2023","backgroundColor":"#FEF7DC","textColor":"#595959"}]}],"priceColor":"#FF7070","priceIcon":"https://cdn.freshful.ro/assets/save_me/priceIcon.png","unitPriceLabel":"1,12 Lei/buc","badge":null},"labels":[],"geniusPrice":null,"geniusUnitPricePerLabel":null,"banner":{"text":"Cumpără la 11.19 lei","textColor":"#FF7070","bgColor":"#FFF1F1","icon":"https://cdn.freshful.ro/assets/save_me/priceIcon.png","link":"https://www.freshful.ro/p/100038979-agricola-oua-chef-marime-l-cod-2-10-buc?sm=true","type":"saveMe","analyticsEventType":"select_item","analyticsEventPayload":[]},"discountLabel":null,"geniusDiscountLabel":null,"badge":null},{"code":"100101623","variantCode":"100101623","name":"Ouă ecologice, mărime M, cod 0, 10 buc","slug":"100101623-cortina-bio-oua-ecologice-marime-m-cod-0-10-buc","unitPriceLabel":"1,46 Lei/buc","brand":"Cortina Bio","brandCode":"1576","brandFilterCode":"cortina-bio-b1580","sku":"100101623","price":14.55,"originalPrice":null,"currencyCode":"RON","currency":"Lei","image":{"thumbnail":{"default":"https://cdn.freshful.ro/media/cache/sylius_shop_product_thumbnail/fe/e6/7b79cbfa6db301cfcbdd20b42cb0.jpg"},"large":{"default":"https://cdn.freshful.ro/media/cache/freshful_large/fe/e6/7b79cbfa6db301cfcbdd20b42cb0.jpg"},"extralarge":{"default":"https://cdn.freshful.ro/media/cache/sylius_shop_product_original/fe/e6/7b79cbfa6db301cfcbdd20b42cb0.jpg"}},"label":null,"tags":[{"type":"MadeInRomania","text":"Made In Romania","icon":"https://cdn.freshful.ro/assets/product_tags/made_in_romania.svg","iconPng":"https://cdn.freshful.ro/assets/product_tags/made_in_romania.png","backgroundColor":"#EDF2FD","textColor":"#1653CA"},{"type":"Eco","text":"Eco","icon":"https://cdn.freshful.ro/assets/product_tags/eco.svg","iconPng":"https://cdn.freshful.ro/assets/product_tags/eco.png","backgroundColor":"#EFFBE4","textColor":"#66BB1B"}],"isAvailable":true,"maxAvailableQuantity":100,"maxAllowedQuantity":100,"breadcrumbs":[{"code":"4","name":"Lactate & ouă","slug":"4-lactate-branzeturi-si-oua"},{"code":"405","name":"Ouă","slug":"405-oua"},{"code":"40502","name":"Ouă găină cod 0 ECO","slug":"40502-oua-gaina-cod-0-ecologice"},{"code":"100101623","name":"Ouă ecologice, mărime M, cod 0, 10 buc","slug":"100101623-cortina-bio-oua-ecologice-marime-m-cod-0-10-buc"}],"activePromotion":null,"saveMe":null,"labels":[],"geniusPrice":null,"geniusUnitPricePerLabel":null,"banner":null,"discountLabel":null,"geniusDiscountLabel":null,"badge":null},{"code":"100087240","variantCode":"100087240","name":"Ouă proaspete, mărime L, cod 2, 6 buc","slug":"100087240-din-ograda-oua-proaspete-marime-l-cod-2-6-buc","unitPriceLabel":"1,23 Lei/buc","brand":"Din Ogradă","brandCode":"1499","brandFilterCode":"din-ograda-b1503","sku":"100087240","price":7.39,"originalPrice":null,"currencyCode":"RON","currency":"Lei","image":{"thumbnail":{"default":"https://cdn.freshful.ro/media/cache/sylius_shop_product_thumbnail/62/bb/0be96904acbc6bf40f4e5e11c0e7.jpg"},"large":{"default":"https://cdn.freshful.ro/media/cache/freshful_large/62/bb/0be96904acbc6bf40f4e5e11c0e7.jpg"},"extralarge":{"default":"https://cdn.freshful.ro/media/cache/sylius_shop_product_original/62/bb/0be96904acbc6bf40f4e5e11c0e7.jpg"}},"label":null,"tags":[{"type":"MadeInRomania","text":"Made In Romania","icon":"https://cdn.freshful.ro/assets/product_tags/made_in_romania.svg","iconPng":"https://cdn.freshful.ro/assets/product_tags/made_in_romania.png","backgroundColor":"#EDF2FD","textColor":"#1653CA"}],"isAvailable":true,"maxAvailableQuantity":100,"maxAllowedQuantity":100,"breadcrumbs":[{"code":"4","name":"Lactate & ouă","slug":"4-lactate-branzeturi-si-oua"},{"code":"405","name":"Ouă","slug":"405-oua"},{"code":"40504","name":"Ouă găină cod 2","slug":"40504-oua-gaina-cod-2"},{"code":"100087240","name":"Ouă proaspete, mărime L, cod 2, 6 buc","slug":"100087240-din-ograda-oua-proaspete-marime-l-cod-2-6-buc"}],"activePromotion":null,"saveMe":null,"labels":[],"geniusPrice":null,"geniusUnitPricePerLabel":null,"banner":null,"discountLabel":null,"geniusDiscountLabel":null,"badge":null},{"code":"100059931","variantCode":"100059931","name":"Ouă ecologice, mărime M-L, cod 0, 6 buc","slug":"100059931-oua-de-tara-oua-ecologice-marime-m-l-cod-0-6-buc","unitPriceLabel":"1,93 Lei/buc","brand":"Ouă de țară","brandCode":"916","brandFilterCode":"oua-de-tara-b917","sku":"100059931","price":11.55,"originalPrice":null,"currencyCode":"RON","currency":"Lei","image":{"thumbnail":{"default":"https://cdn.freshful.ro/media/cache/sylius_shop_product_thumbnail/bc/b7/a67be328ed4ae75afd226e790a6f.jpg"},"large":{"default":"https://cdn.freshful.ro/media/cache/freshful_large/bc/b7/a67be328ed4ae75afd226e790a6f.jpg"},"extralarge":{"default":"https://cdn.freshful.ro/media/cache/sylius_shop_product_original/bc/b7/a67be328ed4ae75afd226e790a6f.jpg"}},"label":null,"tags":[{"type":"Eco","text":"Eco","icon":"https://cdn.freshful.ro/assets/product_tags/eco.svg","iconPng":"https://cdn.freshful.ro/assets/product_tags/eco.png","backgroundColor":"#EFFBE4","textColor":"#66BB1B"}],"isAvailable":true,"maxAvailableQuantity":100,"maxAllowedQuantity":100,"breadcrumbs":[{"code":"4","name":"Lactate & ouă","slug":"4-lactate-branzeturi-si-oua"},{"code":"405","name":"Ouă","slug":"405-oua"},{"code":"40502","name":"Ouă găină cod 0 ECO","slug":"40502-oua-gaina-cod-0-ecologice"},{"code":"100059931","name":"Ouă ecologice, mărime M-L, cod 0, 6 buc","slug":"100059931-oua-de-tara-oua-ecologice-marime-m-l-cod-0-6-buc"}],"activePromotion":null,"saveMe":null,"labels":[],"geniusPrice":null,"geniusUnitPricePerLabel":null,"banner":null,"discountLabel":null,"geniusDiscountLabel":null,"badge":null},{"code":"100122663","variantCode":"100122663","name":"Ouă de Mihăilești, mărime L, cod 1, 10 buc","slug":"100122663-unirea-gospodarilor-oua-de-mihailesti-marime-l-cod-1-10-buc","unitPriceLabel":"2 Lei/buc","brand":"Unirea Gospodarilor","brandCode":"1884","brandFilterCode":"unirea-gospodarilor-b1888","sku":"100122663","price":19.98,"originalPrice":null,"currencyCode":"RON","currency":"Lei","image":{"thumbnail":{"default":"https://cdn.freshful.ro/media/cache/sylius_shop_product_thumbnail/27/82/a1d29d0d07725865f282f1e480b6.jpg"},"large":{"default":"https://cdn.freshful.ro/media/cache/freshful_large/27/82/a1d29d0d07725865f282f1e480b6.jpg"},"extralarge":{"default":"https://cdn.freshful.ro/media/cache/sylius_shop_product_original/27/82/a1d29d0d07725865f282f1e480b6.jpg"}},"label":{"text":"Mici producători","backgroundColor":"#7B61FF","textColor":"#FFFFFF"},"tags":[{"type":"MadeInRomania","text":"Made In Romania","icon":"https://cdn.freshful.ro/assets/product_tags/made_in_romania.svg","iconPng":"https://cdn.freshful.ro/assets/product_tags/made_in_romania.png","backgroundColor":"#EDF2FD","textColor":"#1653CA"}],"isAvailable":true,"maxAvailableQuantity":100,"maxAllowedQuantity":100,"breadcrumbs":[{"code":"4","name":"Lactate & ouă","slug":"4-lactate-branzeturi-si-oua"},{"code":"405","name":"Ouă","slug":"405-oua"},{"code":"40503","name":"Ouă găină cod 1","slug":"40503-oua-gaina-cod-1"},{"code":"100122663","name":"Ouă de Mihăilești, mărime L, cod 1, 10 buc","slug":"100122663-unirea-gospodarilor-oua-de-mihailesti-marime-l-cod-1-10-buc"}],"activePromotion":null,"saveMe":null,"labels":[{"type":"v1","items":[{"text":"Mici producători","backgroundColor":"#7B61FF","textColor":"#FFFFFF"}]}],"geniusPrice":null,"geniusUnitPricePerLabel":null,"banner":null,"discountLabel":null,"geniusDiscountLabel":null,"badge":null}],"filters":{"countSelected":0,"items":[{"code":"promotion","name":"Promoții","countSelected":0,"values":[{"code":"bunatatile-saptamanii-cw0923","name":"Oferta proaspătă a săptămânii","isSelected":false,"count":1}]},{"code":"brand","name":"Brand","countSelected":0,"values":[{"code":"agricola-b68","name":"Agricola","isSelected":false,"count":8},{"code":"cortina-bio-b1580","name":"Cortina Bio","isSelected":false,"count":2},{"code":"din-ograda-b1503","name":"Din Ogradă","isSelected":false,"count":3},{"code":"ecofarm-b829","name":"Ecofarm","isSelected":false,"count":1},{"code":"eurovo-b1664","name":"Eurovo","isSelected":false,"count":2},{"code":"fresh-eggs-farm-b395","name":"Fresh Eggs Farm","isSelected":false,"count":1},{"code":"oua-de-tara-b917","name":"Ouă de țară","isSelected":false,"count":2},{"code":"unirea-gospodarilor-b1888","name":"Unirea Gospodarilor","isSelected":false,"count":1}]},{"code":"diet_lifestyle","name":"Dietă și lifestyle","countSelected":0,"values":[{"code":"eco-a83","name":"Eco","isSelected":false,"count":4},{"code":"made-in-romania-a85","name":"Made In Romania","isSelected":false,"count":15}]}]},"orderBy":[{"field":"price","direction":"asc","name":"Preț crescător","isSelected":false},{"field":"price","direction":"desc","name":"Preț descrescător","isSelected":false},{"field":"popularity","direction":"desc","name":"Cele mai populare","isSelected":true},{"field":"category","direction":"asc","name":"Categorie","isSelected":false}],"metaTitle":"Ouă - Gamă variată","metaDescription":"Vrei Ouă? Alege dintr-o gamă variată. Comanzi simplu și ai livrare rapidă, calitate și prospețime. Hai pe Freshful.ro","metaKeywords":null,"banners":[]}}