{"type":"subcategory","payload":{"analyticsListId":"category_406-branzeturi","analyticsListName":"Category - Brânzeturi","name":"Brânzeturi","slug":"406-branzeturi","image":null,"breadcrumbs":[{"code":"4","name":"Lactate & ouă","slug":"4-lactate-branzeturi-si-oua"},{"code":"406","name":"Brânzeturi","slug":"406-branzeturi"}],"slots":[],"page":1,"limit":10,"pages":49,"count":485,"siblings":[{"name":"Lapte, smântână și brânză proaspătă","slug":"401-lapte-smantana-si-branza-proaspata","selected":false},{"name":"Unt","slug":"402-unt-si-margarina","selected":false},{"name":"Lactate UHT","slug":"403-lactate-uht","selected":false},{"name":"Iaurt, desert și sana","slug":"404-iaurt-desert-si-sana","selected":false},{"name":"Ouă","slug":"405-oua","selected":false},{"name":"Brânzeturi","slug":"406-branzeturi","selected":true},{"name":"Lapte și lactate ECO","slug":"lapte-si-lactate-eco","selected":false},{"name":"Amestecuri lactate și grasimi vegetale","slug":"amestecuri-lactate-si-grasimi-vegetale","selected":false}],"children":[{"name":"Toate produsele","slug":"406-branzeturi","selected":true},{"name":"Brânzeturi fără lactoză","slug":"40602-branzeturi-fara-lactoza","selected":false},{"name":"Brânzeturi feliate","slug":"40603-branzeturi-feliate","selected":false},{"name":"Brânzeturi tartinabile","slug":"40604-branzeturi-tartinabile","selected":false},{"name":"Cașcaval","slug":"40605-cascaval","selected":false},{"name":"Specialități internaționale","slug":"40607-specialitati-internationale","selected":false},{"name":"Specialități românești","slug":"40608-specialitati-romanesti","selected":false},{"name":"Telemea","slug":"40609-telemea","selected":false}],"products":[{"code":"100039306","variantCode":"5941872202497","name":"Cașcaval de Ibănești feliat 120g","slug":"100039306-mirdatod-cascaval-de-ibanesti-feliat-120g","unitPriceLabel":"60,75 Lei/kg","brand":"Mirdatod","brandCode":"755","brandFilterCode":"mirdatod-b756","sku":"100039306","price":7.29,"originalPrice":7.99,"currencyCode":"RON","currency":"Lei","image":{"thumbnail":{"default":"https://cdn.freshful.ro/media/cache/sylius_shop_product_thumbnail/4b/b6/45b6a28b2260941629c45b936afb.jpg"},"large":{"default":"https://cdn.freshful.ro/media/cache/freshful_large/4b/b6/45b6a28b2260941629c45b936afb.jpg"},"extralarge":{"default":"https://cdn.freshful.ro/media/cache/sylius_shop_product_original/4b/b6/45b6a28b2260941629c45b936afb.jpg"}},"label":{"text":"-8%","backgroundColor":"#FF9903","textColor":"#FFFFFF"},"tags":[{"type":"MadeInRomania","text":"Made In Romania","icon":"https://cdn.freshful.ro/assets/product_tags/made_in_romania.svg","iconPng":"https://cdn.freshful.ro/assets/product_tags/made_in_romania.png","backgroundColor":"#EDF2FD","textColor":"#1653CA"}],"isAvailable":true,"maxAvailableQuantity":100,"maxAllowedQuantity":100,"breadcrumbs":[{"code":"4","name":"Lactate & ouă","slug":"4-lactate-branzeturi-si-oua"},{"code":"406","name":"Brânzeturi","slug":"406-branzeturi"},{"code":"40603","name":"Brânzeturi feliate","slug":"40603-branzeturi-feliate"},{"code":"100039306","name":"Cașcaval de Ibănești feliat 120g","slug":"100039306-mirdatod-cascaval-de-ibanesti-feliat-120g"}],"activePromotion":{"code":"freshful-top-deals-2023","name":"Preț redus","targetQuantity":null},"saveMe":null,"labels":[{"type":"v1","items":[{"text":"-8%","backgroundColor":"#FF9903","textColor":"#FFFFFF"}]}],"geniusPrice":null,"geniusUnitPricePerLabel":null,"banner":{"text":"Super preț","textColor":"#FF0000","bgColor":"#FFF2EC","icon":null,"link":"https://www.freshful.ro/oferte/freshful-top-deals-2023","type":"promo","analyticsEventType":"select_promotion","analyticsEventPayload":{"promotion_id":"freshful-top-deals-2023","promotion_name":"Profită de Top Deals"}},"discountLabel":"Economisești 8%","geniusDiscountLabel":null,"badge":null},{"code":"100034448","variantCode":"5941360001328","name":"Cașcaval Sofia 450g","slug":"100034448-delaco-cascaval-sofia-450g","unitPriceLabel":"64,42 Lei/kg","brand":"Delaco","brandCode":"225","brandFilterCode":"delaco-b226","sku":"100034448","price":28.99,"originalPrice":null,"currencyCode":"RON","currency":"Lei","image":{"thumbnail":{"default":"https://cdn.freshful.ro/media/cache/sylius_shop_product_thumbnail/a5/c7/2d8466f1f203c69337d56f919eb8.jpg"},"large":{"default":"https://cdn.freshful.ro/media/cache/freshful_large/a5/c7/2d8466f1f203c69337d56f919eb8.jpg"},"extralarge":{"default":"https://cdn.freshful.ro/media/cache/sylius_shop_product_original/a5/c7/2d8466f1f203c69337d56f919eb8.jpg"}},"label":{"text":"-20% cu Genius","backgroundColor":"#FEF3FA","textColor":"#CD015F"},"tags":[],"isAvailable":true,"maxAvailableQuantity":100,"maxAllowedQuantity":100,"breadcrumbs":[{"code":"4","name":"Lactate & ouă","slug":"4-lactate-branzeturi-si-oua"},{"code":"406","name":"Brânzeturi","slug":"406-branzeturi"},{"code":"40605","name":"Cașcaval","slug":"40605-cascaval"},{"code":"100034448","name":"Cașcaval Sofia 450g","slug":"100034448-delaco-cascaval-sofia-450g"}],"activePromotion":null,"saveMe":null,"labels":[{"type":"gdeals","items":[{"text":"","backgroundColor":"","textColor":""}]},{"type":"v3","items":[{"text":"-20% cu Genius","backgroundColor":"#FEF3FA","textColor":"#CD015F"}]}],"geniusPrice":23.19,"geniusUnitPricePerLabel":"51,53 Lei/kg","banner":null,"discountLabel":null,"geniusDiscountLabel":"Economisești 20%","badge":null},{"code":"100145114","variantCode":"100145114","name":"Gorgonzola DOP 100g","slug":"100145114-formagia-gorgonzola-dop-100g","unitPriceLabel":"89,9 Lei/kg","brand":"FORMAGIA","brandCode":"2804","brandFilterCode":"formagia-b2891","sku":"100145114","price":8.99,"originalPrice":9.99,"currencyCode":"RON","currency":"Lei","image":{"thumbnail":{"default":"https://cdn.freshful.ro/media/cache/sylius_shop_product_thumbnail/ed/b6/f9a53dee28d9e7348e7766f0ceea.jpg"},"large":{"default":"https://cdn.freshful.ro/media/cache/freshful_large/ed/b6/f9a53dee28d9e7348e7766f0ceea.jpg"},"extralarge":{"default":"https://cdn.freshful.ro/media/cache/sylius_shop_product_original/ed/b6/f9a53dee28d9e7348e7766f0ceea.jpg"}},"label":{"text":"-10%","backgroundColor":"#FF9903","textColor":"#FFFFFF"},"tags":[],"isAvailable":true,"maxAvailableQuantity":100,"maxAllowedQuantity":100,"breadcrumbs":[{"code":"4","name":"Lactate & ouă","slug":"4-lactate-branzeturi-si-oua"},{"code":"406","name":"Brânzeturi","slug":"406-branzeturi"},{"code":"40607","name":"Specialități internaționale","slug":"40607-specialitati-internationale"},{"code":"100145114","name":"Gorgonzola DOP 100g","slug":"100145114-formagia-gorgonzola-dop-100g"}],"activePromotion":{"code":"bunatatile-saptamanii-cw0923","name":"Preț redus","targetQuantity":null},"saveMe":null,"labels":[{"type":"v1","items":[{"text":"-10%","backgroundColor":"#FF9903","textColor":"#FFFFFF"}]}],"geniusPrice":null,"geniusUnitPricePerLabel":null,"banner":{"text":"Super preț","textColor":"#FF0000","bgColor":"#FFF2EC","icon":null,"link":"https://www.freshful.ro/oferte/bunatatile-saptamanii-cw0923","type":"promo","analyticsEventType":"select_promotion","analyticsEventPayload":{"promotion_id":"bunatatile-saptamanii-cw0923","promotion_name":"Oferta proaspătă a săptămânii"}},"discountLabel":"Economisești 10%","geniusDiscountLabel":null,"badge":null},{"code":"100148468","variantCode":"100148468","name":"Brânză de capră cu ierburi și condimente 130g","slug":"100148468-q-concept-branza-de-capra-cu-ierburi-si-condimente-130g","unitPriceLabel":"111,46 Lei/kg","brand":"Q Concept","brandCode":"2809","brandFilterCode":"q-concept-b2896","sku":"100148468","price":14.49,"originalPrice":16.29,"currencyCode":"RON","currency":"Lei","image":{"thumbnail":{"default":"https://cdn.freshful.ro/media/cache/sylius_shop_product_thumbnail/8f/5f/1641daf67f4994c01ce6af8cafce.jpg"},"large":{"default":"https://cdn.freshful.ro/media/cache/freshful_large/8f/5f/1641daf67f4994c01ce6af8cafce.jpg"},"extralarge":{"default":"https://cdn.freshful.ro/media/cache/sylius_shop_product_original/8f/5f/1641daf67f4994c01ce6af8cafce.jpg"}},"label":{"text":"-11%","backgroundColor":"#FF9903","textColor":"#FFFFFF"},"tags":[],"isAvailable":true,"maxAvailableQuantity":47,"maxAllowedQuantity":100,"breadcrumbs":[{"code":"4","name":"Lactate & ouă","slug":"4-lactate-branzeturi-si-oua"},{"code":"406","name":"Brânzeturi","slug":"406-branzeturi"},{"code":"40607","name":"Specialități internaționale","slug":"40607-specialitati-internationale"},{"code":"100148468","name":"Brânză de capră cu ierburi și condimente 130g","slug":"100148468-q-concept-branza-de-capra-cu-ierburi-si-condimente-130g"}],"activePromotion":{"code":"bunatatile-saptamanii-cw0923","name":"Preț redus","targetQuantity":null},"saveMe":null,"labels":[{"type":"v1","items":[{"text":"-11%","backgroundColor":"#FF9903","textColor":"#FFFFFF"}]}],"geniusPrice":null,"geniusUnitPricePerLabel":null,"banner":{"text":"Super preț","textColor":"#FF0000","bgColor":"#FFF2EC","icon":null,"link":"https://www.freshful.ro/oferte/bunatatile-saptamanii-cw0923","type":"promo","analyticsEventType":"select_promotion","analyticsEventPayload":{"promotion_id":"bunatatile-saptamanii-cw0923","promotion_name":"Oferta proaspătă a săptămânii"}},"discountLabel":"Economisești 11%","geniusDiscountLabel":null,"badge":null},{"code":"100037193","variantCode":"5998711723187","name":"Cremă de brânză cu verdeață 125g","slug":"100037193-philadelphia-crema-de-branza-cu-verdeata-125g","unitPriceLabel":"67,92 Lei/kg","brand":"Philadelphia","brandCode":"68","brandFilterCode":"philadelphia-b65","sku":"100037193","price":8.49,"originalPrice":9.29,"currencyCode":"RON","currency":"Lei","image":{"thumbnail":{"default":"https://cdn.freshful.ro/media/cache/sylius_shop_product_thumbnail/87/04/5de82a219f5178c21cb7ebef9456.jpg"},"large":{"default":"https://cdn.freshful.ro/media/cache/freshful_large/87/04/5de82a219f5178c21cb7ebef9456.jpg"},"extralarge":{"default":"https://cdn.freshful.ro/media/cache/sylius_shop_product_original/87/04/5de82a219f5178c21cb7ebef9456.jpg"}},"label":{"text":"-8%","backgroundColor":"#FF9903","textColor":"#FFFFFF"},"tags":[],"isAvailable":true,"maxAvailableQuantity":24,"maxAllowedQuantity":100,"breadcrumbs":[{"code":"4","name":"Lactate & ouă","slug":"4-lactate-branzeturi-si-oua"},{"code":"406","name":"Brânzeturi","slug":"406-branzeturi"},{"code":"40604","name":"Brânzeturi tartinabile","slug":"40604-branzeturi-tartinabile"},{"code":"100037193","name":"Cremă de brânză cu verdeață 125g","slug":"100037193-philadelphia-crema-de-branza-cu-verdeata-125g"}],"activePromotion":{"code":"bunatatile-saptamanii-cw0923","name":"Preț redus","targetQuantity":null},"saveMe":null,"labels":[{"type":"v1","items":[{"text":"-8%","backgroundColor":"#FF9903","textColor":"#FFFFFF"}]}],"geniusPrice":null,"geniusUnitPricePerLabel":null,"banner":{"text":"Super preț","textColor":"#FF0000","bgColor":"#FFF2EC","icon":null,"link":"https://www.freshful.ro/oferte/bunatatile-saptamanii-cw0923","type":"promo","analyticsEventType":"select_promotion","analyticsEventPayload":{"promotion_id":"bunatatile-saptamanii-cw0923","promotion_name":"Oferta proaspătă a săptămânii"}},"discountLabel":"Economisești 8%","geniusDiscountLabel":null,"badge":null},{"code":"100145125","variantCode":"100145125","name":"Brânză de mucegai alb și albastru 150g","slug":"100145125-frenchi-branza-de-mucegai-alb-si-albastru-150g","unitPriceLabel":"73,27 Lei/kg","brand":"FRENCHI","brandCode":"2805","brandFilterCode":"frenchi-b2892","sku":"100145125","price":10.99,"originalPrice":12.99,"currencyCode":"RON","currency":"Lei","image":{"thumbnail":{"default":"https://cdn.freshful.ro/media/cache/sylius_shop_product_thumbnail/b7/d0/cc09b967ea1507e160a795778cd7.jpg"},"large":{"default":"https://cdn.freshful.ro/media/cache/freshful_large/b7/d0/cc09b967ea1507e160a795778cd7.jpg"},"extralarge":{"default":"https://cdn.freshful.ro/media/cache/sylius_shop_product_original/b7/d0/cc09b967ea1507e160a795778cd7.jpg"}},"label":{"text":"-15%","backgroundColor":"#FF9903","textColor":"#FFFFFF"},"tags":[],"isAvailable":true,"maxAvailableQuantity":15,"maxAllowedQuantity":100,"breadcrumbs":[{"code":"4","name":"Lactate & ouă","slug":"4-lactate-branzeturi-si-oua"},{"code":"406","name":"Brânzeturi","slug":"406-branzeturi"},{"code":"40607","name":"Specialități internaționale","slug":"40607-specialitati-internationale"},{"code":"100145125","name":"Brânză de mucegai alb și albastru 150g","slug":"100145125-frenchi-branza-de-mucegai-alb-si-albastru-150g"}],"activePromotion":{"code":"bunatatile-saptamanii-cw0923","name":"Preț redus","targetQuantity":null},"saveMe":null,"labels":[{"type":"v1","items":[{"text":"-15%","backgroundColor":"#FF9903","textColor":"#FFFFFF"}]}],"geniusPrice":null,"geniusUnitPricePerLabel":null,"banner":{"text":"Super preț","textColor":"#FF0000","bgColor":"#FFF2EC","icon":null,"link":"https://www.freshful.ro/oferte/bunatatile-saptamanii-cw0923","type":"promo","analyticsEventType":"select_promotion","analyticsEventPayload":{"promotion_id":"bunatatile-saptamanii-cw0923","promotion_name":"Oferta proaspătă a săptămânii"}},"discountLabel":"Economisești 15%","geniusDiscountLabel":null,"badge":null},{"code":"100145101","variantCode":"100145101","name":"Cheddar maturat 200g","slug":"100145101-cathedral-city-cheddar-maturat-200g","unitPriceLabel":"87,45 Lei/kg","brand":"Cathedral City","brandCode":"2800","brandFilterCode":"cathedral-city-b2887","sku":"100145101","price":17.49,"originalPrice":19.99,"currencyCode":"RON","currency":"Lei","image":{"thumbnail":{"default":"https://cdn.freshful.ro/media/cache/sylius_shop_product_thumbnail/aa/77/d6730a54f52464d4032a4eb2155c.jpg"},"large":{"default":"https://cdn.freshful.ro/media/cache/freshful_large/aa/77/d6730a54f52464d4032a4eb2155c.jpg"},"extralarge":{"default":"https://cdn.freshful.ro/media/cache/sylius_shop_product_original/aa/77/d6730a54f52464d4032a4eb2155c.jpg"}},"label":{"text":"-12%","backgroundColor":"#FF9903","textColor":"#FFFFFF"},"tags":[],"isAvailable":true,"maxAvailableQuantity":56,"maxAllowedQuantity":100,"breadcrumbs":[{"code":"4","name":"Lactate & ouă","slug":"4-lactate-branzeturi-si-oua"},{"code":"406","name":"Brânzeturi","slug":"406-branzeturi"},{"code":"40607","name":"Specialități internaționale","slug":"40607-specialitati-internationale"},{"code":"100145101","name":"Cheddar maturat 200g","slug":"100145101-cathedral-city-cheddar-maturat-200g"}],"activePromotion":{"code":"bunatatile-saptamanii-cw0923","name":"Preț redus","targetQuantity":null},"saveMe":null,"labels":[{"type":"v1","items":[{"text":"-12%","backgroundColor":"#FF9903","textColor":"#FFFFFF"}]}],"geniusPrice":null,"geniusUnitPricePerLabel":null,"banner":{"text":"Super preț","textColor":"#FF0000","bgColor":"#FFF2EC","icon":null,"link":"https://www.freshful.ro/oferte/bunatatile-saptamanii-cw0923","type":"promo","analyticsEventType":"select_promotion","analyticsEventPayload":{"promotion_id":"bunatatile-saptamanii-cw0923","promotion_name":"Oferta proaspătă a săptămânii"}},"discountLabel":"Economisești 12%","geniusDiscountLabel":null,"badge":null},{"code":"100148474","variantCode":"100148474","name":"Cheddar alb 130g","slug":"100148474-q-concept-cheddar-alb-130g","unitPriceLabel":"89,15 Lei/kg","brand":"Q Concept","brandCode":"2809","brandFilterCode":"q-concept-b2896","sku":"100148474","price":11.59,"originalPrice":12.49,"currencyCode":"RON","currency":"Lei","image":{"thumbnail":{"default":"https://cdn.freshful.ro/media/cache/sylius_shop_product_thumbnail/a0/9e/637e48b1234d5bbd521ae0c31952.jpg"},"large":{"default":"https://cdn.freshful.ro/media/cache/freshful_large/a0/9e/637e48b1234d5bbd521ae0c31952.jpg"},"extralarge":{"default":"https://cdn.freshful.ro/media/cache/sylius_shop_product_original/a0/9e/637e48b1234d5bbd521ae0c31952.jpg"}},"label":{"text":"-7%","backgroundColor":"#FF9903","textColor":"#FFFFFF"},"tags":[],"isAvailable":true,"maxAvailableQuantity":40,"maxAllowedQuantity":100,"breadcrumbs":[{"code":"4","name":"Lactate & ouă","slug":"4-lactate-branzeturi-si-oua"},{"code":"406","name":"Brânzeturi","slug":"406-branzeturi"},{"code":"40607","name":"Specialități internaționale","slug":"40607-specialitati-internationale"},{"code":"100148474","name":"Cheddar alb 130g","slug":"100148474-q-concept-cheddar-alb-130g"}],"activePromotion":{"code":"bunatatile-saptamanii-cw0923","name":"Preț redus","targetQuantity":null},"saveMe":null,"labels":[{"type":"v1","items":[{"text":"-7%","backgroundColor":"#FF9903","textColor":"#FFFFFF"}]}],"geniusPrice":null,"geniusUnitPricePerLabel":null,"banner":{"text":"Super preț","textColor":"#FF0000","bgColor":"#FFF2EC","icon":null,"link":"https://www.freshful.ro/oferte/bunatatile-saptamanii-cw0923","type":"promo","analyticsEventType":"select_promotion","analyticsEventPayload":{"promotion_id":"bunatatile-saptamanii-cw0923","promotion_name":"Oferta proaspătă a săptămânii"}},"discountLabel":"Economisești 7%","geniusDiscountLabel":null,"badge":null},{"code":"100089389","variantCode":"100089389","name":"Cașcaval Penteleu 300g","slug":"100089389-five-continents-cascaval-penteleu-300g","unitPriceLabel":"46,63 Lei/kg","brand":"Five Continents","brandCode":"1395","brandFilterCode":"five-continents-b1399","sku":"100089389","price":13.99,"originalPrice":18.49,"currencyCode":"RON","currency":"Lei","image":{"thumbnail":{"default":"https://cdn.freshful.ro/media/cache/sylius_shop_product_thumbnail/f1/fa/565abfcbaacc4cdf5f34143d6a3c.jpg"},"large":{"default":"https://cdn.freshful.ro/media/cache/freshful_large/f1/fa/565abfcbaacc4cdf5f34143d6a3c.jpg"},"extralarge":{"default":"https://cdn.freshful.ro/media/cache/sylius_shop_product_original/f1/fa/565abfcbaacc4cdf5f34143d6a3c.jpg"}},"label":{"text":"-24%","backgroundColor":"#FF9903","textColor":"#FFFFFF"},"tags":[],"isAvailable":true,"maxAvailableQuantity":5,"maxAllowedQuantity":100,"breadcrumbs":[{"code":"4","name":"Lactate & ouă","slug":"4-lactate-branzeturi-si-oua"},{"code":"406","name":"Brânzeturi","slug":"406-branzeturi"},{"code":"40605","name":"Cașcaval","slug":"40605-cascaval"},{"code":"100089389","name":"Cașcaval Penteleu 300g","slug":"100089389-five-continents-cascaval-penteleu-300g"}],"activePromotion":{"code":"bunatatile-saptamanii-cw0923","name":"Preț redus","targetQuantity":null},"saveMe":null,"labels":[{"type":"v1","items":[{"text":"-24%","backgroundColor":"#FF9903","textColor":"#FFFFFF"}]}],"geniusPrice":null,"geniusUnitPricePerLabel":null,"banner":{"text":"Super preț","textColor":"#FF0000","bgColor":"#FFF2EC","icon":null,"link":"https://www.freshful.ro/oferte/bunatatile-saptamanii-cw0923","type":"promo","analyticsEventType":"select_promotion","analyticsEventPayload":{"promotion_id":"bunatatile-saptamanii-cw0923","promotion_name":"Oferta proaspătă a săptămânii"}},"discountLabel":"Economisești 24%","geniusDiscountLabel":null,"badge":null},{"code":"100143891","variantCode":"100143891","name":"Cașcaval feliat 180g","slug":"100143891-kolios-cascaval-feliat-180g","unitPriceLabel":"83,28 Lei/kg","brand":"Kolios","brandCode":"2781","brandFilterCode":"kolios-b2855","sku":"100143891","price":14.99,"originalPrice":16.99,"currencyCode":"RON","currency":"Lei","image":{"thumbnail":{"default":"https://cdn.freshful.ro/media/cache/sylius_shop_product_thumbnail/84/9f/35e2227c598bf460f46408c3795a.jpg"},"large":{"default":"https://cdn.freshful.ro/media/cache/freshful_large/84/9f/35e2227c598bf460f46408c3795a.jpg"},"extralarge":{"default":"https://cdn.freshful.ro/media/cache/sylius_shop_product_original/84/9f/35e2227c598bf460f46408c3795a.jpg"}},"label":{"text":"-11%","backgroundColor":"#FF9903","textColor":"#FFFFFF"},"tags":[],"isAvailable":true,"maxAvailableQuantity":25,"maxAllowedQuantity":100,"breadcrumbs":[{"code":"4","name":"Lactate & ouă","slug":"4-lactate-branzeturi-si-oua"},{"code":"406","name":"Brânzeturi","slug":"406-branzeturi"},{"code":"40603","name":"Brânzeturi feliate","slug":"40603-branzeturi-feliate"},{"code":"100143891","name":"Cașcaval feliat 180g","slug":"100143891-kolios-cascaval-feliat-180g"}],"activePromotion":{"code":"bunatatile-saptamanii-cw0923","name":"Preț redus","targetQuantity":null},"saveMe":null,"labels":[{"type":"v1","items":[{"text":"-11%","backgroundColor":"#FF9903","textColor":"#FFFFFF"}]}],"geniusPrice":null,"geniusUnitPricePerLabel":null,"banner":{"text":"Super preț","textColor":"#FF0000","bgColor":"#FFF2EC","icon":null,"link":"https://www.freshful.ro/oferte/bunatatile-saptamanii-cw0923","type":"promo","analyticsEventType":"select_promotion","analyticsEventPayload":{"promotion_id":"bunatatile-saptamanii-cw0923","promotion_name":"Oferta proaspătă a săptămânii"}},"discountLabel":"Economisești 11%","geniusDiscountLabel":null,"badge":null}],"filters":{"countSelected":0,"items":[{"code":"promotion","name":"Promoții","countSelected":0,"values":[{"code":"targ-bere-snacks-mar23","name":"Bere și snackuri pentru toate gusturile","isSelected":false,"count":1},{"code":"bunatatile-saptamanii-cw0923","name":"Oferta proaspătă a săptămânii","isSelected":false,"count":10},{"code":"freshful-top-deals-2023","name":"Profită de Top Deals","isSelected":false,"count":1}]},{"code":"brand","name":"Brand","countSelected":0,"values":[{"code":"agriform-b518","name":"Agriform","isSelected":false,"count":4},{"code":"al-dar-b2716","name":"Al Dar","isSelected":false,"count":4},{"code":"almette-b126","name":"Almette","isSelected":false,"count":10},{"code":"alpenhain-b402","name":"Alpenhain","isSelected":false,"count":1},{"code":"artesana-b219","name":"Artesana","isSelected":false,"count":15},{"code":"aurichio-b522","name":"Aurichio","isSelected":false,"count":8},{"code":"babybel-b47","name":"Babybel","isSelected":false,"count":5},{"code":"biraghi-b520","name":"Biraghi","isSelected":false,"count":2},{"code":"bliss-point-b1095","name":"Bliss Point","isSelected":false,"count":1},{"code":"brimi-b523","name":"Brimi","isSelected":false,"count":2},{"code":"caprice-des-dieux-b464","name":"CAPRICE des DIEUX","isSelected":false,"count":1},{"code":"cathedral-city-b2887","name":"Cathedral City","isSelected":false,"count":3},{"code":"cheesupers-b2888","name":"Cheesupers","isSelected":false,"count":1},{"code":"colectar-b383","name":"Colectar","isSelected":false,"count":2},{"code":"covalact-b785","name":"Covalact","isSelected":false,"count":3},{"code":"de-botosani-b379","name":"De Botoșani","isSelected":false,"count":1},{"code":"delaco-b226","name":"Delaco","isSelected":false,"count":37},{"code":"deliziosa-b525","name":"Deliziosa","isSelected":false,"count":1},{"code":"dorblu-b1651","name":"Dorblu","isSelected":false,"count":1},{"code":"dublin-dairy-b2890","name":"Dublin Dairy","isSelected":false,"count":8},{"code":"el-gran-cardenal-b3253","name":"El Gran Cardenal","isSelected":false,"count":6},{"code":"entremont-b403","name":"EntreMont","isSelected":false,"count":5},{"code":"five-continents-b1399","name":"Five Continents","isSelected":false,"count":20},{"code":"formagia-b2891","name":"FORMAGIA","isSelected":false,"count":10},{"code":"frenchi-b2892","name":"FRENCHI","isSelected":false,"count":3},{"code":"galbani-b596","name":"Galbani","isSelected":false,"count":13},{"code":"goat-farm-b2893","name":"Goat Farm","isSelected":false,"count":3},{"code":"granarolo-b1667","name":"Granarolo","isSelected":false,"count":3},{"code":"grikios-b2894","name":"GRIKIOS","isSelected":false,"count":3},{"code":"gustolact-b502","name":"Gustolact","isSelected":false,"count":4},{"code":"hochland-b127","name":"Hochland","isSelected":false,"count":52},{"code":"igor-b1669","name":"Igor","isSelected":false,"count":2},{"code":"ile-de-france-b463","name":"Ile de France","isSelected":false,"count":5},{"code":"kerrygold-b69","name":"Kerrygold","isSelected":false,"count":5},{"code":"kiri-b58","name":"Kiri","isSelected":false,"count":2},{"code":"kolios-b2855","name":"Kolios","isSelected":false,"count":5},{"code":"la-vache-qui-rit-b60","name":"La Vache qui rit","isSelected":false,"count":5},{"code":"lacto-food-b378","name":"Lacto Food","isSelected":false,"count":4},{"code":"ladorna-b595","name":"LaDORNA","isSelected":false,"count":1},{"code":"leerdammer-b61","name":"Leerdammer","isSelected":false,"count":5},{"code":"laptaria-cu-caimac-b1","name":"Lăptăria cu caimac","isSelected":false,"count":2},{"code":"maser-b519","name":"Maser","isSelected":false,"count":1},{"code":"mauri-b521","name":"Mauri","isSelected":false,"count":2},{"code":"mediterranea-b1769","name":"Mediterranea","isSelected":false,"count":12},{"code":"meggle-b498","name":"Meggle","isSelected":false,"count":3},{"code":"merci-chef-b1656","name":"Merci Chef","isSelected":false,"count":1},{"code":"minusl-b401","name":"MinusL","isSelected":false,"count":3},{"code":"mirdatod-b756","name":"Mirdatod","isSelected":false,"count":19},{"code":"mizo-b535","name":"Mizo","isSelected":false,"count":3},{"code":"monor-b326","name":"Monor","isSelected":false,"count":5},{"code":"montesinos-b3256","name":"Montesinos","isSelected":false,"count":2},{"code":"napolact-b77","name":"Napolact","isSelected":false,"count":10},{"code":"nucet-b2523","name":"Nucet","isSelected":false,"count":4},{"code":"old-amsterdam-b2895","name":"Old Amsterdam","isSelected":false,"count":3},{"code":"oldenburger-b64","name":"Oldenburger","isSelected":false,"count":5},{"code":"olympus-b40","name":"Olympus","isSelected":false,"count":20},{"code":"originar-b385","name":"Originar","isSelected":false,"count":4},{"code":"paysan-breton-b1657","name":"Paysan Breton","isSelected":false,"count":3},{"code":"philadelphia-b65","name":"Philadelphia","isSelected":false,"count":8},{"code":"ploo-n-gura-b887","name":"Ploo-N Gură","isSelected":false,"count":1},{"code":"president-b594","name":"President","isSelected":false,"count":10},{"code":"q-concept-b2896","name":"Q Concept","isSelected":false,"count":31},{"code":"raraul-b12","name":"Rarăul","isSelected":false,"count":3},{"code":"retezat-lactate-b3082","name":"Retezat Lactate","isSelected":false,"count":2},{"code":"rustic-b380","name":"Rustic","isSelected":false,"count":5},{"code":"salzburgmilch-b398","name":"SalzburgMilch","isSelected":false,"count":1},{"code":"sheep-farm-b2897","name":"SHEEP FARM","isSelected":false,"count":1},{"code":"soignon-b1655","name":"Soignon","isSelected":false,"count":3},{"code":"solomonescu-b381","name":"Solomonescu","isSelected":false,"count":1},{"code":"soresina-b2898","name":"SORESINA","isSelected":false,"count":2},{"code":"st-clemens-b517","name":"St. Clemens","isSelected":false,"count":1},{"code":"taverna-b66","name":"Taverna","isSelected":false,"count":1},{"code":"torockoi-b828","name":"Torockoi","isSelected":false,"count":17},{"code":"trevisanalat-b524","name":"Trevisanalat","isSelected":false,"count":2},{"code":"unirea-gospodarilor-b1888","name":"Unirea Gospodarilor","isSelected":false,"count":2},{"code":"vega-mancha-b3254","name":"Vega Mancha","isSelected":false,"count":1},{"code":"vega-sotuelamos-b3255","name":"Vega Sotuelamos","isSelected":false,"count":4},{"code":"vlasie-b382","name":"Vlăsie","isSelected":false,"count":2},{"code":"zanetti-b223","name":"Zanetti","isSelected":false,"count":9},{"code":"zimbria-b206","name":"Zimbria","isSelected":false,"count":8},{"code":"zott-b465","name":"Zott","isSelected":false,"count":1}]},{"code":"diet_lifestyle","name":"Dietă și lifestyle","countSelected":0,"values":[{"code":"fara-conservanti-a37","name":"Fara conservanti","isSelected":false,"count":13},{"code":"fara-e-uri-a84","name":"Fara E-uri","isSelected":false,"count":6},{"code":"fara-gluten-a16","name":"Fara gluten","isSelected":false,"count":6},{"code":"fara-lactoza-a38","name":"Fara lactoza","isSelected":false,"count":19},{"code":"fara-zahar-adaugat-a29","name":"Fara zahar adaugat","isSelected":false,"count":12},{"code":"made-in-romania-a85","name":"Made In Romania","isSelected":false,"count":116},{"code":"natural-a27","name":"Natural","isSelected":false,"count":14},{"code":"vegetarian-a28","name":"Vegetarian","isSelected":false,"count":3}]}]},"orderBy":[{"field":"price","direction":"asc","name":"Preț crescător","isSelected":false},{"field":"price","direction":"desc","name":"Preț descrescător","isSelected":false},{"field":"popularity","direction":"desc","name":"Cele mai populare","isSelected":true},{"field":"category","direction":"asc","name":"Categorie","isSelected":false}],"metaTitle":"Brânzeturi - Gamă variată","metaDescription":"Vrei Brânzeturi? Alege dintr-o gamă variată. Comanzi simplu și ai livrare rapidă, calitate și prospețime. Hai pe Freshful.ro","metaKeywords":null,"banners":[]}}