{"type":"subcategory","payload":{"analyticsListId":"category_40608-specialitati-romanesti","analyticsListName":"Category - Specialități românești","name":"Specialități românești","slug":"40608-specialitati-romanesti","image":null,"breadcrumbs":[{"code":"4","name":"Lactate & ouă","slug":"4-lactate-branzeturi-si-oua"},{"code":"406","name":"Brânzeturi","slug":"406-branzeturi"},{"code":"40608","name":"Specialități românești","slug":"40608-specialitati-romanesti"}],"slots":[],"page":1,"limit":10,"pages":6,"count":54,"siblings":[{"name":"Lapte, smântână și brânză proaspătă","slug":"401-lapte-smantana-si-branza-proaspata","selected":false},{"name":"Unt","slug":"402-unt-si-margarina","selected":false},{"name":"Lactate UHT","slug":"403-lactate-uht","selected":false},{"name":"Iaurt, desert și sana","slug":"404-iaurt-desert-si-sana","selected":false},{"name":"Ouă","slug":"405-oua","selected":false},{"name":"Brânzeturi","slug":"406-branzeturi","selected":true},{"name":"Lapte și lactate ECO","slug":"lapte-si-lactate-eco","selected":false},{"name":"Amestecuri lactate și grasimi vegetale","slug":"amestecuri-lactate-si-grasimi-vegetale","selected":false}],"children":[{"name":"Toate produsele","slug":"406-branzeturi","selected":false},{"name":"Brânzeturi fără lactoză","slug":"40602-branzeturi-fara-lactoza","selected":false},{"name":"Brânzeturi feliate","slug":"40603-branzeturi-feliate","selected":false},{"name":"Brânzeturi tartinabile","slug":"40604-branzeturi-tartinabile","selected":false},{"name":"Cașcaval","slug":"40605-cascaval","selected":false},{"name":"Specialități internaționale","slug":"40607-specialitati-internationale","selected":false},{"name":"Specialități românești","slug":"40608-specialitati-romanesti","selected":true},{"name":"Telemea","slug":"40609-telemea","selected":false}],"products":[{"code":"100032717","variantCode":"100032717","name":"Mozzarella biluțe pentru salată 96g","slug":"100032717-monor-mozzarella-bilute-pentru-salata-96g","unitPriceLabel":"74,9 Lei/kg","brand":"Monor","brandCode":"325","brandFilterCode":"monor-b326","sku":"100032717","price":7.19,"originalPrice":null,"currencyCode":"RON","currency":"Lei","image":{"thumbnail":{"default":"https://cdn.freshful.ro/media/cache/sylius_shop_product_thumbnail/f4/a1/e3afbaf244833222a76cc616db0b.jpg"},"large":{"default":"https://cdn.freshful.ro/media/cache/freshful_large/f4/a1/e3afbaf244833222a76cc616db0b.jpg"},"extralarge":{"default":"https://cdn.freshful.ro/media/cache/sylius_shop_product_original/f4/a1/e3afbaf244833222a76cc616db0b.jpg"}},"label":null,"tags":[],"isAvailable":true,"maxAvailableQuantity":63,"maxAllowedQuantity":100,"breadcrumbs":[{"code":"4","name":"Lactate & ouă","slug":"4-lactate-branzeturi-si-oua"},{"code":"406","name":"Brânzeturi","slug":"406-branzeturi"},{"code":"40608","name":"Specialități românești","slug":"40608-specialitati-romanesti"},{"code":"100032717","name":"Mozzarella biluțe pentru salată 96g","slug":"100032717-monor-mozzarella-bilute-pentru-salata-96g"}],"activePromotion":null,"saveMe":{"isAvailable":true,"variantCode":"100032717-accsale","maxAvailableQuantity":100,"maxAllowedQuantity":100,"price":5.75,"originalPrice":7.19,"labels":[{"type":"v2","items":[{"text":"Save Me","backgroundColor":"#FF7070","textColor":"#FFFFFF"},{"text":"-20%","backgroundColor":"#333333","textColor":"#FFFFFF"}]},{"type":"v3","items":[{"text":"Expiră pe 07-03-2023","backgroundColor":"#FEF7DC","textColor":"#595959"}]}],"priceColor":"#FF7070","priceIcon":"https://cdn.freshful.ro/assets/save_me/priceIcon.png","unitPriceLabel":"59,9 Lei/kg","badge":null},"labels":[],"geniusPrice":null,"geniusUnitPricePerLabel":null,"banner":{"text":"Cumpără la 5.75 lei","textColor":"#FF7070","bgColor":"#FFF1F1","icon":"https://cdn.freshful.ro/assets/save_me/priceIcon.png","link":"https://www.freshful.ro/p/100032717-monor-mozzarella-bilute-pentru-salata-96g?sm=true","type":"saveMe","analyticsEventType":"select_item","analyticsEventPayload":[]},"discountLabel":null,"geniusDiscountLabel":null,"badge":null},{"code":"100003631","variantCode":"5941905044063","name":"Caș zvântat 225g","slug":"100003631-laptaria-cu-caimac-cas-zvantat-225g","unitPriceLabel":"73,73 Lei/kg","brand":"Lăptăria cu caimac","brandCode":"1","brandFilterCode":"laptaria-cu-caimac-b1","sku":"100003631","price":16.59,"originalPrice":null,"currencyCode":"RON","currency":"Lei","image":{"thumbnail":{"default":"https://cdn.freshful.ro/media/cache/sylius_shop_product_thumbnail/02/c8/5e4a247aeace0a7ffc6e088fe560.jpg"},"large":{"default":"https://cdn.freshful.ro/media/cache/freshful_large/02/c8/5e4a247aeace0a7ffc6e088fe560.jpg"},"extralarge":{"default":"https://cdn.freshful.ro/media/cache/sylius_shop_product_original/02/c8/5e4a247aeace0a7ffc6e088fe560.jpg"}},"label":null,"tags":[{"type":"MadeInRomania","text":"Made In Romania","icon":"https://cdn.freshful.ro/assets/product_tags/made_in_romania.svg","iconPng":"https://cdn.freshful.ro/assets/product_tags/made_in_romania.png","backgroundColor":"#EDF2FD","textColor":"#1653CA"}],"isAvailable":true,"maxAvailableQuantity":78,"maxAllowedQuantity":100,"breadcrumbs":[{"code":"4","name":"Lactate & ouă","slug":"4-lactate-branzeturi-si-oua"},{"code":"406","name":"Brânzeturi","slug":"406-branzeturi"},{"code":"40608","name":"Specialități românești","slug":"40608-specialitati-romanesti"},{"code":"100003631","name":"Caș zvântat 225g","slug":"100003631-laptaria-cu-caimac-cas-zvantat-225g"}],"activePromotion":null,"saveMe":null,"labels":[],"geniusPrice":null,"geniusUnitPricePerLabel":null,"banner":null,"discountLabel":null,"geniusDiscountLabel":null,"badge":null},{"code":"100039319","variantCode":"5941872202114","name":"Urdă de Ibănești 500g","slug":"100039319-mirdatod-urda-de-ibanesti-500g","unitPriceLabel":"31,98 Lei/kg","brand":"Mirdatod","brandCode":"755","brandFilterCode":"mirdatod-b756","sku":"100039319","price":15.99,"originalPrice":null,"currencyCode":"RON","currency":"Lei","image":{"thumbnail":{"default":"https://cdn.freshful.ro/media/cache/sylius_shop_product_thumbnail/78/f5/8391af2bb8763120739af5d12934.jpg"},"large":{"default":"https://cdn.freshful.ro/media/cache/freshful_large/78/f5/8391af2bb8763120739af5d12934.jpg"},"extralarge":{"default":"https://cdn.freshful.ro/media/cache/sylius_shop_product_original/78/f5/8391af2bb8763120739af5d12934.jpg"}},"label":{"text":"Mici producători","backgroundColor":"#7B61FF","textColor":"#FFFFFF"},"tags":[{"type":"MadeInRomania","text":"Made In Romania","icon":"https://cdn.freshful.ro/assets/product_tags/made_in_romania.svg","iconPng":"https://cdn.freshful.ro/assets/product_tags/made_in_romania.png","backgroundColor":"#EDF2FD","textColor":"#1653CA"}],"isAvailable":true,"maxAvailableQuantity":48,"maxAllowedQuantity":100,"breadcrumbs":[{"code":"4","name":"Lactate & ouă","slug":"4-lactate-branzeturi-si-oua"},{"code":"406","name":"Brânzeturi","slug":"406-branzeturi"},{"code":"40608","name":"Specialități românești","slug":"40608-specialitati-romanesti"},{"code":"100039319","name":"Urdă de Ibănești 500g","slug":"100039319-mirdatod-urda-de-ibanesti-500g"}],"activePromotion":null,"saveMe":null,"labels":[{"type":"v1","items":[{"text":"Mici producători","backgroundColor":"#7B61FF","textColor":"#FFFFFF"}]}],"geniusPrice":null,"geniusUnitPricePerLabel":null,"banner":null,"discountLabel":null,"geniusDiscountLabel":null,"badge":null},{"code":"100039320","variantCode":"5941872200585","name":"Brânză de burduf de Ibănești 300g","slug":"100039320-mirdatod-branza-de-burduf-de-ibanesti-300g","unitPriceLabel":"49,97 Lei/kg","brand":"Mirdatod","brandCode":"755","brandFilterCode":"mirdatod-b756","sku":"100039320","price":14.99,"originalPrice":null,"currencyCode":"RON","currency":"Lei","image":{"thumbnail":{"default":"https://cdn.freshful.ro/media/cache/sylius_shop_product_thumbnail/aa/05/53a1dc6e97a9d1bb329ddef531ec.jpg"},"large":{"default":"https://cdn.freshful.ro/media/cache/freshful_large/aa/05/53a1dc6e97a9d1bb329ddef531ec.jpg"},"extralarge":{"default":"https://cdn.freshful.ro/media/cache/sylius_shop_product_original/aa/05/53a1dc6e97a9d1bb329ddef531ec.jpg"}},"label":{"text":"Mici producători","backgroundColor":"#7B61FF","textColor":"#FFFFFF"},"tags":[{"type":"MadeInRomania","text":"Made In Romania","icon":"https://cdn.freshful.ro/assets/product_tags/made_in_romania.svg","iconPng":"https://cdn.freshful.ro/assets/product_tags/made_in_romania.png","backgroundColor":"#EDF2FD","textColor":"#1653CA"}],"isAvailable":true,"maxAvailableQuantity":56,"maxAllowedQuantity":100,"breadcrumbs":[{"code":"4","name":"Lactate & ouă","slug":"4-lactate-branzeturi-si-oua"},{"code":"406","name":"Brânzeturi","slug":"406-branzeturi"},{"code":"40608","name":"Specialități românești","slug":"40608-specialitati-romanesti"},{"code":"100039320","name":"Brânză de burduf de Ibănești 300g","slug":"100039320-mirdatod-branza-de-burduf-de-ibanesti-300g"}],"activePromotion":null,"saveMe":null,"labels":[{"type":"v1","items":[{"text":"Mici producători","backgroundColor":"#7B61FF","textColor":"#FFFFFF"}]}],"geniusPrice":null,"geniusUnitPricePerLabel":null,"banner":null,"discountLabel":null,"geniusDiscountLabel":null,"badge":null},{"code":"100032718","variantCode":"100032718","name":"Mozzarella 145g","slug":"100032718-monor-mozzarella-145g","unitPriceLabel":"55,1 Lei/kg","brand":"Monor","brandCode":"325","brandFilterCode":"monor-b326","sku":"100032718","price":7.99,"originalPrice":null,"currencyCode":"RON","currency":"Lei","image":{"thumbnail":{"default":"https://cdn.freshful.ro/media/cache/sylius_shop_product_thumbnail/e7/7c/4dfc9038a18d627b2d20ae9750ce.jpg"},"large":{"default":"https://cdn.freshful.ro/media/cache/freshful_large/e7/7c/4dfc9038a18d627b2d20ae9750ce.jpg"},"extralarge":{"default":"https://cdn.freshful.ro/media/cache/sylius_shop_product_original/e7/7c/4dfc9038a18d627b2d20ae9750ce.jpg"}},"label":null,"tags":[],"isAvailable":true,"maxAvailableQuantity":34,"maxAllowedQuantity":100,"breadcrumbs":[{"code":"4","name":"Lactate & ouă","slug":"4-lactate-branzeturi-si-oua"},{"code":"406","name":"Brânzeturi","slug":"406-branzeturi"},{"code":"40608","name":"Specialități românești","slug":"40608-specialitati-romanesti"},{"code":"100032718","name":"Mozzarella 145g","slug":"100032718-monor-mozzarella-145g"}],"activePromotion":null,"saveMe":null,"labels":[],"geniusPrice":null,"geniusUnitPricePerLabel":null,"banner":null,"discountLabel":null,"geniusDiscountLabel":null,"badge":null},{"code":"100141208","variantCode":"100141208","name":"Caș de capră 500g","slug":"100141208-zimbria-cas-de-capra-500g","unitPriceLabel":"77,98 Lei/kg","brand":"Zimbria","brandCode":"205","brandFilterCode":"zimbria-b206","sku":"100141208","price":38.99,"originalPrice":null,"currencyCode":"RON","currency":"Lei","image":{"thumbnail":{"default":"https://cdn.freshful.ro/media/cache/sylius_shop_product_thumbnail/10/eb/632c2fd6d8dc8862d2ea9841d96d.jpg"},"large":{"default":"https://cdn.freshful.ro/media/cache/freshful_large/10/eb/632c2fd6d8dc8862d2ea9841d96d.jpg"},"extralarge":{"default":"https://cdn.freshful.ro/media/cache/sylius_shop_product_original/10/eb/632c2fd6d8dc8862d2ea9841d96d.jpg"}},"label":{"text":"Mici producători","backgroundColor":"#7B61FF","textColor":"#FFFFFF"},"tags":[{"type":"MadeInRomania","text":"Made In Romania","icon":"https://cdn.freshful.ro/assets/product_tags/made_in_romania.svg","iconPng":"https://cdn.freshful.ro/assets/product_tags/made_in_romania.png","backgroundColor":"#EDF2FD","textColor":"#1653CA"}],"isAvailable":true,"maxAvailableQuantity":1,"maxAllowedQuantity":100,"breadcrumbs":[{"code":"4","name":"Lactate & ouă","slug":"4-lactate-branzeturi-si-oua"},{"code":"406","name":"Brânzeturi","slug":"406-branzeturi"},{"code":"40608","name":"Specialități românești","slug":"40608-specialitati-romanesti"},{"code":"100141208","name":"Caș de capră 500g","slug":"100141208-zimbria-cas-de-capra-500g"}],"activePromotion":null,"saveMe":null,"labels":[{"type":"v1","items":[{"text":"Mici producători","backgroundColor":"#7B61FF","textColor":"#FFFFFF"}]}],"geniusPrice":null,"geniusUnitPricePerLabel":null,"banner":null,"discountLabel":null,"geniusDiscountLabel":null,"badge":null},{"code":"100039317","variantCode":"5941872200561","name":"Caș dulce de Ibănești 500g","slug":"100039317-mirdatod-cas-dulce-de-ibanesti-500g","unitPriceLabel":"53,98 Lei/kg","brand":"Mirdatod","brandCode":"755","brandFilterCode":"mirdatod-b756","sku":"100039317","price":26.99,"originalPrice":null,"currencyCode":"RON","currency":"Lei","image":{"thumbnail":{"default":"https://cdn.freshful.ro/media/cache/sylius_shop_product_thumbnail/5f/7f/b67da30a92a2d2a88e692b3c712b.jpg"},"large":{"default":"https://cdn.freshful.ro/media/cache/freshful_large/5f/7f/b67da30a92a2d2a88e692b3c712b.jpg"},"extralarge":{"default":"https://cdn.freshful.ro/media/cache/sylius_shop_product_original/5f/7f/b67da30a92a2d2a88e692b3c712b.jpg"}},"label":{"text":"Mici producători","backgroundColor":"#7B61FF","textColor":"#FFFFFF"},"tags":[{"type":"MadeInRomania","text":"Made In Romania","icon":"https://cdn.freshful.ro/assets/product_tags/made_in_romania.svg","iconPng":"https://cdn.freshful.ro/assets/product_tags/made_in_romania.png","backgroundColor":"#EDF2FD","textColor":"#1653CA"}],"isAvailable":true,"maxAvailableQuantity":9,"maxAllowedQuantity":100,"breadcrumbs":[{"code":"4","name":"Lactate & ouă","slug":"4-lactate-branzeturi-si-oua"},{"code":"406","name":"Brânzeturi","slug":"406-branzeturi"},{"code":"40608","name":"Specialități românești","slug":"40608-specialitati-romanesti"},{"code":"100039317","name":"Caș dulce de Ibănești 500g","slug":"100039317-mirdatod-cas-dulce-de-ibanesti-500g"}],"activePromotion":null,"saveMe":null,"labels":[{"type":"v1","items":[{"text":"Mici producători","backgroundColor":"#7B61FF","textColor":"#FFFFFF"}]}],"geniusPrice":null,"geniusUnitPricePerLabel":null,"banner":null,"discountLabel":null,"geniusDiscountLabel":null,"badge":null},{"code":"100034096","variantCode":"100034096","name":"Mini mozzarella de bivoliță 125g","slug":"100034096-colectar-mini-mozzarella-de-bivolita-125g","unitPriceLabel":"127,92 Lei/kg","brand":"Colectar","brandCode":"382","brandFilterCode":"colectar-b383","sku":"100034096","price":15.99,"originalPrice":null,"currencyCode":"RON","currency":"Lei","image":{"thumbnail":{"default":"https://cdn.freshful.ro/media/cache/sylius_shop_product_thumbnail/c4/c7/c483b4e548c4c8f4512bb413d46e.jpg"},"large":{"default":"https://cdn.freshful.ro/media/cache/freshful_large/c4/c7/c483b4e548c4c8f4512bb413d46e.jpg"},"extralarge":{"default":"https://cdn.freshful.ro/media/cache/sylius_shop_product_original/c4/c7/c483b4e548c4c8f4512bb413d46e.jpg"}},"label":{"text":"Mici producători","backgroundColor":"#7B61FF","textColor":"#FFFFFF"},"tags":[{"type":"MadeInRomania","text":"Made In Romania","icon":"https://cdn.freshful.ro/assets/product_tags/made_in_romania.svg","iconPng":"https://cdn.freshful.ro/assets/product_tags/made_in_romania.png","backgroundColor":"#EDF2FD","textColor":"#1653CA"}],"isAvailable":true,"maxAvailableQuantity":34,"maxAllowedQuantity":100,"breadcrumbs":[{"code":"4","name":"Lactate & ouă","slug":"4-lactate-branzeturi-si-oua"},{"code":"406","name":"Brânzeturi","slug":"406-branzeturi"},{"code":"40608","name":"Specialități românești","slug":"40608-specialitati-romanesti"},{"code":"100034096","name":"Mini mozzarella de bivoliță 125g","slug":"100034096-colectar-mini-mozzarella-de-bivolita-125g"}],"activePromotion":null,"saveMe":null,"labels":[{"type":"v1","items":[{"text":"Mici producători","backgroundColor":"#7B61FF","textColor":"#FFFFFF"}]}],"geniusPrice":null,"geniusUnitPricePerLabel":null,"banner":null,"discountLabel":null,"geniusDiscountLabel":null,"badge":null},{"code":"100047565","variantCode":"100047565","name":"Brânză de burduf 300g","slug":"100047565-covalact-branza-de-burduf-300g","unitPriceLabel":"50,97 Lei/kg","brand":"Covalact","brandCode":"784","brandFilterCode":"covalact-b785","sku":"100047565","price":15.29,"originalPrice":null,"currencyCode":"RON","currency":"Lei","image":{"thumbnail":{"default":"https://cdn.freshful.ro/media/cache/sylius_shop_product_thumbnail/7a/f5/446183c2ec717b0bafd8514392e8.jpg"},"large":{"default":"https://cdn.freshful.ro/media/cache/freshful_large/7a/f5/446183c2ec717b0bafd8514392e8.jpg"},"extralarge":{"default":"https://cdn.freshful.ro/media/cache/sylius_shop_product_original/7a/f5/446183c2ec717b0bafd8514392e8.jpg"}},"label":null,"tags":[{"type":"MadeInRomania","text":"Made In Romania","icon":"https://cdn.freshful.ro/assets/product_tags/made_in_romania.svg","iconPng":"https://cdn.freshful.ro/assets/product_tags/made_in_romania.png","backgroundColor":"#EDF2FD","textColor":"#1653CA"}],"isAvailable":true,"maxAvailableQuantity":32,"maxAllowedQuantity":100,"breadcrumbs":[{"code":"4","name":"Lactate & ouă","slug":"4-lactate-branzeturi-si-oua"},{"code":"406","name":"Brânzeturi","slug":"406-branzeturi"},{"code":"40608","name":"Specialități românești","slug":"40608-specialitati-romanesti"},{"code":"100047565","name":"Brânză de burduf 300g","slug":"100047565-covalact-branza-de-burduf-300g"}],"activePromotion":null,"saveMe":null,"labels":[],"geniusPrice":null,"geniusUnitPricePerLabel":null,"banner":null,"discountLabel":null,"geniusDiscountLabel":null,"badge":null},{"code":"100045309","variantCode":"100045309","name":"Brânză burduf 300g","slug":"100045309-torockoi-branza-burduf-300g","unitPriceLabel":"33,3 Lei/kg","brand":"Torockoi","brandCode":"827","brandFilterCode":"torockoi-b828","sku":"100045309","price":9.99,"originalPrice":null,"currencyCode":"RON","currency":"Lei","image":{"thumbnail":{"default":"https://cdn.freshful.ro/media/cache/sylius_shop_product_thumbnail/a3/49/97b3f72e3378748f1be792d9c168.jpg"},"large":{"default":"https://cdn.freshful.ro/media/cache/freshful_large/a3/49/97b3f72e3378748f1be792d9c168.jpg"},"extralarge":{"default":"https://cdn.freshful.ro/media/cache/sylius_shop_product_original/a3/49/97b3f72e3378748f1be792d9c168.jpg"}},"label":{"text":"Primul preț","backgroundColor":"#3A0808","textColor":"#FFFFFF"},"tags":[{"type":"MadeInRomania","text":"Made In Romania","icon":"https://cdn.freshful.ro/assets/product_tags/made_in_romania.svg","iconPng":"https://cdn.freshful.ro/assets/product_tags/made_in_romania.png","backgroundColor":"#EDF2FD","textColor":"#1653CA"}],"isAvailable":true,"maxAvailableQuantity":100,"maxAllowedQuantity":100,"breadcrumbs":[{"code":"4","name":"Lactate & ouă","slug":"4-lactate-branzeturi-si-oua"},{"code":"406","name":"Brânzeturi","slug":"406-branzeturi"},{"code":"40608","name":"Specialități românești","slug":"40608-specialitati-romanesti"},{"code":"100045309","name":"Brânză burduf 300g","slug":"100045309-torockoi-branza-burduf-300g"}],"activePromotion":null,"saveMe":null,"labels":[{"type":"v4","items":[{"text":"Primul","backgroundColor":"#3A0808","textColor":"#FFFFFF"},{"text":"preț","backgroundColor":"#BC0606","textColor":"#FFFFFF"}]}],"geniusPrice":null,"geniusUnitPricePerLabel":null,"banner":null,"discountLabel":null,"geniusDiscountLabel":null,"badge":null}],"filters":{"countSelected":0,"items":[{"code":"brand","name":"Brand","countSelected":0,"values":[{"code":"artesana-b219","name":"Artesana","isSelected":false,"count":4},{"code":"colectar-b383","name":"Colectar","isSelected":false,"count":2},{"code":"covalact-b785","name":"Covalact","isSelected":false,"count":1},{"code":"five-continents-b1399","name":"Five Continents","isSelected":false,"count":6},{"code":"gustolact-b502","name":"Gustolact","isSelected":false,"count":1},{"code":"hochland-b127","name":"Hochland","isSelected":false,"count":3},{"code":"laptaria-cu-caimac-b1","name":"Lăptăria cu caimac","isSelected":false,"count":1},{"code":"mirdatod-b756","name":"Mirdatod","isSelected":false,"count":4},{"code":"monor-b326","name":"Monor","isSelected":false,"count":4},{"code":"nucet-b2523","name":"Nucet","isSelected":false,"count":1},{"code":"originar-b385","name":"Originar","isSelected":false,"count":4},{"code":"raraul-b12","name":"Rarăul","isSelected":false,"count":1},{"code":"torockoi-b828","name":"Torockoi","isSelected":false,"count":16},{"code":"zimbria-b206","name":"Zimbria","isSelected":false,"count":6}]},{"code":"diet_lifestyle","name":"Dietă și lifestyle","countSelected":0,"values":[{"code":"fara-e-uri-a84","name":"Fara E-uri","isSelected":false,"count":1},{"code":"fara-zahar-adaugat-a29","name":"Fara zahar adaugat","isSelected":false,"count":4},{"code":"made-in-romania-a85","name":"Made In Romania","isSelected":false,"count":39},{"code":"natural-a27","name":"Natural","isSelected":false,"count":5}]}]},"orderBy":[{"field":"price","direction":"asc","name":"Preț crescător","isSelected":false},{"field":"price","direction":"desc","name":"Preț descrescător","isSelected":false},{"field":"popularity","direction":"desc","name":"Cele mai populare","isSelected":true},{"field":"category","direction":"asc","name":"Categorie","isSelected":false}],"metaTitle":"Specialități românești - Gamă variată","metaDescription":"Vrei Specialități românești? Alege dintr-o gamă variată. Comanzi simplu și ai livrare rapidă, calitate și prospețime. Hai pe Freshful.ro","metaKeywords":null,"banners":[]}}