{"type":"subcategory","payload":{"analyticsListId":"category_40603-branzeturi-feliate","analyticsListName":"Category - Brânzeturi feliate","name":"Brânzeturi feliate","slug":"40603-branzeturi-feliate","image":null,"breadcrumbs":[{"code":"4","name":"Lactate & ouă","slug":"4-lactate-branzeturi-si-oua"},{"code":"406","name":"Brânzeturi","slug":"406-branzeturi"},{"code":"40603","name":"Brânzeturi feliate","slug":"40603-branzeturi-feliate"}],"slots":[],"page":1,"limit":10,"pages":4,"count":35,"siblings":[{"name":"Lapte, smântână și brânză proaspătă","slug":"401-lapte-smantana-si-branza-proaspata","selected":false},{"name":"Unt","slug":"402-unt-si-margarina","selected":false},{"name":"Lactate UHT","slug":"403-lactate-uht","selected":false},{"name":"Iaurt, desert și sana","slug":"404-iaurt-desert-si-sana","selected":false},{"name":"Ouă","slug":"405-oua","selected":false},{"name":"Brânzeturi","slug":"406-branzeturi","selected":true},{"name":"Lapte și lactate ECO","slug":"lapte-si-lactate-eco","selected":false},{"name":"Amestecuri lactate și grasimi vegetale","slug":"amestecuri-lactate-si-grasimi-vegetale","selected":false}],"children":[{"name":"Toate produsele","slug":"406-branzeturi","selected":false},{"name":"Brânzeturi fără lactoză","slug":"40602-branzeturi-fara-lactoza","selected":false},{"name":"Brânzeturi feliate","slug":"40603-branzeturi-feliate","selected":true},{"name":"Brânzeturi tartinabile","slug":"40604-branzeturi-tartinabile","selected":false},{"name":"Cașcaval","slug":"40605-cascaval","selected":false},{"name":"Specialități internaționale","slug":"40607-specialitati-internationale","selected":false},{"name":"Specialități românești","slug":"40608-specialitati-romanesti","selected":false},{"name":"Telemea","slug":"40609-telemea","selected":false}],"products":[{"code":"100039306","variantCode":"5941872202497","name":"Cașcaval de Ibănești feliat 120g","slug":"100039306-mirdatod-cascaval-de-ibanesti-feliat-120g","unitPriceLabel":"60,75 Lei/kg","brand":"Mirdatod","brandCode":"755","brandFilterCode":"mirdatod-b756","sku":"100039306","price":7.29,"originalPrice":7.99,"currencyCode":"RON","currency":"Lei","image":{"thumbnail":{"default":"https://cdn.freshful.ro/media/cache/sylius_shop_product_thumbnail/4b/b6/45b6a28b2260941629c45b936afb.jpg"},"large":{"default":"https://cdn.freshful.ro/media/cache/freshful_large/4b/b6/45b6a28b2260941629c45b936afb.jpg"},"extralarge":{"default":"https://cdn.freshful.ro/media/cache/sylius_shop_product_original/4b/b6/45b6a28b2260941629c45b936afb.jpg"}},"label":{"text":"-8%","backgroundColor":"#FF9903","textColor":"#FFFFFF"},"tags":[{"type":"MadeInRomania","text":"Made In Romania","icon":"https://cdn.freshful.ro/assets/product_tags/made_in_romania.svg","iconPng":"https://cdn.freshful.ro/assets/product_tags/made_in_romania.png","backgroundColor":"#EDF2FD","textColor":"#1653CA"}],"isAvailable":true,"maxAvailableQuantity":100,"maxAllowedQuantity":100,"breadcrumbs":[{"code":"4","name":"Lactate & ouă","slug":"4-lactate-branzeturi-si-oua"},{"code":"406","name":"Brânzeturi","slug":"406-branzeturi"},{"code":"40603","name":"Brânzeturi feliate","slug":"40603-branzeturi-feliate"},{"code":"100039306","name":"Cașcaval de Ibănești feliat 120g","slug":"100039306-mirdatod-cascaval-de-ibanesti-feliat-120g"}],"activePromotion":{"code":"freshful-top-deals-2023","name":"Preț redus","targetQuantity":null},"saveMe":null,"labels":[{"type":"v1","items":[{"text":"-8%","backgroundColor":"#FF9903","textColor":"#FFFFFF"}]}],"geniusPrice":null,"geniusUnitPricePerLabel":null,"banner":{"text":"Super preț","textColor":"#FF0000","bgColor":"#FFF2EC","icon":null,"link":"https://www.freshful.ro/oferte/freshful-top-deals-2023","type":"promo","analyticsEventType":"select_promotion","analyticsEventPayload":{"promotion_id":"freshful-top-deals-2023","promotion_name":"Profită de Top Deals"}},"discountLabel":"Economisești 8%","geniusDiscountLabel":null,"badge":null},{"code":"100143891","variantCode":"100143891","name":"Cașcaval feliat 180g","slug":"100143891-kolios-cascaval-feliat-180g","unitPriceLabel":"83,28 Lei/kg","brand":"Kolios","brandCode":"2781","brandFilterCode":"kolios-b2855","sku":"100143891","price":14.99,"originalPrice":16.99,"currencyCode":"RON","currency":"Lei","image":{"thumbnail":{"default":"https://cdn.freshful.ro/media/cache/sylius_shop_product_thumbnail/84/9f/35e2227c598bf460f46408c3795a.jpg"},"large":{"default":"https://cdn.freshful.ro/media/cache/freshful_large/84/9f/35e2227c598bf460f46408c3795a.jpg"},"extralarge":{"default":"https://cdn.freshful.ro/media/cache/sylius_shop_product_original/84/9f/35e2227c598bf460f46408c3795a.jpg"}},"label":{"text":"-11%","backgroundColor":"#FF9903","textColor":"#FFFFFF"},"tags":[],"isAvailable":true,"maxAvailableQuantity":25,"maxAllowedQuantity":100,"breadcrumbs":[{"code":"4","name":"Lactate & ouă","slug":"4-lactate-branzeturi-si-oua"},{"code":"406","name":"Brânzeturi","slug":"406-branzeturi"},{"code":"40603","name":"Brânzeturi feliate","slug":"40603-branzeturi-feliate"},{"code":"100143891","name":"Cașcaval feliat 180g","slug":"100143891-kolios-cascaval-feliat-180g"}],"activePromotion":{"code":"bunatatile-saptamanii-cw0923","name":"Preț redus","targetQuantity":null},"saveMe":null,"labels":[{"type":"v1","items":[{"text":"-11%","backgroundColor":"#FF9903","textColor":"#FFFFFF"}]}],"geniusPrice":null,"geniusUnitPricePerLabel":null,"banner":{"text":"Super preț","textColor":"#FF0000","bgColor":"#FFF2EC","icon":null,"link":"https://www.freshful.ro/oferte/bunatatile-saptamanii-cw0923","type":"promo","analyticsEventType":"select_promotion","analyticsEventPayload":{"promotion_id":"bunatatile-saptamanii-cw0923","promotion_name":"Oferta proaspătă a săptămânii"}},"discountLabel":"Economisești 11%","geniusDiscountLabel":null,"badge":null},{"code":"100120645","variantCode":"100120645","name":"Cașcaval felii clasic 260g","slug":"100120645-hochland-cascaval-felii-clasic-260g","unitPriceLabel":"56,5 Lei/kg","brand":"Hochland","brandCode":"143","brandFilterCode":"hochland-b127","sku":"100120645","price":14.69,"originalPrice":null,"currencyCode":"RON","currency":"Lei","image":{"thumbnail":{"default":"https://cdn.freshful.ro/media/cache/sylius_shop_product_thumbnail/9e/bb/68320e897ef19f8cbc533ba6a64c.jpg"},"large":{"default":"https://cdn.freshful.ro/media/cache/freshful_large/9e/bb/68320e897ef19f8cbc533ba6a64c.jpg"},"extralarge":{"default":"https://cdn.freshful.ro/media/cache/sylius_shop_product_original/9e/bb/68320e897ef19f8cbc533ba6a64c.jpg"}},"label":null,"tags":[],"isAvailable":true,"maxAvailableQuantity":100,"maxAllowedQuantity":100,"breadcrumbs":[{"code":"4","name":"Lactate & ouă","slug":"4-lactate-branzeturi-si-oua"},{"code":"406","name":"Brânzeturi","slug":"406-branzeturi"},{"code":"40603","name":"Brânzeturi feliate","slug":"40603-branzeturi-feliate"},{"code":"100120645","name":"Cașcaval felii clasic 260g","slug":"100120645-hochland-cascaval-felii-clasic-260g"}],"activePromotion":null,"saveMe":null,"labels":[],"geniusPrice":null,"geniusUnitPricePerLabel":null,"banner":null,"discountLabel":null,"geniusDiscountLabel":null,"badge":null},{"code":"100034384","variantCode":"5941360008785","name":"Fantomele din brânză Toni junior 108g","slug":"100034384-delaco-fantomele-din-branza-toni-junior-108g","unitPriceLabel":"57,31 Lei/kg","brand":"Delaco","brandCode":"225","brandFilterCode":"delaco-b226","sku":"100034384","price":6.19,"originalPrice":null,"currencyCode":"RON","currency":"Lei","image":{"thumbnail":{"default":"https://cdn.freshful.ro/media/cache/sylius_shop_product_thumbnail/b4/6a/35db0be66d6b2b8d4de49892859f.jpg"},"large":{"default":"https://cdn.freshful.ro/media/cache/freshful_large/b4/6a/35db0be66d6b2b8d4de49892859f.jpg"},"extralarge":{"default":"https://cdn.freshful.ro/media/cache/sylius_shop_product_original/b4/6a/35db0be66d6b2b8d4de49892859f.jpg"}},"label":null,"tags":[{"type":"NoGluten","text":"Fara gluten","icon":"https://cdn.freshful.ro/assets/product_tags/fara_gluten.svg","iconPng":"https://cdn.freshful.ro/assets/product_tags/fara_gluten.png","backgroundColor":"#FFF2E5","textColor":"#F07900"},{"type":"NoPreservatives","text":"Fara conservanti","icon":"https://cdn.freshful.ro/assets/product_tags/fara_conservanti.svg","iconPng":"https://cdn.freshful.ro/assets/product_tags/fara_conservanti.png","backgroundColor":"#F0F2FF","textColor":"#7889DD"}],"isAvailable":true,"maxAvailableQuantity":100,"maxAllowedQuantity":100,"breadcrumbs":[{"code":"4","name":"Lactate & ouă","slug":"4-lactate-branzeturi-si-oua"},{"code":"406","name":"Brânzeturi","slug":"406-branzeturi"},{"code":"40603","name":"Brânzeturi feliate","slug":"40603-branzeturi-feliate"},{"code":"100034384","name":"Fantomele din brânză Toni junior 108g","slug":"100034384-delaco-fantomele-din-branza-toni-junior-108g"}],"activePromotion":null,"saveMe":null,"labels":[],"geniusPrice":null,"geniusUnitPricePerLabel":null,"banner":null,"discountLabel":null,"geniusDiscountLabel":null,"badge":null},{"code":"100031705","variantCode":"5941238001009","name":"Cașcaval felii clasic 150g","slug":"100031705-hochland-cascaval-felii-clasic-150g","unitPriceLabel":"66,6 Lei/kg","brand":"Hochland","brandCode":"143","brandFilterCode":"hochland-b127","sku":"100031705","price":9.99,"originalPrice":null,"currencyCode":"RON","currency":"Lei","image":{"thumbnail":{"default":"https://cdn.freshful.ro/media/cache/sylius_shop_product_thumbnail/cd/8d/1d37403ea482f9592cc5a2767f47.jpg"},"large":{"default":"https://cdn.freshful.ro/media/cache/freshful_large/cd/8d/1d37403ea482f9592cc5a2767f47.jpg"},"extralarge":{"default":"https://cdn.freshful.ro/media/cache/sylius_shop_product_original/cd/8d/1d37403ea482f9592cc5a2767f47.jpg"}},"label":null,"tags":[{"type":"MadeInRomania","text":"Made In Romania","icon":"https://cdn.freshful.ro/assets/product_tags/made_in_romania.svg","iconPng":"https://cdn.freshful.ro/assets/product_tags/made_in_romania.png","backgroundColor":"#EDF2FD","textColor":"#1653CA"}],"isAvailable":true,"maxAvailableQuantity":100,"maxAllowedQuantity":100,"breadcrumbs":[{"code":"4","name":"Lactate & ouă","slug":"4-lactate-branzeturi-si-oua"},{"code":"406","name":"Brânzeturi","slug":"406-branzeturi"},{"code":"40603","name":"Brânzeturi feliate","slug":"40603-branzeturi-feliate"},{"code":"100031705","name":"Cașcaval felii clasic 150g","slug":"100031705-hochland-cascaval-felii-clasic-150g"}],"activePromotion":null,"saveMe":null,"labels":[],"geniusPrice":null,"geniusUnitPricePerLabel":null,"banner":null,"discountLabel":null,"geniusDiscountLabel":null,"badge":null},{"code":"100031681","variantCode":"5941238013309","name":"Brânză topită felii cu Cedar 140g","slug":"100031681-hochland-branza-topita-felii-cu-cedar-140g","unitPriceLabel":"49,21 Lei/kg","brand":"Hochland","brandCode":"143","brandFilterCode":"hochland-b127","sku":"100031681","price":6.89,"originalPrice":null,"currencyCode":"RON","currency":"Lei","image":{"thumbnail":{"default":"https://cdn.freshful.ro/media/cache/sylius_shop_product_thumbnail/28/55/6506e202e97967095b8eabee9f73.jpg"},"large":{"default":"https://cdn.freshful.ro/media/cache/freshful_large/28/55/6506e202e97967095b8eabee9f73.jpg"},"extralarge":{"default":"https://cdn.freshful.ro/media/cache/sylius_shop_product_original/28/55/6506e202e97967095b8eabee9f73.jpg"}},"label":null,"tags":[],"isAvailable":true,"maxAvailableQuantity":100,"maxAllowedQuantity":100,"breadcrumbs":[{"code":"4","name":"Lactate & ouă","slug":"4-lactate-branzeturi-si-oua"},{"code":"406","name":"Brânzeturi","slug":"406-branzeturi"},{"code":"40603","name":"Brânzeturi feliate","slug":"40603-branzeturi-feliate"},{"code":"100031681","name":"Brânză topită felii cu Cedar 140g","slug":"100031681-hochland-branza-topita-felii-cu-cedar-140g"}],"activePromotion":null,"saveMe":null,"labels":[],"geniusPrice":null,"geniusUnitPricePerLabel":null,"banner":null,"discountLabel":null,"geniusDiscountLabel":null,"badge":null},{"code":"100031707","variantCode":"5941238012395","name":"Cașcaval felii light 150g","slug":"100031707-hochland-cascaval-felii-light-150g","unitPriceLabel":"67,93 Lei/kg","brand":"Hochland","brandCode":"143","brandFilterCode":"hochland-b127","sku":"100031707","price":10.19,"originalPrice":null,"currencyCode":"RON","currency":"Lei","image":{"thumbnail":{"default":"https://cdn.freshful.ro/media/cache/sylius_shop_product_thumbnail/8e/43/62338537d77ea9e0202888e3d33b.jpg"},"large":{"default":"https://cdn.freshful.ro/media/cache/freshful_large/8e/43/62338537d77ea9e0202888e3d33b.jpg"},"extralarge":{"default":"https://cdn.freshful.ro/media/cache/sylius_shop_product_original/8e/43/62338537d77ea9e0202888e3d33b.jpg"}},"label":null,"tags":[{"type":"MadeInRomania","text":"Made In Romania","icon":"https://cdn.freshful.ro/assets/product_tags/made_in_romania.svg","iconPng":"https://cdn.freshful.ro/assets/product_tags/made_in_romania.png","backgroundColor":"#EDF2FD","textColor":"#1653CA"}],"isAvailable":true,"maxAvailableQuantity":100,"maxAllowedQuantity":100,"breadcrumbs":[{"code":"4","name":"Lactate & ouă","slug":"4-lactate-branzeturi-si-oua"},{"code":"406","name":"Brânzeturi","slug":"406-branzeturi"},{"code":"40603","name":"Brânzeturi feliate","slug":"40603-branzeturi-feliate"},{"code":"100031707","name":"Cașcaval felii light 150g","slug":"100031707-hochland-cascaval-felii-light-150g"}],"activePromotion":null,"saveMe":null,"labels":[],"geniusPrice":null,"geniusUnitPricePerLabel":null,"banner":null,"discountLabel":null,"geniusDiscountLabel":null,"badge":null},{"code":"100120644","variantCode":"100120644","name":"Cașcaval felii afumat 260g","slug":"100120644-hochland-cascaval-felii-afumat-260g","unitPriceLabel":"55,73 Lei/kg","brand":"Hochland","brandCode":"143","brandFilterCode":"hochland-b127","sku":"100120644","price":14.49,"originalPrice":null,"currencyCode":"RON","currency":"Lei","image":{"thumbnail":{"default":"https://cdn.freshful.ro/media/cache/sylius_shop_product_thumbnail/23/95/02475a1f4b5cd9165bb33120d6ce.jpg"},"large":{"default":"https://cdn.freshful.ro/media/cache/freshful_large/23/95/02475a1f4b5cd9165bb33120d6ce.jpg"},"extralarge":{"default":"https://cdn.freshful.ro/media/cache/sylius_shop_product_original/23/95/02475a1f4b5cd9165bb33120d6ce.jpg"}},"label":null,"tags":[],"isAvailable":true,"maxAvailableQuantity":97,"maxAllowedQuantity":100,"breadcrumbs":[{"code":"4","name":"Lactate & ouă","slug":"4-lactate-branzeturi-si-oua"},{"code":"406","name":"Brânzeturi","slug":"406-branzeturi"},{"code":"40603","name":"Brânzeturi feliate","slug":"40603-branzeturi-feliate"},{"code":"100120644","name":"Cașcaval felii afumat 260g","slug":"100120644-hochland-cascaval-felii-afumat-260g"}],"activePromotion":null,"saveMe":null,"labels":[],"geniusPrice":null,"geniusUnitPricePerLabel":null,"banner":null,"discountLabel":null,"geniusDiscountLabel":null,"badge":null},{"code":"100031688","variantCode":"5941238010643","name":"Brânză topită felii cu smântână 280g (pachet mare)","slug":"100031688-hochland-branza-topita-felii-cu-smantana-280g-pachet-mare","unitPriceLabel":"42,82 Lei/kg","brand":"Hochland","brandCode":"143","brandFilterCode":"hochland-b127","sku":"100031688","price":11.99,"originalPrice":null,"currencyCode":"RON","currency":"Lei","image":{"thumbnail":{"default":"https://cdn.freshful.ro/media/cache/sylius_shop_product_thumbnail/cb/95/54be701446bda93df0db0239b784.jpg"},"large":{"default":"https://cdn.freshful.ro/media/cache/freshful_large/cb/95/54be701446bda93df0db0239b784.jpg"},"extralarge":{"default":"https://cdn.freshful.ro/media/cache/sylius_shop_product_original/cb/95/54be701446bda93df0db0239b784.jpg"}},"label":null,"tags":[],"isAvailable":true,"maxAvailableQuantity":100,"maxAllowedQuantity":100,"breadcrumbs":[{"code":"4","name":"Lactate & ouă","slug":"4-lactate-branzeturi-si-oua"},{"code":"406","name":"Brânzeturi","slug":"406-branzeturi"},{"code":"40603","name":"Brânzeturi feliate","slug":"40603-branzeturi-feliate"},{"code":"100031688","name":"Brânză topită felii cu smântână 280g (pachet mare)","slug":"100031688-hochland-branza-topita-felii-cu-smantana-280g-pachet-mare"}],"activePromotion":null,"saveMe":null,"labels":[],"geniusPrice":null,"geniusUnitPricePerLabel":null,"banner":null,"discountLabel":null,"geniusDiscountLabel":null,"badge":null},{"code":"100138907","variantCode":"100138907","name":"Cașcaval de vacă felii 240g","slug":"100138907-napolact-cascaval-de-vaca-felii-240g","unitPriceLabel":"74,92 Lei/kg","brand":"Napolact","brandCode":"79","brandFilterCode":"napolact-b77","sku":"100138907","price":17.98,"originalPrice":null,"currencyCode":"RON","currency":"Lei","image":{"thumbnail":{"default":"https://cdn.freshful.ro/media/cache/sylius_shop_product_thumbnail/8b/2c/26aa11147121d3a800c4bfcf289f.jpg"},"large":{"default":"https://cdn.freshful.ro/media/cache/freshful_large/8b/2c/26aa11147121d3a800c4bfcf289f.jpg"},"extralarge":{"default":"https://cdn.freshful.ro/media/cache/sylius_shop_product_original/8b/2c/26aa11147121d3a800c4bfcf289f.jpg"}},"label":null,"tags":[{"type":"MadeInRomania","text":"Made In Romania","icon":"https://cdn.freshful.ro/assets/product_tags/made_in_romania.svg","iconPng":"https://cdn.freshful.ro/assets/product_tags/made_in_romania.png","backgroundColor":"#EDF2FD","textColor":"#1653CA"}],"isAvailable":true,"maxAvailableQuantity":96,"maxAllowedQuantity":100,"breadcrumbs":[{"code":"4","name":"Lactate & ouă","slug":"4-lactate-branzeturi-si-oua"},{"code":"406","name":"Brânzeturi","slug":"406-branzeturi"},{"code":"40603","name":"Brânzeturi feliate","slug":"40603-branzeturi-feliate"},{"code":"100138907","name":"Cașcaval de vacă felii 240g","slug":"100138907-napolact-cascaval-de-vaca-felii-240g"}],"activePromotion":null,"saveMe":null,"labels":[],"geniusPrice":null,"geniusUnitPricePerLabel":null,"banner":null,"discountLabel":null,"geniusDiscountLabel":null,"badge":null}],"filters":{"countSelected":0,"items":[{"code":"promotion","name":"Promoții","countSelected":0,"values":[{"code":"bunatatile-saptamanii-cw0923","name":"Oferta proaspătă a săptămânii","isSelected":false,"count":1},{"code":"freshful-top-deals-2023","name":"Profită de Top Deals","isSelected":false,"count":1}]},{"code":"brand","name":"Brand","countSelected":0,"values":[{"code":"delaco-b226","name":"Delaco","isSelected":false,"count":5},{"code":"five-continents-b1399","name":"Five Continents","isSelected":false,"count":3},{"code":"hochland-b127","name":"Hochland","isSelected":false,"count":11},{"code":"ile-de-france-b463","name":"Ile de France","isSelected":false,"count":4},{"code":"kolios-b2855","name":"Kolios","isSelected":false,"count":1},{"code":"lacto-food-b378","name":"Lacto Food","isSelected":false,"count":1},{"code":"leerdammer-b61","name":"Leerdammer","isSelected":false,"count":5},{"code":"mirdatod-b756","name":"Mirdatod","isSelected":false,"count":1},{"code":"napolact-b77","name":"Napolact","isSelected":false,"count":2},{"code":"oldenburger-b64","name":"Oldenburger","isSelected":false,"count":1},{"code":"retezat-lactate-b3082","name":"Retezat Lactate","isSelected":false,"count":1}]},{"code":"diet_lifestyle","name":"Dietă și lifestyle","countSelected":0,"values":[{"code":"fara-conservanti-a37","name":"Fara conservanti","isSelected":false,"count":2},{"code":"fara-gluten-a16","name":"Fara gluten","isSelected":false,"count":2},{"code":"made-in-romania-a85","name":"Made In Romania","isSelected":false,"count":7}]}]},"orderBy":[{"field":"price","direction":"asc","name":"Preț crescător","isSelected":false},{"field":"price","direction":"desc","name":"Preț descrescător","isSelected":false},{"field":"popularity","direction":"desc","name":"Cele mai populare","isSelected":true},{"field":"category","direction":"asc","name":"Categorie","isSelected":false}],"metaTitle":"Brânzeturi feliate - Gamă variată","metaDescription":"Vrei Brânzeturi feliate? Alege dintr-o gamă variată. Comanzi simplu și ai livrare rapidă, calitate și prospețime. Hai pe Freshful.ro","metaKeywords":null,"banners":[{"name":"Prim pret","position":2,"type":"listing","displayOnMobile":true,"image":{"jpg":"https://cdn.freshful.ro/media/image/87/b8/2c5353731cb930753b2e9388cb6c.jpg","webp":"https://cdn.freshful.ro/media/image/2f/81/31f258b5a853f724d1a0ee704aea.webp"},"imageResponsive":{"jpg":"https://cdn.freshful.ro/media/image/bc/92/2fd607eef07234c1e524156e1312.jpg","webp":"https://cdn.freshful.ro/media/image/87/db/5b4fc5253bb990fdd0477492ff28.webp"},"url":"/l/custom-listing-prim-pret"}]}}