{"type":"subcategory","payload":{"analyticsListId":"category_40602-branzeturi-fara-lactoza","analyticsListName":"Category - Brânzeturi fără lactoză","name":"Brânzeturi fără lactoză","slug":"40602-branzeturi-fara-lactoza","image":null,"breadcrumbs":[{"code":"4","name":"Lactate & ouă","slug":"4-lactate-branzeturi-si-oua"},{"code":"406","name":"Brânzeturi","slug":"406-branzeturi"},{"code":"40602","name":"Brânzeturi fără lactoză","slug":"40602-branzeturi-fara-lactoza"}],"slots":[],"page":1,"limit":10,"pages":2,"count":12,"siblings":[{"name":"Lapte, smântână și brânză proaspătă","slug":"401-lapte-smantana-si-branza-proaspata","selected":false},{"name":"Unt","slug":"402-unt-si-margarina","selected":false},{"name":"Lactate UHT","slug":"403-lactate-uht","selected":false},{"name":"Iaurt, desert și sana","slug":"404-iaurt-desert-si-sana","selected":false},{"name":"Ouă","slug":"405-oua","selected":false},{"name":"Brânzeturi","slug":"406-branzeturi","selected":true},{"name":"Lapte și lactate ECO","slug":"lapte-si-lactate-eco","selected":false},{"name":"Amestecuri lactate și grasimi vegetale","slug":"amestecuri-lactate-si-grasimi-vegetale","selected":false}],"children":[{"name":"Toate produsele","slug":"406-branzeturi","selected":false},{"name":"Brânzeturi fără lactoză","slug":"40602-branzeturi-fara-lactoza","selected":true},{"name":"Brânzeturi feliate","slug":"40603-branzeturi-feliate","selected":false},{"name":"Brânzeturi tartinabile","slug":"40604-branzeturi-tartinabile","selected":false},{"name":"Cașcaval","slug":"40605-cascaval","selected":false},{"name":"Specialități internaționale","slug":"40607-specialitati-internationale","selected":false},{"name":"Specialități românești","slug":"40608-specialitati-romanesti","selected":false},{"name":"Telemea","slug":"40609-telemea","selected":false}],"products":[{"code":"100031720","variantCode":"5941238013798","name":"Mărgele de brânză cu smântână fără lactoză 180g","slug":"100031720-hochland-margele-de-branza-cu-smantana-fara-lactoza-180g","unitPriceLabel":"39,72 Lei/kg","brand":"Hochland","brandCode":"143","brandFilterCode":"hochland-b127","sku":"100031720","price":7.15,"originalPrice":null,"currencyCode":"RON","currency":"Lei","image":{"thumbnail":{"default":"https://cdn.freshful.ro/media/cache/sylius_shop_product_thumbnail/92/1f/36287bab0b850bbffc7b765f6863.jpg"},"large":{"default":"https://cdn.freshful.ro/media/cache/freshful_large/92/1f/36287bab0b850bbffc7b765f6863.jpg"},"extralarge":{"default":"https://cdn.freshful.ro/media/cache/sylius_shop_product_original/92/1f/36287bab0b850bbffc7b765f6863.jpg"}},"label":null,"tags":[{"type":"LactoseFree","text":"Fara lactoza","icon":"https://cdn.freshful.ro/assets/product_tags/fara_lactoza.svg","iconPng":"https://cdn.freshful.ro/assets/product_tags/fara_lactoza.png","backgroundColor":"#E9F7FB","textColor":"#25A6D0"}],"isAvailable":true,"maxAvailableQuantity":100,"maxAllowedQuantity":100,"breadcrumbs":[{"code":"4","name":"Lactate & ouă","slug":"4-lactate-branzeturi-si-oua"},{"code":"406","name":"Brânzeturi","slug":"406-branzeturi"},{"code":"40602","name":"Brânzeturi fără lactoză","slug":"40602-branzeturi-fara-lactoza"},{"code":"100031720","name":"Mărgele de brânză cu smântână fără lactoză 180g","slug":"100031720-hochland-margele-de-branza-cu-smantana-fara-lactoza-180g"}],"activePromotion":null,"saveMe":null,"labels":[],"geniusPrice":null,"geniusUnitPricePerLabel":null,"banner":null,"discountLabel":null,"geniusDiscountLabel":null,"badge":null},{"code":"100037184","variantCode":"7622210230416","name":"Cremă de brânză fără lactoză 150g","slug":"100037184-philadelphia-crema-de-branza-fara-lactoza-150g","unitPriceLabel":"96,6 Lei/kg","brand":"Philadelphia","brandCode":"68","brandFilterCode":"philadelphia-b65","sku":"100037184","price":14.49,"originalPrice":null,"currencyCode":"RON","currency":"Lei","image":{"thumbnail":{"default":"https://cdn.freshful.ro/media/cache/sylius_shop_product_thumbnail/a2/65/122510563141f0ebeba982b89e1a.jpg"},"large":{"default":"https://cdn.freshful.ro/media/cache/freshful_large/a2/65/122510563141f0ebeba982b89e1a.jpg"},"extralarge":{"default":"https://cdn.freshful.ro/media/cache/sylius_shop_product_original/a2/65/122510563141f0ebeba982b89e1a.jpg"}},"label":null,"tags":[{"type":"LactoseFree","text":"Fara lactoza","icon":"https://cdn.freshful.ro/assets/product_tags/fara_lactoza.svg","iconPng":"https://cdn.freshful.ro/assets/product_tags/fara_lactoza.png","backgroundColor":"#E9F7FB","textColor":"#25A6D0"}],"isAvailable":true,"maxAvailableQuantity":100,"maxAllowedQuantity":100,"breadcrumbs":[{"code":"4","name":"Lactate & ouă","slug":"4-lactate-branzeturi-si-oua"},{"code":"406","name":"Brânzeturi","slug":"406-branzeturi"},{"code":"40602","name":"Brânzeturi fără lactoză","slug":"40602-branzeturi-fara-lactoza"},{"code":"100037184","name":"Cremă de brânză fără lactoză 150g","slug":"100037184-philadelphia-crema-de-branza-fara-lactoza-150g"}],"activePromotion":null,"saveMe":null,"labels":[],"geniusPrice":null,"geniusUnitPricePerLabel":null,"banner":null,"discountLabel":null,"geniusDiscountLabel":null,"badge":null},{"code":"100045804","variantCode":"5998200470684","name":"Cașcaval fără lactoză feliat 125g","slug":"100045804-mizo-cascaval-fara-lactoza-feliat-125g","unitPriceLabel":"87,92 Lei/kg","brand":"Mizo","brandCode":"534","brandFilterCode":"mizo-b535","sku":"100045804","price":10.99,"originalPrice":null,"currencyCode":"RON","currency":"Lei","image":{"thumbnail":{"default":"https://cdn.freshful.ro/media/cache/sylius_shop_product_thumbnail/0e/84/fb49359033b70eafbe335af66eb6.jpg"},"large":{"default":"https://cdn.freshful.ro/media/cache/freshful_large/0e/84/fb49359033b70eafbe335af66eb6.jpg"},"extralarge":{"default":"https://cdn.freshful.ro/media/cache/sylius_shop_product_original/0e/84/fb49359033b70eafbe335af66eb6.jpg"}},"label":null,"tags":[{"type":"LactoseFree","text":"Fara lactoza","icon":"https://cdn.freshful.ro/assets/product_tags/fara_lactoza.svg","iconPng":"https://cdn.freshful.ro/assets/product_tags/fara_lactoza.png","backgroundColor":"#E9F7FB","textColor":"#25A6D0"}],"isAvailable":true,"maxAvailableQuantity":100,"maxAllowedQuantity":100,"breadcrumbs":[{"code":"4","name":"Lactate & ouă","slug":"4-lactate-branzeturi-si-oua"},{"code":"406","name":"Brânzeturi","slug":"406-branzeturi"},{"code":"40602","name":"Brânzeturi fără lactoză","slug":"40602-branzeturi-fara-lactoza"},{"code":"100045804","name":"Cașcaval fără lactoză feliat 125g","slug":"100045804-mizo-cascaval-fara-lactoza-feliat-125g"}],"activePromotion":null,"saveMe":null,"labels":[],"geniusPrice":null,"geniusUnitPricePerLabel":null,"banner":null,"discountLabel":null,"geniusDiscountLabel":null,"badge":null},{"code":"100034380","variantCode":"5941360011976","name":"Brânză pufoasă fără lactoză 140g","slug":"100034380-delaco-branza-pufoasa-fara-lactoza-140g","unitPriceLabel":"64,21 Lei/kg","brand":"Delaco","brandCode":"225","brandFilterCode":"delaco-b226","sku":"100034380","price":8.99,"originalPrice":null,"currencyCode":"RON","currency":"Lei","image":{"thumbnail":{"default":"https://cdn.freshful.ro/media/cache/sylius_shop_product_thumbnail/36/bf/d59fcb77c4cbda887211fcdc4e30.jpg"},"large":{"default":"https://cdn.freshful.ro/media/cache/freshful_large/36/bf/d59fcb77c4cbda887211fcdc4e30.jpg"},"extralarge":{"default":"https://cdn.freshful.ro/media/cache/sylius_shop_product_original/36/bf/d59fcb77c4cbda887211fcdc4e30.jpg"}},"label":null,"tags":[{"type":"LactoseFree","text":"Fara lactoza","icon":"https://cdn.freshful.ro/assets/product_tags/fara_lactoza.svg","iconPng":"https://cdn.freshful.ro/assets/product_tags/fara_lactoza.png","backgroundColor":"#E9F7FB","textColor":"#25A6D0"},{"type":"NoPreservatives","text":"Fara conservanti","icon":"https://cdn.freshful.ro/assets/product_tags/fara_conservanti.svg","iconPng":"https://cdn.freshful.ro/assets/product_tags/fara_conservanti.png","backgroundColor":"#F0F2FF","textColor":"#7889DD"}],"isAvailable":true,"maxAvailableQuantity":99,"maxAllowedQuantity":100,"breadcrumbs":[{"code":"4","name":"Lactate & ouă","slug":"4-lactate-branzeturi-si-oua"},{"code":"406","name":"Brânzeturi","slug":"406-branzeturi"},{"code":"40602","name":"Brânzeturi fără lactoză","slug":"40602-branzeturi-fara-lactoza"},{"code":"100034380","name":"Brânză pufoasă fără lactoză 140g","slug":"100034380-delaco-branza-pufoasa-fara-lactoza-140g"}],"activePromotion":null,"saveMe":null,"labels":[],"geniusPrice":null,"geniusUnitPricePerLabel":null,"banner":null,"discountLabel":null,"geniusDiscountLabel":null,"badge":null},{"code":"100061742","variantCode":"100061742","name":"Mozzarella fără lactoză 125g","slug":"100061742-brimi-mozzarella-fara-lactoza-125g","unitPriceLabel":"103,92 Lei/kg","brand":"Brimi","brandCode":"522","brandFilterCode":"brimi-b523","sku":"100061742","price":12.99,"originalPrice":null,"currencyCode":"RON","currency":"Lei","image":{"thumbnail":{"default":"https://cdn.freshful.ro/media/cache/sylius_shop_product_thumbnail/b3/4c/1b59c8153d96ebac6ab2f101d7c5.jpg"},"large":{"default":"https://cdn.freshful.ro/media/cache/freshful_large/b3/4c/1b59c8153d96ebac6ab2f101d7c5.jpg"},"extralarge":{"default":"https://cdn.freshful.ro/media/cache/sylius_shop_product_original/b3/4c/1b59c8153d96ebac6ab2f101d7c5.jpg"}},"label":null,"tags":[{"type":"LactoseFree","text":"Fara lactoza","icon":"https://cdn.freshful.ro/assets/product_tags/fara_lactoza.svg","iconPng":"https://cdn.freshful.ro/assets/product_tags/fara_lactoza.png","backgroundColor":"#E9F7FB","textColor":"#25A6D0"}],"isAvailable":true,"maxAvailableQuantity":83,"maxAllowedQuantity":100,"breadcrumbs":[{"code":"4","name":"Lactate & ouă","slug":"4-lactate-branzeturi-si-oua"},{"code":"406","name":"Brânzeturi","slug":"406-branzeturi"},{"code":"40602","name":"Brânzeturi fără lactoză","slug":"40602-branzeturi-fara-lactoza"},{"code":"100061742","name":"Mozzarella fără lactoză 125g","slug":"100061742-brimi-mozzarella-fara-lactoza-125g"}],"activePromotion":null,"saveMe":null,"labels":[],"geniusPrice":null,"geniusUnitPricePerLabel":null,"banner":null,"discountLabel":null,"geniusDiscountLabel":null,"badge":null},{"code":"100110223","variantCode":"100110223","name":"Brânză Feta fără lactoză 200g","slug":"100110223-mediterranea-branza-feta-fara-lactoza-200g","unitPriceLabel":"119,95 Lei/kg","brand":"Mediterranea","brandCode":"1765","brandFilterCode":"mediterranea-b1769","sku":"100110223","price":23.99,"originalPrice":null,"currencyCode":"RON","currency":"Lei","image":{"thumbnail":{"default":"https://cdn.freshful.ro/media/cache/sylius_shop_product_thumbnail/1e/82/cb14ebdb9d877a09be54220e4189.jpg"},"large":{"default":"https://cdn.freshful.ro/media/cache/freshful_large/1e/82/cb14ebdb9d877a09be54220e4189.jpg"},"extralarge":{"default":"https://cdn.freshful.ro/media/cache/sylius_shop_product_original/1e/82/cb14ebdb9d877a09be54220e4189.jpg"}},"label":null,"tags":[{"type":"LactoseFree","text":"Fara lactoza","icon":"https://cdn.freshful.ro/assets/product_tags/fara_lactoza.svg","iconPng":"https://cdn.freshful.ro/assets/product_tags/fara_lactoza.png","backgroundColor":"#E9F7FB","textColor":"#25A6D0"}],"isAvailable":true,"maxAvailableQuantity":100,"maxAllowedQuantity":100,"breadcrumbs":[{"code":"4","name":"Lactate & ouă","slug":"4-lactate-branzeturi-si-oua"},{"code":"406","name":"Brânzeturi","slug":"406-branzeturi"},{"code":"40602","name":"Brânzeturi fără lactoză","slug":"40602-branzeturi-fara-lactoza"},{"code":"100110223","name":"Brânză Feta fără lactoză 200g","slug":"100110223-mediterranea-branza-feta-fara-lactoza-200g"}],"activePromotion":null,"saveMe":null,"labels":[],"geniusPrice":null,"geniusUnitPricePerLabel":null,"banner":null,"discountLabel":null,"geniusDiscountLabel":null,"badge":null},{"code":"100038136","variantCode":"100038136","name":"Brânză proaspătă fără lactoză 23,5% grăsime 200g","slug":"100038136-minusl-branza-proaspata-fara-lactoza-23-5-grasime-200g","unitPriceLabel":"64,95 Lei/kg","brand":"MinusL","brandCode":"400","brandFilterCode":"minusl-b401","sku":"100038136","price":12.99,"originalPrice":null,"currencyCode":"RON","currency":"Lei","image":{"thumbnail":{"default":"https://cdn.freshful.ro/media/cache/sylius_shop_product_thumbnail/9d/6b/272ed95ef4ffda9992edc85a372f.jpg"},"large":{"default":"https://cdn.freshful.ro/media/cache/freshful_large/9d/6b/272ed95ef4ffda9992edc85a372f.jpg"},"extralarge":{"default":"https://cdn.freshful.ro/media/cache/sylius_shop_product_original/9d/6b/272ed95ef4ffda9992edc85a372f.jpg"}},"label":null,"tags":[{"type":"LactoseFree","text":"Fara lactoza","icon":"https://cdn.freshful.ro/assets/product_tags/fara_lactoza.svg","iconPng":"https://cdn.freshful.ro/assets/product_tags/fara_lactoza.png","backgroundColor":"#E9F7FB","textColor":"#25A6D0"}],"isAvailable":true,"maxAvailableQuantity":39,"maxAllowedQuantity":100,"breadcrumbs":[{"code":"4","name":"Lactate & ouă","slug":"4-lactate-branzeturi-si-oua"},{"code":"406","name":"Brânzeturi","slug":"406-branzeturi"},{"code":"40602","name":"Brânzeturi fără lactoză","slug":"40602-branzeturi-fara-lactoza"},{"code":"100038136","name":"Brânză proaspătă fără lactoză 23,5% grăsime 200g","slug":"100038136-minusl-branza-proaspata-fara-lactoza-23-5-grasime-200g"}],"activePromotion":null,"saveMe":null,"labels":[],"geniusPrice":null,"geniusUnitPricePerLabel":null,"banner":null,"discountLabel":null,"geniusDiscountLabel":null,"badge":null},{"code":"100110217","variantCode":"100110217","name":"Brânză Halloumi fără lactoză 200g","slug":"100110217-mediterranea-branza-halloumi-fara-lactoza-200g","unitPriceLabel":"122,45 Lei/kg","brand":"Mediterranea","brandCode":"1765","brandFilterCode":"mediterranea-b1769","sku":"100110217","price":24.49,"originalPrice":null,"currencyCode":"RON","currency":"Lei","image":{"thumbnail":{"default":"https://cdn.freshful.ro/media/cache/sylius_shop_product_thumbnail/ff/9c/13ffedd516b86802dfa19edabd9a.jpg"},"large":{"default":"https://cdn.freshful.ro/media/cache/freshful_large/ff/9c/13ffedd516b86802dfa19edabd9a.jpg"},"extralarge":{"default":"https://cdn.freshful.ro/media/cache/sylius_shop_product_original/ff/9c/13ffedd516b86802dfa19edabd9a.jpg"}},"label":null,"tags":[{"type":"LactoseFree","text":"Fara lactoza","icon":"https://cdn.freshful.ro/assets/product_tags/fara_lactoza.svg","iconPng":"https://cdn.freshful.ro/assets/product_tags/fara_lactoza.png","backgroundColor":"#E9F7FB","textColor":"#25A6D0"}],"isAvailable":true,"maxAvailableQuantity":52,"maxAllowedQuantity":100,"breadcrumbs":[{"code":"4","name":"Lactate & ouă","slug":"4-lactate-branzeturi-si-oua"},{"code":"406","name":"Brânzeturi","slug":"406-branzeturi"},{"code":"40602","name":"Brânzeturi fără lactoză","slug":"40602-branzeturi-fara-lactoza"},{"code":"100110217","name":"Brânză Halloumi fără lactoză 200g","slug":"100110217-mediterranea-branza-halloumi-fara-lactoza-200g"}],"activePromotion":null,"saveMe":null,"labels":[],"geniusPrice":null,"geniusUnitPricePerLabel":null,"banner":null,"discountLabel":null,"geniusDiscountLabel":null,"badge":null},{"code":"100038138","variantCode":"100038138","name":"Brânză topită felii fără lactoză 40% grăsime 200g","slug":"100038138-minusl-branza-topita-felii-fara-lactoza-40-grasime-200g","unitPriceLabel":"88,95 Lei/kg","brand":"MinusL","brandCode":"400","brandFilterCode":"minusl-b401","sku":"100038138","price":17.79,"originalPrice":null,"currencyCode":"RON","currency":"Lei","image":{"thumbnail":{"default":"https://cdn.freshful.ro/media/cache/sylius_shop_product_thumbnail/ff/65/8f31db5b0c9194248e84b8e96b2c.jpg"},"large":{"default":"https://cdn.freshful.ro/media/cache/freshful_large/ff/65/8f31db5b0c9194248e84b8e96b2c.jpg"},"extralarge":{"default":"https://cdn.freshful.ro/media/cache/sylius_shop_product_original/ff/65/8f31db5b0c9194248e84b8e96b2c.jpg"}},"label":null,"tags":[{"type":"LactoseFree","text":"Fara lactoza","icon":"https://cdn.freshful.ro/assets/product_tags/fara_lactoza.svg","iconPng":"https://cdn.freshful.ro/assets/product_tags/fara_lactoza.png","backgroundColor":"#E9F7FB","textColor":"#25A6D0"},{"type":"NoAddedSugar","text":"Fara zahar adaugat","icon":"https://cdn.freshful.ro/assets/product_tags/fara_zahar_adaugat.svg","iconPng":"https://cdn.freshful.ro/assets/product_tags/fara_zahar_adaugat.png","backgroundColor":"#F8EDF7","textColor":"#C05EBC"}],"isAvailable":true,"maxAvailableQuantity":25,"maxAllowedQuantity":100,"breadcrumbs":[{"code":"4","name":"Lactate & ouă","slug":"4-lactate-branzeturi-si-oua"},{"code":"406","name":"Brânzeturi","slug":"406-branzeturi"},{"code":"40602","name":"Brânzeturi fără lactoză","slug":"40602-branzeturi-fara-lactoza"},{"code":"100038138","name":"Brânză topită felii fără lactoză 40% grăsime 200g","slug":"100038138-minusl-branza-topita-felii-fara-lactoza-40-grasime-200g"}],"activePromotion":null,"saveMe":null,"labels":[],"geniusPrice":null,"geniusUnitPricePerLabel":null,"banner":null,"discountLabel":null,"geniusDiscountLabel":null,"badge":null},{"code":"100038137","variantCode":"100038137","name":"Brânză topită tartinabilă fără lactoză 45% grăsime 200g","slug":"100038137-minusl-branza-topita-tartinabila-fara-lactoza-45-grasime-200g","unitPriceLabel":"104,45 Lei/kg","brand":"MinusL","brandCode":"400","brandFilterCode":"minusl-b401","sku":"100038137","price":20.89,"originalPrice":null,"currencyCode":"RON","currency":"Lei","image":{"thumbnail":{"default":"https://cdn.freshful.ro/media/cache/sylius_shop_product_thumbnail/c3/4c/bd651cf9dff47cd90bf23ba049c5.jpg"},"large":{"default":"https://cdn.freshful.ro/media/cache/freshful_large/c3/4c/bd651cf9dff47cd90bf23ba049c5.jpg"},"extralarge":{"default":"https://cdn.freshful.ro/media/cache/sylius_shop_product_original/c3/4c/bd651cf9dff47cd90bf23ba049c5.jpg"}},"label":null,"tags":[{"type":"LactoseFree","text":"Fara lactoza","icon":"https://cdn.freshful.ro/assets/product_tags/fara_lactoza.svg","iconPng":"https://cdn.freshful.ro/assets/product_tags/fara_lactoza.png","backgroundColor":"#E9F7FB","textColor":"#25A6D0"}],"isAvailable":true,"maxAvailableQuantity":1,"maxAllowedQuantity":100,"breadcrumbs":[{"code":"4","name":"Lactate & ouă","slug":"4-lactate-branzeturi-si-oua"},{"code":"406","name":"Brânzeturi","slug":"406-branzeturi"},{"code":"40602","name":"Brânzeturi fără lactoză","slug":"40602-branzeturi-fara-lactoza"},{"code":"100038137","name":"Brânză topită tartinabilă fără lactoză 45% grăsime 200g","slug":"100038137-minusl-branza-topita-tartinabila-fara-lactoza-45-grasime-200g"}],"activePromotion":null,"saveMe":null,"labels":[],"geniusPrice":null,"geniusUnitPricePerLabel":null,"banner":null,"discountLabel":null,"geniusDiscountLabel":null,"badge":null}],"filters":{"countSelected":0,"items":[{"code":"brand","name":"Brand","countSelected":0,"values":[{"code":"brimi-b523","name":"Brimi","isSelected":false,"count":1},{"code":"delaco-b226","name":"Delaco","isSelected":false,"count":1},{"code":"el-gran-cardenal-b3253","name":"El Gran Cardenal","isSelected":false,"count":1},{"code":"hochland-b127","name":"Hochland","isSelected":false,"count":1},{"code":"mediterranea-b1769","name":"Mediterranea","isSelected":false,"count":2},{"code":"minusl-b401","name":"MinusL","isSelected":false,"count":3},{"code":"mizo-b535","name":"Mizo","isSelected":false,"count":1},{"code":"philadelphia-b65","name":"Philadelphia","isSelected":false,"count":1},{"code":"salzburgmilch-b398","name":"SalzburgMilch","isSelected":false,"count":1}]},{"code":"diet_lifestyle","name":"Dietă și lifestyle","countSelected":0,"values":[{"code":"fara-conservanti-a37","name":"Fara conservanti","isSelected":false,"count":1},{"code":"fara-lactoza-a38","name":"Fara lactoza","isSelected":false,"count":12},{"code":"fara-zahar-adaugat-a29","name":"Fara zahar adaugat","isSelected":false,"count":1}]}]},"orderBy":[{"field":"price","direction":"asc","name":"Preț crescător","isSelected":false},{"field":"price","direction":"desc","name":"Preț descrescător","isSelected":false},{"field":"popularity","direction":"desc","name":"Cele mai populare","isSelected":true},{"field":"category","direction":"asc","name":"Categorie","isSelected":false}],"metaTitle":"Brânzeturi fără lactoză - Gamă variată","metaDescription":"Vrei Brânzeturi fără lactoză? Alege dintr-o gamă variată. Comanzi simplu și ai livrare rapidă, calitate și prospețime. Hai pe Freshful.ro","metaKeywords":null,"banners":[]}}