{"type":"subcategory","payload":{"analyticsListId":"category_40604-branzeturi-tartinabile","analyticsListName":"Category - Brânzeturi tartinabile","name":"Brânzeturi tartinabile","slug":"40604-branzeturi-tartinabile","image":null,"breadcrumbs":[{"code":"4","name":"Lactate & ouă","slug":"4-lactate-branzeturi-si-oua"},{"code":"406","name":"Brânzeturi","slug":"406-branzeturi"},{"code":"40604","name":"Brânzeturi tartinabile","slug":"40604-branzeturi-tartinabile"}],"slots":[],"page":1,"limit":10,"pages":8,"count":75,"siblings":[{"name":"Lapte, smântână și brânză proaspătă","slug":"401-lapte-smantana-si-branza-proaspata","selected":false},{"name":"Unt","slug":"402-unt-si-margarina","selected":false},{"name":"Lactate UHT","slug":"403-lactate-uht","selected":false},{"name":"Iaurt, desert și sana","slug":"404-iaurt-desert-si-sana","selected":false},{"name":"Ouă","slug":"405-oua","selected":false},{"name":"Brânzeturi","slug":"406-branzeturi","selected":true},{"name":"Lapte și lactate ECO","slug":"lapte-si-lactate-eco","selected":false},{"name":"Amestecuri lactate și grasimi vegetale","slug":"amestecuri-lactate-si-grasimi-vegetale","selected":false}],"children":[{"name":"Toate produsele","slug":"406-branzeturi","selected":false},{"name":"Brânzeturi fără lactoză","slug":"40602-branzeturi-fara-lactoza","selected":false},{"name":"Brânzeturi feliate","slug":"40603-branzeturi-feliate","selected":false},{"name":"Brânzeturi tartinabile","slug":"40604-branzeturi-tartinabile","selected":true},{"name":"Cașcaval","slug":"40605-cascaval","selected":false},{"name":"Specialități internaționale","slug":"40607-specialitati-internationale","selected":false},{"name":"Specialități românești","slug":"40608-specialitati-romanesti","selected":false},{"name":"Telemea","slug":"40609-telemea","selected":false}],"products":[{"code":"100037193","variantCode":"5998711723187","name":"Cremă de brânză cu verdeață 125g","slug":"100037193-philadelphia-crema-de-branza-cu-verdeata-125g","unitPriceLabel":"67,92 Lei/kg","brand":"Philadelphia","brandCode":"68","brandFilterCode":"philadelphia-b65","sku":"100037193","price":8.49,"originalPrice":9.29,"currencyCode":"RON","currency":"Lei","image":{"thumbnail":{"default":"https://cdn.freshful.ro/media/cache/sylius_shop_product_thumbnail/87/04/5de82a219f5178c21cb7ebef9456.jpg"},"large":{"default":"https://cdn.freshful.ro/media/cache/freshful_large/87/04/5de82a219f5178c21cb7ebef9456.jpg"},"extralarge":{"default":"https://cdn.freshful.ro/media/cache/sylius_shop_product_original/87/04/5de82a219f5178c21cb7ebef9456.jpg"}},"label":{"text":"-8%","backgroundColor":"#FF9903","textColor":"#FFFFFF"},"tags":[],"isAvailable":true,"maxAvailableQuantity":24,"maxAllowedQuantity":100,"breadcrumbs":[{"code":"4","name":"Lactate & ouă","slug":"4-lactate-branzeturi-si-oua"},{"code":"406","name":"Brânzeturi","slug":"406-branzeturi"},{"code":"40604","name":"Brânzeturi tartinabile","slug":"40604-branzeturi-tartinabile"},{"code":"100037193","name":"Cremă de brânză cu verdeață 125g","slug":"100037193-philadelphia-crema-de-branza-cu-verdeata-125g"}],"activePromotion":{"code":"bunatatile-saptamanii-cw0923","name":"Preț redus","targetQuantity":null},"saveMe":null,"labels":[{"type":"v1","items":[{"text":"-8%","backgroundColor":"#FF9903","textColor":"#FFFFFF"}]}],"geniusPrice":null,"geniusUnitPricePerLabel":null,"banner":{"text":"Super preț","textColor":"#FF0000","bgColor":"#FFF2EC","icon":null,"link":"https://www.freshful.ro/oferte/bunatatile-saptamanii-cw0923","type":"promo","analyticsEventType":"select_promotion","analyticsEventPayload":{"promotion_id":"bunatatile-saptamanii-cw0923","promotion_name":"Oferta proaspătă a săptămânii"}},"discountLabel":"Economisești 8%","geniusDiscountLabel":null,"badge":null},{"code":"100140363","variantCode":"100140363","name":"Brânză mini o porție 20g","slug":"100140363-babybel-branza-mini-o-portie-20g","unitPriceLabel":"99,5 Lei/kg","brand":"Babybel","brandCode":"51","brandFilterCode":"babybel-b47","sku":"100140363","price":1.99,"originalPrice":2.49,"currencyCode":"RON","currency":"Lei","image":{"thumbnail":{"default":"https://cdn.freshful.ro/media/cache/sylius_shop_product_thumbnail/88/ea/dc5b9a3072b41a61721117267553.jpg"},"large":{"default":"https://cdn.freshful.ro/media/cache/freshful_large/88/ea/dc5b9a3072b41a61721117267553.jpg"},"extralarge":{"default":"https://cdn.freshful.ro/media/cache/sylius_shop_product_original/88/ea/dc5b9a3072b41a61721117267553.jpg"}},"label":{"text":"-20%","backgroundColor":"#FF9903","textColor":"#FFFFFF"},"tags":[{"type":"NoGluten","text":"Fara gluten","icon":"https://cdn.freshful.ro/assets/product_tags/fara_gluten.svg","iconPng":"https://cdn.freshful.ro/assets/product_tags/fara_gluten.png","backgroundColor":"#FFF2E5","textColor":"#F07900"},{"type":"LactoseFree","text":"Fara lactoza","icon":"https://cdn.freshful.ro/assets/product_tags/fara_lactoza.svg","iconPng":"https://cdn.freshful.ro/assets/product_tags/fara_lactoza.png","backgroundColor":"#E9F7FB","textColor":"#25A6D0"},{"type":"NoPreservatives","text":"Fara conservanti","icon":"https://cdn.freshful.ro/assets/product_tags/fara_conservanti.svg","iconPng":"https://cdn.freshful.ro/assets/product_tags/fara_conservanti.png","backgroundColor":"#F0F2FF","textColor":"#7889DD"}],"isAvailable":true,"maxAvailableQuantity":26,"maxAllowedQuantity":100,"breadcrumbs":[{"code":"4","name":"Lactate & ouă","slug":"4-lactate-branzeturi-si-oua"},{"code":"406","name":"Brânzeturi","slug":"406-branzeturi"},{"code":"40604","name":"Brânzeturi tartinabile","slug":"40604-branzeturi-tartinabile"},{"code":"100140363","name":"Brânză mini o porție 20g","slug":"100140363-babybel-branza-mini-o-portie-20g"}],"activePromotion":{"code":"bunatatile-saptamanii-cw0923","name":"Preț redus","targetQuantity":null},"saveMe":null,"labels":[{"type":"v1","items":[{"text":"-20%","backgroundColor":"#FF9903","textColor":"#FFFFFF"}]}],"geniusPrice":null,"geniusUnitPricePerLabel":null,"banner":{"text":"Super preț","textColor":"#FF0000","bgColor":"#FFF2EC","icon":null,"link":"https://www.freshful.ro/oferte/bunatatile-saptamanii-cw0923","type":"promo","analyticsEventType":"select_promotion","analyticsEventPayload":{"promotion_id":"bunatatile-saptamanii-cw0923","promotion_name":"Oferta proaspătă a săptămânii"}},"discountLabel":"Economisești 20%","geniusDiscountLabel":null,"badge":null},{"code":"100031674","variantCode":"4002671118622","name":"Cremă de brânză proaspătă cu smântână 150g","slug":"100031674-almette-crema-de-branza-proaspata-cu-smantana-150g","unitPriceLabel":"45,93 Lei/kg","brand":"Almette","brandCode":"142","brandFilterCode":"almette-b126","sku":"100031674","price":6.89,"originalPrice":null,"currencyCode":"RON","currency":"Lei","image":{"thumbnail":{"default":"https://cdn.freshful.ro/media/cache/sylius_shop_product_thumbnail/f9/26/25706e5dfdba32f850e821a8e7a0.jpg"},"large":{"default":"https://cdn.freshful.ro/media/cache/freshful_large/f9/26/25706e5dfdba32f850e821a8e7a0.jpg"},"extralarge":{"default":"https://cdn.freshful.ro/media/cache/sylius_shop_product_original/f9/26/25706e5dfdba32f850e821a8e7a0.jpg"}},"label":null,"tags":[],"isAvailable":true,"maxAvailableQuantity":100,"maxAllowedQuantity":100,"breadcrumbs":[{"code":"4","name":"Lactate & ouă","slug":"4-lactate-branzeturi-si-oua"},{"code":"406","name":"Brânzeturi","slug":"406-branzeturi"},{"code":"40604","name":"Brânzeturi tartinabile","slug":"40604-branzeturi-tartinabile"},{"code":"100031674","name":"Cremă de brânză proaspătă cu smântână 150g","slug":"100031674-almette-crema-de-branza-proaspata-cu-smantana-150g"}],"activePromotion":null,"saveMe":null,"labels":[],"geniusPrice":null,"geniusUnitPricePerLabel":null,"banner":null,"discountLabel":null,"geniusDiscountLabel":null,"badge":null},{"code":"100031675","variantCode":"4002671155948","name":"Cremă de brânză proaspătă cu smântână 250g","slug":"100031675-almette-crema-de-branza-proaspata-cu-smantana-250g","unitPriceLabel":"43,56 Lei/kg","brand":"Almette","brandCode":"142","brandFilterCode":"almette-b126","sku":"100031675","price":10.89,"originalPrice":null,"currencyCode":"RON","currency":"Lei","image":{"thumbnail":{"default":"https://cdn.freshful.ro/media/cache/sylius_shop_product_thumbnail/31/66/3e5c329d59c5387845fb7609fb97.jpg"},"large":{"default":"https://cdn.freshful.ro/media/cache/freshful_large/31/66/3e5c329d59c5387845fb7609fb97.jpg"},"extralarge":{"default":"https://cdn.freshful.ro/media/cache/sylius_shop_product_original/31/66/3e5c329d59c5387845fb7609fb97.jpg"}},"label":null,"tags":[],"isAvailable":true,"maxAvailableQuantity":100,"maxAllowedQuantity":100,"breadcrumbs":[{"code":"4","name":"Lactate & ouă","slug":"4-lactate-branzeturi-si-oua"},{"code":"406","name":"Brânzeturi","slug":"406-branzeturi"},{"code":"40604","name":"Brânzeturi tartinabile","slug":"40604-branzeturi-tartinabile"},{"code":"100031675","name":"Cremă de brânză proaspătă cu smântână 250g","slug":"100031675-almette-crema-de-branza-proaspata-cu-smantana-250g"}],"activePromotion":null,"saveMe":null,"labels":[],"geniusPrice":null,"geniusUnitPricePerLabel":null,"banner":null,"discountLabel":null,"geniusDiscountLabel":null,"badge":null},{"code":"100037197","variantCode":"7622210590473","name":"Cremă de brânză simplă 300g","slug":"100037197-philadelphia-crema-de-branza-simpla-300g","unitPriceLabel":"52,3 Lei/kg","brand":"Philadelphia","brandCode":"68","brandFilterCode":"philadelphia-b65","sku":"100037197","price":15.69,"originalPrice":null,"currencyCode":"RON","currency":"Lei","image":{"thumbnail":{"default":"https://cdn.freshful.ro/media/cache/sylius_shop_product_thumbnail/89/fe/083eb7fb623ae2eb9d5b03114160.jpg"},"large":{"default":"https://cdn.freshful.ro/media/cache/freshful_large/89/fe/083eb7fb623ae2eb9d5b03114160.jpg"},"extralarge":{"default":"https://cdn.freshful.ro/media/cache/sylius_shop_product_original/89/fe/083eb7fb623ae2eb9d5b03114160.jpg"}},"label":null,"tags":[],"isAvailable":true,"maxAvailableQuantity":100,"maxAllowedQuantity":100,"breadcrumbs":[{"code":"4","name":"Lactate & ouă","slug":"4-lactate-branzeturi-si-oua"},{"code":"406","name":"Brânzeturi","slug":"406-branzeturi"},{"code":"40604","name":"Brânzeturi tartinabile","slug":"40604-branzeturi-tartinabile"},{"code":"100037197","name":"Cremă de brânză simplă 300g","slug":"100037197-philadelphia-crema-de-branza-simpla-300g"}],"activePromotion":null,"saveMe":null,"labels":[],"geniusPrice":null,"geniusUnitPricePerLabel":null,"banner":null,"discountLabel":null,"geniusDiscountLabel":null,"badge":null},{"code":"100037199","variantCode":"5998711723170","name":"Cremă de brânză light 125g","slug":"100037199-philadelphia-crema-de-branza-light-125g","unitPriceLabel":"76,4 Lei/kg","brand":"Philadelphia","brandCode":"68","brandFilterCode":"philadelphia-b65","sku":"100037199","price":9.55,"originalPrice":null,"currencyCode":"RON","currency":"Lei","image":{"thumbnail":{"default":"https://cdn.freshful.ro/media/cache/sylius_shop_product_thumbnail/3f/7e/6628de216968cb4ec265caff00ff.jpg"},"large":{"default":"https://cdn.freshful.ro/media/cache/freshful_large/3f/7e/6628de216968cb4ec265caff00ff.jpg"},"extralarge":{"default":"https://cdn.freshful.ro/media/cache/sylius_shop_product_original/3f/7e/6628de216968cb4ec265caff00ff.jpg"}},"label":null,"tags":[],"isAvailable":true,"maxAvailableQuantity":100,"maxAllowedQuantity":100,"breadcrumbs":[{"code":"4","name":"Lactate & ouă","slug":"4-lactate-branzeturi-si-oua"},{"code":"406","name":"Brânzeturi","slug":"406-branzeturi"},{"code":"40604","name":"Brânzeturi tartinabile","slug":"40604-branzeturi-tartinabile"},{"code":"100037199","name":"Cremă de brânză light 125g","slug":"100037199-philadelphia-crema-de-branza-light-125g"}],"activePromotion":null,"saveMe":null,"labels":[],"geniusPrice":null,"geniusUnitPricePerLabel":null,"banner":null,"discountLabel":null,"geniusDiscountLabel":null,"badge":null},{"code":"100037196","variantCode":"4000339035229","name":"Cremă de brânză simplă 200g","slug":"100037196-philadelphia-crema-de-branza-simpla-200g","unitPriceLabel":"64,45 Lei/kg","brand":"Philadelphia","brandCode":"68","brandFilterCode":"philadelphia-b65","sku":"100037196","price":12.89,"originalPrice":null,"currencyCode":"RON","currency":"Lei","image":{"thumbnail":{"default":"https://cdn.freshful.ro/media/cache/sylius_shop_product_thumbnail/a6/bf/8e288c363bdd528ca8ae7efd1d6b.jpg"},"large":{"default":"https://cdn.freshful.ro/media/cache/freshful_large/a6/bf/8e288c363bdd528ca8ae7efd1d6b.jpg"},"extralarge":{"default":"https://cdn.freshful.ro/media/cache/sylius_shop_product_original/a6/bf/8e288c363bdd528ca8ae7efd1d6b.jpg"}},"label":null,"tags":[],"isAvailable":true,"maxAvailableQuantity":100,"maxAllowedQuantity":100,"breadcrumbs":[{"code":"4","name":"Lactate & ouă","slug":"4-lactate-branzeturi-si-oua"},{"code":"406","name":"Brânzeturi","slug":"406-branzeturi"},{"code":"40604","name":"Brânzeturi tartinabile","slug":"40604-branzeturi-tartinabile"},{"code":"100037196","name":"Cremă de brânză simplă 200g","slug":"100037196-philadelphia-crema-de-branza-simpla-200g"}],"activePromotion":null,"saveMe":null,"labels":[],"geniusPrice":null,"geniusUnitPricePerLabel":null,"banner":null,"discountLabel":null,"geniusDiscountLabel":null,"badge":null},{"code":"100031676","variantCode":"4002671118646","name":"Cremă de brânză proaspătă cu verdeață 150g","slug":"100031676-almette-crema-de-branza-proaspata-cu-verdeata-150g","unitPriceLabel":"45,93 Lei/kg","brand":"Almette","brandCode":"142","brandFilterCode":"almette-b126","sku":"100031676","price":6.89,"originalPrice":null,"currencyCode":"RON","currency":"Lei","image":{"thumbnail":{"default":"https://cdn.freshful.ro/media/cache/sylius_shop_product_thumbnail/04/59/1c085a3c48c5aae227be49fa484b.jpg"},"large":{"default":"https://cdn.freshful.ro/media/cache/freshful_large/04/59/1c085a3c48c5aae227be49fa484b.jpg"},"extralarge":{"default":"https://cdn.freshful.ro/media/cache/sylius_shop_product_original/04/59/1c085a3c48c5aae227be49fa484b.jpg"}},"label":null,"tags":[],"isAvailable":true,"maxAvailableQuantity":100,"maxAllowedQuantity":100,"breadcrumbs":[{"code":"4","name":"Lactate & ouă","slug":"4-lactate-branzeturi-si-oua"},{"code":"406","name":"Brânzeturi","slug":"406-branzeturi"},{"code":"40604","name":"Brânzeturi tartinabile","slug":"40604-branzeturi-tartinabile"},{"code":"100031676","name":"Cremă de brânză proaspătă cu verdeață 150g","slug":"100031676-almette-crema-de-branza-proaspata-cu-verdeata-150g"}],"activePromotion":null,"saveMe":null,"labels":[],"geniusPrice":null,"geniusUnitPricePerLabel":null,"banner":null,"discountLabel":null,"geniusDiscountLabel":null,"badge":null},{"code":"100031677","variantCode":"5941238014047","name":"Cremă de brânză proaspătă cu verdeață 250g","slug":"100031677-almette-crema-de-branza-proaspata-cu-verdeata-250g","unitPriceLabel":"41,96 Lei/kg","brand":"Almette","brandCode":"142","brandFilterCode":"almette-b126","sku":"100031677","price":10.49,"originalPrice":null,"currencyCode":"RON","currency":"Lei","image":{"thumbnail":{"default":"https://cdn.freshful.ro/media/cache/sylius_shop_product_thumbnail/77/79/d6569de58250647ded30a6eab4ca.jpg"},"large":{"default":"https://cdn.freshful.ro/media/cache/freshful_large/77/79/d6569de58250647ded30a6eab4ca.jpg"},"extralarge":{"default":"https://cdn.freshful.ro/media/cache/sylius_shop_product_original/77/79/d6569de58250647ded30a6eab4ca.jpg"}},"label":null,"tags":[],"isAvailable":true,"maxAvailableQuantity":100,"maxAllowedQuantity":100,"breadcrumbs":[{"code":"4","name":"Lactate & ouă","slug":"4-lactate-branzeturi-si-oua"},{"code":"406","name":"Brânzeturi","slug":"406-branzeturi"},{"code":"40604","name":"Brânzeturi tartinabile","slug":"40604-branzeturi-tartinabile"},{"code":"100031677","name":"Cremă de brânză proaspătă cu verdeață 250g","slug":"100031677-almette-crema-de-branza-proaspata-cu-verdeata-250g"}],"activePromotion":null,"saveMe":null,"labels":[],"geniusPrice":null,"geniusUnitPricePerLabel":null,"banner":null,"discountLabel":null,"geniusDiscountLabel":null,"badge":null},{"code":"100140365","variantCode":"100140365","name":"Brânză mini 5 porții 100g","slug":"100140365-babybel-branza-mini-5-portii-100g","unitPriceLabel":"99,9 Lei/kg","brand":"Babybel","brandCode":"51","brandFilterCode":"babybel-b47","sku":"100140365","price":9.99,"originalPrice":null,"currencyCode":"RON","currency":"Lei","image":{"thumbnail":{"default":"https://cdn.freshful.ro/media/cache/sylius_shop_product_thumbnail/17/23/9ab6d1b631533f6d76ec6b828b45.jpg"},"large":{"default":"https://cdn.freshful.ro/media/cache/freshful_large/17/23/9ab6d1b631533f6d76ec6b828b45.jpg"},"extralarge":{"default":"https://cdn.freshful.ro/media/cache/sylius_shop_product_original/17/23/9ab6d1b631533f6d76ec6b828b45.jpg"}},"label":null,"tags":[],"isAvailable":true,"maxAvailableQuantity":100,"maxAllowedQuantity":100,"breadcrumbs":[{"code":"4","name":"Lactate & ouă","slug":"4-lactate-branzeturi-si-oua"},{"code":"406","name":"Brânzeturi","slug":"406-branzeturi"},{"code":"40604","name":"Brânzeturi tartinabile","slug":"40604-branzeturi-tartinabile"},{"code":"100140365","name":"Brânză mini 5 porții 100g","slug":"100140365-babybel-branza-mini-5-portii-100g"}],"activePromotion":null,"saveMe":null,"labels":[],"geniusPrice":null,"geniusUnitPricePerLabel":null,"banner":null,"discountLabel":null,"geniusDiscountLabel":null,"badge":null}],"filters":{"countSelected":0,"items":[{"code":"promotion","name":"Promoții","countSelected":0,"values":[{"code":"bunatatile-saptamanii-cw0923","name":"Oferta proaspătă a săptămânii","isSelected":false,"count":2}]},{"code":"brand","name":"Brand","countSelected":0,"values":[{"code":"almette-b126","name":"Almette","isSelected":false,"count":10},{"code":"artesana-b219","name":"Artesana","isSelected":false,"count":10},{"code":"babybel-b47","name":"Babybel","isSelected":false,"count":5},{"code":"delaco-b226","name":"Delaco","isSelected":false,"count":7},{"code":"hochland-b127","name":"Hochland","isSelected":false,"count":11},{"code":"kiri-b58","name":"Kiri","isSelected":false,"count":2},{"code":"la-vache-qui-rit-b60","name":"La Vache qui rit","isSelected":false,"count":5},{"code":"ladorna-b595","name":"LaDORNA","isSelected":false,"count":1},{"code":"meggle-b498","name":"Meggle","isSelected":false,"count":3},{"code":"mirdatod-b756","name":"Mirdatod","isSelected":false,"count":3},{"code":"mizo-b535","name":"Mizo","isSelected":false,"count":2},{"code":"olympus-b40","name":"Olympus","isSelected":false,"count":2},{"code":"philadelphia-b65","name":"Philadelphia","isSelected":false,"count":7},{"code":"president-b594","name":"President","isSelected":false,"count":3},{"code":"soignon-b1655","name":"Soignon","isSelected":false,"count":3},{"code":"torockoi-b828","name":"Torockoi","isSelected":false,"count":1}]},{"code":"diet_lifestyle","name":"Dietă și lifestyle","countSelected":0,"values":[{"code":"fara-conservanti-a37","name":"Fara conservanti","isSelected":false,"count":4},{"code":"fara-e-uri-a84","name":"Fara E-uri","isSelected":false,"count":2},{"code":"fara-gluten-a16","name":"Fara gluten","isSelected":false,"count":1},{"code":"fara-lactoza-a38","name":"Fara lactoza","isSelected":false,"count":1},{"code":"made-in-romania-a85","name":"Made In Romania","isSelected":false,"count":16}]}]},"orderBy":[{"field":"price","direction":"asc","name":"Preț crescător","isSelected":false},{"field":"price","direction":"desc","name":"Preț descrescător","isSelected":false},{"field":"popularity","direction":"desc","name":"Cele mai populare","isSelected":true},{"field":"category","direction":"asc","name":"Categorie","isSelected":false}],"metaTitle":"Brânzeturi tartinabile - Gamă variată","metaDescription":"Vrei Brânzeturi tartinabile? Alege dintr-o gamă variată. Comanzi simplu și ai livrare rapidă, calitate și prospețime. Hai pe Freshful.ro","metaKeywords":null,"banners":[]}}