{"type":"subcategory","payload":{"analyticsListId":"category_40607-specialitati-internationale","analyticsListName":"Category - Specialități internaționale","name":"Specialități internaționale","slug":"40607-specialitati-internationale","image":null,"breadcrumbs":[{"code":"4","name":"Lactate & ouă","slug":"4-lactate-branzeturi-si-oua"},{"code":"406","name":"Brânzeturi","slug":"406-branzeturi"},{"code":"40607","name":"Specialități internaționale","slug":"40607-specialitati-internationale"}],"slots":[],"page":1,"limit":10,"pages":21,"count":208,"siblings":[{"name":"Lapte, smântână și brânză proaspătă","slug":"401-lapte-smantana-si-branza-proaspata","selected":false},{"name":"Unt","slug":"402-unt-si-margarina","selected":false},{"name":"Lactate UHT","slug":"403-lactate-uht","selected":false},{"name":"Iaurt, desert și sana","slug":"404-iaurt-desert-si-sana","selected":false},{"name":"Ouă","slug":"405-oua","selected":false},{"name":"Brânzeturi","slug":"406-branzeturi","selected":true},{"name":"Lapte și lactate ECO","slug":"lapte-si-lactate-eco","selected":false},{"name":"Amestecuri lactate și grasimi vegetale","slug":"amestecuri-lactate-si-grasimi-vegetale","selected":false}],"children":[{"name":"Toate produsele","slug":"406-branzeturi","selected":false},{"name":"Brânzeturi fără lactoză","slug":"40602-branzeturi-fara-lactoza","selected":false},{"name":"Brânzeturi feliate","slug":"40603-branzeturi-feliate","selected":false},{"name":"Brânzeturi tartinabile","slug":"40604-branzeturi-tartinabile","selected":false},{"name":"Cașcaval","slug":"40605-cascaval","selected":false},{"name":"Specialități internaționale","slug":"40607-specialitati-internationale","selected":true},{"name":"Specialități românești","slug":"40608-specialitati-romanesti","selected":false},{"name":"Telemea","slug":"40609-telemea","selected":false}],"products":[{"code":"100145114","variantCode":"100145114","name":"Gorgonzola DOP 100g","slug":"100145114-formagia-gorgonzola-dop-100g","unitPriceLabel":"89,9 Lei/kg","brand":"FORMAGIA","brandCode":"2804","brandFilterCode":"formagia-b2891","sku":"100145114","price":8.99,"originalPrice":9.99,"currencyCode":"RON","currency":"Lei","image":{"thumbnail":{"default":"https://cdn.freshful.ro/media/cache/sylius_shop_product_thumbnail/ed/b6/f9a53dee28d9e7348e7766f0ceea.jpg"},"large":{"default":"https://cdn.freshful.ro/media/cache/freshful_large/ed/b6/f9a53dee28d9e7348e7766f0ceea.jpg"},"extralarge":{"default":"https://cdn.freshful.ro/media/cache/sylius_shop_product_original/ed/b6/f9a53dee28d9e7348e7766f0ceea.jpg"}},"label":{"text":"-10%","backgroundColor":"#FF9903","textColor":"#FFFFFF"},"tags":[],"isAvailable":true,"maxAvailableQuantity":100,"maxAllowedQuantity":100,"breadcrumbs":[{"code":"4","name":"Lactate & ouă","slug":"4-lactate-branzeturi-si-oua"},{"code":"406","name":"Brânzeturi","slug":"406-branzeturi"},{"code":"40607","name":"Specialități internaționale","slug":"40607-specialitati-internationale"},{"code":"100145114","name":"Gorgonzola DOP 100g","slug":"100145114-formagia-gorgonzola-dop-100g"}],"activePromotion":{"code":"bunatatile-saptamanii-cw0923","name":"Preț redus","targetQuantity":null},"saveMe":null,"labels":[{"type":"v1","items":[{"text":"-10%","backgroundColor":"#FF9903","textColor":"#FFFFFF"}]}],"geniusPrice":null,"geniusUnitPricePerLabel":null,"banner":{"text":"Super preț","textColor":"#FF0000","bgColor":"#FFF2EC","icon":null,"link":"https://www.freshful.ro/oferte/bunatatile-saptamanii-cw0923","type":"promo","analyticsEventType":"select_promotion","analyticsEventPayload":{"promotion_id":"bunatatile-saptamanii-cw0923","promotion_name":"Oferta proaspătă a săptămânii"}},"discountLabel":"Economisești 10%","geniusDiscountLabel":null,"badge":null},{"code":"100148468","variantCode":"100148468","name":"Brânză de capră cu ierburi și condimente 130g","slug":"100148468-q-concept-branza-de-capra-cu-ierburi-si-condimente-130g","unitPriceLabel":"111,46 Lei/kg","brand":"Q Concept","brandCode":"2809","brandFilterCode":"q-concept-b2896","sku":"100148468","price":14.49,"originalPrice":16.29,"currencyCode":"RON","currency":"Lei","image":{"thumbnail":{"default":"https://cdn.freshful.ro/media/cache/sylius_shop_product_thumbnail/8f/5f/1641daf67f4994c01ce6af8cafce.jpg"},"large":{"default":"https://cdn.freshful.ro/media/cache/freshful_large/8f/5f/1641daf67f4994c01ce6af8cafce.jpg"},"extralarge":{"default":"https://cdn.freshful.ro/media/cache/sylius_shop_product_original/8f/5f/1641daf67f4994c01ce6af8cafce.jpg"}},"label":{"text":"-11%","backgroundColor":"#FF9903","textColor":"#FFFFFF"},"tags":[],"isAvailable":true,"maxAvailableQuantity":47,"maxAllowedQuantity":100,"breadcrumbs":[{"code":"4","name":"Lactate & ouă","slug":"4-lactate-branzeturi-si-oua"},{"code":"406","name":"Brânzeturi","slug":"406-branzeturi"},{"code":"40607","name":"Specialități internaționale","slug":"40607-specialitati-internationale"},{"code":"100148468","name":"Brânză de capră cu ierburi și condimente 130g","slug":"100148468-q-concept-branza-de-capra-cu-ierburi-si-condimente-130g"}],"activePromotion":{"code":"bunatatile-saptamanii-cw0923","name":"Preț redus","targetQuantity":null},"saveMe":null,"labels":[{"type":"v1","items":[{"text":"-11%","backgroundColor":"#FF9903","textColor":"#FFFFFF"}]}],"geniusPrice":null,"geniusUnitPricePerLabel":null,"banner":{"text":"Super preț","textColor":"#FF0000","bgColor":"#FFF2EC","icon":null,"link":"https://www.freshful.ro/oferte/bunatatile-saptamanii-cw0923","type":"promo","analyticsEventType":"select_promotion","analyticsEventPayload":{"promotion_id":"bunatatile-saptamanii-cw0923","promotion_name":"Oferta proaspătă a săptămânii"}},"discountLabel":"Economisești 11%","geniusDiscountLabel":null,"badge":null},{"code":"100145125","variantCode":"100145125","name":"Brânză de mucegai alb și albastru 150g","slug":"100145125-frenchi-branza-de-mucegai-alb-si-albastru-150g","unitPriceLabel":"73,27 Lei/kg","brand":"FRENCHI","brandCode":"2805","brandFilterCode":"frenchi-b2892","sku":"100145125","price":10.99,"originalPrice":12.99,"currencyCode":"RON","currency":"Lei","image":{"thumbnail":{"default":"https://cdn.freshful.ro/media/cache/sylius_shop_product_thumbnail/b7/d0/cc09b967ea1507e160a795778cd7.jpg"},"large":{"default":"https://cdn.freshful.ro/media/cache/freshful_large/b7/d0/cc09b967ea1507e160a795778cd7.jpg"},"extralarge":{"default":"https://cdn.freshful.ro/media/cache/sylius_shop_product_original/b7/d0/cc09b967ea1507e160a795778cd7.jpg"}},"label":{"text":"-15%","backgroundColor":"#FF9903","textColor":"#FFFFFF"},"tags":[],"isAvailable":true,"maxAvailableQuantity":15,"maxAllowedQuantity":100,"breadcrumbs":[{"code":"4","name":"Lactate & ouă","slug":"4-lactate-branzeturi-si-oua"},{"code":"406","name":"Brânzeturi","slug":"406-branzeturi"},{"code":"40607","name":"Specialități internaționale","slug":"40607-specialitati-internationale"},{"code":"100145125","name":"Brânză de mucegai alb și albastru 150g","slug":"100145125-frenchi-branza-de-mucegai-alb-si-albastru-150g"}],"activePromotion":{"code":"bunatatile-saptamanii-cw0923","name":"Preț redus","targetQuantity":null},"saveMe":null,"labels":[{"type":"v1","items":[{"text":"-15%","backgroundColor":"#FF9903","textColor":"#FFFFFF"}]}],"geniusPrice":null,"geniusUnitPricePerLabel":null,"banner":{"text":"Super preț","textColor":"#FF0000","bgColor":"#FFF2EC","icon":null,"link":"https://www.freshful.ro/oferte/bunatatile-saptamanii-cw0923","type":"promo","analyticsEventType":"select_promotion","analyticsEventPayload":{"promotion_id":"bunatatile-saptamanii-cw0923","promotion_name":"Oferta proaspătă a săptămânii"}},"discountLabel":"Economisești 15%","geniusDiscountLabel":null,"badge":null},{"code":"100145101","variantCode":"100145101","name":"Cheddar maturat 200g","slug":"100145101-cathedral-city-cheddar-maturat-200g","unitPriceLabel":"87,45 Lei/kg","brand":"Cathedral City","brandCode":"2800","brandFilterCode":"cathedral-city-b2887","sku":"100145101","price":17.49,"originalPrice":19.99,"currencyCode":"RON","currency":"Lei","image":{"thumbnail":{"default":"https://cdn.freshful.ro/media/cache/sylius_shop_product_thumbnail/aa/77/d6730a54f52464d4032a4eb2155c.jpg"},"large":{"default":"https://cdn.freshful.ro/media/cache/freshful_large/aa/77/d6730a54f52464d4032a4eb2155c.jpg"},"extralarge":{"default":"https://cdn.freshful.ro/media/cache/sylius_shop_product_original/aa/77/d6730a54f52464d4032a4eb2155c.jpg"}},"label":{"text":"-12%","backgroundColor":"#FF9903","textColor":"#FFFFFF"},"tags":[],"isAvailable":true,"maxAvailableQuantity":56,"maxAllowedQuantity":100,"breadcrumbs":[{"code":"4","name":"Lactate & ouă","slug":"4-lactate-branzeturi-si-oua"},{"code":"406","name":"Brânzeturi","slug":"406-branzeturi"},{"code":"40607","name":"Specialități internaționale","slug":"40607-specialitati-internationale"},{"code":"100145101","name":"Cheddar maturat 200g","slug":"100145101-cathedral-city-cheddar-maturat-200g"}],"activePromotion":{"code":"bunatatile-saptamanii-cw0923","name":"Preț redus","targetQuantity":null},"saveMe":null,"labels":[{"type":"v1","items":[{"text":"-12%","backgroundColor":"#FF9903","textColor":"#FFFFFF"}]}],"geniusPrice":null,"geniusUnitPricePerLabel":null,"banner":{"text":"Super preț","textColor":"#FF0000","bgColor":"#FFF2EC","icon":null,"link":"https://www.freshful.ro/oferte/bunatatile-saptamanii-cw0923","type":"promo","analyticsEventType":"select_promotion","analyticsEventPayload":{"promotion_id":"bunatatile-saptamanii-cw0923","promotion_name":"Oferta proaspătă a săptămânii"}},"discountLabel":"Economisești 12%","geniusDiscountLabel":null,"badge":null},{"code":"100148474","variantCode":"100148474","name":"Cheddar alb 130g","slug":"100148474-q-concept-cheddar-alb-130g","unitPriceLabel":"89,15 Lei/kg","brand":"Q Concept","brandCode":"2809","brandFilterCode":"q-concept-b2896","sku":"100148474","price":11.59,"originalPrice":12.49,"currencyCode":"RON","currency":"Lei","image":{"thumbnail":{"default":"https://cdn.freshful.ro/media/cache/sylius_shop_product_thumbnail/a0/9e/637e48b1234d5bbd521ae0c31952.jpg"},"large":{"default":"https://cdn.freshful.ro/media/cache/freshful_large/a0/9e/637e48b1234d5bbd521ae0c31952.jpg"},"extralarge":{"default":"https://cdn.freshful.ro/media/cache/sylius_shop_product_original/a0/9e/637e48b1234d5bbd521ae0c31952.jpg"}},"label":{"text":"-7%","backgroundColor":"#FF9903","textColor":"#FFFFFF"},"tags":[],"isAvailable":true,"maxAvailableQuantity":40,"maxAllowedQuantity":100,"breadcrumbs":[{"code":"4","name":"Lactate & ouă","slug":"4-lactate-branzeturi-si-oua"},{"code":"406","name":"Brânzeturi","slug":"406-branzeturi"},{"code":"40607","name":"Specialități internaționale","slug":"40607-specialitati-internationale"},{"code":"100148474","name":"Cheddar alb 130g","slug":"100148474-q-concept-cheddar-alb-130g"}],"activePromotion":{"code":"bunatatile-saptamanii-cw0923","name":"Preț redus","targetQuantity":null},"saveMe":null,"labels":[{"type":"v1","items":[{"text":"-7%","backgroundColor":"#FF9903","textColor":"#FFFFFF"}]}],"geniusPrice":null,"geniusUnitPricePerLabel":null,"banner":{"text":"Super preț","textColor":"#FF0000","bgColor":"#FFF2EC","icon":null,"link":"https://www.freshful.ro/oferte/bunatatile-saptamanii-cw0923","type":"promo","analyticsEventType":"select_promotion","analyticsEventPayload":{"promotion_id":"bunatatile-saptamanii-cw0923","promotion_name":"Oferta proaspătă a săptămânii"}},"discountLabel":"Economisești 7%","geniusDiscountLabel":null,"badge":null},{"code":"100061721","variantCode":"100061721","name":"Snack brânză 6x16g","slug":"100061721-biraghi-snack-branza-6x16g","unitPriceLabel":"119,9 Lei/kg","brand":"Biraghi","brandCode":"519","brandFilterCode":"biraghi-b520","sku":"100061721","price":11.99,"originalPrice":13.99,"currencyCode":"RON","currency":"Lei","image":{"thumbnail":{"default":"https://cdn.freshful.ro/media/cache/sylius_shop_product_thumbnail/0b/9d/9c5cfed2dc4a97740f2b3df1f88e.jpg"},"large":{"default":"https://cdn.freshful.ro/media/cache/freshful_large/0b/9d/9c5cfed2dc4a97740f2b3df1f88e.jpg"},"extralarge":{"default":"https://cdn.freshful.ro/media/cache/sylius_shop_product_original/0b/9d/9c5cfed2dc4a97740f2b3df1f88e.jpg"}},"label":{"text":"-14%","backgroundColor":"#FF9903","textColor":"#FFFFFF"},"tags":[{"type":"NoGluten","text":"Fara gluten","icon":"https://cdn.freshful.ro/assets/product_tags/fara_gluten.svg","iconPng":"https://cdn.freshful.ro/assets/product_tags/fara_gluten.png","backgroundColor":"#FFF2E5","textColor":"#F07900"},{"type":"LactoseFree","text":"Fara lactoza","icon":"https://cdn.freshful.ro/assets/product_tags/fara_lactoza.svg","iconPng":"https://cdn.freshful.ro/assets/product_tags/fara_lactoza.png","backgroundColor":"#E9F7FB","textColor":"#25A6D0"}],"isAvailable":true,"maxAvailableQuantity":13,"maxAllowedQuantity":100,"breadcrumbs":[{"code":"4","name":"Lactate & ouă","slug":"4-lactate-branzeturi-si-oua"},{"code":"406","name":"Brânzeturi","slug":"406-branzeturi"},{"code":"40607","name":"Specialități internaționale","slug":"40607-specialitati-internationale"},{"code":"100061721","name":"Snack brânză 6x16g","slug":"100061721-biraghi-snack-branza-6x16g"}],"activePromotion":{"code":"targ-bere-snacks-mar23","name":"Preț redus","targetQuantity":null},"saveMe":null,"labels":[{"type":"v1","items":[{"text":"-14%","backgroundColor":"#FF9903","textColor":"#FFFFFF"}]}],"geniusPrice":null,"geniusUnitPricePerLabel":null,"banner":{"text":"Super preț","textColor":"#FF0000","bgColor":"#FFF2EC","icon":null,"link":"https://www.freshful.ro/oferte/targ-bere-snacks-mar23","type":"promo","analyticsEventType":"select_promotion","analyticsEventPayload":{"promotion_id":"targ-bere-snacks-mar23","promotion_name":"Bere și snackuri pentru toate gusturile"}},"discountLabel":"Economisești 14%","geniusDiscountLabel":null,"badge":null},{"code":"100145147","variantCode":"100145147","name":"Brânză tare, maturată Gran Formagia 130g","slug":"100145147-q-concept-branza-tare-maturata-gran-formagia-130g","unitPriceLabel":"89,15 Lei/kg","brand":"FORMAGIA","brandCode":"2804","brandFilterCode":"formagia-b2891","sku":"100145147","price":11.59,"originalPrice":12.99,"currencyCode":"RON","currency":"Lei","image":{"thumbnail":{"default":"https://cdn.freshful.ro/media/cache/sylius_shop_product_thumbnail/72/ab/25970d85889753fc2141faf2f1dc.jpg"},"large":{"default":"https://cdn.freshful.ro/media/cache/freshful_large/72/ab/25970d85889753fc2141faf2f1dc.jpg"},"extralarge":{"default":"https://cdn.freshful.ro/media/cache/sylius_shop_product_original/72/ab/25970d85889753fc2141faf2f1dc.jpg"}},"label":{"text":"-10%","backgroundColor":"#FF9903","textColor":"#FFFFFF"},"tags":[],"isAvailable":true,"maxAvailableQuantity":31,"maxAllowedQuantity":100,"breadcrumbs":[{"code":"4","name":"Lactate & ouă","slug":"4-lactate-branzeturi-si-oua"},{"code":"406","name":"Brânzeturi","slug":"406-branzeturi"},{"code":"40607","name":"Specialități internaționale","slug":"40607-specialitati-internationale"},{"code":"100145147","name":"Brânză tare, maturată Gran Formagia 130g","slug":"100145147-q-concept-branza-tare-maturata-gran-formagia-130g"}],"activePromotion":{"code":"bunatatile-saptamanii-cw0923","name":"Preț redus","targetQuantity":null},"saveMe":null,"labels":[{"type":"v1","items":[{"text":"-10%","backgroundColor":"#FF9903","textColor":"#FFFFFF"}]}],"geniusPrice":null,"geniusUnitPricePerLabel":null,"banner":{"text":"Super preț","textColor":"#FF0000","bgColor":"#FFF2EC","icon":null,"link":"https://www.freshful.ro/oferte/bunatatile-saptamanii-cw0923","type":"promo","analyticsEventType":"select_promotion","analyticsEventPayload":{"promotion_id":"bunatatile-saptamanii-cw0923","promotion_name":"Oferta proaspătă a săptămânii"}},"discountLabel":"Economisești 10%","geniusDiscountLabel":null,"badge":null},{"code":"100098587","variantCode":"100098587","name":"Grana Padano ras 100g","slug":"100098587-zanetti-grana-padano-ras-100g","unitPriceLabel":"139,9 Lei/kg","brand":"Zanetti","brandCode":"222","brandFilterCode":"zanetti-b223","sku":"100098587","price":13.99,"originalPrice":null,"currencyCode":"RON","currency":"Lei","image":{"thumbnail":{"default":"https://cdn.freshful.ro/media/cache/sylius_shop_product_thumbnail/51/fd/e99568ae7135b692abb41d017b10.jpg"},"large":{"default":"https://cdn.freshful.ro/media/cache/freshful_large/51/fd/e99568ae7135b692abb41d017b10.jpg"},"extralarge":{"default":"https://cdn.freshful.ro/media/cache/sylius_shop_product_original/51/fd/e99568ae7135b692abb41d017b10.jpg"}},"label":null,"tags":[],"isAvailable":true,"maxAvailableQuantity":55,"maxAllowedQuantity":100,"breadcrumbs":[{"code":"4","name":"Lactate & ouă","slug":"4-lactate-branzeturi-si-oua"},{"code":"406","name":"Brânzeturi","slug":"406-branzeturi"},{"code":"40607","name":"Specialități internaționale","slug":"40607-specialitati-internationale"},{"code":"100098587","name":"Grana Padano ras 100g","slug":"100098587-zanetti-grana-padano-ras-100g"}],"activePromotion":null,"saveMe":null,"labels":[],"geniusPrice":null,"geniusUnitPricePerLabel":null,"banner":null,"discountLabel":null,"geniusDiscountLabel":null,"badge":null},{"code":"100034419","variantCode":"4014500509747","name":"Brânză Mozzarella baton Cheese Tiger 84g","slug":"100034419-zott-branza-mozzarella-baton-cheese-tiger-84g","unitPriceLabel":"99,88 Lei/kg","brand":"Zott","brandCode":"464","brandFilterCode":"zott-b465","sku":"100034419","price":8.39,"originalPrice":null,"currencyCode":"RON","currency":"Lei","image":{"thumbnail":{"default":"https://cdn.freshful.ro/media/cache/sylius_shop_product_thumbnail/23/3c/0862b197b4c863e71c3fbaba31a9.jpg"},"large":{"default":"https://cdn.freshful.ro/media/cache/freshful_large/23/3c/0862b197b4c863e71c3fbaba31a9.jpg"},"extralarge":{"default":"https://cdn.freshful.ro/media/cache/sylius_shop_product_original/23/3c/0862b197b4c863e71c3fbaba31a9.jpg"}},"label":null,"tags":[],"isAvailable":true,"maxAvailableQuantity":100,"maxAllowedQuantity":100,"breadcrumbs":[{"code":"4","name":"Lactate & ouă","slug":"4-lactate-branzeturi-si-oua"},{"code":"406","name":"Brânzeturi","slug":"406-branzeturi"},{"code":"40607","name":"Specialități internaționale","slug":"40607-specialitati-internationale"},{"code":"100034419","name":"Brânză Mozzarella baton Cheese Tiger 84g","slug":"100034419-zott-branza-mozzarella-baton-cheese-tiger-84g"}],"activePromotion":null,"saveMe":null,"labels":[],"geniusPrice":null,"geniusUnitPricePerLabel":null,"banner":null,"discountLabel":null,"geniusDiscountLabel":null,"badge":null},{"code":"100038765","variantCode":"8595021607724","name":"Mozzarella 125g","slug":"100038765-galbani-mozzarella-125g","unitPriceLabel":"57,2 Lei/kg","brand":"Galbani","brandCode":"595","brandFilterCode":"galbani-b596","sku":"100038765","price":7.15,"originalPrice":null,"currencyCode":"RON","currency":"Lei","image":{"thumbnail":{"default":"https://cdn.freshful.ro/media/cache/sylius_shop_product_thumbnail/aa/6a/88aeb0e0d968ecf0b4d1970b5562.jpg"},"large":{"default":"https://cdn.freshful.ro/media/cache/freshful_large/aa/6a/88aeb0e0d968ecf0b4d1970b5562.jpg"},"extralarge":{"default":"https://cdn.freshful.ro/media/cache/sylius_shop_product_original/aa/6a/88aeb0e0d968ecf0b4d1970b5562.jpg"}},"label":null,"tags":[],"isAvailable":true,"maxAvailableQuantity":100,"maxAllowedQuantity":100,"breadcrumbs":[{"code":"4","name":"Lactate & ouă","slug":"4-lactate-branzeturi-si-oua"},{"code":"406","name":"Brânzeturi","slug":"406-branzeturi"},{"code":"40607","name":"Specialități internaționale","slug":"40607-specialitati-internationale"},{"code":"100038765","name":"Mozzarella 125g","slug":"100038765-galbani-mozzarella-125g"}],"activePromotion":null,"saveMe":null,"labels":[],"geniusPrice":null,"geniusUnitPricePerLabel":null,"banner":null,"discountLabel":null,"geniusDiscountLabel":null,"badge":null}],"filters":{"countSelected":0,"items":[{"code":"promotion","name":"Promoții","countSelected":0,"values":[{"code":"targ-bere-snacks-mar23","name":"Bere și snackuri pentru toate gusturile","isSelected":false,"count":1},{"code":"bunatatile-saptamanii-cw0923","name":"Oferta proaspătă a săptămânii","isSelected":false,"count":6}]},{"code":"brand","name":"Brand","countSelected":0,"values":[{"code":"agriform-b518","name":"Agriform","isSelected":false,"count":4},{"code":"al-dar-b2716","name":"Al Dar","isSelected":false,"count":4},{"code":"aurichio-b522","name":"Aurichio","isSelected":false,"count":7},{"code":"biraghi-b520","name":"Biraghi","isSelected":false,"count":2},{"code":"bliss-point-b1095","name":"Bliss Point","isSelected":false,"count":1},{"code":"brimi-b523","name":"Brimi","isSelected":false,"count":1},{"code":"caprice-des-dieux-b464","name":"CAPRICE des DIEUX","isSelected":false,"count":1},{"code":"cathedral-city-b2887","name":"Cathedral City","isSelected":false,"count":3},{"code":"cheesupers-b2888","name":"Cheesupers","isSelected":false,"count":1},{"code":"delaco-b226","name":"Delaco","isSelected":false,"count":13},{"code":"deliziosa-b525","name":"Deliziosa","isSelected":false,"count":1},{"code":"dorblu-b1651","name":"Dorblu","isSelected":false,"count":1},{"code":"dublin-dairy-b2890","name":"Dublin Dairy","isSelected":false,"count":8},{"code":"el-gran-cardenal-b3253","name":"El Gran Cardenal","isSelected":false,"count":5},{"code":"entremont-b403","name":"EntreMont","isSelected":false,"count":5},{"code":"formagia-b2891","name":"FORMAGIA","isSelected":false,"count":10},{"code":"frenchi-b2892","name":"FRENCHI","isSelected":false,"count":3},{"code":"galbani-b596","name":"Galbani","isSelected":false,"count":13},{"code":"goat-farm-b2893","name":"Goat Farm","isSelected":false,"count":3},{"code":"granarolo-b1667","name":"Granarolo","isSelected":false,"count":3},{"code":"grikios-b2894","name":"GRIKIOS","isSelected":false,"count":3},{"code":"hochland-b127","name":"Hochland","isSelected":false,"count":11},{"code":"igor-b1669","name":"Igor","isSelected":false,"count":2},{"code":"ile-de-france-b463","name":"Ile de France","isSelected":false,"count":1},{"code":"kerrygold-b69","name":"Kerrygold","isSelected":false,"count":5},{"code":"kolios-b2855","name":"Kolios","isSelected":false,"count":4},{"code":"lacto-food-b378","name":"Lacto Food","isSelected":false,"count":3},{"code":"maser-b519","name":"Maser","isSelected":false,"count":1},{"code":"mauri-b521","name":"Mauri","isSelected":false,"count":2},{"code":"mediterranea-b1769","name":"Mediterranea","isSelected":false,"count":10},{"code":"merci-chef-b1656","name":"Merci Chef","isSelected":false,"count":1},{"code":"montesinos-b3256","name":"Montesinos","isSelected":false,"count":2},{"code":"old-amsterdam-b2895","name":"Old Amsterdam","isSelected":false,"count":3},{"code":"oldenburger-b64","name":"Oldenburger","isSelected":false,"count":4},{"code":"olympus-b40","name":"Olympus","isSelected":false,"count":6},{"code":"paysan-breton-b1657","name":"Paysan Breton","isSelected":false,"count":3},{"code":"president-b594","name":"President","isSelected":false,"count":4},{"code":"q-concept-b2896","name":"Q Concept","isSelected":false,"count":31},{"code":"retezat-lactate-b3082","name":"Retezat Lactate","isSelected":false,"count":1},{"code":"sheep-farm-b2897","name":"SHEEP FARM","isSelected":false,"count":1},{"code":"soresina-b2898","name":"SORESINA","isSelected":false,"count":2},{"code":"st-clemens-b517","name":"St. Clemens","isSelected":false,"count":1},{"code":"taverna-b66","name":"Taverna","isSelected":false,"count":1},{"code":"trevisanalat-b524","name":"Trevisanalat","isSelected":false,"count":2},{"code":"vega-mancha-b3254","name":"Vega Mancha","isSelected":false,"count":1},{"code":"vega-sotuelamos-b3255","name":"Vega Sotuelamos","isSelected":false,"count":4},{"code":"zanetti-b223","name":"Zanetti","isSelected":false,"count":9},{"code":"zott-b465","name":"Zott","isSelected":false,"count":1}]},{"code":"diet_lifestyle","name":"Dietă și lifestyle","countSelected":0,"values":[{"code":"fara-conservanti-a37","name":"Fara conservanti","isSelected":false,"count":5},{"code":"fara-gluten-a16","name":"Fara gluten","isSelected":false,"count":3},{"code":"fara-lactoza-a38","name":"Fara lactoza","isSelected":false,"count":6},{"code":"fara-zahar-adaugat-a29","name":"Fara zahar adaugat","isSelected":false,"count":1},{"code":"made-in-romania-a85","name":"Made In Romania","isSelected":false,"count":2},{"code":"natural-a27","name":"Natural","isSelected":false,"count":6},{"code":"vegetarian-a28","name":"Vegetarian","isSelected":false,"count":3}]}]},"orderBy":[{"field":"price","direction":"asc","name":"Preț crescător","isSelected":false},{"field":"price","direction":"desc","name":"Preț descrescător","isSelected":false},{"field":"popularity","direction":"desc","name":"Cele mai populare","isSelected":true},{"field":"category","direction":"asc","name":"Categorie","isSelected":false}],"metaTitle":"Specialități internaționale - Gamă variată","metaDescription":"Vrei Specialități internaționale? Alege dintr-o gamă variată. Comanzi simplu și ai livrare rapidă, calitate și prospețime. Hai pe Freshful.ro","metaKeywords":null,"banners":[]}}