{"type":"subcategory","payload":{"analyticsListId":"category_40609-telemea","analyticsListName":"Category - Telemea","name":"Telemea","slug":"40609-telemea","image":null,"breadcrumbs":[{"code":"4","name":"Lactate & ouă","slug":"4-lactate-branzeturi-si-oua"},{"code":"406","name":"Brânzeturi","slug":"406-branzeturi"},{"code":"40609","name":"Telemea","slug":"40609-telemea"}],"slots":[],"page":1,"limit":10,"pages":5,"count":45,"siblings":[{"name":"Lapte, smântână și brânză proaspătă","slug":"401-lapte-smantana-si-branza-proaspata","selected":false},{"name":"Unt","slug":"402-unt-si-margarina","selected":false},{"name":"Lactate UHT","slug":"403-lactate-uht","selected":false},{"name":"Iaurt, desert și sana","slug":"404-iaurt-desert-si-sana","selected":false},{"name":"Ouă","slug":"405-oua","selected":false},{"name":"Brânzeturi","slug":"406-branzeturi","selected":true},{"name":"Lapte și lactate ECO","slug":"lapte-si-lactate-eco","selected":false},{"name":"Amestecuri lactate și grasimi vegetale","slug":"amestecuri-lactate-si-grasimi-vegetale","selected":false}],"children":[{"name":"Toate produsele","slug":"406-branzeturi","selected":false},{"name":"Brânzeturi fără lactoză","slug":"40602-branzeturi-fara-lactoza","selected":false},{"name":"Brânzeturi feliate","slug":"40603-branzeturi-feliate","selected":false},{"name":"Brânzeturi tartinabile","slug":"40604-branzeturi-tartinabile","selected":false},{"name":"Cașcaval","slug":"40605-cascaval","selected":false},{"name":"Specialități internaționale","slug":"40607-specialitati-internationale","selected":false},{"name":"Specialități românești","slug":"40608-specialitati-romanesti","selected":false},{"name":"Telemea","slug":"40609-telemea","selected":true}],"products":[{"code":"100034422","variantCode":"5941360013192","name":"Telemea de vacă în saramură 400g","slug":"100034422-delaco-telemea-de-vaca-in-saramura-400g","unitPriceLabel":"54,98 Lei/kg","brand":"Delaco","brandCode":"225","brandFilterCode":"delaco-b226","sku":"100034422","price":21.99,"originalPrice":null,"currencyCode":"RON","currency":"Lei","image":{"thumbnail":{"default":"https://cdn.freshful.ro/media/cache/sylius_shop_product_thumbnail/c3/ab/f3166a5be58acfc1c1bf6435b1d7.jpg"},"large":{"default":"https://cdn.freshful.ro/media/cache/freshful_large/c3/ab/f3166a5be58acfc1c1bf6435b1d7.jpg"},"extralarge":{"default":"https://cdn.freshful.ro/media/cache/sylius_shop_product_original/c3/ab/f3166a5be58acfc1c1bf6435b1d7.jpg"}},"label":null,"tags":[],"isAvailable":true,"maxAvailableQuantity":100,"maxAllowedQuantity":100,"breadcrumbs":[{"code":"4","name":"Lactate & ouă","slug":"4-lactate-branzeturi-si-oua"},{"code":"406","name":"Brânzeturi","slug":"406-branzeturi"},{"code":"40609","name":"Telemea","slug":"40609-telemea"},{"code":"100034422","name":"Telemea de vacă în saramură 400g","slug":"100034422-delaco-telemea-de-vaca-in-saramura-400g"}],"activePromotion":null,"saveMe":null,"labels":[],"geniusPrice":null,"geniusUnitPricePerLabel":null,"banner":null,"discountLabel":null,"geniusDiscountLabel":null,"badge":null},{"code":"100105073","variantCode":"100105073","name":"Telemea de oaie 200g","slug":"100105073-olympus-telemea-de-oaie-200g","unitPriceLabel":"69,95 Lei/kg","brand":"Olympus","brandCode":"45","brandFilterCode":"olympus-b40","sku":"100105073","price":13.99,"originalPrice":null,"currencyCode":"RON","currency":"Lei","image":{"thumbnail":{"default":"https://cdn.freshful.ro/media/cache/sylius_shop_product_thumbnail/91/07/d75b96ca78d3c6f2ac3813270cae.jpg"},"large":{"default":"https://cdn.freshful.ro/media/cache/freshful_large/91/07/d75b96ca78d3c6f2ac3813270cae.jpg"},"extralarge":{"default":"https://cdn.freshful.ro/media/cache/sylius_shop_product_original/91/07/d75b96ca78d3c6f2ac3813270cae.jpg"}},"label":null,"tags":[{"type":"MadeInRomania","text":"Made In Romania","icon":"https://cdn.freshful.ro/assets/product_tags/made_in_romania.svg","iconPng":"https://cdn.freshful.ro/assets/product_tags/made_in_romania.png","backgroundColor":"#EDF2FD","textColor":"#1653CA"}],"isAvailable":true,"maxAvailableQuantity":100,"maxAllowedQuantity":100,"breadcrumbs":[{"code":"4","name":"Lactate & ouă","slug":"4-lactate-branzeturi-si-oua"},{"code":"406","name":"Brânzeturi","slug":"406-branzeturi"},{"code":"40609","name":"Telemea","slug":"40609-telemea"},{"code":"100105073","name":"Telemea de oaie 200g","slug":"100105073-olympus-telemea-de-oaie-200g"}],"activePromotion":null,"saveMe":null,"labels":[],"geniusPrice":null,"geniusUnitPricePerLabel":null,"banner":null,"discountLabel":null,"geniusDiscountLabel":null,"badge":null},{"code":"100038780","variantCode":"5941247001748","name":"Telemea de vacă 350g","slug":"100038780-president-telemea-de-vaca-350g","unitPriceLabel":"43,97 Lei/kg","brand":"President","brandCode":"593","brandFilterCode":"president-b594","sku":"100038780","price":15.39,"originalPrice":null,"currencyCode":"RON","currency":"Lei","image":{"thumbnail":{"default":"https://cdn.freshful.ro/media/cache/sylius_shop_product_thumbnail/a0/58/114e9c3342a5fe93d497ba873858.jpg"},"large":{"default":"https://cdn.freshful.ro/media/cache/freshful_large/a0/58/114e9c3342a5fe93d497ba873858.jpg"},"extralarge":{"default":"https://cdn.freshful.ro/media/cache/sylius_shop_product_original/a0/58/114e9c3342a5fe93d497ba873858.jpg"}},"label":null,"tags":[{"type":"MadeInRomania","text":"Made In Romania","icon":"https://cdn.freshful.ro/assets/product_tags/made_in_romania.svg","iconPng":"https://cdn.freshful.ro/assets/product_tags/made_in_romania.png","backgroundColor":"#EDF2FD","textColor":"#1653CA"}],"isAvailable":true,"maxAvailableQuantity":100,"maxAllowedQuantity":100,"breadcrumbs":[{"code":"4","name":"Lactate & ouă","slug":"4-lactate-branzeturi-si-oua"},{"code":"406","name":"Brânzeturi","slug":"406-branzeturi"},{"code":"40609","name":"Telemea","slug":"40609-telemea"},{"code":"100038780","name":"Telemea de vacă 350g","slug":"100038780-president-telemea-de-vaca-350g"}],"activePromotion":null,"saveMe":null,"labels":[],"geniusPrice":null,"geniusUnitPricePerLabel":null,"banner":null,"discountLabel":null,"geniusDiscountLabel":null,"badge":null},{"code":"100031728","variantCode":"5941238005052","name":"Telemea de vacă 350g","slug":"100031728-hochland-telemea-de-vaca-350g","unitPriceLabel":"48,54 Lei/kg","brand":"Hochland","brandCode":"143","brandFilterCode":"hochland-b127","sku":"100031728","price":16.99,"originalPrice":null,"currencyCode":"RON","currency":"Lei","image":{"thumbnail":{"default":"https://cdn.freshful.ro/media/cache/sylius_shop_product_thumbnail/41/2e/0915890713d2cc7ba0649cc46ea4.jpg"},"large":{"default":"https://cdn.freshful.ro/media/cache/freshful_large/41/2e/0915890713d2cc7ba0649cc46ea4.jpg"},"extralarge":{"default":"https://cdn.freshful.ro/media/cache/sylius_shop_product_original/41/2e/0915890713d2cc7ba0649cc46ea4.jpg"}},"label":null,"tags":[],"isAvailable":true,"maxAvailableQuantity":100,"maxAllowedQuantity":100,"breadcrumbs":[{"code":"4","name":"Lactate & ouă","slug":"4-lactate-branzeturi-si-oua"},{"code":"406","name":"Brânzeturi","slug":"406-branzeturi"},{"code":"40609","name":"Telemea","slug":"40609-telemea"},{"code":"100031728","name":"Telemea de vacă 350g","slug":"100031728-hochland-telemea-de-vaca-350g"}],"activePromotion":null,"saveMe":null,"labels":[],"geniusPrice":null,"geniusUnitPricePerLabel":null,"banner":null,"discountLabel":null,"geniusDiscountLabel":null,"badge":null},{"code":"100031726","variantCode":"5941238005663","name":"Telemea de vacă light 150g","slug":"100031726-hochland-telemea-de-vaca-light-150g","unitPriceLabel":"49,27 Lei/kg","brand":"Hochland","brandCode":"143","brandFilterCode":"hochland-b127","sku":"100031726","price":7.39,"originalPrice":null,"currencyCode":"RON","currency":"Lei","image":{"thumbnail":{"default":"https://cdn.freshful.ro/media/cache/sylius_shop_product_thumbnail/e5/c0/9b52281fc7da382f2ba7ea0145d4.jpg"},"large":{"default":"https://cdn.freshful.ro/media/cache/freshful_large/e5/c0/9b52281fc7da382f2ba7ea0145d4.jpg"},"extralarge":{"default":"https://cdn.freshful.ro/media/cache/sylius_shop_product_original/e5/c0/9b52281fc7da382f2ba7ea0145d4.jpg"}},"label":null,"tags":[],"isAvailable":true,"maxAvailableQuantity":100,"maxAllowedQuantity":100,"breadcrumbs":[{"code":"4","name":"Lactate & ouă","slug":"4-lactate-branzeturi-si-oua"},{"code":"406","name":"Brânzeturi","slug":"406-branzeturi"},{"code":"40609","name":"Telemea","slug":"40609-telemea"},{"code":"100031726","name":"Telemea de vacă light 150g","slug":"100031726-hochland-telemea-de-vaca-light-150g"}],"activePromotion":null,"saveMe":null,"labels":[],"geniusPrice":null,"geniusUnitPricePerLabel":null,"banner":null,"discountLabel":null,"geniusDiscountLabel":null,"badge":null},{"code":"100149777","variantCode":"100149777","name":"Brânză cremoasă de vacă 500g","slug":"100149777-president-branza-cremoasa-de-vaca-500g","unitPriceLabel":"48,98 Lei/kg","brand":"President","brandCode":"593","brandFilterCode":"president-b594","sku":"100149777","price":24.49,"originalPrice":null,"currencyCode":"RON","currency":"Lei","image":{"thumbnail":{"default":"https://cdn.freshful.ro/media/cache/sylius_shop_product_thumbnail/05/d7/e796c1e72991bc241c18db5517d8.jpg"},"large":{"default":"https://cdn.freshful.ro/media/cache/freshful_large/05/d7/e796c1e72991bc241c18db5517d8.jpg"},"extralarge":{"default":"https://cdn.freshful.ro/media/cache/sylius_shop_product_original/05/d7/e796c1e72991bc241c18db5517d8.jpg"}},"label":null,"tags":[],"isAvailable":true,"maxAvailableQuantity":56,"maxAllowedQuantity":100,"breadcrumbs":[{"code":"4","name":"Lactate & ouă","slug":"4-lactate-branzeturi-si-oua"},{"code":"406","name":"Brânzeturi","slug":"406-branzeturi"},{"code":"40609","name":"Telemea","slug":"40609-telemea"},{"code":"100149777","name":"Brânză cremoasă de vacă 500g","slug":"100149777-president-branza-cremoasa-de-vaca-500g"}],"activePromotion":null,"saveMe":null,"labels":[],"geniusPrice":null,"geniusUnitPricePerLabel":null,"banner":null,"discountLabel":null,"geniusDiscountLabel":null,"badge":null},{"code":"100039322","variantCode":"5941872201131","name":"Telemea proaspătă de Ibănești 400g","slug":"100039322-mirdatod-telemea-proaspata-de-ibanesti-400g","unitPriceLabel":"52,48 Lei/kg","brand":"Mirdatod","brandCode":"755","brandFilterCode":"mirdatod-b756","sku":"100039322","price":20.99,"originalPrice":null,"currencyCode":"RON","currency":"Lei","image":{"thumbnail":{"default":"https://cdn.freshful.ro/media/cache/sylius_shop_product_thumbnail/d2/69/83ca3f13e26271ba2641a4f7c311.jpg"},"large":{"default":"https://cdn.freshful.ro/media/cache/freshful_large/d2/69/83ca3f13e26271ba2641a4f7c311.jpg"},"extralarge":{"default":"https://cdn.freshful.ro/media/cache/sylius_shop_product_original/d2/69/83ca3f13e26271ba2641a4f7c311.jpg"}},"label":{"text":"Mici producători","backgroundColor":"#7B61FF","textColor":"#FFFFFF"},"tags":[{"type":"MadeInRomania","text":"Made In Romania","icon":"https://cdn.freshful.ro/assets/product_tags/made_in_romania.svg","iconPng":"https://cdn.freshful.ro/assets/product_tags/made_in_romania.png","backgroundColor":"#EDF2FD","textColor":"#1653CA"}],"isAvailable":true,"maxAvailableQuantity":100,"maxAllowedQuantity":100,"breadcrumbs":[{"code":"4","name":"Lactate & ouă","slug":"4-lactate-branzeturi-si-oua"},{"code":"406","name":"Brânzeturi","slug":"406-branzeturi"},{"code":"40609","name":"Telemea","slug":"40609-telemea"},{"code":"100039322","name":"Telemea proaspătă de Ibănești 400g","slug":"100039322-mirdatod-telemea-proaspata-de-ibanesti-400g"}],"activePromotion":null,"saveMe":null,"labels":[{"type":"v1","items":[{"text":"Mici producători","backgroundColor":"#7B61FF","textColor":"#FFFFFF"}]}],"geniusPrice":null,"geniusUnitPricePerLabel":null,"banner":null,"discountLabel":null,"geniusDiscountLabel":null,"badge":null},{"code":"100031727","variantCode":"5941238005069","name":"Telemea de vacă 200g","slug":"100031727-hochland-telemea-de-vaca-200g","unitPriceLabel":"52,25 Lei/kg","brand":"Hochland","brandCode":"143","brandFilterCode":"hochland-b127","sku":"100031727","price":10.45,"originalPrice":null,"currencyCode":"RON","currency":"Lei","image":{"thumbnail":{"default":"https://cdn.freshful.ro/media/cache/sylius_shop_product_thumbnail/93/7e/e8e0f434483306076e6f70e4dae0.jpg"},"large":{"default":"https://cdn.freshful.ro/media/cache/freshful_large/93/7e/e8e0f434483306076e6f70e4dae0.jpg"},"extralarge":{"default":"https://cdn.freshful.ro/media/cache/sylius_shop_product_original/93/7e/e8e0f434483306076e6f70e4dae0.jpg"}},"label":null,"tags":[],"isAvailable":true,"maxAvailableQuantity":100,"maxAllowedQuantity":100,"breadcrumbs":[{"code":"4","name":"Lactate & ouă","slug":"4-lactate-branzeturi-si-oua"},{"code":"406","name":"Brânzeturi","slug":"406-branzeturi"},{"code":"40609","name":"Telemea","slug":"40609-telemea"},{"code":"100031727","name":"Telemea de vacă 200g","slug":"100031727-hochland-telemea-de-vaca-200g"}],"activePromotion":null,"saveMe":null,"labels":[],"geniusPrice":null,"geniusUnitPricePerLabel":null,"banner":null,"discountLabel":null,"geniusDiscountLabel":null,"badge":null},{"code":"100032076","variantCode":"5202178000935","name":"Telemea de capră 350g","slug":"100032076-olympus-telemea-de-capra-350g","unitPriceLabel":"55,4 Lei/kg","brand":"Olympus","brandCode":"45","brandFilterCode":"olympus-b40","sku":"100032076","price":19.39,"originalPrice":null,"currencyCode":"RON","currency":"Lei","image":{"thumbnail":{"default":"https://cdn.freshful.ro/media/cache/sylius_shop_product_thumbnail/cd/f8/b5747f37329cf9c8cf39223b1073.jpg"},"large":{"default":"https://cdn.freshful.ro/media/cache/freshful_large/cd/f8/b5747f37329cf9c8cf39223b1073.jpg"},"extralarge":{"default":"https://cdn.freshful.ro/media/cache/sylius_shop_product_original/cd/f8/b5747f37329cf9c8cf39223b1073.jpg"}},"label":null,"tags":[{"type":"MadeInRomania","text":"Made In Romania","icon":"https://cdn.freshful.ro/assets/product_tags/made_in_romania.svg","iconPng":"https://cdn.freshful.ro/assets/product_tags/made_in_romania.png","backgroundColor":"#EDF2FD","textColor":"#1653CA"}],"isAvailable":true,"maxAvailableQuantity":100,"maxAllowedQuantity":100,"breadcrumbs":[{"code":"4","name":"Lactate & ouă","slug":"4-lactate-branzeturi-si-oua"},{"code":"406","name":"Brânzeturi","slug":"406-branzeturi"},{"code":"40609","name":"Telemea","slug":"40609-telemea"},{"code":"100032076","name":"Telemea de capră 350g","slug":"100032076-olympus-telemea-de-capra-350g"}],"activePromotion":null,"saveMe":null,"labels":[],"geniusPrice":null,"geniusUnitPricePerLabel":null,"banner":null,"discountLabel":null,"geniusDiscountLabel":null,"badge":null},{"code":"100034424","variantCode":"5941360013352","name":"Telemea de capră în saramură 400g ","slug":"100034424-delaco-telemea-de-capra-in-saramura-400g","unitPriceLabel":"84,23 Lei/kg","brand":"Delaco","brandCode":"225","brandFilterCode":"delaco-b226","sku":"100034424","price":33.69,"originalPrice":null,"currencyCode":"RON","currency":"Lei","image":{"thumbnail":{"default":"https://cdn.freshful.ro/media/cache/sylius_shop_product_thumbnail/29/c5/6f3d962286a194c7d8f5868b7813.jpg"},"large":{"default":"https://cdn.freshful.ro/media/cache/freshful_large/29/c5/6f3d962286a194c7d8f5868b7813.jpg"},"extralarge":{"default":"https://cdn.freshful.ro/media/cache/sylius_shop_product_original/29/c5/6f3d962286a194c7d8f5868b7813.jpg"}},"label":null,"tags":[],"isAvailable":true,"maxAvailableQuantity":100,"maxAllowedQuantity":100,"breadcrumbs":[{"code":"4","name":"Lactate & ouă","slug":"4-lactate-branzeturi-si-oua"},{"code":"406","name":"Brânzeturi","slug":"406-branzeturi"},{"code":"40609","name":"Telemea","slug":"40609-telemea"},{"code":"100034424","name":"Telemea de capră în saramură 400g ","slug":"100034424-delaco-telemea-de-capra-in-saramura-400g"}],"activePromotion":null,"saveMe":null,"labels":[],"geniusPrice":null,"geniusUnitPricePerLabel":null,"banner":null,"discountLabel":null,"geniusDiscountLabel":null,"badge":null}],"filters":{"countSelected":0,"items":[{"code":"brand","name":"Brand","countSelected":0,"values":[{"code":"delaco-b226","name":"Delaco","isSelected":false,"count":4},{"code":"five-continents-b1399","name":"Five Continents","isSelected":false,"count":1},{"code":"gustolact-b502","name":"Gustolact","isSelected":false,"count":1},{"code":"hochland-b127","name":"Hochland","isSelected":false,"count":7},{"code":"mirdatod-b756","name":"Mirdatod","isSelected":false,"count":4},{"code":"monor-b326","name":"Monor","isSelected":false,"count":1},{"code":"napolact-b77","name":"Napolact","isSelected":false,"count":5},{"code":"nucet-b2523","name":"Nucet","isSelected":false,"count":2},{"code":"olympus-b40","name":"Olympus","isSelected":false,"count":10},{"code":"ploo-n-gura-b887","name":"Ploo-N Gură","isSelected":false,"count":1},{"code":"president-b594","name":"President","isSelected":false,"count":3},{"code":"rustic-b380","name":"Rustic","isSelected":false,"count":4},{"code":"zimbria-b206","name":"Zimbria","isSelected":false,"count":1}]},{"code":"diet_lifestyle","name":"Dietă și lifestyle","countSelected":0,"values":[{"code":"fara-conservanti-a37","name":"Fara conservanti","isSelected":false,"count":1},{"code":"fara-e-uri-a84","name":"Fara E-uri","isSelected":false,"count":2},{"code":"made-in-romania-a85","name":"Made In Romania","isSelected":false,"count":25}]}]},"orderBy":[{"field":"price","direction":"asc","name":"Preț crescător","isSelected":false},{"field":"price","direction":"desc","name":"Preț descrescător","isSelected":false},{"field":"popularity","direction":"desc","name":"Cele mai populare","isSelected":true},{"field":"category","direction":"asc","name":"Categorie","isSelected":false}],"metaTitle":"Telemea - Gamă variată","metaDescription":"Vrei Telemea? Alege dintr-o gamă variată. Comanzi simplu și ai livrare rapidă, calitate și prospețime. Hai pe Freshful.ro","metaKeywords":null,"banners":[]}}