{"type":"subcategory","payload":{"analyticsListId":"category_40605-cascaval","analyticsListName":"Category - Cașcaval","name":"Cașcaval","slug":"40605-cascaval","image":null,"breadcrumbs":[{"code":"4","name":"Lactate & ouă","slug":"4-lactate-branzeturi-si-oua"},{"code":"406","name":"Brânzeturi","slug":"406-branzeturi"},{"code":"40605","name":"Cașcaval","slug":"40605-cascaval"}],"slots":[],"page":1,"limit":10,"pages":6,"count":56,"siblings":[{"name":"Lapte, smântână și brânză proaspătă","slug":"401-lapte-smantana-si-branza-proaspata","selected":false},{"name":"Unt","slug":"402-unt-si-margarina","selected":false},{"name":"Lactate UHT","slug":"403-lactate-uht","selected":false},{"name":"Iaurt, desert și sana","slug":"404-iaurt-desert-si-sana","selected":false},{"name":"Ouă","slug":"405-oua","selected":false},{"name":"Brânzeturi","slug":"406-branzeturi","selected":true},{"name":"Lapte și lactate ECO","slug":"lapte-si-lactate-eco","selected":false},{"name":"Amestecuri lactate și grasimi vegetale","slug":"amestecuri-lactate-si-grasimi-vegetale","selected":false}],"children":[{"name":"Toate produsele","slug":"406-branzeturi","selected":false},{"name":"Brânzeturi fără lactoză","slug":"40602-branzeturi-fara-lactoza","selected":false},{"name":"Brânzeturi feliate","slug":"40603-branzeturi-feliate","selected":false},{"name":"Brânzeturi tartinabile","slug":"40604-branzeturi-tartinabile","selected":false},{"name":"Cașcaval","slug":"40605-cascaval","selected":true},{"name":"Specialități internaționale","slug":"40607-specialitati-internationale","selected":false},{"name":"Specialități românești","slug":"40608-specialitati-romanesti","selected":false},{"name":"Telemea","slug":"40609-telemea","selected":false}],"products":[{"code":"100034448","variantCode":"5941360001328","name":"Cașcaval Sofia 450g","slug":"100034448-delaco-cascaval-sofia-450g","unitPriceLabel":"64,42 Lei/kg","brand":"Delaco","brandCode":"225","brandFilterCode":"delaco-b226","sku":"100034448","price":28.99,"originalPrice":null,"currencyCode":"RON","currency":"Lei","image":{"thumbnail":{"default":"https://cdn.freshful.ro/media/cache/sylius_shop_product_thumbnail/a5/c7/2d8466f1f203c69337d56f919eb8.jpg"},"large":{"default":"https://cdn.freshful.ro/media/cache/freshful_large/a5/c7/2d8466f1f203c69337d56f919eb8.jpg"},"extralarge":{"default":"https://cdn.freshful.ro/media/cache/sylius_shop_product_original/a5/c7/2d8466f1f203c69337d56f919eb8.jpg"}},"label":{"text":"-20% cu Genius","backgroundColor":"#FEF3FA","textColor":"#CD015F"},"tags":[],"isAvailable":true,"maxAvailableQuantity":100,"maxAllowedQuantity":100,"breadcrumbs":[{"code":"4","name":"Lactate & ouă","slug":"4-lactate-branzeturi-si-oua"},{"code":"406","name":"Brânzeturi","slug":"406-branzeturi"},{"code":"40605","name":"Cașcaval","slug":"40605-cascaval"},{"code":"100034448","name":"Cașcaval Sofia 450g","slug":"100034448-delaco-cascaval-sofia-450g"}],"activePromotion":null,"saveMe":null,"labels":[{"type":"gdeals","items":[{"text":"","backgroundColor":"","textColor":""}]},{"type":"v3","items":[{"text":"-20% cu Genius","backgroundColor":"#FEF3FA","textColor":"#CD015F"}]}],"geniusPrice":23.19,"geniusUnitPricePerLabel":"51,53 Lei/kg","banner":null,"discountLabel":null,"geniusDiscountLabel":"Economisești 20%","badge":null},{"code":"100089389","variantCode":"100089389","name":"Cașcaval Penteleu 300g","slug":"100089389-five-continents-cascaval-penteleu-300g","unitPriceLabel":"46,63 Lei/kg","brand":"Five Continents","brandCode":"1395","brandFilterCode":"five-continents-b1399","sku":"100089389","price":13.99,"originalPrice":18.49,"currencyCode":"RON","currency":"Lei","image":{"thumbnail":{"default":"https://cdn.freshful.ro/media/cache/sylius_shop_product_thumbnail/f1/fa/565abfcbaacc4cdf5f34143d6a3c.jpg"},"large":{"default":"https://cdn.freshful.ro/media/cache/freshful_large/f1/fa/565abfcbaacc4cdf5f34143d6a3c.jpg"},"extralarge":{"default":"https://cdn.freshful.ro/media/cache/sylius_shop_product_original/f1/fa/565abfcbaacc4cdf5f34143d6a3c.jpg"}},"label":{"text":"-24%","backgroundColor":"#FF9903","textColor":"#FFFFFF"},"tags":[],"isAvailable":true,"maxAvailableQuantity":5,"maxAllowedQuantity":100,"breadcrumbs":[{"code":"4","name":"Lactate & ouă","slug":"4-lactate-branzeturi-si-oua"},{"code":"406","name":"Brânzeturi","slug":"406-branzeturi"},{"code":"40605","name":"Cașcaval","slug":"40605-cascaval"},{"code":"100089389","name":"Cașcaval Penteleu 300g","slug":"100089389-five-continents-cascaval-penteleu-300g"}],"activePromotion":{"code":"bunatatile-saptamanii-cw0923","name":"Preț redus","targetQuantity":null},"saveMe":null,"labels":[{"type":"v1","items":[{"text":"-24%","backgroundColor":"#FF9903","textColor":"#FFFFFF"}]}],"geniusPrice":null,"geniusUnitPricePerLabel":null,"banner":{"text":"Super preț","textColor":"#FF0000","bgColor":"#FFF2EC","icon":null,"link":"https://www.freshful.ro/oferte/bunatatile-saptamanii-cw0923","type":"promo","analyticsEventType":"select_promotion","analyticsEventPayload":{"promotion_id":"bunatatile-saptamanii-cw0923","promotion_name":"Oferta proaspătă a săptămânii"}},"discountLabel":"Economisești 24%","geniusDiscountLabel":null,"badge":null},{"code":"100034406","variantCode":"5941360006514","name":"Cașcaval DeSenviș 350g","slug":"100034406-delaco-cascaval-desenvis-350g","unitPriceLabel":"50,26 Lei/kg","brand":"Delaco","brandCode":"225","brandFilterCode":"delaco-b226","sku":"100034406","price":17.59,"originalPrice":null,"currencyCode":"RON","currency":"Lei","image":{"thumbnail":{"default":"https://cdn.freshful.ro/media/cache/sylius_shop_product_thumbnail/9c/6b/23076bee8df06cce40ebbc6d338e.jpg"},"large":{"default":"https://cdn.freshful.ro/media/cache/freshful_large/9c/6b/23076bee8df06cce40ebbc6d338e.jpg"},"extralarge":{"default":"https://cdn.freshful.ro/media/cache/sylius_shop_product_original/9c/6b/23076bee8df06cce40ebbc6d338e.jpg"}},"label":null,"tags":[],"isAvailable":true,"maxAvailableQuantity":100,"maxAllowedQuantity":100,"breadcrumbs":[{"code":"4","name":"Lactate & ouă","slug":"4-lactate-branzeturi-si-oua"},{"code":"406","name":"Brânzeturi","slug":"406-branzeturi"},{"code":"40605","name":"Cașcaval","slug":"40605-cascaval"},{"code":"100034406","name":"Cașcaval DeSenviș 350g","slug":"100034406-delaco-cascaval-desenvis-350g"}],"activePromotion":null,"saveMe":null,"labels":[],"geniusPrice":null,"geniusUnitPricePerLabel":null,"banner":null,"discountLabel":null,"geniusDiscountLabel":null,"badge":null},{"code":"100031698","variantCode":"5941238005090","name":"Cașcaval clasic 250g","slug":"100031698-hochland-cascaval-clasic-250g","unitPriceLabel":"63,96 Lei/kg","brand":"Hochland","brandCode":"143","brandFilterCode":"hochland-b127","sku":"100031698","price":15.99,"originalPrice":null,"currencyCode":"RON","currency":"Lei","image":{"thumbnail":{"default":"https://cdn.freshful.ro/media/cache/sylius_shop_product_thumbnail/70/b2/2c8aba6e42d18c6ecca27933dcfe.jpg"},"large":{"default":"https://cdn.freshful.ro/media/cache/freshful_large/70/b2/2c8aba6e42d18c6ecca27933dcfe.jpg"},"extralarge":{"default":"https://cdn.freshful.ro/media/cache/sylius_shop_product_original/70/b2/2c8aba6e42d18c6ecca27933dcfe.jpg"}},"label":null,"tags":[],"isAvailable":true,"maxAvailableQuantity":2,"maxAllowedQuantity":2,"breadcrumbs":[{"code":"4","name":"Lactate & ouă","slug":"4-lactate-branzeturi-si-oua"},{"code":"406","name":"Brânzeturi","slug":"406-branzeturi"},{"code":"40605","name":"Cașcaval","slug":"40605-cascaval"},{"code":"100031698","name":"Cașcaval clasic 250g","slug":"100031698-hochland-cascaval-clasic-250g"}],"activePromotion":null,"saveMe":null,"labels":[],"geniusPrice":null,"geniusUnitPricePerLabel":null,"banner":null,"discountLabel":null,"geniusDiscountLabel":null,"badge":null},{"code":"100039313","variantCode":"5941872201698","name":"Cașcaval de Ibănești 500g","slug":"100039313-mirdatod-cascaval-de-ibanesti-500g","unitPriceLabel":"71,98 Lei/kg","brand":"Mirdatod","brandCode":"755","brandFilterCode":"mirdatod-b756","sku":"100039313","price":35.99,"originalPrice":null,"currencyCode":"RON","currency":"Lei","image":{"thumbnail":{"default":"https://cdn.freshful.ro/media/cache/sylius_shop_product_thumbnail/2d/66/28bb1fa05fdd96172c2532b104fa.jpg"},"large":{"default":"https://cdn.freshful.ro/media/cache/freshful_large/2d/66/28bb1fa05fdd96172c2532b104fa.jpg"},"extralarge":{"default":"https://cdn.freshful.ro/media/cache/sylius_shop_product_original/2d/66/28bb1fa05fdd96172c2532b104fa.jpg"}},"label":{"text":"Mici producători","backgroundColor":"#7B61FF","textColor":"#FFFFFF"},"tags":[{"type":"MadeInRomania","text":"Made In Romania","icon":"https://cdn.freshful.ro/assets/product_tags/made_in_romania.svg","iconPng":"https://cdn.freshful.ro/assets/product_tags/made_in_romania.png","backgroundColor":"#EDF2FD","textColor":"#1653CA"}],"isAvailable":true,"maxAvailableQuantity":100,"maxAllowedQuantity":100,"breadcrumbs":[{"code":"4","name":"Lactate & ouă","slug":"4-lactate-branzeturi-si-oua"},{"code":"406","name":"Brânzeturi","slug":"406-branzeturi"},{"code":"40605","name":"Cașcaval","slug":"40605-cascaval"},{"code":"100039313","name":"Cașcaval de Ibănești 500g","slug":"100039313-mirdatod-cascaval-de-ibanesti-500g"}],"activePromotion":null,"saveMe":null,"labels":[{"type":"v1","items":[{"text":"Mici producători","backgroundColor":"#7B61FF","textColor":"#FFFFFF"}]}],"geniusPrice":null,"geniusUnitPricePerLabel":null,"banner":null,"discountLabel":null,"geniusDiscountLabel":null,"badge":null},{"code":"100134475","variantCode":"100134475","name":"Cașcaval Bun-Bun 250g","slug":"100134475-nucet-cascaval-bun-bun-250g","unitPriceLabel":"61,96 Lei/kg","brand":"Nucet","brandCode":"2518","brandFilterCode":"nucet-b2523","sku":"100134475","price":15.49,"originalPrice":null,"currencyCode":"RON","currency":"Lei","image":{"thumbnail":{"default":"https://cdn.freshful.ro/media/cache/sylius_shop_product_thumbnail/57/44/ffaf9c30e991e344d86e5377db7a.jpg"},"large":{"default":"https://cdn.freshful.ro/media/cache/freshful_large/57/44/ffaf9c30e991e344d86e5377db7a.jpg"},"extralarge":{"default":"https://cdn.freshful.ro/media/cache/sylius_shop_product_original/57/44/ffaf9c30e991e344d86e5377db7a.jpg"}},"label":{"text":"Mici producători","backgroundColor":"#7B61FF","textColor":"#FFFFFF"},"tags":[{"type":"NoE","text":"Fara E-uri","icon":"https://cdn.freshful.ro/assets/product_tags/fara_euri.svg","iconPng":"https://cdn.freshful.ro/assets/product_tags/fara_euri.png","backgroundColor":"#FCF5DF","textColor":"#CAA316"},{"type":"MadeInRomania","text":"Made In Romania","icon":"https://cdn.freshful.ro/assets/product_tags/made_in_romania.svg","iconPng":"https://cdn.freshful.ro/assets/product_tags/made_in_romania.png","backgroundColor":"#EDF2FD","textColor":"#1653CA"}],"isAvailable":true,"maxAvailableQuantity":100,"maxAllowedQuantity":100,"breadcrumbs":[{"code":"4","name":"Lactate & ouă","slug":"4-lactate-branzeturi-si-oua"},{"code":"406","name":"Brânzeturi","slug":"406-branzeturi"},{"code":"40605","name":"Cașcaval","slug":"40605-cascaval"},{"code":"100134475","name":"Cașcaval Bun-Bun 250g","slug":"100134475-nucet-cascaval-bun-bun-250g"}],"activePromotion":null,"saveMe":null,"labels":[{"type":"v1","items":[{"text":"Mici producători","backgroundColor":"#7B61FF","textColor":"#FFFFFF"}]}],"geniusPrice":null,"geniusUnitPricePerLabel":null,"banner":null,"discountLabel":null,"geniusDiscountLabel":null,"badge":null},{"code":"100031700","variantCode":"5941238002372","name":"Cașcaval clasic 600g","slug":"100031700-hochland-cascaval-clasic-600g","unitPriceLabel":"56,65 Lei/kg","brand":"Hochland","brandCode":"143","brandFilterCode":"hochland-b127","sku":"100031700","price":33.99,"originalPrice":null,"currencyCode":"RON","currency":"Lei","image":{"thumbnail":{"default":"https://cdn.freshful.ro/media/cache/sylius_shop_product_thumbnail/4b/bd/69cef828c971f648f5f94bfdb8b5.jpg"},"large":{"default":"https://cdn.freshful.ro/media/cache/freshful_large/4b/bd/69cef828c971f648f5f94bfdb8b5.jpg"},"extralarge":{"default":"https://cdn.freshful.ro/media/cache/sylius_shop_product_original/4b/bd/69cef828c971f648f5f94bfdb8b5.jpg"}},"label":null,"tags":[],"isAvailable":true,"maxAvailableQuantity":100,"maxAllowedQuantity":100,"breadcrumbs":[{"code":"4","name":"Lactate & ouă","slug":"4-lactate-branzeturi-si-oua"},{"code":"406","name":"Brânzeturi","slug":"406-branzeturi"},{"code":"40605","name":"Cașcaval","slug":"40605-cascaval"},{"code":"100031700","name":"Cașcaval clasic 600g","slug":"100031700-hochland-cascaval-clasic-600g"}],"activePromotion":null,"saveMe":null,"labels":[],"geniusPrice":null,"geniusUnitPricePerLabel":null,"banner":null,"discountLabel":null,"geniusDiscountLabel":null,"badge":null},{"code":"100031701","variantCode":"5941238006516","name":"Cașcaval light 250g","slug":"100031701-hochland-cascaval-light-250g","unitPriceLabel":"63,56 Lei/kg","brand":"Hochland","brandCode":"143","brandFilterCode":"hochland-b127","sku":"100031701","price":15.89,"originalPrice":null,"currencyCode":"RON","currency":"Lei","image":{"thumbnail":{"default":"https://cdn.freshful.ro/media/cache/sylius_shop_product_thumbnail/16/02/b7f1b753526f8550094f8101360d.jpg"},"large":{"default":"https://cdn.freshful.ro/media/cache/freshful_large/16/02/b7f1b753526f8550094f8101360d.jpg"},"extralarge":{"default":"https://cdn.freshful.ro/media/cache/sylius_shop_product_original/16/02/b7f1b753526f8550094f8101360d.jpg"}},"label":null,"tags":[],"isAvailable":true,"maxAvailableQuantity":100,"maxAllowedQuantity":100,"breadcrumbs":[{"code":"4","name":"Lactate & ouă","slug":"4-lactate-branzeturi-si-oua"},{"code":"406","name":"Brânzeturi","slug":"406-branzeturi"},{"code":"40605","name":"Cașcaval","slug":"40605-cascaval"},{"code":"100031701","name":"Cașcaval light 250g","slug":"100031701-hochland-cascaval-light-250g"}],"activePromotion":null,"saveMe":null,"labels":[],"geniusPrice":null,"geniusUnitPricePerLabel":null,"banner":null,"discountLabel":null,"geniusDiscountLabel":null,"badge":null},{"code":"100031702","variantCode":"5941238012241","name":"Cașcaval clasic rotund 325g","slug":"100031702-hochland-cascaval-clasic-rotund-325g","unitPriceLabel":"55,35 Lei/kg","brand":"Hochland","brandCode":"143","brandFilterCode":"hochland-b127","sku":"100031702","price":17.99,"originalPrice":null,"currencyCode":"RON","currency":"Lei","image":{"thumbnail":{"default":"https://cdn.freshful.ro/media/cache/sylius_shop_product_thumbnail/cb/9d/eaa1879679cda0939582b72f8367.jpg"},"large":{"default":"https://cdn.freshful.ro/media/cache/freshful_large/cb/9d/eaa1879679cda0939582b72f8367.jpg"},"extralarge":{"default":"https://cdn.freshful.ro/media/cache/sylius_shop_product_original/cb/9d/eaa1879679cda0939582b72f8367.jpg"}},"label":null,"tags":[],"isAvailable":true,"maxAvailableQuantity":100,"maxAllowedQuantity":100,"breadcrumbs":[{"code":"4","name":"Lactate & ouă","slug":"4-lactate-branzeturi-si-oua"},{"code":"406","name":"Brânzeturi","slug":"406-branzeturi"},{"code":"40605","name":"Cașcaval","slug":"40605-cascaval"},{"code":"100031702","name":"Cașcaval clasic rotund 325g","slug":"100031702-hochland-cascaval-clasic-rotund-325g"}],"activePromotion":null,"saveMe":null,"labels":[],"geniusPrice":null,"geniusUnitPricePerLabel":null,"banner":null,"discountLabel":null,"geniusDiscountLabel":null,"badge":null},{"code":"100031709","variantCode":"5941238003331","name":"Cașcaval pane Delicii calde 150g (2x75g)","slug":"100031709-hochland-cascaval-pane-delicii-calde-150g-2x75g","unitPriceLabel":"93,27 Lei/kg","brand":"Hochland","brandCode":"143","brandFilterCode":"hochland-b127","sku":"100031709","price":13.99,"originalPrice":null,"currencyCode":"RON","currency":"Lei","image":{"thumbnail":{"default":"https://cdn.freshful.ro/media/cache/sylius_shop_product_thumbnail/cd/c7/48a83ef19984aaae1e162c45da98.jpg"},"large":{"default":"https://cdn.freshful.ro/media/cache/freshful_large/cd/c7/48a83ef19984aaae1e162c45da98.jpg"},"extralarge":{"default":"https://cdn.freshful.ro/media/cache/sylius_shop_product_original/cd/c7/48a83ef19984aaae1e162c45da98.jpg"}},"label":null,"tags":[],"isAvailable":true,"maxAvailableQuantity":100,"maxAllowedQuantity":100,"breadcrumbs":[{"code":"4","name":"Lactate & ouă","slug":"4-lactate-branzeturi-si-oua"},{"code":"406","name":"Brânzeturi","slug":"406-branzeturi"},{"code":"40605","name":"Cașcaval","slug":"40605-cascaval"},{"code":"100031709","name":"Cașcaval pane Delicii calde 150g (2x75g)","slug":"100031709-hochland-cascaval-pane-delicii-calde-150g-2x75g"}],"activePromotion":null,"saveMe":null,"labels":[],"geniusPrice":null,"geniusUnitPricePerLabel":null,"banner":null,"discountLabel":null,"geniusDiscountLabel":null,"badge":null}],"filters":{"countSelected":0,"items":[{"code":"promotion","name":"Promoții","countSelected":0,"values":[{"code":"bunatatile-saptamanii-cw0923","name":"Oferta proaspătă a săptămânii","isSelected":false,"count":1}]},{"code":"brand","name":"Brand","countSelected":0,"values":[{"code":"alpenhain-b402","name":"Alpenhain","isSelected":false,"count":1},{"code":"artesana-b219","name":"Artesana","isSelected":false,"count":1},{"code":"aurichio-b522","name":"Aurichio","isSelected":false,"count":1},{"code":"covalact-b785","name":"Covalact","isSelected":false,"count":2},{"code":"de-botosani-b379","name":"De Botoșani","isSelected":false,"count":1},{"code":"delaco-b226","name":"Delaco","isSelected":false,"count":7},{"code":"five-continents-b1399","name":"Five Continents","isSelected":false,"count":10},{"code":"gustolact-b502","name":"Gustolact","isSelected":false,"count":2},{"code":"hochland-b127","name":"Hochland","isSelected":false,"count":8},{"code":"laptaria-cu-caimac-b1","name":"Lăptăria cu caimac","isSelected":false,"count":1},{"code":"mirdatod-b756","name":"Mirdatod","isSelected":false,"count":7},{"code":"napolact-b77","name":"Napolact","isSelected":false,"count":3},{"code":"nucet-b2523","name":"Nucet","isSelected":false,"count":1},{"code":"olympus-b40","name":"Olympus","isSelected":false,"count":2},{"code":"raraul-b12","name":"Rarăul","isSelected":false,"count":2},{"code":"rustic-b380","name":"Rustic","isSelected":false,"count":1},{"code":"solomonescu-b381","name":"Solomonescu","isSelected":false,"count":1},{"code":"unirea-gospodarilor-b1888","name":"Unirea Gospodarilor","isSelected":false,"count":2},{"code":"vlasie-b382","name":"Vlăsie","isSelected":false,"count":2},{"code":"zimbria-b206","name":"Zimbria","isSelected":false,"count":1}]},{"code":"diet_lifestyle","name":"Dietă și lifestyle","countSelected":0,"values":[{"code":"fara-e-uri-a84","name":"Fara E-uri","isSelected":false,"count":1},{"code":"fara-zahar-adaugat-a29","name":"Fara zahar adaugat","isSelected":false,"count":6},{"code":"made-in-romania-a85","name":"Made In Romania","isSelected":false,"count":27},{"code":"natural-a27","name":"Natural","isSelected":false,"count":3}]}]},"orderBy":[{"field":"price","direction":"asc","name":"Preț crescător","isSelected":false},{"field":"price","direction":"desc","name":"Preț descrescător","isSelected":false},{"field":"popularity","direction":"desc","name":"Cele mai populare","isSelected":true},{"field":"category","direction":"asc","name":"Categorie","isSelected":false}],"metaTitle":"Cașcaval - Gamă variată","metaDescription":"Vrei Cașcaval? Alege dintr-o gamă variată. Comanzi simplu și ai livrare rapidă, calitate și prospețime. Hai pe Freshful.ro","metaKeywords":null,"banners":[]}}