{"type":"subcategory","payload":{"analyticsListId":"category_50107-crenvursti","analyticsListName":"Category - Crenvurști","name":"Crenvurști","slug":"50107-crenvursti","image":null,"breadcrumbs":[{"code":"5","name":"Mezeluri & ready meals","slug":"5-mezeluri-si-ready-to-cook"},{"code":"501","name":"Mezeluri","slug":"501-mezeluri"},{"code":"50107","name":"Crenvurști","slug":"50107-crenvursti"}],"slots":[],"page":1,"limit":10,"pages":3,"count":23,"siblings":[{"name":"Mezeluri","slug":"501-mezeluri","selected":true},{"name":"Mezeluri feliate","slug":"502-mezeluri-feliate","selected":false},{"name":"Pizza și aluat","slug":"503-pizza-si-aluat","selected":false},{"name":"Paste proaspete","slug":"504-paste-proaspete","selected":false},{"name":"Ready meals","slug":"505-ready-meal","selected":false}],"children":[{"name":"Toate produsele","slug":"501-mezeluri","selected":false},{"name":"Șuncă presată","slug":"50101-sunca-presata","selected":false},{"name":"Mezeluri pe bază de slănină","slug":"50102-mezeluri-pe-baza-de-slanina","selected":false},{"name":"Mezeluri de porc","slug":"50103-mezeluri-de-porc","selected":false},{"name":"Mezeluri de pasăre","slug":"50104-mezeluri-de-pasare","selected":false},{"name":"Mezeluri de vită","slug":"50106-mezeluri-de-vita","selected":false},{"name":"Crenvurști","slug":"50107-crenvursti","selected":true},{"name":"Cârnați","slug":"50108-carnati","selected":false},{"name":"Paté","slug":"50109-pateuri","selected":false},{"name":"Mezeluri de specialitate","slug":"50110-mezeluri-de-specialitate","selected":false},{"name":"Salam","slug":"50112-salam","selected":false},{"name":"Parizer","slug":"50113-parizer","selected":false},{"name":"Mezeluri ECO","slug":"mezeluri-eco","selected":false}],"products":[{"code":"100061593","variantCode":"100061593","name":"Crenvurști de porc 250g","slug":"100061593-meda-crenvursti-de-porc-250g","unitPriceLabel":"39,96 Lei/kg","brand":"Meda","brandCode":"701","brandFilterCode":"meda-b702","sku":"100061593","price":9.99,"originalPrice":11.49,"currencyCode":"RON","currency":"Lei","image":{"thumbnail":{"default":"https://cdn.freshful.ro/media/cache/sylius_shop_product_thumbnail/ae/3d/39951106ae2f367128a3b0383b2d.jpg"},"large":{"default":"https://cdn.freshful.ro/media/cache/freshful_large/ae/3d/39951106ae2f367128a3b0383b2d.jpg"},"extralarge":{"default":"https://cdn.freshful.ro/media/cache/sylius_shop_product_original/ae/3d/39951106ae2f367128a3b0383b2d.jpg"}},"label":{"text":"-13%","backgroundColor":"#FF9903","textColor":"#FFFFFF"},"tags":[],"isAvailable":true,"maxAvailableQuantity":2,"maxAllowedQuantity":2,"breadcrumbs":[{"code":"5","name":"Mezeluri & ready meals","slug":"5-mezeluri-si-ready-to-cook"},{"code":"501","name":"Mezeluri","slug":"501-mezeluri"},{"code":"50107","name":"Crenvurști","slug":"50107-crenvursti"},{"code":"100061593","name":"Crenvurști de porc 250g","slug":"100061593-meda-crenvursti-de-porc-250g"}],"activePromotion":{"code":"bunatatile-saptamanii-cw0923","name":"Preț redus","targetQuantity":null},"saveMe":null,"labels":[{"type":"v1","items":[{"text":"-13%","backgroundColor":"#FF9903","textColor":"#FFFFFF"}]}],"geniusPrice":null,"geniusUnitPricePerLabel":null,"banner":{"text":"Super preț","textColor":"#FF0000","bgColor":"#FFF2EC","icon":null,"link":"https://www.freshful.ro/oferte/bunatatile-saptamanii-cw0923","type":"promo","analyticsEventType":"select_promotion","analyticsEventPayload":{"promotion_id":"bunatatile-saptamanii-cw0923","promotion_name":"Oferta proaspătă a săptămânii"}},"discountLabel":"Economisești 13%","geniusDiscountLabel":null,"badge":null},{"code":"100061592","variantCode":"100061592","name":"Crenvurști cu piept de pui 250g","slug":"100061592-meda-crenvursti-cu-piept-de-pui-250g","unitPriceLabel":"47,96 Lei/kg","brand":"Meda","brandCode":"701","brandFilterCode":"meda-b702","sku":"100061592","price":11.99,"originalPrice":null,"currencyCode":"RON","currency":"Lei","image":{"thumbnail":{"default":"https://cdn.freshful.ro/media/cache/sylius_shop_product_thumbnail/35/f0/313666f9799a25c773cf6cc563b5.jpg"},"large":{"default":"https://cdn.freshful.ro/media/cache/freshful_large/35/f0/313666f9799a25c773cf6cc563b5.jpg"},"extralarge":{"default":"https://cdn.freshful.ro/media/cache/sylius_shop_product_original/35/f0/313666f9799a25c773cf6cc563b5.jpg"}},"label":null,"tags":[],"isAvailable":true,"maxAvailableQuantity":2,"maxAllowedQuantity":2,"breadcrumbs":[{"code":"5","name":"Mezeluri & ready meals","slug":"5-mezeluri-si-ready-to-cook"},{"code":"501","name":"Mezeluri","slug":"501-mezeluri"},{"code":"50107","name":"Crenvurști","slug":"50107-crenvursti"},{"code":"100061592","name":"Crenvurști cu piept de pui 250g","slug":"100061592-meda-crenvursti-cu-piept-de-pui-250g"}],"activePromotion":null,"saveMe":null,"labels":[],"geniusPrice":null,"geniusUnitPricePerLabel":null,"banner":null,"discountLabel":null,"geniusDiscountLabel":null,"badge":null},{"code":"100045864","variantCode":"100045864","name":"Crenvurști curcan copți la jar 290g","slug":"100045864-zimbria-crenvursti-curcan-copti-la-jar-290g","unitPriceLabel":"124,1 Lei/kg","brand":"Zimbria","brandCode":"205","brandFilterCode":"zimbria-b206","sku":"100045864","price":35.99,"originalPrice":null,"currencyCode":"RON","currency":"Lei","image":{"thumbnail":{"default":"https://cdn.freshful.ro/media/cache/sylius_shop_product_thumbnail/9b/38/4406425970628e516b353db253ee.jpg"},"large":{"default":"https://cdn.freshful.ro/media/cache/freshful_large/9b/38/4406425970628e516b353db253ee.jpg"},"extralarge":{"default":"https://cdn.freshful.ro/media/cache/sylius_shop_product_original/9b/38/4406425970628e516b353db253ee.jpg"}},"label":{"text":"Mici producători","backgroundColor":"#7B61FF","textColor":"#FFFFFF"},"tags":[{"type":"MadeInRomania","text":"Made In Romania","icon":"https://cdn.freshful.ro/assets/product_tags/made_in_romania.svg","iconPng":"https://cdn.freshful.ro/assets/product_tags/made_in_romania.png","backgroundColor":"#EDF2FD","textColor":"#1653CA"}],"isAvailable":true,"maxAvailableQuantity":2,"maxAllowedQuantity":2,"breadcrumbs":[{"code":"5","name":"Mezeluri & ready meals","slug":"5-mezeluri-si-ready-to-cook"},{"code":"501","name":"Mezeluri","slug":"501-mezeluri"},{"code":"50107","name":"Crenvurști","slug":"50107-crenvursti"},{"code":"100045864","name":"Crenvurști curcan copți la jar 290g","slug":"100045864-zimbria-crenvursti-curcan-copti-la-jar-290g"}],"activePromotion":null,"saveMe":null,"labels":[{"type":"v1","items":[{"text":"Mici producători","backgroundColor":"#7B61FF","textColor":"#FFFFFF"}]}],"geniusPrice":null,"geniusUnitPricePerLabel":null,"banner":null,"discountLabel":null,"geniusDiscountLabel":null,"badge":null},{"code":"100044973","variantCode":"5941348027791","name":"Crenvurști cu piept de pui 280g ","slug":"100044973-caroli-crenvursti-cu-piept-de-pui-280g","unitPriceLabel":"46,39 Lei/kg","brand":"Caroli","brandCode":"804","brandFilterCode":"caroli-b805","sku":"100044973","price":12.99,"originalPrice":null,"currencyCode":"RON","currency":"Lei","image":{"thumbnail":{"default":"https://cdn.freshful.ro/media/cache/sylius_shop_product_thumbnail/bb/03/110b4a284e0b09337d0f66b302f2.jpg"},"large":{"default":"https://cdn.freshful.ro/media/cache/freshful_large/bb/03/110b4a284e0b09337d0f66b302f2.jpg"},"extralarge":{"default":"https://cdn.freshful.ro/media/cache/sylius_shop_product_original/bb/03/110b4a284e0b09337d0f66b302f2.jpg"}},"label":null,"tags":[],"isAvailable":true,"maxAvailableQuantity":2,"maxAllowedQuantity":2,"breadcrumbs":[{"code":"5","name":"Mezeluri & ready meals","slug":"5-mezeluri-si-ready-to-cook"},{"code":"501","name":"Mezeluri","slug":"501-mezeluri"},{"code":"50107","name":"Crenvurști","slug":"50107-crenvursti"},{"code":"100044973","name":"Crenvurști cu piept de pui 280g ","slug":"100044973-caroli-crenvursti-cu-piept-de-pui-280g"}],"activePromotion":null,"saveMe":null,"labels":[],"geniusPrice":null,"geniusUnitPricePerLabel":null,"banner":null,"discountLabel":null,"geniusDiscountLabel":null,"badge":null},{"code":"100001844","variantCode":"5941265023746","name":"Crenvurști din piept de pui 130g","slug":"100001844-obrajori-crenvursti-din-piept-de-pui-130g","unitPriceLabel":"55 Lei/kg","brand":"Obrăjori","brandCode":"75","brandFilterCode":"obrajori-b73","sku":"100001844","price":7.15,"originalPrice":null,"currencyCode":"RON","currency":"Lei","image":{"thumbnail":{"default":"https://cdn.freshful.ro/media/cache/sylius_shop_product_thumbnail/61/53/4b8ab8b9a7b8eb3464e6a2c06e61.jpg"},"large":{"default":"https://cdn.freshful.ro/media/cache/freshful_large/61/53/4b8ab8b9a7b8eb3464e6a2c06e61.jpg"},"extralarge":{"default":"https://cdn.freshful.ro/media/cache/sylius_shop_product_original/61/53/4b8ab8b9a7b8eb3464e6a2c06e61.jpg"}},"label":null,"tags":[{"type":"NoGluten","text":"Fara gluten","icon":"https://cdn.freshful.ro/assets/product_tags/fara_gluten.svg","iconPng":"https://cdn.freshful.ro/assets/product_tags/fara_gluten.png","backgroundColor":"#FFF2E5","textColor":"#F07900"},{"type":"NoPreservatives","text":"Fara conservanti","icon":"https://cdn.freshful.ro/assets/product_tags/fara_conservanti.svg","iconPng":"https://cdn.freshful.ro/assets/product_tags/fara_conservanti.png","backgroundColor":"#F0F2FF","textColor":"#7889DD"},{"type":"NoE","text":"Fara E-uri","icon":"https://cdn.freshful.ro/assets/product_tags/fara_euri.svg","iconPng":"https://cdn.freshful.ro/assets/product_tags/fara_euri.png","backgroundColor":"#FCF5DF","textColor":"#CAA316"}],"isAvailable":true,"maxAvailableQuantity":2,"maxAllowedQuantity":2,"breadcrumbs":[{"code":"5","name":"Mezeluri & ready meals","slug":"5-mezeluri-si-ready-to-cook"},{"code":"501","name":"Mezeluri","slug":"501-mezeluri"},{"code":"50107","name":"Crenvurști","slug":"50107-crenvursti"},{"code":"100001844","name":"Crenvurști din piept de pui 130g","slug":"100001844-obrajori-crenvursti-din-piept-de-pui-130g"}],"activePromotion":null,"saveMe":null,"labels":[],"geniusPrice":null,"geniusUnitPricePerLabel":null,"banner":null,"discountLabel":null,"geniusDiscountLabel":null,"badge":null},{"code":"100062981","variantCode":"100062981","name":"Crenvurști din carne de porc 6 buc, 180g","slug":"100062981-reinert-martinel-crenvursti-din-carne-de-porc-6-buc-180g","unitPriceLabel":"83,28 Lei/kg","brand":"Reinert Martinel","brandCode":"954","brandFilterCode":"reinert-martinel-b968","sku":"100062981","price":14.99,"originalPrice":null,"currencyCode":"RON","currency":"Lei","image":{"thumbnail":{"default":"https://cdn.freshful.ro/media/cache/sylius_shop_product_thumbnail/8f/b8/7c76a605400b5a1e5c95b169e8d1.jpg"},"large":{"default":"https://cdn.freshful.ro/media/cache/freshful_large/8f/b8/7c76a605400b5a1e5c95b169e8d1.jpg"},"extralarge":{"default":"https://cdn.freshful.ro/media/cache/sylius_shop_product_original/8f/b8/7c76a605400b5a1e5c95b169e8d1.jpg"}},"label":null,"tags":[{"type":"NoGluten","text":"Fara gluten","icon":"https://cdn.freshful.ro/assets/product_tags/fara_gluten.svg","iconPng":"https://cdn.freshful.ro/assets/product_tags/fara_gluten.png","backgroundColor":"#FFF2E5","textColor":"#F07900"},{"type":"LactoseFree","text":"Fara lactoza","icon":"https://cdn.freshful.ro/assets/product_tags/fara_lactoza.svg","iconPng":"https://cdn.freshful.ro/assets/product_tags/fara_lactoza.png","backgroundColor":"#E9F7FB","textColor":"#25A6D0"}],"isAvailable":true,"maxAvailableQuantity":2,"maxAllowedQuantity":2,"breadcrumbs":[{"code":"5","name":"Mezeluri & ready meals","slug":"5-mezeluri-si-ready-to-cook"},{"code":"501","name":"Mezeluri","slug":"501-mezeluri"},{"code":"50107","name":"Crenvurști","slug":"50107-crenvursti"},{"code":"100062981","name":"Crenvurști din carne de porc 6 buc, 180g","slug":"100062981-reinert-martinel-crenvursti-din-carne-de-porc-6-buc-180g"}],"activePromotion":null,"saveMe":null,"labels":[],"geniusPrice":null,"geniusUnitPricePerLabel":null,"banner":null,"discountLabel":null,"geniusDiscountLabel":null,"badge":null},{"code":"100133179","variantCode":"100133179","name":"Crenvurști carne de pasăre 180g","slug":"100133179-reinert-martinel-crenvursti-carne-de-pasare-180g","unitPriceLabel":"94,33 Lei/kg","brand":"Reinert Martinel","brandCode":"954","brandFilterCode":"reinert-martinel-b968","sku":"100133179","price":16.98,"originalPrice":null,"currencyCode":"RON","currency":"Lei","image":{"thumbnail":{"default":"https://cdn.freshful.ro/media/cache/sylius_shop_product_thumbnail/d0/03/dac6ea15d21563874e111756923d.jpg"},"large":{"default":"https://cdn.freshful.ro/media/cache/freshful_large/d0/03/dac6ea15d21563874e111756923d.jpg"},"extralarge":{"default":"https://cdn.freshful.ro/media/cache/sylius_shop_product_original/d0/03/dac6ea15d21563874e111756923d.jpg"}},"label":null,"tags":[{"type":"NoGluten","text":"Fara gluten","icon":"https://cdn.freshful.ro/assets/product_tags/fara_gluten.svg","iconPng":"https://cdn.freshful.ro/assets/product_tags/fara_gluten.png","backgroundColor":"#FFF2E5","textColor":"#F07900"},{"type":"LactoseFree","text":"Fara lactoza","icon":"https://cdn.freshful.ro/assets/product_tags/fara_lactoza.svg","iconPng":"https://cdn.freshful.ro/assets/product_tags/fara_lactoza.png","backgroundColor":"#E9F7FB","textColor":"#25A6D0"}],"isAvailable":true,"maxAvailableQuantity":2,"maxAllowedQuantity":2,"breadcrumbs":[{"code":"5","name":"Mezeluri & ready meals","slug":"5-mezeluri-si-ready-to-cook"},{"code":"501","name":"Mezeluri","slug":"501-mezeluri"},{"code":"50107","name":"Crenvurști","slug":"50107-crenvursti"},{"code":"100133179","name":"Crenvurști carne de pasăre 180g","slug":"100133179-reinert-martinel-crenvursti-carne-de-pasare-180g"}],"activePromotion":null,"saveMe":null,"labels":[],"geniusPrice":null,"geniusUnitPricePerLabel":null,"banner":null,"discountLabel":null,"geniusDiscountLabel":null,"badge":null},{"code":"100035095","variantCode":"5941597001603","name":"Crenvurști cu piept de pui 470g","slug":"100035095-fox-crenvursti-cu-piept-de-pui-470g","unitPriceLabel":"35,09 Lei/kg","brand":"Fox","brandCode":"46","brandFilterCode":"fox-b41","sku":"100035095","price":16.49,"originalPrice":null,"currencyCode":"RON","currency":"Lei","image":{"thumbnail":{"default":"https://cdn.freshful.ro/media/cache/sylius_shop_product_thumbnail/21/61/cfb544a4730bf084a4a481a4d615.jpg"},"large":{"default":"https://cdn.freshful.ro/media/cache/freshful_large/21/61/cfb544a4730bf084a4a481a4d615.jpg"},"extralarge":{"default":"https://cdn.freshful.ro/media/cache/sylius_shop_product_original/21/61/cfb544a4730bf084a4a481a4d615.jpg"}},"label":null,"tags":[],"isAvailable":true,"maxAvailableQuantity":2,"maxAllowedQuantity":2,"breadcrumbs":[{"code":"5","name":"Mezeluri & ready meals","slug":"5-mezeluri-si-ready-to-cook"},{"code":"501","name":"Mezeluri","slug":"501-mezeluri"},{"code":"50107","name":"Crenvurști","slug":"50107-crenvursti"},{"code":"100035095","name":"Crenvurști cu piept de pui 470g","slug":"100035095-fox-crenvursti-cu-piept-de-pui-470g"}],"activePromotion":null,"saveMe":null,"labels":[],"geniusPrice":null,"geniusUnitPricePerLabel":null,"banner":null,"discountLabel":null,"geniusDiscountLabel":null,"badge":null},{"code":"100042912","variantCode":"100042912","name":"Crenvurști vienezi 480g","slug":"100042912-batranu-sas-crenvursti-vienezi-480g","unitPriceLabel":"83,31 Lei/kg","brand":"Bătrânu' Sas","brandCode":"756","brandFilterCode":"batranu-sas-b757","sku":"100042912","price":39.99,"originalPrice":null,"currencyCode":"RON","currency":"Lei","image":{"thumbnail":{"default":"https://cdn.freshful.ro/media/cache/sylius_shop_product_thumbnail/d1/78/4a63c66248313667043f737b63fd.jpg"},"large":{"default":"https://cdn.freshful.ro/media/cache/freshful_large/d1/78/4a63c66248313667043f737b63fd.jpg"},"extralarge":{"default":"https://cdn.freshful.ro/media/cache/sylius_shop_product_original/d1/78/4a63c66248313667043f737b63fd.jpg"}},"label":{"text":"Mici producători","backgroundColor":"#7B61FF","textColor":"#FFFFFF"},"tags":[],"isAvailable":true,"maxAvailableQuantity":2,"maxAllowedQuantity":2,"breadcrumbs":[{"code":"5","name":"Mezeluri & ready meals","slug":"5-mezeluri-si-ready-to-cook"},{"code":"501","name":"Mezeluri","slug":"501-mezeluri"},{"code":"50107","name":"Crenvurști","slug":"50107-crenvursti"},{"code":"100042912","name":"Crenvurști vienezi 480g","slug":"100042912-batranu-sas-crenvursti-vienezi-480g"}],"activePromotion":null,"saveMe":null,"labels":[{"type":"v1","items":[{"text":"Mici producători","backgroundColor":"#7B61FF","textColor":"#FFFFFF"}]}],"geniusPrice":null,"geniusUnitPricePerLabel":null,"banner":null,"discountLabel":null,"geniusDiscountLabel":null,"badge":null},{"code":"100044972","variantCode":"5941348027784","name":"Crenvurști de porc extra 280g","slug":"100044972-caroli-crenvursti-de-porc-extra-280g","unitPriceLabel":"41,75 Lei/kg","brand":"Caroli","brandCode":"804","brandFilterCode":"caroli-b805","sku":"100044972","price":11.69,"originalPrice":null,"currencyCode":"RON","currency":"Lei","image":{"thumbnail":{"default":"https://cdn.freshful.ro/media/cache/sylius_shop_product_thumbnail/94/58/114b26a16e0416feac33902f650f.jpg"},"large":{"default":"https://cdn.freshful.ro/media/cache/freshful_large/94/58/114b26a16e0416feac33902f650f.jpg"},"extralarge":{"default":"https://cdn.freshful.ro/media/cache/sylius_shop_product_original/94/58/114b26a16e0416feac33902f650f.jpg"}},"label":null,"tags":[],"isAvailable":true,"maxAvailableQuantity":2,"maxAllowedQuantity":2,"breadcrumbs":[{"code":"5","name":"Mezeluri & ready meals","slug":"5-mezeluri-si-ready-to-cook"},{"code":"501","name":"Mezeluri","slug":"501-mezeluri"},{"code":"50107","name":"Crenvurști","slug":"50107-crenvursti"},{"code":"100044972","name":"Crenvurști de porc extra 280g","slug":"100044972-caroli-crenvursti-de-porc-extra-280g"}],"activePromotion":null,"saveMe":null,"labels":[],"geniusPrice":null,"geniusUnitPricePerLabel":null,"banner":null,"discountLabel":null,"geniusDiscountLabel":null,"badge":null}],"filters":{"countSelected":0,"items":[{"code":"promotion","name":"Promoții","countSelected":0,"values":[{"code":"bunatatile-saptamanii-cw0923","name":"Oferta proaspătă a săptămânii","isSelected":false,"count":1}]},{"code":"brand","name":"Brand","countSelected":0,"values":[{"code":"batranu-sas-b757","name":"Bătrânu' Sas","isSelected":false,"count":2},{"code":"caroli-b805","name":"Caroli","isSelected":false,"count":3},{"code":"cris-tim-b74","name":"Cris-Tim","isSelected":false,"count":1},{"code":"diana-b356","name":"Diana","isSelected":false,"count":1},{"code":"fox-b41","name":"Fox","isSelected":false,"count":4},{"code":"meda-b702","name":"Meda","isSelected":false,"count":3},{"code":"obrajori-b73","name":"Obrăjori","isSelected":false,"count":1},{"code":"pick-b536","name":"Pick","isSelected":false,"count":1},{"code":"reinert-martinel-b968","name":"Reinert Martinel","isSelected":false,"count":2},{"code":"silvania-gourmet-b496","name":"Silvania Gourmet","isSelected":false,"count":2},{"code":"wudy-b1661","name":"Wudy","isSelected":false,"count":2},{"code":"zimbria-b206","name":"Zimbria","isSelected":false,"count":1}]},{"code":"diet_lifestyle","name":"Dietă și lifestyle","countSelected":0,"values":[{"code":"eco-a83","name":"Eco","isSelected":false,"count":1},{"code":"fara-conservanti-a37","name":"Fara conservanti","isSelected":false,"count":1},{"code":"fara-e-uri-a84","name":"Fara E-uri","isSelected":false,"count":3},{"code":"fara-gluten-a16","name":"Fara gluten","isSelected":false,"count":5},{"code":"fara-lactoza-a38","name":"Fara lactoza","isSelected":false,"count":2},{"code":"made-in-romania-a85","name":"Made In Romania","isSelected":false,"count":2}]}]},"orderBy":[{"field":"price","direction":"asc","name":"Preț crescător","isSelected":false},{"field":"price","direction":"desc","name":"Preț descrescător","isSelected":false},{"field":"popularity","direction":"desc","name":"Cele mai populare","isSelected":true},{"field":"category","direction":"asc","name":"Categorie","isSelected":false}],"metaTitle":"Crenvurști - Gamă variată","metaDescription":"Vrei Crenvurști? Alege dintr-o gamă variată. Comanzi simplu și ai livrare rapidă, calitate și prospețime. Hai pe Freshful.ro","metaKeywords":null,"banners":[]}}