{"type":"subcategory","payload":{"analyticsListId":"category_50108-carnati","analyticsListName":"Category - Cârnați","name":"Cârnați","slug":"50108-carnati","image":null,"breadcrumbs":[{"code":"5","name":"Mezeluri & ready meals","slug":"5-mezeluri-si-ready-to-cook"},{"code":"501","name":"Mezeluri","slug":"501-mezeluri"},{"code":"50108","name":"Cârnați","slug":"50108-carnati"}],"slots":[],"page":1,"limit":10,"pages":5,"count":42,"siblings":[{"name":"Mezeluri","slug":"501-mezeluri","selected":true},{"name":"Mezeluri feliate","slug":"502-mezeluri-feliate","selected":false},{"name":"Pizza și aluat","slug":"503-pizza-si-aluat","selected":false},{"name":"Paste proaspete","slug":"504-paste-proaspete","selected":false},{"name":"Ready meals","slug":"505-ready-meal","selected":false}],"children":[{"name":"Toate produsele","slug":"501-mezeluri","selected":false},{"name":"Șuncă presată","slug":"50101-sunca-presata","selected":false},{"name":"Mezeluri pe bază de slănină","slug":"50102-mezeluri-pe-baza-de-slanina","selected":false},{"name":"Mezeluri de porc","slug":"50103-mezeluri-de-porc","selected":false},{"name":"Mezeluri de pasăre","slug":"50104-mezeluri-de-pasare","selected":false},{"name":"Mezeluri de vită","slug":"50106-mezeluri-de-vita","selected":false},{"name":"Crenvurști","slug":"50107-crenvursti","selected":false},{"name":"Cârnați","slug":"50108-carnati","selected":true},{"name":"Paté","slug":"50109-pateuri","selected":false},{"name":"Mezeluri de specialitate","slug":"50110-mezeluri-de-specialitate","selected":false},{"name":"Salam","slug":"50112-salam","selected":false},{"name":"Parizer","slug":"50113-parizer","selected":false},{"name":"Mezeluri ECO","slug":"mezeluri-eco","selected":false}],"products":[{"code":"100001845","variantCode":"5941265014225","name":"Cârnați oltenești 300g","slug":"100001845-matache-macelaru-carnati-oltenesti-300g","unitPriceLabel":"39,97 Lei/kg","brand":"Matache Măcelaru","brandCode":"77","brandFilterCode":"matache-macelaru-b75","sku":"100001845","price":11.99,"originalPrice":13.89,"currencyCode":"RON","currency":"Lei","image":{"thumbnail":{"default":"https://cdn.freshful.ro/media/cache/sylius_shop_product_thumbnail/41/1c/78b0b8028a272ac98f9d77623053.jpg"},"large":{"default":"https://cdn.freshful.ro/media/cache/freshful_large/41/1c/78b0b8028a272ac98f9d77623053.jpg"},"extralarge":{"default":"https://cdn.freshful.ro/media/cache/sylius_shop_product_original/41/1c/78b0b8028a272ac98f9d77623053.jpg"}},"label":{"text":"-13%","backgroundColor":"#FF9903","textColor":"#FFFFFF"},"tags":[{"type":"NoGluten","text":"Fara gluten","icon":"https://cdn.freshful.ro/assets/product_tags/fara_gluten.svg","iconPng":"https://cdn.freshful.ro/assets/product_tags/fara_gluten.png","backgroundColor":"#FFF2E5","textColor":"#F07900"}],"isAvailable":true,"maxAvailableQuantity":74,"maxAllowedQuantity":100,"breadcrumbs":[{"code":"5","name":"Mezeluri & ready meals","slug":"5-mezeluri-si-ready-to-cook"},{"code":"501","name":"Mezeluri","slug":"501-mezeluri"},{"code":"50108","name":"Cârnați","slug":"50108-carnati"},{"code":"100001845","name":"Cârnați oltenești 300g","slug":"100001845-matache-macelaru-carnati-oltenesti-300g"}],"activePromotion":{"code":"targ-bere-snacks-mar23","name":"Preț redus","targetQuantity":null},"saveMe":null,"labels":[{"type":"v1","items":[{"text":"-13%","backgroundColor":"#FF9903","textColor":"#FFFFFF"}]}],"geniusPrice":null,"geniusUnitPricePerLabel":null,"banner":{"text":"Super preț","textColor":"#FF0000","bgColor":"#FFF2EC","icon":null,"link":"https://www.freshful.ro/oferte/targ-bere-snacks-mar23","type":"promo","analyticsEventType":"select_promotion","analyticsEventPayload":{"promotion_id":"targ-bere-snacks-mar23","promotion_name":"Bere și snackuri pentru toate gusturile"}},"discountLabel":"Economisești 13%","geniusDiscountLabel":null,"badge":null},{"code":"100031488","variantCode":"5941460008227","name":"Babic feliat plic 150g","slug":"100031488-agricola-babic-feliat-plic-150g","unitPriceLabel":"113,27 Lei/kg","brand":"Agricola","brandCode":"70","brandFilterCode":"agricola-b68","sku":"100031488","price":16.99,"originalPrice":17.99,"currencyCode":"RON","currency":"Lei","image":{"thumbnail":{"default":"https://cdn.freshful.ro/media/cache/sylius_shop_product_thumbnail/4d/19/518b9aba6935e76fb51d6e8cec22.jpg"},"large":{"default":"https://cdn.freshful.ro/media/cache/freshful_large/4d/19/518b9aba6935e76fb51d6e8cec22.jpg"},"extralarge":{"default":"https://cdn.freshful.ro/media/cache/sylius_shop_product_original/4d/19/518b9aba6935e76fb51d6e8cec22.jpg"}},"label":{"text":"-5%","backgroundColor":"#FF9903","textColor":"#FFFFFF"},"tags":[],"isAvailable":true,"maxAvailableQuantity":49,"maxAllowedQuantity":100,"breadcrumbs":[{"code":"5","name":"Mezeluri & ready meals","slug":"5-mezeluri-si-ready-to-cook"},{"code":"501","name":"Mezeluri","slug":"501-mezeluri"},{"code":"50108","name":"Cârnați","slug":"50108-carnati"},{"code":"100031488","name":"Babic feliat plic 150g","slug":"100031488-agricola-babic-feliat-plic-150g"}],"activePromotion":{"code":"targ-bere-snacks-mar23","name":"Preț redus","targetQuantity":null},"saveMe":null,"labels":[{"type":"v1","items":[{"text":"-5%","backgroundColor":"#FF9903","textColor":"#FFFFFF"}]}],"geniusPrice":null,"geniusUnitPricePerLabel":null,"banner":{"text":"Super preț","textColor":"#FF0000","bgColor":"#FFF2EC","icon":null,"link":"https://www.freshful.ro/oferte/targ-bere-snacks-mar23","type":"promo","analyticsEventType":"select_promotion","analyticsEventPayload":{"promotion_id":"targ-bere-snacks-mar23","promotion_name":"Bere și snackuri pentru toate gusturile"}},"discountLabel":"Economisești 5%","geniusDiscountLabel":null,"badge":null},{"code":"100098810","variantCode":"100098810","name":"Cârnați mini sticks cu nuci și roquefort 100g","slug":"100098810-auvernou-carnati-mini-sticks-cu-nuci-si-roquefort-100g","unitPriceLabel":"199,9 Lei/kg","brand":"Auvernou","brandCode":"1650","brandFilterCode":"auvernou-b1654","sku":"100098810","price":19.99,"originalPrice":23.29,"currencyCode":"RON","currency":"Lei","image":{"thumbnail":{"default":"https://cdn.freshful.ro/media/cache/sylius_shop_product_thumbnail/b5/33/41e98d59d4e4854581f441eff398.jpg"},"large":{"default":"https://cdn.freshful.ro/media/cache/freshful_large/b5/33/41e98d59d4e4854581f441eff398.jpg"},"extralarge":{"default":"https://cdn.freshful.ro/media/cache/sylius_shop_product_original/b5/33/41e98d59d4e4854581f441eff398.jpg"}},"label":{"text":"-14%","backgroundColor":"#FF9903","textColor":"#FFFFFF"},"tags":[],"isAvailable":true,"maxAvailableQuantity":100,"maxAllowedQuantity":100,"breadcrumbs":[{"code":"5","name":"Mezeluri & ready meals","slug":"5-mezeluri-si-ready-to-cook"},{"code":"501","name":"Mezeluri","slug":"501-mezeluri"},{"code":"50108","name":"Cârnați","slug":"50108-carnati"},{"code":"100098810","name":"Cârnați mini sticks cu nuci și roquefort 100g","slug":"100098810-auvernou-carnati-mini-sticks-cu-nuci-si-roquefort-100g"}],"activePromotion":{"code":"targ-bere-snacks-mar23","name":"Preț redus","targetQuantity":null},"saveMe":null,"labels":[{"type":"v1","items":[{"text":"-14%","backgroundColor":"#FF9903","textColor":"#FFFFFF"}]}],"geniusPrice":null,"geniusUnitPricePerLabel":null,"banner":{"text":"Super preț","textColor":"#FF0000","bgColor":"#FFF2EC","icon":null,"link":"https://www.freshful.ro/oferte/targ-bere-snacks-mar23","type":"promo","analyticsEventType":"select_promotion","analyticsEventPayload":{"promotion_id":"targ-bere-snacks-mar23","promotion_name":"Bere și snackuri pentru toate gusturile"}},"discountLabel":"Economisești 14%","geniusDiscountLabel":null,"badge":null},{"code":"100031486","variantCode":"5941460010978","name":"Cârnați sticks picanți 150g","slug":"100031486-agricola-carnati-sticks-picanti-150g","unitPriceLabel":"79,93 Lei/kg","brand":"Agricola","brandCode":"70","brandFilterCode":"agricola-b68","sku":"100031486","price":11.99,"originalPrice":14.49,"currencyCode":"RON","currency":"Lei","image":{"thumbnail":{"default":"https://cdn.freshful.ro/media/cache/sylius_shop_product_thumbnail/02/8f/baf31211ac25cf3f1751cb0f742e.jpg"},"large":{"default":"https://cdn.freshful.ro/media/cache/freshful_large/02/8f/baf31211ac25cf3f1751cb0f742e.jpg"},"extralarge":{"default":"https://cdn.freshful.ro/media/cache/sylius_shop_product_original/02/8f/baf31211ac25cf3f1751cb0f742e.jpg"}},"label":{"text":"-17%","backgroundColor":"#FF9903","textColor":"#FFFFFF"},"tags":[],"isAvailable":true,"maxAvailableQuantity":35,"maxAllowedQuantity":100,"breadcrumbs":[{"code":"5","name":"Mezeluri & ready meals","slug":"5-mezeluri-si-ready-to-cook"},{"code":"501","name":"Mezeluri","slug":"501-mezeluri"},{"code":"50108","name":"Cârnați","slug":"50108-carnati"},{"code":"100031486","name":"Cârnați sticks picanți 150g","slug":"100031486-agricola-carnati-sticks-picanti-150g"}],"activePromotion":{"code":"targ-bere-snacks-mar23","name":"Preț redus","targetQuantity":null},"saveMe":null,"labels":[{"type":"v1","items":[{"text":"-17%","backgroundColor":"#FF9903","textColor":"#FFFFFF"}]}],"geniusPrice":null,"geniusUnitPricePerLabel":null,"banner":{"text":"Super preț","textColor":"#FF0000","bgColor":"#FFF2EC","icon":null,"link":"https://www.freshful.ro/oferte/targ-bere-snacks-mar23","type":"promo","analyticsEventType":"select_promotion","analyticsEventPayload":{"promotion_id":"targ-bere-snacks-mar23","promotion_name":"Bere și snackuri pentru toate gusturile"}},"discountLabel":"Economisești 17%","geniusDiscountLabel":null,"badge":null},{"code":"100105093","variantCode":"100105093","name":"Cârnăciori de bere 400g","slug":"100105093-angst-carnaciori-de-bere-400g","unitPriceLabel":"44,98 Lei/kg","brand":"Angst","brandCode":"217","brandFilterCode":"angst-b218","sku":"100105093","price":17.99,"originalPrice":20.99,"currencyCode":"RON","currency":"Lei","image":{"thumbnail":{"default":"https://cdn.freshful.ro/media/cache/sylius_shop_product_thumbnail/cb/93/6690ea548494300b0b8350760904.jpg"},"large":{"default":"https://cdn.freshful.ro/media/cache/freshful_large/cb/93/6690ea548494300b0b8350760904.jpg"},"extralarge":{"default":"https://cdn.freshful.ro/media/cache/sylius_shop_product_original/cb/93/6690ea548494300b0b8350760904.jpg"}},"label":{"text":"-14%","backgroundColor":"#FF9903","textColor":"#FFFFFF"},"tags":[],"isAvailable":true,"maxAvailableQuantity":11,"maxAllowedQuantity":100,"breadcrumbs":[{"code":"5","name":"Mezeluri & ready meals","slug":"5-mezeluri-si-ready-to-cook"},{"code":"501","name":"Mezeluri","slug":"501-mezeluri"},{"code":"50108","name":"Cârnați","slug":"50108-carnati"},{"code":"100105093","name":"Cârnăciori de bere 400g","slug":"100105093-angst-carnaciori-de-bere-400g"}],"activePromotion":{"code":"targ-bere-snacks-mar23","name":"Preț redus","targetQuantity":null},"saveMe":null,"labels":[{"type":"v1","items":[{"text":"-14%","backgroundColor":"#FF9903","textColor":"#FFFFFF"}]}],"geniusPrice":null,"geniusUnitPricePerLabel":null,"banner":{"text":"Super preț","textColor":"#FF0000","bgColor":"#FFF2EC","icon":null,"link":"https://www.freshful.ro/oferte/targ-bere-snacks-mar23","type":"promo","analyticsEventType":"select_promotion","analyticsEventPayload":{"promotion_id":"targ-bere-snacks-mar23","promotion_name":"Bere și snackuri pentru toate gusturile"}},"discountLabel":"Economisești 14%","geniusDiscountLabel":null,"badge":null},{"code":"100141080","variantCode":"100141080","name":"Cârnați mini sticks 100g","slug":"100141080-auvernou-carnati-mini-sticks-100g","unitPriceLabel":"179,9 Lei/kg","brand":"Auvernou","brandCode":"1650","brandFilterCode":"auvernou-b1654","sku":"100141080","price":17.99,"originalPrice":20.49,"currencyCode":"RON","currency":"Lei","image":{"thumbnail":{"default":"https://cdn.freshful.ro/media/cache/sylius_shop_product_thumbnail/63/53/4c3e899e52dacfe5ccfc123105a2.jpg"},"large":{"default":"https://cdn.freshful.ro/media/cache/freshful_large/63/53/4c3e899e52dacfe5ccfc123105a2.jpg"},"extralarge":{"default":"https://cdn.freshful.ro/media/cache/sylius_shop_product_original/63/53/4c3e899e52dacfe5ccfc123105a2.jpg"}},"label":{"text":"-12%","backgroundColor":"#FF9903","textColor":"#FFFFFF"},"tags":[],"isAvailable":true,"maxAvailableQuantity":21,"maxAllowedQuantity":100,"breadcrumbs":[{"code":"5","name":"Mezeluri & ready meals","slug":"5-mezeluri-si-ready-to-cook"},{"code":"501","name":"Mezeluri","slug":"501-mezeluri"},{"code":"50108","name":"Cârnați","slug":"50108-carnati"},{"code":"100141080","name":"Cârnați mini sticks 100g","slug":"100141080-auvernou-carnati-mini-sticks-100g"}],"activePromotion":{"code":"targ-bere-snacks-mar23","name":"Preț redus","targetQuantity":null},"saveMe":null,"labels":[{"type":"v1","items":[{"text":"-12%","backgroundColor":"#FF9903","textColor":"#FFFFFF"}]}],"geniusPrice":null,"geniusUnitPricePerLabel":null,"banner":{"text":"Super preț","textColor":"#FF0000","bgColor":"#FFF2EC","icon":null,"link":"https://www.freshful.ro/oferte/targ-bere-snacks-mar23","type":"promo","analyticsEventType":"select_promotion","analyticsEventPayload":{"promotion_id":"targ-bere-snacks-mar23","promotion_name":"Bere și snackuri pentru toate gusturile"}},"discountLabel":"Economisești 12%","geniusDiscountLabel":null,"badge":null},{"code":"100129624","variantCode":"100129624","name":"Cârnaţi Pepperoni 150g","slug":"100129624-delicii-din-traditii-carnati-pepperoni-150g","unitPriceLabel":"76,6 Lei/kg","brand":"Delicii din Tradiţii","brandCode":"581","brandFilterCode":"delicii-din-traditii-b582","sku":"100129624","price":11.49,"originalPrice":13.99,"currencyCode":"RON","currency":"Lei","image":{"thumbnail":{"default":"https://cdn.freshful.ro/media/cache/sylius_shop_product_thumbnail/e0/94/98b9256e6062deedc93dbb76cc97.jpg"},"large":{"default":"https://cdn.freshful.ro/media/cache/freshful_large/e0/94/98b9256e6062deedc93dbb76cc97.jpg"},"extralarge":{"default":"https://cdn.freshful.ro/media/cache/sylius_shop_product_original/e0/94/98b9256e6062deedc93dbb76cc97.jpg"}},"label":{"text":"-17%","backgroundColor":"#FF9903","textColor":"#FFFFFF"},"tags":[{"type":"MadeInRomania","text":"Made In Romania","icon":"https://cdn.freshful.ro/assets/product_tags/made_in_romania.svg","iconPng":"https://cdn.freshful.ro/assets/product_tags/made_in_romania.png","backgroundColor":"#EDF2FD","textColor":"#1653CA"}],"isAvailable":true,"maxAvailableQuantity":20,"maxAllowedQuantity":100,"breadcrumbs":[{"code":"5","name":"Mezeluri & ready meals","slug":"5-mezeluri-si-ready-to-cook"},{"code":"501","name":"Mezeluri","slug":"501-mezeluri"},{"code":"50108","name":"Cârnați","slug":"50108-carnati"},{"code":"100129624","name":"Cârnaţi Pepperoni 150g","slug":"100129624-delicii-din-traditii-carnati-pepperoni-150g"}],"activePromotion":{"code":"bunatatile-saptamanii-cw0923","name":"Preț redus","targetQuantity":null},"saveMe":null,"labels":[{"type":"v1","items":[{"text":"-17%","backgroundColor":"#FF9903","textColor":"#FFFFFF"}]}],"geniusPrice":null,"geniusUnitPricePerLabel":null,"banner":{"text":"Super preț","textColor":"#FF0000","bgColor":"#FFF2EC","icon":null,"link":"https://www.freshful.ro/oferte/bunatatile-saptamanii-cw0923","type":"promo","analyticsEventType":"select_promotion","analyticsEventPayload":{"promotion_id":"bunatatile-saptamanii-cw0923","promotion_name":"Oferta proaspătă a săptămânii"}},"discountLabel":"Economisești 17%","geniusDiscountLabel":null,"badge":null},{"code":"100044976","variantCode":"5941348001999","name":"Cârnați de bere 2x200g","slug":"100044976-caroli-carnati-de-bere-2x200g","unitPriceLabel":"49,98 Lei/kg","brand":"Caroli","brandCode":"804","brandFilterCode":"caroli-b805","sku":"100044976","price":19.99,"originalPrice":22.49,"currencyCode":"RON","currency":"Lei","image":{"thumbnail":{"default":"https://cdn.freshful.ro/media/cache/sylius_shop_product_thumbnail/09/bb/5c2d83ed1732d22ced8b3cb03d4a.jpg"},"large":{"default":"https://cdn.freshful.ro/media/cache/freshful_large/09/bb/5c2d83ed1732d22ced8b3cb03d4a.jpg"},"extralarge":{"default":"https://cdn.freshful.ro/media/cache/sylius_shop_product_original/09/bb/5c2d83ed1732d22ced8b3cb03d4a.jpg"}},"label":{"text":"-11%","backgroundColor":"#FF9903","textColor":"#FFFFFF"},"tags":[],"isAvailable":true,"maxAvailableQuantity":12,"maxAllowedQuantity":100,"breadcrumbs":[{"code":"5","name":"Mezeluri & ready meals","slug":"5-mezeluri-si-ready-to-cook"},{"code":"501","name":"Mezeluri","slug":"501-mezeluri"},{"code":"50108","name":"Cârnați","slug":"50108-carnati"},{"code":"100044976","name":"Cârnați de bere 2x200g","slug":"100044976-caroli-carnati-de-bere-2x200g"}],"activePromotion":{"code":"targ-bere-snacks-mar23","name":"Preț redus","targetQuantity":null},"saveMe":null,"labels":[{"type":"v1","items":[{"text":"-11%","backgroundColor":"#FF9903","textColor":"#FFFFFF"}]}],"geniusPrice":null,"geniusUnitPricePerLabel":null,"banner":{"text":"Super preț","textColor":"#FF0000","bgColor":"#FFF2EC","icon":null,"link":"https://www.freshful.ro/oferte/targ-bere-snacks-mar23","type":"promo","analyticsEventType":"select_promotion","analyticsEventPayload":{"promotion_id":"targ-bere-snacks-mar23","promotion_name":"Bere și snackuri pentru toate gusturile"}},"discountLabel":"Economisești 11%","geniusDiscountLabel":null,"badge":null},{"code":"100098809","variantCode":"3466250035105","name":"Cârnați mini sticks eco 80g","slug":"100098809-auvernou-carnati-mini-sticks-eco-80g","unitPriceLabel":"299,88 Lei/kg","brand":"Auvernou","brandCode":"1650","brandFilterCode":"auvernou-b1654","sku":"100098809","price":23.99,"originalPrice":26.5,"currencyCode":"RON","currency":"Lei","image":{"thumbnail":{"default":"https://cdn.freshful.ro/media/cache/sylius_shop_product_thumbnail/98/a5/27d17900533f5dc9d60b4d98aa66.jpg"},"large":{"default":"https://cdn.freshful.ro/media/cache/freshful_large/98/a5/27d17900533f5dc9d60b4d98aa66.jpg"},"extralarge":{"default":"https://cdn.freshful.ro/media/cache/sylius_shop_product_original/98/a5/27d17900533f5dc9d60b4d98aa66.jpg"}},"label":{"text":"-9%","backgroundColor":"#FF9903","textColor":"#FFFFFF"},"tags":[{"type":"Eco","text":"Eco","icon":"https://cdn.freshful.ro/assets/product_tags/eco.svg","iconPng":"https://cdn.freshful.ro/assets/product_tags/eco.png","backgroundColor":"#EFFBE4","textColor":"#66BB1B"}],"isAvailable":true,"maxAvailableQuantity":34,"maxAllowedQuantity":100,"breadcrumbs":[{"code":"5","name":"Mezeluri & ready meals","slug":"5-mezeluri-si-ready-to-cook"},{"code":"501","name":"Mezeluri","slug":"501-mezeluri"},{"code":"50108","name":"Cârnați","slug":"50108-carnati"},{"code":"100098809","name":"Cârnați mini sticks eco 80g","slug":"100098809-auvernou-carnati-mini-sticks-eco-80g"}],"activePromotion":{"code":"targ-bere-snacks-mar23","name":"Preț redus","targetQuantity":null},"saveMe":null,"labels":[{"type":"v1","items":[{"text":"-9%","backgroundColor":"#FF9903","textColor":"#FFFFFF"}]}],"geniusPrice":null,"geniusUnitPricePerLabel":null,"banner":{"text":"Super preț","textColor":"#FF0000","bgColor":"#FFF2EC","icon":null,"link":"https://www.freshful.ro/oferte/targ-bere-snacks-mar23","type":"promo","analyticsEventType":"select_promotion","analyticsEventPayload":{"promotion_id":"targ-bere-snacks-mar23","promotion_name":"Bere și snackuri pentru toate gusturile"}},"discountLabel":"Economisești 9%","geniusDiscountLabel":null,"badge":null},{"code":"100036360","variantCode":"100036360","name":"Babic sticks 100g","slug":"100036360-mos-iosif-babic-sticks-100g","unitPriceLabel":"199,9 Lei/kg","brand":"Moș Iosif","brandCode":"700","brandFilterCode":"mos-iosif-b701","sku":"100036360","price":19.99,"originalPrice":25.99,"currencyCode":"RON","currency":"Lei","image":{"thumbnail":{"default":"https://cdn.freshful.ro/media/cache/sylius_shop_product_thumbnail/40/18/ee233a0dfb68e6b9f668cb9305a9.jpg"},"large":{"default":"https://cdn.freshful.ro/media/cache/freshful_large/40/18/ee233a0dfb68e6b9f668cb9305a9.jpg"},"extralarge":{"default":"https://cdn.freshful.ro/media/cache/sylius_shop_product_original/40/18/ee233a0dfb68e6b9f668cb9305a9.jpg"}},"label":{"text":"-23%","backgroundColor":"#FF9903","textColor":"#FFFFFF"},"tags":[{"type":"MadeInRomania","text":"Made In Romania","icon":"https://cdn.freshful.ro/assets/product_tags/made_in_romania.svg","iconPng":"https://cdn.freshful.ro/assets/product_tags/made_in_romania.png","backgroundColor":"#EDF2FD","textColor":"#1653CA"}],"isAvailable":true,"maxAvailableQuantity":57,"maxAllowedQuantity":100,"breadcrumbs":[{"code":"5","name":"Mezeluri & ready meals","slug":"5-mezeluri-si-ready-to-cook"},{"code":"501","name":"Mezeluri","slug":"501-mezeluri"},{"code":"50108","name":"Cârnați","slug":"50108-carnati"},{"code":"100036360","name":"Babic sticks 100g","slug":"100036360-mos-iosif-babic-sticks-100g"}],"activePromotion":{"code":"targ-bere-snacks-mar23","name":"Preț redus","targetQuantity":null},"saveMe":null,"labels":[{"type":"v1","items":[{"text":"-23%","backgroundColor":"#FF9903","textColor":"#FFFFFF"}]}],"geniusPrice":null,"geniusUnitPricePerLabel":null,"banner":{"text":"Super preț","textColor":"#FF0000","bgColor":"#FFF2EC","icon":null,"link":"https://www.freshful.ro/oferte/targ-bere-snacks-mar23","type":"promo","analyticsEventType":"select_promotion","analyticsEventPayload":{"promotion_id":"targ-bere-snacks-mar23","promotion_name":"Bere și snackuri pentru toate gusturile"}},"discountLabel":"Economisești 23%","geniusDiscountLabel":null,"badge":null}],"filters":{"countSelected":0,"items":[{"code":"promotion","name":"Promoții","countSelected":0,"values":[{"code":"targ-bere-snacks-mar23","name":"Bere și snackuri pentru toate gusturile","isSelected":false,"count":13},{"code":"bunatatile-saptamanii-cw0923","name":"Oferta proaspătă a săptămânii","isSelected":false,"count":1}]},{"code":"brand","name":"Brand","countSelected":0,"values":[{"code":"agricola-b68","name":"Agricola","isSelected":false,"count":3},{"code":"aldis-b214","name":"Aldis","isSelected":false,"count":1},{"code":"angst-b218","name":"Angst","isSelected":false,"count":1},{"code":"auvernou-b1654","name":"Auvernou","isSelected":false,"count":3},{"code":"ca-altadata-b1790","name":"Ca Altădată","isSelected":false,"count":5},{"code":"campofrio-b806","name":"Campofrio","isSelected":false,"count":1},{"code":"caroli-b805","name":"Caroli","isSelected":false,"count":2},{"code":"cris-tim-b74","name":"Cris-Tim","isSelected":false,"count":2},{"code":"delicii-din-traditii-b582","name":"Delicii din Tradiţii","isSelected":false,"count":3},{"code":"diana-b356","name":"Diana","isSelected":false,"count":1},{"code":"fox-b41","name":"Fox","isSelected":false,"count":2},{"code":"matache-macelaru-b75","name":"Matache Măcelaru","isSelected":false,"count":1},{"code":"moldova-in-bucate-b2913","name":"Moldova In Bucate","isSelected":false,"count":4},{"code":"mos-iosif-b701","name":"Moș Iosif","isSelected":false,"count":4},{"code":"pick-b536","name":"Pick","isSelected":false,"count":2},{"code":"prodprosper-b3084","name":"Prodprosper","isSelected":false,"count":2},{"code":"silvania-gourmet-b496","name":"Silvania Gourmet","isSelected":false,"count":3},{"code":"zimbo-b822","name":"Zimbo","isSelected":false,"count":1},{"code":"zimbria-b206","name":"Zimbria","isSelected":false,"count":1}]},{"code":"diet_lifestyle","name":"Dietă și lifestyle","countSelected":0,"values":[{"code":"eco-a83","name":"Eco","isSelected":false,"count":4},{"code":"fara-e-uri-a84","name":"Fara E-uri","isSelected":false,"count":3},{"code":"fara-gluten-a16","name":"Fara gluten","isSelected":false,"count":3},{"code":"made-in-romania-a85","name":"Made In Romania","isSelected":false,"count":8},{"code":"natural-a27","name":"Natural","isSelected":false,"count":1}]}]},"orderBy":[{"field":"price","direction":"asc","name":"Preț crescător","isSelected":false},{"field":"price","direction":"desc","name":"Preț descrescător","isSelected":false},{"field":"popularity","direction":"desc","name":"Cele mai populare","isSelected":true},{"field":"category","direction":"asc","name":"Categorie","isSelected":false}],"metaTitle":"Cârnați - Gamă variată","metaDescription":"Vrei Cârnați? Alege dintr-o gamă variată. Comanzi simplu și ai livrare rapidă, calitate și prospețime. Hai pe Freshful.ro","metaKeywords":null,"banners":[]}}