{"type":"subcategory","payload":{"analyticsListId":"category_50103-mezeluri-de-porc","analyticsListName":"Category - Mezeluri de porc","name":"Mezeluri de porc","slug":"50103-mezeluri-de-porc","image":null,"breadcrumbs":[{"code":"5","name":"Mezeluri & ready meals","slug":"5-mezeluri-si-ready-to-cook"},{"code":"501","name":"Mezeluri","slug":"501-mezeluri"},{"code":"50103","name":"Mezeluri de porc","slug":"50103-mezeluri-de-porc"}],"slots":[],"page":1,"limit":10,"pages":2,"count":15,"siblings":[{"name":"Mezeluri","slug":"501-mezeluri","selected":true},{"name":"Mezeluri feliate","slug":"502-mezeluri-feliate","selected":false},{"name":"Pizza și aluat","slug":"503-pizza-si-aluat","selected":false},{"name":"Paste proaspete","slug":"504-paste-proaspete","selected":false},{"name":"Ready meals","slug":"505-ready-meal","selected":false}],"children":[{"name":"Toate produsele","slug":"501-mezeluri","selected":false},{"name":"Șuncă presată","slug":"50101-sunca-presata","selected":false},{"name":"Mezeluri pe bază de slănină","slug":"50102-mezeluri-pe-baza-de-slanina","selected":false},{"name":"Mezeluri de porc","slug":"50103-mezeluri-de-porc","selected":true},{"name":"Mezeluri de pasăre","slug":"50104-mezeluri-de-pasare","selected":false},{"name":"Mezeluri de vită","slug":"50106-mezeluri-de-vita","selected":false},{"name":"Crenvurști","slug":"50107-crenvursti","selected":false},{"name":"Cârnați","slug":"50108-carnati","selected":false},{"name":"Paté","slug":"50109-pateuri","selected":false},{"name":"Mezeluri de specialitate","slug":"50110-mezeluri-de-specialitate","selected":false},{"name":"Salam","slug":"50112-salam","selected":false},{"name":"Parizer","slug":"50113-parizer","selected":false},{"name":"Mezeluri ECO","slug":"mezeluri-eco","selected":false}],"products":[{"code":"100146734","variantCode":"100146734","name":"Pastramă din pulpă de porc 280g","slug":"100146734-moldova-in-bucate-pastrama-din-pulpa-de-porc-280g","unitPriceLabel":"53,54 Lei/kg","brand":"Moldova In Bucate","brandCode":"2827","brandFilterCode":"moldova-in-bucate-b2913","sku":"100146734","price":14.99,"originalPrice":null,"currencyCode":"RON","currency":"Lei","image":{"thumbnail":{"default":"https://cdn.freshful.ro/media/cache/sylius_shop_product_thumbnail/9e/5e/8daa7834e3fbb6d88268b6e322bf.jpg"},"large":{"default":"https://cdn.freshful.ro/media/cache/freshful_large/9e/5e/8daa7834e3fbb6d88268b6e322bf.jpg"},"extralarge":{"default":"https://cdn.freshful.ro/media/cache/sylius_shop_product_original/9e/5e/8daa7834e3fbb6d88268b6e322bf.jpg"}},"label":null,"tags":[],"isAvailable":true,"maxAvailableQuantity":68,"maxAllowedQuantity":100,"breadcrumbs":[{"code":"5","name":"Mezeluri & ready meals","slug":"5-mezeluri-si-ready-to-cook"},{"code":"501","name":"Mezeluri","slug":"501-mezeluri"},{"code":"50103","name":"Mezeluri de porc","slug":"50103-mezeluri-de-porc"},{"code":"100146734","name":"Pastramă din pulpă de porc 280g","slug":"100146734-moldova-in-bucate-pastrama-din-pulpa-de-porc-280g"}],"activePromotion":null,"saveMe":null,"labels":[],"geniusPrice":null,"geniusUnitPricePerLabel":null,"banner":null,"discountLabel":null,"geniusDiscountLabel":null,"badge":null},{"code":"100146731","variantCode":"100146731","name":"Mușchi țigănesc 300g","slug":"100146731-moldova-in-bucate-muschi-tiganesc-300g","unitPriceLabel":"56,63 Lei/kg","brand":"Moldova In Bucate","brandCode":"2827","brandFilterCode":"moldova-in-bucate-b2913","sku":"100146731","price":16.99,"originalPrice":null,"currencyCode":"RON","currency":"Lei","image":{"thumbnail":{"default":"https://cdn.freshful.ro/media/cache/sylius_shop_product_thumbnail/6d/3d/70ee3983f69e50f2784d4c295073.jpg"},"large":{"default":"https://cdn.freshful.ro/media/cache/freshful_large/6d/3d/70ee3983f69e50f2784d4c295073.jpg"},"extralarge":{"default":"https://cdn.freshful.ro/media/cache/sylius_shop_product_original/6d/3d/70ee3983f69e50f2784d4c295073.jpg"}},"label":null,"tags":[],"isAvailable":true,"maxAvailableQuantity":51,"maxAllowedQuantity":100,"breadcrumbs":[{"code":"5","name":"Mezeluri & ready meals","slug":"5-mezeluri-si-ready-to-cook"},{"code":"501","name":"Mezeluri","slug":"501-mezeluri"},{"code":"50103","name":"Mezeluri de porc","slug":"50103-mezeluri-de-porc"},{"code":"100146731","name":"Mușchi țigănesc 300g","slug":"100146731-moldova-in-bucate-muschi-tiganesc-300g"}],"activePromotion":null,"saveMe":null,"labels":[],"geniusPrice":null,"geniusUnitPricePerLabel":null,"banner":null,"discountLabel":null,"geniusDiscountLabel":null,"badge":null},{"code":"100146737","variantCode":"100146737","name":"Piept de porc dichisit din carne de porc 280g","slug":"100146737-moldova-in-bucate-piept-de-porc-dichisit-din-carne-de-porc-280g","unitPriceLabel":"69,61 Lei/kg","brand":"Moldova In Bucate","brandCode":"2827","brandFilterCode":"moldova-in-bucate-b2913","sku":"100146737","price":19.49,"originalPrice":null,"currencyCode":"RON","currency":"Lei","image":{"thumbnail":{"default":"https://cdn.freshful.ro/media/cache/sylius_shop_product_thumbnail/73/50/668d674f3d32dcfe7650fb14b9ee.jpg"},"large":{"default":"https://cdn.freshful.ro/media/cache/freshful_large/73/50/668d674f3d32dcfe7650fb14b9ee.jpg"},"extralarge":{"default":"https://cdn.freshful.ro/media/cache/sylius_shop_product_original/73/50/668d674f3d32dcfe7650fb14b9ee.jpg"}},"label":null,"tags":[],"isAvailable":true,"maxAvailableQuantity":6,"maxAllowedQuantity":100,"breadcrumbs":[{"code":"5","name":"Mezeluri & ready meals","slug":"5-mezeluri-si-ready-to-cook"},{"code":"501","name":"Mezeluri","slug":"501-mezeluri"},{"code":"50103","name":"Mezeluri de porc","slug":"50103-mezeluri-de-porc"},{"code":"100146737","name":"Piept de porc dichisit din carne de porc 280g","slug":"100146737-moldova-in-bucate-piept-de-porc-dichisit-din-carne-de-porc-280g"}],"activePromotion":null,"saveMe":null,"labels":[],"geniusPrice":null,"geniusUnitPricePerLabel":null,"banner":null,"discountLabel":null,"geniusDiscountLabel":null,"badge":null},{"code":"100146732","variantCode":"100146732","name":"Mușchi file 280g","slug":"100146732-moldova-in-bucate-muschi-file-280g","unitPriceLabel":"57,11 Lei/kg","brand":"Moldova In Bucate","brandCode":"2827","brandFilterCode":"moldova-in-bucate-b2913","sku":"100146732","price":15.99,"originalPrice":null,"currencyCode":"RON","currency":"Lei","image":{"thumbnail":{"default":"https://cdn.freshful.ro/media/cache/sylius_shop_product_thumbnail/de/f2/f0f3f7a181b6c474b1ea861de92d.jpg"},"large":{"default":"https://cdn.freshful.ro/media/cache/freshful_large/de/f2/f0f3f7a181b6c474b1ea861de92d.jpg"},"extralarge":{"default":"https://cdn.freshful.ro/media/cache/sylius_shop_product_original/de/f2/f0f3f7a181b6c474b1ea861de92d.jpg"}},"label":null,"tags":[],"isAvailable":true,"maxAvailableQuantity":67,"maxAllowedQuantity":100,"breadcrumbs":[{"code":"5","name":"Mezeluri & ready meals","slug":"5-mezeluri-si-ready-to-cook"},{"code":"501","name":"Mezeluri","slug":"501-mezeluri"},{"code":"50103","name":"Mezeluri de porc","slug":"50103-mezeluri-de-porc"},{"code":"100146732","name":"Mușchi file 280g","slug":"100146732-moldova-in-bucate-muschi-file-280g"}],"activePromotion":null,"saveMe":null,"labels":[],"geniusPrice":null,"geniusUnitPricePerLabel":null,"banner":null,"discountLabel":null,"geniusDiscountLabel":null,"badge":null},{"code":"100000917","variantCode":"8423389014079","name":"Bacon afumat 2x75g","slug":"100000917-espina-bacon-afumat-2x75g","unitPriceLabel":"129,93 Lei/kg","brand":"Espina","brandCode":"47","brandFilterCode":"espina-b42","sku":"100000917","price":19.49,"originalPrice":null,"currencyCode":"RON","currency":"Lei","image":{"thumbnail":{"default":"https://cdn.freshful.ro/media/cache/sylius_shop_product_thumbnail/d7/92/a9413cfaf4d6003eb911f25bde56.jpg"},"large":{"default":"https://cdn.freshful.ro/media/cache/freshful_large/d7/92/a9413cfaf4d6003eb911f25bde56.jpg"},"extralarge":{"default":"https://cdn.freshful.ro/media/cache/sylius_shop_product_original/d7/92/a9413cfaf4d6003eb911f25bde56.jpg"}},"label":null,"tags":[],"isAvailable":true,"maxAvailableQuantity":61,"maxAllowedQuantity":100,"breadcrumbs":[{"code":"5","name":"Mezeluri & ready meals","slug":"5-mezeluri-si-ready-to-cook"},{"code":"501","name":"Mezeluri","slug":"501-mezeluri"},{"code":"50103","name":"Mezeluri de porc","slug":"50103-mezeluri-de-porc"},{"code":"100000917","name":"Bacon afumat 2x75g","slug":"100000917-espina-bacon-afumat-2x75g"}],"activePromotion":null,"saveMe":null,"labels":[],"geniusPrice":null,"geniusUnitPricePerLabel":null,"banner":null,"discountLabel":null,"geniusDiscountLabel":null,"badge":null},{"code":"100146735","variantCode":"100146735","name":"Mușchi file dichisit din carne de porc 280g","slug":"100146735-moldova-in-bucate-muschi-file-dichisit-din-carne-de-porc-280g","unitPriceLabel":"78,54 Lei/kg","brand":"Moldova In Bucate","brandCode":"2827","brandFilterCode":"moldova-in-bucate-b2913","sku":"100146735","price":21.99,"originalPrice":null,"currencyCode":"RON","currency":"Lei","image":{"thumbnail":{"default":"https://cdn.freshful.ro/media/cache/sylius_shop_product_thumbnail/f8/d3/bc854a53f23415b8c96c6ccac016.jpg"},"large":{"default":"https://cdn.freshful.ro/media/cache/freshful_large/f8/d3/bc854a53f23415b8c96c6ccac016.jpg"},"extralarge":{"default":"https://cdn.freshful.ro/media/cache/sylius_shop_product_original/f8/d3/bc854a53f23415b8c96c6ccac016.jpg"}},"label":null,"tags":[],"isAvailable":true,"maxAvailableQuantity":54,"maxAllowedQuantity":100,"breadcrumbs":[{"code":"5","name":"Mezeluri & ready meals","slug":"5-mezeluri-si-ready-to-cook"},{"code":"501","name":"Mezeluri","slug":"501-mezeluri"},{"code":"50103","name":"Mezeluri de porc","slug":"50103-mezeluri-de-porc"},{"code":"100146735","name":"Mușchi file dichisit din carne de porc 280g","slug":"100146735-moldova-in-bucate-muschi-file-dichisit-din-carne-de-porc-280g"}],"activePromotion":null,"saveMe":null,"labels":[],"geniusPrice":null,"geniusUnitPricePerLabel":null,"banner":null,"discountLabel":null,"geniusDiscountLabel":null,"badge":null},{"code":"100146736","variantCode":"100146736","name":"Ceafă dichisită din carne de porc 280g","slug":"100146736-moldova-in-bucate-ceafa-dichisita-din-carne-de-porc-280g","unitPriceLabel":"78,54 Lei/kg","brand":"Moldova In Bucate","brandCode":"2827","brandFilterCode":"moldova-in-bucate-b2913","sku":"100146736","price":21.99,"originalPrice":null,"currencyCode":"RON","currency":"Lei","image":{"thumbnail":{"default":"https://cdn.freshful.ro/media/cache/sylius_shop_product_thumbnail/02/6a/9c0c3a9589e28e2cb78019d24abc.jpg"},"large":{"default":"https://cdn.freshful.ro/media/cache/freshful_large/02/6a/9c0c3a9589e28e2cb78019d24abc.jpg"},"extralarge":{"default":"https://cdn.freshful.ro/media/cache/sylius_shop_product_original/02/6a/9c0c3a9589e28e2cb78019d24abc.jpg"}},"label":null,"tags":[],"isAvailable":true,"maxAvailableQuantity":31,"maxAllowedQuantity":100,"breadcrumbs":[{"code":"5","name":"Mezeluri & ready meals","slug":"5-mezeluri-si-ready-to-cook"},{"code":"501","name":"Mezeluri","slug":"501-mezeluri"},{"code":"50103","name":"Mezeluri de porc","slug":"50103-mezeluri-de-porc"},{"code":"100146736","name":"Ceafă dichisită din carne de porc 280g","slug":"100146736-moldova-in-bucate-ceafa-dichisita-din-carne-de-porc-280g"}],"activePromotion":null,"saveMe":null,"labels":[],"geniusPrice":null,"geniusUnitPricePerLabel":null,"banner":null,"discountLabel":null,"geniusDiscountLabel":null,"badge":null},{"code":"100132579","variantCode":"100132579","name":"Mușchi file afumat 420g","slug":"100132579-batranu-sas-muschi-file-afumat-420g","unitPriceLabel":"102,36 Lei/kg","brand":"Bătrânu' Sas","brandCode":"756","brandFilterCode":"batranu-sas-b757","sku":"100132579","price":42.99,"originalPrice":null,"currencyCode":"RON","currency":"Lei","image":{"thumbnail":{"default":"https://cdn.freshful.ro/media/cache/sylius_shop_product_thumbnail/7e/70/d0b7c99d97e43f71307c47faf3f6.jpg"},"large":{"default":"https://cdn.freshful.ro/media/cache/freshful_large/7e/70/d0b7c99d97e43f71307c47faf3f6.jpg"},"extralarge":{"default":"https://cdn.freshful.ro/media/cache/sylius_shop_product_original/7e/70/d0b7c99d97e43f71307c47faf3f6.jpg"}},"label":{"text":"Mici producători","backgroundColor":"#7B61FF","textColor":"#FFFFFF"},"tags":[],"isAvailable":true,"maxAvailableQuantity":21,"maxAllowedQuantity":100,"breadcrumbs":[{"code":"5","name":"Mezeluri & ready meals","slug":"5-mezeluri-si-ready-to-cook"},{"code":"501","name":"Mezeluri","slug":"501-mezeluri"},{"code":"50103","name":"Mezeluri de porc","slug":"50103-mezeluri-de-porc"},{"code":"100132579","name":"Mușchi file afumat 420g","slug":"100132579-batranu-sas-muschi-file-afumat-420g"}],"activePromotion":null,"saveMe":null,"labels":[{"type":"v1","items":[{"text":"Mici producători","backgroundColor":"#7B61FF","textColor":"#FFFFFF"}]}],"geniusPrice":null,"geniusUnitPricePerLabel":null,"banner":null,"discountLabel":null,"geniusDiscountLabel":null,"badge":null},{"code":"100132586","variantCode":"100132586","name":"Pecie crud uscată 350g","slug":"100132586-batranu-sas-pecie-crud-uscata-350g","unitPriceLabel":"128,54 Lei/kg","brand":"Bătrânu' Sas","brandCode":"756","brandFilterCode":"batranu-sas-b757","sku":"100132586","price":44.99,"originalPrice":null,"currencyCode":"RON","currency":"Lei","image":{"thumbnail":{"default":"https://cdn.freshful.ro/media/cache/sylius_shop_product_thumbnail/da/22/b0598a95fa33bf990be748f61a02.jpg"},"large":{"default":"https://cdn.freshful.ro/media/cache/freshful_large/da/22/b0598a95fa33bf990be748f61a02.jpg"},"extralarge":{"default":"https://cdn.freshful.ro/media/cache/sylius_shop_product_original/da/22/b0598a95fa33bf990be748f61a02.jpg"}},"label":{"text":"Mici producători","backgroundColor":"#7B61FF","textColor":"#FFFFFF"},"tags":[],"isAvailable":true,"maxAvailableQuantity":16,"maxAllowedQuantity":100,"breadcrumbs":[{"code":"5","name":"Mezeluri & ready meals","slug":"5-mezeluri-si-ready-to-cook"},{"code":"501","name":"Mezeluri","slug":"501-mezeluri"},{"code":"50103","name":"Mezeluri de porc","slug":"50103-mezeluri-de-porc"},{"code":"100132586","name":"Pecie crud uscată 350g","slug":"100132586-batranu-sas-pecie-crud-uscata-350g"}],"activePromotion":null,"saveMe":null,"labels":[{"type":"v1","items":[{"text":"Mici producători","backgroundColor":"#7B61FF","textColor":"#FFFFFF"}]}],"geniusPrice":null,"geniusUnitPricePerLabel":null,"banner":null,"discountLabel":null,"geniusDiscountLabel":null,"badge":null},{"code":"100132580","variantCode":"100132580","name":"Mușchi file învelit cu usturoi 420g","slug":"100132580-batranu-sas-muschi-file-invelit-cu-usturoi-420g","unitPriceLabel":"116,64 Lei/kg","brand":"Bătrânu' Sas","brandCode":"756","brandFilterCode":"batranu-sas-b757","sku":"100132580","price":48.99,"originalPrice":null,"currencyCode":"RON","currency":"Lei","image":{"thumbnail":{"default":"https://cdn.freshful.ro/media/cache/sylius_shop_product_thumbnail/fb/70/b0ebda54afb8ba44e666fb12d966.jpg"},"large":{"default":"https://cdn.freshful.ro/media/cache/freshful_large/fb/70/b0ebda54afb8ba44e666fb12d966.jpg"},"extralarge":{"default":"https://cdn.freshful.ro/media/cache/sylius_shop_product_original/fb/70/b0ebda54afb8ba44e666fb12d966.jpg"}},"label":{"text":"Mici producători","backgroundColor":"#7B61FF","textColor":"#FFFFFF"},"tags":[],"isAvailable":true,"maxAvailableQuantity":19,"maxAllowedQuantity":100,"breadcrumbs":[{"code":"5","name":"Mezeluri & ready meals","slug":"5-mezeluri-si-ready-to-cook"},{"code":"501","name":"Mezeluri","slug":"501-mezeluri"},{"code":"50103","name":"Mezeluri de porc","slug":"50103-mezeluri-de-porc"},{"code":"100132580","name":"Mușchi file învelit cu usturoi 420g","slug":"100132580-batranu-sas-muschi-file-invelit-cu-usturoi-420g"}],"activePromotion":null,"saveMe":null,"labels":[{"type":"v1","items":[{"text":"Mici producători","backgroundColor":"#7B61FF","textColor":"#FFFFFF"}]}],"geniusPrice":null,"geniusUnitPricePerLabel":null,"banner":null,"discountLabel":null,"geniusDiscountLabel":null,"badge":null}],"filters":{"countSelected":0,"items":[{"code":"brand","name":"Brand","countSelected":0,"values":[{"code":"alazor-b3015","name":"Alazor","isSelected":false,"count":1},{"code":"batranu-sas-b757","name":"Bătrânu' Sas","isSelected":false,"count":3},{"code":"espina-b42","name":"Espina","isSelected":false,"count":1},{"code":"la-finca-by-alioli-b2468","name":"La Finca By Alioli","isSelected":false,"count":1},{"code":"moldova-in-bucate-b2913","name":"Moldova In Bucate","isSelected":false,"count":7},{"code":"mos-iosif-b701","name":"Moș Iosif","isSelected":false,"count":1},{"code":"nico-pata-negra-b2469","name":"Nico Pata Negra","isSelected":false,"count":1}]},{"code":"diet_lifestyle","name":"Dietă și lifestyle","countSelected":0,"values":[{"code":"made-in-romania-a85","name":"Made In Romania","isSelected":false,"count":1}]}]},"orderBy":[{"field":"price","direction":"asc","name":"Preț crescător","isSelected":false},{"field":"price","direction":"desc","name":"Preț descrescător","isSelected":false},{"field":"popularity","direction":"desc","name":"Cele mai populare","isSelected":true},{"field":"category","direction":"asc","name":"Categorie","isSelected":false}],"metaTitle":"Mezeluri de porc - Gamă variată","metaDescription":"Vrei Mezeluri de porc? Alege dintr-o gamă variată. Comanzi simplu și ai livrare rapidă, calitate și prospețime. Hai pe Freshful.ro","metaKeywords":null,"banners":[]}}