{"type":"subcategory","payload":{"analyticsListId":"category_50110-mezeluri-de-specialitate","analyticsListName":"Category - Mezeluri de specialitate","name":"Mezeluri de specialitate","slug":"50110-mezeluri-de-specialitate","image":null,"breadcrumbs":[{"code":"5","name":"Mezeluri & ready meals","slug":"5-mezeluri-si-ready-to-cook"},{"code":"501","name":"Mezeluri","slug":"501-mezeluri"},{"code":"50110","name":"Mezeluri de specialitate","slug":"50110-mezeluri-de-specialitate"}],"slots":[],"page":1,"limit":10,"pages":3,"count":21,"siblings":[{"name":"Mezeluri","slug":"501-mezeluri","selected":true},{"name":"Mezeluri feliate","slug":"502-mezeluri-feliate","selected":false},{"name":"Pizza și aluat","slug":"503-pizza-si-aluat","selected":false},{"name":"Paste proaspete","slug":"504-paste-proaspete","selected":false},{"name":"Ready meals","slug":"505-ready-meal","selected":false}],"children":[{"name":"Toate produsele","slug":"501-mezeluri","selected":false},{"name":"Șuncă presată","slug":"50101-sunca-presata","selected":false},{"name":"Mezeluri pe bază de slănină","slug":"50102-mezeluri-pe-baza-de-slanina","selected":false},{"name":"Mezeluri de porc","slug":"50103-mezeluri-de-porc","selected":false},{"name":"Mezeluri de pasăre","slug":"50104-mezeluri-de-pasare","selected":false},{"name":"Mezeluri de vită","slug":"50106-mezeluri-de-vita","selected":false},{"name":"Crenvurști","slug":"50107-crenvursti","selected":false},{"name":"Cârnați","slug":"50108-carnati","selected":false},{"name":"Paté","slug":"50109-pateuri","selected":false},{"name":"Mezeluri de specialitate","slug":"50110-mezeluri-de-specialitate","selected":true},{"name":"Salam","slug":"50112-salam","selected":false},{"name":"Parizer","slug":"50113-parizer","selected":false},{"name":"Mezeluri ECO","slug":"mezeluri-eco","selected":false}],"products":[{"code":"100045012","variantCode":"5941772002845","name":"Snacks șoric 100g","slug":"100045012-marcel-snacks-soric-100g","unitPriceLabel":"69,9 Lei/kg","brand":"Marcel","brandCode":"825","brandFilterCode":"marcel-b826","sku":"100045012","price":6.99,"originalPrice":9.49,"currencyCode":"RON","currency":"Lei","image":{"thumbnail":{"default":"https://cdn.freshful.ro/media/cache/sylius_shop_product_thumbnail/34/94/8ac22091f6506611041d027e4d21.jpg"},"large":{"default":"https://cdn.freshful.ro/media/cache/freshful_large/34/94/8ac22091f6506611041d027e4d21.jpg"},"extralarge":{"default":"https://cdn.freshful.ro/media/cache/sylius_shop_product_original/34/94/8ac22091f6506611041d027e4d21.jpg"}},"label":{"text":"-26%","backgroundColor":"#FF9903","textColor":"#FFFFFF"},"tags":[{"type":"MadeInRomania","text":"Made In Romania","icon":"https://cdn.freshful.ro/assets/product_tags/made_in_romania.svg","iconPng":"https://cdn.freshful.ro/assets/product_tags/made_in_romania.png","backgroundColor":"#EDF2FD","textColor":"#1653CA"}],"isAvailable":true,"maxAvailableQuantity":2,"maxAllowedQuantity":2,"breadcrumbs":[{"code":"5","name":"Mezeluri & ready meals","slug":"5-mezeluri-si-ready-to-cook"},{"code":"501","name":"Mezeluri","slug":"501-mezeluri"},{"code":"50110","name":"Mezeluri de specialitate","slug":"50110-mezeluri-de-specialitate"},{"code":"100045012","name":"Snacks șoric 100g","slug":"100045012-marcel-snacks-soric-100g"}],"activePromotion":{"code":"bunatatile-saptamanii-cw0923","name":"Preț redus","targetQuantity":null},"saveMe":null,"labels":[{"type":"v1","items":[{"text":"-26%","backgroundColor":"#FF9903","textColor":"#FFFFFF"}]}],"geniusPrice":null,"geniusUnitPricePerLabel":null,"banner":{"text":"Super preț","textColor":"#FF0000","bgColor":"#FFF2EC","icon":null,"link":"https://www.freshful.ro/oferte/bunatatile-saptamanii-cw0923","type":"promo","analyticsEventType":"select_promotion","analyticsEventPayload":{"promotion_id":"bunatatile-saptamanii-cw0923","promotion_name":"Oferta proaspătă a săptămânii"}},"discountLabel":"Economisești 26%","geniusDiscountLabel":null,"badge":null},{"code":"100087268","variantCode":"100087268","name":"Șoric porc pârlit rulat 200g ","slug":"100087268-ploo-n-gura-soric-porc-parlit-rulat-200g","unitPriceLabel":"87,45 Lei/kg","brand":"Ploo-N Gură","brandCode":"886","brandFilterCode":"ploo-n-gura-b887","sku":"100087268","price":17.49,"originalPrice":null,"currencyCode":"RON","currency":"Lei","image":{"thumbnail":{"default":"https://cdn.freshful.ro/media/cache/sylius_shop_product_thumbnail/9f/94/efe801c131731d3c2eae58a63b28.jpg"},"large":{"default":"https://cdn.freshful.ro/media/cache/freshful_large/9f/94/efe801c131731d3c2eae58a63b28.jpg"},"extralarge":{"default":"https://cdn.freshful.ro/media/cache/sylius_shop_product_original/9f/94/efe801c131731d3c2eae58a63b28.jpg"}},"label":{"text":"Mici producători","backgroundColor":"#7B61FF","textColor":"#FFFFFF"},"tags":[{"type":"MadeInRomania","text":"Made In Romania","icon":"https://cdn.freshful.ro/assets/product_tags/made_in_romania.svg","iconPng":"https://cdn.freshful.ro/assets/product_tags/made_in_romania.png","backgroundColor":"#EDF2FD","textColor":"#1653CA"}],"isAvailable":true,"maxAvailableQuantity":2,"maxAllowedQuantity":2,"breadcrumbs":[{"code":"5","name":"Mezeluri & ready meals","slug":"5-mezeluri-si-ready-to-cook"},{"code":"501","name":"Mezeluri","slug":"501-mezeluri"},{"code":"50110","name":"Mezeluri de specialitate","slug":"50110-mezeluri-de-specialitate"},{"code":"100087268","name":"Șoric porc pârlit rulat 200g ","slug":"100087268-ploo-n-gura-soric-porc-parlit-rulat-200g"}],"activePromotion":null,"saveMe":null,"labels":[{"type":"v1","items":[{"text":"Mici producători","backgroundColor":"#7B61FF","textColor":"#FFFFFF"}]}],"geniusPrice":null,"geniusUnitPricePerLabel":null,"banner":null,"discountLabel":null,"geniusDiscountLabel":null,"badge":null},{"code":"100087270","variantCode":"100087270","name":"Urechi coapte feliate și condimentate 200g","slug":"100087270-ploo-n-gura-urechi-coapte-feliate-si-condimentate-200g","unitPriceLabel":"92,45 Lei/kg","brand":"Ploo-N Gură","brandCode":"886","brandFilterCode":"ploo-n-gura-b887","sku":"100087270","price":18.49,"originalPrice":null,"currencyCode":"RON","currency":"Lei","image":{"thumbnail":{"default":"https://cdn.freshful.ro/media/cache/sylius_shop_product_thumbnail/9a/56/f25f805f84c7310f860965d3edd0.jpg"},"large":{"default":"https://cdn.freshful.ro/media/cache/freshful_large/9a/56/f25f805f84c7310f860965d3edd0.jpg"},"extralarge":{"default":"https://cdn.freshful.ro/media/cache/sylius_shop_product_original/9a/56/f25f805f84c7310f860965d3edd0.jpg"}},"label":{"text":"Mici producători","backgroundColor":"#7B61FF","textColor":"#FFFFFF"},"tags":[{"type":"MadeInRomania","text":"Made In Romania","icon":"https://cdn.freshful.ro/assets/product_tags/made_in_romania.svg","iconPng":"https://cdn.freshful.ro/assets/product_tags/made_in_romania.png","backgroundColor":"#EDF2FD","textColor":"#1653CA"}],"isAvailable":true,"maxAvailableQuantity":2,"maxAllowedQuantity":2,"breadcrumbs":[{"code":"5","name":"Mezeluri & ready meals","slug":"5-mezeluri-si-ready-to-cook"},{"code":"501","name":"Mezeluri","slug":"501-mezeluri"},{"code":"50110","name":"Mezeluri de specialitate","slug":"50110-mezeluri-de-specialitate"},{"code":"100087270","name":"Urechi coapte feliate și condimentate 200g","slug":"100087270-ploo-n-gura-urechi-coapte-feliate-si-condimentate-200g"}],"activePromotion":null,"saveMe":null,"labels":[{"type":"v1","items":[{"text":"Mici producători","backgroundColor":"#7B61FF","textColor":"#FFFFFF"}]}],"geniusPrice":null,"geniusUnitPricePerLabel":null,"banner":null,"discountLabel":null,"geniusDiscountLabel":null,"badge":null},{"code":"100045856","variantCode":"100045856","name":"Tobă Mangaliță 290g","slug":"100045856-zimbria-toba-mangalita-290g","unitPriceLabel":"124,1 Lei/kg","brand":"Zimbria","brandCode":"205","brandFilterCode":"zimbria-b206","sku":"100045856","price":35.99,"originalPrice":null,"currencyCode":"RON","currency":"Lei","image":{"thumbnail":{"default":"https://cdn.freshful.ro/media/cache/sylius_shop_product_thumbnail/0b/f4/bfea41b4129a65bc3b69117c2306.jpg"},"large":{"default":"https://cdn.freshful.ro/media/cache/freshful_large/0b/f4/bfea41b4129a65bc3b69117c2306.jpg"},"extralarge":{"default":"https://cdn.freshful.ro/media/cache/sylius_shop_product_original/0b/f4/bfea41b4129a65bc3b69117c2306.jpg"}},"label":{"text":"Mici producători","backgroundColor":"#7B61FF","textColor":"#FFFFFF"},"tags":[{"type":"MadeInRomania","text":"Made In Romania","icon":"https://cdn.freshful.ro/assets/product_tags/made_in_romania.svg","iconPng":"https://cdn.freshful.ro/assets/product_tags/made_in_romania.png","backgroundColor":"#EDF2FD","textColor":"#1653CA"}],"isAvailable":true,"maxAvailableQuantity":18,"maxAllowedQuantity":100,"breadcrumbs":[{"code":"5","name":"Mezeluri & ready meals","slug":"5-mezeluri-si-ready-to-cook"},{"code":"501","name":"Mezeluri","slug":"501-mezeluri"},{"code":"50110","name":"Mezeluri de specialitate","slug":"50110-mezeluri-de-specialitate"},{"code":"100045856","name":"Tobă Mangaliță 290g","slug":"100045856-zimbria-toba-mangalita-290g"}],"activePromotion":null,"saveMe":null,"labels":[{"type":"v1","items":[{"text":"Mici producători","backgroundColor":"#7B61FF","textColor":"#FFFFFF"}]}],"geniusPrice":null,"geniusUnitPricePerLabel":null,"banner":null,"discountLabel":null,"geniusDiscountLabel":null,"badge":null},{"code":"100105094","variantCode":"100105094","name":"Carne la garniță 450g","slug":"100105094-angst-carne-la-garnita-450g","unitPriceLabel":"66,64 Lei/kg","brand":"Angst","brandCode":"217","brandFilterCode":"angst-b218","sku":"100105094","price":29.99,"originalPrice":null,"currencyCode":"RON","currency":"Lei","image":{"thumbnail":{"default":"https://cdn.freshful.ro/media/cache/sylius_shop_product_thumbnail/94/92/4a94bf10e7282fd58ef2042783c7.jpg"},"large":{"default":"https://cdn.freshful.ro/media/cache/freshful_large/94/92/4a94bf10e7282fd58ef2042783c7.jpg"},"extralarge":{"default":"https://cdn.freshful.ro/media/cache/sylius_shop_product_original/94/92/4a94bf10e7282fd58ef2042783c7.jpg"}},"label":null,"tags":[],"isAvailable":true,"maxAvailableQuantity":19,"maxAllowedQuantity":100,"breadcrumbs":[{"code":"5","name":"Mezeluri & ready meals","slug":"5-mezeluri-si-ready-to-cook"},{"code":"501","name":"Mezeluri","slug":"501-mezeluri"},{"code":"50110","name":"Mezeluri de specialitate","slug":"50110-mezeluri-de-specialitate"},{"code":"100105094","name":"Carne la garniță 450g","slug":"100105094-angst-carne-la-garnita-450g"}],"activePromotion":null,"saveMe":null,"labels":[],"geniusPrice":null,"geniusUnitPricePerLabel":null,"banner":null,"discountLabel":null,"geniusDiscountLabel":null,"badge":null},{"code":"100044811","variantCode":"100044811","name":"Salam cu carne de mistreț feliat 80g","slug":"100044811-silvania-gourmet-salam-cu-carne-de-mistret-feliat-80g","unitPriceLabel":"149,88 Lei/kg","brand":"Silvania Gourmet","brandCode":"495","brandFilterCode":"silvania-gourmet-b496","sku":"100044811","price":11.99,"originalPrice":null,"currencyCode":"RON","currency":"Lei","image":{"thumbnail":{"default":"https://cdn.freshful.ro/media/cache/sylius_shop_product_thumbnail/b6/44/4b0e52dcd1ace8dff6ae3f205411.jpg"},"large":{"default":"https://cdn.freshful.ro/media/cache/freshful_large/b6/44/4b0e52dcd1ace8dff6ae3f205411.jpg"},"extralarge":{"default":"https://cdn.freshful.ro/media/cache/sylius_shop_product_original/b6/44/4b0e52dcd1ace8dff6ae3f205411.jpg"}},"label":null,"tags":[{"type":"NoE","text":"Fara E-uri","icon":"https://cdn.freshful.ro/assets/product_tags/fara_euri.svg","iconPng":"https://cdn.freshful.ro/assets/product_tags/fara_euri.png","backgroundColor":"#FCF5DF","textColor":"#CAA316"}],"isAvailable":true,"maxAvailableQuantity":36,"maxAllowedQuantity":100,"breadcrumbs":[{"code":"5","name":"Mezeluri & ready meals","slug":"5-mezeluri-si-ready-to-cook"},{"code":"501","name":"Mezeluri","slug":"501-mezeluri"},{"code":"50110","name":"Mezeluri de specialitate","slug":"50110-mezeluri-de-specialitate"},{"code":"100044811","name":"Salam cu carne de mistreț feliat 80g","slug":"100044811-silvania-gourmet-salam-cu-carne-de-mistret-feliat-80g"}],"activePromotion":null,"saveMe":null,"labels":[],"geniusPrice":null,"geniusUnitPricePerLabel":null,"banner":null,"discountLabel":null,"geniusDiscountLabel":null,"badge":null},{"code":"100045857","variantCode":"100045857","name":"Tobă 290g","slug":"100045857-zimbria-toba-290g","unitPriceLabel":"120,66 Lei/kg","brand":"Zimbria","brandCode":"205","brandFilterCode":"zimbria-b206","sku":"100045857","price":34.99,"originalPrice":null,"currencyCode":"RON","currency":"Lei","image":{"thumbnail":{"default":"https://cdn.freshful.ro/media/cache/sylius_shop_product_thumbnail/26/3e/17468f1f5685d69751613b96fe4e.jpg"},"large":{"default":"https://cdn.freshful.ro/media/cache/freshful_large/26/3e/17468f1f5685d69751613b96fe4e.jpg"},"extralarge":{"default":"https://cdn.freshful.ro/media/cache/sylius_shop_product_original/26/3e/17468f1f5685d69751613b96fe4e.jpg"}},"label":{"text":"Mici producători","backgroundColor":"#7B61FF","textColor":"#FFFFFF"},"tags":[{"type":"MadeInRomania","text":"Made In Romania","icon":"https://cdn.freshful.ro/assets/product_tags/made_in_romania.svg","iconPng":"https://cdn.freshful.ro/assets/product_tags/made_in_romania.png","backgroundColor":"#EDF2FD","textColor":"#1653CA"}],"isAvailable":true,"maxAvailableQuantity":6,"maxAllowedQuantity":100,"breadcrumbs":[{"code":"5","name":"Mezeluri & ready meals","slug":"5-mezeluri-si-ready-to-cook"},{"code":"501","name":"Mezeluri","slug":"501-mezeluri"},{"code":"50110","name":"Mezeluri de specialitate","slug":"50110-mezeluri-de-specialitate"},{"code":"100045857","name":"Tobă 290g","slug":"100045857-zimbria-toba-290g"}],"activePromotion":null,"saveMe":null,"labels":[{"type":"v1","items":[{"text":"Mici producători","backgroundColor":"#7B61FF","textColor":"#FFFFFF"}]}],"geniusPrice":null,"geniusUnitPricePerLabel":null,"banner":null,"discountLabel":null,"geniusDiscountLabel":null,"badge":null},{"code":"100146743","variantCode":"100146743","name":"Tochitură moldovenească 350g","slug":"100146743-moldova-in-bucate-tochitura-moldoveneasca-350g","unitPriceLabel":"57,11 Lei/kg","brand":"Moldova In Bucate","brandCode":"2827","brandFilterCode":"moldova-in-bucate-b2913","sku":"100146743","price":19.99,"originalPrice":null,"currencyCode":"RON","currency":"Lei","image":{"thumbnail":{"default":"https://cdn.freshful.ro/media/cache/sylius_shop_product_thumbnail/cb/56/c294fd705ab9ee7ef2c94206c352.jpg"},"large":{"default":"https://cdn.freshful.ro/media/cache/freshful_large/cb/56/c294fd705ab9ee7ef2c94206c352.jpg"},"extralarge":{"default":"https://cdn.freshful.ro/media/cache/sylius_shop_product_original/cb/56/c294fd705ab9ee7ef2c94206c352.jpg"}},"label":null,"tags":[],"isAvailable":true,"maxAvailableQuantity":100,"maxAllowedQuantity":100,"breadcrumbs":[{"code":"5","name":"Mezeluri & ready meals","slug":"5-mezeluri-si-ready-to-cook"},{"code":"501","name":"Mezeluri","slug":"501-mezeluri"},{"code":"50110","name":"Mezeluri de specialitate","slug":"50110-mezeluri-de-specialitate"},{"code":"100146743","name":"Tochitură moldovenească 350g","slug":"100146743-moldova-in-bucate-tochitura-moldoveneasca-350g"}],"activePromotion":null,"saveMe":null,"labels":[],"geniusPrice":null,"geniusUnitPricePerLabel":null,"banner":null,"discountLabel":null,"geniusDiscountLabel":null,"badge":null},{"code":"100113675","variantCode":"100113675","name":"Carne afumată la garniță 450g","slug":"100113675-ca-altadata-carne-afumata-la-garnita-450g","unitPriceLabel":"79,98 Lei/kg","brand":"Ca Altădată","brandCode":"1786","brandFilterCode":"ca-altadata-b1790","sku":"100113675","price":35.99,"originalPrice":null,"currencyCode":"RON","currency":"Lei","image":{"thumbnail":{"default":"https://cdn.freshful.ro/media/cache/sylius_shop_product_thumbnail/fb/0b/a1e9ee8ef09b0e031af8e7ec9a54.jpg"},"large":{"default":"https://cdn.freshful.ro/media/cache/freshful_large/fb/0b/a1e9ee8ef09b0e031af8e7ec9a54.jpg"},"extralarge":{"default":"https://cdn.freshful.ro/media/cache/sylius_shop_product_original/fb/0b/a1e9ee8ef09b0e031af8e7ec9a54.jpg"}},"label":null,"tags":[],"isAvailable":true,"maxAvailableQuantity":100,"maxAllowedQuantity":100,"breadcrumbs":[{"code":"5","name":"Mezeluri & ready meals","slug":"5-mezeluri-si-ready-to-cook"},{"code":"501","name":"Mezeluri","slug":"501-mezeluri"},{"code":"50110","name":"Mezeluri de specialitate","slug":"50110-mezeluri-de-specialitate"},{"code":"100113675","name":"Carne afumată la garniță 450g","slug":"100113675-ca-altadata-carne-afumata-la-garnita-450g"}],"activePromotion":null,"saveMe":null,"labels":[],"geniusPrice":null,"geniusUnitPricePerLabel":null,"banner":null,"discountLabel":null,"geniusDiscountLabel":null,"badge":null},{"code":"100044799","variantCode":"100044799","name":"Salam cu carne de cerb 200g","slug":"100044799-silvania-gourmet-salam-cu-carne-de-cerb-200g","unitPriceLabel":"97,45 Lei/kg","brand":"Silvania Gourmet","brandCode":"495","brandFilterCode":"silvania-gourmet-b496","sku":"100044799","price":19.49,"originalPrice":null,"currencyCode":"RON","currency":"Lei","image":{"thumbnail":{"default":"https://cdn.freshful.ro/media/cache/sylius_shop_product_thumbnail/7d/95/68e4aae8a4eb4e1e4ac5a8c73eed.jpg"},"large":{"default":"https://cdn.freshful.ro/media/cache/freshful_large/7d/95/68e4aae8a4eb4e1e4ac5a8c73eed.jpg"},"extralarge":{"default":"https://cdn.freshful.ro/media/cache/sylius_shop_product_original/7d/95/68e4aae8a4eb4e1e4ac5a8c73eed.jpg"}},"label":null,"tags":[{"type":"NoE","text":"Fara E-uri","icon":"https://cdn.freshful.ro/assets/product_tags/fara_euri.svg","iconPng":"https://cdn.freshful.ro/assets/product_tags/fara_euri.png","backgroundColor":"#FCF5DF","textColor":"#CAA316"}],"isAvailable":true,"maxAvailableQuantity":42,"maxAllowedQuantity":100,"breadcrumbs":[{"code":"5","name":"Mezeluri & ready meals","slug":"5-mezeluri-si-ready-to-cook"},{"code":"501","name":"Mezeluri","slug":"501-mezeluri"},{"code":"50110","name":"Mezeluri de specialitate","slug":"50110-mezeluri-de-specialitate"},{"code":"100044799","name":"Salam cu carne de cerb 200g","slug":"100044799-silvania-gourmet-salam-cu-carne-de-cerb-200g"}],"activePromotion":null,"saveMe":null,"labels":[],"geniusPrice":null,"geniusUnitPricePerLabel":null,"banner":null,"discountLabel":null,"geniusDiscountLabel":null,"badge":null}],"filters":{"countSelected":0,"items":[{"code":"promotion","name":"Promoții","countSelected":0,"values":[{"code":"bunatatile-saptamanii-cw0923","name":"Oferta proaspătă a săptămânii","isSelected":false,"count":1}]},{"code":"brand","name":"Brand","countSelected":0,"values":[{"code":"angst-b218","name":"Angst","isSelected":false,"count":1},{"code":"batranu-sas-b757","name":"Bătrânu' Sas","isSelected":false,"count":1},{"code":"ca-altadata-b1790","name":"Ca Altădată","isSelected":false,"count":1},{"code":"marcel-b826","name":"Marcel","isSelected":false,"count":1},{"code":"moldova-in-bucate-b2913","name":"Moldova In Bucate","isSelected":false,"count":1},{"code":"ploo-n-gura-b887","name":"Ploo-N Gură","isSelected":false,"count":2},{"code":"silvania-gourmet-b496","name":"Silvania Gourmet","isSelected":false,"count":12},{"code":"zimbria-b206","name":"Zimbria","isSelected":false,"count":2}]},{"code":"diet_lifestyle","name":"Dietă și lifestyle","countSelected":0,"values":[{"code":"fara-conservanti-a37","name":"Fara conservanti","isSelected":false,"count":2},{"code":"fara-e-uri-a84","name":"Fara E-uri","isSelected":false,"count":9},{"code":"made-in-romania-a85","name":"Made In Romania","isSelected":false,"count":5}]}]},"orderBy":[{"field":"price","direction":"asc","name":"Preț crescător","isSelected":false},{"field":"price","direction":"desc","name":"Preț descrescător","isSelected":false},{"field":"popularity","direction":"desc","name":"Cele mai populare","isSelected":true},{"field":"category","direction":"asc","name":"Categorie","isSelected":false}],"metaTitle":"Mezeluri de specialitate - Gamă variată","metaDescription":"Vrei Mezeluri de specialitate? Alege dintr-o gamă variată. Comanzi simplu și ai livrare rapidă, calitate și prospețime. Hai pe Freshful.ro","metaKeywords":null,"banners":[]}}