{"type":"subcategory","payload":{"analyticsListId":"category_50112-salam","analyticsListName":"Category - Salam","name":"Salam","slug":"50112-salam","image":null,"breadcrumbs":[{"code":"5","name":"Mezeluri & ready meals","slug":"5-mezeluri-si-ready-to-cook"},{"code":"501","name":"Mezeluri","slug":"501-mezeluri"},{"code":"50112","name":"Salam","slug":"50112-salam"}],"slots":[],"page":1,"limit":10,"pages":3,"count":27,"siblings":[{"name":"Mezeluri","slug":"501-mezeluri","selected":true},{"name":"Mezeluri feliate","slug":"502-mezeluri-feliate","selected":false},{"name":"Pizza și aluat","slug":"503-pizza-si-aluat","selected":false},{"name":"Paste proaspete","slug":"504-paste-proaspete","selected":false},{"name":"Ready meals","slug":"505-ready-meal","selected":false}],"children":[{"name":"Toate produsele","slug":"501-mezeluri","selected":false},{"name":"Șuncă presată","slug":"50101-sunca-presata","selected":false},{"name":"Mezeluri pe bază de slănină","slug":"50102-mezeluri-pe-baza-de-slanina","selected":false},{"name":"Mezeluri de porc","slug":"50103-mezeluri-de-porc","selected":false},{"name":"Mezeluri de pasăre","slug":"50104-mezeluri-de-pasare","selected":false},{"name":"Mezeluri de vită","slug":"50106-mezeluri-de-vita","selected":false},{"name":"Crenvurști","slug":"50107-crenvursti","selected":false},{"name":"Cârnați","slug":"50108-carnati","selected":false},{"name":"Paté","slug":"50109-pateuri","selected":false},{"name":"Mezeluri de specialitate","slug":"50110-mezeluri-de-specialitate","selected":false},{"name":"Salam","slug":"50112-salam","selected":true},{"name":"Parizer","slug":"50113-parizer","selected":false},{"name":"Mezeluri ECO","slug":"mezeluri-eco","selected":false}],"products":[{"code":"100000930","variantCode":"5949050300010","name":"Salam Fuet extra 175g","slug":"100000930-espina-salam-fuet-extra-175g","unitPriceLabel":"97,09 Lei/kg","brand":"Espina","brandCode":"47","brandFilterCode":"espina-b42","sku":"100000930","price":16.99,"originalPrice":23.99,"currencyCode":"RON","currency":"Lei","image":{"thumbnail":{"default":"https://cdn.freshful.ro/media/cache/sylius_shop_product_thumbnail/3a/47/0f25ba2c7dafa7c08bbe1c542789.jpg"},"large":{"default":"https://cdn.freshful.ro/media/cache/freshful_large/3a/47/0f25ba2c7dafa7c08bbe1c542789.jpg"},"extralarge":{"default":"https://cdn.freshful.ro/media/cache/sylius_shop_product_original/3a/47/0f25ba2c7dafa7c08bbe1c542789.jpg"}},"label":{"text":"-29%","backgroundColor":"#FF9903","textColor":"#FFFFFF"},"tags":[{"type":"NoGluten","text":"Fara gluten","icon":"https://cdn.freshful.ro/assets/product_tags/fara_gluten.svg","iconPng":"https://cdn.freshful.ro/assets/product_tags/fara_gluten.png","backgroundColor":"#FFF2E5","textColor":"#F07900"}],"isAvailable":true,"maxAvailableQuantity":40,"maxAllowedQuantity":100,"breadcrumbs":[{"code":"5","name":"Mezeluri & ready meals","slug":"5-mezeluri-si-ready-to-cook"},{"code":"501","name":"Mezeluri","slug":"501-mezeluri"},{"code":"50112","name":"Salam","slug":"50112-salam"},{"code":"100000930","name":"Salam Fuet extra 175g","slug":"100000930-espina-salam-fuet-extra-175g"}],"activePromotion":{"code":"bunatatile-saptamanii-cw0923","name":"Preț redus","targetQuantity":null},"saveMe":null,"labels":[{"type":"v1","items":[{"text":"-29%","backgroundColor":"#FF9903","textColor":"#FFFFFF"}]}],"geniusPrice":null,"geniusUnitPricePerLabel":null,"banner":{"text":"Super preț","textColor":"#FF0000","bgColor":"#FFF2EC","icon":null,"link":"https://www.freshful.ro/oferte/bunatatile-saptamanii-cw0923","type":"promo","analyticsEventType":"select_promotion","analyticsEventPayload":{"promotion_id":"bunatatile-saptamanii-cw0923","promotion_name":"Oferta proaspătă a săptămânii"}},"discountLabel":"Economisești 29%","geniusDiscountLabel":null,"badge":null},{"code":"100001829","variantCode":"5941265000419","name":"Mini salam săsesc 350g","slug":"100001829-cris-tim-mini-salam-sasesc-350g","unitPriceLabel":"51,4 Lei/kg","brand":"Cris-Tim","brandCode":"76","brandFilterCode":"cris-tim-b74","sku":"100001829","price":17.99,"originalPrice":null,"currencyCode":"RON","currency":"Lei","image":{"thumbnail":{"default":"https://cdn.freshful.ro/media/cache/sylius_shop_product_thumbnail/2f/6d/78f13c9269873bfd17f35eb8b13f.jpg"},"large":{"default":"https://cdn.freshful.ro/media/cache/freshful_large/2f/6d/78f13c9269873bfd17f35eb8b13f.jpg"},"extralarge":{"default":"https://cdn.freshful.ro/media/cache/sylius_shop_product_original/2f/6d/78f13c9269873bfd17f35eb8b13f.jpg"}},"label":null,"tags":[{"type":"NoGluten","text":"Fara gluten","icon":"https://cdn.freshful.ro/assets/product_tags/fara_gluten.svg","iconPng":"https://cdn.freshful.ro/assets/product_tags/fara_gluten.png","backgroundColor":"#FFF2E5","textColor":"#F07900"}],"isAvailable":true,"maxAvailableQuantity":100,"maxAllowedQuantity":100,"breadcrumbs":[{"code":"5","name":"Mezeluri & ready meals","slug":"5-mezeluri-si-ready-to-cook"},{"code":"501","name":"Mezeluri","slug":"501-mezeluri"},{"code":"50112","name":"Salam","slug":"50112-salam"},{"code":"100001829","name":"Mini salam săsesc 350g","slug":"100001829-cris-tim-mini-salam-sasesc-350g"}],"activePromotion":null,"saveMe":null,"labels":[],"geniusPrice":null,"geniusUnitPricePerLabel":null,"banner":null,"discountLabel":null,"geniusDiscountLabel":null,"badge":null},{"code":"100031479","variantCode":"5941460011395","name":"Salam Sibiu 300g","slug":"100031479-agricola-salam-sibiu-300g","unitPriceLabel":"123,3 Lei/kg","brand":"Agricola","brandCode":"70","brandFilterCode":"agricola-b68","sku":"100031479","price":36.99,"originalPrice":null,"currencyCode":"RON","currency":"Lei","image":{"thumbnail":{"default":"https://cdn.freshful.ro/media/cache/sylius_shop_product_thumbnail/71/e2/77767e70e1153e8febb25f9dcdaa.jpg"},"large":{"default":"https://cdn.freshful.ro/media/cache/freshful_large/71/e2/77767e70e1153e8febb25f9dcdaa.jpg"},"extralarge":{"default":"https://cdn.freshful.ro/media/cache/sylius_shop_product_original/71/e2/77767e70e1153e8febb25f9dcdaa.jpg"}},"label":null,"tags":[],"isAvailable":true,"maxAvailableQuantity":86,"maxAllowedQuantity":100,"breadcrumbs":[{"code":"5","name":"Mezeluri & ready meals","slug":"5-mezeluri-si-ready-to-cook"},{"code":"501","name":"Mezeluri","slug":"501-mezeluri"},{"code":"50112","name":"Salam","slug":"50112-salam"},{"code":"100031479","name":"Salam Sibiu 300g","slug":"100031479-agricola-salam-sibiu-300g"}],"activePromotion":null,"saveMe":null,"labels":[],"geniusPrice":null,"geniusUnitPricePerLabel":null,"banner":null,"discountLabel":null,"geniusDiscountLabel":null,"badge":null},{"code":"100001832","variantCode":"5941265000464","name":"Salam de vară 300g","slug":"100001832-cris-tim-salam-de-vara-300g","unitPriceLabel":"39,63 Lei/kg","brand":"Cris-Tim","brandCode":"76","brandFilterCode":"cris-tim-b74","sku":"100001832","price":11.89,"originalPrice":null,"currencyCode":"RON","currency":"Lei","image":{"thumbnail":{"default":"https://cdn.freshful.ro/media/cache/sylius_shop_product_thumbnail/70/9a/8484d8b852cff198da7ca79cf406.jpg"},"large":{"default":"https://cdn.freshful.ro/media/cache/freshful_large/70/9a/8484d8b852cff198da7ca79cf406.jpg"},"extralarge":{"default":"https://cdn.freshful.ro/media/cache/sylius_shop_product_original/70/9a/8484d8b852cff198da7ca79cf406.jpg"}},"label":null,"tags":[{"type":"NoGluten","text":"Fara gluten","icon":"https://cdn.freshful.ro/assets/product_tags/fara_gluten.svg","iconPng":"https://cdn.freshful.ro/assets/product_tags/fara_gluten.png","backgroundColor":"#FFF2E5","textColor":"#F07900"}],"isAvailable":true,"maxAvailableQuantity":75,"maxAllowedQuantity":100,"breadcrumbs":[{"code":"5","name":"Mezeluri & ready meals","slug":"5-mezeluri-si-ready-to-cook"},{"code":"501","name":"Mezeluri","slug":"501-mezeluri"},{"code":"50112","name":"Salam","slug":"50112-salam"},{"code":"100001832","name":"Salam de vară 300g","slug":"100001832-cris-tim-salam-de-vara-300g"}],"activePromotion":null,"saveMe":null,"labels":[],"geniusPrice":null,"geniusUnitPricePerLabel":null,"banner":null,"discountLabel":null,"geniusDiscountLabel":null,"badge":null},{"code":"100031481","variantCode":"5941460012118","name":"Salam uscat 200g","slug":"100031481-agricola-salam-uscat-200g","unitPriceLabel":"54,45 Lei/kg","brand":"Agricola","brandCode":"70","brandFilterCode":"agricola-b68","sku":"100031481","price":10.89,"originalPrice":null,"currencyCode":"RON","currency":"Lei","image":{"thumbnail":{"default":"https://cdn.freshful.ro/media/cache/sylius_shop_product_thumbnail/86/69/2f2a56c2e0c75055c5575c59e523.jpg"},"large":{"default":"https://cdn.freshful.ro/media/cache/freshful_large/86/69/2f2a56c2e0c75055c5575c59e523.jpg"},"extralarge":{"default":"https://cdn.freshful.ro/media/cache/sylius_shop_product_original/86/69/2f2a56c2e0c75055c5575c59e523.jpg"}},"label":null,"tags":[],"isAvailable":true,"maxAvailableQuantity":60,"maxAllowedQuantity":100,"breadcrumbs":[{"code":"5","name":"Mezeluri & ready meals","slug":"5-mezeluri-si-ready-to-cook"},{"code":"501","name":"Mezeluri","slug":"501-mezeluri"},{"code":"50112","name":"Salam","slug":"50112-salam"},{"code":"100031481","name":"Salam uscat 200g","slug":"100031481-agricola-salam-uscat-200g"}],"activePromotion":null,"saveMe":null,"labels":[],"geniusPrice":null,"geniusUnitPricePerLabel":null,"banner":null,"discountLabel":null,"geniusDiscountLabel":null,"badge":null},{"code":"100001833","variantCode":"5941265020400","name":"Salam de Sibiu IGP 350g","slug":"100001833-cris-tim-salam-de-sibiu-igp-350g","unitPriceLabel":"94,26 Lei/kg","brand":"Cris-Tim","brandCode":"76","brandFilterCode":"cris-tim-b74","sku":"100001833","price":32.99,"originalPrice":null,"currencyCode":"RON","currency":"Lei","image":{"thumbnail":{"default":"https://cdn.freshful.ro/media/cache/sylius_shop_product_thumbnail/76/e9/83a9dbe73edd4c832616e05d6303.jpg"},"large":{"default":"https://cdn.freshful.ro/media/cache/freshful_large/76/e9/83a9dbe73edd4c832616e05d6303.jpg"},"extralarge":{"default":"https://cdn.freshful.ro/media/cache/sylius_shop_product_original/76/e9/83a9dbe73edd4c832616e05d6303.jpg"}},"label":null,"tags":[],"isAvailable":true,"maxAvailableQuantity":100,"maxAllowedQuantity":100,"breadcrumbs":[{"code":"5","name":"Mezeluri & ready meals","slug":"5-mezeluri-si-ready-to-cook"},{"code":"501","name":"Mezeluri","slug":"501-mezeluri"},{"code":"50112","name":"Salam","slug":"50112-salam"},{"code":"100001833","name":"Salam de Sibiu IGP 350g","slug":"100001833-cris-tim-salam-de-sibiu-igp-350g"}],"activePromotion":null,"saveMe":null,"labels":[],"geniusPrice":null,"geniusUnitPricePerLabel":null,"banner":null,"discountLabel":null,"geniusDiscountLabel":null,"badge":null},{"code":"100045862","variantCode":"100045862","name":"Salam 290g","slug":"100045862-zimbria-salam-290g","unitPriceLabel":"122,38 Lei/kg","brand":"Zimbria","brandCode":"205","brandFilterCode":"zimbria-b206","sku":"100045862","price":35.49,"originalPrice":null,"currencyCode":"RON","currency":"Lei","image":{"thumbnail":{"default":"https://cdn.freshful.ro/media/cache/sylius_shop_product_thumbnail/9d/96/702bc1e89b6045e7610c1cfebfa0.jpg"},"large":{"default":"https://cdn.freshful.ro/media/cache/freshful_large/9d/96/702bc1e89b6045e7610c1cfebfa0.jpg"},"extralarge":{"default":"https://cdn.freshful.ro/media/cache/sylius_shop_product_original/9d/96/702bc1e89b6045e7610c1cfebfa0.jpg"}},"label":{"text":"Mici producători","backgroundColor":"#7B61FF","textColor":"#FFFFFF"},"tags":[{"type":"MadeInRomania","text":"Made In Romania","icon":"https://cdn.freshful.ro/assets/product_tags/made_in_romania.svg","iconPng":"https://cdn.freshful.ro/assets/product_tags/made_in_romania.png","backgroundColor":"#EDF2FD","textColor":"#1653CA"}],"isAvailable":true,"maxAvailableQuantity":38,"maxAllowedQuantity":100,"breadcrumbs":[{"code":"5","name":"Mezeluri & ready meals","slug":"5-mezeluri-si-ready-to-cook"},{"code":"501","name":"Mezeluri","slug":"501-mezeluri"},{"code":"50112","name":"Salam","slug":"50112-salam"},{"code":"100045862","name":"Salam 290g","slug":"100045862-zimbria-salam-290g"}],"activePromotion":null,"saveMe":null,"labels":[{"type":"v1","items":[{"text":"Mici producători","backgroundColor":"#7B61FF","textColor":"#FFFFFF"}]}],"geniusPrice":null,"geniusUnitPricePerLabel":null,"banner":null,"discountLabel":null,"geniusDiscountLabel":null,"badge":null},{"code":"100001834","variantCode":"5941265002840","name":"Salam bănățean 340g","slug":"100001834-cris-tim-salam-banatean-340g","unitPriceLabel":"55,85 Lei/kg","brand":"Cris-Tim","brandCode":"76","brandFilterCode":"cris-tim-b74","sku":"100001834","price":18.99,"originalPrice":null,"currencyCode":"RON","currency":"Lei","image":{"thumbnail":{"default":"https://cdn.freshful.ro/media/cache/sylius_shop_product_thumbnail/2e/20/f63fa5cf548034be9c7320e67788.jpg"},"large":{"default":"https://cdn.freshful.ro/media/cache/freshful_large/2e/20/f63fa5cf548034be9c7320e67788.jpg"},"extralarge":{"default":"https://cdn.freshful.ro/media/cache/sylius_shop_product_original/2e/20/f63fa5cf548034be9c7320e67788.jpg"}},"label":null,"tags":[{"type":"NoGluten","text":"Fara gluten","icon":"https://cdn.freshful.ro/assets/product_tags/fara_gluten.svg","iconPng":"https://cdn.freshful.ro/assets/product_tags/fara_gluten.png","backgroundColor":"#FFF2E5","textColor":"#F07900"}],"isAvailable":true,"maxAvailableQuantity":38,"maxAllowedQuantity":100,"breadcrumbs":[{"code":"5","name":"Mezeluri & ready meals","slug":"5-mezeluri-si-ready-to-cook"},{"code":"501","name":"Mezeluri","slug":"501-mezeluri"},{"code":"50112","name":"Salam","slug":"50112-salam"},{"code":"100001834","name":"Salam bănățean 340g","slug":"100001834-cris-tim-salam-banatean-340g"}],"activePromotion":null,"saveMe":null,"labels":[],"geniusPrice":null,"geniusUnitPricePerLabel":null,"banner":null,"discountLabel":null,"geniusDiscountLabel":null,"badge":null},{"code":"100001830","variantCode":"5941265000396","name":"Salam săsesc 650g","slug":"100001830-cris-tim-salam-sasesc-650g","unitPriceLabel":"53,68 Lei/kg","brand":"Cris-Tim","brandCode":"76","brandFilterCode":"cris-tim-b74","sku":"100001830","price":34.89,"originalPrice":null,"currencyCode":"RON","currency":"Lei","image":{"thumbnail":{"default":"https://cdn.freshful.ro/media/cache/sylius_shop_product_thumbnail/c7/a2/da9febccdde87320231f2370ff54.jpg"},"large":{"default":"https://cdn.freshful.ro/media/cache/freshful_large/c7/a2/da9febccdde87320231f2370ff54.jpg"},"extralarge":{"default":"https://cdn.freshful.ro/media/cache/sylius_shop_product_original/c7/a2/da9febccdde87320231f2370ff54.jpg"}},"label":null,"tags":[{"type":"NoGluten","text":"Fara gluten","icon":"https://cdn.freshful.ro/assets/product_tags/fara_gluten.svg","iconPng":"https://cdn.freshful.ro/assets/product_tags/fara_gluten.png","backgroundColor":"#FFF2E5","textColor":"#F07900"}],"isAvailable":true,"maxAvailableQuantity":27,"maxAllowedQuantity":100,"breadcrumbs":[{"code":"5","name":"Mezeluri & ready meals","slug":"5-mezeluri-si-ready-to-cook"},{"code":"501","name":"Mezeluri","slug":"501-mezeluri"},{"code":"50112","name":"Salam","slug":"50112-salam"},{"code":"100001830","name":"Salam săsesc 650g","slug":"100001830-cris-tim-salam-sasesc-650g"}],"activePromotion":null,"saveMe":null,"labels":[],"geniusPrice":null,"geniusUnitPricePerLabel":null,"banner":null,"discountLabel":null,"geniusDiscountLabel":null,"badge":null},{"code":"100035091","variantCode":"5941597000873","name":"Salam țărănesc cu șuncă 500g","slug":"100035091-fox-salam-taranesc-cu-sunca-500g","unitPriceLabel":"41,98 Lei/kg","brand":"Fox","brandCode":"46","brandFilterCode":"fox-b41","sku":"100035091","price":20.99,"originalPrice":null,"currencyCode":"RON","currency":"Lei","image":{"thumbnail":{"default":"https://cdn.freshful.ro/media/cache/sylius_shop_product_thumbnail/b9/58/aa2bc4e790d87f2ccc1e7301dbd8.jpg"},"large":{"default":"https://cdn.freshful.ro/media/cache/freshful_large/b9/58/aa2bc4e790d87f2ccc1e7301dbd8.jpg"},"extralarge":{"default":"https://cdn.freshful.ro/media/cache/sylius_shop_product_original/b9/58/aa2bc4e790d87f2ccc1e7301dbd8.jpg"}},"label":null,"tags":[],"isAvailable":true,"maxAvailableQuantity":24,"maxAllowedQuantity":100,"breadcrumbs":[{"code":"5","name":"Mezeluri & ready meals","slug":"5-mezeluri-si-ready-to-cook"},{"code":"501","name":"Mezeluri","slug":"501-mezeluri"},{"code":"50112","name":"Salam","slug":"50112-salam"},{"code":"100035091","name":"Salam țărănesc cu șuncă 500g","slug":"100035091-fox-salam-taranesc-cu-sunca-500g"}],"activePromotion":null,"saveMe":null,"labels":[],"geniusPrice":null,"geniusUnitPricePerLabel":null,"banner":null,"discountLabel":null,"geniusDiscountLabel":null,"badge":null}],"filters":{"countSelected":0,"items":[{"code":"promotion","name":"Promoții","countSelected":0,"values":[{"code":"bunatatile-saptamanii-cw0923","name":"Oferta proaspătă a săptămânii","isSelected":false,"count":1}]},{"code":"brand","name":"Brand","countSelected":0,"values":[{"code":"agricola-b68","name":"Agricola","isSelected":false,"count":4},{"code":"bell-b824","name":"Bell","isSelected":false,"count":1},{"code":"bravito-b2948","name":"Bravito!","isSelected":false,"count":1},{"code":"batranu-sas-b757","name":"Bătrânu' Sas","isSelected":false,"count":1},{"code":"campofrio-b806","name":"Campofrio","isSelected":false,"count":2},{"code":"cris-tim-b74","name":"Cris-Tim","isSelected":false,"count":6},{"code":"espina-b42","name":"Espina","isSelected":false,"count":2},{"code":"fox-b41","name":"Fox","isSelected":false,"count":1},{"code":"pick-b536","name":"Pick","isSelected":false,"count":1},{"code":"ploo-n-gura-b887","name":"Ploo-N Gură","isSelected":false,"count":1},{"code":"reinert-b969","name":"Reinert","isSelected":false,"count":2},{"code":"silvania-gourmet-b496","name":"Silvania Gourmet","isSelected":false,"count":1},{"code":"zimbo-b822","name":"Zimbo","isSelected":false,"count":1},{"code":"zimbria-b206","name":"Zimbria","isSelected":false,"count":3}]},{"code":"diet_lifestyle","name":"Dietă și lifestyle","countSelected":0,"values":[{"code":"fara-gluten-a16","name":"Fara gluten","isSelected":false,"count":7},{"code":"made-in-romania-a85","name":"Made In Romania","isSelected":false,"count":5}]}]},"orderBy":[{"field":"price","direction":"asc","name":"Preț crescător","isSelected":false},{"field":"price","direction":"desc","name":"Preț descrescător","isSelected":false},{"field":"popularity","direction":"desc","name":"Cele mai populare","isSelected":true},{"field":"category","direction":"asc","name":"Categorie","isSelected":false}],"metaTitle":"Salam - Gamă variată","metaDescription":"Vrei Salam? Alege dintr-o gamă variată. Comanzi simplu și ai livrare rapidă, calitate și prospețime. Hai pe Freshful.ro","metaKeywords":null,"banners":[]}}