{"type":"subcategory","payload":{"analyticsListId":"category_502-mezeluri-feliate","analyticsListName":"Category - Mezeluri feliate","name":"Mezeluri feliate","slug":"502-mezeluri-feliate","image":null,"breadcrumbs":[{"code":"5","name":"Mezeluri & ready meals","slug":"5-mezeluri-si-ready-to-cook"},{"code":"502","name":"Mezeluri feliate","slug":"502-mezeluri-feliate"}],"slots":[],"page":1,"limit":10,"pages":19,"count":185,"siblings":[{"name":"Mezeluri","slug":"501-mezeluri","selected":false},{"name":"Mezeluri feliate","slug":"502-mezeluri-feliate","selected":true},{"name":"Pizza și aluat","slug":"503-pizza-si-aluat","selected":false},{"name":"Paste proaspete","slug":"504-paste-proaspete","selected":false},{"name":"Ready meals","slug":"505-ready-meal","selected":false}],"children":[{"name":"Toate produsele","slug":"502-mezeluri-feliate","selected":true},{"name":"Mezeluri de pasăre feliate","slug":"50201-mezeluri-de-pasare-feliate","selected":false},{"name":"Mezeluri de porc feliate","slug":"50202-mezeluri-de-porc-feliate","selected":false},{"name":"Mezeluri de vită feliate","slug":"50203-mezeluri-de-vita-feliate","selected":false},{"name":"Mezeluri feliate ECO","slug":"mezeluri-feliate-eco","selected":false}],"products":[{"code":"100001815","variantCode":"5941265018575","name":"Mușchi file 100g","slug":"100001815-matache-macelaru-muschi-file-100g","unitPriceLabel":"77,5 Lei/kg","brand":"Matache Măcelaru","brandCode":"77","brandFilterCode":"matache-macelaru-b75","sku":"100001815","price":7.75,"originalPrice":null,"currencyCode":"RON","currency":"Lei","image":{"thumbnail":{"default":"https://cdn.freshful.ro/media/cache/sylius_shop_product_thumbnail/8e/4e/c779cb91021b728dbfd9b6450640.jpg"},"large":{"default":"https://cdn.freshful.ro/media/cache/freshful_large/8e/4e/c779cb91021b728dbfd9b6450640.jpg"},"extralarge":{"default":"https://cdn.freshful.ro/media/cache/sylius_shop_product_original/8e/4e/c779cb91021b728dbfd9b6450640.jpg"}},"label":{"text":"-20% cu Genius","backgroundColor":"#FEF3FA","textColor":"#CD015F"},"tags":[{"type":"NoGluten","text":"Fara gluten","icon":"https://cdn.freshful.ro/assets/product_tags/fara_gluten.svg","iconPng":"https://cdn.freshful.ro/assets/product_tags/fara_gluten.png","backgroundColor":"#FFF2E5","textColor":"#F07900"}],"isAvailable":true,"maxAvailableQuantity":3,"maxAllowedQuantity":3,"breadcrumbs":[{"code":"5","name":"Mezeluri & ready meals","slug":"5-mezeluri-si-ready-to-cook"},{"code":"502","name":"Mezeluri feliate","slug":"502-mezeluri-feliate"},{"code":"50202","name":"Mezeluri de porc feliate","slug":"50202-mezeluri-de-porc-feliate"},{"code":"100001815","name":"Mușchi file 100g","slug":"100001815-matache-macelaru-muschi-file-100g"}],"activePromotion":null,"saveMe":null,"labels":[{"type":"gdeals","items":[{"text":"","backgroundColor":"","textColor":""}]},{"type":"v3","items":[{"text":"-20% cu Genius","backgroundColor":"#FEF3FA","textColor":"#CD015F"}]}],"geniusPrice":6.2,"geniusUnitPricePerLabel":"62 Lei/kg","banner":null,"discountLabel":null,"geniusDiscountLabel":"Economisești 20%","badge":null},{"code":"100148135","variantCode":"100148135","name":"Șuncă Praga 150g","slug":"100148135-matache-macelaru-sunca-praga-150g","unitPriceLabel":"60,6 Lei/kg","brand":"Matache Măcelaru","brandCode":"77","brandFilterCode":"matache-macelaru-b75","sku":"100148135","price":9.09,"originalPrice":11.49,"currencyCode":"RON","currency":"Lei","image":{"thumbnail":{"default":"https://cdn.freshful.ro/media/cache/sylius_shop_product_thumbnail/9e/85/20a9b046ac1896a8fe7030cdcd61.jpg"},"large":{"default":"https://cdn.freshful.ro/media/cache/freshful_large/9e/85/20a9b046ac1896a8fe7030cdcd61.jpg"},"extralarge":{"default":"https://cdn.freshful.ro/media/cache/sylius_shop_product_original/9e/85/20a9b046ac1896a8fe7030cdcd61.jpg"}},"label":{"text":"-20%","backgroundColor":"#FF9903","textColor":"#FFFFFF"},"tags":[{"type":"NoGluten","text":"Fara gluten","icon":"https://cdn.freshful.ro/assets/product_tags/fara_gluten.svg","iconPng":"https://cdn.freshful.ro/assets/product_tags/fara_gluten.png","backgroundColor":"#FFF2E5","textColor":"#F07900"}],"isAvailable":true,"maxAvailableQuantity":100,"maxAllowedQuantity":100,"breadcrumbs":[{"code":"5","name":"Mezeluri & ready meals","slug":"5-mezeluri-si-ready-to-cook"},{"code":"502","name":"Mezeluri feliate","slug":"502-mezeluri-feliate"},{"code":"50202","name":"Mezeluri de porc feliate","slug":"50202-mezeluri-de-porc-feliate"},{"code":"100148135","name":"Șuncă Praga 150g","slug":"100148135-matache-macelaru-sunca-praga-150g"}],"activePromotion":{"code":"freshful-top-deals-2023","name":"Preț redus","targetQuantity":null},"saveMe":null,"labels":[{"type":"v1","items":[{"text":"-20%","backgroundColor":"#FF9903","textColor":"#FFFFFF"}]}],"geniusPrice":null,"geniusUnitPricePerLabel":null,"banner":{"text":"Super preț","textColor":"#FF0000","bgColor":"#FFF2EC","icon":null,"link":"https://www.freshful.ro/oferte/freshful-top-deals-2023","type":"promo","analyticsEventType":"select_promotion","analyticsEventPayload":{"promotion_id":"freshful-top-deals-2023","promotion_name":"Profită de Top Deals"}},"discountLabel":"Economisești 20%","geniusDiscountLabel":null,"badge":null},{"code":"100001819","variantCode":"5941265000433","name":"Salam săsesc 100g","slug":"100001819-cris-tim-salam-sasesc-100g","unitPriceLabel":"55,9 Lei/kg","brand":"Cris-Tim","brandCode":"76","brandFilterCode":"cris-tim-b74","sku":"100001819","price":5.59,"originalPrice":6.59,"currencyCode":"RON","currency":"Lei","image":{"thumbnail":{"default":"https://cdn.freshful.ro/media/cache/sylius_shop_product_thumbnail/b5/86/e12ffa0dffb4b737b17dc0dda650.jpg"},"large":{"default":"https://cdn.freshful.ro/media/cache/freshful_large/b5/86/e12ffa0dffb4b737b17dc0dda650.jpg"},"extralarge":{"default":"https://cdn.freshful.ro/media/cache/sylius_shop_product_original/b5/86/e12ffa0dffb4b737b17dc0dda650.jpg"}},"label":{"text":"-15%","backgroundColor":"#FF9903","textColor":"#FFFFFF"},"tags":[],"isAvailable":true,"maxAvailableQuantity":100,"maxAllowedQuantity":100,"breadcrumbs":[{"code":"5","name":"Mezeluri & ready meals","slug":"5-mezeluri-si-ready-to-cook"},{"code":"502","name":"Mezeluri feliate","slug":"502-mezeluri-feliate"},{"code":"50202","name":"Mezeluri de porc feliate","slug":"50202-mezeluri-de-porc-feliate"},{"code":"100001819","name":"Salam săsesc 100g","slug":"100001819-cris-tim-salam-sasesc-100g"}],"activePromotion":{"code":"freshful-top-deals-2023","name":"Preț redus","targetQuantity":null},"saveMe":null,"labels":[{"type":"v1","items":[{"text":"-15%","backgroundColor":"#FF9903","textColor":"#FFFFFF"}]}],"geniusPrice":null,"geniusUnitPricePerLabel":null,"banner":{"text":"Super preț","textColor":"#FF0000","bgColor":"#FFF2EC","icon":null,"link":"https://www.freshful.ro/oferte/freshful-top-deals-2023","type":"promo","analyticsEventType":"select_promotion","analyticsEventPayload":{"promotion_id":"freshful-top-deals-2023","promotion_name":"Profită de Top Deals"}},"discountLabel":"Economisești 15%","geniusDiscountLabel":null,"badge":null},{"code":"100001812","variantCode":"5941265020042","name":"Șuncă piept de curcan 100g","slug":"100001812-cris-tim-sunca-piept-de-curcan-100g","unitPriceLabel":"69,9 Lei/kg","brand":"Cris-Tim","brandCode":"76","brandFilterCode":"cris-tim-b74","sku":"100001812","price":6.99,"originalPrice":9.79,"currencyCode":"RON","currency":"Lei","image":{"thumbnail":{"default":"https://cdn.freshful.ro/media/cache/sylius_shop_product_thumbnail/c2/3c/d522e97b45ac3ca9a4f9b8e9bb9d.jpg"},"large":{"default":"https://cdn.freshful.ro/media/cache/freshful_large/c2/3c/d522e97b45ac3ca9a4f9b8e9bb9d.jpg"},"extralarge":{"default":"https://cdn.freshful.ro/media/cache/sylius_shop_product_original/c2/3c/d522e97b45ac3ca9a4f9b8e9bb9d.jpg"}},"label":{"text":"-28%","backgroundColor":"#FF9903","textColor":"#FFFFFF"},"tags":[],"isAvailable":true,"maxAvailableQuantity":100,"maxAllowedQuantity":100,"breadcrumbs":[{"code":"5","name":"Mezeluri & ready meals","slug":"5-mezeluri-si-ready-to-cook"},{"code":"502","name":"Mezeluri feliate","slug":"502-mezeluri-feliate"},{"code":"50201","name":"Mezeluri de pasăre feliate","slug":"50201-mezeluri-de-pasare-feliate"},{"code":"100001812","name":"Șuncă piept de curcan 100g","slug":"100001812-cris-tim-sunca-piept-de-curcan-100g"}],"activePromotion":{"code":"bunatatile-saptamanii-cw0923","name":"Preț redus","targetQuantity":null},"saveMe":null,"labels":[{"type":"v1","items":[{"text":"-28%","backgroundColor":"#FF9903","textColor":"#FFFFFF"}]}],"geniusPrice":null,"geniusUnitPricePerLabel":null,"banner":{"text":"Super preț","textColor":"#FF0000","bgColor":"#FFF2EC","icon":null,"link":"https://www.freshful.ro/oferte/bunatatile-saptamanii-cw0923","type":"promo","analyticsEventType":"select_promotion","analyticsEventPayload":{"promotion_id":"bunatatile-saptamanii-cw0923","promotion_name":"Oferta proaspătă a săptămânii"}},"discountLabel":"Economisești 28%","geniusDiscountLabel":null,"badge":null},{"code":"100062997","variantCode":"100062997","name":"Mușchi file cu înveliș de mirodenii, feliat 100g","slug":"100062997-reinert-muschi-file-cu-invelis-de-mirodenii-feliat-100g","unitPriceLabel":"74,9 Lei/kg","brand":"Reinert","brandCode":"955","brandFilterCode":"reinert-b969","sku":"100062997","price":7.49,"originalPrice":8.75,"currencyCode":"RON","currency":"Lei","image":{"thumbnail":{"default":"https://cdn.freshful.ro/media/cache/sylius_shop_product_thumbnail/f1/8b/33e9638b61e7d5dd3f3a6d233333.jpg"},"large":{"default":"https://cdn.freshful.ro/media/cache/freshful_large/f1/8b/33e9638b61e7d5dd3f3a6d233333.jpg"},"extralarge":{"default":"https://cdn.freshful.ro/media/cache/sylius_shop_product_original/f1/8b/33e9638b61e7d5dd3f3a6d233333.jpg"}},"label":{"text":"-14%","backgroundColor":"#FF9903","textColor":"#FFFFFF"},"tags":[],"isAvailable":true,"maxAvailableQuantity":9,"maxAllowedQuantity":100,"breadcrumbs":[{"code":"5","name":"Mezeluri & ready meals","slug":"5-mezeluri-si-ready-to-cook"},{"code":"502","name":"Mezeluri feliate","slug":"502-mezeluri-feliate"},{"code":"50202","name":"Mezeluri de porc feliate","slug":"50202-mezeluri-de-porc-feliate"},{"code":"100062997","name":"Mușchi file cu înveliș de mirodenii, feliat 100g","slug":"100062997-reinert-muschi-file-cu-invelis-de-mirodenii-feliat-100g"}],"activePromotion":{"code":"bunatatile-saptamanii-cw0923","name":"Preț redus","targetQuantity":null},"saveMe":null,"labels":[{"type":"v1","items":[{"text":"-14%","backgroundColor":"#FF9903","textColor":"#FFFFFF"}]}],"geniusPrice":null,"geniusUnitPricePerLabel":null,"banner":{"text":"Super preț","textColor":"#FF0000","bgColor":"#FFF2EC","icon":null,"link":"https://www.freshful.ro/oferte/bunatatile-saptamanii-cw0923","type":"promo","analyticsEventType":"select_promotion","analyticsEventPayload":{"promotion_id":"bunatatile-saptamanii-cw0923","promotion_name":"Oferta proaspătă a săptămânii"}},"discountLabel":"Economisești 14%","geniusDiscountLabel":null,"badge":null},{"code":"100001810","variantCode":"5941265019954","name":"Șuncă piept de pui 100g","slug":"100001810-cris-tim-sunca-piept-de-pui-100g","unitPriceLabel":"59,9 Lei/kg","brand":"Cris-Tim","brandCode":"76","brandFilterCode":"cris-tim-b74","sku":"100001810","price":5.99,"originalPrice":8.19,"currencyCode":"RON","currency":"Lei","image":{"thumbnail":{"default":"https://cdn.freshful.ro/media/cache/sylius_shop_product_thumbnail/88/8e/fe0de0d9f7c21944bca71bd77a98.jpg"},"large":{"default":"https://cdn.freshful.ro/media/cache/freshful_large/88/8e/fe0de0d9f7c21944bca71bd77a98.jpg"},"extralarge":{"default":"https://cdn.freshful.ro/media/cache/sylius_shop_product_original/88/8e/fe0de0d9f7c21944bca71bd77a98.jpg"}},"label":{"text":"-26%","backgroundColor":"#FF9903","textColor":"#FFFFFF"},"tags":[{"type":"NoGluten","text":"Fara gluten","icon":"https://cdn.freshful.ro/assets/product_tags/fara_gluten.svg","iconPng":"https://cdn.freshful.ro/assets/product_tags/fara_gluten.png","backgroundColor":"#FFF2E5","textColor":"#F07900"}],"isAvailable":true,"maxAvailableQuantity":100,"maxAllowedQuantity":100,"breadcrumbs":[{"code":"5","name":"Mezeluri & ready meals","slug":"5-mezeluri-si-ready-to-cook"},{"code":"502","name":"Mezeluri feliate","slug":"502-mezeluri-feliate"},{"code":"50201","name":"Mezeluri de pasăre feliate","slug":"50201-mezeluri-de-pasare-feliate"},{"code":"100001810","name":"Șuncă piept de pui 100g","slug":"100001810-cris-tim-sunca-piept-de-pui-100g"}],"activePromotion":{"code":"bunatatile-saptamanii-cw0923","name":"Preț redus","targetQuantity":null},"saveMe":null,"labels":[{"type":"v1","items":[{"text":"-26%","backgroundColor":"#FF9903","textColor":"#FFFFFF"}]}],"geniusPrice":null,"geniusUnitPricePerLabel":null,"banner":{"text":"Super preț","textColor":"#FF0000","bgColor":"#FFF2EC","icon":null,"link":"https://www.freshful.ro/oferte/bunatatile-saptamanii-cw0923","type":"promo","analyticsEventType":"select_promotion","analyticsEventPayload":{"promotion_id":"bunatatile-saptamanii-cw0923","promotion_name":"Oferta proaspătă a săptămânii"}},"discountLabel":"Economisești 26%","geniusDiscountLabel":null,"badge":null},{"code":"100136876","variantCode":"100136876","name":"Șuncă de porc obrăjori 80g","slug":"100136876-cris-tim-sunca-de-porc-obrajori-80g","unitPriceLabel":"84,88 Lei/kg","brand":"Cris-Tim","brandCode":"76","brandFilterCode":"cris-tim-b74","sku":"100136876","price":6.79,"originalPrice":7.99,"currencyCode":"RON","currency":"Lei","image":{"thumbnail":{"default":"https://cdn.freshful.ro/media/cache/sylius_shop_product_thumbnail/c4/41/e5564875a556371e60a3cfb704ff.jpg"},"large":{"default":"https://cdn.freshful.ro/media/cache/freshful_large/c4/41/e5564875a556371e60a3cfb704ff.jpg"},"extralarge":{"default":"https://cdn.freshful.ro/media/cache/sylius_shop_product_original/c4/41/e5564875a556371e60a3cfb704ff.jpg"}},"label":{"text":"-15%","backgroundColor":"#FF9903","textColor":"#FFFFFF"},"tags":[{"type":"NoE","text":"Fara E-uri","icon":"https://cdn.freshful.ro/assets/product_tags/fara_euri.svg","iconPng":"https://cdn.freshful.ro/assets/product_tags/fara_euri.png","backgroundColor":"#FCF5DF","textColor":"#CAA316"},{"type":"NoPreservatives","text":"Fara conservanti","icon":"https://cdn.freshful.ro/assets/product_tags/fara_conservanti.svg","iconPng":"https://cdn.freshful.ro/assets/product_tags/fara_conservanti.png","backgroundColor":"#F0F2FF","textColor":"#7889DD"}],"isAvailable":true,"maxAvailableQuantity":42,"maxAllowedQuantity":100,"breadcrumbs":[{"code":"5","name":"Mezeluri & ready meals","slug":"5-mezeluri-si-ready-to-cook"},{"code":"502","name":"Mezeluri feliate","slug":"502-mezeluri-feliate"},{"code":"50202","name":"Mezeluri de porc feliate","slug":"50202-mezeluri-de-porc-feliate"},{"code":"100136876","name":"Șuncă de porc obrăjori 80g","slug":"100136876-cris-tim-sunca-de-porc-obrajori-80g"}],"activePromotion":{"code":"freshful-top-deals-2023","name":"Preț redus","targetQuantity":null},"saveMe":null,"labels":[{"type":"v1","items":[{"text":"-15%","backgroundColor":"#FF9903","textColor":"#FFFFFF"}]}],"geniusPrice":null,"geniusUnitPricePerLabel":null,"banner":{"text":"Super preț","textColor":"#FF0000","bgColor":"#FFF2EC","icon":null,"link":"https://www.freshful.ro/oferte/freshful-top-deals-2023","type":"promo","analyticsEventType":"select_promotion","analyticsEventPayload":{"promotion_id":"freshful-top-deals-2023","promotion_name":"Profită de Top Deals"}},"discountLabel":"Economisești 15%","geniusDiscountLabel":null,"badge":null},{"code":"100143930","variantCode":"100143930","name":"Salam Martinel din carne de porc 90g","slug":"100143930-reinert-martinel-salam-martinel-din-carne-de-porc-90g","unitPriceLabel":"116,56 Lei/kg","brand":"Reinert Martinel","brandCode":"954","brandFilterCode":"reinert-martinel-b968","sku":"100143930","price":10.49,"originalPrice":11.99,"currencyCode":"RON","currency":"Lei","image":{"thumbnail":{"default":"https://cdn.freshful.ro/media/cache/sylius_shop_product_thumbnail/c8/34/330a5f800c591ab4cd2ea4bdd035.jpg"},"large":{"default":"https://cdn.freshful.ro/media/cache/freshful_large/c8/34/330a5f800c591ab4cd2ea4bdd035.jpg"},"extralarge":{"default":"https://cdn.freshful.ro/media/cache/sylius_shop_product_original/c8/34/330a5f800c591ab4cd2ea4bdd035.jpg"}},"label":{"text":"-12%","backgroundColor":"#FF9903","textColor":"#FFFFFF"},"tags":[{"type":"NoGluten","text":"Fara gluten","icon":"https://cdn.freshful.ro/assets/product_tags/fara_gluten.svg","iconPng":"https://cdn.freshful.ro/assets/product_tags/fara_gluten.png","backgroundColor":"#FFF2E5","textColor":"#F07900"},{"type":"LactoseFree","text":"Fara lactoza","icon":"https://cdn.freshful.ro/assets/product_tags/fara_lactoza.svg","iconPng":"https://cdn.freshful.ro/assets/product_tags/fara_lactoza.png","backgroundColor":"#E9F7FB","textColor":"#25A6D0"}],"isAvailable":true,"maxAvailableQuantity":47,"maxAllowedQuantity":100,"breadcrumbs":[{"code":"5","name":"Mezeluri & ready meals","slug":"5-mezeluri-si-ready-to-cook"},{"code":"502","name":"Mezeluri feliate","slug":"502-mezeluri-feliate"},{"code":"50202","name":"Mezeluri de porc feliate","slug":"50202-mezeluri-de-porc-feliate"},{"code":"100143930","name":"Salam Martinel din carne de porc 90g","slug":"100143930-reinert-martinel-salam-martinel-din-carne-de-porc-90g"}],"activePromotion":{"code":"bunatatile-saptamanii-cw0923","name":"Preț redus","targetQuantity":null},"saveMe":null,"labels":[{"type":"v1","items":[{"text":"-12%","backgroundColor":"#FF9903","textColor":"#FFFFFF"}]}],"geniusPrice":null,"geniusUnitPricePerLabel":null,"banner":{"text":"Super preț","textColor":"#FF0000","bgColor":"#FFF2EC","icon":null,"link":"https://www.freshful.ro/oferte/bunatatile-saptamanii-cw0923","type":"promo","analyticsEventType":"select_promotion","analyticsEventPayload":{"promotion_id":"bunatatile-saptamanii-cw0923","promotion_name":"Oferta proaspătă a săptămânii"}},"discountLabel":"Economisești 12%","geniusDiscountLabel":null,"badge":null},{"code":"100148133","variantCode":"100148133","name":"Jambon curcan 150g","slug":"100148133-matache-macelaru-jambon-curcan-150g","unitPriceLabel":"53,27 Lei/kg","brand":"Matache Măcelaru","brandCode":"77","brandFilterCode":"matache-macelaru-b75","sku":"100148133","price":7.99,"originalPrice":null,"currencyCode":"RON","currency":"Lei","image":{"thumbnail":{"default":"https://cdn.freshful.ro/media/cache/sylius_shop_product_thumbnail/6b/a9/f0a83a28c9e3e942540a180f97fb.jpg"},"large":{"default":"https://cdn.freshful.ro/media/cache/freshful_large/6b/a9/f0a83a28c9e3e942540a180f97fb.jpg"},"extralarge":{"default":"https://cdn.freshful.ro/media/cache/sylius_shop_product_original/6b/a9/f0a83a28c9e3e942540a180f97fb.jpg"}},"label":null,"tags":[{"type":"NoGluten","text":"Fara gluten","icon":"https://cdn.freshful.ro/assets/product_tags/fara_gluten.svg","iconPng":"https://cdn.freshful.ro/assets/product_tags/fara_gluten.png","backgroundColor":"#FFF2E5","textColor":"#F07900"}],"isAvailable":true,"maxAvailableQuantity":64,"maxAllowedQuantity":100,"breadcrumbs":[{"code":"5","name":"Mezeluri & ready meals","slug":"5-mezeluri-si-ready-to-cook"},{"code":"502","name":"Mezeluri feliate","slug":"502-mezeluri-feliate"},{"code":"50201","name":"Mezeluri de pasăre feliate","slug":"50201-mezeluri-de-pasare-feliate"},{"code":"100148133","name":"Jambon curcan 150g","slug":"100148133-matache-macelaru-jambon-curcan-150g"}],"activePromotion":null,"saveMe":null,"labels":[],"geniusPrice":null,"geniusUnitPricePerLabel":null,"banner":null,"discountLabel":null,"geniusDiscountLabel":null,"badge":null},{"code":"100062990","variantCode":"100062990","name":"Salam de Sibiu IGP feliat 100g","slug":"100062990-reinert-salam-de-sibiu-igp-feliat-100g","unitPriceLabel":"124,9 Lei/kg","brand":"Reinert","brandCode":"955","brandFilterCode":"reinert-b969","sku":"100062990","price":12.49,"originalPrice":null,"currencyCode":"RON","currency":"Lei","image":{"thumbnail":{"default":"https://cdn.freshful.ro/media/cache/sylius_shop_product_thumbnail/7f/67/c65ec887fbd7e99267b5050cdeec.jpg"},"large":{"default":"https://cdn.freshful.ro/media/cache/freshful_large/7f/67/c65ec887fbd7e99267b5050cdeec.jpg"},"extralarge":{"default":"https://cdn.freshful.ro/media/cache/sylius_shop_product_original/7f/67/c65ec887fbd7e99267b5050cdeec.jpg"}},"label":null,"tags":[],"isAvailable":true,"maxAvailableQuantity":100,"maxAllowedQuantity":100,"breadcrumbs":[{"code":"5","name":"Mezeluri & ready meals","slug":"5-mezeluri-si-ready-to-cook"},{"code":"502","name":"Mezeluri feliate","slug":"502-mezeluri-feliate"},{"code":"50202","name":"Mezeluri de porc feliate","slug":"50202-mezeluri-de-porc-feliate"},{"code":"100062990","name":"Salam de Sibiu IGP feliat 100g","slug":"100062990-reinert-salam-de-sibiu-igp-feliat-100g"}],"activePromotion":null,"saveMe":null,"labels":[],"geniusPrice":null,"geniusUnitPricePerLabel":null,"banner":null,"discountLabel":null,"geniusDiscountLabel":null,"badge":null}],"filters":{"countSelected":0,"items":[{"code":"promotion","name":"Promoții","countSelected":0,"values":[{"code":"bunatatile-saptamanii-cw0923","name":"Oferta proaspătă a săptămânii","isSelected":false,"count":7},{"code":"freshful-top-deals-2023","name":"Profită de Top Deals","isSelected":false,"count":3}]},{"code":"brand","name":"Brand","countSelected":0,"values":[{"code":"abraham-b823","name":"Abraham","isSelected":false,"count":3},{"code":"agricola-b68","name":"Agricola","isSelected":false,"count":8},{"code":"aldis-b214","name":"Aldis","isSelected":false,"count":3},{"code":"angst-b218","name":"Angst","isSelected":false,"count":1},{"code":"bell-b824","name":"Bell","isSelected":false,"count":1},{"code":"beretta-b1663","name":"Beretta","isSelected":false,"count":2},{"code":"bravito-b2948","name":"Bravito!","isSelected":false,"count":2},{"code":"campofrio-b806","name":"Campofrio","isSelected":false,"count":1},{"code":"caroli-b805","name":"Caroli","isSelected":false,"count":11},{"code":"casa-modena-b1660","name":"Casa Modena","isSelected":false,"count":3},{"code":"cesar-nieto-b1026","name":"Cesar Nieto","isSelected":false,"count":5},{"code":"cris-tim-b74","name":"Cris-Tim","isSelected":false,"count":14},{"code":"delicii-din-traditii-b582","name":"Delicii din Tradiţii","isSelected":false,"count":5},{"code":"diana-b356","name":"Diana","isSelected":false,"count":7},{"code":"espina-b42","name":"Espina","isSelected":false,"count":17},{"code":"fox-b41","name":"Fox","isSelected":false,"count":5},{"code":"golfera-b414","name":"Golfera","isSelected":false,"count":10},{"code":"marcel-b826","name":"Marcel","isSelected":false,"count":5},{"code":"matache-macelaru-b75","name":"Matache Măcelaru","isSelected":false,"count":5},{"code":"meda-b702","name":"Meda","isSelected":false,"count":5},{"code":"moldova-in-bucate-b2913","name":"Moldova In Bucate","isSelected":false,"count":10},{"code":"mos-iosif-b701","name":"Moș Iosif","isSelected":false,"count":2},{"code":"negroni-b1662","name":"Negroni","isSelected":false,"count":6},{"code":"pick-b536","name":"Pick","isSelected":false,"count":6},{"code":"prodprosper-b3084","name":"Prodprosper","isSelected":false,"count":7},{"code":"reinert-b969","name":"Reinert","isSelected":false,"count":14},{"code":"reinert-martinel-b968","name":"Reinert Martinel","isSelected":false,"count":3},{"code":"ringa-b537","name":"Ringa","isSelected":false,"count":1},{"code":"san-michele-b825","name":"San Michele","isSelected":false,"count":1},{"code":"silvania-gourmet-b496","name":"Silvania Gourmet","isSelected":false,"count":11},{"code":"sissi-b804","name":"Sissi","isSelected":false,"count":9},{"code":"zimbo-b822","name":"Zimbo","isSelected":false,"count":2}]},{"code":"diet_lifestyle","name":"Dietă și lifestyle","countSelected":0,"values":[{"code":"eco-a83","name":"Eco","isSelected":false,"count":18},{"code":"fara-conservanti-a37","name":"Fara conservanti","isSelected":false,"count":4},{"code":"fara-e-uri-a84","name":"Fara E-uri","isSelected":false,"count":12},{"code":"fara-gluten-a16","name":"Fara gluten","isSelected":false,"count":52},{"code":"fara-lactoza-a38","name":"Fara lactoza","isSelected":false,"count":13},{"code":"made-in-romania-a85","name":"Made In Romania","isSelected":false,"count":11}]}]},"orderBy":[{"field":"price","direction":"asc","name":"Preț crescător","isSelected":false},{"field":"price","direction":"desc","name":"Preț descrescător","isSelected":false},{"field":"popularity","direction":"desc","name":"Cele mai populare","isSelected":true},{"field":"category","direction":"asc","name":"Categorie","isSelected":false}],"metaTitle":"Mezeluri feliate - Gamă variată","metaDescription":"Vrei Mezeluri feliate? Alege dintr-o gamă variată. Comanzi simplu și ai livrare rapidă, calitate și prospețime. Hai pe Freshful.ro","metaKeywords":null,"banners":[{"name":"My Maia Listing","position":3,"type":"listing","displayOnMobile":true,"image":{"jpg":"https://cdn.freshful.ro/media/image/dc/d4/0a378524ce8d6f5360b2caca28aa.jpg","webp":"https://cdn.freshful.ro/media/image/2d/5a/168172cd83f99454c3d3579f8d75.webp"},"imageResponsive":{"jpg":"https://cdn.freshful.ro/media/image/55/15/ddedfe179dd52b5bebac06835470.jpg","webp":"https://cdn.freshful.ro/media/image/7e/02/cfeb05518d4c56d568bfcca4966d.webp"},"url":"/l/listing-my-maia-by-freshful"}]}}