{"type":"subcategory","payload":{"analyticsListId":"category_50201-mezeluri-de-pasare-feliate","analyticsListName":"Category - Mezeluri de pasăre feliate","name":"Mezeluri de pasăre feliate","slug":"50201-mezeluri-de-pasare-feliate","image":null,"breadcrumbs":[{"code":"5","name":"Mezeluri & ready meals","slug":"5-mezeluri-si-ready-to-cook"},{"code":"502","name":"Mezeluri feliate","slug":"502-mezeluri-feliate"},{"code":"50201","name":"Mezeluri de pasăre feliate","slug":"50201-mezeluri-de-pasare-feliate"}],"slots":[],"page":1,"limit":10,"pages":2,"count":20,"siblings":[{"name":"Mezeluri","slug":"501-mezeluri","selected":false},{"name":"Mezeluri feliate","slug":"502-mezeluri-feliate","selected":true},{"name":"Pizza și aluat","slug":"503-pizza-si-aluat","selected":false},{"name":"Paste proaspete","slug":"504-paste-proaspete","selected":false},{"name":"Ready meals","slug":"505-ready-meal","selected":false}],"children":[{"name":"Toate produsele","slug":"502-mezeluri-feliate","selected":false},{"name":"Mezeluri de pasăre feliate","slug":"50201-mezeluri-de-pasare-feliate","selected":true},{"name":"Mezeluri de porc feliate","slug":"50202-mezeluri-de-porc-feliate","selected":false},{"name":"Mezeluri de vită feliate","slug":"50203-mezeluri-de-vita-feliate","selected":false},{"name":"Mezeluri feliate ECO","slug":"mezeluri-feliate-eco","selected":false}],"products":[{"code":"100001812","variantCode":"5941265020042","name":"Șuncă piept de curcan 100g","slug":"100001812-cris-tim-sunca-piept-de-curcan-100g","unitPriceLabel":"69,9 Lei/kg","brand":"Cris-Tim","brandCode":"76","brandFilterCode":"cris-tim-b74","sku":"100001812","price":6.99,"originalPrice":9.79,"currencyCode":"RON","currency":"Lei","image":{"thumbnail":{"default":"https://cdn.freshful.ro/media/cache/sylius_shop_product_thumbnail/c2/3c/d522e97b45ac3ca9a4f9b8e9bb9d.jpg"},"large":{"default":"https://cdn.freshful.ro/media/cache/freshful_large/c2/3c/d522e97b45ac3ca9a4f9b8e9bb9d.jpg"},"extralarge":{"default":"https://cdn.freshful.ro/media/cache/sylius_shop_product_original/c2/3c/d522e97b45ac3ca9a4f9b8e9bb9d.jpg"}},"label":{"text":"-28%","backgroundColor":"#FF9903","textColor":"#FFFFFF"},"tags":[],"isAvailable":true,"maxAvailableQuantity":100,"maxAllowedQuantity":100,"breadcrumbs":[{"code":"5","name":"Mezeluri & ready meals","slug":"5-mezeluri-si-ready-to-cook"},{"code":"502","name":"Mezeluri feliate","slug":"502-mezeluri-feliate"},{"code":"50201","name":"Mezeluri de pasăre feliate","slug":"50201-mezeluri-de-pasare-feliate"},{"code":"100001812","name":"Șuncă piept de curcan 100g","slug":"100001812-cris-tim-sunca-piept-de-curcan-100g"}],"activePromotion":{"code":"bunatatile-saptamanii-cw0923","name":"Preț redus","targetQuantity":null},"saveMe":null,"labels":[{"type":"v1","items":[{"text":"-28%","backgroundColor":"#FF9903","textColor":"#FFFFFF"}]}],"geniusPrice":null,"geniusUnitPricePerLabel":null,"banner":{"text":"Super preț","textColor":"#FF0000","bgColor":"#FFF2EC","icon":null,"link":"https://www.freshful.ro/oferte/bunatatile-saptamanii-cw0923","type":"promo","analyticsEventType":"select_promotion","analyticsEventPayload":{"promotion_id":"bunatatile-saptamanii-cw0923","promotion_name":"Oferta proaspătă a săptămânii"}},"discountLabel":"Economisești 28%","geniusDiscountLabel":null,"badge":null},{"code":"100001810","variantCode":"5941265019954","name":"Șuncă piept de pui 100g","slug":"100001810-cris-tim-sunca-piept-de-pui-100g","unitPriceLabel":"59,9 Lei/kg","brand":"Cris-Tim","brandCode":"76","brandFilterCode":"cris-tim-b74","sku":"100001810","price":5.99,"originalPrice":8.19,"currencyCode":"RON","currency":"Lei","image":{"thumbnail":{"default":"https://cdn.freshful.ro/media/cache/sylius_shop_product_thumbnail/88/8e/fe0de0d9f7c21944bca71bd77a98.jpg"},"large":{"default":"https://cdn.freshful.ro/media/cache/freshful_large/88/8e/fe0de0d9f7c21944bca71bd77a98.jpg"},"extralarge":{"default":"https://cdn.freshful.ro/media/cache/sylius_shop_product_original/88/8e/fe0de0d9f7c21944bca71bd77a98.jpg"}},"label":{"text":"-26%","backgroundColor":"#FF9903","textColor":"#FFFFFF"},"tags":[{"type":"NoGluten","text":"Fara gluten","icon":"https://cdn.freshful.ro/assets/product_tags/fara_gluten.svg","iconPng":"https://cdn.freshful.ro/assets/product_tags/fara_gluten.png","backgroundColor":"#FFF2E5","textColor":"#F07900"}],"isAvailable":true,"maxAvailableQuantity":100,"maxAllowedQuantity":100,"breadcrumbs":[{"code":"5","name":"Mezeluri & ready meals","slug":"5-mezeluri-si-ready-to-cook"},{"code":"502","name":"Mezeluri feliate","slug":"502-mezeluri-feliate"},{"code":"50201","name":"Mezeluri de pasăre feliate","slug":"50201-mezeluri-de-pasare-feliate"},{"code":"100001810","name":"Șuncă piept de pui 100g","slug":"100001810-cris-tim-sunca-piept-de-pui-100g"}],"activePromotion":{"code":"bunatatile-saptamanii-cw0923","name":"Preț redus","targetQuantity":null},"saveMe":null,"labels":[{"type":"v1","items":[{"text":"-26%","backgroundColor":"#FF9903","textColor":"#FFFFFF"}]}],"geniusPrice":null,"geniusUnitPricePerLabel":null,"banner":{"text":"Super preț","textColor":"#FF0000","bgColor":"#FFF2EC","icon":null,"link":"https://www.freshful.ro/oferte/bunatatile-saptamanii-cw0923","type":"promo","analyticsEventType":"select_promotion","analyticsEventPayload":{"promotion_id":"bunatatile-saptamanii-cw0923","promotion_name":"Oferta proaspătă a săptămânii"}},"discountLabel":"Economisești 26%","geniusDiscountLabel":null,"badge":null},{"code":"100148133","variantCode":"100148133","name":"Jambon curcan 150g","slug":"100148133-matache-macelaru-jambon-curcan-150g","unitPriceLabel":"53,27 Lei/kg","brand":"Matache Măcelaru","brandCode":"77","brandFilterCode":"matache-macelaru-b75","sku":"100148133","price":7.99,"originalPrice":null,"currencyCode":"RON","currency":"Lei","image":{"thumbnail":{"default":"https://cdn.freshful.ro/media/cache/sylius_shop_product_thumbnail/6b/a9/f0a83a28c9e3e942540a180f97fb.jpg"},"large":{"default":"https://cdn.freshful.ro/media/cache/freshful_large/6b/a9/f0a83a28c9e3e942540a180f97fb.jpg"},"extralarge":{"default":"https://cdn.freshful.ro/media/cache/sylius_shop_product_original/6b/a9/f0a83a28c9e3e942540a180f97fb.jpg"}},"label":null,"tags":[{"type":"NoGluten","text":"Fara gluten","icon":"https://cdn.freshful.ro/assets/product_tags/fara_gluten.svg","iconPng":"https://cdn.freshful.ro/assets/product_tags/fara_gluten.png","backgroundColor":"#FFF2E5","textColor":"#F07900"}],"isAvailable":true,"maxAvailableQuantity":64,"maxAllowedQuantity":100,"breadcrumbs":[{"code":"5","name":"Mezeluri & ready meals","slug":"5-mezeluri-si-ready-to-cook"},{"code":"502","name":"Mezeluri feliate","slug":"502-mezeluri-feliate"},{"code":"50201","name":"Mezeluri de pasăre feliate","slug":"50201-mezeluri-de-pasare-feliate"},{"code":"100148133","name":"Jambon curcan 150g","slug":"100148133-matache-macelaru-jambon-curcan-150g"}],"activePromotion":null,"saveMe":null,"labels":[],"geniusPrice":null,"geniusUnitPricePerLabel":null,"banner":null,"discountLabel":null,"geniusDiscountLabel":null,"badge":null},{"code":"100044951","variantCode":"5941348028170","name":"Șuncă din piept de pui feliată 170g","slug":"100044951-sissi-sunca-din-piept-de-pui-feliata-170g","unitPriceLabel":"85,82 Lei/kg","brand":"Sissi","brandCode":"803","brandFilterCode":"sissi-b804","sku":"100044951","price":14.59,"originalPrice":null,"currencyCode":"RON","currency":"Lei","image":{"thumbnail":{"default":"https://cdn.freshful.ro/media/cache/sylius_shop_product_thumbnail/a0/90/7b98ed42f816a407443002e26e09.jpg"},"large":{"default":"https://cdn.freshful.ro/media/cache/freshful_large/a0/90/7b98ed42f816a407443002e26e09.jpg"},"extralarge":{"default":"https://cdn.freshful.ro/media/cache/sylius_shop_product_original/a0/90/7b98ed42f816a407443002e26e09.jpg"}},"label":null,"tags":[],"isAvailable":true,"maxAvailableQuantity":100,"maxAllowedQuantity":100,"breadcrumbs":[{"code":"5","name":"Mezeluri & ready meals","slug":"5-mezeluri-si-ready-to-cook"},{"code":"502","name":"Mezeluri feliate","slug":"502-mezeluri-feliate"},{"code":"50201","name":"Mezeluri de pasăre feliate","slug":"50201-mezeluri-de-pasare-feliate"},{"code":"100044951","name":"Șuncă din piept de pui feliată 170g","slug":"100044951-sissi-sunca-din-piept-de-pui-feliata-170g"}],"activePromotion":null,"saveMe":null,"labels":[],"geniusPrice":null,"geniusUnitPricePerLabel":null,"banner":null,"discountLabel":null,"geniusDiscountLabel":null,"badge":null},{"code":"100044952","variantCode":"5941348028132","name":"Șuncă din piept de curcan feliată 170g","slug":"100044952-sissi-sunca-din-piept-de-curcan-feliata-170g","unitPriceLabel":"105,82 Lei/kg","brand":"Sissi","brandCode":"803","brandFilterCode":"sissi-b804","sku":"100044952","price":17.99,"originalPrice":null,"currencyCode":"RON","currency":"Lei","image":{"thumbnail":{"default":"https://cdn.freshful.ro/media/cache/sylius_shop_product_thumbnail/31/fb/196363df4eb342817257d95cc2c8.jpg"},"large":{"default":"https://cdn.freshful.ro/media/cache/freshful_large/31/fb/196363df4eb342817257d95cc2c8.jpg"},"extralarge":{"default":"https://cdn.freshful.ro/media/cache/sylius_shop_product_original/31/fb/196363df4eb342817257d95cc2c8.jpg"}},"label":null,"tags":[],"isAvailable":true,"maxAvailableQuantity":100,"maxAllowedQuantity":100,"breadcrumbs":[{"code":"5","name":"Mezeluri & ready meals","slug":"5-mezeluri-si-ready-to-cook"},{"code":"502","name":"Mezeluri feliate","slug":"502-mezeluri-feliate"},{"code":"50201","name":"Mezeluri de pasăre feliate","slug":"50201-mezeluri-de-pasare-feliate"},{"code":"100044952","name":"Șuncă din piept de curcan feliată 170g","slug":"100044952-sissi-sunca-din-piept-de-curcan-feliata-170g"}],"activePromotion":null,"saveMe":null,"labels":[],"geniusPrice":null,"geniusUnitPricePerLabel":null,"banner":null,"discountLabel":null,"geniusDiscountLabel":null,"badge":null},{"code":"100136874","variantCode":"100136874","name":"Șuncă de curcan obrăjori 80g","slug":"100136874-cris-tim-sunca-de-curcan-obrajori-80g","unitPriceLabel":"112,38 Lei/kg","brand":"Cris-Tim","brandCode":"76","brandFilterCode":"cris-tim-b74","sku":"100136874","price":8.99,"originalPrice":null,"currencyCode":"RON","currency":"Lei","image":{"thumbnail":{"default":"https://cdn.freshful.ro/media/cache/sylius_shop_product_thumbnail/7a/50/165350deda72919ef0516feba96c.jpg"},"large":{"default":"https://cdn.freshful.ro/media/cache/freshful_large/7a/50/165350deda72919ef0516feba96c.jpg"},"extralarge":{"default":"https://cdn.freshful.ro/media/cache/sylius_shop_product_original/7a/50/165350deda72919ef0516feba96c.jpg"}},"label":null,"tags":[{"type":"NoE","text":"Fara E-uri","icon":"https://cdn.freshful.ro/assets/product_tags/fara_euri.svg","iconPng":"https://cdn.freshful.ro/assets/product_tags/fara_euri.png","backgroundColor":"#FCF5DF","textColor":"#CAA316"},{"type":"NoPreservatives","text":"Fara conservanti","icon":"https://cdn.freshful.ro/assets/product_tags/fara_conservanti.svg","iconPng":"https://cdn.freshful.ro/assets/product_tags/fara_conservanti.png","backgroundColor":"#F0F2FF","textColor":"#7889DD"}],"isAvailable":true,"maxAvailableQuantity":100,"maxAllowedQuantity":100,"breadcrumbs":[{"code":"5","name":"Mezeluri & ready meals","slug":"5-mezeluri-si-ready-to-cook"},{"code":"502","name":"Mezeluri feliate","slug":"502-mezeluri-feliate"},{"code":"50201","name":"Mezeluri de pasăre feliate","slug":"50201-mezeluri-de-pasare-feliate"},{"code":"100136874","name":"Șuncă de curcan obrăjori 80g","slug":"100136874-cris-tim-sunca-de-curcan-obrajori-80g"}],"activePromotion":null,"saveMe":null,"labels":[],"geniusPrice":null,"geniusUnitPricePerLabel":null,"banner":null,"discountLabel":null,"geniusDiscountLabel":null,"badge":null},{"code":"100138934","variantCode":"100138934","name":"Șuncă presată curcan feliată 150g","slug":"100138934-diana-sunca-presata-curcan-feliata-150g","unitPriceLabel":"66,6 Lei/kg","brand":"Diana","brandCode":"355","brandFilterCode":"diana-b356","sku":"100138934","price":9.99,"originalPrice":null,"currencyCode":"RON","currency":"Lei","image":{"thumbnail":{"default":"https://cdn.freshful.ro/media/cache/sylius_shop_product_thumbnail/20/7a/616615ce0abfcc2621913195df93.jpg"},"large":{"default":"https://cdn.freshful.ro/media/cache/freshful_large/20/7a/616615ce0abfcc2621913195df93.jpg"},"extralarge":{"default":"https://cdn.freshful.ro/media/cache/sylius_shop_product_original/20/7a/616615ce0abfcc2621913195df93.jpg"}},"label":null,"tags":[],"isAvailable":true,"maxAvailableQuantity":72,"maxAllowedQuantity":100,"breadcrumbs":[{"code":"5","name":"Mezeluri & ready meals","slug":"5-mezeluri-si-ready-to-cook"},{"code":"502","name":"Mezeluri feliate","slug":"502-mezeluri-feliate"},{"code":"50201","name":"Mezeluri de pasăre feliate","slug":"50201-mezeluri-de-pasare-feliate"},{"code":"100138934","name":"Șuncă presată curcan feliată 150g","slug":"100138934-diana-sunca-presata-curcan-feliata-150g"}],"activePromotion":null,"saveMe":null,"labels":[],"geniusPrice":null,"geniusUnitPricePerLabel":null,"banner":null,"discountLabel":null,"geniusDiscountLabel":null,"badge":null},{"code":"100061589","variantCode":"100061589","name":"Șuncă din piept de curcan 100g","slug":"100061589-meda-sunca-din-piept-de-curcan-100g","unitPriceLabel":"92,9 Lei/kg","brand":"Meda","brandCode":"701","brandFilterCode":"meda-b702","sku":"100061589","price":9.29,"originalPrice":null,"currencyCode":"RON","currency":"Lei","image":{"thumbnail":{"default":"https://cdn.freshful.ro/media/cache/sylius_shop_product_thumbnail/41/83/e5038d1b76f82f937a4a9971552c.jpg"},"large":{"default":"https://cdn.freshful.ro/media/cache/freshful_large/41/83/e5038d1b76f82f937a4a9971552c.jpg"},"extralarge":{"default":"https://cdn.freshful.ro/media/cache/sylius_shop_product_original/41/83/e5038d1b76f82f937a4a9971552c.jpg"}},"label":null,"tags":[],"isAvailable":true,"maxAvailableQuantity":62,"maxAllowedQuantity":100,"breadcrumbs":[{"code":"5","name":"Mezeluri & ready meals","slug":"5-mezeluri-si-ready-to-cook"},{"code":"502","name":"Mezeluri feliate","slug":"502-mezeluri-feliate"},{"code":"50201","name":"Mezeluri de pasăre feliate","slug":"50201-mezeluri-de-pasare-feliate"},{"code":"100061589","name":"Șuncă din piept de curcan 100g","slug":"100061589-meda-sunca-din-piept-de-curcan-100g"}],"activePromotion":null,"saveMe":null,"labels":[],"geniusPrice":null,"geniusUnitPricePerLabel":null,"banner":null,"discountLabel":null,"geniusDiscountLabel":null,"badge":null},{"code":"100044953","variantCode":"5941348028149","name":"Jambon din piept de curcan feliat 170g","slug":"100044953-sissi-jambon-din-piept-de-curcan-feliat-170g","unitPriceLabel":"102,88 Lei/kg","brand":"Sissi","brandCode":"803","brandFilterCode":"sissi-b804","sku":"100044953","price":17.49,"originalPrice":null,"currencyCode":"RON","currency":"Lei","image":{"thumbnail":{"default":"https://cdn.freshful.ro/media/cache/sylius_shop_product_thumbnail/86/b2/a22b7ce7525f9da2f6163501fa64.jpg"},"large":{"default":"https://cdn.freshful.ro/media/cache/freshful_large/86/b2/a22b7ce7525f9da2f6163501fa64.jpg"},"extralarge":{"default":"https://cdn.freshful.ro/media/cache/sylius_shop_product_original/86/b2/a22b7ce7525f9da2f6163501fa64.jpg"}},"label":null,"tags":[],"isAvailable":true,"maxAvailableQuantity":49,"maxAllowedQuantity":100,"breadcrumbs":[{"code":"5","name":"Mezeluri & ready meals","slug":"5-mezeluri-si-ready-to-cook"},{"code":"502","name":"Mezeluri feliate","slug":"502-mezeluri-feliate"},{"code":"50201","name":"Mezeluri de pasăre feliate","slug":"50201-mezeluri-de-pasare-feliate"},{"code":"100044953","name":"Jambon din piept de curcan feliat 170g","slug":"100044953-sissi-jambon-din-piept-de-curcan-feliat-170g"}],"activePromotion":null,"saveMe":null,"labels":[],"geniusPrice":null,"geniusUnitPricePerLabel":null,"banner":null,"discountLabel":null,"geniusDiscountLabel":null,"badge":null},{"code":"100136875","variantCode":"100136875","name":"Șuncă de pui obrăjori 80g","slug":"100136875-cris-tim-sunca-de-pui-obrajori-80g","unitPriceLabel":"106,13 Lei/kg","brand":"Cris-Tim","brandCode":"76","brandFilterCode":"cris-tim-b74","sku":"100136875","price":8.49,"originalPrice":null,"currencyCode":"RON","currency":"Lei","image":{"thumbnail":{"default":"https://cdn.freshful.ro/media/cache/sylius_shop_product_thumbnail/9b/07/aaf36540cfc9e2150dce80216caa.jpg"},"large":{"default":"https://cdn.freshful.ro/media/cache/freshful_large/9b/07/aaf36540cfc9e2150dce80216caa.jpg"},"extralarge":{"default":"https://cdn.freshful.ro/media/cache/sylius_shop_product_original/9b/07/aaf36540cfc9e2150dce80216caa.jpg"}},"label":null,"tags":[{"type":"NoE","text":"Fara E-uri","icon":"https://cdn.freshful.ro/assets/product_tags/fara_euri.svg","iconPng":"https://cdn.freshful.ro/assets/product_tags/fara_euri.png","backgroundColor":"#FCF5DF","textColor":"#CAA316"},{"type":"NoGluten","text":"Fara gluten","icon":"https://cdn.freshful.ro/assets/product_tags/fara_gluten.svg","iconPng":"https://cdn.freshful.ro/assets/product_tags/fara_gluten.png","backgroundColor":"#FFF2E5","textColor":"#F07900"},{"type":"NoPreservatives","text":"Fara conservanti","icon":"https://cdn.freshful.ro/assets/product_tags/fara_conservanti.svg","iconPng":"https://cdn.freshful.ro/assets/product_tags/fara_conservanti.png","backgroundColor":"#F0F2FF","textColor":"#7889DD"}],"isAvailable":true,"maxAvailableQuantity":44,"maxAllowedQuantity":100,"breadcrumbs":[{"code":"5","name":"Mezeluri & ready meals","slug":"5-mezeluri-si-ready-to-cook"},{"code":"502","name":"Mezeluri feliate","slug":"502-mezeluri-feliate"},{"code":"50201","name":"Mezeluri de pasăre feliate","slug":"50201-mezeluri-de-pasare-feliate"},{"code":"100136875","name":"Șuncă de pui obrăjori 80g","slug":"100136875-cris-tim-sunca-de-pui-obrajori-80g"}],"activePromotion":null,"saveMe":null,"labels":[],"geniusPrice":null,"geniusUnitPricePerLabel":null,"banner":null,"discountLabel":null,"geniusDiscountLabel":null,"badge":null}],"filters":{"countSelected":0,"items":[{"code":"promotion","name":"Promoții","countSelected":0,"values":[{"code":"bunatatile-saptamanii-cw0923","name":"Oferta proaspătă a săptămânii","isSelected":false,"count":3}]},{"code":"brand","name":"Brand","countSelected":0,"values":[{"code":"aldis-b214","name":"Aldis","isSelected":false,"count":1},{"code":"bravito-b2948","name":"Bravito!","isSelected":false,"count":1},{"code":"cris-tim-b74","name":"Cris-Tim","isSelected":false,"count":4},{"code":"diana-b356","name":"Diana","isSelected":false,"count":1},{"code":"espina-b42","name":"Espina","isSelected":false,"count":3},{"code":"matache-macelaru-b75","name":"Matache Măcelaru","isSelected":false,"count":2},{"code":"meda-b702","name":"Meda","isSelected":false,"count":1},{"code":"mos-iosif-b701","name":"Moș Iosif","isSelected":false,"count":1},{"code":"prodprosper-b3084","name":"Prodprosper","isSelected":false,"count":1},{"code":"reinert-b969","name":"Reinert","isSelected":false,"count":1},{"code":"reinert-martinel-b968","name":"Reinert Martinel","isSelected":false,"count":1},{"code":"sissi-b804","name":"Sissi","isSelected":false,"count":3}]},{"code":"diet_lifestyle","name":"Dietă și lifestyle","countSelected":0,"values":[{"code":"fara-conservanti-a37","name":"Fara conservanti","isSelected":false,"count":2},{"code":"fara-e-uri-a84","name":"Fara E-uri","isSelected":false,"count":2},{"code":"fara-gluten-a16","name":"Fara gluten","isSelected":false,"count":10},{"code":"fara-lactoza-a38","name":"Fara lactoza","isSelected":false,"count":4},{"code":"made-in-romania-a85","name":"Made In Romania","isSelected":false,"count":1}]}]},"orderBy":[{"field":"price","direction":"asc","name":"Preț crescător","isSelected":false},{"field":"price","direction":"desc","name":"Preț descrescător","isSelected":false},{"field":"popularity","direction":"desc","name":"Cele mai populare","isSelected":true},{"field":"category","direction":"asc","name":"Categorie","isSelected":false}],"metaTitle":"Mezeluri de pasăre feliate - Gamă variată","metaDescription":"Vrei Mezeluri de pasăre feliate? Alege dintr-o gamă variată. Comanzi simplu și ai livrare rapidă, calitate și prospețime. Hai pe Freshful.ro","metaKeywords":null,"banners":[]}}