{"type":"subcategory","payload":{"analyticsListId":"category_50202-mezeluri-de-porc-feliate","analyticsListName":"Category - Mezeluri de porc feliate","name":"Mezeluri de porc feliate","slug":"50202-mezeluri-de-porc-feliate","image":null,"breadcrumbs":[{"code":"5","name":"Mezeluri & ready meals","slug":"5-mezeluri-si-ready-to-cook"},{"code":"502","name":"Mezeluri feliate","slug":"502-mezeluri-feliate"},{"code":"50202","name":"Mezeluri de porc feliate","slug":"50202-mezeluri-de-porc-feliate"}],"slots":[],"page":1,"limit":10,"pages":15,"count":142,"siblings":[{"name":"Mezeluri","slug":"501-mezeluri","selected":false},{"name":"Mezeluri feliate","slug":"502-mezeluri-feliate","selected":true},{"name":"Pizza și aluat","slug":"503-pizza-si-aluat","selected":false},{"name":"Paste proaspete","slug":"504-paste-proaspete","selected":false},{"name":"Ready meals","slug":"505-ready-meal","selected":false}],"children":[{"name":"Toate produsele","slug":"502-mezeluri-feliate","selected":false},{"name":"Mezeluri de pasăre feliate","slug":"50201-mezeluri-de-pasare-feliate","selected":false},{"name":"Mezeluri de porc feliate","slug":"50202-mezeluri-de-porc-feliate","selected":true},{"name":"Mezeluri de vită feliate","slug":"50203-mezeluri-de-vita-feliate","selected":false},{"name":"Mezeluri feliate ECO","slug":"mezeluri-feliate-eco","selected":false}],"products":[{"code":"100001815","variantCode":"5941265018575","name":"Mușchi file 100g","slug":"100001815-matache-macelaru-muschi-file-100g","unitPriceLabel":"77,5 Lei/kg","brand":"Matache Măcelaru","brandCode":"77","brandFilterCode":"matache-macelaru-b75","sku":"100001815","price":7.75,"originalPrice":null,"currencyCode":"RON","currency":"Lei","image":{"thumbnail":{"default":"https://cdn.freshful.ro/media/cache/sylius_shop_product_thumbnail/8e/4e/c779cb91021b728dbfd9b6450640.jpg"},"large":{"default":"https://cdn.freshful.ro/media/cache/freshful_large/8e/4e/c779cb91021b728dbfd9b6450640.jpg"},"extralarge":{"default":"https://cdn.freshful.ro/media/cache/sylius_shop_product_original/8e/4e/c779cb91021b728dbfd9b6450640.jpg"}},"label":{"text":"-20% cu Genius","backgroundColor":"#FEF3FA","textColor":"#CD015F"},"tags":[{"type":"NoGluten","text":"Fara gluten","icon":"https://cdn.freshful.ro/assets/product_tags/fara_gluten.svg","iconPng":"https://cdn.freshful.ro/assets/product_tags/fara_gluten.png","backgroundColor":"#FFF2E5","textColor":"#F07900"}],"isAvailable":true,"maxAvailableQuantity":3,"maxAllowedQuantity":3,"breadcrumbs":[{"code":"5","name":"Mezeluri & ready meals","slug":"5-mezeluri-si-ready-to-cook"},{"code":"502","name":"Mezeluri feliate","slug":"502-mezeluri-feliate"},{"code":"50202","name":"Mezeluri de porc feliate","slug":"50202-mezeluri-de-porc-feliate"},{"code":"100001815","name":"Mușchi file 100g","slug":"100001815-matache-macelaru-muschi-file-100g"}],"activePromotion":null,"saveMe":null,"labels":[{"type":"gdeals","items":[{"text":"","backgroundColor":"","textColor":""}]},{"type":"v3","items":[{"text":"-20% cu Genius","backgroundColor":"#FEF3FA","textColor":"#CD015F"}]}],"geniusPrice":6.2,"geniusUnitPricePerLabel":"62 Lei/kg","banner":null,"discountLabel":null,"geniusDiscountLabel":"Economisești 20%","badge":null},{"code":"100148135","variantCode":"100148135","name":"Șuncă Praga 150g","slug":"100148135-matache-macelaru-sunca-praga-150g","unitPriceLabel":"60,6 Lei/kg","brand":"Matache Măcelaru","brandCode":"77","brandFilterCode":"matache-macelaru-b75","sku":"100148135","price":9.09,"originalPrice":11.49,"currencyCode":"RON","currency":"Lei","image":{"thumbnail":{"default":"https://cdn.freshful.ro/media/cache/sylius_shop_product_thumbnail/9e/85/20a9b046ac1896a8fe7030cdcd61.jpg"},"large":{"default":"https://cdn.freshful.ro/media/cache/freshful_large/9e/85/20a9b046ac1896a8fe7030cdcd61.jpg"},"extralarge":{"default":"https://cdn.freshful.ro/media/cache/sylius_shop_product_original/9e/85/20a9b046ac1896a8fe7030cdcd61.jpg"}},"label":{"text":"-20%","backgroundColor":"#FF9903","textColor":"#FFFFFF"},"tags":[{"type":"NoGluten","text":"Fara gluten","icon":"https://cdn.freshful.ro/assets/product_tags/fara_gluten.svg","iconPng":"https://cdn.freshful.ro/assets/product_tags/fara_gluten.png","backgroundColor":"#FFF2E5","textColor":"#F07900"}],"isAvailable":true,"maxAvailableQuantity":100,"maxAllowedQuantity":100,"breadcrumbs":[{"code":"5","name":"Mezeluri & ready meals","slug":"5-mezeluri-si-ready-to-cook"},{"code":"502","name":"Mezeluri feliate","slug":"502-mezeluri-feliate"},{"code":"50202","name":"Mezeluri de porc feliate","slug":"50202-mezeluri-de-porc-feliate"},{"code":"100148135","name":"Șuncă Praga 150g","slug":"100148135-matache-macelaru-sunca-praga-150g"}],"activePromotion":{"code":"freshful-top-deals-2023","name":"Preț redus","targetQuantity":null},"saveMe":null,"labels":[{"type":"v1","items":[{"text":"-20%","backgroundColor":"#FF9903","textColor":"#FFFFFF"}]}],"geniusPrice":null,"geniusUnitPricePerLabel":null,"banner":{"text":"Super preț","textColor":"#FF0000","bgColor":"#FFF2EC","icon":null,"link":"https://www.freshful.ro/oferte/freshful-top-deals-2023","type":"promo","analyticsEventType":"select_promotion","analyticsEventPayload":{"promotion_id":"freshful-top-deals-2023","promotion_name":"Profită de Top Deals"}},"discountLabel":"Economisești 20%","geniusDiscountLabel":null,"badge":null},{"code":"100001819","variantCode":"5941265000433","name":"Salam săsesc 100g","slug":"100001819-cris-tim-salam-sasesc-100g","unitPriceLabel":"55,9 Lei/kg","brand":"Cris-Tim","brandCode":"76","brandFilterCode":"cris-tim-b74","sku":"100001819","price":5.59,"originalPrice":6.59,"currencyCode":"RON","currency":"Lei","image":{"thumbnail":{"default":"https://cdn.freshful.ro/media/cache/sylius_shop_product_thumbnail/b5/86/e12ffa0dffb4b737b17dc0dda650.jpg"},"large":{"default":"https://cdn.freshful.ro/media/cache/freshful_large/b5/86/e12ffa0dffb4b737b17dc0dda650.jpg"},"extralarge":{"default":"https://cdn.freshful.ro/media/cache/sylius_shop_product_original/b5/86/e12ffa0dffb4b737b17dc0dda650.jpg"}},"label":{"text":"-15%","backgroundColor":"#FF9903","textColor":"#FFFFFF"},"tags":[],"isAvailable":true,"maxAvailableQuantity":100,"maxAllowedQuantity":100,"breadcrumbs":[{"code":"5","name":"Mezeluri & ready meals","slug":"5-mezeluri-si-ready-to-cook"},{"code":"502","name":"Mezeluri feliate","slug":"502-mezeluri-feliate"},{"code":"50202","name":"Mezeluri de porc feliate","slug":"50202-mezeluri-de-porc-feliate"},{"code":"100001819","name":"Salam săsesc 100g","slug":"100001819-cris-tim-salam-sasesc-100g"}],"activePromotion":{"code":"freshful-top-deals-2023","name":"Preț redus","targetQuantity":null},"saveMe":null,"labels":[{"type":"v1","items":[{"text":"-15%","backgroundColor":"#FF9903","textColor":"#FFFFFF"}]}],"geniusPrice":null,"geniusUnitPricePerLabel":null,"banner":{"text":"Super preț","textColor":"#FF0000","bgColor":"#FFF2EC","icon":null,"link":"https://www.freshful.ro/oferte/freshful-top-deals-2023","type":"promo","analyticsEventType":"select_promotion","analyticsEventPayload":{"promotion_id":"freshful-top-deals-2023","promotion_name":"Profită de Top Deals"}},"discountLabel":"Economisești 15%","geniusDiscountLabel":null,"badge":null},{"code":"100062997","variantCode":"100062997","name":"Mușchi file cu înveliș de mirodenii, feliat 100g","slug":"100062997-reinert-muschi-file-cu-invelis-de-mirodenii-feliat-100g","unitPriceLabel":"74,9 Lei/kg","brand":"Reinert","brandCode":"955","brandFilterCode":"reinert-b969","sku":"100062997","price":7.49,"originalPrice":8.75,"currencyCode":"RON","currency":"Lei","image":{"thumbnail":{"default":"https://cdn.freshful.ro/media/cache/sylius_shop_product_thumbnail/f1/8b/33e9638b61e7d5dd3f3a6d233333.jpg"},"large":{"default":"https://cdn.freshful.ro/media/cache/freshful_large/f1/8b/33e9638b61e7d5dd3f3a6d233333.jpg"},"extralarge":{"default":"https://cdn.freshful.ro/media/cache/sylius_shop_product_original/f1/8b/33e9638b61e7d5dd3f3a6d233333.jpg"}},"label":{"text":"-14%","backgroundColor":"#FF9903","textColor":"#FFFFFF"},"tags":[],"isAvailable":true,"maxAvailableQuantity":9,"maxAllowedQuantity":100,"breadcrumbs":[{"code":"5","name":"Mezeluri & ready meals","slug":"5-mezeluri-si-ready-to-cook"},{"code":"502","name":"Mezeluri feliate","slug":"502-mezeluri-feliate"},{"code":"50202","name":"Mezeluri de porc feliate","slug":"50202-mezeluri-de-porc-feliate"},{"code":"100062997","name":"Mușchi file cu înveliș de mirodenii, feliat 100g","slug":"100062997-reinert-muschi-file-cu-invelis-de-mirodenii-feliat-100g"}],"activePromotion":{"code":"bunatatile-saptamanii-cw0923","name":"Preț redus","targetQuantity":null},"saveMe":null,"labels":[{"type":"v1","items":[{"text":"-14%","backgroundColor":"#FF9903","textColor":"#FFFFFF"}]}],"geniusPrice":null,"geniusUnitPricePerLabel":null,"banner":{"text":"Super preț","textColor":"#FF0000","bgColor":"#FFF2EC","icon":null,"link":"https://www.freshful.ro/oferte/bunatatile-saptamanii-cw0923","type":"promo","analyticsEventType":"select_promotion","analyticsEventPayload":{"promotion_id":"bunatatile-saptamanii-cw0923","promotion_name":"Oferta proaspătă a săptămânii"}},"discountLabel":"Economisești 14%","geniusDiscountLabel":null,"badge":null},{"code":"100136876","variantCode":"100136876","name":"Șuncă de porc obrăjori 80g","slug":"100136876-cris-tim-sunca-de-porc-obrajori-80g","unitPriceLabel":"84,88 Lei/kg","brand":"Cris-Tim","brandCode":"76","brandFilterCode":"cris-tim-b74","sku":"100136876","price":6.79,"originalPrice":7.99,"currencyCode":"RON","currency":"Lei","image":{"thumbnail":{"default":"https://cdn.freshful.ro/media/cache/sylius_shop_product_thumbnail/c4/41/e5564875a556371e60a3cfb704ff.jpg"},"large":{"default":"https://cdn.freshful.ro/media/cache/freshful_large/c4/41/e5564875a556371e60a3cfb704ff.jpg"},"extralarge":{"default":"https://cdn.freshful.ro/media/cache/sylius_shop_product_original/c4/41/e5564875a556371e60a3cfb704ff.jpg"}},"label":{"text":"-15%","backgroundColor":"#FF9903","textColor":"#FFFFFF"},"tags":[{"type":"NoE","text":"Fara E-uri","icon":"https://cdn.freshful.ro/assets/product_tags/fara_euri.svg","iconPng":"https://cdn.freshful.ro/assets/product_tags/fara_euri.png","backgroundColor":"#FCF5DF","textColor":"#CAA316"},{"type":"NoPreservatives","text":"Fara conservanti","icon":"https://cdn.freshful.ro/assets/product_tags/fara_conservanti.svg","iconPng":"https://cdn.freshful.ro/assets/product_tags/fara_conservanti.png","backgroundColor":"#F0F2FF","textColor":"#7889DD"}],"isAvailable":true,"maxAvailableQuantity":42,"maxAllowedQuantity":100,"breadcrumbs":[{"code":"5","name":"Mezeluri & ready meals","slug":"5-mezeluri-si-ready-to-cook"},{"code":"502","name":"Mezeluri feliate","slug":"502-mezeluri-feliate"},{"code":"50202","name":"Mezeluri de porc feliate","slug":"50202-mezeluri-de-porc-feliate"},{"code":"100136876","name":"Șuncă de porc obrăjori 80g","slug":"100136876-cris-tim-sunca-de-porc-obrajori-80g"}],"activePromotion":{"code":"freshful-top-deals-2023","name":"Preț redus","targetQuantity":null},"saveMe":null,"labels":[{"type":"v1","items":[{"text":"-15%","backgroundColor":"#FF9903","textColor":"#FFFFFF"}]}],"geniusPrice":null,"geniusUnitPricePerLabel":null,"banner":{"text":"Super preț","textColor":"#FF0000","bgColor":"#FFF2EC","icon":null,"link":"https://www.freshful.ro/oferte/freshful-top-deals-2023","type":"promo","analyticsEventType":"select_promotion","analyticsEventPayload":{"promotion_id":"freshful-top-deals-2023","promotion_name":"Profită de Top Deals"}},"discountLabel":"Economisești 15%","geniusDiscountLabel":null,"badge":null},{"code":"100143930","variantCode":"100143930","name":"Salam Martinel din carne de porc 90g","slug":"100143930-reinert-martinel-salam-martinel-din-carne-de-porc-90g","unitPriceLabel":"116,56 Lei/kg","brand":"Reinert Martinel","brandCode":"954","brandFilterCode":"reinert-martinel-b968","sku":"100143930","price":10.49,"originalPrice":11.99,"currencyCode":"RON","currency":"Lei","image":{"thumbnail":{"default":"https://cdn.freshful.ro/media/cache/sylius_shop_product_thumbnail/c8/34/330a5f800c591ab4cd2ea4bdd035.jpg"},"large":{"default":"https://cdn.freshful.ro/media/cache/freshful_large/c8/34/330a5f800c591ab4cd2ea4bdd035.jpg"},"extralarge":{"default":"https://cdn.freshful.ro/media/cache/sylius_shop_product_original/c8/34/330a5f800c591ab4cd2ea4bdd035.jpg"}},"label":{"text":"-12%","backgroundColor":"#FF9903","textColor":"#FFFFFF"},"tags":[{"type":"NoGluten","text":"Fara gluten","icon":"https://cdn.freshful.ro/assets/product_tags/fara_gluten.svg","iconPng":"https://cdn.freshful.ro/assets/product_tags/fara_gluten.png","backgroundColor":"#FFF2E5","textColor":"#F07900"},{"type":"LactoseFree","text":"Fara lactoza","icon":"https://cdn.freshful.ro/assets/product_tags/fara_lactoza.svg","iconPng":"https://cdn.freshful.ro/assets/product_tags/fara_lactoza.png","backgroundColor":"#E9F7FB","textColor":"#25A6D0"}],"isAvailable":true,"maxAvailableQuantity":47,"maxAllowedQuantity":100,"breadcrumbs":[{"code":"5","name":"Mezeluri & ready meals","slug":"5-mezeluri-si-ready-to-cook"},{"code":"502","name":"Mezeluri feliate","slug":"502-mezeluri-feliate"},{"code":"50202","name":"Mezeluri de porc feliate","slug":"50202-mezeluri-de-porc-feliate"},{"code":"100143930","name":"Salam Martinel din carne de porc 90g","slug":"100143930-reinert-martinel-salam-martinel-din-carne-de-porc-90g"}],"activePromotion":{"code":"bunatatile-saptamanii-cw0923","name":"Preț redus","targetQuantity":null},"saveMe":null,"labels":[{"type":"v1","items":[{"text":"-12%","backgroundColor":"#FF9903","textColor":"#FFFFFF"}]}],"geniusPrice":null,"geniusUnitPricePerLabel":null,"banner":{"text":"Super preț","textColor":"#FF0000","bgColor":"#FFF2EC","icon":null,"link":"https://www.freshful.ro/oferte/bunatatile-saptamanii-cw0923","type":"promo","analyticsEventType":"select_promotion","analyticsEventPayload":{"promotion_id":"bunatatile-saptamanii-cw0923","promotion_name":"Oferta proaspătă a săptămânii"}},"discountLabel":"Economisești 12%","geniusDiscountLabel":null,"badge":null},{"code":"100062990","variantCode":"100062990","name":"Salam de Sibiu IGP feliat 100g","slug":"100062990-reinert-salam-de-sibiu-igp-feliat-100g","unitPriceLabel":"124,9 Lei/kg","brand":"Reinert","brandCode":"955","brandFilterCode":"reinert-b969","sku":"100062990","price":12.49,"originalPrice":null,"currencyCode":"RON","currency":"Lei","image":{"thumbnail":{"default":"https://cdn.freshful.ro/media/cache/sylius_shop_product_thumbnail/7f/67/c65ec887fbd7e99267b5050cdeec.jpg"},"large":{"default":"https://cdn.freshful.ro/media/cache/freshful_large/7f/67/c65ec887fbd7e99267b5050cdeec.jpg"},"extralarge":{"default":"https://cdn.freshful.ro/media/cache/sylius_shop_product_original/7f/67/c65ec887fbd7e99267b5050cdeec.jpg"}},"label":null,"tags":[],"isAvailable":true,"maxAvailableQuantity":100,"maxAllowedQuantity":100,"breadcrumbs":[{"code":"5","name":"Mezeluri & ready meals","slug":"5-mezeluri-si-ready-to-cook"},{"code":"502","name":"Mezeluri feliate","slug":"502-mezeluri-feliate"},{"code":"50202","name":"Mezeluri de porc feliate","slug":"50202-mezeluri-de-porc-feliate"},{"code":"100062990","name":"Salam de Sibiu IGP feliat 100g","slug":"100062990-reinert-salam-de-sibiu-igp-feliat-100g"}],"activePromotion":null,"saveMe":null,"labels":[],"geniusPrice":null,"geniusUnitPricePerLabel":null,"banner":null,"discountLabel":null,"geniusDiscountLabel":null,"badge":null},{"code":"100031487","variantCode":"5941460008197","name":"Salam de Sibiu feliat vid 150g","slug":"100031487-agricola-salam-de-sibiu-feliat-vid-150g","unitPriceLabel":"110,6 Lei/kg","brand":"Agricola","brandCode":"70","brandFilterCode":"agricola-b68","sku":"100031487","price":16.59,"originalPrice":null,"currencyCode":"RON","currency":"Lei","image":{"thumbnail":{"default":"https://cdn.freshful.ro/media/cache/sylius_shop_product_thumbnail/80/e7/f785b48f1f3a765f7f6267c28010.jpg"},"large":{"default":"https://cdn.freshful.ro/media/cache/freshful_large/80/e7/f785b48f1f3a765f7f6267c28010.jpg"},"extralarge":{"default":"https://cdn.freshful.ro/media/cache/sylius_shop_product_original/80/e7/f785b48f1f3a765f7f6267c28010.jpg"}},"label":null,"tags":[],"isAvailable":true,"maxAvailableQuantity":100,"maxAllowedQuantity":100,"breadcrumbs":[{"code":"5","name":"Mezeluri & ready meals","slug":"5-mezeluri-si-ready-to-cook"},{"code":"502","name":"Mezeluri feliate","slug":"502-mezeluri-feliate"},{"code":"50202","name":"Mezeluri de porc feliate","slug":"50202-mezeluri-de-porc-feliate"},{"code":"100031487","name":"Salam de Sibiu feliat vid 150g","slug":"100031487-agricola-salam-de-sibiu-feliat-vid-150g"}],"activePromotion":null,"saveMe":null,"labels":[],"geniusPrice":null,"geniusUnitPricePerLabel":null,"banner":null,"discountLabel":null,"geniusDiscountLabel":null,"badge":null},{"code":"100061590","variantCode":"100061590","name":"Șuncă Praga feliată 200g","slug":"100061590-meda-sunca-praga-feliata-200g","unitPriceLabel":"57,45 Lei/kg","brand":"Meda","brandCode":"701","brandFilterCode":"meda-b702","sku":"100061590","price":11.49,"originalPrice":null,"currencyCode":"RON","currency":"Lei","image":{"thumbnail":{"default":"https://cdn.freshful.ro/media/cache/sylius_shop_product_thumbnail/3e/9b/47ecac121f8ae1ac0d28b2047da2.jpg"},"large":{"default":"https://cdn.freshful.ro/media/cache/freshful_large/3e/9b/47ecac121f8ae1ac0d28b2047da2.jpg"},"extralarge":{"default":"https://cdn.freshful.ro/media/cache/sylius_shop_product_original/3e/9b/47ecac121f8ae1ac0d28b2047da2.jpg"}},"label":null,"tags":[],"isAvailable":true,"maxAvailableQuantity":100,"maxAllowedQuantity":100,"breadcrumbs":[{"code":"5","name":"Mezeluri & ready meals","slug":"5-mezeluri-si-ready-to-cook"},{"code":"502","name":"Mezeluri feliate","slug":"502-mezeluri-feliate"},{"code":"50202","name":"Mezeluri de porc feliate","slug":"50202-mezeluri-de-porc-feliate"},{"code":"100061590","name":"Șuncă Praga feliată 200g","slug":"100061590-meda-sunca-praga-feliata-200g"}],"activePromotion":null,"saveMe":null,"labels":[],"geniusPrice":null,"geniusUnitPricePerLabel":null,"banner":null,"discountLabel":null,"geniusDiscountLabel":null,"badge":null},{"code":"100001827","variantCode":"5941265020028","name":"Bacon 100g","slug":"100001827-cris-tim-bacon-100g","unitPriceLabel":"74,9 Lei/kg","brand":"Cris-Tim","brandCode":"76","brandFilterCode":"cris-tim-b74","sku":"100001827","price":7.49,"originalPrice":null,"currencyCode":"RON","currency":"Lei","image":{"thumbnail":{"default":"https://cdn.freshful.ro/media/cache/sylius_shop_product_thumbnail/ef/6a/d6bf57890c373941a8dd65869697.jpg"},"large":{"default":"https://cdn.freshful.ro/media/cache/freshful_large/ef/6a/d6bf57890c373941a8dd65869697.jpg"},"extralarge":{"default":"https://cdn.freshful.ro/media/cache/sylius_shop_product_original/ef/6a/d6bf57890c373941a8dd65869697.jpg"}},"label":null,"tags":[],"isAvailable":true,"maxAvailableQuantity":100,"maxAllowedQuantity":100,"breadcrumbs":[{"code":"5","name":"Mezeluri & ready meals","slug":"5-mezeluri-si-ready-to-cook"},{"code":"502","name":"Mezeluri feliate","slug":"502-mezeluri-feliate"},{"code":"50202","name":"Mezeluri de porc feliate","slug":"50202-mezeluri-de-porc-feliate"},{"code":"100001827","name":"Bacon 100g","slug":"100001827-cris-tim-bacon-100g"}],"activePromotion":null,"saveMe":null,"labels":[],"geniusPrice":null,"geniusUnitPricePerLabel":null,"banner":null,"discountLabel":null,"geniusDiscountLabel":null,"badge":null}],"filters":{"countSelected":0,"items":[{"code":"promotion","name":"Promoții","countSelected":0,"values":[{"code":"bunatatile-saptamanii-cw0923","name":"Oferta proaspătă a săptămânii","isSelected":false,"count":4},{"code":"freshful-top-deals-2023","name":"Profită de Top Deals","isSelected":false,"count":3}]},{"code":"brand","name":"Brand","countSelected":0,"values":[{"code":"abraham-b823","name":"Abraham","isSelected":false,"count":3},{"code":"agricola-b68","name":"Agricola","isSelected":false,"count":8},{"code":"aldis-b214","name":"Aldis","isSelected":false,"count":2},{"code":"angst-b218","name":"Angst","isSelected":false,"count":1},{"code":"bell-b824","name":"Bell","isSelected":false,"count":1},{"code":"beretta-b1663","name":"Beretta","isSelected":false,"count":2},{"code":"bravito-b2948","name":"Bravito!","isSelected":false,"count":1},{"code":"campofrio-b806","name":"Campofrio","isSelected":false,"count":1},{"code":"caroli-b805","name":"Caroli","isSelected":false,"count":11},{"code":"casa-modena-b1660","name":"Casa Modena","isSelected":false,"count":3},{"code":"cesar-nieto-b1026","name":"Cesar Nieto","isSelected":false,"count":5},{"code":"cris-tim-b74","name":"Cris-Tim","isSelected":false,"count":9},{"code":"delicii-din-traditii-b582","name":"Delicii din Tradiţii","isSelected":false,"count":5},{"code":"diana-b356","name":"Diana","isSelected":false,"count":6},{"code":"espina-b42","name":"Espina","isSelected":false,"count":13},{"code":"fox-b41","name":"Fox","isSelected":false,"count":5},{"code":"marcel-b826","name":"Marcel","isSelected":false,"count":5},{"code":"matache-macelaru-b75","name":"Matache Măcelaru","isSelected":false,"count":3},{"code":"meda-b702","name":"Meda","isSelected":false,"count":4},{"code":"moldova-in-bucate-b2913","name":"Moldova In Bucate","isSelected":false,"count":10},{"code":"negroni-b1662","name":"Negroni","isSelected":false,"count":4},{"code":"pick-b536","name":"Pick","isSelected":false,"count":6},{"code":"prodprosper-b3084","name":"Prodprosper","isSelected":false,"count":6},{"code":"reinert-b969","name":"Reinert","isSelected":false,"count":12},{"code":"reinert-martinel-b968","name":"Reinert Martinel","isSelected":false,"count":2},{"code":"ringa-b537","name":"Ringa","isSelected":false,"count":1},{"code":"san-michele-b825","name":"San Michele","isSelected":false,"count":1},{"code":"silvania-gourmet-b496","name":"Silvania Gourmet","isSelected":false,"count":4},{"code":"sissi-b804","name":"Sissi","isSelected":false,"count":6},{"code":"zimbo-b822","name":"Zimbo","isSelected":false,"count":2}]},{"code":"diet_lifestyle","name":"Dietă și lifestyle","countSelected":0,"values":[{"code":"eco-a83","name":"Eco","isSelected":false,"count":1},{"code":"fara-conservanti-a37","name":"Fara conservanti","isSelected":false,"count":2},{"code":"fara-e-uri-a84","name":"Fara E-uri","isSelected":false,"count":3},{"code":"fara-gluten-a16","name":"Fara gluten","isSelected":false,"count":38},{"code":"fara-lactoza-a38","name":"Fara lactoza","isSelected":false,"count":9},{"code":"made-in-romania-a85","name":"Made In Romania","isSelected":false,"count":9}]}]},"orderBy":[{"field":"price","direction":"asc","name":"Preț crescător","isSelected":false},{"field":"price","direction":"desc","name":"Preț descrescător","isSelected":false},{"field":"popularity","direction":"desc","name":"Cele mai populare","isSelected":true},{"field":"category","direction":"asc","name":"Categorie","isSelected":false}],"metaTitle":"Mezeluri de porc feliate - Gamă variată","metaDescription":"Vrei Mezeluri de porc feliate? Alege dintr-o gamă variată. Comanzi simplu și ai livrare rapidă, calitate și prospețime. Hai pe Freshful.ro","metaKeywords":null,"banners":[]}}