{"type":"subcategory","payload":{"analyticsListId":"category_504-paste-proaspete","analyticsListName":"Category - Paste proaspete","name":"Paste proaspete","slug":"504-paste-proaspete","image":null,"breadcrumbs":[{"code":"5","name":"Mezeluri & ready meals","slug":"5-mezeluri-si-ready-to-cook"},{"code":"504","name":"Paste proaspete","slug":"504-paste-proaspete"}],"slots":[],"page":1,"limit":10,"pages":4,"count":32,"siblings":[{"name":"Mezeluri","slug":"501-mezeluri","selected":false},{"name":"Mezeluri feliate","slug":"502-mezeluri-feliate","selected":false},{"name":"Pizza și aluat","slug":"503-pizza-si-aluat","selected":false},{"name":"Paste proaspete","slug":"504-paste-proaspete","selected":true},{"name":"Ready meals","slug":"505-ready-meal","selected":false}],"children":[{"name":"Toate produsele","slug":"504-paste-proaspete","selected":true},{"name":"Paste proaspete fără ou","slug":"50401-paste-proaspate-fara-ou","selected":false},{"name":"Paste proaspete cu ou","slug":"50402-paste-proaspete-cu-ou","selected":false}],"products":[{"code":"100087388","variantCode":"100087388","name":"Paste proaspete Gnocchi din cartofi 500g","slug":"100087388-antica-corte-paste-proaspete-gnocchi-din-cartofi-500g","unitPriceLabel":"11,98 Lei/kg","brand":"Antica Corte","brandCode":"526","brandFilterCode":"antica-corte-b527","sku":"100087388","price":5.99,"originalPrice":9.59,"currencyCode":"RON","currency":"Lei","image":{"thumbnail":{"default":"https://cdn.freshful.ro/media/cache/sylius_shop_product_thumbnail/fc/4d/122ef7e557c844103face50ce6d2.jpg"},"large":{"default":"https://cdn.freshful.ro/media/cache/freshful_large/fc/4d/122ef7e557c844103face50ce6d2.jpg"},"extralarge":{"default":"https://cdn.freshful.ro/media/cache/sylius_shop_product_original/fc/4d/122ef7e557c844103face50ce6d2.jpg"}},"label":{"text":"-37%","backgroundColor":"#FF9903","textColor":"#FFFFFF"},"tags":[],"isAvailable":true,"maxAvailableQuantity":50,"maxAllowedQuantity":100,"breadcrumbs":[{"code":"5","name":"Mezeluri & ready meals","slug":"5-mezeluri-si-ready-to-cook"},{"code":"504","name":"Paste proaspete","slug":"504-paste-proaspete"},{"code":"50401","name":"Paste proaspete fără ou","slug":"50401-paste-proaspate-fara-ou"},{"code":"100087388","name":"Paste proaspete Gnocchi din cartofi 500g","slug":"100087388-antica-corte-paste-proaspete-gnocchi-din-cartofi-500g"}],"activePromotion":{"code":"bunatatile-saptamanii-cw0923","name":"Preț redus","targetQuantity":null},"saveMe":null,"labels":[{"type":"v1","items":[{"text":"-37%","backgroundColor":"#FF9903","textColor":"#FFFFFF"}]}],"geniusPrice":null,"geniusUnitPricePerLabel":null,"banner":{"text":"Super preț","textColor":"#FF0000","bgColor":"#FFF2EC","icon":null,"link":"https://www.freshful.ro/oferte/bunatatile-saptamanii-cw0923","type":"promo","analyticsEventType":"select_promotion","analyticsEventPayload":{"promotion_id":"bunatatile-saptamanii-cw0923","promotion_name":"Oferta proaspătă a săptămânii"}},"discountLabel":"Economisești 37%","geniusDiscountLabel":null,"badge":null},{"code":"100098853","variantCode":"8001665713153","name":"Paste proaspete Ravioli umplute cu 4 tipuri de brânză 250g","slug":"100098853-rana-paste-proaspete-ravioli-umplute-cu-4-tipuri-de-branza-250g","unitPriceLabel":"55,56 Lei/kg","brand":"Rana","brandCode":"1654","brandFilterCode":"rana-b1658","sku":"100098853","price":13.89,"originalPrice":null,"currencyCode":"RON","currency":"Lei","image":{"thumbnail":{"default":"https://cdn.freshful.ro/media/cache/sylius_shop_product_thumbnail/87/53/d169b1d6ca26e68580f85c6e9e03.jpg"},"large":{"default":"https://cdn.freshful.ro/media/cache/freshful_large/87/53/d169b1d6ca26e68580f85c6e9e03.jpg"},"extralarge":{"default":"https://cdn.freshful.ro/media/cache/sylius_shop_product_original/87/53/d169b1d6ca26e68580f85c6e9e03.jpg"}},"label":null,"tags":[{"type":"NoPreservatives","text":"Fara conservanti","icon":"https://cdn.freshful.ro/assets/product_tags/fara_conservanti.svg","iconPng":"https://cdn.freshful.ro/assets/product_tags/fara_conservanti.png","backgroundColor":"#F0F2FF","textColor":"#7889DD"}],"isAvailable":true,"maxAvailableQuantity":100,"maxAllowedQuantity":100,"breadcrumbs":[{"code":"5","name":"Mezeluri & ready meals","slug":"5-mezeluri-si-ready-to-cook"},{"code":"504","name":"Paste proaspete","slug":"504-paste-proaspete"},{"code":"50402","name":"Paste proaspete cu ou","slug":"50402-paste-proaspete-cu-ou"},{"code":"100098853","name":"Paste proaspete Ravioli umplute cu 4 tipuri de brânză 250g","slug":"100098853-rana-paste-proaspete-ravioli-umplute-cu-4-tipuri-de-branza-250g"}],"activePromotion":null,"saveMe":null,"labels":[],"geniusPrice":null,"geniusUnitPricePerLabel":null,"banner":null,"discountLabel":null,"geniusDiscountLabel":null,"badge":null},{"code":"100098855","variantCode":"8001665713177","name":"Paste proaspete Tortellini umplute cu ricotta și spanac 250g","slug":"100098855-rana-paste-proaspete-tortellini-umplute-cu-ricotta-si-spanac-250g","unitPriceLabel":"55,56 Lei/kg","brand":"Rana","brandCode":"1654","brandFilterCode":"rana-b1658","sku":"100098855","price":13.89,"originalPrice":null,"currencyCode":"RON","currency":"Lei","image":{"thumbnail":{"default":"https://cdn.freshful.ro/media/cache/sylius_shop_product_thumbnail/ae/42/169ae0ee61593fac2799d0761dc5.jpg"},"large":{"default":"https://cdn.freshful.ro/media/cache/freshful_large/ae/42/169ae0ee61593fac2799d0761dc5.jpg"},"extralarge":{"default":"https://cdn.freshful.ro/media/cache/sylius_shop_product_original/ae/42/169ae0ee61593fac2799d0761dc5.jpg"}},"label":null,"tags":[{"type":"NoPreservatives","text":"Fara conservanti","icon":"https://cdn.freshful.ro/assets/product_tags/fara_conservanti.svg","iconPng":"https://cdn.freshful.ro/assets/product_tags/fara_conservanti.png","backgroundColor":"#F0F2FF","textColor":"#7889DD"}],"isAvailable":true,"maxAvailableQuantity":100,"maxAllowedQuantity":100,"breadcrumbs":[{"code":"5","name":"Mezeluri & ready meals","slug":"5-mezeluri-si-ready-to-cook"},{"code":"504","name":"Paste proaspete","slug":"504-paste-proaspete"},{"code":"50401","name":"Paste proaspete fără ou","slug":"50401-paste-proaspate-fara-ou"},{"code":"100098855","name":"Paste proaspete Tortellini umplute cu ricotta și spanac 250g","slug":"100098855-rana-paste-proaspete-tortellini-umplute-cu-ricotta-si-spanac-250g"}],"activePromotion":null,"saveMe":null,"labels":[],"geniusPrice":null,"geniusUnitPricePerLabel":null,"banner":null,"discountLabel":null,"geniusDiscountLabel":null,"badge":null},{"code":"100061750","variantCode":"100061750","name":"Sos pesto 130g","slug":"100061750-cascina-lia-sos-pesto-130g","unitPriceLabel":"73 Lei/kg","brand":"Cascina Lia","brandCode":"915","brandFilterCode":"cascina-lia-b916","sku":"100061750","price":9.49,"originalPrice":null,"currencyCode":"RON","currency":"Lei","image":{"thumbnail":{"default":"https://cdn.freshful.ro/media/cache/sylius_shop_product_thumbnail/c5/ed/494ce209231d5f998193170b2bf4.jpg"},"large":{"default":"https://cdn.freshful.ro/media/cache/freshful_large/c5/ed/494ce209231d5f998193170b2bf4.jpg"},"extralarge":{"default":"https://cdn.freshful.ro/media/cache/sylius_shop_product_original/c5/ed/494ce209231d5f998193170b2bf4.jpg"}},"label":null,"tags":[],"isAvailable":true,"maxAvailableQuantity":92,"maxAllowedQuantity":100,"breadcrumbs":[{"code":"5","name":"Mezeluri & ready meals","slug":"5-mezeluri-si-ready-to-cook"},{"code":"504","name":"Paste proaspete","slug":"504-paste-proaspete"},{"code":"50402","name":"Paste proaspete cu ou","slug":"50402-paste-proaspete-cu-ou"},{"code":"100061750","name":"Sos pesto 130g","slug":"100061750-cascina-lia-sos-pesto-130g"}],"activePromotion":null,"saveMe":null,"labels":[],"geniusPrice":null,"geniusUnitPricePerLabel":null,"banner":null,"discountLabel":null,"geniusDiscountLabel":null,"badge":null},{"code":"100035491","variantCode":"100035491","name":"Paste proaspete Tagliatelle 250g","slug":"100035491-maffei-paste-proaspete-tagliatelle-250g","unitPriceLabel":"32,2 Lei/kg","brand":"Maffei","brandCode":"527","brandFilterCode":"maffei-b528","sku":"100035491","price":8.05,"originalPrice":null,"currencyCode":"RON","currency":"Lei","image":{"thumbnail":{"default":"https://cdn.freshful.ro/media/cache/sylius_shop_product_thumbnail/e9/f8/d2962597e5862e55e662ba281d11.jpg"},"large":{"default":"https://cdn.freshful.ro/media/cache/freshful_large/e9/f8/d2962597e5862e55e662ba281d11.jpg"},"extralarge":{"default":"https://cdn.freshful.ro/media/cache/sylius_shop_product_original/e9/f8/d2962597e5862e55e662ba281d11.jpg"}},"label":null,"tags":[],"isAvailable":true,"maxAvailableQuantity":77,"maxAllowedQuantity":100,"breadcrumbs":[{"code":"5","name":"Mezeluri & ready meals","slug":"5-mezeluri-si-ready-to-cook"},{"code":"504","name":"Paste proaspete","slug":"504-paste-proaspete"},{"code":"50402","name":"Paste proaspete cu ou","slug":"50402-paste-proaspete-cu-ou"},{"code":"100035491","name":"Paste proaspete Tagliatelle 250g","slug":"100035491-maffei-paste-proaspete-tagliatelle-250g"}],"activePromotion":null,"saveMe":null,"labels":[],"geniusPrice":null,"geniusUnitPricePerLabel":null,"banner":null,"discountLabel":null,"geniusDiscountLabel":null,"badge":null},{"code":"100098854","variantCode":"8001665713184","name":"Paste proaspete Tortellini umplute cu prosciutto crudo și brânză 250g","slug":"100098854-rana-paste-proaspete-tortellini-umplute-cu-prosciutto-crudo-si-branza-250g","unitPriceLabel":"55,96 Lei/kg","brand":"Rana","brandCode":"1654","brandFilterCode":"rana-b1658","sku":"100098854","price":13.99,"originalPrice":null,"currencyCode":"RON","currency":"Lei","image":{"thumbnail":{"default":"https://cdn.freshful.ro/media/cache/sylius_shop_product_thumbnail/03/bf/b642912baa97450d007d1a29033c.jpg"},"large":{"default":"https://cdn.freshful.ro/media/cache/freshful_large/03/bf/b642912baa97450d007d1a29033c.jpg"},"extralarge":{"default":"https://cdn.freshful.ro/media/cache/sylius_shop_product_original/03/bf/b642912baa97450d007d1a29033c.jpg"}},"label":null,"tags":[{"type":"NoPreservatives","text":"Fara conservanti","icon":"https://cdn.freshful.ro/assets/product_tags/fara_conservanti.svg","iconPng":"https://cdn.freshful.ro/assets/product_tags/fara_conservanti.png","backgroundColor":"#F0F2FF","textColor":"#7889DD"}],"isAvailable":true,"maxAvailableQuantity":47,"maxAllowedQuantity":100,"breadcrumbs":[{"code":"5","name":"Mezeluri & ready meals","slug":"5-mezeluri-si-ready-to-cook"},{"code":"504","name":"Paste proaspete","slug":"504-paste-proaspete"},{"code":"50401","name":"Paste proaspete fără ou","slug":"50401-paste-proaspate-fara-ou"},{"code":"100098854","name":"Paste proaspete Tortellini umplute cu prosciutto crudo și brânză 250g","slug":"100098854-rana-paste-proaspete-tortellini-umplute-cu-prosciutto-crudo-si-branza-250g"}],"activePromotion":null,"saveMe":null,"labels":[],"geniusPrice":null,"geniusUnitPricePerLabel":null,"banner":null,"discountLabel":null,"geniusDiscountLabel":null,"badge":null},{"code":"100035485","variantCode":"100035485","name":"Paste proaspete Tortellini umplute cu prosciutto crudo 250g","slug":"100035485-antica-corte-paste-proaspete-tortellini-umplute-cu-prosciutto-crudo-250g","unitPriceLabel":"43,96 Lei/kg","brand":"Antica Corte","brandCode":"526","brandFilterCode":"antica-corte-b527","sku":"100035485","price":10.99,"originalPrice":null,"currencyCode":"RON","currency":"Lei","image":{"thumbnail":{"default":"https://cdn.freshful.ro/media/cache/sylius_shop_product_thumbnail/e8/d9/a05ddc938965fd28d1297d17eb64.jpg"},"large":{"default":"https://cdn.freshful.ro/media/cache/freshful_large/e8/d9/a05ddc938965fd28d1297d17eb64.jpg"},"extralarge":{"default":"https://cdn.freshful.ro/media/cache/sylius_shop_product_original/e8/d9/a05ddc938965fd28d1297d17eb64.jpg"}},"label":null,"tags":[],"isAvailable":true,"maxAvailableQuantity":100,"maxAllowedQuantity":100,"breadcrumbs":[{"code":"5","name":"Mezeluri & ready meals","slug":"5-mezeluri-si-ready-to-cook"},{"code":"504","name":"Paste proaspete","slug":"504-paste-proaspete"},{"code":"50402","name":"Paste proaspete cu ou","slug":"50402-paste-proaspete-cu-ou"},{"code":"100035485","name":"Paste proaspete Tortellini umplute cu prosciutto crudo 250g","slug":"100035485-antica-corte-paste-proaspete-tortellini-umplute-cu-prosciutto-crudo-250g"}],"activePromotion":null,"saveMe":null,"labels":[],"geniusPrice":null,"geniusUnitPricePerLabel":null,"banner":null,"discountLabel":null,"geniusDiscountLabel":null,"badge":null},{"code":"100142127","variantCode":"100142127","name":"Paste proaspete Ravioli umplute cu ciuperci 250g","slug":"100142127-rana-paste-proaspete-ravioli-umplute-cu-ciuperci-250g","unitPriceLabel":"63,96 Lei/kg","brand":"Rana","brandCode":"1654","brandFilterCode":"rana-b1658","sku":"100142127","price":15.99,"originalPrice":null,"currencyCode":"RON","currency":"Lei","image":{"thumbnail":{"default":"https://cdn.freshful.ro/media/cache/sylius_shop_product_thumbnail/86/2a/486d4642979d65c2d95824c60773.jpg"},"large":{"default":"https://cdn.freshful.ro/media/cache/freshful_large/86/2a/486d4642979d65c2d95824c60773.jpg"},"extralarge":{"default":"https://cdn.freshful.ro/media/cache/sylius_shop_product_original/86/2a/486d4642979d65c2d95824c60773.jpg"}},"label":null,"tags":[{"type":"NoPreservatives","text":"Fara conservanti","icon":"https://cdn.freshful.ro/assets/product_tags/fara_conservanti.svg","iconPng":"https://cdn.freshful.ro/assets/product_tags/fara_conservanti.png","backgroundColor":"#F0F2FF","textColor":"#7889DD"}],"isAvailable":true,"maxAvailableQuantity":51,"maxAllowedQuantity":100,"breadcrumbs":[{"code":"5","name":"Mezeluri & ready meals","slug":"5-mezeluri-si-ready-to-cook"},{"code":"504","name":"Paste proaspete","slug":"504-paste-proaspete"},{"code":"50402","name":"Paste proaspete cu ou","slug":"50402-paste-proaspete-cu-ou"},{"code":"100142127","name":"Paste proaspete Ravioli umplute cu ciuperci 250g","slug":"100142127-rana-paste-proaspete-ravioli-umplute-cu-ciuperci-250g"}],"activePromotion":null,"saveMe":null,"labels":[],"geniusPrice":null,"geniusUnitPricePerLabel":null,"banner":null,"discountLabel":null,"geniusDiscountLabel":null,"badge":null},{"code":"100098852","variantCode":"8001665705783","name":"Paste proaspete Ravioli umplute cu ricotta, spanac și burrata, eco 250g","slug":"100098852-rana-paste-proaspete-ravioli-umplute-cu-ricotta-spanac-si-burrata-eco-250g","unitPriceLabel":"93,96 Lei/kg","brand":"Rana","brandCode":"1654","brandFilterCode":"rana-b1658","sku":"100098852","price":23.49,"originalPrice":null,"currencyCode":"RON","currency":"Lei","image":{"thumbnail":{"default":"https://cdn.freshful.ro/media/cache/sylius_shop_product_thumbnail/6f/5b/e878d5c16ba50032c05a83fe2e23.jpg"},"large":{"default":"https://cdn.freshful.ro/media/cache/freshful_large/6f/5b/e878d5c16ba50032c05a83fe2e23.jpg"},"extralarge":{"default":"https://cdn.freshful.ro/media/cache/sylius_shop_product_original/6f/5b/e878d5c16ba50032c05a83fe2e23.jpg"}},"label":null,"tags":[{"type":"Eco","text":"Eco","icon":"https://cdn.freshful.ro/assets/product_tags/eco.svg","iconPng":"https://cdn.freshful.ro/assets/product_tags/eco.png","backgroundColor":"#EFFBE4","textColor":"#66BB1B"}],"isAvailable":true,"maxAvailableQuantity":14,"maxAllowedQuantity":100,"breadcrumbs":[{"code":"5","name":"Mezeluri & ready meals","slug":"5-mezeluri-si-ready-to-cook"},{"code":"504","name":"Paste proaspete","slug":"504-paste-proaspete"},{"code":"50401","name":"Paste proaspete fără ou","slug":"50401-paste-proaspate-fara-ou"},{"code":"100098852","name":"Paste proaspete Ravioli umplute cu ricotta, spanac și burrata, eco 250g","slug":"100098852-rana-paste-proaspete-ravioli-umplute-cu-ricotta-spanac-si-burrata-eco-250g"}],"activePromotion":null,"saveMe":null,"labels":[],"geniusPrice":null,"geniusUnitPricePerLabel":null,"banner":null,"discountLabel":null,"geniusDiscountLabel":null,"badge":null},{"code":"100142130","variantCode":"100142130","name":"Paste proaspete Gnocchi din cartofi 500g","slug":"100142130-rana-paste-proaspete-gnocchi-din-cartofi-500g","unitPriceLabel":"28,98 Lei/kg","brand":"Rana","brandCode":"1654","brandFilterCode":"rana-b1658","sku":"100142130","price":14.49,"originalPrice":null,"currencyCode":"RON","currency":"Lei","image":{"thumbnail":{"default":"https://cdn.freshful.ro/media/cache/sylius_shop_product_thumbnail/60/a3/b71c977faa2ded5cdde710effd26.jpg"},"large":{"default":"https://cdn.freshful.ro/media/cache/freshful_large/60/a3/b71c977faa2ded5cdde710effd26.jpg"},"extralarge":{"default":"https://cdn.freshful.ro/media/cache/sylius_shop_product_original/60/a3/b71c977faa2ded5cdde710effd26.jpg"}},"label":null,"tags":[{"type":"NoPreservatives","text":"Fara conservanti","icon":"https://cdn.freshful.ro/assets/product_tags/fara_conservanti.svg","iconPng":"https://cdn.freshful.ro/assets/product_tags/fara_conservanti.png","backgroundColor":"#F0F2FF","textColor":"#7889DD"}],"isAvailable":true,"maxAvailableQuantity":36,"maxAllowedQuantity":100,"breadcrumbs":[{"code":"5","name":"Mezeluri & ready meals","slug":"5-mezeluri-si-ready-to-cook"},{"code":"504","name":"Paste proaspete","slug":"504-paste-proaspete"},{"code":"50401","name":"Paste proaspete fără ou","slug":"50401-paste-proaspate-fara-ou"},{"code":"100142130","name":"Paste proaspete Gnocchi din cartofi 500g","slug":"100142130-rana-paste-proaspete-gnocchi-din-cartofi-500g"}],"activePromotion":null,"saveMe":null,"labels":[],"geniusPrice":null,"geniusUnitPricePerLabel":null,"banner":null,"discountLabel":null,"geniusDiscountLabel":null,"badge":null}],"filters":{"countSelected":0,"items":[{"code":"promotion","name":"Promoții","countSelected":0,"values":[{"code":"bunatatile-saptamanii-cw0923","name":"Oferta proaspătă a săptămânii","isSelected":false,"count":1}]},{"code":"brand","name":"Brand","countSelected":0,"values":[{"code":"adora-b514","name":"Adora","isSelected":false,"count":1},{"code":"antica-corte-b527","name":"Antica Corte","isSelected":false,"count":5},{"code":"cascina-lia-b916","name":"Cascina Lia","isSelected":false,"count":2},{"code":"food-glory-b2756","name":"Food & Glory","isSelected":false,"count":6},{"code":"maffei-b528","name":"Maffei","isSelected":false,"count":7},{"code":"rana-b1658","name":"Rana","isSelected":false,"count":11}]},{"code":"diet_lifestyle","name":"Dietă și lifestyle","countSelected":0,"values":[{"code":"eco-a83","name":"Eco","isSelected":false,"count":2},{"code":"fara-conservanti-a37","name":"Fara conservanti","isSelected":false,"count":7}]}]},"orderBy":[{"field":"price","direction":"asc","name":"Preț crescător","isSelected":false},{"field":"price","direction":"desc","name":"Preț descrescător","isSelected":false},{"field":"popularity","direction":"desc","name":"Cele mai populare","isSelected":true},{"field":"category","direction":"asc","name":"Categorie","isSelected":false}],"metaTitle":"Paste proaspete - Gamă variată","metaDescription":"Vrei Paste proaspete? Alege dintr-o gamă variată. Comanzi simplu și ai livrare rapidă, calitate și prospețime. Hai pe Freshful.ro","metaKeywords":null,"banners":[]}}