{"type":"subcategory","payload":{"analyticsListId":"category_50402-paste-proaspete-cu-ou","analyticsListName":"Category - Paste proaspete cu ou","name":"Paste proaspete cu ou","slug":"50402-paste-proaspete-cu-ou","image":null,"breadcrumbs":[{"code":"5","name":"Mezeluri & ready meals","slug":"5-mezeluri-si-ready-to-cook"},{"code":"504","name":"Paste proaspete","slug":"504-paste-proaspete"},{"code":"50402","name":"Paste proaspete cu ou","slug":"50402-paste-proaspete-cu-ou"}],"slots":[],"page":1,"limit":10,"pages":3,"count":25,"siblings":[{"name":"Mezeluri","slug":"501-mezeluri","selected":false},{"name":"Mezeluri feliate","slug":"502-mezeluri-feliate","selected":false},{"name":"Pizza și aluat","slug":"503-pizza-si-aluat","selected":false},{"name":"Paste proaspete","slug":"504-paste-proaspete","selected":true},{"name":"Ready meals","slug":"505-ready-meal","selected":false}],"children":[{"name":"Toate produsele","slug":"504-paste-proaspete","selected":false},{"name":"Paste proaspete fără ou","slug":"50401-paste-proaspate-fara-ou","selected":false},{"name":"Paste proaspete cu ou","slug":"50402-paste-proaspete-cu-ou","selected":true}],"products":[{"code":"100098853","variantCode":"8001665713153","name":"Paste proaspete Ravioli umplute cu 4 tipuri de brânză 250g","slug":"100098853-rana-paste-proaspete-ravioli-umplute-cu-4-tipuri-de-branza-250g","unitPriceLabel":"55,56 Lei/kg","brand":"Rana","brandCode":"1654","brandFilterCode":"rana-b1658","sku":"100098853","price":13.89,"originalPrice":null,"currencyCode":"RON","currency":"Lei","image":{"thumbnail":{"default":"https://cdn.freshful.ro/media/cache/sylius_shop_product_thumbnail/87/53/d169b1d6ca26e68580f85c6e9e03.jpg"},"large":{"default":"https://cdn.freshful.ro/media/cache/freshful_large/87/53/d169b1d6ca26e68580f85c6e9e03.jpg"},"extralarge":{"default":"https://cdn.freshful.ro/media/cache/sylius_shop_product_original/87/53/d169b1d6ca26e68580f85c6e9e03.jpg"}},"label":null,"tags":[{"type":"NoPreservatives","text":"Fara conservanti","icon":"https://cdn.freshful.ro/assets/product_tags/fara_conservanti.svg","iconPng":"https://cdn.freshful.ro/assets/product_tags/fara_conservanti.png","backgroundColor":"#F0F2FF","textColor":"#7889DD"}],"isAvailable":true,"maxAvailableQuantity":100,"maxAllowedQuantity":100,"breadcrumbs":[{"code":"5","name":"Mezeluri & ready meals","slug":"5-mezeluri-si-ready-to-cook"},{"code":"504","name":"Paste proaspete","slug":"504-paste-proaspete"},{"code":"50402","name":"Paste proaspete cu ou","slug":"50402-paste-proaspete-cu-ou"},{"code":"100098853","name":"Paste proaspete Ravioli umplute cu 4 tipuri de brânză 250g","slug":"100098853-rana-paste-proaspete-ravioli-umplute-cu-4-tipuri-de-branza-250g"}],"activePromotion":null,"saveMe":null,"labels":[],"geniusPrice":null,"geniusUnitPricePerLabel":null,"banner":null,"discountLabel":null,"geniusDiscountLabel":null,"badge":null},{"code":"100061750","variantCode":"100061750","name":"Sos pesto 130g","slug":"100061750-cascina-lia-sos-pesto-130g","unitPriceLabel":"73 Lei/kg","brand":"Cascina Lia","brandCode":"915","brandFilterCode":"cascina-lia-b916","sku":"100061750","price":9.49,"originalPrice":null,"currencyCode":"RON","currency":"Lei","image":{"thumbnail":{"default":"https://cdn.freshful.ro/media/cache/sylius_shop_product_thumbnail/c5/ed/494ce209231d5f998193170b2bf4.jpg"},"large":{"default":"https://cdn.freshful.ro/media/cache/freshful_large/c5/ed/494ce209231d5f998193170b2bf4.jpg"},"extralarge":{"default":"https://cdn.freshful.ro/media/cache/sylius_shop_product_original/c5/ed/494ce209231d5f998193170b2bf4.jpg"}},"label":null,"tags":[],"isAvailable":true,"maxAvailableQuantity":92,"maxAllowedQuantity":100,"breadcrumbs":[{"code":"5","name":"Mezeluri & ready meals","slug":"5-mezeluri-si-ready-to-cook"},{"code":"504","name":"Paste proaspete","slug":"504-paste-proaspete"},{"code":"50402","name":"Paste proaspete cu ou","slug":"50402-paste-proaspete-cu-ou"},{"code":"100061750","name":"Sos pesto 130g","slug":"100061750-cascina-lia-sos-pesto-130g"}],"activePromotion":null,"saveMe":null,"labels":[],"geniusPrice":null,"geniusUnitPricePerLabel":null,"banner":null,"discountLabel":null,"geniusDiscountLabel":null,"badge":null},{"code":"100035491","variantCode":"100035491","name":"Paste proaspete Tagliatelle 250g","slug":"100035491-maffei-paste-proaspete-tagliatelle-250g","unitPriceLabel":"32,2 Lei/kg","brand":"Maffei","brandCode":"527","brandFilterCode":"maffei-b528","sku":"100035491","price":8.05,"originalPrice":null,"currencyCode":"RON","currency":"Lei","image":{"thumbnail":{"default":"https://cdn.freshful.ro/media/cache/sylius_shop_product_thumbnail/e9/f8/d2962597e5862e55e662ba281d11.jpg"},"large":{"default":"https://cdn.freshful.ro/media/cache/freshful_large/e9/f8/d2962597e5862e55e662ba281d11.jpg"},"extralarge":{"default":"https://cdn.freshful.ro/media/cache/sylius_shop_product_original/e9/f8/d2962597e5862e55e662ba281d11.jpg"}},"label":null,"tags":[],"isAvailable":true,"maxAvailableQuantity":77,"maxAllowedQuantity":100,"breadcrumbs":[{"code":"5","name":"Mezeluri & ready meals","slug":"5-mezeluri-si-ready-to-cook"},{"code":"504","name":"Paste proaspete","slug":"504-paste-proaspete"},{"code":"50402","name":"Paste proaspete cu ou","slug":"50402-paste-proaspete-cu-ou"},{"code":"100035491","name":"Paste proaspete Tagliatelle 250g","slug":"100035491-maffei-paste-proaspete-tagliatelle-250g"}],"activePromotion":null,"saveMe":null,"labels":[],"geniusPrice":null,"geniusUnitPricePerLabel":null,"banner":null,"discountLabel":null,"geniusDiscountLabel":null,"badge":null},{"code":"100035485","variantCode":"100035485","name":"Paste proaspete Tortellini umplute cu prosciutto crudo 250g","slug":"100035485-antica-corte-paste-proaspete-tortellini-umplute-cu-prosciutto-crudo-250g","unitPriceLabel":"43,96 Lei/kg","brand":"Antica Corte","brandCode":"526","brandFilterCode":"antica-corte-b527","sku":"100035485","price":10.99,"originalPrice":null,"currencyCode":"RON","currency":"Lei","image":{"thumbnail":{"default":"https://cdn.freshful.ro/media/cache/sylius_shop_product_thumbnail/e8/d9/a05ddc938965fd28d1297d17eb64.jpg"},"large":{"default":"https://cdn.freshful.ro/media/cache/freshful_large/e8/d9/a05ddc938965fd28d1297d17eb64.jpg"},"extralarge":{"default":"https://cdn.freshful.ro/media/cache/sylius_shop_product_original/e8/d9/a05ddc938965fd28d1297d17eb64.jpg"}},"label":null,"tags":[],"isAvailable":true,"maxAvailableQuantity":100,"maxAllowedQuantity":100,"breadcrumbs":[{"code":"5","name":"Mezeluri & ready meals","slug":"5-mezeluri-si-ready-to-cook"},{"code":"504","name":"Paste proaspete","slug":"504-paste-proaspete"},{"code":"50402","name":"Paste proaspete cu ou","slug":"50402-paste-proaspete-cu-ou"},{"code":"100035485","name":"Paste proaspete Tortellini umplute cu prosciutto crudo 250g","slug":"100035485-antica-corte-paste-proaspete-tortellini-umplute-cu-prosciutto-crudo-250g"}],"activePromotion":null,"saveMe":null,"labels":[],"geniusPrice":null,"geniusUnitPricePerLabel":null,"banner":null,"discountLabel":null,"geniusDiscountLabel":null,"badge":null},{"code":"100142127","variantCode":"100142127","name":"Paste proaspete Ravioli umplute cu ciuperci 250g","slug":"100142127-rana-paste-proaspete-ravioli-umplute-cu-ciuperci-250g","unitPriceLabel":"63,96 Lei/kg","brand":"Rana","brandCode":"1654","brandFilterCode":"rana-b1658","sku":"100142127","price":15.99,"originalPrice":null,"currencyCode":"RON","currency":"Lei","image":{"thumbnail":{"default":"https://cdn.freshful.ro/media/cache/sylius_shop_product_thumbnail/86/2a/486d4642979d65c2d95824c60773.jpg"},"large":{"default":"https://cdn.freshful.ro/media/cache/freshful_large/86/2a/486d4642979d65c2d95824c60773.jpg"},"extralarge":{"default":"https://cdn.freshful.ro/media/cache/sylius_shop_product_original/86/2a/486d4642979d65c2d95824c60773.jpg"}},"label":null,"tags":[{"type":"NoPreservatives","text":"Fara conservanti","icon":"https://cdn.freshful.ro/assets/product_tags/fara_conservanti.svg","iconPng":"https://cdn.freshful.ro/assets/product_tags/fara_conservanti.png","backgroundColor":"#F0F2FF","textColor":"#7889DD"}],"isAvailable":true,"maxAvailableQuantity":51,"maxAllowedQuantity":100,"breadcrumbs":[{"code":"5","name":"Mezeluri & ready meals","slug":"5-mezeluri-si-ready-to-cook"},{"code":"504","name":"Paste proaspete","slug":"504-paste-proaspete"},{"code":"50402","name":"Paste proaspete cu ou","slug":"50402-paste-proaspete-cu-ou"},{"code":"100142127","name":"Paste proaspete Ravioli umplute cu ciuperci 250g","slug":"100142127-rana-paste-proaspete-ravioli-umplute-cu-ciuperci-250g"}],"activePromotion":null,"saveMe":null,"labels":[],"geniusPrice":null,"geniusUnitPricePerLabel":null,"banner":null,"discountLabel":null,"geniusDiscountLabel":null,"badge":null},{"code":"100035487","variantCode":"100035487","name":"Paste proaspete Tortelloni umplute cu brânză 250g","slug":"100035487-antica-corte-paste-proaspete-tortelloni-umplute-cu-branza-250g","unitPriceLabel":"39,96 Lei/kg","brand":"Antica Corte","brandCode":"526","brandFilterCode":"antica-corte-b527","sku":"100035487","price":9.99,"originalPrice":null,"currencyCode":"RON","currency":"Lei","image":{"thumbnail":{"default":"https://cdn.freshful.ro/media/cache/sylius_shop_product_thumbnail/2c/fd/d7cae9057df9848924651d7f4c91.jpg"},"large":{"default":"https://cdn.freshful.ro/media/cache/freshful_large/2c/fd/d7cae9057df9848924651d7f4c91.jpg"},"extralarge":{"default":"https://cdn.freshful.ro/media/cache/sylius_shop_product_original/2c/fd/d7cae9057df9848924651d7f4c91.jpg"}},"label":null,"tags":[],"isAvailable":true,"maxAvailableQuantity":62,"maxAllowedQuantity":100,"breadcrumbs":[{"code":"5","name":"Mezeluri & ready meals","slug":"5-mezeluri-si-ready-to-cook"},{"code":"504","name":"Paste proaspete","slug":"504-paste-proaspete"},{"code":"50402","name":"Paste proaspete cu ou","slug":"50402-paste-proaspete-cu-ou"},{"code":"100035487","name":"Paste proaspete Tortelloni umplute cu brânză 250g","slug":"100035487-antica-corte-paste-proaspete-tortelloni-umplute-cu-branza-250g"}],"activePromotion":null,"saveMe":null,"labels":[],"geniusPrice":null,"geniusUnitPricePerLabel":null,"banner":null,"discountLabel":null,"geniusDiscountLabel":null,"badge":null},{"code":"100035490","variantCode":"100035490","name":"Paste proaspete Spaghetti 250g","slug":"100035490-maffei-paste-proaspete-spaghetti-250g","unitPriceLabel":"32,2 Lei/kg","brand":"Maffei","brandCode":"527","brandFilterCode":"maffei-b528","sku":"100035490","price":8.05,"originalPrice":null,"currencyCode":"RON","currency":"Lei","image":{"thumbnail":{"default":"https://cdn.freshful.ro/media/cache/sylius_shop_product_thumbnail/46/c7/7915931fd0152fe7cc271156f999.jpg"},"large":{"default":"https://cdn.freshful.ro/media/cache/freshful_large/46/c7/7915931fd0152fe7cc271156f999.jpg"},"extralarge":{"default":"https://cdn.freshful.ro/media/cache/sylius_shop_product_original/46/c7/7915931fd0152fe7cc271156f999.jpg"}},"label":null,"tags":[],"isAvailable":true,"maxAvailableQuantity":75,"maxAllowedQuantity":100,"breadcrumbs":[{"code":"5","name":"Mezeluri & ready meals","slug":"5-mezeluri-si-ready-to-cook"},{"code":"504","name":"Paste proaspete","slug":"504-paste-proaspete"},{"code":"50402","name":"Paste proaspete cu ou","slug":"50402-paste-proaspete-cu-ou"},{"code":"100035490","name":"Paste proaspete Spaghetti 250g","slug":"100035490-maffei-paste-proaspete-spaghetti-250g"}],"activePromotion":null,"saveMe":null,"labels":[],"geniusPrice":null,"geniusUnitPricePerLabel":null,"banner":null,"discountLabel":null,"geniusDiscountLabel":null,"badge":null},{"code":"100035484","variantCode":"100035484","name":"Paste proaspeți cu ouă, tăiței 250g","slug":"100035484-adora-paste-proaspeti-cu-oua-taitei-250g","unitPriceLabel":"29,96 Lei/kg","brand":"Adora","brandCode":"513","brandFilterCode":"adora-b514","sku":"100035484","price":7.49,"originalPrice":null,"currencyCode":"RON","currency":"Lei","image":{"thumbnail":{"default":"https://cdn.freshful.ro/media/cache/sylius_shop_product_thumbnail/f0/a1/a36de8dbbd5054eb78c798e33968.jpg"},"large":{"default":"https://cdn.freshful.ro/media/cache/freshful_large/f0/a1/a36de8dbbd5054eb78c798e33968.jpg"},"extralarge":{"default":"https://cdn.freshful.ro/media/cache/sylius_shop_product_original/f0/a1/a36de8dbbd5054eb78c798e33968.jpg"}},"label":null,"tags":[],"isAvailable":true,"maxAvailableQuantity":43,"maxAllowedQuantity":100,"breadcrumbs":[{"code":"5","name":"Mezeluri & ready meals","slug":"5-mezeluri-si-ready-to-cook"},{"code":"504","name":"Paste proaspete","slug":"504-paste-proaspete"},{"code":"50402","name":"Paste proaspete cu ou","slug":"50402-paste-proaspete-cu-ou"},{"code":"100035484","name":"Paste proaspeți cu ouă, tăiței 250g","slug":"100035484-adora-paste-proaspeti-cu-oua-taitei-250g"}],"activePromotion":null,"saveMe":null,"labels":[],"geniusPrice":null,"geniusUnitPricePerLabel":null,"banner":null,"discountLabel":null,"geniusDiscountLabel":null,"badge":null},{"code":"100035494","variantCode":"100035494","name":"Paste proaspete foi de Lasagna 250g","slug":"100035494-maffei-paste-proaspete-foi-de-lasagna-250g","unitPriceLabel":"37,96 Lei/kg","brand":"Maffei","brandCode":"527","brandFilterCode":"maffei-b528","sku":"100035494","price":9.49,"originalPrice":null,"currencyCode":"RON","currency":"Lei","image":{"thumbnail":{"default":"https://cdn.freshful.ro/media/cache/sylius_shop_product_thumbnail/e0/fb/092a7a1a978c0342e7c87a0101c8.jpg"},"large":{"default":"https://cdn.freshful.ro/media/cache/freshful_large/e0/fb/092a7a1a978c0342e7c87a0101c8.jpg"},"extralarge":{"default":"https://cdn.freshful.ro/media/cache/sylius_shop_product_original/e0/fb/092a7a1a978c0342e7c87a0101c8.jpg"}},"label":null,"tags":[],"isAvailable":true,"maxAvailableQuantity":100,"maxAllowedQuantity":100,"breadcrumbs":[{"code":"5","name":"Mezeluri & ready meals","slug":"5-mezeluri-si-ready-to-cook"},{"code":"504","name":"Paste proaspete","slug":"504-paste-proaspete"},{"code":"50402","name":"Paste proaspete cu ou","slug":"50402-paste-proaspete-cu-ou"},{"code":"100035494","name":"Paste proaspete foi de Lasagna 250g","slug":"100035494-maffei-paste-proaspete-foi-de-lasagna-250g"}],"activePromotion":null,"saveMe":null,"labels":[],"geniusPrice":null,"geniusUnitPricePerLabel":null,"banner":null,"discountLabel":null,"geniusDiscountLabel":null,"badge":null},{"code":"100035493","variantCode":"100035493","name":"Paste proaspete Pappardelle 250g","slug":"100035493-maffei-paste-proaspete-pappardelle-250g","unitPriceLabel":"32,2 Lei/kg","brand":"Maffei","brandCode":"527","brandFilterCode":"maffei-b528","sku":"100035493","price":8.05,"originalPrice":null,"currencyCode":"RON","currency":"Lei","image":{"thumbnail":{"default":"https://cdn.freshful.ro/media/cache/sylius_shop_product_thumbnail/49/7f/e82179163c3ae00155489f19269f.jpg"},"large":{"default":"https://cdn.freshful.ro/media/cache/freshful_large/49/7f/e82179163c3ae00155489f19269f.jpg"},"extralarge":{"default":"https://cdn.freshful.ro/media/cache/sylius_shop_product_original/49/7f/e82179163c3ae00155489f19269f.jpg"}},"label":null,"tags":[],"isAvailable":true,"maxAvailableQuantity":43,"maxAllowedQuantity":100,"breadcrumbs":[{"code":"5","name":"Mezeluri & ready meals","slug":"5-mezeluri-si-ready-to-cook"},{"code":"504","name":"Paste proaspete","slug":"504-paste-proaspete"},{"code":"50402","name":"Paste proaspete cu ou","slug":"50402-paste-proaspete-cu-ou"},{"code":"100035493","name":"Paste proaspete Pappardelle 250g","slug":"100035493-maffei-paste-proaspete-pappardelle-250g"}],"activePromotion":null,"saveMe":null,"labels":[],"geniusPrice":null,"geniusUnitPricePerLabel":null,"banner":null,"discountLabel":null,"geniusDiscountLabel":null,"badge":null}],"filters":{"countSelected":0,"items":[{"code":"brand","name":"Brand","countSelected":0,"values":[{"code":"adora-b514","name":"Adora","isSelected":false,"count":1},{"code":"antica-corte-b527","name":"Antica Corte","isSelected":false,"count":4},{"code":"cascina-lia-b916","name":"Cascina Lia","isSelected":false,"count":2},{"code":"food-glory-b2756","name":"Food & Glory","isSelected":false,"count":6},{"code":"maffei-b528","name":"Maffei","isSelected":false,"count":5},{"code":"rana-b1658","name":"Rana","isSelected":false,"count":7}]},{"code":"diet_lifestyle","name":"Dietă și lifestyle","countSelected":0,"values":[{"code":"fara-conservanti-a37","name":"Fara conservanti","isSelected":false,"count":4}]}]},"orderBy":[{"field":"price","direction":"asc","name":"Preț crescător","isSelected":false},{"field":"price","direction":"desc","name":"Preț descrescător","isSelected":false},{"field":"popularity","direction":"desc","name":"Cele mai populare","isSelected":true},{"field":"category","direction":"asc","name":"Categorie","isSelected":false}],"metaTitle":"Paste proaspete cu ou - Gamă variată","metaDescription":"Vrei Paste proaspete cu ou? Alege dintr-o gamă variată. Comanzi simplu și ai livrare rapidă, calitate și prospețime. Hai pe Freshful.ro","metaKeywords":null,"banners":[]}}