{"type":"subcategory","payload":{"analyticsListId":"category_505-ready-meal","analyticsListName":"Category - Ready meals","name":"Ready meals","slug":"505-ready-meal","image":null,"breadcrumbs":[{"code":"5","name":"Mezeluri & ready meals","slug":"5-mezeluri-si-ready-to-cook"},{"code":"505","name":"Ready meals","slug":"505-ready-meal"}],"slots":[],"page":1,"limit":10,"pages":7,"count":70,"siblings":[{"name":"Mezeluri","slug":"501-mezeluri","selected":false},{"name":"Mezeluri feliate","slug":"502-mezeluri-feliate","selected":false},{"name":"Pizza și aluat","slug":"503-pizza-si-aluat","selected":false},{"name":"Paste proaspete","slug":"504-paste-proaspete","selected":false},{"name":"Ready meals","slug":"505-ready-meal","selected":true}],"children":[{"name":"Toate produsele","slug":"505-ready-meal","selected":true},{"name":"Salate, sandvișuri și ciorbe","slug":"50501-salata-sadvisuri-si-ciorbe","selected":false},{"name":"Bucătărie libaneză","slug":"50502-bucatarie-libaneza","selected":false},{"name":"Mâncăruri gătite","slug":"50504-mancaruri-gatite","selected":false}],"products":[{"code":"100061748","variantCode":"100061748","name":"Hummus pastă din năut natural 200g ","slug":"100061748-ribella-hummus-pasta-din-naut-natural-200g","unitPriceLabel":"32,45 Lei/kg","brand":"Ribella","brandCode":"914","brandFilterCode":"ribella-b915","sku":"100061748","price":6.49,"originalPrice":7.99,"currencyCode":"RON","currency":"Lei","image":{"thumbnail":{"default":"https://cdn.freshful.ro/media/cache/sylius_shop_product_thumbnail/09/da/b5f03561bf11ae82a5e6a810cee3.jpg"},"large":{"default":"https://cdn.freshful.ro/media/cache/freshful_large/09/da/b5f03561bf11ae82a5e6a810cee3.jpg"},"extralarge":{"default":"https://cdn.freshful.ro/media/cache/sylius_shop_product_original/09/da/b5f03561bf11ae82a5e6a810cee3.jpg"}},"label":{"text":"-18%","backgroundColor":"#FF9903","textColor":"#FFFFFF"},"tags":[{"type":"vegan","text":"Vegan","icon":"https://cdn.freshful.ro/assets/product_tags/vegan.svg","iconPng":"https://cdn.freshful.ro/assets/product_tags/vegan.png","backgroundColor":"#ECF9F8","textColor":"#33A39C"},{"type":"NoGluten","text":"Fara gluten","icon":"https://cdn.freshful.ro/assets/product_tags/fara_gluten.svg","iconPng":"https://cdn.freshful.ro/assets/product_tags/fara_gluten.png","backgroundColor":"#FFF2E5","textColor":"#F07900"}],"isAvailable":true,"maxAvailableQuantity":100,"maxAllowedQuantity":100,"breadcrumbs":[{"code":"5","name":"Mezeluri & ready meals","slug":"5-mezeluri-si-ready-to-cook"},{"code":"505","name":"Ready meals","slug":"505-ready-meal"},{"code":"50502","name":"Bucătărie libaneză","slug":"50502-bucatarie-libaneza"},{"code":"100061748","name":"Hummus pastă din năut natural 200g ","slug":"100061748-ribella-hummus-pasta-din-naut-natural-200g"}],"activePromotion":{"code":"special-produse-vegane-mar23","name":"Preț redus","targetQuantity":null},"saveMe":null,"labels":[{"type":"v1","items":[{"text":"-18%","backgroundColor":"#FF9903","textColor":"#FFFFFF"}]}],"geniusPrice":null,"geniusUnitPricePerLabel":null,"banner":{"text":"Super preț","textColor":"#FF0000","bgColor":"#FFF2EC","icon":null,"link":"https://www.freshful.ro/oferte/special-produse-vegane-mar23","type":"promo","analyticsEventType":"select_promotion","analyticsEventPayload":{"promotion_id":"special-produse-vegane-mar23","promotion_name":"Și bun, și de post"}},"discountLabel":"Economisești 18%","geniusDiscountLabel":null,"badge":null},{"code":"100061749","variantCode":"100061749","name":"Hummus cu ceapă caramelizată 200g","slug":"100061749-ribella-hummus-cu-ceapa-caramelizata-200g","unitPriceLabel":"33,45 Lei/kg","brand":"Ribella","brandCode":"914","brandFilterCode":"ribella-b915","sku":"100061749","price":6.69,"originalPrice":8.49,"currencyCode":"RON","currency":"Lei","image":{"thumbnail":{"default":"https://cdn.freshful.ro/media/cache/sylius_shop_product_thumbnail/37/f0/84b780806542b4450921889e192a.jpg"},"large":{"default":"https://cdn.freshful.ro/media/cache/freshful_large/37/f0/84b780806542b4450921889e192a.jpg"},"extralarge":{"default":"https://cdn.freshful.ro/media/cache/sylius_shop_product_original/37/f0/84b780806542b4450921889e192a.jpg"}},"label":{"text":"-21%","backgroundColor":"#FF9903","textColor":"#FFFFFF"},"tags":[{"type":"vegan","text":"Vegan","icon":"https://cdn.freshful.ro/assets/product_tags/vegan.svg","iconPng":"https://cdn.freshful.ro/assets/product_tags/vegan.png","backgroundColor":"#ECF9F8","textColor":"#33A39C"},{"type":"NoGluten","text":"Fara gluten","icon":"https://cdn.freshful.ro/assets/product_tags/fara_gluten.svg","iconPng":"https://cdn.freshful.ro/assets/product_tags/fara_gluten.png","backgroundColor":"#FFF2E5","textColor":"#F07900"}],"isAvailable":true,"maxAvailableQuantity":100,"maxAllowedQuantity":100,"breadcrumbs":[{"code":"5","name":"Mezeluri & ready meals","slug":"5-mezeluri-si-ready-to-cook"},{"code":"505","name":"Ready meals","slug":"505-ready-meal"},{"code":"50502","name":"Bucătărie libaneză","slug":"50502-bucatarie-libaneza"},{"code":"100061749","name":"Hummus cu ceapă caramelizată 200g","slug":"100061749-ribella-hummus-cu-ceapa-caramelizata-200g"}],"activePromotion":{"code":"special-produse-vegane-mar23","name":"Preț redus","targetQuantity":null},"saveMe":null,"labels":[{"type":"v1","items":[{"text":"-21%","backgroundColor":"#FF9903","textColor":"#FFFFFF"}]}],"geniusPrice":null,"geniusUnitPricePerLabel":null,"banner":{"text":"Super preț","textColor":"#FF0000","bgColor":"#FFF2EC","icon":null,"link":"https://www.freshful.ro/oferte/special-produse-vegane-mar23","type":"promo","analyticsEventType":"select_promotion","analyticsEventPayload":{"promotion_id":"special-produse-vegane-mar23","promotion_name":"Și bun, și de post"}},"discountLabel":"Economisești 21%","geniusDiscountLabel":null,"badge":null},{"code":"100134429","variantCode":"100134429","name":"Hummus clasic 200g","slug":"100134429-o-green-hummus-clasic-200g","unitPriceLabel":"43,45 Lei/kg","brand":"O'Green","brandCode":"199","brandFilterCode":"o-green-b200","sku":"100134429","price":8.69,"originalPrice":10.89,"currencyCode":"RON","currency":"Lei","image":{"thumbnail":{"default":"https://cdn.freshful.ro/media/cache/sylius_shop_product_thumbnail/53/59/073afbe9d049865d3f2df10c6c2a.jpg"},"large":{"default":"https://cdn.freshful.ro/media/cache/freshful_large/53/59/073afbe9d049865d3f2df10c6c2a.jpg"},"extralarge":{"default":"https://cdn.freshful.ro/media/cache/sylius_shop_product_original/53/59/073afbe9d049865d3f2df10c6c2a.jpg"}},"label":{"text":"-20%","backgroundColor":"#FF9903","textColor":"#FFFFFF"},"tags":[{"type":"vegan","text":"Vegan","icon":"https://cdn.freshful.ro/assets/product_tags/vegan.svg","iconPng":"https://cdn.freshful.ro/assets/product_tags/vegan.png","backgroundColor":"#ECF9F8","textColor":"#33A39C"}],"isAvailable":true,"maxAvailableQuantity":64,"maxAllowedQuantity":100,"breadcrumbs":[{"code":"5","name":"Mezeluri & ready meals","slug":"5-mezeluri-si-ready-to-cook"},{"code":"505","name":"Ready meals","slug":"505-ready-meal"},{"code":"50502","name":"Bucătărie libaneză","slug":"50502-bucatarie-libaneza"},{"code":"100134429","name":"Hummus clasic 200g","slug":"100134429-o-green-hummus-clasic-200g"}],"activePromotion":{"code":"bunatatile-saptamanii-cw0923","name":"Preț redus","targetQuantity":null},"saveMe":null,"labels":[{"type":"v1","items":[{"text":"-20%","backgroundColor":"#FF9903","textColor":"#FFFFFF"}]}],"geniusPrice":null,"geniusUnitPricePerLabel":null,"banner":{"text":"Super preț","textColor":"#FF0000","bgColor":"#FFF2EC","icon":null,"link":"https://www.freshful.ro/oferte/bunatatile-saptamanii-cw0923","type":"promo","analyticsEventType":"select_promotion","analyticsEventPayload":{"promotion_id":"bunatatile-saptamanii-cw0923","promotion_name":"Oferta proaspătă a săptămânii"}},"discountLabel":"Economisești 20%","geniusDiscountLabel":null,"badge":null},{"code":"100134690","variantCode":"100134690","name":"Hummus cu boia 200g","slug":"100134690-o-green-hummus-cu-boia-200g","unitPriceLabel":"43,45 Lei/kg","brand":"O'Green","brandCode":"199","brandFilterCode":"o-green-b200","sku":"100134690","price":8.69,"originalPrice":10.99,"currencyCode":"RON","currency":"Lei","image":{"thumbnail":{"default":"https://cdn.freshful.ro/media/cache/sylius_shop_product_thumbnail/25/66/4b5590cd855004c1beb61a9e1993.jpg"},"large":{"default":"https://cdn.freshful.ro/media/cache/freshful_large/25/66/4b5590cd855004c1beb61a9e1993.jpg"},"extralarge":{"default":"https://cdn.freshful.ro/media/cache/sylius_shop_product_original/25/66/4b5590cd855004c1beb61a9e1993.jpg"}},"label":{"text":"-20%","backgroundColor":"#FF9903","textColor":"#FFFFFF"},"tags":[{"type":"vegan","text":"Vegan","icon":"https://cdn.freshful.ro/assets/product_tags/vegan.svg","iconPng":"https://cdn.freshful.ro/assets/product_tags/vegan.png","backgroundColor":"#ECF9F8","textColor":"#33A39C"},{"type":"NoGluten","text":"Fara gluten","icon":"https://cdn.freshful.ro/assets/product_tags/fara_gluten.svg","iconPng":"https://cdn.freshful.ro/assets/product_tags/fara_gluten.png","backgroundColor":"#FFF2E5","textColor":"#F07900"}],"isAvailable":true,"maxAvailableQuantity":23,"maxAllowedQuantity":100,"breadcrumbs":[{"code":"5","name":"Mezeluri & ready meals","slug":"5-mezeluri-si-ready-to-cook"},{"code":"505","name":"Ready meals","slug":"505-ready-meal"},{"code":"50502","name":"Bucătărie libaneză","slug":"50502-bucatarie-libaneza"},{"code":"100134690","name":"Hummus cu boia 200g","slug":"100134690-o-green-hummus-cu-boia-200g"}],"activePromotion":{"code":"bunatatile-saptamanii-cw0923","name":"Preț redus","targetQuantity":null},"saveMe":null,"labels":[{"type":"v1","items":[{"text":"-20%","backgroundColor":"#FF9903","textColor":"#FFFFFF"}]}],"geniusPrice":null,"geniusUnitPricePerLabel":null,"banner":{"text":"Super preț","textColor":"#FF0000","bgColor":"#FFF2EC","icon":null,"link":"https://www.freshful.ro/oferte/bunatatile-saptamanii-cw0923","type":"promo","analyticsEventType":"select_promotion","analyticsEventPayload":{"promotion_id":"bunatatile-saptamanii-cw0923","promotion_name":"Oferta proaspătă a săptămânii"}},"discountLabel":"Economisești 20%","geniusDiscountLabel":null,"badge":null},{"code":"100134691","variantCode":"100134691","name":"Hummus cu curry 200g","slug":"100134691-o-green-hummus-cu-curry-200g","unitPriceLabel":"43,45 Lei/kg","brand":"O'Green","brandCode":"199","brandFilterCode":"o-green-b200","sku":"100134691","price":8.69,"originalPrice":10.99,"currencyCode":"RON","currency":"Lei","image":{"thumbnail":{"default":"https://cdn.freshful.ro/media/cache/sylius_shop_product_thumbnail/0b/7f/f339588600697e53712b85ef31e9.jpg"},"large":{"default":"https://cdn.freshful.ro/media/cache/freshful_large/0b/7f/f339588600697e53712b85ef31e9.jpg"},"extralarge":{"default":"https://cdn.freshful.ro/media/cache/sylius_shop_product_original/0b/7f/f339588600697e53712b85ef31e9.jpg"}},"label":{"text":"-20%","backgroundColor":"#FF9903","textColor":"#FFFFFF"},"tags":[{"type":"vegan","text":"Vegan","icon":"https://cdn.freshful.ro/assets/product_tags/vegan.svg","iconPng":"https://cdn.freshful.ro/assets/product_tags/vegan.png","backgroundColor":"#ECF9F8","textColor":"#33A39C"}],"isAvailable":true,"maxAvailableQuantity":5,"maxAllowedQuantity":100,"breadcrumbs":[{"code":"5","name":"Mezeluri & ready meals","slug":"5-mezeluri-si-ready-to-cook"},{"code":"505","name":"Ready meals","slug":"505-ready-meal"},{"code":"50502","name":"Bucătărie libaneză","slug":"50502-bucatarie-libaneza"},{"code":"100134691","name":"Hummus cu curry 200g","slug":"100134691-o-green-hummus-cu-curry-200g"}],"activePromotion":{"code":"bunatatile-saptamanii-cw0923","name":"Preț redus","targetQuantity":null},"saveMe":null,"labels":[{"type":"v1","items":[{"text":"-20%","backgroundColor":"#FF9903","textColor":"#FFFFFF"}]}],"geniusPrice":null,"geniusUnitPricePerLabel":null,"banner":{"text":"Super preț","textColor":"#FF0000","bgColor":"#FFF2EC","icon":null,"link":"https://www.freshful.ro/oferte/bunatatile-saptamanii-cw0923","type":"promo","analyticsEventType":"select_promotion","analyticsEventPayload":{"promotion_id":"bunatatile-saptamanii-cw0923","promotion_name":"Oferta proaspătă a săptămânii"}},"discountLabel":"Economisești 20%","geniusDiscountLabel":null,"badge":null},{"code":"100075709","variantCode":"100075709","name":"Supă concentrată din oase de pui pentru gătit 314ml","slug":"100075709-zwup-supa-concentrata-din-oase-de-pui-pentru-gatit-314ml","unitPriceLabel":"41,37 Lei/l","brand":"Zwup","brandCode":"1251","brandFilterCode":"zwup-b1252","sku":"100075709","price":12.99,"originalPrice":null,"currencyCode":"RON","currency":"Lei","image":{"thumbnail":{"default":"https://cdn.freshful.ro/media/cache/sylius_shop_product_thumbnail/28/cd/3b2d91a26661ba8032ed87284ff6.jpg"},"large":{"default":"https://cdn.freshful.ro/media/cache/freshful_large/28/cd/3b2d91a26661ba8032ed87284ff6.jpg"},"extralarge":{"default":"https://cdn.freshful.ro/media/cache/sylius_shop_product_original/28/cd/3b2d91a26661ba8032ed87284ff6.jpg"}},"label":{"text":"Mici producători","backgroundColor":"#7B61FF","textColor":"#FFFFFF"},"tags":[{"type":"Natural","text":"Natural","icon":"https://cdn.freshful.ro/assets/product_tags/natural.svg","iconPng":"https://cdn.freshful.ro/assets/product_tags/natural.png","backgroundColor":"#E9FCF2","textColor":"#18AF62"},{"type":"MadeInRomania","text":"Made In Romania","icon":"https://cdn.freshful.ro/assets/product_tags/made_in_romania.svg","iconPng":"https://cdn.freshful.ro/assets/product_tags/made_in_romania.png","backgroundColor":"#EDF2FD","textColor":"#1653CA"}],"isAvailable":true,"maxAvailableQuantity":100,"maxAllowedQuantity":100,"breadcrumbs":[{"code":"5","name":"Mezeluri & ready meals","slug":"5-mezeluri-si-ready-to-cook"},{"code":"505","name":"Ready meals","slug":"505-ready-meal"},{"code":"50501","name":"Salate, sandvișuri și ciorbe","slug":"50501-salata-sadvisuri-si-ciorbe"},{"code":"100075709","name":"Supă concentrată din oase de pui pentru gătit 314ml","slug":"100075709-zwup-supa-concentrata-din-oase-de-pui-pentru-gatit-314ml"}],"activePromotion":null,"saveMe":null,"labels":[{"type":"v1","items":[{"text":"Mici producători","backgroundColor":"#7B61FF","textColor":"#FFFFFF"}]}],"geniusPrice":null,"geniusUnitPricePerLabel":null,"banner":null,"discountLabel":null,"geniusDiscountLabel":null,"badge":null},{"code":"100145131","variantCode":"100145131","name":"Măsline verzi umplute cu brânză prospătă 200g","slug":"100145131-grikios-masline-verzi-umplute-cu-branza-prospata-200g","unitPriceLabel":"74,95 Lei/kg","brand":"GRIKIOS","brandCode":"2807","brandFilterCode":"grikios-b2894","sku":"100145131","price":14.99,"originalPrice":null,"currencyCode":"RON","currency":"Lei","image":{"thumbnail":{"default":"https://cdn.freshful.ro/media/cache/sylius_shop_product_thumbnail/70/52/5523c55a8e33ec80b5cbb964697c.jpg"},"large":{"default":"https://cdn.freshful.ro/media/cache/freshful_large/70/52/5523c55a8e33ec80b5cbb964697c.jpg"},"extralarge":{"default":"https://cdn.freshful.ro/media/cache/sylius_shop_product_original/70/52/5523c55a8e33ec80b5cbb964697c.jpg"}},"label":null,"tags":[],"isAvailable":true,"maxAvailableQuantity":100,"maxAllowedQuantity":100,"breadcrumbs":[{"code":"5","name":"Mezeluri & ready meals","slug":"5-mezeluri-si-ready-to-cook"},{"code":"505","name":"Ready meals","slug":"505-ready-meal"},{"code":"50504","name":"Mâncăruri gătite","slug":"50504-mancaruri-gatite"},{"code":"100145131","name":"Măsline verzi umplute cu brânză prospătă 200g","slug":"100145131-grikios-masline-verzi-umplute-cu-branza-prospata-200g"}],"activePromotion":null,"saveMe":null,"labels":[],"geniusPrice":null,"geniusUnitPricePerLabel":null,"banner":null,"discountLabel":null,"geniusDiscountLabel":null,"badge":null},{"code":"100149858","variantCode":"100149858","name":"Humus cu ceapă 200g","slug":"100149858-paparude-humus-cu-ceapa-200g","unitPriceLabel":"44,95 Lei/kg","brand":"Paparude","brandCode":"2876","brandFilterCode":"paparude-b2966","sku":"100149858","price":8.99,"originalPrice":null,"currencyCode":"RON","currency":"Lei","image":{"thumbnail":{"default":"https://cdn.freshful.ro/media/cache/sylius_shop_product_thumbnail/2d/48/76f50b67ffd43c9f2e312486ef11.jpg"},"large":{"default":"https://cdn.freshful.ro/media/cache/freshful_large/2d/48/76f50b67ffd43c9f2e312486ef11.jpg"},"extralarge":{"default":"https://cdn.freshful.ro/media/cache/sylius_shop_product_original/2d/48/76f50b67ffd43c9f2e312486ef11.jpg"}},"label":null,"tags":[],"isAvailable":true,"maxAvailableQuantity":100,"maxAllowedQuantity":100,"breadcrumbs":[{"code":"5","name":"Mezeluri & ready meals","slug":"5-mezeluri-si-ready-to-cook"},{"code":"505","name":"Ready meals","slug":"505-ready-meal"},{"code":"50502","name":"Bucătărie libaneză","slug":"50502-bucatarie-libaneza"},{"code":"100149858","name":"Humus cu ceapă 200g","slug":"100149858-paparude-humus-cu-ceapa-200g"}],"activePromotion":null,"saveMe":null,"labels":[],"geniusPrice":null,"geniusUnitPricePerLabel":null,"banner":null,"discountLabel":null,"geniusDiscountLabel":null,"badge":null},{"code":"100077190","variantCode":"100077190","name":"Supă concentrată din oase de vită pentru gătit 314ml","slug":"100077190-zwup-supa-concentrata-din-oase-de-vita-pentru-gatit-314ml","unitPriceLabel":"42,96 Lei/l","brand":"Zwup","brandCode":"1251","brandFilterCode":"zwup-b1252","sku":"100077190","price":13.49,"originalPrice":null,"currencyCode":"RON","currency":"Lei","image":{"thumbnail":{"default":"https://cdn.freshful.ro/media/cache/sylius_shop_product_thumbnail/8a/ce/59c32ca72a3c9555db2505ecd394.jpg"},"large":{"default":"https://cdn.freshful.ro/media/cache/freshful_large/8a/ce/59c32ca72a3c9555db2505ecd394.jpg"},"extralarge":{"default":"https://cdn.freshful.ro/media/cache/sylius_shop_product_original/8a/ce/59c32ca72a3c9555db2505ecd394.jpg"}},"label":{"text":"Mici producători","backgroundColor":"#7B61FF","textColor":"#FFFFFF"},"tags":[{"type":"Natural","text":"Natural","icon":"https://cdn.freshful.ro/assets/product_tags/natural.svg","iconPng":"https://cdn.freshful.ro/assets/product_tags/natural.png","backgroundColor":"#E9FCF2","textColor":"#18AF62"},{"type":"MadeInRomania","text":"Made In Romania","icon":"https://cdn.freshful.ro/assets/product_tags/made_in_romania.svg","iconPng":"https://cdn.freshful.ro/assets/product_tags/made_in_romania.png","backgroundColor":"#EDF2FD","textColor":"#1653CA"}],"isAvailable":true,"maxAvailableQuantity":100,"maxAllowedQuantity":100,"breadcrumbs":[{"code":"5","name":"Mezeluri & ready meals","slug":"5-mezeluri-si-ready-to-cook"},{"code":"505","name":"Ready meals","slug":"505-ready-meal"},{"code":"50501","name":"Salate, sandvișuri și ciorbe","slug":"50501-salata-sadvisuri-si-ciorbe"},{"code":"100077190","name":"Supă concentrată din oase de vită pentru gătit 314ml","slug":"100077190-zwup-supa-concentrata-din-oase-de-vita-pentru-gatit-314ml"}],"activePromotion":null,"saveMe":null,"labels":[{"type":"v1","items":[{"text":"Mici producători","backgroundColor":"#7B61FF","textColor":"#FFFFFF"}]}],"geniusPrice":null,"geniusUnitPricePerLabel":null,"banner":null,"discountLabel":null,"geniusDiscountLabel":null,"badge":null},{"code":"100001863","variantCode":"5941265010463","name":"Salată de vinete cu ceapă 250g","slug":"100001863-cris-tim-salata-de-vinete-cu-ceapa-250g","unitPriceLabel":"43,96 Lei/kg","brand":"Cris-Tim","brandCode":"76","brandFilterCode":"cris-tim-b74","sku":"100001863","price":10.99,"originalPrice":null,"currencyCode":"RON","currency":"Lei","image":{"thumbnail":{"default":"https://cdn.freshful.ro/media/cache/sylius_shop_product_thumbnail/f1/e6/3a83b43bda858ab707429dfdc4cb.jpg"},"large":{"default":"https://cdn.freshful.ro/media/cache/freshful_large/f1/e6/3a83b43bda858ab707429dfdc4cb.jpg"},"extralarge":{"default":"https://cdn.freshful.ro/media/cache/sylius_shop_product_original/f1/e6/3a83b43bda858ab707429dfdc4cb.jpg"}},"label":null,"tags":[],"isAvailable":true,"maxAvailableQuantity":14,"maxAllowedQuantity":100,"breadcrumbs":[{"code":"5","name":"Mezeluri & ready meals","slug":"5-mezeluri-si-ready-to-cook"},{"code":"505","name":"Ready meals","slug":"505-ready-meal"},{"code":"50501","name":"Salate, sandvișuri și ciorbe","slug":"50501-salata-sadvisuri-si-ciorbe"},{"code":"100001863","name":"Salată de vinete cu ceapă 250g","slug":"100001863-cris-tim-salata-de-vinete-cu-ceapa-250g"}],"activePromotion":null,"saveMe":null,"labels":[],"geniusPrice":null,"geniusUnitPricePerLabel":null,"banner":null,"discountLabel":null,"geniusDiscountLabel":null,"badge":null}],"filters":{"countSelected":0,"items":[{"code":"promotion","name":"Promoții","countSelected":0,"values":[{"code":"bunatatile-saptamanii-cw0923","name":"Oferta proaspătă a săptămânii","isSelected":false,"count":3},{"code":"special-produse-vegane-mar23","name":"Și bun, și de post","isSelected":false,"count":2}]},{"code":"brand","name":"Brand","countSelected":0,"values":[{"code":"2c-b3018","name":"2C","isSelected":false,"count":9},{"code":"cris-tim-b74","name":"Cris-Tim","isSelected":false,"count":6},{"code":"daniela-s-b491","name":"Daniela's","isSelected":false,"count":3},{"code":"frufru-b21","name":"Frufru","isSelected":false,"count":21},{"code":"grikios-b2894","name":"GRIKIOS","isSelected":false,"count":7},{"code":"maestro-b808","name":"Maestro","isSelected":false,"count":6},{"code":"meggle-b498","name":"Meggle","isSelected":false,"count":3},{"code":"o-green-b200","name":"O'Green","isSelected":false,"count":3},{"code":"paparude-b2966","name":"Paparude","isSelected":false,"count":7},{"code":"ribella-b915","name":"Ribella","isSelected":false,"count":2},{"code":"zwup-b1252","name":"Zwup","isSelected":false,"count":3}]},{"code":"diet_lifestyle","name":"Dietă și lifestyle","countSelected":0,"values":[{"code":"fara-conservanti-a37","name":"Fara conservanti","isSelected":false,"count":6},{"code":"fara-gluten-a16","name":"Fara gluten","isSelected":false,"count":3},{"code":"fara-lactoza-a38","name":"Fara lactoza","isSelected":false,"count":3},{"code":"made-in-romania-a85","name":"Made In Romania","isSelected":false,"count":3},{"code":"natural-a27","name":"Natural","isSelected":false,"count":3},{"code":"vegan-a24","name":"Vegan","isSelected":false,"count":5},{"code":"vegetarian-a28","name":"Vegetarian","isSelected":false,"count":1}]}]},"orderBy":[{"field":"price","direction":"asc","name":"Preț crescător","isSelected":false},{"field":"price","direction":"desc","name":"Preț descrescător","isSelected":false},{"field":"popularity","direction":"desc","name":"Cele mai populare","isSelected":true},{"field":"category","direction":"asc","name":"Categorie","isSelected":false}],"metaTitle":"Ready meals - Gamă variată","metaDescription":"Vrei Ready meals? Alege dintr-o gamă variată. Comanzi simplu și ai livrare rapidă, calitate și prospețime. Hai pe Freshful.ro","metaKeywords":null,"banners":[]}}