{"type":"subcategory","payload":{"analyticsListId":"category_50501-salata-sadvisuri-si-ciorbe","analyticsListName":"Category - Salate, sandvișuri și ciorbe","name":"Salate, sandvișuri și ciorbe","slug":"50501-salata-sadvisuri-si-ciorbe","image":null,"breadcrumbs":[{"code":"5","name":"Mezeluri & ready meals","slug":"5-mezeluri-si-ready-to-cook"},{"code":"505","name":"Ready meals","slug":"505-ready-meal"},{"code":"50501","name":"Salate, sandvișuri și ciorbe","slug":"50501-salata-sadvisuri-si-ciorbe"}],"slots":[],"page":1,"limit":10,"pages":3,"count":28,"siblings":[{"name":"Mezeluri","slug":"501-mezeluri","selected":false},{"name":"Mezeluri feliate","slug":"502-mezeluri-feliate","selected":false},{"name":"Pizza și aluat","slug":"503-pizza-si-aluat","selected":false},{"name":"Paste proaspete","slug":"504-paste-proaspete","selected":false},{"name":"Ready meals","slug":"505-ready-meal","selected":true}],"children":[{"name":"Toate produsele","slug":"505-ready-meal","selected":false},{"name":"Salate, sandvișuri și ciorbe","slug":"50501-salata-sadvisuri-si-ciorbe","selected":true},{"name":"Bucătărie libaneză","slug":"50502-bucatarie-libaneza","selected":false},{"name":"Mâncăruri gătite","slug":"50504-mancaruri-gatite","selected":false}],"products":[{"code":"100075709","variantCode":"100075709","name":"Supă concentrată din oase de pui pentru gătit 314ml","slug":"100075709-zwup-supa-concentrata-din-oase-de-pui-pentru-gatit-314ml","unitPriceLabel":"41,37 Lei/l","brand":"Zwup","brandCode":"1251","brandFilterCode":"zwup-b1252","sku":"100075709","price":12.99,"originalPrice":null,"currencyCode":"RON","currency":"Lei","image":{"thumbnail":{"default":"https://cdn.freshful.ro/media/cache/sylius_shop_product_thumbnail/28/cd/3b2d91a26661ba8032ed87284ff6.jpg"},"large":{"default":"https://cdn.freshful.ro/media/cache/freshful_large/28/cd/3b2d91a26661ba8032ed87284ff6.jpg"},"extralarge":{"default":"https://cdn.freshful.ro/media/cache/sylius_shop_product_original/28/cd/3b2d91a26661ba8032ed87284ff6.jpg"}},"label":{"text":"Mici producători","backgroundColor":"#7B61FF","textColor":"#FFFFFF"},"tags":[{"type":"Natural","text":"Natural","icon":"https://cdn.freshful.ro/assets/product_tags/natural.svg","iconPng":"https://cdn.freshful.ro/assets/product_tags/natural.png","backgroundColor":"#E9FCF2","textColor":"#18AF62"},{"type":"MadeInRomania","text":"Made In Romania","icon":"https://cdn.freshful.ro/assets/product_tags/made_in_romania.svg","iconPng":"https://cdn.freshful.ro/assets/product_tags/made_in_romania.png","backgroundColor":"#EDF2FD","textColor":"#1653CA"}],"isAvailable":true,"maxAvailableQuantity":100,"maxAllowedQuantity":100,"breadcrumbs":[{"code":"5","name":"Mezeluri & ready meals","slug":"5-mezeluri-si-ready-to-cook"},{"code":"505","name":"Ready meals","slug":"505-ready-meal"},{"code":"50501","name":"Salate, sandvișuri și ciorbe","slug":"50501-salata-sadvisuri-si-ciorbe"},{"code":"100075709","name":"Supă concentrată din oase de pui pentru gătit 314ml","slug":"100075709-zwup-supa-concentrata-din-oase-de-pui-pentru-gatit-314ml"}],"activePromotion":null,"saveMe":null,"labels":[{"type":"v1","items":[{"text":"Mici producători","backgroundColor":"#7B61FF","textColor":"#FFFFFF"}]}],"geniusPrice":null,"geniusUnitPricePerLabel":null,"banner":null,"discountLabel":null,"geniusDiscountLabel":null,"badge":null},{"code":"100077190","variantCode":"100077190","name":"Supă concentrată din oase de vită pentru gătit 314ml","slug":"100077190-zwup-supa-concentrata-din-oase-de-vita-pentru-gatit-314ml","unitPriceLabel":"42,96 Lei/l","brand":"Zwup","brandCode":"1251","brandFilterCode":"zwup-b1252","sku":"100077190","price":13.49,"originalPrice":null,"currencyCode":"RON","currency":"Lei","image":{"thumbnail":{"default":"https://cdn.freshful.ro/media/cache/sylius_shop_product_thumbnail/8a/ce/59c32ca72a3c9555db2505ecd394.jpg"},"large":{"default":"https://cdn.freshful.ro/media/cache/freshful_large/8a/ce/59c32ca72a3c9555db2505ecd394.jpg"},"extralarge":{"default":"https://cdn.freshful.ro/media/cache/sylius_shop_product_original/8a/ce/59c32ca72a3c9555db2505ecd394.jpg"}},"label":{"text":"Mici producători","backgroundColor":"#7B61FF","textColor":"#FFFFFF"},"tags":[{"type":"Natural","text":"Natural","icon":"https://cdn.freshful.ro/assets/product_tags/natural.svg","iconPng":"https://cdn.freshful.ro/assets/product_tags/natural.png","backgroundColor":"#E9FCF2","textColor":"#18AF62"},{"type":"MadeInRomania","text":"Made In Romania","icon":"https://cdn.freshful.ro/assets/product_tags/made_in_romania.svg","iconPng":"https://cdn.freshful.ro/assets/product_tags/made_in_romania.png","backgroundColor":"#EDF2FD","textColor":"#1653CA"}],"isAvailable":true,"maxAvailableQuantity":100,"maxAllowedQuantity":100,"breadcrumbs":[{"code":"5","name":"Mezeluri & ready meals","slug":"5-mezeluri-si-ready-to-cook"},{"code":"505","name":"Ready meals","slug":"505-ready-meal"},{"code":"50501","name":"Salate, sandvișuri și ciorbe","slug":"50501-salata-sadvisuri-si-ciorbe"},{"code":"100077190","name":"Supă concentrată din oase de vită pentru gătit 314ml","slug":"100077190-zwup-supa-concentrata-din-oase-de-vita-pentru-gatit-314ml"}],"activePromotion":null,"saveMe":null,"labels":[{"type":"v1","items":[{"text":"Mici producători","backgroundColor":"#7B61FF","textColor":"#FFFFFF"}]}],"geniusPrice":null,"geniusUnitPricePerLabel":null,"banner":null,"discountLabel":null,"geniusDiscountLabel":null,"badge":null},{"code":"100001863","variantCode":"5941265010463","name":"Salată de vinete cu ceapă 250g","slug":"100001863-cris-tim-salata-de-vinete-cu-ceapa-250g","unitPriceLabel":"43,96 Lei/kg","brand":"Cris-Tim","brandCode":"76","brandFilterCode":"cris-tim-b74","sku":"100001863","price":10.99,"originalPrice":null,"currencyCode":"RON","currency":"Lei","image":{"thumbnail":{"default":"https://cdn.freshful.ro/media/cache/sylius_shop_product_thumbnail/f1/e6/3a83b43bda858ab707429dfdc4cb.jpg"},"large":{"default":"https://cdn.freshful.ro/media/cache/freshful_large/f1/e6/3a83b43bda858ab707429dfdc4cb.jpg"},"extralarge":{"default":"https://cdn.freshful.ro/media/cache/sylius_shop_product_original/f1/e6/3a83b43bda858ab707429dfdc4cb.jpg"}},"label":null,"tags":[],"isAvailable":true,"maxAvailableQuantity":14,"maxAllowedQuantity":100,"breadcrumbs":[{"code":"5","name":"Mezeluri & ready meals","slug":"5-mezeluri-si-ready-to-cook"},{"code":"505","name":"Ready meals","slug":"505-ready-meal"},{"code":"50501","name":"Salate, sandvișuri și ciorbe","slug":"50501-salata-sadvisuri-si-ciorbe"},{"code":"100001863","name":"Salată de vinete cu ceapă 250g","slug":"100001863-cris-tim-salata-de-vinete-cu-ceapa-250g"}],"activePromotion":null,"saveMe":null,"labels":[],"geniusPrice":null,"geniusUnitPricePerLabel":null,"banner":null,"discountLabel":null,"geniusDiscountLabel":null,"badge":null},{"code":"100146866","variantCode":"100146866","name":"Supă concentrată cu legume pentru gătit 720ml","slug":"100146866-zwup-supa-concentrata-cu-legume-pentru-gatit-720ml","unitPriceLabel":"22,9 Lei/l","brand":"Zwup","brandCode":"1251","brandFilterCode":"zwup-b1252","sku":"100146866","price":16.49,"originalPrice":null,"currencyCode":"RON","currency":"Lei","image":{"thumbnail":{"default":"https://cdn.freshful.ro/media/cache/sylius_shop_product_thumbnail/0d/de/6cdda18894b00b4c73b0280f7196.jpg"},"large":{"default":"https://cdn.freshful.ro/media/cache/freshful_large/0d/de/6cdda18894b00b4c73b0280f7196.jpg"},"extralarge":{"default":"https://cdn.freshful.ro/media/cache/sylius_shop_product_original/0d/de/6cdda18894b00b4c73b0280f7196.jpg"}},"label":{"text":"Mici producători","backgroundColor":"#7B61FF","textColor":"#FFFFFF"},"tags":[{"type":"Natural","text":"Natural","icon":"https://cdn.freshful.ro/assets/product_tags/natural.svg","iconPng":"https://cdn.freshful.ro/assets/product_tags/natural.png","backgroundColor":"#E9FCF2","textColor":"#18AF62"},{"type":"MadeInRomania","text":"Made In Romania","icon":"https://cdn.freshful.ro/assets/product_tags/made_in_romania.svg","iconPng":"https://cdn.freshful.ro/assets/product_tags/made_in_romania.png","backgroundColor":"#EDF2FD","textColor":"#1653CA"}],"isAvailable":true,"maxAvailableQuantity":100,"maxAllowedQuantity":100,"breadcrumbs":[{"code":"5","name":"Mezeluri & ready meals","slug":"5-mezeluri-si-ready-to-cook"},{"code":"505","name":"Ready meals","slug":"505-ready-meal"},{"code":"50501","name":"Salate, sandvișuri și ciorbe","slug":"50501-salata-sadvisuri-si-ciorbe"},{"code":"100146866","name":"Supă concentrată cu legume pentru gătit 720ml","slug":"100146866-zwup-supa-concentrata-cu-legume-pentru-gatit-720ml"}],"activePromotion":null,"saveMe":null,"labels":[{"type":"v1","items":[{"text":"Mici producători","backgroundColor":"#7B61FF","textColor":"#FFFFFF"}]}],"geniusPrice":null,"geniusUnitPricePerLabel":null,"banner":null,"discountLabel":null,"geniusDiscountLabel":null,"badge":null},{"code":"100031537","variantCode":"5941904500607","name":"Supă fresh de roșii 450g","slug":"100031537-frufru-supa-fresh-de-rosii-450g","unitPriceLabel":"33 Lei/kg","brand":"Frufru","brandCode":"28","brandFilterCode":"frufru-b21","sku":"100031537","price":14.85,"originalPrice":null,"currencyCode":"RON","currency":"Lei","image":{"thumbnail":{"default":"https://cdn.freshful.ro/media/cache/sylius_shop_product_thumbnail/9f/0b/561621c6db0504a59554bd5cf007.jpg"},"large":{"default":"https://cdn.freshful.ro/media/cache/freshful_large/9f/0b/561621c6db0504a59554bd5cf007.jpg"},"extralarge":{"default":"https://cdn.freshful.ro/media/cache/sylius_shop_product_original/9f/0b/561621c6db0504a59554bd5cf007.jpg"}},"label":null,"tags":[],"isAvailable":true,"maxAvailableQuantity":20,"maxAllowedQuantity":100,"breadcrumbs":[{"code":"5","name":"Mezeluri & ready meals","slug":"5-mezeluri-si-ready-to-cook"},{"code":"505","name":"Ready meals","slug":"505-ready-meal"},{"code":"50501","name":"Salate, sandvișuri și ciorbe","slug":"50501-salata-sadvisuri-si-ciorbe"},{"code":"100031537","name":"Supă fresh de roșii 450g","slug":"100031537-frufru-supa-fresh-de-rosii-450g"}],"activePromotion":null,"saveMe":null,"labels":[],"geniusPrice":null,"geniusUnitPricePerLabel":null,"banner":null,"discountLabel":null,"geniusDiscountLabel":null,"badge":null},{"code":"100149287","variantCode":"100149287","name":"Supă de pui cu tăiței de casă 400g","slug":"100149287-2c-supa-de-pui-cu-taitei-de-casa-400g","unitPriceLabel":"42,45 Lei/kg","brand":"2C","brandCode":"2924","brandFilterCode":"2c-b3018","sku":"100149287","price":16.98,"originalPrice":null,"currencyCode":"RON","currency":"Lei","image":{"thumbnail":{"default":"https://cdn.freshful.ro/media/cache/sylius_shop_product_thumbnail/d4/b8/92b0d6c9df108c0e02244344ea83.jpg"},"large":{"default":"https://cdn.freshful.ro/media/cache/freshful_large/d4/b8/92b0d6c9df108c0e02244344ea83.jpg"},"extralarge":{"default":"https://cdn.freshful.ro/media/cache/sylius_shop_product_original/d4/b8/92b0d6c9df108c0e02244344ea83.jpg"}},"label":null,"tags":[],"isAvailable":true,"maxAvailableQuantity":27,"maxAllowedQuantity":100,"breadcrumbs":[{"code":"5","name":"Mezeluri & ready meals","slug":"5-mezeluri-si-ready-to-cook"},{"code":"505","name":"Ready meals","slug":"505-ready-meal"},{"code":"50501","name":"Salate, sandvișuri și ciorbe","slug":"50501-salata-sadvisuri-si-ciorbe"},{"code":"100149287","name":"Supă de pui cu tăiței de casă 400g","slug":"100149287-2c-supa-de-pui-cu-taitei-de-casa-400g"}],"activePromotion":null,"saveMe":null,"labels":[],"geniusPrice":null,"geniusUnitPricePerLabel":null,"banner":null,"discountLabel":null,"geniusDiscountLabel":null,"badge":null},{"code":"100031541","variantCode":"100031541","name":"Supă fresh cu ciuperci 450g","slug":"100031541-frufru-supa-fresh-cu-ciuperci-450g","unitPriceLabel":"36,64 Lei/kg","brand":"Frufru","brandCode":"28","brandFilterCode":"frufru-b21","sku":"100031541","price":16.49,"originalPrice":null,"currencyCode":"RON","currency":"Lei","image":{"thumbnail":{"default":"https://cdn.freshful.ro/media/cache/sylius_shop_product_thumbnail/00/74/b970b58ef750c9cc1cc5a61ea97b.jpg"},"large":{"default":"https://cdn.freshful.ro/media/cache/freshful_large/00/74/b970b58ef750c9cc1cc5a61ea97b.jpg"},"extralarge":{"default":"https://cdn.freshful.ro/media/cache/sylius_shop_product_original/00/74/b970b58ef750c9cc1cc5a61ea97b.jpg"}},"label":null,"tags":[],"isAvailable":true,"maxAvailableQuantity":25,"maxAllowedQuantity":100,"breadcrumbs":[{"code":"5","name":"Mezeluri & ready meals","slug":"5-mezeluri-si-ready-to-cook"},{"code":"505","name":"Ready meals","slug":"505-ready-meal"},{"code":"50501","name":"Salate, sandvișuri și ciorbe","slug":"50501-salata-sadvisuri-si-ciorbe"},{"code":"100031541","name":"Supă fresh cu ciuperci 450g","slug":"100031541-frufru-supa-fresh-cu-ciuperci-450g"}],"activePromotion":null,"saveMe":null,"labels":[],"geniusPrice":null,"geniusUnitPricePerLabel":null,"banner":null,"discountLabel":null,"geniusDiscountLabel":null,"badge":null},{"code":"100031540","variantCode":"5941904500591","name":"Supă fresh cu legume 450g","slug":"100031540-frufru-supa-fresh-cu-legume-450g","unitPriceLabel":"31,09 Lei/kg","brand":"Frufru","brandCode":"28","brandFilterCode":"frufru-b21","sku":"100031540","price":13.99,"originalPrice":null,"currencyCode":"RON","currency":"Lei","image":{"thumbnail":{"default":"https://cdn.freshful.ro/media/cache/sylius_shop_product_thumbnail/d0/01/0a6121ec4d99eb54db0028d7233b.jpg"},"large":{"default":"https://cdn.freshful.ro/media/cache/freshful_large/d0/01/0a6121ec4d99eb54db0028d7233b.jpg"},"extralarge":{"default":"https://cdn.freshful.ro/media/cache/sylius_shop_product_original/d0/01/0a6121ec4d99eb54db0028d7233b.jpg"}},"label":null,"tags":[],"isAvailable":true,"maxAvailableQuantity":28,"maxAllowedQuantity":100,"breadcrumbs":[{"code":"5","name":"Mezeluri & ready meals","slug":"5-mezeluri-si-ready-to-cook"},{"code":"505","name":"Ready meals","slug":"505-ready-meal"},{"code":"50501","name":"Salate, sandvișuri și ciorbe","slug":"50501-salata-sadvisuri-si-ciorbe"},{"code":"100031540","name":"Supă fresh cu legume 450g","slug":"100031540-frufru-supa-fresh-cu-legume-450g"}],"activePromotion":null,"saveMe":null,"labels":[],"geniusPrice":null,"geniusUnitPricePerLabel":null,"banner":null,"discountLabel":null,"geniusDiscountLabel":null,"badge":null},{"code":"100001861","variantCode":"5941265008910","name":"Salată boeuf cu piept de pui 250g","slug":"100001861-cris-tim-salata-boeuf-cu-piept-de-pui-250g","unitPriceLabel":"43,96 Lei/kg","brand":"Cris-Tim","brandCode":"76","brandFilterCode":"cris-tim-b74","sku":"100001861","price":10.99,"originalPrice":null,"currencyCode":"RON","currency":"Lei","image":{"thumbnail":{"default":"https://cdn.freshful.ro/media/cache/sylius_shop_product_thumbnail/07/c1/46e13e75146106c3c07821e7571c.jpg"},"large":{"default":"https://cdn.freshful.ro/media/cache/freshful_large/07/c1/46e13e75146106c3c07821e7571c.jpg"},"extralarge":{"default":"https://cdn.freshful.ro/media/cache/sylius_shop_product_original/07/c1/46e13e75146106c3c07821e7571c.jpg"}},"label":null,"tags":[],"isAvailable":true,"maxAvailableQuantity":36,"maxAllowedQuantity":100,"breadcrumbs":[{"code":"5","name":"Mezeluri & ready meals","slug":"5-mezeluri-si-ready-to-cook"},{"code":"505","name":"Ready meals","slug":"505-ready-meal"},{"code":"50501","name":"Salate, sandvișuri și ciorbe","slug":"50501-salata-sadvisuri-si-ciorbe"},{"code":"100001861","name":"Salată boeuf cu piept de pui 250g","slug":"100001861-cris-tim-salata-boeuf-cu-piept-de-pui-250g"}],"activePromotion":null,"saveMe":{"isAvailable":true,"variantCode":"5941265008910-accsale","maxAvailableQuantity":15,"maxAllowedQuantity":100,"price":7.69,"originalPrice":10.99,"labels":[{"type":"v2","items":[{"text":"Save Me","backgroundColor":"#FF7070","textColor":"#FFFFFF"},{"text":"-30%","backgroundColor":"#333333","textColor":"#FFFFFF"}]},{"type":"v3","items":[{"text":"Expiră pe 04-03-2023","backgroundColor":"#FEF7DC","textColor":"#595959"}]}],"priceColor":"#FF7070","priceIcon":"https://cdn.freshful.ro/assets/save_me/priceIcon.png","unitPriceLabel":"30,76 Lei/kg","badge":null},"labels":[],"geniusPrice":null,"geniusUnitPricePerLabel":null,"banner":{"text":"Cumpără la 7.69 lei","textColor":"#FF7070","bgColor":"#FFF1F1","icon":"https://cdn.freshful.ro/assets/save_me/priceIcon.png","link":"https://www.freshful.ro/p/100001861-cris-tim-salata-boeuf-cu-piept-de-pui-250g?sm=true","type":"saveMe","analyticsEventType":"select_item","analyticsEventPayload":[]},"discountLabel":null,"geniusDiscountLabel":null,"badge":null},{"code":"100149277","variantCode":"100149277","name":"Borș de curcan 400g","slug":"100149277-2c-bors-de-curcan-400g","unitPriceLabel":"44,98 Lei/kg","brand":"2C","brandCode":"2924","brandFilterCode":"2c-b3018","sku":"100149277","price":17.99,"originalPrice":null,"currencyCode":"RON","currency":"Lei","image":{"thumbnail":{"default":"https://cdn.freshful.ro/media/cache/sylius_shop_product_thumbnail/36/31/95b88bfbc537e9351a05c171701a.jpg"},"large":{"default":"https://cdn.freshful.ro/media/cache/freshful_large/36/31/95b88bfbc537e9351a05c171701a.jpg"},"extralarge":{"default":"https://cdn.freshful.ro/media/cache/sylius_shop_product_original/36/31/95b88bfbc537e9351a05c171701a.jpg"}},"label":null,"tags":[],"isAvailable":true,"maxAvailableQuantity":11,"maxAllowedQuantity":100,"breadcrumbs":[{"code":"5","name":"Mezeluri & ready meals","slug":"5-mezeluri-si-ready-to-cook"},{"code":"505","name":"Ready meals","slug":"505-ready-meal"},{"code":"50501","name":"Salate, sandvișuri și ciorbe","slug":"50501-salata-sadvisuri-si-ciorbe"},{"code":"100149277","name":"Borș de curcan 400g","slug":"100149277-2c-bors-de-curcan-400g"}],"activePromotion":null,"saveMe":null,"labels":[],"geniusPrice":null,"geniusUnitPricePerLabel":null,"banner":null,"discountLabel":null,"geniusDiscountLabel":null,"badge":null}],"filters":{"countSelected":0,"items":[{"code":"brand","name":"Brand","countSelected":0,"values":[{"code":"2c-b3018","name":"2C","isSelected":false,"count":6},{"code":"cris-tim-b74","name":"Cris-Tim","isSelected":false,"count":2},{"code":"daniela-s-b491","name":"Daniela's","isSelected":false,"count":1},{"code":"frufru-b21","name":"Frufru","isSelected":false,"count":11},{"code":"paparude-b2966","name":"Paparude","isSelected":false,"count":5},{"code":"zwup-b1252","name":"Zwup","isSelected":false,"count":3}]},{"code":"diet_lifestyle","name":"Dietă și lifestyle","countSelected":0,"values":[{"code":"fara-lactoza-a38","name":"Fara lactoza","isSelected":false,"count":1},{"code":"made-in-romania-a85","name":"Made In Romania","isSelected":false,"count":3},{"code":"natural-a27","name":"Natural","isSelected":false,"count":3}]}]},"orderBy":[{"field":"price","direction":"asc","name":"Preț crescător","isSelected":false},{"field":"price","direction":"desc","name":"Preț descrescător","isSelected":false},{"field":"popularity","direction":"desc","name":"Cele mai populare","isSelected":true},{"field":"category","direction":"asc","name":"Categorie","isSelected":false}],"metaTitle":"Salate, sandvișuri și ciorbe - Gamă variată","metaDescription":"Vrei Salate, sandvișuri și ciorbe? Alege dintr-o gamă variată. Comanzi simplu și ai livrare rapidă, calitate și prospețime. Hai pe Freshful.ro","metaKeywords":null,"banners":[]}}