{"type":"subcategory","payload":{"analyticsListId":"category_50504-mancaruri-gatite","analyticsListName":"Category - Mâncăruri gătite","name":"Mâncăruri gătite","slug":"50504-mancaruri-gatite","image":null,"breadcrumbs":[{"code":"5","name":"Mezeluri & ready meals","slug":"5-mezeluri-si-ready-to-cook"},{"code":"505","name":"Ready meals","slug":"505-ready-meal"},{"code":"50504","name":"Mâncăruri gătite","slug":"50504-mancaruri-gatite"}],"slots":[],"page":1,"limit":10,"pages":4,"count":32,"siblings":[{"name":"Mezeluri","slug":"501-mezeluri","selected":false},{"name":"Mezeluri feliate","slug":"502-mezeluri-feliate","selected":false},{"name":"Pizza și aluat","slug":"503-pizza-si-aluat","selected":false},{"name":"Paste proaspete","slug":"504-paste-proaspete","selected":false},{"name":"Ready meals","slug":"505-ready-meal","selected":true}],"children":[{"name":"Toate produsele","slug":"505-ready-meal","selected":false},{"name":"Salate, sandvișuri și ciorbe","slug":"50501-salata-sadvisuri-si-ciorbe","selected":false},{"name":"Bucătărie libaneză","slug":"50502-bucatarie-libaneza","selected":false},{"name":"Mâncăruri gătite","slug":"50504-mancaruri-gatite","selected":true}],"products":[{"code":"100145131","variantCode":"100145131","name":"Măsline verzi umplute cu brânză prospătă 200g","slug":"100145131-grikios-masline-verzi-umplute-cu-branza-prospata-200g","unitPriceLabel":"74,95 Lei/kg","brand":"GRIKIOS","brandCode":"2807","brandFilterCode":"grikios-b2894","sku":"100145131","price":14.99,"originalPrice":null,"currencyCode":"RON","currency":"Lei","image":{"thumbnail":{"default":"https://cdn.freshful.ro/media/cache/sylius_shop_product_thumbnail/70/52/5523c55a8e33ec80b5cbb964697c.jpg"},"large":{"default":"https://cdn.freshful.ro/media/cache/freshful_large/70/52/5523c55a8e33ec80b5cbb964697c.jpg"},"extralarge":{"default":"https://cdn.freshful.ro/media/cache/sylius_shop_product_original/70/52/5523c55a8e33ec80b5cbb964697c.jpg"}},"label":null,"tags":[],"isAvailable":true,"maxAvailableQuantity":100,"maxAllowedQuantity":100,"breadcrumbs":[{"code":"5","name":"Mezeluri & ready meals","slug":"5-mezeluri-si-ready-to-cook"},{"code":"505","name":"Ready meals","slug":"505-ready-meal"},{"code":"50504","name":"Mâncăruri gătite","slug":"50504-mancaruri-gatite"},{"code":"100145131","name":"Măsline verzi umplute cu brânză prospătă 200g","slug":"100145131-grikios-masline-verzi-umplute-cu-branza-prospata-200g"}],"activePromotion":null,"saveMe":null,"labels":[],"geniusPrice":null,"geniusUnitPricePerLabel":null,"banner":null,"discountLabel":null,"geniusDiscountLabel":null,"badge":null},{"code":"100001858","variantCode":"5941265012689","name":"Pui Shanghai 200g","slug":"100001858-cris-tim-pui-shanghai-200g","unitPriceLabel":"54,95 Lei/kg","brand":"Cris-Tim","brandCode":"76","brandFilterCode":"cris-tim-b74","sku":"100001858","price":10.99,"originalPrice":null,"currencyCode":"RON","currency":"Lei","image":{"thumbnail":{"default":"https://cdn.freshful.ro/media/cache/sylius_shop_product_thumbnail/91/02/9d368044bc87a0c9a6f7b00d945e.jpg"},"large":{"default":"https://cdn.freshful.ro/media/cache/freshful_large/91/02/9d368044bc87a0c9a6f7b00d945e.jpg"},"extralarge":{"default":"https://cdn.freshful.ro/media/cache/sylius_shop_product_original/91/02/9d368044bc87a0c9a6f7b00d945e.jpg"}},"label":null,"tags":[],"isAvailable":true,"maxAvailableQuantity":100,"maxAllowedQuantity":100,"breadcrumbs":[{"code":"5","name":"Mezeluri & ready meals","slug":"5-mezeluri-si-ready-to-cook"},{"code":"505","name":"Ready meals","slug":"505-ready-meal"},{"code":"50504","name":"Mâncăruri gătite","slug":"50504-mancaruri-gatite"},{"code":"100001858","name":"Pui Shanghai 200g","slug":"100001858-cris-tim-pui-shanghai-200g"}],"activePromotion":null,"saveMe":null,"labels":[],"geniusPrice":null,"geniusUnitPricePerLabel":null,"banner":null,"discountLabel":null,"geniusDiscountLabel":null,"badge":null},{"code":"100140796","variantCode":"100140796","name":"Orez cu lapte și scorțișoară 200g","slug":"100140796-frufru-orez-cu-lapte-si-scortisoara-200g","unitPriceLabel":"59,95 Lei/kg","brand":"Frufru","brandCode":"28","brandFilterCode":"frufru-b21","sku":"100140796","price":11.99,"originalPrice":null,"currencyCode":"RON","currency":"Lei","image":{"thumbnail":{"default":"https://cdn.freshful.ro/media/cache/sylius_shop_product_thumbnail/2a/37/4af23fb7cf775c4e39518b4cd335.jpg"},"large":{"default":"https://cdn.freshful.ro/media/cache/freshful_large/2a/37/4af23fb7cf775c4e39518b4cd335.jpg"},"extralarge":{"default":"https://cdn.freshful.ro/media/cache/sylius_shop_product_original/2a/37/4af23fb7cf775c4e39518b4cd335.jpg"}},"label":null,"tags":[],"isAvailable":true,"maxAvailableQuantity":9,"maxAllowedQuantity":100,"breadcrumbs":[{"code":"5","name":"Mezeluri & ready meals","slug":"5-mezeluri-si-ready-to-cook"},{"code":"505","name":"Ready meals","slug":"505-ready-meal"},{"code":"50504","name":"Mâncăruri gătite","slug":"50504-mancaruri-gatite"},{"code":"100140796","name":"Orez cu lapte și scorțișoară 200g","slug":"100140796-frufru-orez-cu-lapte-si-scortisoara-200g"}],"activePromotion":null,"saveMe":null,"labels":[],"geniusPrice":null,"geniusUnitPricePerLabel":null,"banner":null,"discountLabel":null,"geniusDiscountLabel":null,"badge":null},{"code":"100001857","variantCode":"5941265012641","name":"Chiftele de pui 200g","slug":"100001857-cris-tim-chiftele-de-pui-200g","unitPriceLabel":"54,95 Lei/kg","brand":"Cris-Tim","brandCode":"76","brandFilterCode":"cris-tim-b74","sku":"100001857","price":10.99,"originalPrice":null,"currencyCode":"RON","currency":"Lei","image":{"thumbnail":{"default":"https://cdn.freshful.ro/media/cache/sylius_shop_product_thumbnail/6a/9a/eb79232270c489f39abd5a9fdcdf.jpg"},"large":{"default":"https://cdn.freshful.ro/media/cache/freshful_large/6a/9a/eb79232270c489f39abd5a9fdcdf.jpg"},"extralarge":{"default":"https://cdn.freshful.ro/media/cache/sylius_shop_product_original/6a/9a/eb79232270c489f39abd5a9fdcdf.jpg"}},"label":null,"tags":[],"isAvailable":true,"maxAvailableQuantity":28,"maxAllowedQuantity":100,"breadcrumbs":[{"code":"5","name":"Mezeluri & ready meals","slug":"5-mezeluri-si-ready-to-cook"},{"code":"505","name":"Ready meals","slug":"505-ready-meal"},{"code":"50504","name":"Mâncăruri gătite","slug":"50504-mancaruri-gatite"},{"code":"100001857","name":"Chiftele de pui 200g","slug":"100001857-cris-tim-chiftele-de-pui-200g"}],"activePromotion":null,"saveMe":null,"labels":[],"geniusPrice":null,"geniusUnitPricePerLabel":null,"banner":null,"discountLabel":null,"geniusDiscountLabel":null,"badge":null},{"code":"100031526","variantCode":"5941904501611","name":"Cartofi gratinați cu sos quattro formaggi 370g","slug":"100031526-frufru-cartofi-gratinati-cu-sos-quattro-formaggi-370g","unitPriceLabel":"54,03 Lei/kg","brand":"Frufru","brandCode":"28","brandFilterCode":"frufru-b21","sku":"100031526","price":19.99,"originalPrice":null,"currencyCode":"RON","currency":"Lei","image":{"thumbnail":{"default":"https://cdn.freshful.ro/media/cache/sylius_shop_product_thumbnail/0a/54/ca341d18c62fe330171d7b206bb2.jpg"},"large":{"default":"https://cdn.freshful.ro/media/cache/freshful_large/0a/54/ca341d18c62fe330171d7b206bb2.jpg"},"extralarge":{"default":"https://cdn.freshful.ro/media/cache/sylius_shop_product_original/0a/54/ca341d18c62fe330171d7b206bb2.jpg"}},"label":null,"tags":[],"isAvailable":true,"maxAvailableQuantity":2,"maxAllowedQuantity":100,"breadcrumbs":[{"code":"5","name":"Mezeluri & ready meals","slug":"5-mezeluri-si-ready-to-cook"},{"code":"505","name":"Ready meals","slug":"505-ready-meal"},{"code":"50504","name":"Mâncăruri gătite","slug":"50504-mancaruri-gatite"},{"code":"100031526","name":"Cartofi gratinați cu sos quattro formaggi 370g","slug":"100031526-frufru-cartofi-gratinati-cu-sos-quattro-formaggi-370g"}],"activePromotion":null,"saveMe":null,"labels":[],"geniusPrice":null,"geniusUnitPricePerLabel":null,"banner":null,"discountLabel":null,"geniusDiscountLabel":null,"badge":null},{"code":"100001856","variantCode":"5941265012658","name":"Chiftele de porc 200g","slug":"100001856-cris-tim-chiftele-de-porc-200g","unitPriceLabel":"54,95 Lei/kg","brand":"Cris-Tim","brandCode":"76","brandFilterCode":"cris-tim-b74","sku":"100001856","price":10.99,"originalPrice":null,"currencyCode":"RON","currency":"Lei","image":{"thumbnail":{"default":"https://cdn.freshful.ro/media/cache/sylius_shop_product_thumbnail/ce/88/054d64253737f99d0a0e64e793e7.jpg"},"large":{"default":"https://cdn.freshful.ro/media/cache/freshful_large/ce/88/054d64253737f99d0a0e64e793e7.jpg"},"extralarge":{"default":"https://cdn.freshful.ro/media/cache/sylius_shop_product_original/ce/88/054d64253737f99d0a0e64e793e7.jpg"}},"label":null,"tags":[],"isAvailable":true,"maxAvailableQuantity":29,"maxAllowedQuantity":100,"breadcrumbs":[{"code":"5","name":"Mezeluri & ready meals","slug":"5-mezeluri-si-ready-to-cook"},{"code":"505","name":"Ready meals","slug":"505-ready-meal"},{"code":"50504","name":"Mâncăruri gătite","slug":"50504-mancaruri-gatite"},{"code":"100001856","name":"Chiftele de porc 200g","slug":"100001856-cris-tim-chiftele-de-porc-200g"}],"activePromotion":null,"saveMe":null,"labels":[],"geniusPrice":null,"geniusUnitPricePerLabel":null,"banner":null,"discountLabel":null,"geniusDiscountLabel":null,"badge":null},{"code":"100149275","variantCode":"100149275","name":"Chifteluțe din ceafă de porc 500g","slug":"100149275-2c-chiftelute-din-ceafa-de-porc-500g","unitPriceLabel":"91,98 Lei/kg","brand":"2C","brandCode":"2924","brandFilterCode":"2c-b3018","sku":"100149275","price":45.99,"originalPrice":null,"currencyCode":"RON","currency":"Lei","image":{"thumbnail":{"default":"https://cdn.freshful.ro/media/cache/sylius_shop_product_thumbnail/0d/be/31b9fdc24f539d3fd7d7d0eab85c.jpg"},"large":{"default":"https://cdn.freshful.ro/media/cache/freshful_large/0d/be/31b9fdc24f539d3fd7d7d0eab85c.jpg"},"extralarge":{"default":"https://cdn.freshful.ro/media/cache/sylius_shop_product_original/0d/be/31b9fdc24f539d3fd7d7d0eab85c.jpg"}},"label":null,"tags":[],"isAvailable":true,"maxAvailableQuantity":6,"maxAllowedQuantity":100,"breadcrumbs":[{"code":"5","name":"Mezeluri & ready meals","slug":"5-mezeluri-si-ready-to-cook"},{"code":"505","name":"Ready meals","slug":"505-ready-meal"},{"code":"50504","name":"Mâncăruri gătite","slug":"50504-mancaruri-gatite"},{"code":"100149275","name":"Chifteluțe din ceafă de porc 500g","slug":"100149275-2c-chiftelute-din-ceafa-de-porc-500g"}],"activePromotion":null,"saveMe":null,"labels":[],"geniusPrice":null,"geniusUnitPricePerLabel":null,"banner":null,"discountLabel":null,"geniusDiscountLabel":null,"badge":null},{"code":"100149089","variantCode":"100149089","name":"Ardei roșii picanți umpluți cu cremă de branză 210g","slug":"100149089-meggle-ardei-rosii-picanti-umpluti-cu-crema-de-branza-210g","unitPriceLabel":"126,6 Lei/kg","brand":"Meggle","brandCode":"497","brandFilterCode":"meggle-b498","sku":"100149089","price":18.99,"originalPrice":null,"currencyCode":"RON","currency":"Lei","image":{"thumbnail":{"default":"https://cdn.freshful.ro/media/cache/sylius_shop_product_thumbnail/39/de/0bd718e9441a34da4b1becee2ff4.jpg"},"large":{"default":"https://cdn.freshful.ro/media/cache/freshful_large/39/de/0bd718e9441a34da4b1becee2ff4.jpg"},"extralarge":{"default":"https://cdn.freshful.ro/media/cache/sylius_shop_product_original/39/de/0bd718e9441a34da4b1becee2ff4.jpg"}},"label":null,"tags":[],"isAvailable":true,"maxAvailableQuantity":12,"maxAllowedQuantity":100,"breadcrumbs":[{"code":"5","name":"Mezeluri & ready meals","slug":"5-mezeluri-si-ready-to-cook"},{"code":"505","name":"Ready meals","slug":"505-ready-meal"},{"code":"50504","name":"Mâncăruri gătite","slug":"50504-mancaruri-gatite"},{"code":"100149089","name":"Ardei roșii picanți umpluți cu cremă de branză 210g","slug":"100149089-meggle-ardei-rosii-picanti-umpluti-cu-crema-de-branza-210g"}],"activePromotion":null,"saveMe":null,"labels":[],"geniusPrice":null,"geniusUnitPricePerLabel":null,"banner":null,"discountLabel":null,"geniusDiscountLabel":null,"badge":null},{"code":"100044982","variantCode":"100044982","name":"Fasole cu cârnați 400g","slug":"100044982-maestro-fasole-cu-carnati-400g","unitPriceLabel":"59,98 Lei/kg","brand":"Maestro","brandCode":"807","brandFilterCode":"maestro-b808","sku":"100044982","price":23.99,"originalPrice":null,"currencyCode":"RON","currency":"Lei","image":{"thumbnail":{"default":"https://cdn.freshful.ro/media/cache/sylius_shop_product_thumbnail/2f/a9/668e023670d2c5b44fc320916fc2.jpg"},"large":{"default":"https://cdn.freshful.ro/media/cache/freshful_large/2f/a9/668e023670d2c5b44fc320916fc2.jpg"},"extralarge":{"default":"https://cdn.freshful.ro/media/cache/sylius_shop_product_original/2f/a9/668e023670d2c5b44fc320916fc2.jpg"}},"label":null,"tags":[{"type":"NoPreservatives","text":"Fara conservanti","icon":"https://cdn.freshful.ro/assets/product_tags/fara_conservanti.svg","iconPng":"https://cdn.freshful.ro/assets/product_tags/fara_conservanti.png","backgroundColor":"#F0F2FF","textColor":"#7889DD"}],"isAvailable":true,"maxAvailableQuantity":11,"maxAllowedQuantity":100,"breadcrumbs":[{"code":"5","name":"Mezeluri & ready meals","slug":"5-mezeluri-si-ready-to-cook"},{"code":"505","name":"Ready meals","slug":"505-ready-meal"},{"code":"50504","name":"Mâncăruri gătite","slug":"50504-mancaruri-gatite"},{"code":"100044982","name":"Fasole cu cârnați 400g","slug":"100044982-maestro-fasole-cu-carnati-400g"}],"activePromotion":null,"saveMe":null,"labels":[],"geniusPrice":null,"geniusUnitPricePerLabel":null,"banner":null,"discountLabel":null,"geniusDiscountLabel":null,"badge":null},{"code":"100044984","variantCode":"100044984","name":"Mâncare de mazăre cu carne de pui 400g","slug":"100044984-maestro-mancare-de-mazare-cu-carne-de-pui-400g","unitPriceLabel":"57,48 Lei/kg","brand":"Maestro","brandCode":"807","brandFilterCode":"maestro-b808","sku":"100044984","price":22.99,"originalPrice":null,"currencyCode":"RON","currency":"Lei","image":{"thumbnail":{"default":"https://cdn.freshful.ro/media/cache/sylius_shop_product_thumbnail/ee/12/f58e355066eaf62e60990d618214.jpg"},"large":{"default":"https://cdn.freshful.ro/media/cache/freshful_large/ee/12/f58e355066eaf62e60990d618214.jpg"},"extralarge":{"default":"https://cdn.freshful.ro/media/cache/sylius_shop_product_original/ee/12/f58e355066eaf62e60990d618214.jpg"}},"label":null,"tags":[{"type":"NoPreservatives","text":"Fara conservanti","icon":"https://cdn.freshful.ro/assets/product_tags/fara_conservanti.svg","iconPng":"https://cdn.freshful.ro/assets/product_tags/fara_conservanti.png","backgroundColor":"#F0F2FF","textColor":"#7889DD"}],"isAvailable":true,"maxAvailableQuantity":28,"maxAllowedQuantity":100,"breadcrumbs":[{"code":"5","name":"Mezeluri & ready meals","slug":"5-mezeluri-si-ready-to-cook"},{"code":"505","name":"Ready meals","slug":"505-ready-meal"},{"code":"50504","name":"Mâncăruri gătite","slug":"50504-mancaruri-gatite"},{"code":"100044984","name":"Mâncare de mazăre cu carne de pui 400g","slug":"100044984-maestro-mancare-de-mazare-cu-carne-de-pui-400g"}],"activePromotion":null,"saveMe":null,"labels":[],"geniusPrice":null,"geniusUnitPricePerLabel":null,"banner":null,"discountLabel":null,"geniusDiscountLabel":null,"badge":null}],"filters":{"countSelected":0,"items":[{"code":"brand","name":"Brand","countSelected":0,"values":[{"code":"2c-b3018","name":"2C","isSelected":false,"count":2},{"code":"cris-tim-b74","name":"Cris-Tim","isSelected":false,"count":3},{"code":"daniela-s-b491","name":"Daniela's","isSelected":false,"count":2},{"code":"frufru-b21","name":"Frufru","isSelected":false,"count":9},{"code":"grikios-b2894","name":"GRIKIOS","isSelected":false,"count":7},{"code":"maestro-b808","name":"Maestro","isSelected":false,"count":6},{"code":"meggle-b498","name":"Meggle","isSelected":false,"count":3}]},{"code":"diet_lifestyle","name":"Dietă și lifestyle","countSelected":0,"values":[{"code":"fara-conservanti-a37","name":"Fara conservanti","isSelected":false,"count":6},{"code":"fara-lactoza-a38","name":"Fara lactoza","isSelected":false,"count":2},{"code":"vegetarian-a28","name":"Vegetarian","isSelected":false,"count":1}]}]},"orderBy":[{"field":"price","direction":"asc","name":"Preț crescător","isSelected":false},{"field":"price","direction":"desc","name":"Preț descrescător","isSelected":false},{"field":"popularity","direction":"desc","name":"Cele mai populare","isSelected":true},{"field":"category","direction":"asc","name":"Categorie","isSelected":false}],"metaTitle":"Mâncăruri gătite - Gamă variată","metaDescription":"Vrei Mâncăruri gătite? Alege dintr-o gamă variată. Comanzi simplu și ai livrare rapidă, calitate și prospețime. Hai pe Freshful.ro","metaKeywords":null,"banners":[]}}