{"type":"subcategory","payload":{"analyticsListId":"category_60101-carne-congelata","analyticsListName":"Category - Carne congelată","name":"Carne congelată","slug":"60101-carne-congelata","image":null,"breadcrumbs":[{"code":"6","name":"Înghețată & congelate","slug":"6-produse-congelate"},{"code":"601","name":"Carne și pește congelate","slug":"601-carne-si-peste-congelate"},{"code":"60101","name":"Carne congelată","slug":"60101-carne-congelata"}],"slots":[],"page":1,"limit":10,"pages":3,"count":25,"siblings":[{"name":"Înghețată și deserturi congelate","slug":"604-inghetata-si-deserturi-congelate","selected":false},{"name":"Carne și pește congelate","slug":"601-carne-si-peste-congelate","selected":true},{"name":"Legume și fructe congelate","slug":"602-legume-si-fructe-congelate","selected":false},{"name":"Semipreparate congelate","slug":"603-semipreparate-congelate","selected":false}],"children":[{"name":"Toate produsele","slug":"601-carne-si-peste-congelate","selected":false},{"name":"Carne congelată","slug":"60101-carne-congelata","selected":true},{"name":"Pește congelat","slug":"60102-peste-congelat","selected":false},{"name":"Fructe de mare congelate","slug":"60103-fructe-de-mare-congelate","selected":false}],"products":[{"code":"100063186","variantCode":"100063186","name":"Burger vegan 320g","slug":"100063186-naturli-burger-vegan-320g","unitPriceLabel":"49,97 Lei/kg","brand":"Naturli'","brandCode":"946","brandFilterCode":"naturli-b946","sku":"100063186","price":15.99,"originalPrice":17.49,"currencyCode":"RON","currency":"Lei","image":{"thumbnail":{"default":"https://cdn.freshful.ro/media/cache/sylius_shop_product_thumbnail/09/36/43fe8a029cb92a166894e7e3b923.jpg"},"large":{"default":"https://cdn.freshful.ro/media/cache/freshful_large/09/36/43fe8a029cb92a166894e7e3b923.jpg"},"extralarge":{"default":"https://cdn.freshful.ro/media/cache/sylius_shop_product_original/09/36/43fe8a029cb92a166894e7e3b923.jpg"}},"label":{"text":"-8%","backgroundColor":"#FF9903","textColor":"#FFFFFF"},"tags":[{"type":"vegan","text":"Vegan","icon":"https://cdn.freshful.ro/assets/product_tags/vegan.svg","iconPng":"https://cdn.freshful.ro/assets/product_tags/vegan.png","backgroundColor":"#ECF9F8","textColor":"#33A39C"},{"type":"NoGluten","text":"Fara gluten","icon":"https://cdn.freshful.ro/assets/product_tags/fara_gluten.svg","iconPng":"https://cdn.freshful.ro/assets/product_tags/fara_gluten.png","backgroundColor":"#FFF2E5","textColor":"#F07900"},{"type":"Frozen","text":"Congelat","icon":"https://cdn.freshful.ro/assets/product_tags/congelat.svg","iconPng":"https://cdn.freshful.ro/assets/product_tags/congelat.png","backgroundColor":"#EDF6FA","textColor":"#2E9AD1"}],"isAvailable":true,"maxAvailableQuantity":34,"maxAllowedQuantity":100,"breadcrumbs":[{"code":"6","name":"Înghețată & congelate","slug":"6-produse-congelate"},{"code":"601","name":"Carne și pește congelate","slug":"601-carne-si-peste-congelate"},{"code":"60101","name":"Carne congelată","slug":"60101-carne-congelata"},{"code":"100063186","name":"Burger vegan 320g","slug":"100063186-naturli-burger-vegan-320g"}],"activePromotion":{"code":"special-produse-vegane-mar23","name":"Preț redus","targetQuantity":null},"saveMe":null,"labels":[{"type":"v1","items":[{"text":"-8%","backgroundColor":"#FF9903","textColor":"#FFFFFF"}]}],"geniusPrice":null,"geniusUnitPricePerLabel":null,"banner":{"text":"Super preț","textColor":"#FF0000","bgColor":"#FFF2EC","icon":null,"link":"https://www.freshful.ro/oferte/special-produse-vegane-mar23","type":"promo","analyticsEventType":"select_promotion","analyticsEventPayload":{"promotion_id":"special-produse-vegane-mar23","promotion_name":"Și bun, și de post"}},"discountLabel":"Economisești 8%","geniusDiscountLabel":null,"badge":null},{"code":"100146740","variantCode":"100146740","name":"Chiftele din carne de porc 300g","slug":"100146740-moldova-in-bucate-chiftele-din-carne-de-porc-300g","unitPriceLabel":"34,97 Lei/kg","brand":"Moldova In Bucate","brandCode":"2827","brandFilterCode":"moldova-in-bucate-b2913","sku":"100146740","price":10.49,"originalPrice":11.99,"currencyCode":"RON","currency":"Lei","image":{"thumbnail":{"default":"https://cdn.freshful.ro/media/cache/sylius_shop_product_thumbnail/2b/55/228d948c3d61d5cc9f91b0dfcc77.jpg"},"large":{"default":"https://cdn.freshful.ro/media/cache/freshful_large/2b/55/228d948c3d61d5cc9f91b0dfcc77.jpg"},"extralarge":{"default":"https://cdn.freshful.ro/media/cache/sylius_shop_product_original/2b/55/228d948c3d61d5cc9f91b0dfcc77.jpg"}},"label":{"text":"-12%","backgroundColor":"#FF9903","textColor":"#FFFFFF"},"tags":[{"type":"Frozen","text":"Congelat","icon":"https://cdn.freshful.ro/assets/product_tags/congelat.svg","iconPng":"https://cdn.freshful.ro/assets/product_tags/congelat.png","backgroundColor":"#EDF6FA","textColor":"#2E9AD1"}],"isAvailable":true,"maxAvailableQuantity":8,"maxAllowedQuantity":100,"breadcrumbs":[{"code":"6","name":"Înghețată & congelate","slug":"6-produse-congelate"},{"code":"601","name":"Carne și pește congelate","slug":"601-carne-si-peste-congelate"},{"code":"60101","name":"Carne congelată","slug":"60101-carne-congelata"},{"code":"100146740","name":"Chiftele din carne de porc 300g","slug":"100146740-moldova-in-bucate-chiftele-din-carne-de-porc-300g"}],"activePromotion":{"code":"bunatatile-saptamanii-cw0923","name":"Preț redus","targetQuantity":null},"saveMe":null,"labels":[{"type":"v1","items":[{"text":"-12%","backgroundColor":"#FF9903","textColor":"#FFFFFF"}]}],"geniusPrice":null,"geniusUnitPricePerLabel":null,"banner":{"text":"Super preț","textColor":"#FF0000","bgColor":"#FFF2EC","icon":null,"link":"https://www.freshful.ro/oferte/bunatatile-saptamanii-cw0923","type":"promo","analyticsEventType":"select_promotion","analyticsEventPayload":{"promotion_id":"bunatatile-saptamanii-cw0923","promotion_name":"Oferta proaspătă a săptămânii"}},"discountLabel":"Economisești 12%","geniusDiscountLabel":null,"badge":null},{"code":"100032196","variantCode":"100032196","name":"Burger vegetal congelat 2x110g","slug":"100032196-verdino-burger-vegetal-congelat-2x110g","unitPriceLabel":"59,05 Lei/kg","brand":"Verdino","brandCode":"206","brandFilterCode":"verdino-b207","sku":"100032196","price":12.99,"originalPrice":14.99,"currencyCode":"RON","currency":"Lei","image":{"thumbnail":{"default":"https://cdn.freshful.ro/media/cache/sylius_shop_product_thumbnail/aa/8d/f2354e40d65b11d10021674da8df.jpg"},"large":{"default":"https://cdn.freshful.ro/media/cache/freshful_large/aa/8d/f2354e40d65b11d10021674da8df.jpg"},"extralarge":{"default":"https://cdn.freshful.ro/media/cache/sylius_shop_product_original/aa/8d/f2354e40d65b11d10021674da8df.jpg"}},"label":{"text":"-13%","backgroundColor":"#FF9903","textColor":"#FFFFFF"},"tags":[{"type":"vegan","text":"Vegan","icon":"https://cdn.freshful.ro/assets/product_tags/vegan.svg","iconPng":"https://cdn.freshful.ro/assets/product_tags/vegan.png","backgroundColor":"#ECF9F8","textColor":"#33A39C"},{"type":"Frozen","text":"Congelat","icon":"https://cdn.freshful.ro/assets/product_tags/congelat.svg","iconPng":"https://cdn.freshful.ro/assets/product_tags/congelat.png","backgroundColor":"#EDF6FA","textColor":"#2E9AD1"}],"isAvailable":true,"maxAvailableQuantity":46,"maxAllowedQuantity":100,"breadcrumbs":[{"code":"6","name":"Înghețată & congelate","slug":"6-produse-congelate"},{"code":"601","name":"Carne și pește congelate","slug":"601-carne-si-peste-congelate"},{"code":"60101","name":"Carne congelată","slug":"60101-carne-congelata"},{"code":"100032196","name":"Burger vegetal congelat 2x110g","slug":"100032196-verdino-burger-vegetal-congelat-2x110g"}],"activePromotion":{"code":"special-produse-vegane-mar23","name":"Preț redus","targetQuantity":null},"saveMe":null,"labels":[{"type":"v1","items":[{"text":"-13%","backgroundColor":"#FF9903","textColor":"#FFFFFF"}]}],"geniusPrice":null,"geniusUnitPricePerLabel":null,"banner":{"text":"Super preț","textColor":"#FF0000","bgColor":"#FFF2EC","icon":null,"link":"https://www.freshful.ro/oferte/special-produse-vegane-mar23","type":"promo","analyticsEventType":"select_promotion","analyticsEventPayload":{"promotion_id":"special-produse-vegane-mar23","promotion_name":"Și bun, și de post"}},"discountLabel":"Economisești 13%","geniusDiscountLabel":null,"badge":null},{"code":"100142624","variantCode":"100142624","name":"Burger vegetal 230g","slug":"100142624-future-farm-burger-vegetal-230g","unitPriceLabel":"108,65 Lei/kg","brand":"Future Farm","brandCode":"2743","brandFilterCode":"future-farm-b2749","sku":"100142624","price":24.99,"originalPrice":29.99,"currencyCode":"RON","currency":"Lei","image":{"thumbnail":{"default":"https://cdn.freshful.ro/media/cache/sylius_shop_product_thumbnail/6d/65/b703a6c3429c512432aa7716402a.jpg"},"large":{"default":"https://cdn.freshful.ro/media/cache/freshful_large/6d/65/b703a6c3429c512432aa7716402a.jpg"},"extralarge":{"default":"https://cdn.freshful.ro/media/cache/sylius_shop_product_original/6d/65/b703a6c3429c512432aa7716402a.jpg"}},"label":{"text":"-16%","backgroundColor":"#FF9903","textColor":"#FFFFFF"},"tags":[{"type":"vegan","text":"Vegan","icon":"https://cdn.freshful.ro/assets/product_tags/vegan.svg","iconPng":"https://cdn.freshful.ro/assets/product_tags/vegan.png","backgroundColor":"#ECF9F8","textColor":"#33A39C"},{"type":"Frozen","text":"Congelat","icon":"https://cdn.freshful.ro/assets/product_tags/congelat.svg","iconPng":"https://cdn.freshful.ro/assets/product_tags/congelat.png","backgroundColor":"#EDF6FA","textColor":"#2E9AD1"},{"type":"NoGluten","text":"Fara gluten","icon":"https://cdn.freshful.ro/assets/product_tags/fara_gluten.svg","iconPng":"https://cdn.freshful.ro/assets/product_tags/fara_gluten.png","backgroundColor":"#FFF2E5","textColor":"#F07900"}],"isAvailable":true,"maxAvailableQuantity":34,"maxAllowedQuantity":100,"breadcrumbs":[{"code":"6","name":"Înghețată & congelate","slug":"6-produse-congelate"},{"code":"601","name":"Carne și pește congelate","slug":"601-carne-si-peste-congelate"},{"code":"60101","name":"Carne congelată","slug":"60101-carne-congelata"},{"code":"100142624","name":"Burger vegetal 230g","slug":"100142624-future-farm-burger-vegetal-230g"}],"activePromotion":{"code":"special-produse-vegane-mar23","name":"Preț redus","targetQuantity":null},"saveMe":null,"labels":[{"type":"v1","items":[{"text":"-16%","backgroundColor":"#FF9903","textColor":"#FFFFFF"}]}],"geniusPrice":null,"geniusUnitPricePerLabel":null,"banner":{"text":"Super preț","textColor":"#FF0000","bgColor":"#FFF2EC","icon":null,"link":"https://www.freshful.ro/oferte/special-produse-vegane-mar23","type":"promo","analyticsEventType":"select_promotion","analyticsEventPayload":{"promotion_id":"special-produse-vegane-mar23","promotion_name":"Și bun, și de post"}},"discountLabel":"Economisești 16%","geniusDiscountLabel":null,"badge":null},{"code":"100032195","variantCode":"100032195","name":"Mititei vegetali congelați 200g","slug":"100032195-verdino-mititei-vegetali-congelati-200g","unitPriceLabel":"62,45 Lei/kg","brand":"Verdino","brandCode":"206","brandFilterCode":"verdino-b207","sku":"100032195","price":12.49,"originalPrice":13.99,"currencyCode":"RON","currency":"Lei","image":{"thumbnail":{"default":"https://cdn.freshful.ro/media/cache/sylius_shop_product_thumbnail/5f/0b/5d8241ff8300459b6d3dc234a307.jpg"},"large":{"default":"https://cdn.freshful.ro/media/cache/freshful_large/5f/0b/5d8241ff8300459b6d3dc234a307.jpg"},"extralarge":{"default":"https://cdn.freshful.ro/media/cache/sylius_shop_product_original/5f/0b/5d8241ff8300459b6d3dc234a307.jpg"}},"label":{"text":"-10%","backgroundColor":"#FF9903","textColor":"#FFFFFF"},"tags":[{"type":"vegan","text":"Vegan","icon":"https://cdn.freshful.ro/assets/product_tags/vegan.svg","iconPng":"https://cdn.freshful.ro/assets/product_tags/vegan.png","backgroundColor":"#ECF9F8","textColor":"#33A39C"},{"type":"Frozen","text":"Congelat","icon":"https://cdn.freshful.ro/assets/product_tags/congelat.svg","iconPng":"https://cdn.freshful.ro/assets/product_tags/congelat.png","backgroundColor":"#EDF6FA","textColor":"#2E9AD1"}],"isAvailable":true,"maxAvailableQuantity":17,"maxAllowedQuantity":100,"breadcrumbs":[{"code":"6","name":"Înghețată & congelate","slug":"6-produse-congelate"},{"code":"601","name":"Carne și pește congelate","slug":"601-carne-si-peste-congelate"},{"code":"60101","name":"Carne congelată","slug":"60101-carne-congelata"},{"code":"100032195","name":"Mititei vegetali congelați 200g","slug":"100032195-verdino-mititei-vegetali-congelati-200g"}],"activePromotion":{"code":"special-produse-vegane-mar23","name":"Preț redus","targetQuantity":null},"saveMe":null,"labels":[{"type":"v1","items":[{"text":"-10%","backgroundColor":"#FF9903","textColor":"#FFFFFF"}]}],"geniusPrice":null,"geniusUnitPricePerLabel":null,"banner":{"text":"Super preț","textColor":"#FF0000","bgColor":"#FFF2EC","icon":null,"link":"https://www.freshful.ro/oferte/special-produse-vegane-mar23","type":"promo","analyticsEventType":"select_promotion","analyticsEventPayload":{"promotion_id":"special-produse-vegane-mar23","promotion_name":"Și bun, și de post"}},"discountLabel":"Economisești 10%","geniusDiscountLabel":null,"badge":null},{"code":"100037299","variantCode":"100037299","name":"Pui Coquelet 550g","slug":"100037299-edenia-pui-coquelet-550g","unitPriceLabel":"52,71 Lei/kg","brand":"Edenia","brandCode":"56","brandFilterCode":"edenia-b52","sku":"100037299","price":28.99,"originalPrice":null,"currencyCode":"RON","currency":"Lei","image":{"thumbnail":{"default":"https://cdn.freshful.ro/media/cache/sylius_shop_product_thumbnail/18/26/817b1c7cf5d26ff95246142f60aa.jpg"},"large":{"default":"https://cdn.freshful.ro/media/cache/freshful_large/18/26/817b1c7cf5d26ff95246142f60aa.jpg"},"extralarge":{"default":"https://cdn.freshful.ro/media/cache/sylius_shop_product_original/18/26/817b1c7cf5d26ff95246142f60aa.jpg"}},"label":null,"tags":[{"type":"Frozen","text":"Congelat","icon":"https://cdn.freshful.ro/assets/product_tags/congelat.svg","iconPng":"https://cdn.freshful.ro/assets/product_tags/congelat.png","backgroundColor":"#EDF6FA","textColor":"#2E9AD1"}],"isAvailable":true,"maxAvailableQuantity":100,"maxAllowedQuantity":100,"breadcrumbs":[{"code":"6","name":"Înghețată & congelate","slug":"6-produse-congelate"},{"code":"601","name":"Carne și pește congelate","slug":"601-carne-si-peste-congelate"},{"code":"60101","name":"Carne congelată","slug":"60101-carne-congelata"},{"code":"100037299","name":"Pui Coquelet 550g","slug":"100037299-edenia-pui-coquelet-550g"}],"activePromotion":null,"saveMe":null,"labels":[],"geniusPrice":null,"geniusUnitPricePerLabel":null,"banner":null,"discountLabel":null,"geniusDiscountLabel":null,"badge":null},{"code":"100150307","variantCode":"100150307","name":"Ficat de pui 500g","slug":"100150307-frangosul-ficat-de-pui-500g","unitPriceLabel":"15,5 Lei/kg","brand":"Frangosul","brandCode":"1039","brandFilterCode":"frangosul-b1039","sku":"100150307","price":7.75,"originalPrice":null,"currencyCode":"RON","currency":"Lei","image":{"thumbnail":{"default":"https://cdn.freshful.ro/media/cache/sylius_shop_product_thumbnail/29/d8/3c2ab5d4fa4d48f10be2fa0dff92.jpg"},"large":{"default":"https://cdn.freshful.ro/media/cache/freshful_large/29/d8/3c2ab5d4fa4d48f10be2fa0dff92.jpg"},"extralarge":{"default":"https://cdn.freshful.ro/media/cache/sylius_shop_product_original/29/d8/3c2ab5d4fa4d48f10be2fa0dff92.jpg"}},"label":null,"tags":[{"type":"Frozen","text":"Congelat","icon":"https://cdn.freshful.ro/assets/product_tags/congelat.svg","iconPng":"https://cdn.freshful.ro/assets/product_tags/congelat.png","backgroundColor":"#EDF6FA","textColor":"#2E9AD1"}],"isAvailable":true,"maxAvailableQuantity":100,"maxAllowedQuantity":100,"breadcrumbs":[{"code":"6","name":"Înghețată & congelate","slug":"6-produse-congelate"},{"code":"601","name":"Carne și pește congelate","slug":"601-carne-si-peste-congelate"},{"code":"60101","name":"Carne congelată","slug":"60101-carne-congelata"},{"code":"100150307","name":"Ficat de pui 500g","slug":"100150307-frangosul-ficat-de-pui-500g"}],"activePromotion":null,"saveMe":null,"labels":[],"geniusPrice":null,"geniusUnitPricePerLabel":null,"banner":null,"discountLabel":null,"geniusDiscountLabel":null,"badge":null},{"code":"100146741","variantCode":"100146741","name":"Cârnăciori moldovenești 450g","slug":"100146741-moldova-in-bucate-carnaciori-moldovenesti-450g","unitPriceLabel":"37,73 Lei/kg","brand":"Moldova In Bucate","brandCode":"2827","brandFilterCode":"moldova-in-bucate-b2913","sku":"100146741","price":16.98,"originalPrice":null,"currencyCode":"RON","currency":"Lei","image":{"thumbnail":{"default":"https://cdn.freshful.ro/media/cache/sylius_shop_product_thumbnail/cb/52/a34b924feb921e8b2822a4f6a2c4.jpg"},"large":{"default":"https://cdn.freshful.ro/media/cache/freshful_large/cb/52/a34b924feb921e8b2822a4f6a2c4.jpg"},"extralarge":{"default":"https://cdn.freshful.ro/media/cache/sylius_shop_product_original/cb/52/a34b924feb921e8b2822a4f6a2c4.jpg"}},"label":null,"tags":[{"type":"Frozen","text":"Congelat","icon":"https://cdn.freshful.ro/assets/product_tags/congelat.svg","iconPng":"https://cdn.freshful.ro/assets/product_tags/congelat.png","backgroundColor":"#EDF6FA","textColor":"#2E9AD1"},{"type":"NoPreservatives","text":"Fara conservanti","icon":"https://cdn.freshful.ro/assets/product_tags/fara_conservanti.svg","iconPng":"https://cdn.freshful.ro/assets/product_tags/fara_conservanti.png","backgroundColor":"#F0F2FF","textColor":"#7889DD"}],"isAvailable":true,"maxAvailableQuantity":100,"maxAllowedQuantity":100,"breadcrumbs":[{"code":"6","name":"Înghețată & congelate","slug":"6-produse-congelate"},{"code":"601","name":"Carne și pește congelate","slug":"601-carne-si-peste-congelate"},{"code":"60101","name":"Carne congelată","slug":"60101-carne-congelata"},{"code":"100146741","name":"Cârnăciori moldovenești 450g","slug":"100146741-moldova-in-bucate-carnaciori-moldovenesti-450g"}],"activePromotion":null,"saveMe":null,"labels":[],"geniusPrice":null,"geniusUnitPricePerLabel":null,"banner":null,"discountLabel":null,"geniusDiscountLabel":null,"badge":null},{"code":"100146739","variantCode":"100146739","name":"Pârjoale moldovenești 315g","slug":"100146739-moldova-in-bucate-parjoale-moldovenesti-315g","unitPriceLabel":"38,06 Lei/kg","brand":"Moldova In Bucate","brandCode":"2827","brandFilterCode":"moldova-in-bucate-b2913","sku":"100146739","price":11.99,"originalPrice":null,"currencyCode":"RON","currency":"Lei","image":{"thumbnail":{"default":"https://cdn.freshful.ro/media/cache/sylius_shop_product_thumbnail/8a/55/bbb0ef05d5b163b2f2d9b8861bb7.jpg"},"large":{"default":"https://cdn.freshful.ro/media/cache/freshful_large/8a/55/bbb0ef05d5b163b2f2d9b8861bb7.jpg"},"extralarge":{"default":"https://cdn.freshful.ro/media/cache/sylius_shop_product_original/8a/55/bbb0ef05d5b163b2f2d9b8861bb7.jpg"}},"label":null,"tags":[{"type":"Frozen","text":"Congelat","icon":"https://cdn.freshful.ro/assets/product_tags/congelat.svg","iconPng":"https://cdn.freshful.ro/assets/product_tags/congelat.png","backgroundColor":"#EDF6FA","textColor":"#2E9AD1"}],"isAvailable":true,"maxAvailableQuantity":41,"maxAllowedQuantity":100,"breadcrumbs":[{"code":"6","name":"Înghețată & congelate","slug":"6-produse-congelate"},{"code":"601","name":"Carne și pește congelate","slug":"601-carne-si-peste-congelate"},{"code":"60101","name":"Carne congelată","slug":"60101-carne-congelata"},{"code":"100146739","name":"Pârjoale moldovenești 315g","slug":"100146739-moldova-in-bucate-parjoale-moldovenesti-315g"}],"activePromotion":null,"saveMe":null,"labels":[],"geniusPrice":null,"geniusUnitPricePerLabel":null,"banner":null,"discountLabel":null,"geniusDiscountLabel":null,"badge":null},{"code":"100074868","variantCode":"100074868","name":"Burgeri vegetali cu spanac&busuioc 200g, 2 buc","slug":"100074868-frosta-burgeri-vegetali-cu-spanac-busuioc-200g-2-buc","unitPriceLabel":"39,75 Lei/kg","brand":"Frosta","brandCode":"1030","brandFilterCode":"frosta-b1030","sku":"100074868","price":7.95,"originalPrice":null,"currencyCode":"RON","currency":"Lei","image":{"thumbnail":{"default":"https://cdn.freshful.ro/media/cache/sylius_shop_product_thumbnail/c2/9a/d458c7390a9aa2203d30ff2ecbba.jpg"},"large":{"default":"https://cdn.freshful.ro/media/cache/freshful_large/c2/9a/d458c7390a9aa2203d30ff2ecbba.jpg"},"extralarge":{"default":"https://cdn.freshful.ro/media/cache/sylius_shop_product_original/c2/9a/d458c7390a9aa2203d30ff2ecbba.jpg"}},"label":null,"tags":[{"type":"vegan","text":"Vegan","icon":"https://cdn.freshful.ro/assets/product_tags/vegan.svg","iconPng":"https://cdn.freshful.ro/assets/product_tags/vegan.png","backgroundColor":"#ECF9F8","textColor":"#33A39C"},{"type":"Frozen","text":"Congelat","icon":"https://cdn.freshful.ro/assets/product_tags/congelat.svg","iconPng":"https://cdn.freshful.ro/assets/product_tags/congelat.png","backgroundColor":"#EDF6FA","textColor":"#2E9AD1"}],"isAvailable":true,"maxAvailableQuantity":77,"maxAllowedQuantity":100,"breadcrumbs":[{"code":"6","name":"Înghețată & congelate","slug":"6-produse-congelate"},{"code":"601","name":"Carne și pește congelate","slug":"601-carne-si-peste-congelate"},{"code":"60101","name":"Carne congelată","slug":"60101-carne-congelata"},{"code":"100074868","name":"Burgeri vegetali cu spanac&busuioc 200g, 2 buc","slug":"100074868-frosta-burgeri-vegetali-cu-spanac-busuioc-200g-2-buc"}],"activePromotion":null,"saveMe":null,"labels":[],"geniusPrice":null,"geniusUnitPricePerLabel":null,"banner":null,"discountLabel":null,"geniusDiscountLabel":null,"badge":null}],"filters":{"countSelected":0,"items":[{"code":"promotion","name":"Promoții","countSelected":0,"values":[{"code":"bunatatile-saptamanii-cw0923","name":"Oferta proaspătă a săptămânii","isSelected":false,"count":1},{"code":"special-produse-vegane-mar23","name":"Și bun, și de post","isSelected":false,"count":6}]},{"code":"brand","name":"Brand","countSelected":0,"values":[{"code":"best-meat-b493","name":"Best MEAT","isSelected":false,"count":6},{"code":"edenia-b52","name":"Edenia","isSelected":false,"count":3},{"code":"frangosul-b1039","name":"Frangosul","isSelected":false,"count":1},{"code":"frosta-b1030","name":"Frosta","isSelected":false,"count":2},{"code":"future-farm-b2749","name":"Future Farm","isSelected":false,"count":4},{"code":"moldova-in-bucate-b2913","name":"Moldova In Bucate","isSelected":false,"count":3},{"code":"naturli-b946","name":"Naturli'","isSelected":false,"count":1},{"code":"olympia-b244","name":"Olympia","isSelected":false,"count":1},{"code":"ploo-n-gura-b887","name":"Ploo-N Gură","isSelected":false,"count":2},{"code":"verdino-b207","name":"Verdino","isSelected":false,"count":2}]},{"code":"diet_lifestyle","name":"Dietă și lifestyle","countSelected":0,"values":[{"code":"congelat-a66","name":"Congelat","isSelected":false,"count":25},{"code":"eco-a83","name":"Eco","isSelected":false,"count":1},{"code":"fara-conservanti-a37","name":"Fara conservanti","isSelected":false,"count":1},{"code":"fara-gluten-a16","name":"Fara gluten","isSelected":false,"count":5},{"code":"made-in-romania-a85","name":"Made In Romania","isSelected":false,"count":2},{"code":"vegan-a24","name":"Vegan","isSelected":false,"count":9}]}]},"orderBy":[{"field":"price","direction":"asc","name":"Preț crescător","isSelected":false},{"field":"price","direction":"desc","name":"Preț descrescător","isSelected":false},{"field":"popularity","direction":"desc","name":"Cele mai populare","isSelected":true},{"field":"category","direction":"asc","name":"Categorie","isSelected":false}],"metaTitle":"Carne congelată - Gamă variată","metaDescription":"Vrei Carne congelată? Alege dintr-o gamă variată. Comanzi simplu și ai livrare rapidă, calitate și prospețime. Hai pe Freshful.ro","metaKeywords":null,"banners":[]}}