{"type":"subcategory","payload":{"analyticsListId":"category_60102-peste-congelat","analyticsListName":"Category - Pește congelat","name":"Pește congelat","slug":"60102-peste-congelat","image":null,"breadcrumbs":[{"code":"6","name":"Înghețată & congelate","slug":"6-produse-congelate"},{"code":"601","name":"Carne și pește congelate","slug":"601-carne-si-peste-congelate"},{"code":"60102","name":"Pește congelat","slug":"60102-peste-congelat"}],"slots":[],"page":1,"limit":10,"pages":2,"count":16,"siblings":[{"name":"Înghețată și deserturi congelate","slug":"604-inghetata-si-deserturi-congelate","selected":false},{"name":"Carne și pește congelate","slug":"601-carne-si-peste-congelate","selected":true},{"name":"Legume și fructe congelate","slug":"602-legume-si-fructe-congelate","selected":false},{"name":"Semipreparate congelate","slug":"603-semipreparate-congelate","selected":false}],"children":[{"name":"Toate produsele","slug":"601-carne-si-peste-congelate","selected":false},{"name":"Carne congelată","slug":"60101-carne-congelata","selected":false},{"name":"Pește congelat","slug":"60102-peste-congelat","selected":true},{"name":"Fructe de mare congelate","slug":"60103-fructe-de-mare-congelate","selected":false}],"products":[{"code":"100062131","variantCode":"5941330008098","name":"Șprot întreg 500g","slug":"100062131-negro-sprot-intreg-500g","unitPriceLabel":"9,38 Lei/kg","brand":"Negro","brandCode":"480","brandFilterCode":"negro-b481","sku":"100062131","price":4.69,"originalPrice":6.99,"currencyCode":"RON","currency":"Lei","image":{"thumbnail":{"default":"https://cdn.freshful.ro/media/cache/sylius_shop_product_thumbnail/fa/2e/dbd5a235e2994c512a9a0b2ddfab.jpg"},"large":{"default":"https://cdn.freshful.ro/media/cache/freshful_large/fa/2e/dbd5a235e2994c512a9a0b2ddfab.jpg"},"extralarge":{"default":"https://cdn.freshful.ro/media/cache/sylius_shop_product_original/fa/2e/dbd5a235e2994c512a9a0b2ddfab.jpg"}},"label":{"text":"-32%","backgroundColor":"#FF9903","textColor":"#FFFFFF"},"tags":[{"type":"Frozen","text":"Congelat","icon":"https://cdn.freshful.ro/assets/product_tags/congelat.svg","iconPng":"https://cdn.freshful.ro/assets/product_tags/congelat.png","backgroundColor":"#EDF6FA","textColor":"#2E9AD1"}],"isAvailable":true,"maxAvailableQuantity":100,"maxAllowedQuantity":100,"breadcrumbs":[{"code":"6","name":"Înghețată & congelate","slug":"6-produse-congelate"},{"code":"601","name":"Carne și pește congelate","slug":"601-carne-si-peste-congelate"},{"code":"60102","name":"Pește congelat","slug":"60102-peste-congelat"},{"code":"100062131","name":"Șprot întreg 500g","slug":"100062131-negro-sprot-intreg-500g"}],"activePromotion":{"code":"bunatatile-saptamanii-cw0923","name":"Preț redus","targetQuantity":null},"saveMe":null,"labels":[{"type":"v1","items":[{"text":"-32%","backgroundColor":"#FF9903","textColor":"#FFFFFF"}]}],"geniusPrice":null,"geniusUnitPricePerLabel":null,"banner":{"text":"Super preț","textColor":"#FF0000","bgColor":"#FFF2EC","icon":null,"link":"https://www.freshful.ro/oferte/bunatatile-saptamanii-cw0923","type":"promo","analyticsEventType":"select_promotion","analyticsEventPayload":{"promotion_id":"bunatatile-saptamanii-cw0923","promotion_name":"Oferta proaspătă a săptămânii"}},"discountLabel":"Economisești 32%","geniusDiscountLabel":null,"badge":null},{"code":"100144101","variantCode":"100144101","name":"Rondele de somon sălbatic 500g","slug":"100144101-negro-rondele-de-somon-salbatic-500g","unitPriceLabel":"95,98 Lei/kg","brand":"Negro","brandCode":"480","brandFilterCode":"negro-b481","sku":"100144101","price":47.99,"originalPrice":null,"currencyCode":"RON","currency":"Lei","image":{"thumbnail":{"default":"https://cdn.freshful.ro/media/cache/sylius_shop_product_thumbnail/7a/f2/b6d3ff50ed5e139c5bb9f036201e.jpg"},"large":{"default":"https://cdn.freshful.ro/media/cache/freshful_large/7a/f2/b6d3ff50ed5e139c5bb9f036201e.jpg"},"extralarge":{"default":"https://cdn.freshful.ro/media/cache/sylius_shop_product_original/7a/f2/b6d3ff50ed5e139c5bb9f036201e.jpg"}},"label":null,"tags":[{"type":"Frozen","text":"Congelat","icon":"https://cdn.freshful.ro/assets/product_tags/congelat.svg","iconPng":"https://cdn.freshful.ro/assets/product_tags/congelat.png","backgroundColor":"#EDF6FA","textColor":"#2E9AD1"}],"isAvailable":true,"maxAvailableQuantity":100,"maxAllowedQuantity":100,"breadcrumbs":[{"code":"6","name":"Înghețată & congelate","slug":"6-produse-congelate"},{"code":"601","name":"Carne și pește congelate","slug":"601-carne-si-peste-congelate"},{"code":"60102","name":"Pește congelat","slug":"60102-peste-congelat"},{"code":"100144101","name":"Rondele de somon sălbatic 500g","slug":"100144101-negro-rondele-de-somon-salbatic-500g"}],"activePromotion":null,"saveMe":null,"labels":[],"geniusPrice":null,"geniusUnitPricePerLabel":null,"banner":null,"discountLabel":null,"geniusDiscountLabel":null,"badge":null},{"code":"100047375","variantCode":"100047375","name":"Somon Norvegia, cuburi 500g","slug":"100047375-alfredo-seafood-somon-norvegia-cuburi-500g","unitPriceLabel":"63,98 Lei/kg","brand":"Alfredo Seafood","brandCode":"221","brandFilterCode":"alfredo-seafood-b222","sku":"100047375","price":31.99,"originalPrice":null,"currencyCode":"RON","currency":"Lei","image":{"thumbnail":{"default":"https://cdn.freshful.ro/media/cache/sylius_shop_product_thumbnail/87/2a/c6bf2f57a32c5d45a84cf704e61b.jpg"},"large":{"default":"https://cdn.freshful.ro/media/cache/freshful_large/87/2a/c6bf2f57a32c5d45a84cf704e61b.jpg"},"extralarge":{"default":"https://cdn.freshful.ro/media/cache/sylius_shop_product_original/87/2a/c6bf2f57a32c5d45a84cf704e61b.jpg"}},"label":null,"tags":[{"type":"Frozen","text":"Congelat","icon":"https://cdn.freshful.ro/assets/product_tags/congelat.svg","iconPng":"https://cdn.freshful.ro/assets/product_tags/congelat.png","backgroundColor":"#EDF6FA","textColor":"#2E9AD1"}],"isAvailable":true,"maxAvailableQuantity":2,"maxAllowedQuantity":2,"breadcrumbs":[{"code":"6","name":"Înghețată & congelate","slug":"6-produse-congelate"},{"code":"601","name":"Carne și pește congelate","slug":"601-carne-si-peste-congelate"},{"code":"60102","name":"Pește congelat","slug":"60102-peste-congelat"},{"code":"100047375","name":"Somon Norvegia, cuburi 500g","slug":"100047375-alfredo-seafood-somon-norvegia-cuburi-500g"}],"activePromotion":null,"saveMe":null,"labels":[],"geniusPrice":null,"geniusUnitPricePerLabel":null,"banner":null,"discountLabel":null,"geniusDiscountLabel":null,"badge":null},{"code":"100035376","variantCode":"100035376","name":"File de somon norvegian 4x100g","slug":"100035376-defish-file-de-somon-norvegian-4x100g","unitPriceLabel":"194,98 Lei/kg","brand":"DeFish","brandCode":"493","brandFilterCode":"defish-b494","sku":"100035376","price":77.99,"originalPrice":null,"currencyCode":"RON","currency":"Lei","image":{"thumbnail":{"default":"https://cdn.freshful.ro/media/cache/sylius_shop_product_thumbnail/98/41/8a320107b5f81ea08ecb8873c595.jpg"},"large":{"default":"https://cdn.freshful.ro/media/cache/freshful_large/98/41/8a320107b5f81ea08ecb8873c595.jpg"},"extralarge":{"default":"https://cdn.freshful.ro/media/cache/sylius_shop_product_original/98/41/8a320107b5f81ea08ecb8873c595.jpg"}},"label":null,"tags":[{"type":"Frozen","text":"Congelat","icon":"https://cdn.freshful.ro/assets/product_tags/congelat.svg","iconPng":"https://cdn.freshful.ro/assets/product_tags/congelat.png","backgroundColor":"#EDF6FA","textColor":"#2E9AD1"}],"isAvailable":true,"maxAvailableQuantity":96,"maxAllowedQuantity":100,"breadcrumbs":[{"code":"6","name":"Înghețată & congelate","slug":"6-produse-congelate"},{"code":"601","name":"Carne și pește congelate","slug":"601-carne-si-peste-congelate"},{"code":"60102","name":"Pește congelat","slug":"60102-peste-congelat"},{"code":"100035376","name":"File de somon norvegian 4x100g","slug":"100035376-defish-file-de-somon-norvegian-4x100g"}],"activePromotion":null,"saveMe":null,"labels":[],"geniusPrice":null,"geniusUnitPricePerLabel":null,"banner":null,"discountLabel":null,"geniusDiscountLabel":null,"badge":null},{"code":"100037301","variantCode":"100037301","name":"File șalău de apă dulce în glazură de gheață 400g","slug":"100037301-edenia-file-salau-de-apa-dulce-in-glazura-de-gheata-400g","unitPriceLabel":"99,98 Lei/kg","brand":"Edenia","brandCode":"56","brandFilterCode":"edenia-b52","sku":"100037301","price":39.99,"originalPrice":null,"currencyCode":"RON","currency":"Lei","image":{"thumbnail":{"default":"https://cdn.freshful.ro/media/cache/sylius_shop_product_thumbnail/db/36/86bc78c28c9bfd58b766c0282b8a.jpg"},"large":{"default":"https://cdn.freshful.ro/media/cache/freshful_large/db/36/86bc78c28c9bfd58b766c0282b8a.jpg"},"extralarge":{"default":"https://cdn.freshful.ro/media/cache/sylius_shop_product_original/db/36/86bc78c28c9bfd58b766c0282b8a.jpg"}},"label":null,"tags":[{"type":"Frozen","text":"Congelat","icon":"https://cdn.freshful.ro/assets/product_tags/congelat.svg","iconPng":"https://cdn.freshful.ro/assets/product_tags/congelat.png","backgroundColor":"#EDF6FA","textColor":"#2E9AD1"},{"type":"Natural","text":"Natural","icon":"https://cdn.freshful.ro/assets/product_tags/natural.svg","iconPng":"https://cdn.freshful.ro/assets/product_tags/natural.png","backgroundColor":"#E9FCF2","textColor":"#18AF62"},{"type":"NoPreservatives","text":"Fara conservanti","icon":"https://cdn.freshful.ro/assets/product_tags/fara_conservanti.svg","iconPng":"https://cdn.freshful.ro/assets/product_tags/fara_conservanti.png","backgroundColor":"#F0F2FF","textColor":"#7889DD"}],"isAvailable":true,"maxAvailableQuantity":27,"maxAllowedQuantity":100,"breadcrumbs":[{"code":"6","name":"Înghețată & congelate","slug":"6-produse-congelate"},{"code":"601","name":"Carne și pește congelate","slug":"601-carne-si-peste-congelate"},{"code":"60102","name":"Pește congelat","slug":"60102-peste-congelat"},{"code":"100037301","name":"File șalău de apă dulce în glazură de gheață 400g","slug":"100037301-edenia-file-salau-de-apa-dulce-in-glazura-de-gheata-400g"}],"activePromotion":null,"saveMe":null,"labels":[],"geniusPrice":null,"geniusUnitPricePerLabel":null,"banner":null,"discountLabel":null,"geniusDiscountLabel":null,"badge":null},{"code":"100037305","variantCode":"100037305","name":"File biban fără piele 600g","slug":"100037305-edenia-file-biban-fara-piele-600g","unitPriceLabel":"81,48 Lei/kg","brand":"Edenia","brandCode":"56","brandFilterCode":"edenia-b52","sku":"100037305","price":48.89,"originalPrice":null,"currencyCode":"RON","currency":"Lei","image":{"thumbnail":{"default":"https://cdn.freshful.ro/media/cache/sylius_shop_product_thumbnail/c6/55/d85cc71cf91bfae73b1d40555736.jpg"},"large":{"default":"https://cdn.freshful.ro/media/cache/freshful_large/c6/55/d85cc71cf91bfae73b1d40555736.jpg"},"extralarge":{"default":"https://cdn.freshful.ro/media/cache/sylius_shop_product_original/c6/55/d85cc71cf91bfae73b1d40555736.jpg"}},"label":null,"tags":[{"type":"Frozen","text":"Congelat","icon":"https://cdn.freshful.ro/assets/product_tags/congelat.svg","iconPng":"https://cdn.freshful.ro/assets/product_tags/congelat.png","backgroundColor":"#EDF6FA","textColor":"#2E9AD1"},{"type":"NoPreservatives","text":"Fara conservanti","icon":"https://cdn.freshful.ro/assets/product_tags/fara_conservanti.svg","iconPng":"https://cdn.freshful.ro/assets/product_tags/fara_conservanti.png","backgroundColor":"#F0F2FF","textColor":"#7889DD"},{"type":"Natural","text":"Natural","icon":"https://cdn.freshful.ro/assets/product_tags/natural.svg","iconPng":"https://cdn.freshful.ro/assets/product_tags/natural.png","backgroundColor":"#E9FCF2","textColor":"#18AF62"}],"isAvailable":true,"maxAvailableQuantity":43,"maxAllowedQuantity":100,"breadcrumbs":[{"code":"6","name":"Înghețată & congelate","slug":"6-produse-congelate"},{"code":"601","name":"Carne și pește congelate","slug":"601-carne-si-peste-congelate"},{"code":"60102","name":"Pește congelat","slug":"60102-peste-congelat"},{"code":"100037305","name":"File biban fără piele 600g","slug":"100037305-edenia-file-biban-fara-piele-600g"}],"activePromotion":null,"saveMe":null,"labels":[],"geniusPrice":null,"geniusUnitPricePerLabel":null,"banner":null,"discountLabel":null,"geniusDiscountLabel":null,"badge":null},{"code":"100062132","variantCode":"5941330015645","name":"Trunchi de macrou 700g","slug":"100062132-negro-trunchi-de-macrou-700g","unitPriceLabel":"27,99 Lei/kg","brand":"Negro","brandCode":"480","brandFilterCode":"negro-b481","sku":"100062132","price":19.59,"originalPrice":null,"currencyCode":"RON","currency":"Lei","image":{"thumbnail":{"default":"https://cdn.freshful.ro/media/cache/sylius_shop_product_thumbnail/6a/dc/7d42c5c6af05e6e604d577e1484f.jpg"},"large":{"default":"https://cdn.freshful.ro/media/cache/freshful_large/6a/dc/7d42c5c6af05e6e604d577e1484f.jpg"},"extralarge":{"default":"https://cdn.freshful.ro/media/cache/sylius_shop_product_original/6a/dc/7d42c5c6af05e6e604d577e1484f.jpg"}},"label":null,"tags":[{"type":"Frozen","text":"Congelat","icon":"https://cdn.freshful.ro/assets/product_tags/congelat.svg","iconPng":"https://cdn.freshful.ro/assets/product_tags/congelat.png","backgroundColor":"#EDF6FA","textColor":"#2E9AD1"}],"isAvailable":true,"maxAvailableQuantity":11,"maxAllowedQuantity":100,"breadcrumbs":[{"code":"6","name":"Înghețată & congelate","slug":"6-produse-congelate"},{"code":"601","name":"Carne și pește congelate","slug":"601-carne-si-peste-congelate"},{"code":"60102","name":"Pește congelat","slug":"60102-peste-congelat"},{"code":"100062132","name":"Trunchi de macrou 700g","slug":"100062132-negro-trunchi-de-macrou-700g"}],"activePromotion":null,"saveMe":null,"labels":[],"geniusPrice":null,"geniusUnitPricePerLabel":null,"banner":null,"discountLabel":null,"geniusDiscountLabel":null,"badge":null},{"code":"100062133","variantCode":"5941330014877","name":"Trunchi de merluciu 900g","slug":"100062133-negro-trunchi-de-merluciu-900g","unitPriceLabel":"19,43 Lei/kg","brand":"Negro","brandCode":"480","brandFilterCode":"negro-b481","sku":"100062133","price":17.49,"originalPrice":null,"currencyCode":"RON","currency":"Lei","image":{"thumbnail":{"default":"https://cdn.freshful.ro/media/cache/sylius_shop_product_thumbnail/cc/16/be29eb3f0242e95faf22d19a7449.jpg"},"large":{"default":"https://cdn.freshful.ro/media/cache/freshful_large/cc/16/be29eb3f0242e95faf22d19a7449.jpg"},"extralarge":{"default":"https://cdn.freshful.ro/media/cache/sylius_shop_product_original/cc/16/be29eb3f0242e95faf22d19a7449.jpg"}},"label":{"text":"Primul preț","backgroundColor":"#3A0808","textColor":"#FFFFFF"},"tags":[{"type":"Frozen","text":"Congelat","icon":"https://cdn.freshful.ro/assets/product_tags/congelat.svg","iconPng":"https://cdn.freshful.ro/assets/product_tags/congelat.png","backgroundColor":"#EDF6FA","textColor":"#2E9AD1"}],"isAvailable":true,"maxAvailableQuantity":45,"maxAllowedQuantity":100,"breadcrumbs":[{"code":"6","name":"Înghețată & congelate","slug":"6-produse-congelate"},{"code":"601","name":"Carne și pește congelate","slug":"601-carne-si-peste-congelate"},{"code":"60102","name":"Pește congelat","slug":"60102-peste-congelat"},{"code":"100062133","name":"Trunchi de merluciu 900g","slug":"100062133-negro-trunchi-de-merluciu-900g"}],"activePromotion":null,"saveMe":null,"labels":[{"type":"v4","items":[{"text":"Primul","backgroundColor":"#3A0808","textColor":"#FFFFFF"},{"text":"preț","backgroundColor":"#BC0606","textColor":"#FFFFFF"}]}],"geniusPrice":null,"geniusUnitPricePerLabel":null,"banner":null,"discountLabel":null,"geniusDiscountLabel":null,"badge":null},{"code":"100037306","variantCode":"100037306","name":"File de cod Atlantic în glazură de gheață 600g","slug":"100037306-edenia-file-de-cod-atlantic-in-glazura-de-gheata-600g","unitPriceLabel":"99,98 Lei/kg","brand":"Edenia","brandCode":"56","brandFilterCode":"edenia-b52","sku":"100037306","price":59.99,"originalPrice":null,"currencyCode":"RON","currency":"Lei","image":{"thumbnail":{"default":"https://cdn.freshful.ro/media/cache/sylius_shop_product_thumbnail/ce/be/52203b4db1ff0ba782e6d8d23226.jpg"},"large":{"default":"https://cdn.freshful.ro/media/cache/freshful_large/ce/be/52203b4db1ff0ba782e6d8d23226.jpg"},"extralarge":{"default":"https://cdn.freshful.ro/media/cache/sylius_shop_product_original/ce/be/52203b4db1ff0ba782e6d8d23226.jpg"}},"label":null,"tags":[{"type":"Frozen","text":"Congelat","icon":"https://cdn.freshful.ro/assets/product_tags/congelat.svg","iconPng":"https://cdn.freshful.ro/assets/product_tags/congelat.png","backgroundColor":"#EDF6FA","textColor":"#2E9AD1"},{"type":"Natural","text":"Natural","icon":"https://cdn.freshful.ro/assets/product_tags/natural.svg","iconPng":"https://cdn.freshful.ro/assets/product_tags/natural.png","backgroundColor":"#E9FCF2","textColor":"#18AF62"},{"type":"NoPreservatives","text":"Fara conservanti","icon":"https://cdn.freshful.ro/assets/product_tags/fara_conservanti.svg","iconPng":"https://cdn.freshful.ro/assets/product_tags/fara_conservanti.png","backgroundColor":"#F0F2FF","textColor":"#7889DD"}],"isAvailable":true,"maxAvailableQuantity":21,"maxAllowedQuantity":100,"breadcrumbs":[{"code":"6","name":"Înghețată & congelate","slug":"6-produse-congelate"},{"code":"601","name":"Carne și pește congelate","slug":"601-carne-si-peste-congelate"},{"code":"60102","name":"Pește congelat","slug":"60102-peste-congelat"},{"code":"100037306","name":"File de cod Atlantic în glazură de gheață 600g","slug":"100037306-edenia-file-de-cod-atlantic-in-glazura-de-gheata-600g"}],"activePromotion":null,"saveMe":{"isAvailable":true,"variantCode":"100037306-accsale","maxAvailableQuantity":14,"maxAllowedQuantity":100,"price":41.99,"originalPrice":59.99,"labels":[{"type":"v2","items":[{"text":"Save Me","backgroundColor":"#FF7070","textColor":"#FFFFFF"},{"text":"-30%","backgroundColor":"#333333","textColor":"#FFFFFF"}]},{"type":"v3","items":[{"text":"Expiră pe 13-03-2023","backgroundColor":"#FEF7DC","textColor":"#595959"}]}],"priceColor":"#FF7070","priceIcon":"https://cdn.freshful.ro/assets/save_me/priceIcon.png","unitPriceLabel":"69,98 Lei/kg","badge":null},"labels":[],"geniusPrice":null,"geniusUnitPricePerLabel":null,"banner":{"text":"Cumpără la 41.99 lei","textColor":"#FF7070","bgColor":"#FFF1F1","icon":"https://cdn.freshful.ro/assets/save_me/priceIcon.png","link":"https://www.freshful.ro/p/100037306-edenia-file-de-cod-atlantic-in-glazura-de-gheata-600g?sm=true","type":"saveMe","analyticsEventType":"select_item","analyticsEventPayload":[]},"discountLabel":null,"geniusDiscountLabel":null,"badge":null},{"code":"100037307","variantCode":"100037307","name":"File macrou cu piele în glazură de gheață 600g","slug":"100037307-edenia-file-macrou-cu-piele-in-glazura-de-gheata-600g","unitPriceLabel":"53,32 Lei/kg","brand":"Edenia","brandCode":"56","brandFilterCode":"edenia-b52","sku":"100037307","price":31.99,"originalPrice":null,"currencyCode":"RON","currency":"Lei","image":{"thumbnail":{"default":"https://cdn.freshful.ro/media/cache/sylius_shop_product_thumbnail/eb/3e/c50b2acd273cf89741b8352e76d8.jpg"},"large":{"default":"https://cdn.freshful.ro/media/cache/freshful_large/eb/3e/c50b2acd273cf89741b8352e76d8.jpg"},"extralarge":{"default":"https://cdn.freshful.ro/media/cache/sylius_shop_product_original/eb/3e/c50b2acd273cf89741b8352e76d8.jpg"}},"label":null,"tags":[{"type":"Frozen","text":"Congelat","icon":"https://cdn.freshful.ro/assets/product_tags/congelat.svg","iconPng":"https://cdn.freshful.ro/assets/product_tags/congelat.png","backgroundColor":"#EDF6FA","textColor":"#2E9AD1"},{"type":"Natural","text":"Natural","icon":"https://cdn.freshful.ro/assets/product_tags/natural.svg","iconPng":"https://cdn.freshful.ro/assets/product_tags/natural.png","backgroundColor":"#E9FCF2","textColor":"#18AF62"},{"type":"NoPreservatives","text":"Fara conservanti","icon":"https://cdn.freshful.ro/assets/product_tags/fara_conservanti.svg","iconPng":"https://cdn.freshful.ro/assets/product_tags/fara_conservanti.png","backgroundColor":"#F0F2FF","textColor":"#7889DD"}],"isAvailable":true,"maxAvailableQuantity":24,"maxAllowedQuantity":100,"breadcrumbs":[{"code":"6","name":"Înghețată & congelate","slug":"6-produse-congelate"},{"code":"601","name":"Carne și pește congelate","slug":"601-carne-si-peste-congelate"},{"code":"60102","name":"Pește congelat","slug":"60102-peste-congelat"},{"code":"100037307","name":"File macrou cu piele în glazură de gheață 600g","slug":"100037307-edenia-file-macrou-cu-piele-in-glazura-de-gheata-600g"}],"activePromotion":null,"saveMe":null,"labels":[],"geniusPrice":null,"geniusUnitPricePerLabel":null,"banner":null,"discountLabel":null,"geniusDiscountLabel":null,"badge":null}],"filters":{"countSelected":0,"items":[{"code":"promotion","name":"Promoții","countSelected":0,"values":[{"code":"bunatatile-saptamanii-cw0923","name":"Oferta proaspătă a săptămânii","isSelected":false,"count":1}]},{"code":"brand","name":"Brand","countSelected":0,"values":[{"code":"alfredo-seafood-b222","name":"Alfredo Seafood","isSelected":false,"count":2},{"code":"dayseaday-b682","name":"Dayseaday","isSelected":false,"count":1},{"code":"defish-b494","name":"DeFish","isSelected":false,"count":1},{"code":"edenia-b52","name":"Edenia","isSelected":false,"count":5},{"code":"groenlanda-b1649","name":"Groenlanda","isSelected":false,"count":1},{"code":"negro-b481","name":"Negro","isSelected":false,"count":5},{"code":"ocean-fish-b192","name":"Ocean Fish","isSelected":false,"count":1}]},{"code":"diet_lifestyle","name":"Dietă și lifestyle","countSelected":0,"values":[{"code":"congelat-a66","name":"Congelat","isSelected":false,"count":16},{"code":"fara-conservanti-a37","name":"Fara conservanti","isSelected":false,"count":6},{"code":"natural-a27","name":"Natural","isSelected":false,"count":5}]}]},"orderBy":[{"field":"price","direction":"asc","name":"Preț crescător","isSelected":false},{"field":"price","direction":"desc","name":"Preț descrescător","isSelected":false},{"field":"popularity","direction":"desc","name":"Cele mai populare","isSelected":true},{"field":"category","direction":"asc","name":"Categorie","isSelected":false}],"metaTitle":"Pește congelat - Gamă variată","metaDescription":"Vrei Pește congelat? Alege dintr-o gamă variată. Comanzi simplu și ai livrare rapidă, calitate și prospețime. Hai pe Freshful.ro","metaKeywords":null,"banners":[]}}