{"type":"subcategory","payload":{"analyticsListId":"category_60103-fructe-de-mare-congelate","analyticsListName":"Category - Fructe de mare congelate","name":"Fructe de mare congelate","slug":"60103-fructe-de-mare-congelate","image":null,"breadcrumbs":[{"code":"6","name":"Înghețată & congelate","slug":"6-produse-congelate"},{"code":"601","name":"Carne și pește congelate","slug":"601-carne-si-peste-congelate"},{"code":"60103","name":"Fructe de mare congelate","slug":"60103-fructe-de-mare-congelate"}],"slots":[],"page":1,"limit":10,"pages":3,"count":23,"siblings":[{"name":"Înghețată și deserturi congelate","slug":"604-inghetata-si-deserturi-congelate","selected":false},{"name":"Carne și pește congelate","slug":"601-carne-si-peste-congelate","selected":true},{"name":"Legume și fructe congelate","slug":"602-legume-si-fructe-congelate","selected":false},{"name":"Semipreparate congelate","slug":"603-semipreparate-congelate","selected":false}],"children":[{"name":"Toate produsele","slug":"601-carne-si-peste-congelate","selected":false},{"name":"Carne congelată","slug":"60101-carne-congelata","selected":false},{"name":"Pește congelat","slug":"60102-peste-congelat","selected":false},{"name":"Fructe de mare congelate","slug":"60103-fructe-de-mare-congelate","selected":true}],"products":[{"code":"100033935","variantCode":"100033935","name":"Vongole albe fierte 60/80, 500g","slug":"100033935-ocean-fish-vongole-albe-fierte-60-80-500g","unitPriceLabel":"21,98 Lei/kg","brand":"Ocean Fish","brandCode":"191","brandFilterCode":"ocean-fish-b192","sku":"100033935","price":10.99,"originalPrice":16.98,"currencyCode":"RON","currency":"Lei","image":{"thumbnail":{"default":"https://cdn.freshful.ro/media/cache/sylius_shop_product_thumbnail/4a/c0/cb7bdba315e56092eb81b51b4426.jpg"},"large":{"default":"https://cdn.freshful.ro/media/cache/freshful_large/4a/c0/cb7bdba315e56092eb81b51b4426.jpg"},"extralarge":{"default":"https://cdn.freshful.ro/media/cache/sylius_shop_product_original/4a/c0/cb7bdba315e56092eb81b51b4426.jpg"}},"label":{"text":"-35%","backgroundColor":"#FF9903","textColor":"#FFFFFF"},"tags":[{"type":"Frozen","text":"Congelat","icon":"https://cdn.freshful.ro/assets/product_tags/congelat.svg","iconPng":"https://cdn.freshful.ro/assets/product_tags/congelat.png","backgroundColor":"#EDF6FA","textColor":"#2E9AD1"}],"isAvailable":true,"maxAvailableQuantity":21,"maxAllowedQuantity":100,"breadcrumbs":[{"code":"6","name":"Înghețată & congelate","slug":"6-produse-congelate"},{"code":"601","name":"Carne și pește congelate","slug":"601-carne-si-peste-congelate"},{"code":"60103","name":"Fructe de mare congelate","slug":"60103-fructe-de-mare-congelate"},{"code":"100033935","name":"Vongole albe fierte 60/80, 500g","slug":"100033935-ocean-fish-vongole-albe-fierte-60-80-500g"}],"activePromotion":{"code":"bunatatile-saptamanii-cw0923","name":"Preț redus","targetQuantity":null},"saveMe":null,"labels":[{"type":"v1","items":[{"text":"-35%","backgroundColor":"#FF9903","textColor":"#FFFFFF"}]}],"geniusPrice":null,"geniusUnitPricePerLabel":null,"banner":{"text":"Super preț","textColor":"#FF0000","bgColor":"#FFF2EC","icon":null,"link":"https://www.freshful.ro/oferte/bunatatile-saptamanii-cw0923","type":"promo","analyticsEventType":"select_promotion","analyticsEventPayload":{"promotion_id":"bunatatile-saptamanii-cw0923","promotion_name":"Oferta proaspătă a săptămânii"}},"discountLabel":"Economisești 35%","geniusDiscountLabel":null,"badge":null},{"code":"100062128","variantCode":"5941330007909","name":"Creveți prefierți decorticați 30/40, în glazură de gheață 500g","slug":"100062128-negro-creveti-prefierti-decorticati-30-40-in-glazura-de-gheata-500g","unitPriceLabel":"92,98 Lei/kg","brand":"Negro","brandCode":"480","brandFilterCode":"negro-b481","sku":"100062128","price":46.49,"originalPrice":null,"currencyCode":"RON","currency":"Lei","image":{"thumbnail":{"default":"https://cdn.freshful.ro/media/cache/sylius_shop_product_thumbnail/48/ca/02e5d6604edfc51f7c061e307dc4.jpg"},"large":{"default":"https://cdn.freshful.ro/media/cache/freshful_large/48/ca/02e5d6604edfc51f7c061e307dc4.jpg"},"extralarge":{"default":"https://cdn.freshful.ro/media/cache/sylius_shop_product_original/48/ca/02e5d6604edfc51f7c061e307dc4.jpg"}},"label":null,"tags":[{"type":"Frozen","text":"Congelat","icon":"https://cdn.freshful.ro/assets/product_tags/congelat.svg","iconPng":"https://cdn.freshful.ro/assets/product_tags/congelat.png","backgroundColor":"#EDF6FA","textColor":"#2E9AD1"}],"isAvailable":true,"maxAvailableQuantity":85,"maxAllowedQuantity":100,"breadcrumbs":[{"code":"6","name":"Înghețată & congelate","slug":"6-produse-congelate"},{"code":"601","name":"Carne și pește congelate","slug":"601-carne-si-peste-congelate"},{"code":"60103","name":"Fructe de mare congelate","slug":"60103-fructe-de-mare-congelate"},{"code":"100062128","name":"Creveți prefierți decorticați 30/40, în glazură de gheață 500g","slug":"100062128-negro-creveti-prefierti-decorticati-30-40-in-glazura-de-gheata-500g"}],"activePromotion":null,"saveMe":null,"labels":[],"geniusPrice":null,"geniusUnitPricePerLabel":null,"banner":null,"discountLabel":null,"geniusDiscountLabel":null,"badge":null},{"code":"100044730","variantCode":"100044730","name":"Inele de calamar în glazură de gheață 500g","slug":"100044730-dayseaday-inele-de-calamar-in-glazura-de-gheata-500g","unitPriceLabel":"55,98 Lei/kg","brand":"Dayseaday","brandCode":"681","brandFilterCode":"dayseaday-b682","sku":"100044730","price":27.99,"originalPrice":null,"currencyCode":"RON","currency":"Lei","image":{"thumbnail":{"default":"https://cdn.freshful.ro/media/cache/sylius_shop_product_thumbnail/6d/d2/3b6800931719190577be86d41896.jpg"},"large":{"default":"https://cdn.freshful.ro/media/cache/freshful_large/6d/d2/3b6800931719190577be86d41896.jpg"},"extralarge":{"default":"https://cdn.freshful.ro/media/cache/sylius_shop_product_original/6d/d2/3b6800931719190577be86d41896.jpg"}},"label":null,"tags":[{"type":"Frozen","text":"Congelat","icon":"https://cdn.freshful.ro/assets/product_tags/congelat.svg","iconPng":"https://cdn.freshful.ro/assets/product_tags/congelat.png","backgroundColor":"#EDF6FA","textColor":"#2E9AD1"}],"isAvailable":true,"maxAvailableQuantity":56,"maxAllowedQuantity":100,"breadcrumbs":[{"code":"6","name":"Înghețată & congelate","slug":"6-produse-congelate"},{"code":"601","name":"Carne și pește congelate","slug":"601-carne-si-peste-congelate"},{"code":"60103","name":"Fructe de mare congelate","slug":"60103-fructe-de-mare-congelate"},{"code":"100044730","name":"Inele de calamar în glazură de gheață 500g","slug":"100044730-dayseaday-inele-de-calamar-in-glazura-de-gheata-500g"}],"activePromotion":null,"saveMe":null,"labels":[],"geniusPrice":null,"geniusUnitPricePerLabel":null,"banner":null,"discountLabel":null,"geniusDiscountLabel":null,"badge":null},{"code":"100044727","variantCode":"100044727","name":"Carne de scoici 500g","slug":"100044727-dayseaday-carne-de-scoici-500g","unitPriceLabel":"41,98 Lei/kg","brand":"Dayseaday","brandCode":"681","brandFilterCode":"dayseaday-b682","sku":"100044727","price":20.99,"originalPrice":null,"currencyCode":"RON","currency":"Lei","image":{"thumbnail":{"default":"https://cdn.freshful.ro/media/cache/sylius_shop_product_thumbnail/81/de/f3c08dee8bd214154b8b22a23f16.jpg"},"large":{"default":"https://cdn.freshful.ro/media/cache/freshful_large/81/de/f3c08dee8bd214154b8b22a23f16.jpg"},"extralarge":{"default":"https://cdn.freshful.ro/media/cache/sylius_shop_product_original/81/de/f3c08dee8bd214154b8b22a23f16.jpg"}},"label":null,"tags":[{"type":"Frozen","text":"Congelat","icon":"https://cdn.freshful.ro/assets/product_tags/congelat.svg","iconPng":"https://cdn.freshful.ro/assets/product_tags/congelat.png","backgroundColor":"#EDF6FA","textColor":"#2E9AD1"}],"isAvailable":true,"maxAvailableQuantity":58,"maxAllowedQuantity":100,"breadcrumbs":[{"code":"6","name":"Înghețată & congelate","slug":"6-produse-congelate"},{"code":"601","name":"Carne și pește congelate","slug":"601-carne-si-peste-congelate"},{"code":"60103","name":"Fructe de mare congelate","slug":"60103-fructe-de-mare-congelate"},{"code":"100044727","name":"Carne de scoici 500g","slug":"100044727-dayseaday-carne-de-scoici-500g"}],"activePromotion":null,"saveMe":null,"labels":[],"geniusPrice":null,"geniusUnitPricePerLabel":null,"banner":null,"discountLabel":null,"geniusDiscountLabel":null,"badge":null},{"code":"100144540","variantCode":"100144540","name":"Creveți decorticați cruzi, cu codiță 16/20, în glazură de gheață 1kg ","slug":"100144540-groenlanda-creveti-decorticati-cruzi-cu-codita-16-20-in-glazura-de-gheata-1kg","unitPriceLabel":"85,99 Lei/kg","brand":"Groenlanda","brandCode":"1645","brandFilterCode":"groenlanda-b1649","sku":"100144540","price":85.99,"originalPrice":null,"currencyCode":"RON","currency":"Lei","image":{"thumbnail":{"default":"https://cdn.freshful.ro/media/cache/sylius_shop_product_thumbnail/ed/d2/cef32fd04a3ced9bdf7974fcc3c4.jpg"},"large":{"default":"https://cdn.freshful.ro/media/cache/freshful_large/ed/d2/cef32fd04a3ced9bdf7974fcc3c4.jpg"},"extralarge":{"default":"https://cdn.freshful.ro/media/cache/sylius_shop_product_original/ed/d2/cef32fd04a3ced9bdf7974fcc3c4.jpg"}},"label":null,"tags":[{"type":"Frozen","text":"Congelat","icon":"https://cdn.freshful.ro/assets/product_tags/congelat.svg","iconPng":"https://cdn.freshful.ro/assets/product_tags/congelat.png","backgroundColor":"#EDF6FA","textColor":"#2E9AD1"}],"isAvailable":true,"maxAvailableQuantity":38,"maxAllowedQuantity":100,"breadcrumbs":[{"code":"6","name":"Înghețată & congelate","slug":"6-produse-congelate"},{"code":"601","name":"Carne și pește congelate","slug":"601-carne-si-peste-congelate"},{"code":"60103","name":"Fructe de mare congelate","slug":"60103-fructe-de-mare-congelate"},{"code":"100144540","name":"Creveți decorticați cruzi, cu codiță 16/20, în glazură de gheață 1kg ","slug":"100144540-groenlanda-creveti-decorticati-cruzi-cu-codita-16-20-in-glazura-de-gheata-1kg"}],"activePromotion":null,"saveMe":null,"labels":[],"geniusPrice":null,"geniusUnitPricePerLabel":null,"banner":null,"discountLabel":null,"geniusDiscountLabel":null,"badge":null},{"code":"100044729","variantCode":"100044729","name":"Cocktail fructe de mare în glazură de gheață 500g","slug":"100044729-dayseaday-cocktail-fructe-de-mare-in-glazura-de-gheata-500g","unitPriceLabel":"53,98 Lei/kg","brand":"Dayseaday","brandCode":"681","brandFilterCode":"dayseaday-b682","sku":"100044729","price":26.99,"originalPrice":null,"currencyCode":"RON","currency":"Lei","image":{"thumbnail":{"default":"https://cdn.freshful.ro/media/cache/sylius_shop_product_thumbnail/46/89/f1a4964dd9b3c1eeb7de0823d38f.jpg"},"large":{"default":"https://cdn.freshful.ro/media/cache/freshful_large/46/89/f1a4964dd9b3c1eeb7de0823d38f.jpg"},"extralarge":{"default":"https://cdn.freshful.ro/media/cache/sylius_shop_product_original/46/89/f1a4964dd9b3c1eeb7de0823d38f.jpg"}},"label":null,"tags":[{"type":"Frozen","text":"Congelat","icon":"https://cdn.freshful.ro/assets/product_tags/congelat.svg","iconPng":"https://cdn.freshful.ro/assets/product_tags/congelat.png","backgroundColor":"#EDF6FA","textColor":"#2E9AD1"}],"isAvailable":true,"maxAvailableQuantity":62,"maxAllowedQuantity":100,"breadcrumbs":[{"code":"6","name":"Înghețată & congelate","slug":"6-produse-congelate"},{"code":"601","name":"Carne și pește congelate","slug":"601-carne-si-peste-congelate"},{"code":"60103","name":"Fructe de mare congelate","slug":"60103-fructe-de-mare-congelate"},{"code":"100044729","name":"Cocktail fructe de mare în glazură de gheață 500g","slug":"100044729-dayseaday-cocktail-fructe-de-mare-in-glazura-de-gheata-500g"}],"activePromotion":null,"saveMe":null,"labels":[],"geniusPrice":null,"geniusUnitPricePerLabel":null,"banner":null,"discountLabel":null,"geniusDiscountLabel":null,"badge":null},{"code":"100062129","variantCode":"5941330007893","name":"Creveți prefierți calibru 16/20, în glazură de gheață 500g","slug":"100062129-negro-creveti-prefierti-calibru-16-20-in-glazura-de-gheata-500g","unitPriceLabel":"139,98 Lei/kg","brand":"Negro","brandCode":"480","brandFilterCode":"negro-b481","sku":"100062129","price":69.99,"originalPrice":null,"currencyCode":"RON","currency":"Lei","image":{"thumbnail":{"default":"https://cdn.freshful.ro/media/cache/sylius_shop_product_thumbnail/f0/0b/8cf47d0723e473321c4e0cc52d82.jpg"},"large":{"default":"https://cdn.freshful.ro/media/cache/freshful_large/f0/0b/8cf47d0723e473321c4e0cc52d82.jpg"},"extralarge":{"default":"https://cdn.freshful.ro/media/cache/sylius_shop_product_original/f0/0b/8cf47d0723e473321c4e0cc52d82.jpg"}},"label":null,"tags":[{"type":"Frozen","text":"Congelat","icon":"https://cdn.freshful.ro/assets/product_tags/congelat.svg","iconPng":"https://cdn.freshful.ro/assets/product_tags/congelat.png","backgroundColor":"#EDF6FA","textColor":"#2E9AD1"}],"isAvailable":true,"maxAvailableQuantity":60,"maxAllowedQuantity":100,"breadcrumbs":[{"code":"6","name":"Înghețată & congelate","slug":"6-produse-congelate"},{"code":"601","name":"Carne și pește congelate","slug":"601-carne-si-peste-congelate"},{"code":"60103","name":"Fructe de mare congelate","slug":"60103-fructe-de-mare-congelate"},{"code":"100062129","name":"Creveți prefierți calibru 16/20, în glazură de gheață 500g","slug":"100062129-negro-creveti-prefierti-calibru-16-20-in-glazura-de-gheata-500g"}],"activePromotion":null,"saveMe":null,"labels":[],"geniusPrice":null,"geniusUnitPricePerLabel":null,"banner":null,"discountLabel":null,"geniusDiscountLabel":null,"badge":null},{"code":"100144545","variantCode":"100144545","name":"Mix fructe de mare (fără surimi), în glazură de gheață 1kg","slug":"100144545-groenlanda-mix-fructe-de-mare-fara-surimi-in-glazura-de-gheata-1kg","unitPriceLabel":"47,99 Lei/kg","brand":"Groenlanda","brandCode":"1645","brandFilterCode":"groenlanda-b1649","sku":"100144545","price":47.99,"originalPrice":null,"currencyCode":"RON","currency":"Lei","image":{"thumbnail":{"default":"https://cdn.freshful.ro/media/cache/sylius_shop_product_thumbnail/0a/b0/e24ea1c7a7bb203c472853341289.jpg"},"large":{"default":"https://cdn.freshful.ro/media/cache/freshful_large/0a/b0/e24ea1c7a7bb203c472853341289.jpg"},"extralarge":{"default":"https://cdn.freshful.ro/media/cache/sylius_shop_product_original/0a/b0/e24ea1c7a7bb203c472853341289.jpg"}},"label":null,"tags":[{"type":"Frozen","text":"Congelat","icon":"https://cdn.freshful.ro/assets/product_tags/congelat.svg","iconPng":"https://cdn.freshful.ro/assets/product_tags/congelat.png","backgroundColor":"#EDF6FA","textColor":"#2E9AD1"}],"isAvailable":true,"maxAvailableQuantity":2,"maxAllowedQuantity":100,"breadcrumbs":[{"code":"6","name":"Înghețată & congelate","slug":"6-produse-congelate"},{"code":"601","name":"Carne și pește congelate","slug":"601-carne-si-peste-congelate"},{"code":"60103","name":"Fructe de mare congelate","slug":"60103-fructe-de-mare-congelate"},{"code":"100144545","name":"Mix fructe de mare (fără surimi), în glazură de gheață 1kg","slug":"100144545-groenlanda-mix-fructe-de-mare-fara-surimi-in-glazura-de-gheata-1kg"}],"activePromotion":null,"saveMe":null,"labels":[],"geniusPrice":null,"geniusUnitPricePerLabel":null,"banner":null,"discountLabel":null,"geniusDiscountLabel":null,"badge":null},{"code":"100037303","variantCode":"100037303","name":"Creveți prefierți calibru 31/40 în glazură de gheață, 500g ","slug":"100037303-azuris-creveti-prefierti-calibru-31-40-in-glazura-de-gheata-500g","unitPriceLabel":"95,98 Lei/kg","brand":"Azuris","brandCode":"50","brandFilterCode":"azuris-b46","sku":"100037303","price":47.99,"originalPrice":null,"currencyCode":"RON","currency":"Lei","image":{"thumbnail":{"default":"https://cdn.freshful.ro/media/cache/sylius_shop_product_thumbnail/dc/d5/85de30e16aa64e633a4dac102916.jpg"},"large":{"default":"https://cdn.freshful.ro/media/cache/freshful_large/dc/d5/85de30e16aa64e633a4dac102916.jpg"},"extralarge":{"default":"https://cdn.freshful.ro/media/cache/sylius_shop_product_original/dc/d5/85de30e16aa64e633a4dac102916.jpg"}},"label":null,"tags":[{"type":"Frozen","text":"Congelat","icon":"https://cdn.freshful.ro/assets/product_tags/congelat.svg","iconPng":"https://cdn.freshful.ro/assets/product_tags/congelat.png","backgroundColor":"#EDF6FA","textColor":"#2E9AD1"}],"isAvailable":true,"maxAvailableQuantity":10,"maxAllowedQuantity":100,"breadcrumbs":[{"code":"6","name":"Înghețată & congelate","slug":"6-produse-congelate"},{"code":"601","name":"Carne și pește congelate","slug":"601-carne-si-peste-congelate"},{"code":"60103","name":"Fructe de mare congelate","slug":"60103-fructe-de-mare-congelate"},{"code":"100037303","name":"Creveți prefierți calibru 31/40 în glazură de gheață, 500g ","slug":"100037303-azuris-creveti-prefierti-calibru-31-40-in-glazura-de-gheata-500g"}],"activePromotion":null,"saveMe":null,"labels":[],"geniusPrice":null,"geniusUnitPricePerLabel":null,"banner":null,"discountLabel":null,"geniusDiscountLabel":null,"badge":null},{"code":"100144553","variantCode":"100144553","name":"Scoici în cochilie, prefierte, 60/80, 1kg","slug":"100144553-groenlanda-scoici-in-cochilie-prefierte-60-80-1kg","unitPriceLabel":"27,99 Lei/kg","brand":"Groenlanda","brandCode":"1645","brandFilterCode":"groenlanda-b1649","sku":"100144553","price":27.99,"originalPrice":null,"currencyCode":"RON","currency":"Lei","image":{"thumbnail":{"default":"https://cdn.freshful.ro/media/cache/sylius_shop_product_thumbnail/aa/25/676ddc5ba3da95a3bcbba520272c.jpg"},"large":{"default":"https://cdn.freshful.ro/media/cache/freshful_large/aa/25/676ddc5ba3da95a3bcbba520272c.jpg"},"extralarge":{"default":"https://cdn.freshful.ro/media/cache/sylius_shop_product_original/aa/25/676ddc5ba3da95a3bcbba520272c.jpg"}},"label":null,"tags":[{"type":"Frozen","text":"Congelat","icon":"https://cdn.freshful.ro/assets/product_tags/congelat.svg","iconPng":"https://cdn.freshful.ro/assets/product_tags/congelat.png","backgroundColor":"#EDF6FA","textColor":"#2E9AD1"}],"isAvailable":true,"maxAvailableQuantity":14,"maxAllowedQuantity":100,"breadcrumbs":[{"code":"6","name":"Înghețată & congelate","slug":"6-produse-congelate"},{"code":"601","name":"Carne și pește congelate","slug":"601-carne-si-peste-congelate"},{"code":"60103","name":"Fructe de mare congelate","slug":"60103-fructe-de-mare-congelate"},{"code":"100144553","name":"Scoici în cochilie, prefierte, 60/80, 1kg","slug":"100144553-groenlanda-scoici-in-cochilie-prefierte-60-80-1kg"}],"activePromotion":null,"saveMe":null,"labels":[],"geniusPrice":null,"geniusUnitPricePerLabel":null,"banner":null,"discountLabel":null,"geniusDiscountLabel":null,"badge":null}],"filters":{"countSelected":0,"items":[{"code":"promotion","name":"Promoții","countSelected":0,"values":[{"code":"bunatatile-saptamanii-cw0923","name":"Oferta proaspătă a săptămânii","isSelected":false,"count":1}]},{"code":"brand","name":"Brand","countSelected":0,"values":[{"code":"azuris-b46","name":"Azuris","isSelected":false,"count":2},{"code":"dayseaday-b682","name":"Dayseaday","isSelected":false,"count":5},{"code":"defish-b494","name":"DeFish","isSelected":false,"count":1},{"code":"groenlanda-b1649","name":"Groenlanda","isSelected":false,"count":9},{"code":"negro-b481","name":"Negro","isSelected":false,"count":3},{"code":"ocean-fish-b192","name":"Ocean Fish","isSelected":false,"count":2},{"code":"octopus-b1650","name":"Octopus","isSelected":false,"count":1}]},{"code":"diet_lifestyle","name":"Dietă și lifestyle","countSelected":0,"values":[{"code":"congelat-a66","name":"Congelat","isSelected":false,"count":23}]}]},"orderBy":[{"field":"price","direction":"asc","name":"Preț crescător","isSelected":false},{"field":"price","direction":"desc","name":"Preț descrescător","isSelected":false},{"field":"popularity","direction":"desc","name":"Cele mai populare","isSelected":true},{"field":"category","direction":"asc","name":"Categorie","isSelected":false}],"metaTitle":"Fructe de mare congelate - Gamă variată","metaDescription":"Vrei Fructe de mare congelate? Alege dintr-o gamă variată. Comanzi simplu și ai livrare rapidă, calitate și prospețime. Hai pe Freshful.ro","metaKeywords":null,"banners":[]}}