{"type":"subcategory","payload":{"analyticsListId":"category_602-legume-si-fructe-congelate","analyticsListName":"Category - Legume și fructe congelate","name":"Legume și fructe congelate","slug":"602-legume-si-fructe-congelate","image":null,"breadcrumbs":[{"code":"6","name":"Înghețată & congelate","slug":"6-produse-congelate"},{"code":"602","name":"Legume și fructe congelate","slug":"602-legume-si-fructe-congelate"}],"slots":[],"page":1,"limit":10,"pages":15,"count":145,"siblings":[{"name":"Înghețată și deserturi congelate","slug":"604-inghetata-si-deserturi-congelate","selected":false},{"name":"Carne și pește congelate","slug":"601-carne-si-peste-congelate","selected":false},{"name":"Legume și fructe congelate","slug":"602-legume-si-fructe-congelate","selected":true},{"name":"Semipreparate congelate","slug":"603-semipreparate-congelate","selected":false}],"children":[{"name":"Toate produsele","slug":"602-legume-si-fructe-congelate","selected":true},{"name":"Legume congelate","slug":"60201-legume-congelate","selected":false},{"name":"Amestec de legume congelate","slug":"60202-amestec-de-legume-congelat","selected":false},{"name":"Fructe congelate","slug":"60203-fructe-congelate","selected":false},{"name":"Amestec de fructe congelate","slug":"amestec-de-fructe-congelate","selected":false}],"products":[{"code":"100037388","variantCode":"100037388","name":"Legume pai 450g","slug":"100037388-edenia-legume-pai-450g","unitPriceLabel":"28,87 Lei/kg","brand":"Edenia","brandCode":"56","brandFilterCode":"edenia-b52","sku":"100037388","price":12.99,"originalPrice":14.89,"currencyCode":"RON","currency":"Lei","image":{"thumbnail":{"default":"https://cdn.freshful.ro/media/cache/sylius_shop_product_thumbnail/bf/ce/b37877afbe642e985022a7410a75.jpg"},"large":{"default":"https://cdn.freshful.ro/media/cache/freshful_large/bf/ce/b37877afbe642e985022a7410a75.jpg"},"extralarge":{"default":"https://cdn.freshful.ro/media/cache/sylius_shop_product_original/bf/ce/b37877afbe642e985022a7410a75.jpg"}},"label":{"text":"-12%","backgroundColor":"#FF9903","textColor":"#FFFFFF"},"tags":[{"type":"vegan","text":"Vegan","icon":"https://cdn.freshful.ro/assets/product_tags/vegan.svg","iconPng":"https://cdn.freshful.ro/assets/product_tags/vegan.png","backgroundColor":"#ECF9F8","textColor":"#33A39C"},{"type":"NoGluten","text":"Fara gluten","icon":"https://cdn.freshful.ro/assets/product_tags/fara_gluten.svg","iconPng":"https://cdn.freshful.ro/assets/product_tags/fara_gluten.png","backgroundColor":"#FFF2E5","textColor":"#F07900"},{"type":"Frozen","text":"Congelat","icon":"https://cdn.freshful.ro/assets/product_tags/congelat.svg","iconPng":"https://cdn.freshful.ro/assets/product_tags/congelat.png","backgroundColor":"#EDF6FA","textColor":"#2E9AD1"}],"isAvailable":true,"maxAvailableQuantity":57,"maxAllowedQuantity":100,"breadcrumbs":[{"code":"6","name":"Înghețată & congelate","slug":"6-produse-congelate"},{"code":"602","name":"Legume și fructe congelate","slug":"602-legume-si-fructe-congelate"},{"code":"60202","name":"Amestec de legume congelate","slug":"60202-amestec-de-legume-congelat"},{"code":"100037388","name":"Legume pai 450g","slug":"100037388-edenia-legume-pai-450g"}],"activePromotion":{"code":"bunatatile-saptamanii-cw0923","name":"Preț redus","targetQuantity":null},"saveMe":null,"labels":[{"type":"v1","items":[{"text":"-12%","backgroundColor":"#FF9903","textColor":"#FFFFFF"}]}],"geniusPrice":null,"geniusUnitPricePerLabel":null,"banner":{"text":"Super preț","textColor":"#FF0000","bgColor":"#FFF2EC","icon":null,"link":"https://www.freshful.ro/oferte/bunatatile-saptamanii-cw0923","type":"promo","analyticsEventType":"select_promotion","analyticsEventPayload":{"promotion_id":"bunatatile-saptamanii-cw0923","promotion_name":"Oferta proaspătă a săptămânii"}},"discountLabel":"Economisești 12%","geniusDiscountLabel":null,"badge":null},{"code":"100039174","variantCode":"100039174","name":"Dovleac cuburi 400g","slug":"100039174-casa-taraneasca-dovleac-cuburi-400g","unitPriceLabel":"19,23 Lei/kg","brand":"Casa Țărănească","brandCode":"725","brandFilterCode":"casa-taraneasca-b726","sku":"100039174","price":7.69,"originalPrice":9.99,"currencyCode":"RON","currency":"Lei","image":{"thumbnail":{"default":"https://cdn.freshful.ro/media/cache/sylius_shop_product_thumbnail/16/14/6bf6cc5c994992a07462194c4533.jpg"},"large":{"default":"https://cdn.freshful.ro/media/cache/freshful_large/16/14/6bf6cc5c994992a07462194c4533.jpg"},"extralarge":{"default":"https://cdn.freshful.ro/media/cache/sylius_shop_product_original/16/14/6bf6cc5c994992a07462194c4533.jpg"}},"label":{"text":"-23%","backgroundColor":"#FF9903","textColor":"#FFFFFF"},"tags":[{"type":"Frozen","text":"Congelat","icon":"https://cdn.freshful.ro/assets/product_tags/congelat.svg","iconPng":"https://cdn.freshful.ro/assets/product_tags/congelat.png","backgroundColor":"#EDF6FA","textColor":"#2E9AD1"}],"isAvailable":true,"maxAvailableQuantity":25,"maxAllowedQuantity":100,"breadcrumbs":[{"code":"6","name":"Înghețată & congelate","slug":"6-produse-congelate"},{"code":"602","name":"Legume și fructe congelate","slug":"602-legume-si-fructe-congelate"},{"code":"60201","name":"Legume congelate","slug":"60201-legume-congelate"},{"code":"100039174","name":"Dovleac cuburi 400g","slug":"100039174-casa-taraneasca-dovleac-cuburi-400g"}],"activePromotion":{"code":"special-produse-vegane-mar23","name":"Preț redus","targetQuantity":null},"saveMe":null,"labels":[{"type":"v1","items":[{"text":"-23%","backgroundColor":"#FF9903","textColor":"#FFFFFF"}]}],"geniusPrice":null,"geniusUnitPricePerLabel":null,"banner":{"text":"Super preț","textColor":"#FF0000","bgColor":"#FFF2EC","icon":null,"link":"https://www.freshful.ro/oferte/special-produse-vegane-mar23","type":"promo","analyticsEventType":"select_promotion","analyticsEventPayload":{"promotion_id":"special-produse-vegane-mar23","promotion_name":"Și bun, și de post"}},"discountLabel":"Economisești 23%","geniusDiscountLabel":null,"badge":null},{"code":"100037378","variantCode":"100037378","name":"Wellness mix 450g","slug":"100037378-edenia-wellness-mix-450g","unitPriceLabel":"17,76 Lei/kg","brand":"Edenia","brandCode":"56","brandFilterCode":"edenia-b52","sku":"100037378","price":7.99,"originalPrice":9.29,"currencyCode":"RON","currency":"Lei","image":{"thumbnail":{"default":"https://cdn.freshful.ro/media/cache/sylius_shop_product_thumbnail/2f/40/65846dcc91bee940c52a82025126.jpg"},"large":{"default":"https://cdn.freshful.ro/media/cache/freshful_large/2f/40/65846dcc91bee940c52a82025126.jpg"},"extralarge":{"default":"https://cdn.freshful.ro/media/cache/sylius_shop_product_original/2f/40/65846dcc91bee940c52a82025126.jpg"}},"label":{"text":"-13%","backgroundColor":"#FF9903","textColor":"#FFFFFF"},"tags":[{"type":"Frozen","text":"Congelat","icon":"https://cdn.freshful.ro/assets/product_tags/congelat.svg","iconPng":"https://cdn.freshful.ro/assets/product_tags/congelat.png","backgroundColor":"#EDF6FA","textColor":"#2E9AD1"}],"isAvailable":true,"maxAvailableQuantity":37,"maxAllowedQuantity":100,"breadcrumbs":[{"code":"6","name":"Înghețată & congelate","slug":"6-produse-congelate"},{"code":"602","name":"Legume și fructe congelate","slug":"602-legume-si-fructe-congelate"},{"code":"60202","name":"Amestec de legume congelate","slug":"60202-amestec-de-legume-congelat"},{"code":"100037378","name":"Wellness mix 450g","slug":"100037378-edenia-wellness-mix-450g"}],"activePromotion":{"code":"bunatatile-saptamanii-cw0923","name":"Preț redus","targetQuantity":null},"saveMe":null,"labels":[{"type":"v1","items":[{"text":"-13%","backgroundColor":"#FF9903","textColor":"#FFFFFF"}]}],"geniusPrice":null,"geniusUnitPricePerLabel":null,"banner":{"text":"Super preț","textColor":"#FF0000","bgColor":"#FFF2EC","icon":null,"link":"https://www.freshful.ro/oferte/bunatatile-saptamanii-cw0923","type":"promo","analyticsEventType":"select_promotion","analyticsEventPayload":{"promotion_id":"bunatatile-saptamanii-cw0923","promotion_name":"Oferta proaspătă a săptămânii"}},"discountLabel":"Economisești 13%","geniusDiscountLabel":null,"badge":null},{"code":"100039166","variantCode":"100039166","name":"Amestec de legume primăvară 400g","slug":"100039166-casa-taraneasca-amestec-de-legume-primavara-400g","unitPriceLabel":"16,23 Lei/kg","brand":"Casa Țărănească","brandCode":"725","brandFilterCode":"casa-taraneasca-b726","sku":"100039166","price":6.49,"originalPrice":8.15,"currencyCode":"RON","currency":"Lei","image":{"thumbnail":{"default":"https://cdn.freshful.ro/media/cache/sylius_shop_product_thumbnail/7f/19/80f0181434b75295355b379c0364.jpg"},"large":{"default":"https://cdn.freshful.ro/media/cache/freshful_large/7f/19/80f0181434b75295355b379c0364.jpg"},"extralarge":{"default":"https://cdn.freshful.ro/media/cache/sylius_shop_product_original/7f/19/80f0181434b75295355b379c0364.jpg"}},"label":{"text":"-20%","backgroundColor":"#FF9903","textColor":"#FFFFFF"},"tags":[{"type":"Frozen","text":"Congelat","icon":"https://cdn.freshful.ro/assets/product_tags/congelat.svg","iconPng":"https://cdn.freshful.ro/assets/product_tags/congelat.png","backgroundColor":"#EDF6FA","textColor":"#2E9AD1"}],"isAvailable":true,"maxAvailableQuantity":52,"maxAllowedQuantity":100,"breadcrumbs":[{"code":"6","name":"Înghețată & congelate","slug":"6-produse-congelate"},{"code":"602","name":"Legume și fructe congelate","slug":"602-legume-si-fructe-congelate"},{"code":"60202","name":"Amestec de legume congelate","slug":"60202-amestec-de-legume-congelat"},{"code":"100039166","name":"Amestec de legume primăvară 400g","slug":"100039166-casa-taraneasca-amestec-de-legume-primavara-400g"}],"activePromotion":{"code":"special-produse-vegane-mar23","name":"Preț redus","targetQuantity":null},"saveMe":null,"labels":[{"type":"v1","items":[{"text":"-20%","backgroundColor":"#FF9903","textColor":"#FFFFFF"}]}],"geniusPrice":null,"geniusUnitPricePerLabel":null,"banner":{"text":"Super preț","textColor":"#FF0000","bgColor":"#FFF2EC","icon":null,"link":"https://www.freshful.ro/oferte/special-produse-vegane-mar23","type":"promo","analyticsEventType":"select_promotion","analyticsEventPayload":{"promotion_id":"special-produse-vegane-mar23","promotion_name":"Și bun, și de post"}},"discountLabel":"Economisești 20%","geniusDiscountLabel":null,"badge":null},{"code":"100039171","variantCode":"100039171","name":"Amestec mexican de legume cu orez 400g","slug":"100039171-casa-taraneasca-amestec-mexican-de-legume-cu-orez-400g","unitPriceLabel":"19,98 Lei/kg","brand":"Casa Țărănească","brandCode":"725","brandFilterCode":"casa-taraneasca-b726","sku":"100039171","price":7.99,"originalPrice":11.79,"currencyCode":"RON","currency":"Lei","image":{"thumbnail":{"default":"https://cdn.freshful.ro/media/cache/sylius_shop_product_thumbnail/3e/ef/036da783170183ef7a78576ef231.jpg"},"large":{"default":"https://cdn.freshful.ro/media/cache/freshful_large/3e/ef/036da783170183ef7a78576ef231.jpg"},"extralarge":{"default":"https://cdn.freshful.ro/media/cache/sylius_shop_product_original/3e/ef/036da783170183ef7a78576ef231.jpg"}},"label":{"text":"-32%","backgroundColor":"#FF9903","textColor":"#FFFFFF"},"tags":[{"type":"Frozen","text":"Congelat","icon":"https://cdn.freshful.ro/assets/product_tags/congelat.svg","iconPng":"https://cdn.freshful.ro/assets/product_tags/congelat.png","backgroundColor":"#EDF6FA","textColor":"#2E9AD1"}],"isAvailable":true,"maxAvailableQuantity":100,"maxAllowedQuantity":100,"breadcrumbs":[{"code":"6","name":"Înghețată & congelate","slug":"6-produse-congelate"},{"code":"602","name":"Legume și fructe congelate","slug":"602-legume-si-fructe-congelate"},{"code":"60202","name":"Amestec de legume congelate","slug":"60202-amestec-de-legume-congelat"},{"code":"100039171","name":"Amestec mexican de legume cu orez 400g","slug":"100039171-casa-taraneasca-amestec-mexican-de-legume-cu-orez-400g"}],"activePromotion":{"code":"bunatatile-saptamanii-cw0923","name":"Preț redus","targetQuantity":null},"saveMe":null,"labels":[{"type":"v1","items":[{"text":"-32%","backgroundColor":"#FF9903","textColor":"#FFFFFF"}]}],"geniusPrice":null,"geniusUnitPricePerLabel":null,"banner":{"text":"Super preț","textColor":"#FF0000","bgColor":"#FFF2EC","icon":null,"link":"https://www.freshful.ro/oferte/bunatatile-saptamanii-cw0923","type":"promo","analyticsEventType":"select_promotion","analyticsEventPayload":{"promotion_id":"bunatatile-saptamanii-cw0923","promotion_name":"Oferta proaspătă a săptămânii"}},"discountLabel":"Economisești 32%","geniusDiscountLabel":null,"badge":null},{"code":"100144500","variantCode":"100144500","name":"Amestec Legume cu orez și ciuperci 400g","slug":"100144500-casa-taraneasca-amestec-legume-cu-orez-si-ciuperci-400g","unitPriceLabel":"19,98 Lei/kg","brand":"Casa Țărănească","brandCode":"725","brandFilterCode":"casa-taraneasca-b726","sku":"100144500","price":7.99,"originalPrice":9.99,"currencyCode":"RON","currency":"Lei","image":{"thumbnail":{"default":"https://cdn.freshful.ro/media/cache/sylius_shop_product_thumbnail/f3/f1/3314385cd8de2f17290091d7dfea.jpg"},"large":{"default":"https://cdn.freshful.ro/media/cache/freshful_large/f3/f1/3314385cd8de2f17290091d7dfea.jpg"},"extralarge":{"default":"https://cdn.freshful.ro/media/cache/sylius_shop_product_original/f3/f1/3314385cd8de2f17290091d7dfea.jpg"}},"label":{"text":"-20%","backgroundColor":"#FF9903","textColor":"#FFFFFF"},"tags":[{"type":"Frozen","text":"Congelat","icon":"https://cdn.freshful.ro/assets/product_tags/congelat.svg","iconPng":"https://cdn.freshful.ro/assets/product_tags/congelat.png","backgroundColor":"#EDF6FA","textColor":"#2E9AD1"}],"isAvailable":true,"maxAvailableQuantity":70,"maxAllowedQuantity":100,"breadcrumbs":[{"code":"6","name":"Înghețată & congelate","slug":"6-produse-congelate"},{"code":"602","name":"Legume și fructe congelate","slug":"602-legume-si-fructe-congelate"},{"code":"60202","name":"Amestec de legume congelate","slug":"60202-amestec-de-legume-congelat"},{"code":"100144500","name":"Amestec Legume cu orez și ciuperci 400g","slug":"100144500-casa-taraneasca-amestec-legume-cu-orez-si-ciuperci-400g"}],"activePromotion":{"code":"bunatatile-saptamanii-cw0923","name":"Preț redus","targetQuantity":null},"saveMe":null,"labels":[{"type":"v1","items":[{"text":"-20%","backgroundColor":"#FF9903","textColor":"#FFFFFF"}]}],"geniusPrice":null,"geniusUnitPricePerLabel":null,"banner":{"text":"Super preț","textColor":"#FF0000","bgColor":"#FFF2EC","icon":null,"link":"https://www.freshful.ro/oferte/bunatatile-saptamanii-cw0923","type":"promo","analyticsEventType":"select_promotion","analyticsEventPayload":{"promotion_id":"bunatatile-saptamanii-cw0923","promotion_name":"Oferta proaspătă a săptămânii"}},"discountLabel":"Economisești 20%","geniusDiscountLabel":null,"badge":null},{"code":"100039156","variantCode":"100039156","name":"Bame verzi întregi 400g","slug":"100039156-casa-taraneasca-bame-verzi-intregi-400g","unitPriceLabel":"21,98 Lei/kg","brand":"Casa Țărănească","brandCode":"725","brandFilterCode":"casa-taraneasca-b726","sku":"100039156","price":8.79,"originalPrice":10.49,"currencyCode":"RON","currency":"Lei","image":{"thumbnail":{"default":"https://cdn.freshful.ro/media/cache/sylius_shop_product_thumbnail/ed/0d/afa0ecdbe14f07e1765f4bd8bb2b.jpg"},"large":{"default":"https://cdn.freshful.ro/media/cache/freshful_large/ed/0d/afa0ecdbe14f07e1765f4bd8bb2b.jpg"},"extralarge":{"default":"https://cdn.freshful.ro/media/cache/sylius_shop_product_original/ed/0d/afa0ecdbe14f07e1765f4bd8bb2b.jpg"}},"label":{"text":"-16%","backgroundColor":"#FF9903","textColor":"#FFFFFF"},"tags":[{"type":"Frozen","text":"Congelat","icon":"https://cdn.freshful.ro/assets/product_tags/congelat.svg","iconPng":"https://cdn.freshful.ro/assets/product_tags/congelat.png","backgroundColor":"#EDF6FA","textColor":"#2E9AD1"}],"isAvailable":true,"maxAvailableQuantity":37,"maxAllowedQuantity":100,"breadcrumbs":[{"code":"6","name":"Înghețată & congelate","slug":"6-produse-congelate"},{"code":"602","name":"Legume și fructe congelate","slug":"602-legume-si-fructe-congelate"},{"code":"60201","name":"Legume congelate","slug":"60201-legume-congelate"},{"code":"100039156","name":"Bame verzi întregi 400g","slug":"100039156-casa-taraneasca-bame-verzi-intregi-400g"}],"activePromotion":{"code":"special-produse-vegane-mar23","name":"Preț redus","targetQuantity":null},"saveMe":null,"labels":[{"type":"v1","items":[{"text":"-16%","backgroundColor":"#FF9903","textColor":"#FFFFFF"}]}],"geniusPrice":null,"geniusUnitPricePerLabel":null,"banner":{"text":"Super preț","textColor":"#FF0000","bgColor":"#FFF2EC","icon":null,"link":"https://www.freshful.ro/oferte/special-produse-vegane-mar23","type":"promo","analyticsEventType":"select_promotion","analyticsEventPayload":{"promotion_id":"special-produse-vegane-mar23","promotion_name":"Și bun, și de post"}},"discountLabel":"Economisești 16%","geniusDiscountLabel":null,"badge":null},{"code":"100039162","variantCode":"100039162","name":"Fasole verde lată 400g","slug":"100039162-casa-taraneasca-fasole-verde-lata-400g","unitPriceLabel":"14,98 Lei/kg","brand":"Casa Țărănească","brandCode":"725","brandFilterCode":"casa-taraneasca-b726","sku":"100039162","price":5.99,"originalPrice":7.65,"currencyCode":"RON","currency":"Lei","image":{"thumbnail":{"default":"https://cdn.freshful.ro/media/cache/sylius_shop_product_thumbnail/cc/bf/f7658e843526d42b25525f273e54.jpg"},"large":{"default":"https://cdn.freshful.ro/media/cache/freshful_large/cc/bf/f7658e843526d42b25525f273e54.jpg"},"extralarge":{"default":"https://cdn.freshful.ro/media/cache/sylius_shop_product_original/cc/bf/f7658e843526d42b25525f273e54.jpg"}},"label":{"text":"-21%","backgroundColor":"#FF9903","textColor":"#FFFFFF"},"tags":[{"type":"Frozen","text":"Congelat","icon":"https://cdn.freshful.ro/assets/product_tags/congelat.svg","iconPng":"https://cdn.freshful.ro/assets/product_tags/congelat.png","backgroundColor":"#EDF6FA","textColor":"#2E9AD1"}],"isAvailable":true,"maxAvailableQuantity":33,"maxAllowedQuantity":100,"breadcrumbs":[{"code":"6","name":"Înghețată & congelate","slug":"6-produse-congelate"},{"code":"602","name":"Legume și fructe congelate","slug":"602-legume-si-fructe-congelate"},{"code":"60201","name":"Legume congelate","slug":"60201-legume-congelate"},{"code":"100039162","name":"Fasole verde lată 400g","slug":"100039162-casa-taraneasca-fasole-verde-lata-400g"}],"activePromotion":{"code":"special-produse-vegane-mar23","name":"Preț redus","targetQuantity":null},"saveMe":null,"labels":[{"type":"v1","items":[{"text":"-21%","backgroundColor":"#FF9903","textColor":"#FFFFFF"}]}],"geniusPrice":null,"geniusUnitPricePerLabel":null,"banner":{"text":"Super preț","textColor":"#FF0000","bgColor":"#FFF2EC","icon":null,"link":"https://www.freshful.ro/oferte/special-produse-vegane-mar23","type":"promo","analyticsEventType":"select_promotion","analyticsEventPayload":{"promotion_id":"special-produse-vegane-mar23","promotion_name":"Și bun, și de post"}},"discountLabel":"Economisești 21%","geniusDiscountLabel":null,"badge":null},{"code":"100124555","variantCode":"100124555","name":"Mix pentru smoothie Steady Yellow 500g","slug":"100124555-edenia-mix-pentru-smoothie-steady-yellow-500g","unitPriceLabel":"51,98 Lei/kg","brand":"Edenia","brandCode":"56","brandFilterCode":"edenia-b52","sku":"100124555","price":25.99,"originalPrice":29.49,"currencyCode":"RON","currency":"Lei","image":{"thumbnail":{"default":"https://cdn.freshful.ro/media/cache/sylius_shop_product_thumbnail/5c/b2/0ed35342b68f77754264e75c2b74.jpg"},"large":{"default":"https://cdn.freshful.ro/media/cache/freshful_large/5c/b2/0ed35342b68f77754264e75c2b74.jpg"},"extralarge":{"default":"https://cdn.freshful.ro/media/cache/sylius_shop_product_original/5c/b2/0ed35342b68f77754264e75c2b74.jpg"}},"label":{"text":"-11%","backgroundColor":"#FF9903","textColor":"#FFFFFF"},"tags":[{"type":"Frozen","text":"Congelat","icon":"https://cdn.freshful.ro/assets/product_tags/congelat.svg","iconPng":"https://cdn.freshful.ro/assets/product_tags/congelat.png","backgroundColor":"#EDF6FA","textColor":"#2E9AD1"}],"isAvailable":true,"maxAvailableQuantity":11,"maxAllowedQuantity":100,"breadcrumbs":[{"code":"6","name":"Înghețată & congelate","slug":"6-produse-congelate"},{"code":"602","name":"Legume și fructe congelate","slug":"602-legume-si-fructe-congelate"},{"code":"60204","name":"Amestec de fructe congelate","slug":"amestec-de-fructe-congelate"},{"code":"100124555","name":"Mix pentru smoothie Steady Yellow 500g","slug":"100124555-edenia-mix-pentru-smoothie-steady-yellow-500g"}],"activePromotion":{"code":"bunatatile-saptamanii-cw0923","name":"Preț redus","targetQuantity":null},"saveMe":null,"labels":[{"type":"v1","items":[{"text":"-11%","backgroundColor":"#FF9903","textColor":"#FFFFFF"}]}],"geniusPrice":null,"geniusUnitPricePerLabel":null,"banner":{"text":"Super preț","textColor":"#FF0000","bgColor":"#FFF2EC","icon":null,"link":"https://www.freshful.ro/oferte/bunatatile-saptamanii-cw0923","type":"promo","analyticsEventType":"select_promotion","analyticsEventPayload":{"promotion_id":"bunatatile-saptamanii-cw0923","promotion_name":"Oferta proaspătă a săptămânii"}},"discountLabel":"Economisești 11%","geniusDiscountLabel":null,"badge":null},{"code":"100142633","variantCode":"100142633","name":"Acai piure pentru mic dejun și smoothie 4x100gr","slug":"100142633-sambazon-acai-piure-pentru-mic-dejun-si-smoothie-4x100gr","unitPriceLabel":"87,48 Lei/kg","brand":"Sambazon","brandCode":"2745","brandFilterCode":"sambazon-b2751","sku":"100142633","price":34.99,"originalPrice":39.99,"currencyCode":"RON","currency":"Lei","image":{"thumbnail":{"default":"https://cdn.freshful.ro/media/cache/sylius_shop_product_thumbnail/33/d5/c5579fbd9351107862985f2d47c3.jpg"},"large":{"default":"https://cdn.freshful.ro/media/cache/freshful_large/33/d5/c5579fbd9351107862985f2d47c3.jpg"},"extralarge":{"default":"https://cdn.freshful.ro/media/cache/sylius_shop_product_original/33/d5/c5579fbd9351107862985f2d47c3.jpg"}},"label":{"text":"-12%","backgroundColor":"#FF9903","textColor":"#FFFFFF"},"tags":[{"type":"Frozen","text":"Congelat","icon":"https://cdn.freshful.ro/assets/product_tags/congelat.svg","iconPng":"https://cdn.freshful.ro/assets/product_tags/congelat.png","backgroundColor":"#EDF6FA","textColor":"#2E9AD1"},{"type":"Eco","text":"Eco","icon":"https://cdn.freshful.ro/assets/product_tags/eco.svg","iconPng":"https://cdn.freshful.ro/assets/product_tags/eco.png","backgroundColor":"#EFFBE4","textColor":"#66BB1B"}],"isAvailable":true,"maxAvailableQuantity":2,"maxAllowedQuantity":2,"breadcrumbs":[{"code":"6","name":"Înghețată & congelate","slug":"6-produse-congelate"},{"code":"602","name":"Legume și fructe congelate","slug":"602-legume-si-fructe-congelate"},{"code":"60203","name":"Fructe congelate","slug":"60203-fructe-congelate"},{"code":"100142633","name":"Acai piure pentru mic dejun și smoothie 4x100gr","slug":"100142633-sambazon-acai-piure-pentru-mic-dejun-si-smoothie-4x100gr"}],"activePromotion":{"code":"special-produse-vegane-mar23","name":"Preț redus","targetQuantity":null},"saveMe":null,"labels":[{"type":"v1","items":[{"text":"-12%","backgroundColor":"#FF9903","textColor":"#FFFFFF"}]}],"geniusPrice":null,"geniusUnitPricePerLabel":null,"banner":{"text":"Super preț","textColor":"#FF0000","bgColor":"#FFF2EC","icon":null,"link":"https://www.freshful.ro/oferte/special-produse-vegane-mar23","type":"promo","analyticsEventType":"select_promotion","analyticsEventPayload":{"promotion_id":"special-produse-vegane-mar23","promotion_name":"Și bun, și de post"}},"discountLabel":"Economisești 12%","geniusDiscountLabel":null,"badge":null}],"filters":{"countSelected":0,"items":[{"code":"promotion","name":"Promoții","countSelected":0,"values":[{"code":"bunatatile-saptamanii-cw0923","name":"Oferta proaspătă a săptămânii","isSelected":false,"count":8},{"code":"special-produse-vegane-mar23","name":"Și bun, și de post","isSelected":false,"count":7}]},{"code":"brand","name":"Brand","countSelected":0,"values":[{"code":"ardo-b844","name":"Ardo","isSelected":false,"count":11},{"code":"aviko-b1040","name":"Aviko","isSelected":false,"count":8},{"code":"barba-stathis-b846","name":"Barba Stathis","isSelected":false,"count":1},{"code":"bio2cat-b711","name":"Bio²cat","isSelected":false,"count":3},{"code":"bonduelle-b202","name":"Bonduelle","isSelected":false,"count":16},{"code":"casa-taraneasca-b726","name":"Casa Țărănească","isSelected":false,"count":35},{"code":"edenia-b52","name":"Edenia","isSelected":false,"count":36},{"code":"fantasy-b53","name":"Fantasy","isSelected":false,"count":2},{"code":"farm-frites-b54","name":"Farm Frites","isSelected":false,"count":2},{"code":"findus-b840","name":"Findus","isSelected":false,"count":3},{"code":"frosta-b1030","name":"Frosta","isSelected":false,"count":2},{"code":"gradena-b1001","name":"Gradena","isSelected":false,"count":5},{"code":"massa-b845","name":"Massa","isSelected":false,"count":1},{"code":"mccain-b1000","name":"McCain","isSelected":false,"count":4},{"code":"piramida-b3085","name":"Piramida","isSelected":false,"count":7},{"code":"poltino-b1665","name":"Poltino","isSelected":false,"count":1},{"code":"pur-si-simplu-b2748","name":"Pur Si Simplu","isSelected":false,"count":2},{"code":"rogelfrut-b2750","name":"Rogelfrut","isSelected":false,"count":4},{"code":"sambazon-b2751","name":"Sambazon","isSelected":false,"count":2}]},{"code":"diet_lifestyle","name":"Dietă și lifestyle","countSelected":0,"values":[{"code":"congelat-a66","name":"Congelat","isSelected":false,"count":144},{"code":"eco-a83","name":"Eco","isSelected":false,"count":14},{"code":"fara-conservanti-a37","name":"Fara conservanti","isSelected":false,"count":2},{"code":"fara-gluten-a16","name":"Fara gluten","isSelected":false,"count":4},{"code":"fara-zahar-adaugat-a29","name":"Fara zahar adaugat","isSelected":false,"count":4},{"code":"made-in-romania-a85","name":"Made In Romania","isSelected":false,"count":6},{"code":"natural-a27","name":"Natural","isSelected":false,"count":3},{"code":"vegan-a24","name":"Vegan","isSelected":false,"count":6}]}]},"orderBy":[{"field":"price","direction":"asc","name":"Preț crescător","isSelected":false},{"field":"price","direction":"desc","name":"Preț descrescător","isSelected":false},{"field":"popularity","direction":"desc","name":"Cele mai populare","isSelected":true},{"field":"category","direction":"asc","name":"Categorie","isSelected":false}],"metaTitle":"Legume și fructe congelate - Gamă variată","metaDescription":"Vrei Legume și fructe congelate? Alege dintr-o gamă variată. Comanzi simplu și ai livrare rapidă, calitate și prospețime. Hai pe Freshful.ro","metaKeywords":null,"banners":[{"name":"Prim pret","position":2,"type":"listing","displayOnMobile":true,"image":{"jpg":"https://cdn.freshful.ro/media/image/87/b8/2c5353731cb930753b2e9388cb6c.jpg","webp":"https://cdn.freshful.ro/media/image/2f/81/31f258b5a853f724d1a0ee704aea.webp"},"imageResponsive":{"jpg":"https://cdn.freshful.ro/media/image/bc/92/2fd607eef07234c1e524156e1312.jpg","webp":"https://cdn.freshful.ro/media/image/87/db/5b4fc5253bb990fdd0477492ff28.webp"},"url":"/l/custom-listing-prim-pret"}]}}