{"type":"subcategory","payload":{"analyticsListId":"category_60203-fructe-congelate","analyticsListName":"Category - Fructe congelate","name":"Fructe congelate","slug":"60203-fructe-congelate","image":null,"breadcrumbs":[{"code":"6","name":"Înghețată & congelate","slug":"6-produse-congelate"},{"code":"602","name":"Legume și fructe congelate","slug":"602-legume-si-fructe-congelate"},{"code":"60203","name":"Fructe congelate","slug":"60203-fructe-congelate"}],"slots":[],"page":1,"limit":10,"pages":3,"count":22,"siblings":[{"name":"Înghețată și deserturi congelate","slug":"604-inghetata-si-deserturi-congelate","selected":false},{"name":"Carne și pește congelate","slug":"601-carne-si-peste-congelate","selected":false},{"name":"Legume și fructe congelate","slug":"602-legume-si-fructe-congelate","selected":true},{"name":"Semipreparate congelate","slug":"603-semipreparate-congelate","selected":false}],"children":[{"name":"Toate produsele","slug":"602-legume-si-fructe-congelate","selected":false},{"name":"Legume congelate","slug":"60201-legume-congelate","selected":false},{"name":"Amestec de legume congelate","slug":"60202-amestec-de-legume-congelat","selected":false},{"name":"Fructe congelate","slug":"60203-fructe-congelate","selected":true},{"name":"Amestec de fructe congelate","slug":"amestec-de-fructe-congelate","selected":false}],"products":[{"code":"100142633","variantCode":"100142633","name":"Acai piure pentru mic dejun și smoothie 4x100gr","slug":"100142633-sambazon-acai-piure-pentru-mic-dejun-si-smoothie-4x100gr","unitPriceLabel":"87,48 Lei/kg","brand":"Sambazon","brandCode":"2745","brandFilterCode":"sambazon-b2751","sku":"100142633","price":34.99,"originalPrice":39.99,"currencyCode":"RON","currency":"Lei","image":{"thumbnail":{"default":"https://cdn.freshful.ro/media/cache/sylius_shop_product_thumbnail/33/d5/c5579fbd9351107862985f2d47c3.jpg"},"large":{"default":"https://cdn.freshful.ro/media/cache/freshful_large/33/d5/c5579fbd9351107862985f2d47c3.jpg"},"extralarge":{"default":"https://cdn.freshful.ro/media/cache/sylius_shop_product_original/33/d5/c5579fbd9351107862985f2d47c3.jpg"}},"label":{"text":"-12%","backgroundColor":"#FF9903","textColor":"#FFFFFF"},"tags":[{"type":"Frozen","text":"Congelat","icon":"https://cdn.freshful.ro/assets/product_tags/congelat.svg","iconPng":"https://cdn.freshful.ro/assets/product_tags/congelat.png","backgroundColor":"#EDF6FA","textColor":"#2E9AD1"},{"type":"Eco","text":"Eco","icon":"https://cdn.freshful.ro/assets/product_tags/eco.svg","iconPng":"https://cdn.freshful.ro/assets/product_tags/eco.png","backgroundColor":"#EFFBE4","textColor":"#66BB1B"}],"isAvailable":true,"maxAvailableQuantity":2,"maxAllowedQuantity":2,"breadcrumbs":[{"code":"6","name":"Înghețată & congelate","slug":"6-produse-congelate"},{"code":"602","name":"Legume și fructe congelate","slug":"602-legume-si-fructe-congelate"},{"code":"60203","name":"Fructe congelate","slug":"60203-fructe-congelate"},{"code":"100142633","name":"Acai piure pentru mic dejun și smoothie 4x100gr","slug":"100142633-sambazon-acai-piure-pentru-mic-dejun-si-smoothie-4x100gr"}],"activePromotion":{"code":"special-produse-vegane-mar23","name":"Preț redus","targetQuantity":null},"saveMe":null,"labels":[{"type":"v1","items":[{"text":"-12%","backgroundColor":"#FF9903","textColor":"#FFFFFF"}]}],"geniusPrice":null,"geniusUnitPricePerLabel":null,"banner":{"text":"Super preț","textColor":"#FF0000","bgColor":"#FFF2EC","icon":null,"link":"https://www.freshful.ro/oferte/special-produse-vegane-mar23","type":"promo","analyticsEventType":"select_promotion","analyticsEventPayload":{"promotion_id":"special-produse-vegane-mar23","promotion_name":"Și bun, și de post"}},"discountLabel":"Economisești 12%","geniusDiscountLabel":null,"badge":null},{"code":"100142634","variantCode":"100142634","name":"Acai cremă eco 500ml","slug":"100142634-sambazon-acai-crema-eco-500ml","unitPriceLabel":"92,08 Lei/kg","brand":"Sambazon","brandCode":"2745","brandFilterCode":"sambazon-b2751","sku":"100142634","price":34.99,"originalPrice":39.99,"currencyCode":"RON","currency":"Lei","image":{"thumbnail":{"default":"https://cdn.freshful.ro/media/cache/sylius_shop_product_thumbnail/52/df/fb36b247788d96e630cd6622daea.jpg"},"large":{"default":"https://cdn.freshful.ro/media/cache/freshful_large/52/df/fb36b247788d96e630cd6622daea.jpg"},"extralarge":{"default":"https://cdn.freshful.ro/media/cache/sylius_shop_product_original/52/df/fb36b247788d96e630cd6622daea.jpg"}},"label":{"text":"-12%","backgroundColor":"#FF9903","textColor":"#FFFFFF"},"tags":[{"type":"vegan","text":"Vegan","icon":"https://cdn.freshful.ro/assets/product_tags/vegan.svg","iconPng":"https://cdn.freshful.ro/assets/product_tags/vegan.png","backgroundColor":"#ECF9F8","textColor":"#33A39C"},{"type":"Frozen","text":"Congelat","icon":"https://cdn.freshful.ro/assets/product_tags/congelat.svg","iconPng":"https://cdn.freshful.ro/assets/product_tags/congelat.png","backgroundColor":"#EDF6FA","textColor":"#2E9AD1"},{"type":"NoGluten","text":"Fara gluten","icon":"https://cdn.freshful.ro/assets/product_tags/fara_gluten.svg","iconPng":"https://cdn.freshful.ro/assets/product_tags/fara_gluten.png","backgroundColor":"#FFF2E5","textColor":"#F07900"},{"type":"Eco","text":"Eco","icon":"https://cdn.freshful.ro/assets/product_tags/eco.svg","iconPng":"https://cdn.freshful.ro/assets/product_tags/eco.png","backgroundColor":"#EFFBE4","textColor":"#66BB1B"}],"isAvailable":true,"maxAvailableQuantity":2,"maxAllowedQuantity":2,"breadcrumbs":[{"code":"6","name":"Înghețată & congelate","slug":"6-produse-congelate"},{"code":"602","name":"Legume și fructe congelate","slug":"602-legume-si-fructe-congelate"},{"code":"60203","name":"Fructe congelate","slug":"60203-fructe-congelate"},{"code":"100142634","name":"Acai cremă eco 500ml","slug":"100142634-sambazon-acai-crema-eco-500ml"}],"activePromotion":{"code":"special-produse-vegane-mar23","name":"Preț redus","targetQuantity":null},"saveMe":null,"labels":[{"type":"v1","items":[{"text":"-12%","backgroundColor":"#FF9903","textColor":"#FFFFFF"}]}],"geniusPrice":null,"geniusUnitPricePerLabel":null,"banner":{"text":"Super preț","textColor":"#FF0000","bgColor":"#FFF2EC","icon":null,"link":"https://www.freshful.ro/oferte/special-produse-vegane-mar23","type":"promo","analyticsEventType":"select_promotion","analyticsEventPayload":{"promotion_id":"special-produse-vegane-mar23","promotion_name":"Și bun, și de post"}},"discountLabel":"Economisești 12%","geniusDiscountLabel":null,"badge":null},{"code":"100098850","variantCode":"100098850","name":"Amestec fructe de pădure congelate 450g","slug":"100098850-poltino-amestec-fructe-de-padure-congelate-450g","unitPriceLabel":"31,09 Lei/kg","brand":"Poltino","brandCode":"1661","brandFilterCode":"poltino-b1665","sku":"100098850","price":13.99,"originalPrice":null,"currencyCode":"RON","currency":"Lei","image":{"thumbnail":{"default":"https://cdn.freshful.ro/media/cache/sylius_shop_product_thumbnail/d2/ea/b1fce0c2a8be25282d6678db3702.jpg"},"large":{"default":"https://cdn.freshful.ro/media/cache/freshful_large/d2/ea/b1fce0c2a8be25282d6678db3702.jpg"},"extralarge":{"default":"https://cdn.freshful.ro/media/cache/sylius_shop_product_original/d2/ea/b1fce0c2a8be25282d6678db3702.jpg"}},"label":null,"tags":[{"type":"Frozen","text":"Congelat","icon":"https://cdn.freshful.ro/assets/product_tags/congelat.svg","iconPng":"https://cdn.freshful.ro/assets/product_tags/congelat.png","backgroundColor":"#EDF6FA","textColor":"#2E9AD1"}],"isAvailable":true,"maxAvailableQuantity":100,"maxAllowedQuantity":100,"breadcrumbs":[{"code":"6","name":"Înghețată & congelate","slug":"6-produse-congelate"},{"code":"602","name":"Legume și fructe congelate","slug":"602-legume-si-fructe-congelate"},{"code":"60203","name":"Fructe congelate","slug":"60203-fructe-congelate"},{"code":"100098850","name":"Amestec fructe de pădure congelate 450g","slug":"100098850-poltino-amestec-fructe-de-padure-congelate-450g"}],"activePromotion":null,"saveMe":null,"labels":[],"geniusPrice":null,"geniusUnitPricePerLabel":null,"banner":null,"discountLabel":null,"geniusDiscountLabel":null,"badge":null},{"code":"100039173","variantCode":"100039173","name":"Căpșune întregi  400g","slug":"100039173-casa-taraneasca-capsune-intregi-400g","unitPriceLabel":"33,73 Lei/kg","brand":"Casa Țărănească","brandCode":"725","brandFilterCode":"casa-taraneasca-b726","sku":"100039173","price":13.49,"originalPrice":null,"currencyCode":"RON","currency":"Lei","image":{"thumbnail":{"default":"https://cdn.freshful.ro/media/cache/sylius_shop_product_thumbnail/16/69/59b9ed510687806a6096d9e44497.jpg"},"large":{"default":"https://cdn.freshful.ro/media/cache/freshful_large/16/69/59b9ed510687806a6096d9e44497.jpg"},"extralarge":{"default":"https://cdn.freshful.ro/media/cache/sylius_shop_product_original/16/69/59b9ed510687806a6096d9e44497.jpg"}},"label":null,"tags":[{"type":"Frozen","text":"Congelat","icon":"https://cdn.freshful.ro/assets/product_tags/congelat.svg","iconPng":"https://cdn.freshful.ro/assets/product_tags/congelat.png","backgroundColor":"#EDF6FA","textColor":"#2E9AD1"}],"isAvailable":true,"maxAvailableQuantity":77,"maxAllowedQuantity":100,"breadcrumbs":[{"code":"6","name":"Înghețată & congelate","slug":"6-produse-congelate"},{"code":"602","name":"Legume și fructe congelate","slug":"602-legume-si-fructe-congelate"},{"code":"60203","name":"Fructe congelate","slug":"60203-fructe-congelate"},{"code":"100039173","name":"Căpșune întregi  400g","slug":"100039173-casa-taraneasca-capsune-intregi-400g"}],"activePromotion":null,"saveMe":null,"labels":[],"geniusPrice":null,"geniusUnitPricePerLabel":null,"banner":null,"discountLabel":null,"geniusDiscountLabel":null,"badge":null},{"code":"100037393","variantCode":"100037393","name":"Vișine fără sâmburi 450g","slug":"100037393-edenia-visine-fara-samburi-450g","unitPriceLabel":"39,09 Lei/kg","brand":"Edenia","brandCode":"56","brandFilterCode":"edenia-b52","sku":"100037393","price":17.59,"originalPrice":null,"currencyCode":"RON","currency":"Lei","image":{"thumbnail":{"default":"https://cdn.freshful.ro/media/cache/sylius_shop_product_thumbnail/e2/18/dee283d39ab04f0eed014c522dd0.jpg"},"large":{"default":"https://cdn.freshful.ro/media/cache/freshful_large/e2/18/dee283d39ab04f0eed014c522dd0.jpg"},"extralarge":{"default":"https://cdn.freshful.ro/media/cache/sylius_shop_product_original/e2/18/dee283d39ab04f0eed014c522dd0.jpg"}},"label":null,"tags":[{"type":"Frozen","text":"Congelat","icon":"https://cdn.freshful.ro/assets/product_tags/congelat.svg","iconPng":"https://cdn.freshful.ro/assets/product_tags/congelat.png","backgroundColor":"#EDF6FA","textColor":"#2E9AD1"}],"isAvailable":true,"maxAvailableQuantity":81,"maxAllowedQuantity":100,"breadcrumbs":[{"code":"6","name":"Înghețată & congelate","slug":"6-produse-congelate"},{"code":"602","name":"Legume și fructe congelate","slug":"602-legume-si-fructe-congelate"},{"code":"60203","name":"Fructe congelate","slug":"60203-fructe-congelate"},{"code":"100037393","name":"Vișine fără sâmburi 450g","slug":"100037393-edenia-visine-fara-samburi-450g"}],"activePromotion":null,"saveMe":null,"labels":[],"geniusPrice":null,"geniusUnitPricePerLabel":null,"banner":null,"discountLabel":null,"geniusDiscountLabel":null,"badge":null},{"code":"100131654","variantCode":"100131654","name":"Mango bucăți 450g","slug":"100131654-edenia-mango-bucati-450g","unitPriceLabel":"37,53 Lei/kg","brand":"Edenia","brandCode":"56","brandFilterCode":"edenia-b52","sku":"100131654","price":16.89,"originalPrice":null,"currencyCode":"RON","currency":"Lei","image":{"thumbnail":{"default":"https://cdn.freshful.ro/media/cache/sylius_shop_product_thumbnail/83/74/db959c534545ae87be9ca5197bbc.jpg"},"large":{"default":"https://cdn.freshful.ro/media/cache/freshful_large/83/74/db959c534545ae87be9ca5197bbc.jpg"},"extralarge":{"default":"https://cdn.freshful.ro/media/cache/sylius_shop_product_original/83/74/db959c534545ae87be9ca5197bbc.jpg"}},"label":null,"tags":[{"type":"Frozen","text":"Congelat","icon":"https://cdn.freshful.ro/assets/product_tags/congelat.svg","iconPng":"https://cdn.freshful.ro/assets/product_tags/congelat.png","backgroundColor":"#EDF6FA","textColor":"#2E9AD1"}],"isAvailable":true,"maxAvailableQuantity":22,"maxAllowedQuantity":100,"breadcrumbs":[{"code":"6","name":"Înghețată & congelate","slug":"6-produse-congelate"},{"code":"602","name":"Legume și fructe congelate","slug":"602-legume-si-fructe-congelate"},{"code":"60203","name":"Fructe congelate","slug":"60203-fructe-congelate"},{"code":"100131654","name":"Mango bucăți 450g","slug":"100131654-edenia-mango-bucati-450g"}],"activePromotion":null,"saveMe":null,"labels":[],"geniusPrice":null,"geniusUnitPricePerLabel":null,"banner":null,"discountLabel":null,"geniusDiscountLabel":null,"badge":null},{"code":"100142622","variantCode":"100142622","name":"Lămâie eco stoarsă, congelată, 350g","slug":"100142622-pur-si-simplu-lamaie-eco-stoarsa-congelata-350g","unitPriceLabel":"37,11 Lei/kg","brand":"Pur Si Simplu","brandCode":"2742","brandFilterCode":"pur-si-simplu-b2748","sku":"100142622","price":12.99,"originalPrice":null,"currencyCode":"RON","currency":"Lei","image":{"thumbnail":{"default":"https://cdn.freshful.ro/media/cache/sylius_shop_product_thumbnail/3e/a8/7c0c3334922bdcc2c123a0a51c0d.jpg"},"large":{"default":"https://cdn.freshful.ro/media/cache/freshful_large/3e/a8/7c0c3334922bdcc2c123a0a51c0d.jpg"},"extralarge":{"default":"https://cdn.freshful.ro/media/cache/sylius_shop_product_original/3e/a8/7c0c3334922bdcc2c123a0a51c0d.jpg"}},"label":null,"tags":[{"type":"vegan","text":"Vegan","icon":"https://cdn.freshful.ro/assets/product_tags/vegan.svg","iconPng":"https://cdn.freshful.ro/assets/product_tags/vegan.png","backgroundColor":"#ECF9F8","textColor":"#33A39C"},{"type":"Frozen","text":"Congelat","icon":"https://cdn.freshful.ro/assets/product_tags/congelat.svg","iconPng":"https://cdn.freshful.ro/assets/product_tags/congelat.png","backgroundColor":"#EDF6FA","textColor":"#2E9AD1"},{"type":"Eco","text":"Eco","icon":"https://cdn.freshful.ro/assets/product_tags/eco.svg","iconPng":"https://cdn.freshful.ro/assets/product_tags/eco.png","backgroundColor":"#EFFBE4","textColor":"#66BB1B"}],"isAvailable":true,"maxAvailableQuantity":100,"maxAllowedQuantity":100,"breadcrumbs":[{"code":"6","name":"Înghețată & congelate","slug":"6-produse-congelate"},{"code":"602","name":"Legume și fructe congelate","slug":"602-legume-si-fructe-congelate"},{"code":"60203","name":"Fructe congelate","slug":"60203-fructe-congelate"},{"code":"100142622","name":"Lămâie eco stoarsă, congelată, 350g","slug":"100142622-pur-si-simplu-lamaie-eco-stoarsa-congelata-350g"}],"activePromotion":null,"saveMe":null,"labels":[],"geniusPrice":null,"geniusUnitPricePerLabel":null,"banner":null,"discountLabel":null,"geniusDiscountLabel":null,"badge":null},{"code":"100144501","variantCode":"100144501","name":"Ananas bucăți 400g","slug":"100144501-casa-taraneasca-ananas-bucati-400g","unitPriceLabel":"42,45 Lei/kg","brand":"Casa Țărănească","brandCode":"725","brandFilterCode":"casa-taraneasca-b726","sku":"100144501","price":16.98,"originalPrice":null,"currencyCode":"RON","currency":"Lei","image":{"thumbnail":{"default":"https://cdn.freshful.ro/media/cache/sylius_shop_product_thumbnail/a1/c4/537f89a389ce8baae1765e0ac949.jpg"},"large":{"default":"https://cdn.freshful.ro/media/cache/freshful_large/a1/c4/537f89a389ce8baae1765e0ac949.jpg"},"extralarge":{"default":"https://cdn.freshful.ro/media/cache/sylius_shop_product_original/a1/c4/537f89a389ce8baae1765e0ac949.jpg"}},"label":null,"tags":[{"type":"Frozen","text":"Congelat","icon":"https://cdn.freshful.ro/assets/product_tags/congelat.svg","iconPng":"https://cdn.freshful.ro/assets/product_tags/congelat.png","backgroundColor":"#EDF6FA","textColor":"#2E9AD1"}],"isAvailable":true,"maxAvailableQuantity":2,"maxAllowedQuantity":2,"breadcrumbs":[{"code":"6","name":"Înghețată & congelate","slug":"6-produse-congelate"},{"code":"602","name":"Legume și fructe congelate","slug":"602-legume-si-fructe-congelate"},{"code":"60203","name":"Fructe congelate","slug":"60203-fructe-congelate"},{"code":"100144501","name":"Ananas bucăți 400g","slug":"100144501-casa-taraneasca-ananas-bucati-400g"}],"activePromotion":null,"saveMe":null,"labels":[],"geniusPrice":null,"geniusUnitPricePerLabel":null,"banner":null,"discountLabel":null,"geniusDiscountLabel":null,"badge":null},{"code":"100144503","variantCode":"100144503","name":"Mix fructe 400g","slug":"100144503-casa-taraneasca-mix-fructe-400g","unitPriceLabel":"47,45 Lei/kg","brand":"Casa Țărănească","brandCode":"725","brandFilterCode":"casa-taraneasca-b726","sku":"100144503","price":18.98,"originalPrice":null,"currencyCode":"RON","currency":"Lei","image":{"thumbnail":{"default":"https://cdn.freshful.ro/media/cache/sylius_shop_product_thumbnail/9b/ce/6b077f66719a3e54120af6d86e4a.jpg"},"large":{"default":"https://cdn.freshful.ro/media/cache/freshful_large/9b/ce/6b077f66719a3e54120af6d86e4a.jpg"},"extralarge":{"default":"https://cdn.freshful.ro/media/cache/sylius_shop_product_original/9b/ce/6b077f66719a3e54120af6d86e4a.jpg"}},"label":null,"tags":[{"type":"Frozen","text":"Congelat","icon":"https://cdn.freshful.ro/assets/product_tags/congelat.svg","iconPng":"https://cdn.freshful.ro/assets/product_tags/congelat.png","backgroundColor":"#EDF6FA","textColor":"#2E9AD1"}],"isAvailable":true,"maxAvailableQuantity":74,"maxAllowedQuantity":100,"breadcrumbs":[{"code":"6","name":"Înghețată & congelate","slug":"6-produse-congelate"},{"code":"602","name":"Legume și fructe congelate","slug":"602-legume-si-fructe-congelate"},{"code":"60203","name":"Fructe congelate","slug":"60203-fructe-congelate"},{"code":"100144503","name":"Mix fructe 400g","slug":"100144503-casa-taraneasca-mix-fructe-400g"}],"activePromotion":null,"saveMe":null,"labels":[],"geniusPrice":null,"geniusUnitPricePerLabel":null,"banner":null,"discountLabel":null,"geniusDiscountLabel":null,"badge":null},{"code":"100144504","variantCode":"100144504","name":"Mango cuburi 400g","slug":"100144504-casa-taraneasca-mango-cuburi-400g","unitPriceLabel":"41,2 Lei/kg","brand":"Casa Țărănească","brandCode":"725","brandFilterCode":"casa-taraneasca-b726","sku":"100144504","price":16.48,"originalPrice":null,"currencyCode":"RON","currency":"Lei","image":{"thumbnail":{"default":"https://cdn.freshful.ro/media/cache/sylius_shop_product_thumbnail/8a/39/6cd339dc10cfcf5f701d29b61470.jpg"},"large":{"default":"https://cdn.freshful.ro/media/cache/freshful_large/8a/39/6cd339dc10cfcf5f701d29b61470.jpg"},"extralarge":{"default":"https://cdn.freshful.ro/media/cache/sylius_shop_product_original/8a/39/6cd339dc10cfcf5f701d29b61470.jpg"}},"label":null,"tags":[{"type":"Frozen","text":"Congelat","icon":"https://cdn.freshful.ro/assets/product_tags/congelat.svg","iconPng":"https://cdn.freshful.ro/assets/product_tags/congelat.png","backgroundColor":"#EDF6FA","textColor":"#2E9AD1"}],"isAvailable":true,"maxAvailableQuantity":42,"maxAllowedQuantity":100,"breadcrumbs":[{"code":"6","name":"Înghețată & congelate","slug":"6-produse-congelate"},{"code":"602","name":"Legume și fructe congelate","slug":"602-legume-si-fructe-congelate"},{"code":"60203","name":"Fructe congelate","slug":"60203-fructe-congelate"},{"code":"100144504","name":"Mango cuburi 400g","slug":"100144504-casa-taraneasca-mango-cuburi-400g"}],"activePromotion":null,"saveMe":null,"labels":[],"geniusPrice":null,"geniusUnitPricePerLabel":null,"banner":null,"discountLabel":null,"geniusDiscountLabel":null,"badge":null}],"filters":{"countSelected":0,"items":[{"code":"promotion","name":"Promoții","countSelected":0,"values":[{"code":"special-produse-vegane-mar23","name":"Și bun, și de post","isSelected":false,"count":2}]},{"code":"brand","name":"Brand","countSelected":0,"values":[{"code":"bio2cat-b711","name":"Bio²cat","isSelected":false,"count":3},{"code":"casa-taraneasca-b726","name":"Casa Țărănească","isSelected":false,"count":5},{"code":"edenia-b52","name":"Edenia","isSelected":false,"count":3},{"code":"massa-b845","name":"Massa","isSelected":false,"count":1},{"code":"piramida-b3085","name":"Piramida","isSelected":false,"count":1},{"code":"poltino-b1665","name":"Poltino","isSelected":false,"count":1},{"code":"pur-si-simplu-b2748","name":"Pur Si Simplu","isSelected":false,"count":2},{"code":"rogelfrut-b2750","name":"Rogelfrut","isSelected":false,"count":4},{"code":"sambazon-b2751","name":"Sambazon","isSelected":false,"count":2}]},{"code":"diet_lifestyle","name":"Dietă și lifestyle","countSelected":0,"values":[{"code":"congelat-a66","name":"Congelat","isSelected":false,"count":22},{"code":"eco-a83","name":"Eco","isSelected":false,"count":5},{"code":"fara-conservanti-a37","name":"Fara conservanti","isSelected":false,"count":2},{"code":"fara-gluten-a16","name":"Fara gluten","isSelected":false,"count":2},{"code":"fara-zahar-adaugat-a29","name":"Fara zahar adaugat","isSelected":false,"count":4},{"code":"natural-a27","name":"Natural","isSelected":false,"count":3},{"code":"vegan-a24","name":"Vegan","isSelected":false,"count":3}]}]},"orderBy":[{"field":"price","direction":"asc","name":"Preț crescător","isSelected":false},{"field":"price","direction":"desc","name":"Preț descrescător","isSelected":false},{"field":"popularity","direction":"desc","name":"Cele mai populare","isSelected":true},{"field":"category","direction":"asc","name":"Categorie","isSelected":false}],"metaTitle":"Fructe congelate - Gamă variată","metaDescription":"Vrei Fructe congelate? Alege dintr-o gamă variată. Comanzi simplu și ai livrare rapidă, calitate și prospețime. Hai pe Freshful.ro","metaKeywords":null,"banners":[]}}