{"type":"subcategory","payload":{"analyticsListId":"category_60201-legume-congelate","analyticsListName":"Category - Legume congelate","name":"Legume congelate","slug":"60201-legume-congelate","image":null,"breadcrumbs":[{"code":"6","name":"Înghețată & congelate","slug":"6-produse-congelate"},{"code":"602","name":"Legume și fructe congelate","slug":"602-legume-si-fructe-congelate"},{"code":"60201","name":"Legume congelate","slug":"60201-legume-congelate"}],"slots":[],"page":1,"limit":10,"pages":9,"count":81,"siblings":[{"name":"Înghețată și deserturi congelate","slug":"604-inghetata-si-deserturi-congelate","selected":false},{"name":"Carne și pește congelate","slug":"601-carne-si-peste-congelate","selected":false},{"name":"Legume și fructe congelate","slug":"602-legume-si-fructe-congelate","selected":true},{"name":"Semipreparate congelate","slug":"603-semipreparate-congelate","selected":false}],"children":[{"name":"Toate produsele","slug":"602-legume-si-fructe-congelate","selected":false},{"name":"Legume congelate","slug":"60201-legume-congelate","selected":true},{"name":"Amestec de legume congelate","slug":"60202-amestec-de-legume-congelat","selected":false},{"name":"Fructe congelate","slug":"60203-fructe-congelate","selected":false},{"name":"Amestec de fructe congelate","slug":"amestec-de-fructe-congelate","selected":false}],"products":[{"code":"100039174","variantCode":"100039174","name":"Dovleac cuburi 400g","slug":"100039174-casa-taraneasca-dovleac-cuburi-400g","unitPriceLabel":"19,23 Lei/kg","brand":"Casa Țărănească","brandCode":"725","brandFilterCode":"casa-taraneasca-b726","sku":"100039174","price":7.69,"originalPrice":9.99,"currencyCode":"RON","currency":"Lei","image":{"thumbnail":{"default":"https://cdn.freshful.ro/media/cache/sylius_shop_product_thumbnail/16/14/6bf6cc5c994992a07462194c4533.jpg"},"large":{"default":"https://cdn.freshful.ro/media/cache/freshful_large/16/14/6bf6cc5c994992a07462194c4533.jpg"},"extralarge":{"default":"https://cdn.freshful.ro/media/cache/sylius_shop_product_original/16/14/6bf6cc5c994992a07462194c4533.jpg"}},"label":{"text":"-23%","backgroundColor":"#FF9903","textColor":"#FFFFFF"},"tags":[{"type":"Frozen","text":"Congelat","icon":"https://cdn.freshful.ro/assets/product_tags/congelat.svg","iconPng":"https://cdn.freshful.ro/assets/product_tags/congelat.png","backgroundColor":"#EDF6FA","textColor":"#2E9AD1"}],"isAvailable":true,"maxAvailableQuantity":25,"maxAllowedQuantity":100,"breadcrumbs":[{"code":"6","name":"Înghețată & congelate","slug":"6-produse-congelate"},{"code":"602","name":"Legume și fructe congelate","slug":"602-legume-si-fructe-congelate"},{"code":"60201","name":"Legume congelate","slug":"60201-legume-congelate"},{"code":"100039174","name":"Dovleac cuburi 400g","slug":"100039174-casa-taraneasca-dovleac-cuburi-400g"}],"activePromotion":{"code":"special-produse-vegane-mar23","name":"Preț redus","targetQuantity":null},"saveMe":null,"labels":[{"type":"v1","items":[{"text":"-23%","backgroundColor":"#FF9903","textColor":"#FFFFFF"}]}],"geniusPrice":null,"geniusUnitPricePerLabel":null,"banner":{"text":"Super preț","textColor":"#FF0000","bgColor":"#FFF2EC","icon":null,"link":"https://www.freshful.ro/oferte/special-produse-vegane-mar23","type":"promo","analyticsEventType":"select_promotion","analyticsEventPayload":{"promotion_id":"special-produse-vegane-mar23","promotion_name":"Și bun, și de post"}},"discountLabel":"Economisești 23%","geniusDiscountLabel":null,"badge":null},{"code":"100039156","variantCode":"100039156","name":"Bame verzi întregi 400g","slug":"100039156-casa-taraneasca-bame-verzi-intregi-400g","unitPriceLabel":"21,98 Lei/kg","brand":"Casa Țărănească","brandCode":"725","brandFilterCode":"casa-taraneasca-b726","sku":"100039156","price":8.79,"originalPrice":10.49,"currencyCode":"RON","currency":"Lei","image":{"thumbnail":{"default":"https://cdn.freshful.ro/media/cache/sylius_shop_product_thumbnail/ed/0d/afa0ecdbe14f07e1765f4bd8bb2b.jpg"},"large":{"default":"https://cdn.freshful.ro/media/cache/freshful_large/ed/0d/afa0ecdbe14f07e1765f4bd8bb2b.jpg"},"extralarge":{"default":"https://cdn.freshful.ro/media/cache/sylius_shop_product_original/ed/0d/afa0ecdbe14f07e1765f4bd8bb2b.jpg"}},"label":{"text":"-16%","backgroundColor":"#FF9903","textColor":"#FFFFFF"},"tags":[{"type":"Frozen","text":"Congelat","icon":"https://cdn.freshful.ro/assets/product_tags/congelat.svg","iconPng":"https://cdn.freshful.ro/assets/product_tags/congelat.png","backgroundColor":"#EDF6FA","textColor":"#2E9AD1"}],"isAvailable":true,"maxAvailableQuantity":37,"maxAllowedQuantity":100,"breadcrumbs":[{"code":"6","name":"Înghețată & congelate","slug":"6-produse-congelate"},{"code":"602","name":"Legume și fructe congelate","slug":"602-legume-si-fructe-congelate"},{"code":"60201","name":"Legume congelate","slug":"60201-legume-congelate"},{"code":"100039156","name":"Bame verzi întregi 400g","slug":"100039156-casa-taraneasca-bame-verzi-intregi-400g"}],"activePromotion":{"code":"special-produse-vegane-mar23","name":"Preț redus","targetQuantity":null},"saveMe":null,"labels":[{"type":"v1","items":[{"text":"-16%","backgroundColor":"#FF9903","textColor":"#FFFFFF"}]}],"geniusPrice":null,"geniusUnitPricePerLabel":null,"banner":{"text":"Super preț","textColor":"#FF0000","bgColor":"#FFF2EC","icon":null,"link":"https://www.freshful.ro/oferte/special-produse-vegane-mar23","type":"promo","analyticsEventType":"select_promotion","analyticsEventPayload":{"promotion_id":"special-produse-vegane-mar23","promotion_name":"Și bun, și de post"}},"discountLabel":"Economisești 16%","geniusDiscountLabel":null,"badge":null},{"code":"100039162","variantCode":"100039162","name":"Fasole verde lată 400g","slug":"100039162-casa-taraneasca-fasole-verde-lata-400g","unitPriceLabel":"14,98 Lei/kg","brand":"Casa Țărănească","brandCode":"725","brandFilterCode":"casa-taraneasca-b726","sku":"100039162","price":5.99,"originalPrice":7.65,"currencyCode":"RON","currency":"Lei","image":{"thumbnail":{"default":"https://cdn.freshful.ro/media/cache/sylius_shop_product_thumbnail/cc/bf/f7658e843526d42b25525f273e54.jpg"},"large":{"default":"https://cdn.freshful.ro/media/cache/freshful_large/cc/bf/f7658e843526d42b25525f273e54.jpg"},"extralarge":{"default":"https://cdn.freshful.ro/media/cache/sylius_shop_product_original/cc/bf/f7658e843526d42b25525f273e54.jpg"}},"label":{"text":"-21%","backgroundColor":"#FF9903","textColor":"#FFFFFF"},"tags":[{"type":"Frozen","text":"Congelat","icon":"https://cdn.freshful.ro/assets/product_tags/congelat.svg","iconPng":"https://cdn.freshful.ro/assets/product_tags/congelat.png","backgroundColor":"#EDF6FA","textColor":"#2E9AD1"}],"isAvailable":true,"maxAvailableQuantity":33,"maxAllowedQuantity":100,"breadcrumbs":[{"code":"6","name":"Înghețată & congelate","slug":"6-produse-congelate"},{"code":"602","name":"Legume și fructe congelate","slug":"602-legume-si-fructe-congelate"},{"code":"60201","name":"Legume congelate","slug":"60201-legume-congelate"},{"code":"100039162","name":"Fasole verde lată 400g","slug":"100039162-casa-taraneasca-fasole-verde-lata-400g"}],"activePromotion":{"code":"special-produse-vegane-mar23","name":"Preț redus","targetQuantity":null},"saveMe":null,"labels":[{"type":"v1","items":[{"text":"-21%","backgroundColor":"#FF9903","textColor":"#FFFFFF"}]}],"geniusPrice":null,"geniusUnitPricePerLabel":null,"banner":{"text":"Super preț","textColor":"#FF0000","bgColor":"#FFF2EC","icon":null,"link":"https://www.freshful.ro/oferte/special-produse-vegane-mar23","type":"promo","analyticsEventType":"select_promotion","analyticsEventPayload":{"promotion_id":"special-produse-vegane-mar23","promotion_name":"Și bun, și de post"}},"discountLabel":"Economisești 21%","geniusDiscountLabel":null,"badge":null},{"code":"100037365","variantCode":"100037365","name":"Mazăre fină 450g","slug":"100037365-edenia-mazare-fina-450g","unitPriceLabel":"17,89 Lei/kg","brand":"Edenia","brandCode":"56","brandFilterCode":"edenia-b52","sku":"100037365","price":8.05,"originalPrice":null,"currencyCode":"RON","currency":"Lei","image":{"thumbnail":{"default":"https://cdn.freshful.ro/media/cache/sylius_shop_product_thumbnail/9d/b9/8d0ecf7e60ab49b1b995c7fcaace.jpg"},"large":{"default":"https://cdn.freshful.ro/media/cache/freshful_large/9d/b9/8d0ecf7e60ab49b1b995c7fcaace.jpg"},"extralarge":{"default":"https://cdn.freshful.ro/media/cache/sylius_shop_product_original/9d/b9/8d0ecf7e60ab49b1b995c7fcaace.jpg"}},"label":null,"tags":[{"type":"Frozen","text":"Congelat","icon":"https://cdn.freshful.ro/assets/product_tags/congelat.svg","iconPng":"https://cdn.freshful.ro/assets/product_tags/congelat.png","backgroundColor":"#EDF6FA","textColor":"#2E9AD1"}],"isAvailable":true,"maxAvailableQuantity":100,"maxAllowedQuantity":100,"breadcrumbs":[{"code":"6","name":"Înghețată & congelate","slug":"6-produse-congelate"},{"code":"602","name":"Legume și fructe congelate","slug":"602-legume-si-fructe-congelate"},{"code":"60201","name":"Legume congelate","slug":"60201-legume-congelate"},{"code":"100037365","name":"Mazăre fină 450g","slug":"100037365-edenia-mazare-fina-450g"}],"activePromotion":null,"saveMe":null,"labels":[],"geniusPrice":null,"geniusUnitPricePerLabel":null,"banner":null,"discountLabel":null,"geniusDiscountLabel":null,"badge":null},{"code":"100039165","variantCode":"100039165","name":"Broccoli buchete 400g","slug":"100039165-casa-taraneasca-broccoli-buchete-400g","unitPriceLabel":"23,73 Lei/kg","brand":"Casa Țărănească","brandCode":"725","brandFilterCode":"casa-taraneasca-b726","sku":"100039165","price":9.49,"originalPrice":null,"currencyCode":"RON","currency":"Lei","image":{"thumbnail":{"default":"https://cdn.freshful.ro/media/cache/sylius_shop_product_thumbnail/4d/cc/d9b71b5c5081c78dd530d84b27c9.jpg"},"large":{"default":"https://cdn.freshful.ro/media/cache/freshful_large/4d/cc/d9b71b5c5081c78dd530d84b27c9.jpg"},"extralarge":{"default":"https://cdn.freshful.ro/media/cache/sylius_shop_product_original/4d/cc/d9b71b5c5081c78dd530d84b27c9.jpg"}},"label":null,"tags":[{"type":"Frozen","text":"Congelat","icon":"https://cdn.freshful.ro/assets/product_tags/congelat.svg","iconPng":"https://cdn.freshful.ro/assets/product_tags/congelat.png","backgroundColor":"#EDF6FA","textColor":"#2E9AD1"}],"isAvailable":true,"maxAvailableQuantity":63,"maxAllowedQuantity":100,"breadcrumbs":[{"code":"6","name":"Înghețată & congelate","slug":"6-produse-congelate"},{"code":"602","name":"Legume și fructe congelate","slug":"602-legume-si-fructe-congelate"},{"code":"60201","name":"Legume congelate","slug":"60201-legume-congelate"},{"code":"100039165","name":"Broccoli buchete 400g","slug":"100039165-casa-taraneasca-broccoli-buchete-400g"}],"activePromotion":null,"saveMe":null,"labels":[],"geniusPrice":null,"geniusUnitPricePerLabel":null,"banner":null,"discountLabel":null,"geniusDiscountLabel":null,"badge":null},{"code":"100037367","variantCode":"100037367","name":"Fasole verde întreagă 450g","slug":"100037367-edenia-fasole-verde-intreaga-450g","unitPriceLabel":"17,76 Lei/kg","brand":"Edenia","brandCode":"56","brandFilterCode":"edenia-b52","sku":"100037367","price":7.99,"originalPrice":null,"currencyCode":"RON","currency":"Lei","image":{"thumbnail":{"default":"https://cdn.freshful.ro/media/cache/sylius_shop_product_thumbnail/71/fa/d7008de1396cc6b3ea490562cbd3.jpg"},"large":{"default":"https://cdn.freshful.ro/media/cache/freshful_large/71/fa/d7008de1396cc6b3ea490562cbd3.jpg"},"extralarge":{"default":"https://cdn.freshful.ro/media/cache/sylius_shop_product_original/71/fa/d7008de1396cc6b3ea490562cbd3.jpg"}},"label":null,"tags":[{"type":"Frozen","text":"Congelat","icon":"https://cdn.freshful.ro/assets/product_tags/congelat.svg","iconPng":"https://cdn.freshful.ro/assets/product_tags/congelat.png","backgroundColor":"#EDF6FA","textColor":"#2E9AD1"}],"isAvailable":true,"maxAvailableQuantity":44,"maxAllowedQuantity":100,"breadcrumbs":[{"code":"6","name":"Înghețată & congelate","slug":"6-produse-congelate"},{"code":"602","name":"Legume și fructe congelate","slug":"602-legume-si-fructe-congelate"},{"code":"60201","name":"Legume congelate","slug":"60201-legume-congelate"},{"code":"100037367","name":"Fasole verde întreagă 450g","slug":"100037367-edenia-fasole-verde-intreaga-450g"}],"activePromotion":null,"saveMe":null,"labels":[],"geniusPrice":null,"geniusUnitPricePerLabel":null,"banner":null,"discountLabel":null,"geniusDiscountLabel":null,"badge":null},{"code":"100037366","variantCode":"100037366","name":"Mazăre fină 1kg","slug":"100037366-edenia-mazare-fina-1kg","unitPriceLabel":"14,79 Lei/kg","brand":"Edenia","brandCode":"56","brandFilterCode":"edenia-b52","sku":"100037366","price":14.79,"originalPrice":null,"currencyCode":"RON","currency":"Lei","image":{"thumbnail":{"default":"https://cdn.freshful.ro/media/cache/sylius_shop_product_thumbnail/88/c0/66888073ee5661aa60abf5bde6bb.jpg"},"large":{"default":"https://cdn.freshful.ro/media/cache/freshful_large/88/c0/66888073ee5661aa60abf5bde6bb.jpg"},"extralarge":{"default":"https://cdn.freshful.ro/media/cache/sylius_shop_product_original/88/c0/66888073ee5661aa60abf5bde6bb.jpg"}},"label":null,"tags":[{"type":"Frozen","text":"Congelat","icon":"https://cdn.freshful.ro/assets/product_tags/congelat.svg","iconPng":"https://cdn.freshful.ro/assets/product_tags/congelat.png","backgroundColor":"#EDF6FA","textColor":"#2E9AD1"}],"isAvailable":true,"maxAvailableQuantity":2,"maxAllowedQuantity":2,"breadcrumbs":[{"code":"6","name":"Înghețată & congelate","slug":"6-produse-congelate"},{"code":"602","name":"Legume și fructe congelate","slug":"602-legume-si-fructe-congelate"},{"code":"60201","name":"Legume congelate","slug":"60201-legume-congelate"},{"code":"100037366","name":"Mazăre fină 1kg","slug":"100037366-edenia-mazare-fina-1kg"}],"activePromotion":null,"saveMe":null,"labels":[],"geniusPrice":null,"geniusUnitPricePerLabel":null,"banner":null,"discountLabel":null,"geniusDiscountLabel":null,"badge":null},{"code":"100047329","variantCode":"100047329","name":"Amestec de legume Wok thai 325g ","slug":"100047329-findus-amestec-de-legume-wok-thai-325g","unitPriceLabel":"49,2 Lei/kg","brand":"Findus","brandCode":"839","brandFilterCode":"findus-b840","sku":"100047329","price":15.99,"originalPrice":null,"currencyCode":"RON","currency":"Lei","image":{"thumbnail":{"default":"https://cdn.freshful.ro/media/cache/sylius_shop_product_thumbnail/76/b8/934be1c642ec5b810d6a0849d9d8.jpg"},"large":{"default":"https://cdn.freshful.ro/media/cache/freshful_large/76/b8/934be1c642ec5b810d6a0849d9d8.jpg"},"extralarge":{"default":"https://cdn.freshful.ro/media/cache/sylius_shop_product_original/76/b8/934be1c642ec5b810d6a0849d9d8.jpg"}},"label":null,"tags":[{"type":"Frozen","text":"Congelat","icon":"https://cdn.freshful.ro/assets/product_tags/congelat.svg","iconPng":"https://cdn.freshful.ro/assets/product_tags/congelat.png","backgroundColor":"#EDF6FA","textColor":"#2E9AD1"}],"isAvailable":true,"maxAvailableQuantity":43,"maxAllowedQuantity":100,"breadcrumbs":[{"code":"6","name":"Înghețată & congelate","slug":"6-produse-congelate"},{"code":"602","name":"Legume și fructe congelate","slug":"602-legume-si-fructe-congelate"},{"code":"60201","name":"Legume congelate","slug":"60201-legume-congelate"},{"code":"100047329","name":"Amestec de legume Wok thai 325g ","slug":"100047329-findus-amestec-de-legume-wok-thai-325g"}],"activePromotion":null,"saveMe":null,"labels":[],"geniusPrice":null,"geniusUnitPricePerLabel":null,"banner":null,"discountLabel":null,"geniusDiscountLabel":null,"badge":null},{"code":"100037358","variantCode":"100037358","name":"Morcovi baby 450g","slug":"100037358-edenia-morcovi-baby-450g","unitPriceLabel":"17 Lei/kg","brand":"Edenia","brandCode":"56","brandFilterCode":"edenia-b52","sku":"100037358","price":7.65,"originalPrice":null,"currencyCode":"RON","currency":"Lei","image":{"thumbnail":{"default":"https://cdn.freshful.ro/media/cache/sylius_shop_product_thumbnail/54/b1/31197a86bded848e9db7f241c100.jpg"},"large":{"default":"https://cdn.freshful.ro/media/cache/freshful_large/54/b1/31197a86bded848e9db7f241c100.jpg"},"extralarge":{"default":"https://cdn.freshful.ro/media/cache/sylius_shop_product_original/54/b1/31197a86bded848e9db7f241c100.jpg"}},"label":null,"tags":[{"type":"Frozen","text":"Congelat","icon":"https://cdn.freshful.ro/assets/product_tags/congelat.svg","iconPng":"https://cdn.freshful.ro/assets/product_tags/congelat.png","backgroundColor":"#EDF6FA","textColor":"#2E9AD1"}],"isAvailable":true,"maxAvailableQuantity":33,"maxAllowedQuantity":100,"breadcrumbs":[{"code":"6","name":"Înghețată & congelate","slug":"6-produse-congelate"},{"code":"602","name":"Legume și fructe congelate","slug":"602-legume-si-fructe-congelate"},{"code":"60201","name":"Legume congelate","slug":"60201-legume-congelate"},{"code":"100037358","name":"Morcovi baby 450g","slug":"100037358-edenia-morcovi-baby-450g"}],"activePromotion":null,"saveMe":null,"labels":[],"geniusPrice":null,"geniusUnitPricePerLabel":null,"banner":null,"discountLabel":null,"geniusDiscountLabel":null,"badge":null},{"code":"100064138","variantCode":"100064138","name":"Broccoli vapeur 400g","slug":"100064138-bonduelle-broccoli-vapeur-400g","unitPriceLabel":"26,23 Lei/kg","brand":"Bonduelle","brandCode":"201","brandFilterCode":"bonduelle-b202","sku":"100064138","price":10.49,"originalPrice":null,"currencyCode":"RON","currency":"Lei","image":{"thumbnail":{"default":"https://cdn.freshful.ro/media/cache/sylius_shop_product_thumbnail/ab/7b/a5de6f3995ecfc01a138565ca475.jpg"},"large":{"default":"https://cdn.freshful.ro/media/cache/freshful_large/ab/7b/a5de6f3995ecfc01a138565ca475.jpg"},"extralarge":{"default":"https://cdn.freshful.ro/media/cache/sylius_shop_product_original/ab/7b/a5de6f3995ecfc01a138565ca475.jpg"}},"label":null,"tags":[{"type":"Frozen","text":"Congelat","icon":"https://cdn.freshful.ro/assets/product_tags/congelat.svg","iconPng":"https://cdn.freshful.ro/assets/product_tags/congelat.png","backgroundColor":"#EDF6FA","textColor":"#2E9AD1"}],"isAvailable":true,"maxAvailableQuantity":3,"maxAllowedQuantity":3,"breadcrumbs":[{"code":"6","name":"Înghețată & congelate","slug":"6-produse-congelate"},{"code":"602","name":"Legume și fructe congelate","slug":"602-legume-si-fructe-congelate"},{"code":"60201","name":"Legume congelate","slug":"60201-legume-congelate"},{"code":"100064138","name":"Broccoli vapeur 400g","slug":"100064138-bonduelle-broccoli-vapeur-400g"}],"activePromotion":null,"saveMe":null,"labels":[],"geniusPrice":null,"geniusUnitPricePerLabel":null,"banner":null,"discountLabel":null,"geniusDiscountLabel":null,"badge":null}],"filters":{"countSelected":0,"items":[{"code":"promotion","name":"Promoții","countSelected":0,"values":[{"code":"bunatatile-saptamanii-cw0923","name":"Oferta proaspătă a săptămânii","isSelected":false,"count":1},{"code":"special-produse-vegane-mar23","name":"Și bun, și de post","isSelected":false,"count":4}]},{"code":"brand","name":"Brand","countSelected":0,"values":[{"code":"ardo-b844","name":"Ardo","isSelected":false,"count":10},{"code":"aviko-b1040","name":"Aviko","isSelected":false,"count":8},{"code":"bonduelle-b202","name":"Bonduelle","isSelected":false,"count":8},{"code":"casa-taraneasca-b726","name":"Casa Țărănească","isSelected":false,"count":18},{"code":"edenia-b52","name":"Edenia","isSelected":false,"count":18},{"code":"fantasy-b53","name":"Fantasy","isSelected":false,"count":2},{"code":"farm-frites-b54","name":"Farm Frites","isSelected":false,"count":2},{"code":"findus-b840","name":"Findus","isSelected":false,"count":3},{"code":"gradena-b1001","name":"Gradena","isSelected":false,"count":3},{"code":"mccain-b1000","name":"McCain","isSelected":false,"count":4},{"code":"piramida-b3085","name":"Piramida","isSelected":false,"count":5}]},{"code":"diet_lifestyle","name":"Dietă și lifestyle","countSelected":0,"values":[{"code":"congelat-a66","name":"Congelat","isSelected":false,"count":80},{"code":"eco-a83","name":"Eco","isSelected":false,"count":8},{"code":"fara-gluten-a16","name":"Fara gluten","isSelected":false,"count":1},{"code":"made-in-romania-a85","name":"Made In Romania","isSelected":false,"count":4},{"code":"vegan-a24","name":"Vegan","isSelected":false,"count":2}]}]},"orderBy":[{"field":"price","direction":"asc","name":"Preț crescător","isSelected":false},{"field":"price","direction":"desc","name":"Preț descrescător","isSelected":false},{"field":"popularity","direction":"desc","name":"Cele mai populare","isSelected":true},{"field":"category","direction":"asc","name":"Categorie","isSelected":false}],"metaTitle":"Legume congelate - Gamă variată","metaDescription":"Vrei Legume congelate? Alege dintr-o gamă variată. Comanzi simplu și ai livrare rapidă, calitate și prospețime. Hai pe Freshful.ro","metaKeywords":null,"banners":[]}}