{"type":"subcategory","payload":{"analyticsListId":"category_60202-amestec-de-legume-congelat","analyticsListName":"Category - Amestec de legume congelate","name":"Amestec de legume congelate","slug":"60202-amestec-de-legume-congelat","image":null,"breadcrumbs":[{"code":"6","name":"Înghețată & congelate","slug":"6-produse-congelate"},{"code":"602","name":"Legume și fructe congelate","slug":"602-legume-si-fructe-congelate"},{"code":"60202","name":"Amestec de legume congelate","slug":"60202-amestec-de-legume-congelat"}],"slots":[],"page":1,"limit":10,"pages":4,"count":37,"siblings":[{"name":"Înghețată și deserturi congelate","slug":"604-inghetata-si-deserturi-congelate","selected":false},{"name":"Carne și pește congelate","slug":"601-carne-si-peste-congelate","selected":false},{"name":"Legume și fructe congelate","slug":"602-legume-si-fructe-congelate","selected":true},{"name":"Semipreparate congelate","slug":"603-semipreparate-congelate","selected":false}],"children":[{"name":"Toate produsele","slug":"602-legume-si-fructe-congelate","selected":false},{"name":"Legume congelate","slug":"60201-legume-congelate","selected":false},{"name":"Amestec de legume congelate","slug":"60202-amestec-de-legume-congelat","selected":true},{"name":"Fructe congelate","slug":"60203-fructe-congelate","selected":false},{"name":"Amestec de fructe congelate","slug":"amestec-de-fructe-congelate","selected":false}],"products":[{"code":"100037388","variantCode":"100037388","name":"Legume pai 450g","slug":"100037388-edenia-legume-pai-450g","unitPriceLabel":"28,87 Lei/kg","brand":"Edenia","brandCode":"56","brandFilterCode":"edenia-b52","sku":"100037388","price":12.99,"originalPrice":14.89,"currencyCode":"RON","currency":"Lei","image":{"thumbnail":{"default":"https://cdn.freshful.ro/media/cache/sylius_shop_product_thumbnail/bf/ce/b37877afbe642e985022a7410a75.jpg"},"large":{"default":"https://cdn.freshful.ro/media/cache/freshful_large/bf/ce/b37877afbe642e985022a7410a75.jpg"},"extralarge":{"default":"https://cdn.freshful.ro/media/cache/sylius_shop_product_original/bf/ce/b37877afbe642e985022a7410a75.jpg"}},"label":{"text":"-12%","backgroundColor":"#FF9903","textColor":"#FFFFFF"},"tags":[{"type":"vegan","text":"Vegan","icon":"https://cdn.freshful.ro/assets/product_tags/vegan.svg","iconPng":"https://cdn.freshful.ro/assets/product_tags/vegan.png","backgroundColor":"#ECF9F8","textColor":"#33A39C"},{"type":"NoGluten","text":"Fara gluten","icon":"https://cdn.freshful.ro/assets/product_tags/fara_gluten.svg","iconPng":"https://cdn.freshful.ro/assets/product_tags/fara_gluten.png","backgroundColor":"#FFF2E5","textColor":"#F07900"},{"type":"Frozen","text":"Congelat","icon":"https://cdn.freshful.ro/assets/product_tags/congelat.svg","iconPng":"https://cdn.freshful.ro/assets/product_tags/congelat.png","backgroundColor":"#EDF6FA","textColor":"#2E9AD1"}],"isAvailable":true,"maxAvailableQuantity":57,"maxAllowedQuantity":100,"breadcrumbs":[{"code":"6","name":"Înghețată & congelate","slug":"6-produse-congelate"},{"code":"602","name":"Legume și fructe congelate","slug":"602-legume-si-fructe-congelate"},{"code":"60202","name":"Amestec de legume congelate","slug":"60202-amestec-de-legume-congelat"},{"code":"100037388","name":"Legume pai 450g","slug":"100037388-edenia-legume-pai-450g"}],"activePromotion":{"code":"bunatatile-saptamanii-cw0923","name":"Preț redus","targetQuantity":null},"saveMe":null,"labels":[{"type":"v1","items":[{"text":"-12%","backgroundColor":"#FF9903","textColor":"#FFFFFF"}]}],"geniusPrice":null,"geniusUnitPricePerLabel":null,"banner":{"text":"Super preț","textColor":"#FF0000","bgColor":"#FFF2EC","icon":null,"link":"https://www.freshful.ro/oferte/bunatatile-saptamanii-cw0923","type":"promo","analyticsEventType":"select_promotion","analyticsEventPayload":{"promotion_id":"bunatatile-saptamanii-cw0923","promotion_name":"Oferta proaspătă a săptămânii"}},"discountLabel":"Economisești 12%","geniusDiscountLabel":null,"badge":null},{"code":"100037378","variantCode":"100037378","name":"Wellness mix 450g","slug":"100037378-edenia-wellness-mix-450g","unitPriceLabel":"17,76 Lei/kg","brand":"Edenia","brandCode":"56","brandFilterCode":"edenia-b52","sku":"100037378","price":7.99,"originalPrice":9.29,"currencyCode":"RON","currency":"Lei","image":{"thumbnail":{"default":"https://cdn.freshful.ro/media/cache/sylius_shop_product_thumbnail/2f/40/65846dcc91bee940c52a82025126.jpg"},"large":{"default":"https://cdn.freshful.ro/media/cache/freshful_large/2f/40/65846dcc91bee940c52a82025126.jpg"},"extralarge":{"default":"https://cdn.freshful.ro/media/cache/sylius_shop_product_original/2f/40/65846dcc91bee940c52a82025126.jpg"}},"label":{"text":"-13%","backgroundColor":"#FF9903","textColor":"#FFFFFF"},"tags":[{"type":"Frozen","text":"Congelat","icon":"https://cdn.freshful.ro/assets/product_tags/congelat.svg","iconPng":"https://cdn.freshful.ro/assets/product_tags/congelat.png","backgroundColor":"#EDF6FA","textColor":"#2E9AD1"}],"isAvailable":true,"maxAvailableQuantity":37,"maxAllowedQuantity":100,"breadcrumbs":[{"code":"6","name":"Înghețată & congelate","slug":"6-produse-congelate"},{"code":"602","name":"Legume și fructe congelate","slug":"602-legume-si-fructe-congelate"},{"code":"60202","name":"Amestec de legume congelate","slug":"60202-amestec-de-legume-congelat"},{"code":"100037378","name":"Wellness mix 450g","slug":"100037378-edenia-wellness-mix-450g"}],"activePromotion":{"code":"bunatatile-saptamanii-cw0923","name":"Preț redus","targetQuantity":null},"saveMe":null,"labels":[{"type":"v1","items":[{"text":"-13%","backgroundColor":"#FF9903","textColor":"#FFFFFF"}]}],"geniusPrice":null,"geniusUnitPricePerLabel":null,"banner":{"text":"Super preț","textColor":"#FF0000","bgColor":"#FFF2EC","icon":null,"link":"https://www.freshful.ro/oferte/bunatatile-saptamanii-cw0923","type":"promo","analyticsEventType":"select_promotion","analyticsEventPayload":{"promotion_id":"bunatatile-saptamanii-cw0923","promotion_name":"Oferta proaspătă a săptămânii"}},"discountLabel":"Economisești 13%","geniusDiscountLabel":null,"badge":null},{"code":"100039166","variantCode":"100039166","name":"Amestec de legume primăvară 400g","slug":"100039166-casa-taraneasca-amestec-de-legume-primavara-400g","unitPriceLabel":"16,23 Lei/kg","brand":"Casa Țărănească","brandCode":"725","brandFilterCode":"casa-taraneasca-b726","sku":"100039166","price":6.49,"originalPrice":8.15,"currencyCode":"RON","currency":"Lei","image":{"thumbnail":{"default":"https://cdn.freshful.ro/media/cache/sylius_shop_product_thumbnail/7f/19/80f0181434b75295355b379c0364.jpg"},"large":{"default":"https://cdn.freshful.ro/media/cache/freshful_large/7f/19/80f0181434b75295355b379c0364.jpg"},"extralarge":{"default":"https://cdn.freshful.ro/media/cache/sylius_shop_product_original/7f/19/80f0181434b75295355b379c0364.jpg"}},"label":{"text":"-20%","backgroundColor":"#FF9903","textColor":"#FFFFFF"},"tags":[{"type":"Frozen","text":"Congelat","icon":"https://cdn.freshful.ro/assets/product_tags/congelat.svg","iconPng":"https://cdn.freshful.ro/assets/product_tags/congelat.png","backgroundColor":"#EDF6FA","textColor":"#2E9AD1"}],"isAvailable":true,"maxAvailableQuantity":52,"maxAllowedQuantity":100,"breadcrumbs":[{"code":"6","name":"Înghețată & congelate","slug":"6-produse-congelate"},{"code":"602","name":"Legume și fructe congelate","slug":"602-legume-si-fructe-congelate"},{"code":"60202","name":"Amestec de legume congelate","slug":"60202-amestec-de-legume-congelat"},{"code":"100039166","name":"Amestec de legume primăvară 400g","slug":"100039166-casa-taraneasca-amestec-de-legume-primavara-400g"}],"activePromotion":{"code":"special-produse-vegane-mar23","name":"Preț redus","targetQuantity":null},"saveMe":null,"labels":[{"type":"v1","items":[{"text":"-20%","backgroundColor":"#FF9903","textColor":"#FFFFFF"}]}],"geniusPrice":null,"geniusUnitPricePerLabel":null,"banner":{"text":"Super preț","textColor":"#FF0000","bgColor":"#FFF2EC","icon":null,"link":"https://www.freshful.ro/oferte/special-produse-vegane-mar23","type":"promo","analyticsEventType":"select_promotion","analyticsEventPayload":{"promotion_id":"special-produse-vegane-mar23","promotion_name":"Și bun, și de post"}},"discountLabel":"Economisești 20%","geniusDiscountLabel":null,"badge":null},{"code":"100039171","variantCode":"100039171","name":"Amestec mexican de legume cu orez 400g","slug":"100039171-casa-taraneasca-amestec-mexican-de-legume-cu-orez-400g","unitPriceLabel":"19,98 Lei/kg","brand":"Casa Țărănească","brandCode":"725","brandFilterCode":"casa-taraneasca-b726","sku":"100039171","price":7.99,"originalPrice":11.79,"currencyCode":"RON","currency":"Lei","image":{"thumbnail":{"default":"https://cdn.freshful.ro/media/cache/sylius_shop_product_thumbnail/3e/ef/036da783170183ef7a78576ef231.jpg"},"large":{"default":"https://cdn.freshful.ro/media/cache/freshful_large/3e/ef/036da783170183ef7a78576ef231.jpg"},"extralarge":{"default":"https://cdn.freshful.ro/media/cache/sylius_shop_product_original/3e/ef/036da783170183ef7a78576ef231.jpg"}},"label":{"text":"-32%","backgroundColor":"#FF9903","textColor":"#FFFFFF"},"tags":[{"type":"Frozen","text":"Congelat","icon":"https://cdn.freshful.ro/assets/product_tags/congelat.svg","iconPng":"https://cdn.freshful.ro/assets/product_tags/congelat.png","backgroundColor":"#EDF6FA","textColor":"#2E9AD1"}],"isAvailable":true,"maxAvailableQuantity":100,"maxAllowedQuantity":100,"breadcrumbs":[{"code":"6","name":"Înghețată & congelate","slug":"6-produse-congelate"},{"code":"602","name":"Legume și fructe congelate","slug":"602-legume-si-fructe-congelate"},{"code":"60202","name":"Amestec de legume congelate","slug":"60202-amestec-de-legume-congelat"},{"code":"100039171","name":"Amestec mexican de legume cu orez 400g","slug":"100039171-casa-taraneasca-amestec-mexican-de-legume-cu-orez-400g"}],"activePromotion":{"code":"bunatatile-saptamanii-cw0923","name":"Preț redus","targetQuantity":null},"saveMe":null,"labels":[{"type":"v1","items":[{"text":"-32%","backgroundColor":"#FF9903","textColor":"#FFFFFF"}]}],"geniusPrice":null,"geniusUnitPricePerLabel":null,"banner":{"text":"Super preț","textColor":"#FF0000","bgColor":"#FFF2EC","icon":null,"link":"https://www.freshful.ro/oferte/bunatatile-saptamanii-cw0923","type":"promo","analyticsEventType":"select_promotion","analyticsEventPayload":{"promotion_id":"bunatatile-saptamanii-cw0923","promotion_name":"Oferta proaspătă a săptămânii"}},"discountLabel":"Economisești 32%","geniusDiscountLabel":null,"badge":null},{"code":"100144500","variantCode":"100144500","name":"Amestec Legume cu orez și ciuperci 400g","slug":"100144500-casa-taraneasca-amestec-legume-cu-orez-si-ciuperci-400g","unitPriceLabel":"19,98 Lei/kg","brand":"Casa Țărănească","brandCode":"725","brandFilterCode":"casa-taraneasca-b726","sku":"100144500","price":7.99,"originalPrice":9.99,"currencyCode":"RON","currency":"Lei","image":{"thumbnail":{"default":"https://cdn.freshful.ro/media/cache/sylius_shop_product_thumbnail/f3/f1/3314385cd8de2f17290091d7dfea.jpg"},"large":{"default":"https://cdn.freshful.ro/media/cache/freshful_large/f3/f1/3314385cd8de2f17290091d7dfea.jpg"},"extralarge":{"default":"https://cdn.freshful.ro/media/cache/sylius_shop_product_original/f3/f1/3314385cd8de2f17290091d7dfea.jpg"}},"label":{"text":"-20%","backgroundColor":"#FF9903","textColor":"#FFFFFF"},"tags":[{"type":"Frozen","text":"Congelat","icon":"https://cdn.freshful.ro/assets/product_tags/congelat.svg","iconPng":"https://cdn.freshful.ro/assets/product_tags/congelat.png","backgroundColor":"#EDF6FA","textColor":"#2E9AD1"}],"isAvailable":true,"maxAvailableQuantity":70,"maxAllowedQuantity":100,"breadcrumbs":[{"code":"6","name":"Înghețată & congelate","slug":"6-produse-congelate"},{"code":"602","name":"Legume și fructe congelate","slug":"602-legume-si-fructe-congelate"},{"code":"60202","name":"Amestec de legume congelate","slug":"60202-amestec-de-legume-congelat"},{"code":"100144500","name":"Amestec Legume cu orez și ciuperci 400g","slug":"100144500-casa-taraneasca-amestec-legume-cu-orez-si-ciuperci-400g"}],"activePromotion":{"code":"bunatatile-saptamanii-cw0923","name":"Preț redus","targetQuantity":null},"saveMe":null,"labels":[{"type":"v1","items":[{"text":"-20%","backgroundColor":"#FF9903","textColor":"#FFFFFF"}]}],"geniusPrice":null,"geniusUnitPricePerLabel":null,"banner":{"text":"Super preț","textColor":"#FF0000","bgColor":"#FFF2EC","icon":null,"link":"https://www.freshful.ro/oferte/bunatatile-saptamanii-cw0923","type":"promo","analyticsEventType":"select_promotion","analyticsEventPayload":{"promotion_id":"bunatatile-saptamanii-cw0923","promotion_name":"Oferta proaspătă a săptămânii"}},"discountLabel":"Economisești 20%","geniusDiscountLabel":null,"badge":null},{"code":"100039172","variantCode":"100039172","name":"Pilaf cu legume 400g","slug":"100039172-casa-taraneasca-pilaf-cu-legume-400g","unitPriceLabel":"22,48 Lei/kg","brand":"Casa Țărănească","brandCode":"725","brandFilterCode":"casa-taraneasca-b726","sku":"100039172","price":8.99,"originalPrice":11.49,"currencyCode":"RON","currency":"Lei","image":{"thumbnail":{"default":"https://cdn.freshful.ro/media/cache/sylius_shop_product_thumbnail/63/9e/a890aee9a6c09699f47f6bf0549c.jpg"},"large":{"default":"https://cdn.freshful.ro/media/cache/freshful_large/63/9e/a890aee9a6c09699f47f6bf0549c.jpg"},"extralarge":{"default":"https://cdn.freshful.ro/media/cache/sylius_shop_product_original/63/9e/a890aee9a6c09699f47f6bf0549c.jpg"}},"label":{"text":"-21%","backgroundColor":"#FF9903","textColor":"#FFFFFF"},"tags":[{"type":"Frozen","text":"Congelat","icon":"https://cdn.freshful.ro/assets/product_tags/congelat.svg","iconPng":"https://cdn.freshful.ro/assets/product_tags/congelat.png","backgroundColor":"#EDF6FA","textColor":"#2E9AD1"}],"isAvailable":true,"maxAvailableQuantity":13,"maxAllowedQuantity":100,"breadcrumbs":[{"code":"6","name":"Înghețată & congelate","slug":"6-produse-congelate"},{"code":"602","name":"Legume și fructe congelate","slug":"602-legume-si-fructe-congelate"},{"code":"60202","name":"Amestec de legume congelate","slug":"60202-amestec-de-legume-congelat"},{"code":"100039172","name":"Pilaf cu legume 400g","slug":"100039172-casa-taraneasca-pilaf-cu-legume-400g"}],"activePromotion":{"code":"bunatatile-saptamanii-cw0923","name":"Preț redus","targetQuantity":null},"saveMe":null,"labels":[{"type":"v1","items":[{"text":"-21%","backgroundColor":"#FF9903","textColor":"#FFFFFF"}]}],"geniusPrice":null,"geniusUnitPricePerLabel":null,"banner":{"text":"Super preț","textColor":"#FF0000","bgColor":"#FFF2EC","icon":null,"link":"https://www.freshful.ro/oferte/bunatatile-saptamanii-cw0923","type":"promo","analyticsEventType":"select_promotion","analyticsEventPayload":{"promotion_id":"bunatatile-saptamanii-cw0923","promotion_name":"Oferta proaspătă a săptămânii"}},"discountLabel":"Economisești 21%","geniusDiscountLabel":null,"badge":null},{"code":"100144497","variantCode":"100144497","name":"Amestec legume pentru Ciorbă de perișoare 400g","slug":"100144497-casa-taraneasca-amestec-legume-pentru-ciorba-de-perisoare-400g","unitPriceLabel":"17,48 Lei/kg","brand":"Casa Țărănească","brandCode":"725","brandFilterCode":"casa-taraneasca-b726","sku":"100144497","price":6.99,"originalPrice":null,"currencyCode":"RON","currency":"Lei","image":{"thumbnail":{"default":"https://cdn.freshful.ro/media/cache/sylius_shop_product_thumbnail/c4/20/5220f09e1aba3877129995d2610f.jpg"},"large":{"default":"https://cdn.freshful.ro/media/cache/freshful_large/c4/20/5220f09e1aba3877129995d2610f.jpg"},"extralarge":{"default":"https://cdn.freshful.ro/media/cache/sylius_shop_product_original/c4/20/5220f09e1aba3877129995d2610f.jpg"}},"label":null,"tags":[{"type":"Frozen","text":"Congelat","icon":"https://cdn.freshful.ro/assets/product_tags/congelat.svg","iconPng":"https://cdn.freshful.ro/assets/product_tags/congelat.png","backgroundColor":"#EDF6FA","textColor":"#2E9AD1"}],"isAvailable":true,"maxAvailableQuantity":100,"maxAllowedQuantity":100,"breadcrumbs":[{"code":"6","name":"Înghețată & congelate","slug":"6-produse-congelate"},{"code":"602","name":"Legume și fructe congelate","slug":"602-legume-si-fructe-congelate"},{"code":"60202","name":"Amestec de legume congelate","slug":"60202-amestec-de-legume-congelat"},{"code":"100144497","name":"Amestec legume pentru Ciorbă de perișoare 400g","slug":"100144497-casa-taraneasca-amestec-legume-pentru-ciorba-de-perisoare-400g"}],"activePromotion":null,"saveMe":null,"labels":[],"geniusPrice":null,"geniusUnitPricePerLabel":null,"banner":null,"discountLabel":null,"geniusDiscountLabel":null,"badge":null},{"code":"100074867","variantCode":"100074867","name":"Amestec legume Provence 400g","slug":"100074867-frosta-amestec-legume-provence-400g","unitPriceLabel":"22,48 Lei/kg","brand":"Frosta","brandCode":"1030","brandFilterCode":"frosta-b1030","sku":"100074867","price":8.99,"originalPrice":null,"currencyCode":"RON","currency":"Lei","image":{"thumbnail":{"default":"https://cdn.freshful.ro/media/cache/sylius_shop_product_thumbnail/6f/d0/95ee45f578545475322527890ccd.jpg"},"large":{"default":"https://cdn.freshful.ro/media/cache/freshful_large/6f/d0/95ee45f578545475322527890ccd.jpg"},"extralarge":{"default":"https://cdn.freshful.ro/media/cache/sylius_shop_product_original/6f/d0/95ee45f578545475322527890ccd.jpg"}},"label":null,"tags":[{"type":"Frozen","text":"Congelat","icon":"https://cdn.freshful.ro/assets/product_tags/congelat.svg","iconPng":"https://cdn.freshful.ro/assets/product_tags/congelat.png","backgroundColor":"#EDF6FA","textColor":"#2E9AD1"}],"isAvailable":true,"maxAvailableQuantity":30,"maxAllowedQuantity":100,"breadcrumbs":[{"code":"6","name":"Înghețată & congelate","slug":"6-produse-congelate"},{"code":"602","name":"Legume și fructe congelate","slug":"602-legume-si-fructe-congelate"},{"code":"60202","name":"Amestec de legume congelate","slug":"60202-amestec-de-legume-congelat"},{"code":"100074867","name":"Amestec legume Provence 400g","slug":"100074867-frosta-amestec-legume-provence-400g"}],"activePromotion":null,"saveMe":null,"labels":[],"geniusPrice":null,"geniusUnitPricePerLabel":null,"banner":null,"discountLabel":null,"geniusDiscountLabel":null,"badge":null},{"code":"100037381","variantCode":"100037381","name":"Legume pentru ciorbă de perișoare 450g","slug":"100037381-edenia-legume-pentru-ciorba-de-perisoare-450g","unitPriceLabel":"16,87 Lei/kg","brand":"Edenia","brandCode":"56","brandFilterCode":"edenia-b52","sku":"100037381","price":7.59,"originalPrice":null,"currencyCode":"RON","currency":"Lei","image":{"thumbnail":{"default":"https://cdn.freshful.ro/media/cache/sylius_shop_product_thumbnail/69/6f/fa1f565f4b664e2246d25d19285c.jpg"},"large":{"default":"https://cdn.freshful.ro/media/cache/freshful_large/69/6f/fa1f565f4b664e2246d25d19285c.jpg"},"extralarge":{"default":"https://cdn.freshful.ro/media/cache/sylius_shop_product_original/69/6f/fa1f565f4b664e2246d25d19285c.jpg"}},"label":null,"tags":[{"type":"Frozen","text":"Congelat","icon":"https://cdn.freshful.ro/assets/product_tags/congelat.svg","iconPng":"https://cdn.freshful.ro/assets/product_tags/congelat.png","backgroundColor":"#EDF6FA","textColor":"#2E9AD1"}],"isAvailable":true,"maxAvailableQuantity":91,"maxAllowedQuantity":100,"breadcrumbs":[{"code":"6","name":"Înghețată & congelate","slug":"6-produse-congelate"},{"code":"602","name":"Legume și fructe congelate","slug":"602-legume-si-fructe-congelate"},{"code":"60202","name":"Amestec de legume congelate","slug":"60202-amestec-de-legume-congelat"},{"code":"100037381","name":"Legume pentru ciorbă de perișoare 450g","slug":"100037381-edenia-legume-pentru-ciorba-de-perisoare-450g"}],"activePromotion":null,"saveMe":null,"labels":[],"geniusPrice":null,"geniusUnitPricePerLabel":null,"banner":null,"discountLabel":null,"geniusDiscountLabel":null,"badge":null},{"code":"100037377","variantCode":"100037377","name":"Amestec în stil Hawaii 450g","slug":"100037377-edenia-amestec-in-stil-hawaii-450g","unitPriceLabel":"20,64 Lei/kg","brand":"Edenia","brandCode":"56","brandFilterCode":"edenia-b52","sku":"100037377","price":9.29,"originalPrice":null,"currencyCode":"RON","currency":"Lei","image":{"thumbnail":{"default":"https://cdn.freshful.ro/media/cache/sylius_shop_product_thumbnail/26/ba/9b035fd264d64483dab40706e5c1.jpg"},"large":{"default":"https://cdn.freshful.ro/media/cache/freshful_large/26/ba/9b035fd264d64483dab40706e5c1.jpg"},"extralarge":{"default":"https://cdn.freshful.ro/media/cache/sylius_shop_product_original/26/ba/9b035fd264d64483dab40706e5c1.jpg"}},"label":null,"tags":[{"type":"Frozen","text":"Congelat","icon":"https://cdn.freshful.ro/assets/product_tags/congelat.svg","iconPng":"https://cdn.freshful.ro/assets/product_tags/congelat.png","backgroundColor":"#EDF6FA","textColor":"#2E9AD1"}],"isAvailable":true,"maxAvailableQuantity":85,"maxAllowedQuantity":100,"breadcrumbs":[{"code":"6","name":"Înghețată & congelate","slug":"6-produse-congelate"},{"code":"602","name":"Legume și fructe congelate","slug":"602-legume-si-fructe-congelate"},{"code":"60202","name":"Amestec de legume congelate","slug":"60202-amestec-de-legume-congelat"},{"code":"100037377","name":"Amestec în stil Hawaii 450g","slug":"100037377-edenia-amestec-in-stil-hawaii-450g"}],"activePromotion":null,"saveMe":null,"labels":[],"geniusPrice":null,"geniusUnitPricePerLabel":null,"banner":null,"discountLabel":null,"geniusDiscountLabel":null,"badge":null}],"filters":{"countSelected":0,"items":[{"code":"promotion","name":"Promoții","countSelected":0,"values":[{"code":"bunatatile-saptamanii-cw0923","name":"Oferta proaspătă a săptămânii","isSelected":false,"count":6},{"code":"special-produse-vegane-mar23","name":"Și bun, și de post","isSelected":false,"count":1}]},{"code":"brand","name":"Brand","countSelected":0,"values":[{"code":"ardo-b844","name":"Ardo","isSelected":false,"count":1},{"code":"barba-stathis-b846","name":"Barba Stathis","isSelected":false,"count":1},{"code":"bonduelle-b202","name":"Bonduelle","isSelected":false,"count":8},{"code":"casa-taraneasca-b726","name":"Casa Țărănească","isSelected":false,"count":12},{"code":"edenia-b52","name":"Edenia","isSelected":false,"count":10},{"code":"frosta-b1030","name":"Frosta","isSelected":false,"count":2},{"code":"gradena-b1001","name":"Gradena","isSelected":false,"count":2},{"code":"piramida-b3085","name":"Piramida","isSelected":false,"count":1}]},{"code":"diet_lifestyle","name":"Dietă și lifestyle","countSelected":0,"values":[{"code":"congelat-a66","name":"Congelat","isSelected":false,"count":37},{"code":"eco-a83","name":"Eco","isSelected":false,"count":1},{"code":"fara-gluten-a16","name":"Fara gluten","isSelected":false,"count":1},{"code":"made-in-romania-a85","name":"Made In Romania","isSelected":false,"count":2},{"code":"vegan-a24","name":"Vegan","isSelected":false,"count":1}]}]},"orderBy":[{"field":"price","direction":"asc","name":"Preț crescător","isSelected":false},{"field":"price","direction":"desc","name":"Preț descrescător","isSelected":false},{"field":"popularity","direction":"desc","name":"Cele mai populare","isSelected":true},{"field":"category","direction":"asc","name":"Categorie","isSelected":false}],"metaTitle":"Amestec de legume congelate - Gamă variată","metaDescription":"Vrei Amestec de legume congelate? Alege dintr-o gamă variată. Comanzi simplu și ai livrare rapidă, calitate și prospețime. Hai pe Freshful.ro","metaKeywords":null,"banners":[]}}