{"type":"subcategory","payload":{"analyticsListId":"category_603-semipreparate-congelate","analyticsListName":"Category - Semipreparate congelate","name":"Semipreparate congelate","slug":"603-semipreparate-congelate","image":null,"breadcrumbs":[{"code":"6","name":"Înghețată & congelate","slug":"6-produse-congelate"},{"code":"603","name":"Semipreparate congelate","slug":"603-semipreparate-congelate"}],"slots":[],"page":1,"limit":10,"pages":10,"count":100,"siblings":[{"name":"Înghețată și deserturi congelate","slug":"604-inghetata-si-deserturi-congelate","selected":false},{"name":"Carne și pește congelate","slug":"601-carne-si-peste-congelate","selected":false},{"name":"Legume și fructe congelate","slug":"602-legume-si-fructe-congelate","selected":false},{"name":"Semipreparate congelate","slug":"603-semipreparate-congelate","selected":true}],"children":[{"name":"Toate produsele","slug":"603-semipreparate-congelate","selected":true},{"name":"Pizza congelată","slug":"60301-pizza-congelata","selected":false},{"name":"Gustări și antreuri congelate","slug":"60302-gustari-si-antreuri-congelate","selected":false},{"name":"Mâncare semipreparată congelată","slug":"60303-mancare-semipreparata-congelata","selected":false}],"products":[{"code":"100124557","variantCode":"100124557","name":"Falafel 450g","slug":"100124557-edenia-falafel-450g","unitPriceLabel":"33,31 Lei/kg","brand":"Edenia","brandCode":"56","brandFilterCode":"edenia-b52","sku":"100124557","price":14.99,"originalPrice":18.99,"currencyCode":"RON","currency":"Lei","image":{"thumbnail":{"default":"https://cdn.freshful.ro/media/cache/sylius_shop_product_thumbnail/bc/1b/e70c6a519f37d049db4a32f6cd9f.jpg"},"large":{"default":"https://cdn.freshful.ro/media/cache/freshful_large/bc/1b/e70c6a519f37d049db4a32f6cd9f.jpg"},"extralarge":{"default":"https://cdn.freshful.ro/media/cache/sylius_shop_product_original/bc/1b/e70c6a519f37d049db4a32f6cd9f.jpg"}},"label":{"text":"-21%","backgroundColor":"#FF9903","textColor":"#FFFFFF"},"tags":[{"type":"vegan","text":"Vegan","icon":"https://cdn.freshful.ro/assets/product_tags/vegan.svg","iconPng":"https://cdn.freshful.ro/assets/product_tags/vegan.png","backgroundColor":"#ECF9F8","textColor":"#33A39C"},{"type":"Frozen","text":"Congelat","icon":"https://cdn.freshful.ro/assets/product_tags/congelat.svg","iconPng":"https://cdn.freshful.ro/assets/product_tags/congelat.png","backgroundColor":"#EDF6FA","textColor":"#2E9AD1"}],"isAvailable":true,"maxAvailableQuantity":78,"maxAllowedQuantity":100,"breadcrumbs":[{"code":"6","name":"Înghețată & congelate","slug":"6-produse-congelate"},{"code":"603","name":"Semipreparate congelate","slug":"603-semipreparate-congelate"},{"code":"60303","name":"Mâncare semipreparată congelată","slug":"60303-mancare-semipreparata-congelata"},{"code":"100124557","name":"Falafel 450g","slug":"100124557-edenia-falafel-450g"}],"activePromotion":{"code":"special-produse-vegane-mar23","name":"Preț redus","targetQuantity":null},"saveMe":null,"labels":[{"type":"v1","items":[{"text":"-21%","backgroundColor":"#FF9903","textColor":"#FFFFFF"}]}],"geniusPrice":null,"geniusUnitPricePerLabel":null,"banner":{"text":"Super preț","textColor":"#FF0000","bgColor":"#FFF2EC","icon":null,"link":"https://www.freshful.ro/oferte/special-produse-vegane-mar23","type":"promo","analyticsEventType":"select_promotion","analyticsEventPayload":{"promotion_id":"special-produse-vegane-mar23","promotion_name":"Și bun, și de post"}},"discountLabel":"Economisești 21%","geniusDiscountLabel":null,"badge":null},{"code":"100037336","variantCode":"100037336","name":"Risotto cu ciuperci 400g","slug":"100037336-edenia-risotto-cu-ciuperci-400g","unitPriceLabel":"37,48 Lei/kg","brand":"Edenia","brandCode":"56","brandFilterCode":"edenia-b52","sku":"100037336","price":14.99,"originalPrice":17.49,"currencyCode":"RON","currency":"Lei","image":{"thumbnail":{"default":"https://cdn.freshful.ro/media/cache/sylius_shop_product_thumbnail/bc/09/586ec5a44b616b99b4c0ff0596b2.jpg"},"large":{"default":"https://cdn.freshful.ro/media/cache/freshful_large/bc/09/586ec5a44b616b99b4c0ff0596b2.jpg"},"extralarge":{"default":"https://cdn.freshful.ro/media/cache/sylius_shop_product_original/bc/09/586ec5a44b616b99b4c0ff0596b2.jpg"}},"label":{"text":"-14%","backgroundColor":"#FF9903","textColor":"#FFFFFF"},"tags":[{"type":"Frozen","text":"Congelat","icon":"https://cdn.freshful.ro/assets/product_tags/congelat.svg","iconPng":"https://cdn.freshful.ro/assets/product_tags/congelat.png","backgroundColor":"#EDF6FA","textColor":"#2E9AD1"}],"isAvailable":true,"maxAvailableQuantity":29,"maxAllowedQuantity":100,"breadcrumbs":[{"code":"6","name":"Înghețată & congelate","slug":"6-produse-congelate"},{"code":"603","name":"Semipreparate congelate","slug":"603-semipreparate-congelate"},{"code":"60303","name":"Mâncare semipreparată congelată","slug":"60303-mancare-semipreparata-congelata"},{"code":"100037336","name":"Risotto cu ciuperci 400g","slug":"100037336-edenia-risotto-cu-ciuperci-400g"}],"activePromotion":{"code":"bunatatile-saptamanii-cw0923","name":"Preț redus","targetQuantity":null},"saveMe":null,"labels":[{"type":"v1","items":[{"text":"-14%","backgroundColor":"#FF9903","textColor":"#FFFFFF"}]}],"geniusPrice":null,"geniusUnitPricePerLabel":null,"banner":{"text":"Super preț","textColor":"#FF0000","bgColor":"#FFF2EC","icon":null,"link":"https://www.freshful.ro/oferte/bunatatile-saptamanii-cw0923","type":"promo","analyticsEventType":"select_promotion","analyticsEventPayload":{"promotion_id":"bunatatile-saptamanii-cw0923","promotion_name":"Oferta proaspătă a săptămânii"}},"discountLabel":"Economisești 14%","geniusDiscountLabel":null,"badge":null},{"code":"100074860","variantCode":"100074860","name":"Tagliatelle cu somon 400g","slug":"100074860-frosta-tagliatelle-cu-somon-400g","unitPriceLabel":"42,23 Lei/kg","brand":"Frosta","brandCode":"1030","brandFilterCode":"frosta-b1030","sku":"100074860","price":16.89,"originalPrice":17.99,"currencyCode":"RON","currency":"Lei","image":{"thumbnail":{"default":"https://cdn.freshful.ro/media/cache/sylius_shop_product_thumbnail/97/d6/8e29ca4cbd6a8f2ef6378624615a.jpg"},"large":{"default":"https://cdn.freshful.ro/media/cache/freshful_large/97/d6/8e29ca4cbd6a8f2ef6378624615a.jpg"},"extralarge":{"default":"https://cdn.freshful.ro/media/cache/sylius_shop_product_original/97/d6/8e29ca4cbd6a8f2ef6378624615a.jpg"}},"label":{"text":"-6%","backgroundColor":"#FF9903","textColor":"#FFFFFF"},"tags":[{"type":"Frozen","text":"Congelat","icon":"https://cdn.freshful.ro/assets/product_tags/congelat.svg","iconPng":"https://cdn.freshful.ro/assets/product_tags/congelat.png","backgroundColor":"#EDF6FA","textColor":"#2E9AD1"}],"isAvailable":true,"maxAvailableQuantity":35,"maxAllowedQuantity":100,"breadcrumbs":[{"code":"6","name":"Înghețată & congelate","slug":"6-produse-congelate"},{"code":"603","name":"Semipreparate congelate","slug":"603-semipreparate-congelate"},{"code":"60303","name":"Mâncare semipreparată congelată","slug":"60303-mancare-semipreparata-congelata"},{"code":"100074860","name":"Tagliatelle cu somon 400g","slug":"100074860-frosta-tagliatelle-cu-somon-400g"}],"activePromotion":{"code":"freshful-top-deals-2023","name":"Preț redus","targetQuantity":null},"saveMe":null,"labels":[{"type":"v1","items":[{"text":"-6%","backgroundColor":"#FF9903","textColor":"#FFFFFF"}]}],"geniusPrice":null,"geniusUnitPricePerLabel":null,"banner":{"text":"Super preț","textColor":"#FF0000","bgColor":"#FFF2EC","icon":null,"link":"https://www.freshful.ro/oferte/freshful-top-deals-2023","type":"promo","analyticsEventType":"select_promotion","analyticsEventPayload":{"promotion_id":"freshful-top-deals-2023","promotion_name":"Profită de Top Deals"}},"discountLabel":"Economisești 6%","geniusDiscountLabel":null,"badge":null},{"code":"100063187","variantCode":"100063187","name":"Falafel vegan 325g","slug":"100063187-naturli-falafel-vegan-325g","unitPriceLabel":"49,2 Lei/kg","brand":"Naturli'","brandCode":"946","brandFilterCode":"naturli-b946","sku":"100063187","price":15.99,"originalPrice":18.49,"currencyCode":"RON","currency":"Lei","image":{"thumbnail":{"default":"https://cdn.freshful.ro/media/cache/sylius_shop_product_thumbnail/66/e8/f9ba7604216065e487f6b38869c7.jpg"},"large":{"default":"https://cdn.freshful.ro/media/cache/freshful_large/66/e8/f9ba7604216065e487f6b38869c7.jpg"},"extralarge":{"default":"https://cdn.freshful.ro/media/cache/sylius_shop_product_original/66/e8/f9ba7604216065e487f6b38869c7.jpg"}},"label":{"text":"-13%","backgroundColor":"#FF9903","textColor":"#FFFFFF"},"tags":[{"type":"vegan","text":"Vegan","icon":"https://cdn.freshful.ro/assets/product_tags/vegan.svg","iconPng":"https://cdn.freshful.ro/assets/product_tags/vegan.png","backgroundColor":"#ECF9F8","textColor":"#33A39C"},{"type":"NoGluten","text":"Fara gluten","icon":"https://cdn.freshful.ro/assets/product_tags/fara_gluten.svg","iconPng":"https://cdn.freshful.ro/assets/product_tags/fara_gluten.png","backgroundColor":"#FFF2E5","textColor":"#F07900"},{"type":"Frozen","text":"Congelat","icon":"https://cdn.freshful.ro/assets/product_tags/congelat.svg","iconPng":"https://cdn.freshful.ro/assets/product_tags/congelat.png","backgroundColor":"#EDF6FA","textColor":"#2E9AD1"}],"isAvailable":true,"maxAvailableQuantity":8,"maxAllowedQuantity":100,"breadcrumbs":[{"code":"6","name":"Înghețată & congelate","slug":"6-produse-congelate"},{"code":"603","name":"Semipreparate congelate","slug":"603-semipreparate-congelate"},{"code":"60303","name":"Mâncare semipreparată congelată","slug":"60303-mancare-semipreparata-congelata"},{"code":"100063187","name":"Falafel vegan 325g","slug":"100063187-naturli-falafel-vegan-325g"}],"activePromotion":{"code":"special-produse-vegane-mar23","name":"Preț redus","targetQuantity":null},"saveMe":null,"labels":[{"type":"v1","items":[{"text":"-13%","backgroundColor":"#FF9903","textColor":"#FFFFFF"}]}],"geniusPrice":null,"geniusUnitPricePerLabel":null,"banner":{"text":"Super preț","textColor":"#FF0000","bgColor":"#FFF2EC","icon":null,"link":"https://www.freshful.ro/oferte/special-produse-vegane-mar23","type":"promo","analyticsEventType":"select_promotion","analyticsEventPayload":{"promotion_id":"special-produse-vegane-mar23","promotion_name":"Și bun, și de post"}},"discountLabel":"Economisești 13%","geniusDiscountLabel":null,"badge":null},{"code":"100063184","variantCode":"100063184","name":"Chifteluțe vegane 300g","slug":"100063184-naturli-chiftelute-vegane-300g","unitPriceLabel":"51,63 Lei/kg","brand":"Naturli'","brandCode":"946","brandFilterCode":"naturli-b946","sku":"100063184","price":15.49,"originalPrice":18.29,"currencyCode":"RON","currency":"Lei","image":{"thumbnail":{"default":"https://cdn.freshful.ro/media/cache/sylius_shop_product_thumbnail/89/71/9cfa3e52e53fc6f9b090091356fc.jpg"},"large":{"default":"https://cdn.freshful.ro/media/cache/freshful_large/89/71/9cfa3e52e53fc6f9b090091356fc.jpg"},"extralarge":{"default":"https://cdn.freshful.ro/media/cache/sylius_shop_product_original/89/71/9cfa3e52e53fc6f9b090091356fc.jpg"}},"label":{"text":"-15%","backgroundColor":"#FF9903","textColor":"#FFFFFF"},"tags":[{"type":"vegan","text":"Vegan","icon":"https://cdn.freshful.ro/assets/product_tags/vegan.svg","iconPng":"https://cdn.freshful.ro/assets/product_tags/vegan.png","backgroundColor":"#ECF9F8","textColor":"#33A39C"},{"type":"NoGluten","text":"Fara gluten","icon":"https://cdn.freshful.ro/assets/product_tags/fara_gluten.svg","iconPng":"https://cdn.freshful.ro/assets/product_tags/fara_gluten.png","backgroundColor":"#FFF2E5","textColor":"#F07900"},{"type":"Frozen","text":"Congelat","icon":"https://cdn.freshful.ro/assets/product_tags/congelat.svg","iconPng":"https://cdn.freshful.ro/assets/product_tags/congelat.png","backgroundColor":"#EDF6FA","textColor":"#2E9AD1"}],"isAvailable":true,"maxAvailableQuantity":25,"maxAllowedQuantity":100,"breadcrumbs":[{"code":"6","name":"Înghețată & congelate","slug":"6-produse-congelate"},{"code":"603","name":"Semipreparate congelate","slug":"603-semipreparate-congelate"},{"code":"60303","name":"Mâncare semipreparată congelată","slug":"60303-mancare-semipreparata-congelata"},{"code":"100063184","name":"Chifteluțe vegane 300g","slug":"100063184-naturli-chiftelute-vegane-300g"}],"activePromotion":{"code":"special-produse-vegane-mar23","name":"Preț redus","targetQuantity":null},"saveMe":null,"labels":[{"type":"v1","items":[{"text":"-15%","backgroundColor":"#FF9903","textColor":"#FFFFFF"}]}],"geniusPrice":null,"geniusUnitPricePerLabel":null,"banner":{"text":"Super preț","textColor":"#FF0000","bgColor":"#FFF2EC","icon":null,"link":"https://www.freshful.ro/oferte/special-produse-vegane-mar23","type":"promo","analyticsEventType":"select_promotion","analyticsEventPayload":{"promotion_id":"special-produse-vegane-mar23","promotion_name":"Și bun, și de post"}},"discountLabel":"Economisești 15%","geniusDiscountLabel":null,"badge":null},{"code":"100124558","variantCode":"100124558","name":"Veggie Tots 450g","slug":"100124558-edenia-veggie-tots-450g","unitPriceLabel":"39,98 Lei/kg","brand":"Edenia","brandCode":"56","brandFilterCode":"edenia-b52","sku":"100124558","price":17.99,"originalPrice":20.49,"currencyCode":"RON","currency":"Lei","image":{"thumbnail":{"default":"https://cdn.freshful.ro/media/cache/sylius_shop_product_thumbnail/8e/67/b4869188cced0d2aaba372daac10.jpg"},"large":{"default":"https://cdn.freshful.ro/media/cache/freshful_large/8e/67/b4869188cced0d2aaba372daac10.jpg"},"extralarge":{"default":"https://cdn.freshful.ro/media/cache/sylius_shop_product_original/8e/67/b4869188cced0d2aaba372daac10.jpg"}},"label":{"text":"-12%","backgroundColor":"#FF9903","textColor":"#FFFFFF"},"tags":[{"type":"NoGluten","text":"Fara gluten","icon":"https://cdn.freshful.ro/assets/product_tags/fara_gluten.svg","iconPng":"https://cdn.freshful.ro/assets/product_tags/fara_gluten.png","backgroundColor":"#FFF2E5","textColor":"#F07900"},{"type":"Frozen","text":"Congelat","icon":"https://cdn.freshful.ro/assets/product_tags/congelat.svg","iconPng":"https://cdn.freshful.ro/assets/product_tags/congelat.png","backgroundColor":"#EDF6FA","textColor":"#2E9AD1"}],"isAvailable":true,"maxAvailableQuantity":35,"maxAllowedQuantity":100,"breadcrumbs":[{"code":"6","name":"Înghețată & congelate","slug":"6-produse-congelate"},{"code":"603","name":"Semipreparate congelate","slug":"603-semipreparate-congelate"},{"code":"60303","name":"Mâncare semipreparată congelată","slug":"60303-mancare-semipreparata-congelata"},{"code":"100124558","name":"Veggie Tots 450g","slug":"100124558-edenia-veggie-tots-450g"}],"activePromotion":{"code":"special-produse-vegane-mar23","name":"Preț redus","targetQuantity":null},"saveMe":null,"labels":[{"type":"v1","items":[{"text":"-12%","backgroundColor":"#FF9903","textColor":"#FFFFFF"}]}],"geniusPrice":null,"geniusUnitPricePerLabel":null,"banner":{"text":"Super preț","textColor":"#FF0000","bgColor":"#FFF2EC","icon":null,"link":"https://www.freshful.ro/oferte/special-produse-vegane-mar23","type":"promo","analyticsEventType":"select_promotion","analyticsEventPayload":{"promotion_id":"special-produse-vegane-mar23","promotion_name":"Și bun, și de post"}},"discountLabel":"Economisești 12%","geniusDiscountLabel":null,"badge":null},{"code":"100142660","variantCode":"100142660","name":"Pizza Quattro Verdure 410g","slug":"100142660-edenia-pizza-quattro-verdure-410g","unitPriceLabel":"46,32 Lei/kg","brand":"Edenia","brandCode":"56","brandFilterCode":"edenia-b52","sku":"100142660","price":18.99,"originalPrice":21.79,"currencyCode":"RON","currency":"Lei","image":{"thumbnail":{"default":"https://cdn.freshful.ro/media/cache/sylius_shop_product_thumbnail/f3/70/9a2a91b6c78ec7996eef86f24743.jpg"},"large":{"default":"https://cdn.freshful.ro/media/cache/freshful_large/f3/70/9a2a91b6c78ec7996eef86f24743.jpg"},"extralarge":{"default":"https://cdn.freshful.ro/media/cache/sylius_shop_product_original/f3/70/9a2a91b6c78ec7996eef86f24743.jpg"}},"label":{"text":"-12%","backgroundColor":"#FF9903","textColor":"#FFFFFF"},"tags":[{"type":"Frozen","text":"Congelat","icon":"https://cdn.freshful.ro/assets/product_tags/congelat.svg","iconPng":"https://cdn.freshful.ro/assets/product_tags/congelat.png","backgroundColor":"#EDF6FA","textColor":"#2E9AD1"}],"isAvailable":true,"maxAvailableQuantity":20,"maxAllowedQuantity":100,"breadcrumbs":[{"code":"6","name":"Înghețată & congelate","slug":"6-produse-congelate"},{"code":"603","name":"Semipreparate congelate","slug":"603-semipreparate-congelate"},{"code":"60301","name":"Pizza congelată","slug":"60301-pizza-congelata"},{"code":"100142660","name":"Pizza Quattro Verdure 410g","slug":"100142660-edenia-pizza-quattro-verdure-410g"}],"activePromotion":{"code":"bunatatile-saptamanii-cw0923","name":"Preț redus","targetQuantity":null},"saveMe":null,"labels":[{"type":"v1","items":[{"text":"-12%","backgroundColor":"#FF9903","textColor":"#FFFFFF"}]}],"geniusPrice":null,"geniusUnitPricePerLabel":null,"banner":{"text":"Super preț","textColor":"#FF0000","bgColor":"#FFF2EC","icon":null,"link":"https://www.freshful.ro/oferte/bunatatile-saptamanii-cw0923","type":"promo","analyticsEventType":"select_promotion","analyticsEventPayload":{"promotion_id":"bunatatile-saptamanii-cw0923","promotion_name":"Oferta proaspătă a săptămânii"}},"discountLabel":"Economisești 12%","geniusDiscountLabel":null,"badge":null},{"code":"100150036","variantCode":"100150036","name":"Pizza cu șuncă și mozzarella 390g","slug":"100150036-tomi-pizza-cu-sunca-si-mozzarella-390g","unitPriceLabel":"69,21 Lei/kg","brand":"Tomi","brandCode":"260","brandFilterCode":"tomi-b261","sku":"100150036","price":26.99,"originalPrice":null,"currencyCode":"RON","currency":"Lei","image":{"thumbnail":{"default":"https://cdn.freshful.ro/media/cache/sylius_shop_product_thumbnail/46/e2/2088e5ed87dcc21986237d5eb637.jpg"},"large":{"default":"https://cdn.freshful.ro/media/cache/freshful_large/46/e2/2088e5ed87dcc21986237d5eb637.jpg"},"extralarge":{"default":"https://cdn.freshful.ro/media/cache/sylius_shop_product_original/46/e2/2088e5ed87dcc21986237d5eb637.jpg"}},"label":{"text":"-20% cu Genius","backgroundColor":"#FEF3FA","textColor":"#CD015F"},"tags":[{"type":"Frozen","text":"Congelat","icon":"https://cdn.freshful.ro/assets/product_tags/congelat.svg","iconPng":"https://cdn.freshful.ro/assets/product_tags/congelat.png","backgroundColor":"#EDF6FA","textColor":"#2E9AD1"}],"isAvailable":true,"maxAvailableQuantity":100,"maxAllowedQuantity":100,"breadcrumbs":[{"code":"6","name":"Înghețată & congelate","slug":"6-produse-congelate"},{"code":"603","name":"Semipreparate congelate","slug":"603-semipreparate-congelate"},{"code":"60301","name":"Pizza congelată","slug":"60301-pizza-congelata"},{"code":"100150036","name":"Pizza cu șuncă și mozzarella 390g","slug":"100150036-tomi-pizza-cu-sunca-si-mozzarella-390g"}],"activePromotion":null,"saveMe":null,"labels":[{"type":"gdeals","items":[{"text":"","backgroundColor":"","textColor":""}]},{"type":"v3","items":[{"text":"-20% cu Genius","backgroundColor":"#FEF3FA","textColor":"#CD015F"}]}],"geniusPrice":21.59,"geniusUnitPricePerLabel":"55,36 Lei/kg","banner":null,"discountLabel":null,"geniusDiscountLabel":"Economisești 20%","badge":null},{"code":"100136889","variantCode":"100136889","name":"Burger somon 2x100g","slug":"100136889-defish-burger-somon-2x100g","unitPriceLabel":"125,75 Lei/kg","brand":"DeFish","brandCode":"493","brandFilterCode":"defish-b494","sku":"100136889","price":25.15,"originalPrice":27.99,"currencyCode":"RON","currency":"Lei","image":{"thumbnail":{"default":"https://cdn.freshful.ro/media/cache/sylius_shop_product_thumbnail/52/17/bc114ba7d0695ae53fb4f129499b.jpg"},"large":{"default":"https://cdn.freshful.ro/media/cache/freshful_large/52/17/bc114ba7d0695ae53fb4f129499b.jpg"},"extralarge":{"default":"https://cdn.freshful.ro/media/cache/sylius_shop_product_original/52/17/bc114ba7d0695ae53fb4f129499b.jpg"}},"label":{"text":"-10%","backgroundColor":"#FF9903","textColor":"#FFFFFF"},"tags":[{"type":"Frozen","text":"Congelat","icon":"https://cdn.freshful.ro/assets/product_tags/congelat.svg","iconPng":"https://cdn.freshful.ro/assets/product_tags/congelat.png","backgroundColor":"#EDF6FA","textColor":"#2E9AD1"}],"isAvailable":true,"maxAvailableQuantity":6,"maxAllowedQuantity":100,"breadcrumbs":[{"code":"6","name":"Înghețată & congelate","slug":"6-produse-congelate"},{"code":"603","name":"Semipreparate congelate","slug":"603-semipreparate-congelate"},{"code":"60303","name":"Mâncare semipreparată congelată","slug":"60303-mancare-semipreparata-congelata"},{"code":"100136889","name":"Burger somon 2x100g","slug":"100136889-defish-burger-somon-2x100g"}],"activePromotion":{"code":"freshful-top-deals-2023","name":"Preț redus","targetQuantity":null},"saveMe":null,"labels":[{"type":"v1","items":[{"text":"-10%","backgroundColor":"#FF9903","textColor":"#FFFFFF"}]}],"geniusPrice":null,"geniusUnitPricePerLabel":null,"banner":{"text":"Super preț","textColor":"#FF0000","bgColor":"#FFF2EC","icon":null,"link":"https://www.freshful.ro/oferte/freshful-top-deals-2023","type":"promo","analyticsEventType":"select_promotion","analyticsEventPayload":{"promotion_id":"freshful-top-deals-2023","promotion_name":"Profită de Top Deals"}},"discountLabel":"Economisești 10%","geniusDiscountLabel":null,"badge":null},{"code":"100074853","variantCode":"100074853","name":"Fish nuggets 240g","slug":"100074853-frosta-fish-nuggets-240g","unitPriceLabel":"59,54 Lei/kg","brand":"Frosta","brandCode":"1030","brandFilterCode":"frosta-b1030","sku":"100074853","price":14.29,"originalPrice":16.49,"currencyCode":"RON","currency":"Lei","image":{"thumbnail":{"default":"https://cdn.freshful.ro/media/cache/sylius_shop_product_thumbnail/3b/6f/b11f2eaa0047e57c6437ec4860fe.jpg"},"large":{"default":"https://cdn.freshful.ro/media/cache/freshful_large/3b/6f/b11f2eaa0047e57c6437ec4860fe.jpg"},"extralarge":{"default":"https://cdn.freshful.ro/media/cache/sylius_shop_product_original/3b/6f/b11f2eaa0047e57c6437ec4860fe.jpg"}},"label":{"text":"-13%","backgroundColor":"#FF9903","textColor":"#FFFFFF"},"tags":[{"type":"Frozen","text":"Congelat","icon":"https://cdn.freshful.ro/assets/product_tags/congelat.svg","iconPng":"https://cdn.freshful.ro/assets/product_tags/congelat.png","backgroundColor":"#EDF6FA","textColor":"#2E9AD1"}],"isAvailable":true,"maxAvailableQuantity":13,"maxAllowedQuantity":100,"breadcrumbs":[{"code":"6","name":"Înghețată & congelate","slug":"6-produse-congelate"},{"code":"603","name":"Semipreparate congelate","slug":"603-semipreparate-congelate"},{"code":"60303","name":"Mâncare semipreparată congelată","slug":"60303-mancare-semipreparata-congelata"},{"code":"100074853","name":"Fish nuggets 240g","slug":"100074853-frosta-fish-nuggets-240g"}],"activePromotion":{"code":"freshful-top-deals-2023","name":"Preț redus","targetQuantity":null},"saveMe":null,"labels":[{"type":"v1","items":[{"text":"-13%","backgroundColor":"#FF9903","textColor":"#FFFFFF"}]}],"geniusPrice":null,"geniusUnitPricePerLabel":null,"banner":{"text":"Super preț","textColor":"#FF0000","bgColor":"#FFF2EC","icon":null,"link":"https://www.freshful.ro/oferte/freshful-top-deals-2023","type":"promo","analyticsEventType":"select_promotion","analyticsEventPayload":{"promotion_id":"freshful-top-deals-2023","promotion_name":"Profită de Top Deals"}},"discountLabel":"Economisești 13%","geniusDiscountLabel":null,"badge":null}],"filters":{"countSelected":0,"items":[{"code":"promotion","name":"Promoții","countSelected":0,"values":[{"code":"bunatatile-saptamanii-cw0923","name":"Oferta proaspătă a săptămânii","isSelected":false,"count":3},{"code":"freshful-top-deals-2023","name":"Profită de Top Deals","isSelected":false,"count":3},{"code":"special-produse-vegane-mar23","name":"Și bun, și de post","isSelected":false,"count":4}]},{"code":"brand","name":"Brand","countSelected":0,"values":[{"code":"agricola-b68","name":"Agricola","isSelected":false,"count":6},{"code":"alberto-b841","name":"Alberto","isSelected":false,"count":1},{"code":"alfa-b215","name":"Alfa","isSelected":false,"count":2},{"code":"amalthea-b1554","name":"Amalthea","isSelected":false,"count":1},{"code":"bridor-b2856","name":"Bridor","isSelected":false,"count":1},{"code":"casa-taraneasca-b726","name":"Casa Țărănească","isSelected":false,"count":1},{"code":"dayseaday-b682","name":"Dayseaday","isSelected":false,"count":1},{"code":"defish-b494","name":"DeFish","isSelected":false,"count":5},{"code":"dr-oetker-b51","name":"Dr. Oetker","isSelected":false,"count":8},{"code":"dr-oetker-guseppe-b490","name":"Dr. Oetker-Guseppe","isSelected":false,"count":2},{"code":"dr-oetker-ristorante-b488","name":"Dr. Oetker-Ristorante","isSelected":false,"count":2},{"code":"edenia-b52","name":"Edenia","isSelected":false,"count":26},{"code":"findus-b840","name":"Findus","isSelected":false,"count":1},{"code":"frosta-b1030","name":"Frosta","isSelected":false,"count":18},{"code":"la-masa-b2938","name":"La Masa","isSelected":false,"count":3},{"code":"linco-patisero-b945","name":"Linco Patisero","isSelected":false,"count":6},{"code":"maheso-b1582","name":"Maheso","isSelected":false,"count":2},{"code":"morarita-b486","name":"Morăriţa","isSelected":false,"count":2},{"code":"naturli-b946","name":"Naturli'","isSelected":false,"count":2},{"code":"seaside-b1646","name":"Seaside","isSelected":false,"count":1},{"code":"soavegel-b1583","name":"Soavegel","isSelected":false,"count":4},{"code":"svila-b843","name":"Svila","isSelected":false,"count":2},{"code":"tomi-b261","name":"Tomi","isSelected":false,"count":3}]},{"code":"diet_lifestyle","name":"Dietă și lifestyle","countSelected":0,"values":[{"code":"congelat-a66","name":"Congelat","isSelected":false,"count":100},{"code":"fara-e-uri-a84","name":"Fara E-uri","isSelected":false,"count":5},{"code":"fara-gluten-a16","name":"Fara gluten","isSelected":false,"count":8},{"code":"fara-lactoza-a38","name":"Fara lactoza","isSelected":false,"count":1},{"code":"made-in-romania-a85","name":"Made In Romania","isSelected":false,"count":5},{"code":"vegan-a24","name":"Vegan","isSelected":false,"count":7},{"code":"vegetarian-a28","name":"Vegetarian","isSelected":false,"count":2}]}]},"orderBy":[{"field":"price","direction":"asc","name":"Preț crescător","isSelected":false},{"field":"price","direction":"desc","name":"Preț descrescător","isSelected":false},{"field":"popularity","direction":"desc","name":"Cele mai populare","isSelected":true},{"field":"category","direction":"asc","name":"Categorie","isSelected":false}],"metaTitle":"Semipreparate congelate - Gamă variată","metaDescription":"Vrei Semipreparate congelate? Alege dintr-o gamă variată. Comanzi simplu și ai livrare rapidă, calitate și prospețime. Hai pe Freshful.ro","metaKeywords":null,"banners":[]}}