{"type":"subcategory","payload":{"analyticsListId":"category_60302-gustari-si-antreuri-congelate","analyticsListName":"Category - Gustări și antreuri congelate","name":"Gustări și antreuri congelate","slug":"60302-gustari-si-antreuri-congelate","image":null,"breadcrumbs":[{"code":"6","name":"Înghețată & congelate","slug":"6-produse-congelate"},{"code":"603","name":"Semipreparate congelate","slug":"603-semipreparate-congelate"},{"code":"60302","name":"Gustări și antreuri congelate","slug":"60302-gustari-si-antreuri-congelate"}],"slots":[],"page":1,"limit":10,"pages":2,"count":17,"siblings":[{"name":"Înghețată și deserturi congelate","slug":"604-inghetata-si-deserturi-congelate","selected":false},{"name":"Carne și pește congelate","slug":"601-carne-si-peste-congelate","selected":false},{"name":"Legume și fructe congelate","slug":"602-legume-si-fructe-congelate","selected":false},{"name":"Semipreparate congelate","slug":"603-semipreparate-congelate","selected":true}],"children":[{"name":"Toate produsele","slug":"603-semipreparate-congelate","selected":false},{"name":"Pizza congelată","slug":"60301-pizza-congelata","selected":false},{"name":"Gustări și antreuri congelate","slug":"60302-gustari-si-antreuri-congelate","selected":true},{"name":"Mâncare semipreparată congelată","slug":"60303-mancare-semipreparata-congelata","selected":false}],"products":[{"code":"100064107","variantCode":"100064107","name":"Cașcaval pane 450g","slug":"100064107-marnevall-cascaval-pane-450g","unitPriceLabel":"44,4 Lei/kg","brand":"La Masa","brandCode":"2847","brandFilterCode":"la-masa-b2938","sku":"100064107","price":19.98,"originalPrice":null,"currencyCode":"RON","currency":"Lei","image":{"thumbnail":{"default":"https://cdn.freshful.ro/media/cache/sylius_shop_product_thumbnail/23/69/65c847ff1cd9e59a562df23c0a7c.jpg"},"large":{"default":"https://cdn.freshful.ro/media/cache/freshful_large/23/69/65c847ff1cd9e59a562df23c0a7c.jpg"},"extralarge":{"default":"https://cdn.freshful.ro/media/cache/sylius_shop_product_original/23/69/65c847ff1cd9e59a562df23c0a7c.jpg"}},"label":null,"tags":[{"type":"Frozen","text":"Congelat","icon":"https://cdn.freshful.ro/assets/product_tags/congelat.svg","iconPng":"https://cdn.freshful.ro/assets/product_tags/congelat.png","backgroundColor":"#EDF6FA","textColor":"#2E9AD1"}],"isAvailable":true,"maxAvailableQuantity":94,"maxAllowedQuantity":100,"breadcrumbs":[{"code":"6","name":"Înghețată & congelate","slug":"6-produse-congelate"},{"code":"603","name":"Semipreparate congelate","slug":"603-semipreparate-congelate"},{"code":"60302","name":"Gustări și antreuri congelate","slug":"60302-gustari-si-antreuri-congelate"},{"code":"100064107","name":"Cașcaval pane 450g","slug":"100064107-marnevall-cascaval-pane-450g"}],"activePromotion":null,"saveMe":null,"labels":[],"geniusPrice":null,"geniusUnitPricePerLabel":null,"banner":null,"discountLabel":null,"geniusDiscountLabel":null,"badge":null},{"code":"100034121","variantCode":"100034121","name":"Mozzarella sticks 180g","slug":"100034121-agricola-mozzarella-sticks-180g","unitPriceLabel":"80,5 Lei/kg","brand":"Agricola","brandCode":"70","brandFilterCode":"agricola-b68","sku":"100034121","price":14.49,"originalPrice":null,"currencyCode":"RON","currency":"Lei","image":{"thumbnail":{"default":"https://cdn.freshful.ro/media/cache/sylius_shop_product_thumbnail/a1/31/d98d2fba6136cbccd342520c4878.jpg"},"large":{"default":"https://cdn.freshful.ro/media/cache/freshful_large/a1/31/d98d2fba6136cbccd342520c4878.jpg"},"extralarge":{"default":"https://cdn.freshful.ro/media/cache/sylius_shop_product_original/a1/31/d98d2fba6136cbccd342520c4878.jpg"}},"label":null,"tags":[{"type":"Frozen","text":"Congelat","icon":"https://cdn.freshful.ro/assets/product_tags/congelat.svg","iconPng":"https://cdn.freshful.ro/assets/product_tags/congelat.png","backgroundColor":"#EDF6FA","textColor":"#2E9AD1"},{"type":"MadeInRomania","text":"Made In Romania","icon":"https://cdn.freshful.ro/assets/product_tags/made_in_romania.svg","iconPng":"https://cdn.freshful.ro/assets/product_tags/made_in_romania.png","backgroundColor":"#EDF2FD","textColor":"#1653CA"},{"type":"NoE","text":"Fara E-uri","icon":"https://cdn.freshful.ro/assets/product_tags/fara_euri.svg","iconPng":"https://cdn.freshful.ro/assets/product_tags/fara_euri.png","backgroundColor":"#FCF5DF","textColor":"#CAA316"}],"isAvailable":true,"maxAvailableQuantity":100,"maxAllowedQuantity":100,"breadcrumbs":[{"code":"6","name":"Înghețată & congelate","slug":"6-produse-congelate"},{"code":"603","name":"Semipreparate congelate","slug":"603-semipreparate-congelate"},{"code":"60302","name":"Gustări și antreuri congelate","slug":"60302-gustari-si-antreuri-congelate"},{"code":"100034121","name":"Mozzarella sticks 180g","slug":"100034121-agricola-mozzarella-sticks-180g"}],"activePromotion":null,"saveMe":null,"labels":[],"geniusPrice":null,"geniusUnitPricePerLabel":null,"banner":null,"discountLabel":null,"geniusDiscountLabel":null,"badge":null},{"code":"100093914","variantCode":"100093914","name":"Clătite crocante cu șuncă și mozzarella 200g","slug":"100093914-soavegel-clatite-crocante-cu-sunca-si-mozzarella-200g","unitPriceLabel":"79,95 Lei/kg","brand":"Soavegel","brandCode":"1579","brandFilterCode":"soavegel-b1583","sku":"100093914","price":15.99,"originalPrice":null,"currencyCode":"RON","currency":"Lei","image":{"thumbnail":{"default":"https://cdn.freshful.ro/media/cache/sylius_shop_product_thumbnail/b8/9f/5f05e2c06b6f67051aecdda12556.jpg"},"large":{"default":"https://cdn.freshful.ro/media/cache/freshful_large/b8/9f/5f05e2c06b6f67051aecdda12556.jpg"},"extralarge":{"default":"https://cdn.freshful.ro/media/cache/sylius_shop_product_original/b8/9f/5f05e2c06b6f67051aecdda12556.jpg"}},"label":null,"tags":[{"type":"Frozen","text":"Congelat","icon":"https://cdn.freshful.ro/assets/product_tags/congelat.svg","iconPng":"https://cdn.freshful.ro/assets/product_tags/congelat.png","backgroundColor":"#EDF6FA","textColor":"#2E9AD1"}],"isAvailable":true,"maxAvailableQuantity":100,"maxAllowedQuantity":100,"breadcrumbs":[{"code":"6","name":"Înghețată & congelate","slug":"6-produse-congelate"},{"code":"603","name":"Semipreparate congelate","slug":"603-semipreparate-congelate"},{"code":"60302","name":"Gustări și antreuri congelate","slug":"60302-gustari-si-antreuri-congelate"},{"code":"100093914","name":"Clătite crocante cu șuncă și mozzarella 200g","slug":"100093914-soavegel-clatite-crocante-cu-sunca-si-mozzarella-200g"}],"activePromotion":null,"saveMe":null,"labels":[],"geniusPrice":null,"geniusUnitPricePerLabel":null,"banner":null,"discountLabel":null,"geniusDiscountLabel":null,"badge":null},{"code":"100032342","variantCode":"5202535461430","name":"Mini rulouri cu spanac și brânză Feta 500g","slug":"100032342-alfa-mini-rulouri-cu-spanac-si-branza-feta-500g","unitPriceLabel":"26,98 Lei/kg","brand":"Alfa","brandCode":"214","brandFilterCode":"alfa-b215","sku":"100032342","price":13.49,"originalPrice":null,"currencyCode":"RON","currency":"Lei","image":{"thumbnail":{"default":"https://cdn.freshful.ro/media/cache/sylius_shop_product_thumbnail/5f/7e/5cd8aa3122b167612f086e488165.jpg"},"large":{"default":"https://cdn.freshful.ro/media/cache/freshful_large/5f/7e/5cd8aa3122b167612f086e488165.jpg"},"extralarge":{"default":"https://cdn.freshful.ro/media/cache/sylius_shop_product_original/5f/7e/5cd8aa3122b167612f086e488165.jpg"}},"label":null,"tags":[{"type":"Frozen","text":"Congelat","icon":"https://cdn.freshful.ro/assets/product_tags/congelat.svg","iconPng":"https://cdn.freshful.ro/assets/product_tags/congelat.png","backgroundColor":"#EDF6FA","textColor":"#2E9AD1"}],"isAvailable":true,"maxAvailableQuantity":95,"maxAllowedQuantity":100,"breadcrumbs":[{"code":"6","name":"Înghețată & congelate","slug":"6-produse-congelate"},{"code":"603","name":"Semipreparate congelate","slug":"603-semipreparate-congelate"},{"code":"60302","name":"Gustări și antreuri congelate","slug":"60302-gustari-si-antreuri-congelate"},{"code":"100032342","name":"Mini rulouri cu spanac și brânză Feta 500g","slug":"100032342-alfa-mini-rulouri-cu-spanac-si-branza-feta-500g"}],"activePromotion":null,"saveMe":null,"labels":[],"geniusPrice":null,"geniusUnitPricePerLabel":null,"banner":null,"discountLabel":null,"geniusDiscountLabel":null,"badge":null},{"code":"100095422","variantCode":"100095422","name":"Saleuri cu susan 500g","slug":"100095422-morarita-saleuri-cu-susan-500g","unitPriceLabel":"23,98 Lei/kg","brand":"Morăriţa","brandCode":"485","brandFilterCode":"morarita-b486","sku":"100095422","price":11.99,"originalPrice":null,"currencyCode":"RON","currency":"Lei","image":{"thumbnail":{"default":"https://cdn.freshful.ro/media/cache/sylius_shop_product_thumbnail/3a/65/0e905a7c2d3c7f86ed5a3672ce7e.jpg"},"large":{"default":"https://cdn.freshful.ro/media/cache/freshful_large/3a/65/0e905a7c2d3c7f86ed5a3672ce7e.jpg"},"extralarge":{"default":"https://cdn.freshful.ro/media/cache/sylius_shop_product_original/3a/65/0e905a7c2d3c7f86ed5a3672ce7e.jpg"}},"label":null,"tags":[{"type":"Frozen","text":"Congelat","icon":"https://cdn.freshful.ro/assets/product_tags/congelat.svg","iconPng":"https://cdn.freshful.ro/assets/product_tags/congelat.png","backgroundColor":"#EDF6FA","textColor":"#2E9AD1"}],"isAvailable":true,"maxAvailableQuantity":58,"maxAllowedQuantity":100,"breadcrumbs":[{"code":"6","name":"Înghețată & congelate","slug":"6-produse-congelate"},{"code":"603","name":"Semipreparate congelate","slug":"603-semipreparate-congelate"},{"code":"60302","name":"Gustări și antreuri congelate","slug":"60302-gustari-si-antreuri-congelate"},{"code":"100095422","name":"Saleuri cu susan 500g","slug":"100095422-morarita-saleuri-cu-susan-500g"}],"activePromotion":null,"saveMe":null,"labels":[],"geniusPrice":null,"geniusUnitPricePerLabel":null,"banner":null,"discountLabel":null,"geniusDiscountLabel":null,"badge":null},{"code":"100093913","variantCode":"100093913","name":"Clătite crocante umplute cu roșii și mozzarella 200g","slug":"100093913-soavegel-clatite-crocante-umplute-cu-rosii-si-mozzarella-200g","unitPriceLabel":"79,95 Lei/kg","brand":"Soavegel","brandCode":"1579","brandFilterCode":"soavegel-b1583","sku":"100093913","price":15.99,"originalPrice":null,"currencyCode":"RON","currency":"Lei","image":{"thumbnail":{"default":"https://cdn.freshful.ro/media/cache/sylius_shop_product_thumbnail/25/04/45da9ef857f0a8000d2eec8974c3.jpg"},"large":{"default":"https://cdn.freshful.ro/media/cache/freshful_large/25/04/45da9ef857f0a8000d2eec8974c3.jpg"},"extralarge":{"default":"https://cdn.freshful.ro/media/cache/sylius_shop_product_original/25/04/45da9ef857f0a8000d2eec8974c3.jpg"}},"label":null,"tags":[{"type":"Frozen","text":"Congelat","icon":"https://cdn.freshful.ro/assets/product_tags/congelat.svg","iconPng":"https://cdn.freshful.ro/assets/product_tags/congelat.png","backgroundColor":"#EDF6FA","textColor":"#2E9AD1"}],"isAvailable":true,"maxAvailableQuantity":42,"maxAllowedQuantity":100,"breadcrumbs":[{"code":"6","name":"Înghețată & congelate","slug":"6-produse-congelate"},{"code":"603","name":"Semipreparate congelate","slug":"603-semipreparate-congelate"},{"code":"60302","name":"Gustări și antreuri congelate","slug":"60302-gustari-si-antreuri-congelate"},{"code":"100093913","name":"Clătite crocante umplute cu roșii și mozzarella 200g","slug":"100093913-soavegel-clatite-crocante-umplute-cu-rosii-si-mozzarella-200g"}],"activePromotion":null,"saveMe":null,"labels":[],"geniusPrice":null,"geniusUnitPricePerLabel":null,"banner":null,"discountLabel":null,"geniusDiscountLabel":null,"badge":null},{"code":"100095423","variantCode":"100095423","name":"Mini patiserie cu telemea 500g","slug":"100095423-morarita-mini-patiserie-cu-telemea-500g","unitPriceLabel":"32,98 Lei/kg","brand":"Morăriţa","brandCode":"485","brandFilterCode":"morarita-b486","sku":"100095423","price":16.49,"originalPrice":null,"currencyCode":"RON","currency":"Lei","image":{"thumbnail":{"default":"https://cdn.freshful.ro/media/cache/sylius_shop_product_thumbnail/7f/0f/05c3403d42fb45031de71ced1633.jpg"},"large":{"default":"https://cdn.freshful.ro/media/cache/freshful_large/7f/0f/05c3403d42fb45031de71ced1633.jpg"},"extralarge":{"default":"https://cdn.freshful.ro/media/cache/sylius_shop_product_original/7f/0f/05c3403d42fb45031de71ced1633.jpg"}},"label":null,"tags":[{"type":"Frozen","text":"Congelat","icon":"https://cdn.freshful.ro/assets/product_tags/congelat.svg","iconPng":"https://cdn.freshful.ro/assets/product_tags/congelat.png","backgroundColor":"#EDF6FA","textColor":"#2E9AD1"}],"isAvailable":true,"maxAvailableQuantity":29,"maxAllowedQuantity":100,"breadcrumbs":[{"code":"6","name":"Înghețată & congelate","slug":"6-produse-congelate"},{"code":"603","name":"Semipreparate congelate","slug":"603-semipreparate-congelate"},{"code":"60302","name":"Gustări și antreuri congelate","slug":"60302-gustari-si-antreuri-congelate"},{"code":"100095423","name":"Mini patiserie cu telemea 500g","slug":"100095423-morarita-mini-patiserie-cu-telemea-500g"}],"activePromotion":null,"saveMe":null,"labels":[],"geniusPrice":null,"geniusUnitPricePerLabel":null,"banner":null,"discountLabel":null,"geniusDiscountLabel":null,"badge":null},{"code":"100032345","variantCode":"5202535061401","name":"Mini rulouri cu brânză Feta 800g","slug":"100032345-alfa-mini-rulouri-cu-branza-feta-800g","unitPriceLabel":"27,36 Lei/kg","brand":"Alfa","brandCode":"214","brandFilterCode":"alfa-b215","sku":"100032345","price":21.89,"originalPrice":null,"currencyCode":"RON","currency":"Lei","image":{"thumbnail":{"default":"https://cdn.freshful.ro/media/cache/sylius_shop_product_thumbnail/c5/ed/d56b9548baa546ef862f69500151.jpg"},"large":{"default":"https://cdn.freshful.ro/media/cache/freshful_large/c5/ed/d56b9548baa546ef862f69500151.jpg"},"extralarge":{"default":"https://cdn.freshful.ro/media/cache/sylius_shop_product_original/c5/ed/d56b9548baa546ef862f69500151.jpg"}},"label":null,"tags":[{"type":"Frozen","text":"Congelat","icon":"https://cdn.freshful.ro/assets/product_tags/congelat.svg","iconPng":"https://cdn.freshful.ro/assets/product_tags/congelat.png","backgroundColor":"#EDF6FA","textColor":"#2E9AD1"}],"isAvailable":true,"maxAvailableQuantity":53,"maxAllowedQuantity":100,"breadcrumbs":[{"code":"6","name":"Înghețată & congelate","slug":"6-produse-congelate"},{"code":"603","name":"Semipreparate congelate","slug":"603-semipreparate-congelate"},{"code":"60302","name":"Gustări și antreuri congelate","slug":"60302-gustari-si-antreuri-congelate"},{"code":"100032345","name":"Mini rulouri cu brânză Feta 800g","slug":"100032345-alfa-mini-rulouri-cu-branza-feta-800g"}],"activePromotion":null,"saveMe":null,"labels":[],"geniusPrice":null,"geniusUnitPricePerLabel":null,"banner":null,"discountLabel":null,"geniusDiscountLabel":null,"badge":null},{"code":"100150033","variantCode":"100150033","name":"Rulouri Max cu cremă cu ciocolată și cremă cu piure de pere 400g","slug":"100150033-linco-patisero-rulouri-max-cu-crema-cu-ciocolata-si-crema-cu-piure-de-pere-400g","unitPriceLabel":"34,98 Lei/kg","brand":"Linco Patisero","brandCode":"945","brandFilterCode":"linco-patisero-b945","sku":"100150033","price":13.99,"originalPrice":null,"currencyCode":"RON","currency":"Lei","image":{"thumbnail":{"default":"https://cdn.freshful.ro/media/cache/sylius_shop_product_thumbnail/f7/79/c53fbc450bd98138d27f46fa38a0.jpg"},"large":{"default":"https://cdn.freshful.ro/media/cache/freshful_large/f7/79/c53fbc450bd98138d27f46fa38a0.jpg"},"extralarge":{"default":"https://cdn.freshful.ro/media/cache/sylius_shop_product_original/f7/79/c53fbc450bd98138d27f46fa38a0.jpg"}},"label":null,"tags":[{"type":"Frozen","text":"Congelat","icon":"https://cdn.freshful.ro/assets/product_tags/congelat.svg","iconPng":"https://cdn.freshful.ro/assets/product_tags/congelat.png","backgroundColor":"#EDF6FA","textColor":"#2E9AD1"}],"isAvailable":true,"maxAvailableQuantity":58,"maxAllowedQuantity":100,"breadcrumbs":[{"code":"6","name":"Înghețată & congelate","slug":"6-produse-congelate"},{"code":"603","name":"Semipreparate congelate","slug":"603-semipreparate-congelate"},{"code":"60302","name":"Gustări și antreuri congelate","slug":"60302-gustari-si-antreuri-congelate"},{"code":"100150033","name":"Rulouri Max cu cremă cu ciocolată și cremă cu piure de pere 400g","slug":"100150033-linco-patisero-rulouri-max-cu-crema-cu-ciocolata-si-crema-cu-piure-de-pere-400g"}],"activePromotion":null,"saveMe":null,"labels":[],"geniusPrice":null,"geniusUnitPricePerLabel":null,"banner":null,"discountLabel":null,"geniusDiscountLabel":null,"badge":null},{"code":"100034122","variantCode":"100034122","name":"Cașcaval pane 200g","slug":"100034122-agricola-cascaval-pane-200g","unitPriceLabel":"77,45 Lei/kg","brand":"Agricola","brandCode":"70","brandFilterCode":"agricola-b68","sku":"100034122","price":15.49,"originalPrice":null,"currencyCode":"RON","currency":"Lei","image":{"thumbnail":{"default":"https://cdn.freshful.ro/media/cache/sylius_shop_product_thumbnail/2e/b0/7576b3ea2410bcf49df94ea99b82.jpg"},"large":{"default":"https://cdn.freshful.ro/media/cache/freshful_large/2e/b0/7576b3ea2410bcf49df94ea99b82.jpg"},"extralarge":{"default":"https://cdn.freshful.ro/media/cache/sylius_shop_product_original/2e/b0/7576b3ea2410bcf49df94ea99b82.jpg"}},"label":null,"tags":[{"type":"Frozen","text":"Congelat","icon":"https://cdn.freshful.ro/assets/product_tags/congelat.svg","iconPng":"https://cdn.freshful.ro/assets/product_tags/congelat.png","backgroundColor":"#EDF6FA","textColor":"#2E9AD1"},{"type":"MadeInRomania","text":"Made In Romania","icon":"https://cdn.freshful.ro/assets/product_tags/made_in_romania.svg","iconPng":"https://cdn.freshful.ro/assets/product_tags/made_in_romania.png","backgroundColor":"#EDF2FD","textColor":"#1653CA"},{"type":"NoE","text":"Fara E-uri","icon":"https://cdn.freshful.ro/assets/product_tags/fara_euri.svg","iconPng":"https://cdn.freshful.ro/assets/product_tags/fara_euri.png","backgroundColor":"#FCF5DF","textColor":"#CAA316"}],"isAvailable":true,"maxAvailableQuantity":32,"maxAllowedQuantity":100,"breadcrumbs":[{"code":"6","name":"Înghețată & congelate","slug":"6-produse-congelate"},{"code":"603","name":"Semipreparate congelate","slug":"603-semipreparate-congelate"},{"code":"60302","name":"Gustări și antreuri congelate","slug":"60302-gustari-si-antreuri-congelate"},{"code":"100034122","name":"Cașcaval pane 200g","slug":"100034122-agricola-cascaval-pane-200g"}],"activePromotion":null,"saveMe":null,"labels":[],"geniusPrice":null,"geniusUnitPricePerLabel":null,"banner":null,"discountLabel":null,"geniusDiscountLabel":null,"badge":null}],"filters":{"countSelected":0,"items":[{"code":"promotion","name":"Promoții","countSelected":0,"values":[{"code":"bunatatile-saptamanii-cw0923","name":"Oferta proaspătă a săptămânii","isSelected":false,"count":1}]},{"code":"brand","name":"Brand","countSelected":0,"values":[{"code":"agricola-b68","name":"Agricola","isSelected":false,"count":2},{"code":"alfa-b215","name":"Alfa","isSelected":false,"count":2},{"code":"la-masa-b2938","name":"La Masa","isSelected":false,"count":1},{"code":"linco-patisero-b945","name":"Linco Patisero","isSelected":false,"count":6},{"code":"morarita-b486","name":"Morăriţa","isSelected":false,"count":2},{"code":"soavegel-b1583","name":"Soavegel","isSelected":false,"count":4}]},{"code":"diet_lifestyle","name":"Dietă și lifestyle","countSelected":0,"values":[{"code":"congelat-a66","name":"Congelat","isSelected":false,"count":17},{"code":"fara-e-uri-a84","name":"Fara E-uri","isSelected":false,"count":2},{"code":"fara-lactoza-a38","name":"Fara lactoza","isSelected":false,"count":1},{"code":"made-in-romania-a85","name":"Made In Romania","isSelected":false,"count":2},{"code":"vegan-a24","name":"Vegan","isSelected":false,"count":2}]}]},"orderBy":[{"field":"price","direction":"asc","name":"Preț crescător","isSelected":false},{"field":"price","direction":"desc","name":"Preț descrescător","isSelected":false},{"field":"popularity","direction":"desc","name":"Cele mai populare","isSelected":true},{"field":"category","direction":"asc","name":"Categorie","isSelected":false}],"metaTitle":"Gustări și antreuri congelate - Gamă variată","metaDescription":"Vrei Gustări și antreuri congelate? Alege dintr-o gamă variată. Comanzi simplu și ai livrare rapidă, calitate și prospețime. Hai pe Freshful.ro","metaKeywords":null,"banners":[]}}