{"type":"subcategory","payload":{"analyticsListId":"category_60301-pizza-congelata","analyticsListName":"Category - Pizza congelată","name":"Pizza congelată","slug":"60301-pizza-congelata","image":null,"breadcrumbs":[{"code":"6","name":"Înghețată & congelate","slug":"6-produse-congelate"},{"code":"603","name":"Semipreparate congelate","slug":"603-semipreparate-congelate"},{"code":"60301","name":"Pizza congelată","slug":"60301-pizza-congelata"}],"slots":[],"page":1,"limit":10,"pages":3,"count":28,"siblings":[{"name":"Înghețată și deserturi congelate","slug":"604-inghetata-si-deserturi-congelate","selected":false},{"name":"Carne și pește congelate","slug":"601-carne-si-peste-congelate","selected":false},{"name":"Legume și fructe congelate","slug":"602-legume-si-fructe-congelate","selected":false},{"name":"Semipreparate congelate","slug":"603-semipreparate-congelate","selected":true}],"children":[{"name":"Toate produsele","slug":"603-semipreparate-congelate","selected":false},{"name":"Pizza congelată","slug":"60301-pizza-congelata","selected":true},{"name":"Gustări și antreuri congelate","slug":"60302-gustari-si-antreuri-congelate","selected":false},{"name":"Mâncare semipreparată congelată","slug":"60303-mancare-semipreparata-congelata","selected":false}],"products":[{"code":"100142660","variantCode":"100142660","name":"Pizza Quattro Verdure 410g","slug":"100142660-edenia-pizza-quattro-verdure-410g","unitPriceLabel":"46,32 Lei/kg","brand":"Edenia","brandCode":"56","brandFilterCode":"edenia-b52","sku":"100142660","price":18.99,"originalPrice":21.79,"currencyCode":"RON","currency":"Lei","image":{"thumbnail":{"default":"https://cdn.freshful.ro/media/cache/sylius_shop_product_thumbnail/f3/70/9a2a91b6c78ec7996eef86f24743.jpg"},"large":{"default":"https://cdn.freshful.ro/media/cache/freshful_large/f3/70/9a2a91b6c78ec7996eef86f24743.jpg"},"extralarge":{"default":"https://cdn.freshful.ro/media/cache/sylius_shop_product_original/f3/70/9a2a91b6c78ec7996eef86f24743.jpg"}},"label":{"text":"-12%","backgroundColor":"#FF9903","textColor":"#FFFFFF"},"tags":[{"type":"Frozen","text":"Congelat","icon":"https://cdn.freshful.ro/assets/product_tags/congelat.svg","iconPng":"https://cdn.freshful.ro/assets/product_tags/congelat.png","backgroundColor":"#EDF6FA","textColor":"#2E9AD1"}],"isAvailable":true,"maxAvailableQuantity":20,"maxAllowedQuantity":100,"breadcrumbs":[{"code":"6","name":"Înghețată & congelate","slug":"6-produse-congelate"},{"code":"603","name":"Semipreparate congelate","slug":"603-semipreparate-congelate"},{"code":"60301","name":"Pizza congelată","slug":"60301-pizza-congelata"},{"code":"100142660","name":"Pizza Quattro Verdure 410g","slug":"100142660-edenia-pizza-quattro-verdure-410g"}],"activePromotion":{"code":"bunatatile-saptamanii-cw0923","name":"Preț redus","targetQuantity":null},"saveMe":null,"labels":[{"type":"v1","items":[{"text":"-12%","backgroundColor":"#FF9903","textColor":"#FFFFFF"}]}],"geniusPrice":null,"geniusUnitPricePerLabel":null,"banner":{"text":"Super preț","textColor":"#FF0000","bgColor":"#FFF2EC","icon":null,"link":"https://www.freshful.ro/oferte/bunatatile-saptamanii-cw0923","type":"promo","analyticsEventType":"select_promotion","analyticsEventPayload":{"promotion_id":"bunatatile-saptamanii-cw0923","promotion_name":"Oferta proaspătă a săptămânii"}},"discountLabel":"Economisești 12%","geniusDiscountLabel":null,"badge":null},{"code":"100150036","variantCode":"100150036","name":"Pizza cu șuncă și mozzarella 390g","slug":"100150036-tomi-pizza-cu-sunca-si-mozzarella-390g","unitPriceLabel":"69,21 Lei/kg","brand":"Tomi","brandCode":"260","brandFilterCode":"tomi-b261","sku":"100150036","price":26.99,"originalPrice":null,"currencyCode":"RON","currency":"Lei","image":{"thumbnail":{"default":"https://cdn.freshful.ro/media/cache/sylius_shop_product_thumbnail/46/e2/2088e5ed87dcc21986237d5eb637.jpg"},"large":{"default":"https://cdn.freshful.ro/media/cache/freshful_large/46/e2/2088e5ed87dcc21986237d5eb637.jpg"},"extralarge":{"default":"https://cdn.freshful.ro/media/cache/sylius_shop_product_original/46/e2/2088e5ed87dcc21986237d5eb637.jpg"}},"label":{"text":"-20% cu Genius","backgroundColor":"#FEF3FA","textColor":"#CD015F"},"tags":[{"type":"Frozen","text":"Congelat","icon":"https://cdn.freshful.ro/assets/product_tags/congelat.svg","iconPng":"https://cdn.freshful.ro/assets/product_tags/congelat.png","backgroundColor":"#EDF6FA","textColor":"#2E9AD1"}],"isAvailable":true,"maxAvailableQuantity":100,"maxAllowedQuantity":100,"breadcrumbs":[{"code":"6","name":"Înghețată & congelate","slug":"6-produse-congelate"},{"code":"603","name":"Semipreparate congelate","slug":"603-semipreparate-congelate"},{"code":"60301","name":"Pizza congelată","slug":"60301-pizza-congelata"},{"code":"100150036","name":"Pizza cu șuncă și mozzarella 390g","slug":"100150036-tomi-pizza-cu-sunca-si-mozzarella-390g"}],"activePromotion":null,"saveMe":null,"labels":[{"type":"gdeals","items":[{"text":"","backgroundColor":"","textColor":""}]},{"type":"v3","items":[{"text":"-20% cu Genius","backgroundColor":"#FEF3FA","textColor":"#CD015F"}]}],"geniusPrice":21.59,"geniusUnitPricePerLabel":"55,36 Lei/kg","banner":null,"discountLabel":null,"geniusDiscountLabel":"Economisești 20%","badge":null},{"code":"100039086","variantCode":"100039086","name":"Pizza Feliciana speciale 335g","slug":"100039086-dr-oetker-pizza-feliciana-speciale-335g","unitPriceLabel":"43,25 Lei/kg","brand":"Dr. Oetker","brandCode":"55","brandFilterCode":"dr-oetker-b51","sku":"100039086","price":14.49,"originalPrice":null,"currencyCode":"RON","currency":"Lei","image":{"thumbnail":{"default":"https://cdn.freshful.ro/media/cache/sylius_shop_product_thumbnail/e2/97/6043efb2683da2b21dedb7c9ec48.jpg"},"large":{"default":"https://cdn.freshful.ro/media/cache/freshful_large/e2/97/6043efb2683da2b21dedb7c9ec48.jpg"},"extralarge":{"default":"https://cdn.freshful.ro/media/cache/sylius_shop_product_original/e2/97/6043efb2683da2b21dedb7c9ec48.jpg"}},"label":null,"tags":[{"type":"Frozen","text":"Congelat","icon":"https://cdn.freshful.ro/assets/product_tags/congelat.svg","iconPng":"https://cdn.freshful.ro/assets/product_tags/congelat.png","backgroundColor":"#EDF6FA","textColor":"#2E9AD1"}],"isAvailable":true,"maxAvailableQuantity":53,"maxAllowedQuantity":100,"breadcrumbs":[{"code":"6","name":"Înghețată & congelate","slug":"6-produse-congelate"},{"code":"603","name":"Semipreparate congelate","slug":"603-semipreparate-congelate"},{"code":"60301","name":"Pizza congelată","slug":"60301-pizza-congelata"},{"code":"100039086","name":"Pizza Feliciana speciale 335g","slug":"100039086-dr-oetker-pizza-feliciana-speciale-335g"}],"activePromotion":null,"saveMe":null,"labels":[],"geniusPrice":null,"geniusUnitPricePerLabel":null,"banner":null,"discountLabel":null,"geniusDiscountLabel":null,"badge":null},{"code":"100037348","variantCode":"100037348","name":"Pizza quattro formaggi 320g","slug":"100037348-edenia-pizza-quattro-formaggi-320g","unitPriceLabel":"53,09 Lei/kg","brand":"Edenia","brandCode":"56","brandFilterCode":"edenia-b52","sku":"100037348","price":16.99,"originalPrice":null,"currencyCode":"RON","currency":"Lei","image":{"thumbnail":{"default":"https://cdn.freshful.ro/media/cache/sylius_shop_product_thumbnail/76/4c/922713d72cc6fd80f17a2ba38bed.jpg"},"large":{"default":"https://cdn.freshful.ro/media/cache/freshful_large/76/4c/922713d72cc6fd80f17a2ba38bed.jpg"},"extralarge":{"default":"https://cdn.freshful.ro/media/cache/sylius_shop_product_original/76/4c/922713d72cc6fd80f17a2ba38bed.jpg"}},"label":null,"tags":[{"type":"Frozen","text":"Congelat","icon":"https://cdn.freshful.ro/assets/product_tags/congelat.svg","iconPng":"https://cdn.freshful.ro/assets/product_tags/congelat.png","backgroundColor":"#EDF6FA","textColor":"#2E9AD1"}],"isAvailable":true,"maxAvailableQuantity":96,"maxAllowedQuantity":100,"breadcrumbs":[{"code":"6","name":"Înghețată & congelate","slug":"6-produse-congelate"},{"code":"603","name":"Semipreparate congelate","slug":"603-semipreparate-congelate"},{"code":"60301","name":"Pizza congelată","slug":"60301-pizza-congelata"},{"code":"100037348","name":"Pizza quattro formaggi 320g","slug":"100037348-edenia-pizza-quattro-formaggi-320g"}],"activePromotion":null,"saveMe":null,"labels":[],"geniusPrice":null,"geniusUnitPricePerLabel":null,"banner":null,"discountLabel":null,"geniusDiscountLabel":null,"badge":null},{"code":"100039087","variantCode":"100039087","name":"Pizza Feliciana quattro formaggi 325g","slug":"100039087-dr-oetker-pizza-feliciana-quattro-formaggi-325g","unitPriceLabel":"44,58 Lei/kg","brand":"Dr. Oetker","brandCode":"55","brandFilterCode":"dr-oetker-b51","sku":"100039087","price":14.49,"originalPrice":null,"currencyCode":"RON","currency":"Lei","image":{"thumbnail":{"default":"https://cdn.freshful.ro/media/cache/sylius_shop_product_thumbnail/0f/9d/65d82d7e298b83e4ca6ceb36ee50.jpg"},"large":{"default":"https://cdn.freshful.ro/media/cache/freshful_large/0f/9d/65d82d7e298b83e4ca6ceb36ee50.jpg"},"extralarge":{"default":"https://cdn.freshful.ro/media/cache/sylius_shop_product_original/0f/9d/65d82d7e298b83e4ca6ceb36ee50.jpg"}},"label":null,"tags":[{"type":"Frozen","text":"Congelat","icon":"https://cdn.freshful.ro/assets/product_tags/congelat.svg","iconPng":"https://cdn.freshful.ro/assets/product_tags/congelat.png","backgroundColor":"#EDF6FA","textColor":"#2E9AD1"}],"isAvailable":true,"maxAvailableQuantity":100,"maxAllowedQuantity":100,"breadcrumbs":[{"code":"6","name":"Înghețată & congelate","slug":"6-produse-congelate"},{"code":"603","name":"Semipreparate congelate","slug":"603-semipreparate-congelate"},{"code":"60301","name":"Pizza congelată","slug":"60301-pizza-congelata"},{"code":"100039087","name":"Pizza Feliciana quattro formaggi 325g","slug":"100039087-dr-oetker-pizza-feliciana-quattro-formaggi-325g"}],"activePromotion":null,"saveMe":null,"labels":[],"geniusPrice":null,"geniusUnitPricePerLabel":null,"banner":null,"discountLabel":null,"geniusDiscountLabel":null,"badge":null},{"code":"100142549","variantCode":"100142549","name":"Pizza cu Mozzarella di Bufala 400g","slug":"100142549-edenia-pizza-cu-mozzarella-di-bufala-400g","unitPriceLabel":"54,98 Lei/kg","brand":"Edenia","brandCode":"56","brandFilterCode":"edenia-b52","sku":"100142549","price":21.99,"originalPrice":null,"currencyCode":"RON","currency":"Lei","image":{"thumbnail":{"default":"https://cdn.freshful.ro/media/cache/sylius_shop_product_thumbnail/0b/84/e169cd924e5cddcb28dcd439474d.jpg"},"large":{"default":"https://cdn.freshful.ro/media/cache/freshful_large/0b/84/e169cd924e5cddcb28dcd439474d.jpg"},"extralarge":{"default":"https://cdn.freshful.ro/media/cache/sylius_shop_product_original/0b/84/e169cd924e5cddcb28dcd439474d.jpg"}},"label":null,"tags":[{"type":"Frozen","text":"Congelat","icon":"https://cdn.freshful.ro/assets/product_tags/congelat.svg","iconPng":"https://cdn.freshful.ro/assets/product_tags/congelat.png","backgroundColor":"#EDF6FA","textColor":"#2E9AD1"}],"isAvailable":true,"maxAvailableQuantity":49,"maxAllowedQuantity":100,"breadcrumbs":[{"code":"6","name":"Înghețată & congelate","slug":"6-produse-congelate"},{"code":"603","name":"Semipreparate congelate","slug":"603-semipreparate-congelate"},{"code":"60301","name":"Pizza congelată","slug":"60301-pizza-congelata"},{"code":"100142549","name":"Pizza cu Mozzarella di Bufala 400g","slug":"100142549-edenia-pizza-cu-mozzarella-di-bufala-400g"}],"activePromotion":null,"saveMe":null,"labels":[],"geniusPrice":null,"geniusUnitPricePerLabel":null,"banner":null,"discountLabel":null,"geniusDiscountLabel":null,"badge":null},{"code":"100095418","variantCode":"100095418","name":"Pizza Guseppe cu șuncă 410g","slug":"100095418-dr-oetker-guseppe-pizza-guseppe-cu-sunca-410g","unitPriceLabel":"40,22 Lei/kg","brand":"Dr. Oetker-Guseppe","brandCode":"489","brandFilterCode":"dr-oetker-guseppe-b490","sku":"100095418","price":16.49,"originalPrice":null,"currencyCode":"RON","currency":"Lei","image":{"thumbnail":{"default":"https://cdn.freshful.ro/media/cache/sylius_shop_product_thumbnail/ee/80/36dbb3684b9a09c31e56479337b4.jpg"},"large":{"default":"https://cdn.freshful.ro/media/cache/freshful_large/ee/80/36dbb3684b9a09c31e56479337b4.jpg"},"extralarge":{"default":"https://cdn.freshful.ro/media/cache/sylius_shop_product_original/ee/80/36dbb3684b9a09c31e56479337b4.jpg"}},"label":null,"tags":[{"type":"Frozen","text":"Congelat","icon":"https://cdn.freshful.ro/assets/product_tags/congelat.svg","iconPng":"https://cdn.freshful.ro/assets/product_tags/congelat.png","backgroundColor":"#EDF6FA","textColor":"#2E9AD1"}],"isAvailable":true,"maxAvailableQuantity":54,"maxAllowedQuantity":100,"breadcrumbs":[{"code":"6","name":"Înghețată & congelate","slug":"6-produse-congelate"},{"code":"603","name":"Semipreparate congelate","slug":"603-semipreparate-congelate"},{"code":"60301","name":"Pizza congelată","slug":"60301-pizza-congelata"},{"code":"100095418","name":"Pizza Guseppe cu șuncă 410g","slug":"100095418-dr-oetker-guseppe-pizza-guseppe-cu-sunca-410g"}],"activePromotion":null,"saveMe":null,"labels":[],"geniusPrice":null,"geniusUnitPricePerLabel":null,"banner":null,"discountLabel":null,"geniusDiscountLabel":null,"badge":null},{"code":"100037345","variantCode":"100037345","name":"Pizza prosciutto funghi 345g","slug":"100037345-edenia-pizza-prosciutto-funghi-345g","unitPriceLabel":"49,25 Lei/kg","brand":"Edenia","brandCode":"56","brandFilterCode":"edenia-b52","sku":"100037345","price":16.99,"originalPrice":null,"currencyCode":"RON","currency":"Lei","image":{"thumbnail":{"default":"https://cdn.freshful.ro/media/cache/sylius_shop_product_thumbnail/b0/7f/b8d38087592dda059e8f88212773.jpg"},"large":{"default":"https://cdn.freshful.ro/media/cache/freshful_large/b0/7f/b8d38087592dda059e8f88212773.jpg"},"extralarge":{"default":"https://cdn.freshful.ro/media/cache/sylius_shop_product_original/b0/7f/b8d38087592dda059e8f88212773.jpg"}},"label":null,"tags":[{"type":"Frozen","text":"Congelat","icon":"https://cdn.freshful.ro/assets/product_tags/congelat.svg","iconPng":"https://cdn.freshful.ro/assets/product_tags/congelat.png","backgroundColor":"#EDF6FA","textColor":"#2E9AD1"}],"isAvailable":true,"maxAvailableQuantity":88,"maxAllowedQuantity":100,"breadcrumbs":[{"code":"6","name":"Înghețată & congelate","slug":"6-produse-congelate"},{"code":"603","name":"Semipreparate congelate","slug":"603-semipreparate-congelate"},{"code":"60301","name":"Pizza congelată","slug":"60301-pizza-congelata"},{"code":"100037345","name":"Pizza prosciutto funghi 345g","slug":"100037345-edenia-pizza-prosciutto-funghi-345g"}],"activePromotion":null,"saveMe":null,"labels":[],"geniusPrice":null,"geniusUnitPricePerLabel":null,"banner":null,"discountLabel":null,"geniusDiscountLabel":null,"badge":null},{"code":"100037344","variantCode":"100037344","name":"Pizza Speciale 325g","slug":"100037344-edenia-pizza-speciale-325g","unitPriceLabel":"49,2 Lei/kg","brand":"Edenia","brandCode":"56","brandFilterCode":"edenia-b52","sku":"100037344","price":15.99,"originalPrice":null,"currencyCode":"RON","currency":"Lei","image":{"thumbnail":{"default":"https://cdn.freshful.ro/media/cache/sylius_shop_product_thumbnail/ba/d5/c5d310155ce77d883364821437ae.jpg"},"large":{"default":"https://cdn.freshful.ro/media/cache/freshful_large/ba/d5/c5d310155ce77d883364821437ae.jpg"},"extralarge":{"default":"https://cdn.freshful.ro/media/cache/sylius_shop_product_original/ba/d5/c5d310155ce77d883364821437ae.jpg"}},"label":null,"tags":[{"type":"Frozen","text":"Congelat","icon":"https://cdn.freshful.ro/assets/product_tags/congelat.svg","iconPng":"https://cdn.freshful.ro/assets/product_tags/congelat.png","backgroundColor":"#EDF6FA","textColor":"#2E9AD1"}],"isAvailable":true,"maxAvailableQuantity":97,"maxAllowedQuantity":100,"breadcrumbs":[{"code":"6","name":"Înghețată & congelate","slug":"6-produse-congelate"},{"code":"603","name":"Semipreparate congelate","slug":"603-semipreparate-congelate"},{"code":"60301","name":"Pizza congelată","slug":"60301-pizza-congelata"},{"code":"100037344","name":"Pizza Speciale 325g","slug":"100037344-edenia-pizza-speciale-325g"}],"activePromotion":null,"saveMe":null,"labels":[],"geniusPrice":null,"geniusUnitPricePerLabel":null,"banner":null,"discountLabel":null,"geniusDiscountLabel":null,"badge":null},{"code":"100095419","variantCode":"100095419","name":"Pizza Guseppe salami 380g","slug":"100095419-dr-oetker-guseppe-pizza-guseppe-salami-380g","unitPriceLabel":"42,87 Lei/kg","brand":"Dr. Oetker-Guseppe","brandCode":"489","brandFilterCode":"dr-oetker-guseppe-b490","sku":"100095419","price":16.29,"originalPrice":null,"currencyCode":"RON","currency":"Lei","image":{"thumbnail":{"default":"https://cdn.freshful.ro/media/cache/sylius_shop_product_thumbnail/7d/e2/09c367289742f1d102896131de80.jpg"},"large":{"default":"https://cdn.freshful.ro/media/cache/freshful_large/7d/e2/09c367289742f1d102896131de80.jpg"},"extralarge":{"default":"https://cdn.freshful.ro/media/cache/sylius_shop_product_original/7d/e2/09c367289742f1d102896131de80.jpg"}},"label":null,"tags":[{"type":"Frozen","text":"Congelat","icon":"https://cdn.freshful.ro/assets/product_tags/congelat.svg","iconPng":"https://cdn.freshful.ro/assets/product_tags/congelat.png","backgroundColor":"#EDF6FA","textColor":"#2E9AD1"}],"isAvailable":true,"maxAvailableQuantity":56,"maxAllowedQuantity":100,"breadcrumbs":[{"code":"6","name":"Înghețată & congelate","slug":"6-produse-congelate"},{"code":"603","name":"Semipreparate congelate","slug":"603-semipreparate-congelate"},{"code":"60301","name":"Pizza congelată","slug":"60301-pizza-congelata"},{"code":"100095419","name":"Pizza Guseppe salami 380g","slug":"100095419-dr-oetker-guseppe-pizza-guseppe-salami-380g"}],"activePromotion":null,"saveMe":null,"labels":[],"geniusPrice":null,"geniusUnitPricePerLabel":null,"banner":null,"discountLabel":null,"geniusDiscountLabel":null,"badge":null}],"filters":{"countSelected":0,"items":[{"code":"promotion","name":"Promoții","countSelected":0,"values":[{"code":"bunatatile-saptamanii-cw0923","name":"Oferta proaspătă a săptămânii","isSelected":false,"count":1}]},{"code":"brand","name":"Brand","countSelected":0,"values":[{"code":"dr-oetker-b51","name":"Dr. Oetker","isSelected":false,"count":8},{"code":"dr-oetker-guseppe-b490","name":"Dr. Oetker-Guseppe","isSelected":false,"count":2},{"code":"dr-oetker-ristorante-b488","name":"Dr. Oetker-Ristorante","isSelected":false,"count":2},{"code":"edenia-b52","name":"Edenia","isSelected":false,"count":11},{"code":"svila-b843","name":"Svila","isSelected":false,"count":2},{"code":"tomi-b261","name":"Tomi","isSelected":false,"count":3}]},{"code":"diet_lifestyle","name":"Dietă și lifestyle","countSelected":0,"values":[{"code":"congelat-a66","name":"Congelat","isSelected":false,"count":28},{"code":"fara-gluten-a16","name":"Fara gluten","isSelected":false,"count":1},{"code":"vegetarian-a28","name":"Vegetarian","isSelected":false,"count":1}]}]},"orderBy":[{"field":"price","direction":"asc","name":"Preț crescător","isSelected":false},{"field":"price","direction":"desc","name":"Preț descrescător","isSelected":false},{"field":"popularity","direction":"desc","name":"Cele mai populare","isSelected":true},{"field":"category","direction":"asc","name":"Categorie","isSelected":false}],"metaTitle":"Pizza congelată - Gamă variată","metaDescription":"Vrei Pizza congelată? Alege dintr-o gamă variată. Comanzi simplu și ai livrare rapidă, calitate și prospețime. Hai pe Freshful.ro","metaKeywords":null,"banners":[]}}