{"type":"subcategory","payload":{"analyticsListId":"category_60402-inghetata-la-cornet-si-vafa","analyticsListName":"Category - Înghețată la cornet și vafă","name":"Înghețată la cornet și vafă","slug":"60402-inghetata-la-cornet-si-vafa","image":null,"breadcrumbs":[{"code":"6","name":"Înghețată & congelate","slug":"6-produse-congelate"},{"code":"604","name":"Înghețată și deserturi congelate","slug":"604-inghetata-si-deserturi-congelate"},{"code":"60402","name":"Înghețată la cornet și vafă","slug":"60402-inghetata-la-cornet-si-vafa"}],"slots":[],"page":1,"limit":10,"pages":2,"count":12,"siblings":[{"name":"Înghețată și deserturi congelate","slug":"604-inghetata-si-deserturi-congelate","selected":true},{"name":"Carne și pește congelate","slug":"601-carne-si-peste-congelate","selected":false},{"name":"Legume și fructe congelate","slug":"602-legume-si-fructe-congelate","selected":false},{"name":"Semipreparate congelate","slug":"603-semipreparate-congelate","selected":false}],"children":[{"name":"Toate produsele","slug":"604-inghetata-si-deserturi-congelate","selected":false},{"name":"Înghețată pe băț și baton","slug":"60401-inghetata-pe-bat-si-baton","selected":false},{"name":"Înghețată la cornet și vafă","slug":"60402-inghetata-la-cornet-si-vafa","selected":true},{"name":"Înghețată mini","slug":"60403-inghetata-mini","selected":false},{"name":"Înghețată la caserolă și cutie","slug":"60404-inghetata-la-caserola-si-cutie","selected":false},{"name":"Deserturi congelate","slug":"60405-deserturi-congelate","selected":false},{"name":"Înghețată artizanală","slug":"inghetata-artizanala","selected":false}],"products":[{"code":"100150380","variantCode":"100150380","name":"Vafă vanilie 80ml","slug":"100150380-ice-dyp-vafa-vanilie-80ml","unitPriceLabel":"19,75 Lei/kg","brand":"Ice Dyp","brandCode":"812","brandFilterCode":"ice-dyp-b813","sku":"100150380","price":0.79,"originalPrice":null,"currencyCode":"RON","currency":"Lei","image":{"thumbnail":{"default":"https://cdn.freshful.ro/media/cache/sylius_shop_product_thumbnail/52/90/da884d4426ef3959a7c1bc717b38.jpg"},"large":{"default":"https://cdn.freshful.ro/media/cache/freshful_large/52/90/da884d4426ef3959a7c1bc717b38.jpg"},"extralarge":{"default":"https://cdn.freshful.ro/media/cache/sylius_shop_product_original/52/90/da884d4426ef3959a7c1bc717b38.jpg"}},"label":{"text":"Primul preț","backgroundColor":"#3A0808","textColor":"#FFFFFF"},"tags":[],"isAvailable":true,"maxAvailableQuantity":100,"maxAllowedQuantity":100,"breadcrumbs":[{"code":"6","name":"Înghețată & congelate","slug":"6-produse-congelate"},{"code":"604","name":"Înghețată și deserturi congelate","slug":"604-inghetata-si-deserturi-congelate"},{"code":"60402","name":"Înghețată la cornet și vafă","slug":"60402-inghetata-la-cornet-si-vafa"},{"code":"100150380","name":"Vafă vanilie 80ml","slug":"100150380-ice-dyp-vafa-vanilie-80ml"}],"activePromotion":null,"saveMe":null,"labels":[{"type":"v4","items":[{"text":"Primul","backgroundColor":"#3A0808","textColor":"#FFFFFF"},{"text":"preț","backgroundColor":"#BC0606","textColor":"#FFFFFF"}]}],"geniusPrice":null,"geniusUnitPricePerLabel":null,"banner":null,"discountLabel":null,"geniusDiscountLabel":null,"badge":null},{"code":"100139277","variantCode":"100139277","name":"Înghețată cu aromă de vanilie cu înveliș de ciocolată 73g","slug":"100139277-joe-inghetata-cu-aroma-de-vanilie-cu-invelis-de-ciocolata-73g","unitPriceLabel":"32,74 Lei/kg","brand":"Joe","brandCode":"293","brandFilterCode":"joe-b294","sku":"100139277","price":2.39,"originalPrice":null,"currencyCode":"RON","currency":"Lei","image":{"thumbnail":{"default":"https://cdn.freshful.ro/media/cache/sylius_shop_product_thumbnail/aa/56/cd2256d015b8af5af8380604fc85.jpg"},"large":{"default":"https://cdn.freshful.ro/media/cache/freshful_large/aa/56/cd2256d015b8af5af8380604fc85.jpg"},"extralarge":{"default":"https://cdn.freshful.ro/media/cache/sylius_shop_product_original/aa/56/cd2256d015b8af5af8380604fc85.jpg"}},"label":null,"tags":[{"type":"Frozen","text":"Congelat","icon":"https://cdn.freshful.ro/assets/product_tags/congelat.svg","iconPng":"https://cdn.freshful.ro/assets/product_tags/congelat.png","backgroundColor":"#EDF6FA","textColor":"#2E9AD1"}],"isAvailable":true,"maxAvailableQuantity":80,"maxAllowedQuantity":100,"breadcrumbs":[{"code":"6","name":"Înghețată & congelate","slug":"6-produse-congelate"},{"code":"604","name":"Înghețată și deserturi congelate","slug":"604-inghetata-si-deserturi-congelate"},{"code":"60402","name":"Înghețată la cornet și vafă","slug":"60402-inghetata-la-cornet-si-vafa"},{"code":"100139277","name":"Înghețată cu aromă de vanilie cu înveliș de ciocolată 73g","slug":"100139277-joe-inghetata-cu-aroma-de-vanilie-cu-invelis-de-ciocolata-73g"}],"activePromotion":null,"saveMe":null,"labels":[],"geniusPrice":null,"geniusUnitPricePerLabel":null,"banner":null,"discountLabel":null,"geniusDiscountLabel":null,"badge":null},{"code":"100150379","variantCode":"100150379","name":"Înghețată vafă cu cacao 80ml","slug":"100150379-ice-dyp-inghetata-vafa-cu-cacao-80ml","unitPriceLabel":"19,75 Lei/kg","brand":"Ice Dyp","brandCode":"812","brandFilterCode":"ice-dyp-b813","sku":"100150379","price":0.79,"originalPrice":null,"currencyCode":"RON","currency":"Lei","image":{"thumbnail":{"default":"https://cdn.freshful.ro/media/cache/sylius_shop_product_thumbnail/be/38/d68850c40481ee294a874815454a.jpg"},"large":{"default":"https://cdn.freshful.ro/media/cache/freshful_large/be/38/d68850c40481ee294a874815454a.jpg"},"extralarge":{"default":"https://cdn.freshful.ro/media/cache/sylius_shop_product_original/be/38/d68850c40481ee294a874815454a.jpg"}},"label":{"text":"Primul preț","backgroundColor":"#3A0808","textColor":"#FFFFFF"},"tags":[{"type":"Frozen","text":"Congelat","icon":"https://cdn.freshful.ro/assets/product_tags/congelat.svg","iconPng":"https://cdn.freshful.ro/assets/product_tags/congelat.png","backgroundColor":"#EDF6FA","textColor":"#2E9AD1"}],"isAvailable":true,"maxAvailableQuantity":73,"maxAllowedQuantity":100,"breadcrumbs":[{"code":"6","name":"Înghețată & congelate","slug":"6-produse-congelate"},{"code":"604","name":"Înghețată și deserturi congelate","slug":"604-inghetata-si-deserturi-congelate"},{"code":"60402","name":"Înghețată la cornet și vafă","slug":"60402-inghetata-la-cornet-si-vafa"},{"code":"100150379","name":"Înghețată vafă cu cacao 80ml","slug":"100150379-ice-dyp-inghetata-vafa-cu-cacao-80ml"}],"activePromotion":null,"saveMe":null,"labels":[{"type":"v4","items":[{"text":"Primul","backgroundColor":"#3A0808","textColor":"#FFFFFF"},{"text":"preț","backgroundColor":"#BC0606","textColor":"#FFFFFF"}]}],"geniusPrice":null,"geniusUnitPricePerLabel":null,"banner":null,"discountLabel":null,"geniusDiscountLabel":null,"badge":null},{"code":"100139276","variantCode":"100139276","name":"Îngheţată de cacao la cornet cu glazură de cacao 73g","slug":"100139276-joe-inghetata-de-cacao-la-cornet-cu-glazura-de-cacao-73g","unitPriceLabel":"32,74 Lei/kg","brand":"Joe","brandCode":"293","brandFilterCode":"joe-b294","sku":"100139276","price":2.39,"originalPrice":null,"currencyCode":"RON","currency":"Lei","image":{"thumbnail":{"default":"https://cdn.freshful.ro/media/cache/sylius_shop_product_thumbnail/45/99/5992eab09c98dd19731c73fb56d2.jpg"},"large":{"default":"https://cdn.freshful.ro/media/cache/freshful_large/45/99/5992eab09c98dd19731c73fb56d2.jpg"},"extralarge":{"default":"https://cdn.freshful.ro/media/cache/sylius_shop_product_original/45/99/5992eab09c98dd19731c73fb56d2.jpg"}},"label":null,"tags":[{"type":"Frozen","text":"Congelat","icon":"https://cdn.freshful.ro/assets/product_tags/congelat.svg","iconPng":"https://cdn.freshful.ro/assets/product_tags/congelat.png","backgroundColor":"#EDF6FA","textColor":"#2E9AD1"}],"isAvailable":true,"maxAvailableQuantity":3,"maxAllowedQuantity":100,"breadcrumbs":[{"code":"6","name":"Înghețată & congelate","slug":"6-produse-congelate"},{"code":"604","name":"Înghețată și deserturi congelate","slug":"604-inghetata-si-deserturi-congelate"},{"code":"60402","name":"Înghețată la cornet și vafă","slug":"60402-inghetata-la-cornet-si-vafa"},{"code":"100139276","name":"Îngheţată de cacao la cornet cu glazură de cacao 73g","slug":"100139276-joe-inghetata-de-cacao-la-cornet-cu-glazura-de-cacao-73g"}],"activePromotion":null,"saveMe":null,"labels":[],"geniusPrice":null,"geniusUnitPricePerLabel":null,"banner":null,"discountLabel":null,"geniusDiscountLabel":null,"badge":null},{"code":"100045096","variantCode":"100045096","name":"Cornet cu înghețată de ciocolată şi vanilie 93g","slug":"100045096-topgun-cornet-cu-inghetata-de-ciocolata-si-vanilie-93g","unitPriceLabel":"63,39 Lei/kg","brand":"Topgun","brandCode":"801","brandFilterCode":"topgun-b802","sku":"100045096","price":5.89,"originalPrice":null,"currencyCode":"RON","currency":"Lei","image":{"thumbnail":{"default":"https://cdn.freshful.ro/media/cache/sylius_shop_product_thumbnail/58/13/d4b898f17a0a2a5a1879cb3e6e57.jpg"},"large":{"default":"https://cdn.freshful.ro/media/cache/freshful_large/58/13/d4b898f17a0a2a5a1879cb3e6e57.jpg"},"extralarge":{"default":"https://cdn.freshful.ro/media/cache/sylius_shop_product_original/58/13/d4b898f17a0a2a5a1879cb3e6e57.jpg"}},"label":null,"tags":[{"type":"Frozen","text":"Congelat","icon":"https://cdn.freshful.ro/assets/product_tags/congelat.svg","iconPng":"https://cdn.freshful.ro/assets/product_tags/congelat.png","backgroundColor":"#EDF6FA","textColor":"#2E9AD1"}],"isAvailable":true,"maxAvailableQuantity":13,"maxAllowedQuantity":100,"breadcrumbs":[{"code":"6","name":"Înghețată & congelate","slug":"6-produse-congelate"},{"code":"604","name":"Înghețată și deserturi congelate","slug":"604-inghetata-si-deserturi-congelate"},{"code":"60402","name":"Înghețată la cornet și vafă","slug":"60402-inghetata-la-cornet-si-vafa"},{"code":"100045096","name":"Cornet cu înghețată de ciocolată şi vanilie 93g","slug":"100045096-topgun-cornet-cu-inghetata-de-ciocolata-si-vanilie-93g"}],"activePromotion":null,"saveMe":null,"labels":[],"geniusPrice":null,"geniusUnitPricePerLabel":null,"banner":null,"discountLabel":null,"geniusDiscountLabel":null,"badge":null},{"code":"100045212","variantCode":"100045212","name":"Înghețată cu vanilie la cornet 6x45g","slug":"100045212-bibi-con-inghetata-cu-vanilie-la-cornet-6x45g","unitPriceLabel":"48,11 Lei/kg","brand":"Bibi Con","brandCode":"815","brandFilterCode":"bibi-con-b816","sku":"100045212","price":12.99,"originalPrice":null,"currencyCode":"RON","currency":"Lei","image":{"thumbnail":{"default":"https://cdn.freshful.ro/media/cache/sylius_shop_product_thumbnail/c1/c8/08cc829dd11d7ce7b4e6a296d151.jpg"},"large":{"default":"https://cdn.freshful.ro/media/cache/freshful_large/c1/c8/08cc829dd11d7ce7b4e6a296d151.jpg"},"extralarge":{"default":"https://cdn.freshful.ro/media/cache/sylius_shop_product_original/c1/c8/08cc829dd11d7ce7b4e6a296d151.jpg"}},"label":null,"tags":[{"type":"Frozen","text":"Congelat","icon":"https://cdn.freshful.ro/assets/product_tags/congelat.svg","iconPng":"https://cdn.freshful.ro/assets/product_tags/congelat.png","backgroundColor":"#EDF6FA","textColor":"#2E9AD1"}],"isAvailable":true,"maxAvailableQuantity":43,"maxAllowedQuantity":100,"breadcrumbs":[{"code":"6","name":"Înghețată & congelate","slug":"6-produse-congelate"},{"code":"604","name":"Înghețată și deserturi congelate","slug":"604-inghetata-si-deserturi-congelate"},{"code":"60402","name":"Înghețată la cornet și vafă","slug":"60402-inghetata-la-cornet-si-vafa"},{"code":"100045212","name":"Înghețată cu vanilie la cornet 6x45g","slug":"100045212-bibi-con-inghetata-cu-vanilie-la-cornet-6x45g"}],"activePromotion":null,"saveMe":null,"labels":[],"geniusPrice":null,"geniusUnitPricePerLabel":null,"banner":null,"discountLabel":null,"geniusDiscountLabel":null,"badge":null},{"code":"100045211","variantCode":"100045211","name":"Înghețată de cacao la cornet 6x45g","slug":"100045211-bibi-con-inghetata-de-cacao-la-cornet-6x45g","unitPriceLabel":"48,11 Lei/kg","brand":"Bibi Con","brandCode":"815","brandFilterCode":"bibi-con-b816","sku":"100045211","price":12.99,"originalPrice":null,"currencyCode":"RON","currency":"Lei","image":{"thumbnail":{"default":"https://cdn.freshful.ro/media/cache/sylius_shop_product_thumbnail/dc/4c/3b72929649b091aee769dbcdf806.jpg"},"large":{"default":"https://cdn.freshful.ro/media/cache/freshful_large/dc/4c/3b72929649b091aee769dbcdf806.jpg"},"extralarge":{"default":"https://cdn.freshful.ro/media/cache/sylius_shop_product_original/dc/4c/3b72929649b091aee769dbcdf806.jpg"}},"label":null,"tags":[{"type":"Frozen","text":"Congelat","icon":"https://cdn.freshful.ro/assets/product_tags/congelat.svg","iconPng":"https://cdn.freshful.ro/assets/product_tags/congelat.png","backgroundColor":"#EDF6FA","textColor":"#2E9AD1"}],"isAvailable":true,"maxAvailableQuantity":24,"maxAllowedQuantity":100,"breadcrumbs":[{"code":"6","name":"Înghețată & congelate","slug":"6-produse-congelate"},{"code":"604","name":"Înghețată și deserturi congelate","slug":"604-inghetata-si-deserturi-congelate"},{"code":"60402","name":"Înghețată la cornet și vafă","slug":"60402-inghetata-la-cornet-si-vafa"},{"code":"100045211","name":"Înghețată de cacao la cornet 6x45g","slug":"100045211-bibi-con-inghetata-de-cacao-la-cornet-6x45g"}],"activePromotion":null,"saveMe":null,"labels":[],"geniusPrice":null,"geniusUnitPricePerLabel":null,"banner":null,"discountLabel":null,"geniusDiscountLabel":null,"badge":null},{"code":"100045210","variantCode":"100045210","name":"Înghețată cu căpșune la cornet 6x45g","slug":"100045210-bibi-con-inghetata-cu-capsune-la-cornet-6x45g","unitPriceLabel":"48,11 Lei/kg","brand":"Bibi Con","brandCode":"815","brandFilterCode":"bibi-con-b816","sku":"100045210","price":12.99,"originalPrice":null,"currencyCode":"RON","currency":"Lei","image":{"thumbnail":{"default":"https://cdn.freshful.ro/media/cache/sylius_shop_product_thumbnail/ea/b8/b2c26ca42fef415ace0a5b14cca3.jpg"},"large":{"default":"https://cdn.freshful.ro/media/cache/freshful_large/ea/b8/b2c26ca42fef415ace0a5b14cca3.jpg"},"extralarge":{"default":"https://cdn.freshful.ro/media/cache/sylius_shop_product_original/ea/b8/b2c26ca42fef415ace0a5b14cca3.jpg"}},"label":null,"tags":[{"type":"Frozen","text":"Congelat","icon":"https://cdn.freshful.ro/assets/product_tags/congelat.svg","iconPng":"https://cdn.freshful.ro/assets/product_tags/congelat.png","backgroundColor":"#EDF6FA","textColor":"#2E9AD1"}],"isAvailable":true,"maxAvailableQuantity":6,"maxAllowedQuantity":100,"breadcrumbs":[{"code":"6","name":"Înghețată & congelate","slug":"6-produse-congelate"},{"code":"604","name":"Înghețată și deserturi congelate","slug":"604-inghetata-si-deserturi-congelate"},{"code":"60402","name":"Înghețată la cornet și vafă","slug":"60402-inghetata-la-cornet-si-vafa"},{"code":"100045210","name":"Înghețată cu căpșune la cornet 6x45g","slug":"100045210-bibi-con-inghetata-cu-capsune-la-cornet-6x45g"}],"activePromotion":null,"saveMe":null,"labels":[],"geniusPrice":null,"geniusUnitPricePerLabel":null,"banner":null,"discountLabel":null,"geniusDiscountLabel":null,"badge":null},{"code":"100150381","variantCode":"100150381","name":"Înghețată vafă cu căpșuni 40g","slug":"100150381-ice-dyp-inghetata-vafa-cu-capsuni-40g","unitPriceLabel":"22,25 Lei/kg","brand":"Ice Dyp","brandCode":"812","brandFilterCode":"ice-dyp-b813","sku":"100150381","price":0.89,"originalPrice":null,"currencyCode":"RON","currency":"Lei","image":{"thumbnail":{"default":"https://cdn.freshful.ro/media/cache/sylius_shop_product_thumbnail/7e/60/f55d6ac2658be5e5d3dbd2f64cd0.jpg"},"large":{"default":"https://cdn.freshful.ro/media/cache/freshful_large/7e/60/f55d6ac2658be5e5d3dbd2f64cd0.jpg"},"extralarge":{"default":"https://cdn.freshful.ro/media/cache/sylius_shop_product_original/7e/60/f55d6ac2658be5e5d3dbd2f64cd0.jpg"}},"label":null,"tags":[],"isAvailable":true,"maxAvailableQuantity":22,"maxAllowedQuantity":100,"breadcrumbs":[{"code":"6","name":"Înghețată & congelate","slug":"6-produse-congelate"},{"code":"604","name":"Înghețată și deserturi congelate","slug":"604-inghetata-si-deserturi-congelate"},{"code":"60402","name":"Înghețată la cornet și vafă","slug":"60402-inghetata-la-cornet-si-vafa"},{"code":"100150381","name":"Înghețată vafă cu căpșuni 40g","slug":"100150381-ice-dyp-inghetata-vafa-cu-capsuni-40g"}],"activePromotion":null,"saveMe":null,"labels":[],"geniusPrice":null,"geniusUnitPricePerLabel":null,"banner":null,"discountLabel":null,"geniusDiscountLabel":null,"badge":null},{"code":"100045098","variantCode":"100045098","name":"Cornet cu îngheţată de vanilie și sirop de cacao 142g","slug":"100045098-topgun-cornet-cu-inghetata-de-vanilie-si-sirop-de-cacao-142g","unitPriceLabel":"56,27 Lei/kg","brand":"Topgun","brandCode":"801","brandFilterCode":"topgun-b802","sku":"100045098","price":7.99,"originalPrice":null,"currencyCode":"RON","currency":"Lei","image":{"thumbnail":{"default":"https://cdn.freshful.ro/media/cache/sylius_shop_product_thumbnail/f9/fa/9187c378a4d22e35005c68b82d7f.jpg"},"large":{"default":"https://cdn.freshful.ro/media/cache/freshful_large/f9/fa/9187c378a4d22e35005c68b82d7f.jpg"},"extralarge":{"default":"https://cdn.freshful.ro/media/cache/sylius_shop_product_original/f9/fa/9187c378a4d22e35005c68b82d7f.jpg"}},"label":null,"tags":[{"type":"Frozen","text":"Congelat","icon":"https://cdn.freshful.ro/assets/product_tags/congelat.svg","iconPng":"https://cdn.freshful.ro/assets/product_tags/congelat.png","backgroundColor":"#EDF6FA","textColor":"#2E9AD1"}],"isAvailable":true,"maxAvailableQuantity":5,"maxAllowedQuantity":100,"breadcrumbs":[{"code":"6","name":"Înghețată & congelate","slug":"6-produse-congelate"},{"code":"604","name":"Înghețată și deserturi congelate","slug":"604-inghetata-si-deserturi-congelate"},{"code":"60402","name":"Înghețată la cornet și vafă","slug":"60402-inghetata-la-cornet-si-vafa"},{"code":"100045098","name":"Cornet cu îngheţată de vanilie și sirop de cacao 142g","slug":"100045098-topgun-cornet-cu-inghetata-de-vanilie-si-sirop-de-cacao-142g"}],"activePromotion":null,"saveMe":null,"labels":[],"geniusPrice":null,"geniusUnitPricePerLabel":null,"banner":null,"discountLabel":null,"geniusDiscountLabel":null,"badge":null}],"filters":{"countSelected":0,"items":[{"code":"brand","name":"Brand","countSelected":0,"values":[{"code":"bibi-con-b816","name":"Bibi Con","isSelected":false,"count":3},{"code":"cornetto-b1262","name":"Cornetto","isSelected":false,"count":2},{"code":"ice-dyp-b813","name":"Ice Dyp","isSelected":false,"count":3},{"code":"joe-b294","name":"Joe","isSelected":false,"count":2},{"code":"topgun-b802","name":"Topgun","isSelected":false,"count":2}]},{"code":"diet_lifestyle","name":"Dietă și lifestyle","countSelected":0,"values":[{"code":"congelat-a66","name":"Congelat","isSelected":false,"count":10}]}]},"orderBy":[{"field":"price","direction":"asc","name":"Preț crescător","isSelected":false},{"field":"price","direction":"desc","name":"Preț descrescător","isSelected":false},{"field":"popularity","direction":"desc","name":"Cele mai populare","isSelected":true},{"field":"category","direction":"asc","name":"Categorie","isSelected":false}],"metaTitle":"Înghețată la cornet și vafă - Gamă variată","metaDescription":"Vrei Înghețată la cornet și vafă? Alege dintr-o gamă variată. Comanzi simplu și ai livrare rapidă, calitate și prospețime. Hai pe Freshful.ro","metaKeywords":null,"banners":[]}}