{"type":"subcategory","payload":{"analyticsListId":"category_60405-deserturi-congelate","analyticsListName":"Category - Deserturi congelate","name":"Deserturi congelate","slug":"60405-deserturi-congelate","image":null,"breadcrumbs":[{"code":"6","name":"Înghețată & congelate","slug":"6-produse-congelate"},{"code":"604","name":"Înghețată și deserturi congelate","slug":"604-inghetata-si-deserturi-congelate"},{"code":"60405","name":"Deserturi congelate","slug":"60405-deserturi-congelate"}],"slots":[],"page":1,"limit":10,"pages":5,"count":41,"siblings":[{"name":"Înghețată și deserturi congelate","slug":"604-inghetata-si-deserturi-congelate","selected":true},{"name":"Carne și pește congelate","slug":"601-carne-si-peste-congelate","selected":false},{"name":"Legume și fructe congelate","slug":"602-legume-si-fructe-congelate","selected":false},{"name":"Semipreparate congelate","slug":"603-semipreparate-congelate","selected":false}],"children":[{"name":"Toate produsele","slug":"604-inghetata-si-deserturi-congelate","selected":false},{"name":"Înghețată pe băț și baton","slug":"60401-inghetata-pe-bat-si-baton","selected":false},{"name":"Înghețată la cornet și vafă","slug":"60402-inghetata-la-cornet-si-vafa","selected":false},{"name":"Înghețată mini","slug":"60403-inghetata-mini","selected":false},{"name":"Înghețată la caserolă și cutie","slug":"60404-inghetata-la-caserola-si-cutie","selected":false},{"name":"Deserturi congelate","slug":"60405-deserturi-congelate","selected":true},{"name":"Înghețată artizanală","slug":"inghetata-artizanala","selected":false}],"products":[{"code":"100122971","variantCode":"100122971","name":"Plăcintă încrețită vegetală 850g ","slug":"100122971-alfa-placinta-incretita-vegetala-850g","unitPriceLabel":"30,58 Lei/kg","brand":"Alfa","brandCode":"214","brandFilterCode":"alfa-b215","sku":"100122971","price":25.99,"originalPrice":32.99,"currencyCode":"RON","currency":"Lei","image":{"thumbnail":{"default":"https://cdn.freshful.ro/media/cache/sylius_shop_product_thumbnail/11/7e/0c7cb74ce718be62bf1ddd7a92be.jpg"},"large":{"default":"https://cdn.freshful.ro/media/cache/freshful_large/11/7e/0c7cb74ce718be62bf1ddd7a92be.jpg"},"extralarge":{"default":"https://cdn.freshful.ro/media/cache/sylius_shop_product_original/11/7e/0c7cb74ce718be62bf1ddd7a92be.jpg"}},"label":{"text":"-21%","backgroundColor":"#FF9903","textColor":"#FFFFFF"},"tags":[{"type":"vegan","text":"Vegan","icon":"https://cdn.freshful.ro/assets/product_tags/vegan.svg","iconPng":"https://cdn.freshful.ro/assets/product_tags/vegan.png","backgroundColor":"#ECF9F8","textColor":"#33A39C"},{"type":"Frozen","text":"Congelat","icon":"https://cdn.freshful.ro/assets/product_tags/congelat.svg","iconPng":"https://cdn.freshful.ro/assets/product_tags/congelat.png","backgroundColor":"#EDF6FA","textColor":"#2E9AD1"}],"isAvailable":true,"maxAvailableQuantity":31,"maxAllowedQuantity":100,"breadcrumbs":[{"code":"6","name":"Înghețată & congelate","slug":"6-produse-congelate"},{"code":"604","name":"Înghețată și deserturi congelate","slug":"604-inghetata-si-deserturi-congelate"},{"code":"60405","name":"Deserturi congelate","slug":"60405-deserturi-congelate"},{"code":"100122971","name":"Plăcintă încrețită vegetală 850g ","slug":"100122971-alfa-placinta-incretita-vegetala-850g"}],"activePromotion":{"code":"bunatatile-saptamanii-cw0923","name":"Preț redus","targetQuantity":null},"saveMe":null,"labels":[{"type":"v1","items":[{"text":"-21%","backgroundColor":"#FF9903","textColor":"#FFFFFF"}]}],"geniusPrice":null,"geniusUnitPricePerLabel":null,"banner":{"text":"Super preț","textColor":"#FF0000","bgColor":"#FFF2EC","icon":null,"link":"https://www.freshful.ro/oferte/bunatatile-saptamanii-cw0923","type":"promo","analyticsEventType":"select_promotion","analyticsEventPayload":{"promotion_id":"bunatatile-saptamanii-cw0923","promotion_name":"Oferta proaspătă a săptămânii"}},"discountLabel":"Economisești 21%","geniusDiscountLabel":null,"badge":null},{"code":"100103088","variantCode":"100103088","name":"Foi groase de plăcintă 400g","slug":"100103088-linco-patisero-foi-groase-de-placinta-400g","unitPriceLabel":"21,73 Lei/kg","brand":"Linco Patisero","brandCode":"945","brandFilterCode":"linco-patisero-b945","sku":"100103088","price":8.69,"originalPrice":null,"currencyCode":"RON","currency":"Lei","image":{"thumbnail":{"default":"https://cdn.freshful.ro/media/cache/sylius_shop_product_thumbnail/00/40/f2bf34dbb7541a550563e93666a5.jpg"},"large":{"default":"https://cdn.freshful.ro/media/cache/freshful_large/00/40/f2bf34dbb7541a550563e93666a5.jpg"},"extralarge":{"default":"https://cdn.freshful.ro/media/cache/sylius_shop_product_original/00/40/f2bf34dbb7541a550563e93666a5.jpg"}},"label":null,"tags":[{"type":"vegan","text":"Vegan","icon":"https://cdn.freshful.ro/assets/product_tags/vegan.svg","iconPng":"https://cdn.freshful.ro/assets/product_tags/vegan.png","backgroundColor":"#ECF9F8","textColor":"#33A39C"},{"type":"Frozen","text":"Congelat","icon":"https://cdn.freshful.ro/assets/product_tags/congelat.svg","iconPng":"https://cdn.freshful.ro/assets/product_tags/congelat.png","backgroundColor":"#EDF6FA","textColor":"#2E9AD1"},{"type":"NoPreservatives","text":"Fara conservanti","icon":"https://cdn.freshful.ro/assets/product_tags/fara_conservanti.svg","iconPng":"https://cdn.freshful.ro/assets/product_tags/fara_conservanti.png","backgroundColor":"#F0F2FF","textColor":"#7889DD"}],"isAvailable":true,"maxAvailableQuantity":63,"maxAllowedQuantity":100,"breadcrumbs":[{"code":"6","name":"Înghețată & congelate","slug":"6-produse-congelate"},{"code":"604","name":"Înghețată și deserturi congelate","slug":"604-inghetata-si-deserturi-congelate"},{"code":"60405","name":"Deserturi congelate","slug":"60405-deserturi-congelate"},{"code":"100103088","name":"Foi groase de plăcintă 400g","slug":"100103088-linco-patisero-foi-groase-de-placinta-400g"}],"activePromotion":null,"saveMe":null,"labels":[],"geniusPrice":null,"geniusUnitPricePerLabel":null,"banner":null,"discountLabel":null,"geniusDiscountLabel":null,"badge":null},{"code":"100063180","variantCode":"100063180","name":"Foi de placintă  400g","slug":"100063180-linco-patisero-foi-de-placinta-400g","unitPriceLabel":"16,23 Lei/kg","brand":"Linco Patisero","brandCode":"945","brandFilterCode":"linco-patisero-b945","sku":"100063180","price":6.49,"originalPrice":null,"currencyCode":"RON","currency":"Lei","image":{"thumbnail":{"default":"https://cdn.freshful.ro/media/cache/sylius_shop_product_thumbnail/fd/a9/b9ce1f623396b498840dab68e5c7.jpg"},"large":{"default":"https://cdn.freshful.ro/media/cache/freshful_large/fd/a9/b9ce1f623396b498840dab68e5c7.jpg"},"extralarge":{"default":"https://cdn.freshful.ro/media/cache/sylius_shop_product_original/fd/a9/b9ce1f623396b498840dab68e5c7.jpg"}},"label":null,"tags":[{"type":"vegan","text":"Vegan","icon":"https://cdn.freshful.ro/assets/product_tags/vegan.svg","iconPng":"https://cdn.freshful.ro/assets/product_tags/vegan.png","backgroundColor":"#ECF9F8","textColor":"#33A39C"},{"type":"Frozen","text":"Congelat","icon":"https://cdn.freshful.ro/assets/product_tags/congelat.svg","iconPng":"https://cdn.freshful.ro/assets/product_tags/congelat.png","backgroundColor":"#EDF6FA","textColor":"#2E9AD1"},{"type":"NoPreservatives","text":"Fara conservanti","icon":"https://cdn.freshful.ro/assets/product_tags/fara_conservanti.svg","iconPng":"https://cdn.freshful.ro/assets/product_tags/fara_conservanti.png","backgroundColor":"#F0F2FF","textColor":"#7889DD"}],"isAvailable":true,"maxAvailableQuantity":100,"maxAllowedQuantity":100,"breadcrumbs":[{"code":"6","name":"Înghețată & congelate","slug":"6-produse-congelate"},{"code":"604","name":"Înghețată și deserturi congelate","slug":"604-inghetata-si-deserturi-congelate"},{"code":"60405","name":"Deserturi congelate","slug":"60405-deserturi-congelate"},{"code":"100063180","name":"Foi de placintă  400g","slug":"100063180-linco-patisero-foi-de-placinta-400g"}],"activePromotion":null,"saveMe":null,"labels":[],"geniusPrice":null,"geniusUnitPricePerLabel":null,"banner":null,"discountLabel":null,"geniusDiscountLabel":null,"badge":null},{"code":"100132617","variantCode":"100132617","name":"Aluat foietaj 800g","slug":"100132617-morarita-aluat-foietaj-800g","unitPriceLabel":"13,74 Lei/kg","brand":"Morăriţa","brandCode":"485","brandFilterCode":"morarita-b486","sku":"100132617","price":10.99,"originalPrice":null,"currencyCode":"RON","currency":"Lei","image":{"thumbnail":{"default":"https://cdn.freshful.ro/media/cache/sylius_shop_product_thumbnail/a3/96/b8a0ef2f5086ea22cd2ee917bfb9.jpg"},"large":{"default":"https://cdn.freshful.ro/media/cache/freshful_large/a3/96/b8a0ef2f5086ea22cd2ee917bfb9.jpg"},"extralarge":{"default":"https://cdn.freshful.ro/media/cache/sylius_shop_product_original/a3/96/b8a0ef2f5086ea22cd2ee917bfb9.jpg"}},"label":null,"tags":[{"type":"Frozen","text":"Congelat","icon":"https://cdn.freshful.ro/assets/product_tags/congelat.svg","iconPng":"https://cdn.freshful.ro/assets/product_tags/congelat.png","backgroundColor":"#EDF6FA","textColor":"#2E9AD1"}],"isAvailable":true,"maxAvailableQuantity":48,"maxAllowedQuantity":100,"breadcrumbs":[{"code":"6","name":"Înghețată & congelate","slug":"6-produse-congelate"},{"code":"604","name":"Înghețată și deserturi congelate","slug":"604-inghetata-si-deserturi-congelate"},{"code":"60405","name":"Deserturi congelate","slug":"60405-deserturi-congelate"},{"code":"100132617","name":"Aluat foietaj 800g","slug":"100132617-morarita-aluat-foietaj-800g"}],"activePromotion":null,"saveMe":null,"labels":[],"geniusPrice":null,"geniusUnitPricePerLabel":null,"banner":null,"discountLabel":null,"geniusDiscountLabel":null,"badge":null},{"code":"100063179","variantCode":"100063179","name":"Aluat foietaj 800g  ","slug":"100063179-linco-patisero-aluat-foietaj-800g","unitPriceLabel":"15,61 Lei/kg","brand":"Linco Patisero","brandCode":"945","brandFilterCode":"linco-patisero-b945","sku":"100063179","price":12.49,"originalPrice":null,"currencyCode":"RON","currency":"Lei","image":{"thumbnail":{"default":"https://cdn.freshful.ro/media/cache/sylius_shop_product_thumbnail/05/7f/c5ae510b215a8e6757c00f69212c.jpg"},"large":{"default":"https://cdn.freshful.ro/media/cache/freshful_large/05/7f/c5ae510b215a8e6757c00f69212c.jpg"},"extralarge":{"default":"https://cdn.freshful.ro/media/cache/sylius_shop_product_original/05/7f/c5ae510b215a8e6757c00f69212c.jpg"}},"label":null,"tags":[{"type":"vegan","text":"Vegan","icon":"https://cdn.freshful.ro/assets/product_tags/vegan.svg","iconPng":"https://cdn.freshful.ro/assets/product_tags/vegan.png","backgroundColor":"#ECF9F8","textColor":"#33A39C"},{"type":"Frozen","text":"Congelat","icon":"https://cdn.freshful.ro/assets/product_tags/congelat.svg","iconPng":"https://cdn.freshful.ro/assets/product_tags/congelat.png","backgroundColor":"#EDF6FA","textColor":"#2E9AD1"},{"type":"NoPreservatives","text":"Fara conservanti","icon":"https://cdn.freshful.ro/assets/product_tags/fara_conservanti.svg","iconPng":"https://cdn.freshful.ro/assets/product_tags/fara_conservanti.png","backgroundColor":"#F0F2FF","textColor":"#7889DD"}],"isAvailable":true,"maxAvailableQuantity":79,"maxAllowedQuantity":100,"breadcrumbs":[{"code":"6","name":"Înghețată & congelate","slug":"6-produse-congelate"},{"code":"604","name":"Înghețată și deserturi congelate","slug":"604-inghetata-si-deserturi-congelate"},{"code":"60405","name":"Deserturi congelate","slug":"60405-deserturi-congelate"},{"code":"100063179","name":"Aluat foietaj 800g  ","slug":"100063179-linco-patisero-aluat-foietaj-800g"}],"activePromotion":null,"saveMe":null,"labels":[],"geniusPrice":null,"geniusUnitPricePerLabel":null,"banner":null,"discountLabel":null,"geniusDiscountLabel":null,"badge":null},{"code":"100143943","variantCode":"100143943","name":"Croissant 6 buc (60g) ","slug":"100143943-bridor-croissant-6-buc-60g","unitPriceLabel":"72,19 Lei/kg","brand":"Bridor","brandCode":"2782","brandFilterCode":"bridor-b2856","sku":"100143943","price":25.99,"originalPrice":null,"currencyCode":"RON","currency":"Lei","image":{"thumbnail":{"default":"https://cdn.freshful.ro/media/cache/sylius_shop_product_thumbnail/fc/70/a9aae5b226ef6c7de0da989a0a2e.jpg"},"large":{"default":"https://cdn.freshful.ro/media/cache/freshful_large/fc/70/a9aae5b226ef6c7de0da989a0a2e.jpg"},"extralarge":{"default":"https://cdn.freshful.ro/media/cache/sylius_shop_product_original/fc/70/a9aae5b226ef6c7de0da989a0a2e.jpg"}},"label":null,"tags":[{"type":"Frozen","text":"Congelat","icon":"https://cdn.freshful.ro/assets/product_tags/congelat.svg","iconPng":"https://cdn.freshful.ro/assets/product_tags/congelat.png","backgroundColor":"#EDF6FA","textColor":"#2E9AD1"}],"isAvailable":true,"maxAvailableQuantity":6,"maxAllowedQuantity":6,"breadcrumbs":[{"code":"6","name":"Înghețată & congelate","slug":"6-produse-congelate"},{"code":"604","name":"Înghețată și deserturi congelate","slug":"604-inghetata-si-deserturi-congelate"},{"code":"60405","name":"Deserturi congelate","slug":"60405-deserturi-congelate"},{"code":"100143943","name":"Croissant 6 buc (60g) ","slug":"100143943-bridor-croissant-6-buc-60g"}],"activePromotion":null,"saveMe":null,"labels":[],"geniusPrice":null,"geniusUnitPricePerLabel":null,"banner":null,"discountLabel":null,"geniusDiscountLabel":null,"badge":null},{"code":"100032351","variantCode":"5202535477011","name":"Plăcintă grecească cu vanilie Bougatsa 800g","slug":"100032351-alfa-placinta-greceasca-cu-vanilie-bougatsa-800g","unitPriceLabel":"27,36 Lei/kg","brand":"Alfa","brandCode":"214","brandFilterCode":"alfa-b215","sku":"100032351","price":21.89,"originalPrice":null,"currencyCode":"RON","currency":"Lei","image":{"thumbnail":{"default":"https://cdn.freshful.ro/media/cache/sylius_shop_product_thumbnail/68/69/ebf6b49cd333b010b3c248533594.jpg"},"large":{"default":"https://cdn.freshful.ro/media/cache/freshful_large/68/69/ebf6b49cd333b010b3c248533594.jpg"},"extralarge":{"default":"https://cdn.freshful.ro/media/cache/sylius_shop_product_original/68/69/ebf6b49cd333b010b3c248533594.jpg"}},"label":null,"tags":[{"type":"vegan","text":"Vegan","icon":"https://cdn.freshful.ro/assets/product_tags/vegan.svg","iconPng":"https://cdn.freshful.ro/assets/product_tags/vegan.png","backgroundColor":"#ECF9F8","textColor":"#33A39C"},{"type":"Frozen","text":"Congelat","icon":"https://cdn.freshful.ro/assets/product_tags/congelat.svg","iconPng":"https://cdn.freshful.ro/assets/product_tags/congelat.png","backgroundColor":"#EDF6FA","textColor":"#2E9AD1"},{"type":"NoPreservatives","text":"Fara conservanti","icon":"https://cdn.freshful.ro/assets/product_tags/fara_conservanti.svg","iconPng":"https://cdn.freshful.ro/assets/product_tags/fara_conservanti.png","backgroundColor":"#F0F2FF","textColor":"#7889DD"}],"isAvailable":true,"maxAvailableQuantity":68,"maxAllowedQuantity":100,"breadcrumbs":[{"code":"6","name":"Înghețată & congelate","slug":"6-produse-congelate"},{"code":"604","name":"Înghețată și deserturi congelate","slug":"604-inghetata-si-deserturi-congelate"},{"code":"60405","name":"Deserturi congelate","slug":"60405-deserturi-congelate"},{"code":"100032351","name":"Plăcintă grecească cu vanilie Bougatsa 800g","slug":"100032351-alfa-placinta-greceasca-cu-vanilie-bougatsa-800g"}],"activePromotion":null,"saveMe":null,"labels":[],"geniusPrice":null,"geniusUnitPricePerLabel":null,"banner":null,"discountLabel":null,"geniusDiscountLabel":null,"badge":null},{"code":"100045674","variantCode":"100045674","name":"Mini croissant cu ciocolată și cremă de alune 8x45g ","slug":"100045674-schulstad-mini-croissant-cu-ciocolata-si-crema-de-alune-8x45g","unitPriceLabel":"88,86 Lei/kg","brand":"Schulstad","brandCode":"439","brandFilterCode":"schulstad-b440","sku":"100045674","price":31.99,"originalPrice":null,"currencyCode":"RON","currency":"Lei","image":{"thumbnail":{"default":"https://cdn.freshful.ro/media/cache/sylius_shop_product_thumbnail/5d/d5/ff92e8fcec7c335913935daae27c.jpg"},"large":{"default":"https://cdn.freshful.ro/media/cache/freshful_large/5d/d5/ff92e8fcec7c335913935daae27c.jpg"},"extralarge":{"default":"https://cdn.freshful.ro/media/cache/sylius_shop_product_original/5d/d5/ff92e8fcec7c335913935daae27c.jpg"}},"label":null,"tags":[{"type":"Frozen","text":"Congelat","icon":"https://cdn.freshful.ro/assets/product_tags/congelat.svg","iconPng":"https://cdn.freshful.ro/assets/product_tags/congelat.png","backgroundColor":"#EDF6FA","textColor":"#2E9AD1"}],"isAvailable":true,"maxAvailableQuantity":97,"maxAllowedQuantity":100,"breadcrumbs":[{"code":"6","name":"Înghețată & congelate","slug":"6-produse-congelate"},{"code":"604","name":"Înghețată și deserturi congelate","slug":"604-inghetata-si-deserturi-congelate"},{"code":"60405","name":"Deserturi congelate","slug":"60405-deserturi-congelate"},{"code":"100045674","name":"Mini croissant cu ciocolată și cremă de alune 8x45g ","slug":"100045674-schulstad-mini-croissant-cu-ciocolata-si-crema-de-alune-8x45g"}],"activePromotion":null,"saveMe":null,"labels":[],"geniusPrice":null,"geniusUnitPricePerLabel":null,"banner":null,"discountLabel":null,"geniusDiscountLabel":null,"badge":null},{"code":"100063178","variantCode":"100063178","name":"Plăcintă cu mere și scorțișoară 800g","slug":"100063178-linco-patisero-placinta-cu-mere-si-scortisoara-800g","unitPriceLabel":"29,36 Lei/kg","brand":"Linco Patisero","brandCode":"945","brandFilterCode":"linco-patisero-b945","sku":"100063178","price":23.49,"originalPrice":null,"currencyCode":"RON","currency":"Lei","image":{"thumbnail":{"default":"https://cdn.freshful.ro/media/cache/sylius_shop_product_thumbnail/3f/61/d52e56c95ef51a97a5c3ea2d04d6.jpg"},"large":{"default":"https://cdn.freshful.ro/media/cache/freshful_large/3f/61/d52e56c95ef51a97a5c3ea2d04d6.jpg"},"extralarge":{"default":"https://cdn.freshful.ro/media/cache/sylius_shop_product_original/3f/61/d52e56c95ef51a97a5c3ea2d04d6.jpg"}},"label":null,"tags":[{"type":"vegan","text":"Vegan","icon":"https://cdn.freshful.ro/assets/product_tags/vegan.svg","iconPng":"https://cdn.freshful.ro/assets/product_tags/vegan.png","backgroundColor":"#ECF9F8","textColor":"#33A39C"},{"type":"Frozen","text":"Congelat","icon":"https://cdn.freshful.ro/assets/product_tags/congelat.svg","iconPng":"https://cdn.freshful.ro/assets/product_tags/congelat.png","backgroundColor":"#EDF6FA","textColor":"#2E9AD1"},{"type":"NoPreservatives","text":"Fara conservanti","icon":"https://cdn.freshful.ro/assets/product_tags/fara_conservanti.svg","iconPng":"https://cdn.freshful.ro/assets/product_tags/fara_conservanti.png","backgroundColor":"#F0F2FF","textColor":"#7889DD"},{"type":"MadeInRomania","text":"Made In Romania","icon":"https://cdn.freshful.ro/assets/product_tags/made_in_romania.svg","iconPng":"https://cdn.freshful.ro/assets/product_tags/made_in_romania.png","backgroundColor":"#EDF2FD","textColor":"#1653CA"}],"isAvailable":true,"maxAvailableQuantity":5,"maxAllowedQuantity":100,"breadcrumbs":[{"code":"6","name":"Înghețată & congelate","slug":"6-produse-congelate"},{"code":"604","name":"Înghețată și deserturi congelate","slug":"604-inghetata-si-deserturi-congelate"},{"code":"60405","name":"Deserturi congelate","slug":"60405-deserturi-congelate"},{"code":"100063178","name":"Plăcintă cu mere și scorțișoară 800g","slug":"100063178-linco-patisero-placinta-cu-mere-si-scortisoara-800g"}],"activePromotion":null,"saveMe":null,"labels":[],"geniusPrice":null,"geniusUnitPricePerLabel":null,"banner":null,"discountLabel":null,"geniusDiscountLabel":null,"badge":null},{"code":"100039077","variantCode":"100039077","name":"Aluat foi pentru plăcintă 400g","slug":"100039077-morarita-aluat-foi-pentru-placinta-400g","unitPriceLabel":"14,23 Lei/kg","brand":"Morăriţa","brandCode":"485","brandFilterCode":"morarita-b486","sku":"100039077","price":5.69,"originalPrice":null,"currencyCode":"RON","currency":"Lei","image":{"thumbnail":{"default":"https://cdn.freshful.ro/media/cache/sylius_shop_product_thumbnail/e5/47/606b91afa9997e21c097169a1b57.jpg"},"large":{"default":"https://cdn.freshful.ro/media/cache/freshful_large/e5/47/606b91afa9997e21c097169a1b57.jpg"},"extralarge":{"default":"https://cdn.freshful.ro/media/cache/sylius_shop_product_original/e5/47/606b91afa9997e21c097169a1b57.jpg"}},"label":null,"tags":[{"type":"Frozen","text":"Congelat","icon":"https://cdn.freshful.ro/assets/product_tags/congelat.svg","iconPng":"https://cdn.freshful.ro/assets/product_tags/congelat.png","backgroundColor":"#EDF6FA","textColor":"#2E9AD1"}],"isAvailable":true,"maxAvailableQuantity":53,"maxAllowedQuantity":100,"breadcrumbs":[{"code":"6","name":"Înghețată & congelate","slug":"6-produse-congelate"},{"code":"604","name":"Înghețată și deserturi congelate","slug":"604-inghetata-si-deserturi-congelate"},{"code":"60405","name":"Deserturi congelate","slug":"60405-deserturi-congelate"},{"code":"100039077","name":"Aluat foi pentru plăcintă 400g","slug":"100039077-morarita-aluat-foi-pentru-placinta-400g"}],"activePromotion":null,"saveMe":null,"labels":[],"geniusPrice":null,"geniusUnitPricePerLabel":null,"banner":null,"discountLabel":null,"geniusDiscountLabel":null,"badge":null}],"filters":{"countSelected":0,"items":[{"code":"promotion","name":"Promoții","countSelected":0,"values":[{"code":"bunatatile-saptamanii-cw0923","name":"Oferta proaspătă a săptămânii","isSelected":false,"count":1}]},{"code":"brand","name":"Brand","countSelected":0,"values":[{"code":"alfa-b215","name":"Alfa","isSelected":false,"count":10},{"code":"asinia-lact-b220","name":"Asinia Lact","isSelected":false,"count":1},{"code":"bridor-b2856","name":"Bridor","isSelected":false,"count":2},{"code":"brutaria-bardar-b2619","name":"Brutăria Bardar","isSelected":false,"count":5},{"code":"coppenrath-wiese-b487","name":"Coppenrath & Wiese","isSelected":false,"count":1},{"code":"la-strada-b59","name":"La Strada","isSelected":false,"count":3},{"code":"linco-patisero-b945","name":"Linco Patisero","isSelected":false,"count":12},{"code":"morarita-b486","name":"Morăriţa","isSelected":false,"count":4},{"code":"schulstad-b440","name":"Schulstad","isSelected":false,"count":3}]},{"code":"diet_lifestyle","name":"Dietă și lifestyle","countSelected":0,"values":[{"code":"congelat-a66","name":"Congelat","isSelected":false,"count":41},{"code":"eco-a83","name":"Eco","isSelected":false,"count":1},{"code":"fara-conservanti-a37","name":"Fara conservanti","isSelected":false,"count":7},{"code":"made-in-romania-a85","name":"Made In Romania","isSelected":false,"count":2},{"code":"vegan-a24","name":"Vegan","isSelected":false,"count":8}]}]},"orderBy":[{"field":"price","direction":"asc","name":"Preț crescător","isSelected":false},{"field":"price","direction":"desc","name":"Preț descrescător","isSelected":false},{"field":"popularity","direction":"desc","name":"Cele mai populare","isSelected":true},{"field":"category","direction":"asc","name":"Categorie","isSelected":false}],"metaTitle":"Deserturi congelate - Gamă variată","metaDescription":"Vrei Deserturi congelate? Alege dintr-o gamă variată. Comanzi simplu și ai livrare rapidă, calitate și prospețime. Hai pe Freshful.ro","metaKeywords":null,"banners":[]}}