{"type":"subcategory","payload":{"analyticsListId":"category_60404-inghetata-la-caserola-si-cutie","analyticsListName":"Category - Înghețată la caserolă și cutie","name":"Înghețată la caserolă și cutie","slug":"60404-inghetata-la-caserola-si-cutie","image":null,"breadcrumbs":[{"code":"6","name":"Înghețată & congelate","slug":"6-produse-congelate"},{"code":"604","name":"Înghețată și deserturi congelate","slug":"604-inghetata-si-deserturi-congelate"},{"code":"60404","name":"Înghețată la caserolă și cutie","slug":"60404-inghetata-la-caserola-si-cutie"}],"slots":[],"page":1,"limit":10,"pages":5,"count":50,"siblings":[{"name":"Înghețată și deserturi congelate","slug":"604-inghetata-si-deserturi-congelate","selected":true},{"name":"Carne și pește congelate","slug":"601-carne-si-peste-congelate","selected":false},{"name":"Legume și fructe congelate","slug":"602-legume-si-fructe-congelate","selected":false},{"name":"Semipreparate congelate","slug":"603-semipreparate-congelate","selected":false}],"children":[{"name":"Toate produsele","slug":"604-inghetata-si-deserturi-congelate","selected":false},{"name":"Înghețată pe băț și baton","slug":"60401-inghetata-pe-bat-si-baton","selected":false},{"name":"Înghețată la cornet și vafă","slug":"60402-inghetata-la-cornet-si-vafa","selected":false},{"name":"Înghețată mini","slug":"60403-inghetata-mini","selected":false},{"name":"Înghețată la caserolă și cutie","slug":"60404-inghetata-la-caserola-si-cutie","selected":true},{"name":"Deserturi congelate","slug":"60405-deserturi-congelate","selected":false},{"name":"Înghețată artizanală","slug":"inghetata-artizanala","selected":false}],"products":[{"code":"100031545","variantCode":"100031545","name":"Gheață cuburi 2kg","slug":"100031545-ice-world-gheata-cuburi-2kg","unitPriceLabel":"3,78 Lei/kg","brand":"Ice World","brandCode":"182","brandFilterCode":"ice-world-b183","sku":"100031545","price":7.55,"originalPrice":null,"currencyCode":"RON","currency":"Lei","image":{"thumbnail":{"default":"https://cdn.freshful.ro/media/cache/sylius_shop_product_thumbnail/93/51/b5e740927871264f2ff70769acf1.jpg"},"large":{"default":"https://cdn.freshful.ro/media/cache/freshful_large/93/51/b5e740927871264f2ff70769acf1.jpg"},"extralarge":{"default":"https://cdn.freshful.ro/media/cache/sylius_shop_product_original/93/51/b5e740927871264f2ff70769acf1.jpg"}},"label":null,"tags":[{"type":"Frozen","text":"Congelat","icon":"https://cdn.freshful.ro/assets/product_tags/congelat.svg","iconPng":"https://cdn.freshful.ro/assets/product_tags/congelat.png","backgroundColor":"#EDF6FA","textColor":"#2E9AD1"}],"isAvailable":true,"maxAvailableQuantity":3,"maxAllowedQuantity":3,"breadcrumbs":[{"code":"6","name":"Înghețată & congelate","slug":"6-produse-congelate"},{"code":"604","name":"Înghețată și deserturi congelate","slug":"604-inghetata-si-deserturi-congelate"},{"code":"60404","name":"Înghețată la caserolă și cutie","slug":"60404-inghetata-la-caserola-si-cutie"},{"code":"100031545","name":"Gheață cuburi 2kg","slug":"100031545-ice-world-gheata-cuburi-2kg"}],"activePromotion":null,"saveMe":null,"labels":[],"geniusPrice":null,"geniusUnitPricePerLabel":null,"banner":null,"discountLabel":null,"geniusDiscountLabel":null,"badge":null},{"code":"100131651","variantCode":"100131651","name":"Înghețată cu caramel sărat, rom și biscuiți 400g","slug":"100131651-haagen-dazs-inghetata-cu-caramel-sarat-rom-si-biscuiti-400g","unitPriceLabel":"99,98 Lei/kg","brand":"Haagen Dazs","brandCode":"59","brandFilterCode":"haagen-dazs-b55","sku":"100131651","price":39.99,"originalPrice":null,"currencyCode":"RON","currency":"Lei","image":{"thumbnail":{"default":"https://cdn.freshful.ro/media/cache/sylius_shop_product_thumbnail/2f/06/2bb3cbc5f5da0b8d0af3aa6e5115.jpg"},"large":{"default":"https://cdn.freshful.ro/media/cache/freshful_large/2f/06/2bb3cbc5f5da0b8d0af3aa6e5115.jpg"},"extralarge":{"default":"https://cdn.freshful.ro/media/cache/sylius_shop_product_original/2f/06/2bb3cbc5f5da0b8d0af3aa6e5115.jpg"}},"label":null,"tags":[{"type":"Frozen","text":"Congelat","icon":"https://cdn.freshful.ro/assets/product_tags/congelat.svg","iconPng":"https://cdn.freshful.ro/assets/product_tags/congelat.png","backgroundColor":"#EDF6FA","textColor":"#2E9AD1"}],"isAvailable":true,"maxAvailableQuantity":3,"maxAllowedQuantity":3,"breadcrumbs":[{"code":"6","name":"Înghețată & congelate","slug":"6-produse-congelate"},{"code":"604","name":"Înghețată și deserturi congelate","slug":"604-inghetata-si-deserturi-congelate"},{"code":"60404","name":"Înghețată la caserolă și cutie","slug":"60404-inghetata-la-caserola-si-cutie"},{"code":"100131651","name":"Înghețată cu caramel sărat, rom și biscuiți 400g","slug":"100131651-haagen-dazs-inghetata-cu-caramel-sarat-rom-si-biscuiti-400g"}],"activePromotion":null,"saveMe":null,"labels":[],"geniusPrice":null,"geniusUnitPricePerLabel":null,"banner":null,"discountLabel":null,"geniusDiscountLabel":null,"badge":null},{"code":"100045116","variantCode":"100045116","name":"Înghețată de vanilie cu biscuiți  335g","slug":"100045116-nirvana-inghetata-de-vanilie-cu-biscuiti-335g","unitPriceLabel":"89,52 Lei/kg","brand":"Nirvana","brandCode":"799","brandFilterCode":"nirvana-b800","sku":"100045116","price":29.99,"originalPrice":null,"currencyCode":"RON","currency":"Lei","image":{"thumbnail":{"default":"https://cdn.freshful.ro/media/cache/sylius_shop_product_thumbnail/37/8e/102014f7e87593f79aa2ba8ac09e.jpg"},"large":{"default":"https://cdn.freshful.ro/media/cache/freshful_large/37/8e/102014f7e87593f79aa2ba8ac09e.jpg"},"extralarge":{"default":"https://cdn.freshful.ro/media/cache/sylius_shop_product_original/37/8e/102014f7e87593f79aa2ba8ac09e.jpg"}},"label":null,"tags":[{"type":"Frozen","text":"Congelat","icon":"https://cdn.freshful.ro/assets/product_tags/congelat.svg","iconPng":"https://cdn.freshful.ro/assets/product_tags/congelat.png","backgroundColor":"#EDF6FA","textColor":"#2E9AD1"}],"isAvailable":true,"maxAvailableQuantity":3,"maxAllowedQuantity":3,"breadcrumbs":[{"code":"6","name":"Înghețată & congelate","slug":"6-produse-congelate"},{"code":"604","name":"Înghețată și deserturi congelate","slug":"604-inghetata-si-deserturi-congelate"},{"code":"60404","name":"Înghețată la caserolă și cutie","slug":"60404-inghetata-la-caserola-si-cutie"},{"code":"100045116","name":"Înghețată de vanilie cu biscuiți  335g","slug":"100045116-nirvana-inghetata-de-vanilie-cu-biscuiti-335g"}],"activePromotion":null,"saveMe":null,"labels":[],"geniusPrice":null,"geniusUnitPricePerLabel":null,"banner":null,"discountLabel":null,"geniusDiscountLabel":null,"badge":null},{"code":"100037283","variantCode":"100037283","name":"Înghețată de căpșuni și frișcă 400g","slug":"100037283-haagen-dazs-inghetata-de-capsuni-si-frisca-400g","unitPriceLabel":"86,23 Lei/kg","brand":"Haagen Dazs","brandCode":"59","brandFilterCode":"haagen-dazs-b55","sku":"100037283","price":34.49,"originalPrice":null,"currencyCode":"RON","currency":"Lei","image":{"thumbnail":{"default":"https://cdn.freshful.ro/media/cache/sylius_shop_product_thumbnail/bc/2f/92a6a4cf2623d0cba30121713a6e.jpg"},"large":{"default":"https://cdn.freshful.ro/media/cache/freshful_large/bc/2f/92a6a4cf2623d0cba30121713a6e.jpg"},"extralarge":{"default":"https://cdn.freshful.ro/media/cache/sylius_shop_product_original/bc/2f/92a6a4cf2623d0cba30121713a6e.jpg"}},"label":null,"tags":[{"type":"NoGluten","text":"Fara gluten","icon":"https://cdn.freshful.ro/assets/product_tags/fara_gluten.svg","iconPng":"https://cdn.freshful.ro/assets/product_tags/fara_gluten.png","backgroundColor":"#FFF2E5","textColor":"#F07900"},{"type":"Frozen","text":"Congelat","icon":"https://cdn.freshful.ro/assets/product_tags/congelat.svg","iconPng":"https://cdn.freshful.ro/assets/product_tags/congelat.png","backgroundColor":"#EDF6FA","textColor":"#2E9AD1"}],"isAvailable":true,"maxAvailableQuantity":3,"maxAllowedQuantity":3,"breadcrumbs":[{"code":"6","name":"Înghețată & congelate","slug":"6-produse-congelate"},{"code":"604","name":"Înghețată și deserturi congelate","slug":"604-inghetata-si-deserturi-congelate"},{"code":"60404","name":"Înghețată la caserolă și cutie","slug":"60404-inghetata-la-caserola-si-cutie"},{"code":"100037283","name":"Înghețată de căpșuni și frișcă 400g","slug":"100037283-haagen-dazs-inghetata-de-capsuni-si-frisca-400g"}],"activePromotion":null,"saveMe":null,"labels":[],"geniusPrice":null,"geniusUnitPricePerLabel":null,"banner":null,"discountLabel":null,"geniusDiscountLabel":null,"badge":null},{"code":"100037289","variantCode":"100037289","name":"Înghețată caramel sărat 400g","slug":"100037289-haagen-dazs-inghetata-caramel-sarat-400g","unitPriceLabel":"94,98 Lei/kg","brand":"Haagen Dazs","brandCode":"59","brandFilterCode":"haagen-dazs-b55","sku":"100037289","price":37.99,"originalPrice":null,"currencyCode":"RON","currency":"Lei","image":{"thumbnail":{"default":"https://cdn.freshful.ro/media/cache/sylius_shop_product_thumbnail/88/6f/8fee52aab4304a9f6a9fd623c5bc.jpg"},"large":{"default":"https://cdn.freshful.ro/media/cache/freshful_large/88/6f/8fee52aab4304a9f6a9fd623c5bc.jpg"},"extralarge":{"default":"https://cdn.freshful.ro/media/cache/sylius_shop_product_original/88/6f/8fee52aab4304a9f6a9fd623c5bc.jpg"}},"label":null,"tags":[{"type":"NoGluten","text":"Fara gluten","icon":"https://cdn.freshful.ro/assets/product_tags/fara_gluten.svg","iconPng":"https://cdn.freshful.ro/assets/product_tags/fara_gluten.png","backgroundColor":"#FFF2E5","textColor":"#F07900"},{"type":"Frozen","text":"Congelat","icon":"https://cdn.freshful.ro/assets/product_tags/congelat.svg","iconPng":"https://cdn.freshful.ro/assets/product_tags/congelat.png","backgroundColor":"#EDF6FA","textColor":"#2E9AD1"}],"isAvailable":true,"maxAvailableQuantity":3,"maxAllowedQuantity":3,"breadcrumbs":[{"code":"6","name":"Înghețată & congelate","slug":"6-produse-congelate"},{"code":"604","name":"Înghețată și deserturi congelate","slug":"604-inghetata-si-deserturi-congelate"},{"code":"60404","name":"Înghețată la caserolă și cutie","slug":"60404-inghetata-la-caserola-si-cutie"},{"code":"100037289","name":"Înghețată caramel sărat 400g","slug":"100037289-haagen-dazs-inghetata-caramel-sarat-400g"}],"activePromotion":null,"saveMe":null,"labels":[],"geniusPrice":null,"geniusUnitPricePerLabel":null,"banner":null,"discountLabel":null,"geniusDiscountLabel":null,"badge":null},{"code":"100037280","variantCode":"100037280","name":"Înghețată de vanilie 400g","slug":"100037280-haagen-dazs-inghetata-de-vanilie-400g","unitPriceLabel":"94,98 Lei/kg","brand":"Haagen Dazs","brandCode":"59","brandFilterCode":"haagen-dazs-b55","sku":"100037280","price":37.99,"originalPrice":null,"currencyCode":"RON","currency":"Lei","image":{"thumbnail":{"default":"https://cdn.freshful.ro/media/cache/sylius_shop_product_thumbnail/c2/af/1317bbeecb4d39d7db3c701b420c.jpg"},"large":{"default":"https://cdn.freshful.ro/media/cache/freshful_large/c2/af/1317bbeecb4d39d7db3c701b420c.jpg"},"extralarge":{"default":"https://cdn.freshful.ro/media/cache/sylius_shop_product_original/c2/af/1317bbeecb4d39d7db3c701b420c.jpg"}},"label":null,"tags":[{"type":"NoGluten","text":"Fara gluten","icon":"https://cdn.freshful.ro/assets/product_tags/fara_gluten.svg","iconPng":"https://cdn.freshful.ro/assets/product_tags/fara_gluten.png","backgroundColor":"#FFF2E5","textColor":"#F07900"},{"type":"Frozen","text":"Congelat","icon":"https://cdn.freshful.ro/assets/product_tags/congelat.svg","iconPng":"https://cdn.freshful.ro/assets/product_tags/congelat.png","backgroundColor":"#EDF6FA","textColor":"#2E9AD1"}],"isAvailable":true,"maxAvailableQuantity":3,"maxAllowedQuantity":3,"breadcrumbs":[{"code":"6","name":"Înghețată & congelate","slug":"6-produse-congelate"},{"code":"604","name":"Înghețată și deserturi congelate","slug":"604-inghetata-si-deserturi-congelate"},{"code":"60404","name":"Înghețată la caserolă și cutie","slug":"60404-inghetata-la-caserola-si-cutie"},{"code":"100037280","name":"Înghețată de vanilie 400g","slug":"100037280-haagen-dazs-inghetata-de-vanilie-400g"}],"activePromotion":null,"saveMe":null,"labels":[],"geniusPrice":null,"geniusUnitPricePerLabel":null,"banner":null,"discountLabel":null,"geniusDiscountLabel":null,"badge":null},{"code":"100037275","variantCode":"100037275","name":"Înghețată cu ciocolată belgiană 400g","slug":"100037275-haagen-dazs-inghetata-cu-ciocolata-belgiana-400g","unitPriceLabel":"94,98 Lei/kg","brand":"Haagen Dazs","brandCode":"59","brandFilterCode":"haagen-dazs-b55","sku":"100037275","price":37.99,"originalPrice":null,"currencyCode":"RON","currency":"Lei","image":{"thumbnail":{"default":"https://cdn.freshful.ro/media/cache/sylius_shop_product_thumbnail/ed/2f/ccf9ec25a58c9ee909b227a9e685.jpg"},"large":{"default":"https://cdn.freshful.ro/media/cache/freshful_large/ed/2f/ccf9ec25a58c9ee909b227a9e685.jpg"},"extralarge":{"default":"https://cdn.freshful.ro/media/cache/sylius_shop_product_original/ed/2f/ccf9ec25a58c9ee909b227a9e685.jpg"}},"label":null,"tags":[{"type":"Frozen","text":"Congelat","icon":"https://cdn.freshful.ro/assets/product_tags/congelat.svg","iconPng":"https://cdn.freshful.ro/assets/product_tags/congelat.png","backgroundColor":"#EDF6FA","textColor":"#2E9AD1"},{"type":"NoGluten","text":"Fara gluten","icon":"https://cdn.freshful.ro/assets/product_tags/fara_gluten.svg","iconPng":"https://cdn.freshful.ro/assets/product_tags/fara_gluten.png","backgroundColor":"#FFF2E5","textColor":"#F07900"}],"isAvailable":true,"maxAvailableQuantity":3,"maxAllowedQuantity":3,"breadcrumbs":[{"code":"6","name":"Înghețată & congelate","slug":"6-produse-congelate"},{"code":"604","name":"Înghețată și deserturi congelate","slug":"604-inghetata-si-deserturi-congelate"},{"code":"60404","name":"Înghețată la caserolă și cutie","slug":"60404-inghetata-la-caserola-si-cutie"},{"code":"100037275","name":"Înghețată cu ciocolată belgiană 400g","slug":"100037275-haagen-dazs-inghetata-cu-ciocolata-belgiana-400g"}],"activePromotion":null,"saveMe":null,"labels":[],"geniusPrice":null,"geniusUnitPricePerLabel":null,"banner":null,"discountLabel":null,"geniusDiscountLabel":null,"badge":null},{"code":"100045103","variantCode":"100045103","name":"Înghețată de cacao cu sirop de cacao 505g ","slug":"100045103-aloma-inghetata-de-cacao-cu-sirop-de-cacao-505g","unitPriceLabel":"38,59 Lei/kg","brand":"Aloma","brandCode":"802","brandFilterCode":"aloma-b803","sku":"100045103","price":19.49,"originalPrice":null,"currencyCode":"RON","currency":"Lei","image":{"thumbnail":{"default":"https://cdn.freshful.ro/media/cache/sylius_shop_product_thumbnail/29/f4/2d742ddb7e454bc13a452dff0cab.jpg"},"large":{"default":"https://cdn.freshful.ro/media/cache/freshful_large/29/f4/2d742ddb7e454bc13a452dff0cab.jpg"},"extralarge":{"default":"https://cdn.freshful.ro/media/cache/sylius_shop_product_original/29/f4/2d742ddb7e454bc13a452dff0cab.jpg"}},"label":null,"tags":[{"type":"Frozen","text":"Congelat","icon":"https://cdn.freshful.ro/assets/product_tags/congelat.svg","iconPng":"https://cdn.freshful.ro/assets/product_tags/congelat.png","backgroundColor":"#EDF6FA","textColor":"#2E9AD1"}],"isAvailable":true,"maxAvailableQuantity":3,"maxAllowedQuantity":3,"breadcrumbs":[{"code":"6","name":"Înghețată & congelate","slug":"6-produse-congelate"},{"code":"604","name":"Înghețată și deserturi congelate","slug":"604-inghetata-si-deserturi-congelate"},{"code":"60404","name":"Înghețată la caserolă și cutie","slug":"60404-inghetata-la-caserola-si-cutie"},{"code":"100045103","name":"Înghețată de cacao cu sirop de cacao 505g ","slug":"100045103-aloma-inghetata-de-cacao-cu-sirop-de-cacao-505g"}],"activePromotion":null,"saveMe":null,"labels":[],"geniusPrice":null,"geniusUnitPricePerLabel":null,"banner":null,"discountLabel":null,"geniusDiscountLabel":null,"badge":null},{"code":"100140611","variantCode":"100140611","name":"Înghețată cu arahide și ciocolată cu lapte 295g","slug":"100140611-mars-inghetata-cu-arahide-si-ciocolata-cu-lapte-295g","unitPriceLabel":"66,64 Lei/l","brand":"Mars","brandCode":"65","brandFilterCode":"mars-b62","sku":"100140611","price":29.99,"originalPrice":null,"currencyCode":"RON","currency":"Lei","image":{"thumbnail":{"default":"https://cdn.freshful.ro/media/cache/sylius_shop_product_thumbnail/f1/d0/bfbc9913e6f2b04581f75489abe7.jpg"},"large":{"default":"https://cdn.freshful.ro/media/cache/freshful_large/f1/d0/bfbc9913e6f2b04581f75489abe7.jpg"},"extralarge":{"default":"https://cdn.freshful.ro/media/cache/sylius_shop_product_original/f1/d0/bfbc9913e6f2b04581f75489abe7.jpg"}},"label":null,"tags":[{"type":"Frozen","text":"Congelat","icon":"https://cdn.freshful.ro/assets/product_tags/congelat.svg","iconPng":"https://cdn.freshful.ro/assets/product_tags/congelat.png","backgroundColor":"#EDF6FA","textColor":"#2E9AD1"}],"isAvailable":true,"maxAvailableQuantity":3,"maxAllowedQuantity":3,"breadcrumbs":[{"code":"6","name":"Înghețată & congelate","slug":"6-produse-congelate"},{"code":"604","name":"Înghețată și deserturi congelate","slug":"604-inghetata-si-deserturi-congelate"},{"code":"60404","name":"Înghețată la caserolă și cutie","slug":"60404-inghetata-la-caserola-si-cutie"},{"code":"100140611","name":"Înghețată cu arahide și ciocolată cu lapte 295g","slug":"100140611-mars-inghetata-cu-arahide-si-ciocolata-cu-lapte-295g"}],"activePromotion":null,"saveMe":null,"labels":[],"geniusPrice":null,"geniusUnitPricePerLabel":null,"banner":null,"discountLabel":null,"geniusDiscountLabel":null,"badge":null},{"code":"100047306","variantCode":"100047306","name":"Înghețată fistic 500g","slug":"100047306-siviero-maria-inghetata-fistic-500g","unitPriceLabel":"28,99 Lei/l","brand":"Siviero Maria","brandCode":"834","brandFilterCode":"siviero-maria-b835","sku":"100047306","price":28.99,"originalPrice":null,"currencyCode":"RON","currency":"Lei","image":{"thumbnail":{"default":"https://cdn.freshful.ro/media/cache/sylius_shop_product_thumbnail/38/2c/c715418d82e328f2bdc8a5e08c64.jpg"},"large":{"default":"https://cdn.freshful.ro/media/cache/freshful_large/38/2c/c715418d82e328f2bdc8a5e08c64.jpg"},"extralarge":{"default":"https://cdn.freshful.ro/media/cache/sylius_shop_product_original/38/2c/c715418d82e328f2bdc8a5e08c64.jpg"}},"label":null,"tags":[{"type":"NoGluten","text":"Fara gluten","icon":"https://cdn.freshful.ro/assets/product_tags/fara_gluten.svg","iconPng":"https://cdn.freshful.ro/assets/product_tags/fara_gluten.png","backgroundColor":"#FFF2E5","textColor":"#F07900"},{"type":"Frozen","text":"Congelat","icon":"https://cdn.freshful.ro/assets/product_tags/congelat.svg","iconPng":"https://cdn.freshful.ro/assets/product_tags/congelat.png","backgroundColor":"#EDF6FA","textColor":"#2E9AD1"}],"isAvailable":true,"maxAvailableQuantity":3,"maxAllowedQuantity":3,"breadcrumbs":[{"code":"6","name":"Înghețată & congelate","slug":"6-produse-congelate"},{"code":"604","name":"Înghețată și deserturi congelate","slug":"604-inghetata-si-deserturi-congelate"},{"code":"60404","name":"Înghețată la caserolă și cutie","slug":"60404-inghetata-la-caserola-si-cutie"},{"code":"100047306","name":"Înghețată fistic 500g","slug":"100047306-siviero-maria-inghetata-fistic-500g"}],"activePromotion":null,"saveMe":null,"labels":[],"geniusPrice":null,"geniusUnitPricePerLabel":null,"banner":null,"discountLabel":null,"geniusDiscountLabel":null,"badge":null}],"filters":{"countSelected":0,"items":[{"code":"brand","name":"Brand","countSelected":0,"values":[{"code":"alive-b729","name":"Alive","isSelected":false,"count":1},{"code":"aloma-b803","name":"Aloma","isSelected":false,"count":1},{"code":"alpro-b25","name":"Alpro","isSelected":false,"count":1},{"code":"bio-magic-moments-b820","name":"Bio Magic Moments","isSelected":false,"count":4},{"code":"carte-d-or-b20","name":"Carte D'or","isSelected":false,"count":1},{"code":"corso-b50","name":"Corso","isSelected":false,"count":2},{"code":"frasco-b2678","name":"Frasco","isSelected":false,"count":1},{"code":"haagen-dazs-b55","name":"Haagen Dazs","isSelected":false,"count":10},{"code":"ice-dyp-b813","name":"Ice Dyp","isSelected":false,"count":1},{"code":"ice-world-b183","name":"Ice World","isSelected":false,"count":3},{"code":"la-strada-b59","name":"La Strada","isSelected":false,"count":1},{"code":"magical-dreams-b812","name":"Magical Dreams","isSelected":false,"count":3},{"code":"magnum-b24","name":"Magnum","isSelected":false,"count":1},{"code":"mars-b62","name":"Mars","isSelected":false,"count":2},{"code":"movenpick-b746","name":"Mövenpick","isSelected":false,"count":1},{"code":"nirvana-b800","name":"Nirvana","isSelected":false,"count":4},{"code":"siviero-maria-b835","name":"Siviero Maria","isSelected":false,"count":8},{"code":"tonitto-b492","name":"Tonitto","isSelected":false,"count":4},{"code":"valsoia-b1666","name":"Valsoia","isSelected":false,"count":1}]},{"code":"diet_lifestyle","name":"Dietă și lifestyle","countSelected":0,"values":[{"code":"congelat-a66","name":"Congelat","isSelected":false,"count":50},{"code":"eco-a83","name":"Eco","isSelected":false,"count":8},{"code":"fara-gluten-a16","name":"Fara gluten","isSelected":false,"count":17},{"code":"fara-lactoza-a38","name":"Fara lactoza","isSelected":false,"count":2},{"code":"fara-zahar-adaugat-a29","name":"Fara zahar adaugat","isSelected":false,"count":1},{"code":"vegan-a24","name":"Vegan","isSelected":false,"count":5}]}]},"orderBy":[{"field":"price","direction":"asc","name":"Preț crescător","isSelected":false},{"field":"price","direction":"desc","name":"Preț descrescător","isSelected":false},{"field":"popularity","direction":"desc","name":"Cele mai populare","isSelected":true},{"field":"category","direction":"asc","name":"Categorie","isSelected":false}],"metaTitle":"Înghețată la caserolă și cutie - Gamă variată","metaDescription":"Vrei Înghețată la caserolă și cutie? Alege dintr-o gamă variată. Comanzi simplu și ai livrare rapidă, calitate și prospețime. Hai pe Freshful.ro","metaKeywords":null,"banners":[]}}