{"type":"subcategory","payload":{"analyticsListId":"category_701-bauturi-necarbogazoase-si-siropuri","analyticsListName":"Category - Băuturi necarbogazoase și siropuri","name":"Băuturi necarbogazoase și siropuri","slug":"701-bauturi-necarbogazoase-si-siropuri","image":null,"breadcrumbs":[{"code":"7","name":"Băuturi","slug":"7-bauturi-si-tutun"},{"code":"701","name":"Băuturi necarbogazoase și siropuri","slug":"701-bauturi-necarbogazoase-si-siropuri"}],"slots":[],"page":1,"limit":10,"pages":28,"count":273,"siblings":[{"name":"Băuturi necarbogazoase și siropuri","slug":"701-bauturi-necarbogazoase-si-siropuri","selected":true},{"name":"Apă","slug":"702-apa","selected":false},{"name":"Băuturi carbogazoase","slug":"703-bauturi-carbogazoase","selected":false},{"name":"Bere","slug":"704-bere","selected":false},{"name":"Vinuri","slug":"705-vinuri","selected":false},{"name":"Băuturi spirtoase","slug":"706-bauturi-spirtoase","selected":false},{"name":"Tutun","slug":"707-tutun","selected":false}],"children":[{"name":"Toate produsele","slug":"701-bauturi-necarbogazoase-si-siropuri","selected":true},{"name":"Sucuri și nectaruri","slug":"70101-sucuri-si-nectar","selected":false},{"name":"Băuturi fructate necarbogazoase","slug":"70102-bauturi-fructate-necarbogazoase","selected":false},{"name":"Siropuri și concentrate","slug":"70103-sirop-si-concentrat","selected":false},{"name":"Ice Tea","slug":"ice-tea","selected":false}],"products":[{"code":"100002732","variantCode":"5449000236036","name":"Ceai verde lime și mentă 1.5l","slug":"100002732-fuzetea-ceai-verde-lime-si-menta-1-5l","unitPriceLabel":"3,59 Lei/l","brand":"Fuzetea","brandCode":"280","brandFilterCode":"fuzetea-b281","sku":"100002732","price":5.39,"originalPrice":null,"currencyCode":"RON","currency":"Lei","image":{"thumbnail":{"default":"https://cdn.freshful.ro/media/cache/sylius_shop_product_thumbnail/83/63/d85d99510459612a57a9218dc100.jpg"},"large":{"default":"https://cdn.freshful.ro/media/cache/freshful_large/83/63/d85d99510459612a57a9218dc100.jpg"},"extralarge":{"default":"https://cdn.freshful.ro/media/cache/sylius_shop_product_original/83/63/d85d99510459612a57a9218dc100.jpg"}},"label":{"text":"Profită acum","backgroundColor":"#FF9903","textColor":"#FFFFFF"},"tags":[],"isAvailable":true,"maxAvailableQuantity":24,"maxAllowedQuantity":24,"breadcrumbs":[{"code":"7","name":"Băuturi","slug":"7-bauturi-si-tutun"},{"code":"701","name":"Băuturi necarbogazoase și siropuri","slug":"701-bauturi-necarbogazoase-si-siropuri"},{"code":"70104","name":"Ice Tea","slug":"ice-tea"},{"code":"100002732","name":"Ceai verde lime și mentă 1.5l","slug":"100002732-fuzetea-ceai-verde-lime-si-menta-1-5l"}],"activePromotion":{"code":"oferte-bacanie-bauturi-21feb-8mar23","name":"Preț avantajos","targetQuantity":null},"saveMe":null,"labels":[{"type":"v1","items":[{"text":"Profită acum","backgroundColor":"#FF9903","textColor":"#FFFFFF"}]}],"geniusPrice":null,"geniusUnitPricePerLabel":null,"banner":{"text":"Preț avantajos","textColor":"#F95510","bgColor":"#FEF1CD","icon":null,"link":"https://www.freshful.ro/oferte/oferte-bacanie-bauturi-21feb-8mar23","type":"promo","analyticsEventType":"select_promotion","analyticsEventPayload":{"promotion_id":"oferte-bacanie-bauturi-21feb-8mar23","promotion_name":"Cămara cu băuturi și bunătăți"}},"discountLabel":null,"geniusDiscountLabel":null,"badge":null},{"code":"100043997","variantCode":"100043997","name":"Suc de portocale roșii 2l","slug":"100043997-pfanner-suc-de-portocale-rosii-2l","unitPriceLabel":"6 Lei/l","brand":"Pfanner","brandCode":"777","brandFilterCode":"pfanner-b778","sku":"100043997","price":11.99,"originalPrice":null,"currencyCode":"RON","currency":"Lei","image":{"thumbnail":{"default":"https://cdn.freshful.ro/media/cache/sylius_shop_product_thumbnail/e4/65/0f38d36c23fd72a77359762f1404.jpg"},"large":{"default":"https://cdn.freshful.ro/media/cache/freshful_large/e4/65/0f38d36c23fd72a77359762f1404.jpg"},"extralarge":{"default":"https://cdn.freshful.ro/media/cache/sylius_shop_product_original/e4/65/0f38d36c23fd72a77359762f1404.jpg"}},"label":{"text":"Profită acum","backgroundColor":"#FF9903","textColor":"#FFFFFF"},"tags":[],"isAvailable":true,"maxAvailableQuantity":24,"maxAllowedQuantity":24,"breadcrumbs":[{"code":"7","name":"Băuturi","slug":"7-bauturi-si-tutun"},{"code":"701","name":"Băuturi necarbogazoase și siropuri","slug":"701-bauturi-necarbogazoase-si-siropuri"},{"code":"70102","name":"Băuturi fructate necarbogazoase","slug":"70102-bauturi-fructate-necarbogazoase"},{"code":"100043997","name":"Suc de portocale roșii 2l","slug":"100043997-pfanner-suc-de-portocale-rosii-2l"}],"activePromotion":{"code":"superpreturile-saptamanii","name":"Preț avantajos","targetQuantity":null},"saveMe":null,"labels":[{"type":"v1","items":[{"text":"Profită acum","backgroundColor":"#FF9903","textColor":"#FFFFFF"}]}],"geniusPrice":null,"geniusUnitPricePerLabel":null,"banner":{"text":"Preț avantajos","textColor":"#F95510","bgColor":"#FEF1CD","icon":null,"link":"https://www.freshful.ro/oferte/superpreturile-saptamanii","type":"promo","analyticsEventType":"select_promotion","analyticsEventPayload":{"promotion_id":"superpreturile-saptamanii","promotion_name":"Superprețurile zilei"}},"discountLabel":null,"geniusDiscountLabel":null,"badge":null},{"code":"100046413","variantCode":"100046413","name":"Ice Tea zmeură 1.5l","slug":"100046413-lipton-ice-tea-zmeura-1-5l","unitPriceLabel":"3,33 Lei/l","brand":"Lipton","brandCode":"141","brandFilterCode":"lipton-b125","sku":"100046413","price":4.99,"originalPrice":5.47,"currencyCode":"RON","currency":"Lei","image":{"thumbnail":{"default":"https://cdn.freshful.ro/media/cache/sylius_shop_product_thumbnail/12/75/fb5f8a6dfa21e126f8acf017fc39.jpg"},"large":{"default":"https://cdn.freshful.ro/media/cache/freshful_large/12/75/fb5f8a6dfa21e126f8acf017fc39.jpg"},"extralarge":{"default":"https://cdn.freshful.ro/media/cache/sylius_shop_product_original/12/75/fb5f8a6dfa21e126f8acf017fc39.jpg"}},"label":{"text":"-8%","backgroundColor":"#FF9903","textColor":"#FFFFFF"},"tags":[{"type":"NoPreservatives","text":"Fara conservanti","icon":"https://cdn.freshful.ro/assets/product_tags/fara_conservanti.svg","iconPng":"https://cdn.freshful.ro/assets/product_tags/fara_conservanti.png","backgroundColor":"#F0F2FF","textColor":"#7889DD"}],"isAvailable":true,"maxAvailableQuantity":24,"maxAllowedQuantity":24,"breadcrumbs":[{"code":"7","name":"Băuturi","slug":"7-bauturi-si-tutun"},{"code":"701","name":"Băuturi necarbogazoase și siropuri","slug":"701-bauturi-necarbogazoase-si-siropuri"},{"code":"70104","name":"Ice Tea","slug":"ice-tea"},{"code":"100046413","name":"Ice Tea zmeură 1.5l","slug":"100046413-lipton-ice-tea-zmeura-1-5l"}],"activePromotion":{"code":"oferte-bacanie-bauturi-21feb-8mar23","name":"Preț redus","targetQuantity":null},"saveMe":null,"labels":[{"type":"v1","items":[{"text":"-8%","backgroundColor":"#FF9903","textColor":"#FFFFFF"}]}],"geniusPrice":null,"geniusUnitPricePerLabel":null,"banner":{"text":"Super preț","textColor":"#FF0000","bgColor":"#FFF2EC","icon":null,"link":"https://www.freshful.ro/oferte/oferte-bacanie-bauturi-21feb-8mar23","type":"promo","analyticsEventType":"select_promotion","analyticsEventPayload":{"promotion_id":"oferte-bacanie-bauturi-21feb-8mar23","promotion_name":"Cămara cu băuturi și bunătăți"}},"discountLabel":"Economisești 8%","geniusDiscountLabel":null,"badge":null},{"code":"100046405","variantCode":"100046405","name":"Ice Tea cu ceai verde 1.5l","slug":"100046405-lipton-ice-tea-cu-ceai-verde-1-5l","unitPriceLabel":"3,33 Lei/l","brand":"Lipton","brandCode":"141","brandFilterCode":"lipton-b125","sku":"100046405","price":4.99,"originalPrice":5.47,"currencyCode":"RON","currency":"Lei","image":{"thumbnail":{"default":"https://cdn.freshful.ro/media/cache/sylius_shop_product_thumbnail/51/35/ea25a8ed466bf28eb72250638203.jpg"},"large":{"default":"https://cdn.freshful.ro/media/cache/freshful_large/51/35/ea25a8ed466bf28eb72250638203.jpg"},"extralarge":{"default":"https://cdn.freshful.ro/media/cache/sylius_shop_product_original/51/35/ea25a8ed466bf28eb72250638203.jpg"}},"label":{"text":"-8%","backgroundColor":"#FF9903","textColor":"#FFFFFF"},"tags":[{"type":"NoPreservatives","text":"Fara conservanti","icon":"https://cdn.freshful.ro/assets/product_tags/fara_conservanti.svg","iconPng":"https://cdn.freshful.ro/assets/product_tags/fara_conservanti.png","backgroundColor":"#F0F2FF","textColor":"#7889DD"}],"isAvailable":true,"maxAvailableQuantity":24,"maxAllowedQuantity":24,"breadcrumbs":[{"code":"7","name":"Băuturi","slug":"7-bauturi-si-tutun"},{"code":"701","name":"Băuturi necarbogazoase și siropuri","slug":"701-bauturi-necarbogazoase-si-siropuri"},{"code":"70104","name":"Ice Tea","slug":"ice-tea"},{"code":"100046405","name":"Ice Tea cu ceai verde 1.5l","slug":"100046405-lipton-ice-tea-cu-ceai-verde-1-5l"}],"activePromotion":{"code":"oferte-bacanie-bauturi-21feb-8mar23","name":"Preț redus","targetQuantity":null},"saveMe":null,"labels":[{"type":"v1","items":[{"text":"-8%","backgroundColor":"#FF9903","textColor":"#FFFFFF"}]}],"geniusPrice":null,"geniusUnitPricePerLabel":null,"banner":{"text":"Super preț","textColor":"#FF0000","bgColor":"#FFF2EC","icon":null,"link":"https://www.freshful.ro/oferte/oferte-bacanie-bauturi-21feb-8mar23","type":"promo","analyticsEventType":"select_promotion","analyticsEventPayload":{"promotion_id":"oferte-bacanie-bauturi-21feb-8mar23","promotion_name":"Cămara cu băuturi și bunătăți"}},"discountLabel":"Economisești 8%","geniusDiscountLabel":null,"badge":null},{"code":"100002730","variantCode":"5449000216335","name":"Ceai negru mango și ananas 1.5l","slug":"100002730-fuzetea-ceai-negru-mango-si-ananas-1-5l","unitPriceLabel":"3,59 Lei/l","brand":"Fuzetea","brandCode":"280","brandFilterCode":"fuzetea-b281","sku":"100002730","price":5.39,"originalPrice":null,"currencyCode":"RON","currency":"Lei","image":{"thumbnail":{"default":"https://cdn.freshful.ro/media/cache/sylius_shop_product_thumbnail/a1/e1/f07829d5ed8e01f0b2599f31e0bf.jpg"},"large":{"default":"https://cdn.freshful.ro/media/cache/freshful_large/a1/e1/f07829d5ed8e01f0b2599f31e0bf.jpg"},"extralarge":{"default":"https://cdn.freshful.ro/media/cache/sylius_shop_product_original/a1/e1/f07829d5ed8e01f0b2599f31e0bf.jpg"}},"label":{"text":"Profită acum","backgroundColor":"#FF9903","textColor":"#FFFFFF"},"tags":[],"isAvailable":true,"maxAvailableQuantity":24,"maxAllowedQuantity":24,"breadcrumbs":[{"code":"7","name":"Băuturi","slug":"7-bauturi-si-tutun"},{"code":"701","name":"Băuturi necarbogazoase și siropuri","slug":"701-bauturi-necarbogazoase-si-siropuri"},{"code":"70104","name":"Ice Tea","slug":"ice-tea"},{"code":"100002730","name":"Ceai negru mango și ananas 1.5l","slug":"100002730-fuzetea-ceai-negru-mango-si-ananas-1-5l"}],"activePromotion":{"code":"oferte-bacanie-bauturi-21feb-8mar23","name":"Preț avantajos","targetQuantity":null},"saveMe":null,"labels":[{"type":"v1","items":[{"text":"Profită acum","backgroundColor":"#FF9903","textColor":"#FFFFFF"}]}],"geniusPrice":null,"geniusUnitPricePerLabel":null,"banner":{"text":"Preț avantajos","textColor":"#F95510","bgColor":"#FEF1CD","icon":null,"link":"https://www.freshful.ro/oferte/oferte-bacanie-bauturi-21feb-8mar23","type":"promo","analyticsEventType":"select_promotion","analyticsEventPayload":{"promotion_id":"oferte-bacanie-bauturi-21feb-8mar23","promotion_name":"Cămara cu băuturi și bunătăți"}},"discountLabel":null,"geniusDiscountLabel":null,"badge":null},{"code":"100046407","variantCode":"100046407","name":"Ice Tea lămâie 1.5l","slug":"100046407-lipton-ice-tea-lamaie-1-5l","unitPriceLabel":"3,33 Lei/l","brand":"Lipton","brandCode":"141","brandFilterCode":"lipton-b125","sku":"100046407","price":4.99,"originalPrice":5.47,"currencyCode":"RON","currency":"Lei","image":{"thumbnail":{"default":"https://cdn.freshful.ro/media/cache/sylius_shop_product_thumbnail/4b/26/f2f07f587060ea268bdaca6077fc.jpg"},"large":{"default":"https://cdn.freshful.ro/media/cache/freshful_large/4b/26/f2f07f587060ea268bdaca6077fc.jpg"},"extralarge":{"default":"https://cdn.freshful.ro/media/cache/sylius_shop_product_original/4b/26/f2f07f587060ea268bdaca6077fc.jpg"}},"label":{"text":"-8%","backgroundColor":"#FF9903","textColor":"#FFFFFF"},"tags":[{"type":"NoPreservatives","text":"Fara conservanti","icon":"https://cdn.freshful.ro/assets/product_tags/fara_conservanti.svg","iconPng":"https://cdn.freshful.ro/assets/product_tags/fara_conservanti.png","backgroundColor":"#F0F2FF","textColor":"#7889DD"}],"isAvailable":true,"maxAvailableQuantity":24,"maxAllowedQuantity":24,"breadcrumbs":[{"code":"7","name":"Băuturi","slug":"7-bauturi-si-tutun"},{"code":"701","name":"Băuturi necarbogazoase și siropuri","slug":"701-bauturi-necarbogazoase-si-siropuri"},{"code":"70104","name":"Ice Tea","slug":"ice-tea"},{"code":"100046407","name":"Ice Tea lămâie 1.5l","slug":"100046407-lipton-ice-tea-lamaie-1-5l"}],"activePromotion":{"code":"oferte-bacanie-bauturi-21feb-8mar23","name":"Preț redus","targetQuantity":null},"saveMe":null,"labels":[{"type":"v1","items":[{"text":"-8%","backgroundColor":"#FF9903","textColor":"#FFFFFF"}]}],"geniusPrice":null,"geniusUnitPricePerLabel":null,"banner":{"text":"Super preț","textColor":"#FF0000","bgColor":"#FFF2EC","icon":null,"link":"https://www.freshful.ro/oferte/oferte-bacanie-bauturi-21feb-8mar23","type":"promo","analyticsEventType":"select_promotion","analyticsEventPayload":{"promotion_id":"oferte-bacanie-bauturi-21feb-8mar23","promotion_name":"Cămara cu băuturi și bunătăți"}},"discountLabel":"Economisești 8%","geniusDiscountLabel":null,"badge":null},{"code":"100046411","variantCode":"100046411","name":"Ice Tea piersici 1.5l","slug":"100046411-lipton-ice-tea-piersici-1-5l","unitPriceLabel":"3,33 Lei/l","brand":"Lipton","brandCode":"141","brandFilterCode":"lipton-b125","sku":"100046411","price":4.99,"originalPrice":5.47,"currencyCode":"RON","currency":"Lei","image":{"thumbnail":{"default":"https://cdn.freshful.ro/media/cache/sylius_shop_product_thumbnail/e8/09/c7cd821960d9e862f640e059c83f.jpg"},"large":{"default":"https://cdn.freshful.ro/media/cache/freshful_large/e8/09/c7cd821960d9e862f640e059c83f.jpg"},"extralarge":{"default":"https://cdn.freshful.ro/media/cache/sylius_shop_product_original/e8/09/c7cd821960d9e862f640e059c83f.jpg"}},"label":{"text":"-8%","backgroundColor":"#FF9903","textColor":"#FFFFFF"},"tags":[{"type":"NoPreservatives","text":"Fara conservanti","icon":"https://cdn.freshful.ro/assets/product_tags/fara_conservanti.svg","iconPng":"https://cdn.freshful.ro/assets/product_tags/fara_conservanti.png","backgroundColor":"#F0F2FF","textColor":"#7889DD"}],"isAvailable":true,"maxAvailableQuantity":24,"maxAllowedQuantity":24,"breadcrumbs":[{"code":"7","name":"Băuturi","slug":"7-bauturi-si-tutun"},{"code":"701","name":"Băuturi necarbogazoase și siropuri","slug":"701-bauturi-necarbogazoase-si-siropuri"},{"code":"70104","name":"Ice Tea","slug":"ice-tea"},{"code":"100046411","name":"Ice Tea piersici 1.5l","slug":"100046411-lipton-ice-tea-piersici-1-5l"}],"activePromotion":{"code":"oferte-bacanie-bauturi-21feb-8mar23","name":"Preț redus","targetQuantity":null},"saveMe":null,"labels":[{"type":"v1","items":[{"text":"-8%","backgroundColor":"#FF9903","textColor":"#FFFFFF"}]}],"geniusPrice":null,"geniusUnitPricePerLabel":null,"banner":{"text":"Super preț","textColor":"#FF0000","bgColor":"#FFF2EC","icon":null,"link":"https://www.freshful.ro/oferte/oferte-bacanie-bauturi-21feb-8mar23","type":"promo","analyticsEventType":"select_promotion","analyticsEventPayload":{"promotion_id":"oferte-bacanie-bauturi-21feb-8mar23","promotion_name":"Cămara cu băuturi și bunătăți"}},"discountLabel":"Economisești 8%","geniusDiscountLabel":null,"badge":null},{"code":"100046409","variantCode":"100046409","name":"Ice Tea mure, merișoare, zmeură 1.5l","slug":"100046409-lipton-ice-tea-mure-merisoare-zmeura-1-5l","unitPriceLabel":"3,33 Lei/l","brand":"Lipton","brandCode":"141","brandFilterCode":"lipton-b125","sku":"100046409","price":4.99,"originalPrice":5.47,"currencyCode":"RON","currency":"Lei","image":{"thumbnail":{"default":"https://cdn.freshful.ro/media/cache/sylius_shop_product_thumbnail/b8/0d/ac2dd9e03d4de21a83722389156e.jpg"},"large":{"default":"https://cdn.freshful.ro/media/cache/freshful_large/b8/0d/ac2dd9e03d4de21a83722389156e.jpg"},"extralarge":{"default":"https://cdn.freshful.ro/media/cache/sylius_shop_product_original/b8/0d/ac2dd9e03d4de21a83722389156e.jpg"}},"label":{"text":"-8%","backgroundColor":"#FF9903","textColor":"#FFFFFF"},"tags":[{"type":"NoPreservatives","text":"Fara conservanti","icon":"https://cdn.freshful.ro/assets/product_tags/fara_conservanti.svg","iconPng":"https://cdn.freshful.ro/assets/product_tags/fara_conservanti.png","backgroundColor":"#F0F2FF","textColor":"#7889DD"}],"isAvailable":true,"maxAvailableQuantity":24,"maxAllowedQuantity":24,"breadcrumbs":[{"code":"7","name":"Băuturi","slug":"7-bauturi-si-tutun"},{"code":"701","name":"Băuturi necarbogazoase și siropuri","slug":"701-bauturi-necarbogazoase-si-siropuri"},{"code":"70104","name":"Ice Tea","slug":"ice-tea"},{"code":"100046409","name":"Ice Tea mure, merișoare, zmeură 1.5l","slug":"100046409-lipton-ice-tea-mure-merisoare-zmeura-1-5l"}],"activePromotion":{"code":"oferte-bacanie-bauturi-21feb-8mar23","name":"Preț redus","targetQuantity":null},"saveMe":null,"labels":[{"type":"v1","items":[{"text":"-8%","backgroundColor":"#FF9903","textColor":"#FFFFFF"}]}],"geniusPrice":null,"geniusUnitPricePerLabel":null,"banner":{"text":"Super preț","textColor":"#FF0000","bgColor":"#FFF2EC","icon":null,"link":"https://www.freshful.ro/oferte/oferte-bacanie-bauturi-21feb-8mar23","type":"promo","analyticsEventType":"select_promotion","analyticsEventPayload":{"promotion_id":"oferte-bacanie-bauturi-21feb-8mar23","promotion_name":"Cămara cu băuturi și bunătăți"}},"discountLabel":"Economisești 8%","geniusDiscountLabel":null,"badge":null},{"code":"100071797","variantCode":"100071797","name":"Suc de legume eco 500ml","slug":"100071797-dennree-suc-de-legume-eco-500ml","unitPriceLabel":"11,98 Lei/l","brand":"Dennree","brandCode":"1152","brandFilterCode":"dennree-b1153","sku":"100071797","price":5.99,"originalPrice":null,"currencyCode":"RON","currency":"Lei","image":{"thumbnail":{"default":"https://cdn.freshful.ro/media/cache/sylius_shop_product_thumbnail/2d/7d/164f3b192debd7f94c6b5ec7c6bf.jpg"},"large":{"default":"https://cdn.freshful.ro/media/cache/freshful_large/2d/7d/164f3b192debd7f94c6b5ec7c6bf.jpg"},"extralarge":{"default":"https://cdn.freshful.ro/media/cache/sylius_shop_product_original/2d/7d/164f3b192debd7f94c6b5ec7c6bf.jpg"}},"label":{"text":"Profită acum","backgroundColor":"#FF9903","textColor":"#FFFFFF"},"tags":[{"type":"Eco","text":"Eco","icon":"https://cdn.freshful.ro/assets/product_tags/eco.svg","iconPng":"https://cdn.freshful.ro/assets/product_tags/eco.png","backgroundColor":"#EFFBE4","textColor":"#66BB1B"}],"isAvailable":true,"maxAvailableQuantity":24,"maxAllowedQuantity":24,"breadcrumbs":[{"code":"7","name":"Băuturi","slug":"7-bauturi-si-tutun"},{"code":"701","name":"Băuturi necarbogazoase și siropuri","slug":"701-bauturi-necarbogazoase-si-siropuri"},{"code":"70101","name":"Sucuri și nectaruri","slug":"70101-sucuri-si-nectar"},{"code":"100071797","name":"Suc de legume eco 500ml","slug":"100071797-dennree-suc-de-legume-eco-500ml"}],"activePromotion":{"code":"special-produse-vegane-mar23","name":"Preț avantajos","targetQuantity":null},"saveMe":null,"labels":[{"type":"v1","items":[{"text":"Profită acum","backgroundColor":"#FF9903","textColor":"#FFFFFF"}]}],"geniusPrice":null,"geniusUnitPricePerLabel":null,"banner":{"text":"Preț avantajos","textColor":"#F95510","bgColor":"#FEF1CD","icon":null,"link":"https://www.freshful.ro/oferte/special-produse-vegane-mar23","type":"promo","analyticsEventType":"select_promotion","analyticsEventPayload":{"promotion_id":"special-produse-vegane-mar23","promotion_name":"Și bun, și de post"}},"discountLabel":null,"geniusDiscountLabel":null,"badge":null},{"code":"100101500","variantCode":"100101500","name":"Băutură racoritoare ecologică funcțională de cătină 250ml","slug":"100101500-yugo-bautura-racoritoare-ecologica-functionala-de-catina-250ml","unitPriceLabel":"39,96 Lei/l","brand":"Yugo","brandCode":"1690","brandFilterCode":"yugo-b1693","sku":"100101500","price":9.99,"originalPrice":null,"currencyCode":"RON","currency":"Lei","image":{"thumbnail":{"default":"https://cdn.freshful.ro/media/cache/sylius_shop_product_thumbnail/44/d9/67b37ac046e053c95b7434790d6a.jpg"},"large":{"default":"https://cdn.freshful.ro/media/cache/freshful_large/44/d9/67b37ac046e053c95b7434790d6a.jpg"},"extralarge":{"default":"https://cdn.freshful.ro/media/cache/sylius_shop_product_original/44/d9/67b37ac046e053c95b7434790d6a.jpg"}},"label":{"text":"Profită acum","backgroundColor":"#FF9903","textColor":"#FFFFFF"},"tags":[{"type":"Eco","text":"Eco","icon":"https://cdn.freshful.ro/assets/product_tags/eco.svg","iconPng":"https://cdn.freshful.ro/assets/product_tags/eco.png","backgroundColor":"#EFFBE4","textColor":"#66BB1B"}],"isAvailable":true,"maxAvailableQuantity":24,"maxAllowedQuantity":24,"breadcrumbs":[{"code":"7","name":"Băuturi","slug":"7-bauturi-si-tutun"},{"code":"701","name":"Băuturi necarbogazoase și siropuri","slug":"701-bauturi-necarbogazoase-si-siropuri"},{"code":"70102","name":"Băuturi fructate necarbogazoase","slug":"70102-bauturi-fructate-necarbogazoase"},{"code":"100101500","name":"Băutură racoritoare ecologică funcțională de cătină 250ml","slug":"100101500-yugo-bautura-racoritoare-ecologica-functionala-de-catina-250ml"}],"activePromotion":{"code":"special-produse-vegane-mar23","name":"Preț avantajos","targetQuantity":null},"saveMe":null,"labels":[{"type":"v1","items":[{"text":"Profită acum","backgroundColor":"#FF9903","textColor":"#FFFFFF"}]}],"geniusPrice":null,"geniusUnitPricePerLabel":null,"banner":{"text":"Preț avantajos","textColor":"#F95510","bgColor":"#FEF1CD","icon":null,"link":"https://www.freshful.ro/oferte/special-produse-vegane-mar23","type":"promo","analyticsEventType":"select_promotion","analyticsEventPayload":{"promotion_id":"special-produse-vegane-mar23","promotion_name":"Și bun, și de post"}},"discountLabel":null,"geniusDiscountLabel":null,"badge":null}],"filters":{"countSelected":0,"items":[{"code":"promotion","name":"Promoții","countSelected":0,"values":[{"code":"oferte-bacanie-bauturi-21feb-8mar23","name":"Cămara cu băuturi și bunătăți","isSelected":false,"count":12},{"code":"superpreturile-saptamanii","name":"Superprețurile zilei","isSelected":false,"count":1},{"code":"special-produse-vegane-mar23","name":"Și bun, și de post","isSelected":false,"count":19}]},{"code":"brand","name":"Brand","countSelected":0,"values":[{"code":"5-to-go-b2826","name":"5 To Go","isSelected":false,"count":3},{"code":"absolutely-wild-b1150","name":"Absolutely Wild","isSelected":false,"count":3},{"code":"ana-are-b2134","name":"Ana Are","isSelected":false,"count":7},{"code":"aroma-b929","name":"aRoma","isSelected":false,"count":7},{"code":"aromela-b130","name":"Aromela","isSelected":false,"count":14},{"code":"bun-de-tot-b944","name":"Bun de Tot","isSelected":false,"count":3},{"code":"caleno-b2829","name":"Caleno","isSelected":false,"count":2},{"code":"cappy-b280","name":"Cappy","isSelected":false,"count":4},{"code":"capri-sun-b779","name":"Capri Sun","isSelected":false,"count":4},{"code":"ciao-b450","name":"Ciao","isSelected":false,"count":4},{"code":"dennree-b1153","name":"Dennree","isSelected":false,"count":4},{"code":"din-eden-b1378","name":"Din Eden","isSelected":false,"count":10},{"code":"folkington-s-b2612","name":"Folkington's","isSelected":false,"count":3},{"code":"fuzetea-b281","name":"Fuzetea","isSelected":false,"count":15},{"code":"giusto-natura-b2632","name":"Giusto Natura","isSelected":false,"count":4},{"code":"gradinile-doamnei-b2303","name":"Grădinile Doamnei","isSelected":false,"count":2},{"code":"kofi-ti-b1613","name":"Kofi Ti","isSelected":false,"count":6},{"code":"lima-b1148","name":"Lima","isSelected":false,"count":2},{"code":"lipton-b125","name":"Lipton","isSelected":false,"count":10},{"code":"mellow-b1156","name":"Mellow","isSelected":false,"count":3},{"code":"merlin-s-b583","name":"Merlin's","isSelected":false,"count":8},{"code":"merryberry-b2709","name":"Merryberry","isSelected":false,"count":2},{"code":"nestea-b453","name":"Nestea","isSelected":false,"count":10},{"code":"parmen-b3071","name":"Parmen","isSelected":false,"count":3},{"code":"pfanner-b778","name":"Pfanner","isSelected":false,"count":39},{"code":"pivnita-bunicii-b2310","name":"Pivnița Bunicii","isSelected":false,"count":6},{"code":"plafar-b1612","name":"Plafar","isSelected":false,"count":10},{"code":"poiana-fermecata-b1877","name":"Poiana Fermecată","isSelected":false,"count":4},{"code":"prigat-b796","name":"Prigat","isSelected":false,"count":4},{"code":"prosain-b866","name":"Prosain","isSelected":false,"count":4},{"code":"polz-b772","name":"Pölz","isSelected":false,"count":7},{"code":"raab-b1152","name":"Raab","isSelected":false,"count":2},{"code":"retter-b1149","name":"Retter","isSelected":false,"count":3},{"code":"roadele-muntilor-b2722","name":"Roadele Munților","isSelected":false,"count":3},{"code":"raureni-b773","name":"Râureni","isSelected":false,"count":8},{"code":"san-benedetto-b1430","name":"San Benedetto","isSelected":false,"count":2},{"code":"santal-b911","name":"Santal","isSelected":false,"count":15},{"code":"tedi-b451","name":"Tedi","isSelected":false,"count":12},{"code":"tymbark-b449","name":"Tymbark","isSelected":false,"count":14},{"code":"voslauer-b780","name":"Vöslauer","isSelected":false,"count":1},{"code":"yo-b847","name":"Yo","isSelected":false,"count":3},{"code":"yoga-b2341","name":"Yoga","isSelected":false,"count":2},{"code":"yugo-b1693","name":"Yugo","isSelected":false,"count":1}]},{"code":"diet_lifestyle","name":"Dietă și lifestyle","countSelected":0,"values":[{"code":"eco-a83","name":"Eco","isSelected":false,"count":56},{"code":"fara-conservanti-a37","name":"Fara conservanti","isSelected":false,"count":64},{"code":"fara-e-uri-a84","name":"Fara E-uri","isSelected":false,"count":4},{"code":"fara-gluten-a16","name":"Fara gluten","isSelected":false,"count":10},{"code":"fara-lactoza-a38","name":"Fara lactoza","isSelected":false,"count":4},{"code":"fara-zahar-adaugat-a29","name":"Fara zahar adaugat","isSelected":false,"count":30},{"code":"made-in-romania-a85","name":"Made In Romania","isSelected":false,"count":82},{"code":"natural-a27","name":"Natural","isSelected":false,"count":42},{"code":"vegan-a24","name":"Vegan","isSelected":false,"count":40}]}]},"orderBy":[{"field":"price","direction":"asc","name":"Preț crescător","isSelected":false},{"field":"price","direction":"desc","name":"Preț descrescător","isSelected":false},{"field":"popularity","direction":"desc","name":"Cele mai populare","isSelected":true},{"field":"category","direction":"asc","name":"Categorie","isSelected":false}],"metaTitle":"Băuturi necarbogazoase și siropuri - Gamă variată","metaDescription":"Vrei Băuturi necarbogazoase și siropuri? Alege dintr-o gamă variată. Comanzi simplu și ai livrare rapidă, calitate și prospețime. Hai pe Freshful.ro","metaKeywords":null,"banners":[]}}