{"type":"subcategory","payload":{"analyticsListId":"category_70103-sirop-si-concentrat","analyticsListName":"Category - Siropuri și concentrate","name":"Siropuri și concentrate","slug":"70103-sirop-si-concentrat","image":null,"breadcrumbs":[{"code":"7","name":"Băuturi","slug":"7-bauturi-si-tutun"},{"code":"701","name":"Băuturi necarbogazoase și siropuri","slug":"701-bauturi-necarbogazoase-si-siropuri"},{"code":"70103","name":"Siropuri și concentrate","slug":"70103-sirop-si-concentrat"}],"slots":[],"page":1,"limit":10,"pages":6,"count":57,"siblings":[{"name":"Băuturi necarbogazoase și siropuri","slug":"701-bauturi-necarbogazoase-si-siropuri","selected":true},{"name":"Apă","slug":"702-apa","selected":false},{"name":"Băuturi carbogazoase","slug":"703-bauturi-carbogazoase","selected":false},{"name":"Bere","slug":"704-bere","selected":false},{"name":"Vinuri","slug":"705-vinuri","selected":false},{"name":"Băuturi spirtoase","slug":"706-bauturi-spirtoase","selected":false},{"name":"Tutun","slug":"707-tutun","selected":false}],"children":[{"name":"Toate produsele","slug":"701-bauturi-necarbogazoase-si-siropuri","selected":false},{"name":"Sucuri și nectaruri","slug":"70101-sucuri-si-nectar","selected":false},{"name":"Băuturi fructate necarbogazoase","slug":"70102-bauturi-fructate-necarbogazoase","selected":false},{"name":"Siropuri și concentrate","slug":"70103-sirop-si-concentrat","selected":true},{"name":"Ice Tea","slug":"ice-tea","selected":false}],"products":[{"code":"100069457","variantCode":"9001400005009","name":"Sirop de căpșuni 700ml","slug":"100069457-yo-sirop-de-capsuni-700ml","unitPriceLabel":"19,94 Lei/kg","brand":"Yo","brandCode":"846","brandFilterCode":"yo-b847","sku":"100069457","price":17.99,"originalPrice":20.5,"currencyCode":"RON","currency":"Lei","image":{"thumbnail":{"default":"https://cdn.freshful.ro/media/cache/sylius_shop_product_thumbnail/77/8d/8abd43600f3b26f91de765bf7386.jpg"},"large":{"default":"https://cdn.freshful.ro/media/cache/freshful_large/77/8d/8abd43600f3b26f91de765bf7386.jpg"},"extralarge":{"default":"https://cdn.freshful.ro/media/cache/sylius_shop_product_original/77/8d/8abd43600f3b26f91de765bf7386.jpg"}},"label":{"text":"-12%","backgroundColor":"#FF9903","textColor":"#FFFFFF"},"tags":[],"isAvailable":true,"maxAvailableQuantity":12,"maxAllowedQuantity":24,"breadcrumbs":[{"code":"7","name":"Băuturi","slug":"7-bauturi-si-tutun"},{"code":"701","name":"Băuturi necarbogazoase și siropuri","slug":"701-bauturi-necarbogazoase-si-siropuri"},{"code":"70103","name":"Siropuri și concentrate","slug":"70103-sirop-si-concentrat"},{"code":"100069457","name":"Sirop de căpșuni 700ml","slug":"100069457-yo-sirop-de-capsuni-700ml"}],"activePromotion":{"code":"oferte-bacanie-bauturi-21feb-8mar23","name":"Preț redus","targetQuantity":null},"saveMe":null,"labels":[{"type":"v1","items":[{"text":"-12%","backgroundColor":"#FF9903","textColor":"#FFFFFF"}]}],"geniusPrice":null,"geniusUnitPricePerLabel":null,"banner":{"text":"Super preț","textColor":"#FF0000","bgColor":"#FFF2EC","icon":null,"link":"https://www.freshful.ro/oferte/oferte-bacanie-bauturi-21feb-8mar23","type":"promo","analyticsEventType":"select_promotion","analyticsEventPayload":{"promotion_id":"oferte-bacanie-bauturi-21feb-8mar23","promotion_name":"Cămara cu băuturi și bunătăți"}},"discountLabel":"Economisești 12%","geniusDiscountLabel":null,"badge":null},{"code":"100061642","variantCode":"100061642","name":"Sirop eco de floare de soc cu miere 250ml ","slug":"100061642-aromela-sirop-eco-de-floare-de-soc-cu-miere-250ml","unitPriceLabel":"67,96 Lei/l","brand":"Aromela","brandCode":"85","brandFilterCode":"aromela-b130","sku":"100061642","price":16.99,"originalPrice":null,"currencyCode":"RON","currency":"Lei","image":{"thumbnail":{"default":"https://cdn.freshful.ro/media/cache/sylius_shop_product_thumbnail/08/cf/dc6f6543a85bc79e9f5e46306baa.jpg"},"large":{"default":"https://cdn.freshful.ro/media/cache/freshful_large/08/cf/dc6f6543a85bc79e9f5e46306baa.jpg"},"extralarge":{"default":"https://cdn.freshful.ro/media/cache/sylius_shop_product_original/08/cf/dc6f6543a85bc79e9f5e46306baa.jpg"}},"label":{"text":"Profită acum","backgroundColor":"#FF9903","textColor":"#FFFFFF"},"tags":[{"type":"Eco","text":"Eco","icon":"https://cdn.freshful.ro/assets/product_tags/eco.svg","iconPng":"https://cdn.freshful.ro/assets/product_tags/eco.png","backgroundColor":"#EFFBE4","textColor":"#66BB1B"},{"type":"Natural","text":"Natural","icon":"https://cdn.freshful.ro/assets/product_tags/natural.svg","iconPng":"https://cdn.freshful.ro/assets/product_tags/natural.png","backgroundColor":"#E9FCF2","textColor":"#18AF62"},{"type":"MadeInRomania","text":"Made In Romania","icon":"https://cdn.freshful.ro/assets/product_tags/made_in_romania.svg","iconPng":"https://cdn.freshful.ro/assets/product_tags/made_in_romania.png","backgroundColor":"#EDF2FD","textColor":"#1653CA"}],"isAvailable":true,"maxAvailableQuantity":19,"maxAllowedQuantity":24,"breadcrumbs":[{"code":"7","name":"Băuturi","slug":"7-bauturi-si-tutun"},{"code":"701","name":"Băuturi necarbogazoase și siropuri","slug":"701-bauturi-necarbogazoase-si-siropuri"},{"code":"70103","name":"Siropuri și concentrate","slug":"70103-sirop-si-concentrat"},{"code":"100061642","name":"Sirop eco de floare de soc cu miere 250ml ","slug":"100061642-aromela-sirop-eco-de-floare-de-soc-cu-miere-250ml"}],"activePromotion":{"code":"special-produse-vegane-mar23","name":"Preț avantajos","targetQuantity":null},"saveMe":null,"labels":[{"type":"v1","items":[{"text":"Profită acum","backgroundColor":"#FF9903","textColor":"#FFFFFF"}]}],"geniusPrice":null,"geniusUnitPricePerLabel":null,"banner":{"text":"Preț avantajos","textColor":"#F95510","bgColor":"#FEF1CD","icon":null,"link":"https://www.freshful.ro/oferte/special-produse-vegane-mar23","type":"promo","analyticsEventType":"select_promotion","analyticsEventPayload":{"promotion_id":"special-produse-vegane-mar23","promotion_name":"Și bun, și de post"}},"discountLabel":null,"geniusDiscountLabel":null,"badge":null},{"code":"100069459","variantCode":"9001400005047","name":"Sirop de fructe de pădure 0.7l","slug":"100069459-yo-sirop-de-fructe-de-padure-0-7l","unitPriceLabel":"19,94 Lei/kg","brand":"Yo","brandCode":"846","brandFilterCode":"yo-b847","sku":"100069459","price":17.99,"originalPrice":20.5,"currencyCode":"RON","currency":"Lei","image":{"thumbnail":{"default":"https://cdn.freshful.ro/media/cache/sylius_shop_product_thumbnail/be/75/124dfd891a2e7606d9096e8e8bbf.jpg"},"large":{"default":"https://cdn.freshful.ro/media/cache/freshful_large/be/75/124dfd891a2e7606d9096e8e8bbf.jpg"},"extralarge":{"default":"https://cdn.freshful.ro/media/cache/sylius_shop_product_original/be/75/124dfd891a2e7606d9096e8e8bbf.jpg"}},"label":{"text":"-12%","backgroundColor":"#FF9903","textColor":"#FFFFFF"},"tags":[],"isAvailable":true,"maxAvailableQuantity":17,"maxAllowedQuantity":24,"breadcrumbs":[{"code":"7","name":"Băuturi","slug":"7-bauturi-si-tutun"},{"code":"701","name":"Băuturi necarbogazoase și siropuri","slug":"701-bauturi-necarbogazoase-si-siropuri"},{"code":"70103","name":"Siropuri și concentrate","slug":"70103-sirop-si-concentrat"},{"code":"100069459","name":"Sirop de fructe de pădure 0.7l","slug":"100069459-yo-sirop-de-fructe-de-padure-0-7l"}],"activePromotion":{"code":"oferte-bacanie-bauturi-21feb-8mar23","name":"Preț redus","targetQuantity":null},"saveMe":null,"labels":[{"type":"v1","items":[{"text":"-12%","backgroundColor":"#FF9903","textColor":"#FFFFFF"}]}],"geniusPrice":null,"geniusUnitPricePerLabel":null,"banner":{"text":"Super preț","textColor":"#FF0000","bgColor":"#FFF2EC","icon":null,"link":"https://www.freshful.ro/oferte/oferte-bacanie-bauturi-21feb-8mar23","type":"promo","analyticsEventType":"select_promotion","analyticsEventPayload":{"promotion_id":"oferte-bacanie-bauturi-21feb-8mar23","promotion_name":"Cămara cu băuturi și bunătăți"}},"discountLabel":"Economisești 12%","geniusDiscountLabel":null,"badge":null},{"code":"100069458","variantCode":"9001400005030","name":"Sirop de coacăze negre 0.7l","slug":"100069458-yo-sirop-de-coacaze-negre-0-7l","unitPriceLabel":"19,94 Lei/kg","brand":"Yo","brandCode":"846","brandFilterCode":"yo-b847","sku":"100069458","price":17.99,"originalPrice":20.5,"currencyCode":"RON","currency":"Lei","image":{"thumbnail":{"default":"https://cdn.freshful.ro/media/cache/sylius_shop_product_thumbnail/0c/9b/a9ab605768329b02f6662fccbb30.jpg"},"large":{"default":"https://cdn.freshful.ro/media/cache/freshful_large/0c/9b/a9ab605768329b02f6662fccbb30.jpg"},"extralarge":{"default":"https://cdn.freshful.ro/media/cache/sylius_shop_product_original/0c/9b/a9ab605768329b02f6662fccbb30.jpg"}},"label":{"text":"-12%","backgroundColor":"#FF9903","textColor":"#FFFFFF"},"tags":[],"isAvailable":true,"maxAvailableQuantity":24,"maxAllowedQuantity":24,"breadcrumbs":[{"code":"7","name":"Băuturi","slug":"7-bauturi-si-tutun"},{"code":"701","name":"Băuturi necarbogazoase și siropuri","slug":"701-bauturi-necarbogazoase-si-siropuri"},{"code":"70103","name":"Siropuri și concentrate","slug":"70103-sirop-si-concentrat"},{"code":"100069458","name":"Sirop de coacăze negre 0.7l","slug":"100069458-yo-sirop-de-coacaze-negre-0-7l"}],"activePromotion":{"code":"oferte-bacanie-bauturi-21feb-8mar23","name":"Preț redus","targetQuantity":null},"saveMe":null,"labels":[{"type":"v1","items":[{"text":"-12%","backgroundColor":"#FF9903","textColor":"#FFFFFF"}]}],"geniusPrice":null,"geniusUnitPricePerLabel":null,"banner":{"text":"Super preț","textColor":"#FF0000","bgColor":"#FFF2EC","icon":null,"link":"https://www.freshful.ro/oferte/oferte-bacanie-bauturi-21feb-8mar23","type":"promo","analyticsEventType":"select_promotion","analyticsEventPayload":{"promotion_id":"oferte-bacanie-bauturi-21feb-8mar23","promotion_name":"Cămara cu băuturi și bunătăți"}},"discountLabel":"Economisești 12%","geniusDiscountLabel":null,"badge":null},{"code":"100071782","variantCode":"100071782","name":"Elixir de turmeric eco 190ml","slug":"100071782-retter-elixir-de-turmeric-eco-190ml","unitPriceLabel":"210,47 Lei/l","brand":"Retter","brandCode":"1148","brandFilterCode":"retter-b1149","sku":"100071782","price":39.99,"originalPrice":null,"currencyCode":"RON","currency":"Lei","image":{"thumbnail":{"default":"https://cdn.freshful.ro/media/cache/sylius_shop_product_thumbnail/1c/d2/4152f42fbc5805bc422892637f2d.jpg"},"large":{"default":"https://cdn.freshful.ro/media/cache/freshful_large/1c/d2/4152f42fbc5805bc422892637f2d.jpg"},"extralarge":{"default":"https://cdn.freshful.ro/media/cache/sylius_shop_product_original/1c/d2/4152f42fbc5805bc422892637f2d.jpg"}},"label":{"text":"Profită acum","backgroundColor":"#FF9903","textColor":"#FFFFFF"},"tags":[{"type":"Eco","text":"Eco","icon":"https://cdn.freshful.ro/assets/product_tags/eco.svg","iconPng":"https://cdn.freshful.ro/assets/product_tags/eco.png","backgroundColor":"#EFFBE4","textColor":"#66BB1B"}],"isAvailable":true,"maxAvailableQuantity":6,"maxAllowedQuantity":24,"breadcrumbs":[{"code":"7","name":"Băuturi","slug":"7-bauturi-si-tutun"},{"code":"701","name":"Băuturi necarbogazoase și siropuri","slug":"701-bauturi-necarbogazoase-si-siropuri"},{"code":"70103","name":"Siropuri și concentrate","slug":"70103-sirop-si-concentrat"},{"code":"100071782","name":"Elixir de turmeric eco 190ml","slug":"100071782-retter-elixir-de-turmeric-eco-190ml"}],"activePromotion":{"code":"special-produse-vegane-mar23","name":"Preț avantajos","targetQuantity":null},"saveMe":null,"labels":[{"type":"v1","items":[{"text":"Profită acum","backgroundColor":"#FF9903","textColor":"#FFFFFF"}]}],"geniusPrice":null,"geniusUnitPricePerLabel":null,"banner":{"text":"Preț avantajos","textColor":"#F95510","bgColor":"#FEF1CD","icon":null,"link":"https://www.freshful.ro/oferte/special-produse-vegane-mar23","type":"promo","analyticsEventType":"select_promotion","analyticsEventPayload":{"promotion_id":"special-produse-vegane-mar23","promotion_name":"Și bun, și de post"}},"discountLabel":null,"geniusDiscountLabel":null,"badge":null},{"code":"100127401","variantCode":"100127401","name":"Sirop ecologic de soc cu mere 250ml","slug":"100127401-aromela-sirop-ecologic-de-soc-cu-mere-250ml","unitPriceLabel":"67,96 Lei/l","brand":"Aromela","brandCode":"85","brandFilterCode":"aromela-b130","sku":"100127401","price":16.99,"originalPrice":null,"currencyCode":"RON","currency":"Lei","image":{"thumbnail":{"default":"https://cdn.freshful.ro/media/cache/sylius_shop_product_thumbnail/aa/ce/515044c49e13ed76f55914bc7861.jpg"},"large":{"default":"https://cdn.freshful.ro/media/cache/freshful_large/aa/ce/515044c49e13ed76f55914bc7861.jpg"},"extralarge":{"default":"https://cdn.freshful.ro/media/cache/sylius_shop_product_original/aa/ce/515044c49e13ed76f55914bc7861.jpg"}},"label":{"text":"Profită acum","backgroundColor":"#FF9903","textColor":"#FFFFFF"},"tags":[{"type":"Eco","text":"Eco","icon":"https://cdn.freshful.ro/assets/product_tags/eco.svg","iconPng":"https://cdn.freshful.ro/assets/product_tags/eco.png","backgroundColor":"#EFFBE4","textColor":"#66BB1B"},{"type":"Natural","text":"Natural","icon":"https://cdn.freshful.ro/assets/product_tags/natural.svg","iconPng":"https://cdn.freshful.ro/assets/product_tags/natural.png","backgroundColor":"#E9FCF2","textColor":"#18AF62"},{"type":"MadeInRomania","text":"Made In Romania","icon":"https://cdn.freshful.ro/assets/product_tags/made_in_romania.svg","iconPng":"https://cdn.freshful.ro/assets/product_tags/made_in_romania.png","backgroundColor":"#EDF2FD","textColor":"#1653CA"}],"isAvailable":true,"maxAvailableQuantity":24,"maxAllowedQuantity":24,"breadcrumbs":[{"code":"7","name":"Băuturi","slug":"7-bauturi-si-tutun"},{"code":"701","name":"Băuturi necarbogazoase și siropuri","slug":"701-bauturi-necarbogazoase-si-siropuri"},{"code":"70103","name":"Siropuri și concentrate","slug":"70103-sirop-si-concentrat"},{"code":"100127401","name":"Sirop ecologic de soc cu mere 250ml","slug":"100127401-aromela-sirop-ecologic-de-soc-cu-mere-250ml"}],"activePromotion":{"code":"special-produse-vegane-mar23","name":"Preț avantajos","targetQuantity":null},"saveMe":null,"labels":[{"type":"v1","items":[{"text":"Profită acum","backgroundColor":"#FF9903","textColor":"#FFFFFF"}]}],"geniusPrice":null,"geniusUnitPricePerLabel":null,"banner":{"text":"Preț avantajos","textColor":"#F95510","bgColor":"#FEF1CD","icon":null,"link":"https://www.freshful.ro/oferte/special-produse-vegane-mar23","type":"promo","analyticsEventType":"select_promotion","analyticsEventPayload":{"promotion_id":"special-produse-vegane-mar23","promotion_name":"Și bun, și de post"}},"discountLabel":null,"geniusDiscountLabel":null,"badge":null},{"code":"100127400","variantCode":"100127400","name":"Sirop ecologic de aronia cu mere 250ml","slug":"100127400-aromela-sirop-ecologic-de-aronia-cu-mere-250ml","unitPriceLabel":"67,96 Lei/l","brand":"Aromela","brandCode":"85","brandFilterCode":"aromela-b130","sku":"100127400","price":16.99,"originalPrice":null,"currencyCode":"RON","currency":"Lei","image":{"thumbnail":{"default":"https://cdn.freshful.ro/media/cache/sylius_shop_product_thumbnail/30/61/799e22fb13ec07ca3924f9f7e1dc.jpg"},"large":{"default":"https://cdn.freshful.ro/media/cache/freshful_large/30/61/799e22fb13ec07ca3924f9f7e1dc.jpg"},"extralarge":{"default":"https://cdn.freshful.ro/media/cache/sylius_shop_product_original/30/61/799e22fb13ec07ca3924f9f7e1dc.jpg"}},"label":{"text":"Profită acum","backgroundColor":"#FF9903","textColor":"#FFFFFF"},"tags":[{"type":"NoAddedSugar","text":"Fara zahar adaugat","icon":"https://cdn.freshful.ro/assets/product_tags/fara_zahar_adaugat.svg","iconPng":"https://cdn.freshful.ro/assets/product_tags/fara_zahar_adaugat.png","backgroundColor":"#F8EDF7","textColor":"#C05EBC"},{"type":"Eco","text":"Eco","icon":"https://cdn.freshful.ro/assets/product_tags/eco.svg","iconPng":"https://cdn.freshful.ro/assets/product_tags/eco.png","backgroundColor":"#EFFBE4","textColor":"#66BB1B"},{"type":"NoPreservatives","text":"Fara conservanti","icon":"https://cdn.freshful.ro/assets/product_tags/fara_conservanti.svg","iconPng":"https://cdn.freshful.ro/assets/product_tags/fara_conservanti.png","backgroundColor":"#F0F2FF","textColor":"#7889DD"},{"type":"MadeInRomania","text":"Made In Romania","icon":"https://cdn.freshful.ro/assets/product_tags/made_in_romania.svg","iconPng":"https://cdn.freshful.ro/assets/product_tags/made_in_romania.png","backgroundColor":"#EDF2FD","textColor":"#1653CA"}],"isAvailable":true,"maxAvailableQuantity":20,"maxAllowedQuantity":24,"breadcrumbs":[{"code":"7","name":"Băuturi","slug":"7-bauturi-si-tutun"},{"code":"701","name":"Băuturi necarbogazoase și siropuri","slug":"701-bauturi-necarbogazoase-si-siropuri"},{"code":"70103","name":"Siropuri și concentrate","slug":"70103-sirop-si-concentrat"},{"code":"100127400","name":"Sirop ecologic de aronia cu mere 250ml","slug":"100127400-aromela-sirop-ecologic-de-aronia-cu-mere-250ml"}],"activePromotion":{"code":"special-produse-vegane-mar23","name":"Preț avantajos","targetQuantity":null},"saveMe":null,"labels":[{"type":"v1","items":[{"text":"Profită acum","backgroundColor":"#FF9903","textColor":"#FFFFFF"}]}],"geniusPrice":null,"geniusUnitPricePerLabel":null,"banner":{"text":"Preț avantajos","textColor":"#F95510","bgColor":"#FEF1CD","icon":null,"link":"https://www.freshful.ro/oferte/special-produse-vegane-mar23","type":"promo","analyticsEventType":"select_promotion","analyticsEventPayload":{"promotion_id":"special-produse-vegane-mar23","promotion_name":"Și bun, și de post"}},"discountLabel":null,"geniusDiscountLabel":null,"badge":null},{"code":"100061643","variantCode":"6427043002084","name":"Sirop ecologic de floare de lavandă cu miere 250ml","slug":"100061643-aromela-sirop-ecologic-de-floare-de-lavanda-cu-miere-250ml","unitPriceLabel":"67,96 Lei/l","brand":"Aromela","brandCode":"85","brandFilterCode":"aromela-b130","sku":"100061643","price":16.99,"originalPrice":null,"currencyCode":"RON","currency":"Lei","image":{"thumbnail":{"default":"https://cdn.freshful.ro/media/cache/sylius_shop_product_thumbnail/f4/c0/2a5d42d50d6f395da48b27ba7e53.jpg"},"large":{"default":"https://cdn.freshful.ro/media/cache/freshful_large/f4/c0/2a5d42d50d6f395da48b27ba7e53.jpg"},"extralarge":{"default":"https://cdn.freshful.ro/media/cache/sylius_shop_product_original/f4/c0/2a5d42d50d6f395da48b27ba7e53.jpg"}},"label":{"text":"Profită acum","backgroundColor":"#FF9903","textColor":"#FFFFFF"},"tags":[{"type":"Natural","text":"Natural","icon":"https://cdn.freshful.ro/assets/product_tags/natural.svg","iconPng":"https://cdn.freshful.ro/assets/product_tags/natural.png","backgroundColor":"#E9FCF2","textColor":"#18AF62"},{"type":"NoAddedSugar","text":"Fara zahar adaugat","icon":"https://cdn.freshful.ro/assets/product_tags/fara_zahar_adaugat.svg","iconPng":"https://cdn.freshful.ro/assets/product_tags/fara_zahar_adaugat.png","backgroundColor":"#F8EDF7","textColor":"#C05EBC"},{"type":"Eco","text":"Eco","icon":"https://cdn.freshful.ro/assets/product_tags/eco.svg","iconPng":"https://cdn.freshful.ro/assets/product_tags/eco.png","backgroundColor":"#EFFBE4","textColor":"#66BB1B"},{"type":"MadeInRomania","text":"Made In Romania","icon":"https://cdn.freshful.ro/assets/product_tags/made_in_romania.svg","iconPng":"https://cdn.freshful.ro/assets/product_tags/made_in_romania.png","backgroundColor":"#EDF2FD","textColor":"#1653CA"}],"isAvailable":true,"maxAvailableQuantity":24,"maxAllowedQuantity":24,"breadcrumbs":[{"code":"7","name":"Băuturi","slug":"7-bauturi-si-tutun"},{"code":"701","name":"Băuturi necarbogazoase și siropuri","slug":"701-bauturi-necarbogazoase-si-siropuri"},{"code":"70103","name":"Siropuri și concentrate","slug":"70103-sirop-si-concentrat"},{"code":"100061643","name":"Sirop ecologic de floare de lavandă cu miere 250ml","slug":"100061643-aromela-sirop-ecologic-de-floare-de-lavanda-cu-miere-250ml"}],"activePromotion":{"code":"special-produse-vegane-mar23","name":"Preț avantajos","targetQuantity":null},"saveMe":null,"labels":[{"type":"v1","items":[{"text":"Profită acum","backgroundColor":"#FF9903","textColor":"#FFFFFF"}]}],"geniusPrice":null,"geniusUnitPricePerLabel":null,"banner":{"text":"Preț avantajos","textColor":"#F95510","bgColor":"#FEF1CD","icon":null,"link":"https://www.freshful.ro/oferte/special-produse-vegane-mar23","type":"promo","analyticsEventType":"select_promotion","analyticsEventPayload":{"promotion_id":"special-produse-vegane-mar23","promotion_name":"Și bun, și de post"}},"discountLabel":null,"geniusDiscountLabel":null,"badge":null},{"code":"100042768","variantCode":"5941028006184","name":"Sirop din soc și lămâie 500ml","slug":"100042768-raureni-sirop-din-soc-si-lamaie-500ml","unitPriceLabel":"21,98 Lei/l","brand":"Râureni","brandCode":"772","brandFilterCode":"raureni-b773","sku":"100042768","price":10.99,"originalPrice":null,"currencyCode":"RON","currency":"Lei","image":{"thumbnail":{"default":"https://cdn.freshful.ro/media/cache/sylius_shop_product_thumbnail/0f/b2/1a9c8025b945ec2304582e727bc1.jpg"},"large":{"default":"https://cdn.freshful.ro/media/cache/freshful_large/0f/b2/1a9c8025b945ec2304582e727bc1.jpg"},"extralarge":{"default":"https://cdn.freshful.ro/media/cache/sylius_shop_product_original/0f/b2/1a9c8025b945ec2304582e727bc1.jpg"}},"label":null,"tags":[{"type":"NoPreservatives","text":"Fara conservanti","icon":"https://cdn.freshful.ro/assets/product_tags/fara_conservanti.svg","iconPng":"https://cdn.freshful.ro/assets/product_tags/fara_conservanti.png","backgroundColor":"#F0F2FF","textColor":"#7889DD"},{"type":"MadeInRomania","text":"Made In Romania","icon":"https://cdn.freshful.ro/assets/product_tags/made_in_romania.svg","iconPng":"https://cdn.freshful.ro/assets/product_tags/made_in_romania.png","backgroundColor":"#EDF2FD","textColor":"#1653CA"}],"isAvailable":true,"maxAvailableQuantity":24,"maxAllowedQuantity":24,"breadcrumbs":[{"code":"7","name":"Băuturi","slug":"7-bauturi-si-tutun"},{"code":"701","name":"Băuturi necarbogazoase și siropuri","slug":"701-bauturi-necarbogazoase-si-siropuri"},{"code":"70103","name":"Siropuri și concentrate","slug":"70103-sirop-si-concentrat"},{"code":"100042768","name":"Sirop din soc și lămâie 500ml","slug":"100042768-raureni-sirop-din-soc-si-lamaie-500ml"}],"activePromotion":null,"saveMe":null,"labels":[],"geniusPrice":null,"geniusUnitPricePerLabel":null,"banner":null,"discountLabel":null,"geniusDiscountLabel":null,"badge":null},{"code":"100101496","variantCode":"100101496","name":"Sirop cu zmeură zero zahăr 500ml","slug":"100101496-plafar-sirop-cu-zmeura-zero-zahar-500ml","unitPriceLabel":"24,68 Lei/kg","brand":"Plafar","brandCode":"1608","brandFilterCode":"plafar-b1612","sku":"100101496","price":12.34,"originalPrice":null,"currencyCode":"RON","currency":"Lei","image":{"thumbnail":{"default":"https://cdn.freshful.ro/media/cache/sylius_shop_product_thumbnail/5c/a2/0b4e2a8765bc0eaef9584869982f.jpg"},"large":{"default":"https://cdn.freshful.ro/media/cache/freshful_large/5c/a2/0b4e2a8765bc0eaef9584869982f.jpg"},"extralarge":{"default":"https://cdn.freshful.ro/media/cache/sylius_shop_product_original/5c/a2/0b4e2a8765bc0eaef9584869982f.jpg"}},"label":null,"tags":[{"type":"NoAddedSugar","text":"Fara zahar adaugat","icon":"https://cdn.freshful.ro/assets/product_tags/fara_zahar_adaugat.svg","iconPng":"https://cdn.freshful.ro/assets/product_tags/fara_zahar_adaugat.png","backgroundColor":"#F8EDF7","textColor":"#C05EBC"},{"type":"MadeInRomania","text":"Made In Romania","icon":"https://cdn.freshful.ro/assets/product_tags/made_in_romania.svg","iconPng":"https://cdn.freshful.ro/assets/product_tags/made_in_romania.png","backgroundColor":"#EDF2FD","textColor":"#1653CA"}],"isAvailable":true,"maxAvailableQuantity":24,"maxAllowedQuantity":24,"breadcrumbs":[{"code":"7","name":"Băuturi","slug":"7-bauturi-si-tutun"},{"code":"701","name":"Băuturi necarbogazoase și siropuri","slug":"701-bauturi-necarbogazoase-si-siropuri"},{"code":"70103","name":"Siropuri și concentrate","slug":"70103-sirop-si-concentrat"},{"code":"100101496","name":"Sirop cu zmeură zero zahăr 500ml","slug":"100101496-plafar-sirop-cu-zmeura-zero-zahar-500ml"}],"activePromotion":null,"saveMe":null,"labels":[],"geniusPrice":null,"geniusUnitPricePerLabel":null,"banner":null,"discountLabel":null,"geniusDiscountLabel":null,"badge":null}],"filters":{"countSelected":0,"items":[{"code":"promotion","name":"Promoții","countSelected":0,"values":[{"code":"oferte-bacanie-bauturi-21feb-8mar23","name":"Cămara cu băuturi și bunătăți","isSelected":false,"count":3},{"code":"special-produse-vegane-mar23","name":"Și bun, și de post","isSelected":false,"count":5}]},{"code":"brand","name":"Brand","countSelected":0,"values":[{"code":"aromela-b130","name":"Aromela","isSelected":false,"count":7},{"code":"din-eden-b1378","name":"Din Eden","isSelected":false,"count":10},{"code":"gradinile-doamnei-b2303","name":"Grădinile Doamnei","isSelected":false,"count":2},{"code":"kofi-ti-b1613","name":"Kofi Ti","isSelected":false,"count":6},{"code":"pivnita-bunicii-b2310","name":"Pivnița Bunicii","isSelected":false,"count":6},{"code":"plafar-b1612","name":"Plafar","isSelected":false,"count":10},{"code":"poiana-fermecata-b1877","name":"Poiana Fermecată","isSelected":false,"count":4},{"code":"retter-b1149","name":"Retter","isSelected":false,"count":1},{"code":"roadele-muntilor-b2722","name":"Roadele Munților","isSelected":false,"count":3},{"code":"raureni-b773","name":"Râureni","isSelected":false,"count":5},{"code":"yo-b847","name":"Yo","isSelected":false,"count":3}]},{"code":"diet_lifestyle","name":"Dietă și lifestyle","countSelected":0,"values":[{"code":"eco-a83","name":"Eco","isSelected":false,"count":10},{"code":"fara-conservanti-a37","name":"Fara conservanti","isSelected":false,"count":20},{"code":"fara-e-uri-a84","name":"Fara E-uri","isSelected":false,"count":4},{"code":"fara-gluten-a16","name":"Fara gluten","isSelected":false,"count":6},{"code":"fara-zahar-adaugat-a29","name":"Fara zahar adaugat","isSelected":false,"count":7},{"code":"made-in-romania-a85","name":"Made In Romania","isSelected":false,"count":51},{"code":"natural-a27","name":"Natural","isSelected":false,"count":17},{"code":"vegan-a24","name":"Vegan","isSelected":false,"count":3}]}]},"orderBy":[{"field":"price","direction":"asc","name":"Preț crescător","isSelected":false},{"field":"price","direction":"desc","name":"Preț descrescător","isSelected":false},{"field":"popularity","direction":"desc","name":"Cele mai populare","isSelected":true},{"field":"category","direction":"asc","name":"Categorie","isSelected":false}],"metaTitle":"Siropuri și concentrate - Gamă variată","metaDescription":"Vrei Siropuri și concentrate? Alege dintr-o gamă variată. Comanzi simplu și ai livrare rapidă, calitate și prospețime. Hai pe Freshful.ro","metaKeywords":null,"banners":[]}}