{"type":"subcategory","payload":{"analyticsListId":"category_70101-sucuri-si-nectar","analyticsListName":"Category - Sucuri și nectaruri","name":"Sucuri și nectaruri","slug":"70101-sucuri-si-nectar","image":null,"breadcrumbs":[{"code":"7","name":"Băuturi","slug":"7-bauturi-si-tutun"},{"code":"701","name":"Băuturi necarbogazoase și siropuri","slug":"701-bauturi-necarbogazoase-si-siropuri"},{"code":"70101","name":"Sucuri și nectaruri","slug":"70101-sucuri-si-nectar"}],"slots":[],"page":1,"limit":10,"pages":10,"count":98,"siblings":[{"name":"Băuturi necarbogazoase și siropuri","slug":"701-bauturi-necarbogazoase-si-siropuri","selected":true},{"name":"Apă","slug":"702-apa","selected":false},{"name":"Băuturi carbogazoase","slug":"703-bauturi-carbogazoase","selected":false},{"name":"Bere","slug":"704-bere","selected":false},{"name":"Vinuri","slug":"705-vinuri","selected":false},{"name":"Băuturi spirtoase","slug":"706-bauturi-spirtoase","selected":false},{"name":"Tutun","slug":"707-tutun","selected":false}],"children":[{"name":"Toate produsele","slug":"701-bauturi-necarbogazoase-si-siropuri","selected":false},{"name":"Sucuri și nectaruri","slug":"70101-sucuri-si-nectar","selected":true},{"name":"Băuturi fructate necarbogazoase","slug":"70102-bauturi-fructate-necarbogazoase","selected":false},{"name":"Siropuri și concentrate","slug":"70103-sirop-si-concentrat","selected":false},{"name":"Ice Tea","slug":"ice-tea","selected":false}],"products":[{"code":"100071797","variantCode":"100071797","name":"Suc de legume eco 500ml","slug":"100071797-dennree-suc-de-legume-eco-500ml","unitPriceLabel":"11,98 Lei/l","brand":"Dennree","brandCode":"1152","brandFilterCode":"dennree-b1153","sku":"100071797","price":5.99,"originalPrice":null,"currencyCode":"RON","currency":"Lei","image":{"thumbnail":{"default":"https://cdn.freshful.ro/media/cache/sylius_shop_product_thumbnail/2d/7d/164f3b192debd7f94c6b5ec7c6bf.jpg"},"large":{"default":"https://cdn.freshful.ro/media/cache/freshful_large/2d/7d/164f3b192debd7f94c6b5ec7c6bf.jpg"},"extralarge":{"default":"https://cdn.freshful.ro/media/cache/sylius_shop_product_original/2d/7d/164f3b192debd7f94c6b5ec7c6bf.jpg"}},"label":{"text":"Profită acum","backgroundColor":"#FF9903","textColor":"#FFFFFF"},"tags":[{"type":"Eco","text":"Eco","icon":"https://cdn.freshful.ro/assets/product_tags/eco.svg","iconPng":"https://cdn.freshful.ro/assets/product_tags/eco.png","backgroundColor":"#EFFBE4","textColor":"#66BB1B"}],"isAvailable":true,"maxAvailableQuantity":24,"maxAllowedQuantity":24,"breadcrumbs":[{"code":"7","name":"Băuturi","slug":"7-bauturi-si-tutun"},{"code":"701","name":"Băuturi necarbogazoase și siropuri","slug":"701-bauturi-necarbogazoase-si-siropuri"},{"code":"70101","name":"Sucuri și nectaruri","slug":"70101-sucuri-si-nectar"},{"code":"100071797","name":"Suc de legume eco 500ml","slug":"100071797-dennree-suc-de-legume-eco-500ml"}],"activePromotion":{"code":"special-produse-vegane-mar23","name":"Preț avantajos","targetQuantity":null},"saveMe":null,"labels":[{"type":"v1","items":[{"text":"Profită acum","backgroundColor":"#FF9903","textColor":"#FFFFFF"}]}],"geniusPrice":null,"geniusUnitPricePerLabel":null,"banner":{"text":"Preț avantajos","textColor":"#F95510","bgColor":"#FEF1CD","icon":null,"link":"https://www.freshful.ro/oferte/special-produse-vegane-mar23","type":"promo","analyticsEventType":"select_promotion","analyticsEventPayload":{"promotion_id":"special-produse-vegane-mar23","promotion_name":"Și bun, și de post"}},"discountLabel":null,"geniusDiscountLabel":null,"badge":null},{"code":"100071799","variantCode":"100071799","name":"Suc de morcovi eco 500ml","slug":"100071799-dennree-suc-de-morcovi-eco-500ml","unitPriceLabel":"11,98 Lei/l","brand":"Dennree","brandCode":"1152","brandFilterCode":"dennree-b1153","sku":"100071799","price":5.99,"originalPrice":6.67,"currencyCode":"RON","currency":"Lei","image":{"thumbnail":{"default":"https://cdn.freshful.ro/media/cache/sylius_shop_product_thumbnail/dd/a3/929b4d6ba36706710ecb2039508e.jpg"},"large":{"default":"https://cdn.freshful.ro/media/cache/freshful_large/dd/a3/929b4d6ba36706710ecb2039508e.jpg"},"extralarge":{"default":"https://cdn.freshful.ro/media/cache/sylius_shop_product_original/dd/a3/929b4d6ba36706710ecb2039508e.jpg"}},"label":{"text":"-10%","backgroundColor":"#FF9903","textColor":"#FFFFFF"},"tags":[{"type":"Eco","text":"Eco","icon":"https://cdn.freshful.ro/assets/product_tags/eco.svg","iconPng":"https://cdn.freshful.ro/assets/product_tags/eco.png","backgroundColor":"#EFFBE4","textColor":"#66BB1B"}],"isAvailable":true,"maxAvailableQuantity":24,"maxAllowedQuantity":24,"breadcrumbs":[{"code":"7","name":"Băuturi","slug":"7-bauturi-si-tutun"},{"code":"701","name":"Băuturi necarbogazoase și siropuri","slug":"701-bauturi-necarbogazoase-si-siropuri"},{"code":"70101","name":"Sucuri și nectaruri","slug":"70101-sucuri-si-nectar"},{"code":"100071799","name":"Suc de morcovi eco 500ml","slug":"100071799-dennree-suc-de-morcovi-eco-500ml"}],"activePromotion":{"code":"special-produse-vegane-mar23","name":"Preț redus","targetQuantity":null},"saveMe":null,"labels":[{"type":"v1","items":[{"text":"-10%","backgroundColor":"#FF9903","textColor":"#FFFFFF"}]}],"geniusPrice":null,"geniusUnitPricePerLabel":null,"banner":{"text":"Super preț","textColor":"#FF0000","bgColor":"#FFF2EC","icon":null,"link":"https://www.freshful.ro/oferte/special-produse-vegane-mar23","type":"promo","analyticsEventType":"select_promotion","analyticsEventPayload":{"promotion_id":"special-produse-vegane-mar23","promotion_name":"Și bun, și de post"}},"discountLabel":"Economisești 10%","geniusDiscountLabel":null,"badge":null},{"code":"100071798","variantCode":"100071798","name":"Suc de varză murată eco 500ml","slug":"100071798-dennree-suc-de-varza-murata-eco-500ml","unitPriceLabel":"11,98 Lei/l","brand":"Dennree","brandCode":"1152","brandFilterCode":"dennree-b1153","sku":"100071798","price":5.99,"originalPrice":6.45,"currencyCode":"RON","currency":"Lei","image":{"thumbnail":{"default":"https://cdn.freshful.ro/media/cache/sylius_shop_product_thumbnail/e7/3e/8b99caccd69ed88c0245a1cd442b.jpg"},"large":{"default":"https://cdn.freshful.ro/media/cache/freshful_large/e7/3e/8b99caccd69ed88c0245a1cd442b.jpg"},"extralarge":{"default":"https://cdn.freshful.ro/media/cache/sylius_shop_product_original/e7/3e/8b99caccd69ed88c0245a1cd442b.jpg"}},"label":{"text":"-7%","backgroundColor":"#FF9903","textColor":"#FFFFFF"},"tags":[{"type":"Eco","text":"Eco","icon":"https://cdn.freshful.ro/assets/product_tags/eco.svg","iconPng":"https://cdn.freshful.ro/assets/product_tags/eco.png","backgroundColor":"#EFFBE4","textColor":"#66BB1B"}],"isAvailable":true,"maxAvailableQuantity":24,"maxAllowedQuantity":24,"breadcrumbs":[{"code":"7","name":"Băuturi","slug":"7-bauturi-si-tutun"},{"code":"701","name":"Băuturi necarbogazoase și siropuri","slug":"701-bauturi-necarbogazoase-si-siropuri"},{"code":"70101","name":"Sucuri și nectaruri","slug":"70101-sucuri-si-nectar"},{"code":"100071798","name":"Suc de varză murată eco 500ml","slug":"100071798-dennree-suc-de-varza-murata-eco-500ml"}],"activePromotion":{"code":"special-produse-vegane-mar23","name":"Preț redus","targetQuantity":null},"saveMe":null,"labels":[{"type":"v1","items":[{"text":"-7%","backgroundColor":"#FF9903","textColor":"#FFFFFF"}]}],"geniusPrice":null,"geniusUnitPricePerLabel":null,"banner":{"text":"Super preț","textColor":"#FF0000","bgColor":"#FFF2EC","icon":null,"link":"https://www.freshful.ro/oferte/special-produse-vegane-mar23","type":"promo","analyticsEventType":"select_promotion","analyticsEventPayload":{"promotion_id":"special-produse-vegane-mar23","promotion_name":"Și bun, și de post"}},"discountLabel":"Economisești 7%","geniusDiscountLabel":null,"badge":null},{"code":"100071800","variantCode":"100071800","name":"Suc de sfeclă roșie eco 500ml","slug":"100071800-dennree-suc-de-sfecla-rosie-eco-500ml","unitPriceLabel":"21,98 Lei/l","brand":"Dennree","brandCode":"1152","brandFilterCode":"dennree-b1153","sku":"100071800","price":10.99,"originalPrice":null,"currencyCode":"RON","currency":"Lei","image":{"thumbnail":{"default":"https://cdn.freshful.ro/media/cache/sylius_shop_product_thumbnail/69/e5/547440ab884f67d7093c18c0250a.jpg"},"large":{"default":"https://cdn.freshful.ro/media/cache/freshful_large/69/e5/547440ab884f67d7093c18c0250a.jpg"},"extralarge":{"default":"https://cdn.freshful.ro/media/cache/sylius_shop_product_original/69/e5/547440ab884f67d7093c18c0250a.jpg"}},"label":{"text":"Profită acum","backgroundColor":"#FF9903","textColor":"#FFFFFF"},"tags":[{"type":"vegan","text":"Vegan","icon":"https://cdn.freshful.ro/assets/product_tags/vegan.svg","iconPng":"https://cdn.freshful.ro/assets/product_tags/vegan.png","backgroundColor":"#ECF9F8","textColor":"#33A39C"},{"type":"Eco","text":"Eco","icon":"https://cdn.freshful.ro/assets/product_tags/eco.svg","iconPng":"https://cdn.freshful.ro/assets/product_tags/eco.png","backgroundColor":"#EFFBE4","textColor":"#66BB1B"}],"isAvailable":true,"maxAvailableQuantity":15,"maxAllowedQuantity":24,"breadcrumbs":[{"code":"7","name":"Băuturi","slug":"7-bauturi-si-tutun"},{"code":"701","name":"Băuturi necarbogazoase și siropuri","slug":"701-bauturi-necarbogazoase-si-siropuri"},{"code":"70101","name":"Sucuri și nectaruri","slug":"70101-sucuri-si-nectar"},{"code":"100071800","name":"Suc de sfeclă roșie eco 500ml","slug":"100071800-dennree-suc-de-sfecla-rosie-eco-500ml"}],"activePromotion":{"code":"special-produse-vegane-mar23","name":"Preț avantajos","targetQuantity":null},"saveMe":null,"labels":[{"type":"v1","items":[{"text":"Profită acum","backgroundColor":"#FF9903","textColor":"#FFFFFF"}]}],"geniusPrice":null,"geniusUnitPricePerLabel":null,"banner":{"text":"Preț avantajos","textColor":"#F95510","bgColor":"#FEF1CD","icon":null,"link":"https://www.freshful.ro/oferte/special-produse-vegane-mar23","type":"promo","analyticsEventType":"select_promotion","analyticsEventPayload":{"promotion_id":"special-produse-vegane-mar23","promotion_name":"Și bun, și de post"}},"discountLabel":null,"geniusDiscountLabel":null,"badge":null},{"code":"100147952","variantCode":"100147952","name":"Suc de afine eco 0.75l","slug":"100147952-merryberry-suc-de-afine-eco-0-75l","unitPriceLabel":"59,87 Lei/l","brand":"Merryberry","brandCode":"2703","brandFilterCode":"merryberry-b2709","sku":"100147952","price":44.9,"originalPrice":null,"currencyCode":"RON","currency":"Lei","image":{"thumbnail":{"default":"https://cdn.freshful.ro/media/cache/sylius_shop_product_thumbnail/b6/16/bec690667a69b1f65af6ca1139fe.jpg"},"large":{"default":"https://cdn.freshful.ro/media/cache/freshful_large/b6/16/bec690667a69b1f65af6ca1139fe.jpg"},"extralarge":{"default":"https://cdn.freshful.ro/media/cache/sylius_shop_product_original/b6/16/bec690667a69b1f65af6ca1139fe.jpg"}},"label":{"text":"-20% cu Genius","backgroundColor":"#FEF3FA","textColor":"#CD015F"},"tags":[{"type":"NoAddedSugar","text":"Fara zahar adaugat","icon":"https://cdn.freshful.ro/assets/product_tags/fara_zahar_adaugat.svg","iconPng":"https://cdn.freshful.ro/assets/product_tags/fara_zahar_adaugat.png","backgroundColor":"#F8EDF7","textColor":"#C05EBC"},{"type":"NoPreservatives","text":"Fara conservanti","icon":"https://cdn.freshful.ro/assets/product_tags/fara_conservanti.svg","iconPng":"https://cdn.freshful.ro/assets/product_tags/fara_conservanti.png","backgroundColor":"#F0F2FF","textColor":"#7889DD"},{"type":"Eco","text":"Eco","icon":"https://cdn.freshful.ro/assets/product_tags/eco.svg","iconPng":"https://cdn.freshful.ro/assets/product_tags/eco.png","backgroundColor":"#EFFBE4","textColor":"#66BB1B"}],"isAvailable":true,"maxAvailableQuantity":2,"maxAllowedQuantity":2,"breadcrumbs":[{"code":"7","name":"Băuturi","slug":"7-bauturi-si-tutun"},{"code":"701","name":"Băuturi necarbogazoase și siropuri","slug":"701-bauturi-necarbogazoase-si-siropuri"},{"code":"70101","name":"Sucuri și nectaruri","slug":"70101-sucuri-si-nectar"},{"code":"100147952","name":"Suc de afine eco 0.75l","slug":"100147952-merryberry-suc-de-afine-eco-0-75l"}],"activePromotion":null,"saveMe":null,"labels":[{"type":"gdeals","items":[{"text":"","backgroundColor":"","textColor":""}]},{"type":"v3","items":[{"text":"-20% cu Genius","backgroundColor":"#FEF3FA","textColor":"#CD015F"}]}],"geniusPrice":35.92,"geniusUnitPricePerLabel":"47,89 Lei/l","banner":null,"discountLabel":null,"geniusDiscountLabel":"Economisești 20%","badge":null},{"code":"100127398","variantCode":"100127398","name":"Suc ecologic de mure 250ml","slug":"100127398-aromela-suc-ecologic-de-mure-250ml","unitPriceLabel":"67,96 Lei/l","brand":"Aromela","brandCode":"85","brandFilterCode":"aromela-b130","sku":"100127398","price":16.99,"originalPrice":null,"currencyCode":"RON","currency":"Lei","image":{"thumbnail":{"default":"https://cdn.freshful.ro/media/cache/sylius_shop_product_thumbnail/ab/91/2efd2c341606e5214ded2a709df0.jpg"},"large":{"default":"https://cdn.freshful.ro/media/cache/freshful_large/ab/91/2efd2c341606e5214ded2a709df0.jpg"},"extralarge":{"default":"https://cdn.freshful.ro/media/cache/sylius_shop_product_original/ab/91/2efd2c341606e5214ded2a709df0.jpg"}},"label":{"text":"Profită acum","backgroundColor":"#FF9903","textColor":"#FFFFFF"},"tags":[{"type":"Eco","text":"Eco","icon":"https://cdn.freshful.ro/assets/product_tags/eco.svg","iconPng":"https://cdn.freshful.ro/assets/product_tags/eco.png","backgroundColor":"#EFFBE4","textColor":"#66BB1B"},{"type":"MadeInRomania","text":"Made In Romania","icon":"https://cdn.freshful.ro/assets/product_tags/made_in_romania.svg","iconPng":"https://cdn.freshful.ro/assets/product_tags/made_in_romania.png","backgroundColor":"#EDF2FD","textColor":"#1653CA"}],"isAvailable":true,"maxAvailableQuantity":24,"maxAllowedQuantity":24,"breadcrumbs":[{"code":"7","name":"Băuturi","slug":"7-bauturi-si-tutun"},{"code":"701","name":"Băuturi necarbogazoase și siropuri","slug":"701-bauturi-necarbogazoase-si-siropuri"},{"code":"70101","name":"Sucuri și nectaruri","slug":"70101-sucuri-si-nectar"},{"code":"100127398","name":"Suc ecologic de mure 250ml","slug":"100127398-aromela-suc-ecologic-de-mure-250ml"}],"activePromotion":{"code":"special-produse-vegane-mar23","name":"Preț avantajos","targetQuantity":null},"saveMe":null,"labels":[{"type":"v1","items":[{"text":"Profită acum","backgroundColor":"#FF9903","textColor":"#FFFFFF"}]}],"geniusPrice":null,"geniusUnitPricePerLabel":null,"banner":{"text":"Preț avantajos","textColor":"#F95510","bgColor":"#FEF1CD","icon":null,"link":"https://www.freshful.ro/oferte/special-produse-vegane-mar23","type":"promo","analyticsEventType":"select_promotion","analyticsEventPayload":{"promotion_id":"special-produse-vegane-mar23","promotion_name":"Și bun, și de post"}},"discountLabel":null,"geniusDiscountLabel":null,"badge":null},{"code":"100071795","variantCode":"100071795","name":"Suc de noni eco 1000ml","slug":"100071795-raab-suc-de-noni-eco-1000ml","unitPriceLabel":"99,99 Lei/l","brand":"Raab","brandCode":"1151","brandFilterCode":"raab-b1152","sku":"100071795","price":99.99,"originalPrice":null,"currencyCode":"RON","currency":"Lei","image":{"thumbnail":{"default":"https://cdn.freshful.ro/media/cache/sylius_shop_product_thumbnail/28/d4/9ed0800aef70bd822bedfe4ede2c.jpg"},"large":{"default":"https://cdn.freshful.ro/media/cache/freshful_large/28/d4/9ed0800aef70bd822bedfe4ede2c.jpg"},"extralarge":{"default":"https://cdn.freshful.ro/media/cache/sylius_shop_product_original/28/d4/9ed0800aef70bd822bedfe4ede2c.jpg"}},"label":{"text":"Profită acum","backgroundColor":"#FF9903","textColor":"#FFFFFF"},"tags":[{"type":"Eco","text":"Eco","icon":"https://cdn.freshful.ro/assets/product_tags/eco.svg","iconPng":"https://cdn.freshful.ro/assets/product_tags/eco.png","backgroundColor":"#EFFBE4","textColor":"#66BB1B"}],"isAvailable":true,"maxAvailableQuantity":9,"maxAllowedQuantity":24,"breadcrumbs":[{"code":"7","name":"Băuturi","slug":"7-bauturi-si-tutun"},{"code":"701","name":"Băuturi necarbogazoase și siropuri","slug":"701-bauturi-necarbogazoase-si-siropuri"},{"code":"70101","name":"Sucuri și nectaruri","slug":"70101-sucuri-si-nectar"},{"code":"100071795","name":"Suc de noni eco 1000ml","slug":"100071795-raab-suc-de-noni-eco-1000ml"}],"activePromotion":{"code":"special-produse-vegane-mar23","name":"Preț avantajos","targetQuantity":null},"saveMe":null,"labels":[{"type":"v1","items":[{"text":"Profită acum","backgroundColor":"#FF9903","textColor":"#FFFFFF"}]}],"geniusPrice":null,"geniusUnitPricePerLabel":null,"banner":{"text":"Preț avantajos","textColor":"#F95510","bgColor":"#FEF1CD","icon":null,"link":"https://www.freshful.ro/oferte/special-produse-vegane-mar23","type":"promo","analyticsEventType":"select_promotion","analyticsEventPayload":{"promotion_id":"special-produse-vegane-mar23","promotion_name":"Și bun, și de post"}},"discountLabel":null,"geniusDiscountLabel":null,"badge":null},{"code":"100071784","variantCode":"100071784","name":"Suc de dude negre pur eco 750ml","slug":"100071784-retter-suc-de-dude-negre-pur-eco-750ml","unitPriceLabel":"73,32 Lei/l","brand":"Retter","brandCode":"1148","brandFilterCode":"retter-b1149","sku":"100071784","price":54.99,"originalPrice":null,"currencyCode":"RON","currency":"Lei","image":{"thumbnail":{"default":"https://cdn.freshful.ro/media/cache/sylius_shop_product_thumbnail/e4/e8/04eb7c9d984ba73bce842a8e749f.jpg"},"large":{"default":"https://cdn.freshful.ro/media/cache/freshful_large/e4/e8/04eb7c9d984ba73bce842a8e749f.jpg"},"extralarge":{"default":"https://cdn.freshful.ro/media/cache/sylius_shop_product_original/e4/e8/04eb7c9d984ba73bce842a8e749f.jpg"}},"label":{"text":"Profită acum","backgroundColor":"#FF9903","textColor":"#FFFFFF"},"tags":[{"type":"vegan","text":"Vegan","icon":"https://cdn.freshful.ro/assets/product_tags/vegan.svg","iconPng":"https://cdn.freshful.ro/assets/product_tags/vegan.png","backgroundColor":"#ECF9F8","textColor":"#33A39C"},{"type":"Eco","text":"Eco","icon":"https://cdn.freshful.ro/assets/product_tags/eco.svg","iconPng":"https://cdn.freshful.ro/assets/product_tags/eco.png","backgroundColor":"#EFFBE4","textColor":"#66BB1B"}],"isAvailable":true,"maxAvailableQuantity":11,"maxAllowedQuantity":24,"breadcrumbs":[{"code":"7","name":"Băuturi","slug":"7-bauturi-si-tutun"},{"code":"701","name":"Băuturi necarbogazoase și siropuri","slug":"701-bauturi-necarbogazoase-si-siropuri"},{"code":"70101","name":"Sucuri și nectaruri","slug":"70101-sucuri-si-nectar"},{"code":"100071784","name":"Suc de dude negre pur eco 750ml","slug":"100071784-retter-suc-de-dude-negre-pur-eco-750ml"}],"activePromotion":{"code":"special-produse-vegane-mar23","name":"Preț avantajos","targetQuantity":null},"saveMe":null,"labels":[{"type":"v1","items":[{"text":"Profită acum","backgroundColor":"#FF9903","textColor":"#FFFFFF"}]}],"geniusPrice":null,"geniusUnitPricePerLabel":null,"banner":{"text":"Preț avantajos","textColor":"#F95510","bgColor":"#FEF1CD","icon":null,"link":"https://www.freshful.ro/oferte/special-produse-vegane-mar23","type":"promo","analyticsEventType":"select_promotion","analyticsEventPayload":{"promotion_id":"special-produse-vegane-mar23","promotion_name":"Și bun, și de post"}},"discountLabel":null,"geniusDiscountLabel":null,"badge":null},{"code":"100127399","variantCode":"100127399","name":"Suc ecologic de căpșuni 250ml","slug":"100127399-aromela-suc-ecologic-de-capsuni-250ml","unitPriceLabel":"67,96 Lei/l","brand":"Aromela","brandCode":"85","brandFilterCode":"aromela-b130","sku":"100127399","price":16.99,"originalPrice":null,"currencyCode":"RON","currency":"Lei","image":{"thumbnail":{"default":"https://cdn.freshful.ro/media/cache/sylius_shop_product_thumbnail/cb/f7/9bef39d573acddeb7bf1569c1566.jpg"},"large":{"default":"https://cdn.freshful.ro/media/cache/freshful_large/cb/f7/9bef39d573acddeb7bf1569c1566.jpg"},"extralarge":{"default":"https://cdn.freshful.ro/media/cache/sylius_shop_product_original/cb/f7/9bef39d573acddeb7bf1569c1566.jpg"}},"label":{"text":"Profită acum","backgroundColor":"#FF9903","textColor":"#FFFFFF"},"tags":[{"type":"Eco","text":"Eco","icon":"https://cdn.freshful.ro/assets/product_tags/eco.svg","iconPng":"https://cdn.freshful.ro/assets/product_tags/eco.png","backgroundColor":"#EFFBE4","textColor":"#66BB1B"},{"type":"Natural","text":"Natural","icon":"https://cdn.freshful.ro/assets/product_tags/natural.svg","iconPng":"https://cdn.freshful.ro/assets/product_tags/natural.png","backgroundColor":"#E9FCF2","textColor":"#18AF62"},{"type":"NoPreservatives","text":"Fara conservanti","icon":"https://cdn.freshful.ro/assets/product_tags/fara_conservanti.svg","iconPng":"https://cdn.freshful.ro/assets/product_tags/fara_conservanti.png","backgroundColor":"#F0F2FF","textColor":"#7889DD"},{"type":"MadeInRomania","text":"Made In Romania","icon":"https://cdn.freshful.ro/assets/product_tags/made_in_romania.svg","iconPng":"https://cdn.freshful.ro/assets/product_tags/made_in_romania.png","backgroundColor":"#EDF2FD","textColor":"#1653CA"}],"isAvailable":true,"maxAvailableQuantity":22,"maxAllowedQuantity":24,"breadcrumbs":[{"code":"7","name":"Băuturi","slug":"7-bauturi-si-tutun"},{"code":"701","name":"Băuturi necarbogazoase și siropuri","slug":"701-bauturi-necarbogazoase-si-siropuri"},{"code":"70101","name":"Sucuri și nectaruri","slug":"70101-sucuri-si-nectar"},{"code":"100127399","name":"Suc ecologic de căpșuni 250ml","slug":"100127399-aromela-suc-ecologic-de-capsuni-250ml"}],"activePromotion":{"code":"special-produse-vegane-mar23","name":"Preț avantajos","targetQuantity":null},"saveMe":null,"labels":[{"type":"v1","items":[{"text":"Profită acum","backgroundColor":"#FF9903","textColor":"#FFFFFF"}]}],"geniusPrice":null,"geniusUnitPricePerLabel":null,"banner":{"text":"Preț avantajos","textColor":"#F95510","bgColor":"#FEF1CD","icon":null,"link":"https://www.freshful.ro/oferte/special-produse-vegane-mar23","type":"promo","analyticsEventType":"select_promotion","analyticsEventPayload":{"promotion_id":"special-produse-vegane-mar23","promotion_name":"Și bun, și de post"}},"discountLabel":null,"geniusDiscountLabel":null,"badge":null},{"code":"100061630","variantCode":"6427043000158","name":"Suc de soc ecologic  250ml","slug":"100061630-aromela-suc-de-soc-ecologic-250ml","unitPriceLabel":"67,96 Lei/l","brand":"Aromela","brandCode":"85","brandFilterCode":"aromela-b130","sku":"100061630","price":16.99,"originalPrice":null,"currencyCode":"RON","currency":"Lei","image":{"thumbnail":{"default":"https://cdn.freshful.ro/media/cache/sylius_shop_product_thumbnail/0d/32/6c1caed324aa44788637fe16cc48.jpg"},"large":{"default":"https://cdn.freshful.ro/media/cache/freshful_large/0d/32/6c1caed324aa44788637fe16cc48.jpg"},"extralarge":{"default":"https://cdn.freshful.ro/media/cache/sylius_shop_product_original/0d/32/6c1caed324aa44788637fe16cc48.jpg"}},"label":{"text":"Profită acum","backgroundColor":"#FF9903","textColor":"#FFFFFF"},"tags":[{"type":"Natural","text":"Natural","icon":"https://cdn.freshful.ro/assets/product_tags/natural.svg","iconPng":"https://cdn.freshful.ro/assets/product_tags/natural.png","backgroundColor":"#E9FCF2","textColor":"#18AF62"},{"type":"Eco","text":"Eco","icon":"https://cdn.freshful.ro/assets/product_tags/eco.svg","iconPng":"https://cdn.freshful.ro/assets/product_tags/eco.png","backgroundColor":"#EFFBE4","textColor":"#66BB1B"},{"type":"MadeInRomania","text":"Made In Romania","icon":"https://cdn.freshful.ro/assets/product_tags/made_in_romania.svg","iconPng":"https://cdn.freshful.ro/assets/product_tags/made_in_romania.png","backgroundColor":"#EDF2FD","textColor":"#1653CA"}],"isAvailable":true,"maxAvailableQuantity":19,"maxAllowedQuantity":24,"breadcrumbs":[{"code":"7","name":"Băuturi","slug":"7-bauturi-si-tutun"},{"code":"701","name":"Băuturi necarbogazoase și siropuri","slug":"701-bauturi-necarbogazoase-si-siropuri"},{"code":"70101","name":"Sucuri și nectaruri","slug":"70101-sucuri-si-nectar"},{"code":"100061630","name":"Suc de soc ecologic  250ml","slug":"100061630-aromela-suc-de-soc-ecologic-250ml"}],"activePromotion":{"code":"special-produse-vegane-mar23","name":"Preț avantajos","targetQuantity":null},"saveMe":null,"labels":[{"type":"v1","items":[{"text":"Profită acum","backgroundColor":"#FF9903","textColor":"#FFFFFF"}]}],"geniusPrice":null,"geniusUnitPricePerLabel":null,"banner":{"text":"Preț avantajos","textColor":"#F95510","bgColor":"#FEF1CD","icon":null,"link":"https://www.freshful.ro/oferte/special-produse-vegane-mar23","type":"promo","analyticsEventType":"select_promotion","analyticsEventPayload":{"promotion_id":"special-produse-vegane-mar23","promotion_name":"Și bun, și de post"}},"discountLabel":null,"geniusDiscountLabel":null,"badge":null}],"filters":{"countSelected":0,"items":[{"code":"promotion","name":"Promoții","countSelected":0,"values":[{"code":"special-produse-vegane-mar23","name":"Și bun, și de post","isSelected":false,"count":10}]},{"code":"brand","name":"Brand","countSelected":0,"values":[{"code":"absolutely-wild-b1150","name":"Absolutely Wild","isSelected":false,"count":3},{"code":"ana-are-b2134","name":"Ana Are","isSelected":false,"count":7},{"code":"aroma-b929","name":"aRoma","isSelected":false,"count":7},{"code":"aromela-b130","name":"Aromela","isSelected":false,"count":3},{"code":"cappy-b280","name":"Cappy","isSelected":false,"count":1},{"code":"dennree-b1153","name":"Dennree","isSelected":false,"count":4},{"code":"folkington-s-b2612","name":"Folkington's","isSelected":false,"count":1},{"code":"mellow-b1156","name":"Mellow","isSelected":false,"count":3},{"code":"merryberry-b2709","name":"Merryberry","isSelected":false,"count":2},{"code":"parmen-b3071","name":"Parmen","isSelected":false,"count":3},{"code":"pfanner-b778","name":"Pfanner","isSelected":false,"count":18},{"code":"prosain-b866","name":"Prosain","isSelected":false,"count":4},{"code":"polz-b772","name":"Pölz","isSelected":false,"count":7},{"code":"raab-b1152","name":"Raab","isSelected":false,"count":1},{"code":"retter-b1149","name":"Retter","isSelected":false,"count":2},{"code":"raureni-b773","name":"Râureni","isSelected":false,"count":3},{"code":"santal-b911","name":"Santal","isSelected":false,"count":10},{"code":"tedi-b451","name":"Tedi","isSelected":false,"count":8},{"code":"tymbark-b449","name":"Tymbark","isSelected":false,"count":9},{"code":"yoga-b2341","name":"Yoga","isSelected":false,"count":2}]},{"code":"diet_lifestyle","name":"Dietă și lifestyle","countSelected":0,"values":[{"code":"eco-a83","name":"Eco","isSelected":false,"count":32},{"code":"fara-conservanti-a37","name":"Fara conservanti","isSelected":false,"count":19},{"code":"fara-zahar-adaugat-a29","name":"Fara zahar adaugat","isSelected":false,"count":12},{"code":"made-in-romania-a85","name":"Made In Romania","isSelected":false,"count":26},{"code":"natural-a27","name":"Natural","isSelected":false,"count":23},{"code":"vegan-a24","name":"Vegan","isSelected":false,"count":13}]}]},"orderBy":[{"field":"price","direction":"asc","name":"Preț crescător","isSelected":false},{"field":"price","direction":"desc","name":"Preț descrescător","isSelected":false},{"field":"popularity","direction":"desc","name":"Cele mai populare","isSelected":true},{"field":"category","direction":"asc","name":"Categorie","isSelected":false}],"metaTitle":"Sucuri și nectaruri - Gamă variată","metaDescription":"Vrei Sucuri și nectaruri? Alege dintr-o gamă variată. Comanzi simplu și ai livrare rapidă, calitate și prospețime. Hai pe Freshful.ro","metaKeywords":null,"banners":[]}}