{"type":"subcategory","payload":{"analyticsListId":"category_70102-bauturi-fructate-necarbogazoase","analyticsListName":"Category - Băuturi fructate necarbogazoase","name":"Băuturi fructate necarbogazoase","slug":"70102-bauturi-fructate-necarbogazoase","image":null,"breadcrumbs":[{"code":"7","name":"Băuturi","slug":"7-bauturi-si-tutun"},{"code":"701","name":"Băuturi necarbogazoase și siropuri","slug":"701-bauturi-necarbogazoase-si-siropuri"},{"code":"70102","name":"Băuturi fructate necarbogazoase","slug":"70102-bauturi-fructate-necarbogazoase"}],"slots":[],"page":1,"limit":10,"pages":8,"count":74,"siblings":[{"name":"Băuturi necarbogazoase și siropuri","slug":"701-bauturi-necarbogazoase-si-siropuri","selected":true},{"name":"Apă","slug":"702-apa","selected":false},{"name":"Băuturi carbogazoase","slug":"703-bauturi-carbogazoase","selected":false},{"name":"Bere","slug":"704-bere","selected":false},{"name":"Vinuri","slug":"705-vinuri","selected":false},{"name":"Băuturi spirtoase","slug":"706-bauturi-spirtoase","selected":false},{"name":"Tutun","slug":"707-tutun","selected":false}],"children":[{"name":"Toate produsele","slug":"701-bauturi-necarbogazoase-si-siropuri","selected":false},{"name":"Sucuri și nectaruri","slug":"70101-sucuri-si-nectar","selected":false},{"name":"Băuturi fructate necarbogazoase","slug":"70102-bauturi-fructate-necarbogazoase","selected":true},{"name":"Siropuri și concentrate","slug":"70103-sirop-si-concentrat","selected":false},{"name":"Ice Tea","slug":"ice-tea","selected":false}],"products":[{"code":"100043997","variantCode":"100043997","name":"Suc de portocale roșii 2l","slug":"100043997-pfanner-suc-de-portocale-rosii-2l","unitPriceLabel":"6 Lei/l","brand":"Pfanner","brandCode":"777","brandFilterCode":"pfanner-b778","sku":"100043997","price":11.99,"originalPrice":null,"currencyCode":"RON","currency":"Lei","image":{"thumbnail":{"default":"https://cdn.freshful.ro/media/cache/sylius_shop_product_thumbnail/e4/65/0f38d36c23fd72a77359762f1404.jpg"},"large":{"default":"https://cdn.freshful.ro/media/cache/freshful_large/e4/65/0f38d36c23fd72a77359762f1404.jpg"},"extralarge":{"default":"https://cdn.freshful.ro/media/cache/sylius_shop_product_original/e4/65/0f38d36c23fd72a77359762f1404.jpg"}},"label":{"text":"Profită acum","backgroundColor":"#FF9903","textColor":"#FFFFFF"},"tags":[],"isAvailable":true,"maxAvailableQuantity":24,"maxAllowedQuantity":24,"breadcrumbs":[{"code":"7","name":"Băuturi","slug":"7-bauturi-si-tutun"},{"code":"701","name":"Băuturi necarbogazoase și siropuri","slug":"701-bauturi-necarbogazoase-si-siropuri"},{"code":"70102","name":"Băuturi fructate necarbogazoase","slug":"70102-bauturi-fructate-necarbogazoase"},{"code":"100043997","name":"Suc de portocale roșii 2l","slug":"100043997-pfanner-suc-de-portocale-rosii-2l"}],"activePromotion":{"code":"superpreturile-saptamanii","name":"Preț avantajos","targetQuantity":null},"saveMe":null,"labels":[{"type":"v1","items":[{"text":"Profită acum","backgroundColor":"#FF9903","textColor":"#FFFFFF"}]}],"geniusPrice":null,"geniusUnitPricePerLabel":null,"banner":{"text":"Preț avantajos","textColor":"#F95510","bgColor":"#FEF1CD","icon":null,"link":"https://www.freshful.ro/oferte/superpreturile-saptamanii","type":"promo","analyticsEventType":"select_promotion","analyticsEventPayload":{"promotion_id":"superpreturile-saptamanii","promotion_name":"Superprețurile zilei"}},"discountLabel":null,"geniusDiscountLabel":null,"badge":null},{"code":"100101500","variantCode":"100101500","name":"Băutură racoritoare ecologică funcțională de cătină 250ml","slug":"100101500-yugo-bautura-racoritoare-ecologica-functionala-de-catina-250ml","unitPriceLabel":"39,96 Lei/l","brand":"Yugo","brandCode":"1690","brandFilterCode":"yugo-b1693","sku":"100101500","price":9.99,"originalPrice":null,"currencyCode":"RON","currency":"Lei","image":{"thumbnail":{"default":"https://cdn.freshful.ro/media/cache/sylius_shop_product_thumbnail/44/d9/67b37ac046e053c95b7434790d6a.jpg"},"large":{"default":"https://cdn.freshful.ro/media/cache/freshful_large/44/d9/67b37ac046e053c95b7434790d6a.jpg"},"extralarge":{"default":"https://cdn.freshful.ro/media/cache/sylius_shop_product_original/44/d9/67b37ac046e053c95b7434790d6a.jpg"}},"label":{"text":"Profită acum","backgroundColor":"#FF9903","textColor":"#FFFFFF"},"tags":[{"type":"Eco","text":"Eco","icon":"https://cdn.freshful.ro/assets/product_tags/eco.svg","iconPng":"https://cdn.freshful.ro/assets/product_tags/eco.png","backgroundColor":"#EFFBE4","textColor":"#66BB1B"}],"isAvailable":true,"maxAvailableQuantity":24,"maxAllowedQuantity":24,"breadcrumbs":[{"code":"7","name":"Băuturi","slug":"7-bauturi-si-tutun"},{"code":"701","name":"Băuturi necarbogazoase și siropuri","slug":"701-bauturi-necarbogazoase-si-siropuri"},{"code":"70102","name":"Băuturi fructate necarbogazoase","slug":"70102-bauturi-fructate-necarbogazoase"},{"code":"100101500","name":"Băutură racoritoare ecologică funcțională de cătină 250ml","slug":"100101500-yugo-bautura-racoritoare-ecologica-functionala-de-catina-250ml"}],"activePromotion":{"code":"special-produse-vegane-mar23","name":"Preț avantajos","targetQuantity":null},"saveMe":null,"labels":[{"type":"v1","items":[{"text":"Profită acum","backgroundColor":"#FF9903","textColor":"#FFFFFF"}]}],"geniusPrice":null,"geniusUnitPricePerLabel":null,"banner":{"text":"Preț avantajos","textColor":"#F95510","bgColor":"#FEF1CD","icon":null,"link":"https://www.freshful.ro/oferte/special-produse-vegane-mar23","type":"promo","analyticsEventType":"select_promotion","analyticsEventPayload":{"promotion_id":"special-produse-vegane-mar23","promotion_name":"Și bun, și de post"}},"discountLabel":null,"geniusDiscountLabel":null,"badge":null},{"code":"100071796","variantCode":"100071796","name":"Suc de aloe vera eco 1000ml","slug":"100071796-raab-suc-de-aloe-vera-eco-1000ml","unitPriceLabel":"94,99 Lei/l","brand":"Raab","brandCode":"1151","brandFilterCode":"raab-b1152","sku":"100071796","price":94.99,"originalPrice":null,"currencyCode":"RON","currency":"Lei","image":{"thumbnail":{"default":"https://cdn.freshful.ro/media/cache/sylius_shop_product_thumbnail/58/37/2042a3584628ef129f1f4db011f2.jpg"},"large":{"default":"https://cdn.freshful.ro/media/cache/freshful_large/58/37/2042a3584628ef129f1f4db011f2.jpg"},"extralarge":{"default":"https://cdn.freshful.ro/media/cache/sylius_shop_product_original/58/37/2042a3584628ef129f1f4db011f2.jpg"}},"label":{"text":"Profită acum","backgroundColor":"#FF9903","textColor":"#FFFFFF"},"tags":[{"type":"vegan","text":"Vegan","icon":"https://cdn.freshful.ro/assets/product_tags/vegan.svg","iconPng":"https://cdn.freshful.ro/assets/product_tags/vegan.png","backgroundColor":"#ECF9F8","textColor":"#33A39C"},{"type":"NoGluten","text":"Fara gluten","icon":"https://cdn.freshful.ro/assets/product_tags/fara_gluten.svg","iconPng":"https://cdn.freshful.ro/assets/product_tags/fara_gluten.png","backgroundColor":"#FFF2E5","textColor":"#F07900"},{"type":"LactoseFree","text":"Fara lactoza","icon":"https://cdn.freshful.ro/assets/product_tags/fara_lactoza.svg","iconPng":"https://cdn.freshful.ro/assets/product_tags/fara_lactoza.png","backgroundColor":"#E9F7FB","textColor":"#25A6D0"},{"type":"Eco","text":"Eco","icon":"https://cdn.freshful.ro/assets/product_tags/eco.svg","iconPng":"https://cdn.freshful.ro/assets/product_tags/eco.png","backgroundColor":"#EFFBE4","textColor":"#66BB1B"}],"isAvailable":true,"maxAvailableQuantity":6,"maxAllowedQuantity":24,"breadcrumbs":[{"code":"7","name":"Băuturi","slug":"7-bauturi-si-tutun"},{"code":"701","name":"Băuturi necarbogazoase și siropuri","slug":"701-bauturi-necarbogazoase-si-siropuri"},{"code":"70102","name":"Băuturi fructate necarbogazoase","slug":"70102-bauturi-fructate-necarbogazoase"},{"code":"100071796","name":"Suc de aloe vera eco 1000ml","slug":"100071796-raab-suc-de-aloe-vera-eco-1000ml"}],"activePromotion":{"code":"special-produse-vegane-mar23","name":"Preț avantajos","targetQuantity":null},"saveMe":null,"labels":[{"type":"v1","items":[{"text":"Profită acum","backgroundColor":"#FF9903","textColor":"#FFFFFF"}]}],"geniusPrice":null,"geniusUnitPricePerLabel":null,"banner":{"text":"Preț avantajos","textColor":"#F95510","bgColor":"#FEF1CD","icon":null,"link":"https://www.freshful.ro/oferte/special-produse-vegane-mar23","type":"promo","analyticsEventType":"select_promotion","analyticsEventPayload":{"promotion_id":"special-produse-vegane-mar23","promotion_name":"Și bun, și de post"}},"discountLabel":null,"geniusDiscountLabel":null,"badge":null},{"code":"100127402","variantCode":"100127402","name":"Tonic ecologic de aronia și soc cu mere 250ml","slug":"100127402-aromela-tonic-ecologic-de-aronia-si-soc-cu-mere-250ml","unitPriceLabel":"39,96 Lei/l","brand":"Aromela","brandCode":"85","brandFilterCode":"aromela-b130","sku":"100127402","price":9.99,"originalPrice":null,"currencyCode":"RON","currency":"Lei","image":{"thumbnail":{"default":"https://cdn.freshful.ro/media/cache/sylius_shop_product_thumbnail/78/af/29244e7711f01bdb1c04383f3325.jpg"},"large":{"default":"https://cdn.freshful.ro/media/cache/freshful_large/78/af/29244e7711f01bdb1c04383f3325.jpg"},"extralarge":{"default":"https://cdn.freshful.ro/media/cache/sylius_shop_product_original/78/af/29244e7711f01bdb1c04383f3325.jpg"}},"label":{"text":"Profită acum","backgroundColor":"#FF9903","textColor":"#FFFFFF"},"tags":[{"type":"Eco","text":"Eco","icon":"https://cdn.freshful.ro/assets/product_tags/eco.svg","iconPng":"https://cdn.freshful.ro/assets/product_tags/eco.png","backgroundColor":"#EFFBE4","textColor":"#66BB1B"}],"isAvailable":true,"maxAvailableQuantity":24,"maxAllowedQuantity":24,"breadcrumbs":[{"code":"7","name":"Băuturi","slug":"7-bauturi-si-tutun"},{"code":"701","name":"Băuturi necarbogazoase și siropuri","slug":"701-bauturi-necarbogazoase-si-siropuri"},{"code":"70102","name":"Băuturi fructate necarbogazoase","slug":"70102-bauturi-fructate-necarbogazoase"},{"code":"100127402","name":"Tonic ecologic de aronia și soc cu mere 250ml","slug":"100127402-aromela-tonic-ecologic-de-aronia-si-soc-cu-mere-250ml"}],"activePromotion":{"code":"special-produse-vegane-mar23","name":"Preț avantajos","targetQuantity":null},"saveMe":null,"labels":[{"type":"v1","items":[{"text":"Profită acum","backgroundColor":"#FF9903","textColor":"#FFFFFF"}]}],"geniusPrice":null,"geniusUnitPricePerLabel":null,"banner":{"text":"Preț avantajos","textColor":"#F95510","bgColor":"#FEF1CD","icon":null,"link":"https://www.freshful.ro/oferte/special-produse-vegane-mar23","type":"promo","analyticsEventType":"select_promotion","analyticsEventPayload":{"promotion_id":"special-produse-vegane-mar23","promotion_name":"Și bun, și de post"}},"discountLabel":null,"geniusDiscountLabel":null,"badge":null},{"code":"100127403","variantCode":"100127403","name":"Tonic ecologic de aronia și mure cu mere 250ml","slug":"100127403-aromela-tonic-ecologic-de-aronia-si-mure-cu-mere-250ml","unitPriceLabel":"39,96 Lei/l","brand":"Aromela","brandCode":"85","brandFilterCode":"aromela-b130","sku":"100127403","price":9.99,"originalPrice":null,"currencyCode":"RON","currency":"Lei","image":{"thumbnail":{"default":"https://cdn.freshful.ro/media/cache/sylius_shop_product_thumbnail/5e/91/0c3780ddb862366920f7846716ce.jpg"},"large":{"default":"https://cdn.freshful.ro/media/cache/freshful_large/5e/91/0c3780ddb862366920f7846716ce.jpg"},"extralarge":{"default":"https://cdn.freshful.ro/media/cache/sylius_shop_product_original/5e/91/0c3780ddb862366920f7846716ce.jpg"}},"label":{"text":"Profită acum","backgroundColor":"#FF9903","textColor":"#FFFFFF"},"tags":[{"type":"Eco","text":"Eco","icon":"https://cdn.freshful.ro/assets/product_tags/eco.svg","iconPng":"https://cdn.freshful.ro/assets/product_tags/eco.png","backgroundColor":"#EFFBE4","textColor":"#66BB1B"},{"type":"Natural","text":"Natural","icon":"https://cdn.freshful.ro/assets/product_tags/natural.svg","iconPng":"https://cdn.freshful.ro/assets/product_tags/natural.png","backgroundColor":"#E9FCF2","textColor":"#18AF62"}],"isAvailable":true,"maxAvailableQuantity":24,"maxAllowedQuantity":24,"breadcrumbs":[{"code":"7","name":"Băuturi","slug":"7-bauturi-si-tutun"},{"code":"701","name":"Băuturi necarbogazoase și siropuri","slug":"701-bauturi-necarbogazoase-si-siropuri"},{"code":"70102","name":"Băuturi fructate necarbogazoase","slug":"70102-bauturi-fructate-necarbogazoase"},{"code":"100127403","name":"Tonic ecologic de aronia și mure cu mere 250ml","slug":"100127403-aromela-tonic-ecologic-de-aronia-si-mure-cu-mere-250ml"}],"activePromotion":{"code":"special-produse-vegane-mar23","name":"Preț avantajos","targetQuantity":null},"saveMe":null,"labels":[{"type":"v1","items":[{"text":"Profită acum","backgroundColor":"#FF9903","textColor":"#FFFFFF"}]}],"geniusPrice":null,"geniusUnitPricePerLabel":null,"banner":{"text":"Preț avantajos","textColor":"#F95510","bgColor":"#FEF1CD","icon":null,"link":"https://www.freshful.ro/oferte/special-produse-vegane-mar23","type":"promo","analyticsEventType":"select_promotion","analyticsEventPayload":{"promotion_id":"special-produse-vegane-mar23","promotion_name":"Și bun, și de post"}},"discountLabel":null,"geniusDiscountLabel":null,"badge":null},{"code":"100002892","variantCode":"100002892","name":"Limonadă 1.25l","slug":"100002892-cappy-limonada-1-25l","unitPriceLabel":"5,11 Lei/l","brand":"Cappy","brandCode":"279","brandFilterCode":"cappy-b280","sku":"100002892","price":6.39,"originalPrice":null,"currencyCode":"RON","currency":"Lei","image":{"thumbnail":{"default":"https://cdn.freshful.ro/media/cache/sylius_shop_product_thumbnail/77/cc/93cebec9b66c400cbbef046ac360.jpg"},"large":{"default":"https://cdn.freshful.ro/media/cache/freshful_large/77/cc/93cebec9b66c400cbbef046ac360.jpg"},"extralarge":{"default":"https://cdn.freshful.ro/media/cache/sylius_shop_product_original/77/cc/93cebec9b66c400cbbef046ac360.jpg"}},"label":null,"tags":[{"type":"NoPreservatives","text":"Fara conservanti","icon":"https://cdn.freshful.ro/assets/product_tags/fara_conservanti.svg","iconPng":"https://cdn.freshful.ro/assets/product_tags/fara_conservanti.png","backgroundColor":"#F0F2FF","textColor":"#7889DD"}],"isAvailable":true,"maxAvailableQuantity":24,"maxAllowedQuantity":24,"breadcrumbs":[{"code":"7","name":"Băuturi","slug":"7-bauturi-si-tutun"},{"code":"701","name":"Băuturi necarbogazoase și siropuri","slug":"701-bauturi-necarbogazoase-si-siropuri"},{"code":"70102","name":"Băuturi fructate necarbogazoase","slug":"70102-bauturi-fructate-necarbogazoase"},{"code":"100002892","name":"Limonadă 1.25l","slug":"100002892-cappy-limonada-1-25l"}],"activePromotion":null,"saveMe":null,"labels":[],"geniusPrice":null,"geniusUnitPricePerLabel":null,"banner":null,"discountLabel":null,"geniusDiscountLabel":null,"badge":null},{"code":"100002738","variantCode":"100002738","name":"Limonadă mentă 1.25l","slug":"100002738-cappy-limonada-menta-1-25l","unitPriceLabel":"5,11 Lei/l","brand":"Cappy","brandCode":"279","brandFilterCode":"cappy-b280","sku":"100002738","price":6.39,"originalPrice":null,"currencyCode":"RON","currency":"Lei","image":{"thumbnail":{"default":"https://cdn.freshful.ro/media/cache/sylius_shop_product_thumbnail/ee/2b/e46a81ab6055830601d3370b6057.jpg"},"large":{"default":"https://cdn.freshful.ro/media/cache/freshful_large/ee/2b/e46a81ab6055830601d3370b6057.jpg"},"extralarge":{"default":"https://cdn.freshful.ro/media/cache/sylius_shop_product_original/ee/2b/e46a81ab6055830601d3370b6057.jpg"}},"label":null,"tags":[{"type":"NoPreservatives","text":"Fara conservanti","icon":"https://cdn.freshful.ro/assets/product_tags/fara_conservanti.svg","iconPng":"https://cdn.freshful.ro/assets/product_tags/fara_conservanti.png","backgroundColor":"#F0F2FF","textColor":"#7889DD"}],"isAvailable":true,"maxAvailableQuantity":24,"maxAllowedQuantity":24,"breadcrumbs":[{"code":"7","name":"Băuturi","slug":"7-bauturi-si-tutun"},{"code":"701","name":"Băuturi necarbogazoase și siropuri","slug":"701-bauturi-necarbogazoase-si-siropuri"},{"code":"70102","name":"Băuturi fructate necarbogazoase","slug":"70102-bauturi-fructate-necarbogazoase"},{"code":"100002738","name":"Limonadă mentă 1.25l","slug":"100002738-cappy-limonada-menta-1-25l"}],"activePromotion":null,"saveMe":null,"labels":[],"geniusPrice":null,"geniusUnitPricePerLabel":null,"banner":null,"discountLabel":null,"geniusDiscountLabel":null,"badge":null},{"code":"100044011","variantCode":"100044011","name":"Suc de fructe Mystic Dragon 200ml","slug":"100044011-capri-sun-suc-de-fructe-mystic-dragon-200ml","unitPriceLabel":"10,9 Lei/l","brand":"Capri Sun","brandCode":"778","brandFilterCode":"capri-sun-b779","sku":"100044011","price":2.18,"originalPrice":null,"currencyCode":"RON","currency":"Lei","image":{"thumbnail":{"default":"https://cdn.freshful.ro/media/cache/sylius_shop_product_thumbnail/03/8d/d68fb254ebfa6d80841606be78e1.jpg"},"large":{"default":"https://cdn.freshful.ro/media/cache/freshful_large/03/8d/d68fb254ebfa6d80841606be78e1.jpg"},"extralarge":{"default":"https://cdn.freshful.ro/media/cache/sylius_shop_product_original/03/8d/d68fb254ebfa6d80841606be78e1.jpg"}},"label":null,"tags":[{"type":"NoPreservatives","text":"Fara conservanti","icon":"https://cdn.freshful.ro/assets/product_tags/fara_conservanti.svg","iconPng":"https://cdn.freshful.ro/assets/product_tags/fara_conservanti.png","backgroundColor":"#F0F2FF","textColor":"#7889DD"},{"type":"vegan","text":"Vegan","icon":"https://cdn.freshful.ro/assets/product_tags/vegan.svg","iconPng":"https://cdn.freshful.ro/assets/product_tags/vegan.png","backgroundColor":"#ECF9F8","textColor":"#33A39C"},{"type":"NoAddedSugar","text":"Fara zahar adaugat","icon":"https://cdn.freshful.ro/assets/product_tags/fara_zahar_adaugat.svg","iconPng":"https://cdn.freshful.ro/assets/product_tags/fara_zahar_adaugat.png","backgroundColor":"#F8EDF7","textColor":"#C05EBC"}],"isAvailable":true,"maxAvailableQuantity":24,"maxAllowedQuantity":24,"breadcrumbs":[{"code":"7","name":"Băuturi","slug":"7-bauturi-si-tutun"},{"code":"701","name":"Băuturi necarbogazoase și siropuri","slug":"701-bauturi-necarbogazoase-si-siropuri"},{"code":"70102","name":"Băuturi fructate necarbogazoase","slug":"70102-bauturi-fructate-necarbogazoase"},{"code":"100044011","name":"Suc de fructe Mystic Dragon 200ml","slug":"100044011-capri-sun-suc-de-fructe-mystic-dragon-200ml"}],"activePromotion":null,"saveMe":null,"labels":[],"geniusPrice":null,"geniusUnitPricePerLabel":null,"banner":null,"discountLabel":null,"geniusDiscountLabel":null,"badge":null},{"code":"100044010","variantCode":"100044010","name":"Suc cu multivitamine 200ml","slug":"100044010-capri-sun-suc-cu-multivitamine-200ml","unitPriceLabel":"10,9 Lei/l","brand":"Capri Sun","brandCode":"778","brandFilterCode":"capri-sun-b779","sku":"100044010","price":2.18,"originalPrice":null,"currencyCode":"RON","currency":"Lei","image":{"thumbnail":{"default":"https://cdn.freshful.ro/media/cache/sylius_shop_product_thumbnail/73/e1/debdec80e5a869690221cecae1fb.jpg"},"large":{"default":"https://cdn.freshful.ro/media/cache/freshful_large/73/e1/debdec80e5a869690221cecae1fb.jpg"},"extralarge":{"default":"https://cdn.freshful.ro/media/cache/sylius_shop_product_original/73/e1/debdec80e5a869690221cecae1fb.jpg"}},"label":null,"tags":[{"type":"NoPreservatives","text":"Fara conservanti","icon":"https://cdn.freshful.ro/assets/product_tags/fara_conservanti.svg","iconPng":"https://cdn.freshful.ro/assets/product_tags/fara_conservanti.png","backgroundColor":"#F0F2FF","textColor":"#7889DD"},{"type":"vegan","text":"Vegan","icon":"https://cdn.freshful.ro/assets/product_tags/vegan.svg","iconPng":"https://cdn.freshful.ro/assets/product_tags/vegan.png","backgroundColor":"#ECF9F8","textColor":"#33A39C"},{"type":"NoAddedSugar","text":"Fara zahar adaugat","icon":"https://cdn.freshful.ro/assets/product_tags/fara_zahar_adaugat.svg","iconPng":"https://cdn.freshful.ro/assets/product_tags/fara_zahar_adaugat.png","backgroundColor":"#F8EDF7","textColor":"#C05EBC"}],"isAvailable":true,"maxAvailableQuantity":24,"maxAllowedQuantity":24,"breadcrumbs":[{"code":"7","name":"Băuturi","slug":"7-bauturi-si-tutun"},{"code":"701","name":"Băuturi necarbogazoase și siropuri","slug":"701-bauturi-necarbogazoase-si-siropuri"},{"code":"70102","name":"Băuturi fructate necarbogazoase","slug":"70102-bauturi-fructate-necarbogazoase"},{"code":"100044010","name":"Suc cu multivitamine 200ml","slug":"100044010-capri-sun-suc-cu-multivitamine-200ml"}],"activePromotion":null,"saveMe":null,"labels":[],"geniusPrice":null,"geniusUnitPricePerLabel":null,"banner":null,"discountLabel":null,"geniusDiscountLabel":null,"badge":null},{"code":"100043996","variantCode":"100043996","name":"Suc de piersici 2l","slug":"100043996-pfanner-suc-de-piersici-2l","unitPriceLabel":"5,7 Lei/l","brand":"Pfanner","brandCode":"777","brandFilterCode":"pfanner-b778","sku":"100043996","price":11.39,"originalPrice":null,"currencyCode":"RON","currency":"Lei","image":{"thumbnail":{"default":"https://cdn.freshful.ro/media/cache/sylius_shop_product_thumbnail/14/75/c254dc51966f65035a7d681e7b2c.jpg"},"large":{"default":"https://cdn.freshful.ro/media/cache/freshful_large/14/75/c254dc51966f65035a7d681e7b2c.jpg"},"extralarge":{"default":"https://cdn.freshful.ro/media/cache/sylius_shop_product_original/14/75/c254dc51966f65035a7d681e7b2c.jpg"}},"label":null,"tags":[{"type":"vegan","text":"Vegan","icon":"https://cdn.freshful.ro/assets/product_tags/vegan.svg","iconPng":"https://cdn.freshful.ro/assets/product_tags/vegan.png","backgroundColor":"#ECF9F8","textColor":"#33A39C"}],"isAvailable":true,"maxAvailableQuantity":24,"maxAllowedQuantity":24,"breadcrumbs":[{"code":"7","name":"Băuturi","slug":"7-bauturi-si-tutun"},{"code":"701","name":"Băuturi necarbogazoase și siropuri","slug":"701-bauturi-necarbogazoase-si-siropuri"},{"code":"70102","name":"Băuturi fructate necarbogazoase","slug":"70102-bauturi-fructate-necarbogazoase"},{"code":"100043996","name":"Suc de piersici 2l","slug":"100043996-pfanner-suc-de-piersici-2l"}],"activePromotion":null,"saveMe":null,"labels":[],"geniusPrice":null,"geniusUnitPricePerLabel":null,"banner":null,"discountLabel":null,"geniusDiscountLabel":null,"badge":null}],"filters":{"countSelected":0,"items":[{"code":"promotion","name":"Promoții","countSelected":0,"values":[{"code":"superpreturile-saptamanii","name":"Superprețurile zilei","isSelected":false,"count":1},{"code":"special-produse-vegane-mar23","name":"Și bun, și de post","isSelected":false,"count":4}]},{"code":"brand","name":"Brand","countSelected":0,"values":[{"code":"5-to-go-b2826","name":"5 To Go","isSelected":false,"count":3},{"code":"aromela-b130","name":"Aromela","isSelected":false,"count":4},{"code":"bun-de-tot-b944","name":"Bun de Tot","isSelected":false,"count":3},{"code":"caleno-b2829","name":"Caleno","isSelected":false,"count":2},{"code":"cappy-b280","name":"Cappy","isSelected":false,"count":3},{"code":"capri-sun-b779","name":"Capri Sun","isSelected":false,"count":4},{"code":"ciao-b450","name":"Ciao","isSelected":false,"count":4},{"code":"folkington-s-b2612","name":"Folkington's","isSelected":false,"count":2},{"code":"giusto-natura-b2632","name":"Giusto Natura","isSelected":false,"count":4},{"code":"lima-b1148","name":"Lima","isSelected":false,"count":2},{"code":"merlin-s-b583","name":"Merlin's","isSelected":false,"count":8},{"code":"pfanner-b778","name":"Pfanner","isSelected":false,"count":15},{"code":"prigat-b796","name":"Prigat","isSelected":false,"count":4},{"code":"raab-b1152","name":"Raab","isSelected":false,"count":1},{"code":"santal-b911","name":"Santal","isSelected":false,"count":4},{"code":"tedi-b451","name":"Tedi","isSelected":false,"count":4},{"code":"tymbark-b449","name":"Tymbark","isSelected":false,"count":5},{"code":"voslauer-b780","name":"Vöslauer","isSelected":false,"count":1},{"code":"yugo-b1693","name":"Yugo","isSelected":false,"count":1}]},{"code":"diet_lifestyle","name":"Dietă și lifestyle","countSelected":0,"values":[{"code":"eco-a83","name":"Eco","isSelected":false,"count":14},{"code":"fara-conservanti-a37","name":"Fara conservanti","isSelected":false,"count":15},{"code":"fara-gluten-a16","name":"Fara gluten","isSelected":false,"count":4},{"code":"fara-lactoza-a38","name":"Fara lactoza","isSelected":false,"count":4},{"code":"fara-zahar-adaugat-a29","name":"Fara zahar adaugat","isSelected":false,"count":10},{"code":"made-in-romania-a85","name":"Made In Romania","isSelected":false,"count":5},{"code":"natural-a27","name":"Natural","isSelected":false,"count":2},{"code":"vegan-a24","name":"Vegan","isSelected":false,"count":23}]}]},"orderBy":[{"field":"price","direction":"asc","name":"Preț crescător","isSelected":false},{"field":"price","direction":"desc","name":"Preț descrescător","isSelected":false},{"field":"popularity","direction":"desc","name":"Cele mai populare","isSelected":true},{"field":"category","direction":"asc","name":"Categorie","isSelected":false}],"metaTitle":"Băuturi fructate necarbogazoase - Gamă variată","metaDescription":"Vrei Băuturi fructate necarbogazoase? Alege dintr-o gamă variată. Comanzi simplu și ai livrare rapidă, calitate și prospețime. Hai pe Freshful.ro","metaKeywords":null,"banners":[]}}