{"type":"subcategory","payload":{"analyticsListId":"category_702-apa","analyticsListName":"Category - Apă","name":"Apă","slug":"702-apa","image":null,"breadcrumbs":[{"code":"7","name":"Băuturi","slug":"7-bauturi-si-tutun"},{"code":"702","name":"Apă","slug":"702-apa"}],"slots":[],"page":1,"limit":10,"pages":9,"count":86,"siblings":[{"name":"Băuturi necarbogazoase și siropuri","slug":"701-bauturi-necarbogazoase-si-siropuri","selected":false},{"name":"Apă","slug":"702-apa","selected":true},{"name":"Băuturi carbogazoase","slug":"703-bauturi-carbogazoase","selected":false},{"name":"Bere","slug":"704-bere","selected":false},{"name":"Vinuri","slug":"705-vinuri","selected":false},{"name":"Băuturi spirtoase","slug":"706-bauturi-spirtoase","selected":false},{"name":"Tutun","slug":"707-tutun","selected":false}],"children":[{"name":"Toate produsele","slug":"702-apa","selected":true},{"name":"Apă plată","slug":"70201-apa-plata","selected":false},{"name":"Apă carbogazoasă","slug":"70202-apa-carbogazoasa","selected":false},{"name":"Apă aromatizată","slug":"70203-apa-aromatizata","selected":false}],"products":[{"code":"100137851","variantCode":"100137851","name":"Apă minerală naturală plată 2l","slug":"100137851-aquatique-apa-minerala-naturala-plata-2l","unitPriceLabel":"1,2 Lei/l","brand":"Aquatique","brandCode":"2624","brandFilterCode":"aquatique-b2629","sku":"100137851","price":2.39,"originalPrice":null,"currencyCode":"RON","currency":"Lei","image":{"thumbnail":{"default":"https://cdn.freshful.ro/media/cache/sylius_shop_product_thumbnail/04/fe/c6fb03cf1ea7d8b315b9d74da447.jpg"},"large":{"default":"https://cdn.freshful.ro/media/cache/freshful_large/04/fe/c6fb03cf1ea7d8b315b9d74da447.jpg"},"extralarge":{"default":"https://cdn.freshful.ro/media/cache/sylius_shop_product_original/04/fe/c6fb03cf1ea7d8b315b9d74da447.jpg"}},"label":null,"tags":[],"isAvailable":true,"maxAvailableQuantity":24,"maxAllowedQuantity":24,"breadcrumbs":[{"code":"7","name":"Băuturi","slug":"7-bauturi-si-tutun"},{"code":"702","name":"Apă","slug":"702-apa"},{"code":"70201","name":"Apă plată","slug":"70201-apa-plata"},{"code":"100137851","name":"Apă minerală naturală plată 2l","slug":"100137851-aquatique-apa-minerala-naturala-plata-2l"}],"activePromotion":null,"saveMe":null,"labels":[],"geniusPrice":null,"geniusUnitPricePerLabel":null,"banner":null,"discountLabel":null,"geniusDiscountLabel":null,"badge":null},{"code":"100075084","variantCode":"100075084","name":"Apă minerală naturală necarbogazoasă 2l","slug":"100075084-aqua-carpatica-apa-minerala-naturala-necarbogazoasa-2l","unitPriceLabel":"1,85 Lei/l","brand":"Aqua Carpatica","brandCode":"1122","brandFilterCode":"aqua-carpatica-b1123","sku":"100075084","price":3.69,"originalPrice":null,"currencyCode":"RON","currency":"Lei","image":{"thumbnail":{"default":"https://cdn.freshful.ro/media/cache/sylius_shop_product_thumbnail/e0/72/291fa2e04e630c412d3cf794a9d5.jpg"},"large":{"default":"https://cdn.freshful.ro/media/cache/freshful_large/e0/72/291fa2e04e630c412d3cf794a9d5.jpg"},"extralarge":{"default":"https://cdn.freshful.ro/media/cache/sylius_shop_product_original/e0/72/291fa2e04e630c412d3cf794a9d5.jpg"}},"label":null,"tags":[],"isAvailable":true,"maxAvailableQuantity":24,"maxAllowedQuantity":24,"breadcrumbs":[{"code":"7","name":"Băuturi","slug":"7-bauturi-si-tutun"},{"code":"702","name":"Apă","slug":"702-apa"},{"code":"70201","name":"Apă plată","slug":"70201-apa-plata"},{"code":"100075084","name":"Apă minerală naturală necarbogazoasă 2l","slug":"100075084-aqua-carpatica-apa-minerala-naturala-necarbogazoasa-2l"}],"activePromotion":null,"saveMe":null,"labels":[],"geniusPrice":null,"geniusUnitPricePerLabel":null,"banner":null,"discountLabel":null,"geniusDiscountLabel":null,"badge":null},{"code":"100137844","variantCode":"100137844","name":"Apă minerală naturală natural carbogazoasă 1.5l","slug":"100137844-borsec-apa-minerala-naturala-natural-carbogazoasa-1-5l","unitPriceLabel":"1,73 Lei/l","brand":"Borsec","brandCode":"2622","brandFilterCode":"borsec-b2627","sku":"100137844","price":2.6,"originalPrice":null,"currencyCode":"RON","currency":"Lei","image":{"thumbnail":{"default":"https://cdn.freshful.ro/media/cache/sylius_shop_product_thumbnail/ec/32/fbfffd35265a14865c72a8027f52.jpg"},"large":{"default":"https://cdn.freshful.ro/media/cache/freshful_large/ec/32/fbfffd35265a14865c72a8027f52.jpg"},"extralarge":{"default":"https://cdn.freshful.ro/media/cache/sylius_shop_product_original/ec/32/fbfffd35265a14865c72a8027f52.jpg"}},"label":null,"tags":[],"isAvailable":true,"maxAvailableQuantity":24,"maxAllowedQuantity":24,"breadcrumbs":[{"code":"7","name":"Băuturi","slug":"7-bauturi-si-tutun"},{"code":"702","name":"Apă","slug":"702-apa"},{"code":"70202","name":"Apă carbogazoasă","slug":"70202-apa-carbogazoasa"},{"code":"100137844","name":"Apă minerală naturală natural carbogazoasă 1.5l","slug":"100137844-borsec-apa-minerala-naturala-natural-carbogazoasa-1-5l"}],"activePromotion":null,"saveMe":null,"labels":[],"geniusPrice":null,"geniusUnitPricePerLabel":null,"banner":null,"discountLabel":null,"geniusDiscountLabel":null,"badge":null},{"code":"100137847","variantCode":"100137847","name":"Apă minerală naturală plată 2l","slug":"100137847-borsec-apa-minerala-naturala-plata-2l","unitPriceLabel":"1,48 Lei/l","brand":"Borsec","brandCode":"2622","brandFilterCode":"borsec-b2627","sku":"100137847","price":2.95,"originalPrice":null,"currencyCode":"RON","currency":"Lei","image":{"thumbnail":{"default":"https://cdn.freshful.ro/media/cache/sylius_shop_product_thumbnail/af/0c/bc08455123dc70761e062d04152f.jpg"},"large":{"default":"https://cdn.freshful.ro/media/cache/freshful_large/af/0c/bc08455123dc70761e062d04152f.jpg"},"extralarge":{"default":"https://cdn.freshful.ro/media/cache/sylius_shop_product_original/af/0c/bc08455123dc70761e062d04152f.jpg"}},"label":null,"tags":[],"isAvailable":true,"maxAvailableQuantity":24,"maxAllowedQuantity":24,"breadcrumbs":[{"code":"7","name":"Băuturi","slug":"7-bauturi-si-tutun"},{"code":"702","name":"Apă","slug":"702-apa"},{"code":"70201","name":"Apă plată","slug":"70201-apa-plata"},{"code":"100137847","name":"Apă minerală naturală plată 2l","slug":"100137847-borsec-apa-minerala-naturala-plata-2l"}],"activePromotion":null,"saveMe":null,"labels":[],"geniusPrice":null,"geniusUnitPricePerLabel":null,"banner":null,"discountLabel":null,"geniusDiscountLabel":null,"badge":null},{"code":"100043518","variantCode":"100043518","name":"Apă minerală naturală plată 2l","slug":"100043518-bucovina-apa-minerala-naturala-plata-2l","unitPriceLabel":"1,8 Lei/l","brand":"Bucovina","brandCode":"447","brandFilterCode":"bucovina-b448","sku":"100043518","price":3.6,"originalPrice":null,"currencyCode":"RON","currency":"Lei","image":{"thumbnail":{"default":"https://cdn.freshful.ro/media/cache/sylius_shop_product_thumbnail/0d/5f/29dba2525a1a6c48227df88c8806.jpg"},"large":{"default":"https://cdn.freshful.ro/media/cache/freshful_large/0d/5f/29dba2525a1a6c48227df88c8806.jpg"},"extralarge":{"default":"https://cdn.freshful.ro/media/cache/sylius_shop_product_original/0d/5f/29dba2525a1a6c48227df88c8806.jpg"}},"label":null,"tags":[],"isAvailable":true,"maxAvailableQuantity":24,"maxAllowedQuantity":24,"breadcrumbs":[{"code":"7","name":"Băuturi","slug":"7-bauturi-si-tutun"},{"code":"702","name":"Apă","slug":"702-apa"},{"code":"70201","name":"Apă plată","slug":"70201-apa-plata"},{"code":"100043518","name":"Apă minerală naturală plată 2l","slug":"100043518-bucovina-apa-minerala-naturala-plata-2l"}],"activePromotion":null,"saveMe":null,"labels":[],"geniusPrice":null,"geniusUnitPricePerLabel":null,"banner":null,"discountLabel":null,"geniusDiscountLabel":null,"badge":null},{"code":"100133032","variantCode":"100133032","name":"Apă minerală naturală necarbogazoasă 5l","slug":"100133032-aqua-carpatica-apa-minerala-naturala-necarbogazoasa-5l","unitPriceLabel":"1,52 Lei/l","brand":"Aqua Carpatica","brandCode":"1122","brandFilterCode":"aqua-carpatica-b1123","sku":"100133032","price":7.59,"originalPrice":null,"currencyCode":"RON","currency":"Lei","image":{"thumbnail":{"default":"https://cdn.freshful.ro/media/cache/sylius_shop_product_thumbnail/40/10/f52c53e8f062ff7552779efe4db3.jpg"},"large":{"default":"https://cdn.freshful.ro/media/cache/freshful_large/40/10/f52c53e8f062ff7552779efe4db3.jpg"},"extralarge":{"default":"https://cdn.freshful.ro/media/cache/sylius_shop_product_original/40/10/f52c53e8f062ff7552779efe4db3.jpg"}},"label":null,"tags":[],"isAvailable":true,"maxAvailableQuantity":24,"maxAllowedQuantity":24,"breadcrumbs":[{"code":"7","name":"Băuturi","slug":"7-bauturi-si-tutun"},{"code":"702","name":"Apă","slug":"702-apa"},{"code":"70201","name":"Apă plată","slug":"70201-apa-plata"},{"code":"100133032","name":"Apă minerală naturală necarbogazoasă 5l","slug":"100133032-aqua-carpatica-apa-minerala-naturala-necarbogazoasa-5l"}],"activePromotion":null,"saveMe":null,"labels":[],"geniusPrice":null,"geniusUnitPricePerLabel":null,"banner":null,"discountLabel":null,"geniusDiscountLabel":null,"badge":null},{"code":"100075080","variantCode":"100075080","name":"Apă minerală naturală necarbogazoasă 250ml","slug":"100075080-aqua-carpatica-apa-minerala-naturala-necarbogazoasa-250ml","unitPriceLabel":"9,48 Lei/l","brand":"Aqua Carpatica","brandCode":"1122","brandFilterCode":"aqua-carpatica-b1123","sku":"100075080","price":2.37,"originalPrice":null,"currencyCode":"RON","currency":"Lei","image":{"thumbnail":{"default":"https://cdn.freshful.ro/media/cache/sylius_shop_product_thumbnail/3f/e9/5e0f4ba83b66b8ff97408ec620ed.jpg"},"large":{"default":"https://cdn.freshful.ro/media/cache/freshful_large/3f/e9/5e0f4ba83b66b8ff97408ec620ed.jpg"},"extralarge":{"default":"https://cdn.freshful.ro/media/cache/sylius_shop_product_original/3f/e9/5e0f4ba83b66b8ff97408ec620ed.jpg"}},"label":null,"tags":[],"isAvailable":true,"maxAvailableQuantity":24,"maxAllowedQuantity":24,"breadcrumbs":[{"code":"7","name":"Băuturi","slug":"7-bauturi-si-tutun"},{"code":"702","name":"Apă","slug":"702-apa"},{"code":"70201","name":"Apă plată","slug":"70201-apa-plata"},{"code":"100075080","name":"Apă minerală naturală necarbogazoasă 250ml","slug":"100075080-aqua-carpatica-apa-minerala-naturala-necarbogazoasa-250ml"}],"activePromotion":null,"saveMe":null,"labels":[],"geniusPrice":null,"geniusUnitPricePerLabel":null,"banner":null,"discountLabel":null,"geniusDiscountLabel":null,"badge":null},{"code":"100133102","variantCode":"100133102","name":"Apă natural alcalină 5l","slug":"100133102-azuga-apa-natural-alcalina-5l","unitPriceLabel":"1,38 Lei/l","brand":"Azuga","brandCode":"584","brandFilterCode":"azuga-b585","sku":"100133102","price":6.89,"originalPrice":null,"currencyCode":"RON","currency":"Lei","image":{"thumbnail":{"default":"https://cdn.freshful.ro/media/cache/sylius_shop_product_thumbnail/e3/81/98c1e7f502c896626dfe1ce2d0c3.jpg"},"large":{"default":"https://cdn.freshful.ro/media/cache/freshful_large/e3/81/98c1e7f502c896626dfe1ce2d0c3.jpg"},"extralarge":{"default":"https://cdn.freshful.ro/media/cache/sylius_shop_product_original/e3/81/98c1e7f502c896626dfe1ce2d0c3.jpg"}},"label":null,"tags":[],"isAvailable":true,"maxAvailableQuantity":24,"maxAllowedQuantity":24,"breadcrumbs":[{"code":"7","name":"Băuturi","slug":"7-bauturi-si-tutun"},{"code":"702","name":"Apă","slug":"702-apa"},{"code":"70201","name":"Apă plată","slug":"70201-apa-plata"},{"code":"100133102","name":"Apă natural alcalină 5l","slug":"100133102-azuga-apa-natural-alcalina-5l"}],"activePromotion":null,"saveMe":null,"labels":[],"geniusPrice":null,"geniusUnitPricePerLabel":null,"banner":null,"discountLabel":null,"geniusDiscountLabel":null,"badge":null},{"code":"100075082","variantCode":"100075082","name":"Apă minerală naturală necarbogazoasă 1l","slug":"100075082-aqua-carpatica-apa-minerala-naturala-necarbogazoasa-1l","unitPriceLabel":"2,65 Lei/l","brand":"Aqua Carpatica","brandCode":"1122","brandFilterCode":"aqua-carpatica-b1123","sku":"100075082","price":2.65,"originalPrice":null,"currencyCode":"RON","currency":"Lei","image":{"thumbnail":{"default":"https://cdn.freshful.ro/media/cache/sylius_shop_product_thumbnail/6f/28/877ca9482663abfb86e6bf1b59a8.jpg"},"large":{"default":"https://cdn.freshful.ro/media/cache/freshful_large/6f/28/877ca9482663abfb86e6bf1b59a8.jpg"},"extralarge":{"default":"https://cdn.freshful.ro/media/cache/sylius_shop_product_original/6f/28/877ca9482663abfb86e6bf1b59a8.jpg"}},"label":null,"tags":[],"isAvailable":true,"maxAvailableQuantity":24,"maxAllowedQuantity":24,"breadcrumbs":[{"code":"7","name":"Băuturi","slug":"7-bauturi-si-tutun"},{"code":"702","name":"Apă","slug":"702-apa"},{"code":"70201","name":"Apă plată","slug":"70201-apa-plata"},{"code":"100075082","name":"Apă minerală naturală necarbogazoasă 1l","slug":"100075082-aqua-carpatica-apa-minerala-naturala-necarbogazoasa-1l"}],"activePromotion":null,"saveMe":null,"labels":[],"geniusPrice":null,"geniusUnitPricePerLabel":null,"banner":null,"discountLabel":null,"geniusDiscountLabel":null,"badge":null},{"code":"100002894","variantCode":"5449000108371","name":"Apă minerală necarbogazoasă 2l","slug":"100002894-dorna-apa-minerala-necarbogazoasa-2l","unitPriceLabel":"1,61 Lei/l","brand":"Dorna","brandCode":"281","brandFilterCode":"dorna-b282","sku":"100002894","price":3.22,"originalPrice":null,"currencyCode":"RON","currency":"Lei","image":{"thumbnail":{"default":"https://cdn.freshful.ro/media/cache/sylius_shop_product_thumbnail/35/e3/857a5bfec6f54a072516bf26a4a9.jpg"},"large":{"default":"https://cdn.freshful.ro/media/cache/freshful_large/35/e3/857a5bfec6f54a072516bf26a4a9.jpg"},"extralarge":{"default":"https://cdn.freshful.ro/media/cache/sylius_shop_product_original/35/e3/857a5bfec6f54a072516bf26a4a9.jpg"}},"label":null,"tags":[],"isAvailable":true,"maxAvailableQuantity":6,"maxAllowedQuantity":6,"breadcrumbs":[{"code":"7","name":"Băuturi","slug":"7-bauturi-si-tutun"},{"code":"702","name":"Apă","slug":"702-apa"},{"code":"70201","name":"Apă plată","slug":"70201-apa-plata"},{"code":"100002894","name":"Apă minerală necarbogazoasă 2l","slug":"100002894-dorna-apa-minerala-necarbogazoasa-2l"}],"activePromotion":null,"saveMe":null,"labels":[],"geniusPrice":null,"geniusUnitPricePerLabel":null,"banner":null,"discountLabel":null,"geniusDiscountLabel":null,"badge":null}],"filters":{"countSelected":0,"items":[{"code":"brand","name":"Brand","countSelected":0,"values":[{"code":"aqua-carpatica-b1123","name":"Aqua Carpatica","isSelected":false,"count":15},{"code":"aqualina-b3013","name":"Aqualina","isSelected":false,"count":4},{"code":"aquatique-b2629","name":"Aquatique","isSelected":false,"count":2},{"code":"aquavia-b798","name":"Aquavia","isSelected":false,"count":3},{"code":"azuga-b585","name":"Azuga","isSelected":false,"count":4},{"code":"borsec-b2627","name":"Borsec","isSelected":false,"count":6},{"code":"brainia-b925","name":"Brainia","isSelected":false,"count":2},{"code":"bucovina-b448","name":"Bucovina","isSelected":false,"count":13},{"code":"dirtwater-fox-brewery-b2613","name":"Dirtwater Fox Brewery","isSelected":false,"count":4},{"code":"dorna-b282","name":"Dorna","isSelected":false,"count":5},{"code":"doubia-b2984","name":"Doubia","isSelected":false,"count":1},{"code":"merlin-s-b583","name":"Merlin's","isSelected":false,"count":2},{"code":"oshee-b1066","name":"Oshee","isSelected":false,"count":3},{"code":"perrier-b1432","name":"Perrier","isSelected":false,"count":1},{"code":"poiana-negri-b283","name":"Poiana Negri","isSelected":false,"count":2},{"code":"san-benedetto-b1430","name":"San Benedetto","isSelected":false,"count":2},{"code":"stanceni-b2628","name":"Stânceni","isSelected":false,"count":1},{"code":"tedi-b451","name":"Tedi","isSelected":false,"count":2},{"code":"tusnad-b896","name":"Tuşnad","isSelected":false,"count":2},{"code":"tymbark-b449","name":"Tymbark","isSelected":false,"count":3},{"code":"vittel-b1431","name":"Vittel","isSelected":false,"count":2},{"code":"voslauer-b780","name":"Vöslauer","isSelected":false,"count":4},{"code":"zizin-b788","name":"Zizin","isSelected":false,"count":3}]},{"code":"diet_lifestyle","name":"Dietă și lifestyle","countSelected":0,"values":[{"code":"eco-a83","name":"Eco","isSelected":false,"count":4},{"code":"fara-conservanti-a37","name":"Fara conservanti","isSelected":false,"count":6},{"code":"fara-zahar-adaugat-a29","name":"Fara zahar adaugat","isSelected":false,"count":3},{"code":"vegan-a24","name":"Vegan","isSelected":false,"count":2}]}]},"orderBy":[{"field":"price","direction":"asc","name":"Preț crescător","isSelected":false},{"field":"price","direction":"desc","name":"Preț descrescător","isSelected":false},{"field":"popularity","direction":"desc","name":"Cele mai populare","isSelected":true},{"field":"category","direction":"asc","name":"Categorie","isSelected":false}],"metaTitle":"Apă - Gamă variată","metaDescription":"Vrei Apă? Alege dintr-o gamă variată. Comanzi simplu și ai livrare rapidă, calitate și prospețime. Hai pe Freshful.ro","metaKeywords":null,"banners":[{"name":"Prim pret","position":2,"type":"listing","displayOnMobile":true,"image":{"jpg":"https://cdn.freshful.ro/media/image/87/b8/2c5353731cb930753b2e9388cb6c.jpg","webp":"https://cdn.freshful.ro/media/image/2f/81/31f258b5a853f724d1a0ee704aea.webp"},"imageResponsive":{"jpg":"https://cdn.freshful.ro/media/image/bc/92/2fd607eef07234c1e524156e1312.jpg","webp":"https://cdn.freshful.ro/media/image/87/db/5b4fc5253bb990fdd0477492ff28.webp"},"url":"/l/custom-listing-prim-pret"}]}}