{"type":"subcategory","payload":{"analyticsListId":"category_70202-apa-carbogazoasa","analyticsListName":"Category - Apă carbogazoasă","name":"Apă carbogazoasă","slug":"70202-apa-carbogazoasa","image":null,"breadcrumbs":[{"code":"7","name":"Băuturi","slug":"7-bauturi-si-tutun"},{"code":"702","name":"Apă","slug":"702-apa"},{"code":"70202","name":"Apă carbogazoasă","slug":"70202-apa-carbogazoasa"}],"slots":[],"page":1,"limit":10,"pages":3,"count":24,"siblings":[{"name":"Băuturi necarbogazoase și siropuri","slug":"701-bauturi-necarbogazoase-si-siropuri","selected":false},{"name":"Apă","slug":"702-apa","selected":true},{"name":"Băuturi carbogazoase","slug":"703-bauturi-carbogazoase","selected":false},{"name":"Bere","slug":"704-bere","selected":false},{"name":"Vinuri","slug":"705-vinuri","selected":false},{"name":"Băuturi spirtoase","slug":"706-bauturi-spirtoase","selected":false},{"name":"Tutun","slug":"707-tutun","selected":false}],"children":[{"name":"Toate produsele","slug":"702-apa","selected":false},{"name":"Apă plată","slug":"70201-apa-plata","selected":false},{"name":"Apă carbogazoasă","slug":"70202-apa-carbogazoasa","selected":true},{"name":"Apă aromatizată","slug":"70203-apa-aromatizata","selected":false}],"products":[{"code":"100137844","variantCode":"100137844","name":"Apă minerală naturală natural carbogazoasă 1.5l","slug":"100137844-borsec-apa-minerala-naturala-natural-carbogazoasa-1-5l","unitPriceLabel":"1,73 Lei/l","brand":"Borsec","brandCode":"2622","brandFilterCode":"borsec-b2627","sku":"100137844","price":2.6,"originalPrice":null,"currencyCode":"RON","currency":"Lei","image":{"thumbnail":{"default":"https://cdn.freshful.ro/media/cache/sylius_shop_product_thumbnail/ec/32/fbfffd35265a14865c72a8027f52.jpg"},"large":{"default":"https://cdn.freshful.ro/media/cache/freshful_large/ec/32/fbfffd35265a14865c72a8027f52.jpg"},"extralarge":{"default":"https://cdn.freshful.ro/media/cache/sylius_shop_product_original/ec/32/fbfffd35265a14865c72a8027f52.jpg"}},"label":null,"tags":[],"isAvailable":true,"maxAvailableQuantity":24,"maxAllowedQuantity":24,"breadcrumbs":[{"code":"7","name":"Băuturi","slug":"7-bauturi-si-tutun"},{"code":"702","name":"Apă","slug":"702-apa"},{"code":"70202","name":"Apă carbogazoasă","slug":"70202-apa-carbogazoasa"},{"code":"100137844","name":"Apă minerală naturală natural carbogazoasă 1.5l","slug":"100137844-borsec-apa-minerala-naturala-natural-carbogazoasa-1-5l"}],"activePromotion":null,"saveMe":null,"labels":[],"geniusPrice":null,"geniusUnitPricePerLabel":null,"banner":null,"discountLabel":null,"geniusDiscountLabel":null,"badge":null},{"code":"100075087","variantCode":"100075087","name":"Apă minerală naturală carbogazoasă 1.5l","slug":"100075087-aqua-carpatica-apa-minerala-naturala-carbogazoasa-1-5l","unitPriceLabel":"2,53 Lei/l","brand":"Aqua Carpatica","brandCode":"1122","brandFilterCode":"aqua-carpatica-b1123","sku":"100075087","price":3.79,"originalPrice":null,"currencyCode":"RON","currency":"Lei","image":{"thumbnail":{"default":"https://cdn.freshful.ro/media/cache/sylius_shop_product_thumbnail/40/48/ee39dbd2abbffe2903aaaeee561f.jpg"},"large":{"default":"https://cdn.freshful.ro/media/cache/freshful_large/40/48/ee39dbd2abbffe2903aaaeee561f.jpg"},"extralarge":{"default":"https://cdn.freshful.ro/media/cache/sylius_shop_product_original/40/48/ee39dbd2abbffe2903aaaeee561f.jpg"}},"label":null,"tags":[],"isAvailable":true,"maxAvailableQuantity":24,"maxAllowedQuantity":24,"breadcrumbs":[{"code":"7","name":"Băuturi","slug":"7-bauturi-si-tutun"},{"code":"702","name":"Apă","slug":"702-apa"},{"code":"70202","name":"Apă carbogazoasă","slug":"70202-apa-carbogazoasa"},{"code":"100075087","name":"Apă minerală naturală carbogazoasă 1.5l","slug":"100075087-aqua-carpatica-apa-minerala-naturala-carbogazoasa-1-5l"}],"activePromotion":null,"saveMe":null,"labels":[],"geniusPrice":null,"geniusUnitPricePerLabel":null,"banner":null,"discountLabel":null,"geniusDiscountLabel":null,"badge":null},{"code":"100061122","variantCode":"5942247000052","name":"Apă minerală naturală carbogazificată 2l","slug":"100061122-tusnad-apa-minerala-naturala-carbogazificata-2l","unitPriceLabel":"1,52 Lei/l","brand":"Tuşnad","brandCode":"895","brandFilterCode":"tusnad-b896","sku":"100061122","price":3.03,"originalPrice":null,"currencyCode":"RON","currency":"Lei","image":{"thumbnail":{"default":"https://cdn.freshful.ro/media/cache/sylius_shop_product_thumbnail/f9/1e/bae8fd547ebce8c2d712cc611c21.jpg"},"large":{"default":"https://cdn.freshful.ro/media/cache/freshful_large/f9/1e/bae8fd547ebce8c2d712cc611c21.jpg"},"extralarge":{"default":"https://cdn.freshful.ro/media/cache/sylius_shop_product_original/f9/1e/bae8fd547ebce8c2d712cc611c21.jpg"}},"label":null,"tags":[],"isAvailable":true,"maxAvailableQuantity":24,"maxAllowedQuantity":24,"breadcrumbs":[{"code":"7","name":"Băuturi","slug":"7-bauturi-si-tutun"},{"code":"702","name":"Apă","slug":"702-apa"},{"code":"70202","name":"Apă carbogazoasă","slug":"70202-apa-carbogazoasa"},{"code":"100061122","name":"Apă minerală naturală carbogazificată 2l","slug":"100061122-tusnad-apa-minerala-naturala-carbogazificata-2l"}],"activePromotion":null,"saveMe":null,"labels":[],"geniusPrice":null,"geniusUnitPricePerLabel":null,"banner":null,"discountLabel":null,"geniusDiscountLabel":null,"badge":null},{"code":"100137849","variantCode":"100137849","name":"Apă minerală naturală carbogazoasă sticlă 0.75l","slug":"100137849-borsec-apa-minerala-naturala-carbogazoasa-sticla-0-75l","unitPriceLabel":"4,8 Lei/l","brand":"Borsec","brandCode":"2622","brandFilterCode":"borsec-b2627","sku":"100137849","price":3.6,"originalPrice":null,"currencyCode":"RON","currency":"Lei","image":{"thumbnail":{"default":"https://cdn.freshful.ro/media/cache/sylius_shop_product_thumbnail/4d/57/41dc0603890f99765669ed11e51c.jpg"},"large":{"default":"https://cdn.freshful.ro/media/cache/freshful_large/4d/57/41dc0603890f99765669ed11e51c.jpg"},"extralarge":{"default":"https://cdn.freshful.ro/media/cache/sylius_shop_product_original/4d/57/41dc0603890f99765669ed11e51c.jpg"}},"label":null,"tags":[],"isAvailable":true,"maxAvailableQuantity":24,"maxAllowedQuantity":24,"breadcrumbs":[{"code":"7","name":"Băuturi","slug":"7-bauturi-si-tutun"},{"code":"702","name":"Apă","slug":"702-apa"},{"code":"70202","name":"Apă carbogazoasă","slug":"70202-apa-carbogazoasa"},{"code":"100137849","name":"Apă minerală naturală carbogazoasă sticlă 0.75l","slug":"100137849-borsec-apa-minerala-naturala-carbogazoasa-sticla-0-75l"}],"activePromotion":null,"saveMe":null,"labels":[],"geniusPrice":null,"geniusUnitPricePerLabel":null,"banner":null,"discountLabel":null,"geniusDiscountLabel":null,"badge":null},{"code":"100002746","variantCode":"5449000033239","name":"Apă minerală carbogazoasă 2l","slug":"100002746-poiana-negri-apa-minerala-carbogazoasa-2l","unitPriceLabel":"1,63 Lei/l","brand":"Poiana Negri","brandCode":"282","brandFilterCode":"poiana-negri-b283","sku":"100002746","price":3.25,"originalPrice":null,"currencyCode":"RON","currency":"Lei","image":{"thumbnail":{"default":"https://cdn.freshful.ro/media/cache/sylius_shop_product_thumbnail/ae/55/2d2c6e733b85c7b8f0b268f888d6.jpg"},"large":{"default":"https://cdn.freshful.ro/media/cache/freshful_large/ae/55/2d2c6e733b85c7b8f0b268f888d6.jpg"},"extralarge":{"default":"https://cdn.freshful.ro/media/cache/sylius_shop_product_original/ae/55/2d2c6e733b85c7b8f0b268f888d6.jpg"}},"label":null,"tags":[],"isAvailable":true,"maxAvailableQuantity":24,"maxAllowedQuantity":24,"breadcrumbs":[{"code":"7","name":"Băuturi","slug":"7-bauturi-si-tutun"},{"code":"702","name":"Apă","slug":"702-apa"},{"code":"70202","name":"Apă carbogazoasă","slug":"70202-apa-carbogazoasa"},{"code":"100002746","name":"Apă minerală carbogazoasă 2l","slug":"100002746-poiana-negri-apa-minerala-carbogazoasa-2l"}],"activePromotion":null,"saveMe":null,"labels":[],"geniusPrice":null,"geniusUnitPricePerLabel":null,"banner":null,"discountLabel":null,"geniusDiscountLabel":null,"badge":null},{"code":"100137845","variantCode":"100137845","name":"Apă minerală naturală natural carbogazoasă 0.5l","slug":"100137845-borsec-apa-minerala-naturala-natural-carbogazoasa-0-5l","unitPriceLabel":"4,74 Lei/l","brand":"Borsec","brandCode":"2622","brandFilterCode":"borsec-b2627","sku":"100137845","price":2.37,"originalPrice":null,"currencyCode":"RON","currency":"Lei","image":{"thumbnail":{"default":"https://cdn.freshful.ro/media/cache/sylius_shop_product_thumbnail/85/4d/3cc39c9e102d752dd3c4af5eea3b.jpg"},"large":{"default":"https://cdn.freshful.ro/media/cache/freshful_large/85/4d/3cc39c9e102d752dd3c4af5eea3b.jpg"},"extralarge":{"default":"https://cdn.freshful.ro/media/cache/sylius_shop_product_original/85/4d/3cc39c9e102d752dd3c4af5eea3b.jpg"}},"label":null,"tags":[],"isAvailable":true,"maxAvailableQuantity":24,"maxAllowedQuantity":24,"breadcrumbs":[{"code":"7","name":"Băuturi","slug":"7-bauturi-si-tutun"},{"code":"702","name":"Apă","slug":"702-apa"},{"code":"70202","name":"Apă carbogazoasă","slug":"70202-apa-carbogazoasa"},{"code":"100137845","name":"Apă minerală naturală natural carbogazoasă 0.5l","slug":"100137845-borsec-apa-minerala-naturala-natural-carbogazoasa-0-5l"}],"activePromotion":null,"saveMe":null,"labels":[],"geniusPrice":null,"geniusUnitPricePerLabel":null,"banner":null,"discountLabel":null,"geniusDiscountLabel":null,"badge":null},{"code":"100002744","variantCode":"5449000183316","name":"Apă minerală carbogazoasă 2l","slug":"100002744-dorna-apa-minerala-carbogazoasa-2l","unitPriceLabel":"1,56 Lei/l","brand":"Dorna","brandCode":"281","brandFilterCode":"dorna-b282","sku":"100002744","price":3.12,"originalPrice":null,"currencyCode":"RON","currency":"Lei","image":{"thumbnail":{"default":"https://cdn.freshful.ro/media/cache/sylius_shop_product_thumbnail/36/84/cff3f0a379a810071fe6ce7d2758.jpg"},"large":{"default":"https://cdn.freshful.ro/media/cache/freshful_large/36/84/cff3f0a379a810071fe6ce7d2758.jpg"},"extralarge":{"default":"https://cdn.freshful.ro/media/cache/sylius_shop_product_original/36/84/cff3f0a379a810071fe6ce7d2758.jpg"}},"label":null,"tags":[],"isAvailable":true,"maxAvailableQuantity":24,"maxAllowedQuantity":24,"breadcrumbs":[{"code":"7","name":"Băuturi","slug":"7-bauturi-si-tutun"},{"code":"702","name":"Apă","slug":"702-apa"},{"code":"70202","name":"Apă carbogazoasă","slug":"70202-apa-carbogazoasa"},{"code":"100002744","name":"Apă minerală carbogazoasă 2l","slug":"100002744-dorna-apa-minerala-carbogazoasa-2l"}],"activePromotion":null,"saveMe":null,"labels":[],"geniusPrice":null,"geniusUnitPricePerLabel":null,"banner":null,"discountLabel":null,"geniusDiscountLabel":null,"badge":null},{"code":"100061121","variantCode":"5942247100769","name":"Apă minerală naturală carbogazificată 1l","slug":"100061121-tusnad-apa-minerala-naturala-carbogazificata-1l","unitPriceLabel":"2,17 Lei/l","brand":"Tuşnad","brandCode":"895","brandFilterCode":"tusnad-b896","sku":"100061121","price":2.17,"originalPrice":null,"currencyCode":"RON","currency":"Lei","image":{"thumbnail":{"default":"https://cdn.freshful.ro/media/cache/sylius_shop_product_thumbnail/78/73/e5f27aaeba35bf2af6a78e0b7bb3.jpg"},"large":{"default":"https://cdn.freshful.ro/media/cache/freshful_large/78/73/e5f27aaeba35bf2af6a78e0b7bb3.jpg"},"extralarge":{"default":"https://cdn.freshful.ro/media/cache/sylius_shop_product_original/78/73/e5f27aaeba35bf2af6a78e0b7bb3.jpg"}},"label":null,"tags":[],"isAvailable":true,"maxAvailableQuantity":24,"maxAllowedQuantity":24,"breadcrumbs":[{"code":"7","name":"Băuturi","slug":"7-bauturi-si-tutun"},{"code":"702","name":"Apă","slug":"702-apa"},{"code":"70202","name":"Apă carbogazoasă","slug":"70202-apa-carbogazoasa"},{"code":"100061121","name":"Apă minerală naturală carbogazificată 1l","slug":"100061121-tusnad-apa-minerala-naturala-carbogazificata-1l"}],"activePromotion":null,"saveMe":null,"labels":[],"geniusPrice":null,"geniusUnitPricePerLabel":null,"banner":null,"discountLabel":null,"geniusDiscountLabel":null,"badge":null},{"code":"100043521","variantCode":"100043521","name":"Apă minerală naturală carbogazificată 1.5l","slug":"100043521-bucovina-apa-minerala-naturala-carbogazificata-1-5l","unitPriceLabel":"2,27 Lei/l","brand":"Bucovina","brandCode":"447","brandFilterCode":"bucovina-b448","sku":"100043521","price":3.41,"originalPrice":null,"currencyCode":"RON","currency":"Lei","image":{"thumbnail":{"default":"https://cdn.freshful.ro/media/cache/sylius_shop_product_thumbnail/56/d8/2882187c3df75601a39020d8336b.jpg"},"large":{"default":"https://cdn.freshful.ro/media/cache/freshful_large/56/d8/2882187c3df75601a39020d8336b.jpg"},"extralarge":{"default":"https://cdn.freshful.ro/media/cache/sylius_shop_product_original/56/d8/2882187c3df75601a39020d8336b.jpg"}},"label":null,"tags":[],"isAvailable":true,"maxAvailableQuantity":24,"maxAllowedQuantity":24,"breadcrumbs":[{"code":"7","name":"Băuturi","slug":"7-bauturi-si-tutun"},{"code":"702","name":"Apă","slug":"702-apa"},{"code":"70202","name":"Apă carbogazoasă","slug":"70202-apa-carbogazoasa"},{"code":"100043521","name":"Apă minerală naturală carbogazificată 1.5l","slug":"100043521-bucovina-apa-minerala-naturala-carbogazificata-1-5l"}],"activePromotion":null,"saveMe":null,"labels":[],"geniusPrice":null,"geniusUnitPricePerLabel":null,"banner":null,"discountLabel":null,"geniusDiscountLabel":null,"badge":null},{"code":"100075085","variantCode":"100075085","name":"Apă minerală naturală carbogazoasă 0.5l","slug":"100075085-aqua-carpatica-apa-minerala-naturala-carbogazoasa-0-5l","unitPriceLabel":"4,92 Lei/l","brand":"Aqua Carpatica","brandCode":"1122","brandFilterCode":"aqua-carpatica-b1123","sku":"100075085","price":2.46,"originalPrice":null,"currencyCode":"RON","currency":"Lei","image":{"thumbnail":{"default":"https://cdn.freshful.ro/media/cache/sylius_shop_product_thumbnail/6b/24/a93007cecd30c498b4a5d9403513.jpg"},"large":{"default":"https://cdn.freshful.ro/media/cache/freshful_large/6b/24/a93007cecd30c498b4a5d9403513.jpg"},"extralarge":{"default":"https://cdn.freshful.ro/media/cache/sylius_shop_product_original/6b/24/a93007cecd30c498b4a5d9403513.jpg"}},"label":null,"tags":[],"isAvailable":true,"maxAvailableQuantity":24,"maxAllowedQuantity":24,"breadcrumbs":[{"code":"7","name":"Băuturi","slug":"7-bauturi-si-tutun"},{"code":"702","name":"Apă","slug":"702-apa"},{"code":"70202","name":"Apă carbogazoasă","slug":"70202-apa-carbogazoasa"},{"code":"100075085","name":"Apă minerală naturală carbogazoasă 0.5l","slug":"100075085-aqua-carpatica-apa-minerala-naturala-carbogazoasa-0-5l"}],"activePromotion":null,"saveMe":null,"labels":[],"geniusPrice":null,"geniusUnitPricePerLabel":null,"banner":null,"discountLabel":null,"geniusDiscountLabel":null,"badge":null}],"filters":{"countSelected":0,"items":[{"code":"brand","name":"Brand","countSelected":0,"values":[{"code":"aqua-carpatica-b1123","name":"Aqua Carpatica","isSelected":false,"count":4},{"code":"aqualina-b3013","name":"Aqualina","isSelected":false,"count":2},{"code":"azuga-b585","name":"Azuga","isSelected":false,"count":1},{"code":"borsec-b2627","name":"Borsec","isSelected":false,"count":3},{"code":"bucovina-b448","name":"Bucovina","isSelected":false,"count":3},{"code":"dorna-b282","name":"Dorna","isSelected":false,"count":2},{"code":"doubia-b2984","name":"Doubia","isSelected":false,"count":1},{"code":"perrier-b1432","name":"Perrier","isSelected":false,"count":1},{"code":"poiana-negri-b283","name":"Poiana Negri","isSelected":false,"count":2},{"code":"san-benedetto-b1430","name":"San Benedetto","isSelected":false,"count":1},{"code":"stanceni-b2628","name":"Stânceni","isSelected":false,"count":1},{"code":"tusnad-b896","name":"Tuşnad","isSelected":false,"count":2},{"code":"zizin-b788","name":"Zizin","isSelected":false,"count":1}]}]},"orderBy":[{"field":"price","direction":"asc","name":"Preț crescător","isSelected":false},{"field":"price","direction":"desc","name":"Preț descrescător","isSelected":false},{"field":"popularity","direction":"desc","name":"Cele mai populare","isSelected":true},{"field":"category","direction":"asc","name":"Categorie","isSelected":false}],"metaTitle":"Apă carbogazoasă - Gamă variată","metaDescription":"Vrei Apă carbogazoasă? Alege dintr-o gamă variată. Comanzi simplu și ai livrare rapidă, calitate și prospețime. Hai pe Freshful.ro","metaKeywords":null,"banners":[]}}