{"type":"subcategory","payload":{"analyticsListId":"category_70302-bauturi-fructate-carbogazoase","analyticsListName":"Category - Băuturi fructate carbogazoase","name":"Băuturi fructate carbogazoase","slug":"70302-bauturi-fructate-carbogazoase","image":null,"breadcrumbs":[{"code":"7","name":"Băuturi","slug":"7-bauturi-si-tutun"},{"code":"703","name":"Băuturi carbogazoase","slug":"703-bauturi-carbogazoase"},{"code":"70302","name":"Băuturi fructate carbogazoase","slug":"70302-bauturi-fructate-carbogazoase"}],"slots":[],"page":1,"limit":10,"pages":7,"count":69,"siblings":[{"name":"Băuturi necarbogazoase și siropuri","slug":"701-bauturi-necarbogazoase-si-siropuri","selected":false},{"name":"Apă","slug":"702-apa","selected":false},{"name":"Băuturi carbogazoase","slug":"703-bauturi-carbogazoase","selected":true},{"name":"Bere","slug":"704-bere","selected":false},{"name":"Vinuri","slug":"705-vinuri","selected":false},{"name":"Băuturi spirtoase","slug":"706-bauturi-spirtoase","selected":false},{"name":"Tutun","slug":"707-tutun","selected":false}],"children":[{"name":"Toate produsele","slug":"703-bauturi-carbogazoase","selected":false},{"name":"Băuturi tip cola","slug":"70301-bauturi-tip-cola","selected":false},{"name":"Băuturi fructate carbogazoase","slug":"70302-bauturi-fructate-carbogazoase","selected":true},{"name":"Limonadă și apă tonică","slug":"70303-limonade-si-apa-tonica","selected":false},{"name":"Băuturi energizante","slug":"70304-bauturi-energizante","selected":false}],"products":[{"code":"100001981","variantCode":"5449000016669","name":"Băutură carbogazoasă portocale 2.5l","slug":"100001981-fanta-bautura-carbogazoasa-portocale-2-5l","unitPriceLabel":"2,8 Lei/l","brand":"Fanta","brandCode":"276","brandFilterCode":"fanta-b277","sku":"100001981","price":6.99,"originalPrice":8.63,"currencyCode":"RON","currency":"Lei","image":{"thumbnail":{"default":"https://cdn.freshful.ro/media/cache/sylius_shop_product_thumbnail/22/1d/61a68474e8784424cd7f92db89fb.jpg"},"large":{"default":"https://cdn.freshful.ro/media/cache/freshful_large/22/1d/61a68474e8784424cd7f92db89fb.jpg"},"extralarge":{"default":"https://cdn.freshful.ro/media/cache/sylius_shop_product_original/22/1d/61a68474e8784424cd7f92db89fb.jpg"}},"label":{"text":"-19%","backgroundColor":"#FF9903","textColor":"#FFFFFF"},"tags":[],"isAvailable":true,"maxAvailableQuantity":6,"maxAllowedQuantity":6,"breadcrumbs":[{"code":"7","name":"Băuturi","slug":"7-bauturi-si-tutun"},{"code":"703","name":"Băuturi carbogazoase","slug":"703-bauturi-carbogazoase"},{"code":"70302","name":"Băuturi fructate carbogazoase","slug":"70302-bauturi-fructate-carbogazoase"},{"code":"100001981","name":"Băutură carbogazoasă portocale 2.5l","slug":"100001981-fanta-bautura-carbogazoasa-portocale-2-5l"}],"activePromotion":{"code":"superpreturile-saptamanii","name":"Preț redus","targetQuantity":null},"saveMe":null,"labels":[{"type":"v1","items":[{"text":"-19%","backgroundColor":"#FF9903","textColor":"#FFFFFF"}]}],"geniusPrice":null,"geniusUnitPricePerLabel":null,"banner":{"text":"Super preț","textColor":"#FF0000","bgColor":"#FFF2EC","icon":null,"link":"https://www.freshful.ro/oferte/superpreturile-saptamanii","type":"promo","analyticsEventType":"select_promotion","analyticsEventPayload":{"promotion_id":"superpreturile-saptamanii","promotion_name":"Superprețurile zilei"}},"discountLabel":"Economisești 19%","geniusDiscountLabel":null,"badge":null},{"code":"100118216","variantCode":"100118216","name":"Bere cu ghimbir fără alcool 0.375l","slug":"100118216-bundaberg-bere-cu-ghimbir-fara-alcool-0-375l","unitPriceLabel":"23,97 Lei/l","brand":"Bundaberg","brandCode":"2011","brandFilterCode":"bundaberg-b2015","sku":"100118216","price":8.99,"originalPrice":null,"currencyCode":"RON","currency":"Lei","image":{"thumbnail":{"default":"https://cdn.freshful.ro/media/cache/sylius_shop_product_thumbnail/80/ca/60f866f0f3c44bd62862478ba80c.jpg"},"large":{"default":"https://cdn.freshful.ro/media/cache/freshful_large/80/ca/60f866f0f3c44bd62862478ba80c.jpg"},"extralarge":{"default":"https://cdn.freshful.ro/media/cache/sylius_shop_product_original/80/ca/60f866f0f3c44bd62862478ba80c.jpg"}},"label":null,"tags":[],"isAvailable":true,"maxAvailableQuantity":24,"maxAllowedQuantity":24,"breadcrumbs":[{"code":"7","name":"Băuturi","slug":"7-bauturi-si-tutun"},{"code":"703","name":"Băuturi carbogazoase","slug":"703-bauturi-carbogazoase"},{"code":"70302","name":"Băuturi fructate carbogazoase","slug":"70302-bauturi-fructate-carbogazoase"},{"code":"100118216","name":"Bere cu ghimbir fără alcool 0.375l","slug":"100118216-bundaberg-bere-cu-ghimbir-fara-alcool-0-375l"}],"activePromotion":null,"saveMe":null,"labels":[],"geniusPrice":null,"geniusUnitPricePerLabel":null,"banner":null,"discountLabel":null,"geniusDiscountLabel":null,"badge":null},{"code":"100002080","variantCode":"5449000021076","name":"Băutură carbogazoasă portocale zero zahăr 0.33l","slug":"100002080-fanta-bautura-carbogazoasa-portocale-zero-zahar-0-33l","unitPriceLabel":"10,15 Lei/l","brand":"Fanta","brandCode":"276","brandFilterCode":"fanta-b277","sku":"100002080","price":3.35,"originalPrice":null,"currencyCode":"RON","currency":"Lei","image":{"thumbnail":{"default":"https://cdn.freshful.ro/media/cache/sylius_shop_product_thumbnail/0b/77/c03d431b0061b02dbd8238e9eaef.jpg"},"large":{"default":"https://cdn.freshful.ro/media/cache/freshful_large/0b/77/c03d431b0061b02dbd8238e9eaef.jpg"},"extralarge":{"default":"https://cdn.freshful.ro/media/cache/sylius_shop_product_original/0b/77/c03d431b0061b02dbd8238e9eaef.jpg"}},"label":null,"tags":[{"type":"NoAddedSugar","text":"Fara zahar adaugat","icon":"https://cdn.freshful.ro/assets/product_tags/fara_zahar_adaugat.svg","iconPng":"https://cdn.freshful.ro/assets/product_tags/fara_zahar_adaugat.png","backgroundColor":"#F8EDF7","textColor":"#C05EBC"}],"isAvailable":true,"maxAvailableQuantity":24,"maxAllowedQuantity":24,"breadcrumbs":[{"code":"7","name":"Băuturi","slug":"7-bauturi-si-tutun"},{"code":"703","name":"Băuturi carbogazoase","slug":"703-bauturi-carbogazoase"},{"code":"70302","name":"Băuturi fructate carbogazoase","slug":"70302-bauturi-fructate-carbogazoase"},{"code":"100002080","name":"Băutură carbogazoasă portocale zero zahăr 0.33l","slug":"100002080-fanta-bautura-carbogazoasa-portocale-zero-zahar-0-33l"}],"activePromotion":null,"saveMe":null,"labels":[],"geniusPrice":null,"geniusUnitPricePerLabel":null,"banner":null,"discountLabel":null,"geniusDiscountLabel":null,"badge":null},{"code":"100002081","variantCode":"100002081","name":"Băutură carbogazoasă de portocale zero zahăr 2l","slug":"100002081-fanta-bautura-carbogazoasa-de-portocale-zero-zahar-2l","unitPriceLabel":"3,32 Lei/l","brand":"Fanta","brandCode":"276","brandFilterCode":"fanta-b277","sku":"100002081","price":6.64,"originalPrice":null,"currencyCode":"RON","currency":"Lei","image":{"thumbnail":{"default":"https://cdn.freshful.ro/media/cache/sylius_shop_product_thumbnail/19/01/93fd128a466329627e0fa891cd86.jpg"},"large":{"default":"https://cdn.freshful.ro/media/cache/freshful_large/19/01/93fd128a466329627e0fa891cd86.jpg"},"extralarge":{"default":"https://cdn.freshful.ro/media/cache/sylius_shop_product_original/19/01/93fd128a466329627e0fa891cd86.jpg"}},"label":null,"tags":[{"type":"NoAddedSugar","text":"Fara zahar adaugat","icon":"https://cdn.freshful.ro/assets/product_tags/fara_zahar_adaugat.svg","iconPng":"https://cdn.freshful.ro/assets/product_tags/fara_zahar_adaugat.png","backgroundColor":"#F8EDF7","textColor":"#C05EBC"}],"isAvailable":true,"maxAvailableQuantity":24,"maxAllowedQuantity":24,"breadcrumbs":[{"code":"7","name":"Băuturi","slug":"7-bauturi-si-tutun"},{"code":"703","name":"Băuturi carbogazoase","slug":"703-bauturi-carbogazoase"},{"code":"70302","name":"Băuturi fructate carbogazoase","slug":"70302-bauturi-fructate-carbogazoase"},{"code":"100002081","name":"Băutură carbogazoasă de portocale zero zahăr 2l","slug":"100002081-fanta-bautura-carbogazoasa-de-portocale-zero-zahar-2l"}],"activePromotion":null,"saveMe":null,"labels":[],"geniusPrice":null,"geniusUnitPricePerLabel":null,"banner":null,"discountLabel":null,"geniusDiscountLabel":null,"badge":null},{"code":"100001991","variantCode":"5449000242525","name":"Băutură carbogazoasă grepfrut roz zero zahăr 2l","slug":"100001991-fanta-bautura-carbogazoasa-grepfrut-roz-zero-zahar-2l","unitPriceLabel":"3,32 Lei/l","brand":"Fanta","brandCode":"276","brandFilterCode":"fanta-b277","sku":"100001991","price":6.64,"originalPrice":null,"currencyCode":"RON","currency":"Lei","image":{"thumbnail":{"default":"https://cdn.freshful.ro/media/cache/sylius_shop_product_thumbnail/e0/52/17a8112420d482d6b1586b9b68ec.jpg"},"large":{"default":"https://cdn.freshful.ro/media/cache/freshful_large/e0/52/17a8112420d482d6b1586b9b68ec.jpg"},"extralarge":{"default":"https://cdn.freshful.ro/media/cache/sylius_shop_product_original/e0/52/17a8112420d482d6b1586b9b68ec.jpg"}},"label":null,"tags":[{"type":"NoAddedSugar","text":"Fara zahar adaugat","icon":"https://cdn.freshful.ro/assets/product_tags/fara_zahar_adaugat.svg","iconPng":"https://cdn.freshful.ro/assets/product_tags/fara_zahar_adaugat.png","backgroundColor":"#F8EDF7","textColor":"#C05EBC"}],"isAvailable":true,"maxAvailableQuantity":24,"maxAllowedQuantity":24,"breadcrumbs":[{"code":"7","name":"Băuturi","slug":"7-bauturi-si-tutun"},{"code":"703","name":"Băuturi carbogazoase","slug":"703-bauturi-carbogazoase"},{"code":"70302","name":"Băuturi fructate carbogazoase","slug":"70302-bauturi-fructate-carbogazoase"},{"code":"100001991","name":"Băutură carbogazoasă grepfrut roz zero zahăr 2l","slug":"100001991-fanta-bautura-carbogazoasa-grepfrut-roz-zero-zahar-2l"}],"activePromotion":null,"saveMe":null,"labels":[],"geniusPrice":null,"geniusUnitPricePerLabel":null,"banner":null,"discountLabel":null,"geniusDiscountLabel":null,"badge":null},{"code":"100002077","variantCode":"5449000059390","name":"Băutură carbogazoasă portocale 2x2l","slug":"100002077-fanta-bautura-carbogazoasa-portocale-2x2l","unitPriceLabel":"3,25 Lei/l","brand":"Fanta","brandCode":"276","brandFilterCode":"fanta-b277","sku":"100002077","price":13,"originalPrice":null,"currencyCode":"RON","currency":"Lei","image":{"thumbnail":{"default":"https://cdn.freshful.ro/media/cache/sylius_shop_product_thumbnail/b0/22/66cff9bc932b69960334a8fb2730.jpg"},"large":{"default":"https://cdn.freshful.ro/media/cache/freshful_large/b0/22/66cff9bc932b69960334a8fb2730.jpg"},"extralarge":{"default":"https://cdn.freshful.ro/media/cache/sylius_shop_product_original/b0/22/66cff9bc932b69960334a8fb2730.jpg"}},"label":null,"tags":[],"isAvailable":true,"maxAvailableQuantity":6,"maxAllowedQuantity":6,"breadcrumbs":[{"code":"7","name":"Băuturi","slug":"7-bauturi-si-tutun"},{"code":"703","name":"Băuturi carbogazoase","slug":"703-bauturi-carbogazoase"},{"code":"70302","name":"Băuturi fructate carbogazoase","slug":"70302-bauturi-fructate-carbogazoase"},{"code":"100002077","name":"Băutură carbogazoasă portocale 2x2l","slug":"100002077-fanta-bautura-carbogazoasa-portocale-2x2l"}],"activePromotion":null,"saveMe":null,"labels":[],"geniusPrice":null,"geniusUnitPricePerLabel":null,"banner":null,"discountLabel":null,"geniusDiscountLabel":null,"badge":null},{"code":"100002076","variantCode":"5449000011527","name":"Băutură carbogazoasă de portocale 0.33l","slug":"100002076-fanta-bautura-carbogazoasa-de-portocale-0-33l","unitPriceLabel":"9,18 Lei/l","brand":"Fanta","brandCode":"276","brandFilterCode":"fanta-b277","sku":"100002076","price":3.03,"originalPrice":null,"currencyCode":"RON","currency":"Lei","image":{"thumbnail":{"default":"https://cdn.freshful.ro/media/cache/sylius_shop_product_thumbnail/8a/25/657ba919fe91f743288b02aee833.jpg"},"large":{"default":"https://cdn.freshful.ro/media/cache/freshful_large/8a/25/657ba919fe91f743288b02aee833.jpg"},"extralarge":{"default":"https://cdn.freshful.ro/media/cache/sylius_shop_product_original/8a/25/657ba919fe91f743288b02aee833.jpg"}},"label":null,"tags":[],"isAvailable":true,"maxAvailableQuantity":24,"maxAllowedQuantity":24,"breadcrumbs":[{"code":"7","name":"Băuturi","slug":"7-bauturi-si-tutun"},{"code":"703","name":"Băuturi carbogazoase","slug":"703-bauturi-carbogazoase"},{"code":"70302","name":"Băuturi fructate carbogazoase","slug":"70302-bauturi-fructate-carbogazoase"},{"code":"100002076","name":"Băutură carbogazoasă de portocale 0.33l","slug":"100002076-fanta-bautura-carbogazoasa-de-portocale-0-33l"}],"activePromotion":null,"saveMe":null,"labels":[],"geniusPrice":null,"geniusUnitPricePerLabel":null,"banner":null,"discountLabel":null,"geniusDiscountLabel":null,"badge":null},{"code":"100063584","variantCode":"100063584","name":"Băutură fără alcool mojito 0.33l","slug":"100063584-green-bautura-fara-alcool-mojito-0-33l","unitPriceLabel":"12,36 Lei/l","brand":"Green","brandCode":"942","brandFilterCode":"green-b942","sku":"100063584","price":4.08,"originalPrice":null,"currencyCode":"RON","currency":"Lei","image":{"thumbnail":{"default":"https://cdn.freshful.ro/media/cache/sylius_shop_product_thumbnail/be/42/945d4aaeece4e4498a7bebd94d57.jpg"},"large":{"default":"https://cdn.freshful.ro/media/cache/freshful_large/be/42/945d4aaeece4e4498a7bebd94d57.jpg"},"extralarge":{"default":"https://cdn.freshful.ro/media/cache/sylius_shop_product_original/be/42/945d4aaeece4e4498a7bebd94d57.jpg"}},"label":null,"tags":[{"type":"NoAddedSugar","text":"Fara zahar adaugat","icon":"https://cdn.freshful.ro/assets/product_tags/fara_zahar_adaugat.svg","iconPng":"https://cdn.freshful.ro/assets/product_tags/fara_zahar_adaugat.png","backgroundColor":"#F8EDF7","textColor":"#C05EBC"}],"isAvailable":true,"maxAvailableQuantity":24,"maxAllowedQuantity":24,"breadcrumbs":[{"code":"7","name":"Băuturi","slug":"7-bauturi-si-tutun"},{"code":"703","name":"Băuturi carbogazoase","slug":"703-bauturi-carbogazoase"},{"code":"70302","name":"Băuturi fructate carbogazoase","slug":"70302-bauturi-fructate-carbogazoase"},{"code":"100063584","name":"Băutură fără alcool mojito 0.33l","slug":"100063584-green-bautura-fara-alcool-mojito-0-33l"}],"activePromotion":null,"saveMe":null,"labels":[],"geniusPrice":null,"geniusUnitPricePerLabel":null,"banner":null,"discountLabel":null,"geniusDiscountLabel":null,"badge":null},{"code":"100150868","variantCode":"100150868","name":"Băutură carbogazoasă portocale zero zahăr 6x0.33l","slug":"100150868-fanta-bautura-carbogazoasa-portocale-zero-zahar-6x0-33l","unitPriceLabel":"9,06 Lei/l","brand":"Fanta","brandCode":"276","brandFilterCode":"fanta-b277","sku":"100150868","price":17.94,"originalPrice":null,"currencyCode":"RON","currency":"Lei","image":{"thumbnail":{"default":"https://cdn.freshful.ro/media/cache/sylius_shop_product_thumbnail/32/83/fafa275b311caf89125c2106490d.jpg"},"large":{"default":"https://cdn.freshful.ro/media/cache/freshful_large/32/83/fafa275b311caf89125c2106490d.jpg"},"extralarge":{"default":"https://cdn.freshful.ro/media/cache/sylius_shop_product_original/32/83/fafa275b311caf89125c2106490d.jpg"}},"label":null,"tags":[{"type":"NoAddedSugar","text":"Fara zahar adaugat","icon":"https://cdn.freshful.ro/assets/product_tags/fara_zahar_adaugat.svg","iconPng":"https://cdn.freshful.ro/assets/product_tags/fara_zahar_adaugat.png","backgroundColor":"#F8EDF7","textColor":"#C05EBC"}],"isAvailable":true,"maxAvailableQuantity":24,"maxAllowedQuantity":24,"breadcrumbs":[{"code":"7","name":"Băuturi","slug":"7-bauturi-si-tutun"},{"code":"703","name":"Băuturi carbogazoase","slug":"703-bauturi-carbogazoase"},{"code":"70302","name":"Băuturi fructate carbogazoase","slug":"70302-bauturi-fructate-carbogazoase"},{"code":"100150868","name":"Băutură carbogazoasă portocale zero zahăr 6x0.33l","slug":"100150868-fanta-bautura-carbogazoasa-portocale-zero-zahar-6x0-33l"}],"activePromotion":null,"saveMe":null,"labels":[],"geniusPrice":null,"geniusUnitPricePerLabel":null,"banner":null,"discountLabel":null,"geniusDiscountLabel":null,"badge":null},{"code":"100001979","variantCode":"5449000028938","name":"Băutură carbogazoasă portocale 1.25l","slug":"100001979-fanta-bautura-carbogazoasa-portocale-1-25l","unitPriceLabel":"4,78 Lei/l","brand":"Fanta","brandCode":"276","brandFilterCode":"fanta-b277","sku":"100001979","price":5.98,"originalPrice":null,"currencyCode":"RON","currency":"Lei","image":{"thumbnail":{"default":"https://cdn.freshful.ro/media/cache/sylius_shop_product_thumbnail/cf/21/ff820724eb2e90958c626f8be478.jpg"},"large":{"default":"https://cdn.freshful.ro/media/cache/freshful_large/cf/21/ff820724eb2e90958c626f8be478.jpg"},"extralarge":{"default":"https://cdn.freshful.ro/media/cache/sylius_shop_product_original/cf/21/ff820724eb2e90958c626f8be478.jpg"}},"label":null,"tags":[],"isAvailable":true,"maxAvailableQuantity":6,"maxAllowedQuantity":6,"breadcrumbs":[{"code":"7","name":"Băuturi","slug":"7-bauturi-si-tutun"},{"code":"703","name":"Băuturi carbogazoase","slug":"703-bauturi-carbogazoase"},{"code":"70302","name":"Băuturi fructate carbogazoase","slug":"70302-bauturi-fructate-carbogazoase"},{"code":"100001979","name":"Băutură carbogazoasă portocale 1.25l","slug":"100001979-fanta-bautura-carbogazoasa-portocale-1-25l"}],"activePromotion":null,"saveMe":null,"labels":[],"geniusPrice":null,"geniusUnitPricePerLabel":null,"banner":null,"discountLabel":null,"geniusDiscountLabel":null,"badge":null}],"filters":{"countSelected":0,"items":[{"code":"promotion","name":"Promoții","countSelected":0,"values":[{"code":"superpreturile-saptamanii","name":"Superprețurile zilei","isSelected":false,"count":1}]},{"code":"brand","name":"Brand","countSelected":0,"values":[{"code":"7up-b790","name":"7Up","isSelected":false,"count":3},{"code":"bottlegreen-b774","name":"Bottlegreen","isSelected":false,"count":2},{"code":"bundaberg-b2015","name":"Bundaberg","isSelected":false,"count":4},{"code":"cory-b3014","name":"Cory","isSelected":false,"count":10},{"code":"fanta-b277","name":"Fanta","isSelected":false,"count":18},{"code":"fentimans-b1154","name":"Fentimans","isSelected":false,"count":5},{"code":"fi-ga-b2726","name":"Fi-Gà","isSelected":false,"count":1},{"code":"giusto-brifcor-b2630","name":"Giusto Brifcor","isSelected":false,"count":1},{"code":"green-b942","name":"Green","isSelected":false,"count":6},{"code":"kliafa-b2983","name":"Kliafa","isSelected":false,"count":3},{"code":"kofi-ti-b1613","name":"Kofi Ti","isSelected":false,"count":2},{"code":"mama-b1400","name":"Mama","isSelected":false,"count":2},{"code":"mirinda-b793","name":"Mirinda","isSelected":false,"count":4},{"code":"mountain-dew-b794","name":"Mountain Dew","isSelected":false,"count":4},{"code":"val-de-france-b1162","name":"Val de France","isSelected":false,"count":4}]},{"code":"diet_lifestyle","name":"Dietă și lifestyle","countSelected":0,"values":[{"code":"eco-a83","name":"Eco","isSelected":false,"count":6},{"code":"fara-gluten-a16","name":"Fara gluten","isSelected":false,"count":1},{"code":"fara-zahar-adaugat-a29","name":"Fara zahar adaugat","isSelected":false,"count":21},{"code":"made-in-romania-a85","name":"Made In Romania","isSelected":false,"count":2}]}]},"orderBy":[{"field":"price","direction":"asc","name":"Preț crescător","isSelected":false},{"field":"price","direction":"desc","name":"Preț descrescător","isSelected":false},{"field":"popularity","direction":"desc","name":"Cele mai populare","isSelected":true},{"field":"category","direction":"asc","name":"Categorie","isSelected":false}],"metaTitle":"Băuturi fructate carbogazoase - Gamă variată","metaDescription":"Vrei Băuturi fructate carbogazoase? Alege dintr-o gamă variată. Comanzi simplu și ai livrare rapidă, calitate și prospețime. Hai pe Freshful.ro","metaKeywords":null,"banners":[]}}