{"type":"subcategory","payload":{"analyticsListId":"category_70301-bauturi-tip-cola","analyticsListName":"Category - Băuturi tip cola","name":"Băuturi tip cola","slug":"70301-bauturi-tip-cola","image":null,"breadcrumbs":[{"code":"7","name":"Băuturi","slug":"7-bauturi-si-tutun"},{"code":"703","name":"Băuturi carbogazoase","slug":"703-bauturi-carbogazoase"},{"code":"70301","name":"Băuturi tip cola","slug":"70301-bauturi-tip-cola"}],"slots":[],"page":1,"limit":10,"pages":6,"count":58,"siblings":[{"name":"Băuturi necarbogazoase și siropuri","slug":"701-bauturi-necarbogazoase-si-siropuri","selected":false},{"name":"Apă","slug":"702-apa","selected":false},{"name":"Băuturi carbogazoase","slug":"703-bauturi-carbogazoase","selected":true},{"name":"Bere","slug":"704-bere","selected":false},{"name":"Vinuri","slug":"705-vinuri","selected":false},{"name":"Băuturi spirtoase","slug":"706-bauturi-spirtoase","selected":false},{"name":"Tutun","slug":"707-tutun","selected":false}],"children":[{"name":"Toate produsele","slug":"703-bauturi-carbogazoase","selected":false},{"name":"Băuturi tip cola","slug":"70301-bauturi-tip-cola","selected":true},{"name":"Băuturi fructate carbogazoase","slug":"70302-bauturi-fructate-carbogazoase","selected":false},{"name":"Limonadă și apă tonică","slug":"70303-limonade-si-apa-tonica","selected":false},{"name":"Băuturi energizante","slug":"70304-bauturi-energizante","selected":false}],"products":[{"code":"100075153","variantCode":"100075153","name":"Băutură carbogazoasă Curiosity 0.275l","slug":"100075153-fentimans-bautura-carbogazoasa-curiosity-0-275l","unitPriceLabel":"29,05 Lei/l","brand":"Fentimans","brandCode":"1153","brandFilterCode":"fentimans-b1154","sku":"100075153","price":7.99,"originalPrice":10.99,"currencyCode":"RON","currency":"Lei","image":{"thumbnail":{"default":"https://cdn.freshful.ro/media/cache/sylius_shop_product_thumbnail/59/95/83c7c54c98476490ba1ab4a18030.jpg"},"large":{"default":"https://cdn.freshful.ro/media/cache/freshful_large/59/95/83c7c54c98476490ba1ab4a18030.jpg"},"extralarge":{"default":"https://cdn.freshful.ro/media/cache/sylius_shop_product_original/59/95/83c7c54c98476490ba1ab4a18030.jpg"}},"label":{"text":"-27%","backgroundColor":"#FF9903","textColor":"#FFFFFF"},"tags":[],"isAvailable":true,"maxAvailableQuantity":24,"maxAllowedQuantity":24,"breadcrumbs":[{"code":"7","name":"Băuturi","slug":"7-bauturi-si-tutun"},{"code":"703","name":"Băuturi carbogazoase","slug":"703-bauturi-carbogazoase"},{"code":"70301","name":"Băuturi tip cola","slug":"70301-bauturi-tip-cola"},{"code":"100075153","name":"Băutură carbogazoasă Curiosity 0.275l","slug":"100075153-fentimans-bautura-carbogazoasa-curiosity-0-275l"}],"activePromotion":{"code":"oferte-bacanie-bauturi-21feb-8mar23","name":"Preț redus","targetQuantity":null},"saveMe":null,"labels":[{"type":"v1","items":[{"text":"-27%","backgroundColor":"#FF9903","textColor":"#FFFFFF"}]}],"geniusPrice":null,"geniusUnitPricePerLabel":null,"banner":{"text":"Super preț","textColor":"#FF0000","bgColor":"#FFF2EC","icon":null,"link":"https://www.freshful.ro/oferte/oferte-bacanie-bauturi-21feb-8mar23","type":"promo","analyticsEventType":"select_promotion","analyticsEventPayload":{"promotion_id":"oferte-bacanie-bauturi-21feb-8mar23","promotion_name":"Cămara cu băuturi și bunătăți"}},"discountLabel":"Economisești 27%","geniusDiscountLabel":null,"badge":null},{"code":"100136046","variantCode":"100136046","name":"Băutură carbogazoasă fără zahăr și fără cofeină 0.33l","slug":"100136046-green-bautura-carbogazoasa-fara-zahar-si-fara-cofeina-0-33l","unitPriceLabel":"7,85 Lei/l","brand":"Green","brandCode":"942","brandFilterCode":"green-b942","sku":"100136046","price":2.59,"originalPrice":null,"currencyCode":"RON","currency":"Lei","image":{"thumbnail":{"default":"https://cdn.freshful.ro/media/cache/sylius_shop_product_thumbnail/2f/55/ea4937f6659d5080375c0a82e101.jpg"},"large":{"default":"https://cdn.freshful.ro/media/cache/freshful_large/2f/55/ea4937f6659d5080375c0a82e101.jpg"},"extralarge":{"default":"https://cdn.freshful.ro/media/cache/sylius_shop_product_original/2f/55/ea4937f6659d5080375c0a82e101.jpg"}},"label":{"text":"Profită acum","backgroundColor":"#FF9903","textColor":"#FFFFFF"},"tags":[],"isAvailable":true,"maxAvailableQuantity":24,"maxAllowedQuantity":24,"breadcrumbs":[{"code":"7","name":"Băuturi","slug":"7-bauturi-si-tutun"},{"code":"703","name":"Băuturi carbogazoase","slug":"703-bauturi-carbogazoase"},{"code":"70301","name":"Băuturi tip cola","slug":"70301-bauturi-tip-cola"},{"code":"100136046","name":"Băutură carbogazoasă fără zahăr și fără cofeină 0.33l","slug":"100136046-green-bautura-carbogazoasa-fara-zahar-si-fara-cofeina-0-33l"}],"activePromotion":{"code":"special-produse-vegane-mar23","name":"Preț avantajos","targetQuantity":null},"saveMe":null,"labels":[{"type":"v1","items":[{"text":"Profită acum","backgroundColor":"#FF9903","textColor":"#FFFFFF"}]}],"geniusPrice":null,"geniusUnitPricePerLabel":null,"banner":{"text":"Preț avantajos","textColor":"#F95510","bgColor":"#FEF1CD","icon":null,"link":"https://www.freshful.ro/oferte/special-produse-vegane-mar23","type":"promo","analyticsEventType":"select_promotion","analyticsEventPayload":{"promotion_id":"special-produse-vegane-mar23","promotion_name":"Și bun, și de post"}},"discountLabel":null,"geniusDiscountLabel":null,"badge":null},{"code":"100075167","variantCode":"100075167","name":"Băutură carbogazoasă zero zahăr 0.33l","slug":"100075167-fritz-kola-bautura-carbogazoasa-zero-zahar-0-33l","unitPriceLabel":"18,15 Lei/l","brand":"Fritz-Kola","brandCode":"1154","brandFilterCode":"fritz-kola-b1155","sku":"100075167","price":5.99,"originalPrice":7.99,"currencyCode":"RON","currency":"Lei","image":{"thumbnail":{"default":"https://cdn.freshful.ro/media/cache/sylius_shop_product_thumbnail/0a/60/853296690e45de34aec4cabfd744.jpg"},"large":{"default":"https://cdn.freshful.ro/media/cache/freshful_large/0a/60/853296690e45de34aec4cabfd744.jpg"},"extralarge":{"default":"https://cdn.freshful.ro/media/cache/sylius_shop_product_original/0a/60/853296690e45de34aec4cabfd744.jpg"}},"label":{"text":"-25%","backgroundColor":"#FF9903","textColor":"#FFFFFF"},"tags":[{"type":"vegan","text":"Vegan","icon":"https://cdn.freshful.ro/assets/product_tags/vegan.svg","iconPng":"https://cdn.freshful.ro/assets/product_tags/vegan.png","backgroundColor":"#ECF9F8","textColor":"#33A39C"},{"type":"NoAddedSugar","text":"Fara zahar adaugat","icon":"https://cdn.freshful.ro/assets/product_tags/fara_zahar_adaugat.svg","iconPng":"https://cdn.freshful.ro/assets/product_tags/fara_zahar_adaugat.png","backgroundColor":"#F8EDF7","textColor":"#C05EBC"}],"isAvailable":true,"maxAvailableQuantity":6,"maxAllowedQuantity":6,"breadcrumbs":[{"code":"7","name":"Băuturi","slug":"7-bauturi-si-tutun"},{"code":"703","name":"Băuturi carbogazoase","slug":"703-bauturi-carbogazoase"},{"code":"70301","name":"Băuturi tip cola","slug":"70301-bauturi-tip-cola"},{"code":"100075167","name":"Băutură carbogazoasă zero zahăr 0.33l","slug":"100075167-fritz-kola-bautura-carbogazoasa-zero-zahar-0-33l"}],"activePromotion":{"code":"oferte-bacanie-bauturi-21feb-8mar23","name":"Preț redus","targetQuantity":null},"saveMe":null,"labels":[{"type":"v1","items":[{"text":"-25%","backgroundColor":"#FF9903","textColor":"#FFFFFF"}]}],"geniusPrice":null,"geniusUnitPricePerLabel":null,"banner":{"text":"Super preț","textColor":"#FF0000","bgColor":"#FFF2EC","icon":null,"link":"https://www.freshful.ro/oferte/oferte-bacanie-bauturi-21feb-8mar23","type":"promo","analyticsEventType":"select_promotion","analyticsEventPayload":{"promotion_id":"oferte-bacanie-bauturi-21feb-8mar23","promotion_name":"Cămara cu băuturi și bunătăți"}},"discountLabel":"Economisești 25%","geniusDiscountLabel":null,"badge":null},{"code":"100001973","variantCode":"5449000136336","name":"Băutură carbogazoasă zero zahăr 2x2l","slug":"100001973-coca-cola-bautura-carbogazoasa-zero-zahar-2x2l","unitPriceLabel":"3,32 Lei/l","brand":"Coca-Cola","brandCode":"275","brandFilterCode":"coca-cola-b276","sku":"100001973","price":13.29,"originalPrice":null,"currencyCode":"RON","currency":"Lei","image":{"thumbnail":{"default":"https://cdn.freshful.ro/media/cache/sylius_shop_product_thumbnail/5c/aa/3c8701575538e4c4c2bd784566bc.jpg"},"large":{"default":"https://cdn.freshful.ro/media/cache/freshful_large/5c/aa/3c8701575538e4c4c2bd784566bc.jpg"},"extralarge":{"default":"https://cdn.freshful.ro/media/cache/sylius_shop_product_original/5c/aa/3c8701575538e4c4c2bd784566bc.jpg"}},"label":null,"tags":[{"type":"NoAddedSugar","text":"Fara zahar adaugat","icon":"https://cdn.freshful.ro/assets/product_tags/fara_zahar_adaugat.svg","iconPng":"https://cdn.freshful.ro/assets/product_tags/fara_zahar_adaugat.png","backgroundColor":"#F8EDF7","textColor":"#C05EBC"}],"isAvailable":true,"maxAvailableQuantity":24,"maxAllowedQuantity":24,"breadcrumbs":[{"code":"7","name":"Băuturi","slug":"7-bauturi-si-tutun"},{"code":"703","name":"Băuturi carbogazoase","slug":"703-bauturi-carbogazoase"},{"code":"70301","name":"Băuturi tip cola","slug":"70301-bauturi-tip-cola"},{"code":"100001973","name":"Băutură carbogazoasă zero zahăr 2x2l","slug":"100001973-coca-cola-bautura-carbogazoasa-zero-zahar-2x2l"}],"activePromotion":null,"saveMe":null,"labels":[],"geniusPrice":null,"geniusUnitPricePerLabel":null,"banner":null,"discountLabel":null,"geniusDiscountLabel":null,"badge":null},{"code":"100002072","variantCode":"5449000131805","name":"Băutură carbogazoasă zero zahăr doză 0.33l","slug":"100002072-coca-cola-bautura-carbogazoasa-zero-zahar-doza-0-33l","unitPriceLabel":"9,45 Lei/l","brand":"Coca-Cola","brandCode":"275","brandFilterCode":"coca-cola-b276","sku":"100002072","price":3.12,"originalPrice":null,"currencyCode":"RON","currency":"Lei","image":{"thumbnail":{"default":"https://cdn.freshful.ro/media/cache/sylius_shop_product_thumbnail/57/78/e37952410e270ddbe0640c2fb9f5.jpg"},"large":{"default":"https://cdn.freshful.ro/media/cache/freshful_large/57/78/e37952410e270ddbe0640c2fb9f5.jpg"},"extralarge":{"default":"https://cdn.freshful.ro/media/cache/sylius_shop_product_original/57/78/e37952410e270ddbe0640c2fb9f5.jpg"}},"label":null,"tags":[{"type":"NoAddedSugar","text":"Fara zahar adaugat","icon":"https://cdn.freshful.ro/assets/product_tags/fara_zahar_adaugat.svg","iconPng":"https://cdn.freshful.ro/assets/product_tags/fara_zahar_adaugat.png","backgroundColor":"#F8EDF7","textColor":"#C05EBC"}],"isAvailable":true,"maxAvailableQuantity":24,"maxAllowedQuantity":24,"breadcrumbs":[{"code":"7","name":"Băuturi","slug":"7-bauturi-si-tutun"},{"code":"703","name":"Băuturi carbogazoase","slug":"703-bauturi-carbogazoase"},{"code":"70301","name":"Băuturi tip cola","slug":"70301-bauturi-tip-cola"},{"code":"100002072","name":"Băutură carbogazoasă zero zahăr doză 0.33l","slug":"100002072-coca-cola-bautura-carbogazoasa-zero-zahar-doza-0-33l"}],"activePromotion":null,"saveMe":null,"labels":[],"geniusPrice":null,"geniusUnitPricePerLabel":null,"banner":null,"discountLabel":null,"geniusDiscountLabel":null,"badge":null},{"code":"100135286","variantCode":"100135286","name":"Bautură carbonatată doză 6x0.33l ( 5+1 )","slug":"100135286-coca-cola-bautura-carbonatata-doza-6x0-33l-5-1","unitPriceLabel":"8,38 Lei/l","brand":"Coca-Cola","brandCode":"275","brandFilterCode":"coca-cola-b276","sku":"100135286","price":16.59,"originalPrice":null,"currencyCode":"RON","currency":"Lei","image":{"thumbnail":{"default":"https://cdn.freshful.ro/media/cache/sylius_shop_product_thumbnail/11/f9/545eae5eed0ffb4caa6ebac8d753.jpg"},"large":{"default":"https://cdn.freshful.ro/media/cache/freshful_large/11/f9/545eae5eed0ffb4caa6ebac8d753.jpg"},"extralarge":{"default":"https://cdn.freshful.ro/media/cache/sylius_shop_product_original/11/f9/545eae5eed0ffb4caa6ebac8d753.jpg"}},"label":null,"tags":[],"isAvailable":true,"maxAvailableQuantity":2,"maxAllowedQuantity":2,"breadcrumbs":[{"code":"7","name":"Băuturi","slug":"7-bauturi-si-tutun"},{"code":"703","name":"Băuturi carbogazoase","slug":"703-bauturi-carbogazoase"},{"code":"70301","name":"Băuturi tip cola","slug":"70301-bauturi-tip-cola"},{"code":"100135286","name":"Bautură carbonatată doză 6x0.33l ( 5+1 )","slug":"100135286-coca-cola-bautura-carbonatata-doza-6x0-33l-5-1"}],"activePromotion":null,"saveMe":null,"labels":[],"geniusPrice":null,"geniusUnitPricePerLabel":null,"banner":null,"discountLabel":null,"geniusDiscountLabel":null,"badge":null},{"code":"100001967","variantCode":"5449000146823","name":"Băutură carbogazoasă 2x2l","slug":"100001967-coca-cola-bautura-carbogazoasa-2x2l","unitPriceLabel":"3,54 Lei/l","brand":"Coca-Cola","brandCode":"275","brandFilterCode":"coca-cola-b276","sku":"100001967","price":14.15,"originalPrice":null,"currencyCode":"RON","currency":"Lei","image":{"thumbnail":{"default":"https://cdn.freshful.ro/media/cache/sylius_shop_product_thumbnail/3c/66/b3106b495822000bfe14bb5539d9.jpg"},"large":{"default":"https://cdn.freshful.ro/media/cache/freshful_large/3c/66/b3106b495822000bfe14bb5539d9.jpg"},"extralarge":{"default":"https://cdn.freshful.ro/media/cache/sylius_shop_product_original/3c/66/b3106b495822000bfe14bb5539d9.jpg"}},"label":null,"tags":[],"isAvailable":true,"maxAvailableQuantity":24,"maxAllowedQuantity":24,"breadcrumbs":[{"code":"7","name":"Băuturi","slug":"7-bauturi-si-tutun"},{"code":"703","name":"Băuturi carbogazoase","slug":"703-bauturi-carbogazoase"},{"code":"70301","name":"Băuturi tip cola","slug":"70301-bauturi-tip-cola"},{"code":"100001967","name":"Băutură carbogazoasă 2x2l","slug":"100001967-coca-cola-bautura-carbogazoasa-2x2l"}],"activePromotion":null,"saveMe":null,"labels":[],"geniusPrice":null,"geniusUnitPricePerLabel":null,"banner":null,"discountLabel":null,"geniusDiscountLabel":null,"badge":null},{"code":"100001963","variantCode":"54490703","name":"Băutură carbogazoasă sticlă 0.33l","slug":"100001963-coca-cola-bautura-carbogazoasa-sticla-0-33l","unitPriceLabel":"9,45 Lei/l","brand":"Coca-Cola","brandCode":"275","brandFilterCode":"coca-cola-b276","sku":"100001963","price":3.12,"originalPrice":null,"currencyCode":"RON","currency":"Lei","image":{"thumbnail":{"default":"https://cdn.freshful.ro/media/cache/sylius_shop_product_thumbnail/ff/5d/dddec155ab66d3534540fceba241.jpg"},"large":{"default":"https://cdn.freshful.ro/media/cache/freshful_large/ff/5d/dddec155ab66d3534540fceba241.jpg"},"extralarge":{"default":"https://cdn.freshful.ro/media/cache/sylius_shop_product_original/ff/5d/dddec155ab66d3534540fceba241.jpg"}},"label":null,"tags":[],"isAvailable":true,"maxAvailableQuantity":24,"maxAllowedQuantity":24,"breadcrumbs":[{"code":"7","name":"Băuturi","slug":"7-bauturi-si-tutun"},{"code":"703","name":"Băuturi carbogazoase","slug":"703-bauturi-carbogazoase"},{"code":"70301","name":"Băuturi tip cola","slug":"70301-bauturi-tip-cola"},{"code":"100001963","name":"Băutură carbogazoasă sticlă 0.33l","slug":"100001963-coca-cola-bautura-carbogazoasa-sticla-0-33l"}],"activePromotion":null,"saveMe":null,"labels":[],"geniusPrice":null,"geniusUnitPricePerLabel":null,"banner":null,"discountLabel":null,"geniusDiscountLabel":null,"badge":null},{"code":"100002073","variantCode":"5449000133724","name":"Băutură carbogazoasă zero zahăr 1.25l","slug":"100002073-coca-cola-bautura-carbogazoasa-zero-zahar-1-25l","unitPriceLabel":"4,7 Lei/l","brand":"Coca-Cola","brandCode":"275","brandFilterCode":"coca-cola-b276","sku":"100002073","price":5.88,"originalPrice":null,"currencyCode":"RON","currency":"Lei","image":{"thumbnail":{"default":"https://cdn.freshful.ro/media/cache/sylius_shop_product_thumbnail/68/88/d7f992a93327d5aaec34442dff84.jpg"},"large":{"default":"https://cdn.freshful.ro/media/cache/freshful_large/68/88/d7f992a93327d5aaec34442dff84.jpg"},"extralarge":{"default":"https://cdn.freshful.ro/media/cache/sylius_shop_product_original/68/88/d7f992a93327d5aaec34442dff84.jpg"}},"label":null,"tags":[{"type":"NoAddedSugar","text":"Fara zahar adaugat","icon":"https://cdn.freshful.ro/assets/product_tags/fara_zahar_adaugat.svg","iconPng":"https://cdn.freshful.ro/assets/product_tags/fara_zahar_adaugat.png","backgroundColor":"#F8EDF7","textColor":"#C05EBC"}],"isAvailable":true,"maxAvailableQuantity":24,"maxAllowedQuantity":24,"breadcrumbs":[{"code":"7","name":"Băuturi","slug":"7-bauturi-si-tutun"},{"code":"703","name":"Băuturi carbogazoase","slug":"703-bauturi-carbogazoase"},{"code":"70301","name":"Băuturi tip cola","slug":"70301-bauturi-tip-cola"},{"code":"100002073","name":"Băutură carbogazoasă zero zahăr 1.25l","slug":"100002073-coca-cola-bautura-carbogazoasa-zero-zahar-1-25l"}],"activePromotion":null,"saveMe":null,"labels":[],"geniusPrice":null,"geniusUnitPricePerLabel":null,"banner":null,"discountLabel":null,"geniusDiscountLabel":null,"badge":null},{"code":"100001971","variantCode":"5449000131836","name":"Băutură carbogazoasă zero zahăr 0.5l","slug":"100001971-coca-cola-bautura-carbogazoasa-zero-zahar-0-5l","unitPriceLabel":"8,16 Lei/l","brand":"Coca-Cola","brandCode":"275","brandFilterCode":"coca-cola-b276","sku":"100001971","price":4.08,"originalPrice":null,"currencyCode":"RON","currency":"Lei","image":{"thumbnail":{"default":"https://cdn.freshful.ro/media/cache/sylius_shop_product_thumbnail/f5/38/6b68fc8dcb61d9c8fb7fd2635c52.jpg"},"large":{"default":"https://cdn.freshful.ro/media/cache/freshful_large/f5/38/6b68fc8dcb61d9c8fb7fd2635c52.jpg"},"extralarge":{"default":"https://cdn.freshful.ro/media/cache/sylius_shop_product_original/f5/38/6b68fc8dcb61d9c8fb7fd2635c52.jpg"}},"label":null,"tags":[{"type":"NoAddedSugar","text":"Fara zahar adaugat","icon":"https://cdn.freshful.ro/assets/product_tags/fara_zahar_adaugat.svg","iconPng":"https://cdn.freshful.ro/assets/product_tags/fara_zahar_adaugat.png","backgroundColor":"#F8EDF7","textColor":"#C05EBC"}],"isAvailable":true,"maxAvailableQuantity":24,"maxAllowedQuantity":24,"breadcrumbs":[{"code":"7","name":"Băuturi","slug":"7-bauturi-si-tutun"},{"code":"703","name":"Băuturi carbogazoase","slug":"703-bauturi-carbogazoase"},{"code":"70301","name":"Băuturi tip cola","slug":"70301-bauturi-tip-cola"},{"code":"100001971","name":"Băutură carbogazoasă zero zahăr 0.5l","slug":"100001971-coca-cola-bautura-carbogazoasa-zero-zahar-0-5l"}],"activePromotion":null,"saveMe":null,"labels":[],"geniusPrice":null,"geniusUnitPricePerLabel":null,"banner":null,"discountLabel":null,"geniusDiscountLabel":null,"badge":null}],"filters":{"countSelected":0,"items":[{"code":"promotion","name":"Promoții","countSelected":0,"values":[{"code":"oferte-bacanie-bauturi-21feb-8mar23","name":"Cămara cu băuturi și bunătăți","isSelected":false,"count":2},{"code":"special-produse-vegane-mar23","name":"Și bun, și de post","isSelected":false,"count":1}]},{"code":"brand","name":"Brand","countSelected":0,"values":[{"code":"coca-cola-b276","name":"Coca-Cola","isSelected":false,"count":16},{"code":"cola-plus-b2673","name":"Cola Plus+","isSelected":false,"count":2},{"code":"cory-b3014","name":"Cory","isSelected":false,"count":2},{"code":"fentimans-b1154","name":"Fentimans","isSelected":false,"count":2},{"code":"franklin-sons-b2027","name":"Franklin&Sons","isSelected":false,"count":1},{"code":"fritz-kola-b1155","name":"Fritz-Kola","isSelected":false,"count":2},{"code":"green-b942","name":"Green","isSelected":false,"count":8},{"code":"kofi-ti-b1613","name":"Kofi Ti","isSelected":false,"count":1},{"code":"magma-din-carpati-b2879","name":"Magma Din Carpați","isSelected":false,"count":1},{"code":"mama-b1400","name":"Mama","isSelected":false,"count":1},{"code":"merlin-s-b583","name":"Merlin's","isSelected":false,"count":2},{"code":"oxfam-b1081","name":"Oxfam","isSelected":false,"count":1},{"code":"pepsi-b795","name":"Pepsi","isSelected":false,"count":17},{"code":"ritchie-b775","name":"Ritchie","isSelected":false,"count":2}]},{"code":"diet_lifestyle","name":"Dietă și lifestyle","countSelected":0,"values":[{"code":"eco-a83","name":"Eco","isSelected":false,"count":2},{"code":"fara-conservanti-a37","name":"Fara conservanti","isSelected":false,"count":1},{"code":"fara-zahar-adaugat-a29","name":"Fara zahar adaugat","isSelected":false,"count":18},{"code":"made-in-romania-a85","name":"Made In Romania","isSelected":false,"count":1},{"code":"vegan-a24","name":"Vegan","isSelected":false,"count":2}]}]},"orderBy":[{"field":"price","direction":"asc","name":"Preț crescător","isSelected":false},{"field":"price","direction":"desc","name":"Preț descrescător","isSelected":false},{"field":"popularity","direction":"desc","name":"Cele mai populare","isSelected":true},{"field":"category","direction":"asc","name":"Categorie","isSelected":false}],"metaTitle":"Băuturi tip cola - Gamă variată","metaDescription":"Vrei Băuturi tip cola? Alege dintr-o gamă variată. Comanzi simplu și ai livrare rapidă, calitate și prospețime. Hai pe Freshful.ro","metaKeywords":null,"banners":[]}}