{"type":"subcategory","payload":{"analyticsListId":"category_70304-bauturi-energizante","analyticsListName":"Category - Băuturi energizante","name":"Băuturi energizante","slug":"70304-bauturi-energizante","image":null,"breadcrumbs":[{"code":"7","name":"Băuturi","slug":"7-bauturi-si-tutun"},{"code":"703","name":"Băuturi carbogazoase","slug":"703-bauturi-carbogazoase"},{"code":"70304","name":"Băuturi energizante","slug":"70304-bauturi-energizante"}],"slots":[],"page":1,"limit":10,"pages":4,"count":36,"siblings":[{"name":"Băuturi necarbogazoase și siropuri","slug":"701-bauturi-necarbogazoase-si-siropuri","selected":false},{"name":"Apă","slug":"702-apa","selected":false},{"name":"Băuturi carbogazoase","slug":"703-bauturi-carbogazoase","selected":true},{"name":"Bere","slug":"704-bere","selected":false},{"name":"Vinuri","slug":"705-vinuri","selected":false},{"name":"Băuturi spirtoase","slug":"706-bauturi-spirtoase","selected":false},{"name":"Tutun","slug":"707-tutun","selected":false}],"children":[{"name":"Toate produsele","slug":"703-bauturi-carbogazoase","selected":false},{"name":"Băuturi tip cola","slug":"70301-bauturi-tip-cola","selected":false},{"name":"Băuturi fructate carbogazoase","slug":"70302-bauturi-fructate-carbogazoase","selected":false},{"name":"Limonadă și apă tonică","slug":"70303-limonade-si-apa-tonica","selected":false},{"name":"Băuturi energizante","slug":"70304-bauturi-energizante","selected":true}],"products":[{"code":"100096439","variantCode":"100096439","name":"Băutură energizantă 6x0.25l","slug":"100096439-red-bull-bautura-energizanta-6x0-25l","unitPriceLabel":"136,76 Lei/l","brand":"Red Bull","brandCode":"770","brandFilterCode":"red-bull-b771","sku":"100096439","price":34.19,"originalPrice":null,"currencyCode":"RON","currency":"Lei","image":{"thumbnail":{"default":"https://cdn.freshful.ro/media/cache/sylius_shop_product_thumbnail/28/c2/8400885c7e13313f8f15c99dd302.jpg"},"large":{"default":"https://cdn.freshful.ro/media/cache/freshful_large/28/c2/8400885c7e13313f8f15c99dd302.jpg"},"extralarge":{"default":"https://cdn.freshful.ro/media/cache/sylius_shop_product_original/28/c2/8400885c7e13313f8f15c99dd302.jpg"}},"label":null,"tags":[],"isAvailable":true,"maxAvailableQuantity":6,"maxAllowedQuantity":6,"breadcrumbs":[{"code":"7","name":"Băuturi","slug":"7-bauturi-si-tutun"},{"code":"703","name":"Băuturi carbogazoase","slug":"703-bauturi-carbogazoase"},{"code":"70304","name":"Băuturi energizante","slug":"70304-bauturi-energizante"},{"code":"100096439","name":"Băutură energizantă 6x0.25l","slug":"100096439-red-bull-bautura-energizanta-6x0-25l"}],"activePromotion":null,"saveMe":null,"labels":[],"geniusPrice":null,"geniusUnitPricePerLabel":null,"banner":null,"discountLabel":null,"geniusDiscountLabel":null,"badge":null},{"code":"100096850","variantCode":"100096850","name":"Băutură energizantă fără zahăr 4x0.25l","slug":"100096850-red-bull-bautura-energizanta-fara-zahar-4x0-25l","unitPriceLabel":"79,84 Lei/l","brand":"Red Bull","brandCode":"770","brandFilterCode":"red-bull-b771","sku":"100096850","price":19.96,"originalPrice":null,"currencyCode":"RON","currency":"Lei","image":{"thumbnail":{"default":"https://cdn.freshful.ro/media/cache/sylius_shop_product_thumbnail/4a/cb/7641543edbb6a0460f0e5d3a399d.jpg"},"large":{"default":"https://cdn.freshful.ro/media/cache/freshful_large/4a/cb/7641543edbb6a0460f0e5d3a399d.jpg"},"extralarge":{"default":"https://cdn.freshful.ro/media/cache/sylius_shop_product_original/4a/cb/7641543edbb6a0460f0e5d3a399d.jpg"}},"label":null,"tags":[{"type":"NoAddedSugar","text":"Fara zahar adaugat","icon":"https://cdn.freshful.ro/assets/product_tags/fara_zahar_adaugat.svg","iconPng":"https://cdn.freshful.ro/assets/product_tags/fara_zahar_adaugat.png","backgroundColor":"#F8EDF7","textColor":"#C05EBC"}],"isAvailable":true,"maxAvailableQuantity":24,"maxAllowedQuantity":24,"breadcrumbs":[{"code":"7","name":"Băuturi","slug":"7-bauturi-si-tutun"},{"code":"703","name":"Băuturi carbogazoase","slug":"703-bauturi-carbogazoase"},{"code":"70304","name":"Băuturi energizante","slug":"70304-bauturi-energizante"},{"code":"100096850","name":"Băutură energizantă fără zahăr 4x0.25l","slug":"100096850-red-bull-bautura-energizanta-fara-zahar-4x0-25l"}],"activePromotion":null,"saveMe":null,"labels":[],"geniusPrice":null,"geniusUnitPricePerLabel":null,"banner":null,"discountLabel":null,"geniusDiscountLabel":null,"badge":null},{"code":"100002900","variantCode":"5060337509206","name":"Băutură energizantă Ultra White zero zahăr 0.5l","slug":"100002900-monster-bautura-energizanta-ultra-white-zero-zahar-0-5l","unitPriceLabel":"11,38 Lei/l","brand":"Monster","brandCode":"284","brandFilterCode":"monster-b285","sku":"100002900","price":5.69,"originalPrice":null,"currencyCode":"RON","currency":"Lei","image":{"thumbnail":{"default":"https://cdn.freshful.ro/media/cache/sylius_shop_product_thumbnail/db/b5/9543ac8eee908c3cdaee488dcdbf.jpg"},"large":{"default":"https://cdn.freshful.ro/media/cache/freshful_large/db/b5/9543ac8eee908c3cdaee488dcdbf.jpg"},"extralarge":{"default":"https://cdn.freshful.ro/media/cache/sylius_shop_product_original/db/b5/9543ac8eee908c3cdaee488dcdbf.jpg"}},"label":null,"tags":[{"type":"NoAddedSugar","text":"Fara zahar adaugat","icon":"https://cdn.freshful.ro/assets/product_tags/fara_zahar_adaugat.svg","iconPng":"https://cdn.freshful.ro/assets/product_tags/fara_zahar_adaugat.png","backgroundColor":"#F8EDF7","textColor":"#C05EBC"}],"isAvailable":true,"maxAvailableQuantity":24,"maxAllowedQuantity":24,"breadcrumbs":[{"code":"7","name":"Băuturi","slug":"7-bauturi-si-tutun"},{"code":"703","name":"Băuturi carbogazoase","slug":"703-bauturi-carbogazoase"},{"code":"70304","name":"Băuturi energizante","slug":"70304-bauturi-energizante"},{"code":"100002900","name":"Băutură energizantă Ultra White zero zahăr 0.5l","slug":"100002900-monster-bautura-energizanta-ultra-white-zero-zahar-0-5l"}],"activePromotion":null,"saveMe":null,"labels":[],"geniusPrice":null,"geniusUnitPricePerLabel":null,"banner":null,"discountLabel":null,"geniusDiscountLabel":null,"badge":null},{"code":"100002754","variantCode":"100002754","name":"Băutură energizantă Ultra Paradise 0.5l","slug":"100002754-monster-bautura-energizanta-ultra-paradise-0-5l","unitPriceLabel":"11,38 Lei/l","brand":"Monster","brandCode":"284","brandFilterCode":"monster-b285","sku":"100002754","price":5.69,"originalPrice":null,"currencyCode":"RON","currency":"Lei","image":{"thumbnail":{"default":"https://cdn.freshful.ro/media/cache/sylius_shop_product_thumbnail/12/c0/4612ba5346cd9fe8f3cf301c27de.jpg"},"large":{"default":"https://cdn.freshful.ro/media/cache/freshful_large/12/c0/4612ba5346cd9fe8f3cf301c27de.jpg"},"extralarge":{"default":"https://cdn.freshful.ro/media/cache/sylius_shop_product_original/12/c0/4612ba5346cd9fe8f3cf301c27de.jpg"}},"label":null,"tags":[{"type":"NoAddedSugar","text":"Fara zahar adaugat","icon":"https://cdn.freshful.ro/assets/product_tags/fara_zahar_adaugat.svg","iconPng":"https://cdn.freshful.ro/assets/product_tags/fara_zahar_adaugat.png","backgroundColor":"#F8EDF7","textColor":"#C05EBC"}],"isAvailable":true,"maxAvailableQuantity":24,"maxAllowedQuantity":24,"breadcrumbs":[{"code":"7","name":"Băuturi","slug":"7-bauturi-si-tutun"},{"code":"703","name":"Băuturi carbogazoase","slug":"703-bauturi-carbogazoase"},{"code":"70304","name":"Băuturi energizante","slug":"70304-bauturi-energizante"},{"code":"100002754","name":"Băutură energizantă Ultra Paradise 0.5l","slug":"100002754-monster-bautura-energizanta-ultra-paradise-0-5l"}],"activePromotion":null,"saveMe":null,"labels":[],"geniusPrice":null,"geniusUnitPricePerLabel":null,"banner":null,"discountLabel":null,"geniusDiscountLabel":null,"badge":null},{"code":"100002758","variantCode":"5060466512931","name":"Băutură energizantă 0.25l","slug":"100002758-burn-bautura-energizanta-0-25l","unitPriceLabel":"16,68 Lei/l","brand":"Burn","brandCode":"285","brandFilterCode":"burn-b286","sku":"100002758","price":4.17,"originalPrice":null,"currencyCode":"RON","currency":"Lei","image":{"thumbnail":{"default":"https://cdn.freshful.ro/media/cache/sylius_shop_product_thumbnail/85/47/5f635a5696fdf52d3a1e518eb4c3.jpg"},"large":{"default":"https://cdn.freshful.ro/media/cache/freshful_large/85/47/5f635a5696fdf52d3a1e518eb4c3.jpg"},"extralarge":{"default":"https://cdn.freshful.ro/media/cache/sylius_shop_product_original/85/47/5f635a5696fdf52d3a1e518eb4c3.jpg"}},"label":null,"tags":[],"isAvailable":true,"maxAvailableQuantity":6,"maxAllowedQuantity":6,"breadcrumbs":[{"code":"7","name":"Băuturi","slug":"7-bauturi-si-tutun"},{"code":"703","name":"Băuturi carbogazoase","slug":"703-bauturi-carbogazoase"},{"code":"70304","name":"Băuturi energizante","slug":"70304-bauturi-energizante"},{"code":"100002758","name":"Băutură energizantă 0.25l","slug":"100002758-burn-bautura-energizanta-0-25l"}],"activePromotion":null,"saveMe":null,"labels":[],"geniusPrice":null,"geniusUnitPricePerLabel":null,"banner":null,"discountLabel":null,"geniusDiscountLabel":null,"badge":null},{"code":"100002906","variantCode":"5060466516700","name":"Băutură energizantă 0.5l","slug":"100002906-burn-bautura-energizanta-0-5l","unitPriceLabel":"12,3 Lei/l","brand":"Burn","brandCode":"285","brandFilterCode":"burn-b286","sku":"100002906","price":6.15,"originalPrice":null,"currencyCode":"RON","currency":"Lei","image":{"thumbnail":{"default":"https://cdn.freshful.ro/media/cache/sylius_shop_product_thumbnail/67/e7/e2d2844be7a0aed6d72e1269f996.jpg"},"large":{"default":"https://cdn.freshful.ro/media/cache/freshful_large/67/e7/e2d2844be7a0aed6d72e1269f996.jpg"},"extralarge":{"default":"https://cdn.freshful.ro/media/cache/sylius_shop_product_original/67/e7/e2d2844be7a0aed6d72e1269f996.jpg"}},"label":null,"tags":[],"isAvailable":true,"maxAvailableQuantity":6,"maxAllowedQuantity":6,"breadcrumbs":[{"code":"7","name":"Băuturi","slug":"7-bauturi-si-tutun"},{"code":"703","name":"Băuturi carbogazoase","slug":"703-bauturi-carbogazoase"},{"code":"70304","name":"Băuturi energizante","slug":"70304-bauturi-energizante"},{"code":"100002906","name":"Băutură energizantă 0.5l","slug":"100002906-burn-bautura-energizanta-0-5l"}],"activePromotion":null,"saveMe":null,"labels":[],"geniusPrice":null,"geniusUnitPricePerLabel":null,"banner":null,"discountLabel":null,"geniusDiscountLabel":null,"badge":null},{"code":"100002902","variantCode":"5060639121885","name":"Băutură energizantă mango Loco 0.5l","slug":"100002902-monster-bautura-energizanta-mango-loco-0-5l","unitPriceLabel":"11,38 Lei/l","brand":"Monster","brandCode":"284","brandFilterCode":"monster-b285","sku":"100002902","price":5.69,"originalPrice":null,"currencyCode":"RON","currency":"Lei","image":{"thumbnail":{"default":"https://cdn.freshful.ro/media/cache/sylius_shop_product_thumbnail/ef/d9/583145c6fbf0be31fa702f747e92.jpg"},"large":{"default":"https://cdn.freshful.ro/media/cache/freshful_large/ef/d9/583145c6fbf0be31fa702f747e92.jpg"},"extralarge":{"default":"https://cdn.freshful.ro/media/cache/sylius_shop_product_original/ef/d9/583145c6fbf0be31fa702f747e92.jpg"}},"label":null,"tags":[],"isAvailable":true,"maxAvailableQuantity":24,"maxAllowedQuantity":24,"breadcrumbs":[{"code":"7","name":"Băuturi","slug":"7-bauturi-si-tutun"},{"code":"703","name":"Băuturi carbogazoase","slug":"703-bauturi-carbogazoase"},{"code":"70304","name":"Băuturi energizante","slug":"70304-bauturi-energizante"},{"code":"100002902","name":"Băutură energizantă mango Loco 0.5l","slug":"100002902-monster-bautura-energizanta-mango-loco-0-5l"}],"activePromotion":null,"saveMe":null,"labels":[],"geniusPrice":null,"geniusUnitPricePerLabel":null,"banner":null,"discountLabel":null,"geniusDiscountLabel":null,"badge":null},{"code":"100094002","variantCode":"100094002","name":"Energizant Classic 0.25l","slug":"100094002-hell-energizant-classic-0-25l","unitPriceLabel":"12,02 Lei/l","brand":"Hell","brandCode":"1593","brandFilterCode":"hell-b1597","sku":"100094002","price":3.15,"originalPrice":null,"currencyCode":"RON","currency":"Lei","image":{"thumbnail":{"default":"https://cdn.freshful.ro/media/cache/sylius_shop_product_thumbnail/f4/99/b27971c7347573922ecafb9858ec.jpg"},"large":{"default":"https://cdn.freshful.ro/media/cache/freshful_large/f4/99/b27971c7347573922ecafb9858ec.jpg"},"extralarge":{"default":"https://cdn.freshful.ro/media/cache/sylius_shop_product_original/f4/99/b27971c7347573922ecafb9858ec.jpg"}},"label":null,"tags":[],"isAvailable":true,"maxAvailableQuantity":6,"maxAllowedQuantity":6,"breadcrumbs":[{"code":"7","name":"Băuturi","slug":"7-bauturi-si-tutun"},{"code":"703","name":"Băuturi carbogazoase","slug":"703-bauturi-carbogazoase"},{"code":"70304","name":"Băuturi energizante","slug":"70304-bauturi-energizante"},{"code":"100094002","name":"Energizant Classic 0.25l","slug":"100094002-hell-energizant-classic-0-25l"}],"activePromotion":null,"saveMe":null,"labels":[],"geniusPrice":null,"geniusUnitPricePerLabel":null,"banner":null,"discountLabel":null,"geniusDiscountLabel":null,"badge":null},{"code":"100042742","variantCode":"100042742","name":"Băutură energizantă 0.25l","slug":"100042742-red-bull-bautura-energizanta-0-25l","unitPriceLabel":"20,88 Lei/l","brand":"Red Bull","brandCode":"770","brandFilterCode":"red-bull-b771","sku":"100042742","price":5.22,"originalPrice":null,"currencyCode":"RON","currency":"Lei","image":{"thumbnail":{"default":"https://cdn.freshful.ro/media/cache/sylius_shop_product_thumbnail/e5/dc/1909102198d79040a304150883e0.jpg"},"large":{"default":"https://cdn.freshful.ro/media/cache/freshful_large/e5/dc/1909102198d79040a304150883e0.jpg"},"extralarge":{"default":"https://cdn.freshful.ro/media/cache/sylius_shop_product_original/e5/dc/1909102198d79040a304150883e0.jpg"}},"label":null,"tags":[],"isAvailable":true,"maxAvailableQuantity":6,"maxAllowedQuantity":6,"breadcrumbs":[{"code":"7","name":"Băuturi","slug":"7-bauturi-si-tutun"},{"code":"703","name":"Băuturi carbogazoase","slug":"703-bauturi-carbogazoase"},{"code":"70304","name":"Băuturi energizante","slug":"70304-bauturi-energizante"},{"code":"100042742","name":"Băutură energizantă 0.25l","slug":"100042742-red-bull-bautura-energizanta-0-25l"}],"activePromotion":null,"saveMe":null,"labels":[],"geniusPrice":null,"geniusUnitPricePerLabel":null,"banner":null,"discountLabel":null,"geniusDiscountLabel":null,"badge":null},{"code":"100042743","variantCode":"100042743","name":"Băutură energizantă fără zahăr 0.25l","slug":"100042743-red-bull-bautura-energizanta-fara-zahar-0-25l","unitPriceLabel":"18,96 Lei/l","brand":"Red Bull","brandCode":"770","brandFilterCode":"red-bull-b771","sku":"100042743","price":4.74,"originalPrice":null,"currencyCode":"RON","currency":"Lei","image":{"thumbnail":{"default":"https://cdn.freshful.ro/media/cache/sylius_shop_product_thumbnail/b8/0e/39669ed585ae731c0bc9cc281c29.jpg"},"large":{"default":"https://cdn.freshful.ro/media/cache/freshful_large/b8/0e/39669ed585ae731c0bc9cc281c29.jpg"},"extralarge":{"default":"https://cdn.freshful.ro/media/cache/sylius_shop_product_original/b8/0e/39669ed585ae731c0bc9cc281c29.jpg"}},"label":null,"tags":[{"type":"NoAddedSugar","text":"Fara zahar adaugat","icon":"https://cdn.freshful.ro/assets/product_tags/fara_zahar_adaugat.svg","iconPng":"https://cdn.freshful.ro/assets/product_tags/fara_zahar_adaugat.png","backgroundColor":"#F8EDF7","textColor":"#C05EBC"}],"isAvailable":true,"maxAvailableQuantity":24,"maxAllowedQuantity":24,"breadcrumbs":[{"code":"7","name":"Băuturi","slug":"7-bauturi-si-tutun"},{"code":"703","name":"Băuturi carbogazoase","slug":"703-bauturi-carbogazoase"},{"code":"70304","name":"Băuturi energizante","slug":"70304-bauturi-energizante"},{"code":"100042743","name":"Băutură energizantă fără zahăr 0.25l","slug":"100042743-red-bull-bautura-energizanta-fara-zahar-0-25l"}],"activePromotion":null,"saveMe":null,"labels":[],"geniusPrice":null,"geniusUnitPricePerLabel":null,"banner":null,"discountLabel":null,"geniusDiscountLabel":null,"badge":null}],"filters":{"countSelected":0,"items":[{"code":"brand","name":"Brand","countSelected":0,"values":[{"code":"burn-b286","name":"Burn","isSelected":false,"count":4},{"code":"gatorade-b792","name":"Gatorade","isSelected":false,"count":2},{"code":"hell-b1597","name":"Hell","isSelected":false,"count":8},{"code":"monster-b285","name":"Monster","isSelected":false,"count":7},{"code":"oshee-b1066","name":"Oshee","isSelected":false,"count":6},{"code":"red-bull-b771","name":"Red Bull","isSelected":false,"count":7},{"code":"rockstar-b797","name":"Rockstar","isSelected":false,"count":2}]},{"code":"diet_lifestyle","name":"Dietă și lifestyle","countSelected":0,"values":[{"code":"fara-zahar-adaugat-a29","name":"Fara zahar adaugat","isSelected":false,"count":7}]}]},"orderBy":[{"field":"price","direction":"asc","name":"Preț crescător","isSelected":false},{"field":"price","direction":"desc","name":"Preț descrescător","isSelected":false},{"field":"popularity","direction":"desc","name":"Cele mai populare","isSelected":true},{"field":"category","direction":"asc","name":"Categorie","isSelected":false}],"metaTitle":"Băuturi energizante - Gamă variată","metaDescription":"Vrei Băuturi energizante? Alege dintr-o gamă variată. Comanzi simplu și ai livrare rapidă, calitate și prospețime. Hai pe Freshful.ro","metaKeywords":null,"banners":[]}}