{"type":"subcategory","payload":{"analyticsListId":"category_70303-limonade-si-apa-tonica","analyticsListName":"Category - Limonadă și apă tonică","name":"Limonadă și apă tonică","slug":"70303-limonade-si-apa-tonica","image":null,"breadcrumbs":[{"code":"7","name":"Băuturi","slug":"7-bauturi-si-tutun"},{"code":"703","name":"Băuturi carbogazoase","slug":"703-bauturi-carbogazoase"},{"code":"70303","name":"Limonadă și apă tonică","slug":"70303-limonade-si-apa-tonica"}],"slots":[],"page":1,"limit":10,"pages":6,"count":57,"siblings":[{"name":"Băuturi necarbogazoase și siropuri","slug":"701-bauturi-necarbogazoase-si-siropuri","selected":false},{"name":"Apă","slug":"702-apa","selected":false},{"name":"Băuturi carbogazoase","slug":"703-bauturi-carbogazoase","selected":true},{"name":"Bere","slug":"704-bere","selected":false},{"name":"Vinuri","slug":"705-vinuri","selected":false},{"name":"Băuturi spirtoase","slug":"706-bauturi-spirtoase","selected":false},{"name":"Tutun","slug":"707-tutun","selected":false}],"children":[{"name":"Toate produsele","slug":"703-bauturi-carbogazoase","selected":false},{"name":"Băuturi tip cola","slug":"70301-bauturi-tip-cola","selected":false},{"name":"Băuturi fructate carbogazoase","slug":"70302-bauturi-fructate-carbogazoase","selected":false},{"name":"Limonadă și apă tonică","slug":"70303-limonade-si-apa-tonica","selected":true},{"name":"Băuturi energizante","slug":"70304-bauturi-energizante","selected":false}],"products":[{"code":"100146690","variantCode":"100146690","name":"Apă tonică artizanală sticlă 0.33l","slug":"100146690-lahhentagge-spruce-apa-tonica-artizanala-sticla-0-33l","unitPriceLabel":"27,24 Lei/l","brand":"Lahhentagge Spruce","brandCode":"2792","brandFilterCode":"lahhentagge-spruce-b2878","sku":"100146690","price":8.99,"originalPrice":null,"currencyCode":"RON","currency":"Lei","image":{"thumbnail":{"default":"https://cdn.freshful.ro/media/cache/sylius_shop_product_thumbnail/d6/66/4c7555553c5d04c6605600e14b27.jpg"},"large":{"default":"https://cdn.freshful.ro/media/cache/freshful_large/d6/66/4c7555553c5d04c6605600e14b27.jpg"},"extralarge":{"default":"https://cdn.freshful.ro/media/cache/sylius_shop_product_original/d6/66/4c7555553c5d04c6605600e14b27.jpg"}},"label":{"text":"Profită acum","backgroundColor":"#FF9903","textColor":"#FFFFFF"},"tags":[],"isAvailable":true,"maxAvailableQuantity":4,"maxAllowedQuantity":24,"breadcrumbs":[{"code":"7","name":"Băuturi","slug":"7-bauturi-si-tutun"},{"code":"703","name":"Băuturi carbogazoase","slug":"703-bauturi-carbogazoase"},{"code":"70303","name":"Limonadă și apă tonică","slug":"70303-limonade-si-apa-tonica"},{"code":"100146690","name":"Apă tonică artizanală sticlă 0.33l","slug":"100146690-lahhentagge-spruce-apa-tonica-artizanala-sticla-0-33l"}],"activePromotion":{"code":"oferte-bacanie-bauturi-21feb-8mar23","name":"Preț avantajos","targetQuantity":null},"saveMe":null,"labels":[{"type":"v1","items":[{"text":"Profită acum","backgroundColor":"#FF9903","textColor":"#FFFFFF"}]}],"geniusPrice":null,"geniusUnitPricePerLabel":null,"banner":{"text":"Preț avantajos","textColor":"#F95510","bgColor":"#FEF1CD","icon":null,"link":"https://www.freshful.ro/oferte/oferte-bacanie-bauturi-21feb-8mar23","type":"promo","analyticsEventType":"select_promotion","analyticsEventPayload":{"promotion_id":"oferte-bacanie-bauturi-21feb-8mar23","promotion_name":"Cămara cu băuturi și bunătăți"}},"discountLabel":null,"geniusDiscountLabel":null,"badge":null},{"code":"100002878","variantCode":"5449000297792","name":"Apă tonică zero zahăr 1.5l","slug":"100002878-schweppes-apa-tonica-zero-zahar-1-5l","unitPriceLabel":"5 Lei/l","brand":"Schweppes","brandCode":"277","brandFilterCode":"schweppes-b278","sku":"100002878","price":7.5,"originalPrice":null,"currencyCode":"RON","currency":"Lei","image":{"thumbnail":{"default":"https://cdn.freshful.ro/media/cache/sylius_shop_product_thumbnail/1b/a2/cf75748dd4f61ce372ff4fb61ba1.jpg"},"large":{"default":"https://cdn.freshful.ro/media/cache/freshful_large/1b/a2/cf75748dd4f61ce372ff4fb61ba1.jpg"},"extralarge":{"default":"https://cdn.freshful.ro/media/cache/sylius_shop_product_original/1b/a2/cf75748dd4f61ce372ff4fb61ba1.jpg"}},"label":null,"tags":[{"type":"NoAddedSugar","text":"Fara zahar adaugat","icon":"https://cdn.freshful.ro/assets/product_tags/fara_zahar_adaugat.svg","iconPng":"https://cdn.freshful.ro/assets/product_tags/fara_zahar_adaugat.png","backgroundColor":"#F8EDF7","textColor":"#C05EBC"}],"isAvailable":true,"maxAvailableQuantity":24,"maxAllowedQuantity":24,"breadcrumbs":[{"code":"7","name":"Băuturi","slug":"7-bauturi-si-tutun"},{"code":"703","name":"Băuturi carbogazoase","slug":"703-bauturi-carbogazoase"},{"code":"70303","name":"Limonadă și apă tonică","slug":"70303-limonade-si-apa-tonica"},{"code":"100002878","name":"Apă tonică zero zahăr 1.5l","slug":"100002878-schweppes-apa-tonica-zero-zahar-1-5l"}],"activePromotion":null,"saveMe":null,"labels":[],"geniusPrice":null,"geniusUnitPricePerLabel":null,"banner":null,"discountLabel":null,"geniusDiscountLabel":null,"badge":null},{"code":"100002085","variantCode":"5449000148445","name":"Apă tonică 1.5l","slug":"100002085-schweppes-apa-tonica-1-5l","unitPriceLabel":"4,85 Lei/l","brand":"Schweppes","brandCode":"277","brandFilterCode":"schweppes-b278","sku":"100002085","price":7.27,"originalPrice":null,"currencyCode":"RON","currency":"Lei","image":{"thumbnail":{"default":"https://cdn.freshful.ro/media/cache/sylius_shop_product_thumbnail/11/94/2cd6b281c94a5d60b171058aede9.jpg"},"large":{"default":"https://cdn.freshful.ro/media/cache/freshful_large/11/94/2cd6b281c94a5d60b171058aede9.jpg"},"extralarge":{"default":"https://cdn.freshful.ro/media/cache/sylius_shop_product_original/11/94/2cd6b281c94a5d60b171058aede9.jpg"}},"label":null,"tags":[],"isAvailable":true,"maxAvailableQuantity":24,"maxAllowedQuantity":24,"breadcrumbs":[{"code":"7","name":"Băuturi","slug":"7-bauturi-si-tutun"},{"code":"703","name":"Băuturi carbogazoase","slug":"703-bauturi-carbogazoase"},{"code":"70303","name":"Limonadă și apă tonică","slug":"70303-limonade-si-apa-tonica"},{"code":"100002085","name":"Apă tonică 1.5l","slug":"100002085-schweppes-apa-tonica-1-5l"}],"activePromotion":null,"saveMe":null,"labels":[],"geniusPrice":null,"geniusUnitPricePerLabel":null,"banner":null,"discountLabel":null,"geniusDiscountLabel":null,"badge":null},{"code":"100148707","variantCode":"100148707","name":"Băutură carbogazoasă pink tonic 1.5l","slug":"100148707-schweppes-bautura-carbogazoasa-pink-tonic-1-5l","unitPriceLabel":"5 Lei/l","brand":"Schweppes","brandCode":"277","brandFilterCode":"schweppes-b278","sku":"100148707","price":7.5,"originalPrice":null,"currencyCode":"RON","currency":"Lei","image":{"thumbnail":{"default":"https://cdn.freshful.ro/media/cache/sylius_shop_product_thumbnail/22/b2/204935465fa418d180f82f939d1d.jpg"},"large":{"default":"https://cdn.freshful.ro/media/cache/freshful_large/22/b2/204935465fa418d180f82f939d1d.jpg"},"extralarge":{"default":"https://cdn.freshful.ro/media/cache/sylius_shop_product_original/22/b2/204935465fa418d180f82f939d1d.jpg"}},"label":null,"tags":[],"isAvailable":true,"maxAvailableQuantity":24,"maxAllowedQuantity":24,"breadcrumbs":[{"code":"7","name":"Băuturi","slug":"7-bauturi-si-tutun"},{"code":"703","name":"Băuturi carbogazoase","slug":"703-bauturi-carbogazoase"},{"code":"70303","name":"Limonadă și apă tonică","slug":"70303-limonade-si-apa-tonica"},{"code":"100148707","name":"Băutură carbogazoasă pink tonic 1.5l","slug":"100148707-schweppes-bautura-carbogazoasa-pink-tonic-1-5l"}],"activePromotion":null,"saveMe":null,"labels":[],"geniusPrice":null,"geniusUnitPricePerLabel":null,"banner":null,"discountLabel":null,"geniusDiscountLabel":null,"badge":null},{"code":"100001999","variantCode":"5449000044709","name":"Apă tonică Bitter Lemon 1.5l","slug":"100001999-schweppes-apa-tonica-bitter-lemon-1-5l","unitPriceLabel":"4,87 Lei/l","brand":"Schweppes","brandCode":"277","brandFilterCode":"schweppes-b278","sku":"100001999","price":7.3,"originalPrice":null,"currencyCode":"RON","currency":"Lei","image":{"thumbnail":{"default":"https://cdn.freshful.ro/media/cache/sylius_shop_product_thumbnail/40/7b/9a4514b0004010986288090d3e1d.jpg"},"large":{"default":"https://cdn.freshful.ro/media/cache/freshful_large/40/7b/9a4514b0004010986288090d3e1d.jpg"},"extralarge":{"default":"https://cdn.freshful.ro/media/cache/sylius_shop_product_original/40/7b/9a4514b0004010986288090d3e1d.jpg"}},"label":null,"tags":[],"isAvailable":true,"maxAvailableQuantity":24,"maxAllowedQuantity":24,"breadcrumbs":[{"code":"7","name":"Băuturi","slug":"7-bauturi-si-tutun"},{"code":"703","name":"Băuturi carbogazoase","slug":"703-bauturi-carbogazoase"},{"code":"70303","name":"Limonadă și apă tonică","slug":"70303-limonade-si-apa-tonica"},{"code":"100001999","name":"Apă tonică Bitter Lemon 1.5l","slug":"100001999-schweppes-apa-tonica-bitter-lemon-1-5l"}],"activePromotion":null,"saveMe":null,"labels":[],"geniusPrice":null,"geniusUnitPricePerLabel":null,"banner":null,"discountLabel":null,"geniusDiscountLabel":null,"badge":null},{"code":"100002088","variantCode":"5449000044730","name":"Apă tonică cu aromă de mandarine 1.5l","slug":"100002088-schweppes-apa-tonica-cu-aroma-de-mandarine-1-5l","unitPriceLabel":"5,13 Lei/l","brand":"Schweppes","brandCode":"277","brandFilterCode":"schweppes-b278","sku":"100002088","price":7.69,"originalPrice":null,"currencyCode":"RON","currency":"Lei","image":{"thumbnail":{"default":"https://cdn.freshful.ro/media/cache/sylius_shop_product_thumbnail/a9/cc/efd738457f03f71fc604c7629073.jpg"},"large":{"default":"https://cdn.freshful.ro/media/cache/freshful_large/a9/cc/efd738457f03f71fc604c7629073.jpg"},"extralarge":{"default":"https://cdn.freshful.ro/media/cache/sylius_shop_product_original/a9/cc/efd738457f03f71fc604c7629073.jpg"}},"label":null,"tags":[],"isAvailable":true,"maxAvailableQuantity":24,"maxAllowedQuantity":24,"breadcrumbs":[{"code":"7","name":"Băuturi","slug":"7-bauturi-si-tutun"},{"code":"703","name":"Băuturi carbogazoase","slug":"703-bauturi-carbogazoase"},{"code":"70303","name":"Limonadă și apă tonică","slug":"70303-limonade-si-apa-tonica"},{"code":"100002088","name":"Apă tonică cu aromă de mandarine 1.5l","slug":"100002088-schweppes-apa-tonica-cu-aroma-de-mandarine-1-5l"}],"activePromotion":null,"saveMe":null,"labels":[],"geniusPrice":null,"geniusUnitPricePerLabel":null,"banner":null,"discountLabel":null,"geniusDiscountLabel":null,"badge":null},{"code":"100002880","variantCode":"5449000004864","name":"Băutură carbogazoasă 2l","slug":"100002880-sprite-bautura-carbogazoasa-2l","unitPriceLabel":"3,32 Lei/l","brand":"Sprite","brandCode":"278","brandFilterCode":"sprite-b279","sku":"100002880","price":6.64,"originalPrice":null,"currencyCode":"RON","currency":"Lei","image":{"thumbnail":{"default":"https://cdn.freshful.ro/media/cache/sylius_shop_product_thumbnail/b5/98/f1526d4f34549d7bff9ac48f1599.jpg"},"large":{"default":"https://cdn.freshful.ro/media/cache/freshful_large/b5/98/f1526d4f34549d7bff9ac48f1599.jpg"},"extralarge":{"default":"https://cdn.freshful.ro/media/cache/sylius_shop_product_original/b5/98/f1526d4f34549d7bff9ac48f1599.jpg"}},"label":null,"tags":[],"isAvailable":true,"maxAvailableQuantity":24,"maxAllowedQuantity":24,"breadcrumbs":[{"code":"7","name":"Băuturi","slug":"7-bauturi-si-tutun"},{"code":"703","name":"Băuturi carbogazoase","slug":"703-bauturi-carbogazoase"},{"code":"70303","name":"Limonadă și apă tonică","slug":"70303-limonade-si-apa-tonica"},{"code":"100002880","name":"Băutură carbogazoasă 2l","slug":"100002880-sprite-bautura-carbogazoasa-2l"}],"activePromotion":null,"saveMe":null,"labels":[],"geniusPrice":null,"geniusUnitPricePerLabel":null,"banner":null,"discountLabel":null,"geniusDiscountLabel":null,"badge":null},{"code":"100002084","variantCode":"5449000091956","name":"Apă tonică 0.33l","slug":"100002084-schweppes-apa-tonica-0-33l","unitPriceLabel":"10,88 Lei/l","brand":"Schweppes","brandCode":"277","brandFilterCode":"schweppes-b278","sku":"100002084","price":3.59,"originalPrice":null,"currencyCode":"RON","currency":"Lei","image":{"thumbnail":{"default":"https://cdn.freshful.ro/media/cache/sylius_shop_product_thumbnail/87/a2/a43b138edbbf9e678290c911f4b7.jpg"},"large":{"default":"https://cdn.freshful.ro/media/cache/freshful_large/87/a2/a43b138edbbf9e678290c911f4b7.jpg"},"extralarge":{"default":"https://cdn.freshful.ro/media/cache/sylius_shop_product_original/87/a2/a43b138edbbf9e678290c911f4b7.jpg"}},"label":null,"tags":[],"isAvailable":true,"maxAvailableQuantity":24,"maxAllowedQuantity":24,"breadcrumbs":[{"code":"7","name":"Băuturi","slug":"7-bauturi-si-tutun"},{"code":"703","name":"Băuturi carbogazoase","slug":"703-bauturi-carbogazoase"},{"code":"70303","name":"Limonadă și apă tonică","slug":"70303-limonade-si-apa-tonica"},{"code":"100002084","name":"Apă tonică 0.33l","slug":"100002084-schweppes-apa-tonica-0-33l"}],"activePromotion":null,"saveMe":null,"labels":[],"geniusPrice":null,"geniusUnitPricePerLabel":null,"banner":null,"discountLabel":null,"geniusDiscountLabel":null,"badge":null},{"code":"100150880","variantCode":"100150880","name":"Apă tonică doză 6x0.33l","slug":"100150880-schweppes-apa-tonica-doza-6x0-33l","unitPriceLabel":"12,7 Lei/l","brand":"Schweppes","brandCode":"277","brandFilterCode":"schweppes-b278","sku":"100150880","price":25.15,"originalPrice":null,"currencyCode":"RON","currency":"Lei","image":{"thumbnail":{"default":"https://cdn.freshful.ro/media/cache/sylius_shop_product_thumbnail/b9/e3/8d825c1d1b7e3cc961a92fba3658.jpg"},"large":{"default":"https://cdn.freshful.ro/media/cache/freshful_large/b9/e3/8d825c1d1b7e3cc961a92fba3658.jpg"},"extralarge":{"default":"https://cdn.freshful.ro/media/cache/sylius_shop_product_original/b9/e3/8d825c1d1b7e3cc961a92fba3658.jpg"}},"label":null,"tags":[],"isAvailable":true,"maxAvailableQuantity":24,"maxAllowedQuantity":24,"breadcrumbs":[{"code":"7","name":"Băuturi","slug":"7-bauturi-si-tutun"},{"code":"703","name":"Băuturi carbogazoase","slug":"703-bauturi-carbogazoase"},{"code":"70303","name":"Limonadă și apă tonică","slug":"70303-limonade-si-apa-tonica"},{"code":"100150880","name":"Apă tonică doză 6x0.33l","slug":"100150880-schweppes-apa-tonica-doza-6x0-33l"}],"activePromotion":null,"saveMe":null,"labels":[],"geniusPrice":null,"geniusUnitPricePerLabel":null,"banner":null,"discountLabel":null,"geniusDiscountLabel":null,"badge":null},{"code":"100120634","variantCode":"100120634","name":"Apă tonică cu rubarbă și hibiscus 0.2l","slug":"100120634-franklin-sons-apa-tonica-cu-rubarba-si-hibiscus-0-2l","unitPriceLabel":"39,95 Lei/l","brand":"Franklin&Sons","brandCode":"2023","brandFilterCode":"franklin-sons-b2027","sku":"100120634","price":7.99,"originalPrice":null,"currencyCode":"RON","currency":"Lei","image":{"thumbnail":{"default":"https://cdn.freshful.ro/media/cache/sylius_shop_product_thumbnail/c6/df/e23f3948554f3d00e0dafaf3a113.jpg"},"large":{"default":"https://cdn.freshful.ro/media/cache/freshful_large/c6/df/e23f3948554f3d00e0dafaf3a113.jpg"},"extralarge":{"default":"https://cdn.freshful.ro/media/cache/sylius_shop_product_original/c6/df/e23f3948554f3d00e0dafaf3a113.jpg"}},"label":null,"tags":[],"isAvailable":true,"maxAvailableQuantity":24,"maxAllowedQuantity":24,"breadcrumbs":[{"code":"7","name":"Băuturi","slug":"7-bauturi-si-tutun"},{"code":"703","name":"Băuturi carbogazoase","slug":"703-bauturi-carbogazoase"},{"code":"70303","name":"Limonadă și apă tonică","slug":"70303-limonade-si-apa-tonica"},{"code":"100120634","name":"Apă tonică cu rubarbă și hibiscus 0.2l","slug":"100120634-franklin-sons-apa-tonica-cu-rubarba-si-hibiscus-0-2l"}],"activePromotion":null,"saveMe":null,"labels":[],"geniusPrice":null,"geniusUnitPricePerLabel":null,"banner":null,"discountLabel":null,"geniusDiscountLabel":null,"badge":null}],"filters":{"countSelected":0,"items":[{"code":"promotion","name":"Promoții","countSelected":0,"values":[{"code":"oferte-bacanie-bauturi-21feb-8mar23","name":"Cămara cu băuturi și bunătăți","isSelected":false,"count":1}]},{"code":"brand","name":"Brand","countSelected":0,"values":[{"code":"double-dutch-b776","name":"Double Dutch","isSelected":false,"count":5},{"code":"evervess-b791","name":"Evervess","isSelected":false,"count":1},{"code":"fentimans-b1154","name":"Fentimans","isSelected":false,"count":5},{"code":"franklin-sons-b2027","name":"Franklin&Sons","isSelected":false,"count":5},{"code":"fritz-kola-b1155","name":"Fritz-Kola","isSelected":false,"count":2},{"code":"giusto-b2631","name":"Giusto","isSelected":false,"count":1},{"code":"kofi-ti-b1613","name":"Kofi Ti","isSelected":false,"count":7},{"code":"lahhentagge-spruce-b2878","name":"Lahhentagge Spruce","isSelected":false,"count":1},{"code":"mama-b1400","name":"Mama","isSelected":false,"count":2},{"code":"oxfam-b1081","name":"Oxfam","isSelected":false,"count":1},{"code":"schweppes-b278","name":"Schweppes","isSelected":false,"count":19},{"code":"sprite-b279","name":"Sprite","isSelected":false,"count":6},{"code":"st-bernardo-b1161","name":"St.Bernardo","isSelected":false,"count":2}]},{"code":"diet_lifestyle","name":"Dietă și lifestyle","countSelected":0,"values":[{"code":"eco-a83","name":"Eco","isSelected":false,"count":3},{"code":"fara-zahar-adaugat-a29","name":"Fara zahar adaugat","isSelected":false,"count":2},{"code":"made-in-romania-a85","name":"Made In Romania","isSelected":false,"count":3},{"code":"vegan-a24","name":"Vegan","isSelected":false,"count":2}]}]},"orderBy":[{"field":"price","direction":"asc","name":"Preț crescător","isSelected":false},{"field":"price","direction":"desc","name":"Preț descrescător","isSelected":false},{"field":"popularity","direction":"desc","name":"Cele mai populare","isSelected":true},{"field":"category","direction":"asc","name":"Categorie","isSelected":false}],"metaTitle":"Limonadă și apă tonică - Gamă variată","metaDescription":"Vrei Limonadă și apă tonică? Alege dintr-o gamă variată. Comanzi simplu și ai livrare rapidă, calitate și prospețime. Hai pe Freshful.ro","metaKeywords":null,"banners":[]}}