{"type":"subcategory","payload":{"analyticsListId":"category_704-bere","analyticsListName":"Category - Bere","name":"Bere","slug":"704-bere","image":null,"breadcrumbs":[{"code":"7","name":"Băuturi","slug":"7-bauturi-si-tutun"},{"code":"704","name":"Bere","slug":"704-bere"}],"slots":[],"page":1,"limit":10,"pages":28,"count":277,"siblings":[{"name":"Băuturi necarbogazoase și siropuri","slug":"701-bauturi-necarbogazoase-si-siropuri","selected":false},{"name":"Apă","slug":"702-apa","selected":false},{"name":"Băuturi carbogazoase","slug":"703-bauturi-carbogazoase","selected":false},{"name":"Bere","slug":"704-bere","selected":true},{"name":"Vinuri","slug":"705-vinuri","selected":false},{"name":"Băuturi spirtoase","slug":"706-bauturi-spirtoase","selected":false},{"name":"Tutun","slug":"707-tutun","selected":false}],"children":[{"name":"Toate produsele","slug":"704-bere","selected":true},{"name":"Bere blondă","slug":"70401-bere-blonda","selected":false},{"name":"Bere albă","slug":"70402-bere-alba","selected":false},{"name":"Bere roșie și brună","slug":"70403-bere-rosie-si-neagra","selected":false},{"name":"Bere radler și cu arome","slug":"70404-bere-radler-si-cu-arome","selected":false},{"name":"Cidru","slug":"70405-cidru","selected":false},{"name":"Bere artizanală românească","slug":"70406-bere-artizanala-romaneasca","selected":false},{"name":"Specialități internaționale","slug":"70407-bere-internationala","selected":false},{"name":"Bere fără alcool","slug":"70408-bere-fara-alcool","selected":false}],"products":[{"code":"100047689","variantCode":"646809521249","name":" Bere artizanală nepasteurizată blondă sticlă 0.5l","slug":"100047689-zaganu-bere-artizanala-nepasteurizata-blonda-sticla-0-5l","unitPriceLabel":"16,98 Lei/l","brand":"Zăganu","brandCode":"788","brandFilterCode":"zaganu-b789","sku":"100047689","price":8.49,"originalPrice":8.95,"currencyCode":"RON","currency":"Lei","image":{"thumbnail":{"default":"https://cdn.freshful.ro/media/cache/sylius_shop_product_thumbnail/33/0e/5713e2915baf2d1993b645b09815.jpg"},"large":{"default":"https://cdn.freshful.ro/media/cache/freshful_large/33/0e/5713e2915baf2d1993b645b09815.jpg"},"extralarge":{"default":"https://cdn.freshful.ro/media/cache/sylius_shop_product_original/33/0e/5713e2915baf2d1993b645b09815.jpg"}},"label":{"text":"-5%","backgroundColor":"#FF9903","textColor":"#FFFFFF"},"tags":[{"type":"vegan","text":"Vegan","icon":"https://cdn.freshful.ro/assets/product_tags/vegan.svg","iconPng":"https://cdn.freshful.ro/assets/product_tags/vegan.png","backgroundColor":"#ECF9F8","textColor":"#33A39C"},{"type":"MadeInRomania","text":"Made In Romania","icon":"https://cdn.freshful.ro/assets/product_tags/made_in_romania.svg","iconPng":"https://cdn.freshful.ro/assets/product_tags/made_in_romania.png","backgroundColor":"#EDF2FD","textColor":"#1653CA"}],"isAvailable":true,"maxAvailableQuantity":50,"maxAllowedQuantity":50,"breadcrumbs":[{"code":"7","name":"Băuturi","slug":"7-bauturi-si-tutun"},{"code":"704","name":"Bere","slug":"704-bere"},{"code":"70406","name":"Bere artizanală românească","slug":"70406-bere-artizanala-romaneasca"},{"code":"100047689","name":" Bere artizanală nepasteurizată blondă sticlă 0.5l","slug":"100047689-zaganu-bere-artizanala-nepasteurizata-blonda-sticla-0-5l"}],"activePromotion":{"code":"targ-bere-snacks-mar23","name":"Preț redus","targetQuantity":null},"saveMe":null,"labels":[{"type":"v1","items":[{"text":"-5%","backgroundColor":"#FF9903","textColor":"#FFFFFF"}]}],"geniusPrice":null,"geniusUnitPricePerLabel":null,"banner":{"text":"Super preț","textColor":"#FF0000","bgColor":"#FFF2EC","icon":null,"link":"https://www.freshful.ro/oferte/targ-bere-snacks-mar23","type":"promo","analyticsEventType":"select_promotion","analyticsEventPayload":{"promotion_id":"targ-bere-snacks-mar23","promotion_name":"Bere și snackuri pentru toate gusturile"}},"discountLabel":"Economisești 5%","geniusDiscountLabel":null,"badge":null},{"code":"100138409","variantCode":"100138409","name":"Bere blondă Paloșul lui Ștefan sticlă 0.33l","slug":"100138409-barlog-bere-blonda-palosul-lui-stefan-sticla-0-33l","unitPriceLabel":"18,15 Lei/l","brand":"Bârlog","brandCode":"2644","brandFilterCode":"barlog-b2648","sku":"100138409","price":5.99,"originalPrice":null,"currencyCode":"RON","currency":"Lei","image":{"thumbnail":{"default":"https://cdn.freshful.ro/media/cache/sylius_shop_product_thumbnail/10/8c/6f66c787c5f5b0e49fee5e3f8836.jpg"},"large":{"default":"https://cdn.freshful.ro/media/cache/freshful_large/10/8c/6f66c787c5f5b0e49fee5e3f8836.jpg"},"extralarge":{"default":"https://cdn.freshful.ro/media/cache/sylius_shop_product_original/10/8c/6f66c787c5f5b0e49fee5e3f8836.jpg"}},"label":{"text":"Profită acum","backgroundColor":"#FF9903","textColor":"#FFFFFF"},"tags":[],"isAvailable":true,"maxAvailableQuantity":50,"maxAllowedQuantity":50,"breadcrumbs":[{"code":"7","name":"Băuturi","slug":"7-bauturi-si-tutun"},{"code":"704","name":"Bere","slug":"704-bere"},{"code":"70401","name":"Bere blondă","slug":"70401-bere-blonda"},{"code":"100138409","name":"Bere blondă Paloșul lui Ștefan sticlă 0.33l","slug":"100138409-barlog-bere-blonda-palosul-lui-stefan-sticla-0-33l"}],"activePromotion":{"code":"targ-bere-snacks-mar23","name":"Preț avantajos","targetQuantity":null},"saveMe":null,"labels":[{"type":"v1","items":[{"text":"Profită acum","backgroundColor":"#FF9903","textColor":"#FFFFFF"}]}],"geniusPrice":null,"geniusUnitPricePerLabel":null,"banner":{"text":"Preț avantajos","textColor":"#F95510","bgColor":"#FEF1CD","icon":null,"link":"https://www.freshful.ro/oferte/targ-bere-snacks-mar23","type":"promo","analyticsEventType":"select_promotion","analyticsEventPayload":{"promotion_id":"targ-bere-snacks-mar23","promotion_name":"Bere și snackuri pentru toate gusturile"}},"discountLabel":null,"geniusDiscountLabel":null,"badge":null},{"code":"100042397","variantCode":"100042397","name":"Bere blondă nepasteurizată sticlă 0.5l","slug":"100042397-azuga-bere-blonda-nepasteurizata-sticla-0-5l","unitPriceLabel":"13,98 Lei/l","brand":"Azuga","brandCode":"584","brandFilterCode":"azuga-b585","sku":"100042397","price":6.99,"originalPrice":null,"currencyCode":"RON","currency":"Lei","image":{"thumbnail":{"default":"https://cdn.freshful.ro/media/cache/sylius_shop_product_thumbnail/e3/85/c06d4c3e427e30e75d1a31ff5dc0.jpg"},"large":{"default":"https://cdn.freshful.ro/media/cache/freshful_large/e3/85/c06d4c3e427e30e75d1a31ff5dc0.jpg"},"extralarge":{"default":"https://cdn.freshful.ro/media/cache/sylius_shop_product_original/e3/85/c06d4c3e427e30e75d1a31ff5dc0.jpg"}},"label":{"text":"Profită acum","backgroundColor":"#FF9903","textColor":"#FFFFFF"},"tags":[],"isAvailable":true,"maxAvailableQuantity":50,"maxAllowedQuantity":50,"breadcrumbs":[{"code":"7","name":"Băuturi","slug":"7-bauturi-si-tutun"},{"code":"704","name":"Bere","slug":"704-bere"},{"code":"70401","name":"Bere blondă","slug":"70401-bere-blonda"},{"code":"100042397","name":"Bere blondă nepasteurizată sticlă 0.5l","slug":"100042397-azuga-bere-blonda-nepasteurizata-sticla-0-5l"}],"activePromotion":{"code":"targ-bere-snacks-mar23","name":"Preț avantajos","targetQuantity":null},"saveMe":null,"labels":[{"type":"v1","items":[{"text":"Profită acum","backgroundColor":"#FF9903","textColor":"#FFFFFF"}]}],"geniusPrice":null,"geniusUnitPricePerLabel":null,"banner":{"text":"Preț avantajos","textColor":"#F95510","bgColor":"#FEF1CD","icon":null,"link":"https://www.freshful.ro/oferte/targ-bere-snacks-mar23","type":"promo","analyticsEventType":"select_promotion","analyticsEventPayload":{"promotion_id":"targ-bere-snacks-mar23","promotion_name":"Bere și snackuri pentru toate gusturile"}},"discountLabel":null,"geniusDiscountLabel":null,"badge":null},{"code":"100042728","variantCode":"100042728","name":"Bere roșie sticlă 0.5l","slug":"100042728-london-pride-bere-rosie-sticla-0-5l","unitPriceLabel":"25,98 Lei/l","brand":"London Pride","brandCode":"571","brandFilterCode":"london-pride-b572","sku":"100042728","price":12.99,"originalPrice":null,"currencyCode":"RON","currency":"Lei","image":{"thumbnail":{"default":"https://cdn.freshful.ro/media/cache/sylius_shop_product_thumbnail/a6/ce/89f1f06bd2ae85867d0e65370253.jpg"},"large":{"default":"https://cdn.freshful.ro/media/cache/freshful_large/a6/ce/89f1f06bd2ae85867d0e65370253.jpg"},"extralarge":{"default":"https://cdn.freshful.ro/media/cache/sylius_shop_product_original/a6/ce/89f1f06bd2ae85867d0e65370253.jpg"}},"label":{"text":"Profită acum","backgroundColor":"#FF9903","textColor":"#FFFFFF"},"tags":[],"isAvailable":true,"maxAvailableQuantity":50,"maxAllowedQuantity":50,"breadcrumbs":[{"code":"7","name":"Băuturi","slug":"7-bauturi-si-tutun"},{"code":"704","name":"Bere","slug":"704-bere"},{"code":"70407","name":"Specialități internaționale","slug":"70407-bere-internationala"},{"code":"100042728","name":"Bere roșie sticlă 0.5l","slug":"100042728-london-pride-bere-rosie-sticla-0-5l"}],"activePromotion":{"code":"targ-bere-snacks-mar23","name":"Preț avantajos","targetQuantity":null},"saveMe":null,"labels":[{"type":"v1","items":[{"text":"Profită acum","backgroundColor":"#FF9903","textColor":"#FFFFFF"}]}],"geniusPrice":null,"geniusUnitPricePerLabel":null,"banner":{"text":"Preț avantajos","textColor":"#F95510","bgColor":"#FEF1CD","icon":null,"link":"https://www.freshful.ro/oferte/targ-bere-snacks-mar23","type":"promo","analyticsEventType":"select_promotion","analyticsEventPayload":{"promotion_id":"targ-bere-snacks-mar23","promotion_name":"Bere și snackuri pentru toate gusturile"}},"discountLabel":null,"geniusDiscountLabel":null,"badge":null},{"code":"100047922","variantCode":"684811797795","name":"Bere artizanală nepasteurizată India Pale Lager sticlă 0.5l","slug":"100047922-zaganu-bere-artizanala-nepasteurizata-india-pale-lager-sticla-0-5l","unitPriceLabel":"23,98 Lei/l","brand":"Zăganu","brandCode":"788","brandFilterCode":"zaganu-b789","sku":"100047922","price":11.99,"originalPrice":12.9,"currencyCode":"RON","currency":"Lei","image":{"thumbnail":{"default":"https://cdn.freshful.ro/media/cache/sylius_shop_product_thumbnail/b3/2a/de5ab66bd950e8b0e09cfd828d4a.jpg"},"large":{"default":"https://cdn.freshful.ro/media/cache/freshful_large/b3/2a/de5ab66bd950e8b0e09cfd828d4a.jpg"},"extralarge":{"default":"https://cdn.freshful.ro/media/cache/sylius_shop_product_original/b3/2a/de5ab66bd950e8b0e09cfd828d4a.jpg"}},"label":{"text":"-7%","backgroundColor":"#FF9903","textColor":"#FFFFFF"},"tags":[{"type":"vegan","text":"Vegan","icon":"https://cdn.freshful.ro/assets/product_tags/vegan.svg","iconPng":"https://cdn.freshful.ro/assets/product_tags/vegan.png","backgroundColor":"#ECF9F8","textColor":"#33A39C"},{"type":"MadeInRomania","text":"Made In Romania","icon":"https://cdn.freshful.ro/assets/product_tags/made_in_romania.svg","iconPng":"https://cdn.freshful.ro/assets/product_tags/made_in_romania.png","backgroundColor":"#EDF2FD","textColor":"#1653CA"}],"isAvailable":true,"maxAvailableQuantity":50,"maxAllowedQuantity":50,"breadcrumbs":[{"code":"7","name":"Băuturi","slug":"7-bauturi-si-tutun"},{"code":"704","name":"Bere","slug":"704-bere"},{"code":"70406","name":"Bere artizanală românească","slug":"70406-bere-artizanala-romaneasca"},{"code":"100047922","name":"Bere artizanală nepasteurizată India Pale Lager sticlă 0.5l","slug":"100047922-zaganu-bere-artizanala-nepasteurizata-india-pale-lager-sticla-0-5l"}],"activePromotion":{"code":"targ-bere-snacks-mar23","name":"Preț redus","targetQuantity":null},"saveMe":null,"labels":[{"type":"v1","items":[{"text":"-7%","backgroundColor":"#FF9903","textColor":"#FFFFFF"}]}],"geniusPrice":null,"geniusUnitPricePerLabel":null,"banner":{"text":"Super preț","textColor":"#FF0000","bgColor":"#FFF2EC","icon":null,"link":"https://www.freshful.ro/oferte/targ-bere-snacks-mar23","type":"promo","analyticsEventType":"select_promotion","analyticsEventPayload":{"promotion_id":"targ-bere-snacks-mar23","promotion_name":"Bere și snackuri pentru toate gusturile"}},"discountLabel":"Economisești 7%","geniusDiscountLabel":null,"badge":null},{"code":"100138410","variantCode":"100138410","name":"Bere blondă Țeapa lui Vlad sticlă 0.33l","slug":"100138410-barlog-bere-blonda-teapa-lui-vlad-sticla-0-33l","unitPriceLabel":"18,15 Lei/l","brand":"Bârlog","brandCode":"2644","brandFilterCode":"barlog-b2648","sku":"100138410","price":5.99,"originalPrice":null,"currencyCode":"RON","currency":"Lei","image":{"thumbnail":{"default":"https://cdn.freshful.ro/media/cache/sylius_shop_product_thumbnail/07/6d/d5c2f33c3b50b1264da062580dd4.jpg"},"large":{"default":"https://cdn.freshful.ro/media/cache/freshful_large/07/6d/d5c2f33c3b50b1264da062580dd4.jpg"},"extralarge":{"default":"https://cdn.freshful.ro/media/cache/sylius_shop_product_original/07/6d/d5c2f33c3b50b1264da062580dd4.jpg"}},"label":{"text":"Profită acum","backgroundColor":"#FF9903","textColor":"#FFFFFF"},"tags":[],"isAvailable":true,"maxAvailableQuantity":50,"maxAllowedQuantity":50,"breadcrumbs":[{"code":"7","name":"Băuturi","slug":"7-bauturi-si-tutun"},{"code":"704","name":"Bere","slug":"704-bere"},{"code":"70401","name":"Bere blondă","slug":"70401-bere-blonda"},{"code":"100138410","name":"Bere blondă Țeapa lui Vlad sticlă 0.33l","slug":"100138410-barlog-bere-blonda-teapa-lui-vlad-sticla-0-33l"}],"activePromotion":{"code":"targ-bere-snacks-mar23","name":"Preț avantajos","targetQuantity":null},"saveMe":null,"labels":[{"type":"v1","items":[{"text":"Profită acum","backgroundColor":"#FF9903","textColor":"#FFFFFF"}]}],"geniusPrice":null,"geniusUnitPricePerLabel":null,"banner":{"text":"Preț avantajos","textColor":"#F95510","bgColor":"#FEF1CD","icon":null,"link":"https://www.freshful.ro/oferte/targ-bere-snacks-mar23","type":"promo","analyticsEventType":"select_promotion","analyticsEventPayload":{"promotion_id":"targ-bere-snacks-mar23","promotion_name":"Bere și snackuri pentru toate gusturile"}},"discountLabel":null,"geniusDiscountLabel":null,"badge":null},{"code":"100138411","variantCode":"100138411","name":"Bere blondă Coșmarul lui Baiazid sticlă 0.33l","slug":"100138411-barlog-bere-blonda-cosmarul-lui-baiazid-sticla-0-33l","unitPriceLabel":"18,15 Lei/l","brand":"Bârlog","brandCode":"2644","brandFilterCode":"barlog-b2648","sku":"100138411","price":5.99,"originalPrice":null,"currencyCode":"RON","currency":"Lei","image":{"thumbnail":{"default":"https://cdn.freshful.ro/media/cache/sylius_shop_product_thumbnail/40/08/b109cd53c68f63bcde3f1cd2385f.jpg"},"large":{"default":"https://cdn.freshful.ro/media/cache/freshful_large/40/08/b109cd53c68f63bcde3f1cd2385f.jpg"},"extralarge":{"default":"https://cdn.freshful.ro/media/cache/sylius_shop_product_original/40/08/b109cd53c68f63bcde3f1cd2385f.jpg"}},"label":{"text":"Profită acum","backgroundColor":"#FF9903","textColor":"#FFFFFF"},"tags":[],"isAvailable":true,"maxAvailableQuantity":50,"maxAllowedQuantity":50,"breadcrumbs":[{"code":"7","name":"Băuturi","slug":"7-bauturi-si-tutun"},{"code":"704","name":"Bere","slug":"704-bere"},{"code":"70401","name":"Bere blondă","slug":"70401-bere-blonda"},{"code":"100138411","name":"Bere blondă Coșmarul lui Baiazid sticlă 0.33l","slug":"100138411-barlog-bere-blonda-cosmarul-lui-baiazid-sticla-0-33l"}],"activePromotion":{"code":"targ-bere-snacks-mar23","name":"Preț avantajos","targetQuantity":null},"saveMe":null,"labels":[{"type":"v1","items":[{"text":"Profită acum","backgroundColor":"#FF9903","textColor":"#FFFFFF"}]}],"geniusPrice":null,"geniusUnitPricePerLabel":null,"banner":{"text":"Preț avantajos","textColor":"#F95510","bgColor":"#FEF1CD","icon":null,"link":"https://www.freshful.ro/oferte/targ-bere-snacks-mar23","type":"promo","analyticsEventType":"select_promotion","analyticsEventPayload":{"promotion_id":"targ-bere-snacks-mar23","promotion_name":"Bere și snackuri pentru toate gusturile"}},"discountLabel":null,"geniusDiscountLabel":null,"badge":null},{"code":"100042425","variantCode":"100042425","name":"Bere blondă fără alcool cu aromă de lămâie doză 0.5l","slug":"100042425-ursus-cooler-bere-blonda-fara-alcool-cu-aroma-de-lamaie-doza-0-5l","unitPriceLabel":"6,98 Lei/l","brand":"Ursus Cooler","brandCode":"2502","brandFilterCode":"ursus-cooler-b2506","sku":"100042425","price":3.49,"originalPrice":3.79,"currencyCode":"RON","currency":"Lei","image":{"thumbnail":{"default":"https://cdn.freshful.ro/media/cache/sylius_shop_product_thumbnail/48/08/ea58fb326829f0b5e0b9bd38ed6e.jpg"},"large":{"default":"https://cdn.freshful.ro/media/cache/freshful_large/48/08/ea58fb326829f0b5e0b9bd38ed6e.jpg"},"extralarge":{"default":"https://cdn.freshful.ro/media/cache/sylius_shop_product_original/48/08/ea58fb326829f0b5e0b9bd38ed6e.jpg"}},"label":{"text":"-7%","backgroundColor":"#FF9903","textColor":"#FFFFFF"},"tags":[],"isAvailable":true,"maxAvailableQuantity":8,"maxAllowedQuantity":50,"breadcrumbs":[{"code":"7","name":"Băuturi","slug":"7-bauturi-si-tutun"},{"code":"704","name":"Bere","slug":"704-bere"},{"code":"70408","name":"Bere fără alcool","slug":"70408-bere-fara-alcool"},{"code":"100042425","name":"Bere blondă fără alcool cu aromă de lămâie doză 0.5l","slug":"100042425-ursus-cooler-bere-blonda-fara-alcool-cu-aroma-de-lamaie-doza-0-5l"}],"activePromotion":{"code":"oferte-bacanie-bauturi-21feb-8mar23","name":"Preț redus","targetQuantity":null},"saveMe":null,"labels":[{"type":"v1","items":[{"text":"-7%","backgroundColor":"#FF9903","textColor":"#FFFFFF"}]}],"geniusPrice":null,"geniusUnitPricePerLabel":null,"banner":{"text":"Super preț","textColor":"#FF0000","bgColor":"#FFF2EC","icon":null,"link":"https://www.freshful.ro/oferte/oferte-bacanie-bauturi-21feb-8mar23","type":"promo","analyticsEventType":"select_promotion","analyticsEventPayload":{"promotion_id":"oferte-bacanie-bauturi-21feb-8mar23","promotion_name":"Cămara cu băuturi și bunătăți"}},"discountLabel":"Economisești 7%","geniusDiscountLabel":null,"badge":null},{"code":"100042704","variantCode":"100042704","name":"Bere Weissbier sticlă 0.5l","slug":"100042704-paulaner-bere-weissbier-sticla-0-5l","unitPriceLabel":"19,98 Lei/l","brand":"Paulaner","brandCode":"562","brandFilterCode":"paulaner-b563","sku":"100042704","price":9.99,"originalPrice":11.5,"currencyCode":"RON","currency":"Lei","image":{"thumbnail":{"default":"https://cdn.freshful.ro/media/cache/sylius_shop_product_thumbnail/20/11/e28845280478e41f65c9b72458bb.jpg"},"large":{"default":"https://cdn.freshful.ro/media/cache/freshful_large/20/11/e28845280478e41f65c9b72458bb.jpg"},"extralarge":{"default":"https://cdn.freshful.ro/media/cache/sylius_shop_product_original/20/11/e28845280478e41f65c9b72458bb.jpg"}},"label":{"text":"-13%","backgroundColor":"#FF9903","textColor":"#FFFFFF"},"tags":[],"isAvailable":true,"maxAvailableQuantity":50,"maxAllowedQuantity":50,"breadcrumbs":[{"code":"7","name":"Băuturi","slug":"7-bauturi-si-tutun"},{"code":"704","name":"Bere","slug":"704-bere"},{"code":"70407","name":"Specialități internaționale","slug":"70407-bere-internationala"},{"code":"100042704","name":"Bere Weissbier sticlă 0.5l","slug":"100042704-paulaner-bere-weissbier-sticla-0-5l"}],"activePromotion":{"code":"targ-bere-snacks-mar23","name":"Preț redus","targetQuantity":null},"saveMe":null,"labels":[{"type":"v1","items":[{"text":"-13%","backgroundColor":"#FF9903","textColor":"#FFFFFF"}]}],"geniusPrice":null,"geniusUnitPricePerLabel":null,"banner":{"text":"Super preț","textColor":"#FF0000","bgColor":"#FFF2EC","icon":null,"link":"https://www.freshful.ro/oferte/targ-bere-snacks-mar23","type":"promo","analyticsEventType":"select_promotion","analyticsEventPayload":{"promotion_id":"targ-bere-snacks-mar23","promotion_name":"Bere și snackuri pentru toate gusturile"}},"discountLabel":"Economisești 13%","geniusDiscountLabel":null,"badge":null},{"code":"100094967","variantCode":"100094967","name":"Bere Hazy Ipa sticlă 0.5l","slug":"100094967-bere-grivita-bere-hazy-ipa-sticla-0-5l","unitPriceLabel":"19,98 Lei/l","brand":"Bere Grivița","brandCode":"1588","brandFilterCode":"bere-grivita-b1592","sku":"100094967","price":9.99,"originalPrice":null,"currencyCode":"RON","currency":"Lei","image":{"thumbnail":{"default":"https://cdn.freshful.ro/media/cache/sylius_shop_product_thumbnail/3c/57/285dd8e751ab7550176b059c615c.jpg"},"large":{"default":"https://cdn.freshful.ro/media/cache/freshful_large/3c/57/285dd8e751ab7550176b059c615c.jpg"},"extralarge":{"default":"https://cdn.freshful.ro/media/cache/sylius_shop_product_original/3c/57/285dd8e751ab7550176b059c615c.jpg"}},"label":{"text":"Profită acum","backgroundColor":"#FF9903","textColor":"#FFFFFF"},"tags":[{"type":"MadeInRomania","text":"Made In Romania","icon":"https://cdn.freshful.ro/assets/product_tags/made_in_romania.svg","iconPng":"https://cdn.freshful.ro/assets/product_tags/made_in_romania.png","backgroundColor":"#EDF2FD","textColor":"#1653CA"}],"isAvailable":true,"maxAvailableQuantity":29,"maxAllowedQuantity":50,"breadcrumbs":[{"code":"7","name":"Băuturi","slug":"7-bauturi-si-tutun"},{"code":"704","name":"Bere","slug":"704-bere"},{"code":"70406","name":"Bere artizanală românească","slug":"70406-bere-artizanala-romaneasca"},{"code":"100094967","name":"Bere Hazy Ipa sticlă 0.5l","slug":"100094967-bere-grivita-bere-hazy-ipa-sticla-0-5l"}],"activePromotion":{"code":"targ-bere-snacks-mar23","name":"Preț avantajos","targetQuantity":null},"saveMe":null,"labels":[{"type":"v1","items":[{"text":"Profită acum","backgroundColor":"#FF9903","textColor":"#FFFFFF"}]}],"geniusPrice":null,"geniusUnitPricePerLabel":null,"banner":{"text":"Preț avantajos","textColor":"#F95510","bgColor":"#FEF1CD","icon":null,"link":"https://www.freshful.ro/oferte/targ-bere-snacks-mar23","type":"promo","analyticsEventType":"select_promotion","analyticsEventPayload":{"promotion_id":"targ-bere-snacks-mar23","promotion_name":"Bere și snackuri pentru toate gusturile"}},"discountLabel":null,"geniusDiscountLabel":null,"badge":null}],"filters":{"countSelected":0,"items":[{"code":"promotion","name":"Promoții","countSelected":0,"values":[{"code":"targ-bere-snacks-mar23","name":"Bere și snackuri pentru toate gusturile","isSelected":false,"count":67},{"code":"oferte-bacanie-bauturi-21feb-8mar23","name":"Cămara cu băuturi și bunătăți","isSelected":false,"count":1}]},{"code":"brand","name":"Brand","countSelected":0,"values":[{"code":"albacher-b2633","name":"Albacher","isSelected":false,"count":1},{"code":"asahi-b584","name":"Asahi","isSelected":false,"count":1},{"code":"azuga-b585","name":"Azuga","isSelected":false,"count":1},{"code":"bavaria-b565","name":"Bavaria","isSelected":false,"count":3},{"code":"beck-s-b601","name":"Beck's","isSelected":false,"count":5},{"code":"bere-grivita-b1592","name":"Bere Grivița","isSelected":false,"count":3},{"code":"bergenbier-b597","name":"Bergenbier","isSelected":false,"count":8},{"code":"biere-du-boucanier-b1167","name":"Biere du Boucanier","isSelected":false,"count":2},{"code":"birra-moretti-b900","name":"Birra Moretti","isSelected":false,"count":9},{"code":"bucegi-b901","name":"Bucegi","isSelected":false,"count":1},{"code":"barlog-b2648","name":"Bârlog","isSelected":false,"count":3},{"code":"carlsberg-b712","name":"Carlsberg","isSelected":false,"count":6},{"code":"carlsberg-luma-b2695","name":"Carlsberg Luma","isSelected":false,"count":2},{"code":"carnaval-b562","name":"Carnaval","isSelected":false,"count":2},{"code":"carol-beer-b943","name":"Carol Beer","isSelected":false,"count":6},{"code":"chouffe-b1166","name":"Chouffe","isSelected":false,"count":1},{"code":"cidre-bouche-b2418","name":"Cidre Bouché","isSelected":false,"count":1},{"code":"ciuc-b902","name":"Ciuc","isSelected":false,"count":5},{"code":"ciuc-radler-b903","name":"Ciuc Radler","isSelected":false,"count":6},{"code":"ciucas-b586","name":"Ciucaș","isSelected":false,"count":5},{"code":"clandestin-b1623","name":"Clandestin","isSelected":false,"count":5},{"code":"clausthaler-b1118","name":"Clausthaler","isSelected":false,"count":5},{"code":"corona-b602","name":"Corona","isSelected":false,"count":1},{"code":"dab-b1117","name":"Dab","isSelected":false,"count":2},{"code":"dacic-b1398","name":"Dacic","isSelected":false,"count":3},{"code":"deranj-b1767","name":"Deranj","isSelected":false,"count":3},{"code":"desperados-b904","name":"Desperados","isSelected":false,"count":2},{"code":"duvel-b1163","name":"Duvel","isSelected":false,"count":2},{"code":"esb-b574","name":"ESB","isSelected":false,"count":1},{"code":"estrella-damm-b2285","name":"Estrella Damm","isSelected":false,"count":1},{"code":"franklin-sons-b2027","name":"Franklin&Sons","isSelected":false,"count":1},{"code":"franziskaner-b603","name":"Franziskaner","isSelected":false,"count":1},{"code":"fresh-0-0-b704","name":"Fresh 0.0","isSelected":false,"count":8},{"code":"golden-brau-b905","name":"Golden Brau","isSelected":false,"count":2},{"code":"golden-pride-b576","name":"Golden Pride","isSelected":false,"count":1},{"code":"goslings-b1314","name":"Goslings","isSelected":false,"count":1},{"code":"ground-zero-b1768","name":"Ground Zero","isSelected":false,"count":6},{"code":"heineken-b906","name":"Heineken","isSelected":false,"count":10},{"code":"heineken-silver-b2696","name":"Heineken Silver","isSelected":false,"count":4},{"code":"hobgoblin-b568","name":"Hobgoblin","isSelected":false,"count":3},{"code":"hoegaarden-b605","name":"Hoegaarden","isSelected":false,"count":1},{"code":"holsten-b714","name":"Holsten","isSelected":false,"count":3},{"code":"india-pale-ale-b571","name":"India Pale Ale","isSelected":false,"count":1},{"code":"kirin-b578","name":"Kirin","isSelected":false,"count":1},{"code":"kombucha-life-b1151","name":"Kombucha Life","isSelected":false,"count":6},{"code":"kozel-b2651","name":"Kozel","isSelected":false,"count":8},{"code":"kronenbourg-b716","name":"Kronenbourg","isSelected":false,"count":1},{"code":"konig-ludwig-b1434","name":"König Ludwig","isSelected":false,"count":2},{"code":"la-chouffe-b1165","name":"La Chouffe","isSelected":false,"count":1},{"code":"la-trappe-b566","name":"La Trappe","isSelected":false,"count":2},{"code":"leffe-b604","name":"Leffe","isSelected":false,"count":2},{"code":"liefmans-b1168","name":"Liefmans","isSelected":false,"count":1},{"code":"london-porter-b573","name":"London Porter","isSelected":false,"count":1},{"code":"london-pride-b572","name":"London Pride","isSelected":false,"count":1},{"code":"maredsous-b1164","name":"Maredsous","isSelected":false,"count":1},{"code":"miller-genuine-draft-b606","name":"Miller Genuine Draft","isSelected":false,"count":1},{"code":"nenea-iancu-b561","name":"Nenea Iancu","isSelected":false,"count":3},{"code":"neumarkt-b907","name":"Neumarkt","isSelected":false,"count":2},{"code":"old-mout-b908","name":"Old Mout","isSelected":false,"count":3},{"code":"olovina-b2007","name":"Olovina","isSelected":false,"count":4},{"code":"one-beer-later-b2877","name":"One Beer Later","isSelected":false,"count":5},{"code":"paulaner-b563","name":"Paulaner","isSelected":false,"count":4},{"code":"peroni-b588","name":"Peroni","isSelected":false,"count":6},{"code":"pilsner-urquell-b589","name":"Pilsner Urquell","isSelected":false,"count":2},{"code":"praha-b2601","name":"Praha","isSelected":false,"count":2},{"code":"radeberger-b1119","name":"Radeberger","isSelected":false,"count":1},{"code":"schofferhofer-b1120","name":"Schöfferhofer","isSelected":false,"count":1},{"code":"silva-strong-dark-b909","name":"Silva Strong Dark","isSelected":false,"count":3},{"code":"somersby-b721","name":"Somersby","isSelected":false,"count":4},{"code":"spitfire-b570","name":"Spitfire","isSelected":false,"count":1},{"code":"st-louis-b1169","name":"St Louis","isSelected":false,"count":2},{"code":"staropramen-b600","name":"Staropramen","isSelected":false,"count":6},{"code":"stella-artois-b599","name":"Stella Artois","isSelected":false,"count":7},{"code":"strongbow-b910","name":"Strongbow","isSelected":false,"count":7},{"code":"timisoreana-b591","name":"Timișoreana","isSelected":false,"count":10},{"code":"tuborg-b713","name":"Tuborg","isSelected":false,"count":6},{"code":"ursus-b592","name":"Ursus","isSelected":false,"count":9},{"code":"ursus-black-b2504","name":"Ursus Black","isSelected":false,"count":2},{"code":"ursus-cooler-b2506","name":"Ursus Cooler","isSelected":false,"count":10},{"code":"ursus-retro-b2507","name":"Ursus Retro","isSelected":false,"count":1},{"code":"val-de-france-b1162","name":"Val de France","isSelected":false,"count":2},{"code":"warsteiner-b1433","name":"Warsteiner","isSelected":false,"count":2},{"code":"weihenstephaner-b718","name":"Weihenstephaner","isSelected":false,"count":2},{"code":"zaganu-b789","name":"Zăganu","isSelected":false,"count":4}]},{"code":"diet_lifestyle","name":"Dietă și lifestyle","countSelected":0,"values":[{"code":"fara-gluten-a16","name":"Fara gluten","isSelected":false,"count":1},{"code":"fara-sare-a52","name":"Fara sare","isSelected":false,"count":1},{"code":"made-in-romania-a85","name":"Made In Romania","isSelected":false,"count":20},{"code":"vegan-a24","name":"Vegan","isSelected":false,"count":5}]}]},"orderBy":[{"field":"price","direction":"asc","name":"Preț crescător","isSelected":false},{"field":"price","direction":"desc","name":"Preț descrescător","isSelected":false},{"field":"popularity","direction":"desc","name":"Cele mai populare","isSelected":true},{"field":"category","direction":"asc","name":"Categorie","isSelected":false}],"metaTitle":"Bere - Gamă variată","metaDescription":"Vrei Bere? Alege dintr-o gamă variată. Comanzi simplu și ai livrare rapidă, calitate și prospețime. Hai pe Freshful.ro","metaKeywords":null,"banners":[]}}