{"type":"subcategory","payload":{"analyticsListId":"category_70408-bere-fara-alcool","analyticsListName":"Category - Bere fără alcool","name":"Bere fără alcool","slug":"70408-bere-fara-alcool","image":null,"breadcrumbs":[{"code":"7","name":"Băuturi","slug":"7-bauturi-si-tutun"},{"code":"704","name":"Bere","slug":"704-bere"},{"code":"70408","name":"Bere fără alcool","slug":"70408-bere-fara-alcool"}],"slots":[],"page":1,"limit":10,"pages":6,"count":54,"siblings":[{"name":"Băuturi necarbogazoase și siropuri","slug":"701-bauturi-necarbogazoase-si-siropuri","selected":false},{"name":"Apă","slug":"702-apa","selected":false},{"name":"Băuturi carbogazoase","slug":"703-bauturi-carbogazoase","selected":false},{"name":"Bere","slug":"704-bere","selected":true},{"name":"Vinuri","slug":"705-vinuri","selected":false},{"name":"Băuturi spirtoase","slug":"706-bauturi-spirtoase","selected":false},{"name":"Tutun","slug":"707-tutun","selected":false}],"children":[{"name":"Toate produsele","slug":"704-bere","selected":false},{"name":"Bere blondă","slug":"70401-bere-blonda","selected":false},{"name":"Bere albă","slug":"70402-bere-alba","selected":false},{"name":"Bere roșie și brună","slug":"70403-bere-rosie-si-neagra","selected":false},{"name":"Bere radler și cu arome","slug":"70404-bere-radler-si-cu-arome","selected":false},{"name":"Cidru","slug":"70405-cidru","selected":false},{"name":"Bere artizanală românească","slug":"70406-bere-artizanala-romaneasca","selected":false},{"name":"Specialități internaționale","slug":"70407-bere-internationala","selected":false},{"name":"Bere fără alcool","slug":"70408-bere-fara-alcool","selected":true}],"products":[{"code":"100042425","variantCode":"100042425","name":"Bere blondă fără alcool cu aromă de lămâie doză 0.5l","slug":"100042425-ursus-cooler-bere-blonda-fara-alcool-cu-aroma-de-lamaie-doza-0-5l","unitPriceLabel":"6,98 Lei/l","brand":"Ursus Cooler","brandCode":"2502","brandFilterCode":"ursus-cooler-b2506","sku":"100042425","price":3.49,"originalPrice":3.79,"currencyCode":"RON","currency":"Lei","image":{"thumbnail":{"default":"https://cdn.freshful.ro/media/cache/sylius_shop_product_thumbnail/48/08/ea58fb326829f0b5e0b9bd38ed6e.jpg"},"large":{"default":"https://cdn.freshful.ro/media/cache/freshful_large/48/08/ea58fb326829f0b5e0b9bd38ed6e.jpg"},"extralarge":{"default":"https://cdn.freshful.ro/media/cache/sylius_shop_product_original/48/08/ea58fb326829f0b5e0b9bd38ed6e.jpg"}},"label":{"text":"-7%","backgroundColor":"#FF9903","textColor":"#FFFFFF"},"tags":[],"isAvailable":true,"maxAvailableQuantity":8,"maxAllowedQuantity":50,"breadcrumbs":[{"code":"7","name":"Băuturi","slug":"7-bauturi-si-tutun"},{"code":"704","name":"Bere","slug":"704-bere"},{"code":"70408","name":"Bere fără alcool","slug":"70408-bere-fara-alcool"},{"code":"100042425","name":"Bere blondă fără alcool cu aromă de lămâie doză 0.5l","slug":"100042425-ursus-cooler-bere-blonda-fara-alcool-cu-aroma-de-lamaie-doza-0-5l"}],"activePromotion":{"code":"oferte-bacanie-bauturi-21feb-8mar23","name":"Preț redus","targetQuantity":null},"saveMe":null,"labels":[{"type":"v1","items":[{"text":"-7%","backgroundColor":"#FF9903","textColor":"#FFFFFF"}]}],"geniusPrice":null,"geniusUnitPricePerLabel":null,"banner":{"text":"Super preț","textColor":"#FF0000","bgColor":"#FFF2EC","icon":null,"link":"https://www.freshful.ro/oferte/oferte-bacanie-bauturi-21feb-8mar23","type":"promo","analyticsEventType":"select_promotion","analyticsEventPayload":{"promotion_id":"oferte-bacanie-bauturi-21feb-8mar23","promotion_name":"Cămara cu băuturi și bunătăți"}},"discountLabel":"Economisești 7%","geniusDiscountLabel":null,"badge":null},{"code":"100071691","variantCode":"100071691","name":"Bere blondă premium nefiltrată fără alcool sticlă 0.33l","slug":"100071691-clausthaler-bere-blonda-premium-nefiltrata-fara-alcool-sticla-0-33l","unitPriceLabel":"16,03 Lei/l","brand":"Clausthaler","brandCode":"1117","brandFilterCode":"clausthaler-b1118","sku":"100071691","price":5.29,"originalPrice":null,"currencyCode":"RON","currency":"Lei","image":{"thumbnail":{"default":"https://cdn.freshful.ro/media/cache/sylius_shop_product_thumbnail/ae/50/a2a7c0bcec2039821c5bc91d7b48.jpg"},"large":{"default":"https://cdn.freshful.ro/media/cache/freshful_large/ae/50/a2a7c0bcec2039821c5bc91d7b48.jpg"},"extralarge":{"default":"https://cdn.freshful.ro/media/cache/sylius_shop_product_original/ae/50/a2a7c0bcec2039821c5bc91d7b48.jpg"}},"label":null,"tags":[],"isAvailable":true,"maxAvailableQuantity":50,"maxAllowedQuantity":50,"breadcrumbs":[{"code":"7","name":"Băuturi","slug":"7-bauturi-si-tutun"},{"code":"704","name":"Bere","slug":"704-bere"},{"code":"70408","name":"Bere fără alcool","slug":"70408-bere-fara-alcool"},{"code":"100071691","name":"Bere blondă premium nefiltrată fără alcool sticlă 0.33l","slug":"100071691-clausthaler-bere-blonda-premium-nefiltrata-fara-alcool-sticla-0-33l"}],"activePromotion":null,"saveMe":null,"labels":[],"geniusPrice":null,"geniusUnitPricePerLabel":null,"banner":null,"discountLabel":null,"geniusDiscountLabel":null,"badge":null},{"code":"100120545","variantCode":"9028800660447","name":"Bere blondă fără alcool sticlă 0.33l","slug":"100120545-heineken-bere-blonda-fara-alcool-sticla-0-33l","unitPriceLabel":"18,15 Lei/l","brand":"Heineken","brandCode":"905","brandFilterCode":"heineken-b906","sku":"100120545","price":5.99,"originalPrice":null,"currencyCode":"RON","currency":"Lei","image":{"thumbnail":{"default":"https://cdn.freshful.ro/media/cache/sylius_shop_product_thumbnail/df/17/88923d36de9fc47dbff1e194a08f.jpg"},"large":{"default":"https://cdn.freshful.ro/media/cache/freshful_large/df/17/88923d36de9fc47dbff1e194a08f.jpg"},"extralarge":{"default":"https://cdn.freshful.ro/media/cache/sylius_shop_product_original/df/17/88923d36de9fc47dbff1e194a08f.jpg"}},"label":null,"tags":[],"isAvailable":true,"maxAvailableQuantity":50,"maxAllowedQuantity":50,"breadcrumbs":[{"code":"7","name":"Băuturi","slug":"7-bauturi-si-tutun"},{"code":"704","name":"Bere","slug":"704-bere"},{"code":"70408","name":"Bere fără alcool","slug":"70408-bere-fara-alcool"},{"code":"100120545","name":"Bere blondă fără alcool sticlă 0.33l","slug":"100120545-heineken-bere-blonda-fara-alcool-sticla-0-33l"}],"activePromotion":null,"saveMe":null,"labels":[],"geniusPrice":null,"geniusUnitPricePerLabel":null,"banner":null,"discountLabel":null,"geniusDiscountLabel":null,"badge":null},{"code":"100141444","variantCode":"100141444","name":"Bere blondă fără alcool doză 4x0.5l (3+1)","slug":"100141444-peroni-bere-blonda-fara-alcool-doza-4x0-5l-3-1","unitPriceLabel":"7,13 Lei/l","brand":"Peroni","brandCode":"587","brandFilterCode":"peroni-b588","sku":"100141444","price":14.97,"originalPrice":null,"currencyCode":"RON","currency":"Lei","image":{"thumbnail":{"default":"https://cdn.freshful.ro/media/cache/sylius_shop_product_thumbnail/ee/83/4bcd1f232265b497cdc8c7ed48ff.jpg"},"large":{"default":"https://cdn.freshful.ro/media/cache/freshful_large/ee/83/4bcd1f232265b497cdc8c7ed48ff.jpg"},"extralarge":{"default":"https://cdn.freshful.ro/media/cache/sylius_shop_product_original/ee/83/4bcd1f232265b497cdc8c7ed48ff.jpg"}},"label":null,"tags":[],"isAvailable":true,"maxAvailableQuantity":30,"maxAllowedQuantity":50,"breadcrumbs":[{"code":"7","name":"Băuturi","slug":"7-bauturi-si-tutun"},{"code":"704","name":"Bere","slug":"704-bere"},{"code":"70408","name":"Bere fără alcool","slug":"70408-bere-fara-alcool"},{"code":"100141444","name":"Bere blondă fără alcool doză 4x0.5l (3+1)","slug":"100141444-peroni-bere-blonda-fara-alcool-doza-4x0-5l-3-1"}],"activePromotion":null,"saveMe":null,"labels":[],"geniusPrice":null,"geniusUnitPricePerLabel":null,"banner":null,"discountLabel":null,"geniusDiscountLabel":null,"badge":null},{"code":"100120522","variantCode":"9028800640982","name":"Bere blondă fără alcool 6x0.5l (5+1)","slug":"100120522-heineken-bere-blonda-fara-alcool-6x0-5l-5-1","unitPriceLabel":"8,98 Lei/l","brand":"Heineken","brandCode":"905","brandFilterCode":"heineken-b906","sku":"100120522","price":26.95,"originalPrice":null,"currencyCode":"RON","currency":"Lei","image":{"thumbnail":{"default":"https://cdn.freshful.ro/media/cache/sylius_shop_product_thumbnail/45/9f/6496a62d486d450fa1ec620c7448.jpg"},"large":{"default":"https://cdn.freshful.ro/media/cache/freshful_large/45/9f/6496a62d486d450fa1ec620c7448.jpg"},"extralarge":{"default":"https://cdn.freshful.ro/media/cache/sylius_shop_product_original/45/9f/6496a62d486d450fa1ec620c7448.jpg"}},"label":null,"tags":[],"isAvailable":true,"maxAvailableQuantity":50,"maxAllowedQuantity":50,"breadcrumbs":[{"code":"7","name":"Băuturi","slug":"7-bauturi-si-tutun"},{"code":"704","name":"Bere","slug":"704-bere"},{"code":"70408","name":"Bere fără alcool","slug":"70408-bere-fara-alcool"},{"code":"100120522","name":"Bere blondă fără alcool 6x0.5l (5+1)","slug":"100120522-heineken-bere-blonda-fara-alcool-6x0-5l-5-1"}],"activePromotion":null,"saveMe":null,"labels":[],"geniusPrice":null,"geniusUnitPricePerLabel":null,"banner":null,"discountLabel":null,"geniusDiscountLabel":null,"badge":null},{"code":"100042426","variantCode":"100042426","name":"Bere blondă fără alcool cu aromă de lămâie doză 4x0.5l ","slug":"100042426-ursus-cooler-bere-blonda-fara-alcool-cu-aroma-de-lamaie-doza-4x0-5l","unitPriceLabel":"6,98 Lei/l","brand":"Ursus Cooler","brandCode":"2502","brandFilterCode":"ursus-cooler-b2506","sku":"100042426","price":13.96,"originalPrice":null,"currencyCode":"RON","currency":"Lei","image":{"thumbnail":{"default":"https://cdn.freshful.ro/media/cache/sylius_shop_product_thumbnail/22/99/55fec1e445bdb40668fc2e2f1b76.jpg"},"large":{"default":"https://cdn.freshful.ro/media/cache/freshful_large/22/99/55fec1e445bdb40668fc2e2f1b76.jpg"},"extralarge":{"default":"https://cdn.freshful.ro/media/cache/sylius_shop_product_original/22/99/55fec1e445bdb40668fc2e2f1b76.jpg"}},"label":null,"tags":[],"isAvailable":true,"maxAvailableQuantity":50,"maxAllowedQuantity":50,"breadcrumbs":[{"code":"7","name":"Băuturi","slug":"7-bauturi-si-tutun"},{"code":"704","name":"Bere","slug":"704-bere"},{"code":"70408","name":"Bere fără alcool","slug":"70408-bere-fara-alcool"},{"code":"100042426","name":"Bere blondă fără alcool cu aromă de lămâie doză 4x0.5l ","slug":"100042426-ursus-cooler-bere-blonda-fara-alcool-cu-aroma-de-lamaie-doza-4x0-5l"}],"activePromotion":null,"saveMe":null,"labels":[],"geniusPrice":null,"geniusUnitPricePerLabel":null,"banner":null,"discountLabel":null,"geniusDiscountLabel":null,"badge":null},{"code":"100071688","variantCode":"100071688","name":"Bere fără alcool sticlă 0.33l","slug":"100071688-clausthaler-bere-fara-alcool-sticla-0-33l","unitPriceLabel":"3,7 Lei/l","brand":"Clausthaler","brandCode":"1117","brandFilterCode":"clausthaler-b1118","sku":"100071688","price":4.89,"originalPrice":null,"currencyCode":"RON","currency":"Lei","image":{"thumbnail":{"default":"https://cdn.freshful.ro/media/cache/sylius_shop_product_thumbnail/41/7c/e95df407d425e639be28d0e3cf11.jpg"},"large":{"default":"https://cdn.freshful.ro/media/cache/freshful_large/41/7c/e95df407d425e639be28d0e3cf11.jpg"},"extralarge":{"default":"https://cdn.freshful.ro/media/cache/sylius_shop_product_original/41/7c/e95df407d425e639be28d0e3cf11.jpg"}},"label":null,"tags":[],"isAvailable":true,"maxAvailableQuantity":50,"maxAllowedQuantity":50,"breadcrumbs":[{"code":"7","name":"Băuturi","slug":"7-bauturi-si-tutun"},{"code":"704","name":"Bere","slug":"704-bere"},{"code":"70408","name":"Bere fără alcool","slug":"70408-bere-fara-alcool"},{"code":"100071688","name":"Bere fără alcool sticlă 0.33l","slug":"100071688-clausthaler-bere-fara-alcool-sticla-0-33l"}],"activePromotion":null,"saveMe":null,"labels":[],"geniusPrice":null,"geniusUnitPricePerLabel":null,"banner":null,"discountLabel":null,"geniusDiscountLabel":null,"badge":null},{"code":"100142143","variantCode":"100142143","name":"Bere blondă fără alcool sticlă 6x0.33l (5+1)","slug":"100142143-birra-moretti-bere-blonda-fara-alcool-sticla-6x0-33l-5-1","unitPriceLabel":"38,89 Lei/l","brand":"Birra Moretti","brandCode":"899","brandFilterCode":"birra-moretti-b900","sku":"100142143","price":19.95,"originalPrice":null,"currencyCode":"RON","currency":"Lei","image":{"thumbnail":{"default":"https://cdn.freshful.ro/media/cache/sylius_shop_product_thumbnail/0d/b2/d71e223df81d94c9301beec27da8.jpg"},"large":{"default":"https://cdn.freshful.ro/media/cache/freshful_large/0d/b2/d71e223df81d94c9301beec27da8.jpg"},"extralarge":{"default":"https://cdn.freshful.ro/media/cache/sylius_shop_product_original/0d/b2/d71e223df81d94c9301beec27da8.jpg"}},"label":null,"tags":[],"isAvailable":true,"maxAvailableQuantity":48,"maxAllowedQuantity":50,"breadcrumbs":[{"code":"7","name":"Băuturi","slug":"7-bauturi-si-tutun"},{"code":"704","name":"Bere","slug":"704-bere"},{"code":"70408","name":"Bere fără alcool","slug":"70408-bere-fara-alcool"},{"code":"100142143","name":"Bere blondă fără alcool sticlă 6x0.33l (5+1)","slug":"100142143-birra-moretti-bere-blonda-fara-alcool-sticla-6x0-33l-5-1"}],"activePromotion":null,"saveMe":null,"labels":[],"geniusPrice":null,"geniusUnitPricePerLabel":null,"banner":null,"discountLabel":null,"geniusDiscountLabel":null,"badge":null},{"code":"100041367","variantCode":"5942070002056","name":"Bere blondă fără alcool sticlă 0.33l","slug":"100041367-stella-artois-bere-blonda-fara-alcool-sticla-0-33l","unitPriceLabel":"18,15 Lei/l","brand":"Stella Artois","brandCode":"598","brandFilterCode":"stella-artois-b599","sku":"100041367","price":5.99,"originalPrice":null,"currencyCode":"RON","currency":"Lei","image":{"thumbnail":{"default":"https://cdn.freshful.ro/media/cache/sylius_shop_product_thumbnail/59/45/82e30c9e3951e19ca20cc80048c8.jpg"},"large":{"default":"https://cdn.freshful.ro/media/cache/freshful_large/59/45/82e30c9e3951e19ca20cc80048c8.jpg"},"extralarge":{"default":"https://cdn.freshful.ro/media/cache/sylius_shop_product_original/59/45/82e30c9e3951e19ca20cc80048c8.jpg"}},"label":null,"tags":[],"isAvailable":true,"maxAvailableQuantity":10,"maxAllowedQuantity":50,"breadcrumbs":[{"code":"7","name":"Băuturi","slug":"7-bauturi-si-tutun"},{"code":"704","name":"Bere","slug":"704-bere"},{"code":"70408","name":"Bere fără alcool","slug":"70408-bere-fara-alcool"},{"code":"100041367","name":"Bere blondă fără alcool sticlă 0.33l","slug":"100041367-stella-artois-bere-blonda-fara-alcool-sticla-0-33l"}],"activePromotion":null,"saveMe":null,"labels":[],"geniusPrice":null,"geniusUnitPricePerLabel":null,"banner":null,"discountLabel":null,"geniusDiscountLabel":null,"badge":null},{"code":"100042433","variantCode":"100042433","name":"Bere blondă fără alcool sticlă 0.33l","slug":"100042433-ursus-bere-blonda-fara-alcool-sticla-0-33l","unitPriceLabel":"9,55 Lei/l","brand":"Ursus","brandCode":"591","brandFilterCode":"ursus-b592","sku":"100042433","price":3.15,"originalPrice":null,"currencyCode":"RON","currency":"Lei","image":{"thumbnail":{"default":"https://cdn.freshful.ro/media/cache/sylius_shop_product_thumbnail/5f/3b/7208bdbb97df9b86b30fbf5a2458.jpg"},"large":{"default":"https://cdn.freshful.ro/media/cache/freshful_large/5f/3b/7208bdbb97df9b86b30fbf5a2458.jpg"},"extralarge":{"default":"https://cdn.freshful.ro/media/cache/sylius_shop_product_original/5f/3b/7208bdbb97df9b86b30fbf5a2458.jpg"}},"label":null,"tags":[],"isAvailable":true,"maxAvailableQuantity":50,"maxAllowedQuantity":50,"breadcrumbs":[{"code":"7","name":"Băuturi","slug":"7-bauturi-si-tutun"},{"code":"704","name":"Bere","slug":"704-bere"},{"code":"70408","name":"Bere fără alcool","slug":"70408-bere-fara-alcool"},{"code":"100042433","name":"Bere blondă fără alcool sticlă 0.33l","slug":"100042433-ursus-bere-blonda-fara-alcool-sticla-0-33l"}],"activePromotion":null,"saveMe":null,"labels":[],"geniusPrice":null,"geniusUnitPricePerLabel":null,"banner":null,"discountLabel":null,"geniusDiscountLabel":null,"badge":null}],"filters":{"countSelected":0,"items":[{"code":"promotion","name":"Promoții","countSelected":0,"values":[{"code":"oferte-bacanie-bauturi-21feb-8mar23","name":"Cămara cu băuturi și bunătăți","isSelected":false,"count":1}]},{"code":"brand","name":"Brand","countSelected":0,"values":[{"code":"bavaria-b565","name":"Bavaria","isSelected":false,"count":2},{"code":"bergenbier-b597","name":"Bergenbier","isSelected":false,"count":4},{"code":"birra-moretti-b900","name":"Birra Moretti","isSelected":false,"count":2},{"code":"carlsberg-b712","name":"Carlsberg","isSelected":false,"count":1},{"code":"ciuc-radler-b903","name":"Ciuc Radler","isSelected":false,"count":5},{"code":"clausthaler-b1118","name":"Clausthaler","isSelected":false,"count":5},{"code":"franklin-sons-b2027","name":"Franklin&Sons","isSelected":false,"count":1},{"code":"fresh-0-0-b704","name":"Fresh 0.0","isSelected":false,"count":8},{"code":"goslings-b1314","name":"Goslings","isSelected":false,"count":1},{"code":"heineken-b906","name":"Heineken","isSelected":false,"count":3},{"code":"nenea-iancu-b561","name":"Nenea Iancu","isSelected":false,"count":1},{"code":"peroni-b588","name":"Peroni","isSelected":false,"count":3},{"code":"stella-artois-b599","name":"Stella Artois","isSelected":false,"count":1},{"code":"timisoreana-b591","name":"Timișoreana","isSelected":false,"count":3},{"code":"tuborg-b713","name":"Tuborg","isSelected":false,"count":1},{"code":"ursus-b592","name":"Ursus","isSelected":false,"count":3},{"code":"ursus-cooler-b2506","name":"Ursus Cooler","isSelected":false,"count":10}]}]},"orderBy":[{"field":"price","direction":"asc","name":"Preț crescător","isSelected":false},{"field":"price","direction":"desc","name":"Preț descrescător","isSelected":false},{"field":"popularity","direction":"desc","name":"Cele mai populare","isSelected":true},{"field":"category","direction":"asc","name":"Categorie","isSelected":false}],"metaTitle":"Bere fără alcool - Gamă variată","metaDescription":"Vrei Bere fără alcool? Alege dintr-o gamă variată. Comanzi simplu și ai livrare rapidă, calitate și prospețime. Hai pe Freshful.ro","metaKeywords":null,"banners":[]}}