{"type":"subcategory","payload":{"analyticsListId":"category_70405-cidru","analyticsListName":"Category - Cidru","name":"Cidru","slug":"70405-cidru","image":null,"breadcrumbs":[{"code":"7","name":"Băuturi","slug":"7-bauturi-si-tutun"},{"code":"704","name":"Bere","slug":"704-bere"},{"code":"70405","name":"Cidru","slug":"70405-cidru"}],"slots":[],"page":1,"limit":10,"pages":3,"count":26,"siblings":[{"name":"Băuturi necarbogazoase și siropuri","slug":"701-bauturi-necarbogazoase-si-siropuri","selected":false},{"name":"Apă","slug":"702-apa","selected":false},{"name":"Băuturi carbogazoase","slug":"703-bauturi-carbogazoase","selected":false},{"name":"Bere","slug":"704-bere","selected":true},{"name":"Vinuri","slug":"705-vinuri","selected":false},{"name":"Băuturi spirtoase","slug":"706-bauturi-spirtoase","selected":false},{"name":"Tutun","slug":"707-tutun","selected":false}],"children":[{"name":"Toate produsele","slug":"704-bere","selected":false},{"name":"Bere blondă","slug":"70401-bere-blonda","selected":false},{"name":"Bere albă","slug":"70402-bere-alba","selected":false},{"name":"Bere roșie și brună","slug":"70403-bere-rosie-si-neagra","selected":false},{"name":"Bere radler și cu arome","slug":"70404-bere-radler-si-cu-arome","selected":false},{"name":"Cidru","slug":"70405-cidru","selected":true},{"name":"Bere artizanală românească","slug":"70406-bere-artizanala-romaneasca","selected":false},{"name":"Specialități internaționale","slug":"70407-bere-internationala","selected":false},{"name":"Bere fără alcool","slug":"70408-bere-fara-alcool","selected":false}],"products":[{"code":"100068844","variantCode":"100068844","name":"Cidru natural cu mere sticlă 0.33l","slug":"100068844-val-de-france-cidru-natural-cu-mere-sticla-0-33l","unitPriceLabel":"24,21 Lei/l","brand":"Val de France","brandCode":"1161","brandFilterCode":"val-de-france-b1162","sku":"100068844","price":7.99,"originalPrice":null,"currencyCode":"RON","currency":"Lei","image":{"thumbnail":{"default":"https://cdn.freshful.ro/media/cache/sylius_shop_product_thumbnail/68/33/d440ec3ba94e42e6bd9ed5452c00.jpg"},"large":{"default":"https://cdn.freshful.ro/media/cache/freshful_large/68/33/d440ec3ba94e42e6bd9ed5452c00.jpg"},"extralarge":{"default":"https://cdn.freshful.ro/media/cache/sylius_shop_product_original/68/33/d440ec3ba94e42e6bd9ed5452c00.jpg"}},"label":{"text":"Profită acum","backgroundColor":"#FF9903","textColor":"#FFFFFF"},"tags":[],"isAvailable":true,"maxAvailableQuantity":47,"maxAllowedQuantity":50,"breadcrumbs":[{"code":"7","name":"Băuturi","slug":"7-bauturi-si-tutun"},{"code":"704","name":"Bere","slug":"704-bere"},{"code":"70405","name":"Cidru","slug":"70405-cidru"},{"code":"100068844","name":"Cidru natural cu mere sticlă 0.33l","slug":"100068844-val-de-france-cidru-natural-cu-mere-sticla-0-33l"}],"activePromotion":{"code":"targ-bere-snacks-mar23","name":"Preț avantajos","targetQuantity":null},"saveMe":null,"labels":[{"type":"v1","items":[{"text":"Profită acum","backgroundColor":"#FF9903","textColor":"#FFFFFF"}]}],"geniusPrice":null,"geniusUnitPricePerLabel":null,"banner":{"text":"Preț avantajos","textColor":"#F95510","bgColor":"#FEF1CD","icon":null,"link":"https://www.freshful.ro/oferte/targ-bere-snacks-mar23","type":"promo","analyticsEventType":"select_promotion","analyticsEventPayload":{"promotion_id":"targ-bere-snacks-mar23","promotion_name":"Bere și snackuri pentru toate gusturile"}},"discountLabel":null,"geniusDiscountLabel":null,"badge":null},{"code":"100068843","variantCode":"100068843","name":"Cidru natural cu mere și pere sticlă 0.33l","slug":"100068843-val-de-france-cidru-natural-cu-mere-si-pere-sticla-0-33l","unitPriceLabel":"30,27 Lei/l","brand":"Val de France","brandCode":"1161","brandFilterCode":"val-de-france-b1162","sku":"100068843","price":9.99,"originalPrice":null,"currencyCode":"RON","currency":"Lei","image":{"thumbnail":{"default":"https://cdn.freshful.ro/media/cache/sylius_shop_product_thumbnail/9b/94/bdefb243f1c3375c1939a8eaebcf.jpg"},"large":{"default":"https://cdn.freshful.ro/media/cache/freshful_large/9b/94/bdefb243f1c3375c1939a8eaebcf.jpg"},"extralarge":{"default":"https://cdn.freshful.ro/media/cache/sylius_shop_product_original/9b/94/bdefb243f1c3375c1939a8eaebcf.jpg"}},"label":{"text":"Profită acum","backgroundColor":"#FF9903","textColor":"#FFFFFF"},"tags":[],"isAvailable":true,"maxAvailableQuantity":5,"maxAllowedQuantity":50,"breadcrumbs":[{"code":"7","name":"Băuturi","slug":"7-bauturi-si-tutun"},{"code":"704","name":"Bere","slug":"704-bere"},{"code":"70405","name":"Cidru","slug":"70405-cidru"},{"code":"100068843","name":"Cidru natural cu mere și pere sticlă 0.33l","slug":"100068843-val-de-france-cidru-natural-cu-mere-si-pere-sticla-0-33l"}],"activePromotion":{"code":"targ-bere-snacks-mar23","name":"Preț avantajos","targetQuantity":null},"saveMe":null,"labels":[{"type":"v1","items":[{"text":"Profită acum","backgroundColor":"#FF9903","textColor":"#FFFFFF"}]}],"geniusPrice":null,"geniusUnitPricePerLabel":null,"banner":{"text":"Preț avantajos","textColor":"#F95510","bgColor":"#FEF1CD","icon":null,"link":"https://www.freshful.ro/oferte/targ-bere-snacks-mar23","type":"promo","analyticsEventType":"select_promotion","analyticsEventPayload":{"promotion_id":"targ-bere-snacks-mar23","promotion_name":"Bere și snackuri pentru toate gusturile"}},"discountLabel":null,"geniusDiscountLabel":null,"badge":null},{"code":"100139798","variantCode":"100139798","name":"Cidru fructe de pădure doză 0.5l","slug":"100139798-strongbow-cidru-fructe-de-padure-doza-0-5l","unitPriceLabel":"11,98 Lei/l","brand":"Strongbow","brandCode":"909","brandFilterCode":"strongbow-b910","sku":"100139798","price":5.99,"originalPrice":null,"currencyCode":"RON","currency":"Lei","image":{"thumbnail":{"default":"https://cdn.freshful.ro/media/cache/sylius_shop_product_thumbnail/42/89/aedc7f4eb04a5e3a4c2d8f96022f.jpg"},"large":{"default":"https://cdn.freshful.ro/media/cache/freshful_large/42/89/aedc7f4eb04a5e3a4c2d8f96022f.jpg"},"extralarge":{"default":"https://cdn.freshful.ro/media/cache/sylius_shop_product_original/42/89/aedc7f4eb04a5e3a4c2d8f96022f.jpg"}},"label":null,"tags":[],"isAvailable":true,"maxAvailableQuantity":50,"maxAllowedQuantity":50,"breadcrumbs":[{"code":"7","name":"Băuturi","slug":"7-bauturi-si-tutun"},{"code":"704","name":"Bere","slug":"704-bere"},{"code":"70405","name":"Cidru","slug":"70405-cidru"},{"code":"100139798","name":"Cidru fructe de pădure doză 0.5l","slug":"100139798-strongbow-cidru-fructe-de-padure-doza-0-5l"}],"activePromotion":null,"saveMe":null,"labels":[],"geniusPrice":null,"geniusUnitPricePerLabel":null,"banner":null,"discountLabel":null,"geniusDiscountLabel":null,"badge":null},{"code":"100139797","variantCode":"100139797","name":"Cidru coacăze negre doză 0.5l","slug":"100139797-strongbow-cidru-coacaze-negre-doza-0-5l","unitPriceLabel":"11,98 Lei/l","brand":"Strongbow","brandCode":"909","brandFilterCode":"strongbow-b910","sku":"100139797","price":5.99,"originalPrice":null,"currencyCode":"RON","currency":"Lei","image":{"thumbnail":{"default":"https://cdn.freshful.ro/media/cache/sylius_shop_product_thumbnail/6c/e6/e890d1ec0a1d692ed3b431c1eb19.jpg"},"large":{"default":"https://cdn.freshful.ro/media/cache/freshful_large/6c/e6/e890d1ec0a1d692ed3b431c1eb19.jpg"},"extralarge":{"default":"https://cdn.freshful.ro/media/cache/sylius_shop_product_original/6c/e6/e890d1ec0a1d692ed3b431c1eb19.jpg"}},"label":null,"tags":[],"isAvailable":true,"maxAvailableQuantity":50,"maxAllowedQuantity":50,"breadcrumbs":[{"code":"7","name":"Băuturi","slug":"7-bauturi-si-tutun"},{"code":"704","name":"Bere","slug":"704-bere"},{"code":"70405","name":"Cidru","slug":"70405-cidru"},{"code":"100139797","name":"Cidru coacăze negre doză 0.5l","slug":"100139797-strongbow-cidru-coacaze-negre-doza-0-5l"}],"activePromotion":null,"saveMe":null,"labels":[],"geniusPrice":null,"geniusUnitPricePerLabel":null,"banner":null,"discountLabel":null,"geniusDiscountLabel":null,"badge":null},{"code":"100120568","variantCode":"8586000982741","name":"Cidru fructe de pădure sticlă 0.33l","slug":"100120568-strongbow-cidru-fructe-de-padure-sticla-0-33l","unitPriceLabel":"14,36 Lei/l","brand":"Strongbow","brandCode":"909","brandFilterCode":"strongbow-b910","sku":"100120568","price":4.74,"originalPrice":null,"currencyCode":"RON","currency":"Lei","image":{"thumbnail":{"default":"https://cdn.freshful.ro/media/cache/sylius_shop_product_thumbnail/8b/12/cf25f676e333e8dba295eb5f8a6d.jpg"},"large":{"default":"https://cdn.freshful.ro/media/cache/freshful_large/8b/12/cf25f676e333e8dba295eb5f8a6d.jpg"},"extralarge":{"default":"https://cdn.freshful.ro/media/cache/sylius_shop_product_original/8b/12/cf25f676e333e8dba295eb5f8a6d.jpg"}},"label":null,"tags":[],"isAvailable":true,"maxAvailableQuantity":50,"maxAllowedQuantity":50,"breadcrumbs":[{"code":"7","name":"Băuturi","slug":"7-bauturi-si-tutun"},{"code":"704","name":"Bere","slug":"704-bere"},{"code":"70405","name":"Cidru","slug":"70405-cidru"},{"code":"100120568","name":"Cidru fructe de pădure sticlă 0.33l","slug":"100120568-strongbow-cidru-fructe-de-padure-sticla-0-33l"}],"activePromotion":null,"saveMe":null,"labels":[],"geniusPrice":null,"geniusUnitPricePerLabel":null,"banner":null,"discountLabel":null,"geniusDiscountLabel":null,"badge":null},{"code":"100120569","variantCode":"3800022403103","name":"Cidru pere sticlă 0.33l","slug":"100120569-strongbow-cidru-pere-sticla-0-33l","unitPriceLabel":"15,12 Lei/l","brand":"Strongbow","brandCode":"909","brandFilterCode":"strongbow-b910","sku":"100120569","price":4.99,"originalPrice":null,"currencyCode":"RON","currency":"Lei","image":{"thumbnail":{"default":"https://cdn.freshful.ro/media/cache/sylius_shop_product_thumbnail/89/31/544b54ed609a241038d9b1a86f6a.jpg"},"large":{"default":"https://cdn.freshful.ro/media/cache/freshful_large/89/31/544b54ed609a241038d9b1a86f6a.jpg"},"extralarge":{"default":"https://cdn.freshful.ro/media/cache/sylius_shop_product_original/89/31/544b54ed609a241038d9b1a86f6a.jpg"}},"label":null,"tags":[],"isAvailable":true,"maxAvailableQuantity":50,"maxAllowedQuantity":50,"breadcrumbs":[{"code":"7","name":"Băuturi","slug":"7-bauturi-si-tutun"},{"code":"704","name":"Bere","slug":"704-bere"},{"code":"70405","name":"Cidru","slug":"70405-cidru"},{"code":"100120569","name":"Cidru pere sticlă 0.33l","slug":"100120569-strongbow-cidru-pere-sticla-0-33l"}],"activePromotion":null,"saveMe":null,"labels":[],"geniusPrice":null,"geniusUnitPricePerLabel":null,"banner":null,"discountLabel":null,"geniusDiscountLabel":null,"badge":null},{"code":"100120567","variantCode":"8586000982680","name":"Cidru Gold sticlă 0.33l","slug":"100120567-strongbow-cidru-gold-sticla-0-33l","unitPriceLabel":"15,12 Lei/l","brand":"Strongbow","brandCode":"909","brandFilterCode":"strongbow-b910","sku":"100120567","price":4.99,"originalPrice":null,"currencyCode":"RON","currency":"Lei","image":{"thumbnail":{"default":"https://cdn.freshful.ro/media/cache/sylius_shop_product_thumbnail/17/a9/04f512bcef1a9a43ae60a550e2d8.jpg"},"large":{"default":"https://cdn.freshful.ro/media/cache/freshful_large/17/a9/04f512bcef1a9a43ae60a550e2d8.jpg"},"extralarge":{"default":"https://cdn.freshful.ro/media/cache/sylius_shop_product_original/17/a9/04f512bcef1a9a43ae60a550e2d8.jpg"}},"label":null,"tags":[],"isAvailable":true,"maxAvailableQuantity":50,"maxAllowedQuantity":50,"breadcrumbs":[{"code":"7","name":"Băuturi","slug":"7-bauturi-si-tutun"},{"code":"704","name":"Bere","slug":"704-bere"},{"code":"70405","name":"Cidru","slug":"70405-cidru"},{"code":"100120567","name":"Cidru Gold sticlă 0.33l","slug":"100120567-strongbow-cidru-gold-sticla-0-33l"}],"activePromotion":null,"saveMe":null,"labels":[],"geniusPrice":null,"geniusUnitPricePerLabel":null,"banner":null,"discountLabel":null,"geniusDiscountLabel":null,"badge":null},{"code":"100139796","variantCode":"100139796","name":"Cidru coacăze negre sticlă 0.33l","slug":"100139796-strongbow-cidru-coacaze-negre-sticla-0-33l","unitPriceLabel":"17,12 Lei/l","brand":"Strongbow","brandCode":"909","brandFilterCode":"strongbow-b910","sku":"100139796","price":5.65,"originalPrice":null,"currencyCode":"RON","currency":"Lei","image":{"thumbnail":{"default":"https://cdn.freshful.ro/media/cache/sylius_shop_product_thumbnail/c8/fe/4e4e5978141b6312ea7cdb4001a4.jpg"},"large":{"default":"https://cdn.freshful.ro/media/cache/freshful_large/c8/fe/4e4e5978141b6312ea7cdb4001a4.jpg"},"extralarge":{"default":"https://cdn.freshful.ro/media/cache/sylius_shop_product_original/c8/fe/4e4e5978141b6312ea7cdb4001a4.jpg"}},"label":null,"tags":[],"isAvailable":true,"maxAvailableQuantity":50,"maxAllowedQuantity":50,"breadcrumbs":[{"code":"7","name":"Băuturi","slug":"7-bauturi-si-tutun"},{"code":"704","name":"Bere","slug":"704-bere"},{"code":"70405","name":"Cidru","slug":"70405-cidru"},{"code":"100139796","name":"Cidru coacăze negre sticlă 0.33l","slug":"100139796-strongbow-cidru-coacaze-negre-sticla-0-33l"}],"activePromotion":null,"saveMe":null,"labels":[],"geniusPrice":null,"geniusUnitPricePerLabel":null,"banner":null,"discountLabel":null,"geniusDiscountLabel":null,"badge":null},{"code":"100133184","variantCode":"5411718910546","name":"Cidru fructe de pădure sticlă 0.5l","slug":"100133184-old-mout-cidru-fructe-de-padure-sticla-0-5l","unitPriceLabel":"21 Lei/l","brand":"Old Mout","brandCode":"907","brandFilterCode":"old-mout-b908","sku":"100133184","price":10.5,"originalPrice":null,"currencyCode":"RON","currency":"Lei","image":{"thumbnail":{"default":"https://cdn.freshful.ro/media/cache/sylius_shop_product_thumbnail/3b/3b/c734605b67283d438ecf0d7830fe.jpg"},"large":{"default":"https://cdn.freshful.ro/media/cache/freshful_large/3b/3b/c734605b67283d438ecf0d7830fe.jpg"},"extralarge":{"default":"https://cdn.freshful.ro/media/cache/sylius_shop_product_original/3b/3b/c734605b67283d438ecf0d7830fe.jpg"}},"label":null,"tags":[],"isAvailable":true,"maxAvailableQuantity":50,"maxAllowedQuantity":50,"breadcrumbs":[{"code":"7","name":"Băuturi","slug":"7-bauturi-si-tutun"},{"code":"704","name":"Bere","slug":"704-bere"},{"code":"70405","name":"Cidru","slug":"70405-cidru"},{"code":"100133184","name":"Cidru fructe de pădure sticlă 0.5l","slug":"100133184-old-mout-cidru-fructe-de-padure-sticla-0-5l"}],"activePromotion":null,"saveMe":null,"labels":[],"geniusPrice":null,"geniusUnitPricePerLabel":null,"banner":null,"discountLabel":null,"geniusDiscountLabel":null,"badge":null},{"code":"100120570","variantCode":"3800022403301","name":"Cidru rose sticlă 0.33l","slug":"100120570-strongbow-cidru-rose-sticla-0-33l","unitPriceLabel":"15,12 Lei/l","brand":"Strongbow","brandCode":"909","brandFilterCode":"strongbow-b910","sku":"100120570","price":4.99,"originalPrice":null,"currencyCode":"RON","currency":"Lei","image":{"thumbnail":{"default":"https://cdn.freshful.ro/media/cache/sylius_shop_product_thumbnail/09/79/730d1515e85542e528a42c974eca.jpg"},"large":{"default":"https://cdn.freshful.ro/media/cache/freshful_large/09/79/730d1515e85542e528a42c974eca.jpg"},"extralarge":{"default":"https://cdn.freshful.ro/media/cache/sylius_shop_product_original/09/79/730d1515e85542e528a42c974eca.jpg"}},"label":null,"tags":[],"isAvailable":true,"maxAvailableQuantity":50,"maxAllowedQuantity":50,"breadcrumbs":[{"code":"7","name":"Băuturi","slug":"7-bauturi-si-tutun"},{"code":"704","name":"Bere","slug":"704-bere"},{"code":"70405","name":"Cidru","slug":"70405-cidru"},{"code":"100120570","name":"Cidru rose sticlă 0.33l","slug":"100120570-strongbow-cidru-rose-sticla-0-33l"}],"activePromotion":null,"saveMe":null,"labels":[],"geniusPrice":null,"geniusUnitPricePerLabel":null,"banner":null,"discountLabel":null,"geniusDiscountLabel":null,"badge":null}],"filters":{"countSelected":0,"items":[{"code":"promotion","name":"Promoții","countSelected":0,"values":[{"code":"targ-bere-snacks-mar23","name":"Bere și snackuri pentru toate gusturile","isSelected":false,"count":2}]},{"code":"brand","name":"Brand","countSelected":0,"values":[{"code":"cidre-bouche-b2418","name":"Cidre Bouché","isSelected":false,"count":1},{"code":"dacic-b1398","name":"Dacic","isSelected":false,"count":3},{"code":"kombucha-life-b1151","name":"Kombucha Life","isSelected":false,"count":6},{"code":"old-mout-b908","name":"Old Mout","isSelected":false,"count":3},{"code":"somersby-b721","name":"Somersby","isSelected":false,"count":4},{"code":"strongbow-b910","name":"Strongbow","isSelected":false,"count":7},{"code":"val-de-france-b1162","name":"Val de France","isSelected":false,"count":2}]}]},"orderBy":[{"field":"price","direction":"asc","name":"Preț crescător","isSelected":false},{"field":"price","direction":"desc","name":"Preț descrescător","isSelected":false},{"field":"popularity","direction":"desc","name":"Cele mai populare","isSelected":true},{"field":"category","direction":"asc","name":"Categorie","isSelected":false}],"metaTitle":"Cidru - Gamă variată","metaDescription":"Vrei Cidru? Alege dintr-o gamă variată. Comanzi simplu și ai livrare rapidă, calitate și prospețime. Hai pe Freshful.ro","metaKeywords":null,"banners":[]}}