{"type":"subcategory","payload":{"analyticsListId":"category_70407-bere-internationala","analyticsListName":"Category - Specialități internaționale","name":"Specialități internaționale","slug":"70407-bere-internationala","image":null,"breadcrumbs":[{"code":"7","name":"Băuturi","slug":"7-bauturi-si-tutun"},{"code":"704","name":"Bere","slug":"704-bere"},{"code":"70407","name":"Specialități internaționale","slug":"70407-bere-internationala"}],"slots":[],"page":1,"limit":10,"pages":5,"count":50,"siblings":[{"name":"Băuturi necarbogazoase și siropuri","slug":"701-bauturi-necarbogazoase-si-siropuri","selected":false},{"name":"Apă","slug":"702-apa","selected":false},{"name":"Băuturi carbogazoase","slug":"703-bauturi-carbogazoase","selected":false},{"name":"Bere","slug":"704-bere","selected":true},{"name":"Vinuri","slug":"705-vinuri","selected":false},{"name":"Băuturi spirtoase","slug":"706-bauturi-spirtoase","selected":false},{"name":"Tutun","slug":"707-tutun","selected":false}],"children":[{"name":"Toate produsele","slug":"704-bere","selected":false},{"name":"Bere blondă","slug":"70401-bere-blonda","selected":false},{"name":"Bere albă","slug":"70402-bere-alba","selected":false},{"name":"Bere roșie și brună","slug":"70403-bere-rosie-si-neagra","selected":false},{"name":"Bere radler și cu arome","slug":"70404-bere-radler-si-cu-arome","selected":false},{"name":"Cidru","slug":"70405-cidru","selected":false},{"name":"Bere artizanală românească","slug":"70406-bere-artizanala-romaneasca","selected":false},{"name":"Specialități internaționale","slug":"70407-bere-internationala","selected":true},{"name":"Bere fără alcool","slug":"70408-bere-fara-alcool","selected":false}],"products":[{"code":"100042728","variantCode":"100042728","name":"Bere roșie sticlă 0.5l","slug":"100042728-london-pride-bere-rosie-sticla-0-5l","unitPriceLabel":"25,98 Lei/l","brand":"London Pride","brandCode":"571","brandFilterCode":"london-pride-b572","sku":"100042728","price":12.99,"originalPrice":null,"currencyCode":"RON","currency":"Lei","image":{"thumbnail":{"default":"https://cdn.freshful.ro/media/cache/sylius_shop_product_thumbnail/a6/ce/89f1f06bd2ae85867d0e65370253.jpg"},"large":{"default":"https://cdn.freshful.ro/media/cache/freshful_large/a6/ce/89f1f06bd2ae85867d0e65370253.jpg"},"extralarge":{"default":"https://cdn.freshful.ro/media/cache/sylius_shop_product_original/a6/ce/89f1f06bd2ae85867d0e65370253.jpg"}},"label":{"text":"Profită acum","backgroundColor":"#FF9903","textColor":"#FFFFFF"},"tags":[],"isAvailable":true,"maxAvailableQuantity":50,"maxAllowedQuantity":50,"breadcrumbs":[{"code":"7","name":"Băuturi","slug":"7-bauturi-si-tutun"},{"code":"704","name":"Bere","slug":"704-bere"},{"code":"70407","name":"Specialități internaționale","slug":"70407-bere-internationala"},{"code":"100042728","name":"Bere roșie sticlă 0.5l","slug":"100042728-london-pride-bere-rosie-sticla-0-5l"}],"activePromotion":{"code":"targ-bere-snacks-mar23","name":"Preț avantajos","targetQuantity":null},"saveMe":null,"labels":[{"type":"v1","items":[{"text":"Profită acum","backgroundColor":"#FF9903","textColor":"#FFFFFF"}]}],"geniusPrice":null,"geniusUnitPricePerLabel":null,"banner":{"text":"Preț avantajos","textColor":"#F95510","bgColor":"#FEF1CD","icon":null,"link":"https://www.freshful.ro/oferte/targ-bere-snacks-mar23","type":"promo","analyticsEventType":"select_promotion","analyticsEventPayload":{"promotion_id":"targ-bere-snacks-mar23","promotion_name":"Bere și snackuri pentru toate gusturile"}},"discountLabel":null,"geniusDiscountLabel":null,"badge":null},{"code":"100042704","variantCode":"100042704","name":"Bere Weissbier sticlă 0.5l","slug":"100042704-paulaner-bere-weissbier-sticla-0-5l","unitPriceLabel":"19,98 Lei/l","brand":"Paulaner","brandCode":"562","brandFilterCode":"paulaner-b563","sku":"100042704","price":9.99,"originalPrice":11.5,"currencyCode":"RON","currency":"Lei","image":{"thumbnail":{"default":"https://cdn.freshful.ro/media/cache/sylius_shop_product_thumbnail/20/11/e28845280478e41f65c9b72458bb.jpg"},"large":{"default":"https://cdn.freshful.ro/media/cache/freshful_large/20/11/e28845280478e41f65c9b72458bb.jpg"},"extralarge":{"default":"https://cdn.freshful.ro/media/cache/sylius_shop_product_original/20/11/e28845280478e41f65c9b72458bb.jpg"}},"label":{"text":"-13%","backgroundColor":"#FF9903","textColor":"#FFFFFF"},"tags":[],"isAvailable":true,"maxAvailableQuantity":50,"maxAllowedQuantity":50,"breadcrumbs":[{"code":"7","name":"Băuturi","slug":"7-bauturi-si-tutun"},{"code":"704","name":"Bere","slug":"704-bere"},{"code":"70407","name":"Specialități internaționale","slug":"70407-bere-internationala"},{"code":"100042704","name":"Bere Weissbier sticlă 0.5l","slug":"100042704-paulaner-bere-weissbier-sticla-0-5l"}],"activePromotion":{"code":"targ-bere-snacks-mar23","name":"Preț redus","targetQuantity":null},"saveMe":null,"labels":[{"type":"v1","items":[{"text":"-13%","backgroundColor":"#FF9903","textColor":"#FFFFFF"}]}],"geniusPrice":null,"geniusUnitPricePerLabel":null,"banner":{"text":"Super preț","textColor":"#FF0000","bgColor":"#FFF2EC","icon":null,"link":"https://www.freshful.ro/oferte/targ-bere-snacks-mar23","type":"promo","analyticsEventType":"select_promotion","analyticsEventPayload":{"promotion_id":"targ-bere-snacks-mar23","promotion_name":"Bere și snackuri pentru toate gusturile"}},"discountLabel":"Economisești 13%","geniusDiscountLabel":null,"badge":null},{"code":"100042706","variantCode":"100042706","name":"Bere blondă Münchner Hell sticlă 0.5l","slug":"100042706-paulaner-bere-blonda-munchner-hell-sticla-0-5l","unitPriceLabel":"19,98 Lei/l","brand":"Paulaner","brandCode":"562","brandFilterCode":"paulaner-b563","sku":"100042706","price":9.99,"originalPrice":11.5,"currencyCode":"RON","currency":"Lei","image":{"thumbnail":{"default":"https://cdn.freshful.ro/media/cache/sylius_shop_product_thumbnail/6d/77/511fcaf215fb62f20a111641c834.jpg"},"large":{"default":"https://cdn.freshful.ro/media/cache/freshful_large/6d/77/511fcaf215fb62f20a111641c834.jpg"},"extralarge":{"default":"https://cdn.freshful.ro/media/cache/sylius_shop_product_original/6d/77/511fcaf215fb62f20a111641c834.jpg"}},"label":{"text":"-13%","backgroundColor":"#FF9903","textColor":"#FFFFFF"},"tags":[],"isAvailable":true,"maxAvailableQuantity":50,"maxAllowedQuantity":50,"breadcrumbs":[{"code":"7","name":"Băuturi","slug":"7-bauturi-si-tutun"},{"code":"704","name":"Bere","slug":"704-bere"},{"code":"70407","name":"Specialități internaționale","slug":"70407-bere-internationala"},{"code":"100042706","name":"Bere blondă Münchner Hell sticlă 0.5l","slug":"100042706-paulaner-bere-blonda-munchner-hell-sticla-0-5l"}],"activePromotion":{"code":"targ-bere-snacks-mar23","name":"Preț redus","targetQuantity":null},"saveMe":null,"labels":[{"type":"v1","items":[{"text":"-13%","backgroundColor":"#FF9903","textColor":"#FFFFFF"}]}],"geniusPrice":null,"geniusUnitPricePerLabel":null,"banner":{"text":"Super preț","textColor":"#FF0000","bgColor":"#FFF2EC","icon":null,"link":"https://www.freshful.ro/oferte/targ-bere-snacks-mar23","type":"promo","analyticsEventType":"select_promotion","analyticsEventPayload":{"promotion_id":"targ-bere-snacks-mar23","promotion_name":"Bere și snackuri pentru toate gusturile"}},"discountLabel":"Economisești 13%","geniusDiscountLabel":null,"badge":null},{"code":"100083113","variantCode":"100083113","name":"Bere albă Hell sticlă 0.5l","slug":"100083113-konig-ludwig-bere-alba-hell-sticla-0-5l","unitPriceLabel":"13,98 Lei/l","brand":"König Ludwig","brandCode":"1434","brandFilterCode":"konig-ludwig-b1434","sku":"100083113","price":6.99,"originalPrice":7.79,"currencyCode":"RON","currency":"Lei","image":{"thumbnail":{"default":"https://cdn.freshful.ro/media/cache/sylius_shop_product_thumbnail/58/6e/ddac15d724b475b551aba5189666.jpg"},"large":{"default":"https://cdn.freshful.ro/media/cache/freshful_large/58/6e/ddac15d724b475b551aba5189666.jpg"},"extralarge":{"default":"https://cdn.freshful.ro/media/cache/sylius_shop_product_original/58/6e/ddac15d724b475b551aba5189666.jpg"}},"label":{"text":"-10%","backgroundColor":"#FF9903","textColor":"#FFFFFF"},"tags":[],"isAvailable":true,"maxAvailableQuantity":50,"maxAllowedQuantity":50,"breadcrumbs":[{"code":"7","name":"Băuturi","slug":"7-bauturi-si-tutun"},{"code":"704","name":"Bere","slug":"704-bere"},{"code":"70407","name":"Specialități internaționale","slug":"70407-bere-internationala"},{"code":"100083113","name":"Bere albă Hell sticlă 0.5l","slug":"100083113-konig-ludwig-bere-alba-hell-sticla-0-5l"}],"activePromotion":{"code":"targ-bere-snacks-mar23","name":"Preț redus","targetQuantity":null},"saveMe":null,"labels":[{"type":"v1","items":[{"text":"-10%","backgroundColor":"#FF9903","textColor":"#FFFFFF"}]}],"geniusPrice":null,"geniusUnitPricePerLabel":null,"banner":{"text":"Super preț","textColor":"#FF0000","bgColor":"#FFF2EC","icon":null,"link":"https://www.freshful.ro/oferte/targ-bere-snacks-mar23","type":"promo","analyticsEventType":"select_promotion","analyticsEventPayload":{"promotion_id":"targ-bere-snacks-mar23","promotion_name":"Bere și snackuri pentru toate gusturile"}},"discountLabel":"Economisești 10%","geniusDiscountLabel":null,"badge":null},{"code":"100068833","variantCode":"100068833","name":"Bere blondă Belgian Strong sticlă 0.33l","slug":"100068833-duvel-bere-blonda-belgian-strong-sticla-0-33l","unitPriceLabel":"34,82 Lei/l","brand":"Duvel","brandCode":"1162","brandFilterCode":"duvel-b1163","sku":"100068833","price":11.49,"originalPrice":12.9,"currencyCode":"RON","currency":"Lei","image":{"thumbnail":{"default":"https://cdn.freshful.ro/media/cache/sylius_shop_product_thumbnail/10/9e/449b92d019418215900f2db39887.jpg"},"large":{"default":"https://cdn.freshful.ro/media/cache/freshful_large/10/9e/449b92d019418215900f2db39887.jpg"},"extralarge":{"default":"https://cdn.freshful.ro/media/cache/sylius_shop_product_original/10/9e/449b92d019418215900f2db39887.jpg"}},"label":{"text":"-10%","backgroundColor":"#FF9903","textColor":"#FFFFFF"},"tags":[],"isAvailable":true,"maxAvailableQuantity":50,"maxAllowedQuantity":50,"breadcrumbs":[{"code":"7","name":"Băuturi","slug":"7-bauturi-si-tutun"},{"code":"704","name":"Bere","slug":"704-bere"},{"code":"70407","name":"Specialități internaționale","slug":"70407-bere-internationala"},{"code":"100068833","name":"Bere blondă Belgian Strong sticlă 0.33l","slug":"100068833-duvel-bere-blonda-belgian-strong-sticla-0-33l"}],"activePromotion":{"code":"targ-bere-snacks-mar23","name":"Preț redus","targetQuantity":null},"saveMe":null,"labels":[{"type":"v1","items":[{"text":"-10%","backgroundColor":"#FF9903","textColor":"#FFFFFF"}]}],"geniusPrice":null,"geniusUnitPricePerLabel":null,"banner":{"text":"Super preț","textColor":"#FF0000","bgColor":"#FFF2EC","icon":null,"link":"https://www.freshful.ro/oferte/targ-bere-snacks-mar23","type":"promo","analyticsEventType":"select_promotion","analyticsEventPayload":{"promotion_id":"targ-bere-snacks-mar23","promotion_name":"Bere și snackuri pentru toate gusturile"}},"discountLabel":"Economisești 10%","geniusDiscountLabel":null,"badge":null},{"code":"100068841","variantCode":"100068841","name":"Bere lambic cu 25% cireșe sticlă 0.26l","slug":"100068841-st-louis-bere-lambic-cu-25-cirese-sticla-0-26l","unitPriceLabel":"39,96 Lei/l","brand":"St Louis","brandCode":"1168","brandFilterCode":"st-louis-b1169","sku":"100068841","price":9.99,"originalPrice":null,"currencyCode":"RON","currency":"Lei","image":{"thumbnail":{"default":"https://cdn.freshful.ro/media/cache/sylius_shop_product_thumbnail/e2/2f/53880671136e9b5fdf4c803c6880.jpg"},"large":{"default":"https://cdn.freshful.ro/media/cache/freshful_large/e2/2f/53880671136e9b5fdf4c803c6880.jpg"},"extralarge":{"default":"https://cdn.freshful.ro/media/cache/sylius_shop_product_original/e2/2f/53880671136e9b5fdf4c803c6880.jpg"}},"label":{"text":"Profită acum","backgroundColor":"#FF9903","textColor":"#FFFFFF"},"tags":[],"isAvailable":true,"maxAvailableQuantity":36,"maxAllowedQuantity":50,"breadcrumbs":[{"code":"7","name":"Băuturi","slug":"7-bauturi-si-tutun"},{"code":"704","name":"Bere","slug":"704-bere"},{"code":"70407","name":"Specialități internaționale","slug":"70407-bere-internationala"},{"code":"100068841","name":"Bere lambic cu 25% cireșe sticlă 0.26l","slug":"100068841-st-louis-bere-lambic-cu-25-cirese-sticla-0-26l"}],"activePromotion":{"code":"targ-bere-snacks-mar23","name":"Preț avantajos","targetQuantity":null},"saveMe":null,"labels":[{"type":"v1","items":[{"text":"Profită acum","backgroundColor":"#FF9903","textColor":"#FFFFFF"}]}],"geniusPrice":null,"geniusUnitPricePerLabel":null,"banner":{"text":"Preț avantajos","textColor":"#F95510","bgColor":"#FEF1CD","icon":null,"link":"https://www.freshful.ro/oferte/targ-bere-snacks-mar23","type":"promo","analyticsEventType":"select_promotion","analyticsEventPayload":{"promotion_id":"targ-bere-snacks-mar23","promotion_name":"Bere și snackuri pentru toate gusturile"}},"discountLabel":null,"geniusDiscountLabel":null,"badge":null},{"code":"100042723","variantCode":"100042723","name":"Bere Ipa sticlă 0.5l","slug":"100042723-hobgoblin-bere-ipa-sticla-0-5l","unitPriceLabel":"27,98 Lei/l","brand":"Hobgoblin","brandCode":"567","brandFilterCode":"hobgoblin-b568","sku":"100042723","price":13.99,"originalPrice":null,"currencyCode":"RON","currency":"Lei","image":{"thumbnail":{"default":"https://cdn.freshful.ro/media/cache/sylius_shop_product_thumbnail/0c/d7/91e874303d9e4a4b4a181f340839.jpg"},"large":{"default":"https://cdn.freshful.ro/media/cache/freshful_large/0c/d7/91e874303d9e4a4b4a181f340839.jpg"},"extralarge":{"default":"https://cdn.freshful.ro/media/cache/sylius_shop_product_original/0c/d7/91e874303d9e4a4b4a181f340839.jpg"}},"label":{"text":"Profită acum","backgroundColor":"#FF9903","textColor":"#FFFFFF"},"tags":[],"isAvailable":true,"maxAvailableQuantity":50,"maxAllowedQuantity":50,"breadcrumbs":[{"code":"7","name":"Băuturi","slug":"7-bauturi-si-tutun"},{"code":"704","name":"Bere","slug":"704-bere"},{"code":"70407","name":"Specialități internaționale","slug":"70407-bere-internationala"},{"code":"100042723","name":"Bere Ipa sticlă 0.5l","slug":"100042723-hobgoblin-bere-ipa-sticla-0-5l"}],"activePromotion":{"code":"targ-bere-snacks-mar23","name":"Preț avantajos","targetQuantity":null},"saveMe":null,"labels":[{"type":"v1","items":[{"text":"Profită acum","backgroundColor":"#FF9903","textColor":"#FFFFFF"}]}],"geniusPrice":null,"geniusUnitPricePerLabel":null,"banner":{"text":"Preț avantajos","textColor":"#F95510","bgColor":"#FEF1CD","icon":null,"link":"https://www.freshful.ro/oferte/targ-bere-snacks-mar23","type":"promo","analyticsEventType":"select_promotion","analyticsEventPayload":{"promotion_id":"targ-bere-snacks-mar23","promotion_name":"Bere și snackuri pentru toate gusturile"}},"discountLabel":null,"geniusDiscountLabel":null,"badge":null},{"code":"100042702","variantCode":"100042702","name":"Bere Ipa sticlă 0.5l","slug":"100042702-carnaval-bere-ipa-sticla-0-5l","unitPriceLabel":"19,98 Lei/l","brand":"Carnaval","brandCode":"561","brandFilterCode":"carnaval-b562","sku":"100042702","price":9.99,"originalPrice":12.99,"currencyCode":"RON","currency":"Lei","image":{"thumbnail":{"default":"https://cdn.freshful.ro/media/cache/sylius_shop_product_thumbnail/05/46/37f3283c9106c306bda21fcf49a5.jpg"},"large":{"default":"https://cdn.freshful.ro/media/cache/freshful_large/05/46/37f3283c9106c306bda21fcf49a5.jpg"},"extralarge":{"default":"https://cdn.freshful.ro/media/cache/sylius_shop_product_original/05/46/37f3283c9106c306bda21fcf49a5.jpg"}},"label":{"text":"-23%","backgroundColor":"#FF9903","textColor":"#FFFFFF"},"tags":[],"isAvailable":true,"maxAvailableQuantity":50,"maxAllowedQuantity":50,"breadcrumbs":[{"code":"7","name":"Băuturi","slug":"7-bauturi-si-tutun"},{"code":"704","name":"Bere","slug":"704-bere"},{"code":"70407","name":"Specialități internaționale","slug":"70407-bere-internationala"},{"code":"100042702","name":"Bere Ipa sticlă 0.5l","slug":"100042702-carnaval-bere-ipa-sticla-0-5l"}],"activePromotion":{"code":"targ-bere-snacks-mar23","name":"Preț redus","targetQuantity":null},"saveMe":null,"labels":[{"type":"v1","items":[{"text":"-23%","backgroundColor":"#FF9903","textColor":"#FFFFFF"}]}],"geniusPrice":null,"geniusUnitPricePerLabel":null,"banner":{"text":"Super preț","textColor":"#FF0000","bgColor":"#FFF2EC","icon":null,"link":"https://www.freshful.ro/oferte/targ-bere-snacks-mar23","type":"promo","analyticsEventType":"select_promotion","analyticsEventPayload":{"promotion_id":"targ-bere-snacks-mar23","promotion_name":"Bere și snackuri pentru toate gusturile"}},"discountLabel":"Economisești 23%","geniusDiscountLabel":null,"badge":null},{"code":"100083111","variantCode":"100083111","name":"Bere blondă doză 0.5l","slug":"100083111-warsteiner-bere-blonda-doza-0-5l","unitPriceLabel":"9,98 Lei/l","brand":"Warsteiner","brandCode":"1433","brandFilterCode":"warsteiner-b1433","sku":"100083111","price":4.99,"originalPrice":null,"currencyCode":"RON","currency":"Lei","image":{"thumbnail":{"default":"https://cdn.freshful.ro/media/cache/sylius_shop_product_thumbnail/25/24/a198f63c97b03e9baf3201f00c1b.jpg"},"large":{"default":"https://cdn.freshful.ro/media/cache/freshful_large/25/24/a198f63c97b03e9baf3201f00c1b.jpg"},"extralarge":{"default":"https://cdn.freshful.ro/media/cache/sylius_shop_product_original/25/24/a198f63c97b03e9baf3201f00c1b.jpg"}},"label":{"text":"Profită acum","backgroundColor":"#FF9903","textColor":"#FFFFFF"},"tags":[],"isAvailable":true,"maxAvailableQuantity":50,"maxAllowedQuantity":50,"breadcrumbs":[{"code":"7","name":"Băuturi","slug":"7-bauturi-si-tutun"},{"code":"704","name":"Bere","slug":"704-bere"},{"code":"70407","name":"Specialități internaționale","slug":"70407-bere-internationala"},{"code":"100083111","name":"Bere blondă doză 0.5l","slug":"100083111-warsteiner-bere-blonda-doza-0-5l"}],"activePromotion":{"code":"targ-bere-snacks-mar23","name":"Preț avantajos","targetQuantity":null},"saveMe":null,"labels":[{"type":"v1","items":[{"text":"Profită acum","backgroundColor":"#FF9903","textColor":"#FFFFFF"}]}],"geniusPrice":null,"geniusUnitPricePerLabel":null,"banner":{"text":"Preț avantajos","textColor":"#F95510","bgColor":"#FEF1CD","icon":null,"link":"https://www.freshful.ro/oferte/targ-bere-snacks-mar23","type":"promo","analyticsEventType":"select_promotion","analyticsEventPayload":{"promotion_id":"targ-bere-snacks-mar23","promotion_name":"Bere și snackuri pentru toate gusturile"}},"discountLabel":null,"geniusDiscountLabel":null,"badge":null},{"code":"100042722","variantCode":"100042722","name":"Bere Ruby sticlă 0.5l","slug":"100042722-hobgoblin-bere-ruby-sticla-0-5l","unitPriceLabel":"21,98 Lei/l","brand":"Hobgoblin","brandCode":"567","brandFilterCode":"hobgoblin-b568","sku":"100042722","price":10.99,"originalPrice":null,"currencyCode":"RON","currency":"Lei","image":{"thumbnail":{"default":"https://cdn.freshful.ro/media/cache/sylius_shop_product_thumbnail/9e/67/c4c280dba2b6268ab64279b032ab.jpg"},"large":{"default":"https://cdn.freshful.ro/media/cache/freshful_large/9e/67/c4c280dba2b6268ab64279b032ab.jpg"},"extralarge":{"default":"https://cdn.freshful.ro/media/cache/sylius_shop_product_original/9e/67/c4c280dba2b6268ab64279b032ab.jpg"}},"label":{"text":"Profită acum","backgroundColor":"#FF9903","textColor":"#FFFFFF"},"tags":[],"isAvailable":true,"maxAvailableQuantity":50,"maxAllowedQuantity":50,"breadcrumbs":[{"code":"7","name":"Băuturi","slug":"7-bauturi-si-tutun"},{"code":"704","name":"Bere","slug":"704-bere"},{"code":"70407","name":"Specialități internaționale","slug":"70407-bere-internationala"},{"code":"100042722","name":"Bere Ruby sticlă 0.5l","slug":"100042722-hobgoblin-bere-ruby-sticla-0-5l"}],"activePromotion":{"code":"targ-bere-snacks-mar23","name":"Preț avantajos","targetQuantity":null},"saveMe":null,"labels":[{"type":"v1","items":[{"text":"Profită acum","backgroundColor":"#FF9903","textColor":"#FFFFFF"}]}],"geniusPrice":null,"geniusUnitPricePerLabel":null,"banner":{"text":"Preț avantajos","textColor":"#F95510","bgColor":"#FEF1CD","icon":null,"link":"https://www.freshful.ro/oferte/targ-bere-snacks-mar23","type":"promo","analyticsEventType":"select_promotion","analyticsEventPayload":{"promotion_id":"targ-bere-snacks-mar23","promotion_name":"Bere și snackuri pentru toate gusturile"}},"discountLabel":null,"geniusDiscountLabel":null,"badge":null}],"filters":{"countSelected":0,"items":[{"code":"promotion","name":"Promoții","countSelected":0,"values":[{"code":"targ-bere-snacks-mar23","name":"Bere și snackuri pentru toate gusturile","isSelected":false,"count":29}]},{"code":"brand","name":"Brand","countSelected":0,"values":[{"code":"asahi-b584","name":"Asahi","isSelected":false,"count":1},{"code":"bavaria-b565","name":"Bavaria","isSelected":false,"count":1},{"code":"biere-du-boucanier-b1167","name":"Biere du Boucanier","isSelected":false,"count":2},{"code":"carnaval-b562","name":"Carnaval","isSelected":false,"count":2},{"code":"chouffe-b1166","name":"Chouffe","isSelected":false,"count":1},{"code":"clandestin-b1623","name":"Clandestin","isSelected":false,"count":2},{"code":"corona-b602","name":"Corona","isSelected":false,"count":1},{"code":"dab-b1117","name":"Dab","isSelected":false,"count":2},{"code":"desperados-b904","name":"Desperados","isSelected":false,"count":2},{"code":"duvel-b1163","name":"Duvel","isSelected":false,"count":2},{"code":"esb-b574","name":"ESB","isSelected":false,"count":1},{"code":"franziskaner-b603","name":"Franziskaner","isSelected":false,"count":1},{"code":"golden-pride-b576","name":"Golden Pride","isSelected":false,"count":1},{"code":"hobgoblin-b568","name":"Hobgoblin","isSelected":false,"count":3},{"code":"india-pale-ale-b571","name":"India Pale Ale","isSelected":false,"count":1},{"code":"kirin-b578","name":"Kirin","isSelected":false,"count":1},{"code":"konig-ludwig-b1434","name":"König Ludwig","isSelected":false,"count":2},{"code":"la-chouffe-b1165","name":"La Chouffe","isSelected":false,"count":1},{"code":"la-trappe-b566","name":"La Trappe","isSelected":false,"count":2},{"code":"leffe-b604","name":"Leffe","isSelected":false,"count":2},{"code":"liefmans-b1168","name":"Liefmans","isSelected":false,"count":1},{"code":"london-porter-b573","name":"London Porter","isSelected":false,"count":1},{"code":"london-pride-b572","name":"London Pride","isSelected":false,"count":1},{"code":"maredsous-b1164","name":"Maredsous","isSelected":false,"count":1},{"code":"miller-genuine-draft-b606","name":"Miller Genuine Draft","isSelected":false,"count":1},{"code":"nenea-iancu-b561","name":"Nenea Iancu","isSelected":false,"count":2},{"code":"one-beer-later-b2877","name":"One Beer Later","isSelected":false,"count":1},{"code":"paulaner-b563","name":"Paulaner","isSelected":false,"count":4},{"code":"radeberger-b1119","name":"Radeberger","isSelected":false,"count":1},{"code":"spitfire-b570","name":"Spitfire","isSelected":false,"count":1},{"code":"st-louis-b1169","name":"St Louis","isSelected":false,"count":2},{"code":"staropramen-b600","name":"Staropramen","isSelected":false,"count":1},{"code":"warsteiner-b1433","name":"Warsteiner","isSelected":false,"count":2}]}]},"orderBy":[{"field":"price","direction":"asc","name":"Preț crescător","isSelected":false},{"field":"price","direction":"desc","name":"Preț descrescător","isSelected":false},{"field":"popularity","direction":"desc","name":"Cele mai populare","isSelected":true},{"field":"category","direction":"asc","name":"Categorie","isSelected":false}],"metaTitle":"Specialități internaționale - Gamă variată","metaDescription":"Vrei Specialități internaționale? Alege dintr-o gamă variată. Comanzi simplu și ai livrare rapidă, calitate și prospețime. Hai pe Freshful.ro","metaKeywords":null,"banners":[]}}