{"type":"subcategory","payload":{"analyticsListId":"category_70406-bere-artizanala-romaneasca","analyticsListName":"Category - Bere artizanală românească","name":"Bere artizanală românească","slug":"70406-bere-artizanala-romaneasca","image":null,"breadcrumbs":[{"code":"7","name":"Băuturi","slug":"7-bauturi-si-tutun"},{"code":"704","name":"Bere","slug":"704-bere"},{"code":"70406","name":"Bere artizanală românească","slug":"70406-bere-artizanala-romaneasca"}],"slots":[],"page":1,"limit":10,"pages":4,"count":32,"siblings":[{"name":"Băuturi necarbogazoase și siropuri","slug":"701-bauturi-necarbogazoase-si-siropuri","selected":false},{"name":"Apă","slug":"702-apa","selected":false},{"name":"Băuturi carbogazoase","slug":"703-bauturi-carbogazoase","selected":false},{"name":"Bere","slug":"704-bere","selected":true},{"name":"Vinuri","slug":"705-vinuri","selected":false},{"name":"Băuturi spirtoase","slug":"706-bauturi-spirtoase","selected":false},{"name":"Tutun","slug":"707-tutun","selected":false}],"children":[{"name":"Toate produsele","slug":"704-bere","selected":false},{"name":"Bere blondă","slug":"70401-bere-blonda","selected":false},{"name":"Bere albă","slug":"70402-bere-alba","selected":false},{"name":"Bere roșie și brună","slug":"70403-bere-rosie-si-neagra","selected":false},{"name":"Bere radler și cu arome","slug":"70404-bere-radler-si-cu-arome","selected":false},{"name":"Cidru","slug":"70405-cidru","selected":false},{"name":"Bere artizanală românească","slug":"70406-bere-artizanala-romaneasca","selected":true},{"name":"Specialități internaționale","slug":"70407-bere-internationala","selected":false},{"name":"Bere fără alcool","slug":"70408-bere-fara-alcool","selected":false}],"products":[{"code":"100047689","variantCode":"646809521249","name":" Bere artizanală nepasteurizată blondă sticlă 0.5l","slug":"100047689-zaganu-bere-artizanala-nepasteurizata-blonda-sticla-0-5l","unitPriceLabel":"16,98 Lei/l","brand":"Zăganu","brandCode":"788","brandFilterCode":"zaganu-b789","sku":"100047689","price":8.49,"originalPrice":8.95,"currencyCode":"RON","currency":"Lei","image":{"thumbnail":{"default":"https://cdn.freshful.ro/media/cache/sylius_shop_product_thumbnail/33/0e/5713e2915baf2d1993b645b09815.jpg"},"large":{"default":"https://cdn.freshful.ro/media/cache/freshful_large/33/0e/5713e2915baf2d1993b645b09815.jpg"},"extralarge":{"default":"https://cdn.freshful.ro/media/cache/sylius_shop_product_original/33/0e/5713e2915baf2d1993b645b09815.jpg"}},"label":{"text":"-5%","backgroundColor":"#FF9903","textColor":"#FFFFFF"},"tags":[{"type":"vegan","text":"Vegan","icon":"https://cdn.freshful.ro/assets/product_tags/vegan.svg","iconPng":"https://cdn.freshful.ro/assets/product_tags/vegan.png","backgroundColor":"#ECF9F8","textColor":"#33A39C"},{"type":"MadeInRomania","text":"Made In Romania","icon":"https://cdn.freshful.ro/assets/product_tags/made_in_romania.svg","iconPng":"https://cdn.freshful.ro/assets/product_tags/made_in_romania.png","backgroundColor":"#EDF2FD","textColor":"#1653CA"}],"isAvailable":true,"maxAvailableQuantity":50,"maxAllowedQuantity":50,"breadcrumbs":[{"code":"7","name":"Băuturi","slug":"7-bauturi-si-tutun"},{"code":"704","name":"Bere","slug":"704-bere"},{"code":"70406","name":"Bere artizanală românească","slug":"70406-bere-artizanala-romaneasca"},{"code":"100047689","name":" Bere artizanală nepasteurizată blondă sticlă 0.5l","slug":"100047689-zaganu-bere-artizanala-nepasteurizata-blonda-sticla-0-5l"}],"activePromotion":{"code":"targ-bere-snacks-mar23","name":"Preț redus","targetQuantity":null},"saveMe":null,"labels":[{"type":"v1","items":[{"text":"-5%","backgroundColor":"#FF9903","textColor":"#FFFFFF"}]}],"geniusPrice":null,"geniusUnitPricePerLabel":null,"banner":{"text":"Super preț","textColor":"#FF0000","bgColor":"#FFF2EC","icon":null,"link":"https://www.freshful.ro/oferte/targ-bere-snacks-mar23","type":"promo","analyticsEventType":"select_promotion","analyticsEventPayload":{"promotion_id":"targ-bere-snacks-mar23","promotion_name":"Bere și snackuri pentru toate gusturile"}},"discountLabel":"Economisești 5%","geniusDiscountLabel":null,"badge":null},{"code":"100047922","variantCode":"684811797795","name":"Bere artizanală nepasteurizată India Pale Lager sticlă 0.5l","slug":"100047922-zaganu-bere-artizanala-nepasteurizata-india-pale-lager-sticla-0-5l","unitPriceLabel":"23,98 Lei/l","brand":"Zăganu","brandCode":"788","brandFilterCode":"zaganu-b789","sku":"100047922","price":11.99,"originalPrice":12.9,"currencyCode":"RON","currency":"Lei","image":{"thumbnail":{"default":"https://cdn.freshful.ro/media/cache/sylius_shop_product_thumbnail/b3/2a/de5ab66bd950e8b0e09cfd828d4a.jpg"},"large":{"default":"https://cdn.freshful.ro/media/cache/freshful_large/b3/2a/de5ab66bd950e8b0e09cfd828d4a.jpg"},"extralarge":{"default":"https://cdn.freshful.ro/media/cache/sylius_shop_product_original/b3/2a/de5ab66bd950e8b0e09cfd828d4a.jpg"}},"label":{"text":"-7%","backgroundColor":"#FF9903","textColor":"#FFFFFF"},"tags":[{"type":"vegan","text":"Vegan","icon":"https://cdn.freshful.ro/assets/product_tags/vegan.svg","iconPng":"https://cdn.freshful.ro/assets/product_tags/vegan.png","backgroundColor":"#ECF9F8","textColor":"#33A39C"},{"type":"MadeInRomania","text":"Made In Romania","icon":"https://cdn.freshful.ro/assets/product_tags/made_in_romania.svg","iconPng":"https://cdn.freshful.ro/assets/product_tags/made_in_romania.png","backgroundColor":"#EDF2FD","textColor":"#1653CA"}],"isAvailable":true,"maxAvailableQuantity":50,"maxAllowedQuantity":50,"breadcrumbs":[{"code":"7","name":"Băuturi","slug":"7-bauturi-si-tutun"},{"code":"704","name":"Bere","slug":"704-bere"},{"code":"70406","name":"Bere artizanală românească","slug":"70406-bere-artizanala-romaneasca"},{"code":"100047922","name":"Bere artizanală nepasteurizată India Pale Lager sticlă 0.5l","slug":"100047922-zaganu-bere-artizanala-nepasteurizata-india-pale-lager-sticla-0-5l"}],"activePromotion":{"code":"targ-bere-snacks-mar23","name":"Preț redus","targetQuantity":null},"saveMe":null,"labels":[{"type":"v1","items":[{"text":"-7%","backgroundColor":"#FF9903","textColor":"#FFFFFF"}]}],"geniusPrice":null,"geniusUnitPricePerLabel":null,"banner":{"text":"Super preț","textColor":"#FF0000","bgColor":"#FFF2EC","icon":null,"link":"https://www.freshful.ro/oferte/targ-bere-snacks-mar23","type":"promo","analyticsEventType":"select_promotion","analyticsEventPayload":{"promotion_id":"targ-bere-snacks-mar23","promotion_name":"Bere și snackuri pentru toate gusturile"}},"discountLabel":"Economisești 7%","geniusDiscountLabel":null,"badge":null},{"code":"100094967","variantCode":"100094967","name":"Bere Hazy Ipa sticlă 0.5l","slug":"100094967-bere-grivita-bere-hazy-ipa-sticla-0-5l","unitPriceLabel":"19,98 Lei/l","brand":"Bere Grivița","brandCode":"1588","brandFilterCode":"bere-grivita-b1592","sku":"100094967","price":9.99,"originalPrice":null,"currencyCode":"RON","currency":"Lei","image":{"thumbnail":{"default":"https://cdn.freshful.ro/media/cache/sylius_shop_product_thumbnail/3c/57/285dd8e751ab7550176b059c615c.jpg"},"large":{"default":"https://cdn.freshful.ro/media/cache/freshful_large/3c/57/285dd8e751ab7550176b059c615c.jpg"},"extralarge":{"default":"https://cdn.freshful.ro/media/cache/sylius_shop_product_original/3c/57/285dd8e751ab7550176b059c615c.jpg"}},"label":{"text":"Profită acum","backgroundColor":"#FF9903","textColor":"#FFFFFF"},"tags":[{"type":"MadeInRomania","text":"Made In Romania","icon":"https://cdn.freshful.ro/assets/product_tags/made_in_romania.svg","iconPng":"https://cdn.freshful.ro/assets/product_tags/made_in_romania.png","backgroundColor":"#EDF2FD","textColor":"#1653CA"}],"isAvailable":true,"maxAvailableQuantity":29,"maxAllowedQuantity":50,"breadcrumbs":[{"code":"7","name":"Băuturi","slug":"7-bauturi-si-tutun"},{"code":"704","name":"Bere","slug":"704-bere"},{"code":"70406","name":"Bere artizanală românească","slug":"70406-bere-artizanala-romaneasca"},{"code":"100094967","name":"Bere Hazy Ipa sticlă 0.5l","slug":"100094967-bere-grivita-bere-hazy-ipa-sticla-0-5l"}],"activePromotion":{"code":"targ-bere-snacks-mar23","name":"Preț avantajos","targetQuantity":null},"saveMe":null,"labels":[{"type":"v1","items":[{"text":"Profită acum","backgroundColor":"#FF9903","textColor":"#FFFFFF"}]}],"geniusPrice":null,"geniusUnitPricePerLabel":null,"banner":{"text":"Preț avantajos","textColor":"#F95510","bgColor":"#FEF1CD","icon":null,"link":"https://www.freshful.ro/oferte/targ-bere-snacks-mar23","type":"promo","analyticsEventType":"select_promotion","analyticsEventPayload":{"promotion_id":"targ-bere-snacks-mar23","promotion_name":"Bere și snackuri pentru toate gusturile"}},"discountLabel":null,"geniusDiscountLabel":null,"badge":null},{"code":"100094965","variantCode":"100094965","name":"Bere Gold sticlă 0.5l","slug":"100094965-bere-grivita-bere-gold-sticla-0-5l","unitPriceLabel":"19,98 Lei/l","brand":"Bere Grivița","brandCode":"1588","brandFilterCode":"bere-grivita-b1592","sku":"100094965","price":9.99,"originalPrice":null,"currencyCode":"RON","currency":"Lei","image":{"thumbnail":{"default":"https://cdn.freshful.ro/media/cache/sylius_shop_product_thumbnail/8f/37/eb7ea78236987fddc860447f021e.jpg"},"large":{"default":"https://cdn.freshful.ro/media/cache/freshful_large/8f/37/eb7ea78236987fddc860447f021e.jpg"},"extralarge":{"default":"https://cdn.freshful.ro/media/cache/sylius_shop_product_original/8f/37/eb7ea78236987fddc860447f021e.jpg"}},"label":{"text":"Profită acum","backgroundColor":"#FF9903","textColor":"#FFFFFF"},"tags":[{"type":"MadeInRomania","text":"Made In Romania","icon":"https://cdn.freshful.ro/assets/product_tags/made_in_romania.svg","iconPng":"https://cdn.freshful.ro/assets/product_tags/made_in_romania.png","backgroundColor":"#EDF2FD","textColor":"#1653CA"}],"isAvailable":true,"maxAvailableQuantity":46,"maxAllowedQuantity":50,"breadcrumbs":[{"code":"7","name":"Băuturi","slug":"7-bauturi-si-tutun"},{"code":"704","name":"Bere","slug":"704-bere"},{"code":"70406","name":"Bere artizanală românească","slug":"70406-bere-artizanala-romaneasca"},{"code":"100094965","name":"Bere Gold sticlă 0.5l","slug":"100094965-bere-grivita-bere-gold-sticla-0-5l"}],"activePromotion":{"code":"targ-bere-snacks-mar23","name":"Preț avantajos","targetQuantity":null},"saveMe":null,"labels":[{"type":"v1","items":[{"text":"Profită acum","backgroundColor":"#FF9903","textColor":"#FFFFFF"}]}],"geniusPrice":null,"geniusUnitPricePerLabel":null,"banner":{"text":"Preț avantajos","textColor":"#F95510","bgColor":"#FEF1CD","icon":null,"link":"https://www.freshful.ro/oferte/targ-bere-snacks-mar23","type":"promo","analyticsEventType":"select_promotion","analyticsEventPayload":{"promotion_id":"targ-bere-snacks-mar23","promotion_name":"Bere și snackuri pentru toate gusturile"}},"discountLabel":null,"geniusDiscountLabel":null,"badge":null},{"code":"100117994","variantCode":"100117994","name":"Bere Pale Ale sticlă 0.33l","slug":"100117994-olovina-bere-pale-ale-sticla-0-33l","unitPriceLabel":"23 Lei/l","brand":"Olovina","brandCode":"1998","brandFilterCode":"olovina-b2007","sku":"100117994","price":7.59,"originalPrice":null,"currencyCode":"RON","currency":"Lei","image":{"thumbnail":{"default":"https://cdn.freshful.ro/media/cache/sylius_shop_product_thumbnail/fd/94/fb30694e1405093ec8bc9f5ca212.jpg"},"large":{"default":"https://cdn.freshful.ro/media/cache/freshful_large/fd/94/fb30694e1405093ec8bc9f5ca212.jpg"},"extralarge":{"default":"https://cdn.freshful.ro/media/cache/sylius_shop_product_original/fd/94/fb30694e1405093ec8bc9f5ca212.jpg"}},"label":{"text":"Profită acum","backgroundColor":"#FF9903","textColor":"#FFFFFF"},"tags":[{"type":"MadeInRomania","text":"Made In Romania","icon":"https://cdn.freshful.ro/assets/product_tags/made_in_romania.svg","iconPng":"https://cdn.freshful.ro/assets/product_tags/made_in_romania.png","backgroundColor":"#EDF2FD","textColor":"#1653CA"}],"isAvailable":true,"maxAvailableQuantity":50,"maxAllowedQuantity":50,"breadcrumbs":[{"code":"7","name":"Băuturi","slug":"7-bauturi-si-tutun"},{"code":"704","name":"Bere","slug":"704-bere"},{"code":"70406","name":"Bere artizanală românească","slug":"70406-bere-artizanala-romaneasca"},{"code":"100117994","name":"Bere Pale Ale sticlă 0.33l","slug":"100117994-olovina-bere-pale-ale-sticla-0-33l"}],"activePromotion":{"code":"targ-bere-snacks-mar23","name":"Preț avantajos","targetQuantity":null},"saveMe":null,"labels":[{"type":"v1","items":[{"text":"Profită acum","backgroundColor":"#FF9903","textColor":"#FFFFFF"}]}],"geniusPrice":null,"geniusUnitPricePerLabel":null,"banner":{"text":"Preț avantajos","textColor":"#F95510","bgColor":"#FEF1CD","icon":null,"link":"https://www.freshful.ro/oferte/targ-bere-snacks-mar23","type":"promo","analyticsEventType":"select_promotion","analyticsEventPayload":{"promotion_id":"targ-bere-snacks-mar23","promotion_name":"Bere și snackuri pentru toate gusturile"}},"discountLabel":null,"geniusDiscountLabel":null,"badge":null},{"code":"100106269","variantCode":"100106269","name":"Bere artizanală Morning Glory IPA sticlă 0.33l","slug":"100106269-ground-zero-bere-artizanala-morning-glory-ipa-sticla-0-33l","unitPriceLabel":"45,42 Lei/l","brand":"Ground Zero","brandCode":"1764","brandFilterCode":"ground-zero-b1768","sku":"100106269","price":14.99,"originalPrice":null,"currencyCode":"RON","currency":"Lei","image":{"thumbnail":{"default":"https://cdn.freshful.ro/media/cache/sylius_shop_product_thumbnail/cb/36/6885e9b971bb86d5c3b09b9baf25.jpg"},"large":{"default":"https://cdn.freshful.ro/media/cache/freshful_large/cb/36/6885e9b971bb86d5c3b09b9baf25.jpg"},"extralarge":{"default":"https://cdn.freshful.ro/media/cache/sylius_shop_product_original/cb/36/6885e9b971bb86d5c3b09b9baf25.jpg"}},"label":{"text":"Profită acum","backgroundColor":"#FF9903","textColor":"#FFFFFF"},"tags":[],"isAvailable":true,"maxAvailableQuantity":50,"maxAllowedQuantity":50,"breadcrumbs":[{"code":"7","name":"Băuturi","slug":"7-bauturi-si-tutun"},{"code":"704","name":"Bere","slug":"704-bere"},{"code":"70406","name":"Bere artizanală românească","slug":"70406-bere-artizanala-romaneasca"},{"code":"100106269","name":"Bere artizanală Morning Glory IPA sticlă 0.33l","slug":"100106269-ground-zero-bere-artizanala-morning-glory-ipa-sticla-0-33l"}],"activePromotion":{"code":"targ-bere-snacks-mar23","name":"Preț avantajos","targetQuantity":null},"saveMe":null,"labels":[{"type":"v1","items":[{"text":"Profită acum","backgroundColor":"#FF9903","textColor":"#FFFFFF"}]}],"geniusPrice":null,"geniusUnitPricePerLabel":null,"banner":{"text":"Preț avantajos","textColor":"#F95510","bgColor":"#FEF1CD","icon":null,"link":"https://www.freshful.ro/oferte/targ-bere-snacks-mar23","type":"promo","analyticsEventType":"select_promotion","analyticsEventPayload":{"promotion_id":"targ-bere-snacks-mar23","promotion_name":"Bere și snackuri pentru toate gusturile"}},"discountLabel":null,"geniusDiscountLabel":null,"badge":null},{"code":"100106268","variantCode":"100106268","name":"Bere craft Easy Rider sticlă 0.33l ","slug":"100106268-ground-zero-bere-craft-easy-rider-sticla-0-33l","unitPriceLabel":"39,36 Lei/l","brand":"Ground Zero","brandCode":"1764","brandFilterCode":"ground-zero-b1768","sku":"100106268","price":12.99,"originalPrice":null,"currencyCode":"RON","currency":"Lei","image":{"thumbnail":{"default":"https://cdn.freshful.ro/media/cache/sylius_shop_product_thumbnail/a8/af/52a4ba95b78035706ce554281dc2.jpg"},"large":{"default":"https://cdn.freshful.ro/media/cache/freshful_large/a8/af/52a4ba95b78035706ce554281dc2.jpg"},"extralarge":{"default":"https://cdn.freshful.ro/media/cache/sylius_shop_product_original/a8/af/52a4ba95b78035706ce554281dc2.jpg"}},"label":{"text":"Profită acum","backgroundColor":"#FF9903","textColor":"#FFFFFF"},"tags":[],"isAvailable":true,"maxAvailableQuantity":50,"maxAllowedQuantity":50,"breadcrumbs":[{"code":"7","name":"Băuturi","slug":"7-bauturi-si-tutun"},{"code":"704","name":"Bere","slug":"704-bere"},{"code":"70406","name":"Bere artizanală românească","slug":"70406-bere-artizanala-romaneasca"},{"code":"100106268","name":"Bere craft Easy Rider sticlă 0.33l ","slug":"100106268-ground-zero-bere-craft-easy-rider-sticla-0-33l"}],"activePromotion":{"code":"targ-bere-snacks-mar23","name":"Preț avantajos","targetQuantity":null},"saveMe":null,"labels":[{"type":"v1","items":[{"text":"Profită acum","backgroundColor":"#FF9903","textColor":"#FFFFFF"}]}],"geniusPrice":null,"geniusUnitPricePerLabel":null,"banner":{"text":"Preț avantajos","textColor":"#F95510","bgColor":"#FEF1CD","icon":null,"link":"https://www.freshful.ro/oferte/targ-bere-snacks-mar23","type":"promo","analyticsEventType":"select_promotion","analyticsEventPayload":{"promotion_id":"targ-bere-snacks-mar23","promotion_name":"Bere și snackuri pentru toate gusturile"}},"discountLabel":null,"geniusDiscountLabel":null,"badge":null},{"code":"100047921","variantCode":"709750997041","name":"Bere artizanală nepasteurizată Hefeweizen sticlă 0.5l","slug":"100047921-zaganu-bere-artizanala-nepasteurizata-hefeweizen-sticla-0-5l","unitPriceLabel":"23,98 Lei/l","brand":"Zăganu","brandCode":"788","brandFilterCode":"zaganu-b789","sku":"100047921","price":11.99,"originalPrice":null,"currencyCode":"RON","currency":"Lei","image":{"thumbnail":{"default":"https://cdn.freshful.ro/media/cache/sylius_shop_product_thumbnail/a6/db/13556fe76ebff6804292e112e3a2.jpg"},"large":{"default":"https://cdn.freshful.ro/media/cache/freshful_large/a6/db/13556fe76ebff6804292e112e3a2.jpg"},"extralarge":{"default":"https://cdn.freshful.ro/media/cache/sylius_shop_product_original/a6/db/13556fe76ebff6804292e112e3a2.jpg"}},"label":{"text":"Profită acum","backgroundColor":"#FF9903","textColor":"#FFFFFF"},"tags":[{"type":"vegan","text":"Vegan","icon":"https://cdn.freshful.ro/assets/product_tags/vegan.svg","iconPng":"https://cdn.freshful.ro/assets/product_tags/vegan.png","backgroundColor":"#ECF9F8","textColor":"#33A39C"},{"type":"MadeInRomania","text":"Made In Romania","icon":"https://cdn.freshful.ro/assets/product_tags/made_in_romania.svg","iconPng":"https://cdn.freshful.ro/assets/product_tags/made_in_romania.png","backgroundColor":"#EDF2FD","textColor":"#1653CA"}],"isAvailable":true,"maxAvailableQuantity":50,"maxAllowedQuantity":50,"breadcrumbs":[{"code":"7","name":"Băuturi","slug":"7-bauturi-si-tutun"},{"code":"704","name":"Bere","slug":"704-bere"},{"code":"70406","name":"Bere artizanală românească","slug":"70406-bere-artizanala-romaneasca"},{"code":"100047921","name":"Bere artizanală nepasteurizată Hefeweizen sticlă 0.5l","slug":"100047921-zaganu-bere-artizanala-nepasteurizata-hefeweizen-sticla-0-5l"}],"activePromotion":{"code":"targ-bere-snacks-mar23","name":"Preț avantajos","targetQuantity":null},"saveMe":null,"labels":[{"type":"v1","items":[{"text":"Profită acum","backgroundColor":"#FF9903","textColor":"#FFFFFF"}]}],"geniusPrice":null,"geniusUnitPricePerLabel":null,"banner":{"text":"Preț avantajos","textColor":"#F95510","bgColor":"#FEF1CD","icon":null,"link":"https://www.freshful.ro/oferte/targ-bere-snacks-mar23","type":"promo","analyticsEventType":"select_promotion","analyticsEventPayload":{"promotion_id":"targ-bere-snacks-mar23","promotion_name":"Bere și snackuri pentru toate gusturile"}},"discountLabel":null,"geniusDiscountLabel":null,"badge":null},{"code":"100117995","variantCode":"100117995","name":"Bere India Pale Lager sticlă 0.33l","slug":"100117995-olovina-bere-india-pale-lager-sticla-0-33l","unitPriceLabel":"23 Lei/l","brand":"Olovina","brandCode":"1998","brandFilterCode":"olovina-b2007","sku":"100117995","price":7.59,"originalPrice":null,"currencyCode":"RON","currency":"Lei","image":{"thumbnail":{"default":"https://cdn.freshful.ro/media/cache/sylius_shop_product_thumbnail/de/72/05dc5c31118b9b379c3246758969.jpg"},"large":{"default":"https://cdn.freshful.ro/media/cache/freshful_large/de/72/05dc5c31118b9b379c3246758969.jpg"},"extralarge":{"default":"https://cdn.freshful.ro/media/cache/sylius_shop_product_original/de/72/05dc5c31118b9b379c3246758969.jpg"}},"label":{"text":"Profită acum","backgroundColor":"#FF9903","textColor":"#FFFFFF"},"tags":[{"type":"MadeInRomania","text":"Made In Romania","icon":"https://cdn.freshful.ro/assets/product_tags/made_in_romania.svg","iconPng":"https://cdn.freshful.ro/assets/product_tags/made_in_romania.png","backgroundColor":"#EDF2FD","textColor":"#1653CA"}],"isAvailable":true,"maxAvailableQuantity":50,"maxAllowedQuantity":50,"breadcrumbs":[{"code":"7","name":"Băuturi","slug":"7-bauturi-si-tutun"},{"code":"704","name":"Bere","slug":"704-bere"},{"code":"70406","name":"Bere artizanală românească","slug":"70406-bere-artizanala-romaneasca"},{"code":"100117995","name":"Bere India Pale Lager sticlă 0.33l","slug":"100117995-olovina-bere-india-pale-lager-sticla-0-33l"}],"activePromotion":{"code":"targ-bere-snacks-mar23","name":"Preț avantajos","targetQuantity":null},"saveMe":null,"labels":[{"type":"v1","items":[{"text":"Profită acum","backgroundColor":"#FF9903","textColor":"#FFFFFF"}]}],"geniusPrice":null,"geniusUnitPricePerLabel":null,"banner":{"text":"Preț avantajos","textColor":"#F95510","bgColor":"#FEF1CD","icon":null,"link":"https://www.freshful.ro/oferte/targ-bere-snacks-mar23","type":"promo","analyticsEventType":"select_promotion","analyticsEventPayload":{"promotion_id":"targ-bere-snacks-mar23","promotion_name":"Bere și snackuri pentru toate gusturile"}},"discountLabel":null,"geniusDiscountLabel":null,"badge":null},{"code":"100106270","variantCode":"100106270","name":"Bere artizanală Split the Pot sticlă 0.33l","slug":"100106270-ground-zero-bere-artizanala-split-the-pot-sticla-0-33l","unitPriceLabel":"45,42 Lei/l","brand":"Ground Zero","brandCode":"1764","brandFilterCode":"ground-zero-b1768","sku":"100106270","price":14.99,"originalPrice":16.99,"currencyCode":"RON","currency":"Lei","image":{"thumbnail":{"default":"https://cdn.freshful.ro/media/cache/sylius_shop_product_thumbnail/d6/96/e0a8d9653e6458325fd7e9d7f430.jpg"},"large":{"default":"https://cdn.freshful.ro/media/cache/freshful_large/d6/96/e0a8d9653e6458325fd7e9d7f430.jpg"},"extralarge":{"default":"https://cdn.freshful.ro/media/cache/sylius_shop_product_original/d6/96/e0a8d9653e6458325fd7e9d7f430.jpg"}},"label":{"text":"-11%","backgroundColor":"#FF9903","textColor":"#FFFFFF"},"tags":[],"isAvailable":true,"maxAvailableQuantity":28,"maxAllowedQuantity":50,"breadcrumbs":[{"code":"7","name":"Băuturi","slug":"7-bauturi-si-tutun"},{"code":"704","name":"Bere","slug":"704-bere"},{"code":"70406","name":"Bere artizanală românească","slug":"70406-bere-artizanala-romaneasca"},{"code":"100106270","name":"Bere artizanală Split the Pot sticlă 0.33l","slug":"100106270-ground-zero-bere-artizanala-split-the-pot-sticla-0-33l"}],"activePromotion":{"code":"targ-bere-snacks-mar23","name":"Preț redus","targetQuantity":null},"saveMe":null,"labels":[{"type":"v1","items":[{"text":"-11%","backgroundColor":"#FF9903","textColor":"#FFFFFF"}]}],"geniusPrice":null,"geniusUnitPricePerLabel":null,"banner":{"text":"Super preț","textColor":"#FF0000","bgColor":"#FFF2EC","icon":null,"link":"https://www.freshful.ro/oferte/targ-bere-snacks-mar23","type":"promo","analyticsEventType":"select_promotion","analyticsEventPayload":{"promotion_id":"targ-bere-snacks-mar23","promotion_name":"Bere și snackuri pentru toate gusturile"}},"discountLabel":"Economisești 11%","geniusDiscountLabel":null,"badge":null}],"filters":{"countSelected":0,"items":[{"code":"promotion","name":"Promoții","countSelected":0,"values":[{"code":"targ-bere-snacks-mar23","name":"Bere și snackuri pentru toate gusturile","isSelected":false,"count":30}]},{"code":"brand","name":"Brand","countSelected":0,"values":[{"code":"bere-grivita-b1592","name":"Bere Grivița","isSelected":false,"count":3},{"code":"carol-beer-b943","name":"Carol Beer","isSelected":false,"count":6},{"code":"clandestin-b1623","name":"Clandestin","isSelected":false,"count":3},{"code":"deranj-b1767","name":"Deranj","isSelected":false,"count":3},{"code":"ground-zero-b1768","name":"Ground Zero","isSelected":false,"count":6},{"code":"olovina-b2007","name":"Olovina","isSelected":false,"count":4},{"code":"one-beer-later-b2877","name":"One Beer Later","isSelected":false,"count":3},{"code":"zaganu-b789","name":"Zăganu","isSelected":false,"count":4}]},{"code":"diet_lifestyle","name":"Dietă și lifestyle","countSelected":0,"values":[{"code":"made-in-romania-a85","name":"Made In Romania","isSelected":false,"count":20},{"code":"vegan-a24","name":"Vegan","isSelected":false,"count":5}]}]},"orderBy":[{"field":"price","direction":"asc","name":"Preț crescător","isSelected":false},{"field":"price","direction":"desc","name":"Preț descrescător","isSelected":false},{"field":"popularity","direction":"desc","name":"Cele mai populare","isSelected":true},{"field":"category","direction":"asc","name":"Categorie","isSelected":false}],"metaTitle":"Bere artizanală românească - Gamă variată","metaDescription":"Vrei Bere artizanală românească? Alege dintr-o gamă variată. Comanzi simplu și ai livrare rapidă, calitate și prospețime. Hai pe Freshful.ro","metaKeywords":null,"banners":[]}}