{"type":"subcategory","payload":{"analyticsListId":"category_70401-bere-blonda","analyticsListName":"Category - Bere blondă","name":"Bere blondă","slug":"70401-bere-blonda","image":null,"breadcrumbs":[{"code":"7","name":"Băuturi","slug":"7-bauturi-si-tutun"},{"code":"704","name":"Bere","slug":"704-bere"},{"code":"70401","name":"Bere blondă","slug":"70401-bere-blonda"}],"slots":[],"page":1,"limit":10,"pages":10,"count":97,"siblings":[{"name":"Băuturi necarbogazoase și siropuri","slug":"701-bauturi-necarbogazoase-si-siropuri","selected":false},{"name":"Apă","slug":"702-apa","selected":false},{"name":"Băuturi carbogazoase","slug":"703-bauturi-carbogazoase","selected":false},{"name":"Bere","slug":"704-bere","selected":true},{"name":"Vinuri","slug":"705-vinuri","selected":false},{"name":"Băuturi spirtoase","slug":"706-bauturi-spirtoase","selected":false},{"name":"Tutun","slug":"707-tutun","selected":false}],"children":[{"name":"Toate produsele","slug":"704-bere","selected":false},{"name":"Bere blondă","slug":"70401-bere-blonda","selected":true},{"name":"Bere albă","slug":"70402-bere-alba","selected":false},{"name":"Bere roșie și brună","slug":"70403-bere-rosie-si-neagra","selected":false},{"name":"Bere radler și cu arome","slug":"70404-bere-radler-si-cu-arome","selected":false},{"name":"Cidru","slug":"70405-cidru","selected":false},{"name":"Bere artizanală românească","slug":"70406-bere-artizanala-romaneasca","selected":false},{"name":"Specialități internaționale","slug":"70407-bere-internationala","selected":false},{"name":"Bere fără alcool","slug":"70408-bere-fara-alcool","selected":false}],"products":[{"code":"100138409","variantCode":"100138409","name":"Bere blondă Paloșul lui Ștefan sticlă 0.33l","slug":"100138409-barlog-bere-blonda-palosul-lui-stefan-sticla-0-33l","unitPriceLabel":"18,15 Lei/l","brand":"Bârlog","brandCode":"2644","brandFilterCode":"barlog-b2648","sku":"100138409","price":5.99,"originalPrice":null,"currencyCode":"RON","currency":"Lei","image":{"thumbnail":{"default":"https://cdn.freshful.ro/media/cache/sylius_shop_product_thumbnail/10/8c/6f66c787c5f5b0e49fee5e3f8836.jpg"},"large":{"default":"https://cdn.freshful.ro/media/cache/freshful_large/10/8c/6f66c787c5f5b0e49fee5e3f8836.jpg"},"extralarge":{"default":"https://cdn.freshful.ro/media/cache/sylius_shop_product_original/10/8c/6f66c787c5f5b0e49fee5e3f8836.jpg"}},"label":{"text":"Profită acum","backgroundColor":"#FF9903","textColor":"#FFFFFF"},"tags":[],"isAvailable":true,"maxAvailableQuantity":50,"maxAllowedQuantity":50,"breadcrumbs":[{"code":"7","name":"Băuturi","slug":"7-bauturi-si-tutun"},{"code":"704","name":"Bere","slug":"704-bere"},{"code":"70401","name":"Bere blondă","slug":"70401-bere-blonda"},{"code":"100138409","name":"Bere blondă Paloșul lui Ștefan sticlă 0.33l","slug":"100138409-barlog-bere-blonda-palosul-lui-stefan-sticla-0-33l"}],"activePromotion":{"code":"targ-bere-snacks-mar23","name":"Preț avantajos","targetQuantity":null},"saveMe":null,"labels":[{"type":"v1","items":[{"text":"Profită acum","backgroundColor":"#FF9903","textColor":"#FFFFFF"}]}],"geniusPrice":null,"geniusUnitPricePerLabel":null,"banner":{"text":"Preț avantajos","textColor":"#F95510","bgColor":"#FEF1CD","icon":null,"link":"https://www.freshful.ro/oferte/targ-bere-snacks-mar23","type":"promo","analyticsEventType":"select_promotion","analyticsEventPayload":{"promotion_id":"targ-bere-snacks-mar23","promotion_name":"Bere și snackuri pentru toate gusturile"}},"discountLabel":null,"geniusDiscountLabel":null,"badge":null},{"code":"100042397","variantCode":"100042397","name":"Bere blondă nepasteurizată sticlă 0.5l","slug":"100042397-azuga-bere-blonda-nepasteurizata-sticla-0-5l","unitPriceLabel":"13,98 Lei/l","brand":"Azuga","brandCode":"584","brandFilterCode":"azuga-b585","sku":"100042397","price":6.99,"originalPrice":null,"currencyCode":"RON","currency":"Lei","image":{"thumbnail":{"default":"https://cdn.freshful.ro/media/cache/sylius_shop_product_thumbnail/e3/85/c06d4c3e427e30e75d1a31ff5dc0.jpg"},"large":{"default":"https://cdn.freshful.ro/media/cache/freshful_large/e3/85/c06d4c3e427e30e75d1a31ff5dc0.jpg"},"extralarge":{"default":"https://cdn.freshful.ro/media/cache/sylius_shop_product_original/e3/85/c06d4c3e427e30e75d1a31ff5dc0.jpg"}},"label":{"text":"Profită acum","backgroundColor":"#FF9903","textColor":"#FFFFFF"},"tags":[],"isAvailable":true,"maxAvailableQuantity":50,"maxAllowedQuantity":50,"breadcrumbs":[{"code":"7","name":"Băuturi","slug":"7-bauturi-si-tutun"},{"code":"704","name":"Bere","slug":"704-bere"},{"code":"70401","name":"Bere blondă","slug":"70401-bere-blonda"},{"code":"100042397","name":"Bere blondă nepasteurizată sticlă 0.5l","slug":"100042397-azuga-bere-blonda-nepasteurizata-sticla-0-5l"}],"activePromotion":{"code":"targ-bere-snacks-mar23","name":"Preț avantajos","targetQuantity":null},"saveMe":null,"labels":[{"type":"v1","items":[{"text":"Profită acum","backgroundColor":"#FF9903","textColor":"#FFFFFF"}]}],"geniusPrice":null,"geniusUnitPricePerLabel":null,"banner":{"text":"Preț avantajos","textColor":"#F95510","bgColor":"#FEF1CD","icon":null,"link":"https://www.freshful.ro/oferte/targ-bere-snacks-mar23","type":"promo","analyticsEventType":"select_promotion","analyticsEventPayload":{"promotion_id":"targ-bere-snacks-mar23","promotion_name":"Bere și snackuri pentru toate gusturile"}},"discountLabel":null,"geniusDiscountLabel":null,"badge":null},{"code":"100138410","variantCode":"100138410","name":"Bere blondă Țeapa lui Vlad sticlă 0.33l","slug":"100138410-barlog-bere-blonda-teapa-lui-vlad-sticla-0-33l","unitPriceLabel":"18,15 Lei/l","brand":"Bârlog","brandCode":"2644","brandFilterCode":"barlog-b2648","sku":"100138410","price":5.99,"originalPrice":null,"currencyCode":"RON","currency":"Lei","image":{"thumbnail":{"default":"https://cdn.freshful.ro/media/cache/sylius_shop_product_thumbnail/07/6d/d5c2f33c3b50b1264da062580dd4.jpg"},"large":{"default":"https://cdn.freshful.ro/media/cache/freshful_large/07/6d/d5c2f33c3b50b1264da062580dd4.jpg"},"extralarge":{"default":"https://cdn.freshful.ro/media/cache/sylius_shop_product_original/07/6d/d5c2f33c3b50b1264da062580dd4.jpg"}},"label":{"text":"Profită acum","backgroundColor":"#FF9903","textColor":"#FFFFFF"},"tags":[],"isAvailable":true,"maxAvailableQuantity":50,"maxAllowedQuantity":50,"breadcrumbs":[{"code":"7","name":"Băuturi","slug":"7-bauturi-si-tutun"},{"code":"704","name":"Bere","slug":"704-bere"},{"code":"70401","name":"Bere blondă","slug":"70401-bere-blonda"},{"code":"100138410","name":"Bere blondă Țeapa lui Vlad sticlă 0.33l","slug":"100138410-barlog-bere-blonda-teapa-lui-vlad-sticla-0-33l"}],"activePromotion":{"code":"targ-bere-snacks-mar23","name":"Preț avantajos","targetQuantity":null},"saveMe":null,"labels":[{"type":"v1","items":[{"text":"Profită acum","backgroundColor":"#FF9903","textColor":"#FFFFFF"}]}],"geniusPrice":null,"geniusUnitPricePerLabel":null,"banner":{"text":"Preț avantajos","textColor":"#F95510","bgColor":"#FEF1CD","icon":null,"link":"https://www.freshful.ro/oferte/targ-bere-snacks-mar23","type":"promo","analyticsEventType":"select_promotion","analyticsEventPayload":{"promotion_id":"targ-bere-snacks-mar23","promotion_name":"Bere și snackuri pentru toate gusturile"}},"discountLabel":null,"geniusDiscountLabel":null,"badge":null},{"code":"100138411","variantCode":"100138411","name":"Bere blondă Coșmarul lui Baiazid sticlă 0.33l","slug":"100138411-barlog-bere-blonda-cosmarul-lui-baiazid-sticla-0-33l","unitPriceLabel":"18,15 Lei/l","brand":"Bârlog","brandCode":"2644","brandFilterCode":"barlog-b2648","sku":"100138411","price":5.99,"originalPrice":null,"currencyCode":"RON","currency":"Lei","image":{"thumbnail":{"default":"https://cdn.freshful.ro/media/cache/sylius_shop_product_thumbnail/40/08/b109cd53c68f63bcde3f1cd2385f.jpg"},"large":{"default":"https://cdn.freshful.ro/media/cache/freshful_large/40/08/b109cd53c68f63bcde3f1cd2385f.jpg"},"extralarge":{"default":"https://cdn.freshful.ro/media/cache/sylius_shop_product_original/40/08/b109cd53c68f63bcde3f1cd2385f.jpg"}},"label":{"text":"Profită acum","backgroundColor":"#FF9903","textColor":"#FFFFFF"},"tags":[],"isAvailable":true,"maxAvailableQuantity":50,"maxAllowedQuantity":50,"breadcrumbs":[{"code":"7","name":"Băuturi","slug":"7-bauturi-si-tutun"},{"code":"704","name":"Bere","slug":"704-bere"},{"code":"70401","name":"Bere blondă","slug":"70401-bere-blonda"},{"code":"100138411","name":"Bere blondă Coșmarul lui Baiazid sticlă 0.33l","slug":"100138411-barlog-bere-blonda-cosmarul-lui-baiazid-sticla-0-33l"}],"activePromotion":{"code":"targ-bere-snacks-mar23","name":"Preț avantajos","targetQuantity":null},"saveMe":null,"labels":[{"type":"v1","items":[{"text":"Profită acum","backgroundColor":"#FF9903","textColor":"#FFFFFF"}]}],"geniusPrice":null,"geniusUnitPricePerLabel":null,"banner":{"text":"Preț avantajos","textColor":"#F95510","bgColor":"#FEF1CD","icon":null,"link":"https://www.freshful.ro/oferte/targ-bere-snacks-mar23","type":"promo","analyticsEventType":"select_promotion","analyticsEventPayload":{"promotion_id":"targ-bere-snacks-mar23","promotion_name":"Bere și snackuri pentru toate gusturile"}},"discountLabel":null,"geniusDiscountLabel":null,"badge":null},{"code":"100127771","variantCode":"100127771","name":"Bere blondă fără gluten sticlă 0.33l","slug":"100127771-estrella-damm-bere-blonda-fara-gluten-sticla-0-33l","unitPriceLabel":"17,12 Lei/l","brand":"Estrella Damm","brandCode":"2281","brandFilterCode":"estrella-damm-b2285","sku":"100127771","price":5.65,"originalPrice":null,"currencyCode":"RON","currency":"Lei","image":{"thumbnail":{"default":"https://cdn.freshful.ro/media/cache/sylius_shop_product_thumbnail/d5/7d/d9e8fbbc39cc12c153da1691752e.jpg"},"large":{"default":"https://cdn.freshful.ro/media/cache/freshful_large/d5/7d/d9e8fbbc39cc12c153da1691752e.jpg"},"extralarge":{"default":"https://cdn.freshful.ro/media/cache/sylius_shop_product_original/d5/7d/d9e8fbbc39cc12c153da1691752e.jpg"}},"label":{"text":"Profită acum","backgroundColor":"#FF9903","textColor":"#FFFFFF"},"tags":[{"type":"NoGluten","text":"Fara gluten","icon":"https://cdn.freshful.ro/assets/product_tags/fara_gluten.svg","iconPng":"https://cdn.freshful.ro/assets/product_tags/fara_gluten.png","backgroundColor":"#FFF2E5","textColor":"#F07900"}],"isAvailable":true,"maxAvailableQuantity":50,"maxAllowedQuantity":50,"breadcrumbs":[{"code":"7","name":"Băuturi","slug":"7-bauturi-si-tutun"},{"code":"704","name":"Bere","slug":"704-bere"},{"code":"70401","name":"Bere blondă","slug":"70401-bere-blonda"},{"code":"100127771","name":"Bere blondă fără gluten sticlă 0.33l","slug":"100127771-estrella-damm-bere-blonda-fara-gluten-sticla-0-33l"}],"activePromotion":{"code":"targ-bere-snacks-mar23","name":"Preț avantajos","targetQuantity":null},"saveMe":null,"labels":[{"type":"v1","items":[{"text":"Profită acum","backgroundColor":"#FF9903","textColor":"#FFFFFF"}]}],"geniusPrice":null,"geniusUnitPricePerLabel":null,"banner":{"text":"Preț avantajos","textColor":"#F95510","bgColor":"#FEF1CD","icon":null,"link":"https://www.freshful.ro/oferte/targ-bere-snacks-mar23","type":"promo","analyticsEventType":"select_promotion","analyticsEventPayload":{"promotion_id":"targ-bere-snacks-mar23","promotion_name":"Bere și snackuri pentru toate gusturile"}},"discountLabel":null,"geniusDiscountLabel":null,"badge":null},{"code":"100146685","variantCode":"100146685","name":"Bere blondă artizanală nepasteurizată Rock 'n' Beer 0.33l","slug":"100146685-one-beer-later-bere-blonda-artizanala-nepasteurizata-rock-n-beer-0-33l","unitPriceLabel":"29,97 Lei/l","brand":"One Beer Later","brandCode":"2791","brandFilterCode":"one-beer-later-b2877","sku":"100146685","price":9.89,"originalPrice":9.99,"currencyCode":"RON","currency":"Lei","image":{"thumbnail":{"default":"https://cdn.freshful.ro/media/cache/sylius_shop_product_thumbnail/d9/db/82d74b8d62e28816cf4dba774915.jpg"},"large":{"default":"https://cdn.freshful.ro/media/cache/freshful_large/d9/db/82d74b8d62e28816cf4dba774915.jpg"},"extralarge":{"default":"https://cdn.freshful.ro/media/cache/sylius_shop_product_original/d9/db/82d74b8d62e28816cf4dba774915.jpg"}},"label":{"text":"-1%","backgroundColor":"#FF9903","textColor":"#FFFFFF"},"tags":[{"type":"saltFree","text":"Fara sare","icon":"https://cdn.freshful.ro/assets/product_tags/salt_free.svg","iconPng":"https://cdn.freshful.ro/assets/product_tags/salt_free.png","backgroundColor":"#E9F6F1","textColor":"#46AB86"}],"isAvailable":true,"maxAvailableQuantity":47,"maxAllowedQuantity":50,"breadcrumbs":[{"code":"7","name":"Băuturi","slug":"7-bauturi-si-tutun"},{"code":"704","name":"Bere","slug":"704-bere"},{"code":"70401","name":"Bere blondă","slug":"70401-bere-blonda"},{"code":"100146685","name":"Bere blondă artizanală nepasteurizată Rock 'n' Beer 0.33l","slug":"100146685-one-beer-later-bere-blonda-artizanala-nepasteurizata-rock-n-beer-0-33l"}],"activePromotion":{"code":"targ-bere-snacks-mar23","name":"Preț redus","targetQuantity":null},"saveMe":null,"labels":[{"type":"v1","items":[{"text":"-1%","backgroundColor":"#FF9903","textColor":"#FFFFFF"}]}],"geniusPrice":null,"geniusUnitPricePerLabel":null,"banner":{"text":"Super preț","textColor":"#FF0000","bgColor":"#FFF2EC","icon":null,"link":"https://www.freshful.ro/oferte/targ-bere-snacks-mar23","type":"promo","analyticsEventType":"select_promotion","analyticsEventPayload":{"promotion_id":"targ-bere-snacks-mar23","promotion_name":"Bere și snackuri pentru toate gusturile"}},"discountLabel":"Economisești 1%","geniusDiscountLabel":null,"badge":null},{"code":"100120530","variantCode":"100120530","name":"Bere blondă sticlă 6x0.33l","slug":"100120530-heineken-bere-blonda-sticla-6x0-33l","unitPriceLabel":"15,73 Lei/l","brand":"Heineken","brandCode":"905","brandFilterCode":"heineken-b906","sku":"100120530","price":31.14,"originalPrice":null,"currencyCode":"RON","currency":"Lei","image":{"thumbnail":{"default":"https://cdn.freshful.ro/media/cache/sylius_shop_product_thumbnail/8c/fe/6259dee339215aa4e100a87f483f.jpg"},"large":{"default":"https://cdn.freshful.ro/media/cache/freshful_large/8c/fe/6259dee339215aa4e100a87f483f.jpg"},"extralarge":{"default":"https://cdn.freshful.ro/media/cache/sylius_shop_product_original/8c/fe/6259dee339215aa4e100a87f483f.jpg"}},"label":null,"tags":[],"isAvailable":true,"maxAvailableQuantity":50,"maxAllowedQuantity":50,"breadcrumbs":[{"code":"7","name":"Băuturi","slug":"7-bauturi-si-tutun"},{"code":"704","name":"Bere","slug":"704-bere"},{"code":"70401","name":"Bere blondă","slug":"70401-bere-blonda"},{"code":"100120530","name":"Bere blondă sticlă 6x0.33l","slug":"100120530-heineken-bere-blonda-sticla-6x0-33l"}],"activePromotion":null,"saveMe":null,"labels":[],"geniusPrice":null,"geniusUnitPricePerLabel":null,"banner":null,"discountLabel":null,"geniusDiscountLabel":null,"badge":null},{"code":"100131699","variantCode":"100131699","name":"Bere blondă doză 6x0.5l (5+1)","slug":"100131699-stella-artois-bere-blonda-doza-6x0-5l-5-1","unitPriceLabel":"8,67 Lei/l","brand":"Stella Artois","brandCode":"598","brandFilterCode":"stella-artois-b599","sku":"100131699","price":26.02,"originalPrice":null,"currencyCode":"RON","currency":"Lei","image":{"thumbnail":{"default":"https://cdn.freshful.ro/media/cache/sylius_shop_product_thumbnail/81/89/bf467fe2f409f1d7eacb39d58668.jpg"},"large":{"default":"https://cdn.freshful.ro/media/cache/freshful_large/81/89/bf467fe2f409f1d7eacb39d58668.jpg"},"extralarge":{"default":"https://cdn.freshful.ro/media/cache/sylius_shop_product_original/81/89/bf467fe2f409f1d7eacb39d58668.jpg"}},"label":null,"tags":[],"isAvailable":true,"maxAvailableQuantity":12,"maxAllowedQuantity":12,"breadcrumbs":[{"code":"7","name":"Băuturi","slug":"7-bauturi-si-tutun"},{"code":"704","name":"Bere","slug":"704-bere"},{"code":"70401","name":"Bere blondă","slug":"70401-bere-blonda"},{"code":"100131699","name":"Bere blondă doză 6x0.5l (5+1)","slug":"100131699-stella-artois-bere-blonda-doza-6x0-5l-5-1"}],"activePromotion":null,"saveMe":null,"labels":[],"geniusPrice":null,"geniusUnitPricePerLabel":null,"banner":null,"discountLabel":null,"geniusDiscountLabel":null,"badge":null},{"code":"100120540","variantCode":"100120540","name":"Bere blondă sticlă 6x0.33l","slug":"100120540-birra-moretti-bere-blonda-sticla-6x0-33l","unitPriceLabel":"12,09 Lei/l","brand":"Birra Moretti","brandCode":"899","brandFilterCode":"birra-moretti-b900","sku":"100120540","price":23.94,"originalPrice":null,"currencyCode":"RON","currency":"Lei","image":{"thumbnail":{"default":"https://cdn.freshful.ro/media/cache/sylius_shop_product_thumbnail/c0/15/90743de5391448e4bba05a24e285.jpg"},"large":{"default":"https://cdn.freshful.ro/media/cache/freshful_large/c0/15/90743de5391448e4bba05a24e285.jpg"},"extralarge":{"default":"https://cdn.freshful.ro/media/cache/sylius_shop_product_original/c0/15/90743de5391448e4bba05a24e285.jpg"}},"label":null,"tags":[],"isAvailable":true,"maxAvailableQuantity":50,"maxAllowedQuantity":50,"breadcrumbs":[{"code":"7","name":"Băuturi","slug":"7-bauturi-si-tutun"},{"code":"704","name":"Bere","slug":"704-bere"},{"code":"70401","name":"Bere blondă","slug":"70401-bere-blonda"},{"code":"100120540","name":"Bere blondă sticlă 6x0.33l","slug":"100120540-birra-moretti-bere-blonda-sticla-6x0-33l"}],"activePromotion":null,"saveMe":null,"labels":[],"geniusPrice":null,"geniusUnitPricePerLabel":null,"banner":null,"discountLabel":null,"geniusDiscountLabel":null,"badge":null},{"code":"100107074","variantCode":"100107074","name":"Bere blondă doză 6x0.5l (5+1)","slug":"100107074-staropramen-bere-blonda-doza-6x0-5l-5-1","unitPriceLabel":"6,32 Lei/l","brand":"Staropramen","brandCode":"599","brandFilterCode":"staropramen-b600","sku":"100107074","price":18.95,"originalPrice":null,"currencyCode":"RON","currency":"Lei","image":{"thumbnail":{"default":"https://cdn.freshful.ro/media/cache/sylius_shop_product_thumbnail/62/19/408d8d1e4d6003648791b063d97c.jpg"},"large":{"default":"https://cdn.freshful.ro/media/cache/freshful_large/62/19/408d8d1e4d6003648791b063d97c.jpg"},"extralarge":{"default":"https://cdn.freshful.ro/media/cache/sylius_shop_product_original/62/19/408d8d1e4d6003648791b063d97c.jpg"}},"label":null,"tags":[],"isAvailable":true,"maxAvailableQuantity":12,"maxAllowedQuantity":12,"breadcrumbs":[{"code":"7","name":"Băuturi","slug":"7-bauturi-si-tutun"},{"code":"704","name":"Bere","slug":"704-bere"},{"code":"70401","name":"Bere blondă","slug":"70401-bere-blonda"},{"code":"100107074","name":"Bere blondă doză 6x0.5l (5+1)","slug":"100107074-staropramen-bere-blonda-doza-6x0-5l-5-1"}],"activePromotion":null,"saveMe":null,"labels":[],"geniusPrice":null,"geniusUnitPricePerLabel":null,"banner":null,"discountLabel":null,"geniusDiscountLabel":null,"badge":null}],"filters":{"countSelected":0,"items":[{"code":"promotion","name":"Promoții","countSelected":0,"values":[{"code":"targ-bere-snacks-mar23","name":"Bere și snackuri pentru toate gusturile","isSelected":false,"count":6}]},{"code":"brand","name":"Brand","countSelected":0,"values":[{"code":"albacher-b2633","name":"Albacher","isSelected":false,"count":1},{"code":"azuga-b585","name":"Azuga","isSelected":false,"count":1},{"code":"beck-s-b601","name":"Beck's","isSelected":false,"count":5},{"code":"bergenbier-b597","name":"Bergenbier","isSelected":false,"count":4},{"code":"birra-moretti-b900","name":"Birra Moretti","isSelected":false,"count":7},{"code":"bucegi-b901","name":"Bucegi","isSelected":false,"count":1},{"code":"barlog-b2648","name":"Bârlog","isSelected":false,"count":3},{"code":"carlsberg-b712","name":"Carlsberg","isSelected":false,"count":5},{"code":"carlsberg-luma-b2695","name":"Carlsberg Luma","isSelected":false,"count":2},{"code":"ciuc-b902","name":"Ciuc","isSelected":false,"count":5},{"code":"ciuc-radler-b903","name":"Ciuc Radler","isSelected":false,"count":1},{"code":"ciucas-b586","name":"Ciucaș","isSelected":false,"count":5},{"code":"estrella-damm-b2285","name":"Estrella Damm","isSelected":false,"count":1},{"code":"golden-brau-b905","name":"Golden Brau","isSelected":false,"count":2},{"code":"heineken-b906","name":"Heineken","isSelected":false,"count":7},{"code":"heineken-silver-b2696","name":"Heineken Silver","isSelected":false,"count":4},{"code":"holsten-b714","name":"Holsten","isSelected":false,"count":2},{"code":"kozel-b2651","name":"Kozel","isSelected":false,"count":4},{"code":"neumarkt-b907","name":"Neumarkt","isSelected":false,"count":2},{"code":"one-beer-later-b2877","name":"One Beer Later","isSelected":false,"count":1},{"code":"peroni-b588","name":"Peroni","isSelected":false,"count":3},{"code":"pilsner-urquell-b589","name":"Pilsner Urquell","isSelected":false,"count":2},{"code":"praha-b2601","name":"Praha","isSelected":false,"count":2},{"code":"staropramen-b600","name":"Staropramen","isSelected":false,"count":4},{"code":"stella-artois-b599","name":"Stella Artois","isSelected":false,"count":6},{"code":"timisoreana-b591","name":"Timișoreana","isSelected":false,"count":7},{"code":"tuborg-b713","name":"Tuborg","isSelected":false,"count":5},{"code":"ursus-b592","name":"Ursus","isSelected":false,"count":4},{"code":"ursus-retro-b2507","name":"Ursus Retro","isSelected":false,"count":1}]},{"code":"diet_lifestyle","name":"Dietă și lifestyle","countSelected":0,"values":[{"code":"fara-gluten-a16","name":"Fara gluten","isSelected":false,"count":1},{"code":"fara-sare-a52","name":"Fara sare","isSelected":false,"count":1}]}]},"orderBy":[{"field":"price","direction":"asc","name":"Preț crescător","isSelected":false},{"field":"price","direction":"desc","name":"Preț descrescător","isSelected":false},{"field":"popularity","direction":"desc","name":"Cele mai populare","isSelected":true},{"field":"category","direction":"asc","name":"Categorie","isSelected":false}],"metaTitle":"Bere blondă - Gamă variată","metaDescription":"Vrei Bere blondă? Alege dintr-o gamă variată. Comanzi simplu și ai livrare rapidă, calitate și prospețime. Hai pe Freshful.ro","metaKeywords":null,"banners":[]}}