{"type":"subcategory","payload":{"analyticsListId":"category_70502-vinuri-bio","analyticsListName":"Category - Vinuri ECO","name":"Vinuri ECO","slug":"70502-vinuri-bio","image":null,"breadcrumbs":[{"code":"7","name":"Băuturi","slug":"7-bauturi-si-tutun"},{"code":"705","name":"Vinuri","slug":"705-vinuri"},{"code":"70502","name":"Vinuri ECO","slug":"70502-vinuri-bio"}],"slots":[],"page":1,"limit":10,"pages":3,"count":28,"siblings":[{"name":"Băuturi necarbogazoase și siropuri","slug":"701-bauturi-necarbogazoase-si-siropuri","selected":false},{"name":"Apă","slug":"702-apa","selected":false},{"name":"Băuturi carbogazoase","slug":"703-bauturi-carbogazoase","selected":false},{"name":"Bere","slug":"704-bere","selected":false},{"name":"Vinuri","slug":"705-vinuri","selected":true},{"name":"Băuturi spirtoase","slug":"706-bauturi-spirtoase","selected":false},{"name":"Tutun","slug":"707-tutun","selected":false}],"children":[{"name":"Toate produsele","slug":"705-vinuri","selected":false},{"name":"Șampanie și spumant","slug":"70501-sampanie-si-spumant","selected":false},{"name":"Vinuri ECO","slug":"70502-vinuri-bio","selected":true},{"name":"Vinuri albe românești","slug":"70503-vinuri-albe-romanesti","selected":false},{"name":"Vinuri roșii românești","slug":"70504-vinuri-rosii-romanesti","selected":false},{"name":"Vinuri rose românești","slug":"70505-vinuri-roze-romanesti","selected":false},{"name":"Vinuri internaționale","slug":"70506-vinuri-internationale","selected":false}],"products":[{"code":"100075307","variantCode":"100075307","name":"Vin rose sec eco Merlot 0.75l","slug":"100075307-budureasca-organic-vin-rose-sec-eco-merlot-0-75l","unitPriceLabel":"61,32 Lei/l","brand":"Budureasca Organic","brandCode":"1346","brandFilterCode":"budureasca-organic-b1359","sku":"100075307","price":45.99,"originalPrice":52.99,"currencyCode":"RON","currency":"Lei","image":{"thumbnail":{"default":"https://cdn.freshful.ro/media/cache/sylius_shop_product_thumbnail/7d/3f/85d743e3c9f227c4501bb70cbca8.jpg"},"large":{"default":"https://cdn.freshful.ro/media/cache/freshful_large/7d/3f/85d743e3c9f227c4501bb70cbca8.jpg"},"extralarge":{"default":"https://cdn.freshful.ro/media/cache/sylius_shop_product_original/7d/3f/85d743e3c9f227c4501bb70cbca8.jpg"}},"label":{"text":"-13%","backgroundColor":"#FF9903","textColor":"#FFFFFF"},"tags":[{"type":"Eco","text":"Eco","icon":"https://cdn.freshful.ro/assets/product_tags/eco.svg","iconPng":"https://cdn.freshful.ro/assets/product_tags/eco.png","backgroundColor":"#EFFBE4","textColor":"#66BB1B"},{"type":"MadeInRomania","text":"Made In Romania","icon":"https://cdn.freshful.ro/assets/product_tags/made_in_romania.svg","iconPng":"https://cdn.freshful.ro/assets/product_tags/made_in_romania.png","backgroundColor":"#EDF2FD","textColor":"#1653CA"}],"isAvailable":true,"maxAvailableQuantity":36,"maxAllowedQuantity":100,"breadcrumbs":[{"code":"7","name":"Băuturi","slug":"7-bauturi-si-tutun"},{"code":"705","name":"Vinuri","slug":"705-vinuri"},{"code":"70502","name":"Vinuri ECO","slug":"70502-vinuri-bio"},{"code":"100075307","name":"Vin rose sec eco Merlot 0.75l","slug":"100075307-budureasca-organic-vin-rose-sec-eco-merlot-0-75l"}],"activePromotion":{"code":"special-produse-vegane-mar23","name":"Preț redus","targetQuantity":null},"saveMe":null,"labels":[{"type":"v1","items":[{"text":"-13%","backgroundColor":"#FF9903","textColor":"#FFFFFF"}]}],"geniusPrice":null,"geniusUnitPricePerLabel":null,"banner":{"text":"Super preț","textColor":"#FF0000","bgColor":"#FFF2EC","icon":null,"link":"https://www.freshful.ro/oferte/special-produse-vegane-mar23","type":"promo","analyticsEventType":"select_promotion","analyticsEventPayload":{"promotion_id":"special-produse-vegane-mar23","promotion_name":"Și bun, și de post"}},"discountLabel":"Economisești 13%","geniusDiscountLabel":null,"badge":null},{"code":"100075308","variantCode":"100075308","name":"Vin alb sec eco Chardonnay 0.75l","slug":"100075308-budureasca-organic-vin-alb-sec-eco-chardonnay-0-75l","unitPriceLabel":"61,32 Lei/l","brand":"Budureasca Organic","brandCode":"1346","brandFilterCode":"budureasca-organic-b1359","sku":"100075308","price":45.99,"originalPrice":null,"currencyCode":"RON","currency":"Lei","image":{"thumbnail":{"default":"https://cdn.freshful.ro/media/cache/sylius_shop_product_thumbnail/bd/a6/1a725bf1469378cdf800d4e2cd68.jpg"},"large":{"default":"https://cdn.freshful.ro/media/cache/freshful_large/bd/a6/1a725bf1469378cdf800d4e2cd68.jpg"},"extralarge":{"default":"https://cdn.freshful.ro/media/cache/sylius_shop_product_original/bd/a6/1a725bf1469378cdf800d4e2cd68.jpg"}},"label":{"text":"Profită acum","backgroundColor":"#FF9903","textColor":"#FFFFFF"},"tags":[{"type":"Eco","text":"Eco","icon":"https://cdn.freshful.ro/assets/product_tags/eco.svg","iconPng":"https://cdn.freshful.ro/assets/product_tags/eco.png","backgroundColor":"#EFFBE4","textColor":"#66BB1B"},{"type":"MadeInRomania","text":"Made In Romania","icon":"https://cdn.freshful.ro/assets/product_tags/made_in_romania.svg","iconPng":"https://cdn.freshful.ro/assets/product_tags/made_in_romania.png","backgroundColor":"#EDF2FD","textColor":"#1653CA"}],"isAvailable":true,"maxAvailableQuantity":43,"maxAllowedQuantity":100,"breadcrumbs":[{"code":"7","name":"Băuturi","slug":"7-bauturi-si-tutun"},{"code":"705","name":"Vinuri","slug":"705-vinuri"},{"code":"70502","name":"Vinuri ECO","slug":"70502-vinuri-bio"},{"code":"100075308","name":"Vin alb sec eco Chardonnay 0.75l","slug":"100075308-budureasca-organic-vin-alb-sec-eco-chardonnay-0-75l"}],"activePromotion":{"code":"special-produse-vegane-mar23","name":"Preț avantajos","targetQuantity":null},"saveMe":null,"labels":[{"type":"v1","items":[{"text":"Profită acum","backgroundColor":"#FF9903","textColor":"#FFFFFF"}]}],"geniusPrice":null,"geniusUnitPricePerLabel":null,"banner":{"text":"Preț avantajos","textColor":"#F95510","bgColor":"#FEF1CD","icon":null,"link":"https://www.freshful.ro/oferte/special-produse-vegane-mar23","type":"promo","analyticsEventType":"select_promotion","analyticsEventPayload":{"promotion_id":"special-produse-vegane-mar23","promotion_name":"Și bun, și de post"}},"discountLabel":null,"geniusDiscountLabel":null,"badge":null},{"code":"100075309","variantCode":"100075309","name":"Vin roșu sec eco Merlot 0.75l","slug":"100075309-budureasca-organic-vin-rosu-sec-eco-merlot-0-75l","unitPriceLabel":"61,32 Lei/l","brand":"Budureasca Organic","brandCode":"1346","brandFilterCode":"budureasca-organic-b1359","sku":"100075309","price":45.99,"originalPrice":48.79,"currencyCode":"RON","currency":"Lei","image":{"thumbnail":{"default":"https://cdn.freshful.ro/media/cache/sylius_shop_product_thumbnail/a1/90/8d17988feab625274469b507b92b.jpg"},"large":{"default":"https://cdn.freshful.ro/media/cache/freshful_large/a1/90/8d17988feab625274469b507b92b.jpg"},"extralarge":{"default":"https://cdn.freshful.ro/media/cache/sylius_shop_product_original/a1/90/8d17988feab625274469b507b92b.jpg"}},"label":{"text":"-5%","backgroundColor":"#FF9903","textColor":"#FFFFFF"},"tags":[{"type":"Eco","text":"Eco","icon":"https://cdn.freshful.ro/assets/product_tags/eco.svg","iconPng":"https://cdn.freshful.ro/assets/product_tags/eco.png","backgroundColor":"#EFFBE4","textColor":"#66BB1B"},{"type":"MadeInRomania","text":"Made In Romania","icon":"https://cdn.freshful.ro/assets/product_tags/made_in_romania.svg","iconPng":"https://cdn.freshful.ro/assets/product_tags/made_in_romania.png","backgroundColor":"#EDF2FD","textColor":"#1653CA"}],"isAvailable":true,"maxAvailableQuantity":38,"maxAllowedQuantity":100,"breadcrumbs":[{"code":"7","name":"Băuturi","slug":"7-bauturi-si-tutun"},{"code":"705","name":"Vinuri","slug":"705-vinuri"},{"code":"70502","name":"Vinuri ECO","slug":"70502-vinuri-bio"},{"code":"100075309","name":"Vin roșu sec eco Merlot 0.75l","slug":"100075309-budureasca-organic-vin-rosu-sec-eco-merlot-0-75l"}],"activePromotion":{"code":"special-produse-vegane-mar23","name":"Preț redus","targetQuantity":null},"saveMe":null,"labels":[{"type":"v1","items":[{"text":"-5%","backgroundColor":"#FF9903","textColor":"#FFFFFF"}]}],"geniusPrice":null,"geniusUnitPricePerLabel":null,"banner":{"text":"Super preț","textColor":"#FF0000","bgColor":"#FFF2EC","icon":null,"link":"https://www.freshful.ro/oferte/special-produse-vegane-mar23","type":"promo","analyticsEventType":"select_promotion","analyticsEventPayload":{"promotion_id":"special-produse-vegane-mar23","promotion_name":"Și bun, și de post"}},"discountLabel":"Economisești 5%","geniusDiscountLabel":null,"badge":null},{"code":"100118208","variantCode":"100118208","name":"Vin roșu sec eco Syrah, 14.7%, 0.75l","slug":"100118208-domeniul-bogdan-vin-rosu-sec-eco-syrah-14-7-0-75l","unitPriceLabel":"43,99 Lei/l","brand":"Domeniul Bogdan","brandCode":"2013","brandFilterCode":"domeniul-bogdan-b2017","sku":"100118208","price":32.99,"originalPrice":null,"currencyCode":"RON","currency":"Lei","image":{"thumbnail":{"default":"https://cdn.freshful.ro/media/cache/sylius_shop_product_thumbnail/0d/36/49d567a24fd41a05c2b37b0a1737.jpg"},"large":{"default":"https://cdn.freshful.ro/media/cache/freshful_large/0d/36/49d567a24fd41a05c2b37b0a1737.jpg"},"extralarge":{"default":"https://cdn.freshful.ro/media/cache/sylius_shop_product_original/0d/36/49d567a24fd41a05c2b37b0a1737.jpg"}},"label":null,"tags":[{"type":"Eco","text":"Eco","icon":"https://cdn.freshful.ro/assets/product_tags/eco.svg","iconPng":"https://cdn.freshful.ro/assets/product_tags/eco.png","backgroundColor":"#EFFBE4","textColor":"#66BB1B"},{"type":"MadeInRomania","text":"Made In Romania","icon":"https://cdn.freshful.ro/assets/product_tags/made_in_romania.svg","iconPng":"https://cdn.freshful.ro/assets/product_tags/made_in_romania.png","backgroundColor":"#EDF2FD","textColor":"#1653CA"}],"isAvailable":true,"maxAvailableQuantity":46,"maxAllowedQuantity":100,"breadcrumbs":[{"code":"7","name":"Băuturi","slug":"7-bauturi-si-tutun"},{"code":"705","name":"Vinuri","slug":"705-vinuri"},{"code":"70502","name":"Vinuri ECO","slug":"70502-vinuri-bio"},{"code":"100118208","name":"Vin roșu sec eco Syrah, 14.7%, 0.75l","slug":"100118208-domeniul-bogdan-vin-rosu-sec-eco-syrah-14-7-0-75l"}],"activePromotion":null,"saveMe":null,"labels":[],"geniusPrice":null,"geniusUnitPricePerLabel":null,"banner":null,"discountLabel":null,"geniusDiscountLabel":null,"badge":null},{"code":"100118196","variantCode":"100118196","name":"Vin alb demidulce eco Muscat Ottonel 0.75l","slug":"100118196-domeniul-bogdan-vin-alb-demidulce-eco-muscat-ottonel-0-75l","unitPriceLabel":"43,99 Lei/l","brand":"Domeniul Bogdan","brandCode":"2013","brandFilterCode":"domeniul-bogdan-b2017","sku":"100118196","price":32.99,"originalPrice":null,"currencyCode":"RON","currency":"Lei","image":{"thumbnail":{"default":"https://cdn.freshful.ro/media/cache/sylius_shop_product_thumbnail/3a/8f/879520acd2606b34d8a8a41d5af5.jpg"},"large":{"default":"https://cdn.freshful.ro/media/cache/freshful_large/3a/8f/879520acd2606b34d8a8a41d5af5.jpg"},"extralarge":{"default":"https://cdn.freshful.ro/media/cache/sylius_shop_product_original/3a/8f/879520acd2606b34d8a8a41d5af5.jpg"}},"label":null,"tags":[{"type":"Eco","text":"Eco","icon":"https://cdn.freshful.ro/assets/product_tags/eco.svg","iconPng":"https://cdn.freshful.ro/assets/product_tags/eco.png","backgroundColor":"#EFFBE4","textColor":"#66BB1B"},{"type":"MadeInRomania","text":"Made In Romania","icon":"https://cdn.freshful.ro/assets/product_tags/made_in_romania.svg","iconPng":"https://cdn.freshful.ro/assets/product_tags/made_in_romania.png","backgroundColor":"#EDF2FD","textColor":"#1653CA"}],"isAvailable":true,"maxAvailableQuantity":5,"maxAllowedQuantity":100,"breadcrumbs":[{"code":"7","name":"Băuturi","slug":"7-bauturi-si-tutun"},{"code":"705","name":"Vinuri","slug":"705-vinuri"},{"code":"70502","name":"Vinuri ECO","slug":"70502-vinuri-bio"},{"code":"100118196","name":"Vin alb demidulce eco Muscat Ottonel 0.75l","slug":"100118196-domeniul-bogdan-vin-alb-demidulce-eco-muscat-ottonel-0-75l"}],"activePromotion":null,"saveMe":null,"labels":[],"geniusPrice":null,"geniusUnitPricePerLabel":null,"banner":null,"discountLabel":null,"geniusDiscountLabel":null,"badge":null},{"code":"100118199","variantCode":"100118199","name":"Vin roșu sec eco Duh Merlot, Cabernet Sauvignon & Syrah, 15.5%, 0.75l","slug":"100118199-domeniul-bogdan-vin-rosu-sec-eco-duh-merlot-cabernet-sauvignon-syrah-15-5-0-75l","unitPriceLabel":"49,2 Lei/l","brand":"Domeniul Bogdan","brandCode":"2013","brandFilterCode":"domeniul-bogdan-b2017","sku":"100118199","price":36.9,"originalPrice":null,"currencyCode":"RON","currency":"Lei","image":{"thumbnail":{"default":"https://cdn.freshful.ro/media/cache/sylius_shop_product_thumbnail/20/d1/8d569a1f843cc5198a2e7cffafba.jpg"},"large":{"default":"https://cdn.freshful.ro/media/cache/freshful_large/20/d1/8d569a1f843cc5198a2e7cffafba.jpg"},"extralarge":{"default":"https://cdn.freshful.ro/media/cache/sylius_shop_product_original/20/d1/8d569a1f843cc5198a2e7cffafba.jpg"}},"label":null,"tags":[{"type":"Eco","text":"Eco","icon":"https://cdn.freshful.ro/assets/product_tags/eco.svg","iconPng":"https://cdn.freshful.ro/assets/product_tags/eco.png","backgroundColor":"#EFFBE4","textColor":"#66BB1B"},{"type":"MadeInRomania","text":"Made In Romania","icon":"https://cdn.freshful.ro/assets/product_tags/made_in_romania.svg","iconPng":"https://cdn.freshful.ro/assets/product_tags/made_in_romania.png","backgroundColor":"#EDF2FD","textColor":"#1653CA"}],"isAvailable":true,"maxAvailableQuantity":46,"maxAllowedQuantity":100,"breadcrumbs":[{"code":"7","name":"Băuturi","slug":"7-bauturi-si-tutun"},{"code":"705","name":"Vinuri","slug":"705-vinuri"},{"code":"70502","name":"Vinuri ECO","slug":"70502-vinuri-bio"},{"code":"100118199","name":"Vin roșu sec eco Duh Merlot, Cabernet Sauvignon & Syrah, 15.5%, 0.75l","slug":"100118199-domeniul-bogdan-vin-rosu-sec-eco-duh-merlot-cabernet-sauvignon-syrah-15-5-0-75l"}],"activePromotion":null,"saveMe":null,"labels":[],"geniusPrice":null,"geniusUnitPricePerLabel":null,"banner":null,"discountLabel":null,"geniusDiscountLabel":null,"badge":null},{"code":"100118198","variantCode":"100118198","name":"Vin alb sec eco Duh Sauvignon Blanc, Muscat Ottonel & Chardonnay, 13.6%, 0.75l","slug":"100118198-domeniul-bogdan-vin-alb-sec-eco-duh-sauvignon-blanc-muscat-ottonel-chardonnay-13-6-0-75l","unitPriceLabel":"49,2 Lei/l","brand":"Domeniul Bogdan","brandCode":"2013","brandFilterCode":"domeniul-bogdan-b2017","sku":"100118198","price":36.9,"originalPrice":null,"currencyCode":"RON","currency":"Lei","image":{"thumbnail":{"default":"https://cdn.freshful.ro/media/cache/sylius_shop_product_thumbnail/69/e3/05904f82d266b16b59b4f2fab5c5.jpg"},"large":{"default":"https://cdn.freshful.ro/media/cache/freshful_large/69/e3/05904f82d266b16b59b4f2fab5c5.jpg"},"extralarge":{"default":"https://cdn.freshful.ro/media/cache/sylius_shop_product_original/69/e3/05904f82d266b16b59b4f2fab5c5.jpg"}},"label":null,"tags":[{"type":"Eco","text":"Eco","icon":"https://cdn.freshful.ro/assets/product_tags/eco.svg","iconPng":"https://cdn.freshful.ro/assets/product_tags/eco.png","backgroundColor":"#EFFBE4","textColor":"#66BB1B"},{"type":"MadeInRomania","text":"Made In Romania","icon":"https://cdn.freshful.ro/assets/product_tags/made_in_romania.svg","iconPng":"https://cdn.freshful.ro/assets/product_tags/made_in_romania.png","backgroundColor":"#EDF2FD","textColor":"#1653CA"}],"isAvailable":true,"maxAvailableQuantity":2,"maxAllowedQuantity":100,"breadcrumbs":[{"code":"7","name":"Băuturi","slug":"7-bauturi-si-tutun"},{"code":"705","name":"Vinuri","slug":"705-vinuri"},{"code":"70502","name":"Vinuri ECO","slug":"70502-vinuri-bio"},{"code":"100118198","name":"Vin alb sec eco Duh Sauvignon Blanc, Muscat Ottonel & Chardonnay, 13.6%, 0.75l","slug":"100118198-domeniul-bogdan-vin-alb-sec-eco-duh-sauvignon-blanc-muscat-ottonel-chardonnay-13-6-0-75l"}],"activePromotion":null,"saveMe":null,"labels":[],"geniusPrice":null,"geniusUnitPricePerLabel":null,"banner":null,"discountLabel":null,"geniusDiscountLabel":null,"badge":null},{"code":"100118209","variantCode":"100118209","name":"Vin roșu sec eco Merlot 0.75l","slug":"100118209-domeniul-bogdan-vin-rosu-sec-eco-merlot-0-75l","unitPriceLabel":"43,99 Lei/l","brand":"Domeniul Bogdan","brandCode":"2013","brandFilterCode":"domeniul-bogdan-b2017","sku":"100118209","price":32.99,"originalPrice":null,"currencyCode":"RON","currency":"Lei","image":{"thumbnail":{"default":"https://cdn.freshful.ro/media/cache/sylius_shop_product_thumbnail/b3/ce/0c505c532377e9ffb6a13f467940.jpg"},"large":{"default":"https://cdn.freshful.ro/media/cache/freshful_large/b3/ce/0c505c532377e9ffb6a13f467940.jpg"},"extralarge":{"default":"https://cdn.freshful.ro/media/cache/sylius_shop_product_original/b3/ce/0c505c532377e9ffb6a13f467940.jpg"}},"label":null,"tags":[{"type":"Eco","text":"Eco","icon":"https://cdn.freshful.ro/assets/product_tags/eco.svg","iconPng":"https://cdn.freshful.ro/assets/product_tags/eco.png","backgroundColor":"#EFFBE4","textColor":"#66BB1B"},{"type":"MadeInRomania","text":"Made In Romania","icon":"https://cdn.freshful.ro/assets/product_tags/made_in_romania.svg","iconPng":"https://cdn.freshful.ro/assets/product_tags/made_in_romania.png","backgroundColor":"#EDF2FD","textColor":"#1653CA"}],"isAvailable":true,"maxAvailableQuantity":5,"maxAllowedQuantity":100,"breadcrumbs":[{"code":"7","name":"Băuturi","slug":"7-bauturi-si-tutun"},{"code":"705","name":"Vinuri","slug":"705-vinuri"},{"code":"70502","name":"Vinuri ECO","slug":"70502-vinuri-bio"},{"code":"100118209","name":"Vin roșu sec eco Merlot 0.75l","slug":"100118209-domeniul-bogdan-vin-rosu-sec-eco-merlot-0-75l"}],"activePromotion":null,"saveMe":null,"labels":[],"geniusPrice":null,"geniusUnitPricePerLabel":null,"banner":null,"discountLabel":null,"geniusDiscountLabel":null,"badge":null},{"code":"100082970","variantCode":"100082970","name":"Vin roșu eco Nero di Troia 2018 0.75l","slug":"100082970-cantine-losito-vin-rosu-eco-nero-di-troia-2018-0-75l","unitPriceLabel":"88,65 Lei/l","brand":"Cantine Losito","brandCode":"1451","brandFilterCode":"cantine-losito-b1421","sku":"100082970","price":66.49,"originalPrice":null,"currencyCode":"RON","currency":"Lei","image":{"thumbnail":{"default":"https://cdn.freshful.ro/media/cache/sylius_shop_product_thumbnail/1f/2a/f858eb25b042555c0ed94ec49165.jpg"},"large":{"default":"https://cdn.freshful.ro/media/cache/freshful_large/1f/2a/f858eb25b042555c0ed94ec49165.jpg"},"extralarge":{"default":"https://cdn.freshful.ro/media/cache/sylius_shop_product_original/1f/2a/f858eb25b042555c0ed94ec49165.jpg"}},"label":null,"tags":[{"type":"Eco","text":"Eco","icon":"https://cdn.freshful.ro/assets/product_tags/eco.svg","iconPng":"https://cdn.freshful.ro/assets/product_tags/eco.png","backgroundColor":"#EFFBE4","textColor":"#66BB1B"}],"isAvailable":true,"maxAvailableQuantity":17,"maxAllowedQuantity":100,"breadcrumbs":[{"code":"7","name":"Băuturi","slug":"7-bauturi-si-tutun"},{"code":"705","name":"Vinuri","slug":"705-vinuri"},{"code":"70502","name":"Vinuri ECO","slug":"70502-vinuri-bio"},{"code":"100082970","name":"Vin roșu eco Nero di Troia 2018 0.75l","slug":"100082970-cantine-losito-vin-rosu-eco-nero-di-troia-2018-0-75l"}],"activePromotion":null,"saveMe":null,"labels":[],"geniusPrice":null,"geniusUnitPricePerLabel":null,"banner":null,"discountLabel":null,"geniusDiscountLabel":null,"badge":null},{"code":"100118194","variantCode":"100118194","name":"Vin roșu sec Fetească Neagră & Merlot 0.75l","slug":"100118194-domeniul-bogdan-vin-rosu-sec-feteasca-neagra-merlot-0-75l","unitPriceLabel":"45,2 Lei/l","brand":"Domeniul Bogdan","brandCode":"2013","brandFilterCode":"domeniul-bogdan-b2017","sku":"100118194","price":33.9,"originalPrice":null,"currencyCode":"RON","currency":"Lei","image":{"thumbnail":{"default":"https://cdn.freshful.ro/media/cache/sylius_shop_product_thumbnail/3b/0d/1e803b3c894fbd48790e87f0f32f.jpg"},"large":{"default":"https://cdn.freshful.ro/media/cache/freshful_large/3b/0d/1e803b3c894fbd48790e87f0f32f.jpg"},"extralarge":{"default":"https://cdn.freshful.ro/media/cache/sylius_shop_product_original/3b/0d/1e803b3c894fbd48790e87f0f32f.jpg"}},"label":null,"tags":[{"type":"Eco","text":"Eco","icon":"https://cdn.freshful.ro/assets/product_tags/eco.svg","iconPng":"https://cdn.freshful.ro/assets/product_tags/eco.png","backgroundColor":"#EFFBE4","textColor":"#66BB1B"},{"type":"MadeInRomania","text":"Made In Romania","icon":"https://cdn.freshful.ro/assets/product_tags/made_in_romania.svg","iconPng":"https://cdn.freshful.ro/assets/product_tags/made_in_romania.png","backgroundColor":"#EDF2FD","textColor":"#1653CA"}],"isAvailable":true,"maxAvailableQuantity":10,"maxAllowedQuantity":100,"breadcrumbs":[{"code":"7","name":"Băuturi","slug":"7-bauturi-si-tutun"},{"code":"705","name":"Vinuri","slug":"705-vinuri"},{"code":"70502","name":"Vinuri ECO","slug":"70502-vinuri-bio"},{"code":"100118194","name":"Vin roșu sec Fetească Neagră & Merlot 0.75l","slug":"100118194-domeniul-bogdan-vin-rosu-sec-feteasca-neagra-merlot-0-75l"}],"activePromotion":null,"saveMe":null,"labels":[],"geniusPrice":null,"geniusUnitPricePerLabel":null,"banner":null,"discountLabel":null,"geniusDiscountLabel":null,"badge":null}],"filters":{"countSelected":0,"items":[{"code":"promotion","name":"Promoții","countSelected":0,"values":[{"code":"special-produse-vegane-mar23","name":"Și bun, și de post","isSelected":false,"count":3}]},{"code":"brand","name":"Brand","countSelected":0,"values":[{"code":"budureasca-organic-b1359","name":"Budureasca Organic","isSelected":false,"count":3},{"code":"cantine-losito-b1421","name":"Cantine Losito","isSelected":false,"count":2},{"code":"domeniile-franco-romane-b2063","name":"Domeniile Franco Române","isSelected":false,"count":1},{"code":"domeniile-franco-romane-vigneron-b2064","name":"Domeniile Franco Române Vigneron","isSelected":false,"count":4},{"code":"domeniul-bogdan-b2017","name":"Domeniul Bogdan","isSelected":false,"count":9},{"code":"lechburg-b2986","name":"Lechburg","isSelected":false,"count":5},{"code":"legendary-dracula-b1986","name":"Legendary Dracula","isSelected":false,"count":1},{"code":"nachbil-b2099","name":"Nachbil","isSelected":false,"count":3}]},{"code":"diet_lifestyle","name":"Dietă și lifestyle","countSelected":0,"values":[{"code":"eco-a83","name":"Eco","isSelected":false,"count":28},{"code":"made-in-romania-a85","name":"Made In Romania","isSelected":false,"count":20}]}]},"orderBy":[{"field":"price","direction":"asc","name":"Preț crescător","isSelected":false},{"field":"price","direction":"desc","name":"Preț descrescător","isSelected":false},{"field":"popularity","direction":"desc","name":"Cele mai populare","isSelected":true},{"field":"category","direction":"asc","name":"Categorie","isSelected":false}],"metaTitle":"Vinuri ECO - Gamă variată","metaDescription":"Vrei Vinuri ECO? Alege dintr-o gamă variată. Comanzi simplu și ai livrare rapidă, calitate și prospețime. Hai pe Freshful.ro","metaKeywords":null,"banners":[]}}