{"type":"subcategory","payload":{"analyticsListId":"category_70505-vinuri-roze-romanesti","analyticsListName":"Category - Vinuri rose românești","name":"Vinuri rose românești","slug":"70505-vinuri-roze-romanesti","image":null,"breadcrumbs":[{"code":"7","name":"Băuturi","slug":"7-bauturi-si-tutun"},{"code":"705","name":"Vinuri","slug":"705-vinuri"},{"code":"70505","name":"Vinuri rose românești","slug":"70505-vinuri-roze-romanesti"}],"slots":[],"page":1,"limit":10,"pages":10,"count":94,"siblings":[{"name":"Băuturi necarbogazoase și siropuri","slug":"701-bauturi-necarbogazoase-si-siropuri","selected":false},{"name":"Apă","slug":"702-apa","selected":false},{"name":"Băuturi carbogazoase","slug":"703-bauturi-carbogazoase","selected":false},{"name":"Bere","slug":"704-bere","selected":false},{"name":"Vinuri","slug":"705-vinuri","selected":true},{"name":"Băuturi spirtoase","slug":"706-bauturi-spirtoase","selected":false},{"name":"Tutun","slug":"707-tutun","selected":false}],"children":[{"name":"Toate produsele","slug":"705-vinuri","selected":false},{"name":"Șampanie și spumant","slug":"70501-sampanie-si-spumant","selected":false},{"name":"Vinuri ECO","slug":"70502-vinuri-bio","selected":false},{"name":"Vinuri albe românești","slug":"70503-vinuri-albe-romanesti","selected":false},{"name":"Vinuri roșii românești","slug":"70504-vinuri-rosii-romanesti","selected":false},{"name":"Vinuri rose românești","slug":"70505-vinuri-roze-romanesti","selected":true},{"name":"Vinuri internaționale","slug":"70506-vinuri-internationale","selected":false}],"products":[{"code":"100133840","variantCode":"100133840","name":"Vin rose demisec Merlot & Cabernet Sauvignon Night, 12.5%, 0.75l","slug":"100133840-recas-muse-vin-rose-demisec-merlot-cabernet-sauvignon-night-12-5-0-75l","unitPriceLabel":"79,99 Lei/l","brand":"Recaș Muse","brandCode":"2538","brandFilterCode":"recas-muse-b2542","sku":"100133840","price":59.99,"originalPrice":64.99,"currencyCode":"RON","currency":"Lei","image":{"thumbnail":{"default":"https://cdn.freshful.ro/media/cache/sylius_shop_product_thumbnail/22/92/ff81839e8bf184241837c69ecd9b.jpg"},"large":{"default":"https://cdn.freshful.ro/media/cache/freshful_large/22/92/ff81839e8bf184241837c69ecd9b.jpg"},"extralarge":{"default":"https://cdn.freshful.ro/media/cache/sylius_shop_product_original/22/92/ff81839e8bf184241837c69ecd9b.jpg"}},"label":{"text":"-7%","backgroundColor":"#FF9903","textColor":"#FFFFFF"},"tags":[{"type":"MadeInRomania","text":"Made In Romania","icon":"https://cdn.freshful.ro/assets/product_tags/made_in_romania.svg","iconPng":"https://cdn.freshful.ro/assets/product_tags/made_in_romania.png","backgroundColor":"#EDF2FD","textColor":"#1653CA"}],"isAvailable":true,"maxAvailableQuantity":58,"maxAllowedQuantity":100,"breadcrumbs":[{"code":"7","name":"Băuturi","slug":"7-bauturi-si-tutun"},{"code":"705","name":"Vinuri","slug":"705-vinuri"},{"code":"70505","name":"Vinuri rose românești","slug":"70505-vinuri-roze-romanesti"},{"code":"100133840","name":"Vin rose demisec Merlot & Cabernet Sauvignon Night, 12.5%, 0.75l","slug":"100133840-recas-muse-vin-rose-demisec-merlot-cabernet-sauvignon-night-12-5-0-75l"}],"activePromotion":{"code":"special-bacanie-bauturi-mar23","name":"Preț redus","targetQuantity":null},"saveMe":null,"labels":[{"type":"v1","items":[{"text":"-7%","backgroundColor":"#FF9903","textColor":"#FFFFFF"}]}],"geniusPrice":null,"geniusUnitPricePerLabel":null,"banner":{"text":"Super preț","textColor":"#FF0000","bgColor":"#FFF2EC","icon":null,"link":"https://www.freshful.ro/oferte/special-bacanie-bauturi-mar23","type":"promo","analyticsEventType":"select_promotion","analyticsEventPayload":{"promotion_id":"special-bacanie-bauturi-mar23","promotion_name":"Prețuri speciale pentru Ziua Femeii"}},"discountLabel":"Economisești 7%","geniusDiscountLabel":null,"badge":null},{"code":"100150045","variantCode":"100150045","name":"Vin rose dulce Perlant 0.25l","slug":"100150045-rose-verite-vin-rose-dulce-perlant-0-25l","unitPriceLabel":"39,96 Lei/l","brand":"Rosé Verité","brandCode":"2976","brandFilterCode":"rose-verite-b3070","sku":"100150045","price":9.99,"originalPrice":null,"currencyCode":"RON","currency":"Lei","image":{"thumbnail":{"default":"https://cdn.freshful.ro/media/cache/sylius_shop_product_thumbnail/63/92/8283771a007df9a35b14721a6dc2.jpg"},"large":{"default":"https://cdn.freshful.ro/media/cache/freshful_large/63/92/8283771a007df9a35b14721a6dc2.jpg"},"extralarge":{"default":"https://cdn.freshful.ro/media/cache/sylius_shop_product_original/63/92/8283771a007df9a35b14721a6dc2.jpg"}},"label":{"text":"Profită acum","backgroundColor":"#FF9903","textColor":"#FFFFFF"},"tags":[],"isAvailable":true,"maxAvailableQuantity":62,"maxAllowedQuantity":100,"breadcrumbs":[{"code":"7","name":"Băuturi","slug":"7-bauturi-si-tutun"},{"code":"705","name":"Vinuri","slug":"705-vinuri"},{"code":"70505","name":"Vinuri rose românești","slug":"70505-vinuri-roze-romanesti"},{"code":"100150045","name":"Vin rose dulce Perlant 0.25l","slug":"100150045-rose-verite-vin-rose-dulce-perlant-0-25l"}],"activePromotion":{"code":"special-bacanie-bauturi-mar23","name":"Preț avantajos","targetQuantity":null},"saveMe":null,"labels":[{"type":"v1","items":[{"text":"Profită acum","backgroundColor":"#FF9903","textColor":"#FFFFFF"}]}],"geniusPrice":null,"geniusUnitPricePerLabel":null,"banner":{"text":"Preț avantajos","textColor":"#F95510","bgColor":"#FEF1CD","icon":null,"link":"https://www.freshful.ro/oferte/special-bacanie-bauturi-mar23","type":"promo","analyticsEventType":"select_promotion","analyticsEventPayload":{"promotion_id":"special-bacanie-bauturi-mar23","promotion_name":"Prețuri speciale pentru Ziua Femeii"}},"discountLabel":null,"geniusDiscountLabel":null,"badge":null},{"code":"100083299","variantCode":"100083299","name":"Vin rose dulce Busuioacă de Bohotin 0.75l","slug":"100083299-sempre-rose-vin-rose-dulce-busuioaca-de-bohotin-0-75l","unitPriceLabel":"38,65 Lei/l","brand":"Sempre Rose","brandCode":"1459","brandFilterCode":"sempre-rose-b1452","sku":"100083299","price":28.99,"originalPrice":null,"currencyCode":"RON","currency":"Lei","image":{"thumbnail":{"default":"https://cdn.freshful.ro/media/cache/sylius_shop_product_thumbnail/e0/1e/cfebea7be98bbccfc669f9e1ed48.jpg"},"large":{"default":"https://cdn.freshful.ro/media/cache/freshful_large/e0/1e/cfebea7be98bbccfc669f9e1ed48.jpg"},"extralarge":{"default":"https://cdn.freshful.ro/media/cache/sylius_shop_product_original/e0/1e/cfebea7be98bbccfc669f9e1ed48.jpg"}},"label":{"text":"Profită acum","backgroundColor":"#FF9903","textColor":"#FFFFFF"},"tags":[{"type":"MadeInRomania","text":"Made In Romania","icon":"https://cdn.freshful.ro/assets/product_tags/made_in_romania.svg","iconPng":"https://cdn.freshful.ro/assets/product_tags/made_in_romania.png","backgroundColor":"#EDF2FD","textColor":"#1653CA"}],"isAvailable":true,"maxAvailableQuantity":100,"maxAllowedQuantity":100,"breadcrumbs":[{"code":"7","name":"Băuturi","slug":"7-bauturi-si-tutun"},{"code":"705","name":"Vinuri","slug":"705-vinuri"},{"code":"70505","name":"Vinuri rose românești","slug":"70505-vinuri-roze-romanesti"},{"code":"100083299","name":"Vin rose dulce Busuioacă de Bohotin 0.75l","slug":"100083299-sempre-rose-vin-rose-dulce-busuioaca-de-bohotin-0-75l"}],"activePromotion":{"code":"special-bacanie-bauturi-mar23","name":"Preț avantajos","targetQuantity":null},"saveMe":null,"labels":[{"type":"v1","items":[{"text":"Profită acum","backgroundColor":"#FF9903","textColor":"#FFFFFF"}]}],"geniusPrice":null,"geniusUnitPricePerLabel":null,"banner":{"text":"Preț avantajos","textColor":"#F95510","bgColor":"#FEF1CD","icon":null,"link":"https://www.freshful.ro/oferte/special-bacanie-bauturi-mar23","type":"promo","analyticsEventType":"select_promotion","analyticsEventPayload":{"promotion_id":"special-bacanie-bauturi-mar23","promotion_name":"Prețuri speciale pentru Ziua Femeii"}},"discountLabel":null,"geniusDiscountLabel":null,"badge":null},{"code":"100075300","variantCode":"100075300","name":"Vin rose demisec Fetească Neagră, 13.5%, 0.75l","slug":"100075300-budureasca-clasic-vin-rose-demisec-feteasca-neagra-13-5-0-75l","unitPriceLabel":"34,65 Lei/l","brand":"Budureasca Clasic","brandCode":"1343","brandFilterCode":"budureasca-clasic-b1356","sku":"100075300","price":25.99,"originalPrice":null,"currencyCode":"RON","currency":"Lei","image":{"thumbnail":{"default":"https://cdn.freshful.ro/media/cache/sylius_shop_product_thumbnail/26/37/acae01374d087e445d0865c57e74.jpg"},"large":{"default":"https://cdn.freshful.ro/media/cache/freshful_large/26/37/acae01374d087e445d0865c57e74.jpg"},"extralarge":{"default":"https://cdn.freshful.ro/media/cache/sylius_shop_product_original/26/37/acae01374d087e445d0865c57e74.jpg"}},"label":{"text":"Profită acum","backgroundColor":"#FF9903","textColor":"#FFFFFF"},"tags":[{"type":"MadeInRomania","text":"Made In Romania","icon":"https://cdn.freshful.ro/assets/product_tags/made_in_romania.svg","iconPng":"https://cdn.freshful.ro/assets/product_tags/made_in_romania.png","backgroundColor":"#EDF2FD","textColor":"#1653CA"}],"isAvailable":true,"maxAvailableQuantity":74,"maxAllowedQuantity":100,"breadcrumbs":[{"code":"7","name":"Băuturi","slug":"7-bauturi-si-tutun"},{"code":"705","name":"Vinuri","slug":"705-vinuri"},{"code":"70505","name":"Vinuri rose românești","slug":"70505-vinuri-roze-romanesti"},{"code":"100075300","name":"Vin rose demisec Fetească Neagră, 13.5%, 0.75l","slug":"100075300-budureasca-clasic-vin-rose-demisec-feteasca-neagra-13-5-0-75l"}],"activePromotion":{"code":"special-bacanie-bauturi-mar23","name":"Preț avantajos","targetQuantity":null},"saveMe":null,"labels":[{"type":"v1","items":[{"text":"Profită acum","backgroundColor":"#FF9903","textColor":"#FFFFFF"}]}],"geniusPrice":null,"geniusUnitPricePerLabel":null,"banner":{"text":"Preț avantajos","textColor":"#F95510","bgColor":"#FEF1CD","icon":null,"link":"https://www.freshful.ro/oferte/special-bacanie-bauturi-mar23","type":"promo","analyticsEventType":"select_promotion","analyticsEventPayload":{"promotion_id":"special-bacanie-bauturi-mar23","promotion_name":"Prețuri speciale pentru Ziua Femeii"}},"discountLabel":null,"geniusDiscountLabel":null,"badge":null},{"code":"100121312","variantCode":"100121312","name":"Vin rose sec Light Rose 0.75l","slug":"100121312-young-liliac-vin-rose-sec-light-rose-0-75l","unitPriceLabel":"43,99 Lei/l","brand":"Young.Liliac","brandCode":"2126","brandFilterCode":"young-liliac-b2130","sku":"100121312","price":32.99,"originalPrice":null,"currencyCode":"RON","currency":"Lei","image":{"thumbnail":{"default":"https://cdn.freshful.ro/media/cache/sylius_shop_product_thumbnail/19/ec/24450f9f62b1db4180a356de7a24.jpg"},"large":{"default":"https://cdn.freshful.ro/media/cache/freshful_large/19/ec/24450f9f62b1db4180a356de7a24.jpg"},"extralarge":{"default":"https://cdn.freshful.ro/media/cache/sylius_shop_product_original/19/ec/24450f9f62b1db4180a356de7a24.jpg"}},"label":{"text":"Mici producători","backgroundColor":"#7B61FF","textColor":"#FFFFFF"},"tags":[{"type":"MadeInRomania","text":"Made In Romania","icon":"https://cdn.freshful.ro/assets/product_tags/made_in_romania.svg","iconPng":"https://cdn.freshful.ro/assets/product_tags/made_in_romania.png","backgroundColor":"#EDF2FD","textColor":"#1653CA"}],"isAvailable":true,"maxAvailableQuantity":100,"maxAllowedQuantity":100,"breadcrumbs":[{"code":"7","name":"Băuturi","slug":"7-bauturi-si-tutun"},{"code":"705","name":"Vinuri","slug":"705-vinuri"},{"code":"70505","name":"Vinuri rose românești","slug":"70505-vinuri-roze-romanesti"},{"code":"100121312","name":"Vin rose sec Light Rose 0.75l","slug":"100121312-young-liliac-vin-rose-sec-light-rose-0-75l"}],"activePromotion":null,"saveMe":null,"labels":[{"type":"v1","items":[{"text":"Mici producători","backgroundColor":"#7B61FF","textColor":"#FFFFFF"}]}],"geniusPrice":null,"geniusUnitPricePerLabel":null,"banner":null,"discountLabel":null,"geniusDiscountLabel":null,"badge":null},{"code":"100083319","variantCode":"100083319","name":"Vin rose demidulce Busuioacă de Bohotin 0.75l","slug":"100083319-sigillum-moldaviae-vin-rose-demidulce-busuioaca-de-bohotin-0-75l","unitPriceLabel":"19,61 Lei/l","brand":"Sigillum Moldaviae","brandCode":"1464","brandFilterCode":"sigillum-moldaviae-b1457","sku":"100083319","price":14.71,"originalPrice":null,"currencyCode":"RON","currency":"Lei","image":{"thumbnail":{"default":"https://cdn.freshful.ro/media/cache/sylius_shop_product_thumbnail/10/8a/717cdba39f707fa90a4f8ce422ff.jpg"},"large":{"default":"https://cdn.freshful.ro/media/cache/freshful_large/10/8a/717cdba39f707fa90a4f8ce422ff.jpg"},"extralarge":{"default":"https://cdn.freshful.ro/media/cache/sylius_shop_product_original/10/8a/717cdba39f707fa90a4f8ce422ff.jpg"}},"label":null,"tags":[{"type":"MadeInRomania","text":"Made In Romania","icon":"https://cdn.freshful.ro/assets/product_tags/made_in_romania.svg","iconPng":"https://cdn.freshful.ro/assets/product_tags/made_in_romania.png","backgroundColor":"#EDF2FD","textColor":"#1653CA"}],"isAvailable":true,"maxAvailableQuantity":100,"maxAllowedQuantity":100,"breadcrumbs":[{"code":"7","name":"Băuturi","slug":"7-bauturi-si-tutun"},{"code":"705","name":"Vinuri","slug":"705-vinuri"},{"code":"70505","name":"Vinuri rose românești","slug":"70505-vinuri-roze-romanesti"},{"code":"100083319","name":"Vin rose demidulce Busuioacă de Bohotin 0.75l","slug":"100083319-sigillum-moldaviae-vin-rose-demidulce-busuioaca-de-bohotin-0-75l"}],"activePromotion":null,"saveMe":null,"labels":[],"geniusPrice":null,"geniusUnitPricePerLabel":null,"banner":null,"discountLabel":null,"geniusDiscountLabel":null,"badge":null},{"code":"100083300","variantCode":"100083300","name":"Vin rose demisec Cabernet Sauvignon 0.75l","slug":"100083300-rose-verite-vin-rose-demisec-cabernet-sauvignon-0-75l","unitPriceLabel":"41,32 Lei/l","brand":"Rosé Verité","brandCode":"1460","brandFilterCode":"rose-verite-b1453","sku":"100083300","price":30.99,"originalPrice":null,"currencyCode":"RON","currency":"Lei","image":{"thumbnail":{"default":"https://cdn.freshful.ro/media/cache/sylius_shop_product_thumbnail/3c/cb/39e7a7461307dbaf7fcc61cdd7e1.jpg"},"large":{"default":"https://cdn.freshful.ro/media/cache/freshful_large/3c/cb/39e7a7461307dbaf7fcc61cdd7e1.jpg"},"extralarge":{"default":"https://cdn.freshful.ro/media/cache/sylius_shop_product_original/3c/cb/39e7a7461307dbaf7fcc61cdd7e1.jpg"}},"label":null,"tags":[{"type":"MadeInRomania","text":"Made In Romania","icon":"https://cdn.freshful.ro/assets/product_tags/made_in_romania.svg","iconPng":"https://cdn.freshful.ro/assets/product_tags/made_in_romania.png","backgroundColor":"#EDF2FD","textColor":"#1653CA"}],"isAvailable":true,"maxAvailableQuantity":100,"maxAllowedQuantity":100,"breadcrumbs":[{"code":"7","name":"Băuturi","slug":"7-bauturi-si-tutun"},{"code":"705","name":"Vinuri","slug":"705-vinuri"},{"code":"70505","name":"Vinuri rose românești","slug":"70505-vinuri-roze-romanesti"},{"code":"100083300","name":"Vin rose demisec Cabernet Sauvignon 0.75l","slug":"100083300-rose-verite-vin-rose-demisec-cabernet-sauvignon-0-75l"}],"activePromotion":null,"saveMe":null,"labels":[],"geniusPrice":null,"geniusUnitPricePerLabel":null,"banner":null,"discountLabel":null,"geniusDiscountLabel":null,"badge":null},{"code":"100083315","variantCode":"100083315","name":"Vin rose demisec, 12%, 0.75l","slug":"100083315-beciul-domnesc-vin-rose-demisec-12-0-75l","unitPriceLabel":"26,52 Lei/l","brand":"Beciul Domnesc","brandCode":"1463","brandFilterCode":"beciul-domnesc-b1456","sku":"100083315","price":19.89,"originalPrice":null,"currencyCode":"RON","currency":"Lei","image":{"thumbnail":{"default":"https://cdn.freshful.ro/media/cache/sylius_shop_product_thumbnail/4e/6d/79086b248364799be3fb9bbcf0b1.jpg"},"large":{"default":"https://cdn.freshful.ro/media/cache/freshful_large/4e/6d/79086b248364799be3fb9bbcf0b1.jpg"},"extralarge":{"default":"https://cdn.freshful.ro/media/cache/sylius_shop_product_original/4e/6d/79086b248364799be3fb9bbcf0b1.jpg"}},"label":null,"tags":[{"type":"MadeInRomania","text":"Made In Romania","icon":"https://cdn.freshful.ro/assets/product_tags/made_in_romania.svg","iconPng":"https://cdn.freshful.ro/assets/product_tags/made_in_romania.png","backgroundColor":"#EDF2FD","textColor":"#1653CA"}],"isAvailable":true,"maxAvailableQuantity":29,"maxAllowedQuantity":100,"breadcrumbs":[{"code":"7","name":"Băuturi","slug":"7-bauturi-si-tutun"},{"code":"705","name":"Vinuri","slug":"705-vinuri"},{"code":"70505","name":"Vinuri rose românești","slug":"70505-vinuri-roze-romanesti"},{"code":"100083315","name":"Vin rose demisec, 12%, 0.75l","slug":"100083315-beciul-domnesc-vin-rose-demisec-12-0-75l"}],"activePromotion":null,"saveMe":null,"labels":[],"geniusPrice":null,"geniusUnitPricePerLabel":null,"banner":null,"discountLabel":null,"geniusDiscountLabel":null,"badge":null},{"code":"100110258","variantCode":"100110258","name":"Vin rose demisec, 12%, 0.75l ","slug":"100110258-domeniile-tohani-vin-rose-demisec-12-0-75l","unitPriceLabel":"23,33 Lei/l","brand":"Domeniile Tohani","brandCode":"2243","brandFilterCode":"domeniile-tohani-b2259","sku":"100110258","price":17.5,"originalPrice":null,"currencyCode":"RON","currency":"Lei","image":{"thumbnail":{"default":"https://cdn.freshful.ro/media/cache/sylius_shop_product_thumbnail/43/31/c60105454fedb21faf4592550809.jpg"},"large":{"default":"https://cdn.freshful.ro/media/cache/freshful_large/43/31/c60105454fedb21faf4592550809.jpg"},"extralarge":{"default":"https://cdn.freshful.ro/media/cache/sylius_shop_product_original/43/31/c60105454fedb21faf4592550809.jpg"}},"label":null,"tags":[],"isAvailable":true,"maxAvailableQuantity":65,"maxAllowedQuantity":100,"breadcrumbs":[{"code":"7","name":"Băuturi","slug":"7-bauturi-si-tutun"},{"code":"705","name":"Vinuri","slug":"705-vinuri"},{"code":"70505","name":"Vinuri rose românești","slug":"70505-vinuri-roze-romanesti"},{"code":"100110258","name":"Vin rose demisec, 12%, 0.75l ","slug":"100110258-domeniile-tohani-vin-rose-demisec-12-0-75l"}],"activePromotion":null,"saveMe":null,"labels":[],"geniusPrice":null,"geniusUnitPricePerLabel":null,"banner":null,"discountLabel":null,"geniusDiscountLabel":null,"badge":null},{"code":"100129397","variantCode":"100129397","name":"Vin rose sec Merlot & Cabernet Sauvignon, 13.5%, 0.75l","slug":"100129397-viile-metamorfosis-vin-rose-sec-merlot-cabernet-sauvignon-13-5-0-75l","unitPriceLabel":"35,33 Lei/l","brand":"Viile Metamorfosis","brandCode":"2375","brandFilterCode":"viile-metamorfosis-b2379","sku":"100129397","price":26.5,"originalPrice":null,"currencyCode":"RON","currency":"Lei","image":{"thumbnail":{"default":"https://cdn.freshful.ro/media/cache/sylius_shop_product_thumbnail/67/ff/ee9692ef0aa9e543fa7374cdd4da.jpg"},"large":{"default":"https://cdn.freshful.ro/media/cache/freshful_large/67/ff/ee9692ef0aa9e543fa7374cdd4da.jpg"},"extralarge":{"default":"https://cdn.freshful.ro/media/cache/sylius_shop_product_original/67/ff/ee9692ef0aa9e543fa7374cdd4da.jpg"}},"label":null,"tags":[{"type":"MadeInRomania","text":"Made In Romania","icon":"https://cdn.freshful.ro/assets/product_tags/made_in_romania.svg","iconPng":"https://cdn.freshful.ro/assets/product_tags/made_in_romania.png","backgroundColor":"#EDF2FD","textColor":"#1653CA"}],"isAvailable":true,"maxAvailableQuantity":24,"maxAllowedQuantity":100,"breadcrumbs":[{"code":"7","name":"Băuturi","slug":"7-bauturi-si-tutun"},{"code":"705","name":"Vinuri","slug":"705-vinuri"},{"code":"70505","name":"Vinuri rose românești","slug":"70505-vinuri-roze-romanesti"},{"code":"100129397","name":"Vin rose sec Merlot & Cabernet Sauvignon, 13.5%, 0.75l","slug":"100129397-viile-metamorfosis-vin-rose-sec-merlot-cabernet-sauvignon-13-5-0-75l"}],"activePromotion":null,"saveMe":null,"labels":[],"geniusPrice":null,"geniusUnitPricePerLabel":null,"banner":null,"discountLabel":null,"geniusDiscountLabel":null,"badge":null}],"filters":{"countSelected":0,"items":[{"code":"promotion","name":"Promoții","countSelected":0,"values":[{"code":"special-bacanie-bauturi-mar23","name":"Prețuri speciale pentru Ziua Femeii","isSelected":false,"count":5}]},{"code":"brand","name":"Brand","countSelected":0,"values":[{"code":"alira-b2311","name":"Alira","isSelected":false,"count":1},{"code":"alira-aliento-b2317","name":"Alira Aliento","isSelected":false,"count":1},{"code":"alira-flamma-b2312","name":"Alira Flamma","isSelected":false,"count":1},{"code":"aurelia-visinescu-karakter-b2572","name":"Aurelia Vișinescu Karakter","isSelected":false,"count":1},{"code":"aurelia-visinescu-promessa-b2574","name":"Aurelia Vișinescu Promessa","isSelected":false,"count":1},{"code":"aurelia-visinescu-signum-b2575","name":"Aurelia Vișinescu Signum","isSelected":false,"count":1},{"code":"avenue-b1375","name":"Avenue","isSelected":false,"count":1},{"code":"avincis-b1178","name":"Avincis","isSelected":false,"count":1},{"code":"balla-geza-b2098","name":"Balla Geza","isSelected":false,"count":1},{"code":"beciul-domnesc-b1456","name":"Beciul Domnesc","isSelected":false,"count":1},{"code":"budureasca-b1364","name":"Budureasca","isSelected":false,"count":1},{"code":"budureasca-bristena-b1358","name":"Budureasca Bristena","isSelected":false,"count":1},{"code":"budureasca-clasic-b1356","name":"Budureasca Clasic","isSelected":false,"count":1},{"code":"budureasca-premium-b1360","name":"Budureasca Premium","isSelected":false,"count":1},{"code":"caii-de-la-letea-b2084","name":"Caii De La Letea","isSelected":false,"count":1},{"code":"castel-bolovanu-b1372","name":"Castel Bolovanu","isSelected":false,"count":1},{"code":"catleya-b2429","name":"Catleya","isSelected":false,"count":1},{"code":"corcova-b2431","name":"Corcova","isSelected":false,"count":1},{"code":"cotnari-b1449","name":"Cotnari","isSelected":false,"count":2},{"code":"crama-basilescu-b1791","name":"Crama Basilescu","isSelected":false,"count":5},{"code":"crama-bauer-b2406","name":"Crama Bauer","isSelected":false,"count":2},{"code":"crama-girboiu-b2065","name":"Crama Girboiu","isSelected":false,"count":2},{"code":"cuvee-sissi-b2253","name":"Cuvée Sissi","isSelected":false,"count":1},{"code":"davino-domaine-ceptura-b2545","name":"Davino Domaine Ceptura","isSelected":false,"count":1},{"code":"davino-faurar-b2543","name":"Davino Faurar","isSelected":false,"count":1},{"code":"davino-iacob-b2544","name":"Davino Iacob","isSelected":false,"count":1},{"code":"domeniile-franco-romane-b2063","name":"Domeniile Franco Române","isSelected":false,"count":1},{"code":"domeniile-prince-matei-b2089","name":"Domeniile Prince Matei","isSelected":false,"count":1},{"code":"domeniile-samburesti-b1125","name":"Domeniile Sâmburești","isSelected":false,"count":1},{"code":"domeniile-tohani-b2259","name":"Domeniile Tohani","isSelected":false,"count":1},{"code":"domeniile-vinarte-b1373","name":"Domeniile Vinarte","isSelected":false,"count":1},{"code":"domeniul-bogdan-b2017","name":"Domeniul Bogdan","isSelected":false,"count":1},{"code":"familia-vladoi-b2428","name":"Familia Vlădoi","isSelected":false,"count":4},{"code":"gramofon-wine-b2493","name":"Gramofon Wine","isSelected":false,"count":2},{"code":"jidvei-mysterium-b2584","name":"Jidvei Mysterium","isSelected":false,"count":1},{"code":"jidvei-tezaur-b2586","name":"Jidvei Tezaur","isSelected":false,"count":1},{"code":"la-salina-b2097","name":"La Salina","isSelected":false,"count":1},{"code":"lacerta-b2549","name":"LacertA","isSelected":false,"count":1},{"code":"licorna-serafim-b2536","name":"Licorna Serafim","isSelected":false,"count":1},{"code":"mosia-de-la-tohani-b2260","name":"Mosia de la Tohani","isSelected":false,"count":2},{"code":"nachbil-b2099","name":"Nachbil","isSelected":false,"count":1},{"code":"nasty-b2723","name":"Nasty","isSelected":false,"count":1},{"code":"navigo-b1424","name":"Navigo","isSelected":false,"count":1},{"code":"nebun-by-catalin-bordea-b2931","name":"Nebun By Catalin Bordea","isSelected":false,"count":1},{"code":"nedeea-b1374","name":"Nedeea","isSelected":false,"count":1},{"code":"petro-vaselo-b2552","name":"Petro Vaselo","isSelected":false,"count":1},{"code":"podgorie-domneasca-b2133","name":"Podgorie Domnească","isSelected":false,"count":1},{"code":"prince-mircea-b1376","name":"Prince Mircea","isSelected":false,"count":1},{"code":"prince-stirbey-b2430","name":"Prince Știrbey","isSelected":false,"count":1},{"code":"recas-muse-b2542","name":"Recaș Muse","isSelected":false,"count":2},{"code":"recas-sole-b2535","name":"Recaș Sole","isSelected":false,"count":1},{"code":"recas-solo-quinta-b2540","name":"Recaș Solo Quinta","isSelected":false,"count":1},{"code":"rose-verite-b1453","name":"Rosé Verité","isSelected":false,"count":1},{"code":"rose-verite-b3070","name":"Rosé Verité","isSelected":false,"count":3},{"code":"rotenberg-menestrel-b2234","name":"Rotenberg Menestrel","isSelected":false,"count":1},{"code":"rotenberg-rapsod-b2235","name":"Rotenberg Rapsod","isSelected":false,"count":1},{"code":"sange-de-taur-b1397","name":"Sange de Taur","isSelected":false,"count":1},{"code":"segarcea-b2577","name":"Segarcea","isSelected":false,"count":1},{"code":"segarcea-elite-b2576","name":"Segarcea Elite","isSelected":false,"count":1},{"code":"segarcea-sarut-b2579","name":"Segarcea Sarut","isSelected":false,"count":1},{"code":"sempre-rose-b1452","name":"Sempre Rose","isSelected":false,"count":1},{"code":"serve-b1595","name":"Serve","isSelected":false,"count":1},{"code":"sigillum-moldaviae-b1457","name":"Sigillum Moldaviae","isSelected":false,"count":1},{"code":"soare-b1377","name":"Soare","isSelected":false,"count":2},{"code":"samburel-de-olt-b1124","name":"Sâmburel de Olt","isSelected":false,"count":1},{"code":"terra-romana-b1594","name":"Terra Romana","isSelected":false,"count":1},{"code":"tohani-b1849","name":"Tohani","isSelected":false,"count":1},{"code":"tohani-flori-de-gheata-b2588","name":"Tohani Flori de Gheata","isSelected":false,"count":1},{"code":"tohani-princiar-b2589","name":"Tohani Princiar","isSelected":false,"count":1},{"code":"tohani-siel-b2590","name":"Tohani Siel","isSelected":false,"count":2},{"code":"via-coltul-pietrei-b2380","name":"Via Colțul Pietrei","isSelected":false,"count":1},{"code":"viile-metamorfosis-b2379","name":"Viile Metamorfosis","isSelected":false,"count":1},{"code":"vila-dobrusa-b1179","name":"Vila Dobrușa","isSelected":false,"count":1},{"code":"vinul-cavalerului-b1596","name":"Vinul Cavalerului","isSelected":false,"count":1},{"code":"young-liliac-b2130","name":"Young.Liliac","isSelected":false,"count":2},{"code":"zarea-lambrusco-b1387","name":"Zarea Lambrusco","isSelected":false,"count":1}]},{"code":"diet_lifestyle","name":"Dietă și lifestyle","countSelected":0,"values":[{"code":"eco-a83","name":"Eco","isSelected":false,"count":3},{"code":"made-in-romania-a85","name":"Made In Romania","isSelected":false,"count":89},{"code":"vegan-a24","name":"Vegan","isSelected":false,"count":2}]}]},"orderBy":[{"field":"price","direction":"asc","name":"Preț crescător","isSelected":false},{"field":"price","direction":"desc","name":"Preț descrescător","isSelected":false},{"field":"popularity","direction":"desc","name":"Cele mai populare","isSelected":true},{"field":"category","direction":"asc","name":"Categorie","isSelected":false}],"metaTitle":"Vinuri rose românești - Gamă variată","metaDescription":"Vrei Vinuri rose românești? Alege dintr-o gamă variată. Comanzi simplu și ai livrare rapidă, calitate și prospețime. Hai pe Freshful.ro","metaKeywords":null,"banners":[]}}