{"type":"subcategory","payload":{"analyticsListId":"category_70506-vinuri-internationale","analyticsListName":"Category - Vinuri internaționale","name":"Vinuri internaționale","slug":"70506-vinuri-internationale","image":null,"breadcrumbs":[{"code":"7","name":"Băuturi","slug":"7-bauturi-si-tutun"},{"code":"705","name":"Vinuri","slug":"705-vinuri"},{"code":"70506","name":"Vinuri internaționale","slug":"70506-vinuri-internationale"}],"slots":[],"page":1,"limit":10,"pages":28,"count":275,"siblings":[{"name":"Băuturi necarbogazoase și siropuri","slug":"701-bauturi-necarbogazoase-si-siropuri","selected":false},{"name":"Apă","slug":"702-apa","selected":false},{"name":"Băuturi carbogazoase","slug":"703-bauturi-carbogazoase","selected":false},{"name":"Bere","slug":"704-bere","selected":false},{"name":"Vinuri","slug":"705-vinuri","selected":true},{"name":"Băuturi spirtoase","slug":"706-bauturi-spirtoase","selected":false},{"name":"Tutun","slug":"707-tutun","selected":false}],"children":[{"name":"Toate produsele","slug":"705-vinuri","selected":false},{"name":"Șampanie și spumant","slug":"70501-sampanie-si-spumant","selected":false},{"name":"Vinuri ECO","slug":"70502-vinuri-bio","selected":false},{"name":"Vinuri albe românești","slug":"70503-vinuri-albe-romanesti","selected":false},{"name":"Vinuri roșii românești","slug":"70504-vinuri-rosii-romanesti","selected":false},{"name":"Vinuri rose românești","slug":"70505-vinuri-roze-romanesti","selected":false},{"name":"Vinuri internaționale","slug":"70506-vinuri-internationale","selected":true}],"products":[{"code":"100066166","variantCode":"100066166","name":"Vin rose demisec 0.75l","slug":"100066166-mateus-vin-rose-demisec-0-75l","unitPriceLabel":"27,99 Lei/l","brand":"Mateus","brandCode":"1098","brandFilterCode":"mateus-b1099","sku":"100066166","price":20.99,"originalPrice":null,"currencyCode":"RON","currency":"Lei","image":{"thumbnail":{"default":"https://cdn.freshful.ro/media/cache/sylius_shop_product_thumbnail/c0/43/0a679bb5ae355454dae9c824826e.jpg"},"large":{"default":"https://cdn.freshful.ro/media/cache/freshful_large/c0/43/0a679bb5ae355454dae9c824826e.jpg"},"extralarge":{"default":"https://cdn.freshful.ro/media/cache/sylius_shop_product_original/c0/43/0a679bb5ae355454dae9c824826e.jpg"}},"label":{"text":"Profită acum","backgroundColor":"#FF9903","textColor":"#FFFFFF"},"tags":[],"isAvailable":true,"maxAvailableQuantity":2,"maxAllowedQuantity":2,"breadcrumbs":[{"code":"7","name":"Băuturi","slug":"7-bauturi-si-tutun"},{"code":"705","name":"Vinuri","slug":"705-vinuri"},{"code":"70506","name":"Vinuri internaționale","slug":"70506-vinuri-internationale"},{"code":"100066166","name":"Vin rose demisec 0.75l","slug":"100066166-mateus-vin-rose-demisec-0-75l"}],"activePromotion":{"code":"special-bacanie-bauturi-mar23","name":"Preț avantajos","targetQuantity":null},"saveMe":null,"labels":[{"type":"v1","items":[{"text":"Profită acum","backgroundColor":"#FF9903","textColor":"#FFFFFF"}]}],"geniusPrice":null,"geniusUnitPricePerLabel":null,"banner":{"text":"Preț avantajos","textColor":"#F95510","bgColor":"#FEF1CD","icon":null,"link":"https://www.freshful.ro/oferte/special-bacanie-bauturi-mar23","type":"promo","analyticsEventType":"select_promotion","analyticsEventPayload":{"promotion_id":"special-bacanie-bauturi-mar23","promotion_name":"Prețuri speciale pentru Ziua Femeii"}},"discountLabel":null,"geniusDiscountLabel":null,"badge":null},{"code":"100110752","variantCode":"100110752","name":"Vin roșu sec Rară Neagră & Saperavi 0.75l ","slug":"100110752-domeniile-davidescu-vin-rosu-sec-rara-neagra-saperavi-0-75l","unitPriceLabel":"39,72 Lei/l","brand":"Domeniile Davidescu","brandCode":"1836","brandFilterCode":"domeniile-davidescu-b1840","sku":"100110752","price":29.79,"originalPrice":34.99,"currencyCode":"RON","currency":"Lei","image":{"thumbnail":{"default":"https://cdn.freshful.ro/media/cache/sylius_shop_product_thumbnail/f1/70/aa6cd6a0e37ed7fc8e33599b6fe8.jpg"},"large":{"default":"https://cdn.freshful.ro/media/cache/freshful_large/f1/70/aa6cd6a0e37ed7fc8e33599b6fe8.jpg"},"extralarge":{"default":"https://cdn.freshful.ro/media/cache/sylius_shop_product_original/f1/70/aa6cd6a0e37ed7fc8e33599b6fe8.jpg"}},"label":{"text":"-14%","backgroundColor":"#FF9903","textColor":"#FFFFFF"},"tags":[],"isAvailable":true,"maxAvailableQuantity":2,"maxAllowedQuantity":2,"breadcrumbs":[{"code":"7","name":"Băuturi","slug":"7-bauturi-si-tutun"},{"code":"705","name":"Vinuri","slug":"705-vinuri"},{"code":"70506","name":"Vinuri internaționale","slug":"70506-vinuri-internationale"},{"code":"100110752","name":"Vin roșu sec Rară Neagră & Saperavi 0.75l ","slug":"100110752-domeniile-davidescu-vin-rosu-sec-rara-neagra-saperavi-0-75l"}],"activePromotion":{"code":"superpreturile-saptamanii","name":"Preț redus","targetQuantity":null},"saveMe":null,"labels":[{"type":"v1","items":[{"text":"-14%","backgroundColor":"#FF9903","textColor":"#FFFFFF"}]}],"geniusPrice":null,"geniusUnitPricePerLabel":null,"banner":{"text":"Super preț","textColor":"#FF0000","bgColor":"#FFF2EC","icon":null,"link":"https://www.freshful.ro/oferte/superpreturile-saptamanii","type":"promo","analyticsEventType":"select_promotion","analyticsEventPayload":{"promotion_id":"superpreturile-saptamanii","promotion_name":"Superprețurile zilei"}},"discountLabel":"Economisești 14%","geniusDiscountLabel":null,"badge":null},{"code":"100121179","variantCode":"100121179","name":"Vin alb dulce Royal Tokaji Aszu 5 Furmint&Harslevelu 0.5l","slug":"100121179-toktelec-vin-alb-dulce-royal-tokaji-aszu-5-furmint-harslevelu-0-5l","unitPriceLabel":"179,98 Lei/l","brand":"Toktelec","brandCode":"2106","brandFilterCode":"toktelec-b2110","sku":"100121179","price":89.99,"originalPrice":null,"currencyCode":"RON","currency":"Lei","image":{"thumbnail":{"default":"https://cdn.freshful.ro/media/cache/sylius_shop_product_thumbnail/67/af/e697de1c6cc729b155c3e224b08a.jpg"},"large":{"default":"https://cdn.freshful.ro/media/cache/freshful_large/67/af/e697de1c6cc729b155c3e224b08a.jpg"},"extralarge":{"default":"https://cdn.freshful.ro/media/cache/sylius_shop_product_original/67/af/e697de1c6cc729b155c3e224b08a.jpg"}},"label":{"text":"Profită acum","backgroundColor":"#FF9903","textColor":"#FFFFFF"},"tags":[],"isAvailable":true,"maxAvailableQuantity":13,"maxAllowedQuantity":100,"breadcrumbs":[{"code":"7","name":"Băuturi","slug":"7-bauturi-si-tutun"},{"code":"705","name":"Vinuri","slug":"705-vinuri"},{"code":"70506","name":"Vinuri internaționale","slug":"70506-vinuri-internationale"},{"code":"100121179","name":"Vin alb dulce Royal Tokaji Aszu 5 Furmint&Harslevelu 0.5l","slug":"100121179-toktelec-vin-alb-dulce-royal-tokaji-aszu-5-furmint-harslevelu-0-5l"}],"activePromotion":{"code":"special-bacanie-bauturi-mar23","name":"Preț avantajos","targetQuantity":null},"saveMe":null,"labels":[{"type":"v1","items":[{"text":"Profită acum","backgroundColor":"#FF9903","textColor":"#FFFFFF"}]}],"geniusPrice":null,"geniusUnitPricePerLabel":null,"banner":{"text":"Preț avantajos","textColor":"#F95510","bgColor":"#FEF1CD","icon":null,"link":"https://www.freshful.ro/oferte/special-bacanie-bauturi-mar23","type":"promo","analyticsEventType":"select_promotion","analyticsEventPayload":{"promotion_id":"special-bacanie-bauturi-mar23","promotion_name":"Prețuri speciale pentru Ziua Femeii"}},"discountLabel":null,"geniusDiscountLabel":null,"badge":null},{"code":"100119162","variantCode":"100119162","name":"Vin roșu sec Rară Neagră 0.75l","slug":"100119162-purcari-1827-vin-rosu-sec-rara-neagra-0-75l","unitPriceLabel":"45,59 Lei/l","brand":"Purcari 1827","brandCode":"2030","brandFilterCode":"purcari-1827-b2034","sku":"100119162","price":34.19,"originalPrice":null,"currencyCode":"RON","currency":"Lei","image":{"thumbnail":{"default":"https://cdn.freshful.ro/media/cache/sylius_shop_product_thumbnail/c9/42/3f216e1ed400eabb781e395c268c.jpg"},"large":{"default":"https://cdn.freshful.ro/media/cache/freshful_large/c9/42/3f216e1ed400eabb781e395c268c.jpg"},"extralarge":{"default":"https://cdn.freshful.ro/media/cache/sylius_shop_product_original/c9/42/3f216e1ed400eabb781e395c268c.jpg"}},"label":null,"tags":[],"isAvailable":true,"maxAvailableQuantity":100,"maxAllowedQuantity":100,"breadcrumbs":[{"code":"7","name":"Băuturi","slug":"7-bauturi-si-tutun"},{"code":"705","name":"Vinuri","slug":"705-vinuri"},{"code":"70506","name":"Vinuri internaționale","slug":"70506-vinuri-internationale"},{"code":"100119162","name":"Vin roșu sec Rară Neagră 0.75l","slug":"100119162-purcari-1827-vin-rosu-sec-rara-neagra-0-75l"}],"activePromotion":null,"saveMe":null,"labels":[],"geniusPrice":null,"geniusUnitPricePerLabel":null,"banner":null,"discountLabel":null,"geniusDiscountLabel":null,"badge":null},{"code":"100119157","variantCode":"100119157","name":"Vin alb sec Chardonnay 0.75l","slug":"100119157-purcari-1827-vin-alb-sec-chardonnay-0-75l","unitPriceLabel":"45,19 Lei/l","brand":"Purcari 1827","brandCode":"2030","brandFilterCode":"purcari-1827-b2034","sku":"100119157","price":33.89,"originalPrice":null,"currencyCode":"RON","currency":"Lei","image":{"thumbnail":{"default":"https://cdn.freshful.ro/media/cache/sylius_shop_product_thumbnail/34/8c/43f81ac575a7eb872e61a38707ea.jpg"},"large":{"default":"https://cdn.freshful.ro/media/cache/freshful_large/34/8c/43f81ac575a7eb872e61a38707ea.jpg"},"extralarge":{"default":"https://cdn.freshful.ro/media/cache/sylius_shop_product_original/34/8c/43f81ac575a7eb872e61a38707ea.jpg"}},"label":null,"tags":[],"isAvailable":true,"maxAvailableQuantity":100,"maxAllowedQuantity":100,"breadcrumbs":[{"code":"7","name":"Băuturi","slug":"7-bauturi-si-tutun"},{"code":"705","name":"Vinuri","slug":"705-vinuri"},{"code":"70506","name":"Vinuri internaționale","slug":"70506-vinuri-internationale"},{"code":"100119157","name":"Vin alb sec Chardonnay 0.75l","slug":"100119157-purcari-1827-vin-alb-sec-chardonnay-0-75l"}],"activePromotion":null,"saveMe":null,"labels":[],"geniusPrice":null,"geniusUnitPricePerLabel":null,"banner":null,"discountLabel":null,"geniusDiscountLabel":null,"badge":null},{"code":"100119163","variantCode":"100119163","name":"Vin rose sec 0.75l","slug":"100119163-purcari-1827-vin-rose-sec-0-75l","unitPriceLabel":"45,59 Lei/l","brand":"Purcari 1827","brandCode":"2030","brandFilterCode":"purcari-1827-b2034","sku":"100119163","price":34.19,"originalPrice":null,"currencyCode":"RON","currency":"Lei","image":{"thumbnail":{"default":"https://cdn.freshful.ro/media/cache/sylius_shop_product_thumbnail/7f/b7/cdbcc94986972cfd1a4d8bccac3e.jpg"},"large":{"default":"https://cdn.freshful.ro/media/cache/freshful_large/7f/b7/cdbcc94986972cfd1a4d8bccac3e.jpg"},"extralarge":{"default":"https://cdn.freshful.ro/media/cache/sylius_shop_product_original/7f/b7/cdbcc94986972cfd1a4d8bccac3e.jpg"}},"label":null,"tags":[],"isAvailable":true,"maxAvailableQuantity":100,"maxAllowedQuantity":100,"breadcrumbs":[{"code":"7","name":"Băuturi","slug":"7-bauturi-si-tutun"},{"code":"705","name":"Vinuri","slug":"705-vinuri"},{"code":"70506","name":"Vinuri internaționale","slug":"70506-vinuri-internationale"},{"code":"100119163","name":"Vin rose sec 0.75l","slug":"100119163-purcari-1827-vin-rose-sec-0-75l"}],"activePromotion":null,"saveMe":null,"labels":[],"geniusPrice":null,"geniusUnitPricePerLabel":null,"banner":null,"discountLabel":null,"geniusDiscountLabel":null,"badge":null},{"code":"100119140","variantCode":"100119140","name":"Vin roșu sec Castiglioni Chianti 0.75l","slug":"100119140-frescobaldi-vin-rosu-sec-castiglioni-chianti-0-75l","unitPriceLabel":"83,59 Lei/l","brand":"Frescobaldi","brandCode":"2024","brandFilterCode":"frescobaldi-b2028","sku":"100119140","price":62.69,"originalPrice":null,"currencyCode":"RON","currency":"Lei","image":{"thumbnail":{"default":"https://cdn.freshful.ro/media/cache/sylius_shop_product_thumbnail/61/7c/2affd757a994e30a423d2e5e5189.jpg"},"large":{"default":"https://cdn.freshful.ro/media/cache/freshful_large/61/7c/2affd757a994e30a423d2e5e5189.jpg"},"extralarge":{"default":"https://cdn.freshful.ro/media/cache/sylius_shop_product_original/61/7c/2affd757a994e30a423d2e5e5189.jpg"}},"label":null,"tags":[],"isAvailable":true,"maxAvailableQuantity":2,"maxAllowedQuantity":2,"breadcrumbs":[{"code":"7","name":"Băuturi","slug":"7-bauturi-si-tutun"},{"code":"705","name":"Vinuri","slug":"705-vinuri"},{"code":"70506","name":"Vinuri internaționale","slug":"70506-vinuri-internationale"},{"code":"100119140","name":"Vin roșu sec Castiglioni Chianti 0.75l","slug":"100119140-frescobaldi-vin-rosu-sec-castiglioni-chianti-0-75l"}],"activePromotion":null,"saveMe":null,"labels":[],"geniusPrice":null,"geniusUnitPricePerLabel":null,"banner":null,"discountLabel":null,"geniusDiscountLabel":null,"badge":null},{"code":"100110756","variantCode":"100110756","name":"Vin rose demisec Sorginte 0.75l","slug":"100110756-domeniile-davidescu-vin-rose-demisec-sorginte-0-75l","unitPriceLabel":"44,67 Lei/l","brand":"Domeniile Davidescu","brandCode":"1836","brandFilterCode":"domeniile-davidescu-b1840","sku":"100110756","price":33.5,"originalPrice":null,"currencyCode":"RON","currency":"Lei","image":{"thumbnail":{"default":"https://cdn.freshful.ro/media/cache/sylius_shop_product_thumbnail/82/01/46a37bc3098e16b3d606cef3a5bd.jpg"},"large":{"default":"https://cdn.freshful.ro/media/cache/freshful_large/82/01/46a37bc3098e16b3d606cef3a5bd.jpg"},"extralarge":{"default":"https://cdn.freshful.ro/media/cache/sylius_shop_product_original/82/01/46a37bc3098e16b3d606cef3a5bd.jpg"}},"label":null,"tags":[],"isAvailable":true,"maxAvailableQuantity":100,"maxAllowedQuantity":100,"breadcrumbs":[{"code":"7","name":"Băuturi","slug":"7-bauturi-si-tutun"},{"code":"705","name":"Vinuri","slug":"705-vinuri"},{"code":"70506","name":"Vinuri internaționale","slug":"70506-vinuri-internationale"},{"code":"100110756","name":"Vin rose demisec Sorginte 0.75l","slug":"100110756-domeniile-davidescu-vin-rose-demisec-sorginte-0-75l"}],"activePromotion":null,"saveMe":null,"labels":[],"geniusPrice":null,"geniusUnitPricePerLabel":null,"banner":null,"discountLabel":null,"geniusDiscountLabel":null,"badge":null},{"code":"100127554","variantCode":"100127554","name":"Vin roșu sec Primitivo Puglia 0.75l","slug":"100127554-vitis-nostra-vin-rosu-sec-primitivo-puglia-0-75l","unitPriceLabel":"53,29 Lei/l","brand":"Vitis Nostra","brandCode":"2506","brandFilterCode":"vitis-nostra-b2510","sku":"100127554","price":39.97,"originalPrice":null,"currencyCode":"RON","currency":"Lei","image":{"thumbnail":{"default":"https://cdn.freshful.ro/media/cache/sylius_shop_product_thumbnail/2b/9f/c94b01cfcfd06706dc4122edd31b.jpg"},"large":{"default":"https://cdn.freshful.ro/media/cache/freshful_large/2b/9f/c94b01cfcfd06706dc4122edd31b.jpg"},"extralarge":{"default":"https://cdn.freshful.ro/media/cache/sylius_shop_product_original/2b/9f/c94b01cfcfd06706dc4122edd31b.jpg"}},"label":null,"tags":[],"isAvailable":true,"maxAvailableQuantity":55,"maxAllowedQuantity":100,"breadcrumbs":[{"code":"7","name":"Băuturi","slug":"7-bauturi-si-tutun"},{"code":"705","name":"Vinuri","slug":"705-vinuri"},{"code":"70506","name":"Vinuri internaționale","slug":"70506-vinuri-internationale"},{"code":"100127554","name":"Vin roșu sec Primitivo Puglia 0.75l","slug":"100127554-vitis-nostra-vin-rosu-sec-primitivo-puglia-0-75l"}],"activePromotion":null,"saveMe":null,"labels":[],"geniusPrice":null,"geniusUnitPricePerLabel":null,"banner":null,"discountLabel":null,"geniusDiscountLabel":null,"badge":null},{"code":"100130067","variantCode":"100130067","name":"Vin roșu sec Amaranta 1.5l","slug":"100130067-tenuta-ulisse-vin-rosu-sec-amaranta-1-5l","unitPriceLabel":"143,33 Lei/l","brand":"Tenuta Ulisse","brandCode":"2418","brandFilterCode":"tenuta-ulisse-b2422","sku":"100130067","price":214.99,"originalPrice":null,"currencyCode":"RON","currency":"Lei","image":{"thumbnail":{"default":"https://cdn.freshful.ro/media/cache/sylius_shop_product_thumbnail/52/eb/94ee06e2349fb191b7ab1518ff1b.jpg"},"large":{"default":"https://cdn.freshful.ro/media/cache/freshful_large/52/eb/94ee06e2349fb191b7ab1518ff1b.jpg"},"extralarge":{"default":"https://cdn.freshful.ro/media/cache/sylius_shop_product_original/52/eb/94ee06e2349fb191b7ab1518ff1b.jpg"}},"label":null,"tags":[],"isAvailable":true,"maxAvailableQuantity":100,"maxAllowedQuantity":100,"breadcrumbs":[{"code":"7","name":"Băuturi","slug":"7-bauturi-si-tutun"},{"code":"705","name":"Vinuri","slug":"705-vinuri"},{"code":"70506","name":"Vinuri internaționale","slug":"70506-vinuri-internationale"},{"code":"100130067","name":"Vin roșu sec Amaranta 1.5l","slug":"100130067-tenuta-ulisse-vin-rosu-sec-amaranta-1-5l"}],"activePromotion":null,"saveMe":null,"labels":[],"geniusPrice":null,"geniusUnitPricePerLabel":null,"banner":null,"discountLabel":null,"geniusDiscountLabel":null,"badge":null}],"filters":{"countSelected":0,"items":[{"code":"promotion","name":"Promoții","countSelected":0,"values":[{"code":"special-bacanie-bauturi-mar23","name":"Prețuri speciale pentru Ziua Femeii","isSelected":false,"count":2},{"code":"superpreturile-saptamanii","name":"Superprețurile zilei","isSelected":false,"count":1}]},{"code":"brand","name":"Brand","countSelected":0,"values":[{"code":"310-altitudine-b2240","name":"310 Altitudine","isSelected":false,"count":2},{"code":"aldegheri-b3022","name":"Aldegheri","isSelected":false,"count":1},{"code":"alpha-estate-b2324","name":"Alpha Estate","isSelected":false,"count":1},{"code":"alpha-estate-single-vineyard-b2331","name":"Alpha Estate Single Vineyard","isSelected":false,"count":1},{"code":"anhydrous-santorini-b2326","name":"Anhydrous Santorini","isSelected":false,"count":1},{"code":"arthur-metz-b1207","name":"Arthur Metz","isSelected":false,"count":2},{"code":"banfi-b1209","name":"Banfi","isSelected":false,"count":8},{"code":"baron-de-valac-b1208","name":"Baron de Valac","isSelected":false,"count":1},{"code":"bodegas-antidoto-b2102","name":"Bodegas Antidoto","isSelected":false,"count":1},{"code":"botter-b1211","name":"Botter","isSelected":false,"count":1},{"code":"boutari-naoussa-b2329","name":"Boutari Naoussa","isSelected":false,"count":1},{"code":"bovier-fils-b1199","name":"Bovier & Fils","isSelected":false,"count":2},{"code":"calvet-b1195","name":"Calvet","isSelected":false,"count":2},{"code":"canti-b1213","name":"Canti","isSelected":false,"count":4},{"code":"caruso-minini-tasari-b3055","name":"Caruso & Minini Tasàri","isSelected":false,"count":3},{"code":"castel-mimi-b3050","name":"Castel Mimi","isSelected":false,"count":2},{"code":"castel-mimi-animaliens-b3047","name":"Castel Mimi Animaliens","isSelected":false,"count":5},{"code":"castel-mimi-governor-b3052","name":"Castel Mimi Governor","isSelected":false,"count":2},{"code":"castel-mimi-rose-de-bulboaca-b3049","name":"Castel Mimi Rose De Bulboaca","isSelected":false,"count":1},{"code":"castel-mimi-sfaditele-b3051","name":"Castel Mimi Sfaditele","isSelected":false,"count":1},{"code":"castel-mimi-viorica-de-bulboaca-b3048","name":"Castel Mimi Viorica De Bulboaca","isSelected":false,"count":1},{"code":"castelfeder-b2951","name":"CASTELFEDER","isSelected":false,"count":3},{"code":"castello-della-sala-b2386","name":"Castello della Sala","isSelected":false,"count":1},{"code":"cecchi-b2026","name":"Cecchi","isSelected":false,"count":2},{"code":"ceci-b3054","name":"Ceci","isSelected":false,"count":1},{"code":"cecilia-beretta-b2107","name":"Cecilia Beretta","isSelected":false,"count":1},{"code":"chateau-la-freneraie-b2284","name":"Chateau La Freneraie","isSelected":false,"count":1},{"code":"chateau-minuty-b3060","name":"Chateau Minuty","isSelected":false,"count":2},{"code":"chateau-vartely-b2276","name":"Chateau Vartely","isSelected":false,"count":17},{"code":"chemin-des-papes-b1205","name":"Chemin des Papes","isSelected":false,"count":2},{"code":"chateau-des-jaume-b2416","name":"Château des Jaume","isSelected":false,"count":1},{"code":"chateau-gigery-b2417","name":"Château Gigery","isSelected":false,"count":1},{"code":"chateau-marcadis-b1196","name":"Château Marcadis","isSelected":false,"count":1},{"code":"chateau-sainte-roseline-b1203","name":"Château Sainte Roseline","isSelected":false,"count":2},{"code":"corte-vigna-b2512","name":"Corte Vigna","isSelected":false,"count":1},{"code":"corvo-b1214","name":"Corvo","isSelected":false,"count":3},{"code":"crama-mircesti-b2277","name":"Crama Mircești","isSelected":false,"count":6},{"code":"cricova-prestige-b408","name":"Cricova Prestige","isSelected":false,"count":2},{"code":"cricova-vintage-b2229","name":"Cricova Vintage","isSelected":false,"count":2},{"code":"domaine-chateau-porto-carras-b2333","name":"Domaine Chateau Porto Carras","isSelected":false,"count":1},{"code":"domaine-costa-lazardi-amethystos-b2322","name":"Domaine Costa Lazardi Amethystos","isSelected":false,"count":2},{"code":"domaine-kechris-retsina-b2335","name":"Domaine Kechris Retsina","isSelected":false,"count":1},{"code":"domaine-tariquet-b1206","name":"Domaine Tariquet","isSelected":false,"count":1},{"code":"domeniile-davidescu-b1840","name":"Domeniile Davidescu","isSelected":false,"count":12},{"code":"dulong-b1197","name":"Dulong","isSelected":false,"count":1},{"code":"ego-bodegas-b2094","name":"Ego Bodegas","isSelected":false,"count":3},{"code":"el-cortez-b2415","name":"El Cortez","isSelected":false,"count":1},{"code":"el-emperador-b1221","name":"El Emperador","isSelected":false,"count":3},{"code":"eos-samos-vin-doux-b2334","name":"Eos Samos – Vin Doux","isSelected":false,"count":1},{"code":"estate-argyros-atlantis-b2323","name":"Estate Argyros Atlantis","isSelected":false,"count":1},{"code":"famille-quiot-b1204","name":"Famille Quiot","isSelected":false,"count":1},{"code":"farnese-fantini-b3057","name":"Farnese Fantini","isSelected":false,"count":2},{"code":"feudi-di-san-gregorio-b3027","name":"Feudi di San Gregorio","isSelected":false,"count":4},{"code":"florio-marsala-b1215","name":"Florio Marsala","isSelected":false,"count":2},{"code":"fontanafredda-b3025","name":"Fontanafredda","isSelected":false,"count":3},{"code":"fratelli-giacosa-b3026","name":"Fratelli Giacosa","isSelected":false,"count":2},{"code":"frescobaldi-b2028","name":"Frescobaldi","isSelected":false,"count":3},{"code":"fautor-b2062","name":"Făutor","isSelected":false,"count":9},{"code":"gitana-b2433","name":"Gitana","isSelected":false,"count":7},{"code":"gitana-autograf-b2434","name":"Gitana Autograf","isSelected":false,"count":4},{"code":"gitana-la-petite-sophie-b2435","name":"Gitana La Petite Sophie","isSelected":false,"count":1},{"code":"gitana-lupi-b2436","name":"Gitana Lupi","isSelected":false,"count":1},{"code":"gitana-manastirea-rohrbach-b2437","name":"Gitana Mănăstirea Rohrbach","isSelected":false,"count":1},{"code":"gitana-saperavi-b2438","name":"Gitana Saperavi","isSelected":false,"count":1},{"code":"gitana-surori-b2440","name":"Gitana Surori","isSelected":false,"count":1},{"code":"gonzalez-byass-b1217","name":"González Byass","isSelected":false,"count":1},{"code":"gourmet-b2420","name":"Gourmet","isSelected":false,"count":3},{"code":"guy-saget-b1201","name":"Guy Saget","isSelected":false,"count":3},{"code":"henri-bourgeois-b1222","name":"Henri Bourgeois","isSelected":false,"count":2},{"code":"jacobs-creek-b1337","name":"Jacobs Creek","isSelected":false,"count":3},{"code":"jermann-b2137","name":"Jermann","isSelected":false,"count":2},{"code":"jp-chenet-b1098","name":"JP. Chenet","isSelected":false,"count":7},{"code":"kardos-b2109","name":"Kardos","isSelected":false,"count":1},{"code":"kendall-jackson-b1219","name":"Kendall-Jackson","isSelected":false,"count":3},{"code":"ktima-biblia-chora-b2325","name":"Ktima Biblia Chora","isSelected":false,"count":1},{"code":"ktima-kir-yianni-ramnista-b2332","name":"Ktima Kir Yianni Ramnista","isSelected":false,"count":1},{"code":"la-scolca-b2135","name":"La Scolca","isSelected":false,"count":1},{"code":"lantides-nemea-b2328","name":"Lantides Nemea","isSelected":false,"count":1},{"code":"liliac-tandem-b2600","name":"Liliac Tandem","isSelected":false,"count":2},{"code":"louis-eschenauer-b1198","name":"Louis Eschenauer","isSelected":false,"count":1},{"code":"louis-latour-b1200","name":"Louis Latour","isSelected":false,"count":2},{"code":"luz-del-alba-b2414","name":"Luz Del Alba","isSelected":false,"count":1},{"code":"masso-antico-b2530","name":"Masso Antico","isSelected":false,"count":2},{"code":"mateus-b1099","name":"Mateus","isSelected":false,"count":2},{"code":"miraval-b3061","name":"Miraval","isSelected":false,"count":2},{"code":"oenops-apla-b2320","name":"Oenops Apla","isSelected":false,"count":1},{"code":"offley-b1218","name":"Offley","isSelected":false,"count":2},{"code":"osborne-b2361","name":"Osborne","isSelected":false,"count":1},{"code":"ottella-b3028","name":"Ottella","isSelected":false,"count":2},{"code":"papagiannakos-kalogeri-b2321","name":"Papagiannakos Kalogeri","isSelected":false,"count":1},{"code":"piccini-b1210","name":"Piccini","isSelected":false,"count":4},{"code":"planeta-b3029","name":"Planeta","isSelected":false,"count":2},{"code":"pounamu-b3053","name":"Pounamu","isSelected":false,"count":2},{"code":"purcari-1827-b2034","name":"Purcari 1827","isSelected":false,"count":15},{"code":"purcari-sapiens-b3086","name":"Purcari Sapiens","isSelected":false,"count":5},{"code":"purcari-vinohora-b3087","name":"Purcari Vinohora","isSelected":false,"count":3},{"code":"peppoli-b2384","name":"Pèppoli","isSelected":false,"count":1},{"code":"riunite-b1305","name":"Riunite","isSelected":false,"count":1},{"code":"san-marzano-b2030","name":"San Marzano","isSelected":false,"count":2},{"code":"santa-cristina-b2387","name":"Santa Cristina","isSelected":false,"count":1},{"code":"sapaio-b2108","name":"Sapaio","isSelected":false,"count":1},{"code":"sauska-b2112","name":"Sauska","isSelected":false,"count":1},{"code":"symbiose-b2421","name":"Symbiose","isSelected":false,"count":1},{"code":"takler-b2114","name":"Takler","isSelected":false,"count":1},{"code":"tenuta-luce-b2950","name":"Tenuta Luce","isSelected":false,"count":1},{"code":"tenuta-ulisse-b2422","name":"Tenuta Ulisse","isSelected":false,"count":9},{"code":"thymiopoulos-young-vines-b2330","name":"Thymiopoulos Young Vines","isSelected":false,"count":1},{"code":"timbrus-b3065","name":"Timbrus","isSelected":false,"count":4},{"code":"toktelec-b2110","name":"Toktelec","isSelected":false,"count":1},{"code":"tomaresca-b2388","name":"Tomaresca","isSelected":false,"count":1},{"code":"torley-b1116","name":"Torley","isSelected":false,"count":1},{"code":"troupis-tomi-b2327","name":"Troupis Tomi","isSelected":false,"count":1},{"code":"vinuva-b2511","name":"Vinuva","isSelected":false,"count":2},{"code":"vitis-nostra-b2510","name":"Vitis Nostra","isSelected":false,"count":4},{"code":"voga-b2343","name":"Voga","isSelected":false,"count":1}]},{"code":"diet_lifestyle","name":"Dietă și lifestyle","countSelected":0,"values":[{"code":"bio-a26","name":"Bio","isSelected":false,"count":1},{"code":"eco-a83","name":"Eco","isSelected":false,"count":5},{"code":"vegan-a24","name":"Vegan","isSelected":false,"count":1}]}]},"orderBy":[{"field":"price","direction":"asc","name":"Preț crescător","isSelected":false},{"field":"price","direction":"desc","name":"Preț descrescător","isSelected":false},{"field":"popularity","direction":"desc","name":"Cele mai populare","isSelected":true},{"field":"category","direction":"asc","name":"Categorie","isSelected":false}],"metaTitle":"Vinuri internaționale - Gamă variată","metaDescription":"Vrei Vinuri internaționale? Alege dintr-o gamă variată. Comanzi simplu și ai livrare rapidă, calitate și prospețime. Hai pe Freshful.ro","metaKeywords":null,"banners":[{"name":"Vinuri Italia Header Content","position":1,"type":"header","displayOnMobile":true,"image":{"jpg":"https://cdn.freshful.ro/media/image/cb/79/523291bcedb6195863fdf118ce39.jpg","webp":"https://cdn.freshful.ro/media/image/48/e8/2dc2a413fdab3503f9e47e407076.webp"},"imageResponsive":{"jpg":"https://cdn.freshful.ro/media/image/53/ce/47af7951b0f3a81bc2356ae0afbe.jpg","webp":"https://cdn.freshful.ro/media/image/92/3e/88a8f67169c9335063d065029917.webp"},"url":"/l/listing-vinuri-italia"},{"name":"Vinuri MD Listing","position":3,"type":"listing","displayOnMobile":true,"image":{"jpg":"https://cdn.freshful.ro/media/image/39/bd/cc60dd7399ebd67ccdba64f831c1.jpg","webp":"https://cdn.freshful.ro/media/image/aa/74/a8d09eed49b5b972a8827787f384.webp"},"imageResponsive":{"jpg":"https://cdn.freshful.ro/media/image/f5/56/bc9ee8a185a70d00d7b685d2c3e9.jpg","webp":"https://cdn.freshful.ro/media/image/76/35/1851626d43cf1a6c67a7317c2976.webp"},"url":"/l/listing-vinuri-moldova"}]}}