{"type":"subcategory","payload":{"analyticsListId":"category_70501-sampanie-si-spumant","analyticsListName":"Category - Șampanie și spumant","name":"Șampanie și spumant","slug":"70501-sampanie-si-spumant","image":null,"breadcrumbs":[{"code":"7","name":"Băuturi","slug":"7-bauturi-si-tutun"},{"code":"705","name":"Vinuri","slug":"705-vinuri"},{"code":"70501","name":"Șampanie și spumant","slug":"70501-sampanie-si-spumant"}],"slots":[],"page":1,"limit":10,"pages":19,"count":189,"siblings":[{"name":"Băuturi necarbogazoase și siropuri","slug":"701-bauturi-necarbogazoase-si-siropuri","selected":false},{"name":"Apă","slug":"702-apa","selected":false},{"name":"Băuturi carbogazoase","slug":"703-bauturi-carbogazoase","selected":false},{"name":"Bere","slug":"704-bere","selected":false},{"name":"Vinuri","slug":"705-vinuri","selected":true},{"name":"Băuturi spirtoase","slug":"706-bauturi-spirtoase","selected":false},{"name":"Tutun","slug":"707-tutun","selected":false}],"children":[{"name":"Toate produsele","slug":"705-vinuri","selected":false},{"name":"Șampanie și spumant","slug":"70501-sampanie-si-spumant","selected":true},{"name":"Vinuri ECO","slug":"70502-vinuri-bio","selected":false},{"name":"Vinuri albe românești","slug":"70503-vinuri-albe-romanesti","selected":false},{"name":"Vinuri roșii românești","slug":"70504-vinuri-rosii-romanesti","selected":false},{"name":"Vinuri rose românești","slug":"70505-vinuri-roze-romanesti","selected":false},{"name":"Vinuri internaționale","slug":"70506-vinuri-internationale","selected":false}],"products":[{"code":"100071670","variantCode":"100071670","name":"Vin spumant alb brut Prosecco Treviso 0.75l","slug":"100071670-mionetto-vin-spumant-alb-brut-prosecco-treviso-0-75l","unitPriceLabel":"48 Lei/l","brand":"Mionetto","brandCode":"1110","brandFilterCode":"mionetto-b1111","sku":"100071670","price":36,"originalPrice":null,"currencyCode":"RON","currency":"Lei","image":{"thumbnail":{"default":"https://cdn.freshful.ro/media/cache/sylius_shop_product_thumbnail/e9/19/abe79268647a88847702e5770d11.jpg"},"large":{"default":"https://cdn.freshful.ro/media/cache/freshful_large/e9/19/abe79268647a88847702e5770d11.jpg"},"extralarge":{"default":"https://cdn.freshful.ro/media/cache/sylius_shop_product_original/e9/19/abe79268647a88847702e5770d11.jpg"}},"label":{"text":"Profită acum","backgroundColor":"#FF9903","textColor":"#FFFFFF"},"tags":[],"isAvailable":true,"maxAvailableQuantity":100,"maxAllowedQuantity":100,"breadcrumbs":[{"code":"7","name":"Băuturi","slug":"7-bauturi-si-tutun"},{"code":"705","name":"Vinuri","slug":"705-vinuri"},{"code":"70501","name":"Șampanie și spumant","slug":"70501-sampanie-si-spumant"},{"code":"100071670","name":"Vin spumant alb brut Prosecco Treviso 0.75l","slug":"100071670-mionetto-vin-spumant-alb-brut-prosecco-treviso-0-75l"}],"activePromotion":{"code":"superpreturile-saptamanii","name":"Preț avantajos","targetQuantity":null},"saveMe":null,"labels":[{"type":"v1","items":[{"text":"Profită acum","backgroundColor":"#FF9903","textColor":"#FFFFFF"}]}],"geniusPrice":null,"geniusUnitPricePerLabel":null,"banner":{"text":"Preț avantajos","textColor":"#F95510","bgColor":"#FEF1CD","icon":null,"link":"https://www.freshful.ro/oferte/superpreturile-saptamanii","type":"promo","analyticsEventType":"select_promotion","analyticsEventPayload":{"promotion_id":"superpreturile-saptamanii","promotion_name":"Superprețurile zilei"}},"discountLabel":null,"geniusDiscountLabel":null,"badge":null},{"code":"100080110","variantCode":"100080110","name":"Vin spumant rose demidulce Bella Vita 0.75l","slug":"100080110-zarea-lambrusco-vin-spumant-rose-demidulce-bella-vita-0-75l","unitPriceLabel":"27,99 Lei/l","brand":"Zarea Lambrusco","brandCode":"1383","brandFilterCode":"zarea-lambrusco-b1387","sku":"100080110","price":20.99,"originalPrice":null,"currencyCode":"RON","currency":"Lei","image":{"thumbnail":{"default":"https://cdn.freshful.ro/media/cache/sylius_shop_product_thumbnail/5d/7a/831e9e1af9bcc8501f5b3c82d11c.jpg"},"large":{"default":"https://cdn.freshful.ro/media/cache/freshful_large/5d/7a/831e9e1af9bcc8501f5b3c82d11c.jpg"},"extralarge":{"default":"https://cdn.freshful.ro/media/cache/sylius_shop_product_original/5d/7a/831e9e1af9bcc8501f5b3c82d11c.jpg"}},"label":{"text":"Profită acum","backgroundColor":"#FF9903","textColor":"#FFFFFF"},"tags":[],"isAvailable":true,"maxAvailableQuantity":38,"maxAllowedQuantity":100,"breadcrumbs":[{"code":"7","name":"Băuturi","slug":"7-bauturi-si-tutun"},{"code":"705","name":"Vinuri","slug":"705-vinuri"},{"code":"70501","name":"Șampanie și spumant","slug":"70501-sampanie-si-spumant"},{"code":"100080110","name":"Vin spumant rose demidulce Bella Vita 0.75l","slug":"100080110-zarea-lambrusco-vin-spumant-rose-demidulce-bella-vita-0-75l"}],"activePromotion":{"code":"special-bacanie-bauturi-mar23","name":"Preț avantajos","targetQuantity":null},"saveMe":null,"labels":[{"type":"v1","items":[{"text":"Profită acum","backgroundColor":"#FF9903","textColor":"#FFFFFF"}]}],"geniusPrice":null,"geniusUnitPricePerLabel":null,"banner":{"text":"Preț avantajos","textColor":"#F95510","bgColor":"#FEF1CD","icon":null,"link":"https://www.freshful.ro/oferte/special-bacanie-bauturi-mar23","type":"promo","analyticsEventType":"select_promotion","analyticsEventPayload":{"promotion_id":"special-bacanie-bauturi-mar23","promotion_name":"Prețuri speciale pentru Ziua Femeii"}},"discountLabel":null,"geniusDiscountLabel":null,"badge":null},{"code":"100150044","variantCode":"100150044","name":"Vin spumant brut Merlot 0.75l","slug":"100150044-rose-verite-vin-spumant-brut-merlot-0-75l","unitPriceLabel":"45,32 Lei/l","brand":"Rosé Verité","brandCode":"2976","brandFilterCode":"rose-verite-b3070","sku":"100150044","price":33.99,"originalPrice":39.99,"currencyCode":"RON","currency":"Lei","image":{"thumbnail":{"default":"https://cdn.freshful.ro/media/cache/sylius_shop_product_thumbnail/b9/25/b029dec735bd1e3b395f949cc994.jpg"},"large":{"default":"https://cdn.freshful.ro/media/cache/freshful_large/b9/25/b029dec735bd1e3b395f949cc994.jpg"},"extralarge":{"default":"https://cdn.freshful.ro/media/cache/sylius_shop_product_original/b9/25/b029dec735bd1e3b395f949cc994.jpg"}},"label":{"text":"-15%","backgroundColor":"#FF9903","textColor":"#FFFFFF"},"tags":[],"isAvailable":true,"maxAvailableQuantity":55,"maxAllowedQuantity":100,"breadcrumbs":[{"code":"7","name":"Băuturi","slug":"7-bauturi-si-tutun"},{"code":"705","name":"Vinuri","slug":"705-vinuri"},{"code":"70501","name":"Șampanie și spumant","slug":"70501-sampanie-si-spumant"},{"code":"100150044","name":"Vin spumant brut Merlot 0.75l","slug":"100150044-rose-verite-vin-spumant-brut-merlot-0-75l"}],"activePromotion":{"code":"special-bacanie-bauturi-mar23","name":"Preț redus","targetQuantity":null},"saveMe":null,"labels":[{"type":"v1","items":[{"text":"-15%","backgroundColor":"#FF9903","textColor":"#FFFFFF"}]}],"geniusPrice":null,"geniusUnitPricePerLabel":null,"banner":{"text":"Super preț","textColor":"#FF0000","bgColor":"#FFF2EC","icon":null,"link":"https://www.freshful.ro/oferte/special-bacanie-bauturi-mar23","type":"promo","analyticsEventType":"select_promotion","analyticsEventPayload":{"promotion_id":"special-bacanie-bauturi-mar23","promotion_name":"Prețuri speciale pentru Ziua Femeii"}},"discountLabel":"Economisești 15%","geniusDiscountLabel":null,"badge":null},{"code":"100135210","variantCode":"100135210","name":"Vin spumant rose brut 0.75l","slug":"100135210-private-selection-by-liliac-vin-spumant-rose-brut-0-75l","unitPriceLabel":"110,52 Lei/l","brand":"Private Selection By Liliac","brandCode":"2598","brandFilterCode":"private-selection-by-liliac-b2602","sku":"100135210","price":82.89,"originalPrice":null,"currencyCode":"RON","currency":"Lei","image":{"thumbnail":{"default":"https://cdn.freshful.ro/media/cache/sylius_shop_product_thumbnail/9c/f2/7eb23414645c2736922996e8a319.jpg"},"large":{"default":"https://cdn.freshful.ro/media/cache/freshful_large/9c/f2/7eb23414645c2736922996e8a319.jpg"},"extralarge":{"default":"https://cdn.freshful.ro/media/cache/sylius_shop_product_original/9c/f2/7eb23414645c2736922996e8a319.jpg"}},"label":{"text":"-20% cu Genius","backgroundColor":"#FEF3FA","textColor":"#CD015F"},"tags":[{"type":"MadeInRomania","text":"Made In Romania","icon":"https://cdn.freshful.ro/assets/product_tags/made_in_romania.svg","iconPng":"https://cdn.freshful.ro/assets/product_tags/made_in_romania.png","backgroundColor":"#EDF2FD","textColor":"#1653CA"}],"isAvailable":true,"maxAvailableQuantity":2,"maxAllowedQuantity":2,"breadcrumbs":[{"code":"7","name":"Băuturi","slug":"7-bauturi-si-tutun"},{"code":"705","name":"Vinuri","slug":"705-vinuri"},{"code":"70501","name":"Șampanie și spumant","slug":"70501-sampanie-si-spumant"},{"code":"100135210","name":"Vin spumant rose brut 0.75l","slug":"100135210-private-selection-by-liliac-vin-spumant-rose-brut-0-75l"}],"activePromotion":null,"saveMe":null,"labels":[{"type":"gdeals","items":[{"text":"","backgroundColor":"","textColor":""}]},{"type":"v3","items":[{"text":"-20% cu Genius","backgroundColor":"#FEF3FA","textColor":"#CD015F"}]}],"geniusPrice":66.31,"geniusUnitPricePerLabel":"88,41 Lei/l","banner":null,"discountLabel":null,"geniusDiscountLabel":"Economisești 20%","badge":null},{"code":"100121124","variantCode":"100121124","name":"Șampanie rose Prestige 0.75l","slug":"100121124-taittinger-sampanie-rose-prestige-0-75l","unitPriceLabel":"293,32 Lei/l","brand":"Taittinger","brandCode":"2086","brandFilterCode":"taittinger-b2090","sku":"100121124","price":219.99,"originalPrice":237.99,"currencyCode":"RON","currency":"Lei","image":{"thumbnail":{"default":"https://cdn.freshful.ro/media/cache/sylius_shop_product_thumbnail/91/93/31d20f8a5e015c5897139c2db498.jpg"},"large":{"default":"https://cdn.freshful.ro/media/cache/freshful_large/91/93/31d20f8a5e015c5897139c2db498.jpg"},"extralarge":{"default":"https://cdn.freshful.ro/media/cache/sylius_shop_product_original/91/93/31d20f8a5e015c5897139c2db498.jpg"}},"label":{"text":"-7%","backgroundColor":"#FF9903","textColor":"#FFFFFF"},"tags":[],"isAvailable":true,"maxAvailableQuantity":16,"maxAllowedQuantity":100,"breadcrumbs":[{"code":"7","name":"Băuturi","slug":"7-bauturi-si-tutun"},{"code":"705","name":"Vinuri","slug":"705-vinuri"},{"code":"70501","name":"Șampanie și spumant","slug":"70501-sampanie-si-spumant"},{"code":"100121124","name":"Șampanie rose Prestige 0.75l","slug":"100121124-taittinger-sampanie-rose-prestige-0-75l"}],"activePromotion":{"code":"special-bacanie-bauturi-mar23","name":"Preț redus","targetQuantity":null},"saveMe":null,"labels":[{"type":"v1","items":[{"text":"-7%","backgroundColor":"#FF9903","textColor":"#FFFFFF"}]}],"geniusPrice":null,"geniusUnitPricePerLabel":null,"banner":{"text":"Super preț","textColor":"#FF0000","bgColor":"#FFF2EC","icon":null,"link":"https://www.freshful.ro/oferte/special-bacanie-bauturi-mar23","type":"promo","analyticsEventType":"select_promotion","analyticsEventPayload":{"promotion_id":"special-bacanie-bauturi-mar23","promotion_name":"Prețuri speciale pentru Ziua Femeii"}},"discountLabel":"Economisești 7%","geniusDiscountLabel":null,"badge":null},{"code":"100149236","variantCode":"100149236","name":"Vin spumant extra sec Prosecco Treviso 1.5l ","slug":"100149236-maschio-vin-spumant-extra-sec-prosecco-treviso-1-5l","unitPriceLabel":"56,66 Lei/l","brand":"Maschio","brandCode":"1292","brandFilterCode":"maschio-b1306","sku":"100149236","price":84.99,"originalPrice":99.9,"currencyCode":"RON","currency":"Lei","image":{"thumbnail":{"default":"https://cdn.freshful.ro/media/cache/sylius_shop_product_thumbnail/b8/cc/b4eff8d67365e31ce848afcb30d7.jpg"},"large":{"default":"https://cdn.freshful.ro/media/cache/freshful_large/b8/cc/b4eff8d67365e31ce848afcb30d7.jpg"},"extralarge":{"default":"https://cdn.freshful.ro/media/cache/sylius_shop_product_original/b8/cc/b4eff8d67365e31ce848afcb30d7.jpg"}},"label":{"text":"-14%","backgroundColor":"#FF9903","textColor":"#FFFFFF"},"tags":[],"isAvailable":true,"maxAvailableQuantity":29,"maxAllowedQuantity":100,"breadcrumbs":[{"code":"7","name":"Băuturi","slug":"7-bauturi-si-tutun"},{"code":"705","name":"Vinuri","slug":"705-vinuri"},{"code":"70501","name":"Șampanie și spumant","slug":"70501-sampanie-si-spumant"},{"code":"100149236","name":"Vin spumant extra sec Prosecco Treviso 1.5l ","slug":"100149236-maschio-vin-spumant-extra-sec-prosecco-treviso-1-5l"}],"activePromotion":{"code":"special-bacanie-bauturi-mar23","name":"Preț redus","targetQuantity":null},"saveMe":null,"labels":[{"type":"v1","items":[{"text":"-14%","backgroundColor":"#FF9903","textColor":"#FFFFFF"}]}],"geniusPrice":null,"geniusUnitPricePerLabel":null,"banner":{"text":"Super preț","textColor":"#FF0000","bgColor":"#FFF2EC","icon":null,"link":"https://www.freshful.ro/oferte/special-bacanie-bauturi-mar23","type":"promo","analyticsEventType":"select_promotion","analyticsEventPayload":{"promotion_id":"special-bacanie-bauturi-mar23","promotion_name":"Prețuri speciale pentru Ziua Femeii"}},"discountLabel":"Economisești 14%","geniusDiscountLabel":null,"badge":null},{"code":"100127542","variantCode":"100127542","name":"Șampanie Blanc de Blancs Charles VII 0.75l","slug":"100127542-canard-duchene-sampanie-blanc-de-blancs-charles-vii-0-75l","unitPriceLabel":"373,32 Lei/l","brand":"Canard Duchene","brandCode":"2326","brandFilterCode":"canard-duchene-b2342","sku":"100127542","price":279.99,"originalPrice":null,"currencyCode":"RON","currency":"Lei","image":{"thumbnail":{"default":"https://cdn.freshful.ro/media/cache/sylius_shop_product_thumbnail/46/46/bc9e4824a29f25c417b8edfa6106.jpg"},"large":{"default":"https://cdn.freshful.ro/media/cache/freshful_large/46/46/bc9e4824a29f25c417b8edfa6106.jpg"},"extralarge":{"default":"https://cdn.freshful.ro/media/cache/sylius_shop_product_original/46/46/bc9e4824a29f25c417b8edfa6106.jpg"}},"label":{"text":"Profită acum","backgroundColor":"#FF9903","textColor":"#FFFFFF"},"tags":[],"isAvailable":true,"maxAvailableQuantity":15,"maxAllowedQuantity":100,"breadcrumbs":[{"code":"7","name":"Băuturi","slug":"7-bauturi-si-tutun"},{"code":"705","name":"Vinuri","slug":"705-vinuri"},{"code":"70501","name":"Șampanie și spumant","slug":"70501-sampanie-si-spumant"},{"code":"100127542","name":"Șampanie Blanc de Blancs Charles VII 0.75l","slug":"100127542-canard-duchene-sampanie-blanc-de-blancs-charles-vii-0-75l"}],"activePromotion":{"code":"special-bacanie-bauturi-mar23","name":"Preț avantajos","targetQuantity":null},"saveMe":null,"labels":[{"type":"v1","items":[{"text":"Profită acum","backgroundColor":"#FF9903","textColor":"#FFFFFF"}]}],"geniusPrice":null,"geniusUnitPricePerLabel":null,"banner":{"text":"Preț avantajos","textColor":"#F95510","bgColor":"#FEF1CD","icon":null,"link":"https://www.freshful.ro/oferte/special-bacanie-bauturi-mar23","type":"promo","analyticsEventType":"select_promotion","analyticsEventPayload":{"promotion_id":"special-bacanie-bauturi-mar23","promotion_name":"Prețuri speciale pentru Ziua Femeii"}},"discountLabel":null,"geniusDiscountLabel":null,"badge":null},{"code":"100080302","variantCode":"100080302","name":"Vin spumant alb extra sec Prosecco Treviso 0.75l","slug":"100080302-maschio-vin-spumant-alb-extra-sec-prosecco-treviso-0-75l","unitPriceLabel":"58,53 Lei/l","brand":"Maschio","brandCode":"1292","brandFilterCode":"maschio-b1306","sku":"100080302","price":43.9,"originalPrice":null,"currencyCode":"RON","currency":"Lei","image":{"thumbnail":{"default":"https://cdn.freshful.ro/media/cache/sylius_shop_product_thumbnail/6e/e2/7475d8c88245b7bd9c2f06b88b5d.jpg"},"large":{"default":"https://cdn.freshful.ro/media/cache/freshful_large/6e/e2/7475d8c88245b7bd9c2f06b88b5d.jpg"},"extralarge":{"default":"https://cdn.freshful.ro/media/cache/sylius_shop_product_original/6e/e2/7475d8c88245b7bd9c2f06b88b5d.jpg"}},"label":null,"tags":[],"isAvailable":true,"maxAvailableQuantity":100,"maxAllowedQuantity":100,"breadcrumbs":[{"code":"7","name":"Băuturi","slug":"7-bauturi-si-tutun"},{"code":"705","name":"Vinuri","slug":"705-vinuri"},{"code":"70501","name":"Șampanie și spumant","slug":"70501-sampanie-si-spumant"},{"code":"100080302","name":"Vin spumant alb extra sec Prosecco Treviso 0.75l","slug":"100080302-maschio-vin-spumant-alb-extra-sec-prosecco-treviso-0-75l"}],"activePromotion":null,"saveMe":null,"labels":[],"geniusPrice":null,"geniusUnitPricePerLabel":null,"banner":null,"discountLabel":null,"geniusDiscountLabel":null,"badge":null},{"code":"100119149","variantCode":"100119149","name":"Vin spumant rose demisec Ice 0.75l","slug":"100119149-veuve-du-vernay-vin-spumant-rose-demisec-ice-0-75l","unitPriceLabel":"70,8 Lei/l","brand":"Veuve Du Vernay","brandCode":"2028","brandFilterCode":"veuve-du-vernay-b2032","sku":"100119149","price":53.1,"originalPrice":null,"currencyCode":"RON","currency":"Lei","image":{"thumbnail":{"default":"https://cdn.freshful.ro/media/cache/sylius_shop_product_thumbnail/16/08/aa833e63b470207ec0f9ea75512c.jpg"},"large":{"default":"https://cdn.freshful.ro/media/cache/freshful_large/16/08/aa833e63b470207ec0f9ea75512c.jpg"},"extralarge":{"default":"https://cdn.freshful.ro/media/cache/sylius_shop_product_original/16/08/aa833e63b470207ec0f9ea75512c.jpg"}},"label":null,"tags":[],"isAvailable":true,"maxAvailableQuantity":2,"maxAllowedQuantity":2,"breadcrumbs":[{"code":"7","name":"Băuturi","slug":"7-bauturi-si-tutun"},{"code":"705","name":"Vinuri","slug":"705-vinuri"},{"code":"70501","name":"Șampanie și spumant","slug":"70501-sampanie-si-spumant"},{"code":"100119149","name":"Vin spumant rose demisec Ice 0.75l","slug":"100119149-veuve-du-vernay-vin-spumant-rose-demisec-ice-0-75l"}],"activePromotion":null,"saveMe":null,"labels":[],"geniusPrice":null,"geniusUnitPricePerLabel":null,"banner":null,"discountLabel":null,"geniusDiscountLabel":null,"badge":null},{"code":"100080300","variantCode":"100080300","name":"Vin spumant brut Prosecco D.O.C. Treviso 0.75l","slug":"100080300-maschio-vin-spumant-brut-prosecco-d-o-c-treviso-0-75l","unitPriceLabel":"58,53 Lei/l","brand":"Maschio","brandCode":"1292","brandFilterCode":"maschio-b1306","sku":"100080300","price":43.9,"originalPrice":null,"currencyCode":"RON","currency":"Lei","image":{"thumbnail":{"default":"https://cdn.freshful.ro/media/cache/sylius_shop_product_thumbnail/17/98/74f98c9b12bdca24e8df754a3f46.jpg"},"large":{"default":"https://cdn.freshful.ro/media/cache/freshful_large/17/98/74f98c9b12bdca24e8df754a3f46.jpg"},"extralarge":{"default":"https://cdn.freshful.ro/media/cache/sylius_shop_product_original/17/98/74f98c9b12bdca24e8df754a3f46.jpg"}},"label":null,"tags":[],"isAvailable":true,"maxAvailableQuantity":92,"maxAllowedQuantity":100,"breadcrumbs":[{"code":"7","name":"Băuturi","slug":"7-bauturi-si-tutun"},{"code":"705","name":"Vinuri","slug":"705-vinuri"},{"code":"70501","name":"Șampanie și spumant","slug":"70501-sampanie-si-spumant"},{"code":"100080300","name":"Vin spumant brut Prosecco D.O.C. Treviso 0.75l","slug":"100080300-maschio-vin-spumant-brut-prosecco-d-o-c-treviso-0-75l"}],"activePromotion":null,"saveMe":null,"labels":[],"geniusPrice":null,"geniusUnitPricePerLabel":null,"banner":null,"discountLabel":null,"geniusDiscountLabel":null,"badge":null}],"filters":{"countSelected":0,"items":[{"code":"promotion","name":"Promoții","countSelected":0,"values":[{"code":"special-bacanie-bauturi-mar23","name":"Prețuri speciale pentru Ziua Femeii","isSelected":false,"count":5},{"code":"superpreturile-saptamanii","name":"Superprețurile zilei","isSelected":false,"count":1}]},{"code":"brand","name":"Brand","countSelected":0,"values":[{"code":"acquesi-b3030","name":"Acquesi","isSelected":false,"count":1},{"code":"ador-b1110","name":"Ador","isSelected":false,"count":1},{"code":"alira-b2311","name":"Alira","isSelected":false,"count":1},{"code":"alira-flamma-b2312","name":"Alira Flamma","isSelected":false,"count":2},{"code":"amanti-b2509","name":"Amanti","isSelected":false,"count":1},{"code":"angelli-b1109","name":"Angelli","isSelected":false,"count":9},{"code":"bambino-b1115","name":"Bambino","isSelected":false,"count":1},{"code":"bisol-b2092","name":"Bisol","isSelected":false,"count":3},{"code":"blue-nun-b2881","name":"Blue Nun","isSelected":false,"count":4},{"code":"bollinger-b2972","name":"Bollinger","isSelected":false,"count":2},{"code":"bortolin-angelo-b3023","name":"Bortolin Angelo","isSelected":false,"count":2},{"code":"botter-b1211","name":"Botter","isSelected":false,"count":2},{"code":"budureasca-b1364","name":"Budureasca","isSelected":false,"count":2},{"code":"canard-duchene-b2342","name":"Canard Duchene","isSelected":false,"count":5},{"code":"canti-b1213","name":"Canti","isSelected":false,"count":2},{"code":"carastelec-b2100","name":"Carastelec","isSelected":false,"count":3},{"code":"carbon-b2975","name":"Carbon","isSelected":false,"count":3},{"code":"chateau-vartely-b2276","name":"Chateau Vartely","isSelected":false,"count":1},{"code":"cipriani-b3024","name":"Cipriani","isSelected":false,"count":5},{"code":"cocchi-b3034","name":"Cocchi","isSelected":false,"count":1},{"code":"contarini-b3031","name":"Contarini","isSelected":false,"count":1},{"code":"cotnari-colocviu-b2564","name":"Cotnari Colocviu","isSelected":false,"count":1},{"code":"cotnari-selectie-b2566","name":"Cotnari Selectie","isSelected":false,"count":2},{"code":"crama-bauer-b2406","name":"Crama Bauer","isSelected":false,"count":1},{"code":"crama-girboiu-b2065","name":"Crama Girboiu","isSelected":false,"count":2},{"code":"cricova-b1247","name":"Cricova","isSelected":false,"count":3},{"code":"cricova-crisecco-b2568","name":"Cricova Crisecco","isSelected":false,"count":1},{"code":"cricova-lacrima-dulce-b2569","name":"Cricova Lacrima Dulce","isSelected":false,"count":2},{"code":"cremant-du-jura-b3033","name":"Crémant Du Jura","isSelected":false,"count":1},{"code":"dom-perignon-b1436","name":"Dom Perignon","isSelected":false,"count":1},{"code":"domeniile-panciu-b2132","name":"Domeniile Panciu","isSelected":false,"count":5},{"code":"fantinel-b3056","name":"Fantinel","isSelected":false,"count":1},{"code":"freixenet-b1112","name":"Freixenet","isSelected":false,"count":3},{"code":"furst-b1114","name":"Furst","isSelected":false,"count":1},{"code":"garrone-b926","name":"Garrone","isSelected":false,"count":3},{"code":"gonzalez-byass-b1217","name":"González Byass","isSelected":false,"count":2},{"code":"henriot-b2977","name":"Henriot","isSelected":false,"count":1},{"code":"jidvei-b1427","name":"Jidvei","isSelected":false,"count":3},{"code":"jp-chenet-b1098","name":"JP. Chenet","isSelected":false,"count":2},{"code":"la-rovere-b1223","name":"La Rovere","isSelected":false,"count":1},{"code":"lanson-b2978","name":"Lanson","isSelected":false,"count":1},{"code":"laurent-perrier-b2181","name":"Laurent Perrier","isSelected":false,"count":1},{"code":"llpart-b3032","name":"Llpart","isSelected":false,"count":2},{"code":"luc-belaire-b2976","name":"Luc Belaire","isSelected":false,"count":1},{"code":"maeli-b2093","name":"Maeli","isSelected":false,"count":1},{"code":"marchesini-b1216","name":"Marchesini","isSelected":false,"count":3},{"code":"maschio-b1306","name":"Maschio","isSelected":false,"count":11},{"code":"mateus-b1099","name":"Mateus","isSelected":false,"count":1},{"code":"mionetto-b1111","name":"Mionetto","isSelected":false,"count":5},{"code":"moet-b1435","name":"Moët","isSelected":false,"count":3},{"code":"mumm-b1344","name":"Mumm","isSelected":false,"count":1},{"code":"nebun-by-catalin-bordea-b2931","name":"Nebun By Catalin Bordea","isSelected":false,"count":1},{"code":"nicolas-feuillatte-b2356","name":"Nicolas Feuillatte","isSelected":false,"count":1},{"code":"nino-franco-b2091","name":"Nino Franco","isSelected":false,"count":2},{"code":"panciu-riserva-b2131","name":"Panciu Riserva","isSelected":false,"count":3},{"code":"petro-vaselo-bendis-b2550","name":"Petro Vaselo Bendis","isSelected":false,"count":2},{"code":"petro-vaselo-kotys-b2551","name":"Petro Vaselo Kotys","isSelected":false,"count":2},{"code":"piper-heidsieck-b2357","name":"Piper-Heidsieck","isSelected":false,"count":1},{"code":"pol-roger-b2973","name":"Pol Roger","isSelected":false,"count":2},{"code":"private-selection-by-liliac-b2602","name":"Private Selection By Liliac","isSelected":false,"count":1},{"code":"recas-muse-b2542","name":"Recaș Muse","isSelected":false,"count":1},{"code":"riunite-b1305","name":"Riunite","isSelected":false,"count":3},{"code":"robby-bubble-b1396","name":"Robby Bubble","isSelected":false,"count":5},{"code":"rose-verite-b3070","name":"Rosé Verité","isSelected":false,"count":1},{"code":"ruinart-b1438","name":"Ruinart","isSelected":false,"count":3},{"code":"sacheto-mille-bolle-b3058","name":"Sacheto Mille Bolle","isSelected":false,"count":1},{"code":"sceptrus-b3069","name":"Sceptrus","isSelected":false,"count":1},{"code":"symbiose-b2421","name":"Symbiose","isSelected":false,"count":2},{"code":"taittinger-b2090","name":"Taittinger","isSelected":false,"count":3},{"code":"val-d-oca-valdobbiadene-b3081","name":"Val D'Oca Valdobbiadene","isSelected":false,"count":1},{"code":"veuve-clicquot-b2369","name":"Veuve Clicquot","isSelected":false,"count":2},{"code":"veuve-du-vernay-b2032","name":"Veuve Du Vernay","isSelected":false,"count":1},{"code":"villa-vinea-rose-celest-b2964","name":"Villa Vinea Rose Celest","isSelected":false,"count":1},{"code":"vitapress-b1439","name":"Vitapress","isSelected":false,"count":6},{"code":"voga-b2343","name":"Voga","isSelected":false,"count":3},{"code":"zarea-b1391","name":"Zarea","isSelected":false,"count":1},{"code":"zarea-100-b1383","name":"Zarea 100","isSelected":false,"count":2},{"code":"zarea-crystal-b1389","name":"Zarea Crystal","isSelected":false,"count":6},{"code":"zarea-diamond-b1384","name":"Zarea Diamond","isSelected":false,"count":2},{"code":"zarea-fruits-b1390","name":"Zarea Fruits","isSelected":false,"count":2},{"code":"zarea-gurmet-b1388","name":"Zarea Gurmet","isSelected":false,"count":2},{"code":"zarea-lambrusco-b1387","name":"Zarea Lambrusco","isSelected":false,"count":3},{"code":"zarea-prosecco-b1385","name":"Zarea Prosecco","isSelected":false,"count":3},{"code":"zarea-royal-b1386","name":"Zarea Royal","isSelected":false,"count":1}]},{"code":"diet_lifestyle","name":"Dietă și lifestyle","countSelected":0,"values":[{"code":"eco-a83","name":"Eco","isSelected":false,"count":3},{"code":"made-in-romania-a85","name":"Made In Romania","isSelected":false,"count":44},{"code":"vegan-a24","name":"Vegan","isSelected":false,"count":2}]}]},"orderBy":[{"field":"price","direction":"asc","name":"Preț crescător","isSelected":false},{"field":"price","direction":"desc","name":"Preț descrescător","isSelected":false},{"field":"popularity","direction":"desc","name":"Cele mai populare","isSelected":true},{"field":"category","direction":"asc","name":"Categorie","isSelected":false}],"metaTitle":"Șampanie și spumant - Gamă variată","metaDescription":"Vrei Șampanie și spumant? Alege dintr-o gamă variată. Comanzi simplu și ai livrare rapidă, calitate și prospețime. Hai pe Freshful.ro","metaKeywords":null,"banners":[{"name":"Prosecco Header","position":1,"type":"header","displayOnMobile":true,"image":{"jpg":"https://cdn.freshful.ro/media/image/73/7c/46d6b1a16a44a03010ed070ff21d.jpg","webp":"https://cdn.freshful.ro/media/image/38/14/63191a11403f2b797eb831607cbe.webp"},"imageResponsive":{"jpg":"https://cdn.freshful.ro/media/image/98/7c/67ca41b72a079c735d3ce45ffb4c.jpg","webp":"https://cdn.freshful.ro/media/image/b5/29/ef3755ec3d3d7556c91aff7b3867.webp"},"url":"/l/prosecco"},{"name":"Șampanie Listing","position":2,"type":"listing","displayOnMobile":true,"image":{"jpg":"https://cdn.freshful.ro/media/image/f0/b5/fd89b4bee0715a043077d55f6dc5.jpg","webp":"https://cdn.freshful.ro/media/image/03/cd/58dcd1bef4a91345ed9d2391f1c8.webp"},"imageResponsive":{"jpg":"https://cdn.freshful.ro/media/image/ee/99/26ce5b251603ed5d92ec557841f7.jpg","webp":"https://cdn.freshful.ro/media/image/73/56/f574da315aea8fcbdab15fd6836b.webp"},"url":"/l/listing-sampanie"}]}}