{"type":"subcategory","payload":{"analyticsListId":"category_70605-whisky","analyticsListName":"Category - Whisky","name":"Whisky","slug":"70605-whisky","image":null,"breadcrumbs":[{"code":"7","name":"Băuturi","slug":"7-bauturi-si-tutun"},{"code":"706","name":"Băuturi spirtoase","slug":"706-bauturi-spirtoase"},{"code":"70605","name":"Whisky","slug":"70605-whisky"}],"slots":[],"page":1,"limit":10,"pages":9,"count":86,"siblings":[{"name":"Băuturi necarbogazoase și siropuri","slug":"701-bauturi-necarbogazoase-si-siropuri","selected":false},{"name":"Apă","slug":"702-apa","selected":false},{"name":"Băuturi carbogazoase","slug":"703-bauturi-carbogazoase","selected":false},{"name":"Bere","slug":"704-bere","selected":false},{"name":"Vinuri","slug":"705-vinuri","selected":false},{"name":"Băuturi spirtoase","slug":"706-bauturi-spirtoase","selected":true},{"name":"Tutun","slug":"707-tutun","selected":false}],"children":[{"name":"Toate produsele","slug":"706-bauturi-spirtoase","selected":false},{"name":"Aperitive","slug":"70601-aperitive","selected":false},{"name":"Lichior","slug":"70602-lichior","selected":false},{"name":"Palincă, țuică și băuturi tradiționale","slug":"70603-palinca-tuica-si-alte-bauturi-traditionale","selected":false},{"name":"Cocktail și premix","slug":"70604-cocktail-si-premix","selected":false},{"name":"Whisky","slug":"70605-whisky","selected":true},{"name":"Vodka","slug":"70606-vodka","selected":false},{"name":"Rom","slug":"70607-rom","selected":false},{"name":"Tequila","slug":"70608-tequilla","selected":false},{"name":"Gin","slug":"70609-gin","selected":false},{"name":"Coniac și brandy","slug":"70610-coniac-si-brandy","selected":false}],"products":[{"code":"100080354","variantCode":"100080354","name":"Bourbon Whiskey, 40%, USA, 0.7l","slug":"100080354-jim-beam-white-label-bourbon-whiskey-40-usa-0-7l","unitPriceLabel":"92,71 Lei/l","brand":"Jim Beam White Label","brandCode":"3136","brandFilterCode":"jim-beam-white-label-b3226","sku":"100080354","price":64.9,"originalPrice":null,"currencyCode":"RON","currency":"Lei","image":{"thumbnail":{"default":"https://cdn.freshful.ro/media/cache/sylius_shop_product_thumbnail/97/b6/1fa4e1a0405b75b6157b370b8c09.jpg"},"large":{"default":"https://cdn.freshful.ro/media/cache/freshful_large/97/b6/1fa4e1a0405b75b6157b370b8c09.jpg"},"extralarge":{"default":"https://cdn.freshful.ro/media/cache/sylius_shop_product_original/97/b6/1fa4e1a0405b75b6157b370b8c09.jpg"}},"label":{"text":"-20% cu Genius","backgroundColor":"#FEF3FA","textColor":"#CD015F"},"tags":[],"isAvailable":true,"maxAvailableQuantity":2,"maxAllowedQuantity":2,"breadcrumbs":[{"code":"7","name":"Băuturi","slug":"7-bauturi-si-tutun"},{"code":"706","name":"Băuturi spirtoase","slug":"706-bauturi-spirtoase"},{"code":"70605","name":"Whisky","slug":"70605-whisky"},{"code":"100080354","name":"Bourbon Whiskey, 40%, USA, 0.7l","slug":"100080354-jim-beam-white-label-bourbon-whiskey-40-usa-0-7l"}],"activePromotion":null,"saveMe":null,"labels":[{"type":"gdeals","items":[{"text":"","backgroundColor":"","textColor":""}]},{"type":"v3","items":[{"text":"-20% cu Genius","backgroundColor":"#FEF3FA","textColor":"#CD015F"}]}],"geniusPrice":51.92,"geniusUnitPricePerLabel":"74,17 Lei/l","banner":null,"discountLabel":null,"geniusDiscountLabel":"Economisești 20%","badge":null},{"code":"100074690","variantCode":"100074690","name":"Blended Whisky, 40%, Scotland, 0.7l","slug":"100074690-j-b-rare-blended-whisky-40-scotland-0-7l","unitPriceLabel":"74,63 Lei/l","brand":"J&B Rare","brandCode":"1268","brandFilterCode":"j-b-rare-b1282","sku":"100074690","price":52.24,"originalPrice":null,"currencyCode":"RON","currency":"Lei","image":{"thumbnail":{"default":"https://cdn.freshful.ro/media/cache/sylius_shop_product_thumbnail/2a/fc/3892fed7aaa5b657b1edcfb48be6.jpg"},"large":{"default":"https://cdn.freshful.ro/media/cache/freshful_large/2a/fc/3892fed7aaa5b657b1edcfb48be6.jpg"},"extralarge":{"default":"https://cdn.freshful.ro/media/cache/sylius_shop_product_original/2a/fc/3892fed7aaa5b657b1edcfb48be6.jpg"}},"label":null,"tags":[],"isAvailable":true,"maxAvailableQuantity":2,"maxAllowedQuantity":2,"breadcrumbs":[{"code":"7","name":"Băuturi","slug":"7-bauturi-si-tutun"},{"code":"706","name":"Băuturi spirtoase","slug":"706-bauturi-spirtoase"},{"code":"70605","name":"Whisky","slug":"70605-whisky"},{"code":"100074690","name":"Blended Whisky, 40%, Scotland, 0.7l","slug":"100074690-j-b-rare-blended-whisky-40-scotland-0-7l"}],"activePromotion":null,"saveMe":null,"labels":[],"geniusPrice":null,"geniusUnitPricePerLabel":null,"banner":null,"discountLabel":null,"geniusDiscountLabel":null,"badge":null},{"code":"100072158","variantCode":"100072158","name":"Blended Whiskey, 40%, Ireland, 1l","slug":"100072158-jameson-blended-whiskey-40-ireland-1l","unitPriceLabel":"94,99 Lei/l","brand":"Jameson","brandCode":"1325","brandFilterCode":"jameson-b1338","sku":"100072158","price":94.99,"originalPrice":null,"currencyCode":"RON","currency":"Lei","image":{"thumbnail":{"default":"https://cdn.freshful.ro/media/cache/sylius_shop_product_thumbnail/1b/3e/58af3f67e150ae11f2e1df017501.jpg"},"large":{"default":"https://cdn.freshful.ro/media/cache/freshful_large/1b/3e/58af3f67e150ae11f2e1df017501.jpg"},"extralarge":{"default":"https://cdn.freshful.ro/media/cache/sylius_shop_product_original/1b/3e/58af3f67e150ae11f2e1df017501.jpg"}},"label":null,"tags":[],"isAvailable":true,"maxAvailableQuantity":100,"maxAllowedQuantity":100,"breadcrumbs":[{"code":"7","name":"Băuturi","slug":"7-bauturi-si-tutun"},{"code":"706","name":"Băuturi spirtoase","slug":"706-bauturi-spirtoase"},{"code":"70605","name":"Whisky","slug":"70605-whisky"},{"code":"100072158","name":"Blended Whiskey, 40%, Ireland, 1l","slug":"100072158-jameson-blended-whiskey-40-ireland-1l"}],"activePromotion":null,"saveMe":null,"labels":[],"geniusPrice":null,"geniusUnitPricePerLabel":null,"banner":null,"discountLabel":null,"geniusDiscountLabel":null,"badge":null},{"code":"100072129","variantCode":"100072129","name":"Blended Whisky, 40%, Scotland, 0.7l","slug":"100072129-ballantine-s-blended-whisky-40-scotland-0-7l","unitPriceLabel":"82,71 Lei/l","brand":"Ballantine'S Finest","brandCode":"3154","brandFilterCode":"ballantine-s-finest-b3248","sku":"100072129","price":57.9,"originalPrice":null,"currencyCode":"RON","currency":"Lei","image":{"thumbnail":{"default":"https://cdn.freshful.ro/media/cache/sylius_shop_product_thumbnail/09/f9/bf5caf9f2ef7b9090a1fab6a389b.jpg"},"large":{"default":"https://cdn.freshful.ro/media/cache/freshful_large/09/f9/bf5caf9f2ef7b9090a1fab6a389b.jpg"},"extralarge":{"default":"https://cdn.freshful.ro/media/cache/sylius_shop_product_original/09/f9/bf5caf9f2ef7b9090a1fab6a389b.jpg"}},"label":null,"tags":[],"isAvailable":true,"maxAvailableQuantity":80,"maxAllowedQuantity":100,"breadcrumbs":[{"code":"7","name":"Băuturi","slug":"7-bauturi-si-tutun"},{"code":"706","name":"Băuturi spirtoase","slug":"706-bauturi-spirtoase"},{"code":"70605","name":"Whisky","slug":"70605-whisky"},{"code":"100072129","name":"Blended Whisky, 40%, Scotland, 0.7l","slug":"100072129-ballantine-s-blended-whisky-40-scotland-0-7l"}],"activePromotion":null,"saveMe":null,"labels":[],"geniusPrice":null,"geniusUnitPricePerLabel":null,"banner":null,"discountLabel":null,"geniusDiscountLabel":null,"badge":null},{"code":"100121202","variantCode":"100121202","name":"Tennessee Whiskey, 40%, USA, 1l","slug":"100121202-jack-daniel-s-tennessee-whiskey-40-usa-1l","unitPriceLabel":"120,64 Lei/l","brand":"Jack Daniel's","brandCode":"2120","brandFilterCode":"jack-daniel-s-b2124","sku":"100121202","price":120.64,"originalPrice":null,"currencyCode":"RON","currency":"Lei","image":{"thumbnail":{"default":"https://cdn.freshful.ro/media/cache/sylius_shop_product_thumbnail/77/3b/582fc330d2f9dec0a3d47c03c58b.jpg"},"large":{"default":"https://cdn.freshful.ro/media/cache/freshful_large/77/3b/582fc330d2f9dec0a3d47c03c58b.jpg"},"extralarge":{"default":"https://cdn.freshful.ro/media/cache/sylius_shop_product_original/77/3b/582fc330d2f9dec0a3d47c03c58b.jpg"}},"label":null,"tags":[],"isAvailable":true,"maxAvailableQuantity":2,"maxAllowedQuantity":2,"breadcrumbs":[{"code":"7","name":"Băuturi","slug":"7-bauturi-si-tutun"},{"code":"706","name":"Băuturi spirtoase","slug":"706-bauturi-spirtoase"},{"code":"70605","name":"Whisky","slug":"70605-whisky"},{"code":"100121202","name":"Tennessee Whiskey, 40%, USA, 1l","slug":"100121202-jack-daniel-s-tennessee-whiskey-40-usa-1l"}],"activePromotion":null,"saveMe":null,"labels":[],"geniusPrice":null,"geniusUnitPricePerLabel":null,"banner":null,"discountLabel":null,"geniusDiscountLabel":null,"badge":null},{"code":"100122132","variantCode":"100122132","name":"Tennessee Whiskey, 40%, USA, 0.7l","slug":"100122132-jack-daniel-s-tennessee-whiskey-40-usa-0-7l","unitPriceLabel":"108,83 Lei/l","brand":"Jack Daniel's","brandCode":"2120","brandFilterCode":"jack-daniel-s-b2124","sku":"100122132","price":76.18,"originalPrice":null,"currencyCode":"RON","currency":"Lei","image":{"thumbnail":{"default":"https://cdn.freshful.ro/media/cache/sylius_shop_product_thumbnail/05/27/e9506baab479cc5ffa94f11bfa20.jpg"},"large":{"default":"https://cdn.freshful.ro/media/cache/freshful_large/05/27/e9506baab479cc5ffa94f11bfa20.jpg"},"extralarge":{"default":"https://cdn.freshful.ro/media/cache/sylius_shop_product_original/05/27/e9506baab479cc5ffa94f11bfa20.jpg"}},"label":null,"tags":[],"isAvailable":true,"maxAvailableQuantity":2,"maxAllowedQuantity":2,"breadcrumbs":[{"code":"7","name":"Băuturi","slug":"7-bauturi-si-tutun"},{"code":"706","name":"Băuturi spirtoase","slug":"706-bauturi-spirtoase"},{"code":"70605","name":"Whisky","slug":"70605-whisky"},{"code":"100122132","name":"Tennessee Whiskey, 40%, USA, 0.7l","slug":"100122132-jack-daniel-s-tennessee-whiskey-40-usa-0-7l"}],"activePromotion":null,"saveMe":null,"labels":[],"geniusPrice":null,"geniusUnitPricePerLabel":null,"banner":null,"discountLabel":null,"geniusDiscountLabel":null,"badge":null},{"code":"100072127","variantCode":"100072127","name":"Blended Whisky, 40%, Scotland, 0.7l","slug":"100072127-ballantine-s-blended-whisky-40-scotland-0-7l","unitPriceLabel":"74,63 Lei/l","brand":"Ballantine'S Finest","brandCode":"3154","brandFilterCode":"ballantine-s-finest-b3248","sku":"100072127","price":52.24,"originalPrice":null,"currencyCode":"RON","currency":"Lei","image":{"thumbnail":{"default":"https://cdn.freshful.ro/media/cache/sylius_shop_product_thumbnail/f3/09/d3f35e6a8cf2c5cd2ec1a528741e.jpg"},"large":{"default":"https://cdn.freshful.ro/media/cache/freshful_large/f3/09/d3f35e6a8cf2c5cd2ec1a528741e.jpg"},"extralarge":{"default":"https://cdn.freshful.ro/media/cache/sylius_shop_product_original/f3/09/d3f35e6a8cf2c5cd2ec1a528741e.jpg"}},"label":null,"tags":[],"isAvailable":true,"maxAvailableQuantity":43,"maxAllowedQuantity":100,"breadcrumbs":[{"code":"7","name":"Băuturi","slug":"7-bauturi-si-tutun"},{"code":"706","name":"Băuturi spirtoase","slug":"706-bauturi-spirtoase"},{"code":"70605","name":"Whisky","slug":"70605-whisky"},{"code":"100072127","name":"Blended Whisky, 40%, Scotland, 0.7l","slug":"100072127-ballantine-s-blended-whisky-40-scotland-0-7l"}],"activePromotion":null,"saveMe":null,"labels":[],"geniusPrice":null,"geniusUnitPricePerLabel":null,"banner":null,"discountLabel":null,"geniusDiscountLabel":null,"badge":null},{"code":"100072115","variantCode":"100072115","name":"Single Malt Whisky, 12 Yo, 40%, Scotland, 0.7l","slug":"100072115-aberlour-single-malt-whisky-12-yo-40-scotland-0-7l","unitPriceLabel":"223,91 Lei/l","brand":"Aberlour","brandCode":"1315","brandFilterCode":"aberlour-b1328","sku":"100072115","price":156.74,"originalPrice":null,"currencyCode":"RON","currency":"Lei","image":{"thumbnail":{"default":"https://cdn.freshful.ro/media/cache/sylius_shop_product_thumbnail/e3/ee/8ac4a1794a389de3ac3bc905d485.jpg"},"large":{"default":"https://cdn.freshful.ro/media/cache/freshful_large/e3/ee/8ac4a1794a389de3ac3bc905d485.jpg"},"extralarge":{"default":"https://cdn.freshful.ro/media/cache/sylius_shop_product_original/e3/ee/8ac4a1794a389de3ac3bc905d485.jpg"}},"label":null,"tags":[],"isAvailable":true,"maxAvailableQuantity":10,"maxAllowedQuantity":100,"breadcrumbs":[{"code":"7","name":"Băuturi","slug":"7-bauturi-si-tutun"},{"code":"706","name":"Băuturi spirtoase","slug":"706-bauturi-spirtoase"},{"code":"70605","name":"Whisky","slug":"70605-whisky"},{"code":"100072115","name":"Single Malt Whisky, 12 Yo, 40%, Scotland, 0.7l","slug":"100072115-aberlour-single-malt-whisky-12-yo-40-scotland-0-7l"}],"activePromotion":null,"saveMe":null,"labels":[],"geniusPrice":null,"geniusUnitPricePerLabel":null,"banner":null,"discountLabel":null,"geniusDiscountLabel":null,"badge":null},{"code":"100072179","variantCode":"100072179","name":"Single Pot Still Whiskey, 12 Yo, 40%, Ireland, 0.7l","slug":"100072179-red-breast-single-pot-still-whiskey-12-yo-40-ireland-0-7l","unitPriceLabel":"217,13 Lei/l","brand":"Red Breast","brandCode":"1337","brandFilterCode":"red-breast-b1350","sku":"100072179","price":151.99,"originalPrice":null,"currencyCode":"RON","currency":"Lei","image":{"thumbnail":{"default":"https://cdn.freshful.ro/media/cache/sylius_shop_product_thumbnail/f7/15/3b49e0f158c201d5cc2fd291f554.jpg"},"large":{"default":"https://cdn.freshful.ro/media/cache/freshful_large/f7/15/3b49e0f158c201d5cc2fd291f554.jpg"},"extralarge":{"default":"https://cdn.freshful.ro/media/cache/sylius_shop_product_original/f7/15/3b49e0f158c201d5cc2fd291f554.jpg"}},"label":null,"tags":[],"isAvailable":true,"maxAvailableQuantity":7,"maxAllowedQuantity":100,"breadcrumbs":[{"code":"7","name":"Băuturi","slug":"7-bauturi-si-tutun"},{"code":"706","name":"Băuturi spirtoase","slug":"706-bauturi-spirtoase"},{"code":"70605","name":"Whisky","slug":"70605-whisky"},{"code":"100072179","name":"Single Pot Still Whiskey, 12 Yo, 40%, Ireland, 0.7l","slug":"100072179-red-breast-single-pot-still-whiskey-12-yo-40-ireland-0-7l"}],"activePromotion":null,"saveMe":null,"labels":[],"geniusPrice":null,"geniusUnitPricePerLabel":null,"banner":null,"discountLabel":null,"geniusDiscountLabel":null,"badge":null},{"code":"100072156","variantCode":"100072156","name":"Blended Whiskey, 40%, Ireland, 0.7l","slug":"100072156-jameson-blended-whiskey-40-ireland-0-7l","unitPriceLabel":"103,13 Lei/l","brand":"Jameson","brandCode":"1325","brandFilterCode":"jameson-b1338","sku":"100072156","price":72.19,"originalPrice":null,"currencyCode":"RON","currency":"Lei","image":{"thumbnail":{"default":"https://cdn.freshful.ro/media/cache/sylius_shop_product_thumbnail/fd/68/a8c6a9463a3d569d22d0c105cc7b.jpg"},"large":{"default":"https://cdn.freshful.ro/media/cache/freshful_large/fd/68/a8c6a9463a3d569d22d0c105cc7b.jpg"},"extralarge":{"default":"https://cdn.freshful.ro/media/cache/sylius_shop_product_original/fd/68/a8c6a9463a3d569d22d0c105cc7b.jpg"}},"label":null,"tags":[],"isAvailable":true,"maxAvailableQuantity":34,"maxAllowedQuantity":100,"breadcrumbs":[{"code":"7","name":"Băuturi","slug":"7-bauturi-si-tutun"},{"code":"706","name":"Băuturi spirtoase","slug":"706-bauturi-spirtoase"},{"code":"70605","name":"Whisky","slug":"70605-whisky"},{"code":"100072156","name":"Blended Whiskey, 40%, Ireland, 0.7l","slug":"100072156-jameson-blended-whiskey-40-ireland-0-7l"}],"activePromotion":null,"saveMe":null,"labels":[],"geniusPrice":null,"geniusUnitPricePerLabel":null,"banner":null,"discountLabel":null,"geniusDiscountLabel":null,"badge":null}],"filters":{"countSelected":0,"items":[{"code":"promotion","name":"Promoții","countSelected":0,"values":[]},{"code":"brand","name":"Brand","countSelected":0,"values":[{"code":"aberlour-b1328","name":"Aberlour","isSelected":false,"count":1},{"code":"akashi-b1225","name":"Akashi","isSelected":false,"count":1},{"code":"auchentoshan-b1320","name":"Auchentoshan","isSelected":false,"count":2},{"code":"ballantine-s-b1330","name":"Ballantine's","isSelected":false,"count":3},{"code":"ballantine-s-by-shawna-x-b3244","name":"Ballantine'S By Shawna X","isSelected":false,"count":1},{"code":"ballantine-s-finest-b3248","name":"Ballantine'S Finest","isSelected":false,"count":4},{"code":"big-peat-b3010","name":"Big Peat","isSelected":false,"count":1},{"code":"bulleit-b1294","name":"Bulleit","isSelected":false,"count":1},{"code":"bushmills-b1295","name":"Bushmills","isSelected":false,"count":1},{"code":"cardhu-b1297","name":"Cardhu","isSelected":false,"count":1},{"code":"chivas-regal-b1334","name":"Chivas Regal","isSelected":false,"count":3},{"code":"chivas-regal-xv-b3218","name":"Chivas Regal XV","isSelected":false,"count":1},{"code":"cutty-sark-prohibition-b3239","name":"Cutty Sark Prohibition","isSelected":false,"count":1},{"code":"dewar-s-b2365","name":"Dewar's","isSelected":false,"count":1},{"code":"glen-moray-classic-b3220","name":"Glen Moray Classic","isSelected":false,"count":1},{"code":"glen-moray-heritage-b3219","name":"Glen Moray Heritage","isSelected":false,"count":2},{"code":"glen-parker-b1227","name":"Glen Parker","isSelected":false,"count":1},{"code":"glenfiddich-b2172","name":"Glenfiddich","isSelected":false,"count":1},{"code":"glenmorangie-quinta-ruban-b3223","name":"Glenmorangie Quinta Ruban","isSelected":false,"count":1},{"code":"grant-s-b2119","name":"Grant's","isSelected":false,"count":2},{"code":"highland-park-viking-scars-b3224","name":"Highland Park Viking Scars","isSelected":false,"count":1},{"code":"isle-of-jura-b2366","name":"Isle of Jura","isSelected":false,"count":1},{"code":"j-b-rare-b1282","name":"J&B Rare","isSelected":false,"count":3},{"code":"jack-daniel-s-b2124","name":"Jack Daniel's","isSelected":false,"count":4},{"code":"jameson-b1338","name":"Jameson","isSelected":false,"count":2},{"code":"jameson-caskmates-b3225","name":"Jameson Caskmates","isSelected":false,"count":1},{"code":"jim-beam-black-label-b3227","name":"Jim Beam Black Label","isSelected":false,"count":2},{"code":"jim-beam-devil-s-cut-b3243","name":"Jim Beam Devil' S Cut","isSelected":false,"count":1},{"code":"jim-beam-double-oak-b3228","name":"Jim Beam Double Oak","isSelected":false,"count":1},{"code":"jim-beam-honey-b3230","name":"Jim Beam Honey","isSelected":false,"count":1},{"code":"jim-beam-red-stag-b3229","name":"Jim Beam Red Stag","isSelected":false,"count":1},{"code":"jim-beam-white-label-b3226","name":"Jim Beam White Label","isSelected":false,"count":4},{"code":"johnnie-walker-b1300","name":"Johnnie Walker","isSelected":false,"count":6},{"code":"johnnie-walker-black-label-b3247","name":"Johnnie Walker Black Label","isSelected":false,"count":1},{"code":"kavalan-b2367","name":"Kavalan","isSelected":false,"count":1},{"code":"label-5-classic-black-b3241","name":"Label 5 Classic Black","isSelected":false,"count":1},{"code":"label-5-premium-reserve-b3231","name":"Label 5 Premium Reserve","isSelected":false,"count":1},{"code":"loch-lomond-b1415","name":"Loch Lomond","isSelected":false,"count":4},{"code":"loch-lomond-reserve-b3232","name":"Loch Lomond Reserve","isSelected":false,"count":1},{"code":"loch-lomond-signature-b3233","name":"Loch Lomond Signature","isSelected":false,"count":1},{"code":"mars-kasei-b2182","name":"Mars Kasei","isSelected":false,"count":1},{"code":"monkey-shoulder-b2121","name":"Monkey shoulder","isSelected":false,"count":1},{"code":"nikka-super-b3235","name":"Nikka Super","isSelected":false,"count":1},{"code":"nomad-b1226","name":"Nomad","isSelected":false,"count":1},{"code":"red-breast-b1350","name":"Red Breast","isSelected":false,"count":1},{"code":"robert-burns-b2425","name":"Robert Burns","isSelected":false,"count":1},{"code":"teachers-b1327","name":"Teachers","isSelected":false,"count":2},{"code":"teeling-small-batch-b3236","name":"Teeling Small Batch","isSelected":false,"count":3},{"code":"the-famous-grouse-b288","name":"The Famous Grouse","isSelected":false,"count":2},{"code":"the-glenlivet-founer-s-reserve-b3245","name":"The Glenlivet Founer'S Reserve","isSelected":false,"count":1},{"code":"togouchi-b1224","name":"Togouchi","isSelected":false,"count":1},{"code":"tullamore-dew-b3237","name":"Tullamore Dew","isSelected":false,"count":1},{"code":"wild-turkey-b290","name":"Wild Turkey","isSelected":false,"count":2}]}]},"orderBy":[{"field":"price","direction":"asc","name":"Preț crescător","isSelected":false},{"field":"price","direction":"desc","name":"Preț descrescător","isSelected":false},{"field":"popularity","direction":"desc","name":"Cele mai populare","isSelected":true},{"field":"category","direction":"asc","name":"Categorie","isSelected":false}],"metaTitle":"Whisky - Gamă variată","metaDescription":"Vrei Whisky? Alege dintr-o gamă variată. Comanzi simplu și ai livrare rapidă, calitate și prospețime. Hai pe Freshful.ro","metaKeywords":null,"banners":[{"name":"Whisky Single Malt Header Content","position":1,"type":"header","displayOnMobile":true,"image":{"jpg":"https://cdn.freshful.ro/media/image/94/73/fd8886b3b01d43840026536e79eb.jpg","webp":"https://cdn.freshful.ro/media/image/82/af/0970f2eebb1d2d7205c561cf360c.webp"},"imageResponsive":{"jpg":"https://cdn.freshful.ro/media/image/73/ed/26e31a399dc44bd64915f743a844.jpg","webp":"https://cdn.freshful.ro/media/image/af/e3/81453b2c6f30da4351c6f7aff27e.webp"},"url":"/l/listing-whisky-single-malt"},{"name":"Whisky Bourbon Listing Content","position":3,"type":"listing","displayOnMobile":true,"image":{"jpg":"https://cdn.freshful.ro/media/image/3e/4b/817851b784a5bd0186005df88b5f.jpg","webp":"https://cdn.freshful.ro/media/image/64/f2/933d22778f4950a7c730fc88f937.webp"},"imageResponsive":{"jpg":"https://cdn.freshful.ro/media/image/42/de/0c9fdece45324c6608a735a32009.jpg","webp":"https://cdn.freshful.ro/media/image/9a/9d/91b6ce3f14759cf1f919d0c9f4a9.webp"},"url":"/l/listing-whisky-bourbon"}]}}