{"type":"subcategory","payload":{"analyticsListId":"category_70606-vodka","analyticsListName":"Category - Vodka","name":"Vodka","slug":"70606-vodka","image":null,"breadcrumbs":[{"code":"7","name":"Băuturi","slug":"7-bauturi-si-tutun"},{"code":"706","name":"Băuturi spirtoase","slug":"706-bauturi-spirtoase"},{"code":"70606","name":"Vodka","slug":"70606-vodka"}],"slots":[],"page":1,"limit":10,"pages":4,"count":39,"siblings":[{"name":"Băuturi necarbogazoase și siropuri","slug":"701-bauturi-necarbogazoase-si-siropuri","selected":false},{"name":"Apă","slug":"702-apa","selected":false},{"name":"Băuturi carbogazoase","slug":"703-bauturi-carbogazoase","selected":false},{"name":"Bere","slug":"704-bere","selected":false},{"name":"Vinuri","slug":"705-vinuri","selected":false},{"name":"Băuturi spirtoase","slug":"706-bauturi-spirtoase","selected":true},{"name":"Tutun","slug":"707-tutun","selected":false}],"children":[{"name":"Toate produsele","slug":"706-bauturi-spirtoase","selected":false},{"name":"Aperitive","slug":"70601-aperitive","selected":false},{"name":"Lichior","slug":"70602-lichior","selected":false},{"name":"Palincă, țuică și băuturi tradiționale","slug":"70603-palinca-tuica-si-alte-bauturi-traditionale","selected":false},{"name":"Cocktail și premix","slug":"70604-cocktail-si-premix","selected":false},{"name":"Whisky","slug":"70605-whisky","selected":false},{"name":"Vodka","slug":"70606-vodka","selected":true},{"name":"Rom","slug":"70607-rom","selected":false},{"name":"Tequila","slug":"70608-tequilla","selected":false},{"name":"Gin","slug":"70609-gin","selected":false},{"name":"Coniac și brandy","slug":"70610-coniac-si-brandy","selected":false}],"products":[{"code":"100072117","variantCode":"100072117","name":"Vodcă 40% alc. 0.7l","slug":"100072117-absolut-vodca-40-alc-0-7l","unitPriceLabel":"71,91 Lei/l","brand":"Absolut","brandCode":"1316","brandFilterCode":"absolut-b1329","sku":"100072117","price":50.34,"originalPrice":null,"currencyCode":"RON","currency":"Lei","image":{"thumbnail":{"default":"https://cdn.freshful.ro/media/cache/sylius_shop_product_thumbnail/aa/b8/69cd265141af5f38b626dc52d0d5.jpg"},"large":{"default":"https://cdn.freshful.ro/media/cache/freshful_large/aa/b8/69cd265141af5f38b626dc52d0d5.jpg"},"extralarge":{"default":"https://cdn.freshful.ro/media/cache/sylius_shop_product_original/aa/b8/69cd265141af5f38b626dc52d0d5.jpg"}},"label":null,"tags":[],"isAvailable":true,"maxAvailableQuantity":17,"maxAllowedQuantity":100,"breadcrumbs":[{"code":"7","name":"Băuturi","slug":"7-bauturi-si-tutun"},{"code":"706","name":"Băuturi spirtoase","slug":"706-bauturi-spirtoase"},{"code":"70606","name":"Vodka","slug":"70606-vodka"},{"code":"100072117","name":"Vodcă 40% alc. 0.7l","slug":"100072117-absolut-vodca-40-alc-0-7l"}],"activePromotion":null,"saveMe":null,"labels":[],"geniusPrice":null,"geniusUnitPricePerLabel":null,"banner":null,"discountLabel":null,"geniusDiscountLabel":null,"badge":null},{"code":"100072118","variantCode":"100072118","name":"Vodcă 40% alc. 1l","slug":"100072118-absolut-vodca-40-alc-1l","unitPriceLabel":"71,24 Lei/l","brand":"Absolut","brandCode":"1316","brandFilterCode":"absolut-b1329","sku":"100072118","price":71.24,"originalPrice":null,"currencyCode":"RON","currency":"Lei","image":{"thumbnail":{"default":"https://cdn.freshful.ro/media/cache/sylius_shop_product_thumbnail/21/36/09abe79d3da0f06e1b4b3f8ecee0.jpg"},"large":{"default":"https://cdn.freshful.ro/media/cache/freshful_large/21/36/09abe79d3da0f06e1b4b3f8ecee0.jpg"},"extralarge":{"default":"https://cdn.freshful.ro/media/cache/sylius_shop_product_original/21/36/09abe79d3da0f06e1b4b3f8ecee0.jpg"}},"label":null,"tags":[],"isAvailable":true,"maxAvailableQuantity":37,"maxAllowedQuantity":100,"breadcrumbs":[{"code":"7","name":"Băuturi","slug":"7-bauturi-si-tutun"},{"code":"706","name":"Băuturi spirtoase","slug":"706-bauturi-spirtoase"},{"code":"70606","name":"Vodka","slug":"70606-vodka"},{"code":"100072118","name":"Vodcă 40% alc. 1l","slug":"100072118-absolut-vodca-40-alc-1l"}],"activePromotion":null,"saveMe":null,"labels":[],"geniusPrice":null,"geniusUnitPricePerLabel":null,"banner":null,"discountLabel":null,"geniusDiscountLabel":null,"badge":null},{"code":"100080748","variantCode":"100080748","name":"Vodcă Original 40% alc. 1l","slug":"100080748-stalinskaya-vodca-original-40-alc-1l","unitPriceLabel":"54,9 Lei/l","brand":"Stalinskaya","brandCode":"1398","brandFilterCode":"stalinskaya-b1402","sku":"100080748","price":54.9,"originalPrice":null,"currencyCode":"RON","currency":"Lei","image":{"thumbnail":{"default":"https://cdn.freshful.ro/media/cache/sylius_shop_product_thumbnail/7e/0b/c673c9a62dab3ce0efdd1748b9cc.jpg"},"large":{"default":"https://cdn.freshful.ro/media/cache/freshful_large/7e/0b/c673c9a62dab3ce0efdd1748b9cc.jpg"},"extralarge":{"default":"https://cdn.freshful.ro/media/cache/sylius_shop_product_original/7e/0b/c673c9a62dab3ce0efdd1748b9cc.jpg"}},"label":null,"tags":[],"isAvailable":true,"maxAvailableQuantity":39,"maxAllowedQuantity":100,"breadcrumbs":[{"code":"7","name":"Băuturi","slug":"7-bauturi-si-tutun"},{"code":"706","name":"Băuturi spirtoase","slug":"706-bauturi-spirtoase"},{"code":"70606","name":"Vodka","slug":"70606-vodka"},{"code":"100080748","name":"Vodcă Original 40% alc. 1l","slug":"100080748-stalinskaya-vodca-original-40-alc-1l"}],"activePromotion":null,"saveMe":null,"labels":[],"geniusPrice":null,"geniusUnitPricePerLabel":null,"banner":null,"discountLabel":null,"geniusDiscountLabel":null,"badge":null},{"code":"100148196","variantCode":"100148196","name":"Vodcă 37.5% alc. 0.7l + 2 pahare","slug":"100148196-wyborowa-vodca-37-5-alc-0-7l-2-pahare","unitPriceLabel":"69,29 Lei/l","brand":"Wyborowa","brandCode":"1341","brandFilterCode":"wyborowa-b1354","sku":"100148196","price":48.5,"originalPrice":null,"currencyCode":"RON","currency":"Lei","image":{"thumbnail":{"default":"https://cdn.freshful.ro/media/cache/sylius_shop_product_thumbnail/de/a7/ed20fe2306b68e53b202a217ede3.jpg"},"large":{"default":"https://cdn.freshful.ro/media/cache/freshful_large/de/a7/ed20fe2306b68e53b202a217ede3.jpg"},"extralarge":{"default":"https://cdn.freshful.ro/media/cache/sylius_shop_product_original/de/a7/ed20fe2306b68e53b202a217ede3.jpg"}},"label":null,"tags":[],"isAvailable":true,"maxAvailableQuantity":10,"maxAllowedQuantity":100,"breadcrumbs":[{"code":"7","name":"Băuturi","slug":"7-bauturi-si-tutun"},{"code":"706","name":"Băuturi spirtoase","slug":"706-bauturi-spirtoase"},{"code":"70606","name":"Vodka","slug":"70606-vodka"},{"code":"100148196","name":"Vodcă 37.5% alc. 0.7l + 2 pahare","slug":"100148196-wyborowa-vodca-37-5-alc-0-7l-2-pahare"}],"activePromotion":null,"saveMe":null,"labels":[],"geniusPrice":null,"geniusUnitPricePerLabel":null,"banner":null,"discountLabel":null,"geniusDiscountLabel":null,"badge":null},{"code":"100072186","variantCode":"100072186","name":"Vodcă 37.5% alc. 1l","slug":"100072186-wyborowa-vodca-37-5-alc-1l","unitPriceLabel":"57,5 Lei/l","brand":"Wyborowa","brandCode":"1341","brandFilterCode":"wyborowa-b1354","sku":"100072186","price":57.5,"originalPrice":null,"currencyCode":"RON","currency":"Lei","image":{"thumbnail":{"default":"https://cdn.freshful.ro/media/cache/sylius_shop_product_thumbnail/5d/61/96c4b2198cc661c536e6bd1b110d.jpg"},"large":{"default":"https://cdn.freshful.ro/media/cache/freshful_large/5d/61/96c4b2198cc661c536e6bd1b110d.jpg"},"extralarge":{"default":"https://cdn.freshful.ro/media/cache/sylius_shop_product_original/5d/61/96c4b2198cc661c536e6bd1b110d.jpg"}},"label":null,"tags":[],"isAvailable":true,"maxAvailableQuantity":20,"maxAllowedQuantity":100,"breadcrumbs":[{"code":"7","name":"Băuturi","slug":"7-bauturi-si-tutun"},{"code":"706","name":"Băuturi spirtoase","slug":"706-bauturi-spirtoase"},{"code":"70606","name":"Vodka","slug":"70606-vodka"},{"code":"100072186","name":"Vodcă 37.5% alc. 1l","slug":"100072186-wyborowa-vodca-37-5-alc-1l"}],"activePromotion":null,"saveMe":null,"labels":[],"geniusPrice":null,"geniusUnitPricePerLabel":null,"banner":null,"discountLabel":null,"geniusDiscountLabel":null,"badge":null},{"code":"100072185","variantCode":"100072185","name":"Vodcă 37.5% alc. 0.7l","slug":"100072185-wyborowa-vodca-37-5-alc-0-7l","unitPriceLabel":"55,57 Lei/l","brand":"Wyborowa","brandCode":"1341","brandFilterCode":"wyborowa-b1354","sku":"100072185","price":38.9,"originalPrice":null,"currencyCode":"RON","currency":"Lei","image":{"thumbnail":{"default":"https://cdn.freshful.ro/media/cache/sylius_shop_product_thumbnail/05/95/ac81ca663a03bdbc2bae4ba0ee49.jpg"},"large":{"default":"https://cdn.freshful.ro/media/cache/freshful_large/05/95/ac81ca663a03bdbc2bae4ba0ee49.jpg"},"extralarge":{"default":"https://cdn.freshful.ro/media/cache/sylius_shop_product_original/05/95/ac81ca663a03bdbc2bae4ba0ee49.jpg"}},"label":null,"tags":[],"isAvailable":true,"maxAvailableQuantity":20,"maxAllowedQuantity":100,"breadcrumbs":[{"code":"7","name":"Băuturi","slug":"7-bauturi-si-tutun"},{"code":"706","name":"Băuturi spirtoase","slug":"706-bauturi-spirtoase"},{"code":"70606","name":"Vodka","slug":"70606-vodka"},{"code":"100072185","name":"Vodcă 37.5% alc. 0.7l","slug":"100072185-wyborowa-vodca-37-5-alc-0-7l"}],"activePromotion":null,"saveMe":null,"labels":[],"geniusPrice":null,"geniusUnitPricePerLabel":null,"banner":null,"discountLabel":null,"geniusDiscountLabel":null,"badge":null},{"code":"100072116","variantCode":"100072116","name":"Vodcă 40% alc. 0.5l","slug":"100072116-absolut-vodca-40-alc-0-5l","unitPriceLabel":"79,98 Lei/l","brand":"Absolut","brandCode":"1316","brandFilterCode":"absolut-b1329","sku":"100072116","price":39.99,"originalPrice":null,"currencyCode":"RON","currency":"Lei","image":{"thumbnail":{"default":"https://cdn.freshful.ro/media/cache/sylius_shop_product_thumbnail/c8/cb/09f4e76fa6cbb3232a44a1447229.jpg"},"large":{"default":"https://cdn.freshful.ro/media/cache/freshful_large/c8/cb/09f4e76fa6cbb3232a44a1447229.jpg"},"extralarge":{"default":"https://cdn.freshful.ro/media/cache/sylius_shop_product_original/c8/cb/09f4e76fa6cbb3232a44a1447229.jpg"}},"label":null,"tags":[],"isAvailable":true,"maxAvailableQuantity":31,"maxAllowedQuantity":100,"breadcrumbs":[{"code":"7","name":"Băuturi","slug":"7-bauturi-si-tutun"},{"code":"706","name":"Băuturi spirtoase","slug":"706-bauturi-spirtoase"},{"code":"70606","name":"Vodka","slug":"70606-vodka"},{"code":"100072116","name":"Vodcă 40% alc. 0.5l","slug":"100072116-absolut-vodca-40-alc-0-5l"}],"activePromotion":null,"saveMe":null,"labels":[],"geniusPrice":null,"geniusUnitPricePerLabel":null,"banner":null,"discountLabel":null,"geniusDiscountLabel":null,"badge":null},{"code":"100122130","variantCode":"100122130","name":"Vodcă 40% alc. 1l","slug":"100122130-grey-goose-vodca-40-alc-1l","unitPriceLabel":"189,99 Lei/l","brand":"Grey Goose","brandCode":"2177","brandFilterCode":"grey-goose-b2179","sku":"100122130","price":189.99,"originalPrice":null,"currencyCode":"RON","currency":"Lei","image":{"thumbnail":{"default":"https://cdn.freshful.ro/media/cache/sylius_shop_product_thumbnail/91/bf/7fa12cfa2b24d36ce6ebb90ff7af.jpg"},"large":{"default":"https://cdn.freshful.ro/media/cache/freshful_large/91/bf/7fa12cfa2b24d36ce6ebb90ff7af.jpg"},"extralarge":{"default":"https://cdn.freshful.ro/media/cache/sylius_shop_product_original/91/bf/7fa12cfa2b24d36ce6ebb90ff7af.jpg"}},"label":null,"tags":[],"isAvailable":true,"maxAvailableQuantity":11,"maxAllowedQuantity":100,"breadcrumbs":[{"code":"7","name":"Băuturi","slug":"7-bauturi-si-tutun"},{"code":"706","name":"Băuturi spirtoase","slug":"706-bauturi-spirtoase"},{"code":"70606","name":"Vodka","slug":"70606-vodka"},{"code":"100122130","name":"Vodcă 40% alc. 1l","slug":"100122130-grey-goose-vodca-40-alc-1l"}],"activePromotion":null,"saveMe":null,"labels":[],"geniusPrice":null,"geniusUnitPricePerLabel":null,"banner":null,"discountLabel":null,"geniusDiscountLabel":null,"badge":null},{"code":"100072124","variantCode":"100072124","name":"Vodcă Vanilia 40% alc. 0.7l","slug":"100072124-absolut-vodca-vanilia-40-alc-0-7l","unitPriceLabel":"84,13 Lei/l","brand":"Absolut","brandCode":"1316","brandFilterCode":"absolut-b1329","sku":"100072124","price":58.89,"originalPrice":null,"currencyCode":"RON","currency":"Lei","image":{"thumbnail":{"default":"https://cdn.freshful.ro/media/cache/sylius_shop_product_thumbnail/b5/37/ef0e3614d2d31935fa21423a118d.jpg"},"large":{"default":"https://cdn.freshful.ro/media/cache/freshful_large/b5/37/ef0e3614d2d31935fa21423a118d.jpg"},"extralarge":{"default":"https://cdn.freshful.ro/media/cache/sylius_shop_product_original/b5/37/ef0e3614d2d31935fa21423a118d.jpg"}},"label":null,"tags":[],"isAvailable":true,"maxAvailableQuantity":37,"maxAllowedQuantity":100,"breadcrumbs":[{"code":"7","name":"Băuturi","slug":"7-bauturi-si-tutun"},{"code":"706","name":"Băuturi spirtoase","slug":"706-bauturi-spirtoase"},{"code":"70606","name":"Vodka","slug":"70606-vodka"},{"code":"100072124","name":"Vodcă Vanilia 40% alc. 0.7l","slug":"100072124-absolut-vodca-vanilia-40-alc-0-7l"}],"activePromotion":null,"saveMe":null,"labels":[],"geniusPrice":null,"geniusUnitPricePerLabel":null,"banner":null,"discountLabel":null,"geniusDiscountLabel":null,"badge":null},{"code":"100122108","variantCode":"100122108","name":"Vodcă Noble 40% alc. 0.7l","slug":"100122108-beluga-vodca-noble-40-alc-0-7l","unitPriceLabel":"232,84 Lei/l","brand":"Beluga","brandCode":"2169","brandFilterCode":"beluga-b2171","sku":"100122108","price":162.99,"originalPrice":null,"currencyCode":"RON","currency":"Lei","image":{"thumbnail":{"default":"https://cdn.freshful.ro/media/cache/sylius_shop_product_thumbnail/b1/14/9f650209e24417389c3a1babc616.jpg"},"large":{"default":"https://cdn.freshful.ro/media/cache/freshful_large/b1/14/9f650209e24417389c3a1babc616.jpg"},"extralarge":{"default":"https://cdn.freshful.ro/media/cache/sylius_shop_product_original/b1/14/9f650209e24417389c3a1babc616.jpg"}},"label":null,"tags":[],"isAvailable":true,"maxAvailableQuantity":10,"maxAllowedQuantity":100,"breadcrumbs":[{"code":"7","name":"Băuturi","slug":"7-bauturi-si-tutun"},{"code":"706","name":"Băuturi spirtoase","slug":"706-bauturi-spirtoase"},{"code":"70606","name":"Vodka","slug":"70606-vodka"},{"code":"100122108","name":"Vodcă Noble 40% alc. 0.7l","slug":"100122108-beluga-vodca-noble-40-alc-0-7l"}],"activePromotion":null,"saveMe":null,"labels":[],"geniusPrice":null,"geniusUnitPricePerLabel":null,"banner":null,"discountLabel":null,"geniusDiscountLabel":null,"badge":null}],"filters":{"countSelected":0,"items":[{"code":"brand","name":"Brand","countSelected":0,"values":[{"code":"absolut-b1329","name":"Absolut","isSelected":false,"count":8},{"code":"beluga-b2171","name":"Beluga","isSelected":false,"count":1},{"code":"chopin-b2363","name":"Chopin","isSelected":false,"count":2},{"code":"crystal-head-b2974","name":"Crystal Head","isSelected":false,"count":1},{"code":"discovery-b1403","name":"Discovery","isSelected":false,"count":2},{"code":"finlandia-b2178","name":"Finlandia","isSelected":false,"count":1},{"code":"grey-goose-b2179","name":"Grey Goose","isSelected":false,"count":1},{"code":"ketel-one-b1291","name":"Ketel One","isSelected":false,"count":1},{"code":"opaline-b2423","name":"Opaline","isSelected":false,"count":1},{"code":"ostoya-b1346","name":"Ostoya","isSelected":false,"count":1},{"code":"sausage-tree-b1310","name":"Sausage Tree","isSelected":false,"count":1},{"code":"skyy-b287","name":"Skyy","isSelected":false,"count":1},{"code":"smirnoff-b1283","name":"Smirnoff","isSelected":false,"count":2},{"code":"stalingrad-b1395","name":"Stalingrad","isSelected":false,"count":1},{"code":"stalinskaya-b1402","name":"Stalinskaya","isSelected":false,"count":9},{"code":"stolichnaya-b1407","name":"Stolichnaya","isSelected":false,"count":2},{"code":"wyborowa-b1354","name":"Wyborowa","isSelected":false,"count":3},{"code":"zubrowka-b1308","name":"Zubrowka","isSelected":false,"count":1}]}]},"orderBy":[{"field":"price","direction":"asc","name":"Preț crescător","isSelected":false},{"field":"price","direction":"desc","name":"Preț descrescător","isSelected":false},{"field":"popularity","direction":"desc","name":"Cele mai populare","isSelected":true},{"field":"category","direction":"asc","name":"Categorie","isSelected":false}],"metaTitle":"Vodka - Gamă variată","metaDescription":"Vrei Vodka? Alege dintr-o gamă variată. Comanzi simplu și ai livrare rapidă, calitate și prospețime. Hai pe Freshful.ro","metaKeywords":null,"banners":[]}}