{"type":"subcategory","payload":{"analyticsListId":"category_70601-aperitive","analyticsListName":"Category - Aperitive","name":"Aperitive","slug":"70601-aperitive","image":null,"breadcrumbs":[{"code":"7","name":"Băuturi","slug":"7-bauturi-si-tutun"},{"code":"706","name":"Băuturi spirtoase","slug":"706-bauturi-spirtoase"},{"code":"70601","name":"Aperitive","slug":"70601-aperitive"}],"slots":[],"page":1,"limit":10,"pages":5,"count":42,"siblings":[{"name":"Băuturi necarbogazoase și siropuri","slug":"701-bauturi-necarbogazoase-si-siropuri","selected":false},{"name":"Apă","slug":"702-apa","selected":false},{"name":"Băuturi carbogazoase","slug":"703-bauturi-carbogazoase","selected":false},{"name":"Bere","slug":"704-bere","selected":false},{"name":"Vinuri","slug":"705-vinuri","selected":false},{"name":"Băuturi spirtoase","slug":"706-bauturi-spirtoase","selected":true},{"name":"Tutun","slug":"707-tutun","selected":false}],"children":[{"name":"Toate produsele","slug":"706-bauturi-spirtoase","selected":false},{"name":"Aperitive","slug":"70601-aperitive","selected":true},{"name":"Lichior","slug":"70602-lichior","selected":false},{"name":"Palincă, țuică și băuturi tradiționale","slug":"70603-palinca-tuica-si-alte-bauturi-traditionale","selected":false},{"name":"Cocktail și premix","slug":"70604-cocktail-si-premix","selected":false},{"name":"Whisky","slug":"70605-whisky","selected":false},{"name":"Vodka","slug":"70606-vodka","selected":false},{"name":"Rom","slug":"70607-rom","selected":false},{"name":"Tequila","slug":"70608-tequilla","selected":false},{"name":"Gin","slug":"70609-gin","selected":false},{"name":"Coniac și brandy","slug":"70610-coniac-si-brandy","selected":false}],"products":[{"code":"100074639","variantCode":"100074639","name":"Aperitiv 11% alc. 1l","slug":"100074639-aperol-aperitiv-11-alc-1l","unitPriceLabel":"69,99 Lei/l","brand":"Aperol","brandCode":"1258","brandFilterCode":"aperol-b1272","sku":"100074639","price":69.99,"originalPrice":null,"currencyCode":"RON","currency":"Lei","image":{"thumbnail":{"default":"https://cdn.freshful.ro/media/cache/sylius_shop_product_thumbnail/45/e1/d8a7bd30e7669a68d5166b805431.jpg"},"large":{"default":"https://cdn.freshful.ro/media/cache/freshful_large/45/e1/d8a7bd30e7669a68d5166b805431.jpg"},"extralarge":{"default":"https://cdn.freshful.ro/media/cache/sylius_shop_product_original/45/e1/d8a7bd30e7669a68d5166b805431.jpg"}},"label":{"text":"Profită acum","backgroundColor":"#FF9903","textColor":"#FFFFFF"},"tags":[],"isAvailable":true,"maxAvailableQuantity":57,"maxAllowedQuantity":100,"breadcrumbs":[{"code":"7","name":"Băuturi","slug":"7-bauturi-si-tutun"},{"code":"706","name":"Băuturi spirtoase","slug":"706-bauturi-spirtoase"},{"code":"70601","name":"Aperitive","slug":"70601-aperitive"},{"code":"100074639","name":"Aperitiv 11% alc. 1l","slug":"100074639-aperol-aperitiv-11-alc-1l"}],"activePromotion":{"code":"special-bacanie-bauturi-mar23","name":"Preț avantajos","targetQuantity":null},"saveMe":null,"labels":[{"type":"v1","items":[{"text":"Profită acum","backgroundColor":"#FF9903","textColor":"#FFFFFF"}]}],"geniusPrice":null,"geniusUnitPricePerLabel":null,"banner":{"text":"Preț avantajos","textColor":"#F95510","bgColor":"#FEF1CD","icon":null,"link":"https://www.freshful.ro/oferte/special-bacanie-bauturi-mar23","type":"promo","analyticsEventType":"select_promotion","analyticsEventPayload":{"promotion_id":"special-bacanie-bauturi-mar23","promotion_name":"Prețuri speciale pentru Ziua Femeii"}},"discountLabel":null,"geniusDiscountLabel":null,"badge":null},{"code":"100065551","variantCode":"100065551","name":"Limoncello 30% alc. 0.7l","slug":"100065551-garrone-limoncello-30-alc-0-7l","unitPriceLabel":"39,99 Lei/l","brand":"Garrone","brandCode":"926","brandFilterCode":"garrone-b926","sku":"100065551","price":27.99,"originalPrice":null,"currencyCode":"RON","currency":"Lei","image":{"thumbnail":{"default":"https://cdn.freshful.ro/media/cache/sylius_shop_product_thumbnail/13/38/3bf14592390fddffb74e8fe6a8a8.jpg"},"large":{"default":"https://cdn.freshful.ro/media/cache/freshful_large/13/38/3bf14592390fddffb74e8fe6a8a8.jpg"},"extralarge":{"default":"https://cdn.freshful.ro/media/cache/sylius_shop_product_original/13/38/3bf14592390fddffb74e8fe6a8a8.jpg"}},"label":{"text":"Profită acum","backgroundColor":"#FF9903","textColor":"#FFFFFF"},"tags":[],"isAvailable":true,"maxAvailableQuantity":17,"maxAllowedQuantity":100,"breadcrumbs":[{"code":"7","name":"Băuturi","slug":"7-bauturi-si-tutun"},{"code":"706","name":"Băuturi spirtoase","slug":"706-bauturi-spirtoase"},{"code":"70601","name":"Aperitive","slug":"70601-aperitive"},{"code":"100065551","name":"Limoncello 30% alc. 0.7l","slug":"100065551-garrone-limoncello-30-alc-0-7l"}],"activePromotion":{"code":"special-bacanie-bauturi-mar23","name":"Preț avantajos","targetQuantity":null},"saveMe":null,"labels":[{"type":"v1","items":[{"text":"Profită acum","backgroundColor":"#FF9903","textColor":"#FFFFFF"}]}],"geniusPrice":null,"geniusUnitPricePerLabel":null,"banner":{"text":"Preț avantajos","textColor":"#F95510","bgColor":"#FEF1CD","icon":null,"link":"https://www.freshful.ro/oferte/special-bacanie-bauturi-mar23","type":"promo","analyticsEventType":"select_promotion","analyticsEventPayload":{"promotion_id":"special-bacanie-bauturi-mar23","promotion_name":"Prețuri speciale pentru Ziua Femeii"}},"discountLabel":null,"geniusDiscountLabel":null,"badge":null},{"code":"100074642","variantCode":"100074642","name":"Aperitiv Bitter 25% alc. 1l","slug":"100074642-campari-aperitiv-bitter-25-alc-1l","unitPriceLabel":"103,09 Lei/l","brand":"Campari","brandCode":"1259","brandFilterCode":"campari-b1273","sku":"100074642","price":103.09,"originalPrice":null,"currencyCode":"RON","currency":"Lei","image":{"thumbnail":{"default":"https://cdn.freshful.ro/media/cache/sylius_shop_product_thumbnail/4c/d1/21a53bc3c553d017b91c66137cab.jpg"},"large":{"default":"https://cdn.freshful.ro/media/cache/freshful_large/4c/d1/21a53bc3c553d017b91c66137cab.jpg"},"extralarge":{"default":"https://cdn.freshful.ro/media/cache/sylius_shop_product_original/4c/d1/21a53bc3c553d017b91c66137cab.jpg"}},"label":{"text":"Profită acum","backgroundColor":"#FF9903","textColor":"#FFFFFF"},"tags":[],"isAvailable":true,"maxAvailableQuantity":54,"maxAllowedQuantity":100,"breadcrumbs":[{"code":"7","name":"Băuturi","slug":"7-bauturi-si-tutun"},{"code":"706","name":"Băuturi spirtoase","slug":"706-bauturi-spirtoase"},{"code":"70601","name":"Aperitive","slug":"70601-aperitive"},{"code":"100074642","name":"Aperitiv Bitter 25% alc. 1l","slug":"100074642-campari-aperitiv-bitter-25-alc-1l"}],"activePromotion":{"code":"superpreturile-saptamanii","name":"Preț avantajos","targetQuantity":null},"saveMe":null,"labels":[{"type":"v1","items":[{"text":"Profită acum","backgroundColor":"#FF9903","textColor":"#FFFFFF"}]}],"geniusPrice":null,"geniusUnitPricePerLabel":null,"banner":{"text":"Preț avantajos","textColor":"#F95510","bgColor":"#FEF1CD","icon":null,"link":"https://www.freshful.ro/oferte/superpreturile-saptamanii","type":"promo","analyticsEventType":"select_promotion","analyticsEventPayload":{"promotion_id":"superpreturile-saptamanii","promotion_name":"Superprețurile zilei"}},"discountLabel":null,"geniusDiscountLabel":null,"badge":null},{"code":"100065552","variantCode":"100065552","name":"Orangello 30% alc. 0.7l","slug":"100065552-garrone-orangello-30-alc-0-7l","unitPriceLabel":"44,27 Lei/l","brand":"Garrone","brandCode":"926","brandFilterCode":"garrone-b926","sku":"100065552","price":30.99,"originalPrice":38.89,"currencyCode":"RON","currency":"Lei","image":{"thumbnail":{"default":"https://cdn.freshful.ro/media/cache/sylius_shop_product_thumbnail/b7/1f/22fea669baafe5fb719725036a59.jpg"},"large":{"default":"https://cdn.freshful.ro/media/cache/freshful_large/b7/1f/22fea669baafe5fb719725036a59.jpg"},"extralarge":{"default":"https://cdn.freshful.ro/media/cache/sylius_shop_product_original/b7/1f/22fea669baafe5fb719725036a59.jpg"}},"label":{"text":"-20%","backgroundColor":"#FF9903","textColor":"#FFFFFF"},"tags":[],"isAvailable":true,"maxAvailableQuantity":2,"maxAllowedQuantity":100,"breadcrumbs":[{"code":"7","name":"Băuturi","slug":"7-bauturi-si-tutun"},{"code":"706","name":"Băuturi spirtoase","slug":"706-bauturi-spirtoase"},{"code":"70601","name":"Aperitive","slug":"70601-aperitive"},{"code":"100065552","name":"Orangello 30% alc. 0.7l","slug":"100065552-garrone-orangello-30-alc-0-7l"}],"activePromotion":{"code":"special-bacanie-bauturi-mar23","name":"Preț redus","targetQuantity":null},"saveMe":null,"labels":[{"type":"v1","items":[{"text":"-20%","backgroundColor":"#FF9903","textColor":"#FFFFFF"}]}],"geniusPrice":null,"geniusUnitPricePerLabel":null,"banner":{"text":"Super preț","textColor":"#FF0000","bgColor":"#FFF2EC","icon":null,"link":"https://www.freshful.ro/oferte/special-bacanie-bauturi-mar23","type":"promo","analyticsEventType":"select_promotion","analyticsEventPayload":{"promotion_id":"special-bacanie-bauturi-mar23","promotion_name":"Prețuri speciale pentru Ziua Femeii"}},"discountLabel":"Economisești 20%","geniusDiscountLabel":null,"badge":null},{"code":"100074466","variantCode":"100074466","name":"Lichior Marsala 32% alc. 0.7l","slug":"100074466-florio-marsala-lichior-marsala-32-alc-0-7l","unitPriceLabel":"67,13 Lei/l","brand":"Florio Marsala","brandCode":"1214","brandFilterCode":"florio-marsala-b1215","sku":"100074466","price":46.99,"originalPrice":null,"currencyCode":"RON","currency":"Lei","image":{"thumbnail":{"default":"https://cdn.freshful.ro/media/cache/sylius_shop_product_thumbnail/91/ee/7b092cf110bd53dcd0a9b221af3c.jpg"},"large":{"default":"https://cdn.freshful.ro/media/cache/freshful_large/91/ee/7b092cf110bd53dcd0a9b221af3c.jpg"},"extralarge":{"default":"https://cdn.freshful.ro/media/cache/sylius_shop_product_original/91/ee/7b092cf110bd53dcd0a9b221af3c.jpg"}},"label":{"text":"Profită acum","backgroundColor":"#FF9903","textColor":"#FFFFFF"},"tags":[],"isAvailable":true,"maxAvailableQuantity":34,"maxAllowedQuantity":100,"breadcrumbs":[{"code":"7","name":"Băuturi","slug":"7-bauturi-si-tutun"},{"code":"706","name":"Băuturi spirtoase","slug":"706-bauturi-spirtoase"},{"code":"70601","name":"Aperitive","slug":"70601-aperitive"},{"code":"100074466","name":"Lichior Marsala 32% alc. 0.7l","slug":"100074466-florio-marsala-lichior-marsala-32-alc-0-7l"}],"activePromotion":{"code":"special-bacanie-bauturi-mar23","name":"Preț avantajos","targetQuantity":null},"saveMe":null,"labels":[{"type":"v1","items":[{"text":"Profită acum","backgroundColor":"#FF9903","textColor":"#FFFFFF"}]}],"geniusPrice":null,"geniusUnitPricePerLabel":null,"banner":{"text":"Preț avantajos","textColor":"#F95510","bgColor":"#FEF1CD","icon":null,"link":"https://www.freshful.ro/oferte/special-bacanie-bauturi-mar23","type":"promo","analyticsEventType":"select_promotion","analyticsEventPayload":{"promotion_id":"special-bacanie-bauturi-mar23","promotion_name":"Prețuri speciale pentru Ziua Femeii"}},"discountLabel":null,"geniusDiscountLabel":null,"badge":null},{"code":"100074638","variantCode":"100074638","name":"Aperitiv 15% alc. 0.7l","slug":"100074638-aperol-aperitiv-15-alc-0-7l","unitPriceLabel":"81,41 Lei/l","brand":"Aperol","brandCode":"1258","brandFilterCode":"aperol-b1272","sku":"100074638","price":56.99,"originalPrice":null,"currencyCode":"RON","currency":"Lei","image":{"thumbnail":{"default":"https://cdn.freshful.ro/media/cache/sylius_shop_product_thumbnail/b9/47/5c1d57c8371f2f76e6ab686925ed.jpg"},"large":{"default":"https://cdn.freshful.ro/media/cache/freshful_large/b9/47/5c1d57c8371f2f76e6ab686925ed.jpg"},"extralarge":{"default":"https://cdn.freshful.ro/media/cache/sylius_shop_product_original/b9/47/5c1d57c8371f2f76e6ab686925ed.jpg"}},"label":null,"tags":[],"isAvailable":true,"maxAvailableQuantity":100,"maxAllowedQuantity":100,"breadcrumbs":[{"code":"7","name":"Băuturi","slug":"7-bauturi-si-tutun"},{"code":"706","name":"Băuturi spirtoase","slug":"706-bauturi-spirtoase"},{"code":"70601","name":"Aperitive","slug":"70601-aperitive"},{"code":"100074638","name":"Aperitiv 15% alc. 0.7l","slug":"100074638-aperol-aperitiv-15-alc-0-7l"}],"activePromotion":null,"saveMe":null,"labels":[],"geniusPrice":null,"geniusUnitPricePerLabel":null,"banner":null,"discountLabel":null,"geniusDiscountLabel":null,"badge":null},{"code":"100122137","variantCode":"100122137","name":"Lichior digestiv 35% alc. 0.7l","slug":"100122137-jagermeister-lichior-digestiv-35-alc-0-7l","unitPriceLabel":"75,99 Lei/l","brand":"Jagermeister","brandCode":"2178","brandFilterCode":"jagermeister-b2180","sku":"100122137","price":53.19,"originalPrice":null,"currencyCode":"RON","currency":"Lei","image":{"thumbnail":{"default":"https://cdn.freshful.ro/media/cache/sylius_shop_product_thumbnail/28/38/0cdf677251d4c27f68f9ef61be45.jpg"},"large":{"default":"https://cdn.freshful.ro/media/cache/freshful_large/28/38/0cdf677251d4c27f68f9ef61be45.jpg"},"extralarge":{"default":"https://cdn.freshful.ro/media/cache/sylius_shop_product_original/28/38/0cdf677251d4c27f68f9ef61be45.jpg"}},"label":null,"tags":[],"isAvailable":true,"maxAvailableQuantity":100,"maxAllowedQuantity":100,"breadcrumbs":[{"code":"7","name":"Băuturi","slug":"7-bauturi-si-tutun"},{"code":"706","name":"Băuturi spirtoase","slug":"706-bauturi-spirtoase"},{"code":"70601","name":"Aperitive","slug":"70601-aperitive"},{"code":"100122137","name":"Lichior digestiv 35% alc. 0.7l","slug":"100122137-jagermeister-lichior-digestiv-35-alc-0-7l"}],"activePromotion":null,"saveMe":null,"labels":[],"geniusPrice":null,"geniusUnitPricePerLabel":null,"banner":null,"discountLabel":null,"geniusDiscountLabel":null,"badge":null},{"code":"100122142","variantCode":"100122142","name":"Vermut Bianco 15% alc. 1l","slug":"100122142-martini-vermut-bianco-15-alc-1l","unitPriceLabel":"55,09 Lei/l","brand":"Martini","brandCode":"1744","brandFilterCode":"martini-b1748","sku":"100122142","price":55.09,"originalPrice":null,"currencyCode":"RON","currency":"Lei","image":{"thumbnail":{"default":"https://cdn.freshful.ro/media/cache/sylius_shop_product_thumbnail/02/c5/d07a7a03a4a12e2f16172fbba51b.jpg"},"large":{"default":"https://cdn.freshful.ro/media/cache/freshful_large/02/c5/d07a7a03a4a12e2f16172fbba51b.jpg"},"extralarge":{"default":"https://cdn.freshful.ro/media/cache/sylius_shop_product_original/02/c5/d07a7a03a4a12e2f16172fbba51b.jpg"}},"label":null,"tags":[],"isAvailable":true,"maxAvailableQuantity":63,"maxAllowedQuantity":100,"breadcrumbs":[{"code":"7","name":"Băuturi","slug":"7-bauturi-si-tutun"},{"code":"706","name":"Băuturi spirtoase","slug":"706-bauturi-spirtoase"},{"code":"70601","name":"Aperitive","slug":"70601-aperitive"},{"code":"100122142","name":"Vermut Bianco 15% alc. 1l","slug":"100122142-martini-vermut-bianco-15-alc-1l"}],"activePromotion":null,"saveMe":null,"labels":[],"geniusPrice":null,"geniusUnitPricePerLabel":null,"banner":null,"discountLabel":null,"geniusDiscountLabel":null,"badge":null},{"code":"100074637","variantCode":"100074637","name":"Lichior Amaretto Originale 28% alc. 0.7l","slug":"100074637-disaronno-lichior-amaretto-originale-28-alc-0-7l","unitPriceLabel":"120,7 Lei/l","brand":"Disaronno","brandCode":"1257","brandFilterCode":"disaronno-b1271","sku":"100074637","price":84.49,"originalPrice":null,"currencyCode":"RON","currency":"Lei","image":{"thumbnail":{"default":"https://cdn.freshful.ro/media/cache/sylius_shop_product_thumbnail/07/c5/f15c90697ef3bdac0bc7cb7c6712.jpg"},"large":{"default":"https://cdn.freshful.ro/media/cache/freshful_large/07/c5/f15c90697ef3bdac0bc7cb7c6712.jpg"},"extralarge":{"default":"https://cdn.freshful.ro/media/cache/sylius_shop_product_original/07/c5/f15c90697ef3bdac0bc7cb7c6712.jpg"}},"label":null,"tags":[],"isAvailable":true,"maxAvailableQuantity":28,"maxAllowedQuantity":100,"breadcrumbs":[{"code":"7","name":"Băuturi","slug":"7-bauturi-si-tutun"},{"code":"706","name":"Băuturi spirtoase","slug":"706-bauturi-spirtoase"},{"code":"70601","name":"Aperitive","slug":"70601-aperitive"},{"code":"100074637","name":"Lichior Amaretto Originale 28% alc. 0.7l","slug":"100074637-disaronno-lichior-amaretto-originale-28-alc-0-7l"}],"activePromotion":null,"saveMe":null,"labels":[],"geniusPrice":null,"geniusUnitPricePerLabel":null,"banner":null,"discountLabel":null,"geniusDiscountLabel":null,"badge":null},{"code":"100065544","variantCode":"100065544","name":"Vermut Bianco 16% alc. 1l","slug":"100065544-garrone-vermut-bianco-16-alc-1l","unitPriceLabel":"31,9 Lei/l","brand":"Garrone","brandCode":"926","brandFilterCode":"garrone-b926","sku":"100065544","price":31.9,"originalPrice":null,"currencyCode":"RON","currency":"Lei","image":{"thumbnail":{"default":"https://cdn.freshful.ro/media/cache/sylius_shop_product_thumbnail/6d/db/30eea96f5bd94cb1ef62e78f7162.jpg"},"large":{"default":"https://cdn.freshful.ro/media/cache/freshful_large/6d/db/30eea96f5bd94cb1ef62e78f7162.jpg"},"extralarge":{"default":"https://cdn.freshful.ro/media/cache/sylius_shop_product_original/6d/db/30eea96f5bd94cb1ef62e78f7162.jpg"}},"label":null,"tags":[],"isAvailable":true,"maxAvailableQuantity":12,"maxAllowedQuantity":100,"breadcrumbs":[{"code":"7","name":"Băuturi","slug":"7-bauturi-si-tutun"},{"code":"706","name":"Băuturi spirtoase","slug":"706-bauturi-spirtoase"},{"code":"70601","name":"Aperitive","slug":"70601-aperitive"},{"code":"100065544","name":"Vermut Bianco 16% alc. 1l","slug":"100065544-garrone-vermut-bianco-16-alc-1l"}],"activePromotion":null,"saveMe":null,"labels":[],"geniusPrice":null,"geniusUnitPricePerLabel":null,"banner":null,"discountLabel":null,"geniusDiscountLabel":null,"badge":null}],"filters":{"countSelected":0,"items":[{"code":"promotion","name":"Promoții","countSelected":0,"values":[{"code":"special-bacanie-bauturi-mar23","name":"Prețuri speciale pentru Ziua Femeii","isSelected":false,"count":4},{"code":"superpreturile-saptamanii","name":"Superprețurile zilei","isSelected":false,"count":1}]},{"code":"brand","name":"Brand","countSelected":0,"values":[{"code":"angelli-b1109","name":"Angelli","isSelected":false,"count":8},{"code":"aperol-b1272","name":"Aperol","isSelected":false,"count":2},{"code":"branca-b1414","name":"Branca","isSelected":false,"count":2},{"code":"campari-b1273","name":"Campari","isSelected":false,"count":1},{"code":"casal-d-emilia-b1237","name":"Casal d'Emilia","isSelected":false,"count":1},{"code":"choya-b2025","name":"Choya","isSelected":false,"count":1},{"code":"disaronno-b1271","name":"Disaronno","isSelected":false,"count":1},{"code":"florio-marsala-b1215","name":"Florio Marsala","isSelected":false,"count":1},{"code":"garrone-b926","name":"Garrone","isSelected":false,"count":9},{"code":"jagermeister-b2180","name":"Jagermeister","isSelected":false,"count":3},{"code":"lazzaroni-b1318","name":"Lazzaroni","isSelected":false,"count":1},{"code":"lillet-b1340","name":"Lillet","isSelected":false,"count":1},{"code":"martini-b1748","name":"Martini","isSelected":false,"count":2},{"code":"pallini-b1319","name":"Pallini","isSelected":false,"count":1},{"code":"pernod-b1348","name":"Pernod","isSelected":false,"count":1},{"code":"plomari-b2720","name":"Plomari","isSelected":false,"count":1},{"code":"ramazzotti-b1349","name":"Ramazzotti","isSelected":false,"count":2},{"code":"ricard-b1351","name":"Ricard","isSelected":false,"count":1},{"code":"royal-conti-b1238","name":"Royal Conti","isSelected":false,"count":1},{"code":"zarea-b1391","name":"Zarea","isSelected":false,"count":2}]}]},"orderBy":[{"field":"price","direction":"asc","name":"Preț crescător","isSelected":false},{"field":"price","direction":"desc","name":"Preț descrescător","isSelected":false},{"field":"popularity","direction":"desc","name":"Cele mai populare","isSelected":true},{"field":"category","direction":"asc","name":"Categorie","isSelected":false}],"metaTitle":"Aperitive - Gamă variată","metaDescription":"Vrei Aperitive? Alege dintr-o gamă variată. Comanzi simplu și ai livrare rapidă, calitate și prospețime. Hai pe Freshful.ro","metaKeywords":null,"banners":[]}}