{"type":"subcategory","payload":{"analyticsListId":"category_70607-rom","analyticsListName":"Category - Rom","name":"Rom","slug":"70607-rom","image":null,"breadcrumbs":[{"code":"7","name":"Băuturi","slug":"7-bauturi-si-tutun"},{"code":"706","name":"Băuturi spirtoase","slug":"706-bauturi-spirtoase"},{"code":"70607","name":"Rom","slug":"70607-rom"}],"slots":[],"page":1,"limit":10,"pages":6,"count":51,"siblings":[{"name":"Băuturi necarbogazoase și siropuri","slug":"701-bauturi-necarbogazoase-si-siropuri","selected":false},{"name":"Apă","slug":"702-apa","selected":false},{"name":"Băuturi carbogazoase","slug":"703-bauturi-carbogazoase","selected":false},{"name":"Bere","slug":"704-bere","selected":false},{"name":"Vinuri","slug":"705-vinuri","selected":false},{"name":"Băuturi spirtoase","slug":"706-bauturi-spirtoase","selected":true},{"name":"Tutun","slug":"707-tutun","selected":false}],"children":[{"name":"Toate produsele","slug":"706-bauturi-spirtoase","selected":false},{"name":"Aperitive","slug":"70601-aperitive","selected":false},{"name":"Lichior","slug":"70602-lichior","selected":false},{"name":"Palincă, țuică și băuturi tradiționale","slug":"70603-palinca-tuica-si-alte-bauturi-traditionale","selected":false},{"name":"Cocktail și premix","slug":"70604-cocktail-si-premix","selected":false},{"name":"Whisky","slug":"70605-whisky","selected":false},{"name":"Vodka","slug":"70606-vodka","selected":false},{"name":"Rom","slug":"70607-rom","selected":true},{"name":"Tequila","slug":"70608-tequilla","selected":false},{"name":"Gin","slug":"70609-gin","selected":false},{"name":"Coniac și brandy","slug":"70610-coniac-si-brandy","selected":false}],"products":[{"code":"100128522","variantCode":"100128522","name":"Rom Original 40% alc. 0.7l","slug":"100128522-bumbu-rom-original-40-alc-0-7l","unitPriceLabel":"282,71 Lei/l","brand":"Bumbu","brandCode":"2174","brandFilterCode":"bumbu-b2176","sku":"100128522","price":197.9,"originalPrice":null,"currencyCode":"RON","currency":"Lei","image":{"thumbnail":{"default":"https://cdn.freshful.ro/media/cache/sylius_shop_product_thumbnail/58/fb/7c9e2ab8282d71c5d6dd10d3cd17.jpg"},"large":{"default":"https://cdn.freshful.ro/media/cache/freshful_large/58/fb/7c9e2ab8282d71c5d6dd10d3cd17.jpg"},"extralarge":{"default":"https://cdn.freshful.ro/media/cache/sylius_shop_product_original/58/fb/7c9e2ab8282d71c5d6dd10d3cd17.jpg"}},"label":{"text":"-20% cu Genius","backgroundColor":"#FEF3FA","textColor":"#CD015F"},"tags":[],"isAvailable":true,"maxAvailableQuantity":2,"maxAllowedQuantity":2,"breadcrumbs":[{"code":"7","name":"Băuturi","slug":"7-bauturi-si-tutun"},{"code":"706","name":"Băuturi spirtoase","slug":"706-bauturi-spirtoase"},{"code":"70607","name":"Rom","slug":"70607-rom"},{"code":"100128522","name":"Rom Original 40% alc. 0.7l","slug":"100128522-bumbu-rom-original-40-alc-0-7l"}],"activePromotion":null,"saveMe":null,"labels":[{"type":"gdeals","items":[{"text":"","backgroundColor":"","textColor":""}]},{"type":"v3","items":[{"text":"-20% cu Genius","backgroundColor":"#FEF3FA","textColor":"#CD015F"}]}],"geniusPrice":158.32,"geniusUnitPricePerLabel":"226,17 Lei/l","banner":null,"discountLabel":null,"geniusDiscountLabel":"Economisești 20%","badge":null},{"code":"100074655","variantCode":"100074655","name":"Rom Original Spiced Gold 35% alc. 0.7l","slug":"100074655-captain-morgan-rom-original-spiced-gold-35-alc-0-7l","unitPriceLabel":"94,99 Lei/l","brand":"Captain Morgan","brandCode":"1270","brandFilterCode":"captain-morgan-b1284","sku":"100074655","price":66.49,"originalPrice":null,"currencyCode":"RON","currency":"Lei","image":{"thumbnail":{"default":"https://cdn.freshful.ro/media/cache/sylius_shop_product_thumbnail/9f/55/c11d38b2513ce3f6f01ca016becf.jpg"},"large":{"default":"https://cdn.freshful.ro/media/cache/freshful_large/9f/55/c11d38b2513ce3f6f01ca016becf.jpg"},"extralarge":{"default":"https://cdn.freshful.ro/media/cache/sylius_shop_product_original/9f/55/c11d38b2513ce3f6f01ca016becf.jpg"}},"label":null,"tags":[],"isAvailable":true,"maxAvailableQuantity":2,"maxAllowedQuantity":2,"breadcrumbs":[{"code":"7","name":"Băuturi","slug":"7-bauturi-si-tutun"},{"code":"706","name":"Băuturi spirtoase","slug":"706-bauturi-spirtoase"},{"code":"70607","name":"Rom","slug":"70607-rom"},{"code":"100074655","name":"Rom Original Spiced Gold 35% alc. 0.7l","slug":"100074655-captain-morgan-rom-original-spiced-gold-35-alc-0-7l"}],"activePromotion":null,"saveMe":null,"labels":[],"geniusPrice":null,"geniusUnitPricePerLabel":null,"banner":null,"discountLabel":null,"geniusDiscountLabel":null,"badge":null},{"code":"100122119","variantCode":"100122119","name":"Rom Carta Oro Gold 42% alc. 0.7l","slug":"100122119-bacardi-rom-carta-oro-gold-42-alc-0-7l","unitPriceLabel":"118,56 Lei/l","brand":"Bacardi","brandCode":"2118","brandFilterCode":"bacardi-b2122","sku":"100122119","price":82.99,"originalPrice":null,"currencyCode":"RON","currency":"Lei","image":{"thumbnail":{"default":"https://cdn.freshful.ro/media/cache/sylius_shop_product_thumbnail/06/3b/70aaeb3405c4c2c46f968e39fd31.jpg"},"large":{"default":"https://cdn.freshful.ro/media/cache/freshful_large/06/3b/70aaeb3405c4c2c46f968e39fd31.jpg"},"extralarge":{"default":"https://cdn.freshful.ro/media/cache/sylius_shop_product_original/06/3b/70aaeb3405c4c2c46f968e39fd31.jpg"}},"label":null,"tags":[],"isAvailable":true,"maxAvailableQuantity":2,"maxAllowedQuantity":2,"breadcrumbs":[{"code":"7","name":"Băuturi","slug":"7-bauturi-si-tutun"},{"code":"706","name":"Băuturi spirtoase","slug":"706-bauturi-spirtoase"},{"code":"70607","name":"Rom","slug":"70607-rom"},{"code":"100122119","name":"Rom Carta Oro Gold 42% alc. 0.7l","slug":"100122119-bacardi-rom-carta-oro-gold-42-alc-0-7l"}],"activePromotion":null,"saveMe":null,"labels":[],"geniusPrice":null,"geniusUnitPricePerLabel":null,"banner":null,"discountLabel":null,"geniusDiscountLabel":null,"badge":null},{"code":"100072147","variantCode":"100072147","name":"Rom 3YO 40% alc. 0.7l","slug":"100072147-havana-club-rom-3yo-40-alc-0-7l","unitPriceLabel":"81,41 Lei/l","brand":"Havana Club","brandCode":"1323","brandFilterCode":"havana-club-b1336","sku":"100072147","price":56.99,"originalPrice":null,"currencyCode":"RON","currency":"Lei","image":{"thumbnail":{"default":"https://cdn.freshful.ro/media/cache/sylius_shop_product_thumbnail/87/e7/13066685fcc22840eb2e3b03ae6e.jpg"},"large":{"default":"https://cdn.freshful.ro/media/cache/freshful_large/87/e7/13066685fcc22840eb2e3b03ae6e.jpg"},"extralarge":{"default":"https://cdn.freshful.ro/media/cache/sylius_shop_product_original/87/e7/13066685fcc22840eb2e3b03ae6e.jpg"}},"label":null,"tags":[],"isAvailable":true,"maxAvailableQuantity":2,"maxAllowedQuantity":2,"breadcrumbs":[{"code":"7","name":"Băuturi","slug":"7-bauturi-si-tutun"},{"code":"706","name":"Băuturi spirtoase","slug":"706-bauturi-spirtoase"},{"code":"70607","name":"Rom","slug":"70607-rom"},{"code":"100072147","name":"Rom 3YO 40% alc. 0.7l","slug":"100072147-havana-club-rom-3yo-40-alc-0-7l"}],"activePromotion":null,"saveMe":null,"labels":[],"geniusPrice":null,"geniusUnitPricePerLabel":null,"banner":null,"discountLabel":null,"geniusDiscountLabel":null,"badge":null},{"code":"100072151","variantCode":"100072151","name":"Rom cubanez 35% alc. 0.7l","slug":"100072151-havana-club-rom-cubanez-35-alc-0-7l","unitPriceLabel":"108,56 Lei/l","brand":"Havana Club","brandCode":"1323","brandFilterCode":"havana-club-b1336","sku":"100072151","price":75.99,"originalPrice":null,"currencyCode":"RON","currency":"Lei","image":{"thumbnail":{"default":"https://cdn.freshful.ro/media/cache/sylius_shop_product_thumbnail/0f/50/84b4188439b57f9c15c8c729f9fe.jpg"},"large":{"default":"https://cdn.freshful.ro/media/cache/freshful_large/0f/50/84b4188439b57f9c15c8c729f9fe.jpg"},"extralarge":{"default":"https://cdn.freshful.ro/media/cache/sylius_shop_product_original/0f/50/84b4188439b57f9c15c8c729f9fe.jpg"}},"label":null,"tags":[],"isAvailable":true,"maxAvailableQuantity":2,"maxAllowedQuantity":2,"breadcrumbs":[{"code":"7","name":"Băuturi","slug":"7-bauturi-si-tutun"},{"code":"706","name":"Băuturi spirtoase","slug":"706-bauturi-spirtoase"},{"code":"70607","name":"Rom","slug":"70607-rom"},{"code":"100072151","name":"Rom cubanez 35% alc. 0.7l","slug":"100072151-havana-club-rom-cubanez-35-alc-0-7l"}],"activePromotion":null,"saveMe":null,"labels":[],"geniusPrice":null,"geniusUnitPricePerLabel":null,"banner":null,"discountLabel":null,"geniusDiscountLabel":null,"badge":null},{"code":"100074656","variantCode":"100074656","name":"Rom White 37.5% alc. 0.7l","slug":"100074656-captain-morgan-rom-white-37-5-alc-0-7l","unitPriceLabel":"94,99 Lei/l","brand":"Captain Morgan","brandCode":"1270","brandFilterCode":"captain-morgan-b1284","sku":"100074656","price":66.49,"originalPrice":null,"currencyCode":"RON","currency":"Lei","image":{"thumbnail":{"default":"https://cdn.freshful.ro/media/cache/sylius_shop_product_thumbnail/69/fe/7680caa1ffde210a483a191a2582.jpg"},"large":{"default":"https://cdn.freshful.ro/media/cache/freshful_large/69/fe/7680caa1ffde210a483a191a2582.jpg"},"extralarge":{"default":"https://cdn.freshful.ro/media/cache/sylius_shop_product_original/69/fe/7680caa1ffde210a483a191a2582.jpg"}},"label":null,"tags":[],"isAvailable":true,"maxAvailableQuantity":2,"maxAllowedQuantity":2,"breadcrumbs":[{"code":"7","name":"Băuturi","slug":"7-bauturi-si-tutun"},{"code":"706","name":"Băuturi spirtoase","slug":"706-bauturi-spirtoase"},{"code":"70607","name":"Rom","slug":"70607-rom"},{"code":"100074656","name":"Rom White 37.5% alc. 0.7l","slug":"100074656-captain-morgan-rom-white-37-5-alc-0-7l"}],"activePromotion":null,"saveMe":null,"labels":[],"geniusPrice":null,"geniusUnitPricePerLabel":null,"banner":null,"discountLabel":null,"geniusDiscountLabel":null,"badge":null},{"code":"100143414","variantCode":"100143414","name":"Rom Reserva Exclusivă 40% alc. 0.7l","slug":"100143414-diplomatico-rom-reserva-exclusiva-40-alc-0-7l","unitPriceLabel":"314,27 Lei/l","brand":"Diplomatico","brandCode":"2775","brandFilterCode":"diplomatico-b2834","sku":"100143414","price":219.99,"originalPrice":null,"currencyCode":"RON","currency":"Lei","image":{"thumbnail":{"default":"https://cdn.freshful.ro/media/cache/sylius_shop_product_thumbnail/a5/d6/d71c7c2b9ca22ce11ea4b9585d99.jpg"},"large":{"default":"https://cdn.freshful.ro/media/cache/freshful_large/a5/d6/d71c7c2b9ca22ce11ea4b9585d99.jpg"},"extralarge":{"default":"https://cdn.freshful.ro/media/cache/sylius_shop_product_original/a5/d6/d71c7c2b9ca22ce11ea4b9585d99.jpg"}},"label":null,"tags":[],"isAvailable":true,"maxAvailableQuantity":2,"maxAllowedQuantity":2,"breadcrumbs":[{"code":"7","name":"Băuturi","slug":"7-bauturi-si-tutun"},{"code":"706","name":"Băuturi spirtoase","slug":"706-bauturi-spirtoase"},{"code":"70607","name":"Rom","slug":"70607-rom"},{"code":"100143414","name":"Rom Reserva Exclusivă 40% alc. 0.7l","slug":"100143414-diplomatico-rom-reserva-exclusiva-40-alc-0-7l"}],"activePromotion":null,"saveMe":null,"labels":[],"geniusPrice":null,"geniusUnitPricePerLabel":null,"banner":null,"discountLabel":null,"geniusDiscountLabel":null,"badge":null},{"code":"100072149","variantCode":"100072149","name":"Rom Especial 40% alc. 0.7l","slug":"100072149-havana-club-rom-especial-40-alc-0-7l","unitPriceLabel":"108,56 Lei/l","brand":"Havana Club","brandCode":"1323","brandFilterCode":"havana-club-b1336","sku":"100072149","price":75.99,"originalPrice":null,"currencyCode":"RON","currency":"Lei","image":{"thumbnail":{"default":"https://cdn.freshful.ro/media/cache/sylius_shop_product_thumbnail/9f/95/31f9d20cd20f67c83fbcb67e0aba.jpg"},"large":{"default":"https://cdn.freshful.ro/media/cache/freshful_large/9f/95/31f9d20cd20f67c83fbcb67e0aba.jpg"},"extralarge":{"default":"https://cdn.freshful.ro/media/cache/sylius_shop_product_original/9f/95/31f9d20cd20f67c83fbcb67e0aba.jpg"}},"label":null,"tags":[],"isAvailable":true,"maxAvailableQuantity":2,"maxAllowedQuantity":2,"breadcrumbs":[{"code":"7","name":"Băuturi","slug":"7-bauturi-si-tutun"},{"code":"706","name":"Băuturi spirtoase","slug":"706-bauturi-spirtoase"},{"code":"70607","name":"Rom","slug":"70607-rom"},{"code":"100072149","name":"Rom Especial 40% alc. 0.7l","slug":"100072149-havana-club-rom-especial-40-alc-0-7l"}],"activePromotion":null,"saveMe":null,"labels":[],"geniusPrice":null,"geniusUnitPricePerLabel":null,"banner":null,"discountLabel":null,"geniusDiscountLabel":null,"badge":null},{"code":"100080328","variantCode":"100080328","name":"Rom Original Dark 40% alc. 1l","slug":"100080328-plantation-rom-original-dark-40-alc-1l","unitPriceLabel":"97,99 Lei/l","brand":"Plantation","brandCode":"1299","brandFilterCode":"plantation-b1313","sku":"100080328","price":97.99,"originalPrice":null,"currencyCode":"RON","currency":"Lei","image":{"thumbnail":{"default":"https://cdn.freshful.ro/media/cache/sylius_shop_product_thumbnail/e8/73/142e6de9d2ff16490c483d3427fc.jpg"},"large":{"default":"https://cdn.freshful.ro/media/cache/freshful_large/e8/73/142e6de9d2ff16490c483d3427fc.jpg"},"extralarge":{"default":"https://cdn.freshful.ro/media/cache/sylius_shop_product_original/e8/73/142e6de9d2ff16490c483d3427fc.jpg"}},"label":null,"tags":[],"isAvailable":true,"maxAvailableQuantity":2,"maxAllowedQuantity":2,"breadcrumbs":[{"code":"7","name":"Băuturi","slug":"7-bauturi-si-tutun"},{"code":"706","name":"Băuturi spirtoase","slug":"706-bauturi-spirtoase"},{"code":"70607","name":"Rom","slug":"70607-rom"},{"code":"100080328","name":"Rom Original Dark 40% alc. 1l","slug":"100080328-plantation-rom-original-dark-40-alc-1l"}],"activePromotion":null,"saveMe":null,"labels":[],"geniusPrice":null,"geniusUnitPricePerLabel":null,"banner":null,"discountLabel":null,"geniusDiscountLabel":null,"badge":null},{"code":"100148200","variantCode":"100148200","name":"Rom original 40% alc. 0.7l + cutie special","slug":"100148200-bumbu-rom-original-40-alc-0-7l-cutie-special","unitPriceLabel":"304,13 Lei/l","brand":"Bumbu","brandCode":"2174","brandFilterCode":"bumbu-b2176","sku":"100148200","price":212.89,"originalPrice":null,"currencyCode":"RON","currency":"Lei","image":{"thumbnail":{"default":"https://cdn.freshful.ro/media/cache/sylius_shop_product_thumbnail/fc/f5/36f1c3b2d3cbf730dafc59887ab9.jpg"},"large":{"default":"https://cdn.freshful.ro/media/cache/freshful_large/fc/f5/36f1c3b2d3cbf730dafc59887ab9.jpg"},"extralarge":{"default":"https://cdn.freshful.ro/media/cache/sylius_shop_product_original/fc/f5/36f1c3b2d3cbf730dafc59887ab9.jpg"}},"label":null,"tags":[],"isAvailable":true,"maxAvailableQuantity":2,"maxAllowedQuantity":2,"breadcrumbs":[{"code":"7","name":"Băuturi","slug":"7-bauturi-si-tutun"},{"code":"706","name":"Băuturi spirtoase","slug":"706-bauturi-spirtoase"},{"code":"70607","name":"Rom","slug":"70607-rom"},{"code":"100148200","name":"Rom original 40% alc. 0.7l + cutie special","slug":"100148200-bumbu-rom-original-40-alc-0-7l-cutie-special"}],"activePromotion":null,"saveMe":null,"labels":[],"geniusPrice":null,"geniusUnitPricePerLabel":null,"banner":null,"discountLabel":null,"geniusDiscountLabel":null,"badge":null}],"filters":{"countSelected":0,"items":[{"code":"promotion","name":"Promoții","countSelected":0,"values":[]},{"code":"brand","name":"Brand","countSelected":0,"values":[{"code":"bacardi-b2122","name":"Bacardi","isSelected":false,"count":7},{"code":"brugal-b1703","name":"Brugal","isSelected":false,"count":1},{"code":"bumbu-b2176","name":"Bumbu","isSelected":false,"count":6},{"code":"canerock-b3035","name":"Canerock","isSelected":false,"count":1},{"code":"captain-morgan-b1284","name":"Captain Morgan","isSelected":false,"count":2},{"code":"dead-man-s-fingers-b3007","name":"Dead Man'S Fingers","isSelected":false,"count":6},{"code":"diplomatico-b2834","name":"Diplomatico","isSelected":false,"count":3},{"code":"flor-de-cana-b1229","name":"Flor de Cana","isSelected":false,"count":2},{"code":"goslings-b1314","name":"Goslings","isSelected":false,"count":1},{"code":"havana-club-b1336","name":"Havana Club","isSelected":false,"count":8},{"code":"matusalem-b3002","name":"Matusalem","isSelected":false,"count":1},{"code":"plantation-b1313","name":"Plantation","isSelected":false,"count":9},{"code":"stroh-b1413","name":"Stroh","isSelected":false,"count":2},{"code":"zacapa-b1285","name":"Zacapa","isSelected":false,"count":2}]}]},"orderBy":[{"field":"price","direction":"asc","name":"Preț crescător","isSelected":false},{"field":"price","direction":"desc","name":"Preț descrescător","isSelected":false},{"field":"popularity","direction":"desc","name":"Cele mai populare","isSelected":true},{"field":"category","direction":"asc","name":"Categorie","isSelected":false}],"metaTitle":"Rom - Gamă variată","metaDescription":"Vrei Rom? Alege dintr-o gamă variată. Comanzi simplu și ai livrare rapidă, calitate și prospețime. Hai pe Freshful.ro","metaKeywords":null,"banners":[]}}