{"type":"subcategory","payload":{"analyticsListId":"category_70604-cocktail-si-premix","analyticsListName":"Category - Cocktail și premix","name":"Cocktail și premix","slug":"70604-cocktail-si-premix","image":null,"breadcrumbs":[{"code":"7","name":"Băuturi","slug":"7-bauturi-si-tutun"},{"code":"706","name":"Băuturi spirtoase","slug":"706-bauturi-spirtoase"},{"code":"70604","name":"Cocktail și premix","slug":"70604-cocktail-si-premix"}],"slots":[],"page":1,"limit":10,"pages":2,"count":16,"siblings":[{"name":"Băuturi necarbogazoase și siropuri","slug":"701-bauturi-necarbogazoase-si-siropuri","selected":false},{"name":"Apă","slug":"702-apa","selected":false},{"name":"Băuturi carbogazoase","slug":"703-bauturi-carbogazoase","selected":false},{"name":"Bere","slug":"704-bere","selected":false},{"name":"Vinuri","slug":"705-vinuri","selected":false},{"name":"Băuturi spirtoase","slug":"706-bauturi-spirtoase","selected":true},{"name":"Tutun","slug":"707-tutun","selected":false}],"children":[{"name":"Toate produsele","slug":"706-bauturi-spirtoase","selected":false},{"name":"Aperitive","slug":"70601-aperitive","selected":false},{"name":"Lichior","slug":"70602-lichior","selected":false},{"name":"Palincă, țuică și băuturi tradiționale","slug":"70603-palinca-tuica-si-alte-bauturi-traditionale","selected":false},{"name":"Cocktail și premix","slug":"70604-cocktail-si-premix","selected":true},{"name":"Whisky","slug":"70605-whisky","selected":false},{"name":"Vodka","slug":"70606-vodka","selected":false},{"name":"Rom","slug":"70607-rom","selected":false},{"name":"Tequila","slug":"70608-tequilla","selected":false},{"name":"Gin","slug":"70609-gin","selected":false},{"name":"Coniac și brandy","slug":"70610-coniac-si-brandy","selected":false}],"products":[{"code":"100074469","variantCode":"100074469","name":"Mojito 5.5% alc. 0.275l","slug":"100074469-mg-mojito-5-5-alc-0-275l","unitPriceLabel":"36,33 Lei/l","brand":"MG","brandCode":"1238","brandFilterCode":"mg-b1239","sku":"100074469","price":9.99,"originalPrice":null,"currencyCode":"RON","currency":"Lei","image":{"thumbnail":{"default":"https://cdn.freshful.ro/media/cache/sylius_shop_product_thumbnail/46/e9/3ebe120bc0a627a8b550c4fda3f3.jpg"},"large":{"default":"https://cdn.freshful.ro/media/cache/freshful_large/46/e9/3ebe120bc0a627a8b550c4fda3f3.jpg"},"extralarge":{"default":"https://cdn.freshful.ro/media/cache/sylius_shop_product_original/46/e9/3ebe120bc0a627a8b550c4fda3f3.jpg"}},"label":{"text":"Profită acum","backgroundColor":"#FF9903","textColor":"#FFFFFF"},"tags":[],"isAvailable":true,"maxAvailableQuantity":82,"maxAllowedQuantity":100,"breadcrumbs":[{"code":"7","name":"Băuturi","slug":"7-bauturi-si-tutun"},{"code":"706","name":"Băuturi spirtoase","slug":"706-bauturi-spirtoase"},{"code":"70604","name":"Cocktail și premix","slug":"70604-cocktail-si-premix"},{"code":"100074469","name":"Mojito 5.5% alc. 0.275l","slug":"100074469-mg-mojito-5-5-alc-0-275l"}],"activePromotion":{"code":"special-bacanie-bauturi-mar23","name":"Preț avantajos","targetQuantity":null},"saveMe":null,"labels":[{"type":"v1","items":[{"text":"Profită acum","backgroundColor":"#FF9903","textColor":"#FFFFFF"}]}],"geniusPrice":null,"geniusUnitPricePerLabel":null,"banner":{"text":"Preț avantajos","textColor":"#F95510","bgColor":"#FEF1CD","icon":null,"link":"https://www.freshful.ro/oferte/special-bacanie-bauturi-mar23","type":"promo","analyticsEventType":"select_promotion","analyticsEventPayload":{"promotion_id":"special-bacanie-bauturi-mar23","promotion_name":"Prețuri speciale pentru Ziua Femeii"}},"discountLabel":null,"geniusDiscountLabel":null,"badge":null},{"code":"100080759","variantCode":"100080759","name":"Băutură slab alcoolică Orange 4% alc. 0.275l","slug":"100080759-stalinskaya-music-bautura-slab-alcoolica-orange-4-alc-0-275l","unitPriceLabel":"27,82 Lei/l","brand":"Stalinskaya Music","brandCode":"1402","brandFilterCode":"stalinskaya-music-b1406","sku":"100080759","price":7.65,"originalPrice":null,"currencyCode":"RON","currency":"Lei","image":{"thumbnail":{"default":"https://cdn.freshful.ro/media/cache/sylius_shop_product_thumbnail/98/ce/6d1830f8920a3175ca0748bc4d80.jpg"},"large":{"default":"https://cdn.freshful.ro/media/cache/freshful_large/98/ce/6d1830f8920a3175ca0748bc4d80.jpg"},"extralarge":{"default":"https://cdn.freshful.ro/media/cache/sylius_shop_product_original/98/ce/6d1830f8920a3175ca0748bc4d80.jpg"}},"label":null,"tags":[],"isAvailable":true,"maxAvailableQuantity":4,"maxAllowedQuantity":100,"breadcrumbs":[{"code":"7","name":"Băuturi","slug":"7-bauturi-si-tutun"},{"code":"706","name":"Băuturi spirtoase","slug":"706-bauturi-spirtoase"},{"code":"70604","name":"Cocktail și premix","slug":"70604-cocktail-si-premix"},{"code":"100080759","name":"Băutură slab alcoolică Orange 4% alc. 0.275l","slug":"100080759-stalinskaya-music-bautura-slab-alcoolica-orange-4-alc-0-275l"}],"activePromotion":null,"saveMe":null,"labels":[],"geniusPrice":null,"geniusUnitPricePerLabel":null,"banner":null,"discountLabel":null,"geniusDiscountLabel":null,"badge":null},{"code":"100074468","variantCode":"100074468","name":"Gin Tonic 5.5% alc. 0.275l","slug":"100074468-mg-gin-tonic-5-5-alc-0-275l","unitPriceLabel":"50,87 Lei/l","brand":"MG","brandCode":"1238","brandFilterCode":"mg-b1239","sku":"100074468","price":13.99,"originalPrice":null,"currencyCode":"RON","currency":"Lei","image":{"thumbnail":{"default":"https://cdn.freshful.ro/media/cache/sylius_shop_product_thumbnail/24/6c/d458337b45013de27f9ab86b4ce1.jpg"},"large":{"default":"https://cdn.freshful.ro/media/cache/freshful_large/24/6c/d458337b45013de27f9ab86b4ce1.jpg"},"extralarge":{"default":"https://cdn.freshful.ro/media/cache/sylius_shop_product_original/24/6c/d458337b45013de27f9ab86b4ce1.jpg"}},"label":null,"tags":[],"isAvailable":true,"maxAvailableQuantity":14,"maxAllowedQuantity":100,"breadcrumbs":[{"code":"7","name":"Băuturi","slug":"7-bauturi-si-tutun"},{"code":"706","name":"Băuturi spirtoase","slug":"706-bauturi-spirtoase"},{"code":"70604","name":"Cocktail și premix","slug":"70604-cocktail-si-premix"},{"code":"100074468","name":"Gin Tonic 5.5% alc. 0.275l","slug":"100074468-mg-gin-tonic-5-5-alc-0-275l"}],"activePromotion":null,"saveMe":null,"labels":[],"geniusPrice":null,"geniusUnitPricePerLabel":null,"banner":null,"discountLabel":null,"geniusDiscountLabel":null,"badge":null},{"code":"100142009","variantCode":"100142009","name":"Seltzer cu aromă de zmeură doză, 4.5% alc. 0.33l","slug":"100142009-wet-seltzer-cu-aroma-de-zmeura-doza-4-5-alc-0-33l","unitPriceLabel":"17,24 Lei/l","brand":"Wet","brandCode":"1834","brandFilterCode":"wet-b1838","sku":"100142009","price":5.69,"originalPrice":null,"currencyCode":"RON","currency":"Lei","image":{"thumbnail":{"default":"https://cdn.freshful.ro/media/cache/sylius_shop_product_thumbnail/ac/21/179e3df68be067d17da6cd13091e.jpg"},"large":{"default":"https://cdn.freshful.ro/media/cache/freshful_large/ac/21/179e3df68be067d17da6cd13091e.jpg"},"extralarge":{"default":"https://cdn.freshful.ro/media/cache/sylius_shop_product_original/ac/21/179e3df68be067d17da6cd13091e.jpg"}},"label":null,"tags":[],"isAvailable":true,"maxAvailableQuantity":4,"maxAllowedQuantity":100,"breadcrumbs":[{"code":"7","name":"Băuturi","slug":"7-bauturi-si-tutun"},{"code":"706","name":"Băuturi spirtoase","slug":"706-bauturi-spirtoase"},{"code":"70604","name":"Cocktail și premix","slug":"70604-cocktail-si-premix"},{"code":"100142009","name":"Seltzer cu aromă de zmeură doză, 4.5% alc. 0.33l","slug":"100142009-wet-seltzer-cu-aroma-de-zmeura-doza-4-5-alc-0-33l"}],"activePromotion":null,"saveMe":null,"labels":[],"geniusPrice":null,"geniusUnitPricePerLabel":null,"banner":null,"discountLabel":null,"geniusDiscountLabel":null,"badge":null},{"code":"100110289","variantCode":"100110289","name":"Seltzer cu aromă de mango 4.5% alc. doză 0.33l","slug":"100110289-wet-seltzer-cu-aroma-de-mango-4-5-alc-doza-0-33l","unitPriceLabel":"17,24 Lei/l","brand":"Wet","brandCode":"1834","brandFilterCode":"wet-b1838","sku":"100110289","price":5.69,"originalPrice":null,"currencyCode":"RON","currency":"Lei","image":{"thumbnail":{"default":"https://cdn.freshful.ro/media/cache/sylius_shop_product_thumbnail/2a/12/696124003f3f6b5721d2dd4edbdb.jpg"},"large":{"default":"https://cdn.freshful.ro/media/cache/freshful_large/2a/12/696124003f3f6b5721d2dd4edbdb.jpg"},"extralarge":{"default":"https://cdn.freshful.ro/media/cache/sylius_shop_product_original/2a/12/696124003f3f6b5721d2dd4edbdb.jpg"}},"label":null,"tags":[],"isAvailable":true,"maxAvailableQuantity":35,"maxAllowedQuantity":100,"breadcrumbs":[{"code":"7","name":"Băuturi","slug":"7-bauturi-si-tutun"},{"code":"706","name":"Băuturi spirtoase","slug":"706-bauturi-spirtoase"},{"code":"70604","name":"Cocktail și premix","slug":"70604-cocktail-si-premix"},{"code":"100110289","name":"Seltzer cu aromă de mango 4.5% alc. doză 0.33l","slug":"100110289-wet-seltzer-cu-aroma-de-mango-4-5-alc-doza-0-33l"}],"activePromotion":null,"saveMe":null,"labels":[],"geniusPrice":null,"geniusUnitPricePerLabel":null,"banner":null,"discountLabel":null,"geniusDiscountLabel":null,"badge":null},{"code":"100074482","variantCode":"100074482","name":"Vodcă Lime 5.5% alc. 0.275l","slug":"100074482-mg-vodca-lime-5-5-alc-0-275l","unitPriceLabel":"50,87 Lei/l","brand":"MG","brandCode":"1238","brandFilterCode":"mg-b1239","sku":"100074482","price":13.99,"originalPrice":null,"currencyCode":"RON","currency":"Lei","image":{"thumbnail":{"default":"https://cdn.freshful.ro/media/cache/sylius_shop_product_thumbnail/64/c5/6831834ca97b1863416c83c6340d.jpg"},"large":{"default":"https://cdn.freshful.ro/media/cache/freshful_large/64/c5/6831834ca97b1863416c83c6340d.jpg"},"extralarge":{"default":"https://cdn.freshful.ro/media/cache/sylius_shop_product_original/64/c5/6831834ca97b1863416c83c6340d.jpg"}},"label":null,"tags":[],"isAvailable":true,"maxAvailableQuantity":40,"maxAllowedQuantity":100,"breadcrumbs":[{"code":"7","name":"Băuturi","slug":"7-bauturi-si-tutun"},{"code":"706","name":"Băuturi spirtoase","slug":"706-bauturi-spirtoase"},{"code":"70604","name":"Cocktail și premix","slug":"70604-cocktail-si-premix"},{"code":"100074482","name":"Vodcă Lime 5.5% alc. 0.275l","slug":"100074482-mg-vodca-lime-5-5-alc-0-275l"}],"activePromotion":null,"saveMe":null,"labels":[],"geniusPrice":null,"geniusUnitPricePerLabel":null,"banner":null,"discountLabel":null,"geniusDiscountLabel":null,"badge":null},{"code":"100110290","variantCode":"100110290","name":"Seltzer cu aromă de grepfrut 4.5% alc. doză 0.33l","slug":"100110290-wet-seltzer-cu-aroma-de-grepfrut-4-5-alc-doza-0-33l","unitPriceLabel":"17,24 Lei/l","brand":"Wet","brandCode":"1834","brandFilterCode":"wet-b1838","sku":"100110290","price":5.69,"originalPrice":null,"currencyCode":"RON","currency":"Lei","image":{"thumbnail":{"default":"https://cdn.freshful.ro/media/cache/sylius_shop_product_thumbnail/f7/56/a16496b709aa4780e9c686ff4254.jpg"},"large":{"default":"https://cdn.freshful.ro/media/cache/freshful_large/f7/56/a16496b709aa4780e9c686ff4254.jpg"},"extralarge":{"default":"https://cdn.freshful.ro/media/cache/sylius_shop_product_original/f7/56/a16496b709aa4780e9c686ff4254.jpg"}},"label":null,"tags":[],"isAvailable":true,"maxAvailableQuantity":8,"maxAllowedQuantity":100,"breadcrumbs":[{"code":"7","name":"Băuturi","slug":"7-bauturi-si-tutun"},{"code":"706","name":"Băuturi spirtoase","slug":"706-bauturi-spirtoase"},{"code":"70604","name":"Cocktail și premix","slug":"70604-cocktail-si-premix"},{"code":"100110290","name":"Seltzer cu aromă de grepfrut 4.5% alc. doză 0.33l","slug":"100110290-wet-seltzer-cu-aroma-de-grepfrut-4-5-alc-doza-0-33l"}],"activePromotion":null,"saveMe":null,"labels":[],"geniusPrice":null,"geniusUnitPricePerLabel":null,"banner":null,"discountLabel":null,"geniusDiscountLabel":null,"badge":null},{"code":"100110292","variantCode":"100110292","name":"Seltzer cu aromă de piersică 4.5% alc. doză 0.33l","slug":"100110292-wet-seltzer-cu-aroma-de-piersica-4-5-alc-doza-0-33l","unitPriceLabel":"17,24 Lei/l","brand":"Wet","brandCode":"1834","brandFilterCode":"wet-b1838","sku":"100110292","price":5.69,"originalPrice":null,"currencyCode":"RON","currency":"Lei","image":{"thumbnail":{"default":"https://cdn.freshful.ro/media/cache/sylius_shop_product_thumbnail/f0/87/237782717ca9f95e47e6438a4b0c.jpg"},"large":{"default":"https://cdn.freshful.ro/media/cache/freshful_large/f0/87/237782717ca9f95e47e6438a4b0c.jpg"},"extralarge":{"default":"https://cdn.freshful.ro/media/cache/sylius_shop_product_original/f0/87/237782717ca9f95e47e6438a4b0c.jpg"}},"label":null,"tags":[],"isAvailable":true,"maxAvailableQuantity":58,"maxAllowedQuantity":100,"breadcrumbs":[{"code":"7","name":"Băuturi","slug":"7-bauturi-si-tutun"},{"code":"706","name":"Băuturi spirtoase","slug":"706-bauturi-spirtoase"},{"code":"70604","name":"Cocktail și premix","slug":"70604-cocktail-si-premix"},{"code":"100110292","name":"Seltzer cu aromă de piersică 4.5% alc. doză 0.33l","slug":"100110292-wet-seltzer-cu-aroma-de-piersica-4-5-alc-doza-0-33l"}],"activePromotion":null,"saveMe":null,"labels":[],"geniusPrice":null,"geniusUnitPricePerLabel":null,"banner":null,"discountLabel":null,"geniusDiscountLabel":null,"badge":null},{"code":"100149015","variantCode":"100149015","name":"Seltzer cu aromă de lime 4.5% alc. 4x0.33l (3+1)","slug":"100149015-wet-seltzer-cu-aroma-de-lime-4-5-alc-4x0-33l-3-1","unitPriceLabel":"12,93 Lei/l","brand":"Wet","brandCode":"1834","brandFilterCode":"wet-b1838","sku":"100149015","price":17.07,"originalPrice":null,"currencyCode":"RON","currency":"Lei","image":{"thumbnail":{"default":"https://cdn.freshful.ro/media/cache/sylius_shop_product_thumbnail/f1/70/815dee4c6c47dd18e4271c0d6ed8.jpg"},"large":{"default":"https://cdn.freshful.ro/media/cache/freshful_large/f1/70/815dee4c6c47dd18e4271c0d6ed8.jpg"},"extralarge":{"default":"https://cdn.freshful.ro/media/cache/sylius_shop_product_original/f1/70/815dee4c6c47dd18e4271c0d6ed8.jpg"}},"label":null,"tags":[],"isAvailable":true,"maxAvailableQuantity":63,"maxAllowedQuantity":100,"breadcrumbs":[{"code":"7","name":"Băuturi","slug":"7-bauturi-si-tutun"},{"code":"706","name":"Băuturi spirtoase","slug":"706-bauturi-spirtoase"},{"code":"70604","name":"Cocktail și premix","slug":"70604-cocktail-si-premix"},{"code":"100149015","name":"Seltzer cu aromă de lime 4.5% alc. 4x0.33l (3+1)","slug":"100149015-wet-seltzer-cu-aroma-de-lime-4-5-alc-4x0-33l-3-1"}],"activePromotion":null,"saveMe":null,"labels":[],"geniusPrice":null,"geniusUnitPricePerLabel":null,"banner":null,"discountLabel":null,"geniusDiscountLabel":null,"badge":null},{"code":"100110291","variantCode":"100110291","name":"Seltzer cu aromă de lime 4.5% alc. doză 0.33l","slug":"100110291-wet-seltzer-cu-aroma-de-lime-4-5-alc-doza-0-33l","unitPriceLabel":"17,24 Lei/l","brand":"Wet","brandCode":"1834","brandFilterCode":"wet-b1838","sku":"100110291","price":5.69,"originalPrice":null,"currencyCode":"RON","currency":"Lei","image":{"thumbnail":{"default":"https://cdn.freshful.ro/media/cache/sylius_shop_product_thumbnail/7d/f1/98f89f3e0de9323a20028ccc0b63.jpg"},"large":{"default":"https://cdn.freshful.ro/media/cache/freshful_large/7d/f1/98f89f3e0de9323a20028ccc0b63.jpg"},"extralarge":{"default":"https://cdn.freshful.ro/media/cache/sylius_shop_product_original/7d/f1/98f89f3e0de9323a20028ccc0b63.jpg"}},"label":null,"tags":[],"isAvailable":true,"maxAvailableQuantity":100,"maxAllowedQuantity":100,"breadcrumbs":[{"code":"7","name":"Băuturi","slug":"7-bauturi-si-tutun"},{"code":"706","name":"Băuturi spirtoase","slug":"706-bauturi-spirtoase"},{"code":"70604","name":"Cocktail și premix","slug":"70604-cocktail-si-premix"},{"code":"100110291","name":"Seltzer cu aromă de lime 4.5% alc. doză 0.33l","slug":"100110291-wet-seltzer-cu-aroma-de-lime-4-5-alc-doza-0-33l"}],"activePromotion":null,"saveMe":null,"labels":[],"geniusPrice":null,"geniusUnitPricePerLabel":null,"banner":null,"discountLabel":null,"geniusDiscountLabel":null,"badge":null}],"filters":{"countSelected":0,"items":[{"code":"promotion","name":"Promoții","countSelected":0,"values":[{"code":"special-bacanie-bauturi-mar23","name":"Prețuri speciale pentru Ziua Femeii","isSelected":false,"count":1}]},{"code":"brand","name":"Brand","countSelected":0,"values":[{"code":"mg-b1239","name":"MG","isSelected":false,"count":5},{"code":"stalinskaya-music-b1406","name":"Stalinskaya Music","isSelected":false,"count":3},{"code":"underberg-b2031","name":"Underberg","isSelected":false,"count":1},{"code":"wet-b1838","name":"Wet","isSelected":false,"count":7}]}]},"orderBy":[{"field":"price","direction":"asc","name":"Preț crescător","isSelected":false},{"field":"price","direction":"desc","name":"Preț descrescător","isSelected":false},{"field":"popularity","direction":"desc","name":"Cele mai populare","isSelected":true},{"field":"category","direction":"asc","name":"Categorie","isSelected":false}],"metaTitle":"Cocktail și premix - Gamă variată","metaDescription":"Vrei Cocktail și premix? Alege dintr-o gamă variată. Comanzi simplu și ai livrare rapidă, calitate și prospețime. Hai pe Freshful.ro","metaKeywords":null,"banners":[]}}