{"type":"subcategory","payload":{"analyticsListId":"category_70602-lichior","analyticsListName":"Category - Lichior","name":"Lichior","slug":"70602-lichior","image":null,"breadcrumbs":[{"code":"7","name":"Băuturi","slug":"7-bauturi-si-tutun"},{"code":"706","name":"Băuturi spirtoase","slug":"706-bauturi-spirtoase"},{"code":"70602","name":"Lichior","slug":"70602-lichior"}],"slots":[],"page":1,"limit":10,"pages":4,"count":38,"siblings":[{"name":"Băuturi necarbogazoase și siropuri","slug":"701-bauturi-necarbogazoase-si-siropuri","selected":false},{"name":"Apă","slug":"702-apa","selected":false},{"name":"Băuturi carbogazoase","slug":"703-bauturi-carbogazoase","selected":false},{"name":"Bere","slug":"704-bere","selected":false},{"name":"Vinuri","slug":"705-vinuri","selected":false},{"name":"Băuturi spirtoase","slug":"706-bauturi-spirtoase","selected":true},{"name":"Tutun","slug":"707-tutun","selected":false}],"children":[{"name":"Toate produsele","slug":"706-bauturi-spirtoase","selected":false},{"name":"Aperitive","slug":"70601-aperitive","selected":false},{"name":"Lichior","slug":"70602-lichior","selected":true},{"name":"Palincă, țuică și băuturi tradiționale","slug":"70603-palinca-tuica-si-alte-bauturi-traditionale","selected":false},{"name":"Cocktail și premix","slug":"70604-cocktail-si-premix","selected":false},{"name":"Whisky","slug":"70605-whisky","selected":false},{"name":"Vodka","slug":"70606-vodka","selected":false},{"name":"Rom","slug":"70607-rom","selected":false},{"name":"Tequila","slug":"70608-tequilla","selected":false},{"name":"Gin","slug":"70609-gin","selected":false},{"name":"Coniac și brandy","slug":"70610-coniac-si-brandy","selected":false}],"products":[{"code":"100122155","variantCode":"100122155","name":"Lichior cafea 15.5% alc. 0.5l","slug":"100122155-sheridan-s-lichior-cafea-15-5-alc-0-5l","unitPriceLabel":"111,98 Lei/l","brand":"Sheridan's","brandCode":"2123","brandFilterCode":"sheridan-s-b2127","sku":"100122155","price":55.99,"originalPrice":66.99,"currencyCode":"RON","currency":"Lei","image":{"thumbnail":{"default":"https://cdn.freshful.ro/media/cache/sylius_shop_product_thumbnail/d3/bf/1f22afa570fcbc89a7859dbd9b8d.jpg"},"large":{"default":"https://cdn.freshful.ro/media/cache/freshful_large/d3/bf/1f22afa570fcbc89a7859dbd9b8d.jpg"},"extralarge":{"default":"https://cdn.freshful.ro/media/cache/sylius_shop_product_original/d3/bf/1f22afa570fcbc89a7859dbd9b8d.jpg"}},"label":{"text":"-16%","backgroundColor":"#FF9903","textColor":"#FFFFFF"},"tags":[],"isAvailable":true,"maxAvailableQuantity":63,"maxAllowedQuantity":100,"breadcrumbs":[{"code":"7","name":"Băuturi","slug":"7-bauturi-si-tutun"},{"code":"706","name":"Băuturi spirtoase","slug":"706-bauturi-spirtoase"},{"code":"70602","name":"Lichior","slug":"70602-lichior"},{"code":"100122155","name":"Lichior cafea 15.5% alc. 0.5l","slug":"100122155-sheridan-s-lichior-cafea-15-5-alc-0-5l"}],"activePromotion":{"code":"special-bacanie-bauturi-mar23","name":"Preț redus","targetQuantity":null},"saveMe":null,"labels":[{"type":"v1","items":[{"text":"-16%","backgroundColor":"#FF9903","textColor":"#FFFFFF"}]}],"geniusPrice":null,"geniusUnitPricePerLabel":null,"banner":{"text":"Super preț","textColor":"#FF0000","bgColor":"#FFF2EC","icon":null,"link":"https://www.freshful.ro/oferte/special-bacanie-bauturi-mar23","type":"promo","analyticsEventType":"select_promotion","analyticsEventPayload":{"promotion_id":"special-bacanie-bauturi-mar23","promotion_name":"Prețuri speciale pentru Ziua Femeii"}},"discountLabel":"Economisești 16%","geniusDiscountLabel":null,"badge":null},{"code":"100074464","variantCode":"100074464","name":"Lichior Triple Sec 18% alc. 0.7l","slug":"100074464-bv-land-lichior-triple-sec-18-alc-0-7l","unitPriceLabel":"71,41 Lei/l","brand":"BV Land","brandCode":"1235","brandFilterCode":"bv-land-b1236","sku":"100074464","price":49.99,"originalPrice":null,"currencyCode":"RON","currency":"Lei","image":{"thumbnail":{"default":"https://cdn.freshful.ro/media/cache/sylius_shop_product_thumbnail/b9/3d/54e225a4fa6bf6f9e1dd3d3b49b8.jpg"},"large":{"default":"https://cdn.freshful.ro/media/cache/freshful_large/b9/3d/54e225a4fa6bf6f9e1dd3d3b49b8.jpg"},"extralarge":{"default":"https://cdn.freshful.ro/media/cache/sylius_shop_product_original/b9/3d/54e225a4fa6bf6f9e1dd3d3b49b8.jpg"}},"label":{"text":"Profită acum","backgroundColor":"#FF9903","textColor":"#FFFFFF"},"tags":[],"isAvailable":true,"maxAvailableQuantity":48,"maxAllowedQuantity":100,"breadcrumbs":[{"code":"7","name":"Băuturi","slug":"7-bauturi-si-tutun"},{"code":"706","name":"Băuturi spirtoase","slug":"706-bauturi-spirtoase"},{"code":"70602","name":"Lichior","slug":"70602-lichior"},{"code":"100074464","name":"Lichior Triple Sec 18% alc. 0.7l","slug":"100074464-bv-land-lichior-triple-sec-18-alc-0-7l"}],"activePromotion":{"code":"special-bacanie-bauturi-mar23","name":"Preț avantajos","targetQuantity":null},"saveMe":null,"labels":[{"type":"v1","items":[{"text":"Profită acum","backgroundColor":"#FF9903","textColor":"#FFFFFF"}]}],"geniusPrice":null,"geniusUnitPricePerLabel":null,"banner":{"text":"Preț avantajos","textColor":"#F95510","bgColor":"#FEF1CD","icon":null,"link":"https://www.freshful.ro/oferte/special-bacanie-bauturi-mar23","type":"promo","analyticsEventType":"select_promotion","analyticsEventPayload":{"promotion_id":"special-bacanie-bauturi-mar23","promotion_name":"Prețuri speciale pentru Ziua Femeii"}},"discountLabel":null,"geniusDiscountLabel":null,"badge":null},{"code":"100071663","variantCode":"100071663","name":"Lichior cremă de tiramisu 15% alc. 0.5l","slug":"100071663-angelli-lichior-crema-de-tiramisu-15-alc-0-5l","unitPriceLabel":"43,98 Lei/l","brand":"Angelli","brandCode":"1108","brandFilterCode":"angelli-b1109","sku":"100071663","price":21.99,"originalPrice":null,"currencyCode":"RON","currency":"Lei","image":{"thumbnail":{"default":"https://cdn.freshful.ro/media/cache/sylius_shop_product_thumbnail/a8/ca/ca742f84397292326d75c8a51c01.jpg"},"large":{"default":"https://cdn.freshful.ro/media/cache/freshful_large/a8/ca/ca742f84397292326d75c8a51c01.jpg"},"extralarge":{"default":"https://cdn.freshful.ro/media/cache/sylius_shop_product_original/a8/ca/ca742f84397292326d75c8a51c01.jpg"}},"label":{"text":"Profită acum","backgroundColor":"#FF9903","textColor":"#FFFFFF"},"tags":[],"isAvailable":true,"maxAvailableQuantity":41,"maxAllowedQuantity":100,"breadcrumbs":[{"code":"7","name":"Băuturi","slug":"7-bauturi-si-tutun"},{"code":"706","name":"Băuturi spirtoase","slug":"706-bauturi-spirtoase"},{"code":"70602","name":"Lichior","slug":"70602-lichior"},{"code":"100071663","name":"Lichior cremă de tiramisu 15% alc. 0.5l","slug":"100071663-angelli-lichior-crema-de-tiramisu-15-alc-0-5l"}],"activePromotion":{"code":"special-bacanie-bauturi-mar23","name":"Preț avantajos","targetQuantity":null},"saveMe":null,"labels":[{"type":"v1","items":[{"text":"Profită acum","backgroundColor":"#FF9903","textColor":"#FFFFFF"}]}],"geniusPrice":null,"geniusUnitPricePerLabel":null,"banner":{"text":"Preț avantajos","textColor":"#F95510","bgColor":"#FEF1CD","icon":null,"link":"https://www.freshful.ro/oferte/special-bacanie-bauturi-mar23","type":"promo","analyticsEventType":"select_promotion","analyticsEventPayload":{"promotion_id":"special-bacanie-bauturi-mar23","promotion_name":"Prețuri speciale pentru Ziua Femeii"}},"discountLabel":null,"geniusDiscountLabel":null,"badge":null},{"code":"100113196","variantCode":"100113196","name":"Vișinată 30% alc. 0.7l","slug":"100113196-bran-visinata-30-alc-0-7l","unitPriceLabel":"99,99 Lei/l","brand":"Bran","brandCode":"1871","brandFilterCode":"bran-b1878","sku":"100113196","price":69.99,"originalPrice":null,"currencyCode":"RON","currency":"Lei","image":{"thumbnail":{"default":"https://cdn.freshful.ro/media/cache/sylius_shop_product_thumbnail/9d/0d/0d59f58d637c65565267075271d2.jpg"},"large":{"default":"https://cdn.freshful.ro/media/cache/freshful_large/9d/0d/0d59f58d637c65565267075271d2.jpg"},"extralarge":{"default":"https://cdn.freshful.ro/media/cache/sylius_shop_product_original/9d/0d/0d59f58d637c65565267075271d2.jpg"}},"label":{"text":"Profită acum","backgroundColor":"#FF9903","textColor":"#FFFFFF"},"tags":[],"isAvailable":true,"maxAvailableQuantity":16,"maxAllowedQuantity":100,"breadcrumbs":[{"code":"7","name":"Băuturi","slug":"7-bauturi-si-tutun"},{"code":"706","name":"Băuturi spirtoase","slug":"706-bauturi-spirtoase"},{"code":"70602","name":"Lichior","slug":"70602-lichior"},{"code":"100113196","name":"Vișinată 30% alc. 0.7l","slug":"100113196-bran-visinata-30-alc-0-7l"}],"activePromotion":{"code":"special-bacanie-bauturi-mar23","name":"Preț avantajos","targetQuantity":null},"saveMe":null,"labels":[{"type":"v1","items":[{"text":"Profită acum","backgroundColor":"#FF9903","textColor":"#FFFFFF"}]}],"geniusPrice":null,"geniusUnitPricePerLabel":null,"banner":{"text":"Preț avantajos","textColor":"#F95510","bgColor":"#FEF1CD","icon":null,"link":"https://www.freshful.ro/oferte/special-bacanie-bauturi-mar23","type":"promo","analyticsEventType":"select_promotion","analyticsEventPayload":{"promotion_id":"special-bacanie-bauturi-mar23","promotion_name":"Prețuri speciale pentru Ziua Femeii"}},"discountLabel":null,"geniusDiscountLabel":null,"badge":null},{"code":"100129411","variantCode":"100129411","name":"Afinată & Vișinată 30% alc. 2x45ml","slug":"100129411-bran-afinata-visinata-30-alc-2x45ml","unitPriceLabel":"333,22 Lei/buc","brand":"Bran","brandCode":"1871","brandFilterCode":"bran-b1878","sku":"100129411","price":29.99,"originalPrice":35.5,"currencyCode":"RON","currency":"Lei","image":{"thumbnail":{"default":"https://cdn.freshful.ro/media/cache/sylius_shop_product_thumbnail/0b/6f/e97bddcb3b186f64d772fcf0a3a9.jpg"},"large":{"default":"https://cdn.freshful.ro/media/cache/freshful_large/0b/6f/e97bddcb3b186f64d772fcf0a3a9.jpg"},"extralarge":{"default":"https://cdn.freshful.ro/media/cache/sylius_shop_product_original/0b/6f/e97bddcb3b186f64d772fcf0a3a9.jpg"}},"label":{"text":"-15%","backgroundColor":"#FF9903","textColor":"#FFFFFF"},"tags":[],"isAvailable":true,"maxAvailableQuantity":7,"maxAllowedQuantity":100,"breadcrumbs":[{"code":"7","name":"Băuturi","slug":"7-bauturi-si-tutun"},{"code":"706","name":"Băuturi spirtoase","slug":"706-bauturi-spirtoase"},{"code":"70602","name":"Lichior","slug":"70602-lichior"},{"code":"100129411","name":"Afinată & Vișinată 30% alc. 2x45ml","slug":"100129411-bran-afinata-visinata-30-alc-2x45ml"}],"activePromotion":{"code":"special-bacanie-bauturi-mar23","name":"Preț redus","targetQuantity":null},"saveMe":null,"labels":[{"type":"v1","items":[{"text":"-15%","backgroundColor":"#FF9903","textColor":"#FFFFFF"}]}],"geniusPrice":null,"geniusUnitPricePerLabel":null,"banner":{"text":"Super preț","textColor":"#FF0000","bgColor":"#FFF2EC","icon":null,"link":"https://www.freshful.ro/oferte/special-bacanie-bauturi-mar23","type":"promo","analyticsEventType":"select_promotion","analyticsEventPayload":{"promotion_id":"special-bacanie-bauturi-mar23","promotion_name":"Prețuri speciale pentru Ziua Femeii"}},"discountLabel":"Economisești 15%","geniusDiscountLabel":null,"badge":null},{"code":"100149630","variantCode":"100149630","name":"Lichior digestiv din plante 0.7l","slug":"100149630-unicum-szilva-lichior-digestiv-din-plante-0-7l","unitPriceLabel":"122,84 Lei/l","brand":"Unicum Szilva","brandCode":"2930","brandFilterCode":"unicum-szilva-b3040","sku":"100149630","price":85.99,"originalPrice":null,"currencyCode":"RON","currency":"Lei","image":{"thumbnail":{"default":"https://cdn.freshful.ro/media/cache/sylius_shop_product_thumbnail/e5/20/1f7510e8cdc41fb46424c6105521.jpg"},"large":{"default":"https://cdn.freshful.ro/media/cache/freshful_large/e5/20/1f7510e8cdc41fb46424c6105521.jpg"},"extralarge":{"default":"https://cdn.freshful.ro/media/cache/sylius_shop_product_original/e5/20/1f7510e8cdc41fb46424c6105521.jpg"}},"label":{"text":"Profită acum","backgroundColor":"#FF9903","textColor":"#FFFFFF"},"tags":[],"isAvailable":true,"maxAvailableQuantity":39,"maxAllowedQuantity":100,"breadcrumbs":[{"code":"7","name":"Băuturi","slug":"7-bauturi-si-tutun"},{"code":"706","name":"Băuturi spirtoase","slug":"706-bauturi-spirtoase"},{"code":"70602","name":"Lichior","slug":"70602-lichior"},{"code":"100149630","name":"Lichior digestiv din plante 0.7l","slug":"100149630-unicum-szilva-lichior-digestiv-din-plante-0-7l"}],"activePromotion":{"code":"superpreturile-saptamanii","name":"Preț avantajos","targetQuantity":null},"saveMe":null,"labels":[{"type":"v1","items":[{"text":"Profită acum","backgroundColor":"#FF9903","textColor":"#FFFFFF"}]}],"geniusPrice":null,"geniusUnitPricePerLabel":null,"banner":{"text":"Preț avantajos","textColor":"#F95510","bgColor":"#FEF1CD","icon":null,"link":"https://www.freshful.ro/oferte/superpreturile-saptamanii","type":"promo","analyticsEventType":"select_promotion","analyticsEventPayload":{"promotion_id":"superpreturile-saptamanii","promotion_name":"Superprețurile zilei"}},"discountLabel":null,"geniusDiscountLabel":null,"badge":null},{"code":"100113199","variantCode":"100113199","name":"Căpșunată 30% alc. 0.7l","slug":"100113199-bran-capsunata-30-alc-0-7l","unitPriceLabel":"99,99 Lei/l","brand":"Bran","brandCode":"1871","brandFilterCode":"bran-b1878","sku":"100113199","price":69.99,"originalPrice":null,"currencyCode":"RON","currency":"Lei","image":{"thumbnail":{"default":"https://cdn.freshful.ro/media/cache/sylius_shop_product_thumbnail/0e/00/a35de637738689d8c8721aa25e66.jpg"},"large":{"default":"https://cdn.freshful.ro/media/cache/freshful_large/0e/00/a35de637738689d8c8721aa25e66.jpg"},"extralarge":{"default":"https://cdn.freshful.ro/media/cache/sylius_shop_product_original/0e/00/a35de637738689d8c8721aa25e66.jpg"}},"label":{"text":"Profită acum","backgroundColor":"#FF9903","textColor":"#FFFFFF"},"tags":[],"isAvailable":true,"maxAvailableQuantity":11,"maxAllowedQuantity":100,"breadcrumbs":[{"code":"7","name":"Băuturi","slug":"7-bauturi-si-tutun"},{"code":"706","name":"Băuturi spirtoase","slug":"706-bauturi-spirtoase"},{"code":"70602","name":"Lichior","slug":"70602-lichior"},{"code":"100113199","name":"Căpșunată 30% alc. 0.7l","slug":"100113199-bran-capsunata-30-alc-0-7l"}],"activePromotion":{"code":"special-bacanie-bauturi-mar23","name":"Preț avantajos","targetQuantity":null},"saveMe":null,"labels":[{"type":"v1","items":[{"text":"Profită acum","backgroundColor":"#FF9903","textColor":"#FFFFFF"}]}],"geniusPrice":null,"geniusUnitPricePerLabel":null,"banner":{"text":"Preț avantajos","textColor":"#F95510","bgColor":"#FEF1CD","icon":null,"link":"https://www.freshful.ro/oferte/special-bacanie-bauturi-mar23","type":"promo","analyticsEventType":"select_promotion","analyticsEventPayload":{"promotion_id":"special-bacanie-bauturi-mar23","promotion_name":"Prețuri speciale pentru Ziua Femeii"}},"discountLabel":null,"geniusDiscountLabel":null,"badge":null},{"code":"100138322","variantCode":"100138322","name":"Lichior Hibiscus & Red Tea 37% alc. 0.7l","slug":"100138322-tatratea-lichior-hibiscus-red-tea-37-alc-0-7l","unitPriceLabel":"151,7 Lei/l","brand":"Tatratea","brandCode":"2643","brandFilterCode":"tatratea-b2647","sku":"100138322","price":106.19,"originalPrice":null,"currencyCode":"RON","currency":"Lei","image":{"thumbnail":{"default":"https://cdn.freshful.ro/media/cache/sylius_shop_product_thumbnail/d0/ac/d91db47f77f109328c3fe8be6e79.jpg"},"large":{"default":"https://cdn.freshful.ro/media/cache/freshful_large/d0/ac/d91db47f77f109328c3fe8be6e79.jpg"},"extralarge":{"default":"https://cdn.freshful.ro/media/cache/sylius_shop_product_original/d0/ac/d91db47f77f109328c3fe8be6e79.jpg"}},"label":{"text":"Profită acum","backgroundColor":"#FF9903","textColor":"#FFFFFF"},"tags":[],"isAvailable":true,"maxAvailableQuantity":14,"maxAllowedQuantity":100,"breadcrumbs":[{"code":"7","name":"Băuturi","slug":"7-bauturi-si-tutun"},{"code":"706","name":"Băuturi spirtoase","slug":"706-bauturi-spirtoase"},{"code":"70602","name":"Lichior","slug":"70602-lichior"},{"code":"100138322","name":"Lichior Hibiscus & Red Tea 37% alc. 0.7l","slug":"100138322-tatratea-lichior-hibiscus-red-tea-37-alc-0-7l"}],"activePromotion":{"code":"freshful-top-deals-2023","name":"Preț avantajos","targetQuantity":null},"saveMe":null,"labels":[{"type":"v1","items":[{"text":"Profită acum","backgroundColor":"#FF9903","textColor":"#FFFFFF"}]}],"geniusPrice":null,"geniusUnitPricePerLabel":null,"banner":{"text":"Preț avantajos","textColor":"#F95510","bgColor":"#FEF1CD","icon":null,"link":"https://www.freshful.ro/oferte/freshful-top-deals-2023","type":"promo","analyticsEventType":"select_promotion","analyticsEventPayload":{"promotion_id":"freshful-top-deals-2023","promotion_name":"Profită de Top Deals"}},"discountLabel":null,"geniusDiscountLabel":null,"badge":null},{"code":"100149627","variantCode":"100149627","name":"Lichior Original Irish 15% alc. 1l","slug":"100149627-baileys-lichior-original-irish-15-alc-1l","unitPriceLabel":"99,95 Lei/l","brand":"Baileys","brandCode":"1264","brandFilterCode":"baileys-b1278","sku":"100149627","price":99.95,"originalPrice":null,"currencyCode":"RON","currency":"Lei","image":{"thumbnail":{"default":"https://cdn.freshful.ro/media/cache/sylius_shop_product_thumbnail/7c/96/aca92b69ebf351c7cdebeffae82b.jpg"},"large":{"default":"https://cdn.freshful.ro/media/cache/freshful_large/7c/96/aca92b69ebf351c7cdebeffae82b.jpg"},"extralarge":{"default":"https://cdn.freshful.ro/media/cache/sylius_shop_product_original/7c/96/aca92b69ebf351c7cdebeffae82b.jpg"}},"label":null,"tags":[],"isAvailable":true,"maxAvailableQuantity":49,"maxAllowedQuantity":100,"breadcrumbs":[{"code":"7","name":"Băuturi","slug":"7-bauturi-si-tutun"},{"code":"706","name":"Băuturi spirtoase","slug":"706-bauturi-spirtoase"},{"code":"70602","name":"Lichior","slug":"70602-lichior"},{"code":"100149627","name":"Lichior Original Irish 15% alc. 1l","slug":"100149627-baileys-lichior-original-irish-15-alc-1l"}],"activePromotion":null,"saveMe":null,"labels":[],"geniusPrice":null,"geniusUnitPricePerLabel":null,"banner":null,"discountLabel":null,"geniusDiscountLabel":null,"badge":null},{"code":"100080149","variantCode":"100080149","name":"Cremă de whisky 16% alc. 0.5l","slug":"100080149-zarea-royal-crema-de-whisky-16-alc-0-5l","unitPriceLabel":"55,98 Lei/l","brand":"Zarea Royal","brandCode":"1382","brandFilterCode":"zarea-royal-b1386","sku":"100080149","price":27.99,"originalPrice":null,"currencyCode":"RON","currency":"Lei","image":{"thumbnail":{"default":"https://cdn.freshful.ro/media/cache/sylius_shop_product_thumbnail/91/e6/ea87b996d6ca5997240449a41302.jpg"},"large":{"default":"https://cdn.freshful.ro/media/cache/freshful_large/91/e6/ea87b996d6ca5997240449a41302.jpg"},"extralarge":{"default":"https://cdn.freshful.ro/media/cache/sylius_shop_product_original/91/e6/ea87b996d6ca5997240449a41302.jpg"}},"label":null,"tags":[],"isAvailable":true,"maxAvailableQuantity":38,"maxAllowedQuantity":100,"breadcrumbs":[{"code":"7","name":"Băuturi","slug":"7-bauturi-si-tutun"},{"code":"706","name":"Băuturi spirtoase","slug":"706-bauturi-spirtoase"},{"code":"70602","name":"Lichior","slug":"70602-lichior"},{"code":"100080149","name":"Cremă de whisky 16% alc. 0.5l","slug":"100080149-zarea-royal-crema-de-whisky-16-alc-0-5l"}],"activePromotion":null,"saveMe":null,"labels":[],"geniusPrice":null,"geniusUnitPricePerLabel":null,"banner":null,"discountLabel":null,"geniusDiscountLabel":null,"badge":null}],"filters":{"countSelected":0,"items":[{"code":"promotion","name":"Promoții","countSelected":0,"values":[{"code":"special-bacanie-bauturi-mar23","name":"Prețuri speciale pentru Ziua Femeii","isSelected":false,"count":6},{"code":"freshful-top-deals-2023","name":"Profită de Top Deals","isSelected":false,"count":1},{"code":"superpreturile-saptamanii","name":"Superprețurile zilei","isSelected":false,"count":1}]},{"code":"brand","name":"Brand","countSelected":0,"values":[{"code":"amaro-montenegro-b2345","name":"Amaro Montenegro","isSelected":false,"count":1},{"code":"angelli-b1109","name":"Angelli","isSelected":false,"count":2},{"code":"bailey-s-b1786","name":"Bailey's","isSelected":false,"count":1},{"code":"baileys-b1278","name":"Baileys","isSelected":false,"count":1},{"code":"bran-b1878","name":"Bran","isSelected":false,"count":6},{"code":"bv-land-b1236","name":"BV Land","isSelected":false,"count":5},{"code":"carolans-b1333","name":"Carolans","isSelected":false,"count":1},{"code":"choya-b2025","name":"Choya","isSelected":false,"count":1},{"code":"lazzaroni-b1318","name":"Lazzaroni","isSelected":false,"count":1},{"code":"malibu-b1341","name":"Malibu","isSelected":false,"count":1},{"code":"mozart-b3001","name":"Mozart","isSelected":false,"count":1},{"code":"rose-mary-b1405","name":"Rose Mary","isSelected":false,"count":1},{"code":"samaro-b1879","name":"Samaro","isSelected":false,"count":1},{"code":"sheridan-s-b2127","name":"Sheridan's","isSelected":false,"count":1},{"code":"sheridans-b1280","name":"Sheridans","isSelected":false,"count":1},{"code":"tatratea-b2647","name":"Tatratea","isSelected":false,"count":4},{"code":"unicum-szilva-b3040","name":"Unicum Szilva","isSelected":false,"count":3},{"code":"zarea-royal-b1386","name":"Zarea Royal","isSelected":false,"count":2},{"code":"zetea-b1855","name":"Zetea","isSelected":false,"count":4}]}]},"orderBy":[{"field":"price","direction":"asc","name":"Preț crescător","isSelected":false},{"field":"price","direction":"desc","name":"Preț descrescător","isSelected":false},{"field":"popularity","direction":"desc","name":"Cele mai populare","isSelected":true},{"field":"category","direction":"asc","name":"Categorie","isSelected":false}],"metaTitle":"Lichior - Gamă variată","metaDescription":"Vrei Lichior? Alege dintr-o gamă variată. Comanzi simplu și ai livrare rapidă, calitate și prospețime. Hai pe Freshful.ro","metaKeywords":null,"banners":[]}}