{"type":"subcategory","payload":{"analyticsListId":"category_70609-gin","analyticsListName":"Category - Gin","name":"Gin","slug":"70609-gin","image":null,"breadcrumbs":[{"code":"7","name":"Băuturi","slug":"7-bauturi-si-tutun"},{"code":"706","name":"Băuturi spirtoase","slug":"706-bauturi-spirtoase"},{"code":"70609","name":"Gin","slug":"70609-gin"}],"slots":[],"page":1,"limit":10,"pages":7,"count":61,"siblings":[{"name":"Băuturi necarbogazoase și siropuri","slug":"701-bauturi-necarbogazoase-si-siropuri","selected":false},{"name":"Apă","slug":"702-apa","selected":false},{"name":"Băuturi carbogazoase","slug":"703-bauturi-carbogazoase","selected":false},{"name":"Bere","slug":"704-bere","selected":false},{"name":"Vinuri","slug":"705-vinuri","selected":false},{"name":"Băuturi spirtoase","slug":"706-bauturi-spirtoase","selected":true},{"name":"Tutun","slug":"707-tutun","selected":false}],"children":[{"name":"Toate produsele","slug":"706-bauturi-spirtoase","selected":false},{"name":"Aperitive","slug":"70601-aperitive","selected":false},{"name":"Lichior","slug":"70602-lichior","selected":false},{"name":"Palincă, țuică și băuturi tradiționale","slug":"70603-palinca-tuica-si-alte-bauturi-traditionale","selected":false},{"name":"Cocktail și premix","slug":"70604-cocktail-si-premix","selected":false},{"name":"Whisky","slug":"70605-whisky","selected":false},{"name":"Vodka","slug":"70606-vodka","selected":false},{"name":"Rom","slug":"70607-rom","selected":false},{"name":"Tequila","slug":"70608-tequilla","selected":false},{"name":"Gin","slug":"70609-gin","selected":true},{"name":"Coniac și brandy","slug":"70610-coniac-si-brandy","selected":false}],"products":[{"code":"100080742","variantCode":"100080742","name":"Gin London Dry Pink 37.5% alc. 0.7l","slug":"100080742-wembley-gin-london-dry-pink-37-5-alc-0-7l","unitPriceLabel":"58,56 Lei/l","brand":"Wembley","brandCode":"1397","brandFilterCode":"wembley-b1401","sku":"100080742","price":40.99,"originalPrice":null,"currencyCode":"RON","currency":"Lei","image":{"thumbnail":{"default":"https://cdn.freshful.ro/media/cache/sylius_shop_product_thumbnail/1b/42/81c99a4df607e4ef387997cdc720.jpg"},"large":{"default":"https://cdn.freshful.ro/media/cache/freshful_large/1b/42/81c99a4df607e4ef387997cdc720.jpg"},"extralarge":{"default":"https://cdn.freshful.ro/media/cache/sylius_shop_product_original/1b/42/81c99a4df607e4ef387997cdc720.jpg"}},"label":{"text":"Profită acum","backgroundColor":"#FF9903","textColor":"#FFFFFF"},"tags":[],"isAvailable":true,"maxAvailableQuantity":2,"maxAllowedQuantity":2,"breadcrumbs":[{"code":"7","name":"Băuturi","slug":"7-bauturi-si-tutun"},{"code":"706","name":"Băuturi spirtoase","slug":"706-bauturi-spirtoase"},{"code":"70609","name":"Gin","slug":"70609-gin"},{"code":"100080742","name":"Gin London Dry Pink 37.5% alc. 0.7l","slug":"100080742-wembley-gin-london-dry-pink-37-5-alc-0-7l"}],"activePromotion":{"code":"special-bacanie-bauturi-mar23","name":"Preț avantajos","targetQuantity":null},"saveMe":null,"labels":[{"type":"v1","items":[{"text":"Profită acum","backgroundColor":"#FF9903","textColor":"#FFFFFF"}]}],"geniusPrice":null,"geniusUnitPricePerLabel":null,"banner":{"text":"Preț avantajos","textColor":"#F95510","bgColor":"#FEF1CD","icon":null,"link":"https://www.freshful.ro/oferte/special-bacanie-bauturi-mar23","type":"promo","analyticsEventType":"select_promotion","analyticsEventPayload":{"promotion_id":"special-bacanie-bauturi-mar23","promotion_name":"Prețuri speciale pentru Ziua Femeii"}},"discountLabel":null,"geniusDiscountLabel":null,"badge":null},{"code":"100074644","variantCode":"100074644","name":"Gin Pink 37.5% alc. 0.7l ","slug":"100074644-grant-s-gin-pink-37-5-alc-0-7l","unitPriceLabel":"85,7 Lei/l","brand":"Gordon's","brandCode":"2122","brandFilterCode":"gordon-s-b2126","sku":"100074644","price":59.99,"originalPrice":null,"currencyCode":"RON","currency":"Lei","image":{"thumbnail":{"default":"https://cdn.freshful.ro/media/cache/sylius_shop_product_thumbnail/6a/47/60d0fbf7f4637aae6e99971096ef.jpg"},"large":{"default":"https://cdn.freshful.ro/media/cache/freshful_large/6a/47/60d0fbf7f4637aae6e99971096ef.jpg"},"extralarge":{"default":"https://cdn.freshful.ro/media/cache/sylius_shop_product_original/6a/47/60d0fbf7f4637aae6e99971096ef.jpg"}},"label":{"text":"Profită acum","backgroundColor":"#FF9903","textColor":"#FFFFFF"},"tags":[],"isAvailable":true,"maxAvailableQuantity":2,"maxAllowedQuantity":2,"breadcrumbs":[{"code":"7","name":"Băuturi","slug":"7-bauturi-si-tutun"},{"code":"706","name":"Băuturi spirtoase","slug":"706-bauturi-spirtoase"},{"code":"70609","name":"Gin","slug":"70609-gin"},{"code":"100074644","name":"Gin Pink 37.5% alc. 0.7l ","slug":"100074644-grant-s-gin-pink-37-5-alc-0-7l"}],"activePromotion":{"code":"special-bacanie-bauturi-mar23","name":"Preț avantajos","targetQuantity":null},"saveMe":null,"labels":[{"type":"v1","items":[{"text":"Profită acum","backgroundColor":"#FF9903","textColor":"#FFFFFF"}]}],"geniusPrice":null,"geniusUnitPricePerLabel":null,"banner":{"text":"Preț avantajos","textColor":"#F95510","bgColor":"#FEF1CD","icon":null,"link":"https://www.freshful.ro/oferte/special-bacanie-bauturi-mar23","type":"promo","analyticsEventType":"select_promotion","analyticsEventPayload":{"promotion_id":"special-bacanie-bauturi-mar23","promotion_name":"Prețuri speciale pentru Ziua Femeii"}},"discountLabel":null,"geniusDiscountLabel":null,"badge":null},{"code":"100074645","variantCode":"100074645","name":"Gin No. Ten 47.3% alc. 0.7l","slug":"100074645-tanqueray-gin-no-ten-47-3-alc-0-7l","unitPriceLabel":"228,54 Lei/l","brand":"Tanqueray","brandCode":"1261","brandFilterCode":"tanqueray-b1275","sku":"100074645","price":159.98,"originalPrice":null,"currencyCode":"RON","currency":"Lei","image":{"thumbnail":{"default":"https://cdn.freshful.ro/media/cache/sylius_shop_product_thumbnail/5e/6e/5a4ba4aaec95ecfb09f95b8398ed.jpg"},"large":{"default":"https://cdn.freshful.ro/media/cache/freshful_large/5e/6e/5a4ba4aaec95ecfb09f95b8398ed.jpg"},"extralarge":{"default":"https://cdn.freshful.ro/media/cache/sylius_shop_product_original/5e/6e/5a4ba4aaec95ecfb09f95b8398ed.jpg"}},"label":{"text":"Profită acum","backgroundColor":"#FF9903","textColor":"#FFFFFF"},"tags":[],"isAvailable":true,"maxAvailableQuantity":2,"maxAllowedQuantity":2,"breadcrumbs":[{"code":"7","name":"Băuturi","slug":"7-bauturi-si-tutun"},{"code":"706","name":"Băuturi spirtoase","slug":"706-bauturi-spirtoase"},{"code":"70609","name":"Gin","slug":"70609-gin"},{"code":"100074645","name":"Gin No. Ten 47.3% alc. 0.7l","slug":"100074645-tanqueray-gin-no-ten-47-3-alc-0-7l"}],"activePromotion":{"code":"freshful-top-deals-2023","name":"Preț avantajos","targetQuantity":null},"saveMe":null,"labels":[{"type":"v1","items":[{"text":"Profită acum","backgroundColor":"#FF9903","textColor":"#FFFFFF"}]}],"geniusPrice":null,"geniusUnitPricePerLabel":null,"banner":{"text":"Preț avantajos","textColor":"#F95510","bgColor":"#FEF1CD","icon":null,"link":"https://www.freshful.ro/oferte/freshful-top-deals-2023","type":"promo","analyticsEventType":"select_promotion","analyticsEventPayload":{"promotion_id":"freshful-top-deals-2023","promotion_name":"Profită de Top Deals"}},"discountLabel":null,"geniusDiscountLabel":null,"badge":null},{"code":"100080353","variantCode":"100080353","name":"Gin rose Premium Mediaterranea 37.5% alc. 0.7l","slug":"100080353-larios-gin-rose-premium-mediaterranea-37-5-alc-0-7l","unitPriceLabel":"71,41 Lei/l","brand":"Larios","brandCode":"1308","brandFilterCode":"larios-b1322","sku":"100080353","price":49.99,"originalPrice":null,"currencyCode":"RON","currency":"Lei","image":{"thumbnail":{"default":"https://cdn.freshful.ro/media/cache/sylius_shop_product_thumbnail/e0/3c/f6a454b640ea5316f634e04fc1cf.jpg"},"large":{"default":"https://cdn.freshful.ro/media/cache/freshful_large/e0/3c/f6a454b640ea5316f634e04fc1cf.jpg"},"extralarge":{"default":"https://cdn.freshful.ro/media/cache/sylius_shop_product_original/e0/3c/f6a454b640ea5316f634e04fc1cf.jpg"}},"label":{"text":"Profită acum","backgroundColor":"#FF9903","textColor":"#FFFFFF"},"tags":[],"isAvailable":true,"maxAvailableQuantity":2,"maxAllowedQuantity":2,"breadcrumbs":[{"code":"7","name":"Băuturi","slug":"7-bauturi-si-tutun"},{"code":"706","name":"Băuturi spirtoase","slug":"706-bauturi-spirtoase"},{"code":"70609","name":"Gin","slug":"70609-gin"},{"code":"100080353","name":"Gin rose Premium Mediaterranea 37.5% alc. 0.7l","slug":"100080353-larios-gin-rose-premium-mediaterranea-37-5-alc-0-7l"}],"activePromotion":{"code":"special-bacanie-bauturi-mar23","name":"Preț avantajos","targetQuantity":null},"saveMe":null,"labels":[{"type":"v1","items":[{"text":"Profită acum","backgroundColor":"#FF9903","textColor":"#FFFFFF"}]}],"geniusPrice":null,"geniusUnitPricePerLabel":null,"banner":{"text":"Preț avantajos","textColor":"#F95510","bgColor":"#FEF1CD","icon":null,"link":"https://www.freshful.ro/oferte/special-bacanie-bauturi-mar23","type":"promo","analyticsEventType":"select_promotion","analyticsEventPayload":{"promotion_id":"special-bacanie-bauturi-mar23","promotion_name":"Prețuri speciale pentru Ziua Femeii"}},"discountLabel":null,"geniusDiscountLabel":null,"badge":null},{"code":"100122123","variantCode":"100122123","name":"Gin Saphire 40% alc. 0.7l","slug":"100122123-bombay-gin-saphire-40-alc-0-7l","unitPriceLabel":"125,57 Lei/l","brand":"Bombay","brandCode":"2172","brandFilterCode":"bombay-b2174","sku":"100122123","price":87.9,"originalPrice":null,"currencyCode":"RON","currency":"Lei","image":{"thumbnail":{"default":"https://cdn.freshful.ro/media/cache/sylius_shop_product_thumbnail/ce/f4/592c368bed2aa6c61d1085082fee.jpg"},"large":{"default":"https://cdn.freshful.ro/media/cache/freshful_large/ce/f4/592c368bed2aa6c61d1085082fee.jpg"},"extralarge":{"default":"https://cdn.freshful.ro/media/cache/sylius_shop_product_original/ce/f4/592c368bed2aa6c61d1085082fee.jpg"}},"label":null,"tags":[],"isAvailable":true,"maxAvailableQuantity":2,"maxAllowedQuantity":2,"breadcrumbs":[{"code":"7","name":"Băuturi","slug":"7-bauturi-si-tutun"},{"code":"706","name":"Băuturi spirtoase","slug":"706-bauturi-spirtoase"},{"code":"70609","name":"Gin","slug":"70609-gin"},{"code":"100122123","name":"Gin Saphire 40% alc. 0.7l","slug":"100122123-bombay-gin-saphire-40-alc-0-7l"}],"activePromotion":null,"saveMe":null,"labels":[],"geniusPrice":null,"geniusUnitPricePerLabel":null,"banner":null,"discountLabel":null,"geniusDiscountLabel":null,"badge":null},{"code":"100072138","variantCode":"100072138","name":"Gin Pink 37.5% alc. 0.7l","slug":"100072138-beefeater-gin-pink-37-5-alc-0-7l","unitPriceLabel":"100 Lei/l","brand":"Beefeater","brandCode":"1319","brandFilterCode":"beefeater-b1332","sku":"100072138","price":70,"originalPrice":null,"currencyCode":"RON","currency":"Lei","image":{"thumbnail":{"default":"https://cdn.freshful.ro/media/cache/sylius_shop_product_thumbnail/67/b8/50753e0a51feca76757825c88bd9.jpg"},"large":{"default":"https://cdn.freshful.ro/media/cache/freshful_large/67/b8/50753e0a51feca76757825c88bd9.jpg"},"extralarge":{"default":"https://cdn.freshful.ro/media/cache/sylius_shop_product_original/67/b8/50753e0a51feca76757825c88bd9.jpg"}},"label":null,"tags":[],"isAvailable":true,"maxAvailableQuantity":2,"maxAllowedQuantity":2,"breadcrumbs":[{"code":"7","name":"Băuturi","slug":"7-bauturi-si-tutun"},{"code":"706","name":"Băuturi spirtoase","slug":"706-bauturi-spirtoase"},{"code":"70609","name":"Gin","slug":"70609-gin"},{"code":"100072138","name":"Gin Pink 37.5% alc. 0.7l","slug":"100072138-beefeater-gin-pink-37-5-alc-0-7l"}],"activePromotion":null,"saveMe":null,"labels":[],"geniusPrice":null,"geniusUnitPricePerLabel":null,"banner":null,"discountLabel":null,"geniusDiscountLabel":null,"badge":null},{"code":"100080741","variantCode":"100080741","name":"Gin London Dry 40% alc. 0.7l","slug":"100080741-wembley-gin-london-dry-40-alc-0-7l","unitPriceLabel":"67,13 Lei/l","brand":"Wembley","brandCode":"1397","brandFilterCode":"wembley-b1401","sku":"100080741","price":46.99,"originalPrice":null,"currencyCode":"RON","currency":"Lei","image":{"thumbnail":{"default":"https://cdn.freshful.ro/media/cache/sylius_shop_product_thumbnail/1d/78/e2ee73393ec99fa0cd2e712e58ff.jpg"},"large":{"default":"https://cdn.freshful.ro/media/cache/freshful_large/1d/78/e2ee73393ec99fa0cd2e712e58ff.jpg"},"extralarge":{"default":"https://cdn.freshful.ro/media/cache/sylius_shop_product_original/1d/78/e2ee73393ec99fa0cd2e712e58ff.jpg"}},"label":null,"tags":[],"isAvailable":true,"maxAvailableQuantity":2,"maxAllowedQuantity":2,"breadcrumbs":[{"code":"7","name":"Băuturi","slug":"7-bauturi-si-tutun"},{"code":"706","name":"Băuturi spirtoase","slug":"706-bauturi-spirtoase"},{"code":"70609","name":"Gin","slug":"70609-gin"},{"code":"100080741","name":"Gin London Dry 40% alc. 0.7l","slug":"100080741-wembley-gin-london-dry-40-alc-0-7l"}],"activePromotion":null,"saveMe":null,"labels":[],"geniusPrice":null,"geniusUnitPricePerLabel":null,"banner":null,"discountLabel":null,"geniusDiscountLabel":null,"badge":null},{"code":"100072135","variantCode":"100072135","name":"Gin 40% alc. 0.7l","slug":"100072135-beefeater-gin-40-alc-0-7l","unitPriceLabel":"85,57 Lei/l","brand":"Beefeater","brandCode":"1319","brandFilterCode":"beefeater-b1332","sku":"100072135","price":59.9,"originalPrice":null,"currencyCode":"RON","currency":"Lei","image":{"thumbnail":{"default":"https://cdn.freshful.ro/media/cache/sylius_shop_product_thumbnail/d6/8d/ce70aea064357bde5924ebcd4f96.jpg"},"large":{"default":"https://cdn.freshful.ro/media/cache/freshful_large/d6/8d/ce70aea064357bde5924ebcd4f96.jpg"},"extralarge":{"default":"https://cdn.freshful.ro/media/cache/sylius_shop_product_original/d6/8d/ce70aea064357bde5924ebcd4f96.jpg"}},"label":null,"tags":[],"isAvailable":true,"maxAvailableQuantity":2,"maxAllowedQuantity":2,"breadcrumbs":[{"code":"7","name":"Băuturi","slug":"7-bauturi-si-tutun"},{"code":"706","name":"Băuturi spirtoase","slug":"706-bauturi-spirtoase"},{"code":"70609","name":"Gin","slug":"70609-gin"},{"code":"100072135","name":"Gin 40% alc. 0.7l","slug":"100072135-beefeater-gin-40-alc-0-7l"}],"activePromotion":null,"saveMe":null,"labels":[],"geniusPrice":null,"geniusUnitPricePerLabel":null,"banner":null,"discountLabel":null,"geniusDiscountLabel":null,"badge":null},{"code":"100080743","variantCode":"100080743","name":"Gin London Dry 40% alc. 0.7l + 2 pahare","slug":"100080743-wembley-gin-london-dry-40-alc-0-7l-2-pahare","unitPriceLabel":"69,29 Lei/l","brand":"Wembley","brandCode":"1397","brandFilterCode":"wembley-b1401","sku":"100080743","price":48.5,"originalPrice":null,"currencyCode":"RON","currency":"Lei","image":{"thumbnail":{"default":"https://cdn.freshful.ro/media/cache/sylius_shop_product_thumbnail/93/0b/96b3835b4059e447f741413f90f1.jpg"},"large":{"default":"https://cdn.freshful.ro/media/cache/freshful_large/93/0b/96b3835b4059e447f741413f90f1.jpg"},"extralarge":{"default":"https://cdn.freshful.ro/media/cache/sylius_shop_product_original/93/0b/96b3835b4059e447f741413f90f1.jpg"}},"label":null,"tags":[],"isAvailable":true,"maxAvailableQuantity":2,"maxAllowedQuantity":2,"breadcrumbs":[{"code":"7","name":"Băuturi","slug":"7-bauturi-si-tutun"},{"code":"706","name":"Băuturi spirtoase","slug":"706-bauturi-spirtoase"},{"code":"70609","name":"Gin","slug":"70609-gin"},{"code":"100080743","name":"Gin London Dry 40% alc. 0.7l + 2 pahare","slug":"100080743-wembley-gin-london-dry-40-alc-0-7l-2-pahare"}],"activePromotion":null,"saveMe":null,"labels":[],"geniusPrice":null,"geniusUnitPricePerLabel":null,"banner":null,"discountLabel":null,"geniusDiscountLabel":null,"badge":null},{"code":"100128598","variantCode":"100128598","name":"Gin London Pink Strawberry 0.7l + pahar","slug":"100128598-beefeater-gin-london-pink-strawberry-0-7l-pahar","unitPriceLabel":"118,56 Lei/l","brand":"Beefeater","brandCode":"1319","brandFilterCode":"beefeater-b1332","sku":"100128598","price":82.99,"originalPrice":null,"currencyCode":"RON","currency":"Lei","image":{"thumbnail":{"default":"https://cdn.freshful.ro/media/cache/sylius_shop_product_thumbnail/cd/ec/42f65672796756216b10d5a47ac3.jpg"},"large":{"default":"https://cdn.freshful.ro/media/cache/freshful_large/cd/ec/42f65672796756216b10d5a47ac3.jpg"},"extralarge":{"default":"https://cdn.freshful.ro/media/cache/sylius_shop_product_original/cd/ec/42f65672796756216b10d5a47ac3.jpg"}},"label":null,"tags":[],"isAvailable":true,"maxAvailableQuantity":2,"maxAllowedQuantity":2,"breadcrumbs":[{"code":"7","name":"Băuturi","slug":"7-bauturi-si-tutun"},{"code":"706","name":"Băuturi spirtoase","slug":"706-bauturi-spirtoase"},{"code":"70609","name":"Gin","slug":"70609-gin"},{"code":"100128598","name":"Gin London Pink Strawberry 0.7l + pahar","slug":"100128598-beefeater-gin-london-pink-strawberry-0-7l-pahar"}],"activePromotion":null,"saveMe":null,"labels":[],"geniusPrice":null,"geniusUnitPricePerLabel":null,"banner":null,"discountLabel":null,"geniusDiscountLabel":null,"badge":null}],"filters":{"countSelected":0,"items":[{"code":"promotion","name":"Promoții","countSelected":0,"values":[{"code":"special-bacanie-bauturi-mar23","name":"Prețuri speciale pentru Ziua Femeii","isSelected":false,"count":3},{"code":"freshful-top-deals-2023","name":"Profită de Top Deals","isSelected":false,"count":1}]},{"code":"brand","name":"Brand","countSelected":0,"values":[{"code":"aviation-b1315","name":"Aviation","isSelected":false,"count":1},{"code":"becherovka-b1331","name":"Becherovka","isSelected":false,"count":1},{"code":"beefeater-b1332","name":"Beefeater","isSelected":false,"count":7},{"code":"berry-rudd-b2116","name":"Berry&Rudd","isSelected":false,"count":1},{"code":"bickens-b1701","name":"Bickens","isSelected":false,"count":1},{"code":"blue-d-argent-b3036","name":"Blue d'Argent","isSelected":false,"count":1},{"code":"bombay-b2174","name":"Bombay","isSelected":false,"count":5},{"code":"citadelle-b1233","name":"Citadelle","isSelected":false,"count":1},{"code":"gin-mare-b2358","name":"Gin Mare","isSelected":false,"count":1},{"code":"gordon-s-b2126","name":"Gordon's","isSelected":false,"count":3},{"code":"gunpowder-b1316","name":"Gunpowder","isSelected":false,"count":3},{"code":"hendrick-s-b3039","name":"Hendrick'S ","isSelected":false,"count":2},{"code":"jj-whitley-b2029","name":"JJ Whitley","isSelected":false,"count":2},{"code":"kaspers-b2679","name":"Kaspers","isSelected":false,"count":1},{"code":"knut-hansen-b2117","name":"Knut Hansen","isSelected":false,"count":1},{"code":"larios-b1322","name":"Larios","isSelected":false,"count":2},{"code":"malfy-b3005","name":"Malfy","isSelected":false,"count":3},{"code":"mom-b1234","name":"Mom","isSelected":false,"count":1},{"code":"monkey-47-b1343","name":"Monkey 47","isSelected":false,"count":1},{"code":"ophir-b3041","name":"Ophir","isSelected":false,"count":1},{"code":"puscalupi-b2885","name":"Puscalupi","isSelected":false,"count":1},{"code":"roku-b1326","name":"Roku","isSelected":false,"count":2},{"code":"rose-d-argent-b3037","name":"Rose d'Argent","isSelected":false,"count":1},{"code":"stamford-b928","name":"Stamford","isSelected":false,"count":1},{"code":"tanqueray-b1275","name":"Tanqueray","isSelected":false,"count":4},{"code":"the-botanist-b2123","name":"The botanist","isSelected":false,"count":1},{"code":"wembley-b1401","name":"Wembley","isSelected":false,"count":6},{"code":"whitley-neil-b2033","name":"Whitley Neil","isSelected":false,"count":4},{"code":"whitley-neill-b2987","name":"Whitley Neill","isSelected":false,"count":2}]}]},"orderBy":[{"field":"price","direction":"asc","name":"Preț crescător","isSelected":false},{"field":"price","direction":"desc","name":"Preț descrescător","isSelected":false},{"field":"popularity","direction":"desc","name":"Cele mai populare","isSelected":true},{"field":"category","direction":"asc","name":"Categorie","isSelected":false}],"metaTitle":"Gin - Gamă variată","metaDescription":"Vrei Gin? Alege dintr-o gamă variată. Comanzi simplu și ai livrare rapidă, calitate și prospețime. Hai pe Freshful.ro","metaKeywords":null,"banners":[]}}