{"type":"subcategory","payload":{"analyticsListId":"category_70603-palinca-tuica-si-alte-bauturi-traditionale","analyticsListName":"Category - Palincă, țuică și băuturi tradiționale","name":"Palincă, țuică și băuturi tradiționale","slug":"70603-palinca-tuica-si-alte-bauturi-traditionale","image":null,"breadcrumbs":[{"code":"7","name":"Băuturi","slug":"7-bauturi-si-tutun"},{"code":"706","name":"Băuturi spirtoase","slug":"706-bauturi-spirtoase"},{"code":"70603","name":"Palincă, țuică și băuturi tradiționale","slug":"70603-palinca-tuica-si-alte-bauturi-traditionale"}],"slots":[],"page":1,"limit":10,"pages":5,"count":49,"siblings":[{"name":"Băuturi necarbogazoase și siropuri","slug":"701-bauturi-necarbogazoase-si-siropuri","selected":false},{"name":"Apă","slug":"702-apa","selected":false},{"name":"Băuturi carbogazoase","slug":"703-bauturi-carbogazoase","selected":false},{"name":"Bere","slug":"704-bere","selected":false},{"name":"Vinuri","slug":"705-vinuri","selected":false},{"name":"Băuturi spirtoase","slug":"706-bauturi-spirtoase","selected":true},{"name":"Tutun","slug":"707-tutun","selected":false}],"children":[{"name":"Toate produsele","slug":"706-bauturi-spirtoase","selected":false},{"name":"Aperitive","slug":"70601-aperitive","selected":false},{"name":"Lichior","slug":"70602-lichior","selected":false},{"name":"Palincă, țuică și băuturi tradiționale","slug":"70603-palinca-tuica-si-alte-bauturi-traditionale","selected":true},{"name":"Cocktail și premix","slug":"70604-cocktail-si-premix","selected":false},{"name":"Whisky","slug":"70605-whisky","selected":false},{"name":"Vodka","slug":"70606-vodka","selected":false},{"name":"Rom","slug":"70607-rom","selected":false},{"name":"Tequila","slug":"70608-tequilla","selected":false},{"name":"Gin","slug":"70609-gin","selected":false},{"name":"Coniac și brandy","slug":"70610-coniac-si-brandy","selected":false}],"products":[{"code":"100121168","variantCode":"100121168","name":"Țuică struguri Chardonnay 42% alc. 0.5l","slug":"100121168-issa-tuica-struguri-chardonnay-42-alc-0-5l","unitPriceLabel":"","brand":"Issa","brandCode":"2097","brandFilterCode":"issa-b2101","sku":"100121168","price":79.99,"originalPrice":null,"currencyCode":"RON","currency":"Lei","image":{"thumbnail":{"default":"https://cdn.freshful.ro/media/cache/sylius_shop_product_thumbnail/a2/50/d85b37424434871f3af98fb60b44.jpg"},"large":{"default":"https://cdn.freshful.ro/media/cache/freshful_large/a2/50/d85b37424434871f3af98fb60b44.jpg"},"extralarge":{"default":"https://cdn.freshful.ro/media/cache/sylius_shop_product_original/a2/50/d85b37424434871f3af98fb60b44.jpg"}},"label":{"text":"Profită acum","backgroundColor":"#FF9903","textColor":"#FFFFFF"},"tags":[],"isAvailable":true,"maxAvailableQuantity":9,"maxAllowedQuantity":100,"breadcrumbs":[{"code":"7","name":"Băuturi","slug":"7-bauturi-si-tutun"},{"code":"706","name":"Băuturi spirtoase","slug":"706-bauturi-spirtoase"},{"code":"70603","name":"Palincă, țuică și băuturi tradiționale","slug":"70603-palinca-tuica-si-alte-bauturi-traditionale"},{"code":"100121168","name":"Țuică struguri Chardonnay 42% alc. 0.5l","slug":"100121168-issa-tuica-struguri-chardonnay-42-alc-0-5l"}],"activePromotion":{"code":"special-bacanie-bauturi-mar23","name":"Preț avantajos","targetQuantity":null},"saveMe":null,"labels":[{"type":"v1","items":[{"text":"Profită acum","backgroundColor":"#FF9903","textColor":"#FFFFFF"}]}],"geniusPrice":null,"geniusUnitPricePerLabel":null,"banner":{"text":"Preț avantajos","textColor":"#F95510","bgColor":"#FEF1CD","icon":null,"link":"https://www.freshful.ro/oferte/special-bacanie-bauturi-mar23","type":"promo","analyticsEventType":"select_promotion","analyticsEventPayload":{"promotion_id":"special-bacanie-bauturi-mar23","promotion_name":"Prețuri speciale pentru Ziua Femeii"}},"discountLabel":null,"geniusDiscountLabel":null,"badge":null},{"code":"100135105","variantCode":"100135105","name":"Rachiu de pere 37% alc. 0.7l","slug":"100135105-pater-rachiu-de-pere-37-alc-0-7l","unitPriceLabel":"241,64 Lei/l","brand":"Pater","brandCode":"2594","brandFilterCode":"pater-b2598","sku":"100135105","price":169.15,"originalPrice":null,"currencyCode":"RON","currency":"Lei","image":{"thumbnail":{"default":"https://cdn.freshful.ro/media/cache/sylius_shop_product_thumbnail/15/c6/d213672c1a9f6295b316964384f4.jpg"},"large":{"default":"https://cdn.freshful.ro/media/cache/freshful_large/15/c6/d213672c1a9f6295b316964384f4.jpg"},"extralarge":{"default":"https://cdn.freshful.ro/media/cache/sylius_shop_product_original/15/c6/d213672c1a9f6295b316964384f4.jpg"}},"label":{"text":"Profită acum","backgroundColor":"#FF9903","textColor":"#FFFFFF"},"tags":[{"type":"MadeInRomania","text":"Made In Romania","icon":"https://cdn.freshful.ro/assets/product_tags/made_in_romania.svg","iconPng":"https://cdn.freshful.ro/assets/product_tags/made_in_romania.png","backgroundColor":"#EDF2FD","textColor":"#1653CA"}],"isAvailable":true,"maxAvailableQuantity":23,"maxAllowedQuantity":100,"breadcrumbs":[{"code":"7","name":"Băuturi","slug":"7-bauturi-si-tutun"},{"code":"706","name":"Băuturi spirtoase","slug":"706-bauturi-spirtoase"},{"code":"70603","name":"Palincă, țuică și băuturi tradiționale","slug":"70603-palinca-tuica-si-alte-bauturi-traditionale"},{"code":"100135105","name":"Rachiu de pere 37% alc. 0.7l","slug":"100135105-pater-rachiu-de-pere-37-alc-0-7l"}],"activePromotion":{"code":"superpreturile-saptamanii","name":"Preț avantajos","targetQuantity":null},"saveMe":null,"labels":[{"type":"v1","items":[{"text":"Profită acum","backgroundColor":"#FF9903","textColor":"#FFFFFF"}]}],"geniusPrice":null,"geniusUnitPricePerLabel":null,"banner":{"text":"Preț avantajos","textColor":"#F95510","bgColor":"#FEF1CD","icon":null,"link":"https://www.freshful.ro/oferte/superpreturile-saptamanii","type":"promo","analyticsEventType":"select_promotion","analyticsEventPayload":{"promotion_id":"superpreturile-saptamanii","promotion_name":"Superprețurile zilei"}},"discountLabel":null,"geniusDiscountLabel":null,"badge":null},{"code":"100121167","variantCode":"100121167","name":"Țuică prune 52% alc. 0.5l","slug":"100121167-issa-tuica-prune-52-alc-0-5l","unitPriceLabel":"","brand":"Issa","brandCode":"2097","brandFilterCode":"issa-b2101","sku":"100121167","price":79.99,"originalPrice":null,"currencyCode":"RON","currency":"Lei","image":{"thumbnail":{"default":"https://cdn.freshful.ro/media/cache/sylius_shop_product_thumbnail/a7/44/15b96f6f0f1610a24c407ecec709.jpg"},"large":{"default":"https://cdn.freshful.ro/media/cache/freshful_large/a7/44/15b96f6f0f1610a24c407ecec709.jpg"},"extralarge":{"default":"https://cdn.freshful.ro/media/cache/sylius_shop_product_original/a7/44/15b96f6f0f1610a24c407ecec709.jpg"}},"label":{"text":"Profită acum","backgroundColor":"#FF9903","textColor":"#FFFFFF"},"tags":[],"isAvailable":true,"maxAvailableQuantity":10,"maxAllowedQuantity":100,"breadcrumbs":[{"code":"7","name":"Băuturi","slug":"7-bauturi-si-tutun"},{"code":"706","name":"Băuturi spirtoase","slug":"706-bauturi-spirtoase"},{"code":"70603","name":"Palincă, țuică și băuturi tradiționale","slug":"70603-palinca-tuica-si-alte-bauturi-traditionale"},{"code":"100121167","name":"Țuică prune 52% alc. 0.5l","slug":"100121167-issa-tuica-prune-52-alc-0-5l"}],"activePromotion":{"code":"special-bacanie-bauturi-mar23","name":"Preț avantajos","targetQuantity":null},"saveMe":null,"labels":[{"type":"v1","items":[{"text":"Profită acum","backgroundColor":"#FF9903","textColor":"#FFFFFF"}]}],"geniusPrice":null,"geniusUnitPricePerLabel":null,"banner":{"text":"Preț avantajos","textColor":"#F95510","bgColor":"#FEF1CD","icon":null,"link":"https://www.freshful.ro/oferte/special-bacanie-bauturi-mar23","type":"promo","analyticsEventType":"select_promotion","analyticsEventPayload":{"promotion_id":"special-bacanie-bauturi-mar23","promotion_name":"Prețuri speciale pentru Ziua Femeii"}},"discountLabel":null,"geniusDiscountLabel":null,"badge":null},{"code":"100135104","variantCode":"100135104","name":"Țuică de prune 35% alc. 0.7l","slug":"100135104-pater-tuica-de-prune-35-alc-0-7l","unitPriceLabel":"255,71 Lei/l","brand":"Pater","brandCode":"2594","brandFilterCode":"pater-b2598","sku":"100135104","price":179,"originalPrice":null,"currencyCode":"RON","currency":"Lei","image":{"thumbnail":{"default":"https://cdn.freshful.ro/media/cache/sylius_shop_product_thumbnail/d8/4c/bcd94ac2e4752eb91d354d1d813e.jpg"},"large":{"default":"https://cdn.freshful.ro/media/cache/freshful_large/d8/4c/bcd94ac2e4752eb91d354d1d813e.jpg"},"extralarge":{"default":"https://cdn.freshful.ro/media/cache/sylius_shop_product_original/d8/4c/bcd94ac2e4752eb91d354d1d813e.jpg"}},"label":{"text":"Mici producători","backgroundColor":"#7B61FF","textColor":"#FFFFFF"},"tags":[{"type":"MadeInRomania","text":"Made In Romania","icon":"https://cdn.freshful.ro/assets/product_tags/made_in_romania.svg","iconPng":"https://cdn.freshful.ro/assets/product_tags/made_in_romania.png","backgroundColor":"#EDF2FD","textColor":"#1653CA"}],"isAvailable":true,"maxAvailableQuantity":54,"maxAllowedQuantity":100,"breadcrumbs":[{"code":"7","name":"Băuturi","slug":"7-bauturi-si-tutun"},{"code":"706","name":"Băuturi spirtoase","slug":"706-bauturi-spirtoase"},{"code":"70603","name":"Palincă, țuică și băuturi tradiționale","slug":"70603-palinca-tuica-si-alte-bauturi-traditionale"},{"code":"100135104","name":"Țuică de prune 35% alc. 0.7l","slug":"100135104-pater-tuica-de-prune-35-alc-0-7l"}],"activePromotion":null,"saveMe":null,"labels":[{"type":"v1","items":[{"text":"Mici producători","backgroundColor":"#7B61FF","textColor":"#FFFFFF"}]}],"geniusPrice":null,"geniusUnitPricePerLabel":null,"banner":null,"discountLabel":null,"geniusDiscountLabel":null,"badge":null},{"code":"100111331","variantCode":"100111331","name":"Țuică de Transilvania 50% alc. 500ml","slug":"100111331-zetea-tuica-de-transilvania-50-alc-500ml","unitPriceLabel":"189,98 Lei/l","brand":"Zetea","brandCode":"1855","brandFilterCode":"zetea-b1855","sku":"100111331","price":94.99,"originalPrice":null,"currencyCode":"RON","currency":"Lei","image":{"thumbnail":{"default":"https://cdn.freshful.ro/media/cache/sylius_shop_product_thumbnail/0a/73/d141049de81a2af5b1ef2e25697e.jpg"},"large":{"default":"https://cdn.freshful.ro/media/cache/freshful_large/0a/73/d141049de81a2af5b1ef2e25697e.jpg"},"extralarge":{"default":"https://cdn.freshful.ro/media/cache/sylius_shop_product_original/0a/73/d141049de81a2af5b1ef2e25697e.jpg"}},"label":null,"tags":[{"type":"MadeInRomania","text":"Made In Romania","icon":"https://cdn.freshful.ro/assets/product_tags/made_in_romania.svg","iconPng":"https://cdn.freshful.ro/assets/product_tags/made_in_romania.png","backgroundColor":"#EDF2FD","textColor":"#1653CA"}],"isAvailable":true,"maxAvailableQuantity":9,"maxAllowedQuantity":100,"breadcrumbs":[{"code":"7","name":"Băuturi","slug":"7-bauturi-si-tutun"},{"code":"706","name":"Băuturi spirtoase","slug":"706-bauturi-spirtoase"},{"code":"70603","name":"Palincă, țuică și băuturi tradiționale","slug":"70603-palinca-tuica-si-alte-bauturi-traditionale"},{"code":"100111331","name":"Țuică de Transilvania 50% alc. 500ml","slug":"100111331-zetea-tuica-de-transilvania-50-alc-500ml"}],"activePromotion":null,"saveMe":null,"labels":[],"geniusPrice":null,"geniusUnitPricePerLabel":null,"banner":null,"discountLabel":null,"geniusDiscountLabel":null,"badge":null},{"code":"100129410","variantCode":"100129410","name":"Palincă de prune 50% alc. & rachiu de prune 27.5% alc. 2x45ml","slug":"100129410-bran-palinca-de-prune-50-alc-rachiu-de-prune-27-5-alc-2x45ml","unitPriceLabel":"394,44 Lei/buc","brand":"Bran","brandCode":"1871","brandFilterCode":"bran-b1878","sku":"100129410","price":35.5,"originalPrice":null,"currencyCode":"RON","currency":"Lei","image":{"thumbnail":{"default":"https://cdn.freshful.ro/media/cache/sylius_shop_product_thumbnail/d7/27/351eb566cebbffc1aaa0a43d8b2d.jpg"},"large":{"default":"https://cdn.freshful.ro/media/cache/freshful_large/d7/27/351eb566cebbffc1aaa0a43d8b2d.jpg"},"extralarge":{"default":"https://cdn.freshful.ro/media/cache/sylius_shop_product_original/d7/27/351eb566cebbffc1aaa0a43d8b2d.jpg"}},"label":null,"tags":[],"isAvailable":true,"maxAvailableQuantity":34,"maxAllowedQuantity":100,"breadcrumbs":[{"code":"7","name":"Băuturi","slug":"7-bauturi-si-tutun"},{"code":"706","name":"Băuturi spirtoase","slug":"706-bauturi-spirtoase"},{"code":"70603","name":"Palincă, țuică și băuturi tradiționale","slug":"70603-palinca-tuica-si-alte-bauturi-traditionale"},{"code":"100129410","name":"Palincă de prune 50% alc. & rachiu de prune 27.5% alc. 2x45ml","slug":"100129410-bran-palinca-de-prune-50-alc-rachiu-de-prune-27-5-alc-2x45ml"}],"activePromotion":null,"saveMe":null,"labels":[],"geniusPrice":null,"geniusUnitPricePerLabel":null,"banner":null,"discountLabel":null,"geniusDiscountLabel":null,"badge":null},{"code":"100113194","variantCode":"100113194","name":"Pălincă de prune 50% alc. 0.5l","slug":"100113194-casa-palincii-palinca-de-prune-50-alc-0-5l","unitPriceLabel":"155,06 Lei/l","brand":"Casa Palincii","brandCode":"1873","brandFilterCode":"casa-palincii-b1880","sku":"100113194","price":77.53,"originalPrice":null,"currencyCode":"RON","currency":"Lei","image":{"thumbnail":{"default":"https://cdn.freshful.ro/media/cache/sylius_shop_product_thumbnail/27/1e/26244334b89c4dfdc52fc1a0bbdf.jpg"},"large":{"default":"https://cdn.freshful.ro/media/cache/freshful_large/27/1e/26244334b89c4dfdc52fc1a0bbdf.jpg"},"extralarge":{"default":"https://cdn.freshful.ro/media/cache/sylius_shop_product_original/27/1e/26244334b89c4dfdc52fc1a0bbdf.jpg"}},"label":null,"tags":[],"isAvailable":true,"maxAvailableQuantity":24,"maxAllowedQuantity":100,"breadcrumbs":[{"code":"7","name":"Băuturi","slug":"7-bauturi-si-tutun"},{"code":"706","name":"Băuturi spirtoase","slug":"706-bauturi-spirtoase"},{"code":"70603","name":"Palincă, țuică și băuturi tradiționale","slug":"70603-palinca-tuica-si-alte-bauturi-traditionale"},{"code":"100113194","name":"Pălincă de prune 50% alc. 0.5l","slug":"100113194-casa-palincii-palinca-de-prune-50-alc-0-5l"}],"activePromotion":null,"saveMe":null,"labels":[],"geniusPrice":null,"geniusUnitPricePerLabel":null,"banner":null,"discountLabel":null,"geniusDiscountLabel":null,"badge":null},{"code":"100126998","variantCode":"100126998","name":"Pălincă de gutui 48% alc. 0.5l","slug":"100126998-morpheus-palinca-de-gutui-48-alc-0-5l","unitPriceLabel":"285,2 Lei/l","brand":"Morpheus","brandCode":"2307","brandFilterCode":"morpheus-b2339","sku":"100126998","price":142.6,"originalPrice":null,"currencyCode":"RON","currency":"Lei","image":{"thumbnail":{"default":"https://cdn.freshful.ro/media/cache/sylius_shop_product_thumbnail/2b/43/86ca39c8787361b7b6c9830517b5.jpg"},"large":{"default":"https://cdn.freshful.ro/media/cache/freshful_large/2b/43/86ca39c8787361b7b6c9830517b5.jpg"},"extralarge":{"default":"https://cdn.freshful.ro/media/cache/sylius_shop_product_original/2b/43/86ca39c8787361b7b6c9830517b5.jpg"}},"label":{"text":"Mici producători","backgroundColor":"#7B61FF","textColor":"#FFFFFF"},"tags":[{"type":"MadeInRomania","text":"Made In Romania","icon":"https://cdn.freshful.ro/assets/product_tags/made_in_romania.svg","iconPng":"https://cdn.freshful.ro/assets/product_tags/made_in_romania.png","backgroundColor":"#EDF2FD","textColor":"#1653CA"}],"isAvailable":true,"maxAvailableQuantity":9,"maxAllowedQuantity":100,"breadcrumbs":[{"code":"7","name":"Băuturi","slug":"7-bauturi-si-tutun"},{"code":"706","name":"Băuturi spirtoase","slug":"706-bauturi-spirtoase"},{"code":"70603","name":"Palincă, țuică și băuturi tradiționale","slug":"70603-palinca-tuica-si-alte-bauturi-traditionale"},{"code":"100126998","name":"Pălincă de gutui 48% alc. 0.5l","slug":"100126998-morpheus-palinca-de-gutui-48-alc-0-5l"}],"activePromotion":null,"saveMe":null,"labels":[{"type":"v1","items":[{"text":"Mici producători","backgroundColor":"#7B61FF","textColor":"#FFFFFF"}]}],"geniusPrice":null,"geniusUnitPricePerLabel":null,"banner":null,"discountLabel":null,"geniusDiscountLabel":null,"badge":null},{"code":"100135211","variantCode":"100135211","name":"Pălincă 42% vol. 0.35l","slug":"100135211-liliac-spirit-of-transylvania-palinca-42-vol-0-35l","unitPriceLabel":"237,11 Lei/l","brand":"Liliac Spirit Of Transylvania","brandCode":"2599","brandFilterCode":"liliac-spirit-of-transylvania-b2603","sku":"100135211","price":82.99,"originalPrice":null,"currencyCode":"RON","currency":"Lei","image":{"thumbnail":{"default":"https://cdn.freshful.ro/media/cache/sylius_shop_product_thumbnail/65/71/27be60fc4a99a61b4ac02c394cf5.jpg"},"large":{"default":"https://cdn.freshful.ro/media/cache/freshful_large/65/71/27be60fc4a99a61b4ac02c394cf5.jpg"},"extralarge":{"default":"https://cdn.freshful.ro/media/cache/sylius_shop_product_original/65/71/27be60fc4a99a61b4ac02c394cf5.jpg"}},"label":{"text":"Mici producători","backgroundColor":"#7B61FF","textColor":"#FFFFFF"},"tags":[{"type":"MadeInRomania","text":"Made In Romania","icon":"https://cdn.freshful.ro/assets/product_tags/made_in_romania.svg","iconPng":"https://cdn.freshful.ro/assets/product_tags/made_in_romania.png","backgroundColor":"#EDF2FD","textColor":"#1653CA"}],"isAvailable":true,"maxAvailableQuantity":9,"maxAllowedQuantity":100,"breadcrumbs":[{"code":"7","name":"Băuturi","slug":"7-bauturi-si-tutun"},{"code":"706","name":"Băuturi spirtoase","slug":"706-bauturi-spirtoase"},{"code":"70603","name":"Palincă, țuică și băuturi tradiționale","slug":"70603-palinca-tuica-si-alte-bauturi-traditionale"},{"code":"100135211","name":"Pălincă 42% vol. 0.35l","slug":"100135211-liliac-spirit-of-transylvania-palinca-42-vol-0-35l"}],"activePromotion":null,"saveMe":null,"labels":[{"type":"v1","items":[{"text":"Mici producători","backgroundColor":"#7B61FF","textColor":"#FFFFFF"}]}],"geniusPrice":null,"geniusUnitPricePerLabel":null,"banner":null,"discountLabel":null,"geniusDiscountLabel":null,"badge":null},{"code":"100149616","variantCode":"100149616","name":"Țuică de prune 32% alc. 0.5l","slug":"100149616-stibina-tuica-de-prune-32-alc-0-5l","unitPriceLabel":"169,8 Lei/l","brand":"Stibina","brandCode":"2945","brandFilterCode":"stibina-b3044","sku":"100149616","price":84.9,"originalPrice":null,"currencyCode":"RON","currency":"Lei","image":{"thumbnail":{"default":"https://cdn.freshful.ro/media/cache/sylius_shop_product_thumbnail/85/7b/f7d41594aff21241ee694092ab06.jpg"},"large":{"default":"https://cdn.freshful.ro/media/cache/freshful_large/85/7b/f7d41594aff21241ee694092ab06.jpg"},"extralarge":{"default":"https://cdn.freshful.ro/media/cache/sylius_shop_product_original/85/7b/f7d41594aff21241ee694092ab06.jpg"}},"label":null,"tags":[{"type":"MadeInRomania","text":"Made In Romania","icon":"https://cdn.freshful.ro/assets/product_tags/made_in_romania.svg","iconPng":"https://cdn.freshful.ro/assets/product_tags/made_in_romania.png","backgroundColor":"#EDF2FD","textColor":"#1653CA"}],"isAvailable":true,"maxAvailableQuantity":8,"maxAllowedQuantity":100,"breadcrumbs":[{"code":"7","name":"Băuturi","slug":"7-bauturi-si-tutun"},{"code":"706","name":"Băuturi spirtoase","slug":"706-bauturi-spirtoase"},{"code":"70603","name":"Palincă, țuică și băuturi tradiționale","slug":"70603-palinca-tuica-si-alte-bauturi-traditionale"},{"code":"100149616","name":"Țuică de prune 32% alc. 0.5l","slug":"100149616-stibina-tuica-de-prune-32-alc-0-5l"}],"activePromotion":null,"saveMe":null,"labels":[],"geniusPrice":null,"geniusUnitPricePerLabel":null,"banner":null,"discountLabel":null,"geniusDiscountLabel":null,"badge":null}],"filters":{"countSelected":0,"items":[{"code":"promotion","name":"Promoții","countSelected":0,"values":[{"code":"special-bacanie-bauturi-mar23","name":"Prețuri speciale pentru Ziua Femeii","isSelected":false,"count":2},{"code":"superpreturile-saptamanii","name":"Superprețurile zilei","isSelected":false,"count":1}]},{"code":"brand","name":"Brand","countSelected":0,"values":[{"code":"bran-b1878","name":"Bran","isSelected":false,"count":8},{"code":"casa-palincii-b1880","name":"Casa Palincii","isSelected":false,"count":2},{"code":"distileriile-racsa-b3045","name":"Distileriile Racsa","isSelected":false,"count":1},{"code":"folklore-b1985","name":"Folklore","isSelected":false,"count":1},{"code":"issa-b2101","name":"Issa","isSelected":false,"count":2},{"code":"kaspers-b2679","name":"Kaspers","isSelected":false,"count":1},{"code":"legendary-dracula-b1986","name":"Legendary Dracula","isSelected":false,"count":3},{"code":"liliac-spirit-of-transylvania-b2603","name":"Liliac Spirit Of Transylvania","isSelected":false,"count":1},{"code":"morpheus-b2339","name":"Morpheus","isSelected":false,"count":13},{"code":"pater-b2598","name":"Pater","isSelected":false,"count":4},{"code":"stibina-b3044","name":"Stibina","isSelected":false,"count":4},{"code":"zetea-b1855","name":"Zetea","isSelected":false,"count":9}]},{"code":"diet_lifestyle","name":"Dietă și lifestyle","countSelected":0,"values":[{"code":"made-in-romania-a85","name":"Made In Romania","isSelected":false,"count":26}]}]},"orderBy":[{"field":"price","direction":"asc","name":"Preț crescător","isSelected":false},{"field":"price","direction":"desc","name":"Preț descrescător","isSelected":false},{"field":"popularity","direction":"desc","name":"Cele mai populare","isSelected":true},{"field":"category","direction":"asc","name":"Categorie","isSelected":false}],"metaTitle":"Palincă, țuică și băuturi tradiționale - Gamă variată","metaDescription":"Vrei Palincă, țuică și băuturi tradiționale? Alege dintr-o gamă variată. Comanzi simplu și ai livrare rapidă, calitate și prospețime. Hai pe Freshful.ro","metaKeywords":null,"banners":[]}}