{"type":"subcategory","payload":{"analyticsListId":"category_70610-coniac-si-brandy","analyticsListName":"Category - Coniac și brandy","name":"Coniac și brandy","slug":"70610-coniac-si-brandy","image":null,"breadcrumbs":[{"code":"7","name":"Băuturi","slug":"7-bauturi-si-tutun"},{"code":"706","name":"Băuturi spirtoase","slug":"706-bauturi-spirtoase"},{"code":"70610","name":"Coniac și brandy","slug":"70610-coniac-si-brandy"}],"slots":[],"page":1,"limit":10,"pages":5,"count":49,"siblings":[{"name":"Băuturi necarbogazoase și siropuri","slug":"701-bauturi-necarbogazoase-si-siropuri","selected":false},{"name":"Apă","slug":"702-apa","selected":false},{"name":"Băuturi carbogazoase","slug":"703-bauturi-carbogazoase","selected":false},{"name":"Bere","slug":"704-bere","selected":false},{"name":"Vinuri","slug":"705-vinuri","selected":false},{"name":"Băuturi spirtoase","slug":"706-bauturi-spirtoase","selected":true},{"name":"Tutun","slug":"707-tutun","selected":false}],"children":[{"name":"Toate produsele","slug":"706-bauturi-spirtoase","selected":false},{"name":"Aperitive","slug":"70601-aperitive","selected":false},{"name":"Lichior","slug":"70602-lichior","selected":false},{"name":"Palincă, țuică și băuturi tradiționale","slug":"70603-palinca-tuica-si-alte-bauturi-traditionale","selected":false},{"name":"Cocktail și premix","slug":"70604-cocktail-si-premix","selected":false},{"name":"Whisky","slug":"70605-whisky","selected":false},{"name":"Vodka","slug":"70606-vodka","selected":false},{"name":"Rom","slug":"70607-rom","selected":false},{"name":"Tequila","slug":"70608-tequilla","selected":false},{"name":"Gin","slug":"70609-gin","selected":false},{"name":"Coniac și brandy","slug":"70610-coniac-si-brandy","selected":true}],"products":[{"code":"100083014","variantCode":"100083014","name":"Vinars VSOP 42% alc. 0.7l","slug":"100083014-jidvei-vinars-vsop-42-alc-0-7l","unitPriceLabel":"114,14 Lei/l","brand":"Jidvei","brandCode":"1448","brandFilterCode":"jidvei-b1427","sku":"100083014","price":79.9,"originalPrice":null,"currencyCode":"RON","currency":"Lei","image":{"thumbnail":{"default":"https://cdn.freshful.ro/media/cache/sylius_shop_product_thumbnail/72/83/8ebeeb51e540a264bf02ae18379e.jpg"},"large":{"default":"https://cdn.freshful.ro/media/cache/freshful_large/72/83/8ebeeb51e540a264bf02ae18379e.jpg"},"extralarge":{"default":"https://cdn.freshful.ro/media/cache/sylius_shop_product_original/72/83/8ebeeb51e540a264bf02ae18379e.jpg"}},"label":null,"tags":[],"isAvailable":true,"maxAvailableQuantity":2,"maxAllowedQuantity":2,"breadcrumbs":[{"code":"7","name":"Băuturi","slug":"7-bauturi-si-tutun"},{"code":"706","name":"Băuturi spirtoase","slug":"706-bauturi-spirtoase"},{"code":"70610","name":"Coniac și brandy","slug":"70610-coniac-si-brandy"},{"code":"100083014","name":"Vinars VSOP 42% alc. 0.7l","slug":"100083014-jidvei-vinars-vsop-42-alc-0-7l"}],"activePromotion":null,"saveMe":null,"labels":[],"geniusPrice":null,"geniusUnitPricePerLabel":null,"banner":null,"discountLabel":null,"geniusDiscountLabel":null,"badge":null},{"code":"100121204","variantCode":"100121204","name":"Brandy 5* 38% alc. 0.7l","slug":"100121204-metaxa-brandy-5-38-alc-0-7l","unitPriceLabel":"81,29 Lei/l","brand":"Metaxa","brandCode":"2121","brandFilterCode":"metaxa-b2125","sku":"100121204","price":56.9,"originalPrice":null,"currencyCode":"RON","currency":"Lei","image":{"thumbnail":{"default":"https://cdn.freshful.ro/media/cache/sylius_shop_product_thumbnail/c1/13/dd4850a1d973325a0315456300da.jpg"},"large":{"default":"https://cdn.freshful.ro/media/cache/freshful_large/c1/13/dd4850a1d973325a0315456300da.jpg"},"extralarge":{"default":"https://cdn.freshful.ro/media/cache/sylius_shop_product_original/c1/13/dd4850a1d973325a0315456300da.jpg"}},"label":null,"tags":[],"isAvailable":true,"maxAvailableQuantity":43,"maxAllowedQuantity":100,"breadcrumbs":[{"code":"7","name":"Băuturi","slug":"7-bauturi-si-tutun"},{"code":"706","name":"Băuturi spirtoase","slug":"706-bauturi-spirtoase"},{"code":"70610","name":"Coniac și brandy","slug":"70610-coniac-si-brandy"},{"code":"100121204","name":"Brandy 5* 38% alc. 0.7l","slug":"100121204-metaxa-brandy-5-38-alc-0-7l"}],"activePromotion":null,"saveMe":null,"labels":[],"geniusPrice":null,"geniusUnitPricePerLabel":null,"banner":null,"discountLabel":null,"geniusDiscountLabel":null,"badge":null},{"code":"100144593","variantCode":"100144593","name":"Brandy 7* 40% vol. 0.7l","slug":"100144593-alexandrion-brandy-7-40-vol-0-7l","unitPriceLabel":"90,17 Lei/l","brand":"Alexandrion","brandCode":"2797","brandFilterCode":"alexandrion-b2882","sku":"100144593","price":63.12,"originalPrice":null,"currencyCode":"RON","currency":"Lei","image":{"thumbnail":{"default":"https://cdn.freshful.ro/media/cache/sylius_shop_product_thumbnail/66/58/c9ae526e4139e11bb6714354da47.jpg"},"large":{"default":"https://cdn.freshful.ro/media/cache/freshful_large/66/58/c9ae526e4139e11bb6714354da47.jpg"},"extralarge":{"default":"https://cdn.freshful.ro/media/cache/sylius_shop_product_original/66/58/c9ae526e4139e11bb6714354da47.jpg"}},"label":null,"tags":[],"isAvailable":true,"maxAvailableQuantity":72,"maxAllowedQuantity":100,"breadcrumbs":[{"code":"7","name":"Băuturi","slug":"7-bauturi-si-tutun"},{"code":"706","name":"Băuturi spirtoase","slug":"706-bauturi-spirtoase"},{"code":"70610","name":"Coniac și brandy","slug":"70610-coniac-si-brandy"},{"code":"100144593","name":"Brandy 7* 40% vol. 0.7l","slug":"100144593-alexandrion-brandy-7-40-vol-0-7l"}],"activePromotion":null,"saveMe":null,"labels":[],"geniusPrice":null,"geniusUnitPricePerLabel":null,"banner":null,"discountLabel":null,"geniusDiscountLabel":null,"badge":null},{"code":"100083327","variantCode":"100083327","name":"Vinars XO 12 ani 40% alc. 0.70l","slug":"100083327-miorita-vinars-xo-12-ani-40-alc-0-70l","unitPriceLabel":"108,56 Lei/l","brand":"Miorita","brandCode":"1469","brandFilterCode":"miorita-b1462","sku":"100083327","price":75.99,"originalPrice":null,"currencyCode":"RON","currency":"Lei","image":{"thumbnail":{"default":"https://cdn.freshful.ro/media/cache/sylius_shop_product_thumbnail/3c/db/9fda5cc303fed55592f51e870bf2.jpg"},"large":{"default":"https://cdn.freshful.ro/media/cache/freshful_large/3c/db/9fda5cc303fed55592f51e870bf2.jpg"},"extralarge":{"default":"https://cdn.freshful.ro/media/cache/sylius_shop_product_original/3c/db/9fda5cc303fed55592f51e870bf2.jpg"}},"label":null,"tags":[],"isAvailable":true,"maxAvailableQuantity":2,"maxAllowedQuantity":2,"breadcrumbs":[{"code":"7","name":"Băuturi","slug":"7-bauturi-si-tutun"},{"code":"706","name":"Băuturi spirtoase","slug":"706-bauturi-spirtoase"},{"code":"70610","name":"Coniac și brandy","slug":"70610-coniac-si-brandy"},{"code":"100083327","name":"Vinars XO 12 ani 40% alc. 0.70l","slug":"100083327-miorita-vinars-xo-12-ani-40-alc-0-70l"}],"activePromotion":null,"saveMe":null,"labels":[],"geniusPrice":null,"geniusUnitPricePerLabel":null,"banner":null,"discountLabel":null,"geniusDiscountLabel":null,"badge":null},{"code":"100127559","variantCode":"100127559","name":"Brandy 37.2% alc. Classica 0.7l","slug":"100127559-vecchia-romagna-brandy-37-2-alc-classica-0-7l","unitPriceLabel":"97,86 Lei/l","brand":"Vecchia Romagna","brandCode":"2328","brandFilterCode":"vecchia-romagna-b2344","sku":"100127559","price":68.5,"originalPrice":null,"currencyCode":"RON","currency":"Lei","image":{"thumbnail":{"default":"https://cdn.freshful.ro/media/cache/sylius_shop_product_thumbnail/a1/27/9c05f592a2d6fdd581dfe636131c.jpg"},"large":{"default":"https://cdn.freshful.ro/media/cache/freshful_large/a1/27/9c05f592a2d6fdd581dfe636131c.jpg"},"extralarge":{"default":"https://cdn.freshful.ro/media/cache/sylius_shop_product_original/a1/27/9c05f592a2d6fdd581dfe636131c.jpg"}},"label":null,"tags":[],"isAvailable":true,"maxAvailableQuantity":12,"maxAllowedQuantity":100,"breadcrumbs":[{"code":"7","name":"Băuturi","slug":"7-bauturi-si-tutun"},{"code":"706","name":"Băuturi spirtoase","slug":"706-bauturi-spirtoase"},{"code":"70610","name":"Coniac și brandy","slug":"70610-coniac-si-brandy"},{"code":"100127559","name":"Brandy 37.2% alc. Classica 0.7l","slug":"100127559-vecchia-romagna-brandy-37-2-alc-classica-0-7l"}],"activePromotion":null,"saveMe":null,"labels":[],"geniusPrice":null,"geniusUnitPricePerLabel":null,"banner":null,"discountLabel":null,"geniusDiscountLabel":null,"badge":null},{"code":"100080133","variantCode":"100080133","name":"Băutură spirtoasă 5* 37.5% alc. 0.7l","slug":"100080133-zarea-bautura-spirtoasa-5-37-5-alc-0-7l","unitPriceLabel":"57 Lei/l","brand":"Zarea","brandCode":"1387","brandFilterCode":"zarea-b1391","sku":"100080133","price":39.9,"originalPrice":null,"currencyCode":"RON","currency":"Lei","image":{"thumbnail":{"default":"https://cdn.freshful.ro/media/cache/sylius_shop_product_thumbnail/9a/0b/24e9b588a4797f51a8878ff1a8d7.jpg"},"large":{"default":"https://cdn.freshful.ro/media/cache/freshful_large/9a/0b/24e9b588a4797f51a8878ff1a8d7.jpg"},"extralarge":{"default":"https://cdn.freshful.ro/media/cache/sylius_shop_product_original/9a/0b/24e9b588a4797f51a8878ff1a8d7.jpg"}},"label":null,"tags":[],"isAvailable":true,"maxAvailableQuantity":18,"maxAllowedQuantity":100,"breadcrumbs":[{"code":"7","name":"Băuturi","slug":"7-bauturi-si-tutun"},{"code":"706","name":"Băuturi spirtoase","slug":"706-bauturi-spirtoase"},{"code":"70610","name":"Coniac și brandy","slug":"70610-coniac-si-brandy"},{"code":"100080133","name":"Băutură spirtoasă 5* 37.5% alc. 0.7l","slug":"100080133-zarea-bautura-spirtoasa-5-37-5-alc-0-7l"}],"activePromotion":null,"saveMe":null,"labels":[],"geniusPrice":null,"geniusUnitPricePerLabel":null,"banner":null,"discountLabel":null,"geniusDiscountLabel":null,"badge":null},{"code":"100144592","variantCode":"100144592","name":"Brandy 5* 37.5% alc. 0.7l","slug":"100144592-alexandrion-brandy-5-37-5-alc-0-7l","unitPriceLabel":"70,76 Lei/l","brand":"Alexandrion","brandCode":"2797","brandFilterCode":"alexandrion-b2882","sku":"100144592","price":49.53,"originalPrice":null,"currencyCode":"RON","currency":"Lei","image":{"thumbnail":{"default":"https://cdn.freshful.ro/media/cache/sylius_shop_product_thumbnail/85/de/ecf7dfba07cff7f09940cd84b6ab.jpg"},"large":{"default":"https://cdn.freshful.ro/media/cache/freshful_large/85/de/ecf7dfba07cff7f09940cd84b6ab.jpg"},"extralarge":{"default":"https://cdn.freshful.ro/media/cache/sylius_shop_product_original/85/de/ecf7dfba07cff7f09940cd84b6ab.jpg"}},"label":null,"tags":[],"isAvailable":true,"maxAvailableQuantity":9,"maxAllowedQuantity":100,"breadcrumbs":[{"code":"7","name":"Băuturi","slug":"7-bauturi-si-tutun"},{"code":"706","name":"Băuturi spirtoase","slug":"706-bauturi-spirtoase"},{"code":"70610","name":"Coniac și brandy","slug":"70610-coniac-si-brandy"},{"code":"100144592","name":"Brandy 5* 37.5% alc. 0.7l","slug":"100144592-alexandrion-brandy-5-37-5-alc-0-7l"}],"activePromotion":null,"saveMe":null,"labels":[],"geniusPrice":null,"geniusUnitPricePerLabel":null,"banner":null,"discountLabel":null,"geniusDiscountLabel":null,"badge":null},{"code":"100083328","variantCode":"100083328","name":"Vinars XO 18 ani 40% alc. 0.7l","slug":"100083328-miorita-vinars-xo-18-ani-40-alc-0-7l","unitPriceLabel":"189,99 Lei/l","brand":"Miorita","brandCode":"1469","brandFilterCode":"miorita-b1462","sku":"100083328","price":132.99,"originalPrice":null,"currencyCode":"RON","currency":"Lei","image":{"thumbnail":{"default":"https://cdn.freshful.ro/media/cache/sylius_shop_product_thumbnail/58/fe/61c758961dc9826a5dacf67295b3.jpg"},"large":{"default":"https://cdn.freshful.ro/media/cache/freshful_large/58/fe/61c758961dc9826a5dacf67295b3.jpg"},"extralarge":{"default":"https://cdn.freshful.ro/media/cache/sylius_shop_product_original/58/fe/61c758961dc9826a5dacf67295b3.jpg"}},"label":null,"tags":[],"isAvailable":true,"maxAvailableQuantity":13,"maxAllowedQuantity":100,"breadcrumbs":[{"code":"7","name":"Băuturi","slug":"7-bauturi-si-tutun"},{"code":"706","name":"Băuturi spirtoase","slug":"706-bauturi-spirtoase"},{"code":"70610","name":"Coniac și brandy","slug":"70610-coniac-si-brandy"},{"code":"100083328","name":"Vinars XO 18 ani 40% alc. 0.7l","slug":"100083328-miorita-vinars-xo-18-ani-40-alc-0-7l"}],"activePromotion":null,"saveMe":null,"labels":[],"geniusPrice":null,"geniusUnitPricePerLabel":null,"banner":null,"discountLabel":null,"geniusDiscountLabel":null,"badge":null},{"code":"100128990","variantCode":"100128990","name":"Divin VSOP 6 ani 40% alc. 0.7l","slug":"100128990-kvint-divin-vsop-6-ani-40-alc-0-7l","unitPriceLabel":"169,98 Lei/l","brand":"Kvint","brandCode":"2274","brandFilterCode":"kvint-b2280","sku":"100128990","price":84.99,"originalPrice":null,"currencyCode":"RON","currency":"Lei","image":{"thumbnail":{"default":"https://cdn.freshful.ro/media/cache/sylius_shop_product_thumbnail/14/1d/d7d5921126423d5b3d53c76a6e75.jpg"},"large":{"default":"https://cdn.freshful.ro/media/cache/freshful_large/14/1d/d7d5921126423d5b3d53c76a6e75.jpg"},"extralarge":{"default":"https://cdn.freshful.ro/media/cache/sylius_shop_product_original/14/1d/d7d5921126423d5b3d53c76a6e75.jpg"}},"label":null,"tags":[],"isAvailable":true,"maxAvailableQuantity":12,"maxAllowedQuantity":100,"breadcrumbs":[{"code":"7","name":"Băuturi","slug":"7-bauturi-si-tutun"},{"code":"706","name":"Băuturi spirtoase","slug":"706-bauturi-spirtoase"},{"code":"70610","name":"Coniac și brandy","slug":"70610-coniac-si-brandy"},{"code":"100128990","name":"Divin VSOP 6 ani 40% alc. 0.7l","slug":"100128990-kvint-divin-vsop-6-ani-40-alc-0-7l"}],"activePromotion":null,"saveMe":null,"labels":[],"geniusPrice":null,"geniusUnitPricePerLabel":null,"banner":null,"discountLabel":null,"geniusDiscountLabel":null,"badge":null},{"code":"100149999","variantCode":"100149999","name":"Vinars VS 40% alc. 0.7l","slug":"100149999-brancoveanu-vinars-vs-40-alc-0-7l","unitPriceLabel":"114,23 Lei/l","brand":"Brancoveanu","brandCode":"2815","brandFilterCode":"brancoveanu-b2880","sku":"100149999","price":79.96,"originalPrice":null,"currencyCode":"RON","currency":"Lei","image":{"thumbnail":{"default":"https://cdn.freshful.ro/media/cache/sylius_shop_product_thumbnail/af/e8/6f8c7b7c0e873920693f65409f01.jpg"},"large":{"default":"https://cdn.freshful.ro/media/cache/freshful_large/af/e8/6f8c7b7c0e873920693f65409f01.jpg"},"extralarge":{"default":"https://cdn.freshful.ro/media/cache/sylius_shop_product_original/af/e8/6f8c7b7c0e873920693f65409f01.jpg"}},"label":null,"tags":[],"isAvailable":true,"maxAvailableQuantity":9,"maxAllowedQuantity":100,"breadcrumbs":[{"code":"7","name":"Băuturi","slug":"7-bauturi-si-tutun"},{"code":"706","name":"Băuturi spirtoase","slug":"706-bauturi-spirtoase"},{"code":"70610","name":"Coniac și brandy","slug":"70610-coniac-si-brandy"},{"code":"100149999","name":"Vinars VS 40% alc. 0.7l","slug":"100149999-brancoveanu-vinars-vs-40-alc-0-7l"}],"activePromotion":null,"saveMe":null,"labels":[],"geniusPrice":null,"geniusUnitPricePerLabel":null,"banner":null,"discountLabel":null,"geniusDiscountLabel":null,"badge":null}],"filters":{"countSelected":0,"items":[{"code":"brand","name":"Brand","countSelected":0,"values":[{"code":"alexandrion-b2882","name":"Alexandrion","isSelected":false,"count":2},{"code":"barza-alba-b2278","name":"Barza Alba","isSelected":false,"count":1},{"code":"boulard-b2355","name":"Boulard","isSelected":false,"count":1},{"code":"brancoveanu-b2880","name":"Brancoveanu","isSelected":false,"count":2},{"code":"chateau-vartely-b2276","name":"Chateau Vartely","isSelected":false,"count":1},{"code":"cles-des-ducs-b1317","name":"Clés des Ducs","isSelected":false,"count":3},{"code":"courvoisier-b1321","name":"Courvoisier","isSelected":false,"count":1},{"code":"davidoff-b1157","name":"Davidoff","isSelected":false,"count":2},{"code":"hennessy-b1443","name":"Hennessy","isSelected":false,"count":2},{"code":"jad-b1461","name":"Jad","isSelected":false,"count":1},{"code":"jidvei-b1427","name":"Jidvei","isSelected":false,"count":4},{"code":"jp-chenet-b1098","name":"JP. Chenet","isSelected":false,"count":1},{"code":"kvint-b2280","name":"Kvint","isSelected":false,"count":4},{"code":"lheraud-b1122","name":"Lheraud","isSelected":false,"count":1},{"code":"martell-b1342","name":"Martell","isSelected":false,"count":2},{"code":"metaxa-b2125","name":"Metaxa","isSelected":false,"count":2},{"code":"milcov-b1394","name":"Milcov","isSelected":false,"count":1},{"code":"miorita-b1462","name":"Miorita","isSelected":false,"count":3},{"code":"passion-b1404","name":"Passion","isSelected":false,"count":3},{"code":"prince-d-arignac-b1232","name":"Prince D'Arignac","isSelected":false,"count":1},{"code":"vecchia-romagna-b2344","name":"Vecchia Romagna","isSelected":false,"count":3},{"code":"vinars-de-zarea-1912-b1393","name":"Vinars De Zarea 1912","isSelected":false,"count":3},{"code":"zarea-b1391","name":"Zarea","isSelected":false,"count":4},{"code":"zetea-b1855","name":"Zetea","isSelected":false,"count":1}]}]},"orderBy":[{"field":"price","direction":"asc","name":"Preț crescător","isSelected":false},{"field":"price","direction":"desc","name":"Preț descrescător","isSelected":false},{"field":"popularity","direction":"desc","name":"Cele mai populare","isSelected":true},{"field":"category","direction":"asc","name":"Categorie","isSelected":false}],"metaTitle":"Coniac și brandy - Gamă variată","metaDescription":"Vrei Coniac și brandy? Alege dintr-o gamă variată. Comanzi simplu și ai livrare rapidă, calitate și prospețime. Hai pe Freshful.ro","metaKeywords":null,"banners":[]}}