{"type":"subcategory","payload":{"analyticsListId":"category_707-tutun","analyticsListName":"Category - Tutun","name":"Tutun","slug":"707-tutun","image":null,"breadcrumbs":[{"code":"7","name":"Băuturi","slug":"7-bauturi-si-tutun"},{"code":"707","name":"Tutun","slug":"707-tutun"}],"slots":[],"page":1,"limit":10,"pages":17,"count":165,"siblings":[{"name":"Băuturi necarbogazoase și siropuri","slug":"701-bauturi-necarbogazoase-si-siropuri","selected":false},{"name":"Apă","slug":"702-apa","selected":false},{"name":"Băuturi carbogazoase","slug":"703-bauturi-carbogazoase","selected":false},{"name":"Bere","slug":"704-bere","selected":false},{"name":"Vinuri","slug":"705-vinuri","selected":false},{"name":"Băuturi spirtoase","slug":"706-bauturi-spirtoase","selected":false},{"name":"Tutun","slug":"707-tutun","selected":true}],"children":[{"name":"Toate produsele","slug":"707-tutun","selected":true},{"name":"Țigări","slug":"70701-tigari","selected":false},{"name":"Țigări de foi","slug":"70702-tigari-de-foi","selected":false},{"name":"Tutun pentru rulat","slug":"70703-tutun-pentru-rulat","selected":false},{"name":"Rezerve tutun pentru dispozitive","slug":"70705-rezerve-tutun-pentru-dispozitive","selected":false},{"name":"Brichete","slug":"70706-brichete","selected":false},{"name":"Accesorii tutun","slug":"70707-acccesorii-tutun","selected":false}],"products":[{"code":"100142331","variantCode":"100142331","name":"Țigări Fine Cut Master Blend","slug":"100142331-dunhill-tigari-fine-cut-master-blend","unitPriceLabel":"","brand":"Dunhill","brandCode":"2729","brandFilterCode":"dunhill-b2735","sku":"100142331","price":25.5,"originalPrice":null,"currencyCode":"RON","currency":"Lei","image":{"thumbnail":{"default":"https://cdn.freshful.ro/media/cache/sylius_shop_product_thumbnail/52/88/35ca539dee6021ff80bf4fb88ee3.jpg"},"large":{"default":"https://cdn.freshful.ro/media/cache/freshful_large/52/88/35ca539dee6021ff80bf4fb88ee3.jpg"},"extralarge":{"default":"https://cdn.freshful.ro/media/cache/sylius_shop_product_original/52/88/35ca539dee6021ff80bf4fb88ee3.jpg"}},"label":null,"tags":[],"isAvailable":true,"maxAvailableQuantity":10,"maxAllowedQuantity":10,"breadcrumbs":[{"code":"7","name":"Băuturi","slug":"7-bauturi-si-tutun"},{"code":"707","name":"Tutun","slug":"707-tutun"},{"code":"70701","name":"Țigări","slug":"70701-tigari"},{"code":"100142331","name":"Țigări Fine Cut Master Blend","slug":"100142331-dunhill-tigari-fine-cut-master-blend"}],"activePromotion":null,"saveMe":null,"labels":[],"geniusPrice":null,"geniusUnitPricePerLabel":null,"banner":null,"discountLabel":null,"geniusDiscountLabel":null,"badge":null},{"code":"100142332","variantCode":"100142332","name":"Țigări Fine Cut Blonde Blend","slug":"100142332-dunhill-tigari-fine-cut-blonde-blend","unitPriceLabel":"","brand":"Dunhill","brandCode":"2729","brandFilterCode":"dunhill-b2735","sku":"100142332","price":25.5,"originalPrice":null,"currencyCode":"RON","currency":"Lei","image":{"thumbnail":{"default":"https://cdn.freshful.ro/media/cache/sylius_shop_product_thumbnail/68/d8/9b8d332d10085d7a346fb55c3ee9.jpg"},"large":{"default":"https://cdn.freshful.ro/media/cache/freshful_large/68/d8/9b8d332d10085d7a346fb55c3ee9.jpg"},"extralarge":{"default":"https://cdn.freshful.ro/media/cache/sylius_shop_product_original/68/d8/9b8d332d10085d7a346fb55c3ee9.jpg"}},"label":null,"tags":[],"isAvailable":true,"maxAvailableQuantity":10,"maxAllowedQuantity":10,"breadcrumbs":[{"code":"7","name":"Băuturi","slug":"7-bauturi-si-tutun"},{"code":"707","name":"Tutun","slug":"707-tutun"},{"code":"70701","name":"Țigări","slug":"70701-tigari"},{"code":"100142332","name":"Țigări Fine Cut Blonde Blend","slug":"100142332-dunhill-tigari-fine-cut-blonde-blend"}],"activePromotion":null,"saveMe":null,"labels":[],"geniusPrice":null,"geniusUnitPricePerLabel":null,"banner":null,"discountLabel":null,"geniusDiscountLabel":null,"badge":null},{"code":"100120792","variantCode":"100120792","name":"Turquoise","slug":"100120792-heets-turquoise","unitPriceLabel":"","brand":"Heets","brandCode":"2078","brandFilterCode":"heets-b2082","sku":"100120792","price":19,"originalPrice":null,"currencyCode":"RON","currency":"Lei","image":{"thumbnail":{"default":"https://cdn.freshful.ro/media/cache/sylius_shop_product_thumbnail/df/f3/e52c78c6a1a9cdd6624ed66b2170.jpg"},"large":{"default":"https://cdn.freshful.ro/media/cache/freshful_large/df/f3/e52c78c6a1a9cdd6624ed66b2170.jpg"},"extralarge":{"default":"https://cdn.freshful.ro/media/cache/sylius_shop_product_original/df/f3/e52c78c6a1a9cdd6624ed66b2170.jpg"}},"label":null,"tags":[],"isAvailable":true,"maxAvailableQuantity":10,"maxAllowedQuantity":10,"breadcrumbs":[{"code":"7","name":"Băuturi","slug":"7-bauturi-si-tutun"},{"code":"707","name":"Tutun","slug":"707-tutun"},{"code":"70705","name":"Rezerve tutun pentru dispozitive","slug":"70705-rezerve-tutun-pentru-dispozitive"},{"code":"100120792","name":"Turquoise","slug":"100120792-heets-turquoise"}],"activePromotion":null,"saveMe":null,"labels":[],"geniusPrice":null,"geniusUnitPricePerLabel":null,"banner":null,"discountLabel":null,"geniusDiscountLabel":null,"badge":null},{"code":"100120789","variantCode":"100120789","name":"Yellow","slug":"100120789-heets-yellow","unitPriceLabel":"","brand":"Heets","brandCode":"2078","brandFilterCode":"heets-b2082","sku":"100120789","price":19,"originalPrice":null,"currencyCode":"RON","currency":"Lei","image":{"thumbnail":{"default":"https://cdn.freshful.ro/media/cache/sylius_shop_product_thumbnail/44/48/34d51632862cb9fc89fa85700a76.jpg"},"large":{"default":"https://cdn.freshful.ro/media/cache/freshful_large/44/48/34d51632862cb9fc89fa85700a76.jpg"},"extralarge":{"default":"https://cdn.freshful.ro/media/cache/sylius_shop_product_original/44/48/34d51632862cb9fc89fa85700a76.jpg"}},"label":null,"tags":[],"isAvailable":true,"maxAvailableQuantity":10,"maxAllowedQuantity":10,"breadcrumbs":[{"code":"7","name":"Băuturi","slug":"7-bauturi-si-tutun"},{"code":"707","name":"Tutun","slug":"707-tutun"},{"code":"70705","name":"Rezerve tutun pentru dispozitive","slug":"70705-rezerve-tutun-pentru-dispozitive"},{"code":"100120789","name":"Yellow","slug":"100120789-heets-yellow"}],"activePromotion":null,"saveMe":null,"labels":[],"geniusPrice":null,"geniusUnitPricePerLabel":null,"banner":null,"discountLabel":null,"geniusDiscountLabel":null,"badge":null},{"code":"100120782","variantCode":"100120782","name":"Amber","slug":"100120782-heets-amber","unitPriceLabel":"","brand":"Heets","brandCode":"2078","brandFilterCode":"heets-b2082","sku":"100120782","price":19,"originalPrice":null,"currencyCode":"RON","currency":"Lei","image":{"thumbnail":{"default":"https://cdn.freshful.ro/media/cache/sylius_shop_product_thumbnail/13/0b/3a11a3fc8fef24f724f5964d0400.jpg"},"large":{"default":"https://cdn.freshful.ro/media/cache/freshful_large/13/0b/3a11a3fc8fef24f724f5964d0400.jpg"},"extralarge":{"default":"https://cdn.freshful.ro/media/cache/sylius_shop_product_original/13/0b/3a11a3fc8fef24f724f5964d0400.jpg"}},"label":null,"tags":[],"isAvailable":true,"maxAvailableQuantity":10,"maxAllowedQuantity":10,"breadcrumbs":[{"code":"7","name":"Băuturi","slug":"7-bauturi-si-tutun"},{"code":"707","name":"Tutun","slug":"707-tutun"},{"code":"70705","name":"Rezerve tutun pentru dispozitive","slug":"70705-rezerve-tutun-pentru-dispozitive"},{"code":"100120782","name":"Amber","slug":"100120782-heets-amber"}],"activePromotion":null,"saveMe":null,"labels":[],"geniusPrice":null,"geniusUnitPricePerLabel":null,"banner":null,"discountLabel":null,"geniusDiscountLabel":null,"badge":null},{"code":"100070472","variantCode":"100070472","name":"Țigări Super S White","slug":"100070472-sobranie-tigari-super-s-white","unitPriceLabel":"","brand":"Sobranie","brandCode":"1252","brandFilterCode":"sobranie-b1266","sku":"100070472","price":25.5,"originalPrice":null,"currencyCode":"RON","currency":"Lei","image":{"thumbnail":{"default":"https://cdn.freshful.ro/media/cache/sylius_shop_product_thumbnail/73/56/760f0368960163b550f25bfaaa51.jpg"},"large":{"default":"https://cdn.freshful.ro/media/cache/freshful_large/73/56/760f0368960163b550f25bfaaa51.jpg"},"extralarge":{"default":"https://cdn.freshful.ro/media/cache/sylius_shop_product_original/73/56/760f0368960163b550f25bfaaa51.jpg"}},"label":null,"tags":[],"isAvailable":true,"maxAvailableQuantity":10,"maxAllowedQuantity":10,"breadcrumbs":[{"code":"7","name":"Băuturi","slug":"7-bauturi-si-tutun"},{"code":"707","name":"Tutun","slug":"707-tutun"},{"code":"70701","name":"Țigări","slug":"70701-tigari"},{"code":"100070472","name":"Țigări Super S White","slug":"100070472-sobranie-tigari-super-s-white"}],"activePromotion":null,"saveMe":null,"labels":[],"geniusPrice":null,"geniusUnitPricePerLabel":null,"banner":null,"discountLabel":null,"geniusDiscountLabel":null,"badge":null},{"code":"100120787","variantCode":"100120787","name":"Silver","slug":"100120787-heets-silver","unitPriceLabel":"","brand":"Heets","brandCode":"2078","brandFilterCode":"heets-b2082","sku":"100120787","price":19,"originalPrice":null,"currencyCode":"RON","currency":"Lei","image":{"thumbnail":{"default":"https://cdn.freshful.ro/media/cache/sylius_shop_product_thumbnail/c8/a3/d01014d0e661654cae81f4816596.jpg"},"large":{"default":"https://cdn.freshful.ro/media/cache/freshful_large/c8/a3/d01014d0e661654cae81f4816596.jpg"},"extralarge":{"default":"https://cdn.freshful.ro/media/cache/sylius_shop_product_original/c8/a3/d01014d0e661654cae81f4816596.jpg"}},"label":null,"tags":[],"isAvailable":true,"maxAvailableQuantity":10,"maxAllowedQuantity":10,"breadcrumbs":[{"code":"7","name":"Băuturi","slug":"7-bauturi-si-tutun"},{"code":"707","name":"Tutun","slug":"707-tutun"},{"code":"70705","name":"Rezerve tutun pentru dispozitive","slug":"70705-rezerve-tutun-pentru-dispozitive"},{"code":"100120787","name":"Silver","slug":"100120787-heets-silver"}],"activePromotion":null,"saveMe":null,"labels":[],"geniusPrice":null,"geniusUnitPricePerLabel":null,"banner":null,"discountLabel":null,"geniusDiscountLabel":null,"badge":null},{"code":"100120784","variantCode":"100120784","name":"Sienna Caps","slug":"100120784-heets-sienna-caps","unitPriceLabel":"","brand":"Heets","brandCode":"2078","brandFilterCode":"heets-b2082","sku":"100120784","price":19,"originalPrice":null,"currencyCode":"RON","currency":"Lei","image":{"thumbnail":{"default":"https://cdn.freshful.ro/media/cache/sylius_shop_product_thumbnail/33/b0/30f3d5fe6b3709592fa6d14891b3.jpg"},"large":{"default":"https://cdn.freshful.ro/media/cache/freshful_large/33/b0/30f3d5fe6b3709592fa6d14891b3.jpg"},"extralarge":{"default":"https://cdn.freshful.ro/media/cache/sylius_shop_product_original/33/b0/30f3d5fe6b3709592fa6d14891b3.jpg"}},"label":null,"tags":[],"isAvailable":true,"maxAvailableQuantity":10,"maxAllowedQuantity":10,"breadcrumbs":[{"code":"7","name":"Băuturi","slug":"7-bauturi-si-tutun"},{"code":"707","name":"Tutun","slug":"707-tutun"},{"code":"70705","name":"Rezerve tutun pentru dispozitive","slug":"70705-rezerve-tutun-pentru-dispozitive"},{"code":"100120784","name":"Sienna Caps","slug":"100120784-heets-sienna-caps"}],"activePromotion":null,"saveMe":null,"labels":[],"geniusPrice":null,"geniusUnitPricePerLabel":null,"banner":null,"discountLabel":null,"geniusDiscountLabel":null,"badge":null},{"code":"100120788","variantCode":"100120788","name":"Bronze","slug":"100120788-heets-bronze","unitPriceLabel":"","brand":"Heets","brandCode":"2078","brandFilterCode":"heets-b2082","sku":"100120788","price":19,"originalPrice":null,"currencyCode":"RON","currency":"Lei","image":{"thumbnail":{"default":"https://cdn.freshful.ro/media/cache/sylius_shop_product_thumbnail/cf/ca/1ecfd10cecde303ec36218dcb959.jpg"},"large":{"default":"https://cdn.freshful.ro/media/cache/freshful_large/cf/ca/1ecfd10cecde303ec36218dcb959.jpg"},"extralarge":{"default":"https://cdn.freshful.ro/media/cache/sylius_shop_product_original/cf/ca/1ecfd10cecde303ec36218dcb959.jpg"}},"label":null,"tags":[],"isAvailable":true,"maxAvailableQuantity":10,"maxAllowedQuantity":10,"breadcrumbs":[{"code":"7","name":"Băuturi","slug":"7-bauturi-si-tutun"},{"code":"707","name":"Tutun","slug":"707-tutun"},{"code":"70705","name":"Rezerve tutun pentru dispozitive","slug":"70705-rezerve-tutun-pentru-dispozitive"},{"code":"100120788","name":"Bronze","slug":"100120788-heets-bronze"}],"activePromotion":null,"saveMe":null,"labels":[],"geniusPrice":null,"geniusUnitPricePerLabel":null,"banner":null,"discountLabel":null,"geniusDiscountLabel":null,"badge":null},{"code":"100144033","variantCode":"100144033","name":"Mauve Wave","slug":"100144033-heets-mauve-wave","unitPriceLabel":"","brand":"Heets","brandCode":"2078","brandFilterCode":"heets-b2082","sku":"100144033","price":19,"originalPrice":null,"currencyCode":"RON","currency":"Lei","image":{"thumbnail":{"default":"https://cdn.freshful.ro/media/cache/sylius_shop_product_thumbnail/1c/49/8d422bb3deef58e47d86440380f4.jpg"},"large":{"default":"https://cdn.freshful.ro/media/cache/freshful_large/1c/49/8d422bb3deef58e47d86440380f4.jpg"},"extralarge":{"default":"https://cdn.freshful.ro/media/cache/sylius_shop_product_original/1c/49/8d422bb3deef58e47d86440380f4.jpg"}},"label":null,"tags":[],"isAvailable":true,"maxAvailableQuantity":10,"maxAllowedQuantity":10,"breadcrumbs":[{"code":"7","name":"Băuturi","slug":"7-bauturi-si-tutun"},{"code":"707","name":"Tutun","slug":"707-tutun"},{"code":"70705","name":"Rezerve tutun pentru dispozitive","slug":"70705-rezerve-tutun-pentru-dispozitive"},{"code":"100144033","name":"Mauve Wave","slug":"100144033-heets-mauve-wave"}],"activePromotion":null,"saveMe":null,"labels":[],"geniusPrice":null,"geniusUnitPricePerLabel":null,"banner":null,"discountLabel":null,"geniusDiscountLabel":null,"badge":null}],"filters":{"countSelected":0,"items":[{"code":"brand","name":"Brand","countSelected":0,"values":[{"code":"bic-b320","name":"BiC","isSelected":false,"count":3},{"code":"camel-b1268","name":"Camel","isSelected":false,"count":2},{"code":"chesterfield-b2081","name":"Chesterfield","isSelected":false,"count":4},{"code":"cubanos-b1245","name":"Cubanos","isSelected":false,"count":3},{"code":"davidoff-b1157","name":"Davidoff","isSelected":false,"count":13},{"code":"dunhill-b2735","name":"Dunhill","isSelected":false,"count":16},{"code":"golden-virginia-b1159","name":"Golden Virginia","isSelected":false,"count":3},{"code":"heets-b2082","name":"Heets","isSelected":false,"count":15},{"code":"kent-b2737","name":"Kent","isSelected":false,"count":11},{"code":"l-m-b2080","name":"L&M","isSelected":false,"count":2},{"code":"lucky-strike-b2740","name":"Lucky Strike","isSelected":false,"count":1},{"code":"marlboro-b2079","name":"Marlboro","isSelected":false,"count":16},{"code":"neo-b2743","name":"Neo","isSelected":false,"count":10},{"code":"oliva-b102","name":"Oliva","isSelected":false,"count":1},{"code":"pall-mall-b2741","name":"Pall Mall","isSelected":false,"count":11},{"code":"parliament-b2078","name":"Parliament","isSelected":false,"count":3},{"code":"perdomo-b1241","name":"Perdomo","isSelected":false,"count":2},{"code":"punta-cana-b1242","name":"Punta Cana","isSelected":false,"count":1},{"code":"rizla-b1160","name":"Rizla","isSelected":false,"count":11},{"code":"rocks-b1243","name":"Rocks","isSelected":false,"count":4},{"code":"rothmans-b2739","name":"Rothmans","isSelected":false,"count":2},{"code":"sobranie-b1266","name":"Sobranie","isSelected":false,"count":11},{"code":"viceroy-b2742","name":"Viceroy","isSelected":false,"count":2},{"code":"vogue-b2736","name":"Vogue","isSelected":false,"count":5},{"code":"west-b1158","name":"West","isSelected":false,"count":2},{"code":"winston-b1267","name":"Winston","isSelected":false,"count":10},{"code":"zino-b1240","name":"Zino","isSelected":false,"count":1}]}]},"orderBy":[{"field":"price","direction":"asc","name":"Preț crescător","isSelected":false},{"field":"price","direction":"desc","name":"Preț descrescător","isSelected":false},{"field":"popularity","direction":"desc","name":"Cele mai populare","isSelected":true},{"field":"category","direction":"asc","name":"Categorie","isSelected":false}],"metaTitle":"Tutun - Gamă variată","metaDescription":"Vrei Tutun? Alege dintr-o gamă variată. Comanzi simplu și ai livrare rapidă, calitate și prospețime. Hai pe Freshful.ro","metaKeywords":null,"banners":[]}}