{"type":"subcategory","payload":{"analyticsListId":"category_70707-acccesorii-tutun","analyticsListName":"Category - Accesorii tutun","name":"Accesorii tutun","slug":"70707-acccesorii-tutun","image":null,"breadcrumbs":[{"code":"7","name":"Băuturi","slug":"7-bauturi-si-tutun"},{"code":"707","name":"Tutun","slug":"707-tutun"},{"code":"70707","name":"Accesorii tutun","slug":"70707-acccesorii-tutun"}],"slots":[],"page":1,"limit":10,"pages":2,"count":11,"siblings":[{"name":"Băuturi necarbogazoase și siropuri","slug":"701-bauturi-necarbogazoase-si-siropuri","selected":false},{"name":"Apă","slug":"702-apa","selected":false},{"name":"Băuturi carbogazoase","slug":"703-bauturi-carbogazoase","selected":false},{"name":"Bere","slug":"704-bere","selected":false},{"name":"Vinuri","slug":"705-vinuri","selected":false},{"name":"Băuturi spirtoase","slug":"706-bauturi-spirtoase","selected":false},{"name":"Tutun","slug":"707-tutun","selected":true}],"children":[{"name":"Toate produsele","slug":"707-tutun","selected":false},{"name":"Țigări","slug":"70701-tigari","selected":false},{"name":"Țigări de foi","slug":"70702-tigari-de-foi","selected":false},{"name":"Tutun pentru rulat","slug":"70703-tutun-pentru-rulat","selected":false},{"name":"Rezerve tutun pentru dispozitive","slug":"70705-rezerve-tutun-pentru-dispozitive","selected":false},{"name":"Brichete","slug":"70706-brichete","selected":false},{"name":"Accesorii tutun","slug":"70707-acccesorii-tutun","selected":true}],"products":[{"code":"100074924","variantCode":"5010813811842","name":"Filtre slim pentru rulat 150 buc","slug":"100074924-rizla-filtre-slim-pentru-rulat-150-buc","unitPriceLabel":"","brand":"Rizla","brandCode":"1159","brandFilterCode":"rizla-b1160","sku":"100074924","price":2.89,"originalPrice":null,"currencyCode":"RON","currency":"Lei","image":{"thumbnail":{"default":"https://cdn.freshful.ro/media/cache/sylius_shop_product_thumbnail/d6/48/11bfd016396377ce3c802471e431.jpg"},"large":{"default":"https://cdn.freshful.ro/media/cache/freshful_large/d6/48/11bfd016396377ce3c802471e431.jpg"},"extralarge":{"default":"https://cdn.freshful.ro/media/cache/sylius_shop_product_original/d6/48/11bfd016396377ce3c802471e431.jpg"}},"label":null,"tags":[],"isAvailable":true,"maxAvailableQuantity":10,"maxAllowedQuantity":10,"breadcrumbs":[{"code":"7","name":"Băuturi","slug":"7-bauturi-si-tutun"},{"code":"707","name":"Tutun","slug":"707-tutun"},{"code":"70707","name":"Accesorii tutun","slug":"70707-acccesorii-tutun"},{"code":"100074924","name":"Filtre slim pentru rulat 150 buc","slug":"100074924-rizla-filtre-slim-pentru-rulat-150-buc"}],"activePromotion":null,"saveMe":null,"labels":[],"geniusPrice":null,"geniusUnitPricePerLabel":null,"banner":null,"discountLabel":null,"geniusDiscountLabel":null,"badge":null},{"code":"100074931","variantCode":"54009691","name":"Foițe pentru rulat Green 50 buc","slug":"100074931-rizla-foite-pentru-rulat-green-50-buc","unitPriceLabel":"","brand":"Rizla","brandCode":"1159","brandFilterCode":"rizla-b1160","sku":"100074931","price":1.05,"originalPrice":null,"currencyCode":"RON","currency":"Lei","image":{"thumbnail":{"default":"https://cdn.freshful.ro/media/cache/sylius_shop_product_thumbnail/96/80/a1078b09bdd6146d11f9487fb50c.jpg"},"large":{"default":"https://cdn.freshful.ro/media/cache/freshful_large/96/80/a1078b09bdd6146d11f9487fb50c.jpg"},"extralarge":{"default":"https://cdn.freshful.ro/media/cache/sylius_shop_product_original/96/80/a1078b09bdd6146d11f9487fb50c.jpg"}},"label":null,"tags":[],"isAvailable":true,"maxAvailableQuantity":10,"maxAllowedQuantity":10,"breadcrumbs":[{"code":"7","name":"Băuturi","slug":"7-bauturi-si-tutun"},{"code":"707","name":"Tutun","slug":"707-tutun"},{"code":"70707","name":"Accesorii tutun","slug":"70707-acccesorii-tutun"},{"code":"100074931","name":"Foițe pentru rulat Green 50 buc","slug":"100074931-rizla-foite-pentru-rulat-green-50-buc"}],"activePromotion":null,"saveMe":null,"labels":[],"geniusPrice":null,"geniusUnitPricePerLabel":null,"banner":null,"discountLabel":null,"geniusDiscountLabel":null,"badge":null},{"code":"100074926","variantCode":"54034358","name":"Foițe pentru rulat Liquorice 50 buc","slug":"100074926-rizla-foite-pentru-rulat-liquorice-50-buc","unitPriceLabel":"","brand":"Rizla","brandCode":"1159","brandFilterCode":"rizla-b1160","sku":"100074926","price":1.54,"originalPrice":null,"currencyCode":"RON","currency":"Lei","image":{"thumbnail":{"default":"https://cdn.freshful.ro/media/cache/sylius_shop_product_thumbnail/dd/f4/597497518b3ca480bf21fa97bf90.jpg"},"large":{"default":"https://cdn.freshful.ro/media/cache/freshful_large/dd/f4/597497518b3ca480bf21fa97bf90.jpg"},"extralarge":{"default":"https://cdn.freshful.ro/media/cache/sylius_shop_product_original/dd/f4/597497518b3ca480bf21fa97bf90.jpg"}},"label":null,"tags":[],"isAvailable":true,"maxAvailableQuantity":10,"maxAllowedQuantity":10,"breadcrumbs":[{"code":"7","name":"Băuturi","slug":"7-bauturi-si-tutun"},{"code":"707","name":"Tutun","slug":"707-tutun"},{"code":"70707","name":"Accesorii tutun","slug":"70707-acccesorii-tutun"},{"code":"100074926","name":"Foițe pentru rulat Liquorice 50 buc","slug":"100074926-rizla-foite-pentru-rulat-liquorice-50-buc"}],"activePromotion":null,"saveMe":null,"labels":[],"geniusPrice":null,"geniusUnitPricePerLabel":null,"banner":null,"discountLabel":null,"geniusDiscountLabel":null,"badge":null},{"code":"100074925","variantCode":"4030700131250","name":"Filtre ultra-slim pentru rulat 120 buc","slug":"100074925-rizla-filtre-ultra-slim-pentru-rulat-120-buc","unitPriceLabel":"","brand":"Rizla","brandCode":"1159","brandFilterCode":"rizla-b1160","sku":"100074925","price":2.89,"originalPrice":null,"currencyCode":"RON","currency":"Lei","image":{"thumbnail":{"default":"https://cdn.freshful.ro/media/cache/sylius_shop_product_thumbnail/90/ea/de77c88dc236fd8afc18eeb1eb0a.jpg"},"large":{"default":"https://cdn.freshful.ro/media/cache/freshful_large/90/ea/de77c88dc236fd8afc18eeb1eb0a.jpg"},"extralarge":{"default":"https://cdn.freshful.ro/media/cache/sylius_shop_product_original/90/ea/de77c88dc236fd8afc18eeb1eb0a.jpg"}},"label":null,"tags":[],"isAvailable":true,"maxAvailableQuantity":10,"maxAllowedQuantity":10,"breadcrumbs":[{"code":"7","name":"Băuturi","slug":"7-bauturi-si-tutun"},{"code":"707","name":"Tutun","slug":"707-tutun"},{"code":"70707","name":"Accesorii tutun","slug":"70707-acccesorii-tutun"},{"code":"100074925","name":"Filtre ultra-slim pentru rulat 120 buc","slug":"100074925-rizla-filtre-ultra-slim-pentru-rulat-120-buc"}],"activePromotion":null,"saveMe":null,"labels":[],"geniusPrice":null,"geniusUnitPricePerLabel":null,"banner":null,"discountLabel":null,"geniusDiscountLabel":null,"badge":null},{"code":"100074927","variantCode":"54010314","name":"Foițe pentru rulat Silver 50 buc","slug":"100074927-rizla-foite-pentru-rulat-silver-50-buc","unitPriceLabel":"","brand":"Rizla","brandCode":"1159","brandFilterCode":"rizla-b1160","sku":"100074927","price":1.15,"originalPrice":null,"currencyCode":"RON","currency":"Lei","image":{"thumbnail":{"default":"https://cdn.freshful.ro/media/cache/sylius_shop_product_thumbnail/b6/02/7478d43a163166bedf0c1eb048d4.jpg"},"large":{"default":"https://cdn.freshful.ro/media/cache/freshful_large/b6/02/7478d43a163166bedf0c1eb048d4.jpg"},"extralarge":{"default":"https://cdn.freshful.ro/media/cache/sylius_shop_product_original/b6/02/7478d43a163166bedf0c1eb048d4.jpg"}},"label":null,"tags":[],"isAvailable":true,"maxAvailableQuantity":10,"maxAllowedQuantity":10,"breadcrumbs":[{"code":"7","name":"Băuturi","slug":"7-bauturi-si-tutun"},{"code":"707","name":"Tutun","slug":"707-tutun"},{"code":"70707","name":"Accesorii tutun","slug":"70707-acccesorii-tutun"},{"code":"100074927","name":"Foițe pentru rulat Silver 50 buc","slug":"100074927-rizla-foite-pentru-rulat-silver-50-buc"}],"activePromotion":null,"saveMe":null,"labels":[],"geniusPrice":null,"geniusUnitPricePerLabel":null,"banner":null,"discountLabel":null,"geniusDiscountLabel":null,"badge":null},{"code":"100074930","variantCode":"54034419","name":"Foițe pentru rulat Natura King Size 32 buc","slug":"100074930-rizla-foite-pentru-rulat-natura-king-size-32-buc","unitPriceLabel":"","brand":"Rizla","brandCode":"1159","brandFilterCode":"rizla-b1160","sku":"100074930","price":2.69,"originalPrice":null,"currencyCode":"RON","currency":"Lei","image":{"thumbnail":{"default":"https://cdn.freshful.ro/media/cache/sylius_shop_product_thumbnail/dc/2a/6f583fd73f3559c4939a89dc1ecf.jpg"},"large":{"default":"https://cdn.freshful.ro/media/cache/freshful_large/dc/2a/6f583fd73f3559c4939a89dc1ecf.jpg"},"extralarge":{"default":"https://cdn.freshful.ro/media/cache/sylius_shop_product_original/dc/2a/6f583fd73f3559c4939a89dc1ecf.jpg"}},"label":null,"tags":[],"isAvailable":true,"maxAvailableQuantity":10,"maxAllowedQuantity":10,"breadcrumbs":[{"code":"7","name":"Băuturi","slug":"7-bauturi-si-tutun"},{"code":"707","name":"Tutun","slug":"707-tutun"},{"code":"70707","name":"Accesorii tutun","slug":"70707-acccesorii-tutun"},{"code":"100074930","name":"Foițe pentru rulat Natura King Size 32 buc","slug":"100074930-rizla-foite-pentru-rulat-natura-king-size-32-buc"}],"activePromotion":null,"saveMe":null,"labels":[],"geniusPrice":null,"geniusUnitPricePerLabel":null,"banner":null,"discountLabel":null,"geniusDiscountLabel":null,"badge":null},{"code":"100074929","variantCode":"54034860","name":"Foițe pentru rulat Natura Regular 50 buc","slug":"100074929-rizla-foite-pentru-rulat-natura-regular-50-buc","unitPriceLabel":"","brand":"Rizla","brandCode":"1159","brandFilterCode":"rizla-b1160","sku":"100074929","price":1.15,"originalPrice":null,"currencyCode":"RON","currency":"Lei","image":{"thumbnail":{"default":"https://cdn.freshful.ro/media/cache/sylius_shop_product_thumbnail/c2/5a/c9f5dd8936eba9df4a26237232dc.jpg"},"large":{"default":"https://cdn.freshful.ro/media/cache/freshful_large/c2/5a/c9f5dd8936eba9df4a26237232dc.jpg"},"extralarge":{"default":"https://cdn.freshful.ro/media/cache/sylius_shop_product_original/c2/5a/c9f5dd8936eba9df4a26237232dc.jpg"}},"label":null,"tags":[],"isAvailable":true,"maxAvailableQuantity":10,"maxAllowedQuantity":10,"breadcrumbs":[{"code":"7","name":"Băuturi","slug":"7-bauturi-si-tutun"},{"code":"707","name":"Tutun","slug":"707-tutun"},{"code":"70707","name":"Accesorii tutun","slug":"70707-acccesorii-tutun"},{"code":"100074929","name":"Foițe pentru rulat Natura Regular 50 buc","slug":"100074929-rizla-foite-pentru-rulat-natura-regular-50-buc"}],"activePromotion":null,"saveMe":null,"labels":[],"geniusPrice":null,"geniusUnitPricePerLabel":null,"banner":null,"discountLabel":null,"geniusDiscountLabel":null,"badge":null},{"code":"100074928","variantCode":"54009677","name":"Foițe pentru rulat Silver Regular 32 buc","slug":"100074928-rizla-foite-pentru-rulat-silver-regular-32-buc","unitPriceLabel":"","brand":"Rizla","brandCode":"1159","brandFilterCode":"rizla-b1160","sku":"100074928","price":2.69,"originalPrice":null,"currencyCode":"RON","currency":"Lei","image":{"thumbnail":{"default":"https://cdn.freshful.ro/media/cache/sylius_shop_product_thumbnail/f0/b6/8e1ff0b690a2c27e79166d6a6290.jpg"},"large":{"default":"https://cdn.freshful.ro/media/cache/freshful_large/f0/b6/8e1ff0b690a2c27e79166d6a6290.jpg"},"extralarge":{"default":"https://cdn.freshful.ro/media/cache/sylius_shop_product_original/f0/b6/8e1ff0b690a2c27e79166d6a6290.jpg"}},"label":null,"tags":[],"isAvailable":true,"maxAvailableQuantity":10,"maxAllowedQuantity":10,"breadcrumbs":[{"code":"7","name":"Băuturi","slug":"7-bauturi-si-tutun"},{"code":"707","name":"Tutun","slug":"707-tutun"},{"code":"70707","name":"Accesorii tutun","slug":"70707-acccesorii-tutun"},{"code":"100074928","name":"Foițe pentru rulat Silver Regular 32 buc","slug":"100074928-rizla-foite-pentru-rulat-silver-regular-32-buc"}],"activePromotion":null,"saveMe":null,"labels":[],"geniusPrice":null,"geniusUnitPricePerLabel":null,"banner":null,"discountLabel":null,"geniusDiscountLabel":null,"badge":null},{"code":"100074932","variantCode":"54010321","name":"Foițe pentru rulat Blue Regular 50 buc","slug":"100074932-rizla-foite-pentru-rulat-blue-regular-50-buc","unitPriceLabel":"","brand":"Rizla","brandCode":"1159","brandFilterCode":"rizla-b1160","sku":"100074932","price":1.05,"originalPrice":null,"currencyCode":"RON","currency":"Lei","image":{"thumbnail":{"default":"https://cdn.freshful.ro/media/cache/sylius_shop_product_thumbnail/5c/72/349e9066008d1d705250cd6f77ab.jpg"},"large":{"default":"https://cdn.freshful.ro/media/cache/freshful_large/5c/72/349e9066008d1d705250cd6f77ab.jpg"},"extralarge":{"default":"https://cdn.freshful.ro/media/cache/sylius_shop_product_original/5c/72/349e9066008d1d705250cd6f77ab.jpg"}},"label":null,"tags":[],"isAvailable":true,"maxAvailableQuantity":10,"maxAllowedQuantity":10,"breadcrumbs":[{"code":"7","name":"Băuturi","slug":"7-bauturi-si-tutun"},{"code":"707","name":"Tutun","slug":"707-tutun"},{"code":"70707","name":"Accesorii tutun","slug":"70707-acccesorii-tutun"},{"code":"100074932","name":"Foițe pentru rulat Blue Regular 50 buc","slug":"100074932-rizla-foite-pentru-rulat-blue-regular-50-buc"}],"activePromotion":null,"saveMe":null,"labels":[],"geniusPrice":null,"geniusUnitPricePerLabel":null,"banner":null,"discountLabel":null,"geniusDiscountLabel":null,"badge":null},{"code":"100074934","variantCode":"5410133879216","name":"Aparat pentru rulat","slug":"100074934-rizla-aparat-pentru-rulat","unitPriceLabel":"","brand":"Rizla","brandCode":"1159","brandFilterCode":"rizla-b1160","sku":"100074934","price":7.15,"originalPrice":null,"currencyCode":"RON","currency":"Lei","image":{"thumbnail":{"default":"https://cdn.freshful.ro/media/cache/sylius_shop_product_thumbnail/8f/8b/8dd5921596860be0e9aa4ab3ed72.jpg"},"large":{"default":"https://cdn.freshful.ro/media/cache/freshful_large/8f/8b/8dd5921596860be0e9aa4ab3ed72.jpg"},"extralarge":{"default":"https://cdn.freshful.ro/media/cache/sylius_shop_product_original/8f/8b/8dd5921596860be0e9aa4ab3ed72.jpg"}},"label":null,"tags":[],"isAvailable":true,"maxAvailableQuantity":10,"maxAllowedQuantity":10,"breadcrumbs":[{"code":"7","name":"Băuturi","slug":"7-bauturi-si-tutun"},{"code":"707","name":"Tutun","slug":"707-tutun"},{"code":"70707","name":"Accesorii tutun","slug":"70707-acccesorii-tutun"},{"code":"100074934","name":"Aparat pentru rulat","slug":"100074934-rizla-aparat-pentru-rulat"}],"activePromotion":null,"saveMe":null,"labels":[],"geniusPrice":null,"geniusUnitPricePerLabel":null,"banner":null,"discountLabel":null,"geniusDiscountLabel":null,"badge":null}],"filters":{"countSelected":0,"items":[{"code":"brand","name":"Brand","countSelected":0,"values":[{"code":"rizla-b1160","name":"Rizla","isSelected":false,"count":11}]}]},"orderBy":[{"field":"price","direction":"asc","name":"Preț crescător","isSelected":false},{"field":"price","direction":"desc","name":"Preț descrescător","isSelected":false},{"field":"popularity","direction":"desc","name":"Cele mai populare","isSelected":true},{"field":"category","direction":"asc","name":"Categorie","isSelected":false}],"metaTitle":"Accesorii tutun - Gamă variată","metaDescription":"Vrei Accesorii tutun? Alege dintr-o gamă variată. Comanzi simplu și ai livrare rapidă, calitate și prospețime. Hai pe Freshful.ro","metaKeywords":null,"banners":[]}}