{"type":"subcategory","payload":{"analyticsListId":"category_70705-rezerve-tutun-pentru-dispozitive","analyticsListName":"Category - Rezerve tutun pentru dispozitive","name":"Rezerve tutun pentru dispozitive","slug":"70705-rezerve-tutun-pentru-dispozitive","image":null,"breadcrumbs":[{"code":"7","name":"Băuturi","slug":"7-bauturi-si-tutun"},{"code":"707","name":"Tutun","slug":"707-tutun"},{"code":"70705","name":"Rezerve tutun pentru dispozitive","slug":"70705-rezerve-tutun-pentru-dispozitive"}],"slots":[],"page":1,"limit":10,"pages":3,"count":27,"siblings":[{"name":"Băuturi necarbogazoase și siropuri","slug":"701-bauturi-necarbogazoase-si-siropuri","selected":false},{"name":"Apă","slug":"702-apa","selected":false},{"name":"Băuturi carbogazoase","slug":"703-bauturi-carbogazoase","selected":false},{"name":"Bere","slug":"704-bere","selected":false},{"name":"Vinuri","slug":"705-vinuri","selected":false},{"name":"Băuturi spirtoase","slug":"706-bauturi-spirtoase","selected":false},{"name":"Tutun","slug":"707-tutun","selected":true}],"children":[{"name":"Toate produsele","slug":"707-tutun","selected":false},{"name":"Țigări","slug":"70701-tigari","selected":false},{"name":"Țigări de foi","slug":"70702-tigari-de-foi","selected":false},{"name":"Tutun pentru rulat","slug":"70703-tutun-pentru-rulat","selected":false},{"name":"Rezerve tutun pentru dispozitive","slug":"70705-rezerve-tutun-pentru-dispozitive","selected":true},{"name":"Brichete","slug":"70706-brichete","selected":false},{"name":"Accesorii tutun","slug":"70707-acccesorii-tutun","selected":false}],"products":[{"code":"100120792","variantCode":"100120792","name":"Turquoise","slug":"100120792-heets-turquoise","unitPriceLabel":"","brand":"Heets","brandCode":"2078","brandFilterCode":"heets-b2082","sku":"100120792","price":19,"originalPrice":null,"currencyCode":"RON","currency":"Lei","image":{"thumbnail":{"default":"https://cdn.freshful.ro/media/cache/sylius_shop_product_thumbnail/df/f3/e52c78c6a1a9cdd6624ed66b2170.jpg"},"large":{"default":"https://cdn.freshful.ro/media/cache/freshful_large/df/f3/e52c78c6a1a9cdd6624ed66b2170.jpg"},"extralarge":{"default":"https://cdn.freshful.ro/media/cache/sylius_shop_product_original/df/f3/e52c78c6a1a9cdd6624ed66b2170.jpg"}},"label":null,"tags":[],"isAvailable":true,"maxAvailableQuantity":10,"maxAllowedQuantity":10,"breadcrumbs":[{"code":"7","name":"Băuturi","slug":"7-bauturi-si-tutun"},{"code":"707","name":"Tutun","slug":"707-tutun"},{"code":"70705","name":"Rezerve tutun pentru dispozitive","slug":"70705-rezerve-tutun-pentru-dispozitive"},{"code":"100120792","name":"Turquoise","slug":"100120792-heets-turquoise"}],"activePromotion":null,"saveMe":null,"labels":[],"geniusPrice":null,"geniusUnitPricePerLabel":null,"banner":null,"discountLabel":null,"geniusDiscountLabel":null,"badge":null},{"code":"100120789","variantCode":"100120789","name":"Yellow","slug":"100120789-heets-yellow","unitPriceLabel":"","brand":"Heets","brandCode":"2078","brandFilterCode":"heets-b2082","sku":"100120789","price":19,"originalPrice":null,"currencyCode":"RON","currency":"Lei","image":{"thumbnail":{"default":"https://cdn.freshful.ro/media/cache/sylius_shop_product_thumbnail/44/48/34d51632862cb9fc89fa85700a76.jpg"},"large":{"default":"https://cdn.freshful.ro/media/cache/freshful_large/44/48/34d51632862cb9fc89fa85700a76.jpg"},"extralarge":{"default":"https://cdn.freshful.ro/media/cache/sylius_shop_product_original/44/48/34d51632862cb9fc89fa85700a76.jpg"}},"label":null,"tags":[],"isAvailable":true,"maxAvailableQuantity":10,"maxAllowedQuantity":10,"breadcrumbs":[{"code":"7","name":"Băuturi","slug":"7-bauturi-si-tutun"},{"code":"707","name":"Tutun","slug":"707-tutun"},{"code":"70705","name":"Rezerve tutun pentru dispozitive","slug":"70705-rezerve-tutun-pentru-dispozitive"},{"code":"100120789","name":"Yellow","slug":"100120789-heets-yellow"}],"activePromotion":null,"saveMe":null,"labels":[],"geniusPrice":null,"geniusUnitPricePerLabel":null,"banner":null,"discountLabel":null,"geniusDiscountLabel":null,"badge":null},{"code":"100120782","variantCode":"100120782","name":"Amber","slug":"100120782-heets-amber","unitPriceLabel":"","brand":"Heets","brandCode":"2078","brandFilterCode":"heets-b2082","sku":"100120782","price":19,"originalPrice":null,"currencyCode":"RON","currency":"Lei","image":{"thumbnail":{"default":"https://cdn.freshful.ro/media/cache/sylius_shop_product_thumbnail/13/0b/3a11a3fc8fef24f724f5964d0400.jpg"},"large":{"default":"https://cdn.freshful.ro/media/cache/freshful_large/13/0b/3a11a3fc8fef24f724f5964d0400.jpg"},"extralarge":{"default":"https://cdn.freshful.ro/media/cache/sylius_shop_product_original/13/0b/3a11a3fc8fef24f724f5964d0400.jpg"}},"label":null,"tags":[],"isAvailable":true,"maxAvailableQuantity":10,"maxAllowedQuantity":10,"breadcrumbs":[{"code":"7","name":"Băuturi","slug":"7-bauturi-si-tutun"},{"code":"707","name":"Tutun","slug":"707-tutun"},{"code":"70705","name":"Rezerve tutun pentru dispozitive","slug":"70705-rezerve-tutun-pentru-dispozitive"},{"code":"100120782","name":"Amber","slug":"100120782-heets-amber"}],"activePromotion":null,"saveMe":null,"labels":[],"geniusPrice":null,"geniusUnitPricePerLabel":null,"banner":null,"discountLabel":null,"geniusDiscountLabel":null,"badge":null},{"code":"100120787","variantCode":"100120787","name":"Silver","slug":"100120787-heets-silver","unitPriceLabel":"","brand":"Heets","brandCode":"2078","brandFilterCode":"heets-b2082","sku":"100120787","price":19,"originalPrice":null,"currencyCode":"RON","currency":"Lei","image":{"thumbnail":{"default":"https://cdn.freshful.ro/media/cache/sylius_shop_product_thumbnail/c8/a3/d01014d0e661654cae81f4816596.jpg"},"large":{"default":"https://cdn.freshful.ro/media/cache/freshful_large/c8/a3/d01014d0e661654cae81f4816596.jpg"},"extralarge":{"default":"https://cdn.freshful.ro/media/cache/sylius_shop_product_original/c8/a3/d01014d0e661654cae81f4816596.jpg"}},"label":null,"tags":[],"isAvailable":true,"maxAvailableQuantity":10,"maxAllowedQuantity":10,"breadcrumbs":[{"code":"7","name":"Băuturi","slug":"7-bauturi-si-tutun"},{"code":"707","name":"Tutun","slug":"707-tutun"},{"code":"70705","name":"Rezerve tutun pentru dispozitive","slug":"70705-rezerve-tutun-pentru-dispozitive"},{"code":"100120787","name":"Silver","slug":"100120787-heets-silver"}],"activePromotion":null,"saveMe":null,"labels":[],"geniusPrice":null,"geniusUnitPricePerLabel":null,"banner":null,"discountLabel":null,"geniusDiscountLabel":null,"badge":null},{"code":"100120784","variantCode":"100120784","name":"Sienna Caps","slug":"100120784-heets-sienna-caps","unitPriceLabel":"","brand":"Heets","brandCode":"2078","brandFilterCode":"heets-b2082","sku":"100120784","price":19,"originalPrice":null,"currencyCode":"RON","currency":"Lei","image":{"thumbnail":{"default":"https://cdn.freshful.ro/media/cache/sylius_shop_product_thumbnail/33/b0/30f3d5fe6b3709592fa6d14891b3.jpg"},"large":{"default":"https://cdn.freshful.ro/media/cache/freshful_large/33/b0/30f3d5fe6b3709592fa6d14891b3.jpg"},"extralarge":{"default":"https://cdn.freshful.ro/media/cache/sylius_shop_product_original/33/b0/30f3d5fe6b3709592fa6d14891b3.jpg"}},"label":null,"tags":[],"isAvailable":true,"maxAvailableQuantity":10,"maxAllowedQuantity":10,"breadcrumbs":[{"code":"7","name":"Băuturi","slug":"7-bauturi-si-tutun"},{"code":"707","name":"Tutun","slug":"707-tutun"},{"code":"70705","name":"Rezerve tutun pentru dispozitive","slug":"70705-rezerve-tutun-pentru-dispozitive"},{"code":"100120784","name":"Sienna Caps","slug":"100120784-heets-sienna-caps"}],"activePromotion":null,"saveMe":null,"labels":[],"geniusPrice":null,"geniusUnitPricePerLabel":null,"banner":null,"discountLabel":null,"geniusDiscountLabel":null,"badge":null},{"code":"100120788","variantCode":"100120788","name":"Bronze","slug":"100120788-heets-bronze","unitPriceLabel":"","brand":"Heets","brandCode":"2078","brandFilterCode":"heets-b2082","sku":"100120788","price":19,"originalPrice":null,"currencyCode":"RON","currency":"Lei","image":{"thumbnail":{"default":"https://cdn.freshful.ro/media/cache/sylius_shop_product_thumbnail/cf/ca/1ecfd10cecde303ec36218dcb959.jpg"},"large":{"default":"https://cdn.freshful.ro/media/cache/freshful_large/cf/ca/1ecfd10cecde303ec36218dcb959.jpg"},"extralarge":{"default":"https://cdn.freshful.ro/media/cache/sylius_shop_product_original/cf/ca/1ecfd10cecde303ec36218dcb959.jpg"}},"label":null,"tags":[],"isAvailable":true,"maxAvailableQuantity":10,"maxAllowedQuantity":10,"breadcrumbs":[{"code":"7","name":"Băuturi","slug":"7-bauturi-si-tutun"},{"code":"707","name":"Tutun","slug":"707-tutun"},{"code":"70705","name":"Rezerve tutun pentru dispozitive","slug":"70705-rezerve-tutun-pentru-dispozitive"},{"code":"100120788","name":"Bronze","slug":"100120788-heets-bronze"}],"activePromotion":null,"saveMe":null,"labels":[],"geniusPrice":null,"geniusUnitPricePerLabel":null,"banner":null,"discountLabel":null,"geniusDiscountLabel":null,"badge":null},{"code":"100144033","variantCode":"100144033","name":"Mauve Wave","slug":"100144033-heets-mauve-wave","unitPriceLabel":"","brand":"Heets","brandCode":"2078","brandFilterCode":"heets-b2082","sku":"100144033","price":19,"originalPrice":null,"currencyCode":"RON","currency":"Lei","image":{"thumbnail":{"default":"https://cdn.freshful.ro/media/cache/sylius_shop_product_thumbnail/1c/49/8d422bb3deef58e47d86440380f4.jpg"},"large":{"default":"https://cdn.freshful.ro/media/cache/freshful_large/1c/49/8d422bb3deef58e47d86440380f4.jpg"},"extralarge":{"default":"https://cdn.freshful.ro/media/cache/sylius_shop_product_original/1c/49/8d422bb3deef58e47d86440380f4.jpg"}},"label":null,"tags":[],"isAvailable":true,"maxAvailableQuantity":10,"maxAllowedQuantity":10,"breadcrumbs":[{"code":"7","name":"Băuturi","slug":"7-bauturi-si-tutun"},{"code":"707","name":"Tutun","slug":"707-tutun"},{"code":"70705","name":"Rezerve tutun pentru dispozitive","slug":"70705-rezerve-tutun-pentru-dispozitive"},{"code":"100144033","name":"Mauve Wave","slug":"100144033-heets-mauve-wave"}],"activePromotion":null,"saveMe":null,"labels":[],"geniusPrice":null,"geniusUnitPricePerLabel":null,"banner":null,"discountLabel":null,"geniusDiscountLabel":null,"badge":null},{"code":"100120786","variantCode":"100120786","name":"Teak","slug":"100120786-heets-teak","unitPriceLabel":"","brand":"Heets","brandCode":"2078","brandFilterCode":"heets-b2082","sku":"100120786","price":19,"originalPrice":null,"currencyCode":"RON","currency":"Lei","image":{"thumbnail":{"default":"https://cdn.freshful.ro/media/cache/sylius_shop_product_thumbnail/54/b2/f18d3a8824eb620b579bbaa0b3c9.jpg"},"large":{"default":"https://cdn.freshful.ro/media/cache/freshful_large/54/b2/f18d3a8824eb620b579bbaa0b3c9.jpg"},"extralarge":{"default":"https://cdn.freshful.ro/media/cache/sylius_shop_product_original/54/b2/f18d3a8824eb620b579bbaa0b3c9.jpg"}},"label":null,"tags":[],"isAvailable":true,"maxAvailableQuantity":10,"maxAllowedQuantity":10,"breadcrumbs":[{"code":"7","name":"Băuturi","slug":"7-bauturi-si-tutun"},{"code":"707","name":"Tutun","slug":"707-tutun"},{"code":"70705","name":"Rezerve tutun pentru dispozitive","slug":"70705-rezerve-tutun-pentru-dispozitive"},{"code":"100120786","name":"Teak","slug":"100120786-heets-teak"}],"activePromotion":null,"saveMe":null,"labels":[],"geniusPrice":null,"geniusUnitPricePerLabel":null,"banner":null,"discountLabel":null,"geniusDiscountLabel":null,"badge":null},{"code":"100120790","variantCode":"100120790","name":"Russet","slug":"100120790-heets-russet","unitPriceLabel":"","brand":"Heets","brandCode":"2078","brandFilterCode":"heets-b2082","sku":"100120790","price":19,"originalPrice":null,"currencyCode":"RON","currency":"Lei","image":{"thumbnail":{"default":"https://cdn.freshful.ro/media/cache/sylius_shop_product_thumbnail/54/c9/81b3e21f79a4bae9cd3654b9f9af.jpg"},"large":{"default":"https://cdn.freshful.ro/media/cache/freshful_large/54/c9/81b3e21f79a4bae9cd3654b9f9af.jpg"},"extralarge":{"default":"https://cdn.freshful.ro/media/cache/sylius_shop_product_original/54/c9/81b3e21f79a4bae9cd3654b9f9af.jpg"}},"label":null,"tags":[],"isAvailable":true,"maxAvailableQuantity":10,"maxAllowedQuantity":10,"breadcrumbs":[{"code":"7","name":"Băuturi","slug":"7-bauturi-si-tutun"},{"code":"707","name":"Tutun","slug":"707-tutun"},{"code":"70705","name":"Rezerve tutun pentru dispozitive","slug":"70705-rezerve-tutun-pentru-dispozitive"},{"code":"100120790","name":"Russet","slug":"100120790-heets-russet"}],"activePromotion":null,"saveMe":null,"labels":[],"geniusPrice":null,"geniusUnitPricePerLabel":null,"banner":null,"discountLabel":null,"geniusDiscountLabel":null,"badge":null},{"code":"100120791","variantCode":"100120791","name":"Sienna","slug":"100120791-heets-sienna","unitPriceLabel":"","brand":"Heets","brandCode":"2078","brandFilterCode":"heets-b2082","sku":"100120791","price":19,"originalPrice":null,"currencyCode":"RON","currency":"Lei","image":{"thumbnail":{"default":"https://cdn.freshful.ro/media/cache/sylius_shop_product_thumbnail/d2/3c/d4f5325c26c23a35010102e865c0.jpg"},"large":{"default":"https://cdn.freshful.ro/media/cache/freshful_large/d2/3c/d4f5325c26c23a35010102e865c0.jpg"},"extralarge":{"default":"https://cdn.freshful.ro/media/cache/sylius_shop_product_original/d2/3c/d4f5325c26c23a35010102e865c0.jpg"}},"label":null,"tags":[],"isAvailable":true,"maxAvailableQuantity":10,"maxAllowedQuantity":10,"breadcrumbs":[{"code":"7","name":"Băuturi","slug":"7-bauturi-si-tutun"},{"code":"707","name":"Tutun","slug":"707-tutun"},{"code":"70705","name":"Rezerve tutun pentru dispozitive","slug":"70705-rezerve-tutun-pentru-dispozitive"},{"code":"100120791","name":"Sienna","slug":"100120791-heets-sienna"}],"activePromotion":null,"saveMe":null,"labels":[],"geniusPrice":null,"geniusUnitPricePerLabel":null,"banner":null,"discountLabel":null,"geniusDiscountLabel":null,"badge":null}],"filters":{"countSelected":0,"items":[{"code":"brand","name":"Brand","countSelected":0,"values":[{"code":"dunhill-b2735","name":"Dunhill","isSelected":false,"count":2},{"code":"heets-b2082","name":"Heets","isSelected":false,"count":15},{"code":"neo-b2743","name":"Neo","isSelected":false,"count":10}]}]},"orderBy":[{"field":"price","direction":"asc","name":"Preț crescător","isSelected":false},{"field":"price","direction":"desc","name":"Preț descrescător","isSelected":false},{"field":"popularity","direction":"desc","name":"Cele mai populare","isSelected":true},{"field":"category","direction":"asc","name":"Categorie","isSelected":false}],"metaTitle":"Rezerve tutun pentru dispozitive - Gamă variată","metaDescription":"Vrei Rezerve tutun pentru dispozitive? Alege dintr-o gamă variată. Comanzi simplu și ai livrare rapidă, calitate și prospețime. Hai pe Freshful.ro","metaKeywords":null,"banners":[]}}