{"type":"subcategory","payload":{"analyticsListId":"category_70702-tigari-de-foi","analyticsListName":"Category - Țigări de foi","name":"Țigări de foi","slug":"70702-tigari-de-foi","image":null,"breadcrumbs":[{"code":"7","name":"Băuturi","slug":"7-bauturi-si-tutun"},{"code":"707","name":"Tutun","slug":"707-tutun"},{"code":"70702","name":"Țigări de foi","slug":"70702-tigari-de-foi"}],"slots":[],"page":1,"limit":10,"pages":2,"count":16,"siblings":[{"name":"Băuturi necarbogazoase și siropuri","slug":"701-bauturi-necarbogazoase-si-siropuri","selected":false},{"name":"Apă","slug":"702-apa","selected":false},{"name":"Băuturi carbogazoase","slug":"703-bauturi-carbogazoase","selected":false},{"name":"Bere","slug":"704-bere","selected":false},{"name":"Vinuri","slug":"705-vinuri","selected":false},{"name":"Băuturi spirtoase","slug":"706-bauturi-spirtoase","selected":false},{"name":"Tutun","slug":"707-tutun","selected":true}],"children":[{"name":"Toate produsele","slug":"707-tutun","selected":false},{"name":"Țigări","slug":"70701-tigari","selected":false},{"name":"Țigări de foi","slug":"70702-tigari-de-foi","selected":true},{"name":"Tutun pentru rulat","slug":"70703-tutun-pentru-rulat","selected":false},{"name":"Rezerve tutun pentru dispozitive","slug":"70705-rezerve-tutun-pentru-dispozitive","selected":false},{"name":"Brichete","slug":"70706-brichete","selected":false},{"name":"Accesorii tutun","slug":"70707-acccesorii-tutun","selected":false}],"products":[{"code":"100074489","variantCode":"100074489","name":"Țigări de foi Serie G 5s","slug":"100074489-oliva-tigari-de-foi-serie-g-5s","unitPriceLabel":"","brand":"Oliva","brandCode":"118","brandFilterCode":"oliva-b102","sku":"100074489","price":92.99,"originalPrice":null,"currencyCode":"RON","currency":"Lei","image":{"thumbnail":{"default":"https://cdn.freshful.ro/media/cache/sylius_shop_product_thumbnail/49/01/44e70c4e0276bdcbe613d93c5eef.jpg"},"large":{"default":"https://cdn.freshful.ro/media/cache/freshful_large/49/01/44e70c4e0276bdcbe613d93c5eef.jpg"},"extralarge":{"default":"https://cdn.freshful.ro/media/cache/sylius_shop_product_original/49/01/44e70c4e0276bdcbe613d93c5eef.jpg"}},"label":null,"tags":[],"isAvailable":true,"maxAvailableQuantity":10,"maxAllowedQuantity":10,"breadcrumbs":[{"code":"7","name":"Băuturi","slug":"7-bauturi-si-tutun"},{"code":"707","name":"Tutun","slug":"707-tutun"},{"code":"70702","name":"Țigări de foi","slug":"70702-tigari-de-foi"},{"code":"100074489","name":"Țigări de foi Serie G 5s","slug":"100074489-oliva-tigari-de-foi-serie-g-5s"}],"activePromotion":null,"saveMe":null,"labels":[],"geniusPrice":null,"geniusUnitPricePerLabel":null,"banner":null,"discountLabel":null,"geniusDiscountLabel":null,"badge":null},{"code":"100074498","variantCode":"100074498","name":"Țigări de foi Senoritas Naturel 50s","slug":"100074498-cubanos-tigari-de-foi-senoritas-naturel-50s","unitPriceLabel":"","brand":"Cubanos","brandCode":"1244","brandFilterCode":"cubanos-b1245","sku":"100074498","price":169.99,"originalPrice":null,"currencyCode":"RON","currency":"Lei","image":{"thumbnail":{"default":"https://cdn.freshful.ro/media/cache/sylius_shop_product_thumbnail/7d/27/42e06cd1f79c99cb36b30def1f29.jpg"},"large":{"default":"https://cdn.freshful.ro/media/cache/freshful_large/7d/27/42e06cd1f79c99cb36b30def1f29.jpg"},"extralarge":{"default":"https://cdn.freshful.ro/media/cache/sylius_shop_product_original/7d/27/42e06cd1f79c99cb36b30def1f29.jpg"}},"label":null,"tags":[],"isAvailable":true,"maxAvailableQuantity":10,"maxAllowedQuantity":10,"breadcrumbs":[{"code":"7","name":"Băuturi","slug":"7-bauturi-si-tutun"},{"code":"707","name":"Tutun","slug":"707-tutun"},{"code":"70702","name":"Țigări de foi","slug":"70702-tigari-de-foi"},{"code":"100074498","name":"Țigări de foi Senoritas Naturel 50s","slug":"100074498-cubanos-tigari-de-foi-senoritas-naturel-50s"}],"activePromotion":null,"saveMe":null,"labels":[],"geniusPrice":null,"geniusUnitPricePerLabel":null,"banner":null,"discountLabel":null,"geniusDiscountLabel":null,"badge":null},{"code":"100074485","variantCode":"100074485","name":"Țigări de foi Gold Minicigarillos 10s","slug":"100074485-davidoff-tigari-de-foi-gold-minicigarillos-10s","unitPriceLabel":"","brand":"Davidoff","brandCode":"1156","brandFilterCode":"davidoff-b1157","sku":"100074485","price":57.99,"originalPrice":null,"currencyCode":"RON","currency":"Lei","image":{"thumbnail":{"default":"https://cdn.freshful.ro/media/cache/sylius_shop_product_thumbnail/63/e6/05bd3cc58e35b3274ac1d1f64e1c.jpg"},"large":{"default":"https://cdn.freshful.ro/media/cache/freshful_large/63/e6/05bd3cc58e35b3274ac1d1f64e1c.jpg"},"extralarge":{"default":"https://cdn.freshful.ro/media/cache/sylius_shop_product_original/63/e6/05bd3cc58e35b3274ac1d1f64e1c.jpg"}},"label":null,"tags":[],"isAvailable":true,"maxAvailableQuantity":10,"maxAllowedQuantity":10,"breadcrumbs":[{"code":"7","name":"Băuturi","slug":"7-bauturi-si-tutun"},{"code":"707","name":"Tutun","slug":"707-tutun"},{"code":"70702","name":"Țigări de foi","slug":"70702-tigari-de-foi"},{"code":"100074485","name":"Țigări de foi Gold Minicigarillos 10s","slug":"100074485-davidoff-tigari-de-foi-gold-minicigarillos-10s"}],"activePromotion":null,"saveMe":null,"labels":[],"geniusPrice":null,"geniusUnitPricePerLabel":null,"banner":null,"discountLabel":null,"geniusDiscountLabel":null,"badge":null},{"code":"100074487","variantCode":"100074487","name":"Țigări de foi Silver Mini Cigarillos 20s","slug":"100074487-davidoff-tigari-de-foi-silver-mini-cigarillos-20s","unitPriceLabel":"","brand":"Davidoff","brandCode":"1156","brandFilterCode":"davidoff-b1157","sku":"100074487","price":115.99,"originalPrice":null,"currencyCode":"RON","currency":"Lei","image":{"thumbnail":{"default":"https://cdn.freshful.ro/media/cache/sylius_shop_product_thumbnail/a3/c8/a5f24eea6c3d3185ce21fb3d1d79.jpg"},"large":{"default":"https://cdn.freshful.ro/media/cache/freshful_large/a3/c8/a5f24eea6c3d3185ce21fb3d1d79.jpg"},"extralarge":{"default":"https://cdn.freshful.ro/media/cache/sylius_shop_product_original/a3/c8/a5f24eea6c3d3185ce21fb3d1d79.jpg"}},"label":null,"tags":[],"isAvailable":true,"maxAvailableQuantity":10,"maxAllowedQuantity":10,"breadcrumbs":[{"code":"7","name":"Băuturi","slug":"7-bauturi-si-tutun"},{"code":"707","name":"Tutun","slug":"707-tutun"},{"code":"70702","name":"Țigări de foi","slug":"70702-tigari-de-foi"},{"code":"100074487","name":"Țigări de foi Silver Mini Cigarillos 20s","slug":"100074487-davidoff-tigari-de-foi-silver-mini-cigarillos-20s"}],"activePromotion":null,"saveMe":null,"labels":[],"geniusPrice":null,"geniusUnitPricePerLabel":null,"banner":null,"discountLabel":null,"geniusDiscountLabel":null,"badge":null},{"code":"100074486","variantCode":"100074486","name":"Țigări de foi Nicaragua Mini Cigarillos 20s","slug":"100074486-davidoff-tigari-de-foi-nicaragua-mini-cigarillos-20s","unitPriceLabel":"","brand":"Davidoff","brandCode":"1156","brandFilterCode":"davidoff-b1157","sku":"100074486","price":115.99,"originalPrice":null,"currencyCode":"RON","currency":"Lei","image":{"thumbnail":{"default":"https://cdn.freshful.ro/media/cache/sylius_shop_product_thumbnail/d9/1f/502c0479e078238f310c3a4b0780.jpg"},"large":{"default":"https://cdn.freshful.ro/media/cache/freshful_large/d9/1f/502c0479e078238f310c3a4b0780.jpg"},"extralarge":{"default":"https://cdn.freshful.ro/media/cache/sylius_shop_product_original/d9/1f/502c0479e078238f310c3a4b0780.jpg"}},"label":null,"tags":[],"isAvailable":true,"maxAvailableQuantity":10,"maxAllowedQuantity":10,"breadcrumbs":[{"code":"7","name":"Băuturi","slug":"7-bauturi-si-tutun"},{"code":"707","name":"Tutun","slug":"707-tutun"},{"code":"70702","name":"Țigări de foi","slug":"70702-tigari-de-foi"},{"code":"100074486","name":"Țigări de foi Nicaragua Mini Cigarillos 20s","slug":"100074486-davidoff-tigari-de-foi-nicaragua-mini-cigarillos-20s"}],"activePromotion":null,"saveMe":null,"labels":[],"geniusPrice":null,"geniusUnitPricePerLabel":null,"banner":null,"discountLabel":null,"geniusDiscountLabel":null,"badge":null},{"code":"100074493","variantCode":"100074493","name":"Țigări de foi Plastic Tip 5s ","slug":"100074493-rocks-tigari-de-foi-plastic-tip-5s","unitPriceLabel":"","brand":"Rocks","brandCode":"1242","brandFilterCode":"rocks-b1243","sku":"100074493","price":20.99,"originalPrice":null,"currencyCode":"RON","currency":"Lei","image":{"thumbnail":{"default":"https://cdn.freshful.ro/media/cache/sylius_shop_product_thumbnail/24/d0/f8698e80f6936c3aac511db864ef.jpg"},"large":{"default":"https://cdn.freshful.ro/media/cache/freshful_large/24/d0/f8698e80f6936c3aac511db864ef.jpg"},"extralarge":{"default":"https://cdn.freshful.ro/media/cache/sylius_shop_product_original/24/d0/f8698e80f6936c3aac511db864ef.jpg"}},"label":null,"tags":[],"isAvailable":true,"maxAvailableQuantity":10,"maxAllowedQuantity":10,"breadcrumbs":[{"code":"7","name":"Băuturi","slug":"7-bauturi-si-tutun"},{"code":"707","name":"Tutun","slug":"707-tutun"},{"code":"70702","name":"Țigări de foi","slug":"70702-tigari-de-foi"},{"code":"100074493","name":"Țigări de foi Plastic Tip 5s ","slug":"100074493-rocks-tigari-de-foi-plastic-tip-5s"}],"activePromotion":null,"saveMe":null,"labels":[],"geniusPrice":null,"geniusUnitPricePerLabel":null,"banner":null,"discountLabel":null,"geniusDiscountLabel":null,"badge":null},{"code":"100074484","variantCode":"100074484","name":"Țigări de foi Club Cigarillos 10 buc","slug":"100074484-davidoff-tigari-de-foi-club-cigarillos-10-buc","unitPriceLabel":"","brand":"Davidoff","brandCode":"1156","brandFilterCode":"davidoff-b1157","sku":"100074484","price":75.99,"originalPrice":null,"currencyCode":"RON","currency":"Lei","image":{"thumbnail":{"default":"https://cdn.freshful.ro/media/cache/sylius_shop_product_thumbnail/08/33/4079404050939555f2c9aaaa43ee.jpg"},"large":{"default":"https://cdn.freshful.ro/media/cache/freshful_large/08/33/4079404050939555f2c9aaaa43ee.jpg"},"extralarge":{"default":"https://cdn.freshful.ro/media/cache/sylius_shop_product_original/08/33/4079404050939555f2c9aaaa43ee.jpg"}},"label":null,"tags":[],"isAvailable":true,"maxAvailableQuantity":10,"maxAllowedQuantity":10,"breadcrumbs":[{"code":"7","name":"Băuturi","slug":"7-bauturi-si-tutun"},{"code":"707","name":"Tutun","slug":"707-tutun"},{"code":"70702","name":"Țigări de foi","slug":"70702-tigari-de-foi"},{"code":"100074484","name":"Țigări de foi Club Cigarillos 10 buc","slug":"100074484-davidoff-tigari-de-foi-club-cigarillos-10-buc"}],"activePromotion":null,"saveMe":null,"labels":[],"geniusPrice":null,"geniusUnitPricePerLabel":null,"banner":null,"discountLabel":null,"geniusDiscountLabel":null,"badge":null},{"code":"100074499","variantCode":"100074499","name":"Țigări de foi Corona Naturel 50s","slug":"100074499-cubanos-tigari-de-foi-corona-naturel-50s","unitPriceLabel":"","brand":"Cubanos","brandCode":"1244","brandFilterCode":"cubanos-b1245","sku":"100074499","price":217.99,"originalPrice":null,"currencyCode":"RON","currency":"Lei","image":{"thumbnail":{"default":"https://cdn.freshful.ro/media/cache/sylius_shop_product_thumbnail/20/40/de9f593d9f3d1aaaf47487eabb2b.jpg"},"large":{"default":"https://cdn.freshful.ro/media/cache/freshful_large/20/40/de9f593d9f3d1aaaf47487eabb2b.jpg"},"extralarge":{"default":"https://cdn.freshful.ro/media/cache/sylius_shop_product_original/20/40/de9f593d9f3d1aaaf47487eabb2b.jpg"}},"label":null,"tags":[],"isAvailable":true,"maxAvailableQuantity":10,"maxAllowedQuantity":10,"breadcrumbs":[{"code":"7","name":"Băuturi","slug":"7-bauturi-si-tutun"},{"code":"707","name":"Tutun","slug":"707-tutun"},{"code":"70702","name":"Țigări de foi","slug":"70702-tigari-de-foi"},{"code":"100074499","name":"Țigări de foi Corona Naturel 50s","slug":"100074499-cubanos-tigari-de-foi-corona-naturel-50s"}],"activePromotion":null,"saveMe":null,"labels":[],"geniusPrice":null,"geniusUnitPricePerLabel":null,"banner":null,"discountLabel":null,"geniusDiscountLabel":null,"badge":null},{"code":"100074500","variantCode":"100074500","name":"Țigări de foi Bolknak Naturel 25s ","slug":"100074500-cubanos-tigari-de-foi-bolknak-naturel-25s","unitPriceLabel":"","brand":"Cubanos","brandCode":"1244","brandFilterCode":"cubanos-b1245","sku":"100074500","price":165.99,"originalPrice":null,"currencyCode":"RON","currency":"Lei","image":{"thumbnail":{"default":"https://cdn.freshful.ro/media/cache/sylius_shop_product_thumbnail/08/d9/57fd3dc520af05727a7b856ef266.jpg"},"large":{"default":"https://cdn.freshful.ro/media/cache/freshful_large/08/d9/57fd3dc520af05727a7b856ef266.jpg"},"extralarge":{"default":"https://cdn.freshful.ro/media/cache/sylius_shop_product_original/08/d9/57fd3dc520af05727a7b856ef266.jpg"}},"label":null,"tags":[],"isAvailable":true,"maxAvailableQuantity":10,"maxAllowedQuantity":10,"breadcrumbs":[{"code":"7","name":"Băuturi","slug":"7-bauturi-si-tutun"},{"code":"707","name":"Tutun","slug":"707-tutun"},{"code":"70702","name":"Țigări de foi","slug":"70702-tigari-de-foi"},{"code":"100074500","name":"Țigări de foi Bolknak Naturel 25s ","slug":"100074500-cubanos-tigari-de-foi-bolknak-naturel-25s"}],"activePromotion":null,"saveMe":null,"labels":[],"geniusPrice":null,"geniusUnitPricePerLabel":null,"banner":null,"discountLabel":null,"geniusDiscountLabel":null,"badge":null},{"code":"100074495","variantCode":"100074495","name":"Țigări de foi Plastic Tip 5s ","slug":"100074495-rocks-tigari-de-foi-plastic-tip-5s","unitPriceLabel":"","brand":"Rocks","brandCode":"1242","brandFilterCode":"rocks-b1243","sku":"100074495","price":20.99,"originalPrice":null,"currencyCode":"RON","currency":"Lei","image":{"thumbnail":{"default":"https://cdn.freshful.ro/media/cache/sylius_shop_product_thumbnail/06/1f/305d4d0f483e848042f2a26272e9.jpg"},"large":{"default":"https://cdn.freshful.ro/media/cache/freshful_large/06/1f/305d4d0f483e848042f2a26272e9.jpg"},"extralarge":{"default":"https://cdn.freshful.ro/media/cache/sylius_shop_product_original/06/1f/305d4d0f483e848042f2a26272e9.jpg"}},"label":null,"tags":[],"isAvailable":true,"maxAvailableQuantity":10,"maxAllowedQuantity":10,"breadcrumbs":[{"code":"7","name":"Băuturi","slug":"7-bauturi-si-tutun"},{"code":"707","name":"Tutun","slug":"707-tutun"},{"code":"70702","name":"Țigări de foi","slug":"70702-tigari-de-foi"},{"code":"100074495","name":"Țigări de foi Plastic Tip 5s ","slug":"100074495-rocks-tigari-de-foi-plastic-tip-5s"}],"activePromotion":null,"saveMe":null,"labels":[],"geniusPrice":null,"geniusUnitPricePerLabel":null,"banner":null,"discountLabel":null,"geniusDiscountLabel":null,"badge":null}],"filters":{"countSelected":0,"items":[{"code":"brand","name":"Brand","countSelected":0,"values":[{"code":"cubanos-b1245","name":"Cubanos","isSelected":false,"count":3},{"code":"davidoff-b1157","name":"Davidoff","isSelected":false,"count":4},{"code":"oliva-b102","name":"Oliva","isSelected":false,"count":1},{"code":"perdomo-b1241","name":"Perdomo","isSelected":false,"count":2},{"code":"punta-cana-b1242","name":"Punta Cana","isSelected":false,"count":1},{"code":"rocks-b1243","name":"Rocks","isSelected":false,"count":4},{"code":"zino-b1240","name":"Zino","isSelected":false,"count":1}]}]},"orderBy":[{"field":"price","direction":"asc","name":"Preț crescător","isSelected":false},{"field":"price","direction":"desc","name":"Preț descrescător","isSelected":false},{"field":"popularity","direction":"desc","name":"Cele mai populare","isSelected":true},{"field":"category","direction":"asc","name":"Categorie","isSelected":false}],"metaTitle":"Țigări de foi - Gamă variată","metaDescription":"Vrei Țigări de foi? Alege dintr-o gamă variată. Comanzi simplu și ai livrare rapidă, calitate și prospețime. Hai pe Freshful.ro","metaKeywords":null,"banners":[]}}