{"type":"subcategory","payload":{"analyticsListId":"category_801-paste-orez-si-legume-uscate","analyticsListName":"Category - Paste, orez și legume uscate","name":"Paste, orez și legume uscate","slug":"801-paste-orez-si-legume-uscate","image":null,"breadcrumbs":[{"code":"8","name":"Băcănie","slug":"8-ceva-sarat"},{"code":"801","name":"Paste, orez și legume uscate","slug":"801-paste-orez-si-legume-uscate"}],"slots":[],"page":1,"limit":10,"pages":20,"count":191,"siblings":[{"name":"Paste, orez și legume uscate","slug":"801-paste-orez-si-legume-uscate","selected":true},{"name":"Conserve","slug":"802-conserve","selected":false},{"name":"Condimente și sosuri","slug":"803-condimente-si-sosuri","selected":false},{"name":"Ulei și oțet","slug":"804-ulei-si-otet","selected":false},{"name":"De ronțăit","slug":"805-aperitive-sarate","selected":false},{"name":"Făină, zahăr și produse gourmet","slug":"faina-zahar-si-produse-gourmet","selected":false}],"children":[{"name":"Toate produsele","slug":"801-paste-orez-si-legume-uscate","selected":true},{"name":"Paste cu ou","slug":"80101-paste-cu-ou","selected":false},{"name":"Paste fără ou","slug":"80102-paste-fara-ou","selected":false},{"name":"Paste integrale și din grâu dur","slug":"80103-paste-integrale-si-din-grau-dur","selected":false},{"name":"Orez","slug":"80104-orez","selected":false},{"name":"Legume uscate","slug":"80105-legume-uscate","selected":false}],"products":[{"code":"100075506","variantCode":"8690804000041","name":"Linte roșie 500g","slug":"100075506-suntat-linte-rosie-500g","unitPriceLabel":"19,98 Lei/kg","brand":"Suntat","brandCode":"966","brandFilterCode":"suntat-b980","sku":"100075506","price":9.99,"originalPrice":12.99,"currencyCode":"RON","currency":"Lei","image":{"thumbnail":{"default":"https://cdn.freshful.ro/media/cache/sylius_shop_product_thumbnail/38/67/84a8d206406282a8cdddddd21bec.jpg"},"large":{"default":"https://cdn.freshful.ro/media/cache/freshful_large/38/67/84a8d206406282a8cdddddd21bec.jpg"},"extralarge":{"default":"https://cdn.freshful.ro/media/cache/sylius_shop_product_original/38/67/84a8d206406282a8cdddddd21bec.jpg"}},"label":{"text":"-23%","backgroundColor":"#FF9903","textColor":"#FFFFFF"},"tags":[],"isAvailable":true,"maxAvailableQuantity":100,"maxAllowedQuantity":100,"breadcrumbs":[{"code":"8","name":"Băcănie","slug":"8-ceva-sarat"},{"code":"801","name":"Paste, orez și legume uscate","slug":"801-paste-orez-si-legume-uscate"},{"code":"80105","name":"Legume uscate","slug":"80105-legume-uscate"},{"code":"100075506","name":"Linte roșie 500g","slug":"100075506-suntat-linte-rosie-500g"}],"activePromotion":{"code":"special-produse-vegane-mar23","name":"Preț redus","targetQuantity":null},"saveMe":null,"labels":[{"type":"v1","items":[{"text":"-23%","backgroundColor":"#FF9903","textColor":"#FFFFFF"}]}],"geniusPrice":null,"geniusUnitPricePerLabel":null,"banner":{"text":"Super preț","textColor":"#FF0000","bgColor":"#FFF2EC","icon":null,"link":"https://www.freshful.ro/oferte/special-produse-vegane-mar23","type":"promo","analyticsEventType":"select_promotion","analyticsEventPayload":{"promotion_id":"special-produse-vegane-mar23","promotion_name":"Și bun, și de post"}},"discountLabel":"Economisești 23%","geniusDiscountLabel":null,"badge":null},{"code":"100067367","variantCode":"100067367","name":"Paste cu roșii și spanac Love Pasta 250g","slug":"100067367-dalla-costa-paste-cu-rosii-si-spanac-love-pasta-250g","unitPriceLabel":"9,59 Lei/buc","brand":"Dalla Costa","brandCode":"1139","brandFilterCode":"dalla-costa-b1140","sku":"100067367","price":9.59,"originalPrice":null,"currencyCode":"RON","currency":"Lei","image":{"thumbnail":{"default":"https://cdn.freshful.ro/media/cache/sylius_shop_product_thumbnail/4f/6d/922db7348ba79e1be0642c7e3539.jpg"},"large":{"default":"https://cdn.freshful.ro/media/cache/freshful_large/4f/6d/922db7348ba79e1be0642c7e3539.jpg"},"extralarge":{"default":"https://cdn.freshful.ro/media/cache/sylius_shop_product_original/4f/6d/922db7348ba79e1be0642c7e3539.jpg"}},"label":{"text":"Profită acum","backgroundColor":"#FF9903","textColor":"#FFFFFF"},"tags":[],"isAvailable":true,"maxAvailableQuantity":27,"maxAllowedQuantity":100,"breadcrumbs":[{"code":"8","name":"Băcănie","slug":"8-ceva-sarat"},{"code":"801","name":"Paste, orez și legume uscate","slug":"801-paste-orez-si-legume-uscate"},{"code":"80103","name":"Paste integrale și din grâu dur","slug":"80103-paste-integrale-si-din-grau-dur"},{"code":"100067367","name":"Paste cu roșii și spanac Love Pasta 250g","slug":"100067367-dalla-costa-paste-cu-rosii-si-spanac-love-pasta-250g"}],"activePromotion":{"code":"oferte-bacanie-bauturi-21feb-8mar23","name":"Preț avantajos","targetQuantity":null},"saveMe":null,"labels":[{"type":"v1","items":[{"text":"Profită acum","backgroundColor":"#FF9903","textColor":"#FFFFFF"}]}],"geniusPrice":null,"geniusUnitPricePerLabel":null,"banner":{"text":"Preț avantajos","textColor":"#F95510","bgColor":"#FEF1CD","icon":null,"link":"https://www.freshful.ro/oferte/oferte-bacanie-bauturi-21feb-8mar23","type":"promo","analyticsEventType":"select_promotion","analyticsEventPayload":{"promotion_id":"oferte-bacanie-bauturi-21feb-8mar23","promotion_name":"Cămara cu băuturi și bunătăți"}},"discountLabel":null,"geniusDiscountLabel":null,"badge":null},{"code":"100101439","variantCode":"100101439","name":"Orez ideal pentru pilaf 1kg","slug":"100101439-riso-scotti-orez-ideal-pentru-pilaf-1kg","unitPriceLabel":"8,39 Lei/kg","brand":"Riso Scotti","brandCode":"1686","brandFilterCode":"riso-scotti-b1690","sku":"100101439","price":8.39,"originalPrice":10.5,"currencyCode":"RON","currency":"Lei","image":{"thumbnail":{"default":"https://cdn.freshful.ro/media/cache/sylius_shop_product_thumbnail/3c/7d/1cdbeb602c9ea6b27ee9f2ee144a.jpg"},"large":{"default":"https://cdn.freshful.ro/media/cache/freshful_large/3c/7d/1cdbeb602c9ea6b27ee9f2ee144a.jpg"},"extralarge":{"default":"https://cdn.freshful.ro/media/cache/sylius_shop_product_original/3c/7d/1cdbeb602c9ea6b27ee9f2ee144a.jpg"}},"label":{"text":"-20%","backgroundColor":"#FF9903","textColor":"#FFFFFF"},"tags":[],"isAvailable":true,"maxAvailableQuantity":10,"maxAllowedQuantity":10,"breadcrumbs":[{"code":"8","name":"Băcănie","slug":"8-ceva-sarat"},{"code":"801","name":"Paste, orez și legume uscate","slug":"801-paste-orez-si-legume-uscate"},{"code":"80104","name":"Orez","slug":"80104-orez"},{"code":"100101439","name":"Orez ideal pentru pilaf 1kg","slug":"100101439-riso-scotti-orez-ideal-pentru-pilaf-1kg"}],"activePromotion":{"code":"superpreturile-saptamanii","name":"Preț redus","targetQuantity":null},"saveMe":null,"labels":[{"type":"v1","items":[{"text":"-20%","backgroundColor":"#FF9903","textColor":"#FFFFFF"}]}],"geniusPrice":null,"geniusUnitPricePerLabel":null,"banner":{"text":"Super preț","textColor":"#FF0000","bgColor":"#FFF2EC","icon":null,"link":"https://www.freshful.ro/oferte/superpreturile-saptamanii","type":"promo","analyticsEventType":"select_promotion","analyticsEventPayload":{"promotion_id":"superpreturile-saptamanii","promotion_name":"Superprețurile zilei"}},"discountLabel":"Economisești 20%","geniusDiscountLabel":null,"badge":null},{"code":"100075508","variantCode":"8690804000072","name":"Năut 500g","slug":"100075508-suntat-naut-500g","unitPriceLabel":"21,98 Lei/kg","brand":"Suntat","brandCode":"966","brandFilterCode":"suntat-b980","sku":"100075508","price":10.99,"originalPrice":13.99,"currencyCode":"RON","currency":"Lei","image":{"thumbnail":{"default":"https://cdn.freshful.ro/media/cache/sylius_shop_product_thumbnail/c6/9c/8a65ce10f5e6398168f622060bce.jpg"},"large":{"default":"https://cdn.freshful.ro/media/cache/freshful_large/c6/9c/8a65ce10f5e6398168f622060bce.jpg"},"extralarge":{"default":"https://cdn.freshful.ro/media/cache/sylius_shop_product_original/c6/9c/8a65ce10f5e6398168f622060bce.jpg"}},"label":{"text":"-21%","backgroundColor":"#FF9903","textColor":"#FFFFFF"},"tags":[],"isAvailable":true,"maxAvailableQuantity":56,"maxAllowedQuantity":100,"breadcrumbs":[{"code":"8","name":"Băcănie","slug":"8-ceva-sarat"},{"code":"801","name":"Paste, orez și legume uscate","slug":"801-paste-orez-si-legume-uscate"},{"code":"80105","name":"Legume uscate","slug":"80105-legume-uscate"},{"code":"100075508","name":"Năut 500g","slug":"100075508-suntat-naut-500g"}],"activePromotion":{"code":"special-produse-vegane-mar23","name":"Preț redus","targetQuantity":null},"saveMe":null,"labels":[{"type":"v1","items":[{"text":"-21%","backgroundColor":"#FF9903","textColor":"#FFFFFF"}]}],"geniusPrice":null,"geniusUnitPricePerLabel":null,"banner":{"text":"Super preț","textColor":"#FF0000","bgColor":"#FFF2EC","icon":null,"link":"https://www.freshful.ro/oferte/special-produse-vegane-mar23","type":"promo","analyticsEventType":"select_promotion","analyticsEventPayload":{"promotion_id":"special-produse-vegane-mar23","promotion_name":"Și bun, și de post"}},"discountLabel":"Economisești 21%","geniusDiscountLabel":null,"badge":null},{"code":"100075525","variantCode":"8690804000034","name":"Linte verde 500g  ","slug":"100075525-suntat-linte-verde-500g","unitPriceLabel":"21,98 Lei/kg","brand":"Suntat","brandCode":"966","brandFilterCode":"suntat-b980","sku":"100075525","price":10.99,"originalPrice":14.49,"currencyCode":"RON","currency":"Lei","image":{"thumbnail":{"default":"https://cdn.freshful.ro/media/cache/sylius_shop_product_thumbnail/bc/0e/bdb4a0860370373009f1285a07ae.jpg"},"large":{"default":"https://cdn.freshful.ro/media/cache/freshful_large/bc/0e/bdb4a0860370373009f1285a07ae.jpg"},"extralarge":{"default":"https://cdn.freshful.ro/media/cache/sylius_shop_product_original/bc/0e/bdb4a0860370373009f1285a07ae.jpg"}},"label":{"text":"-24%","backgroundColor":"#FF9903","textColor":"#FFFFFF"},"tags":[],"isAvailable":true,"maxAvailableQuantity":37,"maxAllowedQuantity":100,"breadcrumbs":[{"code":"8","name":"Băcănie","slug":"8-ceva-sarat"},{"code":"801","name":"Paste, orez și legume uscate","slug":"801-paste-orez-si-legume-uscate"},{"code":"80105","name":"Legume uscate","slug":"80105-legume-uscate"},{"code":"100075525","name":"Linte verde 500g  ","slug":"100075525-suntat-linte-verde-500g"}],"activePromotion":{"code":"special-produse-vegane-mar23","name":"Preț redus","targetQuantity":null},"saveMe":null,"labels":[{"type":"v1","items":[{"text":"-24%","backgroundColor":"#FF9903","textColor":"#FFFFFF"}]}],"geniusPrice":null,"geniusUnitPricePerLabel":null,"banner":{"text":"Super preț","textColor":"#FF0000","bgColor":"#FFF2EC","icon":null,"link":"https://www.freshful.ro/oferte/special-produse-vegane-mar23","type":"promo","analyticsEventType":"select_promotion","analyticsEventPayload":{"promotion_id":"special-produse-vegane-mar23","promotion_name":"Și bun, și de post"}},"discountLabel":"Economisești 24%","geniusDiscountLabel":null,"badge":null},{"code":"100075507","variantCode":"8690804001376","name":"Linte galbenă 500g","slug":"100075507-suntat-linte-galbena-500g","unitPriceLabel":"29,98 Lei/kg","brand":"Suntat","brandCode":"966","brandFilterCode":"suntat-b980","sku":"100075507","price":14.99,"originalPrice":16.99,"currencyCode":"RON","currency":"Lei","image":{"thumbnail":{"default":"https://cdn.freshful.ro/media/cache/sylius_shop_product_thumbnail/6f/46/5d1174d7c90cea528e0459440065.jpg"},"large":{"default":"https://cdn.freshful.ro/media/cache/freshful_large/6f/46/5d1174d7c90cea528e0459440065.jpg"},"extralarge":{"default":"https://cdn.freshful.ro/media/cache/sylius_shop_product_original/6f/46/5d1174d7c90cea528e0459440065.jpg"}},"label":{"text":"-11%","backgroundColor":"#FF9903","textColor":"#FFFFFF"},"tags":[],"isAvailable":true,"maxAvailableQuantity":25,"maxAllowedQuantity":100,"breadcrumbs":[{"code":"8","name":"Băcănie","slug":"8-ceva-sarat"},{"code":"801","name":"Paste, orez și legume uscate","slug":"801-paste-orez-si-legume-uscate"},{"code":"80105","name":"Legume uscate","slug":"80105-legume-uscate"},{"code":"100075507","name":"Linte galbenă 500g","slug":"100075507-suntat-linte-galbena-500g"}],"activePromotion":{"code":"special-produse-vegane-mar23","name":"Preț redus","targetQuantity":null},"saveMe":null,"labels":[{"type":"v1","items":[{"text":"-11%","backgroundColor":"#FF9903","textColor":"#FFFFFF"}]}],"geniusPrice":null,"geniusUnitPricePerLabel":null,"banner":{"text":"Super preț","textColor":"#FF0000","bgColor":"#FFF2EC","icon":null,"link":"https://www.freshful.ro/oferte/special-produse-vegane-mar23","type":"promo","analyticsEventType":"select_promotion","analyticsEventPayload":{"promotion_id":"special-produse-vegane-mar23","promotion_name":"Și bun, și de post"}},"discountLabel":"Economisești 11%","geniusDiscountLabel":null,"badge":null},{"code":"100143804","variantCode":"100143804","name":"Orez Clasic 1kg","slug":"100143804-riso-scotti-orez-clasic-1kg","unitPriceLabel":"8,99 Lei/kg","brand":"Riso Scotti","brandCode":"1686","brandFilterCode":"riso-scotti-b1690","sku":"100143804","price":8.99,"originalPrice":null,"currencyCode":"RON","currency":"Lei","image":{"thumbnail":{"default":"https://cdn.freshful.ro/media/cache/sylius_shop_product_thumbnail/de/65/0ba075d8925593bed50f0e9da033.jpg"},"large":{"default":"https://cdn.freshful.ro/media/cache/freshful_large/de/65/0ba075d8925593bed50f0e9da033.jpg"},"extralarge":{"default":"https://cdn.freshful.ro/media/cache/sylius_shop_product_original/de/65/0ba075d8925593bed50f0e9da033.jpg"}},"label":null,"tags":[],"isAvailable":true,"maxAvailableQuantity":10,"maxAllowedQuantity":10,"breadcrumbs":[{"code":"8","name":"Băcănie","slug":"8-ceva-sarat"},{"code":"801","name":"Paste, orez și legume uscate","slug":"801-paste-orez-si-legume-uscate"},{"code":"80104","name":"Orez","slug":"80104-orez"},{"code":"100143804","name":"Orez Clasic 1kg","slug":"100143804-riso-scotti-orez-clasic-1kg"}],"activePromotion":null,"saveMe":null,"labels":[],"geniusPrice":null,"geniusUnitPricePerLabel":null,"banner":null,"discountLabel":null,"geniusDiscountLabel":null,"badge":null},{"code":"100102848","variantCode":"100102848","name":"Orez Basmati 500g","slug":"100102848-panzani-orez-basmati-500g","unitPriceLabel":"21 Lei/kg","brand":"Panzani","brandCode":"1684","brandFilterCode":"panzani-b1688","sku":"100102848","price":10.5,"originalPrice":null,"currencyCode":"RON","currency":"Lei","image":{"thumbnail":{"default":"https://cdn.freshful.ro/media/cache/sylius_shop_product_thumbnail/71/2f/bb4077283d90d84af2faf922cf97.jpg"},"large":{"default":"https://cdn.freshful.ro/media/cache/freshful_large/71/2f/bb4077283d90d84af2faf922cf97.jpg"},"extralarge":{"default":"https://cdn.freshful.ro/media/cache/sylius_shop_product_original/71/2f/bb4077283d90d84af2faf922cf97.jpg"}},"label":null,"tags":[],"isAvailable":true,"maxAvailableQuantity":10,"maxAllowedQuantity":10,"breadcrumbs":[{"code":"8","name":"Băcănie","slug":"8-ceva-sarat"},{"code":"801","name":"Paste, orez și legume uscate","slug":"801-paste-orez-si-legume-uscate"},{"code":"80104","name":"Orez","slug":"80104-orez"},{"code":"100102848","name":"Orez Basmati 500g","slug":"100102848-panzani-orez-basmati-500g"}],"activePromotion":null,"saveMe":null,"labels":[],"geniusPrice":null,"geniusUnitPricePerLabel":null,"banner":null,"discountLabel":null,"geniusDiscountLabel":null,"badge":null},{"code":"100093422","variantCode":"100093422","name":"Paste Fusilli integrale 500g","slug":"100093422-barilla-paste-fusilli-integrale-500g","unitPriceLabel":"15.000 Lei/kg","brand":"Barilla","brandCode":"267","brandFilterCode":"barilla-b268","sku":"100093422","price":7.5,"originalPrice":null,"currencyCode":"RON","currency":"Lei","image":{"thumbnail":{"default":"https://cdn.freshful.ro/media/cache/sylius_shop_product_thumbnail/e6/16/50ee581a9637ec62d02a0c89e218.jpg"},"large":{"default":"https://cdn.freshful.ro/media/cache/freshful_large/e6/16/50ee581a9637ec62d02a0c89e218.jpg"},"extralarge":{"default":"https://cdn.freshful.ro/media/cache/sylius_shop_product_original/e6/16/50ee581a9637ec62d02a0c89e218.jpg"}},"label":null,"tags":[],"isAvailable":true,"maxAvailableQuantity":100,"maxAllowedQuantity":100,"breadcrumbs":[{"code":"8","name":"Băcănie","slug":"8-ceva-sarat"},{"code":"801","name":"Paste, orez și legume uscate","slug":"801-paste-orez-si-legume-uscate"},{"code":"80103","name":"Paste integrale și din grâu dur","slug":"80103-paste-integrale-si-din-grau-dur"},{"code":"100093422","name":"Paste Fusilli integrale 500g","slug":"100093422-barilla-paste-fusilli-integrale-500g"}],"activePromotion":null,"saveMe":null,"labels":[],"geniusPrice":null,"geniusUnitPricePerLabel":null,"banner":null,"discountLabel":null,"geniusDiscountLabel":null,"badge":null},{"code":"100102852","variantCode":"100102852","name":"Orez prefiert 250g","slug":"100102852-panzani-orez-prefiert-250g","unitPriceLabel":"18,36 Lei/kg","brand":"Panzani","brandCode":"1684","brandFilterCode":"panzani-b1688","sku":"100102852","price":4.59,"originalPrice":null,"currencyCode":"RON","currency":"Lei","image":{"thumbnail":{"default":"https://cdn.freshful.ro/media/cache/sylius_shop_product_thumbnail/88/d3/667c209e778b8a8fbd197f2c0a85.jpg"},"large":{"default":"https://cdn.freshful.ro/media/cache/freshful_large/88/d3/667c209e778b8a8fbd197f2c0a85.jpg"},"extralarge":{"default":"https://cdn.freshful.ro/media/cache/sylius_shop_product_original/88/d3/667c209e778b8a8fbd197f2c0a85.jpg"}},"label":null,"tags":[],"isAvailable":true,"maxAvailableQuantity":2,"maxAllowedQuantity":2,"breadcrumbs":[{"code":"8","name":"Băcănie","slug":"8-ceva-sarat"},{"code":"801","name":"Paste, orez și legume uscate","slug":"801-paste-orez-si-legume-uscate"},{"code":"80104","name":"Orez","slug":"80104-orez"},{"code":"100102852","name":"Orez prefiert 250g","slug":"100102852-panzani-orez-prefiert-250g"}],"activePromotion":null,"saveMe":null,"labels":[],"geniusPrice":null,"geniusUnitPricePerLabel":null,"banner":null,"discountLabel":null,"geniusDiscountLabel":null,"badge":null}],"filters":{"countSelected":0,"items":[{"code":"promotion","name":"Promoții","countSelected":0,"values":[{"code":"oferte-bacanie-bauturi-21feb-8mar23","name":"Cămara cu băuturi și bunătăți","isSelected":false,"count":1},{"code":"superpreturile-saptamanii","name":"Superprețurile zilei","isSelected":false,"count":1},{"code":"special-produse-vegane-mar23","name":"Și bun, și de post","isSelected":false,"count":4}]},{"code":"brand","name":"Brand","countSelected":0,"values":[{"code":"antonio-di-vaio-b1558","name":"Antonio Di Vaio","isSelected":false,"count":4},{"code":"apetini-b2833","name":"APETINI","isSelected":false,"count":1},{"code":"atifco-b110","name":"Atifco","isSelected":false,"count":7},{"code":"barilla-b268","name":"Barilla","isSelected":false,"count":26},{"code":"bitar-b3078","name":"Bitar","isSelected":false,"count":2},{"code":"baneasa-b1557","name":"Băneasa","isSelected":false,"count":17},{"code":"dalla-costa-b1140","name":"Dalla Costa","isSelected":false,"count":5},{"code":"de-cecco-b639","name":"De Cecco","isSelected":false,"count":7},{"code":"deroni-b1467","name":"Deroni","isSelected":false,"count":9},{"code":"granoro-b2153","name":"Granoro","isSelected":false,"count":11},{"code":"la-molisana-b654","name":"La Molisana","isSelected":false,"count":15},{"code":"monte-banato-b1495","name":"Monte Banato","isSelected":false,"count":27},{"code":"niavis-b191","name":"Niavis","isSelected":false,"count":4},{"code":"panzani-b1688","name":"Panzani","isSelected":false,"count":22},{"code":"riso-scotti-b1690","name":"Riso Scotti","isSelected":false,"count":11},{"code":"roadele-muntilor-b2722","name":"Roadele Munților","isSelected":false,"count":9},{"code":"saitaku-b994","name":"Saitaku","isSelected":false,"count":1},{"code":"sanovita-b483","name":"Sanovita","isSelected":false,"count":8},{"code":"suntat-b980","name":"Suntat","isSelected":false,"count":5}]},{"code":"diet_lifestyle","name":"Dietă și lifestyle","countSelected":0,"values":[{"code":"eco-a83","name":"Eco","isSelected":false,"count":2},{"code":"fara-gluten-a16","name":"Fara gluten","isSelected":false,"count":6},{"code":"made-in-romania-a85","name":"Made In Romania","isSelected":false,"count":9},{"code":"natural-a27","name":"Natural","isSelected":false,"count":12},{"code":"vegan-a24","name":"Vegan","isSelected":false,"count":4}]}]},"orderBy":[{"field":"price","direction":"asc","name":"Preț crescător","isSelected":false},{"field":"price","direction":"desc","name":"Preț descrescător","isSelected":false},{"field":"popularity","direction":"desc","name":"Cele mai populare","isSelected":true},{"field":"category","direction":"asc","name":"Categorie","isSelected":false}],"metaTitle":"Paste, orez și legume uscate - Gamă variată","metaDescription":"Vrei Paste, orez și legume uscate? Alege dintr-o gamă variată. Comanzi simplu și ai livrare rapidă, calitate și prospețime. Hai pe Freshful.ro","metaKeywords":null,"banners":[{"name":"Prim pret","position":2,"type":"listing","displayOnMobile":true,"image":{"jpg":"https://cdn.freshful.ro/media/image/87/b8/2c5353731cb930753b2e9388cb6c.jpg","webp":"https://cdn.freshful.ro/media/image/2f/81/31f258b5a853f724d1a0ee704aea.webp"},"imageResponsive":{"jpg":"https://cdn.freshful.ro/media/image/bc/92/2fd607eef07234c1e524156e1312.jpg","webp":"https://cdn.freshful.ro/media/image/87/db/5b4fc5253bb990fdd0477492ff28.webp"},"url":"/l/custom-listing-prim-pret"}]}}