{"type":"subcategory","payload":{"analyticsListId":"category_80105-legume-uscate","analyticsListName":"Category - Legume uscate","name":"Legume uscate","slug":"80105-legume-uscate","image":null,"breadcrumbs":[{"code":"8","name":"Băcănie","slug":"8-ceva-sarat"},{"code":"801","name":"Paste, orez și legume uscate","slug":"801-paste-orez-si-legume-uscate"},{"code":"80105","name":"Legume uscate","slug":"80105-legume-uscate"}],"slots":[],"page":1,"limit":10,"pages":3,"count":21,"siblings":[{"name":"Paste, orez și legume uscate","slug":"801-paste-orez-si-legume-uscate","selected":true},{"name":"Conserve","slug":"802-conserve","selected":false},{"name":"Condimente și sosuri","slug":"803-condimente-si-sosuri","selected":false},{"name":"Ulei și oțet","slug":"804-ulei-si-otet","selected":false},{"name":"De ronțăit","slug":"805-aperitive-sarate","selected":false},{"name":"Făină, zahăr și produse gourmet","slug":"faina-zahar-si-produse-gourmet","selected":false}],"children":[{"name":"Toate produsele","slug":"801-paste-orez-si-legume-uscate","selected":false},{"name":"Paste cu ou","slug":"80101-paste-cu-ou","selected":false},{"name":"Paste fără ou","slug":"80102-paste-fara-ou","selected":false},{"name":"Paste integrale și din grâu dur","slug":"80103-paste-integrale-si-din-grau-dur","selected":false},{"name":"Orez","slug":"80104-orez","selected":false},{"name":"Legume uscate","slug":"80105-legume-uscate","selected":true}],"products":[{"code":"100075506","variantCode":"8690804000041","name":"Linte roșie 500g","slug":"100075506-suntat-linte-rosie-500g","unitPriceLabel":"19,98 Lei/kg","brand":"Suntat","brandCode":"966","brandFilterCode":"suntat-b980","sku":"100075506","price":9.99,"originalPrice":12.99,"currencyCode":"RON","currency":"Lei","image":{"thumbnail":{"default":"https://cdn.freshful.ro/media/cache/sylius_shop_product_thumbnail/38/67/84a8d206406282a8cdddddd21bec.jpg"},"large":{"default":"https://cdn.freshful.ro/media/cache/freshful_large/38/67/84a8d206406282a8cdddddd21bec.jpg"},"extralarge":{"default":"https://cdn.freshful.ro/media/cache/sylius_shop_product_original/38/67/84a8d206406282a8cdddddd21bec.jpg"}},"label":{"text":"-23%","backgroundColor":"#FF9903","textColor":"#FFFFFF"},"tags":[],"isAvailable":true,"maxAvailableQuantity":100,"maxAllowedQuantity":100,"breadcrumbs":[{"code":"8","name":"Băcănie","slug":"8-ceva-sarat"},{"code":"801","name":"Paste, orez și legume uscate","slug":"801-paste-orez-si-legume-uscate"},{"code":"80105","name":"Legume uscate","slug":"80105-legume-uscate"},{"code":"100075506","name":"Linte roșie 500g","slug":"100075506-suntat-linte-rosie-500g"}],"activePromotion":{"code":"special-produse-vegane-mar23","name":"Preț redus","targetQuantity":null},"saveMe":null,"labels":[{"type":"v1","items":[{"text":"-23%","backgroundColor":"#FF9903","textColor":"#FFFFFF"}]}],"geniusPrice":null,"geniusUnitPricePerLabel":null,"banner":{"text":"Super preț","textColor":"#FF0000","bgColor":"#FFF2EC","icon":null,"link":"https://www.freshful.ro/oferte/special-produse-vegane-mar23","type":"promo","analyticsEventType":"select_promotion","analyticsEventPayload":{"promotion_id":"special-produse-vegane-mar23","promotion_name":"Și bun, și de post"}},"discountLabel":"Economisești 23%","geniusDiscountLabel":null,"badge":null},{"code":"100075508","variantCode":"8690804000072","name":"Năut 500g","slug":"100075508-suntat-naut-500g","unitPriceLabel":"21,98 Lei/kg","brand":"Suntat","brandCode":"966","brandFilterCode":"suntat-b980","sku":"100075508","price":10.99,"originalPrice":13.99,"currencyCode":"RON","currency":"Lei","image":{"thumbnail":{"default":"https://cdn.freshful.ro/media/cache/sylius_shop_product_thumbnail/c6/9c/8a65ce10f5e6398168f622060bce.jpg"},"large":{"default":"https://cdn.freshful.ro/media/cache/freshful_large/c6/9c/8a65ce10f5e6398168f622060bce.jpg"},"extralarge":{"default":"https://cdn.freshful.ro/media/cache/sylius_shop_product_original/c6/9c/8a65ce10f5e6398168f622060bce.jpg"}},"label":{"text":"-21%","backgroundColor":"#FF9903","textColor":"#FFFFFF"},"tags":[],"isAvailable":true,"maxAvailableQuantity":56,"maxAllowedQuantity":100,"breadcrumbs":[{"code":"8","name":"Băcănie","slug":"8-ceva-sarat"},{"code":"801","name":"Paste, orez și legume uscate","slug":"801-paste-orez-si-legume-uscate"},{"code":"80105","name":"Legume uscate","slug":"80105-legume-uscate"},{"code":"100075508","name":"Năut 500g","slug":"100075508-suntat-naut-500g"}],"activePromotion":{"code":"special-produse-vegane-mar23","name":"Preț redus","targetQuantity":null},"saveMe":null,"labels":[{"type":"v1","items":[{"text":"-21%","backgroundColor":"#FF9903","textColor":"#FFFFFF"}]}],"geniusPrice":null,"geniusUnitPricePerLabel":null,"banner":{"text":"Super preț","textColor":"#FF0000","bgColor":"#FFF2EC","icon":null,"link":"https://www.freshful.ro/oferte/special-produse-vegane-mar23","type":"promo","analyticsEventType":"select_promotion","analyticsEventPayload":{"promotion_id":"special-produse-vegane-mar23","promotion_name":"Și bun, și de post"}},"discountLabel":"Economisești 21%","geniusDiscountLabel":null,"badge":null},{"code":"100075525","variantCode":"8690804000034","name":"Linte verde 500g  ","slug":"100075525-suntat-linte-verde-500g","unitPriceLabel":"21,98 Lei/kg","brand":"Suntat","brandCode":"966","brandFilterCode":"suntat-b980","sku":"100075525","price":10.99,"originalPrice":14.49,"currencyCode":"RON","currency":"Lei","image":{"thumbnail":{"default":"https://cdn.freshful.ro/media/cache/sylius_shop_product_thumbnail/bc/0e/bdb4a0860370373009f1285a07ae.jpg"},"large":{"default":"https://cdn.freshful.ro/media/cache/freshful_large/bc/0e/bdb4a0860370373009f1285a07ae.jpg"},"extralarge":{"default":"https://cdn.freshful.ro/media/cache/sylius_shop_product_original/bc/0e/bdb4a0860370373009f1285a07ae.jpg"}},"label":{"text":"-24%","backgroundColor":"#FF9903","textColor":"#FFFFFF"},"tags":[],"isAvailable":true,"maxAvailableQuantity":37,"maxAllowedQuantity":100,"breadcrumbs":[{"code":"8","name":"Băcănie","slug":"8-ceva-sarat"},{"code":"801","name":"Paste, orez și legume uscate","slug":"801-paste-orez-si-legume-uscate"},{"code":"80105","name":"Legume uscate","slug":"80105-legume-uscate"},{"code":"100075525","name":"Linte verde 500g  ","slug":"100075525-suntat-linte-verde-500g"}],"activePromotion":{"code":"special-produse-vegane-mar23","name":"Preț redus","targetQuantity":null},"saveMe":null,"labels":[{"type":"v1","items":[{"text":"-24%","backgroundColor":"#FF9903","textColor":"#FFFFFF"}]}],"geniusPrice":null,"geniusUnitPricePerLabel":null,"banner":{"text":"Super preț","textColor":"#FF0000","bgColor":"#FFF2EC","icon":null,"link":"https://www.freshful.ro/oferte/special-produse-vegane-mar23","type":"promo","analyticsEventType":"select_promotion","analyticsEventPayload":{"promotion_id":"special-produse-vegane-mar23","promotion_name":"Și bun, și de post"}},"discountLabel":"Economisești 24%","geniusDiscountLabel":null,"badge":null},{"code":"100075507","variantCode":"8690804001376","name":"Linte galbenă 500g","slug":"100075507-suntat-linte-galbena-500g","unitPriceLabel":"29,98 Lei/kg","brand":"Suntat","brandCode":"966","brandFilterCode":"suntat-b980","sku":"100075507","price":14.99,"originalPrice":16.99,"currencyCode":"RON","currency":"Lei","image":{"thumbnail":{"default":"https://cdn.freshful.ro/media/cache/sylius_shop_product_thumbnail/6f/46/5d1174d7c90cea528e0459440065.jpg"},"large":{"default":"https://cdn.freshful.ro/media/cache/freshful_large/6f/46/5d1174d7c90cea528e0459440065.jpg"},"extralarge":{"default":"https://cdn.freshful.ro/media/cache/sylius_shop_product_original/6f/46/5d1174d7c90cea528e0459440065.jpg"}},"label":{"text":"-11%","backgroundColor":"#FF9903","textColor":"#FFFFFF"},"tags":[],"isAvailable":true,"maxAvailableQuantity":25,"maxAllowedQuantity":100,"breadcrumbs":[{"code":"8","name":"Băcănie","slug":"8-ceva-sarat"},{"code":"801","name":"Paste, orez și legume uscate","slug":"801-paste-orez-si-legume-uscate"},{"code":"80105","name":"Legume uscate","slug":"80105-legume-uscate"},{"code":"100075507","name":"Linte galbenă 500g","slug":"100075507-suntat-linte-galbena-500g"}],"activePromotion":{"code":"special-produse-vegane-mar23","name":"Preț redus","targetQuantity":null},"saveMe":null,"labels":[{"type":"v1","items":[{"text":"-11%","backgroundColor":"#FF9903","textColor":"#FFFFFF"}]}],"geniusPrice":null,"geniusUnitPricePerLabel":null,"banner":{"text":"Super preț","textColor":"#FF0000","bgColor":"#FFF2EC","icon":null,"link":"https://www.freshful.ro/oferte/special-produse-vegane-mar23","type":"promo","analyticsEventType":"select_promotion","analyticsEventPayload":{"promotion_id":"special-produse-vegane-mar23","promotion_name":"Și bun, și de post"}},"discountLabel":"Economisești 11%","geniusDiscountLabel":null,"badge":null},{"code":"100139081","variantCode":"100139081","name":"Semințe de chia 150g","slug":"100139081-sanovita-seminte-de-chia-150g","unitPriceLabel":"65,93 Lei/kg","brand":"Sanovita","brandCode":"482","brandFilterCode":"sanovita-b483","sku":"100139081","price":9.89,"originalPrice":null,"currencyCode":"RON","currency":"Lei","image":{"thumbnail":{"default":"https://cdn.freshful.ro/media/cache/sylius_shop_product_thumbnail/e4/13/cd6223b12a781439562ee496c6e8.jpg"},"large":{"default":"https://cdn.freshful.ro/media/cache/freshful_large/e4/13/cd6223b12a781439562ee496c6e8.jpg"},"extralarge":{"default":"https://cdn.freshful.ro/media/cache/sylius_shop_product_original/e4/13/cd6223b12a781439562ee496c6e8.jpg"}},"label":null,"tags":[],"isAvailable":true,"maxAvailableQuantity":100,"maxAllowedQuantity":100,"breadcrumbs":[{"code":"8","name":"Băcănie","slug":"8-ceva-sarat"},{"code":"801","name":"Paste, orez și legume uscate","slug":"801-paste-orez-si-legume-uscate"},{"code":"80105","name":"Legume uscate","slug":"80105-legume-uscate"},{"code":"100139081","name":"Semințe de chia 150g","slug":"100139081-sanovita-seminte-de-chia-150g"}],"activePromotion":null,"saveMe":null,"labels":[],"geniusPrice":null,"geniusUnitPricePerLabel":null,"banner":null,"discountLabel":null,"geniusDiscountLabel":null,"badge":null},{"code":"100089715","variantCode":"5941905077825","name":"Fasole albă cu bob mare 900g","slug":"100089715-atifco-fasole-alba-cu-bob-mare-900g","unitPriceLabel":"15,27 Lei/kg","brand":"Atifco","brandCode":"126","brandFilterCode":"atifco-b110","sku":"100089715","price":13.74,"originalPrice":null,"currencyCode":"RON","currency":"Lei","image":{"thumbnail":{"default":"https://cdn.freshful.ro/media/cache/sylius_shop_product_thumbnail/53/b9/3421e3c92546ea8ecd6c13ee8b8c.jpg"},"large":{"default":"https://cdn.freshful.ro/media/cache/freshful_large/53/b9/3421e3c92546ea8ecd6c13ee8b8c.jpg"},"extralarge":{"default":"https://cdn.freshful.ro/media/cache/sylius_shop_product_original/53/b9/3421e3c92546ea8ecd6c13ee8b8c.jpg"}},"label":null,"tags":[],"isAvailable":true,"maxAvailableQuantity":100,"maxAllowedQuantity":100,"breadcrumbs":[{"code":"8","name":"Băcănie","slug":"8-ceva-sarat"},{"code":"801","name":"Paste, orez și legume uscate","slug":"801-paste-orez-si-legume-uscate"},{"code":"80105","name":"Legume uscate","slug":"80105-legume-uscate"},{"code":"100089715","name":"Fasole albă cu bob mare 900g","slug":"100089715-atifco-fasole-alba-cu-bob-mare-900g"}],"activePromotion":null,"saveMe":null,"labels":[],"geniusPrice":null,"geniusUnitPricePerLabel":null,"banner":null,"discountLabel":null,"geniusDiscountLabel":null,"badge":null},{"code":"100102854","variantCode":"100102854","name":"Quinoa 180g","slug":"100102854-panzani-quinoa-180g","unitPriceLabel":"60,56 Lei/kg","brand":"Panzani","brandCode":"1684","brandFilterCode":"panzani-b1688","sku":"100102854","price":10.9,"originalPrice":null,"currencyCode":"RON","currency":"Lei","image":{"thumbnail":{"default":"https://cdn.freshful.ro/media/cache/sylius_shop_product_thumbnail/46/f5/cae46ce872b1a231d7a9cfeff892.jpg"},"large":{"default":"https://cdn.freshful.ro/media/cache/freshful_large/46/f5/cae46ce872b1a231d7a9cfeff892.jpg"},"extralarge":{"default":"https://cdn.freshful.ro/media/cache/sylius_shop_product_original/46/f5/cae46ce872b1a231d7a9cfeff892.jpg"}},"label":null,"tags":[],"isAvailable":true,"maxAvailableQuantity":82,"maxAllowedQuantity":100,"breadcrumbs":[{"code":"8","name":"Băcănie","slug":"8-ceva-sarat"},{"code":"801","name":"Paste, orez și legume uscate","slug":"801-paste-orez-si-legume-uscate"},{"code":"80105","name":"Legume uscate","slug":"80105-legume-uscate"},{"code":"100102854","name":"Quinoa 180g","slug":"100102854-panzani-quinoa-180g"}],"activePromotion":null,"saveMe":null,"labels":[],"geniusPrice":null,"geniusUnitPricePerLabel":null,"banner":null,"discountLabel":null,"geniusDiscountLabel":null,"badge":null},{"code":"100139896","variantCode":"100139896","name":"Bulgur 500g","slug":"100139896-sanovita-bulgur-500g","unitPriceLabel":"20,98 Lei/kg","brand":"Sanovita","brandCode":"482","brandFilterCode":"sanovita-b483","sku":"100139896","price":10.49,"originalPrice":null,"currencyCode":"RON","currency":"Lei","image":{"thumbnail":{"default":"https://cdn.freshful.ro/media/cache/sylius_shop_product_thumbnail/36/81/d69d34018a05de1b2684797f4df4.jpg"},"large":{"default":"https://cdn.freshful.ro/media/cache/freshful_large/36/81/d69d34018a05de1b2684797f4df4.jpg"},"extralarge":{"default":"https://cdn.freshful.ro/media/cache/sylius_shop_product_original/36/81/d69d34018a05de1b2684797f4df4.jpg"}},"label":null,"tags":[],"isAvailable":true,"maxAvailableQuantity":64,"maxAllowedQuantity":100,"breadcrumbs":[{"code":"8","name":"Băcănie","slug":"8-ceva-sarat"},{"code":"801","name":"Paste, orez și legume uscate","slug":"801-paste-orez-si-legume-uscate"},{"code":"80105","name":"Legume uscate","slug":"80105-legume-uscate"},{"code":"100139896","name":"Bulgur 500g","slug":"100139896-sanovita-bulgur-500g"}],"activePromotion":null,"saveMe":null,"labels":[],"geniusPrice":null,"geniusUnitPricePerLabel":null,"banner":null,"discountLabel":null,"geniusDiscountLabel":null,"badge":null},{"code":"100081558","variantCode":"6426284001290","name":"Linte roșie 1kg","slug":"100081558-niavis-linte-rosie-1kg","unitPriceLabel":"26,99 Lei/kg","brand":"Niavis","brandCode":"190","brandFilterCode":"niavis-b191","sku":"100081558","price":26.99,"originalPrice":null,"currencyCode":"RON","currency":"Lei","image":{"thumbnail":{"default":"https://cdn.freshful.ro/media/cache/sylius_shop_product_thumbnail/dd/45/9a7761f1b69cb29be2a3c8c293a8.jpg"},"large":{"default":"https://cdn.freshful.ro/media/cache/freshful_large/dd/45/9a7761f1b69cb29be2a3c8c293a8.jpg"},"extralarge":{"default":"https://cdn.freshful.ro/media/cache/sylius_shop_product_original/dd/45/9a7761f1b69cb29be2a3c8c293a8.jpg"}},"label":null,"tags":[{"type":"vegan","text":"Vegan","icon":"https://cdn.freshful.ro/assets/product_tags/vegan.svg","iconPng":"https://cdn.freshful.ro/assets/product_tags/vegan.png","backgroundColor":"#ECF9F8","textColor":"#33A39C"},{"type":"NoGluten","text":"Fara gluten","icon":"https://cdn.freshful.ro/assets/product_tags/fara_gluten.svg","iconPng":"https://cdn.freshful.ro/assets/product_tags/fara_gluten.png","backgroundColor":"#FFF2E5","textColor":"#F07900"},{"type":"Natural","text":"Natural","icon":"https://cdn.freshful.ro/assets/product_tags/natural.svg","iconPng":"https://cdn.freshful.ro/assets/product_tags/natural.png","backgroundColor":"#E9FCF2","textColor":"#18AF62"}],"isAvailable":true,"maxAvailableQuantity":52,"maxAllowedQuantity":100,"breadcrumbs":[{"code":"8","name":"Băcănie","slug":"8-ceva-sarat"},{"code":"801","name":"Paste, orez și legume uscate","slug":"801-paste-orez-si-legume-uscate"},{"code":"80105","name":"Legume uscate","slug":"80105-legume-uscate"},{"code":"100081558","name":"Linte roșie 1kg","slug":"100081558-niavis-linte-rosie-1kg"}],"activePromotion":null,"saveMe":null,"labels":[],"geniusPrice":null,"geniusUnitPricePerLabel":null,"banner":null,"discountLabel":null,"geniusDiscountLabel":null,"badge":null},{"code":"100081580","variantCode":"6426284001276","name":"Quinoa albă 500g","slug":"100081580-niavis-quinoa-alba-500g","unitPriceLabel":"43,98 Lei/kg","brand":"Niavis","brandCode":"190","brandFilterCode":"niavis-b191","sku":"100081580","price":21.99,"originalPrice":null,"currencyCode":"RON","currency":"Lei","image":{"thumbnail":{"default":"https://cdn.freshful.ro/media/cache/sylius_shop_product_thumbnail/2b/2e/55060cd3cb76912fb3d183903bc2.jpg"},"large":{"default":"https://cdn.freshful.ro/media/cache/freshful_large/2b/2e/55060cd3cb76912fb3d183903bc2.jpg"},"extralarge":{"default":"https://cdn.freshful.ro/media/cache/sylius_shop_product_original/2b/2e/55060cd3cb76912fb3d183903bc2.jpg"}},"label":null,"tags":[{"type":"vegan","text":"Vegan","icon":"https://cdn.freshful.ro/assets/product_tags/vegan.svg","iconPng":"https://cdn.freshful.ro/assets/product_tags/vegan.png","backgroundColor":"#ECF9F8","textColor":"#33A39C"},{"type":"NoGluten","text":"Fara gluten","icon":"https://cdn.freshful.ro/assets/product_tags/fara_gluten.svg","iconPng":"https://cdn.freshful.ro/assets/product_tags/fara_gluten.png","backgroundColor":"#FFF2E5","textColor":"#F07900"},{"type":"Natural","text":"Natural","icon":"https://cdn.freshful.ro/assets/product_tags/natural.svg","iconPng":"https://cdn.freshful.ro/assets/product_tags/natural.png","backgroundColor":"#E9FCF2","textColor":"#18AF62"}],"isAvailable":true,"maxAvailableQuantity":34,"maxAllowedQuantity":100,"breadcrumbs":[{"code":"8","name":"Băcănie","slug":"8-ceva-sarat"},{"code":"801","name":"Paste, orez și legume uscate","slug":"801-paste-orez-si-legume-uscate"},{"code":"80105","name":"Legume uscate","slug":"80105-legume-uscate"},{"code":"100081580","name":"Quinoa albă 500g","slug":"100081580-niavis-quinoa-alba-500g"}],"activePromotion":null,"saveMe":null,"labels":[],"geniusPrice":null,"geniusUnitPricePerLabel":null,"banner":null,"discountLabel":null,"geniusDiscountLabel":null,"badge":null}],"filters":{"countSelected":0,"items":[{"code":"promotion","name":"Promoții","countSelected":0,"values":[{"code":"special-produse-vegane-mar23","name":"Și bun, și de post","isSelected":false,"count":4}]},{"code":"brand","name":"Brand","countSelected":0,"values":[{"code":"atifco-b110","name":"Atifco","isSelected":false,"count":2},{"code":"deroni-b1467","name":"Deroni","isSelected":false,"count":3},{"code":"niavis-b191","name":"Niavis","isSelected":false,"count":3},{"code":"panzani-b1688","name":"Panzani","isSelected":false,"count":1},{"code":"sanovita-b483","name":"Sanovita","isSelected":false,"count":7},{"code":"suntat-b980","name":"Suntat","isSelected":false,"count":5}]},{"code":"diet_lifestyle","name":"Dietă și lifestyle","countSelected":0,"values":[{"code":"fara-gluten-a16","name":"Fara gluten","isSelected":false,"count":3},{"code":"natural-a27","name":"Natural","isSelected":false,"count":3},{"code":"vegan-a24","name":"Vegan","isSelected":false,"count":3}]}]},"orderBy":[{"field":"price","direction":"asc","name":"Preț crescător","isSelected":false},{"field":"price","direction":"desc","name":"Preț descrescător","isSelected":false},{"field":"popularity","direction":"desc","name":"Cele mai populare","isSelected":true},{"field":"category","direction":"asc","name":"Categorie","isSelected":false}],"metaTitle":"Legume uscate - Gamă variată","metaDescription":"Vrei Legume uscate? Alege dintr-o gamă variată. Comanzi simplu și ai livrare rapidă, calitate și prospețime. Hai pe Freshful.ro","metaKeywords":null,"banners":[]}}