{"type":"subcategory","payload":{"analyticsListId":"category_80101-paste-cu-ou","analyticsListName":"Category - Paste cu ou","name":"Paste cu ou","slug":"80101-paste-cu-ou","image":null,"breadcrumbs":[{"code":"8","name":"Băcănie","slug":"8-ceva-sarat"},{"code":"801","name":"Paste, orez și legume uscate","slug":"801-paste-orez-si-legume-uscate"},{"code":"80101","name":"Paste cu ou","slug":"80101-paste-cu-ou"}],"slots":[],"page":1,"limit":10,"pages":8,"count":79,"siblings":[{"name":"Paste, orez și legume uscate","slug":"801-paste-orez-si-legume-uscate","selected":true},{"name":"Conserve","slug":"802-conserve","selected":false},{"name":"Condimente și sosuri","slug":"803-condimente-si-sosuri","selected":false},{"name":"Ulei și oțet","slug":"804-ulei-si-otet","selected":false},{"name":"De ronțăit","slug":"805-aperitive-sarate","selected":false},{"name":"Făină, zahăr și produse gourmet","slug":"faina-zahar-si-produse-gourmet","selected":false}],"children":[{"name":"Toate produsele","slug":"801-paste-orez-si-legume-uscate","selected":false},{"name":"Paste cu ou","slug":"80101-paste-cu-ou","selected":true},{"name":"Paste fără ou","slug":"80102-paste-fara-ou","selected":false},{"name":"Paste integrale și din grâu dur","slug":"80103-paste-integrale-si-din-grau-dur","selected":false},{"name":"Orez","slug":"80104-orez","selected":false},{"name":"Legume uscate","slug":"80105-legume-uscate","selected":false}],"products":[{"code":"100080884","variantCode":"100080884","name":"Paste Rigatoni n.89, 500g","slug":"100080884-barilla-paste-rigatoni-n-89-500g","unitPriceLabel":"13,9 Lei/kg","brand":"Barilla","brandCode":"267","brandFilterCode":"barilla-b268","sku":"100080884","price":6.95,"originalPrice":null,"currencyCode":"RON","currency":"Lei","image":{"thumbnail":{"default":"https://cdn.freshful.ro/media/cache/sylius_shop_product_thumbnail/e8/08/ec97c5b69843ba1d9c5bb379cfb2.jpg"},"large":{"default":"https://cdn.freshful.ro/media/cache/freshful_large/e8/08/ec97c5b69843ba1d9c5bb379cfb2.jpg"},"extralarge":{"default":"https://cdn.freshful.ro/media/cache/sylius_shop_product_original/e8/08/ec97c5b69843ba1d9c5bb379cfb2.jpg"}},"label":null,"tags":[],"isAvailable":true,"maxAvailableQuantity":100,"maxAllowedQuantity":100,"breadcrumbs":[{"code":"8","name":"Băcănie","slug":"8-ceva-sarat"},{"code":"801","name":"Paste, orez și legume uscate","slug":"801-paste-orez-si-legume-uscate"},{"code":"80101","name":"Paste cu ou","slug":"80101-paste-cu-ou"},{"code":"100080884","name":"Paste Rigatoni n.89, 500g","slug":"100080884-barilla-paste-rigatoni-n-89-500g"}],"activePromotion":null,"saveMe":null,"labels":[],"geniusPrice":null,"geniusUnitPricePerLabel":null,"banner":null,"discountLabel":null,"geniusDiscountLabel":null,"badge":null},{"code":"100115834","variantCode":"100115834","name":"Paste de casă cu ou, tăiței scurți 250g","slug":"100115834-roadele-muntilor-paste-de-casa-cu-ou-taitei-scurti-250g","unitPriceLabel":"31,16 Lei/kg","brand":"Roadele Munților","brandCode":"2716","brandFilterCode":"roadele-muntilor-b2722","sku":"100115834","price":7.79,"originalPrice":null,"currencyCode":"RON","currency":"Lei","image":{"thumbnail":{"default":"https://cdn.freshful.ro/media/cache/sylius_shop_product_thumbnail/9c/76/708cf7c67e9361982c64079825c4.jpg"},"large":{"default":"https://cdn.freshful.ro/media/cache/freshful_large/9c/76/708cf7c67e9361982c64079825c4.jpg"},"extralarge":{"default":"https://cdn.freshful.ro/media/cache/sylius_shop_product_original/9c/76/708cf7c67e9361982c64079825c4.jpg"}},"label":{"text":"Mici producători","backgroundColor":"#7B61FF","textColor":"#FFFFFF"},"tags":[{"type":"MadeInRomania","text":"Made In Romania","icon":"https://cdn.freshful.ro/assets/product_tags/made_in_romania.svg","iconPng":"https://cdn.freshful.ro/assets/product_tags/made_in_romania.png","backgroundColor":"#EDF2FD","textColor":"#1653CA"},{"type":"Natural","text":"Natural","icon":"https://cdn.freshful.ro/assets/product_tags/natural.svg","iconPng":"https://cdn.freshful.ro/assets/product_tags/natural.png","backgroundColor":"#E9FCF2","textColor":"#18AF62"}],"isAvailable":true,"maxAvailableQuantity":100,"maxAllowedQuantity":100,"breadcrumbs":[{"code":"8","name":"Băcănie","slug":"8-ceva-sarat"},{"code":"801","name":"Paste, orez și legume uscate","slug":"801-paste-orez-si-legume-uscate"},{"code":"80101","name":"Paste cu ou","slug":"80101-paste-cu-ou"},{"code":"100115834","name":"Paste de casă cu ou, tăiței scurți 250g","slug":"100115834-roadele-muntilor-paste-de-casa-cu-ou-taitei-scurti-250g"}],"activePromotion":null,"saveMe":null,"labels":[{"type":"v1","items":[{"text":"Mici producători","backgroundColor":"#7B61FF","textColor":"#FFFFFF"}]}],"geniusPrice":null,"geniusUnitPricePerLabel":null,"banner":null,"discountLabel":null,"geniusDiscountLabel":null,"badge":null},{"code":"100042199","variantCode":"100042199","name":"Paste Penne Rigate n.20, 500g","slug":"100042199-la-molisana-paste-penne-rigate-n-20-500g","unitPriceLabel":"15,3 Lei/kg","brand":"La Molisana","brandCode":"653","brandFilterCode":"la-molisana-b654","sku":"100042199","price":7.65,"originalPrice":null,"currencyCode":"RON","currency":"Lei","image":{"thumbnail":{"default":"https://cdn.freshful.ro/media/cache/sylius_shop_product_thumbnail/77/91/1a8ce377e0aaba613aef7f5fb2f1.jpg"},"large":{"default":"https://cdn.freshful.ro/media/cache/freshful_large/77/91/1a8ce377e0aaba613aef7f5fb2f1.jpg"},"extralarge":{"default":"https://cdn.freshful.ro/media/cache/sylius_shop_product_original/77/91/1a8ce377e0aaba613aef7f5fb2f1.jpg"}},"label":null,"tags":[],"isAvailable":true,"maxAvailableQuantity":100,"maxAllowedQuantity":100,"breadcrumbs":[{"code":"8","name":"Băcănie","slug":"8-ceva-sarat"},{"code":"801","name":"Paste, orez și legume uscate","slug":"801-paste-orez-si-legume-uscate"},{"code":"80101","name":"Paste cu ou","slug":"80101-paste-cu-ou"},{"code":"100042199","name":"Paste Penne Rigate n.20, 500g","slug":"100042199-la-molisana-paste-penne-rigate-n-20-500g"}],"activePromotion":null,"saveMe":null,"labels":[],"geniusPrice":null,"geniusUnitPricePerLabel":null,"banner":null,"discountLabel":null,"geniusDiscountLabel":null,"badge":null},{"code":"100080876","variantCode":"100080876","name":"Paste Linguine 500g","slug":"100080876-barilla-paste-linguine-500g","unitPriceLabel":"15,98 Lei/kg","brand":"Barilla","brandCode":"267","brandFilterCode":"barilla-b268","sku":"100080876","price":7.99,"originalPrice":null,"currencyCode":"RON","currency":"Lei","image":{"thumbnail":{"default":"https://cdn.freshful.ro/media/cache/sylius_shop_product_thumbnail/ff/26/946fd7beeedaf9aaa2871e16c591.jpg"},"large":{"default":"https://cdn.freshful.ro/media/cache/freshful_large/ff/26/946fd7beeedaf9aaa2871e16c591.jpg"},"extralarge":{"default":"https://cdn.freshful.ro/media/cache/sylius_shop_product_original/ff/26/946fd7beeedaf9aaa2871e16c591.jpg"}},"label":null,"tags":[],"isAvailable":true,"maxAvailableQuantity":6,"maxAllowedQuantity":6,"breadcrumbs":[{"code":"8","name":"Băcănie","slug":"8-ceva-sarat"},{"code":"801","name":"Paste, orez și legume uscate","slug":"801-paste-orez-si-legume-uscate"},{"code":"80101","name":"Paste cu ou","slug":"80101-paste-cu-ou"},{"code":"100080876","name":"Paste Linguine 500g","slug":"100080876-barilla-paste-linguine-500g"}],"activePromotion":null,"saveMe":null,"labels":[],"geniusPrice":null,"geniusUnitPricePerLabel":null,"banner":null,"discountLabel":null,"geniusDiscountLabel":null,"badge":null},{"code":"100143051","variantCode":"100143051","name":"Paste Spaghetti 400g","slug":"100143051-apetini-paste-spaghetti-400g","unitPriceLabel":"5,23 Lei/kg","brand":"APETINI","brandCode":"2759","brandFilterCode":"apetini-b2833","sku":"100143051","price":2.09,"originalPrice":null,"currencyCode":"RON","currency":"Lei","image":{"thumbnail":{"default":"https://cdn.freshful.ro/media/cache/sylius_shop_product_thumbnail/42/2f/2df2c709f47c2851488a285ddcd3.jpg"},"large":{"default":"https://cdn.freshful.ro/media/cache/freshful_large/42/2f/2df2c709f47c2851488a285ddcd3.jpg"},"extralarge":{"default":"https://cdn.freshful.ro/media/cache/sylius_shop_product_original/42/2f/2df2c709f47c2851488a285ddcd3.jpg"}},"label":{"text":"Primul preț","backgroundColor":"#3A0808","textColor":"#FFFFFF"},"tags":[],"isAvailable":true,"maxAvailableQuantity":6,"maxAllowedQuantity":6,"breadcrumbs":[{"code":"8","name":"Băcănie","slug":"8-ceva-sarat"},{"code":"801","name":"Paste, orez și legume uscate","slug":"801-paste-orez-si-legume-uscate"},{"code":"80101","name":"Paste cu ou","slug":"80101-paste-cu-ou"},{"code":"100143051","name":"Paste Spaghetti 400g","slug":"100143051-apetini-paste-spaghetti-400g"}],"activePromotion":null,"saveMe":null,"labels":[{"type":"v4","items":[{"text":"Primul","backgroundColor":"#3A0808","textColor":"#FFFFFF"},{"text":"preț","backgroundColor":"#BC0606","textColor":"#FFFFFF"}]}],"geniusPrice":null,"geniusUnitPricePerLabel":null,"banner":null,"discountLabel":null,"geniusDiscountLabel":null,"badge":null},{"code":"100080874","variantCode":"100080874","name":"Paste Spaghettoni n.7, 500g","slug":"100080874-barilla-paste-spaghettoni-n-7-500g","unitPriceLabel":"11,2 Lei/kg","brand":"Barilla","brandCode":"267","brandFilterCode":"barilla-b268","sku":"100080874","price":5.6,"originalPrice":null,"currencyCode":"RON","currency":"Lei","image":{"thumbnail":{"default":"https://cdn.freshful.ro/media/cache/sylius_shop_product_thumbnail/f3/0e/ede07e45996866ba1b07e7f746f2.jpg"},"large":{"default":"https://cdn.freshful.ro/media/cache/freshful_large/f3/0e/ede07e45996866ba1b07e7f746f2.jpg"},"extralarge":{"default":"https://cdn.freshful.ro/media/cache/sylius_shop_product_original/f3/0e/ede07e45996866ba1b07e7f746f2.jpg"}},"label":null,"tags":[],"isAvailable":true,"maxAvailableQuantity":6,"maxAllowedQuantity":6,"breadcrumbs":[{"code":"8","name":"Băcănie","slug":"8-ceva-sarat"},{"code":"801","name":"Paste, orez și legume uscate","slug":"801-paste-orez-si-legume-uscate"},{"code":"80101","name":"Paste cu ou","slug":"80101-paste-cu-ou"},{"code":"100080874","name":"Paste Spaghettoni n.7, 500g","slug":"100080874-barilla-paste-spaghettoni-n-7-500g"}],"activePromotion":null,"saveMe":null,"labels":[],"geniusPrice":null,"geniusUnitPricePerLabel":null,"banner":null,"discountLabel":null,"geniusDiscountLabel":null,"badge":null},{"code":"100115836","variantCode":"100115836","name":"Paste de casă cu ou, fidea 250g","slug":"100115836-roadele-muntilor-paste-de-casa-cu-ou-fidea-250g","unitPriceLabel":"31,16 Lei/kg","brand":"Roadele Munților","brandCode":"2716","brandFilterCode":"roadele-muntilor-b2722","sku":"100115836","price":7.79,"originalPrice":null,"currencyCode":"RON","currency":"Lei","image":{"thumbnail":{"default":"https://cdn.freshful.ro/media/cache/sylius_shop_product_thumbnail/7b/0c/0eb1b732bf3a1aeabc0381e9547a.jpg"},"large":{"default":"https://cdn.freshful.ro/media/cache/freshful_large/7b/0c/0eb1b732bf3a1aeabc0381e9547a.jpg"},"extralarge":{"default":"https://cdn.freshful.ro/media/cache/sylius_shop_product_original/7b/0c/0eb1b732bf3a1aeabc0381e9547a.jpg"}},"label":{"text":"Mici producători","backgroundColor":"#7B61FF","textColor":"#FFFFFF"},"tags":[{"type":"MadeInRomania","text":"Made In Romania","icon":"https://cdn.freshful.ro/assets/product_tags/made_in_romania.svg","iconPng":"https://cdn.freshful.ro/assets/product_tags/made_in_romania.png","backgroundColor":"#EDF2FD","textColor":"#1653CA"},{"type":"Natural","text":"Natural","icon":"https://cdn.freshful.ro/assets/product_tags/natural.svg","iconPng":"https://cdn.freshful.ro/assets/product_tags/natural.png","backgroundColor":"#E9FCF2","textColor":"#18AF62"}],"isAvailable":true,"maxAvailableQuantity":100,"maxAllowedQuantity":100,"breadcrumbs":[{"code":"8","name":"Băcănie","slug":"8-ceva-sarat"},{"code":"801","name":"Paste, orez și legume uscate","slug":"801-paste-orez-si-legume-uscate"},{"code":"80101","name":"Paste cu ou","slug":"80101-paste-cu-ou"},{"code":"100115836","name":"Paste de casă cu ou, fidea 250g","slug":"100115836-roadele-muntilor-paste-de-casa-cu-ou-fidea-250g"}],"activePromotion":null,"saveMe":null,"labels":[{"type":"v1","items":[{"text":"Mici producători","backgroundColor":"#7B61FF","textColor":"#FFFFFF"}]}],"geniusPrice":null,"geniusUnitPricePerLabel":null,"banner":null,"discountLabel":null,"geniusDiscountLabel":null,"badge":null},{"code":"100080879","variantCode":"100080879","name":"Paste Gnocchi n.85 500g","slug":"100080879-barilla-paste-gnocchi-n-85-500g","unitPriceLabel":"13,3 Lei/kg","brand":"Barilla","brandCode":"267","brandFilterCode":"barilla-b268","sku":"100080879","price":6.65,"originalPrice":null,"currencyCode":"RON","currency":"Lei","image":{"thumbnail":{"default":"https://cdn.freshful.ro/media/cache/sylius_shop_product_thumbnail/fd/9a/3c3622daf4f2aba04d1d963a9591.jpg"},"large":{"default":"https://cdn.freshful.ro/media/cache/freshful_large/fd/9a/3c3622daf4f2aba04d1d963a9591.jpg"},"extralarge":{"default":"https://cdn.freshful.ro/media/cache/sylius_shop_product_original/fd/9a/3c3622daf4f2aba04d1d963a9591.jpg"}},"label":null,"tags":[],"isAvailable":true,"maxAvailableQuantity":91,"maxAllowedQuantity":100,"breadcrumbs":[{"code":"8","name":"Băcănie","slug":"8-ceva-sarat"},{"code":"801","name":"Paste, orez și legume uscate","slug":"801-paste-orez-si-legume-uscate"},{"code":"80101","name":"Paste cu ou","slug":"80101-paste-cu-ou"},{"code":"100080879","name":"Paste Gnocchi n.85 500g","slug":"100080879-barilla-paste-gnocchi-n-85-500g"}],"activePromotion":null,"saveMe":null,"labels":[],"geniusPrice":null,"geniusUnitPricePerLabel":null,"banner":null,"discountLabel":null,"geniusDiscountLabel":null,"badge":null},{"code":"100042202","variantCode":"100042202","name":"Paste Tagliatelle n.103, 500g","slug":"100042202-la-molisana-paste-tagliatelle-n-103-500g","unitPriceLabel":"26,58 Lei/kg","brand":"La Molisana","brandCode":"653","brandFilterCode":"la-molisana-b654","sku":"100042202","price":13.29,"originalPrice":null,"currencyCode":"RON","currency":"Lei","image":{"thumbnail":{"default":"https://cdn.freshful.ro/media/cache/sylius_shop_product_thumbnail/18/b0/c71c1cdcb6e37f84cc0a9d678f43.jpg"},"large":{"default":"https://cdn.freshful.ro/media/cache/freshful_large/18/b0/c71c1cdcb6e37f84cc0a9d678f43.jpg"},"extralarge":{"default":"https://cdn.freshful.ro/media/cache/sylius_shop_product_original/18/b0/c71c1cdcb6e37f84cc0a9d678f43.jpg"}},"label":null,"tags":[],"isAvailable":true,"maxAvailableQuantity":6,"maxAllowedQuantity":6,"breadcrumbs":[{"code":"8","name":"Băcănie","slug":"8-ceva-sarat"},{"code":"801","name":"Paste, orez și legume uscate","slug":"801-paste-orez-si-legume-uscate"},{"code":"80101","name":"Paste cu ou","slug":"80101-paste-cu-ou"},{"code":"100042202","name":"Paste Tagliatelle n.103, 500g","slug":"100042202-la-molisana-paste-tagliatelle-n-103-500g"}],"activePromotion":null,"saveMe":null,"labels":[],"geniusPrice":null,"geniusUnitPricePerLabel":null,"banner":null,"discountLabel":null,"geniusDiscountLabel":null,"badge":null},{"code":"100080883","variantCode":"100080883","name":"Paste Maccheroni n.44 ,500g","slug":"100080883-barilla-paste-maccheroni-n-44-500g","unitPriceLabel":"13,1 Lei/kg","brand":"Barilla","brandCode":"267","brandFilterCode":"barilla-b268","sku":"100080883","price":6.55,"originalPrice":null,"currencyCode":"RON","currency":"Lei","image":{"thumbnail":{"default":"https://cdn.freshful.ro/media/cache/sylius_shop_product_thumbnail/29/36/da43bcf6e1e4ff08a5366826eb2e.jpg"},"large":{"default":"https://cdn.freshful.ro/media/cache/freshful_large/29/36/da43bcf6e1e4ff08a5366826eb2e.jpg"},"extralarge":{"default":"https://cdn.freshful.ro/media/cache/sylius_shop_product_original/29/36/da43bcf6e1e4ff08a5366826eb2e.jpg"}},"label":null,"tags":[],"isAvailable":true,"maxAvailableQuantity":54,"maxAllowedQuantity":100,"breadcrumbs":[{"code":"8","name":"Băcănie","slug":"8-ceva-sarat"},{"code":"801","name":"Paste, orez și legume uscate","slug":"801-paste-orez-si-legume-uscate"},{"code":"80101","name":"Paste cu ou","slug":"80101-paste-cu-ou"},{"code":"100080883","name":"Paste Maccheroni n.44 ,500g","slug":"100080883-barilla-paste-maccheroni-n-44-500g"}],"activePromotion":null,"saveMe":null,"labels":[],"geniusPrice":null,"geniusUnitPricePerLabel":null,"banner":null,"discountLabel":null,"geniusDiscountLabel":null,"badge":null}],"filters":{"countSelected":0,"items":[{"code":"brand","name":"Brand","countSelected":0,"values":[{"code":"antonio-di-vaio-b1558","name":"Antonio Di Vaio","isSelected":false,"count":1},{"code":"apetini-b2833","name":"APETINI","isSelected":false,"count":1},{"code":"barilla-b268","name":"Barilla","isSelected":false,"count":23},{"code":"baneasa-b1557","name":"Băneasa","isSelected":false,"count":4},{"code":"dalla-costa-b1140","name":"Dalla Costa","isSelected":false,"count":3},{"code":"de-cecco-b639","name":"De Cecco","isSelected":false,"count":7},{"code":"la-molisana-b654","name":"La Molisana","isSelected":false,"count":10},{"code":"monte-banato-b1495","name":"Monte Banato","isSelected":false,"count":20},{"code":"panzani-b1688","name":"Panzani","isSelected":false,"count":1},{"code":"roadele-muntilor-b2722","name":"Roadele Munților","isSelected":false,"count":9}]},{"code":"diet_lifestyle","name":"Dietă și lifestyle","countSelected":0,"values":[{"code":"fara-gluten-a16","name":"Fara gluten","isSelected":false,"count":2},{"code":"made-in-romania-a85","name":"Made In Romania","isSelected":false,"count":9},{"code":"natural-a27","name":"Natural","isSelected":false,"count":9}]}]},"orderBy":[{"field":"price","direction":"asc","name":"Preț crescător","isSelected":false},{"field":"price","direction":"desc","name":"Preț descrescător","isSelected":false},{"field":"popularity","direction":"desc","name":"Cele mai populare","isSelected":true},{"field":"category","direction":"asc","name":"Categorie","isSelected":false}],"metaTitle":"Paste cu ou - Gamă variată","metaDescription":"Vrei Paste cu ou? Alege dintr-o gamă variată. Comanzi simplu și ai livrare rapidă, calitate și prospețime. Hai pe Freshful.ro","metaKeywords":null,"banners":[]}}