{"type":"subcategory","payload":{"analyticsListId":"category_80104-orez","analyticsListName":"Category - Orez","name":"Orez","slug":"80104-orez","image":null,"breadcrumbs":[{"code":"8","name":"Băcănie","slug":"8-ceva-sarat"},{"code":"801","name":"Paste, orez și legume uscate","slug":"801-paste-orez-si-legume-uscate"},{"code":"80104","name":"Orez","slug":"80104-orez"}],"slots":[],"page":1,"limit":10,"pages":4,"count":36,"siblings":[{"name":"Paste, orez și legume uscate","slug":"801-paste-orez-si-legume-uscate","selected":true},{"name":"Conserve","slug":"802-conserve","selected":false},{"name":"Condimente și sosuri","slug":"803-condimente-si-sosuri","selected":false},{"name":"Ulei și oțet","slug":"804-ulei-si-otet","selected":false},{"name":"De ronțăit","slug":"805-aperitive-sarate","selected":false},{"name":"Făină, zahăr și produse gourmet","slug":"faina-zahar-si-produse-gourmet","selected":false}],"children":[{"name":"Toate produsele","slug":"801-paste-orez-si-legume-uscate","selected":false},{"name":"Paste cu ou","slug":"80101-paste-cu-ou","selected":false},{"name":"Paste fără ou","slug":"80102-paste-fara-ou","selected":false},{"name":"Paste integrale și din grâu dur","slug":"80103-paste-integrale-si-din-grau-dur","selected":false},{"name":"Orez","slug":"80104-orez","selected":true},{"name":"Legume uscate","slug":"80105-legume-uscate","selected":false}],"products":[{"code":"100101439","variantCode":"100101439","name":"Orez ideal pentru pilaf 1kg","slug":"100101439-riso-scotti-orez-ideal-pentru-pilaf-1kg","unitPriceLabel":"8,39 Lei/kg","brand":"Riso Scotti","brandCode":"1686","brandFilterCode":"riso-scotti-b1690","sku":"100101439","price":8.39,"originalPrice":10.5,"currencyCode":"RON","currency":"Lei","image":{"thumbnail":{"default":"https://cdn.freshful.ro/media/cache/sylius_shop_product_thumbnail/3c/7d/1cdbeb602c9ea6b27ee9f2ee144a.jpg"},"large":{"default":"https://cdn.freshful.ro/media/cache/freshful_large/3c/7d/1cdbeb602c9ea6b27ee9f2ee144a.jpg"},"extralarge":{"default":"https://cdn.freshful.ro/media/cache/sylius_shop_product_original/3c/7d/1cdbeb602c9ea6b27ee9f2ee144a.jpg"}},"label":{"text":"-20%","backgroundColor":"#FF9903","textColor":"#FFFFFF"},"tags":[],"isAvailable":true,"maxAvailableQuantity":10,"maxAllowedQuantity":10,"breadcrumbs":[{"code":"8","name":"Băcănie","slug":"8-ceva-sarat"},{"code":"801","name":"Paste, orez și legume uscate","slug":"801-paste-orez-si-legume-uscate"},{"code":"80104","name":"Orez","slug":"80104-orez"},{"code":"100101439","name":"Orez ideal pentru pilaf 1kg","slug":"100101439-riso-scotti-orez-ideal-pentru-pilaf-1kg"}],"activePromotion":{"code":"superpreturile-saptamanii","name":"Preț redus","targetQuantity":null},"saveMe":null,"labels":[{"type":"v1","items":[{"text":"-20%","backgroundColor":"#FF9903","textColor":"#FFFFFF"}]}],"geniusPrice":null,"geniusUnitPricePerLabel":null,"banner":{"text":"Super preț","textColor":"#FF0000","bgColor":"#FFF2EC","icon":null,"link":"https://www.freshful.ro/oferte/superpreturile-saptamanii","type":"promo","analyticsEventType":"select_promotion","analyticsEventPayload":{"promotion_id":"superpreturile-saptamanii","promotion_name":"Superprețurile zilei"}},"discountLabel":"Economisești 20%","geniusDiscountLabel":null,"badge":null},{"code":"100143804","variantCode":"100143804","name":"Orez Clasic 1kg","slug":"100143804-riso-scotti-orez-clasic-1kg","unitPriceLabel":"8,99 Lei/kg","brand":"Riso Scotti","brandCode":"1686","brandFilterCode":"riso-scotti-b1690","sku":"100143804","price":8.99,"originalPrice":null,"currencyCode":"RON","currency":"Lei","image":{"thumbnail":{"default":"https://cdn.freshful.ro/media/cache/sylius_shop_product_thumbnail/de/65/0ba075d8925593bed50f0e9da033.jpg"},"large":{"default":"https://cdn.freshful.ro/media/cache/freshful_large/de/65/0ba075d8925593bed50f0e9da033.jpg"},"extralarge":{"default":"https://cdn.freshful.ro/media/cache/sylius_shop_product_original/de/65/0ba075d8925593bed50f0e9da033.jpg"}},"label":null,"tags":[],"isAvailable":true,"maxAvailableQuantity":10,"maxAllowedQuantity":10,"breadcrumbs":[{"code":"8","name":"Băcănie","slug":"8-ceva-sarat"},{"code":"801","name":"Paste, orez și legume uscate","slug":"801-paste-orez-si-legume-uscate"},{"code":"80104","name":"Orez","slug":"80104-orez"},{"code":"100143804","name":"Orez Clasic 1kg","slug":"100143804-riso-scotti-orez-clasic-1kg"}],"activePromotion":null,"saveMe":null,"labels":[],"geniusPrice":null,"geniusUnitPricePerLabel":null,"banner":null,"discountLabel":null,"geniusDiscountLabel":null,"badge":null},{"code":"100102848","variantCode":"100102848","name":"Orez Basmati 500g","slug":"100102848-panzani-orez-basmati-500g","unitPriceLabel":"21 Lei/kg","brand":"Panzani","brandCode":"1684","brandFilterCode":"panzani-b1688","sku":"100102848","price":10.5,"originalPrice":null,"currencyCode":"RON","currency":"Lei","image":{"thumbnail":{"default":"https://cdn.freshful.ro/media/cache/sylius_shop_product_thumbnail/71/2f/bb4077283d90d84af2faf922cf97.jpg"},"large":{"default":"https://cdn.freshful.ro/media/cache/freshful_large/71/2f/bb4077283d90d84af2faf922cf97.jpg"},"extralarge":{"default":"https://cdn.freshful.ro/media/cache/sylius_shop_product_original/71/2f/bb4077283d90d84af2faf922cf97.jpg"}},"label":null,"tags":[],"isAvailable":true,"maxAvailableQuantity":10,"maxAllowedQuantity":10,"breadcrumbs":[{"code":"8","name":"Băcănie","slug":"8-ceva-sarat"},{"code":"801","name":"Paste, orez și legume uscate","slug":"801-paste-orez-si-legume-uscate"},{"code":"80104","name":"Orez","slug":"80104-orez"},{"code":"100102848","name":"Orez Basmati 500g","slug":"100102848-panzani-orez-basmati-500g"}],"activePromotion":null,"saveMe":null,"labels":[],"geniusPrice":null,"geniusUnitPricePerLabel":null,"banner":null,"discountLabel":null,"geniusDiscountLabel":null,"badge":null},{"code":"100102852","variantCode":"100102852","name":"Orez prefiert 250g","slug":"100102852-panzani-orez-prefiert-250g","unitPriceLabel":"18,36 Lei/kg","brand":"Panzani","brandCode":"1684","brandFilterCode":"panzani-b1688","sku":"100102852","price":4.59,"originalPrice":null,"currencyCode":"RON","currency":"Lei","image":{"thumbnail":{"default":"https://cdn.freshful.ro/media/cache/sylius_shop_product_thumbnail/88/d3/667c209e778b8a8fbd197f2c0a85.jpg"},"large":{"default":"https://cdn.freshful.ro/media/cache/freshful_large/88/d3/667c209e778b8a8fbd197f2c0a85.jpg"},"extralarge":{"default":"https://cdn.freshful.ro/media/cache/sylius_shop_product_original/88/d3/667c209e778b8a8fbd197f2c0a85.jpg"}},"label":null,"tags":[],"isAvailable":true,"maxAvailableQuantity":2,"maxAllowedQuantity":2,"breadcrumbs":[{"code":"8","name":"Băcănie","slug":"8-ceva-sarat"},{"code":"801","name":"Paste, orez și legume uscate","slug":"801-paste-orez-si-legume-uscate"},{"code":"80104","name":"Orez","slug":"80104-orez"},{"code":"100102852","name":"Orez prefiert 250g","slug":"100102852-panzani-orez-prefiert-250g"}],"activePromotion":null,"saveMe":null,"labels":[],"geniusPrice":null,"geniusUnitPricePerLabel":null,"banner":null,"discountLabel":null,"geniusDiscountLabel":null,"badge":null},{"code":"100102856","variantCode":"100102856","name":"Orez basmati 250g","slug":"100102856-panzani-orez-basmati-250g","unitPriceLabel":"26,76 Lei/kg","brand":"Panzani","brandCode":"1684","brandFilterCode":"panzani-b1688","sku":"100102856","price":6.69,"originalPrice":null,"currencyCode":"RON","currency":"Lei","image":{"thumbnail":{"default":"https://cdn.freshful.ro/media/cache/sylius_shop_product_thumbnail/fb/08/73936f4f49e7d0c57d6db2d96cfc.jpg"},"large":{"default":"https://cdn.freshful.ro/media/cache/freshful_large/fb/08/73936f4f49e7d0c57d6db2d96cfc.jpg"},"extralarge":{"default":"https://cdn.freshful.ro/media/cache/sylius_shop_product_original/fb/08/73936f4f49e7d0c57d6db2d96cfc.jpg"}},"label":null,"tags":[],"isAvailable":true,"maxAvailableQuantity":10,"maxAllowedQuantity":10,"breadcrumbs":[{"code":"8","name":"Băcănie","slug":"8-ceva-sarat"},{"code":"801","name":"Paste, orez și legume uscate","slug":"801-paste-orez-si-legume-uscate"},{"code":"80104","name":"Orez","slug":"80104-orez"},{"code":"100102856","name":"Orez basmati 250g","slug":"100102856-panzani-orez-basmati-250g"}],"activePromotion":null,"saveMe":null,"labels":[],"geniusPrice":null,"geniusUnitPricePerLabel":null,"banner":null,"discountLabel":null,"geniusDiscountLabel":null,"badge":null},{"code":"100102853","variantCode":"100102853","name":"Orez express brun natur 250g","slug":"100102853-panzani-orez-express-brun-natur-250g","unitPriceLabel":"19,8 Lei/kg","brand":"Panzani","brandCode":"1684","brandFilterCode":"panzani-b1688","sku":"100102853","price":4.95,"originalPrice":null,"currencyCode":"RON","currency":"Lei","image":{"thumbnail":{"default":"https://cdn.freshful.ro/media/cache/sylius_shop_product_thumbnail/65/44/edb8204fe3f9c765cb8a01c2e99e.jpg"},"large":{"default":"https://cdn.freshful.ro/media/cache/freshful_large/65/44/edb8204fe3f9c765cb8a01c2e99e.jpg"},"extralarge":{"default":"https://cdn.freshful.ro/media/cache/sylius_shop_product_original/65/44/edb8204fe3f9c765cb8a01c2e99e.jpg"}},"label":null,"tags":[],"isAvailable":true,"maxAvailableQuantity":10,"maxAllowedQuantity":10,"breadcrumbs":[{"code":"8","name":"Băcănie","slug":"8-ceva-sarat"},{"code":"801","name":"Paste, orez și legume uscate","slug":"801-paste-orez-si-legume-uscate"},{"code":"80104","name":"Orez","slug":"80104-orez"},{"code":"100102853","name":"Orez express brun natur 250g","slug":"100102853-panzani-orez-express-brun-natur-250g"}],"activePromotion":null,"saveMe":null,"labels":[],"geniusPrice":null,"geniusUnitPricePerLabel":null,"banner":null,"discountLabel":null,"geniusDiscountLabel":null,"badge":null},{"code":"100089712","variantCode":"5941905077740","name":"Orez cu bob rotund 1kg","slug":"100089712-atifco-orez-cu-bob-rotund-1kg","unitPriceLabel":"5,55 Lei/kg","brand":"Atifco","brandCode":"126","brandFilterCode":"atifco-b110","sku":"100089712","price":5.55,"originalPrice":null,"currencyCode":"RON","currency":"Lei","image":{"thumbnail":{"default":"https://cdn.freshful.ro/media/cache/sylius_shop_product_thumbnail/7a/43/f0a0994bef6f5e83775b73b9cc11.jpg"},"large":{"default":"https://cdn.freshful.ro/media/cache/freshful_large/7a/43/f0a0994bef6f5e83775b73b9cc11.jpg"},"extralarge":{"default":"https://cdn.freshful.ro/media/cache/sylius_shop_product_original/7a/43/f0a0994bef6f5e83775b73b9cc11.jpg"}},"label":{"text":"Primul preț","backgroundColor":"#3A0808","textColor":"#FFFFFF"},"tags":[],"isAvailable":true,"maxAvailableQuantity":2,"maxAllowedQuantity":2,"breadcrumbs":[{"code":"8","name":"Băcănie","slug":"8-ceva-sarat"},{"code":"801","name":"Paste, orez și legume uscate","slug":"801-paste-orez-si-legume-uscate"},{"code":"80104","name":"Orez","slug":"80104-orez"},{"code":"100089712","name":"Orez cu bob rotund 1kg","slug":"100089712-atifco-orez-cu-bob-rotund-1kg"}],"activePromotion":null,"saveMe":null,"labels":[{"type":"v4","items":[{"text":"Primul","backgroundColor":"#3A0808","textColor":"#FFFFFF"},{"text":"preț","backgroundColor":"#BC0606","textColor":"#FFFFFF"}]}],"geniusPrice":null,"geniusUnitPricePerLabel":null,"banner":null,"discountLabel":null,"geniusDiscountLabel":null,"badge":null},{"code":"100101441","variantCode":"100101441","name":"Orez bob colosal 1kg","slug":"100101441-riso-scotti-orez-bob-colosal-1kg","unitPriceLabel":"10,29 Lei/kg","brand":"Riso Scotti","brandCode":"1686","brandFilterCode":"riso-scotti-b1690","sku":"100101441","price":10.29,"originalPrice":null,"currencyCode":"RON","currency":"Lei","image":{"thumbnail":{"default":"https://cdn.freshful.ro/media/cache/sylius_shop_product_thumbnail/f6/32/0304ba16d85c034701787bd6f3c0.jpg"},"large":{"default":"https://cdn.freshful.ro/media/cache/freshful_large/f6/32/0304ba16d85c034701787bd6f3c0.jpg"},"extralarge":{"default":"https://cdn.freshful.ro/media/cache/sylius_shop_product_original/f6/32/0304ba16d85c034701787bd6f3c0.jpg"}},"label":null,"tags":[],"isAvailable":true,"maxAvailableQuantity":10,"maxAllowedQuantity":10,"breadcrumbs":[{"code":"8","name":"Băcănie","slug":"8-ceva-sarat"},{"code":"801","name":"Paste, orez și legume uscate","slug":"801-paste-orez-si-legume-uscate"},{"code":"80104","name":"Orez","slug":"80104-orez"},{"code":"100101441","name":"Orez bob colosal 1kg","slug":"100101441-riso-scotti-orez-bob-colosal-1kg"}],"activePromotion":null,"saveMe":null,"labels":[],"geniusPrice":null,"geniusUnitPricePerLabel":null,"banner":null,"discountLabel":null,"geniusDiscountLabel":null,"badge":null},{"code":"100102851","variantCode":"100102851","name":"Orez risotto 500g","slug":"100102851-panzani-orez-risotto-500g","unitPriceLabel":"23,8 Lei/kg","brand":"Panzani","brandCode":"1684","brandFilterCode":"panzani-b1688","sku":"100102851","price":11.9,"originalPrice":null,"currencyCode":"RON","currency":"Lei","image":{"thumbnail":{"default":"https://cdn.freshful.ro/media/cache/sylius_shop_product_thumbnail/be/ce/f5b9a317a3e85b742a340af7b281.jpg"},"large":{"default":"https://cdn.freshful.ro/media/cache/freshful_large/be/ce/f5b9a317a3e85b742a340af7b281.jpg"},"extralarge":{"default":"https://cdn.freshful.ro/media/cache/sylius_shop_product_original/be/ce/f5b9a317a3e85b742a340af7b281.jpg"}},"label":null,"tags":[],"isAvailable":true,"maxAvailableQuantity":10,"maxAllowedQuantity":10,"breadcrumbs":[{"code":"8","name":"Băcănie","slug":"8-ceva-sarat"},{"code":"801","name":"Paste, orez și legume uscate","slug":"801-paste-orez-si-legume-uscate"},{"code":"80104","name":"Orez","slug":"80104-orez"},{"code":"100102851","name":"Orez risotto 500g","slug":"100102851-panzani-orez-risotto-500g"}],"activePromotion":null,"saveMe":null,"labels":[],"geniusPrice":null,"geniusUnitPricePerLabel":null,"banner":null,"discountLabel":null,"geniusDiscountLabel":null,"badge":null},{"code":"100101443","variantCode":"100101443","name":"Orez ușor de gătit basmati 2x125g","slug":"100101443-riso-scotti-orez-usor-de-gatit-basmati-2x125g","unitPriceLabel":"30,2 Lei/kg","brand":"Riso Scotti","brandCode":"1686","brandFilterCode":"riso-scotti-b1690","sku":"100101443","price":7.55,"originalPrice":null,"currencyCode":"RON","currency":"Lei","image":{"thumbnail":{"default":"https://cdn.freshful.ro/media/cache/sylius_shop_product_thumbnail/c7/77/7f3d9960485527d19edd4be9cbfe.jpg"},"large":{"default":"https://cdn.freshful.ro/media/cache/freshful_large/c7/77/7f3d9960485527d19edd4be9cbfe.jpg"},"extralarge":{"default":"https://cdn.freshful.ro/media/cache/sylius_shop_product_original/c7/77/7f3d9960485527d19edd4be9cbfe.jpg"}},"label":null,"tags":[],"isAvailable":true,"maxAvailableQuantity":10,"maxAllowedQuantity":10,"breadcrumbs":[{"code":"8","name":"Băcănie","slug":"8-ceva-sarat"},{"code":"801","name":"Paste, orez și legume uscate","slug":"801-paste-orez-si-legume-uscate"},{"code":"80104","name":"Orez","slug":"80104-orez"},{"code":"100101443","name":"Orez ușor de gătit basmati 2x125g","slug":"100101443-riso-scotti-orez-usor-de-gatit-basmati-2x125g"}],"activePromotion":null,"saveMe":null,"labels":[],"geniusPrice":null,"geniusUnitPricePerLabel":null,"banner":null,"discountLabel":null,"geniusDiscountLabel":null,"badge":null}],"filters":{"countSelected":0,"items":[{"code":"promotion","name":"Promoții","countSelected":0,"values":[{"code":"superpreturile-saptamanii","name":"Superprețurile zilei","isSelected":false,"count":1}]},{"code":"brand","name":"Brand","countSelected":0,"values":[{"code":"atifco-b110","name":"Atifco","isSelected":false,"count":5},{"code":"bitar-b3078","name":"Bitar","isSelected":false,"count":2},{"code":"deroni-b1467","name":"Deroni","isSelected":false,"count":6},{"code":"niavis-b191","name":"Niavis","isSelected":false,"count":1},{"code":"panzani-b1688","name":"Panzani","isSelected":false,"count":9},{"code":"riso-scotti-b1690","name":"Riso Scotti","isSelected":false,"count":11},{"code":"saitaku-b994","name":"Saitaku","isSelected":false,"count":1},{"code":"sanovita-b483","name":"Sanovita","isSelected":false,"count":1}]},{"code":"diet_lifestyle","name":"Dietă și lifestyle","countSelected":0,"values":[{"code":"fara-gluten-a16","name":"Fara gluten","isSelected":false,"count":1},{"code":"vegan-a24","name":"Vegan","isSelected":false,"count":1}]}]},"orderBy":[{"field":"price","direction":"asc","name":"Preț crescător","isSelected":false},{"field":"price","direction":"desc","name":"Preț descrescător","isSelected":false},{"field":"popularity","direction":"desc","name":"Cele mai populare","isSelected":true},{"field":"category","direction":"asc","name":"Categorie","isSelected":false}],"metaTitle":"Orez - Gamă variată","metaDescription":"Vrei Orez? Alege dintr-o gamă variată. Comanzi simplu și ai livrare rapidă, calitate și prospețime. Hai pe Freshful.ro","metaKeywords":null,"banners":[]}}