{"type":"subcategory","payload":{"analyticsListId":"category_80102-paste-fara-ou","analyticsListName":"Category - Paste fără ou","name":"Paste fără ou","slug":"80102-paste-fara-ou","image":null,"breadcrumbs":[{"code":"8","name":"Băcănie","slug":"8-ceva-sarat"},{"code":"801","name":"Paste, orez și legume uscate","slug":"801-paste-orez-si-legume-uscate"},{"code":"80102","name":"Paste fără ou","slug":"80102-paste-fara-ou"}],"slots":[],"page":1,"limit":10,"pages":4,"count":38,"siblings":[{"name":"Paste, orez și legume uscate","slug":"801-paste-orez-si-legume-uscate","selected":true},{"name":"Conserve","slug":"802-conserve","selected":false},{"name":"Condimente și sosuri","slug":"803-condimente-si-sosuri","selected":false},{"name":"Ulei și oțet","slug":"804-ulei-si-otet","selected":false},{"name":"De ronțăit","slug":"805-aperitive-sarate","selected":false},{"name":"Făină, zahăr și produse gourmet","slug":"faina-zahar-si-produse-gourmet","selected":false}],"children":[{"name":"Toate produsele","slug":"801-paste-orez-si-legume-uscate","selected":false},{"name":"Paste cu ou","slug":"80101-paste-cu-ou","selected":false},{"name":"Paste fără ou","slug":"80102-paste-fara-ou","selected":true},{"name":"Paste integrale și din grâu dur","slug":"80103-paste-integrale-si-din-grau-dur","selected":false},{"name":"Orez","slug":"80104-orez","selected":false},{"name":"Legume uscate","slug":"80105-legume-uscate","selected":false}],"products":[{"code":"100091951","variantCode":"100091951","name":"Paste făinoase, fidea cuiburi 200g","slug":"100091951-baneasa-paste-fainoase-fidea-cuiburi-200g","unitPriceLabel":"18,45 Lei/kg","brand":"Băneasa","brandCode":"1560","brandFilterCode":"baneasa-b1557","sku":"100091951","price":3.69,"originalPrice":null,"currencyCode":"RON","currency":"Lei","image":{"thumbnail":{"default":"https://cdn.freshful.ro/media/cache/sylius_shop_product_thumbnail/ff/0f/6542e062cb04b9a588638eb50d42.jpg"},"large":{"default":"https://cdn.freshful.ro/media/cache/freshful_large/ff/0f/6542e062cb04b9a588638eb50d42.jpg"},"extralarge":{"default":"https://cdn.freshful.ro/media/cache/sylius_shop_product_original/ff/0f/6542e062cb04b9a588638eb50d42.jpg"}},"label":null,"tags":[],"isAvailable":true,"maxAvailableQuantity":96,"maxAllowedQuantity":100,"breadcrumbs":[{"code":"8","name":"Băcănie","slug":"8-ceva-sarat"},{"code":"801","name":"Paste, orez și legume uscate","slug":"801-paste-orez-si-legume-uscate"},{"code":"80102","name":"Paste fără ou","slug":"80102-paste-fara-ou"},{"code":"100091951","name":"Paste făinoase, fidea cuiburi 200g","slug":"100091951-baneasa-paste-fainoase-fidea-cuiburi-200g"}],"activePromotion":null,"saveMe":null,"labels":[],"geniusPrice":null,"geniusUnitPricePerLabel":null,"banner":null,"discountLabel":null,"geniusDiscountLabel":null,"badge":null},{"code":"100102865","variantCode":"100102865","name":"Couscous 500g","slug":"100102865-panzani-couscous-500g","unitPriceLabel":"16,5 Lei/kg","brand":"Panzani","brandCode":"1684","brandFilterCode":"panzani-b1688","sku":"100102865","price":8.25,"originalPrice":null,"currencyCode":"RON","currency":"Lei","image":{"thumbnail":{"default":"https://cdn.freshful.ro/media/cache/sylius_shop_product_thumbnail/a2/32/d8d6858ffc4455ba345f21b1e3cf.jpg"},"large":{"default":"https://cdn.freshful.ro/media/cache/freshful_large/a2/32/d8d6858ffc4455ba345f21b1e3cf.jpg"},"extralarge":{"default":"https://cdn.freshful.ro/media/cache/sylius_shop_product_original/a2/32/d8d6858ffc4455ba345f21b1e3cf.jpg"}},"label":null,"tags":[],"isAvailable":true,"maxAvailableQuantity":100,"maxAllowedQuantity":100,"breadcrumbs":[{"code":"8","name":"Băcănie","slug":"8-ceva-sarat"},{"code":"801","name":"Paste, orez și legume uscate","slug":"801-paste-orez-si-legume-uscate"},{"code":"80102","name":"Paste fără ou","slug":"80102-paste-fara-ou"},{"code":"100102865","name":"Couscous 500g","slug":"100102865-panzani-couscous-500g"}],"activePromotion":null,"saveMe":null,"labels":[],"geniusPrice":null,"geniusUnitPricePerLabel":null,"banner":null,"discountLabel":null,"geniusDiscountLabel":null,"badge":null},{"code":"100091937","variantCode":"100091937","name":"Paste făinoase Fusilli 400g","slug":"100091937-baneasa-paste-fainoase-fusilli-400g","unitPriceLabel":"12,13 Lei/kg","brand":"Băneasa","brandCode":"1560","brandFilterCode":"baneasa-b1557","sku":"100091937","price":4.85,"originalPrice":null,"currencyCode":"RON","currency":"Lei","image":{"thumbnail":{"default":"https://cdn.freshful.ro/media/cache/sylius_shop_product_thumbnail/7b/3e/2c217dc8469a5272b185ffab8d03.jpg"},"large":{"default":"https://cdn.freshful.ro/media/cache/freshful_large/7b/3e/2c217dc8469a5272b185ffab8d03.jpg"},"extralarge":{"default":"https://cdn.freshful.ro/media/cache/sylius_shop_product_original/7b/3e/2c217dc8469a5272b185ffab8d03.jpg"}},"label":null,"tags":[],"isAvailable":true,"maxAvailableQuantity":100,"maxAllowedQuantity":100,"breadcrumbs":[{"code":"8","name":"Băcănie","slug":"8-ceva-sarat"},{"code":"801","name":"Paste, orez și legume uscate","slug":"801-paste-orez-si-legume-uscate"},{"code":"80102","name":"Paste fără ou","slug":"80102-paste-fara-ou"},{"code":"100091937","name":"Paste făinoase Fusilli 400g","slug":"100091937-baneasa-paste-fainoase-fusilli-400g"}],"activePromotion":null,"saveMe":null,"labels":[],"geniusPrice":null,"geniusUnitPricePerLabel":null,"banner":null,"discountLabel":null,"geniusDiscountLabel":null,"badge":null},{"code":"100091953","variantCode":"100091953","name":"Paste făinoase, tăiței cuiburi 200g","slug":"100091953-baneasa-paste-fainoase-taitei-cuiburi-200g","unitPriceLabel":"18,45 Lei/kg","brand":"Băneasa","brandCode":"1560","brandFilterCode":"baneasa-b1557","sku":"100091953","price":3.69,"originalPrice":null,"currencyCode":"RON","currency":"Lei","image":{"thumbnail":{"default":"https://cdn.freshful.ro/media/cache/sylius_shop_product_thumbnail/56/36/c0cb1a9fb6d5297b91cece52de22.jpg"},"large":{"default":"https://cdn.freshful.ro/media/cache/freshful_large/56/36/c0cb1a9fb6d5297b91cece52de22.jpg"},"extralarge":{"default":"https://cdn.freshful.ro/media/cache/sylius_shop_product_original/56/36/c0cb1a9fb6d5297b91cece52de22.jpg"}},"label":null,"tags":[],"isAvailable":true,"maxAvailableQuantity":71,"maxAllowedQuantity":100,"breadcrumbs":[{"code":"8","name":"Băcănie","slug":"8-ceva-sarat"},{"code":"801","name":"Paste, orez și legume uscate","slug":"801-paste-orez-si-legume-uscate"},{"code":"80102","name":"Paste fără ou","slug":"80102-paste-fara-ou"},{"code":"100091953","name":"Paste făinoase, tăiței cuiburi 200g","slug":"100091953-baneasa-paste-fainoase-taitei-cuiburi-200g"}],"activePromotion":null,"saveMe":null,"labels":[],"geniusPrice":null,"geniusUnitPricePerLabel":null,"banner":null,"discountLabel":null,"geniusDiscountLabel":null,"badge":null},{"code":"100091938","variantCode":"100091938","name":"Paste Penne Rigate 400g","slug":"100091938-baneasa-paste-penne-rigate-400g","unitPriceLabel":"12,13 Lei/kg","brand":"Băneasa","brandCode":"1560","brandFilterCode":"baneasa-b1557","sku":"100091938","price":4.85,"originalPrice":null,"currencyCode":"RON","currency":"Lei","image":{"thumbnail":{"default":"https://cdn.freshful.ro/media/cache/sylius_shop_product_thumbnail/db/b0/69484cb49b78943962514e230fd9.jpg"},"large":{"default":"https://cdn.freshful.ro/media/cache/freshful_large/db/b0/69484cb49b78943962514e230fd9.jpg"},"extralarge":{"default":"https://cdn.freshful.ro/media/cache/sylius_shop_product_original/db/b0/69484cb49b78943962514e230fd9.jpg"}},"label":null,"tags":[],"isAvailable":true,"maxAvailableQuantity":79,"maxAllowedQuantity":100,"breadcrumbs":[{"code":"8","name":"Băcănie","slug":"8-ceva-sarat"},{"code":"801","name":"Paste, orez și legume uscate","slug":"801-paste-orez-si-legume-uscate"},{"code":"80102","name":"Paste fără ou","slug":"80102-paste-fara-ou"},{"code":"100091938","name":"Paste Penne Rigate 400g","slug":"100091938-baneasa-paste-penne-rigate-400g"}],"activePromotion":null,"saveMe":null,"labels":[],"geniusPrice":null,"geniusUnitPricePerLabel":null,"banner":null,"discountLabel":null,"geniusDiscountLabel":null,"badge":null},{"code":"100102866","variantCode":"100102866","name":"Paste alfabet 500g","slug":"100102866-panzani-paste-alfabet-500g","unitPriceLabel":"13,58 Lei/kg","brand":"Panzani","brandCode":"1684","brandFilterCode":"panzani-b1688","sku":"100102866","price":6.79,"originalPrice":null,"currencyCode":"RON","currency":"Lei","image":{"thumbnail":{"default":"https://cdn.freshful.ro/media/cache/sylius_shop_product_thumbnail/4f/58/c952824f3d5e6cbdd3f67e1ea2b8.jpg"},"large":{"default":"https://cdn.freshful.ro/media/cache/freshful_large/4f/58/c952824f3d5e6cbdd3f67e1ea2b8.jpg"},"extralarge":{"default":"https://cdn.freshful.ro/media/cache/sylius_shop_product_original/4f/58/c952824f3d5e6cbdd3f67e1ea2b8.jpg"}},"label":null,"tags":[],"isAvailable":true,"maxAvailableQuantity":63,"maxAllowedQuantity":100,"breadcrumbs":[{"code":"8","name":"Băcănie","slug":"8-ceva-sarat"},{"code":"801","name":"Paste, orez și legume uscate","slug":"801-paste-orez-si-legume-uscate"},{"code":"80102","name":"Paste fără ou","slug":"80102-paste-fara-ou"},{"code":"100102866","name":"Paste alfabet 500g","slug":"100102866-panzani-paste-alfabet-500g"}],"activePromotion":null,"saveMe":null,"labels":[],"geniusPrice":null,"geniusUnitPricePerLabel":null,"banner":null,"discountLabel":null,"geniusDiscountLabel":null,"badge":null},{"code":"100102861","variantCode":"100102861","name":"Paste mini Penne 500g","slug":"100102861-panzani-paste-mini-penne-500g","unitPriceLabel":"15,5 Lei/kg","brand":"Panzani","brandCode":"1684","brandFilterCode":"panzani-b1688","sku":"100102861","price":7.75,"originalPrice":null,"currencyCode":"RON","currency":"Lei","image":{"thumbnail":{"default":"https://cdn.freshful.ro/media/cache/sylius_shop_product_thumbnail/7b/ff/77d2f327e23eea518d36e40fb1a1.jpg"},"large":{"default":"https://cdn.freshful.ro/media/cache/freshful_large/7b/ff/77d2f327e23eea518d36e40fb1a1.jpg"},"extralarge":{"default":"https://cdn.freshful.ro/media/cache/sylius_shop_product_original/7b/ff/77d2f327e23eea518d36e40fb1a1.jpg"}},"label":null,"tags":[],"isAvailable":true,"maxAvailableQuantity":50,"maxAllowedQuantity":100,"breadcrumbs":[{"code":"8","name":"Băcănie","slug":"8-ceva-sarat"},{"code":"801","name":"Paste, orez și legume uscate","slug":"801-paste-orez-si-legume-uscate"},{"code":"80102","name":"Paste fără ou","slug":"80102-paste-fara-ou"},{"code":"100102861","name":"Paste mini Penne 500g","slug":"100102861-panzani-paste-mini-penne-500g"}],"activePromotion":null,"saveMe":null,"labels":[],"geniusPrice":null,"geniusUnitPricePerLabel":null,"banner":null,"discountLabel":null,"geniusDiscountLabel":null,"badge":null},{"code":"100091947","variantCode":"100091947","name":"Paste Spaghetti 500g","slug":"100091947-baneasa-paste-spaghetti-500g","unitPriceLabel":"10,98 Lei/kg","brand":"Băneasa","brandCode":"1560","brandFilterCode":"baneasa-b1557","sku":"100091947","price":5.49,"originalPrice":null,"currencyCode":"RON","currency":"Lei","image":{"thumbnail":{"default":"https://cdn.freshful.ro/media/cache/sylius_shop_product_thumbnail/19/19/36d1d025d14b0126df3a892c28e8.jpg"},"large":{"default":"https://cdn.freshful.ro/media/cache/freshful_large/19/19/36d1d025d14b0126df3a892c28e8.jpg"},"extralarge":{"default":"https://cdn.freshful.ro/media/cache/sylius_shop_product_original/19/19/36d1d025d14b0126df3a892c28e8.jpg"}},"label":null,"tags":[],"isAvailable":true,"maxAvailableQuantity":100,"maxAllowedQuantity":100,"breadcrumbs":[{"code":"8","name":"Băcănie","slug":"8-ceva-sarat"},{"code":"801","name":"Paste, orez și legume uscate","slug":"801-paste-orez-si-legume-uscate"},{"code":"80102","name":"Paste fără ou","slug":"80102-paste-fara-ou"},{"code":"100091947","name":"Paste Spaghetti 500g","slug":"100091947-baneasa-paste-spaghetti-500g"}],"activePromotion":null,"saveMe":null,"labels":[],"geniusPrice":null,"geniusUnitPricePerLabel":null,"banner":null,"discountLabel":null,"geniusDiscountLabel":null,"badge":null},{"code":"100091939","variantCode":"100091939","name":"Paste făinoase Serpentelli 400g","slug":"100091939-baneasa-paste-fainoase-serpentelli-400g","unitPriceLabel":"12,13 Lei/kg","brand":"Băneasa","brandCode":"1560","brandFilterCode":"baneasa-b1557","sku":"100091939","price":4.85,"originalPrice":null,"currencyCode":"RON","currency":"Lei","image":{"thumbnail":{"default":"https://cdn.freshful.ro/media/cache/sylius_shop_product_thumbnail/d8/d3/578e7de3b1211849826af551a6a6.jpg"},"large":{"default":"https://cdn.freshful.ro/media/cache/freshful_large/d8/d3/578e7de3b1211849826af551a6a6.jpg"},"extralarge":{"default":"https://cdn.freshful.ro/media/cache/sylius_shop_product_original/d8/d3/578e7de3b1211849826af551a6a6.jpg"}},"label":null,"tags":[],"isAvailable":true,"maxAvailableQuantity":34,"maxAllowedQuantity":100,"breadcrumbs":[{"code":"8","name":"Băcănie","slug":"8-ceva-sarat"},{"code":"801","name":"Paste, orez și legume uscate","slug":"801-paste-orez-si-legume-uscate"},{"code":"80102","name":"Paste fără ou","slug":"80102-paste-fara-ou"},{"code":"100091939","name":"Paste făinoase Serpentelli 400g","slug":"100091939-baneasa-paste-fainoase-serpentelli-400g"}],"activePromotion":null,"saveMe":null,"labels":[],"geniusPrice":null,"geniusUnitPricePerLabel":null,"banner":null,"discountLabel":null,"geniusDiscountLabel":null,"badge":null},{"code":"100091952","variantCode":"100091952","name":"Paste Tagliatele 200g","slug":"100091952-baneasa-paste-tagliatele-200g","unitPriceLabel":"19,45 Lei/kg","brand":"Băneasa","brandCode":"1560","brandFilterCode":"baneasa-b1557","sku":"100091952","price":3.89,"originalPrice":null,"currencyCode":"RON","currency":"Lei","image":{"thumbnail":{"default":"https://cdn.freshful.ro/media/cache/sylius_shop_product_thumbnail/29/50/afa2030a5f02c759b3d88591538c.jpg"},"large":{"default":"https://cdn.freshful.ro/media/cache/freshful_large/29/50/afa2030a5f02c759b3d88591538c.jpg"},"extralarge":{"default":"https://cdn.freshful.ro/media/cache/sylius_shop_product_original/29/50/afa2030a5f02c759b3d88591538c.jpg"}},"label":null,"tags":[],"isAvailable":true,"maxAvailableQuantity":49,"maxAllowedQuantity":100,"breadcrumbs":[{"code":"8","name":"Băcănie","slug":"8-ceva-sarat"},{"code":"801","name":"Paste, orez și legume uscate","slug":"801-paste-orez-si-legume-uscate"},{"code":"80102","name":"Paste fără ou","slug":"80102-paste-fara-ou"},{"code":"100091952","name":"Paste Tagliatele 200g","slug":"100091952-baneasa-paste-tagliatele-200g"}],"activePromotion":null,"saveMe":null,"labels":[],"geniusPrice":null,"geniusUnitPricePerLabel":null,"banner":null,"discountLabel":null,"geniusDiscountLabel":null,"badge":null}],"filters":{"countSelected":0,"items":[{"code":"brand","name":"Brand","countSelected":0,"values":[{"code":"baneasa-b1557","name":"Băneasa","isSelected":false,"count":13},{"code":"granoro-b2153","name":"Granoro","isSelected":false,"count":11},{"code":"monte-banato-b1495","name":"Monte Banato","isSelected":false,"count":5},{"code":"panzani-b1688","name":"Panzani","isSelected":false,"count":9}]},{"code":"diet_lifestyle","name":"Dietă și lifestyle","countSelected":0,"values":[{"code":"eco-a83","name":"Eco","isSelected":false,"count":2}]}]},"orderBy":[{"field":"price","direction":"asc","name":"Preț crescător","isSelected":false},{"field":"price","direction":"desc","name":"Preț descrescător","isSelected":false},{"field":"popularity","direction":"desc","name":"Cele mai populare","isSelected":true},{"field":"category","direction":"asc","name":"Categorie","isSelected":false}],"metaTitle":"Paste fără ou - Gamă variată","metaDescription":"Vrei Paste fără ou? Alege dintr-o gamă variată. Comanzi simplu și ai livrare rapidă, calitate și prospețime. Hai pe Freshful.ro","metaKeywords":null,"banners":[]}}