{"type":"subcategory","payload":{"analyticsListId":"category_80103-paste-integrale-si-din-grau-dur","analyticsListName":"Category - Paste integrale și din grâu dur","name":"Paste integrale și din grâu dur","slug":"80103-paste-integrale-si-din-grau-dur","image":null,"breadcrumbs":[{"code":"8","name":"Băcănie","slug":"8-ceva-sarat"},{"code":"801","name":"Paste, orez și legume uscate","slug":"801-paste-orez-si-legume-uscate"},{"code":"80103","name":"Paste integrale și din grâu dur","slug":"80103-paste-integrale-si-din-grau-dur"}],"slots":[],"page":1,"limit":10,"pages":2,"count":17,"siblings":[{"name":"Paste, orez și legume uscate","slug":"801-paste-orez-si-legume-uscate","selected":true},{"name":"Conserve","slug":"802-conserve","selected":false},{"name":"Condimente și sosuri","slug":"803-condimente-si-sosuri","selected":false},{"name":"Ulei și oțet","slug":"804-ulei-si-otet","selected":false},{"name":"De ronțăit","slug":"805-aperitive-sarate","selected":false},{"name":"Făină, zahăr și produse gourmet","slug":"faina-zahar-si-produse-gourmet","selected":false}],"children":[{"name":"Toate produsele","slug":"801-paste-orez-si-legume-uscate","selected":false},{"name":"Paste cu ou","slug":"80101-paste-cu-ou","selected":false},{"name":"Paste fără ou","slug":"80102-paste-fara-ou","selected":false},{"name":"Paste integrale și din grâu dur","slug":"80103-paste-integrale-si-din-grau-dur","selected":true},{"name":"Orez","slug":"80104-orez","selected":false},{"name":"Legume uscate","slug":"80105-legume-uscate","selected":false}],"products":[{"code":"100067367","variantCode":"100067367","name":"Paste cu roșii și spanac Love Pasta 250g","slug":"100067367-dalla-costa-paste-cu-rosii-si-spanac-love-pasta-250g","unitPriceLabel":"9,59 Lei/buc","brand":"Dalla Costa","brandCode":"1139","brandFilterCode":"dalla-costa-b1140","sku":"100067367","price":9.59,"originalPrice":null,"currencyCode":"RON","currency":"Lei","image":{"thumbnail":{"default":"https://cdn.freshful.ro/media/cache/sylius_shop_product_thumbnail/4f/6d/922db7348ba79e1be0642c7e3539.jpg"},"large":{"default":"https://cdn.freshful.ro/media/cache/freshful_large/4f/6d/922db7348ba79e1be0642c7e3539.jpg"},"extralarge":{"default":"https://cdn.freshful.ro/media/cache/sylius_shop_product_original/4f/6d/922db7348ba79e1be0642c7e3539.jpg"}},"label":{"text":"Profită acum","backgroundColor":"#FF9903","textColor":"#FFFFFF"},"tags":[],"isAvailable":true,"maxAvailableQuantity":27,"maxAllowedQuantity":100,"breadcrumbs":[{"code":"8","name":"Băcănie","slug":"8-ceva-sarat"},{"code":"801","name":"Paste, orez și legume uscate","slug":"801-paste-orez-si-legume-uscate"},{"code":"80103","name":"Paste integrale și din grâu dur","slug":"80103-paste-integrale-si-din-grau-dur"},{"code":"100067367","name":"Paste cu roșii și spanac Love Pasta 250g","slug":"100067367-dalla-costa-paste-cu-rosii-si-spanac-love-pasta-250g"}],"activePromotion":{"code":"oferte-bacanie-bauturi-21feb-8mar23","name":"Preț avantajos","targetQuantity":null},"saveMe":null,"labels":[{"type":"v1","items":[{"text":"Profită acum","backgroundColor":"#FF9903","textColor":"#FFFFFF"}]}],"geniusPrice":null,"geniusUnitPricePerLabel":null,"banner":{"text":"Preț avantajos","textColor":"#F95510","bgColor":"#FEF1CD","icon":null,"link":"https://www.freshful.ro/oferte/oferte-bacanie-bauturi-21feb-8mar23","type":"promo","analyticsEventType":"select_promotion","analyticsEventPayload":{"promotion_id":"oferte-bacanie-bauturi-21feb-8mar23","promotion_name":"Cămara cu băuturi și bunătăți"}},"discountLabel":null,"geniusDiscountLabel":null,"badge":null},{"code":"100093422","variantCode":"100093422","name":"Paste Fusilli integrale 500g","slug":"100093422-barilla-paste-fusilli-integrale-500g","unitPriceLabel":"15.000 Lei/kg","brand":"Barilla","brandCode":"267","brandFilterCode":"barilla-b268","sku":"100093422","price":7.5,"originalPrice":null,"currencyCode":"RON","currency":"Lei","image":{"thumbnail":{"default":"https://cdn.freshful.ro/media/cache/sylius_shop_product_thumbnail/e6/16/50ee581a9637ec62d02a0c89e218.jpg"},"large":{"default":"https://cdn.freshful.ro/media/cache/freshful_large/e6/16/50ee581a9637ec62d02a0c89e218.jpg"},"extralarge":{"default":"https://cdn.freshful.ro/media/cache/sylius_shop_product_original/e6/16/50ee581a9637ec62d02a0c89e218.jpg"}},"label":null,"tags":[],"isAvailable":true,"maxAvailableQuantity":100,"maxAllowedQuantity":100,"breadcrumbs":[{"code":"8","name":"Băcănie","slug":"8-ceva-sarat"},{"code":"801","name":"Paste, orez și legume uscate","slug":"801-paste-orez-si-legume-uscate"},{"code":"80103","name":"Paste integrale și din grâu dur","slug":"80103-paste-integrale-si-din-grau-dur"},{"code":"100093422","name":"Paste Fusilli integrale 500g","slug":"100093422-barilla-paste-fusilli-integrale-500g"}],"activePromotion":null,"saveMe":null,"labels":[],"geniusPrice":null,"geniusUnitPricePerLabel":null,"banner":null,"discountLabel":null,"geniusDiscountLabel":null,"badge":null},{"code":"100093420","variantCode":"100093420","name":"Paste Spaghetti integrale n.5, 500g","slug":"100093420-barilla-paste-spaghetti-integrale-n-5-500g","unitPriceLabel":"14,7 Lei/kg","brand":"Barilla","brandCode":"267","brandFilterCode":"barilla-b268","sku":"100093420","price":7.35,"originalPrice":null,"currencyCode":"RON","currency":"Lei","image":{"thumbnail":{"default":"https://cdn.freshful.ro/media/cache/sylius_shop_product_thumbnail/11/2b/2714960e5302f98499cca45bd676.jpg"},"large":{"default":"https://cdn.freshful.ro/media/cache/freshful_large/11/2b/2714960e5302f98499cca45bd676.jpg"},"extralarge":{"default":"https://cdn.freshful.ro/media/cache/sylius_shop_product_original/11/2b/2714960e5302f98499cca45bd676.jpg"}},"label":null,"tags":[],"isAvailable":true,"maxAvailableQuantity":100,"maxAllowedQuantity":100,"breadcrumbs":[{"code":"8","name":"Băcănie","slug":"8-ceva-sarat"},{"code":"801","name":"Paste, orez și legume uscate","slug":"801-paste-orez-si-legume-uscate"},{"code":"80103","name":"Paste integrale și din grâu dur","slug":"80103-paste-integrale-si-din-grau-dur"},{"code":"100093420","name":"Paste Spaghetti integrale n.5, 500g","slug":"100093420-barilla-paste-spaghetti-integrale-n-5-500g"}],"activePromotion":null,"saveMe":null,"labels":[],"geniusPrice":null,"geniusUnitPricePerLabel":null,"banner":null,"discountLabel":null,"geniusDiscountLabel":null,"badge":null},{"code":"100042192","variantCode":"100042192","name":"Paste Penne Rigate integrale n.20, 500g","slug":"100042192-la-molisana-paste-penne-rigate-integrale-n-20-500g","unitPriceLabel":"14,3 Lei/kg","brand":"La Molisana","brandCode":"653","brandFilterCode":"la-molisana-b654","sku":"100042192","price":7.15,"originalPrice":null,"currencyCode":"RON","currency":"Lei","image":{"thumbnail":{"default":"https://cdn.freshful.ro/media/cache/sylius_shop_product_thumbnail/83/0c/4dc5fdc37c1aa161648550d0ee55.jpg"},"large":{"default":"https://cdn.freshful.ro/media/cache/freshful_large/83/0c/4dc5fdc37c1aa161648550d0ee55.jpg"},"extralarge":{"default":"https://cdn.freshful.ro/media/cache/sylius_shop_product_original/83/0c/4dc5fdc37c1aa161648550d0ee55.jpg"}},"label":null,"tags":[],"isAvailable":true,"maxAvailableQuantity":100,"maxAllowedQuantity":100,"breadcrumbs":[{"code":"8","name":"Băcănie","slug":"8-ceva-sarat"},{"code":"801","name":"Paste, orez și legume uscate","slug":"801-paste-orez-si-legume-uscate"},{"code":"80103","name":"Paste integrale și din grâu dur","slug":"80103-paste-integrale-si-din-grau-dur"},{"code":"100042192","name":"Paste Penne Rigate integrale n.20, 500g","slug":"100042192-la-molisana-paste-penne-rigate-integrale-n-20-500g"}],"activePromotion":null,"saveMe":null,"labels":[],"geniusPrice":null,"geniusUnitPricePerLabel":null,"banner":null,"discountLabel":null,"geniusDiscountLabel":null,"badge":null},{"code":"100093421","variantCode":"100093421","name":"Paste Penne Rigate integrale 500g","slug":"100093421-barilla-paste-penne-rigate-integrale-500g","unitPriceLabel":"15,56 Lei/kg","brand":"Barilla","brandCode":"267","brandFilterCode":"barilla-b268","sku":"100093421","price":7.78,"originalPrice":null,"currencyCode":"RON","currency":"Lei","image":{"thumbnail":{"default":"https://cdn.freshful.ro/media/cache/sylius_shop_product_thumbnail/39/2a/accf62a0ebe3516ce8bf3e5e1110.jpg"},"large":{"default":"https://cdn.freshful.ro/media/cache/freshful_large/39/2a/accf62a0ebe3516ce8bf3e5e1110.jpg"},"extralarge":{"default":"https://cdn.freshful.ro/media/cache/sylius_shop_product_original/39/2a/accf62a0ebe3516ce8bf3e5e1110.jpg"}},"label":null,"tags":[],"isAvailable":true,"maxAvailableQuantity":97,"maxAllowedQuantity":100,"breadcrumbs":[{"code":"8","name":"Băcănie","slug":"8-ceva-sarat"},{"code":"801","name":"Paste, orez și legume uscate","slug":"801-paste-orez-si-legume-uscate"},{"code":"80103","name":"Paste integrale și din grâu dur","slug":"80103-paste-integrale-si-din-grau-dur"},{"code":"100093421","name":"Paste Penne Rigate integrale 500g","slug":"100093421-barilla-paste-penne-rigate-integrale-500g"}],"activePromotion":null,"saveMe":null,"labels":[],"geniusPrice":null,"geniusUnitPricePerLabel":null,"banner":null,"discountLabel":null,"geniusDiscountLabel":null,"badge":null},{"code":"100042191","variantCode":"100042191","name":"Paste Fusilli integrale n.28, 500g ","slug":"100042191-la-molisana-paste-fusilli-integrale-n-28-500g","unitPriceLabel":"14,3 Lei/kg","brand":"La Molisana","brandCode":"653","brandFilterCode":"la-molisana-b654","sku":"100042191","price":7.15,"originalPrice":null,"currencyCode":"RON","currency":"Lei","image":{"thumbnail":{"default":"https://cdn.freshful.ro/media/cache/sylius_shop_product_thumbnail/65/1e/c1268165ef6defb2ba2907713b0c.jpg"},"large":{"default":"https://cdn.freshful.ro/media/cache/freshful_large/65/1e/c1268165ef6defb2ba2907713b0c.jpg"},"extralarge":{"default":"https://cdn.freshful.ro/media/cache/sylius_shop_product_original/65/1e/c1268165ef6defb2ba2907713b0c.jpg"}},"label":null,"tags":[],"isAvailable":true,"maxAvailableQuantity":63,"maxAllowedQuantity":100,"breadcrumbs":[{"code":"8","name":"Băcănie","slug":"8-ceva-sarat"},{"code":"801","name":"Paste, orez și legume uscate","slug":"801-paste-orez-si-legume-uscate"},{"code":"80103","name":"Paste integrale și din grâu dur","slug":"80103-paste-integrale-si-din-grau-dur"},{"code":"100042191","name":"Paste Fusilli integrale n.28, 500g ","slug":"100042191-la-molisana-paste-fusilli-integrale-n-28-500g"}],"activePromotion":null,"saveMe":null,"labels":[],"geniusPrice":null,"geniusUnitPricePerLabel":null,"banner":null,"discountLabel":null,"geniusDiscountLabel":null,"badge":null},{"code":"100042190","variantCode":"100042190","name":"Paste integrale Farfalle Rigate n.66, 500g","slug":"100042190-la-molisana-paste-integrale-farfalle-rigate-n-66-500g","unitPriceLabel":"13,98 Lei/kg","brand":"La Molisana","brandCode":"653","brandFilterCode":"la-molisana-b654","sku":"100042190","price":6.99,"originalPrice":null,"currencyCode":"RON","currency":"Lei","image":{"thumbnail":{"default":"https://cdn.freshful.ro/media/cache/sylius_shop_product_thumbnail/b3/e7/4462b85c21c1c15760f31bdedc79.jpg"},"large":{"default":"https://cdn.freshful.ro/media/cache/freshful_large/b3/e7/4462b85c21c1c15760f31bdedc79.jpg"},"extralarge":{"default":"https://cdn.freshful.ro/media/cache/sylius_shop_product_original/b3/e7/4462b85c21c1c15760f31bdedc79.jpg"}},"label":null,"tags":[],"isAvailable":true,"maxAvailableQuantity":100,"maxAllowedQuantity":100,"breadcrumbs":[{"code":"8","name":"Băcănie","slug":"8-ceva-sarat"},{"code":"801","name":"Paste, orez și legume uscate","slug":"801-paste-orez-si-legume-uscate"},{"code":"80103","name":"Paste integrale și din grâu dur","slug":"80103-paste-integrale-si-din-grau-dur"},{"code":"100042190","name":"Paste integrale Farfalle Rigate n.66, 500g","slug":"100042190-la-molisana-paste-integrale-farfalle-rigate-n-66-500g"}],"activePromotion":null,"saveMe":null,"labels":[],"geniusPrice":null,"geniusUnitPricePerLabel":null,"banner":null,"discountLabel":null,"geniusDiscountLabel":null,"badge":null},{"code":"100091955","variantCode":"100091955","name":"Paste Penne Rigate din grâu dur 500g","slug":"100091955-antonio-di-vaio-paste-penne-rigate-din-grau-dur-500g","unitPriceLabel":"11,5 Lei/kg","brand":"Antonio Di Vaio","brandCode":"1561","brandFilterCode":"antonio-di-vaio-b1558","sku":"100091955","price":5.75,"originalPrice":null,"currencyCode":"RON","currency":"Lei","image":{"thumbnail":{"default":"https://cdn.freshful.ro/media/cache/sylius_shop_product_thumbnail/a2/13/a114460e820bf19d93c4c83d5cbd.jpg"},"large":{"default":"https://cdn.freshful.ro/media/cache/freshful_large/a2/13/a114460e820bf19d93c4c83d5cbd.jpg"},"extralarge":{"default":"https://cdn.freshful.ro/media/cache/sylius_shop_product_original/a2/13/a114460e820bf19d93c4c83d5cbd.jpg"}},"label":null,"tags":[],"isAvailable":true,"maxAvailableQuantity":24,"maxAllowedQuantity":100,"breadcrumbs":[{"code":"8","name":"Băcănie","slug":"8-ceva-sarat"},{"code":"801","name":"Paste, orez și legume uscate","slug":"801-paste-orez-si-legume-uscate"},{"code":"80103","name":"Paste integrale și din grâu dur","slug":"80103-paste-integrale-si-din-grau-dur"},{"code":"100091955","name":"Paste Penne Rigate din grâu dur 500g","slug":"100091955-antonio-di-vaio-paste-penne-rigate-din-grau-dur-500g"}],"activePromotion":null,"saveMe":null,"labels":[],"geniusPrice":null,"geniusUnitPricePerLabel":null,"banner":null,"discountLabel":null,"geniusDiscountLabel":null,"badge":null},{"code":"100091957","variantCode":"100091957","name":"Paste Tagliatelle din grâu dur 400g","slug":"100091957-antonio-di-vaio-paste-tagliatelle-din-grau-dur-400g","unitPriceLabel":"13,73 Lei/kg","brand":"Antonio Di Vaio","brandCode":"1561","brandFilterCode":"antonio-di-vaio-b1558","sku":"100091957","price":5.49,"originalPrice":null,"currencyCode":"RON","currency":"Lei","image":{"thumbnail":{"default":"https://cdn.freshful.ro/media/cache/sylius_shop_product_thumbnail/f1/b1/3ed57aa917754f243ccf760dd25b.jpg"},"large":{"default":"https://cdn.freshful.ro/media/cache/freshful_large/f1/b1/3ed57aa917754f243ccf760dd25b.jpg"},"extralarge":{"default":"https://cdn.freshful.ro/media/cache/sylius_shop_product_original/f1/b1/3ed57aa917754f243ccf760dd25b.jpg"}},"label":null,"tags":[],"isAvailable":true,"maxAvailableQuantity":16,"maxAllowedQuantity":100,"breadcrumbs":[{"code":"8","name":"Băcănie","slug":"8-ceva-sarat"},{"code":"801","name":"Paste, orez și legume uscate","slug":"801-paste-orez-si-legume-uscate"},{"code":"80103","name":"Paste integrale și din grâu dur","slug":"80103-paste-integrale-si-din-grau-dur"},{"code":"100091957","name":"Paste Tagliatelle din grâu dur 400g","slug":"100091957-antonio-di-vaio-paste-tagliatelle-din-grau-dur-400g"}],"activePromotion":null,"saveMe":null,"labels":[],"geniusPrice":null,"geniusUnitPricePerLabel":null,"banner":null,"discountLabel":null,"geniusDiscountLabel":null,"badge":null},{"code":"100141452","variantCode":"100141452","name":"Paste Penne integrale 500g","slug":"100141452-panzani-paste-penne-integrale-500g","unitPriceLabel":"16,46 Lei/kg","brand":"Panzani","brandCode":"1684","brandFilterCode":"panzani-b1688","sku":"100141452","price":8.23,"originalPrice":null,"currencyCode":"RON","currency":"Lei","image":{"thumbnail":{"default":"https://cdn.freshful.ro/media/cache/sylius_shop_product_thumbnail/99/26/1a7b6d3606d749cd079850436f58.jpg"},"large":{"default":"https://cdn.freshful.ro/media/cache/freshful_large/99/26/1a7b6d3606d749cd079850436f58.jpg"},"extralarge":{"default":"https://cdn.freshful.ro/media/cache/sylius_shop_product_original/99/26/1a7b6d3606d749cd079850436f58.jpg"}},"label":null,"tags":[],"isAvailable":true,"maxAvailableQuantity":100,"maxAllowedQuantity":100,"breadcrumbs":[{"code":"8","name":"Băcănie","slug":"8-ceva-sarat"},{"code":"801","name":"Paste, orez și legume uscate","slug":"801-paste-orez-si-legume-uscate"},{"code":"80103","name":"Paste integrale și din grâu dur","slug":"80103-paste-integrale-si-din-grau-dur"},{"code":"100141452","name":"Paste Penne integrale 500g","slug":"100141452-panzani-paste-penne-integrale-500g"}],"activePromotion":null,"saveMe":null,"labels":[],"geniusPrice":null,"geniusUnitPricePerLabel":null,"banner":null,"discountLabel":null,"geniusDiscountLabel":null,"badge":null}],"filters":{"countSelected":0,"items":[{"code":"promotion","name":"Promoții","countSelected":0,"values":[{"code":"oferte-bacanie-bauturi-21feb-8mar23","name":"Cămara cu băuturi și bunătăți","isSelected":false,"count":1}]},{"code":"brand","name":"Brand","countSelected":0,"values":[{"code":"antonio-di-vaio-b1558","name":"Antonio Di Vaio","isSelected":false,"count":3},{"code":"barilla-b268","name":"Barilla","isSelected":false,"count":3},{"code":"dalla-costa-b1140","name":"Dalla Costa","isSelected":false,"count":2},{"code":"la-molisana-b654","name":"La Molisana","isSelected":false,"count":5},{"code":"monte-banato-b1495","name":"Monte Banato","isSelected":false,"count":2},{"code":"panzani-b1688","name":"Panzani","isSelected":false,"count":2}]}]},"orderBy":[{"field":"price","direction":"asc","name":"Preț crescător","isSelected":false},{"field":"price","direction":"desc","name":"Preț descrescător","isSelected":false},{"field":"popularity","direction":"desc","name":"Cele mai populare","isSelected":true},{"field":"category","direction":"asc","name":"Categorie","isSelected":false}],"metaTitle":"Paste integrale și din grâu dur - Gamă variată","metaDescription":"Vrei Paste integrale și din grâu dur? Alege dintr-o gamă variată. Comanzi simplu și ai livrare rapidă, calitate și prospețime. Hai pe Freshful.ro","metaKeywords":null,"banners":[]}}