{"type":"subcategory","payload":{"analyticsListId":"category_80203-conserve-de-muraturi","analyticsListName":"Category - Conserve de murături","name":"Conserve de murături","slug":"80203-conserve-de-muraturi","image":null,"breadcrumbs":[{"code":"8","name":"Băcănie","slug":"8-ceva-sarat"},{"code":"802","name":"Conserve","slug":"802-conserve"},{"code":"80203","name":"Conserve de murături","slug":"80203-conserve-de-muraturi"}],"slots":[],"page":1,"limit":10,"pages":9,"count":83,"siblings":[{"name":"Paste, orez și legume uscate","slug":"801-paste-orez-si-legume-uscate","selected":false},{"name":"Conserve","slug":"802-conserve","selected":true},{"name":"Condimente și sosuri","slug":"803-condimente-si-sosuri","selected":false},{"name":"Ulei și oțet","slug":"804-ulei-si-otet","selected":false},{"name":"De ronțăit","slug":"805-aperitive-sarate","selected":false},{"name":"Făină, zahăr și produse gourmet","slug":"faina-zahar-si-produse-gourmet","selected":false}],"children":[{"name":"Toate produsele","slug":"802-conserve","selected":false},{"name":"Conserve de legume","slug":"80201-conserve-de-legume","selected":false},{"name":"Conserve de măsline","slug":"80202-conserve-de-masline","selected":false},{"name":"Conserve de murături","slug":"80203-conserve-de-muraturi","selected":true},{"name":"Conserve de pește","slug":"80204-conserve-de-peste","selected":false},{"name":"Conserve de carne","slug":"80205-conserve-de-carne","selected":false},{"name":"Conserve cu mâncare gătită","slug":"80206-conserve-cu-mancare-gatita","selected":false}],"products":[{"code":"100065340","variantCode":"5941028000625","name":"Castraveți în oțet 680g","slug":"100065340-raureni-castraveti-in-otet-680g","unitPriceLabel":"11,75 Lei/kg","brand":"Râureni","brandCode":"772","brandFilterCode":"raureni-b773","sku":"100065340","price":7.99,"originalPrice":10.99,"currencyCode":"RON","currency":"Lei","image":{"thumbnail":{"default":"https://cdn.freshful.ro/media/cache/sylius_shop_product_thumbnail/ca/27/850878af34568a08f1505864a57e.jpg"},"large":{"default":"https://cdn.freshful.ro/media/cache/freshful_large/ca/27/850878af34568a08f1505864a57e.jpg"},"extralarge":{"default":"https://cdn.freshful.ro/media/cache/sylius_shop_product_original/ca/27/850878af34568a08f1505864a57e.jpg"}},"label":{"text":"-27%","backgroundColor":"#FF9903","textColor":"#FFFFFF"},"tags":[{"type":"NoPreservatives","text":"Fara conservanti","icon":"https://cdn.freshful.ro/assets/product_tags/fara_conservanti.svg","iconPng":"https://cdn.freshful.ro/assets/product_tags/fara_conservanti.png","backgroundColor":"#F0F2FF","textColor":"#7889DD"},{"type":"MadeInRomania","text":"Made In Romania","icon":"https://cdn.freshful.ro/assets/product_tags/made_in_romania.svg","iconPng":"https://cdn.freshful.ro/assets/product_tags/made_in_romania.png","backgroundColor":"#EDF2FD","textColor":"#1653CA"}],"isAvailable":true,"maxAvailableQuantity":100,"maxAllowedQuantity":100,"breadcrumbs":[{"code":"8","name":"Băcănie","slug":"8-ceva-sarat"},{"code":"802","name":"Conserve","slug":"802-conserve"},{"code":"80203","name":"Conserve de murături","slug":"80203-conserve-de-muraturi"},{"code":"100065340","name":"Castraveți în oțet 680g","slug":"100065340-raureni-castraveti-in-otet-680g"}],"activePromotion":{"code":"oferte-bacanie-bauturi-21feb-8mar23","name":"Preț redus","targetQuantity":null},"saveMe":null,"labels":[{"type":"v1","items":[{"text":"-27%","backgroundColor":"#FF9903","textColor":"#FFFFFF"}]}],"geniusPrice":null,"geniusUnitPricePerLabel":null,"banner":{"text":"Super preț","textColor":"#FF0000","bgColor":"#FFF2EC","icon":null,"link":"https://www.freshful.ro/oferte/oferte-bacanie-bauturi-21feb-8mar23","type":"promo","analyticsEventType":"select_promotion","analyticsEventPayload":{"promotion_id":"oferte-bacanie-bauturi-21feb-8mar23","promotion_name":"Cămara cu băuturi și bunătăți"}},"discountLabel":"Economisești 27%","geniusDiscountLabel":null,"badge":null},{"code":"100065335","variantCode":"5941028013236","name":"Ardei capia copt decojit în oțet 680g","slug":"100065335-raureni-ardei-capia-copt-decojit-in-otet-680g","unitPriceLabel":"16,16 Lei/kg","brand":"Râureni","brandCode":"772","brandFilterCode":"raureni-b773","sku":"100065335","price":10.99,"originalPrice":null,"currencyCode":"RON","currency":"Lei","image":{"thumbnail":{"default":"https://cdn.freshful.ro/media/cache/sylius_shop_product_thumbnail/9b/b2/d0f27bfccc9b88646bc4bb1392ec.jpg"},"large":{"default":"https://cdn.freshful.ro/media/cache/freshful_large/9b/b2/d0f27bfccc9b88646bc4bb1392ec.jpg"},"extralarge":{"default":"https://cdn.freshful.ro/media/cache/sylius_shop_product_original/9b/b2/d0f27bfccc9b88646bc4bb1392ec.jpg"}},"label":{"text":"Profită acum","backgroundColor":"#FF9903","textColor":"#FFFFFF"},"tags":[],"isAvailable":true,"maxAvailableQuantity":100,"maxAllowedQuantity":100,"breadcrumbs":[{"code":"8","name":"Băcănie","slug":"8-ceva-sarat"},{"code":"802","name":"Conserve","slug":"802-conserve"},{"code":"80203","name":"Conserve de murături","slug":"80203-conserve-de-muraturi"},{"code":"100065335","name":"Ardei capia copt decojit în oțet 680g","slug":"100065335-raureni-ardei-capia-copt-decojit-in-otet-680g"}],"activePromotion":{"code":"oferte-bacanie-bauturi-21feb-8mar23","name":"Preț avantajos","targetQuantity":null},"saveMe":null,"labels":[{"type":"v1","items":[{"text":"Profită acum","backgroundColor":"#FF9903","textColor":"#FFFFFF"}]}],"geniusPrice":null,"geniusUnitPricePerLabel":null,"banner":{"text":"Preț avantajos","textColor":"#F95510","bgColor":"#FEF1CD","icon":null,"link":"https://www.freshful.ro/oferte/oferte-bacanie-bauturi-21feb-8mar23","type":"promo","analyticsEventType":"select_promotion","analyticsEventPayload":{"promotion_id":"oferte-bacanie-bauturi-21feb-8mar23","promotion_name":"Cămara cu băuturi și bunătăți"}},"discountLabel":null,"geniusDiscountLabel":null,"badge":null},{"code":"100132788","variantCode":"100132788","name":"Ardei capia copți și decojiți în oțet 680g","slug":"100132788-hada-ardei-capia-copti-si-decojiti-in-otet-680g","unitPriceLabel":"22,04 Lei/kg","brand":"Hada","brandCode":"2495","brandFilterCode":"hada-b2499","sku":"100132788","price":14.99,"originalPrice":null,"currencyCode":"RON","currency":"Lei","image":{"thumbnail":{"default":"https://cdn.freshful.ro/media/cache/sylius_shop_product_thumbnail/62/f4/433a1e789fa1dfbf318f71787bb1.jpg"},"large":{"default":"https://cdn.freshful.ro/media/cache/freshful_large/62/f4/433a1e789fa1dfbf318f71787bb1.jpg"},"extralarge":{"default":"https://cdn.freshful.ro/media/cache/sylius_shop_product_original/62/f4/433a1e789fa1dfbf318f71787bb1.jpg"}},"label":null,"tags":[],"isAvailable":true,"maxAvailableQuantity":100,"maxAllowedQuantity":100,"breadcrumbs":[{"code":"8","name":"Băcănie","slug":"8-ceva-sarat"},{"code":"802","name":"Conserve","slug":"802-conserve"},{"code":"80203","name":"Conserve de murături","slug":"80203-conserve-de-muraturi"},{"code":"100132788","name":"Ardei capia copți și decojiți în oțet 680g","slug":"100132788-hada-ardei-capia-copti-si-decojiti-in-otet-680g"}],"activePromotion":null,"saveMe":null,"labels":[],"geniusPrice":null,"geniusUnitPricePerLabel":null,"banner":null,"discountLabel":null,"geniusDiscountLabel":null,"badge":null},{"code":"100094942","variantCode":"100094942","name":"Salată de sfeclă cu hrean 300g","slug":"100094942-pofta-focului-salata-de-sfecla-cu-hrean-300g","unitPriceLabel":"39,7 Lei/kg","brand":"Pofta Focului","brandCode":"1562","brandFilterCode":"pofta-focului-b1566","sku":"100094942","price":11.91,"originalPrice":null,"currencyCode":"RON","currency":"Lei","image":{"thumbnail":{"default":"https://cdn.freshful.ro/media/cache/sylius_shop_product_thumbnail/7c/74/13c773b2505538614363fe9344df.jpg"},"large":{"default":"https://cdn.freshful.ro/media/cache/freshful_large/7c/74/13c773b2505538614363fe9344df.jpg"},"extralarge":{"default":"https://cdn.freshful.ro/media/cache/sylius_shop_product_original/7c/74/13c773b2505538614363fe9344df.jpg"}},"label":{"text":"Mici producători","backgroundColor":"#7B61FF","textColor":"#FFFFFF"},"tags":[{"type":"NoPreservatives","text":"Fara conservanti","icon":"https://cdn.freshful.ro/assets/product_tags/fara_conservanti.svg","iconPng":"https://cdn.freshful.ro/assets/product_tags/fara_conservanti.png","backgroundColor":"#F0F2FF","textColor":"#7889DD"}],"isAvailable":true,"maxAvailableQuantity":100,"maxAllowedQuantity":100,"breadcrumbs":[{"code":"8","name":"Băcănie","slug":"8-ceva-sarat"},{"code":"802","name":"Conserve","slug":"802-conserve"},{"code":"80203","name":"Conserve de murături","slug":"80203-conserve-de-muraturi"},{"code":"100094942","name":"Salată de sfeclă cu hrean 300g","slug":"100094942-pofta-focului-salata-de-sfecla-cu-hrean-300g"}],"activePromotion":null,"saveMe":null,"labels":[{"type":"v1","items":[{"text":"Mici producători","backgroundColor":"#7B61FF","textColor":"#FFFFFF"}]}],"geniusPrice":null,"geniusUnitPricePerLabel":null,"banner":null,"discountLabel":null,"geniusDiscountLabel":null,"badge":null},{"code":"100060922","variantCode":"100060922","name":"Castraveți cornichon 3-6cm în oțet 580ml","slug":"100060922-bonduelle-castraveti-cornichon-3-6cm-in-otet-580ml","unitPriceLabel":"32,59 Lei/kg","brand":"Bonduelle","brandCode":"201","brandFilterCode":"bonduelle-b202","sku":"100060922","price":18.9,"originalPrice":null,"currencyCode":"RON","currency":"Lei","image":{"thumbnail":{"default":"https://cdn.freshful.ro/media/cache/sylius_shop_product_thumbnail/65/46/507a311275518a195d5ab004d6fd.jpg"},"large":{"default":"https://cdn.freshful.ro/media/cache/freshful_large/65/46/507a311275518a195d5ab004d6fd.jpg"},"extralarge":{"default":"https://cdn.freshful.ro/media/cache/sylius_shop_product_original/65/46/507a311275518a195d5ab004d6fd.jpg"}},"label":null,"tags":[],"isAvailable":true,"maxAvailableQuantity":38,"maxAllowedQuantity":100,"breadcrumbs":[{"code":"8","name":"Băcănie","slug":"8-ceva-sarat"},{"code":"802","name":"Conserve","slug":"802-conserve"},{"code":"80203","name":"Conserve de murături","slug":"80203-conserve-de-muraturi"},{"code":"100060922","name":"Castraveți cornichon 3-6cm în oțet 580ml","slug":"100060922-bonduelle-castraveti-cornichon-3-6cm-in-otet-580ml"}],"activePromotion":null,"saveMe":null,"labels":[],"geniusPrice":null,"geniusUnitPricePerLabel":null,"banner":null,"discountLabel":null,"geniusDiscountLabel":null,"badge":null},{"code":"100080942","variantCode":"100080942","name":"Gogoșari tăiați în oțet 520g","slug":"100080942-maxim-s-gogosari-taiati-in-otet-520g","unitPriceLabel":"7,85 Lei/kg","brand":"Maxim's","brandCode":"270","brandFilterCode":"maxim-s-b271","sku":"100080942","price":5.65,"originalPrice":null,"currencyCode":"RON","currency":"Lei","image":{"thumbnail":{"default":"https://cdn.freshful.ro/media/cache/sylius_shop_product_thumbnail/f4/24/8ea1194fb51cd0b6ed9224484c6b.jpg"},"large":{"default":"https://cdn.freshful.ro/media/cache/freshful_large/f4/24/8ea1194fb51cd0b6ed9224484c6b.jpg"},"extralarge":{"default":"https://cdn.freshful.ro/media/cache/sylius_shop_product_original/f4/24/8ea1194fb51cd0b6ed9224484c6b.jpg"}},"label":null,"tags":[],"isAvailable":true,"maxAvailableQuantity":64,"maxAllowedQuantity":100,"breadcrumbs":[{"code":"8","name":"Băcănie","slug":"8-ceva-sarat"},{"code":"802","name":"Conserve","slug":"802-conserve"},{"code":"80203","name":"Conserve de murături","slug":"80203-conserve-de-muraturi"},{"code":"100080942","name":"Gogoșari tăiați în oțet 520g","slug":"100080942-maxim-s-gogosari-taiati-in-otet-520g"}],"activePromotion":null,"saveMe":null,"labels":[],"geniusPrice":null,"geniusUnitPricePerLabel":null,"banner":null,"discountLabel":null,"geniusDiscountLabel":null,"badge":null},{"code":"100132800","variantCode":"100132800","name":"Castraveți în oțet 680g","slug":"100132800-hada-castraveti-in-otet-680g","unitPriceLabel":"12,49 Lei/kg","brand":"Hada","brandCode":"2495","brandFilterCode":"hada-b2499","sku":"100132800","price":8.49,"originalPrice":null,"currencyCode":"RON","currency":"Lei","image":{"thumbnail":{"default":"https://cdn.freshful.ro/media/cache/sylius_shop_product_thumbnail/35/f4/208df3ea21d628739aab61e9414d.jpg"},"large":{"default":"https://cdn.freshful.ro/media/cache/freshful_large/35/f4/208df3ea21d628739aab61e9414d.jpg"},"extralarge":{"default":"https://cdn.freshful.ro/media/cache/sylius_shop_product_original/35/f4/208df3ea21d628739aab61e9414d.jpg"}},"label":null,"tags":[],"isAvailable":true,"maxAvailableQuantity":100,"maxAllowedQuantity":100,"breadcrumbs":[{"code":"8","name":"Băcănie","slug":"8-ceva-sarat"},{"code":"802","name":"Conserve","slug":"802-conserve"},{"code":"80203","name":"Conserve de murături","slug":"80203-conserve-de-muraturi"},{"code":"100132800","name":"Castraveți în oțet 680g","slug":"100132800-hada-castraveti-in-otet-680g"}],"activePromotion":null,"saveMe":null,"labels":[],"geniusPrice":null,"geniusUnitPricePerLabel":null,"banner":null,"discountLabel":null,"geniusDiscountLabel":null,"badge":null},{"code":"100132786","variantCode":"100132786","name":"Gogoșari tăiați în oțet 680g","slug":"100132786-hada-gogosari-taiati-in-otet-680g","unitPriceLabel":"14,69 Lei/kg","brand":"Hada","brandCode":"2495","brandFilterCode":"hada-b2499","sku":"100132786","price":9.99,"originalPrice":null,"currencyCode":"RON","currency":"Lei","image":{"thumbnail":{"default":"https://cdn.freshful.ro/media/cache/sylius_shop_product_thumbnail/9d/9a/22f292882f47f867d3274ce12d02.jpg"},"large":{"default":"https://cdn.freshful.ro/media/cache/freshful_large/9d/9a/22f292882f47f867d3274ce12d02.jpg"},"extralarge":{"default":"https://cdn.freshful.ro/media/cache/sylius_shop_product_original/9d/9a/22f292882f47f867d3274ce12d02.jpg"}},"label":null,"tags":[{"type":"NoPreservatives","text":"Fara conservanti","icon":"https://cdn.freshful.ro/assets/product_tags/fara_conservanti.svg","iconPng":"https://cdn.freshful.ro/assets/product_tags/fara_conservanti.png","backgroundColor":"#F0F2FF","textColor":"#7889DD"}],"isAvailable":true,"maxAvailableQuantity":75,"maxAllowedQuantity":100,"breadcrumbs":[{"code":"8","name":"Băcănie","slug":"8-ceva-sarat"},{"code":"802","name":"Conserve","slug":"802-conserve"},{"code":"80203","name":"Conserve de murături","slug":"80203-conserve-de-muraturi"},{"code":"100132786","name":"Gogoșari tăiați în oțet 680g","slug":"100132786-hada-gogosari-taiati-in-otet-680g"}],"activePromotion":null,"saveMe":null,"labels":[],"geniusPrice":null,"geniusUnitPricePerLabel":null,"banner":null,"discountLabel":null,"geniusDiscountLabel":null,"badge":null},{"code":"100133152","variantCode":"100133152","name":"Castraveți în saramură covăsiți 680g","slug":"100133152-hada-castraveti-in-saramura-covasiti-680g","unitPriceLabel":"16,65 Lei/kg","brand":"Hada","brandCode":"2495","brandFilterCode":"hada-b2499","sku":"100133152","price":10.99,"originalPrice":null,"currencyCode":"RON","currency":"Lei","image":{"thumbnail":{"default":"https://cdn.freshful.ro/media/cache/sylius_shop_product_thumbnail/8d/8f/56220fdc8fe4f18c5f00ac2383d0.jpg"},"large":{"default":"https://cdn.freshful.ro/media/cache/freshful_large/8d/8f/56220fdc8fe4f18c5f00ac2383d0.jpg"},"extralarge":{"default":"https://cdn.freshful.ro/media/cache/sylius_shop_product_original/8d/8f/56220fdc8fe4f18c5f00ac2383d0.jpg"}},"label":null,"tags":[],"isAvailable":true,"maxAvailableQuantity":6,"maxAllowedQuantity":100,"breadcrumbs":[{"code":"8","name":"Băcănie","slug":"8-ceva-sarat"},{"code":"802","name":"Conserve","slug":"802-conserve"},{"code":"80203","name":"Conserve de murături","slug":"80203-conserve-de-muraturi"},{"code":"100133152","name":"Castraveți în saramură covăsiți 680g","slug":"100133152-hada-castraveti-in-saramura-covasiti-680g"}],"activePromotion":null,"saveMe":null,"labels":[],"geniusPrice":null,"geniusUnitPricePerLabel":null,"banner":null,"discountLabel":null,"geniusDiscountLabel":null,"badge":null},{"code":"100109382","variantCode":"100109382","name":"Castraveți în oțet 6-9 cm 700g","slug":"100109382-vasluianca-castraveti-in-otet-6-9-cm-700g","unitPriceLabel":"9,71 Lei/kg","brand":"Vasluianca","brandCode":"1829","brandFilterCode":"vasluianca-b1833","sku":"100109382","price":6.99,"originalPrice":null,"currencyCode":"RON","currency":"Lei","image":{"thumbnail":{"default":"https://cdn.freshful.ro/media/cache/sylius_shop_product_thumbnail/15/21/313231f59b8b1ab7582132bca4b6.jpg"},"large":{"default":"https://cdn.freshful.ro/media/cache/freshful_large/15/21/313231f59b8b1ab7582132bca4b6.jpg"},"extralarge":{"default":"https://cdn.freshful.ro/media/cache/sylius_shop_product_original/15/21/313231f59b8b1ab7582132bca4b6.jpg"}},"label":{"text":"Mici producători","backgroundColor":"#7B61FF","textColor":"#FFFFFF"},"tags":[{"type":"MadeInRomania","text":"Made In Romania","icon":"https://cdn.freshful.ro/assets/product_tags/made_in_romania.svg","iconPng":"https://cdn.freshful.ro/assets/product_tags/made_in_romania.png","backgroundColor":"#EDF2FD","textColor":"#1653CA"}],"isAvailable":true,"maxAvailableQuantity":48,"maxAllowedQuantity":100,"breadcrumbs":[{"code":"8","name":"Băcănie","slug":"8-ceva-sarat"},{"code":"802","name":"Conserve","slug":"802-conserve"},{"code":"80203","name":"Conserve de murături","slug":"80203-conserve-de-muraturi"},{"code":"100109382","name":"Castraveți în oțet 6-9 cm 700g","slug":"100109382-vasluianca-castraveti-in-otet-6-9-cm-700g"}],"activePromotion":null,"saveMe":null,"labels":[{"type":"v1","items":[{"text":"Mici producători","backgroundColor":"#7B61FF","textColor":"#FFFFFF"}]}],"geniusPrice":null,"geniusUnitPricePerLabel":null,"banner":null,"discountLabel":null,"geniusDiscountLabel":null,"badge":null}],"filters":{"countSelected":0,"items":[{"code":"promotion","name":"Promoții","countSelected":0,"values":[{"code":"oferte-bacanie-bauturi-21feb-8mar23","name":"Cămara cu băuturi și bunătăți","isSelected":false,"count":2}]},{"code":"brand","name":"Brand","countSelected":0,"values":[{"code":"bonduelle-b202","name":"Bonduelle","isSelected":false,"count":1},{"code":"citres-b2521","name":"Citres","isSelected":false,"count":1},{"code":"darinne-b2922","name":"Darinne","isSelected":false,"count":6},{"code":"delirs-b965","name":"Delirs","isSelected":false,"count":1},{"code":"hada-b2499","name":"Hada","isSelected":false,"count":25},{"code":"home-garden-b782","name":"Home Garden","isSelected":false,"count":4},{"code":"maxim-s-b271","name":"Maxim's","isSelected":false,"count":1},{"code":"melis-b137","name":"Melis","isSelected":false,"count":3},{"code":"o-green-b200","name":"O'Green","isSelected":false,"count":2},{"code":"olympia-b244","name":"Olympia","isSelected":false,"count":4},{"code":"orzech-b1005","name":"Orzech","isSelected":false,"count":7},{"code":"pofta-focului-b1566","name":"Pofta Focului","isSelected":false,"count":2},{"code":"raureni-b773","name":"Râureni","isSelected":false,"count":9},{"code":"razvan-b1127","name":"Răzvan","isSelected":false,"count":1},{"code":"sera-b201","name":"Sera","isSelected":false,"count":2},{"code":"szatmar-gold-b1004","name":"Szatmar Gold","isSelected":false,"count":6},{"code":"topoloveni-b1192","name":"Topoloveni","isSelected":false,"count":2},{"code":"vasluianca-b1833","name":"Vasluianca","isSelected":false,"count":5},{"code":"zanae-b504","name":"Zanae","isSelected":false,"count":1}]},{"code":"diet_lifestyle","name":"Dietă și lifestyle","countSelected":0,"values":[{"code":"fara-conservanti-a37","name":"Fara conservanti","isSelected":false,"count":14},{"code":"fara-gluten-a16","name":"Fara gluten","isSelected":false,"count":5},{"code":"fara-zahar-adaugat-a29","name":"Fara zahar adaugat","isSelected":false,"count":2},{"code":"made-in-romania-a85","name":"Made In Romania","isSelected":false,"count":7},{"code":"natural-a27","name":"Natural","isSelected":false,"count":1}]}]},"orderBy":[{"field":"price","direction":"asc","name":"Preț crescător","isSelected":false},{"field":"price","direction":"desc","name":"Preț descrescător","isSelected":false},{"field":"popularity","direction":"desc","name":"Cele mai populare","isSelected":true},{"field":"category","direction":"asc","name":"Categorie","isSelected":false}],"metaTitle":"Conserve de murături - Gamă variată","metaDescription":"Vrei Conserve de murături? Alege dintr-o gamă variată. Comanzi simplu și ai livrare rapidă, calitate și prospețime. Hai pe Freshful.ro","metaKeywords":null,"banners":[]}}