{"type":"subcategory","payload":{"analyticsListId":"category_80205-conserve-de-carne","analyticsListName":"Category - Conserve de carne","name":"Conserve de carne","slug":"80205-conserve-de-carne","image":null,"breadcrumbs":[{"code":"8","name":"Băcănie","slug":"8-ceva-sarat"},{"code":"802","name":"Conserve","slug":"802-conserve"},{"code":"80205","name":"Conserve de carne","slug":"80205-conserve-de-carne"}],"slots":[],"page":1,"limit":10,"pages":11,"count":102,"siblings":[{"name":"Paste, orez și legume uscate","slug":"801-paste-orez-si-legume-uscate","selected":false},{"name":"Conserve","slug":"802-conserve","selected":true},{"name":"Condimente și sosuri","slug":"803-condimente-si-sosuri","selected":false},{"name":"Ulei și oțet","slug":"804-ulei-si-otet","selected":false},{"name":"De ronțăit","slug":"805-aperitive-sarate","selected":false},{"name":"Făină, zahăr și produse gourmet","slug":"faina-zahar-si-produse-gourmet","selected":false}],"children":[{"name":"Toate produsele","slug":"802-conserve","selected":false},{"name":"Conserve de legume","slug":"80201-conserve-de-legume","selected":false},{"name":"Conserve de măsline","slug":"80202-conserve-de-masline","selected":false},{"name":"Conserve de murături","slug":"80203-conserve-de-muraturi","selected":false},{"name":"Conserve de pește","slug":"80204-conserve-de-peste","selected":false},{"name":"Conserve de carne","slug":"80205-conserve-de-carne","selected":true},{"name":"Conserve cu mâncare gătită","slug":"80206-conserve-cu-mancare-gatita","selected":false}],"products":[{"code":"100075546","variantCode":"4006153751109","name":"Crenvurști suculenți 550g","slug":"100075546-zimmermann-crenvursti-suculenti-550g","unitPriceLabel":"49,07 Lei/kg","brand":"Zimmermann","brandCode":"969","brandFilterCode":"zimmermann-b983","sku":"100075546","price":26.99,"originalPrice":29.99,"currencyCode":"RON","currency":"Lei","image":{"thumbnail":{"default":"https://cdn.freshful.ro/media/cache/sylius_shop_product_thumbnail/f7/43/be8219e837e7d80d88a1bc45e90a.jpg"},"large":{"default":"https://cdn.freshful.ro/media/cache/freshful_large/f7/43/be8219e837e7d80d88a1bc45e90a.jpg"},"extralarge":{"default":"https://cdn.freshful.ro/media/cache/sylius_shop_product_original/f7/43/be8219e837e7d80d88a1bc45e90a.jpg"}},"label":{"text":"-10%","backgroundColor":"#FF9903","textColor":"#FFFFFF"},"tags":[],"isAvailable":true,"maxAvailableQuantity":22,"maxAllowedQuantity":100,"breadcrumbs":[{"code":"8","name":"Băcănie","slug":"8-ceva-sarat"},{"code":"802","name":"Conserve","slug":"802-conserve"},{"code":"80205","name":"Conserve de carne","slug":"80205-conserve-de-carne"},{"code":"100075546","name":"Crenvurști suculenți 550g","slug":"100075546-zimmermann-crenvursti-suculenti-550g"}],"activePromotion":{"code":"oferte-bacanie-bauturi-21feb-8mar23","name":"Preț redus","targetQuantity":null},"saveMe":null,"labels":[{"type":"v1","items":[{"text":"-10%","backgroundColor":"#FF9903","textColor":"#FFFFFF"}]}],"geniusPrice":null,"geniusUnitPricePerLabel":null,"banner":{"text":"Super preț","textColor":"#FF0000","bgColor":"#FFF2EC","icon":null,"link":"https://www.freshful.ro/oferte/oferte-bacanie-bauturi-21feb-8mar23","type":"promo","analyticsEventType":"select_promotion","analyticsEventPayload":{"promotion_id":"oferte-bacanie-bauturi-21feb-8mar23","promotion_name":"Cămara cu băuturi și bunătăți"}},"discountLabel":"Economisești 10%","geniusDiscountLabel":null,"badge":null},{"code":"100075547","variantCode":"4006153757705","name":"Crenvurști bavarezi 550g","slug":"100075547-zimmermann-crenvursti-bavarezi-550g","unitPriceLabel":"49,07 Lei/kg","brand":"Zimmermann","brandCode":"969","brandFilterCode":"zimmermann-b983","sku":"100075547","price":26.99,"originalPrice":29.99,"currencyCode":"RON","currency":"Lei","image":{"thumbnail":{"default":"https://cdn.freshful.ro/media/cache/sylius_shop_product_thumbnail/aa/3a/f1571fc9bf6e2266748389ba889e.jpg"},"large":{"default":"https://cdn.freshful.ro/media/cache/freshful_large/aa/3a/f1571fc9bf6e2266748389ba889e.jpg"},"extralarge":{"default":"https://cdn.freshful.ro/media/cache/sylius_shop_product_original/aa/3a/f1571fc9bf6e2266748389ba889e.jpg"}},"label":{"text":"-10%","backgroundColor":"#FF9903","textColor":"#FFFFFF"},"tags":[],"isAvailable":true,"maxAvailableQuantity":21,"maxAllowedQuantity":100,"breadcrumbs":[{"code":"8","name":"Băcănie","slug":"8-ceva-sarat"},{"code":"802","name":"Conserve","slug":"802-conserve"},{"code":"80205","name":"Conserve de carne","slug":"80205-conserve-de-carne"},{"code":"100075547","name":"Crenvurști bavarezi 550g","slug":"100075547-zimmermann-crenvursti-bavarezi-550g"}],"activePromotion":{"code":"oferte-bacanie-bauturi-21feb-8mar23","name":"Preț redus","targetQuantity":null},"saveMe":null,"labels":[{"type":"v1","items":[{"text":"-10%","backgroundColor":"#FF9903","textColor":"#FFFFFF"}]}],"geniusPrice":null,"geniusUnitPricePerLabel":null,"banner":{"text":"Super preț","textColor":"#FF0000","bgColor":"#FFF2EC","icon":null,"link":"https://www.freshful.ro/oferte/oferte-bacanie-bauturi-21feb-8mar23","type":"promo","analyticsEventType":"select_promotion","analyticsEventPayload":{"promotion_id":"oferte-bacanie-bauturi-21feb-8mar23","promotion_name":"Cămara cu băuturi și bunătăți"}},"discountLabel":"Economisești 10%","geniusDiscountLabel":null,"badge":null},{"code":"100067029","variantCode":"5941341002283","name":"Pate de pui integral 120g","slug":"100067029-scandia-sibiu-pate-de-pui-integral-120g","unitPriceLabel":"38,75 Lei/kg","brand":"Scandia Sibiu","brandCode":"1032","brandFilterCode":"scandia-sibiu-b1032","sku":"100067029","price":4.65,"originalPrice":null,"currencyCode":"RON","currency":"Lei","image":{"thumbnail":{"default":"https://cdn.freshful.ro/media/cache/sylius_shop_product_thumbnail/a6/4f/a050ece682c7c3f4c0ba8f6da3b6.jpg"},"large":{"default":"https://cdn.freshful.ro/media/cache/freshful_large/a6/4f/a050ece682c7c3f4c0ba8f6da3b6.jpg"},"extralarge":{"default":"https://cdn.freshful.ro/media/cache/sylius_shop_product_original/a6/4f/a050ece682c7c3f4c0ba8f6da3b6.jpg"}},"label":null,"tags":[{"type":"NoPreservatives","text":"Fara conservanti","icon":"https://cdn.freshful.ro/assets/product_tags/fara_conservanti.svg","iconPng":"https://cdn.freshful.ro/assets/product_tags/fara_conservanti.png","backgroundColor":"#F0F2FF","textColor":"#7889DD"},{"type":"NoE","text":"Fara E-uri","icon":"https://cdn.freshful.ro/assets/product_tags/fara_euri.svg","iconPng":"https://cdn.freshful.ro/assets/product_tags/fara_euri.png","backgroundColor":"#FCF5DF","textColor":"#CAA316"}],"isAvailable":true,"maxAvailableQuantity":100,"maxAllowedQuantity":100,"breadcrumbs":[{"code":"8","name":"Băcănie","slug":"8-ceva-sarat"},{"code":"802","name":"Conserve","slug":"802-conserve"},{"code":"80205","name":"Conserve de carne","slug":"80205-conserve-de-carne"},{"code":"100067029","name":"Pate de pui integral 120g","slug":"100067029-scandia-sibiu-pate-de-pui-integral-120g"}],"activePromotion":null,"saveMe":null,"labels":[],"geniusPrice":null,"geniusUnitPricePerLabel":null,"banner":null,"discountLabel":null,"geniusDiscountLabel":null,"badge":null},{"code":"100067026","variantCode":"5941341002276","name":"Pate de porc integral 120g","slug":"100067026-scandia-sibiu-pate-de-porc-integral-120g","unitPriceLabel":"37,42 Lei/kg","brand":"Scandia Sibiu","brandCode":"1032","brandFilterCode":"scandia-sibiu-b1032","sku":"100067026","price":4.49,"originalPrice":null,"currencyCode":"RON","currency":"Lei","image":{"thumbnail":{"default":"https://cdn.freshful.ro/media/cache/sylius_shop_product_thumbnail/3c/ba/43722e00aaf7f8d83dc54c4fc156.jpg"},"large":{"default":"https://cdn.freshful.ro/media/cache/freshful_large/3c/ba/43722e00aaf7f8d83dc54c4fc156.jpg"},"extralarge":{"default":"https://cdn.freshful.ro/media/cache/sylius_shop_product_original/3c/ba/43722e00aaf7f8d83dc54c4fc156.jpg"}},"label":null,"tags":[{"type":"NoPreservatives","text":"Fara conservanti","icon":"https://cdn.freshful.ro/assets/product_tags/fara_conservanti.svg","iconPng":"https://cdn.freshful.ro/assets/product_tags/fara_conservanti.png","backgroundColor":"#F0F2FF","textColor":"#7889DD"},{"type":"NoE","text":"Fara E-uri","icon":"https://cdn.freshful.ro/assets/product_tags/fara_euri.svg","iconPng":"https://cdn.freshful.ro/assets/product_tags/fara_euri.png","backgroundColor":"#FCF5DF","textColor":"#CAA316"}],"isAvailable":true,"maxAvailableQuantity":100,"maxAllowedQuantity":100,"breadcrumbs":[{"code":"8","name":"Băcănie","slug":"8-ceva-sarat"},{"code":"802","name":"Conserve","slug":"802-conserve"},{"code":"80205","name":"Conserve de carne","slug":"80205-conserve-de-carne"},{"code":"100067026","name":"Pate de porc integral 120g","slug":"100067026-scandia-sibiu-pate-de-porc-integral-120g"}],"activePromotion":null,"saveMe":null,"labels":[],"geniusPrice":null,"geniusUnitPricePerLabel":null,"banner":null,"discountLabel":null,"geniusDiscountLabel":null,"badge":null},{"code":"100086705","variantCode":"100086705","name":"Pate de porc 100g","slug":"100086705-ardealul-pate-de-porc-100g","unitPriceLabel":"40,9 Lei/kg","brand":"Ardealul","brandCode":"263","brandFilterCode":"ardealul-b264","sku":"100086705","price":4.09,"originalPrice":null,"currencyCode":"RON","currency":"Lei","image":{"thumbnail":{"default":"https://cdn.freshful.ro/media/cache/sylius_shop_product_thumbnail/c8/d8/82238aec53f7b7df31d20565f8a0.jpg"},"large":{"default":"https://cdn.freshful.ro/media/cache/freshful_large/c8/d8/82238aec53f7b7df31d20565f8a0.jpg"},"extralarge":{"default":"https://cdn.freshful.ro/media/cache/sylius_shop_product_original/c8/d8/82238aec53f7b7df31d20565f8a0.jpg"}},"label":null,"tags":[],"isAvailable":true,"maxAvailableQuantity":7,"maxAllowedQuantity":100,"breadcrumbs":[{"code":"8","name":"Băcănie","slug":"8-ceva-sarat"},{"code":"802","name":"Conserve","slug":"802-conserve"},{"code":"80205","name":"Conserve de carne","slug":"80205-conserve-de-carne"},{"code":"100086705","name":"Pate de porc 100g","slug":"100086705-ardealul-pate-de-porc-100g"}],"activePromotion":null,"saveMe":null,"labels":[],"geniusPrice":null,"geniusUnitPricePerLabel":null,"banner":null,"discountLabel":null,"geniusDiscountLabel":null,"badge":null},{"code":"100067038","variantCode":"5941341015146","name":"Pate de curcan integral 120g","slug":"100067038-scandia-sibiu-pate-de-curcan-integral-120g","unitPriceLabel":"44,25 Lei/kg","brand":"Scandia Sibiu","brandCode":"1032","brandFilterCode":"scandia-sibiu-b1032","sku":"100067038","price":5.31,"originalPrice":null,"currencyCode":"RON","currency":"Lei","image":{"thumbnail":{"default":"https://cdn.freshful.ro/media/cache/sylius_shop_product_thumbnail/d5/00/b209ae41a152b2eaff579ca69429.jpg"},"large":{"default":"https://cdn.freshful.ro/media/cache/freshful_large/d5/00/b209ae41a152b2eaff579ca69429.jpg"},"extralarge":{"default":"https://cdn.freshful.ro/media/cache/sylius_shop_product_original/d5/00/b209ae41a152b2eaff579ca69429.jpg"}},"label":null,"tags":[{"type":"NoPreservatives","text":"Fara conservanti","icon":"https://cdn.freshful.ro/assets/product_tags/fara_conservanti.svg","iconPng":"https://cdn.freshful.ro/assets/product_tags/fara_conservanti.png","backgroundColor":"#F0F2FF","textColor":"#7889DD"},{"type":"NoE","text":"Fara E-uri","icon":"https://cdn.freshful.ro/assets/product_tags/fara_euri.svg","iconPng":"https://cdn.freshful.ro/assets/product_tags/fara_euri.png","backgroundColor":"#FCF5DF","textColor":"#CAA316"}],"isAvailable":true,"maxAvailableQuantity":100,"maxAllowedQuantity":100,"breadcrumbs":[{"code":"8","name":"Băcănie","slug":"8-ceva-sarat"},{"code":"802","name":"Conserve","slug":"802-conserve"},{"code":"80205","name":"Conserve de carne","slug":"80205-conserve-de-carne"},{"code":"100067038","name":"Pate de curcan integral 120g","slug":"100067038-scandia-sibiu-pate-de-curcan-integral-120g"}],"activePromotion":null,"saveMe":null,"labels":[],"geniusPrice":null,"geniusUnitPricePerLabel":null,"banner":null,"discountLabel":null,"geniusDiscountLabel":null,"badge":null},{"code":"100142471","variantCode":"100142471","name":"Pate de porc românesc 30% ficat, 120g","slug":"100142471-no-brand-pate-de-porc-romanesc-30-ficat-120g","unitPriceLabel":"16,58 Lei/kg","brand":"Comtim","brandCode":"202","brandFilterCode":"comtim-b203","sku":"100142471","price":1.99,"originalPrice":null,"currencyCode":"RON","currency":"Lei","image":{"thumbnail":{"default":"https://cdn.freshful.ro/media/cache/sylius_shop_product_thumbnail/79/f1/683d31d3d986b6d44cb1ec945a71.jpg"},"large":{"default":"https://cdn.freshful.ro/media/cache/freshful_large/79/f1/683d31d3d986b6d44cb1ec945a71.jpg"},"extralarge":{"default":"https://cdn.freshful.ro/media/cache/sylius_shop_product_original/79/f1/683d31d3d986b6d44cb1ec945a71.jpg"}},"label":null,"tags":[{"type":"MadeInRomania","text":"Made In Romania","icon":"https://cdn.freshful.ro/assets/product_tags/made_in_romania.svg","iconPng":"https://cdn.freshful.ro/assets/product_tags/made_in_romania.png","backgroundColor":"#EDF2FD","textColor":"#1653CA"}],"isAvailable":true,"maxAvailableQuantity":100,"maxAllowedQuantity":100,"breadcrumbs":[{"code":"8","name":"Băcănie","slug":"8-ceva-sarat"},{"code":"802","name":"Conserve","slug":"802-conserve"},{"code":"80205","name":"Conserve de carne","slug":"80205-conserve-de-carne"},{"code":"100142471","name":"Pate de porc românesc 30% ficat, 120g","slug":"100142471-no-brand-pate-de-porc-romanesc-30-ficat-120g"}],"activePromotion":null,"saveMe":null,"labels":[],"geniusPrice":null,"geniusUnitPricePerLabel":null,"banner":null,"discountLabel":null,"geniusDiscountLabel":null,"badge":null},{"code":"100067035","variantCode":"5941341004515","name":"Pate de rață integral 120g","slug":"100067035-scandia-sibiu-pate-de-rata-integral-120g","unitPriceLabel":"61,25 Lei/kg","brand":"Scandia Sibiu","brandCode":"1032","brandFilterCode":"scandia-sibiu-b1032","sku":"100067035","price":7.35,"originalPrice":null,"currencyCode":"RON","currency":"Lei","image":{"thumbnail":{"default":"https://cdn.freshful.ro/media/cache/sylius_shop_product_thumbnail/69/aa/7ddb72a8bf8268cbd378fe7435a9.jpg"},"large":{"default":"https://cdn.freshful.ro/media/cache/freshful_large/69/aa/7ddb72a8bf8268cbd378fe7435a9.jpg"},"extralarge":{"default":"https://cdn.freshful.ro/media/cache/sylius_shop_product_original/69/aa/7ddb72a8bf8268cbd378fe7435a9.jpg"}},"label":null,"tags":[{"type":"NoPreservatives","text":"Fara conservanti","icon":"https://cdn.freshful.ro/assets/product_tags/fara_conservanti.svg","iconPng":"https://cdn.freshful.ro/assets/product_tags/fara_conservanti.png","backgroundColor":"#F0F2FF","textColor":"#7889DD"},{"type":"NoE","text":"Fara E-uri","icon":"https://cdn.freshful.ro/assets/product_tags/fara_euri.svg","iconPng":"https://cdn.freshful.ro/assets/product_tags/fara_euri.png","backgroundColor":"#FCF5DF","textColor":"#CAA316"}],"isAvailable":true,"maxAvailableQuantity":100,"maxAllowedQuantity":100,"breadcrumbs":[{"code":"8","name":"Băcănie","slug":"8-ceva-sarat"},{"code":"802","name":"Conserve","slug":"802-conserve"},{"code":"80205","name":"Conserve de carne","slug":"80205-conserve-de-carne"},{"code":"100067035","name":"Pate de rață integral 120g","slug":"100067035-scandia-sibiu-pate-de-rata-integral-120g"}],"activePromotion":null,"saveMe":null,"labels":[],"geniusPrice":null,"geniusUnitPricePerLabel":null,"banner":null,"discountLabel":null,"geniusDiscountLabel":null,"badge":null},{"code":"100067016","variantCode":"5941341000043","name":"Pate porc 200g","slug":"100067016-bucegi-pate-porc-200g","unitPriceLabel":"29,95 Lei/kg","brand":"Bucegi","brandCode":"900","brandFilterCode":"bucegi-b901","sku":"100067016","price":5.99,"originalPrice":null,"currencyCode":"RON","currency":"Lei","image":{"thumbnail":{"default":"https://cdn.freshful.ro/media/cache/sylius_shop_product_thumbnail/41/1d/4ba9822443ee1885d1f5dc1bd88c.jpg"},"large":{"default":"https://cdn.freshful.ro/media/cache/freshful_large/41/1d/4ba9822443ee1885d1f5dc1bd88c.jpg"},"extralarge":{"default":"https://cdn.freshful.ro/media/cache/sylius_shop_product_original/41/1d/4ba9822443ee1885d1f5dc1bd88c.jpg"}},"label":null,"tags":[],"isAvailable":true,"maxAvailableQuantity":100,"maxAllowedQuantity":100,"breadcrumbs":[{"code":"8","name":"Băcănie","slug":"8-ceva-sarat"},{"code":"802","name":"Conserve","slug":"802-conserve"},{"code":"80205","name":"Conserve de carne","slug":"80205-conserve-de-carne"},{"code":"100067016","name":"Pate porc 200g","slug":"100067016-bucegi-pate-porc-200g"}],"activePromotion":null,"saveMe":null,"labels":[],"geniusPrice":null,"geniusUnitPricePerLabel":null,"banner":null,"discountLabel":null,"geniusDiscountLabel":null,"badge":null},{"code":"100086707","variantCode":"100086707","name":"Pate de pui 100g","slug":"100086707-ardealul-pate-de-pui-100g","unitPriceLabel":"40,9 Lei/kg","brand":"Ardealul","brandCode":"263","brandFilterCode":"ardealul-b264","sku":"100086707","price":4.09,"originalPrice":null,"currencyCode":"RON","currency":"Lei","image":{"thumbnail":{"default":"https://cdn.freshful.ro/media/cache/sylius_shop_product_thumbnail/4c/42/b14ac70f061153c9cf748a61139a.jpg"},"large":{"default":"https://cdn.freshful.ro/media/cache/freshful_large/4c/42/b14ac70f061153c9cf748a61139a.jpg"},"extralarge":{"default":"https://cdn.freshful.ro/media/cache/sylius_shop_product_original/4c/42/b14ac70f061153c9cf748a61139a.jpg"}},"label":null,"tags":[],"isAvailable":true,"maxAvailableQuantity":63,"maxAllowedQuantity":100,"breadcrumbs":[{"code":"8","name":"Băcănie","slug":"8-ceva-sarat"},{"code":"802","name":"Conserve","slug":"802-conserve"},{"code":"80205","name":"Conserve de carne","slug":"80205-conserve-de-carne"},{"code":"100086707","name":"Pate de pui 100g","slug":"100086707-ardealul-pate-de-pui-100g"}],"activePromotion":null,"saveMe":null,"labels":[],"geniusPrice":null,"geniusUnitPricePerLabel":null,"banner":null,"discountLabel":null,"geniusDiscountLabel":null,"badge":null}],"filters":{"countSelected":0,"items":[{"code":"promotion","name":"Promoții","countSelected":0,"values":[{"code":"oferte-bacanie-bauturi-21feb-8mar23","name":"Cămara cu băuturi și bunătăți","isSelected":false,"count":2}]},{"code":"brand","name":"Brand","countSelected":0,"values":[{"code":"antrefrig-b1901","name":"Antrefrig","isSelected":false,"count":1},{"code":"ardealul-b264","name":"Ardealul","isSelected":false,"count":8},{"code":"balea-b2937","name":"Balea","isSelected":false,"count":1},{"code":"bucegi-b901","name":"Bucegi","isSelected":false,"count":20},{"code":"capricii-si-delicii-b612","name":"Capricii și Delicii","isSelected":false,"count":7},{"code":"comtim-b203","name":"Comtim","isSelected":false,"count":2},{"code":"don-ficu-b2967","name":"Don Ficu'","isSelected":false,"count":3},{"code":"inzersdorfer-b1107","name":"Inzersdorfer","isSelected":false,"count":2},{"code":"mandy-b1522","name":"Mandy","isSelected":false,"count":1},{"code":"naturos-b136","name":"Naturos","isSelected":false,"count":3},{"code":"pamapol-b139","name":"Pamapol","isSelected":false,"count":1},{"code":"rotina-b3079","name":"Rotina","isSelected":false,"count":1},{"code":"sadu-b1031","name":"Sadu","isSelected":false,"count":8},{"code":"scandia-sibiu-b1032","name":"Scandia Sibiu","isSelected":false,"count":23},{"code":"silvania-gourmet-b496","name":"Silvania Gourmet","isSelected":false,"count":9},{"code":"tulip-b1565","name":"Tulip","isSelected":false,"count":4},{"code":"woods-foods-b2275","name":"Woods Foods","isSelected":false,"count":5},{"code":"zimmermann-b983","name":"Zimmermann","isSelected":false,"count":3}]},{"code":"diet_lifestyle","name":"Dietă și lifestyle","countSelected":0,"values":[{"code":"fara-conservanti-a37","name":"Fara conservanti","isSelected":false,"count":27},{"code":"fara-e-uri-a84","name":"Fara E-uri","isSelected":false,"count":20},{"code":"fara-gluten-a16","name":"Fara gluten","isSelected":false,"count":2},{"code":"fara-lactoza-a38","name":"Fara lactoza","isSelected":false,"count":1},{"code":"made-in-romania-a85","name":"Made In Romania","isSelected":false,"count":4}]}]},"orderBy":[{"field":"price","direction":"asc","name":"Preț crescător","isSelected":false},{"field":"price","direction":"desc","name":"Preț descrescător","isSelected":false},{"field":"popularity","direction":"desc","name":"Cele mai populare","isSelected":true},{"field":"category","direction":"asc","name":"Categorie","isSelected":false}],"metaTitle":"Conserve de carne - Gamă variată","metaDescription":"Vrei Conserve de carne? Alege dintr-o gamă variată. Comanzi simplu și ai livrare rapidă, calitate și prospețime. Hai pe Freshful.ro","metaKeywords":null,"banners":[]}}