{"type":"subcategory","payload":{"analyticsListId":"category_80202-conserve-de-masline","analyticsListName":"Category - Conserve de măsline","name":"Conserve de măsline","slug":"80202-conserve-de-masline","image":null,"breadcrumbs":[{"code":"8","name":"Băcănie","slug":"8-ceva-sarat"},{"code":"802","name":"Conserve","slug":"802-conserve"},{"code":"80202","name":"Conserve de măsline","slug":"80202-conserve-de-masline"}],"slots":[],"page":1,"limit":10,"pages":3,"count":26,"siblings":[{"name":"Paste, orez și legume uscate","slug":"801-paste-orez-si-legume-uscate","selected":false},{"name":"Conserve","slug":"802-conserve","selected":true},{"name":"Condimente și sosuri","slug":"803-condimente-si-sosuri","selected":false},{"name":"Ulei și oțet","slug":"804-ulei-si-otet","selected":false},{"name":"De ronțăit","slug":"805-aperitive-sarate","selected":false},{"name":"Făină, zahăr și produse gourmet","slug":"faina-zahar-si-produse-gourmet","selected":false}],"children":[{"name":"Toate produsele","slug":"802-conserve","selected":false},{"name":"Conserve de legume","slug":"80201-conserve-de-legume","selected":false},{"name":"Conserve de măsline","slug":"80202-conserve-de-masline","selected":true},{"name":"Conserve de murături","slug":"80203-conserve-de-muraturi","selected":false},{"name":"Conserve de pește","slug":"80204-conserve-de-peste","selected":false},{"name":"Conserve de carne","slug":"80205-conserve-de-carne","selected":false},{"name":"Conserve cu mâncare gătită","slug":"80206-conserve-cu-mancare-gatita","selected":false}],"products":[{"code":"100075538","variantCode":"5200352990010","name":"Măsline kalamata fără sâmburi 350g","slug":"100075538-fos-masline-kalamata-fara-samburi-350g","unitPriceLabel":"33,31 Lei/kg","brand":"Fos","brandCode":"967","brandFilterCode":"fos-b981","sku":"100075538","price":11.99,"originalPrice":14.5,"currencyCode":"RON","currency":"Lei","image":{"thumbnail":{"default":"https://cdn.freshful.ro/media/cache/sylius_shop_product_thumbnail/8d/22/c3043d4b3a7e39908eb662fff28e.jpg"},"large":{"default":"https://cdn.freshful.ro/media/cache/freshful_large/8d/22/c3043d4b3a7e39908eb662fff28e.jpg"},"extralarge":{"default":"https://cdn.freshful.ro/media/cache/sylius_shop_product_original/8d/22/c3043d4b3a7e39908eb662fff28e.jpg"}},"label":{"text":"-17%","backgroundColor":"#FF9903","textColor":"#FFFFFF"},"tags":[],"isAvailable":true,"maxAvailableQuantity":100,"maxAllowedQuantity":100,"breadcrumbs":[{"code":"8","name":"Băcănie","slug":"8-ceva-sarat"},{"code":"802","name":"Conserve","slug":"802-conserve"},{"code":"80202","name":"Conserve de măsline","slug":"80202-conserve-de-masline"},{"code":"100075538","name":"Măsline kalamata fără sâmburi 350g","slug":"100075538-fos-masline-kalamata-fara-samburi-350g"}],"activePromotion":{"code":"special-produse-vegane-mar23","name":"Preț redus","targetQuantity":null},"saveMe":null,"labels":[{"type":"v1","items":[{"text":"-17%","backgroundColor":"#FF9903","textColor":"#FFFFFF"}]}],"geniusPrice":null,"geniusUnitPricePerLabel":null,"banner":{"text":"Super preț","textColor":"#FF0000","bgColor":"#FFF2EC","icon":null,"link":"https://www.freshful.ro/oferte/special-produse-vegane-mar23","type":"promo","analyticsEventType":"select_promotion","analyticsEventPayload":{"promotion_id":"special-produse-vegane-mar23","promotion_name":"Și bun, și de post"}},"discountLabel":"Economisești 17%","geniusDiscountLabel":null,"badge":null},{"code":"100075537","variantCode":"5200352990003","name":"Măsline kalamata întregi în saramură 360g","slug":"100075537-fos-masline-kalamata-intregi-in-saramura-360g","unitPriceLabel":"30,53 Lei/kg","brand":"Fos","brandCode":"967","brandFilterCode":"fos-b981","sku":"100075537","price":10.99,"originalPrice":13.5,"currencyCode":"RON","currency":"Lei","image":{"thumbnail":{"default":"https://cdn.freshful.ro/media/cache/sylius_shop_product_thumbnail/06/e1/58435e43a998af394e6daceb180c.jpg"},"large":{"default":"https://cdn.freshful.ro/media/cache/freshful_large/06/e1/58435e43a998af394e6daceb180c.jpg"},"extralarge":{"default":"https://cdn.freshful.ro/media/cache/sylius_shop_product_original/06/e1/58435e43a998af394e6daceb180c.jpg"}},"label":{"text":"-18%","backgroundColor":"#FF9903","textColor":"#FFFFFF"},"tags":[],"isAvailable":true,"maxAvailableQuantity":100,"maxAllowedQuantity":100,"breadcrumbs":[{"code":"8","name":"Băcănie","slug":"8-ceva-sarat"},{"code":"802","name":"Conserve","slug":"802-conserve"},{"code":"80202","name":"Conserve de măsline","slug":"80202-conserve-de-masline"},{"code":"100075537","name":"Măsline kalamata întregi în saramură 360g","slug":"100075537-fos-masline-kalamata-intregi-in-saramura-360g"}],"activePromotion":{"code":"special-produse-vegane-mar23","name":"Preț redus","targetQuantity":null},"saveMe":null,"labels":[{"type":"v1","items":[{"text":"-18%","backgroundColor":"#FF9903","textColor":"#FFFFFF"}]}],"geniusPrice":null,"geniusUnitPricePerLabel":null,"banner":{"text":"Super preț","textColor":"#FF0000","bgColor":"#FFF2EC","icon":null,"link":"https://www.freshful.ro/oferte/special-produse-vegane-mar23","type":"promo","analyticsEventType":"select_promotion","analyticsEventPayload":{"promotion_id":"special-produse-vegane-mar23","promotion_name":"Și bun, și de post"}},"discountLabel":"Economisești 18%","geniusDiscountLabel":null,"badge":null},{"code":"100097397","variantCode":"100097397","name":"Măsline verzi manzanilla fără sâmburi 185g","slug":"100097397-jolca-masline-verzi-manzanilla-fara-samburi-185g","unitPriceLabel":"33,46 Lei/kg","brand":"Jolca","brandCode":"1532","brandFilterCode":"jolca-b1536","sku":"100097397","price":6.19,"originalPrice":null,"currencyCode":"RON","currency":"Lei","image":{"thumbnail":{"default":"https://cdn.freshful.ro/media/cache/sylius_shop_product_thumbnail/a0/b3/2e321d42c5817a315736b2860a13.jpg"},"large":{"default":"https://cdn.freshful.ro/media/cache/freshful_large/a0/b3/2e321d42c5817a315736b2860a13.jpg"},"extralarge":{"default":"https://cdn.freshful.ro/media/cache/sylius_shop_product_original/a0/b3/2e321d42c5817a315736b2860a13.jpg"}},"label":null,"tags":[],"isAvailable":true,"maxAvailableQuantity":100,"maxAllowedQuantity":100,"breadcrumbs":[{"code":"8","name":"Băcănie","slug":"8-ceva-sarat"},{"code":"802","name":"Conserve","slug":"802-conserve"},{"code":"80202","name":"Conserve de măsline","slug":"80202-conserve-de-masline"},{"code":"100097397","name":"Măsline verzi manzanilla fără sâmburi 185g","slug":"100097397-jolca-masline-verzi-manzanilla-fara-samburi-185g"}],"activePromotion":null,"saveMe":null,"labels":[],"geniusPrice":null,"geniusUnitPricePerLabel":null,"banner":null,"discountLabel":null,"geniusDiscountLabel":null,"badge":null},{"code":"100120840","variantCode":"100120840","name":"Măsline Kalamata fără sâmburi 345g","slug":"100120840-xenia-masline-kalamata-fara-samburi-345g","unitPriceLabel":"14,5 Lei/buc","brand":"Xenia","brandCode":"2065","brandFilterCode":"xenia-b2069","sku":"100120840","price":14.5,"originalPrice":null,"currencyCode":"RON","currency":"Lei","image":{"thumbnail":{"default":"https://cdn.freshful.ro/media/cache/sylius_shop_product_thumbnail/8c/ab/d0b86b1e99778a0441e2c452f8c4.jpg"},"large":{"default":"https://cdn.freshful.ro/media/cache/freshful_large/8c/ab/d0b86b1e99778a0441e2c452f8c4.jpg"},"extralarge":{"default":"https://cdn.freshful.ro/media/cache/sylius_shop_product_original/8c/ab/d0b86b1e99778a0441e2c452f8c4.jpg"}},"label":null,"tags":[],"isAvailable":true,"maxAvailableQuantity":67,"maxAllowedQuantity":100,"breadcrumbs":[{"code":"8","name":"Băcănie","slug":"8-ceva-sarat"},{"code":"802","name":"Conserve","slug":"802-conserve"},{"code":"80202","name":"Conserve de măsline","slug":"80202-conserve-de-masline"},{"code":"100120840","name":"Măsline Kalamata fără sâmburi 345g","slug":"100120840-xenia-masline-kalamata-fara-samburi-345g"}],"activePromotion":null,"saveMe":null,"labels":[],"geniusPrice":null,"geniusUnitPricePerLabel":null,"banner":null,"discountLabel":null,"geniusDiscountLabel":null,"badge":null},{"code":"100120845","variantCode":"100120845","name":"Măsline verzi feliate în saramură 355g","slug":"100120845-xenia-masline-verzi-feliate-in-saramura-355g","unitPriceLabel":"11,5 Lei/buc","brand":"Xenia","brandCode":"2065","brandFilterCode":"xenia-b2069","sku":"100120845","price":11.5,"originalPrice":null,"currencyCode":"RON","currency":"Lei","image":{"thumbnail":{"default":"https://cdn.freshful.ro/media/cache/sylius_shop_product_thumbnail/f7/59/e0cf0d5ce54d4eab51e623bdc55f.jpg"},"large":{"default":"https://cdn.freshful.ro/media/cache/freshful_large/f7/59/e0cf0d5ce54d4eab51e623bdc55f.jpg"},"extralarge":{"default":"https://cdn.freshful.ro/media/cache/sylius_shop_product_original/f7/59/e0cf0d5ce54d4eab51e623bdc55f.jpg"}},"label":null,"tags":[],"isAvailable":true,"maxAvailableQuantity":2,"maxAllowedQuantity":100,"breadcrumbs":[{"code":"8","name":"Băcănie","slug":"8-ceva-sarat"},{"code":"802","name":"Conserve","slug":"802-conserve"},{"code":"80202","name":"Conserve de măsline","slug":"80202-conserve-de-masline"},{"code":"100120845","name":"Măsline verzi feliate în saramură 355g","slug":"100120845-xenia-masline-verzi-feliate-in-saramura-355g"}],"activePromotion":null,"saveMe":null,"labels":[],"geniusPrice":null,"geniusUnitPricePerLabel":null,"banner":null,"discountLabel":null,"geniusDiscountLabel":null,"badge":null},{"code":"100135572","variantCode":"100135572","name":"Măsline Kalamon 200g","slug":"100135572-lyrakis-family-masline-kalamon-200g","unitPriceLabel":"89,9 Lei/kg","brand":"Lyrakis Family","brandCode":"2611","brandFilterCode":"lyrakis-family-b2615","sku":"100135572","price":17.98,"originalPrice":null,"currencyCode":"RON","currency":"Lei","image":{"thumbnail":{"default":"https://cdn.freshful.ro/media/cache/sylius_shop_product_thumbnail/8f/ee/7b6d14d4693609838c07b485bccc.jpg"},"large":{"default":"https://cdn.freshful.ro/media/cache/freshful_large/8f/ee/7b6d14d4693609838c07b485bccc.jpg"},"extralarge":{"default":"https://cdn.freshful.ro/media/cache/sylius_shop_product_original/8f/ee/7b6d14d4693609838c07b485bccc.jpg"}},"label":null,"tags":[{"type":"vegan","text":"Vegan","icon":"https://cdn.freshful.ro/assets/product_tags/vegan.svg","iconPng":"https://cdn.freshful.ro/assets/product_tags/vegan.png","backgroundColor":"#ECF9F8","textColor":"#33A39C"}],"isAvailable":true,"maxAvailableQuantity":78,"maxAllowedQuantity":100,"breadcrumbs":[{"code":"8","name":"Băcănie","slug":"8-ceva-sarat"},{"code":"802","name":"Conserve","slug":"802-conserve"},{"code":"80202","name":"Conserve de măsline","slug":"80202-conserve-de-masline"},{"code":"100135572","name":"Măsline Kalamon 200g","slug":"100135572-lyrakis-family-masline-kalamon-200g"}],"activePromotion":null,"saveMe":null,"labels":[],"geniusPrice":null,"geniusUnitPricePerLabel":null,"banner":null,"discountLabel":null,"geniusDiscountLabel":null,"badge":null},{"code":"100066381","variantCode":"100066381","name":"Măsline Kalamata fără sâmburi 180g","slug":"100066381-kaloudi-masline-kalamata-fara-samburi-180g","unitPriceLabel":"77,94 Lei/kg","brand":"Kaloudi","brandCode":"502","brandFilterCode":"kaloudi-b503","sku":"100066381","price":14.03,"originalPrice":null,"currencyCode":"RON","currency":"Lei","image":{"thumbnail":{"default":"https://cdn.freshful.ro/media/cache/sylius_shop_product_thumbnail/6e/0d/295fafc387f483d954df40380e92.jpg"},"large":{"default":"https://cdn.freshful.ro/media/cache/freshful_large/6e/0d/295fafc387f483d954df40380e92.jpg"},"extralarge":{"default":"https://cdn.freshful.ro/media/cache/sylius_shop_product_original/6e/0d/295fafc387f483d954df40380e92.jpg"}},"label":null,"tags":[],"isAvailable":true,"maxAvailableQuantity":62,"maxAllowedQuantity":100,"breadcrumbs":[{"code":"8","name":"Băcănie","slug":"8-ceva-sarat"},{"code":"802","name":"Conserve","slug":"802-conserve"},{"code":"80202","name":"Conserve de măsline","slug":"80202-conserve-de-masline"},{"code":"100066381","name":"Măsline Kalamata fără sâmburi 180g","slug":"100066381-kaloudi-masline-kalamata-fara-samburi-180g"}],"activePromotion":null,"saveMe":null,"labels":[],"geniusPrice":null,"geniusUnitPricePerLabel":null,"banner":null,"discountLabel":null,"geniusDiscountLabel":null,"badge":null},{"code":"100120839","variantCode":"100120839","name":"Măsline întregi Kalamata în saramură și ulei măsline 360g","slug":"100120839-xenia-masline-intregi-kalamata-in-saramura-si-ulei-masline-360g","unitPriceLabel":"12,9 Lei/buc","brand":"Xenia","brandCode":"2065","brandFilterCode":"xenia-b2069","sku":"100120839","price":12.9,"originalPrice":null,"currencyCode":"RON","currency":"Lei","image":{"thumbnail":{"default":"https://cdn.freshful.ro/media/cache/sylius_shop_product_thumbnail/26/5e/b79ea6031c5ea695f53cf1f019f7.jpg"},"large":{"default":"https://cdn.freshful.ro/media/cache/freshful_large/26/5e/b79ea6031c5ea695f53cf1f019f7.jpg"},"extralarge":{"default":"https://cdn.freshful.ro/media/cache/sylius_shop_product_original/26/5e/b79ea6031c5ea695f53cf1f019f7.jpg"}},"label":null,"tags":[],"isAvailable":true,"maxAvailableQuantity":75,"maxAllowedQuantity":100,"breadcrumbs":[{"code":"8","name":"Băcănie","slug":"8-ceva-sarat"},{"code":"802","name":"Conserve","slug":"802-conserve"},{"code":"80202","name":"Conserve de măsline","slug":"80202-conserve-de-masline"},{"code":"100120839","name":"Măsline întregi Kalamata în saramură și ulei măsline 360g","slug":"100120839-xenia-masline-intregi-kalamata-in-saramura-si-ulei-masline-360g"}],"activePromotion":null,"saveMe":null,"labels":[],"geniusPrice":null,"geniusUnitPricePerLabel":null,"banner":null,"discountLabel":null,"geniusDiscountLabel":null,"badge":null},{"code":"100075539","variantCode":"5200352990034","name":"Măsline kalamata întregi în saramură 1kg","slug":"100075539-fos-masline-kalamata-intregi-in-saramura-1kg","unitPriceLabel":"32,9 Lei/kg","brand":"Fos","brandCode":"967","brandFilterCode":"fos-b981","sku":"100075539","price":32.9,"originalPrice":null,"currencyCode":"RON","currency":"Lei","image":{"thumbnail":{"default":"https://cdn.freshful.ro/media/cache/sylius_shop_product_thumbnail/0e/b1/73930a7dc8912ccc473b13883368.jpg"},"large":{"default":"https://cdn.freshful.ro/media/cache/freshful_large/0e/b1/73930a7dc8912ccc473b13883368.jpg"},"extralarge":{"default":"https://cdn.freshful.ro/media/cache/sylius_shop_product_original/0e/b1/73930a7dc8912ccc473b13883368.jpg"}},"label":null,"tags":[],"isAvailable":true,"maxAvailableQuantity":57,"maxAllowedQuantity":100,"breadcrumbs":[{"code":"8","name":"Băcănie","slug":"8-ceva-sarat"},{"code":"802","name":"Conserve","slug":"802-conserve"},{"code":"80202","name":"Conserve de măsline","slug":"80202-conserve-de-masline"},{"code":"100075539","name":"Măsline kalamata întregi în saramură 1kg","slug":"100075539-fos-masline-kalamata-intregi-in-saramura-1kg"}],"activePromotion":null,"saveMe":null,"labels":[],"geniusPrice":null,"geniusUnitPricePerLabel":null,"banner":null,"discountLabel":null,"geniusDiscountLabel":null,"badge":null},{"code":"100135567","variantCode":"100135567","name":"Măsline Kalamon cu rozmarin 200g","slug":"100135567-lyrakis-family-masline-kalamon-cu-rozmarin-200g","unitPriceLabel":"82,4 Lei/kg","brand":"Lyrakis Family","brandCode":"2611","brandFilterCode":"lyrakis-family-b2615","sku":"100135567","price":16.48,"originalPrice":null,"currencyCode":"RON","currency":"Lei","image":{"thumbnail":{"default":"https://cdn.freshful.ro/media/cache/sylius_shop_product_thumbnail/0b/89/604a4cd3f4b59e473016e73ceb22.jpg"},"large":{"default":"https://cdn.freshful.ro/media/cache/freshful_large/0b/89/604a4cd3f4b59e473016e73ceb22.jpg"},"extralarge":{"default":"https://cdn.freshful.ro/media/cache/sylius_shop_product_original/0b/89/604a4cd3f4b59e473016e73ceb22.jpg"}},"label":null,"tags":[{"type":"vegan","text":"Vegan","icon":"https://cdn.freshful.ro/assets/product_tags/vegan.svg","iconPng":"https://cdn.freshful.ro/assets/product_tags/vegan.png","backgroundColor":"#ECF9F8","textColor":"#33A39C"}],"isAvailable":true,"maxAvailableQuantity":100,"maxAllowedQuantity":100,"breadcrumbs":[{"code":"8","name":"Băcănie","slug":"8-ceva-sarat"},{"code":"802","name":"Conserve","slug":"802-conserve"},{"code":"80202","name":"Conserve de măsline","slug":"80202-conserve-de-masline"},{"code":"100135567","name":"Măsline Kalamon cu rozmarin 200g","slug":"100135567-lyrakis-family-masline-kalamon-cu-rozmarin-200g"}],"activePromotion":null,"saveMe":null,"labels":[],"geniusPrice":null,"geniusUnitPricePerLabel":null,"banner":null,"discountLabel":null,"geniusDiscountLabel":null,"badge":null}],"filters":{"countSelected":0,"items":[{"code":"promotion","name":"Promoții","countSelected":0,"values":[{"code":"special-produse-vegane-mar23","name":"Și bun, și de post","isSelected":false,"count":2}]},{"code":"brand","name":"Brand","countSelected":0,"values":[{"code":"fos-b981","name":"Fos","isSelected":false,"count":4},{"code":"jolca-b1536","name":"Jolca","isSelected":false,"count":4},{"code":"kaloudi-b503","name":"Kaloudi","isSelected":false,"count":3},{"code":"lyrakis-family-b2615","name":"Lyrakis Family","isSelected":false,"count":4},{"code":"maestro-de-oliva-b2923","name":"Maestro De Oliva","isSelected":false,"count":3},{"code":"o-green-b200","name":"O'Green","isSelected":false,"count":2},{"code":"xenia-b2069","name":"Xenia","isSelected":false,"count":6}]},{"code":"diet_lifestyle","name":"Dietă și lifestyle","countSelected":0,"values":[{"code":"fara-gluten-a16","name":"Fara gluten","isSelected":false,"count":1},{"code":"vegan-a24","name":"Vegan","isSelected":false,"count":4}]}]},"orderBy":[{"field":"price","direction":"asc","name":"Preț crescător","isSelected":false},{"field":"price","direction":"desc","name":"Preț descrescător","isSelected":false},{"field":"popularity","direction":"desc","name":"Cele mai populare","isSelected":true},{"field":"category","direction":"asc","name":"Categorie","isSelected":false}],"metaTitle":"Conserve de măsline - Gamă variată","metaDescription":"Vrei Conserve de măsline? Alege dintr-o gamă variată. Comanzi simplu și ai livrare rapidă, calitate și prospețime. Hai pe Freshful.ro","metaKeywords":null,"banners":[]}}