{"type":"subcategory","payload":{"analyticsListId":"category_80206-conserve-cu-mancare-gatita","analyticsListName":"Category - Conserve cu mâncare gătită","name":"Conserve cu mâncare gătită","slug":"80206-conserve-cu-mancare-gatita","image":null,"breadcrumbs":[{"code":"8","name":"Băcănie","slug":"8-ceva-sarat"},{"code":"802","name":"Conserve","slug":"802-conserve"},{"code":"80206","name":"Conserve cu mâncare gătită","slug":"80206-conserve-cu-mancare-gatita"}],"slots":[],"page":1,"limit":10,"pages":14,"count":137,"siblings":[{"name":"Paste, orez și legume uscate","slug":"801-paste-orez-si-legume-uscate","selected":false},{"name":"Conserve","slug":"802-conserve","selected":true},{"name":"Condimente și sosuri","slug":"803-condimente-si-sosuri","selected":false},{"name":"Ulei și oțet","slug":"804-ulei-si-otet","selected":false},{"name":"De ronțăit","slug":"805-aperitive-sarate","selected":false},{"name":"Făină, zahăr și produse gourmet","slug":"faina-zahar-si-produse-gourmet","selected":false}],"children":[{"name":"Toate produsele","slug":"802-conserve","selected":false},{"name":"Conserve de legume","slug":"80201-conserve-de-legume","selected":false},{"name":"Conserve de măsline","slug":"80202-conserve-de-masline","selected":false},{"name":"Conserve de murături","slug":"80203-conserve-de-muraturi","selected":false},{"name":"Conserve de pește","slug":"80204-conserve-de-peste","selected":false},{"name":"Conserve de carne","slug":"80205-conserve-de-carne","selected":false},{"name":"Conserve cu mâncare gătită","slug":"80206-conserve-cu-mancare-gatita","selected":true}],"products":[{"code":"100001495","variantCode":"5941132014341","name":"Zacuscă macedoneană 265g","slug":"100001495-inedit-zacusca-macedoneana-265g","unitPriceLabel":"47,13 Lei/kg","brand":"Inedit","brandCode":"60","brandFilterCode":"inedit-b57","sku":"100001495","price":12.49,"originalPrice":13.9,"currencyCode":"RON","currency":"Lei","image":{"thumbnail":{"default":"https://cdn.freshful.ro/media/cache/sylius_shop_product_thumbnail/ca/81/dd2b7c23c4453f11c9754473df3a.jpg"},"large":{"default":"https://cdn.freshful.ro/media/cache/freshful_large/ca/81/dd2b7c23c4453f11c9754473df3a.jpg"},"extralarge":{"default":"https://cdn.freshful.ro/media/cache/sylius_shop_product_original/ca/81/dd2b7c23c4453f11c9754473df3a.jpg"}},"label":{"text":"-10%","backgroundColor":"#FF9903","textColor":"#FFFFFF"},"tags":[],"isAvailable":true,"maxAvailableQuantity":47,"maxAllowedQuantity":100,"breadcrumbs":[{"code":"8","name":"Băcănie","slug":"8-ceva-sarat"},{"code":"802","name":"Conserve","slug":"802-conserve"},{"code":"80206","name":"Conserve cu mâncare gătită","slug":"80206-conserve-cu-mancare-gatita"},{"code":"100001495","name":"Zacuscă macedoneană 265g","slug":"100001495-inedit-zacusca-macedoneana-265g"}],"activePromotion":{"code":"special-produse-vegane-mar23","name":"Preț redus","targetQuantity":null},"saveMe":null,"labels":[{"type":"v1","items":[{"text":"-10%","backgroundColor":"#FF9903","textColor":"#FFFFFF"}]}],"geniusPrice":null,"geniusUnitPricePerLabel":null,"banner":{"text":"Super preț","textColor":"#FF0000","bgColor":"#FFF2EC","icon":null,"link":"https://www.freshful.ro/oferte/special-produse-vegane-mar23","type":"promo","analyticsEventType":"select_promotion","analyticsEventPayload":{"promotion_id":"special-produse-vegane-mar23","promotion_name":"Și bun, și de post"}},"discountLabel":"Economisești 10%","geniusDiscountLabel":null,"badge":null},{"code":"100001496","variantCode":"5941132014365","name":"Zacuscă românească 265g","slug":"100001496-inedit-zacusca-romaneasca-265g","unitPriceLabel":"47,13 Lei/kg","brand":"Inedit","brandCode":"60","brandFilterCode":"inedit-b57","sku":"100001496","price":12.49,"originalPrice":13.9,"currencyCode":"RON","currency":"Lei","image":{"thumbnail":{"default":"https://cdn.freshful.ro/media/cache/sylius_shop_product_thumbnail/a4/e5/e8a94cb81f4e09a2a3cd55daa169.jpg"},"large":{"default":"https://cdn.freshful.ro/media/cache/freshful_large/a4/e5/e8a94cb81f4e09a2a3cd55daa169.jpg"},"extralarge":{"default":"https://cdn.freshful.ro/media/cache/sylius_shop_product_original/a4/e5/e8a94cb81f4e09a2a3cd55daa169.jpg"}},"label":{"text":"-10%","backgroundColor":"#FF9903","textColor":"#FFFFFF"},"tags":[],"isAvailable":true,"maxAvailableQuantity":39,"maxAllowedQuantity":100,"breadcrumbs":[{"code":"8","name":"Băcănie","slug":"8-ceva-sarat"},{"code":"802","name":"Conserve","slug":"802-conserve"},{"code":"80206","name":"Conserve cu mâncare gătită","slug":"80206-conserve-cu-mancare-gatita"},{"code":"100001496","name":"Zacuscă românească 265g","slug":"100001496-inedit-zacusca-romaneasca-265g"}],"activePromotion":{"code":"special-produse-vegane-mar23","name":"Preț redus","targetQuantity":null},"saveMe":null,"labels":[{"type":"v1","items":[{"text":"-10%","backgroundColor":"#FF9903","textColor":"#FFFFFF"}]}],"geniusPrice":null,"geniusUnitPricePerLabel":null,"banner":{"text":"Super preț","textColor":"#FF0000","bgColor":"#FFF2EC","icon":null,"link":"https://www.freshful.ro/oferte/special-produse-vegane-mar23","type":"promo","analyticsEventType":"select_promotion","analyticsEventPayload":{"promotion_id":"special-produse-vegane-mar23","promotion_name":"Și bun, și de post"}},"discountLabel":"Economisești 10%","geniusDiscountLabel":null,"badge":null},{"code":"100001494","variantCode":"5941132014327","name":"Zacuscă bulgărească 265g","slug":"100001494-inedit-zacusca-bulgareasca-265g","unitPriceLabel":"47,13 Lei/kg","brand":"Inedit","brandCode":"60","brandFilterCode":"inedit-b57","sku":"100001494","price":12.49,"originalPrice":13.9,"currencyCode":"RON","currency":"Lei","image":{"thumbnail":{"default":"https://cdn.freshful.ro/media/cache/sylius_shop_product_thumbnail/19/dd/43d9190eb39f209c05f842a9c9d0.jpg"},"large":{"default":"https://cdn.freshful.ro/media/cache/freshful_large/19/dd/43d9190eb39f209c05f842a9c9d0.jpg"},"extralarge":{"default":"https://cdn.freshful.ro/media/cache/sylius_shop_product_original/19/dd/43d9190eb39f209c05f842a9c9d0.jpg"}},"label":{"text":"-10%","backgroundColor":"#FF9903","textColor":"#FFFFFF"},"tags":[],"isAvailable":true,"maxAvailableQuantity":37,"maxAllowedQuantity":100,"breadcrumbs":[{"code":"8","name":"Băcănie","slug":"8-ceva-sarat"},{"code":"802","name":"Conserve","slug":"802-conserve"},{"code":"80206","name":"Conserve cu mâncare gătită","slug":"80206-conserve-cu-mancare-gatita"},{"code":"100001494","name":"Zacuscă bulgărească 265g","slug":"100001494-inedit-zacusca-bulgareasca-265g"}],"activePromotion":{"code":"special-produse-vegane-mar23","name":"Preț redus","targetQuantity":null},"saveMe":null,"labels":[{"type":"v1","items":[{"text":"-10%","backgroundColor":"#FF9903","textColor":"#FFFFFF"}]}],"geniusPrice":null,"geniusUnitPricePerLabel":null,"banner":{"text":"Super preț","textColor":"#FF0000","bgColor":"#FFF2EC","icon":null,"link":"https://www.freshful.ro/oferte/special-produse-vegane-mar23","type":"promo","analyticsEventType":"select_promotion","analyticsEventPayload":{"promotion_id":"special-produse-vegane-mar23","promotion_name":"Și bun, și de post"}},"discountLabel":"Economisești 10%","geniusDiscountLabel":null,"badge":null},{"code":"100091627","variantCode":"5941891400522","name":"Zacuscă de vinete 350g","slug":"100091627-razvan-zacusca-de-vinete-350g","unitPriceLabel":"57,61 Lei/kg","brand":"Răzvan","brandCode":"1126","brandFilterCode":"razvan-b1127","sku":"100091627","price":21.89,"originalPrice":null,"currencyCode":"RON","currency":"Lei","image":{"thumbnail":{"default":"https://cdn.freshful.ro/media/cache/sylius_shop_product_thumbnail/24/e2/567a63c887323a6f93726834d4a5.jpg"},"large":{"default":"https://cdn.freshful.ro/media/cache/freshful_large/24/e2/567a63c887323a6f93726834d4a5.jpg"},"extralarge":{"default":"https://cdn.freshful.ro/media/cache/sylius_shop_product_original/24/e2/567a63c887323a6f93726834d4a5.jpg"}},"label":{"text":"Mici producători","backgroundColor":"#7B61FF","textColor":"#FFFFFF"},"tags":[],"isAvailable":true,"maxAvailableQuantity":79,"maxAllowedQuantity":100,"breadcrumbs":[{"code":"8","name":"Băcănie","slug":"8-ceva-sarat"},{"code":"802","name":"Conserve","slug":"802-conserve"},{"code":"80206","name":"Conserve cu mâncare gătită","slug":"80206-conserve-cu-mancare-gatita"},{"code":"100091627","name":"Zacuscă de vinete 350g","slug":"100091627-razvan-zacusca-de-vinete-350g"}],"activePromotion":null,"saveMe":null,"labels":[{"type":"v1","items":[{"text":"Mici producători","backgroundColor":"#7B61FF","textColor":"#FFFFFF"}]}],"geniusPrice":null,"geniusUnitPricePerLabel":null,"banner":null,"discountLabel":null,"geniusDiscountLabel":null,"badge":null},{"code":"100091628","variantCode":"5941891400546","name":"Zacuscă cu ghebe 350g","slug":"100091628-razvan-zacusca-cu-ghebe-350g","unitPriceLabel":"57,61 Lei/kg","brand":"Răzvan","brandCode":"1126","brandFilterCode":"razvan-b1127","sku":"100091628","price":21.89,"originalPrice":null,"currencyCode":"RON","currency":"Lei","image":{"thumbnail":{"default":"https://cdn.freshful.ro/media/cache/sylius_shop_product_thumbnail/c0/3c/4379f933816545de61cba3ce6b5a.jpg"},"large":{"default":"https://cdn.freshful.ro/media/cache/freshful_large/c0/3c/4379f933816545de61cba3ce6b5a.jpg"},"extralarge":{"default":"https://cdn.freshful.ro/media/cache/sylius_shop_product_original/c0/3c/4379f933816545de61cba3ce6b5a.jpg"}},"label":{"text":"Mici producători","backgroundColor":"#7B61FF","textColor":"#FFFFFF"},"tags":[],"isAvailable":true,"maxAvailableQuantity":100,"maxAllowedQuantity":100,"breadcrumbs":[{"code":"8","name":"Băcănie","slug":"8-ceva-sarat"},{"code":"802","name":"Conserve","slug":"802-conserve"},{"code":"80206","name":"Conserve cu mâncare gătită","slug":"80206-conserve-cu-mancare-gatita"},{"code":"100091628","name":"Zacuscă cu ghebe 350g","slug":"100091628-razvan-zacusca-cu-ghebe-350g"}],"activePromotion":null,"saveMe":null,"labels":[{"type":"v1","items":[{"text":"Mici producători","backgroundColor":"#7B61FF","textColor":"#FFFFFF"}]}],"geniusPrice":null,"geniusUnitPricePerLabel":null,"banner":null,"discountLabel":null,"geniusDiscountLabel":null,"badge":null},{"code":"100150841","variantCode":"100150841","name":"Zacuscă de vinete 320g ","slug":"100150841-raureni-zacusca-de-vinete-320g","unitPriceLabel":"36,84 Lei/kg","brand":"Râureni","brandCode":"772","brandFilterCode":"raureni-b773","sku":"100150841","price":11.79,"originalPrice":null,"currencyCode":"RON","currency":"Lei","image":{"thumbnail":{"default":"https://cdn.freshful.ro/media/cache/sylius_shop_product_thumbnail/68/3b/f018a54e2aeb6ff647a5b299d7b3.jpg"},"large":{"default":"https://cdn.freshful.ro/media/cache/freshful_large/68/3b/f018a54e2aeb6ff647a5b299d7b3.jpg"},"extralarge":{"default":"https://cdn.freshful.ro/media/cache/sylius_shop_product_original/68/3b/f018a54e2aeb6ff647a5b299d7b3.jpg"}},"label":null,"tags":[{"type":"MadeInRomania","text":"Made In Romania","icon":"https://cdn.freshful.ro/assets/product_tags/made_in_romania.svg","iconPng":"https://cdn.freshful.ro/assets/product_tags/made_in_romania.png","backgroundColor":"#EDF2FD","textColor":"#1653CA"}],"isAvailable":true,"maxAvailableQuantity":48,"maxAllowedQuantity":100,"breadcrumbs":[{"code":"8","name":"Băcănie","slug":"8-ceva-sarat"},{"code":"802","name":"Conserve","slug":"802-conserve"},{"code":"80206","name":"Conserve cu mâncare gătită","slug":"80206-conserve-cu-mancare-gatita"},{"code":"100150841","name":"Zacuscă de vinete 320g ","slug":"100150841-raureni-zacusca-de-vinete-320g"}],"activePromotion":null,"saveMe":null,"labels":[],"geniusPrice":null,"geniusUnitPricePerLabel":null,"banner":null,"discountLabel":null,"geniusDiscountLabel":null,"badge":null},{"code":"100092780","variantCode":"5941466001130","name":"Zacuscă de vinete coapte 300g","slug":"100092780-olympia-zacusca-de-vinete-coapte-300g","unitPriceLabel":"24,81 Lei/buc","brand":"Olympia","brandCode":"243","brandFilterCode":"olympia-b244","sku":"100092780","price":7.69,"originalPrice":null,"currencyCode":"RON","currency":"Lei","image":{"thumbnail":{"default":"https://cdn.freshful.ro/media/cache/sylius_shop_product_thumbnail/e4/13/36fc3002dc5e323a3000c7c6b316.jpg"},"large":{"default":"https://cdn.freshful.ro/media/cache/freshful_large/e4/13/36fc3002dc5e323a3000c7c6b316.jpg"},"extralarge":{"default":"https://cdn.freshful.ro/media/cache/sylius_shop_product_original/e4/13/36fc3002dc5e323a3000c7c6b316.jpg"}},"label":null,"tags":[],"isAvailable":true,"maxAvailableQuantity":15,"maxAllowedQuantity":100,"breadcrumbs":[{"code":"8","name":"Băcănie","slug":"8-ceva-sarat"},{"code":"802","name":"Conserve","slug":"802-conserve"},{"code":"80206","name":"Conserve cu mâncare gătită","slug":"80206-conserve-cu-mancare-gatita"},{"code":"100092780","name":"Zacuscă de vinete coapte 300g","slug":"100092780-olympia-zacusca-de-vinete-coapte-300g"}],"activePromotion":null,"saveMe":null,"labels":[],"geniusPrice":null,"geniusUnitPricePerLabel":null,"banner":null,"discountLabel":null,"geniusDiscountLabel":null,"badge":null},{"code":"100150842","variantCode":"100150842","name":"Zacuscă de vinete cu hribi 320g","slug":"100150842-raureni-zacusca-de-vinete-cu-hribi-320g","unitPriceLabel":"36,84 Lei/kg","brand":"Râureni","brandCode":"772","brandFilterCode":"raureni-b773","sku":"100150842","price":11.79,"originalPrice":null,"currencyCode":"RON","currency":"Lei","image":{"thumbnail":{"default":"https://cdn.freshful.ro/media/cache/sylius_shop_product_thumbnail/fb/e3/e40b2d217086444ae58aa50102a5.jpg"},"large":{"default":"https://cdn.freshful.ro/media/cache/freshful_large/fb/e3/e40b2d217086444ae58aa50102a5.jpg"},"extralarge":{"default":"https://cdn.freshful.ro/media/cache/sylius_shop_product_original/fb/e3/e40b2d217086444ae58aa50102a5.jpg"}},"label":null,"tags":[{"type":"MadeInRomania","text":"Made In Romania","icon":"https://cdn.freshful.ro/assets/product_tags/made_in_romania.svg","iconPng":"https://cdn.freshful.ro/assets/product_tags/made_in_romania.png","backgroundColor":"#EDF2FD","textColor":"#1653CA"}],"isAvailable":true,"maxAvailableQuantity":36,"maxAllowedQuantity":100,"breadcrumbs":[{"code":"8","name":"Băcănie","slug":"8-ceva-sarat"},{"code":"802","name":"Conserve","slug":"802-conserve"},{"code":"80206","name":"Conserve cu mâncare gătită","slug":"80206-conserve-cu-mancare-gatita"},{"code":"100150842","name":"Zacuscă de vinete cu hribi 320g","slug":"100150842-raureni-zacusca-de-vinete-cu-hribi-320g"}],"activePromotion":null,"saveMe":null,"labels":[],"geniusPrice":null,"geniusUnitPricePerLabel":null,"banner":null,"discountLabel":null,"geniusDiscountLabel":null,"badge":null},{"code":"100151246","variantCode":"100151246","name":"Zacuscă cu vinete de altădată 300g","slug":"100151246-topoloveni-zacusca-cu-vinete-de-altadata-300g","unitPriceLabel":"63,73 Lei/kg","brand":"Topoloveni","brandCode":"1191","brandFilterCode":"topoloveni-b1192","sku":"100151246","price":19.12,"originalPrice":null,"currencyCode":"RON","currency":"Lei","image":{"thumbnail":{"default":"https://cdn.freshful.ro/media/cache/sylius_shop_product_thumbnail/1f/47/31537bf0076b1201bfc6b91133c9.jpg"},"large":{"default":"https://cdn.freshful.ro/media/cache/freshful_large/1f/47/31537bf0076b1201bfc6b91133c9.jpg"},"extralarge":{"default":"https://cdn.freshful.ro/media/cache/sylius_shop_product_original/1f/47/31537bf0076b1201bfc6b91133c9.jpg"}},"label":{"text":"Nou","backgroundColor":"#00C3FF","textColor":"#FFFFFF"},"tags":[{"type":"NoPreservatives","text":"Fara conservanti","icon":"https://cdn.freshful.ro/assets/product_tags/fara_conservanti.svg","iconPng":"https://cdn.freshful.ro/assets/product_tags/fara_conservanti.png","backgroundColor":"#F0F2FF","textColor":"#7889DD"}],"isAvailable":true,"maxAvailableQuantity":6,"maxAllowedQuantity":100,"breadcrumbs":[{"code":"8","name":"Băcănie","slug":"8-ceva-sarat"},{"code":"802","name":"Conserve","slug":"802-conserve"},{"code":"80206","name":"Conserve cu mâncare gătită","slug":"80206-conserve-cu-mancare-gatita"},{"code":"100151246","name":"Zacuscă cu vinete de altădată 300g","slug":"100151246-topoloveni-zacusca-cu-vinete-de-altadata-300g"}],"activePromotion":null,"saveMe":null,"labels":[{"type":"v1","items":[{"text":"Nou","backgroundColor":"#00C3FF","textColor":"#FFFFFF"}]}],"geniusPrice":null,"geniusUnitPricePerLabel":null,"banner":null,"discountLabel":null,"geniusDiscountLabel":null,"badge":null},{"code":"100123803","variantCode":"100123803","name":"Zacuscă de vinete 300g","slug":"100123803-poiana-fermecata-zacusca-de-vinete-300g","unitPriceLabel":"79,97 Lei/kg","brand":"Poiana Fermecată","brandCode":"1870","brandFilterCode":"poiana-fermecata-b1877","sku":"100123803","price":23.99,"originalPrice":null,"currencyCode":"RON","currency":"Lei","image":{"thumbnail":{"default":"https://cdn.freshful.ro/media/cache/sylius_shop_product_thumbnail/a2/bd/9af70855cf312a79dd37e9d780b9.jpg"},"large":{"default":"https://cdn.freshful.ro/media/cache/freshful_large/a2/bd/9af70855cf312a79dd37e9d780b9.jpg"},"extralarge":{"default":"https://cdn.freshful.ro/media/cache/sylius_shop_product_original/a2/bd/9af70855cf312a79dd37e9d780b9.jpg"}},"label":{"text":"Mici producători","backgroundColor":"#7B61FF","textColor":"#FFFFFF"},"tags":[{"type":"NoE","text":"Fara E-uri","icon":"https://cdn.freshful.ro/assets/product_tags/fara_euri.svg","iconPng":"https://cdn.freshful.ro/assets/product_tags/fara_euri.png","backgroundColor":"#FCF5DF","textColor":"#CAA316"},{"type":"MadeInRomania","text":"Made In Romania","icon":"https://cdn.freshful.ro/assets/product_tags/made_in_romania.svg","iconPng":"https://cdn.freshful.ro/assets/product_tags/made_in_romania.png","backgroundColor":"#EDF2FD","textColor":"#1653CA"},{"type":"NoPreservatives","text":"Fara conservanti","icon":"https://cdn.freshful.ro/assets/product_tags/fara_conservanti.svg","iconPng":"https://cdn.freshful.ro/assets/product_tags/fara_conservanti.png","backgroundColor":"#F0F2FF","textColor":"#7889DD"}],"isAvailable":true,"maxAvailableQuantity":62,"maxAllowedQuantity":100,"breadcrumbs":[{"code":"8","name":"Băcănie","slug":"8-ceva-sarat"},{"code":"802","name":"Conserve","slug":"802-conserve"},{"code":"80206","name":"Conserve cu mâncare gătită","slug":"80206-conserve-cu-mancare-gatita"},{"code":"100123803","name":"Zacuscă de vinete 300g","slug":"100123803-poiana-fermecata-zacusca-de-vinete-300g"}],"activePromotion":null,"saveMe":null,"labels":[{"type":"v1","items":[{"text":"Mici producători","backgroundColor":"#7B61FF","textColor":"#FFFFFF"}]}],"geniusPrice":null,"geniusUnitPricePerLabel":null,"banner":null,"discountLabel":null,"geniusDiscountLabel":null,"badge":null}],"filters":{"countSelected":0,"items":[{"code":"promotion","name":"Promoții","countSelected":0,"values":[{"code":"special-produse-vegane-mar23","name":"Și bun, și de post","isSelected":false,"count":3}]},{"code":"brand","name":"Brand","countSelected":0,"values":[{"code":"ardealul-b264","name":"Ardealul","isSelected":false,"count":1},{"code":"bucegi-b901","name":"Bucegi","isSelected":false,"count":2},{"code":"bucataria-brancoveneasca-b1615","name":"Bucătăria Brâncovenească","isSelected":false,"count":5},{"code":"bunatati-de-topoloveni-b1523","name":"Bunătăți de Topoloveni","isSelected":false,"count":1},{"code":"campbell-s-b2665","name":"Campbell’S","isSelected":false,"count":1},{"code":"capricii-si-delicii-b612","name":"Capricii și Delicii","isSelected":false,"count":21},{"code":"catinca-b613","name":"Catinca","isSelected":false,"count":2},{"code":"delirs-b965","name":"Delirs","isSelected":false,"count":4},{"code":"gradinile-doamnei-b2303","name":"Grădinile Doamnei","isSelected":false,"count":2},{"code":"inedit-b57","name":"Inedit","isSelected":false,"count":3},{"code":"inzersdorfer-b1107","name":"Inzersdorfer","isSelected":false,"count":1},{"code":"mandy-b1522","name":"Mandy","isSelected":false,"count":8},{"code":"mica-ilinca-b1526","name":"Mica Ilinca","isSelected":false,"count":10},{"code":"naturos-b136","name":"Naturos","isSelected":false,"count":5},{"code":"olympia-b244","name":"Olympia","isSelected":false,"count":5},{"code":"pamapol-b139","name":"Pamapol","isSelected":false,"count":3},{"code":"pivnita-bunicii-b2310","name":"Pivnița Bunicii","isSelected":false,"count":3},{"code":"podravka-b299","name":"Podravka","isSelected":false,"count":2},{"code":"pofta-focului-b1566","name":"Pofta Focului","isSelected":false,"count":3},{"code":"poiana-fermecata-b1877","name":"Poiana Fermecată","isSelected":false,"count":2},{"code":"roadele-muntilor-b2722","name":"Roadele Munților","isSelected":false,"count":2},{"code":"raureni-b773","name":"Râureni","isSelected":false,"count":6},{"code":"razvan-b1127","name":"Răzvan","isSelected":false,"count":4},{"code":"sadu-b1031","name":"Sadu","isSelected":false,"count":7},{"code":"scandia-sibiu-b1032","name":"Scandia Sibiu","isSelected":false,"count":16},{"code":"sorella-b2969","name":"Sorella","isSelected":false,"count":3},{"code":"topoloveni-b1192","name":"Topoloveni","isSelected":false,"count":6},{"code":"unfished-b614","name":"Unfished","isSelected":false,"count":1},{"code":"zanae-b504","name":"Zanae","isSelected":false,"count":8}]},{"code":"diet_lifestyle","name":"Dietă și lifestyle","countSelected":0,"values":[{"code":"fara-conservanti-a37","name":"Fara conservanti","isSelected":false,"count":74},{"code":"fara-e-uri-a84","name":"Fara E-uri","isSelected":false,"count":42},{"code":"fara-gluten-a16","name":"Fara gluten","isSelected":false,"count":3},{"code":"made-in-romania-a85","name":"Made In Romania","isSelected":false,"count":14},{"code":"natural-a27","name":"Natural","isSelected":false,"count":5},{"code":"vegan-a24","name":"Vegan","isSelected":false,"count":13}]}]},"orderBy":[{"field":"price","direction":"asc","name":"Preț crescător","isSelected":false},{"field":"price","direction":"desc","name":"Preț descrescător","isSelected":false},{"field":"popularity","direction":"desc","name":"Cele mai populare","isSelected":true},{"field":"category","direction":"asc","name":"Categorie","isSelected":false}],"metaTitle":"Conserve cu mâncare gătită - Gamă variată","metaDescription":"Vrei Conserve cu mâncare gătită? Alege dintr-o gamă variată. Comanzi simplu și ai livrare rapidă, calitate și prospețime. Hai pe Freshful.ro","metaKeywords":null,"banners":[]}}