{"type":"subcategory","payload":{"analyticsListId":"category_80201-conserve-de-legume","analyticsListName":"Category - Conserve de legume","name":"Conserve de legume","slug":"80201-conserve-de-legume","image":null,"breadcrumbs":[{"code":"8","name":"Băcănie","slug":"8-ceva-sarat"},{"code":"802","name":"Conserve","slug":"802-conserve"},{"code":"80201","name":"Conserve de legume","slug":"80201-conserve-de-legume"}],"slots":[],"page":1,"limit":10,"pages":25,"count":242,"siblings":[{"name":"Paste, orez și legume uscate","slug":"801-paste-orez-si-legume-uscate","selected":false},{"name":"Conserve","slug":"802-conserve","selected":true},{"name":"Condimente și sosuri","slug":"803-condimente-si-sosuri","selected":false},{"name":"Ulei și oțet","slug":"804-ulei-si-otet","selected":false},{"name":"De ronțăit","slug":"805-aperitive-sarate","selected":false},{"name":"Făină, zahăr și produse gourmet","slug":"faina-zahar-si-produse-gourmet","selected":false}],"children":[{"name":"Toate produsele","slug":"802-conserve","selected":false},{"name":"Conserve de legume","slug":"80201-conserve-de-legume","selected":true},{"name":"Conserve de măsline","slug":"80202-conserve-de-masline","selected":false},{"name":"Conserve de murături","slug":"80203-conserve-de-muraturi","selected":false},{"name":"Conserve de pește","slug":"80204-conserve-de-peste","selected":false},{"name":"Conserve de carne","slug":"80205-conserve-de-carne","selected":false},{"name":"Conserve cu mâncare gătită","slug":"80206-conserve-cu-mancare-gatita","selected":false}],"products":[{"code":"100001526","variantCode":"5941132015447","name":"Pastă vegetală din boabe de soia cu măsline 100g","slug":"100001526-inedit-pasta-vegetala-din-boabe-de-soia-cu-masline-100g","unitPriceLabel":"28,9 Lei/kg","brand":"Inedit","brandCode":"60","brandFilterCode":"inedit-b57","sku":"100001526","price":2.89,"originalPrice":3.45,"currencyCode":"RON","currency":"Lei","image":{"thumbnail":{"default":"https://cdn.freshful.ro/media/cache/sylius_shop_product_thumbnail/22/c5/ce1a5e9720cc5e60cd5b6196b80a.jpg"},"large":{"default":"https://cdn.freshful.ro/media/cache/freshful_large/22/c5/ce1a5e9720cc5e60cd5b6196b80a.jpg"},"extralarge":{"default":"https://cdn.freshful.ro/media/cache/sylius_shop_product_original/22/c5/ce1a5e9720cc5e60cd5b6196b80a.jpg"}},"label":{"text":"-16%","backgroundColor":"#FF9903","textColor":"#FFFFFF"},"tags":[{"type":"vegan","text":"Vegan","icon":"https://cdn.freshful.ro/assets/product_tags/vegan.svg","iconPng":"https://cdn.freshful.ro/assets/product_tags/vegan.png","backgroundColor":"#ECF9F8","textColor":"#33A39C"}],"isAvailable":true,"maxAvailableQuantity":6,"maxAllowedQuantity":6,"breadcrumbs":[{"code":"8","name":"Băcănie","slug":"8-ceva-sarat"},{"code":"802","name":"Conserve","slug":"802-conserve"},{"code":"80201","name":"Conserve de legume","slug":"80201-conserve-de-legume"},{"code":"100001526","name":"Pastă vegetală din boabe de soia cu măsline 100g","slug":"100001526-inedit-pasta-vegetala-din-boabe-de-soia-cu-masline-100g"}],"activePromotion":{"code":"special-produse-vegane-mar23","name":"Preț redus","targetQuantity":null},"saveMe":null,"labels":[{"type":"v1","items":[{"text":"-16%","backgroundColor":"#FF9903","textColor":"#FFFFFF"}]}],"geniusPrice":null,"geniusUnitPricePerLabel":null,"banner":{"text":"Super preț","textColor":"#FF0000","bgColor":"#FFF2EC","icon":null,"link":"https://www.freshful.ro/oferte/special-produse-vegane-mar23","type":"promo","analyticsEventType":"select_promotion","analyticsEventPayload":{"promotion_id":"special-produse-vegane-mar23","promotion_name":"Și bun, și de post"}},"discountLabel":"Economisești 16%","geniusDiscountLabel":null,"badge":null},{"code":"100075530","variantCode":"8690804329678","name":"Roșii uscate în ulei 650g","slug":"100075530-suntat-rosii-uscate-in-ulei-650g","unitPriceLabel":"49,22 Lei/kg","brand":"Suntat","brandCode":"966","brandFilterCode":"suntat-b980","sku":"100075530","price":31.99,"originalPrice":39.99,"currencyCode":"RON","currency":"Lei","image":{"thumbnail":{"default":"https://cdn.freshful.ro/media/cache/sylius_shop_product_thumbnail/50/a3/82d2c4db3c6463afa6efb79c3baf.jpg"},"large":{"default":"https://cdn.freshful.ro/media/cache/freshful_large/50/a3/82d2c4db3c6463afa6efb79c3baf.jpg"},"extralarge":{"default":"https://cdn.freshful.ro/media/cache/sylius_shop_product_original/50/a3/82d2c4db3c6463afa6efb79c3baf.jpg"}},"label":{"text":"-20%","backgroundColor":"#FF9903","textColor":"#FFFFFF"},"tags":[],"isAvailable":true,"maxAvailableQuantity":6,"maxAllowedQuantity":6,"breadcrumbs":[{"code":"8","name":"Băcănie","slug":"8-ceva-sarat"},{"code":"802","name":"Conserve","slug":"802-conserve"},{"code":"80201","name":"Conserve de legume","slug":"80201-conserve-de-legume"},{"code":"100075530","name":"Roșii uscate în ulei 650g","slug":"100075530-suntat-rosii-uscate-in-ulei-650g"}],"activePromotion":{"code":"special-produse-vegane-mar23","name":"Preț redus","targetQuantity":null},"saveMe":null,"labels":[{"type":"v1","items":[{"text":"-20%","backgroundColor":"#FF9903","textColor":"#FFFFFF"}]}],"geniusPrice":null,"geniusUnitPricePerLabel":null,"banner":{"text":"Super preț","textColor":"#FF0000","bgColor":"#FFF2EC","icon":null,"link":"https://www.freshful.ro/oferte/special-produse-vegane-mar23","type":"promo","analyticsEventType":"select_promotion","analyticsEventPayload":{"promotion_id":"special-produse-vegane-mar23","promotion_name":"Și bun, și de post"}},"discountLabel":"Economisești 20%","geniusDiscountLabel":null,"badge":null},{"code":"100001521","variantCode":"5941132015409","name":"Pastă vegetală din boabe de soia, picant, 100g","slug":"100001521-inedit-pasta-vegetala-din-boabe-de-soia-picant-100g","unitPriceLabel":"28,9 Lei/kg","brand":"Inedit","brandCode":"60","brandFilterCode":"inedit-b57","sku":"100001521","price":2.89,"originalPrice":3.29,"currencyCode":"RON","currency":"Lei","image":{"thumbnail":{"default":"https://cdn.freshful.ro/media/cache/sylius_shop_product_thumbnail/61/22/884a41030b43455f55222ac41702.jpg"},"large":{"default":"https://cdn.freshful.ro/media/cache/freshful_large/61/22/884a41030b43455f55222ac41702.jpg"},"extralarge":{"default":"https://cdn.freshful.ro/media/cache/sylius_shop_product_original/61/22/884a41030b43455f55222ac41702.jpg"}},"label":{"text":"-12%","backgroundColor":"#FF9903","textColor":"#FFFFFF"},"tags":[{"type":"vegan","text":"Vegan","icon":"https://cdn.freshful.ro/assets/product_tags/vegan.svg","iconPng":"https://cdn.freshful.ro/assets/product_tags/vegan.png","backgroundColor":"#ECF9F8","textColor":"#33A39C"}],"isAvailable":true,"maxAvailableQuantity":2,"maxAllowedQuantity":6,"breadcrumbs":[{"code":"8","name":"Băcănie","slug":"8-ceva-sarat"},{"code":"802","name":"Conserve","slug":"802-conserve"},{"code":"80201","name":"Conserve de legume","slug":"80201-conserve-de-legume"},{"code":"100001521","name":"Pastă vegetală din boabe de soia, picant, 100g","slug":"100001521-inedit-pasta-vegetala-din-boabe-de-soia-picant-100g"}],"activePromotion":{"code":"special-produse-vegane-mar23","name":"Preț redus","targetQuantity":null},"saveMe":null,"labels":[{"type":"v1","items":[{"text":"-12%","backgroundColor":"#FF9903","textColor":"#FFFFFF"}]}],"geniusPrice":null,"geniusUnitPricePerLabel":null,"banner":{"text":"Super preț","textColor":"#FF0000","bgColor":"#FFF2EC","icon":null,"link":"https://www.freshful.ro/oferte/special-produse-vegane-mar23","type":"promo","analyticsEventType":"select_promotion","analyticsEventPayload":{"promotion_id":"special-produse-vegane-mar23","promotion_name":"Și bun, și de post"}},"discountLabel":"Economisești 12%","geniusDiscountLabel":null,"badge":null},{"code":"100001525","variantCode":"5941132015423","name":"Pastă vegetală din boabe de soia cu ciuperci 100g","slug":"100001525-inedit-pasta-vegetala-din-boabe-de-soia-cu-ciuperci-100g","unitPriceLabel":"28,9 Lei/kg","brand":"Inedit","brandCode":"60","brandFilterCode":"inedit-b57","sku":"100001525","price":2.89,"originalPrice":3.39,"currencyCode":"RON","currency":"Lei","image":{"thumbnail":{"default":"https://cdn.freshful.ro/media/cache/sylius_shop_product_thumbnail/c3/74/5a64882d8c7e64563cbc1d194de7.jpg"},"large":{"default":"https://cdn.freshful.ro/media/cache/freshful_large/c3/74/5a64882d8c7e64563cbc1d194de7.jpg"},"extralarge":{"default":"https://cdn.freshful.ro/media/cache/sylius_shop_product_original/c3/74/5a64882d8c7e64563cbc1d194de7.jpg"}},"label":{"text":"-14%","backgroundColor":"#FF9903","textColor":"#FFFFFF"},"tags":[{"type":"vegan","text":"Vegan","icon":"https://cdn.freshful.ro/assets/product_tags/vegan.svg","iconPng":"https://cdn.freshful.ro/assets/product_tags/vegan.png","backgroundColor":"#ECF9F8","textColor":"#33A39C"}],"isAvailable":true,"maxAvailableQuantity":6,"maxAllowedQuantity":6,"breadcrumbs":[{"code":"8","name":"Băcănie","slug":"8-ceva-sarat"},{"code":"802","name":"Conserve","slug":"802-conserve"},{"code":"80201","name":"Conserve de legume","slug":"80201-conserve-de-legume"},{"code":"100001525","name":"Pastă vegetală din boabe de soia cu ciuperci 100g","slug":"100001525-inedit-pasta-vegetala-din-boabe-de-soia-cu-ciuperci-100g"}],"activePromotion":{"code":"special-produse-vegane-mar23","name":"Preț redus","targetQuantity":null},"saveMe":null,"labels":[{"type":"v1","items":[{"text":"-14%","backgroundColor":"#FF9903","textColor":"#FFFFFF"}]}],"geniusPrice":null,"geniusUnitPricePerLabel":null,"banner":{"text":"Super preț","textColor":"#FF0000","bgColor":"#FFF2EC","icon":null,"link":"https://www.freshful.ro/oferte/special-produse-vegane-mar23","type":"promo","analyticsEventType":"select_promotion","analyticsEventPayload":{"promotion_id":"special-produse-vegane-mar23","promotion_name":"Și bun, și de post"}},"discountLabel":"Economisești 14%","geniusDiscountLabel":null,"badge":null},{"code":"100001508","variantCode":"5941132015461","name":"Pastă tartinabilă pe bază de drojdie cu ardei 100g","slug":"100001508-inedit-pasta-tartinabila-pe-baza-de-drojdie-cu-ardei-100g","unitPriceLabel":"44,9 Lei/kg","brand":"Inedit","brandCode":"60","brandFilterCode":"inedit-b57","sku":"100001508","price":4.49,"originalPrice":5.05,"currencyCode":"RON","currency":"Lei","image":{"thumbnail":{"default":"https://cdn.freshful.ro/media/cache/sylius_shop_product_thumbnail/40/08/e1b9b10fb8585eace14987a8a75e.jpg"},"large":{"default":"https://cdn.freshful.ro/media/cache/freshful_large/40/08/e1b9b10fb8585eace14987a8a75e.jpg"},"extralarge":{"default":"https://cdn.freshful.ro/media/cache/sylius_shop_product_original/40/08/e1b9b10fb8585eace14987a8a75e.jpg"}},"label":{"text":"-11%","backgroundColor":"#FF9903","textColor":"#FFFFFF"},"tags":[{"type":"vegan","text":"Vegan","icon":"https://cdn.freshful.ro/assets/product_tags/vegan.svg","iconPng":"https://cdn.freshful.ro/assets/product_tags/vegan.png","backgroundColor":"#ECF9F8","textColor":"#33A39C"}],"isAvailable":true,"maxAvailableQuantity":6,"maxAllowedQuantity":6,"breadcrumbs":[{"code":"8","name":"Băcănie","slug":"8-ceva-sarat"},{"code":"802","name":"Conserve","slug":"802-conserve"},{"code":"80201","name":"Conserve de legume","slug":"80201-conserve-de-legume"},{"code":"100001508","name":"Pastă tartinabilă pe bază de drojdie cu ardei 100g","slug":"100001508-inedit-pasta-tartinabila-pe-baza-de-drojdie-cu-ardei-100g"}],"activePromotion":{"code":"special-produse-vegane-mar23","name":"Preț redus","targetQuantity":null},"saveMe":null,"labels":[{"type":"v1","items":[{"text":"-11%","backgroundColor":"#FF9903","textColor":"#FFFFFF"}]}],"geniusPrice":null,"geniusUnitPricePerLabel":null,"banner":{"text":"Super preț","textColor":"#FF0000","bgColor":"#FFF2EC","icon":null,"link":"https://www.freshful.ro/oferte/special-produse-vegane-mar23","type":"promo","analyticsEventType":"select_promotion","analyticsEventPayload":{"promotion_id":"special-produse-vegane-mar23","promotion_name":"Și bun, și de post"}},"discountLabel":"Economisești 11%","geniusDiscountLabel":null,"badge":null},{"code":"100001527","variantCode":"5941132015508","name":"Pastă tartinabilă pe bază de drojdie cu verdeață 100g","slug":"100001527-inedit-pasta-tartinabila-pe-baza-de-drojdie-cu-verdeata-100g","unitPriceLabel":"44,9 Lei/kg","brand":"Inedit","brandCode":"60","brandFilterCode":"inedit-b57","sku":"100001527","price":4.49,"originalPrice":5.05,"currencyCode":"RON","currency":"Lei","image":{"thumbnail":{"default":"https://cdn.freshful.ro/media/cache/sylius_shop_product_thumbnail/fc/ce/3231eb9fd48939af1f0b30d18ce8.jpg"},"large":{"default":"https://cdn.freshful.ro/media/cache/freshful_large/fc/ce/3231eb9fd48939af1f0b30d18ce8.jpg"},"extralarge":{"default":"https://cdn.freshful.ro/media/cache/sylius_shop_product_original/fc/ce/3231eb9fd48939af1f0b30d18ce8.jpg"}},"label":{"text":"-11%","backgroundColor":"#FF9903","textColor":"#FFFFFF"},"tags":[{"type":"vegan","text":"Vegan","icon":"https://cdn.freshful.ro/assets/product_tags/vegan.svg","iconPng":"https://cdn.freshful.ro/assets/product_tags/vegan.png","backgroundColor":"#ECF9F8","textColor":"#33A39C"}],"isAvailable":true,"maxAvailableQuantity":6,"maxAllowedQuantity":6,"breadcrumbs":[{"code":"8","name":"Băcănie","slug":"8-ceva-sarat"},{"code":"802","name":"Conserve","slug":"802-conserve"},{"code":"80201","name":"Conserve de legume","slug":"80201-conserve-de-legume"},{"code":"100001527","name":"Pastă tartinabilă pe bază de drojdie cu verdeață 100g","slug":"100001527-inedit-pasta-tartinabila-pe-baza-de-drojdie-cu-verdeata-100g"}],"activePromotion":{"code":"special-produse-vegane-mar23","name":"Preț redus","targetQuantity":null},"saveMe":null,"labels":[{"type":"v1","items":[{"text":"-11%","backgroundColor":"#FF9903","textColor":"#FFFFFF"}]}],"geniusPrice":null,"geniusUnitPricePerLabel":null,"banner":{"text":"Super preț","textColor":"#FF0000","bgColor":"#FFF2EC","icon":null,"link":"https://www.freshful.ro/oferte/special-produse-vegane-mar23","type":"promo","analyticsEventType":"select_promotion","analyticsEventPayload":{"promotion_id":"special-produse-vegane-mar23","promotion_name":"Și bun, și de post"}},"discountLabel":"Economisești 11%","geniusDiscountLabel":null,"badge":null},{"code":"100001522","variantCode":"100001522","name":"Pastă tartinabilă pe bază de drojdie cu ciuperci 100g","slug":"100001522-inedit-pasta-tartinabila-pe-baza-de-drojdie-cu-ciuperci-100g","unitPriceLabel":"44,9 Lei/kg","brand":"Inedit","brandCode":"60","brandFilterCode":"inedit-b57","sku":"100001522","price":4.49,"originalPrice":4.95,"currencyCode":"RON","currency":"Lei","image":{"thumbnail":{"default":"https://cdn.freshful.ro/media/cache/sylius_shop_product_thumbnail/2a/07/9d39f120416f68e69112f01c2c33.jpg"},"large":{"default":"https://cdn.freshful.ro/media/cache/freshful_large/2a/07/9d39f120416f68e69112f01c2c33.jpg"},"extralarge":{"default":"https://cdn.freshful.ro/media/cache/sylius_shop_product_original/2a/07/9d39f120416f68e69112f01c2c33.jpg"}},"label":{"text":"-9%","backgroundColor":"#FF9903","textColor":"#FFFFFF"},"tags":[{"type":"vegan","text":"Vegan","icon":"https://cdn.freshful.ro/assets/product_tags/vegan.svg","iconPng":"https://cdn.freshful.ro/assets/product_tags/vegan.png","backgroundColor":"#ECF9F8","textColor":"#33A39C"}],"isAvailable":true,"maxAvailableQuantity":6,"maxAllowedQuantity":6,"breadcrumbs":[{"code":"8","name":"Băcănie","slug":"8-ceva-sarat"},{"code":"802","name":"Conserve","slug":"802-conserve"},{"code":"80201","name":"Conserve de legume","slug":"80201-conserve-de-legume"},{"code":"100001522","name":"Pastă tartinabilă pe bază de drojdie cu ciuperci 100g","slug":"100001522-inedit-pasta-tartinabila-pe-baza-de-drojdie-cu-ciuperci-100g"}],"activePromotion":{"code":"special-produse-vegane-mar23","name":"Preț redus","targetQuantity":null},"saveMe":null,"labels":[{"type":"v1","items":[{"text":"-9%","backgroundColor":"#FF9903","textColor":"#FFFFFF"}]}],"geniusPrice":null,"geniusUnitPricePerLabel":null,"banner":{"text":"Super preț","textColor":"#FF0000","bgColor":"#FFF2EC","icon":null,"link":"https://www.freshful.ro/oferte/special-produse-vegane-mar23","type":"promo","analyticsEventType":"select_promotion","analyticsEventPayload":{"promotion_id":"special-produse-vegane-mar23","promotion_name":"Și bun, și de post"}},"discountLabel":"Economisești 9%","geniusDiscountLabel":null,"badge":null},{"code":"100001523","variantCode":"5941132015591","name":"Pastă tartinabilă pe bază de drojdie cu măsline 100g","slug":"100001523-inedit-pasta-tartinabila-pe-baza-de-drojdie-cu-masline-100g","unitPriceLabel":"44,9 Lei/kg","brand":"Inedit","brandCode":"60","brandFilterCode":"inedit-b57","sku":"100001523","price":4.49,"originalPrice":5.05,"currencyCode":"RON","currency":"Lei","image":{"thumbnail":{"default":"https://cdn.freshful.ro/media/cache/sylius_shop_product_thumbnail/fc/18/6779e5d4758be48fc5d2c36e4a7e.jpg"},"large":{"default":"https://cdn.freshful.ro/media/cache/freshful_large/fc/18/6779e5d4758be48fc5d2c36e4a7e.jpg"},"extralarge":{"default":"https://cdn.freshful.ro/media/cache/sylius_shop_product_original/fc/18/6779e5d4758be48fc5d2c36e4a7e.jpg"}},"label":{"text":"-11%","backgroundColor":"#FF9903","textColor":"#FFFFFF"},"tags":[{"type":"vegan","text":"Vegan","icon":"https://cdn.freshful.ro/assets/product_tags/vegan.svg","iconPng":"https://cdn.freshful.ro/assets/product_tags/vegan.png","backgroundColor":"#ECF9F8","textColor":"#33A39C"}],"isAvailable":true,"maxAvailableQuantity":6,"maxAllowedQuantity":6,"breadcrumbs":[{"code":"8","name":"Băcănie","slug":"8-ceva-sarat"},{"code":"802","name":"Conserve","slug":"802-conserve"},{"code":"80201","name":"Conserve de legume","slug":"80201-conserve-de-legume"},{"code":"100001523","name":"Pastă tartinabilă pe bază de drojdie cu măsline 100g","slug":"100001523-inedit-pasta-tartinabila-pe-baza-de-drojdie-cu-masline-100g"}],"activePromotion":{"code":"special-produse-vegane-mar23","name":"Preț redus","targetQuantity":null},"saveMe":null,"labels":[{"type":"v1","items":[{"text":"-11%","backgroundColor":"#FF9903","textColor":"#FFFFFF"}]}],"geniusPrice":null,"geniusUnitPricePerLabel":null,"banner":{"text":"Super preț","textColor":"#FF0000","bgColor":"#FFF2EC","icon":null,"link":"https://www.freshful.ro/oferte/special-produse-vegane-mar23","type":"promo","analyticsEventType":"select_promotion","analyticsEventPayload":{"promotion_id":"special-produse-vegane-mar23","promotion_name":"Și bun, și de post"}},"discountLabel":"Economisești 11%","geniusDiscountLabel":null,"badge":null},{"code":"100097204","variantCode":"8000320010118","name":"Pulpă de roșii cuburi 400g","slug":"100097204-cirio-pulpa-de-rosii-cuburi-400g","unitPriceLabel":"14,38 Lei/kg","brand":"Cirio","brandCode":"642","brandFilterCode":"cirio-b643","sku":"100097204","price":5.75,"originalPrice":null,"currencyCode":"RON","currency":"Lei","image":{"thumbnail":{"default":"https://cdn.freshful.ro/media/cache/sylius_shop_product_thumbnail/9a/17/03e63bc0cfd23419eb972e932c33.jpg"},"large":{"default":"https://cdn.freshful.ro/media/cache/freshful_large/9a/17/03e63bc0cfd23419eb972e932c33.jpg"},"extralarge":{"default":"https://cdn.freshful.ro/media/cache/sylius_shop_product_original/9a/17/03e63bc0cfd23419eb972e932c33.jpg"}},"label":null,"tags":[],"isAvailable":true,"maxAvailableQuantity":6,"maxAllowedQuantity":6,"breadcrumbs":[{"code":"8","name":"Băcănie","slug":"8-ceva-sarat"},{"code":"802","name":"Conserve","slug":"802-conserve"},{"code":"80201","name":"Conserve de legume","slug":"80201-conserve-de-legume"},{"code":"100097204","name":"Pulpă de roșii cuburi 400g","slug":"100097204-cirio-pulpa-de-rosii-cuburi-400g"}],"activePromotion":null,"saveMe":null,"labels":[],"geniusPrice":null,"geniusUnitPricePerLabel":null,"banner":null,"discountLabel":null,"geniusDiscountLabel":null,"badge":null},{"code":"100133323","variantCode":"100133323","name":"Porumb dulce 340g","slug":"100133323-raureni-porumb-dulce-340g","unitPriceLabel":"10,88 Lei/kg","brand":"Râureni","brandCode":"772","brandFilterCode":"raureni-b773","sku":"100133323","price":3.7,"originalPrice":null,"currencyCode":"RON","currency":"Lei","image":{"thumbnail":{"default":"https://cdn.freshful.ro/media/cache/sylius_shop_product_thumbnail/5e/c1/7a19aba6e8894e7c8a084e86b159.jpg"},"large":{"default":"https://cdn.freshful.ro/media/cache/freshful_large/5e/c1/7a19aba6e8894e7c8a084e86b159.jpg"},"extralarge":{"default":"https://cdn.freshful.ro/media/cache/sylius_shop_product_original/5e/c1/7a19aba6e8894e7c8a084e86b159.jpg"}},"label":null,"tags":[],"isAvailable":true,"maxAvailableQuantity":6,"maxAllowedQuantity":6,"breadcrumbs":[{"code":"8","name":"Băcănie","slug":"8-ceva-sarat"},{"code":"802","name":"Conserve","slug":"802-conserve"},{"code":"80201","name":"Conserve de legume","slug":"80201-conserve-de-legume"},{"code":"100133323","name":"Porumb dulce 340g","slug":"100133323-raureni-porumb-dulce-340g"}],"activePromotion":null,"saveMe":null,"labels":[],"geniusPrice":null,"geniusUnitPricePerLabel":null,"banner":null,"discountLabel":null,"geniusDiscountLabel":null,"badge":null}],"filters":{"countSelected":0,"items":[{"code":"promotion","name":"Promoții","countSelected":0,"values":[{"code":"special-produse-vegane-mar23","name":"Și bun, și de post","isSelected":false,"count":8}]},{"code":"brand","name":"Brand","countSelected":0,"values":[{"code":"ardealul-b264","name":"Ardealul","isSelected":false,"count":3},{"code":"arrigoni-b2710","name":"Arrigoni","isSelected":false,"count":10},{"code":"bonduelle-b202","name":"Bonduelle","isSelected":false,"count":27},{"code":"bucegi-b901","name":"Bucegi","isSelected":false,"count":12},{"code":"bacanie-b1770","name":"Băcănie","isSelected":false,"count":2},{"code":"capricii-si-delicii-b612","name":"Capricii și Delicii","isSelected":false,"count":3},{"code":"cirio-b643","name":"Cirio","isSelected":false,"count":4},{"code":"contec-b3097","name":"Contec","isSelected":false,"count":1},{"code":"darinne-b2922","name":"Darinne","isSelected":false,"count":5},{"code":"daucy-b1567","name":"Daucy","isSelected":false,"count":39},{"code":"del-monte-b2397","name":"Del Monte","isSelected":false,"count":2},{"code":"globus-b1568","name":"Globus","isSelected":false,"count":4},{"code":"greci-b1627","name":"Greci","isSelected":false,"count":1},{"code":"hada-b2499","name":"Hada","isSelected":false,"count":2},{"code":"hame-select-b1902","name":"Hame Select","isSelected":false,"count":4},{"code":"heinz-b1628","name":"Heinz","isSelected":false,"count":2},{"code":"home-garden-b782","name":"Home Garden","isSelected":false,"count":22},{"code":"inedit-b57","name":"Inedit","isSelected":false,"count":7},{"code":"kaloudi-b503","name":"Kaloudi","isSelected":false,"count":2},{"code":"luna-s-premium-truffles-b1876","name":"Luna'S Premium Truffles","isSelected":false,"count":1},{"code":"lyrakis-family-b2615","name":"Lyrakis Family","isSelected":false,"count":4},{"code":"mandy-b1522","name":"Mandy","isSelected":false,"count":5},{"code":"maxim-s-b271","name":"Maxim's","isSelected":false,"count":4},{"code":"mutti-b646","name":"Mutti","isSelected":false,"count":7},{"code":"naturros-b2968","name":"Naturros","isSelected":false,"count":7},{"code":"o-green-b200","name":"O'Green","isSelected":false,"count":9},{"code":"olympia-b244","name":"Olympia","isSelected":false,"count":6},{"code":"podravka-b299","name":"Podravka","isSelected":false,"count":2},{"code":"raureni-b773","name":"Râureni","isSelected":false,"count":13},{"code":"sabarot-b1085","name":"Sabarot","isSelected":false,"count":1},{"code":"sadu-b1031","name":"Sadu","isSelected":false,"count":2},{"code":"sanovita-b483","name":"Sanovita","isSelected":false,"count":5},{"code":"scandia-sibiu-b1032","name":"Scandia Sibiu","isSelected":false,"count":8},{"code":"sera-b201","name":"Sera","isSelected":false,"count":1},{"code":"suntat-b980","name":"Suntat","isSelected":false,"count":2},{"code":"szatmar-gold-b1004","name":"Szatmar Gold","isSelected":false,"count":1},{"code":"topoloveni-b1192","name":"Topoloveni","isSelected":false,"count":1},{"code":"unfished-b614","name":"Unfished","isSelected":false,"count":7},{"code":"univer-b1246","name":"Univer","isSelected":false,"count":2},{"code":"zanae-b504","name":"Zanae","isSelected":false,"count":2}]},{"code":"diet_lifestyle","name":"Dietă și lifestyle","countSelected":0,"values":[{"code":"fara-conservanti-a37","name":"Fara conservanti","isSelected":false,"count":21},{"code":"fara-e-uri-a84","name":"Fara E-uri","isSelected":false,"count":9},{"code":"fara-lactoza-a38","name":"Fara lactoza","isSelected":false,"count":3},{"code":"fara-zahar-adaugat-a29","name":"Fara zahar adaugat","isSelected":false,"count":4},{"code":"made-in-romania-a85","name":"Made In Romania","isSelected":false,"count":5},{"code":"vegan-a24","name":"Vegan","isSelected":false,"count":18},{"code":"vegetarian-a28","name":"Vegetarian","isSelected":false,"count":21}]}]},"orderBy":[{"field":"price","direction":"asc","name":"Preț crescător","isSelected":false},{"field":"price","direction":"desc","name":"Preț descrescător","isSelected":false},{"field":"popularity","direction":"desc","name":"Cele mai populare","isSelected":true},{"field":"category","direction":"asc","name":"Categorie","isSelected":false}],"metaTitle":"Conserve de legume - Gamă variată","metaDescription":"Vrei Conserve de legume? Alege dintr-o gamă variată. Comanzi simplu și ai livrare rapidă, calitate și prospețime. Hai pe Freshful.ro","metaKeywords":null,"banners":[]}}