{"type":"subcategory","payload":{"analyticsListId":"category_80204-conserve-de-peste","analyticsListName":"Category - Conserve de pește","name":"Conserve de pește","slug":"80204-conserve-de-peste","image":null,"breadcrumbs":[{"code":"8","name":"Băcănie","slug":"8-ceva-sarat"},{"code":"802","name":"Conserve","slug":"802-conserve"},{"code":"80204","name":"Conserve de pește","slug":"80204-conserve-de-peste"}],"slots":[],"page":1,"limit":10,"pages":23,"count":222,"siblings":[{"name":"Paste, orez și legume uscate","slug":"801-paste-orez-si-legume-uscate","selected":false},{"name":"Conserve","slug":"802-conserve","selected":true},{"name":"Condimente și sosuri","slug":"803-condimente-si-sosuri","selected":false},{"name":"Ulei și oțet","slug":"804-ulei-si-otet","selected":false},{"name":"De ronțăit","slug":"805-aperitive-sarate","selected":false},{"name":"Făină, zahăr și produse gourmet","slug":"faina-zahar-si-produse-gourmet","selected":false}],"children":[{"name":"Toate produsele","slug":"802-conserve","selected":false},{"name":"Conserve de legume","slug":"80201-conserve-de-legume","selected":false},{"name":"Conserve de măsline","slug":"80202-conserve-de-masline","selected":false},{"name":"Conserve de murături","slug":"80203-conserve-de-muraturi","selected":false},{"name":"Conserve de pește","slug":"80204-conserve-de-peste","selected":true},{"name":"Conserve de carne","slug":"80205-conserve-de-carne","selected":false},{"name":"Conserve cu mâncare gătită","slug":"80206-conserve-cu-mancare-gatita","selected":false}],"products":[{"code":"100105142","variantCode":"100105142","name":"Sardine picante în ulei măsline 125g ","slug":"100105142-nuri-sardine-picante-in-ulei-masline-125g","unitPriceLabel":"175,92 Lei/kg","brand":"Nuri","brandCode":"1711","brandFilterCode":"nuri-b1716","sku":"100105142","price":21.99,"originalPrice":25.99,"currencyCode":"RON","currency":"Lei","image":{"thumbnail":{"default":"https://cdn.freshful.ro/media/cache/sylius_shop_product_thumbnail/85/d3/b5880077e005c6daef06dd8a2490.jpg"},"large":{"default":"https://cdn.freshful.ro/media/cache/freshful_large/85/d3/b5880077e005c6daef06dd8a2490.jpg"},"extralarge":{"default":"https://cdn.freshful.ro/media/cache/sylius_shop_product_original/85/d3/b5880077e005c6daef06dd8a2490.jpg"}},"label":{"text":"-15%","backgroundColor":"#FF9903","textColor":"#FFFFFF"},"tags":[],"isAvailable":true,"maxAvailableQuantity":12,"maxAllowedQuantity":12,"breadcrumbs":[{"code":"8","name":"Băcănie","slug":"8-ceva-sarat"},{"code":"802","name":"Conserve","slug":"802-conserve"},{"code":"80204","name":"Conserve de pește","slug":"80204-conserve-de-peste"},{"code":"100105142","name":"Sardine picante în ulei măsline 125g ","slug":"100105142-nuri-sardine-picante-in-ulei-masline-125g"}],"activePromotion":{"code":"oferte-bacanie-bauturi-21feb-8mar23","name":"Preț redus","targetQuantity":null},"saveMe":null,"labels":[{"type":"v1","items":[{"text":"-15%","backgroundColor":"#FF9903","textColor":"#FFFFFF"}]}],"geniusPrice":null,"geniusUnitPricePerLabel":null,"banner":{"text":"Super preț","textColor":"#FF0000","bgColor":"#FFF2EC","icon":null,"link":"https://www.freshful.ro/oferte/oferte-bacanie-bauturi-21feb-8mar23","type":"promo","analyticsEventType":"select_promotion","analyticsEventPayload":{"promotion_id":"oferte-bacanie-bauturi-21feb-8mar23","promotion_name":"Cămara cu băuturi și bunătăți"}},"discountLabel":"Economisești 15%","geniusDiscountLabel":null,"badge":null},{"code":"100105141","variantCode":"100105141","name":"Sardine în ulei de măsline 125g","slug":"100105141-nuri-sardine-in-ulei-de-masline-125g","unitPriceLabel":"175,92 Lei/kg","brand":"Nuri","brandCode":"1711","brandFilterCode":"nuri-b1716","sku":"100105141","price":21.99,"originalPrice":25.99,"currencyCode":"RON","currency":"Lei","image":{"thumbnail":{"default":"https://cdn.freshful.ro/media/cache/sylius_shop_product_thumbnail/f7/6b/0c1069672be0b77b8ae9c1c4ae76.jpg"},"large":{"default":"https://cdn.freshful.ro/media/cache/freshful_large/f7/6b/0c1069672be0b77b8ae9c1c4ae76.jpg"},"extralarge":{"default":"https://cdn.freshful.ro/media/cache/sylius_shop_product_original/f7/6b/0c1069672be0b77b8ae9c1c4ae76.jpg"}},"label":{"text":"-15%","backgroundColor":"#FF9903","textColor":"#FFFFFF"},"tags":[],"isAvailable":true,"maxAvailableQuantity":12,"maxAllowedQuantity":12,"breadcrumbs":[{"code":"8","name":"Băcănie","slug":"8-ceva-sarat"},{"code":"802","name":"Conserve","slug":"802-conserve"},{"code":"80204","name":"Conserve de pește","slug":"80204-conserve-de-peste"},{"code":"100105141","name":"Sardine în ulei de măsline 125g","slug":"100105141-nuri-sardine-in-ulei-de-masline-125g"}],"activePromotion":{"code":"oferte-bacanie-bauturi-21feb-8mar23","name":"Preț redus","targetQuantity":null},"saveMe":null,"labels":[{"type":"v1","items":[{"text":"-15%","backgroundColor":"#FF9903","textColor":"#FFFFFF"}]}],"geniusPrice":null,"geniusUnitPricePerLabel":null,"banner":{"text":"Super preț","textColor":"#FF0000","bgColor":"#FFF2EC","icon":null,"link":"https://www.freshful.ro/oferte/oferte-bacanie-bauturi-21feb-8mar23","type":"promo","analyticsEventType":"select_promotion","analyticsEventPayload":{"promotion_id":"oferte-bacanie-bauturi-21feb-8mar23","promotion_name":"Cămara cu băuturi și bunătăți"}},"discountLabel":"Economisești 15%","geniusDiscountLabel":null,"badge":null},{"code":"100105143","variantCode":"100105143","name":"Sardine în sos tomat 125g","slug":"100105143-nuri-sardine-in-sos-tomat-125g","unitPriceLabel":"175,92 Lei/kg","brand":"Nuri","brandCode":"1711","brandFilterCode":"nuri-b1716","sku":"100105143","price":21.99,"originalPrice":25.99,"currencyCode":"RON","currency":"Lei","image":{"thumbnail":{"default":"https://cdn.freshful.ro/media/cache/sylius_shop_product_thumbnail/b6/07/7859094e9c5a5b4325cb97c1339d.jpg"},"large":{"default":"https://cdn.freshful.ro/media/cache/freshful_large/b6/07/7859094e9c5a5b4325cb97c1339d.jpg"},"extralarge":{"default":"https://cdn.freshful.ro/media/cache/sylius_shop_product_original/b6/07/7859094e9c5a5b4325cb97c1339d.jpg"}},"label":{"text":"-15%","backgroundColor":"#FF9903","textColor":"#FFFFFF"},"tags":[],"isAvailable":true,"maxAvailableQuantity":4,"maxAllowedQuantity":12,"breadcrumbs":[{"code":"8","name":"Băcănie","slug":"8-ceva-sarat"},{"code":"802","name":"Conserve","slug":"802-conserve"},{"code":"80204","name":"Conserve de pește","slug":"80204-conserve-de-peste"},{"code":"100105143","name":"Sardine în sos tomat 125g","slug":"100105143-nuri-sardine-in-sos-tomat-125g"}],"activePromotion":{"code":"oferte-bacanie-bauturi-21feb-8mar23","name":"Preț redus","targetQuantity":null},"saveMe":null,"labels":[{"type":"v1","items":[{"text":"-15%","backgroundColor":"#FF9903","textColor":"#FFFFFF"}]}],"geniusPrice":null,"geniusUnitPricePerLabel":null,"banner":{"text":"Super preț","textColor":"#FF0000","bgColor":"#FFF2EC","icon":null,"link":"https://www.freshful.ro/oferte/oferte-bacanie-bauturi-21feb-8mar23","type":"promo","analyticsEventType":"select_promotion","analyticsEventPayload":{"promotion_id":"oferte-bacanie-bauturi-21feb-8mar23","promotion_name":"Cămara cu băuturi și bunătăți"}},"discountLabel":"Economisești 15%","geniusDiscountLabel":null,"badge":null},{"code":"100105144","variantCode":"100105144","name":"Sardine sos tomat picant 125g ","slug":"100105144-nuri-sardine-sos-tomat-picant-125g","unitPriceLabel":"175,92 Lei/kg","brand":"Nuri","brandCode":"1711","brandFilterCode":"nuri-b1716","sku":"100105144","price":21.99,"originalPrice":25.99,"currencyCode":"RON","currency":"Lei","image":{"thumbnail":{"default":"https://cdn.freshful.ro/media/cache/sylius_shop_product_thumbnail/c3/62/f0e01bf22e8375256016ed90acf1.jpg"},"large":{"default":"https://cdn.freshful.ro/media/cache/freshful_large/c3/62/f0e01bf22e8375256016ed90acf1.jpg"},"extralarge":{"default":"https://cdn.freshful.ro/media/cache/sylius_shop_product_original/c3/62/f0e01bf22e8375256016ed90acf1.jpg"}},"label":{"text":"-15%","backgroundColor":"#FF9903","textColor":"#FFFFFF"},"tags":[],"isAvailable":true,"maxAvailableQuantity":12,"maxAllowedQuantity":12,"breadcrumbs":[{"code":"8","name":"Băcănie","slug":"8-ceva-sarat"},{"code":"802","name":"Conserve","slug":"802-conserve"},{"code":"80204","name":"Conserve de pește","slug":"80204-conserve-de-peste"},{"code":"100105144","name":"Sardine sos tomat picant 125g ","slug":"100105144-nuri-sardine-sos-tomat-picant-125g"}],"activePromotion":{"code":"oferte-bacanie-bauturi-21feb-8mar23","name":"Preț redus","targetQuantity":null},"saveMe":null,"labels":[{"type":"v1","items":[{"text":"-15%","backgroundColor":"#FF9903","textColor":"#FFFFFF"}]}],"geniusPrice":null,"geniusUnitPricePerLabel":null,"banner":{"text":"Super preț","textColor":"#FF0000","bgColor":"#FFF2EC","icon":null,"link":"https://www.freshful.ro/oferte/oferte-bacanie-bauturi-21feb-8mar23","type":"promo","analyticsEventType":"select_promotion","analyticsEventPayload":{"promotion_id":"oferte-bacanie-bauturi-21feb-8mar23","promotion_name":"Cămara cu băuturi și bunătăți"}},"discountLabel":"Economisești 15%","geniusDiscountLabel":null,"badge":null},{"code":"100089250","variantCode":"100089250","name":"Ton în ulei de măsline 4x80g","slug":"100089250-rio-mare-ton-in-ulei-de-masline-4x80g","unitPriceLabel":"107,81 Lei/kg","brand":"Rio Mare","brandCode":"1486","brandFilterCode":"rio-mare-b1490","sku":"100089250","price":34.5,"originalPrice":null,"currencyCode":"RON","currency":"Lei","image":{"thumbnail":{"default":"https://cdn.freshful.ro/media/cache/sylius_shop_product_thumbnail/68/20/903cb2c92eb39f60038c672afc1c.jpg"},"large":{"default":"https://cdn.freshful.ro/media/cache/freshful_large/68/20/903cb2c92eb39f60038c672afc1c.jpg"},"extralarge":{"default":"https://cdn.freshful.ro/media/cache/sylius_shop_product_original/68/20/903cb2c92eb39f60038c672afc1c.jpg"}},"label":null,"tags":[],"isAvailable":true,"maxAvailableQuantity":6,"maxAllowedQuantity":6,"breadcrumbs":[{"code":"8","name":"Băcănie","slug":"8-ceva-sarat"},{"code":"802","name":"Conserve","slug":"802-conserve"},{"code":"80204","name":"Conserve de pește","slug":"80204-conserve-de-peste"},{"code":"100089250","name":"Ton în ulei de măsline 4x80g","slug":"100089250-rio-mare-ton-in-ulei-de-masline-4x80g"}],"activePromotion":null,"saveMe":null,"labels":[],"geniusPrice":null,"geniusUnitPricePerLabel":null,"banner":null,"discountLabel":null,"geniusDiscountLabel":null,"badge":null},{"code":"100089259","variantCode":"100089259","name":"Ton bucăți în suc propriu 160g","slug":"100089259-rio-mare-ton-bucati-in-suc-propriu-160g","unitPriceLabel":"78,13 Lei/kg","brand":"Rio Mare","brandCode":"1486","brandFilterCode":"rio-mare-b1490","sku":"100089259","price":12.5,"originalPrice":null,"currencyCode":"RON","currency":"Lei","image":{"thumbnail":{"default":"https://cdn.freshful.ro/media/cache/sylius_shop_product_thumbnail/26/07/e4c1a17f2d040521884c91154dd9.jpg"},"large":{"default":"https://cdn.freshful.ro/media/cache/freshful_large/26/07/e4c1a17f2d040521884c91154dd9.jpg"},"extralarge":{"default":"https://cdn.freshful.ro/media/cache/sylius_shop_product_original/26/07/e4c1a17f2d040521884c91154dd9.jpg"}},"label":null,"tags":[],"isAvailable":true,"maxAvailableQuantity":6,"maxAllowedQuantity":6,"breadcrumbs":[{"code":"8","name":"Băcănie","slug":"8-ceva-sarat"},{"code":"802","name":"Conserve","slug":"802-conserve"},{"code":"80204","name":"Conserve de pește","slug":"80204-conserve-de-peste"},{"code":"100089259","name":"Ton bucăți în suc propriu 160g","slug":"100089259-rio-mare-ton-bucati-in-suc-propriu-160g"}],"activePromotion":null,"saveMe":null,"labels":[],"geniusPrice":null,"geniusUnitPricePerLabel":null,"banner":null,"discountLabel":null,"geniusDiscountLabel":null,"badge":null},{"code":"100042176","variantCode":"100042176","name":"Ton în ulei de măsline bucăți 160g","slug":"100042176-calvo-ton-in-ulei-de-masline-bucati-160g","unitPriceLabel":"109,38 Lei/kg","brand":"Calvo","brandCode":"652","brandFilterCode":"calvo-b653","sku":"100042176","price":17.5,"originalPrice":null,"currencyCode":"RON","currency":"Lei","image":{"thumbnail":{"default":"https://cdn.freshful.ro/media/cache/sylius_shop_product_thumbnail/cc/e6/64c2cfdca785072bd54233d27f42.jpg"},"large":{"default":"https://cdn.freshful.ro/media/cache/freshful_large/cc/e6/64c2cfdca785072bd54233d27f42.jpg"},"extralarge":{"default":"https://cdn.freshful.ro/media/cache/sylius_shop_product_original/cc/e6/64c2cfdca785072bd54233d27f42.jpg"}},"label":null,"tags":[],"isAvailable":true,"maxAvailableQuantity":6,"maxAllowedQuantity":6,"breadcrumbs":[{"code":"8","name":"Băcănie","slug":"8-ceva-sarat"},{"code":"802","name":"Conserve","slug":"802-conserve"},{"code":"80204","name":"Conserve de pește","slug":"80204-conserve-de-peste"},{"code":"100042176","name":"Ton în ulei de măsline bucăți 160g","slug":"100042176-calvo-ton-in-ulei-de-masline-bucati-160g"}],"activePromotion":null,"saveMe":null,"labels":[],"geniusPrice":null,"geniusUnitPricePerLabel":null,"banner":null,"discountLabel":null,"geniusDiscountLabel":null,"badge":null},{"code":"100089265","variantCode":"100089265","name":"Pate de ton 100g","slug":"100089265-rio-mare-pate-de-ton-100g","unitPriceLabel":"137,7 Lei/kg","brand":"Rio Mare","brandCode":"1486","brandFilterCode":"rio-mare-b1490","sku":"100089265","price":13.77,"originalPrice":null,"currencyCode":"RON","currency":"Lei","image":{"thumbnail":{"default":"https://cdn.freshful.ro/media/cache/sylius_shop_product_thumbnail/97/9f/af90d0807357bd3df73087029881.jpg"},"large":{"default":"https://cdn.freshful.ro/media/cache/freshful_large/97/9f/af90d0807357bd3df73087029881.jpg"},"extralarge":{"default":"https://cdn.freshful.ro/media/cache/sylius_shop_product_original/97/9f/af90d0807357bd3df73087029881.jpg"}},"label":null,"tags":[],"isAvailable":true,"maxAvailableQuantity":12,"maxAllowedQuantity":12,"breadcrumbs":[{"code":"8","name":"Băcănie","slug":"8-ceva-sarat"},{"code":"802","name":"Conserve","slug":"802-conserve"},{"code":"80204","name":"Conserve de pește","slug":"80204-conserve-de-peste"},{"code":"100089265","name":"Pate de ton 100g","slug":"100089265-rio-mare-pate-de-ton-100g"}],"activePromotion":null,"saveMe":null,"labels":[],"geniusPrice":null,"geniusUnitPricePerLabel":null,"banner":null,"discountLabel":null,"geniusDiscountLabel":null,"badge":null},{"code":"100042178","variantCode":"100042178","name":"Ton în ulei de floarea-soarelui bucăți 160g","slug":"100042178-calvo-ton-in-ulei-de-floarea-soarelui-bucati-160g","unitPriceLabel":"86,88 Lei/kg","brand":"Calvo","brandCode":"652","brandFilterCode":"calvo-b653","sku":"100042178","price":13.9,"originalPrice":null,"currencyCode":"RON","currency":"Lei","image":{"thumbnail":{"default":"https://cdn.freshful.ro/media/cache/sylius_shop_product_thumbnail/3c/e4/8daa817dd52cc7720d141679086b.jpg"},"large":{"default":"https://cdn.freshful.ro/media/cache/freshful_large/3c/e4/8daa817dd52cc7720d141679086b.jpg"},"extralarge":{"default":"https://cdn.freshful.ro/media/cache/sylius_shop_product_original/3c/e4/8daa817dd52cc7720d141679086b.jpg"}},"label":null,"tags":[],"isAvailable":true,"maxAvailableQuantity":6,"maxAllowedQuantity":6,"breadcrumbs":[{"code":"8","name":"Băcănie","slug":"8-ceva-sarat"},{"code":"802","name":"Conserve","slug":"802-conserve"},{"code":"80204","name":"Conserve de pește","slug":"80204-conserve-de-peste"},{"code":"100042178","name":"Ton în ulei de floarea-soarelui bucăți 160g","slug":"100042178-calvo-ton-in-ulei-de-floarea-soarelui-bucati-160g"}],"activePromotion":null,"saveMe":null,"labels":[],"geniusPrice":null,"geniusUnitPricePerLabel":null,"banner":null,"discountLabel":null,"geniusDiscountLabel":null,"badge":null},{"code":"100086883","variantCode":"8852111006011","name":"Ton bucăți în ulei 170g","slug":"100086883-home-garden-ton-bucati-in-ulei-170g","unitPriceLabel":"53,03 Lei/buc","brand":"Home Garden","brandCode":"781","brandFilterCode":"home-garden-b782","sku":"100086883","price":10.5,"originalPrice":null,"currencyCode":"RON","currency":"Lei","image":{"thumbnail":{"default":"https://cdn.freshful.ro/media/cache/sylius_shop_product_thumbnail/be/51/426c9495d13960bfb5e9af9990f4.jpg"},"large":{"default":"https://cdn.freshful.ro/media/cache/freshful_large/be/51/426c9495d13960bfb5e9af9990f4.jpg"},"extralarge":{"default":"https://cdn.freshful.ro/media/cache/sylius_shop_product_original/be/51/426c9495d13960bfb5e9af9990f4.jpg"}},"label":null,"tags":[],"isAvailable":true,"maxAvailableQuantity":6,"maxAllowedQuantity":6,"breadcrumbs":[{"code":"8","name":"Băcănie","slug":"8-ceva-sarat"},{"code":"802","name":"Conserve","slug":"802-conserve"},{"code":"80204","name":"Conserve de pește","slug":"80204-conserve-de-peste"},{"code":"100086883","name":"Ton bucăți în ulei 170g","slug":"100086883-home-garden-ton-bucati-in-ulei-170g"}],"activePromotion":null,"saveMe":null,"labels":[],"geniusPrice":null,"geniusUnitPricePerLabel":null,"banner":null,"discountLabel":null,"geniusDiscountLabel":null,"badge":null}],"filters":{"countSelected":0,"items":[{"code":"promotion","name":"Promoții","countSelected":0,"values":[{"code":"oferte-bacanie-bauturi-21feb-8mar23","name":"Cămara cu băuturi și bunătăți","isSelected":false,"count":4}]},{"code":"brand","name":"Brand","countSelected":0,"values":[{"code":"arrigoni-b2710","name":"Arrigoni","isSelected":false,"count":2},{"code":"aveiro-b1717","name":"Aveiro","isSelected":false,"count":10},{"code":"baltic-club-b2926","name":"Baltic Club","isSelected":false,"count":10},{"code":"calvo-b653","name":"Calvo","isSelected":false,"count":14},{"code":"castrovinci-b2453","name":"Castrovinci","isSelected":false,"count":7},{"code":"defish-b494","name":"DeFish","isSelected":false,"count":10},{"code":"delicius-b2336","name":"Delicius","isSelected":false,"count":4},{"code":"eva-b1147","name":"Eva","isSelected":false,"count":14},{"code":"home-garden-b782","name":"Home Garden","isSelected":false,"count":36},{"code":"inzersdorfer-b1107","name":"Inzersdorfer","isSelected":false,"count":1},{"code":"john-west-b1630","name":"John West","isSelected":false,"count":4},{"code":"lotka-b1033","name":"Lotka","isSelected":false,"count":7},{"code":"mandy-b1522","name":"Mandy","isSelected":false,"count":2},{"code":"marina-blue-b2927","name":"Marina Blue","isSelected":false,"count":3},{"code":"navodul-plin-b1034","name":"Navodul plin","isSelected":false,"count":13},{"code":"nemo-b460","name":"Nemo","isSelected":false,"count":7},{"code":"nostromo-b2752","name":"Nostromo","isSelected":false,"count":1},{"code":"nuri-b1716","name":"Nuri","isSelected":false,"count":4},{"code":"pofta-focului-b1566","name":"Pofta Focului","isSelected":false,"count":1},{"code":"ribeira-b1633","name":"Ribeira","isSelected":false,"count":3},{"code":"rio-mare-b1490","name":"Rio Mare","isSelected":false,"count":24},{"code":"rizzoli-b2070","name":"Rizzoli","isSelected":false,"count":11},{"code":"siblou-b2617","name":"Siblou","isSelected":false,"count":11},{"code":"tapas-b1035","name":"Tapas","isSelected":false,"count":9},{"code":"trata-b2071","name":"Trata","isSelected":false,"count":14}]},{"code":"diet_lifestyle","name":"Dietă și lifestyle","countSelected":0,"values":[{"code":"congelat-a66","name":"Congelat","isSelected":false,"count":1},{"code":"eco-a83","name":"Eco","isSelected":false,"count":8},{"code":"fara-conservanti-a37","name":"Fara conservanti","isSelected":false,"count":2},{"code":"fara-gluten-a16","name":"Fara gluten","isSelected":false,"count":3}]}]},"orderBy":[{"field":"price","direction":"asc","name":"Preț crescător","isSelected":false},{"field":"price","direction":"desc","name":"Preț descrescător","isSelected":false},{"field":"popularity","direction":"desc","name":"Cele mai populare","isSelected":true},{"field":"category","direction":"asc","name":"Categorie","isSelected":false}],"metaTitle":"Conserve de pește - Gamă variată","metaDescription":"Vrei Conserve de pește? Alege dintr-o gamă variată. Comanzi simplu și ai livrare rapidă, calitate și prospețime. Hai pe Freshful.ro","metaKeywords":null,"banners":[]}}