{"type":"subcategory","payload":{"analyticsListId":"category_803-condimente-si-sosuri","analyticsListName":"Category - Condimente și sosuri","name":"Condimente și sosuri","slug":"803-condimente-si-sosuri","image":null,"breadcrumbs":[{"code":"8","name":"Băcănie","slug":"8-ceva-sarat"},{"code":"803","name":"Condimente și sosuri","slug":"803-condimente-si-sosuri"}],"slots":[],"page":1,"limit":10,"pages":65,"count":646,"siblings":[{"name":"Paste, orez și legume uscate","slug":"801-paste-orez-si-legume-uscate","selected":false},{"name":"Conserve","slug":"802-conserve","selected":false},{"name":"Condimente și sosuri","slug":"803-condimente-si-sosuri","selected":true},{"name":"Ulei și oțet","slug":"804-ulei-si-otet","selected":false},{"name":"De ronțăit","slug":"805-aperitive-sarate","selected":false},{"name":"Făină, zahăr și produse gourmet","slug":"faina-zahar-si-produse-gourmet","selected":false}],"children":[{"name":"Toate produsele","slug":"803-condimente-si-sosuri","selected":true},{"name":"Supe și ciorbe","slug":"80301-supe-si-ciorbe","selected":false},{"name":"Sare și condimente","slug":"80302-sare-si-condimentre","selected":false},{"name":"Bază de mâncare și premix","slug":"80303-baza-de-mancare-si-premix","selected":false},{"name":"Muștar, ketchup și maioneză","slug":"80304-mustar-ketchup-si-maioneza","selected":false},{"name":"Sosuri și pastă de tomate","slug":"80305-sosuri-si-pasta-de-tomate","selected":false}],"products":[{"code":"100061073","variantCode":"100061073","name":"Condimente pui cu usturoi Punga Magică 28g","slug":"100061073-knorr-condimente-pui-cu-usturoi-punga-magica-28g","unitPriceLabel":"178,21 Lei/kg","brand":"Knorr","brandCode":"139","brandFilterCode":"knorr-b123","sku":"100061073","price":4.99,"originalPrice":null,"currencyCode":"RON","currency":"Lei","image":{"thumbnail":{"default":"https://cdn.freshful.ro/media/cache/sylius_shop_product_thumbnail/08/89/28e6e3230d384bb501f03e670d2e.jpg"},"large":{"default":"https://cdn.freshful.ro/media/cache/freshful_large/08/89/28e6e3230d384bb501f03e670d2e.jpg"},"extralarge":{"default":"https://cdn.freshful.ro/media/cache/sylius_shop_product_original/08/89/28e6e3230d384bb501f03e670d2e.jpg"}},"label":{"text":"Profită acum","backgroundColor":"#FF9903","textColor":"#FFFFFF"},"tags":[],"isAvailable":true,"maxAvailableQuantity":100,"maxAllowedQuantity":100,"breadcrumbs":[{"code":"8","name":"Băcănie","slug":"8-ceva-sarat"},{"code":"803","name":"Condimente și sosuri","slug":"803-condimente-si-sosuri"},{"code":"80303","name":"Bază de mâncare și premix","slug":"80303-baza-de-mancare-si-premix"},{"code":"100061073","name":"Condimente pui cu usturoi Punga Magică 28g","slug":"100061073-knorr-condimente-pui-cu-usturoi-punga-magica-28g"}],"activePromotion":{"code":"freshful-top-deals-2023","name":"Preț avantajos","targetQuantity":null},"saveMe":null,"labels":[{"type":"v1","items":[{"text":"Profită acum","backgroundColor":"#FF9903","textColor":"#FFFFFF"}]}],"geniusPrice":null,"geniusUnitPricePerLabel":null,"banner":{"text":"Preț avantajos","textColor":"#F95510","bgColor":"#FEF1CD","icon":null,"link":"https://www.freshful.ro/oferte/freshful-top-deals-2023","type":"promo","analyticsEventType":"select_promotion","analyticsEventPayload":{"promotion_id":"freshful-top-deals-2023","promotion_name":"Profită de Top Deals"}},"discountLabel":null,"geniusDiscountLabel":null,"badge":null},{"code":"100001497","variantCode":"5941132014501","name":"Sos de soia 250ml","slug":"100001497-inedit-sos-de-soia-250ml","unitPriceLabel":"25,96 Lei/kg","brand":"Inedit","brandCode":"60","brandFilterCode":"inedit-b57","sku":"100001497","price":6.49,"originalPrice":8.15,"currencyCode":"RON","currency":"Lei","image":{"thumbnail":{"default":"https://cdn.freshful.ro/media/cache/sylius_shop_product_thumbnail/de/f3/46dc076f6cfaaa152a7a6de7d1cd.jpg"},"large":{"default":"https://cdn.freshful.ro/media/cache/freshful_large/de/f3/46dc076f6cfaaa152a7a6de7d1cd.jpg"},"extralarge":{"default":"https://cdn.freshful.ro/media/cache/sylius_shop_product_original/de/f3/46dc076f6cfaaa152a7a6de7d1cd.jpg"}},"label":{"text":"-20%","backgroundColor":"#FF9903","textColor":"#FFFFFF"},"tags":[{"type":"vegan","text":"Vegan","icon":"https://cdn.freshful.ro/assets/product_tags/vegan.svg","iconPng":"https://cdn.freshful.ro/assets/product_tags/vegan.png","backgroundColor":"#ECF9F8","textColor":"#33A39C"}],"isAvailable":true,"maxAvailableQuantity":100,"maxAllowedQuantity":100,"breadcrumbs":[{"code":"8","name":"Băcănie","slug":"8-ceva-sarat"},{"code":"803","name":"Condimente și sosuri","slug":"803-condimente-si-sosuri"},{"code":"80304","name":"Muștar, ketchup și maioneză","slug":"80304-mustar-ketchup-si-maioneza"},{"code":"100001497","name":"Sos de soia 250ml","slug":"100001497-inedit-sos-de-soia-250ml"}],"activePromotion":{"code":"special-produse-vegane-mar23","name":"Preț redus","targetQuantity":null},"saveMe":null,"labels":[{"type":"v1","items":[{"text":"-20%","backgroundColor":"#FF9903","textColor":"#FFFFFF"}]}],"geniusPrice":null,"geniusUnitPricePerLabel":null,"banner":{"text":"Super preț","textColor":"#FF0000","bgColor":"#FFF2EC","icon":null,"link":"https://www.freshful.ro/oferte/special-produse-vegane-mar23","type":"promo","analyticsEventType":"select_promotion","analyticsEventPayload":{"promotion_id":"special-produse-vegane-mar23","promotion_name":"Și bun, și de post"}},"discountLabel":"Economisești 20%","geniusDiscountLabel":null,"badge":null},{"code":"100061070","variantCode":"100061070","name":"Bază pentru mâncare gust de găină 400g","slug":"100061070-delikat-baza-pentru-mancare-gust-de-gaina-400g","unitPriceLabel":"","brand":"Delikat","brandCode":"140","brandFilterCode":"delikat-b124","sku":"100061070","price":11.99,"originalPrice":null,"currencyCode":"RON","currency":"Lei","image":{"thumbnail":{"default":"https://cdn.freshful.ro/media/cache/sylius_shop_product_thumbnail/fb/e2/131675a86735b49e02bc8348e5aa.jpg"},"large":{"default":"https://cdn.freshful.ro/media/cache/freshful_large/fb/e2/131675a86735b49e02bc8348e5aa.jpg"},"extralarge":{"default":"https://cdn.freshful.ro/media/cache/sylius_shop_product_original/fb/e2/131675a86735b49e02bc8348e5aa.jpg"}},"label":{"text":"Profită acum","backgroundColor":"#FF9903","textColor":"#FFFFFF"},"tags":[{"type":"MadeInRomania","text":"Made In Romania","icon":"https://cdn.freshful.ro/assets/product_tags/made_in_romania.svg","iconPng":"https://cdn.freshful.ro/assets/product_tags/made_in_romania.png","backgroundColor":"#EDF2FD","textColor":"#1653CA"}],"isAvailable":true,"maxAvailableQuantity":27,"maxAllowedQuantity":100,"breadcrumbs":[{"code":"8","name":"Băcănie","slug":"8-ceva-sarat"},{"code":"803","name":"Condimente și sosuri","slug":"803-condimente-si-sosuri"},{"code":"80303","name":"Bază de mâncare și premix","slug":"80303-baza-de-mancare-si-premix"},{"code":"100061070","name":"Bază pentru mâncare gust de găină 400g","slug":"100061070-delikat-baza-pentru-mancare-gust-de-gaina-400g"}],"activePromotion":{"code":"freshful-top-deals-2023","name":"Preț avantajos","targetQuantity":null},"saveMe":null,"labels":[{"type":"v1","items":[{"text":"Profită acum","backgroundColor":"#FF9903","textColor":"#FFFFFF"}]}],"geniusPrice":null,"geniusUnitPricePerLabel":null,"banner":{"text":"Preț avantajos","textColor":"#F95510","bgColor":"#FEF1CD","icon":null,"link":"https://www.freshful.ro/oferte/freshful-top-deals-2023","type":"promo","analyticsEventType":"select_promotion","analyticsEventPayload":{"promotion_id":"freshful-top-deals-2023","promotion_name":"Profită de Top Deals"}},"discountLabel":null,"geniusDiscountLabel":null,"badge":null},{"code":"100061076","variantCode":"100061076","name":"Condimente pentru porc cu usturoi și afumătură Punga Magică 29g","slug":"100061076-knorr-condimente-pentru-porc-cu-usturoi-si-afumatura-punga-magica-29g","unitPriceLabel":"172,07 Lei/kg","brand":"Knorr","brandCode":"139","brandFilterCode":"knorr-b123","sku":"100061076","price":4.99,"originalPrice":null,"currencyCode":"RON","currency":"Lei","image":{"thumbnail":{"default":"https://cdn.freshful.ro/media/cache/sylius_shop_product_thumbnail/72/85/61bbced47e31808eda6a44f125f1.jpg"},"large":{"default":"https://cdn.freshful.ro/media/cache/freshful_large/72/85/61bbced47e31808eda6a44f125f1.jpg"},"extralarge":{"default":"https://cdn.freshful.ro/media/cache/sylius_shop_product_original/72/85/61bbced47e31808eda6a44f125f1.jpg"}},"label":{"text":"Profită acum","backgroundColor":"#FF9903","textColor":"#FFFFFF"},"tags":[],"isAvailable":true,"maxAvailableQuantity":32,"maxAllowedQuantity":100,"breadcrumbs":[{"code":"8","name":"Băcănie","slug":"8-ceva-sarat"},{"code":"803","name":"Condimente și sosuri","slug":"803-condimente-si-sosuri"},{"code":"80303","name":"Bază de mâncare și premix","slug":"80303-baza-de-mancare-si-premix"},{"code":"100061076","name":"Condimente pentru porc cu usturoi și afumătură Punga Magică 29g","slug":"100061076-knorr-condimente-pentru-porc-cu-usturoi-si-afumatura-punga-magica-29g"}],"activePromotion":{"code":"freshful-top-deals-2023","name":"Preț avantajos","targetQuantity":null},"saveMe":null,"labels":[{"type":"v1","items":[{"text":"Profită acum","backgroundColor":"#FF9903","textColor":"#FFFFFF"}]}],"geniusPrice":null,"geniusUnitPricePerLabel":null,"banner":{"text":"Preț avantajos","textColor":"#F95510","bgColor":"#FEF1CD","icon":null,"link":"https://www.freshful.ro/oferte/freshful-top-deals-2023","type":"promo","analyticsEventType":"select_promotion","analyticsEventPayload":{"promotion_id":"freshful-top-deals-2023","promotion_name":"Profită de Top Deals"}},"discountLabel":null,"geniusDiscountLabel":null,"badge":null},{"code":"100075621","variantCode":"5902578006000","name":"Burger vegan mexican cu speltă, quinoa și linte roșie 140g","slug":"100075621-soligrano-burger-vegan-mexican-cu-spelta-quinoa-si-linte-rosie-140g","unitPriceLabel":"71,36 Lei/kg","brand":"Soligrano","brandCode":"981","brandFilterCode":"soligrano-b995","sku":"100075621","price":9.99,"originalPrice":11,"currencyCode":"RON","currency":"Lei","image":{"thumbnail":{"default":"https://cdn.freshful.ro/media/cache/sylius_shop_product_thumbnail/04/93/74f7912e626a1438d1be640a6f27.jpg"},"large":{"default":"https://cdn.freshful.ro/media/cache/freshful_large/04/93/74f7912e626a1438d1be640a6f27.jpg"},"extralarge":{"default":"https://cdn.freshful.ro/media/cache/sylius_shop_product_original/04/93/74f7912e626a1438d1be640a6f27.jpg"}},"label":{"text":"-9%","backgroundColor":"#FF9903","textColor":"#FFFFFF"},"tags":[{"type":"vegan","text":"Vegan","icon":"https://cdn.freshful.ro/assets/product_tags/vegan.svg","iconPng":"https://cdn.freshful.ro/assets/product_tags/vegan.png","backgroundColor":"#ECF9F8","textColor":"#33A39C"}],"isAvailable":true,"maxAvailableQuantity":16,"maxAllowedQuantity":100,"breadcrumbs":[{"code":"8","name":"Băcănie","slug":"8-ceva-sarat"},{"code":"803","name":"Condimente și sosuri","slug":"803-condimente-si-sosuri"},{"code":"80303","name":"Bază de mâncare și premix","slug":"80303-baza-de-mancare-si-premix"},{"code":"100075621","name":"Burger vegan mexican cu speltă, quinoa și linte roșie 140g","slug":"100075621-soligrano-burger-vegan-mexican-cu-spelta-quinoa-si-linte-rosie-140g"}],"activePromotion":{"code":"special-produse-vegane-mar23","name":"Preț redus","targetQuantity":null},"saveMe":null,"labels":[{"type":"v1","items":[{"text":"-9%","backgroundColor":"#FF9903","textColor":"#FFFFFF"}]}],"geniusPrice":null,"geniusUnitPricePerLabel":null,"banner":{"text":"Super preț","textColor":"#FF0000","bgColor":"#FFF2EC","icon":null,"link":"https://www.freshful.ro/oferte/special-produse-vegane-mar23","type":"promo","analyticsEventType":"select_promotion","analyticsEventPayload":{"promotion_id":"special-produse-vegane-mar23","promotion_name":"Și bun, și de post"}},"discountLabel":"Economisești 9%","geniusDiscountLabel":null,"badge":null},{"code":"100075623","variantCode":"5902578006024","name":"Falafel cu năut și spelta 140g","slug":"100075623-soligrano-falafel-cu-naut-si-spelta-140g","unitPriceLabel":"71,36 Lei/kg","brand":"Soligrano","brandCode":"981","brandFilterCode":"soligrano-b995","sku":"100075623","price":9.99,"originalPrice":11,"currencyCode":"RON","currency":"Lei","image":{"thumbnail":{"default":"https://cdn.freshful.ro/media/cache/sylius_shop_product_thumbnail/11/ef/9237a9b3cbe8b18f7c7a5c4c4073.jpg"},"large":{"default":"https://cdn.freshful.ro/media/cache/freshful_large/11/ef/9237a9b3cbe8b18f7c7a5c4c4073.jpg"},"extralarge":{"default":"https://cdn.freshful.ro/media/cache/sylius_shop_product_original/11/ef/9237a9b3cbe8b18f7c7a5c4c4073.jpg"}},"label":{"text":"-9%","backgroundColor":"#FF9903","textColor":"#FFFFFF"},"tags":[{"type":"vegan","text":"Vegan","icon":"https://cdn.freshful.ro/assets/product_tags/vegan.svg","iconPng":"https://cdn.freshful.ro/assets/product_tags/vegan.png","backgroundColor":"#ECF9F8","textColor":"#33A39C"}],"isAvailable":true,"maxAvailableQuantity":20,"maxAllowedQuantity":100,"breadcrumbs":[{"code":"8","name":"Băcănie","slug":"8-ceva-sarat"},{"code":"803","name":"Condimente și sosuri","slug":"803-condimente-si-sosuri"},{"code":"80303","name":"Bază de mâncare și premix","slug":"80303-baza-de-mancare-si-premix"},{"code":"100075623","name":"Falafel cu năut și spelta 140g","slug":"100075623-soligrano-falafel-cu-naut-si-spelta-140g"}],"activePromotion":{"code":"special-produse-vegane-mar23","name":"Preț redus","targetQuantity":null},"saveMe":null,"labels":[{"type":"v1","items":[{"text":"-9%","backgroundColor":"#FF9903","textColor":"#FFFFFF"}]}],"geniusPrice":null,"geniusUnitPricePerLabel":null,"banner":{"text":"Super preț","textColor":"#FF0000","bgColor":"#FFF2EC","icon":null,"link":"https://www.freshful.ro/oferte/special-produse-vegane-mar23","type":"promo","analyticsEventType":"select_promotion","analyticsEventPayload":{"promotion_id":"special-produse-vegane-mar23","promotion_name":"Și bun, și de post"}},"discountLabel":"Economisești 9%","geniusDiscountLabel":null,"badge":null},{"code":"100075622","variantCode":"5902578004778","name":"Burger vegan mediteranean cu spelta, roșii și năut 140g ","slug":"100075622-soligrano-burger-vegan-mediteranean-cu-spelta-rosii-si-naut-140g","unitPriceLabel":"71,36 Lei/kg","brand":"Soligrano","brandCode":"981","brandFilterCode":"soligrano-b995","sku":"100075622","price":9.99,"originalPrice":11,"currencyCode":"RON","currency":"Lei","image":{"thumbnail":{"default":"https://cdn.freshful.ro/media/cache/sylius_shop_product_thumbnail/e1/af/3509b59af94dba4707475f44b208.jpg"},"large":{"default":"https://cdn.freshful.ro/media/cache/freshful_large/e1/af/3509b59af94dba4707475f44b208.jpg"},"extralarge":{"default":"https://cdn.freshful.ro/media/cache/sylius_shop_product_original/e1/af/3509b59af94dba4707475f44b208.jpg"}},"label":{"text":"-9%","backgroundColor":"#FF9903","textColor":"#FFFFFF"},"tags":[{"type":"vegan","text":"Vegan","icon":"https://cdn.freshful.ro/assets/product_tags/vegan.svg","iconPng":"https://cdn.freshful.ro/assets/product_tags/vegan.png","backgroundColor":"#ECF9F8","textColor":"#33A39C"}],"isAvailable":true,"maxAvailableQuantity":10,"maxAllowedQuantity":100,"breadcrumbs":[{"code":"8","name":"Băcănie","slug":"8-ceva-sarat"},{"code":"803","name":"Condimente și sosuri","slug":"803-condimente-si-sosuri"},{"code":"80303","name":"Bază de mâncare și premix","slug":"80303-baza-de-mancare-si-premix"},{"code":"100075622","name":"Burger vegan mediteranean cu spelta, roșii și năut 140g ","slug":"100075622-soligrano-burger-vegan-mediteranean-cu-spelta-rosii-si-naut-140g"}],"activePromotion":{"code":"special-produse-vegane-mar23","name":"Preț redus","targetQuantity":null},"saveMe":null,"labels":[{"type":"v1","items":[{"text":"-9%","backgroundColor":"#FF9903","textColor":"#FFFFFF"}]}],"geniusPrice":null,"geniusUnitPricePerLabel":null,"banner":{"text":"Super preț","textColor":"#FF0000","bgColor":"#FFF2EC","icon":null,"link":"https://www.freshful.ro/oferte/special-produse-vegane-mar23","type":"promo","analyticsEventType":"select_promotion","analyticsEventPayload":{"promotion_id":"special-produse-vegane-mar23","promotion_name":"Și bun, și de post"}},"discountLabel":"Economisești 9%","geniusDiscountLabel":null,"badge":null},{"code":"100143516","variantCode":"100143516","name":"Maioneză 450ml","slug":"100143516-no-brand-maioneza-450ml","unitPriceLabel":"37,76 Lei/l","brand":"Calve","brandCode":"2778","brandFilterCode":"calve-b2852","sku":"100143516","price":16.99,"originalPrice":19.99,"currencyCode":"RON","currency":"Lei","image":{"thumbnail":{"default":"https://cdn.freshful.ro/media/cache/sylius_shop_product_thumbnail/c0/7b/7ae657790f17fd2217310bd36b7a.jpg"},"large":{"default":"https://cdn.freshful.ro/media/cache/freshful_large/c0/7b/7ae657790f17fd2217310bd36b7a.jpg"},"extralarge":{"default":"https://cdn.freshful.ro/media/cache/sylius_shop_product_original/c0/7b/7ae657790f17fd2217310bd36b7a.jpg"}},"label":{"text":"-15%","backgroundColor":"#FF9903","textColor":"#FFFFFF"},"tags":[],"isAvailable":true,"maxAvailableQuantity":29,"maxAllowedQuantity":100,"breadcrumbs":[{"code":"8","name":"Băcănie","slug":"8-ceva-sarat"},{"code":"803","name":"Condimente și sosuri","slug":"803-condimente-si-sosuri"},{"code":"80304","name":"Muștar, ketchup și maioneză","slug":"80304-mustar-ketchup-si-maioneza"},{"code":"100143516","name":"Maioneză 450ml","slug":"100143516-no-brand-maioneza-450ml"}],"activePromotion":{"code":"oferte-bacanie-bauturi-21feb-8mar23","name":"Preț redus","targetQuantity":null},"saveMe":null,"labels":[{"type":"v1","items":[{"text":"-15%","backgroundColor":"#FF9903","textColor":"#FFFFFF"}]}],"geniusPrice":null,"geniusUnitPricePerLabel":null,"banner":{"text":"Super preț","textColor":"#FF0000","bgColor":"#FFF2EC","icon":null,"link":"https://www.freshful.ro/oferte/oferte-bacanie-bauturi-21feb-8mar23","type":"promo","analyticsEventType":"select_promotion","analyticsEventPayload":{"promotion_id":"oferte-bacanie-bauturi-21feb-8mar23","promotion_name":"Cămara cu băuturi și bunătăți"}},"discountLabel":"Economisești 15%","geniusDiscountLabel":null,"badge":null},{"code":"100143433","variantCode":"100143433","name":"Piure de roșii 500g","slug":"100143433-valenii-de-munte-piure-de-rosii-500g","unitPriceLabel":"12,98 Lei/kg","brand":"Valenii De Munte","brandCode":"2712","brandFilterCode":"valenii-de-munte-b2718","sku":"100143433","price":6.49,"originalPrice":8.99,"currencyCode":"RON","currency":"Lei","image":{"thumbnail":{"default":"https://cdn.freshful.ro/media/cache/sylius_shop_product_thumbnail/57/4e/fe3568fea3ac85bda2daf4a22337.jpg"},"large":{"default":"https://cdn.freshful.ro/media/cache/freshful_large/57/4e/fe3568fea3ac85bda2daf4a22337.jpg"},"extralarge":{"default":"https://cdn.freshful.ro/media/cache/sylius_shop_product_original/57/4e/fe3568fea3ac85bda2daf4a22337.jpg"}},"label":{"text":"-27%","backgroundColor":"#FF9903","textColor":"#FFFFFF"},"tags":[],"isAvailable":true,"maxAvailableQuantity":64,"maxAllowedQuantity":100,"breadcrumbs":[{"code":"8","name":"Băcănie","slug":"8-ceva-sarat"},{"code":"803","name":"Condimente și sosuri","slug":"803-condimente-si-sosuri"},{"code":"80305","name":"Sosuri și pastă de tomate","slug":"80305-sosuri-si-pasta-de-tomate"},{"code":"100143433","name":"Piure de roșii 500g","slug":"100143433-valenii-de-munte-piure-de-rosii-500g"}],"activePromotion":{"code":"special-produse-vegane-mar23","name":"Preț redus","targetQuantity":null},"saveMe":null,"labels":[{"type":"v1","items":[{"text":"-27%","backgroundColor":"#FF9903","textColor":"#FFFFFF"}]}],"geniusPrice":null,"geniusUnitPricePerLabel":null,"banner":{"text":"Super preț","textColor":"#FF0000","bgColor":"#FFF2EC","icon":null,"link":"https://www.freshful.ro/oferte/special-produse-vegane-mar23","type":"promo","analyticsEventType":"select_promotion","analyticsEventPayload":{"promotion_id":"special-produse-vegane-mar23","promotion_name":"Și bun, și de post"}},"discountLabel":"Economisești 27%","geniusDiscountLabel":null,"badge":null},{"code":"100143519","variantCode":"100143519","name":"Sos de usturoi 250ml ","slug":"100143519-no-brand-sos-de-usturoi-250ml","unitPriceLabel":"55,96 Lei/l","brand":"Calve","brandCode":"2778","brandFilterCode":"calve-b2852","sku":"100143519","price":13.99,"originalPrice":16.99,"currencyCode":"RON","currency":"Lei","image":{"thumbnail":{"default":"https://cdn.freshful.ro/media/cache/sylius_shop_product_thumbnail/01/2b/912c52d9ba0dd6b529b0fc396f28.jpg"},"large":{"default":"https://cdn.freshful.ro/media/cache/freshful_large/01/2b/912c52d9ba0dd6b529b0fc396f28.jpg"},"extralarge":{"default":"https://cdn.freshful.ro/media/cache/sylius_shop_product_original/01/2b/912c52d9ba0dd6b529b0fc396f28.jpg"}},"label":{"text":"-17%","backgroundColor":"#FF9903","textColor":"#FFFFFF"},"tags":[{"type":"Vegetarian","text":"Vegetarian","icon":"https://cdn.freshful.ro/assets/product_tags/vegetarian.svg","iconPng":"https://cdn.freshful.ro/assets/product_tags/vegetarian.png","backgroundColor":"#FAEAEE","textColor":"#B26275"}],"isAvailable":true,"maxAvailableQuantity":19,"maxAllowedQuantity":100,"breadcrumbs":[{"code":"8","name":"Băcănie","slug":"8-ceva-sarat"},{"code":"803","name":"Condimente și sosuri","slug":"803-condimente-si-sosuri"},{"code":"80304","name":"Muștar, ketchup și maioneză","slug":"80304-mustar-ketchup-si-maioneza"},{"code":"100143519","name":"Sos de usturoi 250ml ","slug":"100143519-no-brand-sos-de-usturoi-250ml"}],"activePromotion":{"code":"oferte-bacanie-bauturi-21feb-8mar23","name":"Preț redus","targetQuantity":null},"saveMe":null,"labels":[{"type":"v1","items":[{"text":"-17%","backgroundColor":"#FF9903","textColor":"#FFFFFF"}]}],"geniusPrice":null,"geniusUnitPricePerLabel":null,"banner":{"text":"Super preț","textColor":"#FF0000","bgColor":"#FFF2EC","icon":null,"link":"https://www.freshful.ro/oferte/oferte-bacanie-bauturi-21feb-8mar23","type":"promo","analyticsEventType":"select_promotion","analyticsEventPayload":{"promotion_id":"oferte-bacanie-bauturi-21feb-8mar23","promotion_name":"Cămara cu băuturi și bunătăți"}},"discountLabel":"Economisești 17%","geniusDiscountLabel":null,"badge":null}],"filters":{"countSelected":0,"items":[{"code":"promotion","name":"Promoții","countSelected":0,"values":[{"code":"oferte-bacanie-bauturi-21feb-8mar23","name":"Cămara cu băuturi și bunătăți","isSelected":false,"count":3},{"code":"freshful-top-deals-2023","name":"Profită de Top Deals","isSelected":false,"count":3},{"code":"special-produse-vegane-mar23","name":"Și bun, și de post","isSelected":false,"count":5}]},{"code":"brand","name":"Brand","countSelected":0,"values":[{"code":"arrigoni-b2710","name":"Arrigoni","isSelected":false,"count":1},{"code":"barilla-b268","name":"Barilla","isSelected":false,"count":14},{"code":"bich-chi-b1073","name":"Bich Chi","isSelected":false,"count":2},{"code":"biffi-b633","name":"Biffi","isSelected":false,"count":1},{"code":"blue-dragon-b630","name":"Blue Dragon","isSelected":false,"count":4},{"code":"bucataria-brancoveneasca-b1615","name":"Bucătăria Brâncovenească","isSelected":false,"count":1},{"code":"bunica-b263","name":"Bunica","isSelected":false,"count":4},{"code":"calve-b2852","name":"Calve","isSelected":false,"count":9},{"code":"cirio-b643","name":"Cirio","isSelected":false,"count":7},{"code":"contec-b3097","name":"Contec","isSelected":false,"count":1},{"code":"cosmin-b923","name":"Cosmin","isSelected":false,"count":19},{"code":"del-monte-b2397","name":"Del Monte","isSelected":false,"count":1},{"code":"delikat-b124","name":"Delikat","isSelected":false,"count":8},{"code":"desiam-b1074","name":"Desiam","isSelected":false,"count":3},{"code":"develey-b641","name":"Develey","isSelected":false,"count":19},{"code":"dr-oetker-b51","name":"Dr. Oetker","isSelected":false,"count":2},{"code":"flying-goose-b658","name":"Flying Goose","isSelected":false,"count":2},{"code":"fuchs-b920","name":"Fuchs","isSelected":false,"count":42},{"code":"galeo-b512","name":"Galeo","isSelected":false,"count":43},{"code":"gocce-di-sale-b96","name":"Gocce Di Sale","isSelected":false,"count":1},{"code":"goong-b138","name":"Goong","isSelected":false,"count":1},{"code":"granoro-b2153","name":"Granoro","isSelected":false,"count":1},{"code":"greenomic-b1848","name":"Greenomic","isSelected":false,"count":6},{"code":"hamker-b2155","name":"Hamker","isSelected":false,"count":2},{"code":"heinz-b1628","name":"Heinz","isSelected":false,"count":18},{"code":"hellmann-s-b122","name":"Hellmann's","isSelected":false,"count":16},{"code":"himalaya-s-elite-b1560","name":"Himalaya's Elite","isSelected":false,"count":6},{"code":"homann-b2156","name":"Homann","isSelected":false,"count":3},{"code":"home-garden-b782","name":"Home Garden","isSelected":false,"count":7},{"code":"inedit-b57","name":"Inedit","isSelected":false,"count":1},{"code":"inzersdorfer-b1107","name":"Inzersdorfer","isSelected":false,"count":2},{"code":"kalas-b97","name":"Kalas","isSelected":false,"count":10},{"code":"kamis-b511","name":"Kamis","isSelected":false,"count":79},{"code":"kfc-b1562","name":"KFC","isSelected":false,"count":2},{"code":"knorr-b123","name":"Knorr","isSelected":false,"count":12},{"code":"kotanyi-b298","name":"Kotányi","isSelected":false,"count":2},{"code":"lachinata-b2168","name":"Lachinata","isSelected":false,"count":2},{"code":"laminut-b262","name":"LaMinut","isSelected":false,"count":8},{"code":"maggi-b2337","name":"Maggi","isSelected":false,"count":22},{"code":"maille-b881","name":"Maille","isSelected":false,"count":2},{"code":"maxim-s-b271","name":"Maxim's","isSelected":false,"count":1},{"code":"mirodenia-b921","name":"Mirodenia","isSelected":false,"count":9},{"code":"mutti-b646","name":"Mutti","isSelected":false,"count":9},{"code":"niavis-b191","name":"Niavis","isSelected":false,"count":1},{"code":"olympia-b244","name":"Olympia","isSelected":false,"count":21},{"code":"pamapol-b139","name":"Pamapol","isSelected":false,"count":4},{"code":"panzani-b1688","name":"Panzani","isSelected":false,"count":28},{"code":"patak-s-b631","name":"Patak's","isSelected":false,"count":1},{"code":"pivnita-bunicii-b2310","name":"Pivnița Bunicii","isSelected":false,"count":9},{"code":"pofta-focului-b1566","name":"Pofta Focului","isSelected":false,"count":4},{"code":"reeva-b3098","name":"Reeva","isSelected":false,"count":4},{"code":"raureni-b773","name":"Râureni","isSelected":false,"count":8},{"code":"razvan-b1127","name":"Răzvan","isSelected":false,"count":2},{"code":"sacla-b882","name":"Saclà","isSelected":false,"count":3},{"code":"saitaku-b994","name":"Saitaku","isSelected":false,"count":1},{"code":"salrom-b204","name":"Salrom","isSelected":false,"count":4},{"code":"sanovita-b483","name":"Sanovita","isSelected":false,"count":5},{"code":"sera-b201","name":"Sera","isSelected":false,"count":2},{"code":"smak-b2157","name":"Smak","isSelected":false,"count":9},{"code":"soba-b1635","name":"Soba","isSelected":false,"count":4},{"code":"soligrano-b995","name":"Soligrano","isSelected":false,"count":3},{"code":"sultan-b1551","name":"Sultan","isSelected":false,"count":8},{"code":"suntat-b980","name":"Suntat","isSelected":false,"count":7},{"code":"tabasco-b649","name":"Tabasco","isSelected":false,"count":7},{"code":"tartufi-jimmy-b655","name":"Tartufi Jimmy","isSelected":false,"count":4},{"code":"thai-dancer-b1080","name":"Thai Dancer","isSelected":false,"count":6},{"code":"tomi-b261","name":"Tomi","isSelected":false,"count":12},{"code":"univer-b1246","name":"Univer","isSelected":false,"count":19},{"code":"v6bbq-b924","name":"V6BBQ","isSelected":false,"count":8},{"code":"valenii-de-munte-b2718","name":"Valenii De Munte","isSelected":false,"count":4},{"code":"vanka-b883","name":"Vanka","isSelected":false,"count":2},{"code":"varmazis-b506","name":"Varmazis","isSelected":false,"count":5},{"code":"vasluianca-b1833","name":"Vasluianca","isSelected":false,"count":1},{"code":"vegeta-b1144","name":"Vegeta","isSelected":false,"count":40},{"code":"we-cup-b2844","name":"We Cup","isSelected":false,"count":5}]},{"code":"diet_lifestyle","name":"Dietă și lifestyle","countSelected":0,"values":[{"code":"eco-a83","name":"Eco","isSelected":false,"count":2},{"code":"fara-conservanti-a37","name":"Fara conservanti","isSelected":false,"count":40},{"code":"fara-e-uri-a84","name":"Fara E-uri","isSelected":false,"count":2},{"code":"fara-gluten-a16","name":"Fara gluten","isSelected":false,"count":23},{"code":"fara-sare-a52","name":"Fara sare","isSelected":false,"count":2},{"code":"made-in-romania-a85","name":"Made In Romania","isSelected":false,"count":18},{"code":"natural-a27","name":"Natural","isSelected":false,"count":3},{"code":"vegan-a24","name":"Vegan","isSelected":false,"count":14},{"code":"vegetarian-a28","name":"Vegetarian","isSelected":false,"count":7}]}]},"orderBy":[{"field":"price","direction":"asc","name":"Preț crescător","isSelected":false},{"field":"price","direction":"desc","name":"Preț descrescător","isSelected":false},{"field":"popularity","direction":"desc","name":"Cele mai populare","isSelected":true},{"field":"category","direction":"asc","name":"Categorie","isSelected":false}],"metaTitle":"Condimente și sosuri - Gamă variată","metaDescription":"Vrei Condimente și sosuri? Alege dintr-o gamă variată. Comanzi simplu și ai livrare rapidă, calitate și prospețime. Hai pe Freshful.ro","metaKeywords":null,"banners":[]}}