{"type":"subcategory","payload":{"analyticsListId":"category_80301-supe-si-ciorbe","analyticsListName":"Category - Supe și ciorbe","name":"Supe și ciorbe","slug":"80301-supe-si-ciorbe","image":null,"breadcrumbs":[{"code":"8","name":"Băcănie","slug":"8-ceva-sarat"},{"code":"803","name":"Condimente și sosuri","slug":"803-condimente-si-sosuri"},{"code":"80301","name":"Supe și ciorbe","slug":"80301-supe-si-ciorbe"}],"slots":[],"page":1,"limit":10,"pages":3,"count":23,"siblings":[{"name":"Paste, orez și legume uscate","slug":"801-paste-orez-si-legume-uscate","selected":false},{"name":"Conserve","slug":"802-conserve","selected":false},{"name":"Condimente și sosuri","slug":"803-condimente-si-sosuri","selected":true},{"name":"Ulei și oțet","slug":"804-ulei-si-otet","selected":false},{"name":"De ronțăit","slug":"805-aperitive-sarate","selected":false},{"name":"Făină, zahăr și produse gourmet","slug":"faina-zahar-si-produse-gourmet","selected":false}],"children":[{"name":"Toate produsele","slug":"803-condimente-si-sosuri","selected":false},{"name":"Supe și ciorbe","slug":"80301-supe-si-ciorbe","selected":true},{"name":"Sare și condimente","slug":"80302-sare-si-condimentre","selected":false},{"name":"Bază de mâncare și premix","slug":"80303-baza-de-mancare-si-premix","selected":false},{"name":"Muștar, ketchup și maioneză","slug":"80304-mustar-ketchup-si-maioneza","selected":false},{"name":"Sosuri și pastă de tomate","slug":"80305-sosuri-si-pasta-de-tomate","selected":false}],"products":[{"code":"100097275","variantCode":"5997523312152","name":"Tăiței instant din grâu cu sos de condimente yakisoba 90g","slug":"100097275-soba-taitei-instant-din-grau-cu-sos-de-condimente-yakisoba-90g","unitPriceLabel":"116,67 Lei/kg","brand":"Soba","brandCode":"1631","brandFilterCode":"soba-b1635","sku":"100097275","price":10.5,"originalPrice":null,"currencyCode":"RON","currency":"Lei","image":{"thumbnail":{"default":"https://cdn.freshful.ro/media/cache/sylius_shop_product_thumbnail/e7/50/a667c5706f87eba56204c5f8b4c9.jpg"},"large":{"default":"https://cdn.freshful.ro/media/cache/freshful_large/e7/50/a667c5706f87eba56204c5f8b4c9.jpg"},"extralarge":{"default":"https://cdn.freshful.ro/media/cache/sylius_shop_product_original/e7/50/a667c5706f87eba56204c5f8b4c9.jpg"}},"label":null,"tags":[],"isAvailable":true,"maxAvailableQuantity":63,"maxAllowedQuantity":100,"breadcrumbs":[{"code":"8","name":"Băcănie","slug":"8-ceva-sarat"},{"code":"803","name":"Condimente și sosuri","slug":"803-condimente-si-sosuri"},{"code":"80301","name":"Supe și ciorbe","slug":"80301-supe-si-ciorbe"},{"code":"100097275","name":"Tăiței instant din grâu cu sos de condimente yakisoba 90g","slug":"100097275-soba-taitei-instant-din-grau-cu-sos-de-condimente-yakisoba-90g"}],"activePromotion":null,"saveMe":null,"labels":[],"geniusPrice":null,"geniusUnitPricePerLabel":null,"banner":null,"discountLabel":null,"geniusDiscountLabel":null,"badge":null},{"code":"100150756","variantCode":"100150756","name":"Supă instant cu gust de legume, 60g","slug":"100150756-no-brand-supa-instant-cu-gust-de-legume-60g","unitPriceLabel":"33 Lei/kg","brand":"Reeva","brandCode":"3004","brandFilterCode":"reeva-b3098","sku":"100150756","price":1.98,"originalPrice":null,"currencyCode":"RON","currency":"Lei","image":{"thumbnail":{"default":"https://cdn.freshful.ro/media/cache/sylius_shop_product_thumbnail/1e/76/5cc0d56300976435abfd7a5a5db7.jpg"},"large":{"default":"https://cdn.freshful.ro/media/cache/freshful_large/1e/76/5cc0d56300976435abfd7a5a5db7.jpg"},"extralarge":{"default":"https://cdn.freshful.ro/media/cache/sylius_shop_product_original/1e/76/5cc0d56300976435abfd7a5a5db7.jpg"}},"label":null,"tags":[],"isAvailable":true,"maxAvailableQuantity":7,"maxAllowedQuantity":100,"breadcrumbs":[{"code":"8","name":"Băcănie","slug":"8-ceva-sarat"},{"code":"803","name":"Condimente și sosuri","slug":"803-condimente-si-sosuri"},{"code":"80301","name":"Supe și ciorbe","slug":"80301-supe-si-ciorbe"},{"code":"100150756","name":"Supă instant cu gust de legume, 60g","slug":"100150756-no-brand-supa-instant-cu-gust-de-legume-60g"}],"activePromotion":null,"saveMe":null,"labels":[],"geniusPrice":null,"geniusUnitPricePerLabel":null,"banner":null,"discountLabel":null,"geniusDiscountLabel":null,"badge":null},{"code":"100097276","variantCode":"5997523312176","name":"Tăiței instant din grâu cu sos de condimente chili 92g","slug":"100097276-soba-taitei-instant-din-grau-cu-sos-de-condimente-chili-92g","unitPriceLabel":"114,13 Lei/kg","brand":"Soba","brandCode":"1631","brandFilterCode":"soba-b1635","sku":"100097276","price":10.5,"originalPrice":null,"currencyCode":"RON","currency":"Lei","image":{"thumbnail":{"default":"https://cdn.freshful.ro/media/cache/sylius_shop_product_thumbnail/d8/80/589837550649296af796fb6095be.jpg"},"large":{"default":"https://cdn.freshful.ro/media/cache/freshful_large/d8/80/589837550649296af796fb6095be.jpg"},"extralarge":{"default":"https://cdn.freshful.ro/media/cache/sylius_shop_product_original/d8/80/589837550649296af796fb6095be.jpg"}},"label":null,"tags":[],"isAvailable":true,"maxAvailableQuantity":59,"maxAllowedQuantity":100,"breadcrumbs":[{"code":"8","name":"Băcănie","slug":"8-ceva-sarat"},{"code":"803","name":"Condimente și sosuri","slug":"803-condimente-si-sosuri"},{"code":"80301","name":"Supe și ciorbe","slug":"80301-supe-si-ciorbe"},{"code":"100097276","name":"Tăiței instant din grâu cu sos de condimente chili 92g","slug":"100097276-soba-taitei-instant-din-grau-cu-sos-de-condimente-chili-92g"}],"activePromotion":null,"saveMe":null,"labels":[],"geniusPrice":null,"geniusUnitPricePerLabel":null,"banner":null,"discountLabel":null,"geniusDiscountLabel":null,"badge":null},{"code":"100079545","variantCode":"100079545","name":"Supă instant - Pui picant 65g","slug":"100079545-goong-supa-instant-pui-picant-65g","unitPriceLabel":"36,92 Lei/kg","brand":"Goong","brandCode":"93","brandFilterCode":"goong-b138","sku":"100079545","price":2.4,"originalPrice":null,"currencyCode":"RON","currency":"Lei","image":{"thumbnail":{"default":"https://cdn.freshful.ro/media/cache/sylius_shop_product_thumbnail/a3/ce/74a91d57d5fa486d5e26514b470d.jpg"},"large":{"default":"https://cdn.freshful.ro/media/cache/freshful_large/a3/ce/74a91d57d5fa486d5e26514b470d.jpg"},"extralarge":{"default":"https://cdn.freshful.ro/media/cache/sylius_shop_product_original/a3/ce/74a91d57d5fa486d5e26514b470d.jpg"}},"label":null,"tags":[],"isAvailable":true,"maxAvailableQuantity":14,"maxAllowedQuantity":100,"breadcrumbs":[{"code":"8","name":"Băcănie","slug":"8-ceva-sarat"},{"code":"803","name":"Condimente și sosuri","slug":"803-condimente-si-sosuri"},{"code":"80301","name":"Supe și ciorbe","slug":"80301-supe-si-ciorbe"},{"code":"100079545","name":"Supă instant - Pui picant 65g","slug":"100079545-goong-supa-instant-pui-picant-65g"}],"activePromotion":null,"saveMe":null,"labels":[],"geniusPrice":null,"geniusUnitPricePerLabel":null,"banner":null,"discountLabel":null,"geniusDiscountLabel":null,"badge":null},{"code":"100150755","variantCode":"100150755","name":"Supă instant cu gust de pui picant, 60g","slug":"100150755-no-brand-supa-instant-cu-gust-de-pui-picant-60g","unitPriceLabel":"33 Lei/kg","brand":"Reeva","brandCode":"3004","brandFilterCode":"reeva-b3098","sku":"100150755","price":1.98,"originalPrice":null,"currencyCode":"RON","currency":"Lei","image":{"thumbnail":{"default":"https://cdn.freshful.ro/media/cache/sylius_shop_product_thumbnail/29/e0/55fa464ca3904382d2a510cb3f4e.jpg"},"large":{"default":"https://cdn.freshful.ro/media/cache/freshful_large/29/e0/55fa464ca3904382d2a510cb3f4e.jpg"},"extralarge":{"default":"https://cdn.freshful.ro/media/cache/sylius_shop_product_original/29/e0/55fa464ca3904382d2a510cb3f4e.jpg"}},"label":null,"tags":[],"isAvailable":true,"maxAvailableQuantity":46,"maxAllowedQuantity":100,"breadcrumbs":[{"code":"8","name":"Băcănie","slug":"8-ceva-sarat"},{"code":"803","name":"Condimente și sosuri","slug":"803-condimente-si-sosuri"},{"code":"80301","name":"Supe și ciorbe","slug":"80301-supe-si-ciorbe"},{"code":"100150755","name":"Supă instant cu gust de pui picant, 60g","slug":"100150755-no-brand-supa-instant-cu-gust-de-pui-picant-60g"}],"activePromotion":null,"saveMe":null,"labels":[],"geniusPrice":null,"geniusUnitPricePerLabel":null,"banner":null,"discountLabel":null,"geniusDiscountLabel":null,"badge":null},{"code":"100126114","variantCode":"5941017018532","name":"Supă de pui cu fidea 48g","slug":"100126114-maggi-supa-de-pui-cu-fidea-48g","unitPriceLabel":"75,8 Lei/kg","brand":"Maggi","brandCode":"2295","brandFilterCode":"maggi-b2337","sku":"100126114","price":3.79,"originalPrice":null,"currencyCode":"RON","currency":"Lei","image":{"thumbnail":{"default":"https://cdn.freshful.ro/media/cache/sylius_shop_product_thumbnail/da/96/d74a3a252e6b51d9c6cf3d27657f.jpg"},"large":{"default":"https://cdn.freshful.ro/media/cache/freshful_large/da/96/d74a3a252e6b51d9c6cf3d27657f.jpg"},"extralarge":{"default":"https://cdn.freshful.ro/media/cache/sylius_shop_product_original/da/96/d74a3a252e6b51d9c6cf3d27657f.jpg"}},"label":null,"tags":[],"isAvailable":true,"maxAvailableQuantity":100,"maxAllowedQuantity":100,"breadcrumbs":[{"code":"8","name":"Băcănie","slug":"8-ceva-sarat"},{"code":"803","name":"Condimente și sosuri","slug":"803-condimente-si-sosuri"},{"code":"80301","name":"Supe și ciorbe","slug":"80301-supe-si-ciorbe"},{"code":"100126114","name":"Supă de pui cu fidea 48g","slug":"100126114-maggi-supa-de-pui-cu-fidea-48g"}],"activePromotion":null,"saveMe":null,"labels":[],"geniusPrice":null,"geniusUnitPricePerLabel":null,"banner":null,"discountLabel":null,"geniusDiscountLabel":null,"badge":null},{"code":"100126115","variantCode":"5941017018570","name":"Supă cu găluște 47g","slug":"100126115-maggi-supa-cu-galuste-47g","unitPriceLabel":"75,8 Lei/kg","brand":"Maggi","brandCode":"2295","brandFilterCode":"maggi-b2337","sku":"100126115","price":3.79,"originalPrice":null,"currencyCode":"RON","currency":"Lei","image":{"thumbnail":{"default":"https://cdn.freshful.ro/media/cache/sylius_shop_product_thumbnail/32/d8/c1fe6a5d131e729f223b2f0bbac0.jpg"},"large":{"default":"https://cdn.freshful.ro/media/cache/freshful_large/32/d8/c1fe6a5d131e729f223b2f0bbac0.jpg"},"extralarge":{"default":"https://cdn.freshful.ro/media/cache/sylius_shop_product_original/32/d8/c1fe6a5d131e729f223b2f0bbac0.jpg"}},"label":null,"tags":[],"isAvailable":true,"maxAvailableQuantity":86,"maxAllowedQuantity":100,"breadcrumbs":[{"code":"8","name":"Băcănie","slug":"8-ceva-sarat"},{"code":"803","name":"Condimente și sosuri","slug":"803-condimente-si-sosuri"},{"code":"80301","name":"Supe și ciorbe","slug":"80301-supe-si-ciorbe"},{"code":"100126115","name":"Supă cu găluște 47g","slug":"100126115-maggi-supa-cu-galuste-47g"}],"activePromotion":null,"saveMe":null,"labels":[],"geniusPrice":null,"geniusUnitPricePerLabel":null,"banner":null,"discountLabel":null,"geniusDiscountLabel":null,"badge":null},{"code":"100068409","variantCode":"100068409","name":"Tăiței de orez instant cu aromă de vită Vermicelli 70g","slug":"100068409-bich-chi-taitei-de-orez-instant-cu-aroma-de-vita-vermicelli-70g","unitPriceLabel":"99,29 Lei/kg","brand":"Bich Chi","brandCode":"1073","brandFilterCode":"bich-chi-b1073","sku":"100068409","price":6.95,"originalPrice":null,"currencyCode":"RON","currency":"Lei","image":{"thumbnail":{"default":"https://cdn.freshful.ro/media/cache/sylius_shop_product_thumbnail/8c/cf/233bf9f2193b443ee6f743c6702a.jpg"},"large":{"default":"https://cdn.freshful.ro/media/cache/freshful_large/8c/cf/233bf9f2193b443ee6f743c6702a.jpg"},"extralarge":{"default":"https://cdn.freshful.ro/media/cache/sylius_shop_product_original/8c/cf/233bf9f2193b443ee6f743c6702a.jpg"}},"label":null,"tags":[],"isAvailable":true,"maxAvailableQuantity":28,"maxAllowedQuantity":100,"breadcrumbs":[{"code":"8","name":"Băcănie","slug":"8-ceva-sarat"},{"code":"803","name":"Condimente și sosuri","slug":"803-condimente-si-sosuri"},{"code":"80301","name":"Supe și ciorbe","slug":"80301-supe-si-ciorbe"},{"code":"100068409","name":"Tăiței de orez instant cu aromă de vită Vermicelli 70g","slug":"100068409-bich-chi-taitei-de-orez-instant-cu-aroma-de-vita-vermicelli-70g"}],"activePromotion":null,"saveMe":null,"labels":[],"geniusPrice":null,"geniusUnitPricePerLabel":null,"banner":null,"discountLabel":null,"geniusDiscountLabel":null,"badge":null},{"code":"100079554","variantCode":"100079554","name":"Supă cremă de mazăre verde 400g","slug":"100079554-pamapol-supa-crema-de-mazare-verde-400g","unitPriceLabel":"37,48 Lei/kg","brand":"Pamapol","brandCode":"94","brandFilterCode":"pamapol-b139","sku":"100079554","price":14.99,"originalPrice":null,"currencyCode":"RON","currency":"Lei","image":{"thumbnail":{"default":"https://cdn.freshful.ro/media/cache/sylius_shop_product_thumbnail/01/c4/a418f165a0a10204ec9f44b8ab46.jpg"},"large":{"default":"https://cdn.freshful.ro/media/cache/freshful_large/01/c4/a418f165a0a10204ec9f44b8ab46.jpg"},"extralarge":{"default":"https://cdn.freshful.ro/media/cache/sylius_shop_product_original/01/c4/a418f165a0a10204ec9f44b8ab46.jpg"}},"label":null,"tags":[{"type":"vegan","text":"Vegan","icon":"https://cdn.freshful.ro/assets/product_tags/vegan.svg","iconPng":"https://cdn.freshful.ro/assets/product_tags/vegan.png","backgroundColor":"#ECF9F8","textColor":"#33A39C"}],"isAvailable":true,"maxAvailableQuantity":3,"maxAllowedQuantity":100,"breadcrumbs":[{"code":"8","name":"Băcănie","slug":"8-ceva-sarat"},{"code":"803","name":"Condimente și sosuri","slug":"803-condimente-si-sosuri"},{"code":"80301","name":"Supe și ciorbe","slug":"80301-supe-si-ciorbe"},{"code":"100079554","name":"Supă cremă de mazăre verde 400g","slug":"100079554-pamapol-supa-crema-de-mazare-verde-400g"}],"activePromotion":null,"saveMe":null,"labels":[],"geniusPrice":null,"geniusUnitPricePerLabel":null,"banner":null,"discountLabel":null,"geniusDiscountLabel":null,"badge":null},{"code":"100126116","variantCode":"5941017018594","name":"Supă instant de văcuță cu fidea 49g","slug":"100126116-maggi-supa-instant-de-vacuta-cu-fidea-49g","unitPriceLabel":"91,8 Lei/kg","brand":"Maggi","brandCode":"2295","brandFilterCode":"maggi-b2337","sku":"100126116","price":4.59,"originalPrice":null,"currencyCode":"RON","currency":"Lei","image":{"thumbnail":{"default":"https://cdn.freshful.ro/media/cache/sylius_shop_product_thumbnail/1c/7c/cb52a6a2da0d7c4ee29caf049c6e.jpg"},"large":{"default":"https://cdn.freshful.ro/media/cache/freshful_large/1c/7c/cb52a6a2da0d7c4ee29caf049c6e.jpg"},"extralarge":{"default":"https://cdn.freshful.ro/media/cache/sylius_shop_product_original/1c/7c/cb52a6a2da0d7c4ee29caf049c6e.jpg"}},"label":null,"tags":[],"isAvailable":true,"maxAvailableQuantity":100,"maxAllowedQuantity":100,"breadcrumbs":[{"code":"8","name":"Băcănie","slug":"8-ceva-sarat"},{"code":"803","name":"Condimente și sosuri","slug":"803-condimente-si-sosuri"},{"code":"80301","name":"Supe și ciorbe","slug":"80301-supe-si-ciorbe"},{"code":"100126116","name":"Supă instant de văcuță cu fidea 49g","slug":"100126116-maggi-supa-instant-de-vacuta-cu-fidea-49g"}],"activePromotion":null,"saveMe":null,"labels":[],"geniusPrice":null,"geniusUnitPricePerLabel":null,"banner":null,"discountLabel":null,"geniusDiscountLabel":null,"badge":null}],"filters":{"countSelected":0,"items":[{"code":"brand","name":"Brand","countSelected":0,"values":[{"code":"bich-chi-b1073","name":"Bich Chi","isSelected":false,"count":2},{"code":"goong-b138","name":"Goong","isSelected":false,"count":1},{"code":"maggi-b2337","name":"Maggi","isSelected":false,"count":3},{"code":"pamapol-b139","name":"Pamapol","isSelected":false,"count":4},{"code":"reeva-b3098","name":"Reeva","isSelected":false,"count":4},{"code":"soba-b1635","name":"Soba","isSelected":false,"count":4},{"code":"we-cup-b2844","name":"We Cup","isSelected":false,"count":5}]},{"code":"diet_lifestyle","name":"Dietă și lifestyle","countSelected":0,"values":[{"code":"vegan-a24","name":"Vegan","isSelected":false,"count":3}]}]},"orderBy":[{"field":"price","direction":"asc","name":"Preț crescător","isSelected":false},{"field":"price","direction":"desc","name":"Preț descrescător","isSelected":false},{"field":"popularity","direction":"desc","name":"Cele mai populare","isSelected":true},{"field":"category","direction":"asc","name":"Categorie","isSelected":false}],"metaTitle":"Supe și ciorbe - Gamă variată","metaDescription":"Vrei Supe și ciorbe? Alege dintr-o gamă variată. Comanzi simplu și ai livrare rapidă, calitate și prospețime. Hai pe Freshful.ro","metaKeywords":null,"banners":[]}}