{"type":"subcategory","payload":{"analyticsListId":"category_80302-sare-si-condimentre","analyticsListName":"Category - Sare și condimente","name":"Sare și condimente","slug":"80302-sare-si-condimentre","image":null,"breadcrumbs":[{"code":"8","name":"Băcănie","slug":"8-ceva-sarat"},{"code":"803","name":"Condimente și sosuri","slug":"803-condimente-si-sosuri"},{"code":"80302","name":"Sare și condimente","slug":"80302-sare-si-condimentre"}],"slots":[],"page":1,"limit":10,"pages":24,"count":231,"siblings":[{"name":"Paste, orez și legume uscate","slug":"801-paste-orez-si-legume-uscate","selected":false},{"name":"Conserve","slug":"802-conserve","selected":false},{"name":"Condimente și sosuri","slug":"803-condimente-si-sosuri","selected":true},{"name":"Ulei și oțet","slug":"804-ulei-si-otet","selected":false},{"name":"De ronțăit","slug":"805-aperitive-sarate","selected":false},{"name":"Făină, zahăr și produse gourmet","slug":"faina-zahar-si-produse-gourmet","selected":false}],"children":[{"name":"Toate produsele","slug":"803-condimente-si-sosuri","selected":false},{"name":"Supe și ciorbe","slug":"80301-supe-si-ciorbe","selected":false},{"name":"Sare și condimente","slug":"80302-sare-si-condimentre","selected":true},{"name":"Bază de mâncare și premix","slug":"80303-baza-de-mancare-si-premix","selected":false},{"name":"Muștar, ketchup și maioneză","slug":"80304-mustar-ketchup-si-maioneza","selected":false},{"name":"Sosuri și pastă de tomate","slug":"80305-sosuri-si-pasta-de-tomate","selected":false}],"products":[{"code":"100088635","variantCode":"5941390000094","name":"Usturoi granulat 15g","slug":"100088635-cosmin-usturoi-granulat-15g","unitPriceLabel":"132,67 Lei/kg","brand":"Cosmin","brandCode":"923","brandFilterCode":"cosmin-b923","sku":"100088635","price":1.99,"originalPrice":null,"currencyCode":"RON","currency":"Lei","image":{"thumbnail":{"default":"https://cdn.freshful.ro/media/cache/sylius_shop_product_thumbnail/0a/31/b58dea3a4289e4356d4e4900fa72.jpg"},"large":{"default":"https://cdn.freshful.ro/media/cache/freshful_large/0a/31/b58dea3a4289e4356d4e4900fa72.jpg"},"extralarge":{"default":"https://cdn.freshful.ro/media/cache/sylius_shop_product_original/0a/31/b58dea3a4289e4356d4e4900fa72.jpg"}},"label":null,"tags":[{"type":"Natural","text":"Natural","icon":"https://cdn.freshful.ro/assets/product_tags/natural.svg","iconPng":"https://cdn.freshful.ro/assets/product_tags/natural.png","backgroundColor":"#E9FCF2","textColor":"#18AF62"}],"isAvailable":true,"maxAvailableQuantity":100,"maxAllowedQuantity":100,"breadcrumbs":[{"code":"8","name":"Băcănie","slug":"8-ceva-sarat"},{"code":"803","name":"Condimente și sosuri","slug":"803-condimente-si-sosuri"},{"code":"80302","name":"Sare și condimente","slug":"80302-sare-si-condimentre"},{"code":"100088635","name":"Usturoi granulat 15g","slug":"100088635-cosmin-usturoi-granulat-15g"}],"activePromotion":null,"saveMe":null,"labels":[],"geniusPrice":null,"geniusUnitPricePerLabel":null,"banner":null,"discountLabel":null,"geniusDiscountLabel":null,"badge":null},{"code":"100088696","variantCode":"5941390000155","name":"Boia de ardei dulce 17g","slug":"100088696-cosmin-boia-de-ardei-dulce-17g","unitPriceLabel":"111,18 Lei/kg","brand":"Cosmin","brandCode":"923","brandFilterCode":"cosmin-b923","sku":"100088696","price":1.89,"originalPrice":null,"currencyCode":"RON","currency":"Lei","image":{"thumbnail":{"default":"https://cdn.freshful.ro/media/cache/sylius_shop_product_thumbnail/0b/1f/662f88490e241442074614b3379e.jpg"},"large":{"default":"https://cdn.freshful.ro/media/cache/freshful_large/0b/1f/662f88490e241442074614b3379e.jpg"},"extralarge":{"default":"https://cdn.freshful.ro/media/cache/sylius_shop_product_original/0b/1f/662f88490e241442074614b3379e.jpg"}},"label":null,"tags":[],"isAvailable":true,"maxAvailableQuantity":100,"maxAllowedQuantity":100,"breadcrumbs":[{"code":"8","name":"Băcănie","slug":"8-ceva-sarat"},{"code":"803","name":"Condimente și sosuri","slug":"803-condimente-si-sosuri"},{"code":"80302","name":"Sare și condimente","slug":"80302-sare-si-condimentre"},{"code":"100088696","name":"Boia de ardei dulce 17g","slug":"100088696-cosmin-boia-de-ardei-dulce-17g"}],"activePromotion":null,"saveMe":null,"labels":[],"geniusPrice":null,"geniusUnitPricePerLabel":null,"banner":null,"discountLabel":null,"geniusDiscountLabel":null,"badge":null},{"code":"100045967","variantCode":"5900084026161","name":"Usturoi granulat 25g","slug":"100045967-kamis-usturoi-granulat-25g","unitPriceLabel":"116,67 Lei/kg","brand":"Kamis","brandCode":"510","brandFilterCode":"kamis-b511","sku":"100045967","price":3.85,"originalPrice":null,"currencyCode":"RON","currency":"Lei","image":{"thumbnail":{"default":"https://cdn.freshful.ro/media/cache/sylius_shop_product_thumbnail/6f/59/4ba7b00bd8f705b8d86e064b2052.jpg"},"large":{"default":"https://cdn.freshful.ro/media/cache/freshful_large/6f/59/4ba7b00bd8f705b8d86e064b2052.jpg"},"extralarge":{"default":"https://cdn.freshful.ro/media/cache/sylius_shop_product_original/6f/59/4ba7b00bd8f705b8d86e064b2052.jpg"}},"label":null,"tags":[],"isAvailable":true,"maxAvailableQuantity":100,"maxAllowedQuantity":100,"breadcrumbs":[{"code":"8","name":"Băcănie","slug":"8-ceva-sarat"},{"code":"803","name":"Condimente și sosuri","slug":"803-condimente-si-sosuri"},{"code":"80302","name":"Sare și condimente","slug":"80302-sare-si-condimentre"},{"code":"100045967","name":"Usturoi granulat 25g","slug":"100045967-kamis-usturoi-granulat-25g"}],"activePromotion":null,"saveMe":null,"labels":[],"geniusPrice":null,"geniusUnitPricePerLabel":null,"banner":null,"discountLabel":null,"geniusDiscountLabel":null,"badge":null},{"code":"100046168","variantCode":"5201050111127","name":"Sare de mare iodată 250g","slug":"100046168-kalas-sare-de-mare-iodata-250g","unitPriceLabel":"18,96 Lei/kg","brand":"Kalas","brandCode":"113","brandFilterCode":"kalas-b97","sku":"100046168","price":4.74,"originalPrice":null,"currencyCode":"RON","currency":"Lei","image":{"thumbnail":{"default":"https://cdn.freshful.ro/media/cache/sylius_shop_product_thumbnail/80/d3/e62aae75987a7d213a8f71cbe150.jpg"},"large":{"default":"https://cdn.freshful.ro/media/cache/freshful_large/80/d3/e62aae75987a7d213a8f71cbe150.jpg"},"extralarge":{"default":"https://cdn.freshful.ro/media/cache/sylius_shop_product_original/80/d3/e62aae75987a7d213a8f71cbe150.jpg"}},"label":null,"tags":[],"isAvailable":true,"maxAvailableQuantity":100,"maxAllowedQuantity":100,"breadcrumbs":[{"code":"8","name":"Băcănie","slug":"8-ceva-sarat"},{"code":"803","name":"Condimente și sosuri","slug":"803-condimente-si-sosuri"},{"code":"80302","name":"Sare și condimente","slug":"80302-sare-si-condimentre"},{"code":"100046168","name":"Sare de mare iodată 250g","slug":"100046168-kalas-sare-de-mare-iodata-250g"}],"activePromotion":null,"saveMe":null,"labels":[],"geniusPrice":null,"geniusUnitPricePerLabel":null,"banner":null,"discountLabel":null,"geniusDiscountLabel":null,"badge":null},{"code":"100106591","variantCode":"5900084264334","name":"Piper mozaic boabe 15g","slug":"100106591-galeo-piper-mozaic-boabe-15g","unitPriceLabel":"203,33 Lei/kg","brand":"Galeo","brandCode":"511","brandFilterCode":"galeo-b512","sku":"100106591","price":3.05,"originalPrice":null,"currencyCode":"RON","currency":"Lei","image":{"thumbnail":{"default":"https://cdn.freshful.ro/media/cache/sylius_shop_product_thumbnail/1b/af/7ae8509a69a0a72996717143ec76.jpg"},"large":{"default":"https://cdn.freshful.ro/media/cache/freshful_large/1b/af/7ae8509a69a0a72996717143ec76.jpg"},"extralarge":{"default":"https://cdn.freshful.ro/media/cache/sylius_shop_product_original/1b/af/7ae8509a69a0a72996717143ec76.jpg"}},"label":null,"tags":[],"isAvailable":true,"maxAvailableQuantity":84,"maxAllowedQuantity":100,"breadcrumbs":[{"code":"8","name":"Băcănie","slug":"8-ceva-sarat"},{"code":"803","name":"Condimente și sosuri","slug":"803-condimente-si-sosuri"},{"code":"80302","name":"Sare și condimente","slug":"80302-sare-si-condimentre"},{"code":"100106591","name":"Piper mozaic boabe 15g","slug":"100106591-galeo-piper-mozaic-boabe-15g"}],"activePromotion":null,"saveMe":null,"labels":[],"geniusPrice":null,"geniusUnitPricePerLabel":null,"banner":null,"discountLabel":null,"geniusDiscountLabel":null,"badge":null},{"code":"100046003","variantCode":"5900084207348","name":"Oregano 10g","slug":"100046003-galeo-oregano-10g","unitPriceLabel":"122,31 Lei/kg","brand":"Galeo","brandCode":"511","brandFilterCode":"galeo-b512","sku":"100046003","price":1.59,"originalPrice":null,"currencyCode":"RON","currency":"Lei","image":{"thumbnail":{"default":"https://cdn.freshful.ro/media/cache/sylius_shop_product_thumbnail/fd/99/cb2be15e0be0fcedbfd58d2bcb10.jpg"},"large":{"default":"https://cdn.freshful.ro/media/cache/freshful_large/fd/99/cb2be15e0be0fcedbfd58d2bcb10.jpg"},"extralarge":{"default":"https://cdn.freshful.ro/media/cache/sylius_shop_product_original/fd/99/cb2be15e0be0fcedbfd58d2bcb10.jpg"}},"label":null,"tags":[],"isAvailable":true,"maxAvailableQuantity":100,"maxAllowedQuantity":100,"breadcrumbs":[{"code":"8","name":"Băcănie","slug":"8-ceva-sarat"},{"code":"803","name":"Condimente și sosuri","slug":"803-condimente-si-sosuri"},{"code":"80302","name":"Sare și condimente","slug":"80302-sare-si-condimentre"},{"code":"100046003","name":"Oregano 10g","slug":"100046003-galeo-oregano-10g"}],"activePromotion":null,"saveMe":null,"labels":[],"geniusPrice":null,"geniusUnitPricePerLabel":null,"banner":null,"discountLabel":null,"geniusDiscountLabel":null,"badge":null},{"code":"100088637","variantCode":"5941390000179","name":"Piper negru boabe 17g","slug":"100088637-cosmin-piper-negru-boabe-17g","unitPriceLabel":"128,82 Lei/kg","brand":"Cosmin","brandCode":"923","brandFilterCode":"cosmin-b923","sku":"100088637","price":2.19,"originalPrice":null,"currencyCode":"RON","currency":"Lei","image":{"thumbnail":{"default":"https://cdn.freshful.ro/media/cache/sylius_shop_product_thumbnail/1f/21/af74dae7f36d80790f927c906a25.jpg"},"large":{"default":"https://cdn.freshful.ro/media/cache/freshful_large/1f/21/af74dae7f36d80790f927c906a25.jpg"},"extralarge":{"default":"https://cdn.freshful.ro/media/cache/sylius_shop_product_original/1f/21/af74dae7f36d80790f927c906a25.jpg"}},"label":null,"tags":[],"isAvailable":true,"maxAvailableQuantity":100,"maxAllowedQuantity":100,"breadcrumbs":[{"code":"8","name":"Băcănie","slug":"8-ceva-sarat"},{"code":"803","name":"Condimente și sosuri","slug":"803-condimente-si-sosuri"},{"code":"80302","name":"Sare și condimente","slug":"80302-sare-si-condimentre"},{"code":"100088637","name":"Piper negru boabe 17g","slug":"100088637-cosmin-piper-negru-boabe-17g"}],"activePromotion":null,"saveMe":null,"labels":[],"geniusPrice":null,"geniusUnitPricePerLabel":null,"banner":null,"discountLabel":null,"geniusDiscountLabel":null,"badge":null},{"code":"100045998","variantCode":"5900084207423","name":"Cimbru 10g","slug":"100045998-galeo-cimbru-10g","unitPriceLabel":"132,67 Lei/kg","brand":"Galeo","brandCode":"511","brandFilterCode":"galeo-b512","sku":"100045998","price":1.99,"originalPrice":null,"currencyCode":"RON","currency":"Lei","image":{"thumbnail":{"default":"https://cdn.freshful.ro/media/cache/sylius_shop_product_thumbnail/93/d0/79a5b1da6e8e2f53e06b313ddd74.jpg"},"large":{"default":"https://cdn.freshful.ro/media/cache/freshful_large/93/d0/79a5b1da6e8e2f53e06b313ddd74.jpg"},"extralarge":{"default":"https://cdn.freshful.ro/media/cache/sylius_shop_product_original/93/d0/79a5b1da6e8e2f53e06b313ddd74.jpg"}},"label":null,"tags":[],"isAvailable":true,"maxAvailableQuantity":96,"maxAllowedQuantity":100,"breadcrumbs":[{"code":"8","name":"Băcănie","slug":"8-ceva-sarat"},{"code":"803","name":"Condimente și sosuri","slug":"803-condimente-si-sosuri"},{"code":"80302","name":"Sare și condimente","slug":"80302-sare-si-condimentre"},{"code":"100045998","name":"Cimbru 10g","slug":"100045998-galeo-cimbru-10g"}],"activePromotion":null,"saveMe":null,"labels":[],"geniusPrice":null,"geniusUnitPricePerLabel":null,"banner":null,"discountLabel":null,"geniusDiscountLabel":null,"badge":null},{"code":"100046166","variantCode":"5201050101845","name":"Sare de mare iodată 500g","slug":"100046166-kalas-sare-de-mare-iodata-500g","unitPriceLabel":"18,98 Lei/kg","brand":"Kalas","brandCode":"113","brandFilterCode":"kalas-b97","sku":"100046166","price":9.49,"originalPrice":null,"currencyCode":"RON","currency":"Lei","image":{"thumbnail":{"default":"https://cdn.freshful.ro/media/cache/sylius_shop_product_thumbnail/cc/06/a17e68118fda2f195ab9cd66a3e7.jpg"},"large":{"default":"https://cdn.freshful.ro/media/cache/freshful_large/cc/06/a17e68118fda2f195ab9cd66a3e7.jpg"},"extralarge":{"default":"https://cdn.freshful.ro/media/cache/sylius_shop_product_original/cc/06/a17e68118fda2f195ab9cd66a3e7.jpg"}},"label":null,"tags":[],"isAvailable":true,"maxAvailableQuantity":92,"maxAllowedQuantity":100,"breadcrumbs":[{"code":"8","name":"Băcănie","slug":"8-ceva-sarat"},{"code":"803","name":"Condimente și sosuri","slug":"803-condimente-si-sosuri"},{"code":"80302","name":"Sare și condimente","slug":"80302-sare-si-condimentre"},{"code":"100046166","name":"Sare de mare iodată 500g","slug":"100046166-kalas-sare-de-mare-iodata-500g"}],"activePromotion":null,"saveMe":null,"labels":[],"geniusPrice":null,"geniusUnitPricePerLabel":null,"banner":null,"discountLabel":null,"geniusDiscountLabel":null,"badge":null},{"code":"100093167","variantCode":"5949077000900","name":"Sare roz de Himalaya fină 227g","slug":"100093167-himalaya-s-elite-sare-roz-de-himalaya-fina-227g","unitPriceLabel":"18,72 Lei/kg","brand":"Himalaya's Elite","brandCode":"1554","brandFilterCode":"himalaya-s-elite-b1560","sku":"100093167","price":4.25,"originalPrice":null,"currencyCode":"RON","currency":"Lei","image":{"thumbnail":{"default":"https://cdn.freshful.ro/media/cache/sylius_shop_product_thumbnail/07/72/a6c093c57b50c06f5c4219294434.jpg"},"large":{"default":"https://cdn.freshful.ro/media/cache/freshful_large/07/72/a6c093c57b50c06f5c4219294434.jpg"},"extralarge":{"default":"https://cdn.freshful.ro/media/cache/sylius_shop_product_original/07/72/a6c093c57b50c06f5c4219294434.jpg"}},"label":null,"tags":[],"isAvailable":true,"maxAvailableQuantity":100,"maxAllowedQuantity":100,"breadcrumbs":[{"code":"8","name":"Băcănie","slug":"8-ceva-sarat"},{"code":"803","name":"Condimente și sosuri","slug":"803-condimente-si-sosuri"},{"code":"80302","name":"Sare și condimente","slug":"80302-sare-si-condimentre"},{"code":"100093167","name":"Sare roz de Himalaya fină 227g","slug":"100093167-himalaya-s-elite-sare-roz-de-himalaya-fina-227g"}],"activePromotion":null,"saveMe":null,"labels":[],"geniusPrice":null,"geniusUnitPricePerLabel":null,"banner":null,"discountLabel":null,"geniusDiscountLabel":null,"badge":null}],"filters":{"countSelected":0,"items":[{"code":"brand","name":"Brand","countSelected":0,"values":[{"code":"cosmin-b923","name":"Cosmin","isSelected":false,"count":19},{"code":"dr-oetker-b51","name":"Dr. Oetker","isSelected":false,"count":1},{"code":"fuchs-b920","name":"Fuchs","isSelected":false,"count":42},{"code":"galeo-b512","name":"Galeo","isSelected":false,"count":43},{"code":"gocce-di-sale-b96","name":"Gocce Di Sale","isSelected":false,"count":1},{"code":"greenomic-b1848","name":"Greenomic","isSelected":false,"count":3},{"code":"himalaya-s-elite-b1560","name":"Himalaya's Elite","isSelected":false,"count":6},{"code":"kalas-b97","name":"Kalas","isSelected":false,"count":10},{"code":"kamis-b511","name":"Kamis","isSelected":false,"count":75},{"code":"kotanyi-b298","name":"Kotányi","isSelected":false,"count":2},{"code":"lachinata-b2168","name":"Lachinata","isSelected":false,"count":2},{"code":"salrom-b204","name":"Salrom","isSelected":false,"count":4},{"code":"sanovita-b483","name":"Sanovita","isSelected":false,"count":2},{"code":"suntat-b980","name":"Suntat","isSelected":false,"count":5},{"code":"v6bbq-b924","name":"V6BBQ","isSelected":false,"count":8},{"code":"vegeta-b1144","name":"Vegeta","isSelected":false,"count":8}]},{"code":"diet_lifestyle","name":"Dietă și lifestyle","countSelected":0,"values":[{"code":"eco-a83","name":"Eco","isSelected":false,"count":2},{"code":"fara-gluten-a16","name":"Fara gluten","isSelected":false,"count":1},{"code":"made-in-romania-a85","name":"Made In Romania","isSelected":false,"count":2},{"code":"natural-a27","name":"Natural","isSelected":false,"count":3}]}]},"orderBy":[{"field":"price","direction":"asc","name":"Preț crescător","isSelected":false},{"field":"price","direction":"desc","name":"Preț descrescător","isSelected":false},{"field":"popularity","direction":"desc","name":"Cele mai populare","isSelected":true},{"field":"category","direction":"asc","name":"Categorie","isSelected":false}],"metaTitle":"Sare și condimente - Gamă variată","metaDescription":"Vrei Sare și condimente? Alege dintr-o gamă variată. Comanzi simplu și ai livrare rapidă, calitate și prospețime. Hai pe Freshful.ro","metaKeywords":null,"banners":[]}}