{"type":"subcategory","payload":{"analyticsListId":"category_80305-sosuri-si-pasta-de-tomate","analyticsListName":"Category - Sosuri și pastă de tomate","name":"Sosuri și pastă de tomate","slug":"80305-sosuri-si-pasta-de-tomate","image":null,"breadcrumbs":[{"code":"8","name":"Băcănie","slug":"8-ceva-sarat"},{"code":"803","name":"Condimente și sosuri","slug":"803-condimente-si-sosuri"},{"code":"80305","name":"Sosuri și pastă de tomate","slug":"80305-sosuri-si-pasta-de-tomate"}],"slots":[],"page":1,"limit":10,"pages":12,"count":117,"siblings":[{"name":"Paste, orez și legume uscate","slug":"801-paste-orez-si-legume-uscate","selected":false},{"name":"Conserve","slug":"802-conserve","selected":false},{"name":"Condimente și sosuri","slug":"803-condimente-si-sosuri","selected":true},{"name":"Ulei și oțet","slug":"804-ulei-si-otet","selected":false},{"name":"De ronțăit","slug":"805-aperitive-sarate","selected":false},{"name":"Făină, zahăr și produse gourmet","slug":"faina-zahar-si-produse-gourmet","selected":false}],"children":[{"name":"Toate produsele","slug":"803-condimente-si-sosuri","selected":false},{"name":"Supe și ciorbe","slug":"80301-supe-si-ciorbe","selected":false},{"name":"Sare și condimente","slug":"80302-sare-si-condimentre","selected":false},{"name":"Bază de mâncare și premix","slug":"80303-baza-de-mancare-si-premix","selected":false},{"name":"Muștar, ketchup și maioneză","slug":"80304-mustar-ketchup-si-maioneza","selected":false},{"name":"Sosuri și pastă de tomate","slug":"80305-sosuri-si-pasta-de-tomate","selected":true}],"products":[{"code":"100143433","variantCode":"100143433","name":"Piure de roșii 500g","slug":"100143433-valenii-de-munte-piure-de-rosii-500g","unitPriceLabel":"12,98 Lei/kg","brand":"Valenii De Munte","brandCode":"2712","brandFilterCode":"valenii-de-munte-b2718","sku":"100143433","price":6.49,"originalPrice":8.99,"currencyCode":"RON","currency":"Lei","image":{"thumbnail":{"default":"https://cdn.freshful.ro/media/cache/sylius_shop_product_thumbnail/57/4e/fe3568fea3ac85bda2daf4a22337.jpg"},"large":{"default":"https://cdn.freshful.ro/media/cache/freshful_large/57/4e/fe3568fea3ac85bda2daf4a22337.jpg"},"extralarge":{"default":"https://cdn.freshful.ro/media/cache/sylius_shop_product_original/57/4e/fe3568fea3ac85bda2daf4a22337.jpg"}},"label":{"text":"-27%","backgroundColor":"#FF9903","textColor":"#FFFFFF"},"tags":[],"isAvailable":true,"maxAvailableQuantity":64,"maxAllowedQuantity":100,"breadcrumbs":[{"code":"8","name":"Băcănie","slug":"8-ceva-sarat"},{"code":"803","name":"Condimente și sosuri","slug":"803-condimente-si-sosuri"},{"code":"80305","name":"Sosuri și pastă de tomate","slug":"80305-sosuri-si-pasta-de-tomate"},{"code":"100143433","name":"Piure de roșii 500g","slug":"100143433-valenii-de-munte-piure-de-rosii-500g"}],"activePromotion":{"code":"special-produse-vegane-mar23","name":"Preț redus","targetQuantity":null},"saveMe":null,"labels":[{"type":"v1","items":[{"text":"-27%","backgroundColor":"#FF9903","textColor":"#FFFFFF"}]}],"geniusPrice":null,"geniusUnitPricePerLabel":null,"banner":{"text":"Super preț","textColor":"#FF0000","bgColor":"#FFF2EC","icon":null,"link":"https://www.freshful.ro/oferte/special-produse-vegane-mar23","type":"promo","analyticsEventType":"select_promotion","analyticsEventPayload":{"promotion_id":"special-produse-vegane-mar23","promotion_name":"Și bun, și de post"}},"discountLabel":"Economisești 27%","geniusDiscountLabel":null,"badge":null},{"code":"100097205","variantCode":"8000320990113","name":"Roșii pasate 500g","slug":"100097205-cirio-rosii-pasate-500g","unitPriceLabel":"16,52 Lei/kg","brand":"Cirio","brandCode":"642","brandFilterCode":"cirio-b643","sku":"100097205","price":8.26,"originalPrice":null,"currencyCode":"RON","currency":"Lei","image":{"thumbnail":{"default":"https://cdn.freshful.ro/media/cache/sylius_shop_product_thumbnail/d8/98/3f50ebfac6038566f27e135345c6.jpg"},"large":{"default":"https://cdn.freshful.ro/media/cache/freshful_large/d8/98/3f50ebfac6038566f27e135345c6.jpg"},"extralarge":{"default":"https://cdn.freshful.ro/media/cache/sylius_shop_product_original/d8/98/3f50ebfac6038566f27e135345c6.jpg"}},"label":null,"tags":[],"isAvailable":true,"maxAvailableQuantity":100,"maxAllowedQuantity":100,"breadcrumbs":[{"code":"8","name":"Băcănie","slug":"8-ceva-sarat"},{"code":"803","name":"Condimente și sosuri","slug":"803-condimente-si-sosuri"},{"code":"80305","name":"Sosuri și pastă de tomate","slug":"80305-sosuri-si-pasta-de-tomate"},{"code":"100097205","name":"Roșii pasate 500g","slug":"100097205-cirio-rosii-pasate-500g"}],"activePromotion":null,"saveMe":null,"labels":[],"geniusPrice":null,"geniusUnitPricePerLabel":null,"banner":null,"discountLabel":null,"geniusDiscountLabel":null,"badge":null},{"code":"100093425","variantCode":"100093425","name":"Sos de roșii cu busuioc 400g","slug":"100093425-barilla-sos-de-rosii-cu-busuioc-400g","unitPriceLabel":"28,48 Lei/kg","brand":"Barilla","brandCode":"267","brandFilterCode":"barilla-b268","sku":"100093425","price":11.39,"originalPrice":null,"currencyCode":"RON","currency":"Lei","image":{"thumbnail":{"default":"https://cdn.freshful.ro/media/cache/sylius_shop_product_thumbnail/79/fe/250790b90260ccfc94acb3f83506.jpg"},"large":{"default":"https://cdn.freshful.ro/media/cache/freshful_large/79/fe/250790b90260ccfc94acb3f83506.jpg"},"extralarge":{"default":"https://cdn.freshful.ro/media/cache/sylius_shop_product_original/79/fe/250790b90260ccfc94acb3f83506.jpg"}},"label":null,"tags":[{"type":"NoGluten","text":"Fara gluten","icon":"https://cdn.freshful.ro/assets/product_tags/fara_gluten.svg","iconPng":"https://cdn.freshful.ro/assets/product_tags/fara_gluten.png","backgroundColor":"#FFF2E5","textColor":"#F07900"}],"isAvailable":true,"maxAvailableQuantity":100,"maxAllowedQuantity":100,"breadcrumbs":[{"code":"8","name":"Băcănie","slug":"8-ceva-sarat"},{"code":"803","name":"Condimente și sosuri","slug":"803-condimente-si-sosuri"},{"code":"80305","name":"Sosuri și pastă de tomate","slug":"80305-sosuri-si-pasta-de-tomate"},{"code":"100093425","name":"Sos de roșii cu busuioc 400g","slug":"100093425-barilla-sos-de-rosii-cu-busuioc-400g"}],"activePromotion":null,"saveMe":null,"labels":[],"geniusPrice":null,"geniusUnitPricePerLabel":null,"banner":null,"discountLabel":null,"geniusDiscountLabel":null,"badge":null},{"code":"100093426","variantCode":"100093426","name":"Sos pesto cu busuioc 190g","slug":"100093426-barilla-sos-pesto-cu-busuioc-190g","unitPriceLabel":"92,47 Lei/kg","brand":"Barilla","brandCode":"267","brandFilterCode":"barilla-b268","sku":"100093426","price":17.57,"originalPrice":null,"currencyCode":"RON","currency":"Lei","image":{"thumbnail":{"default":"https://cdn.freshful.ro/media/cache/sylius_shop_product_thumbnail/b0/50/c1a833f05aa924029c5cd87709bf.jpg"},"large":{"default":"https://cdn.freshful.ro/media/cache/freshful_large/b0/50/c1a833f05aa924029c5cd87709bf.jpg"},"extralarge":{"default":"https://cdn.freshful.ro/media/cache/sylius_shop_product_original/b0/50/c1a833f05aa924029c5cd87709bf.jpg"}},"label":null,"tags":[{"type":"NoGluten","text":"Fara gluten","icon":"https://cdn.freshful.ro/assets/product_tags/fara_gluten.svg","iconPng":"https://cdn.freshful.ro/assets/product_tags/fara_gluten.png","backgroundColor":"#FFF2E5","textColor":"#F07900"}],"isAvailable":true,"maxAvailableQuantity":100,"maxAllowedQuantity":100,"breadcrumbs":[{"code":"8","name":"Băcănie","slug":"8-ceva-sarat"},{"code":"803","name":"Condimente și sosuri","slug":"803-condimente-si-sosuri"},{"code":"80305","name":"Sosuri și pastă de tomate","slug":"80305-sosuri-si-pasta-de-tomate"},{"code":"100093426","name":"Sos pesto cu busuioc 190g","slug":"100093426-barilla-sos-pesto-cu-busuioc-190g"}],"activePromotion":null,"saveMe":null,"labels":[],"geniusPrice":null,"geniusUnitPricePerLabel":null,"banner":null,"discountLabel":null,"geniusDiscountLabel":null,"badge":null},{"code":"100143432","variantCode":"100143432","name":"Roșii pasate 680g","slug":"100143432-valenii-de-munte-rosii-pasate-680g","unitPriceLabel":"13,22 Lei/kg","brand":"Valenii De Munte","brandCode":"2712","brandFilterCode":"valenii-de-munte-b2718","sku":"100143432","price":8.99,"originalPrice":null,"currencyCode":"RON","currency":"Lei","image":{"thumbnail":{"default":"https://cdn.freshful.ro/media/cache/sylius_shop_product_thumbnail/4a/39/c178476d953d21d8c0c7d67d9735.jpg"},"large":{"default":"https://cdn.freshful.ro/media/cache/freshful_large/4a/39/c178476d953d21d8c0c7d67d9735.jpg"},"extralarge":{"default":"https://cdn.freshful.ro/media/cache/sylius_shop_product_original/4a/39/c178476d953d21d8c0c7d67d9735.jpg"}},"label":null,"tags":[],"isAvailable":true,"maxAvailableQuantity":100,"maxAllowedQuantity":100,"breadcrumbs":[{"code":"8","name":"Băcănie","slug":"8-ceva-sarat"},{"code":"803","name":"Condimente și sosuri","slug":"803-condimente-si-sosuri"},{"code":"80305","name":"Sosuri și pastă de tomate","slug":"80305-sosuri-si-pasta-de-tomate"},{"code":"100143432","name":"Roșii pasate 680g","slug":"100143432-valenii-de-munte-rosii-pasate-680g"}],"activePromotion":null,"saveMe":null,"labels":[],"geniusPrice":null,"geniusUnitPricePerLabel":null,"banner":null,"discountLabel":null,"geniusDiscountLabel":null,"badge":null},{"code":"100090087","variantCode":"100090087","name":"Pastă de tomate 24% 70g","slug":"100090087-sultan-pasta-de-tomate-24-70g","unitPriceLabel":"42,71 Lei/kg","brand":"Sultan","brandCode":"1547","brandFilterCode":"sultan-b1551","sku":"100090087","price":2.99,"originalPrice":null,"currencyCode":"RON","currency":"Lei","image":{"thumbnail":{"default":"https://cdn.freshful.ro/media/cache/sylius_shop_product_thumbnail/f1/79/4a8d5e5b93e226f3a5a341b1680c.jpg"},"large":{"default":"https://cdn.freshful.ro/media/cache/freshful_large/f1/79/4a8d5e5b93e226f3a5a341b1680c.jpg"},"extralarge":{"default":"https://cdn.freshful.ro/media/cache/sylius_shop_product_original/f1/79/4a8d5e5b93e226f3a5a341b1680c.jpg"}},"label":null,"tags":[],"isAvailable":true,"maxAvailableQuantity":100,"maxAllowedQuantity":100,"breadcrumbs":[{"code":"8","name":"Băcănie","slug":"8-ceva-sarat"},{"code":"803","name":"Condimente și sosuri","slug":"803-condimente-si-sosuri"},{"code":"80305","name":"Sosuri și pastă de tomate","slug":"80305-sosuri-si-pasta-de-tomate"},{"code":"100090087","name":"Pastă de tomate 24% 70g","slug":"100090087-sultan-pasta-de-tomate-24-70g"}],"activePromotion":null,"saveMe":null,"labels":[],"geniusPrice":null,"geniusUnitPricePerLabel":null,"banner":null,"discountLabel":null,"geniusDiscountLabel":null,"badge":null},{"code":"100097206","variantCode":"8000320010095","name":"Roșii pasate 700g","slug":"100097206-cirio-rosii-pasate-700g","unitPriceLabel":"15,7 Lei/kg","brand":"Cirio","brandCode":"642","brandFilterCode":"cirio-b643","sku":"100097206","price":10.99,"originalPrice":null,"currencyCode":"RON","currency":"Lei","image":{"thumbnail":{"default":"https://cdn.freshful.ro/media/cache/sylius_shop_product_thumbnail/fb/3a/e42fd0d0832eae6de15ce70c1f39.jpg"},"large":{"default":"https://cdn.freshful.ro/media/cache/freshful_large/fb/3a/e42fd0d0832eae6de15ce70c1f39.jpg"},"extralarge":{"default":"https://cdn.freshful.ro/media/cache/sylius_shop_product_original/fb/3a/e42fd0d0832eae6de15ce70c1f39.jpg"}},"label":null,"tags":[],"isAvailable":true,"maxAvailableQuantity":100,"maxAllowedQuantity":100,"breadcrumbs":[{"code":"8","name":"Băcănie","slug":"8-ceva-sarat"},{"code":"803","name":"Condimente și sosuri","slug":"803-condimente-si-sosuri"},{"code":"80305","name":"Sosuri și pastă de tomate","slug":"80305-sosuri-si-pasta-de-tomate"},{"code":"100097206","name":"Roșii pasate 700g","slug":"100097206-cirio-rosii-pasate-700g"}],"activePromotion":null,"saveMe":null,"labels":[],"geniusPrice":null,"geniusUnitPricePerLabel":null,"banner":null,"discountLabel":null,"geniusDiscountLabel":null,"badge":null},{"code":"100097212","variantCode":"8000320120251","name":"Sos roșii 700g","slug":"100097212-cirio-sos-rosii-700g","unitPriceLabel":"17,84 Lei/kg","brand":"Cirio","brandCode":"642","brandFilterCode":"cirio-b643","sku":"100097212","price":12.49,"originalPrice":null,"currencyCode":"RON","currency":"Lei","image":{"thumbnail":{"default":"https://cdn.freshful.ro/media/cache/sylius_shop_product_thumbnail/0d/b0/500bec13b96e4cd69da97ba546f1.jpg"},"large":{"default":"https://cdn.freshful.ro/media/cache/freshful_large/0d/b0/500bec13b96e4cd69da97ba546f1.jpg"},"extralarge":{"default":"https://cdn.freshful.ro/media/cache/sylius_shop_product_original/0d/b0/500bec13b96e4cd69da97ba546f1.jpg"}},"label":null,"tags":[],"isAvailable":true,"maxAvailableQuantity":100,"maxAllowedQuantity":100,"breadcrumbs":[{"code":"8","name":"Băcănie","slug":"8-ceva-sarat"},{"code":"803","name":"Condimente și sosuri","slug":"803-condimente-si-sosuri"},{"code":"80305","name":"Sosuri și pastă de tomate","slug":"80305-sosuri-si-pasta-de-tomate"},{"code":"100097212","name":"Sos roșii 700g","slug":"100097212-cirio-sos-rosii-700g"}],"activePromotion":null,"saveMe":null,"labels":[],"geniusPrice":null,"geniusUnitPricePerLabel":null,"banner":null,"discountLabel":null,"geniusDiscountLabel":null,"badge":null},{"code":"100065352","variantCode":"5941028003671","name":"Bulion 310g","slug":"100065352-raureni-bulion-310g","unitPriceLabel":"19,19 Lei/kg","brand":"Râureni","brandCode":"772","brandFilterCode":"raureni-b773","sku":"100065352","price":5.95,"originalPrice":null,"currencyCode":"RON","currency":"Lei","image":{"thumbnail":{"default":"https://cdn.freshful.ro/media/cache/sylius_shop_product_thumbnail/9c/c2/d86c3a4c7f13344e0d1b7cbd12d5.jpg"},"large":{"default":"https://cdn.freshful.ro/media/cache/freshful_large/9c/c2/d86c3a4c7f13344e0d1b7cbd12d5.jpg"},"extralarge":{"default":"https://cdn.freshful.ro/media/cache/sylius_shop_product_original/9c/c2/d86c3a4c7f13344e0d1b7cbd12d5.jpg"}},"label":null,"tags":[],"isAvailable":true,"maxAvailableQuantity":100,"maxAllowedQuantity":100,"breadcrumbs":[{"code":"8","name":"Băcănie","slug":"8-ceva-sarat"},{"code":"803","name":"Condimente și sosuri","slug":"803-condimente-si-sosuri"},{"code":"80305","name":"Sosuri și pastă de tomate","slug":"80305-sosuri-si-pasta-de-tomate"},{"code":"100065352","name":"Bulion 310g","slug":"100065352-raureni-bulion-310g"}],"activePromotion":null,"saveMe":null,"labels":[],"geniusPrice":null,"geniusUnitPricePerLabel":null,"banner":null,"discountLabel":null,"geniusDiscountLabel":null,"badge":null},{"code":"100080907","variantCode":"100080907","name":"Sos Toscana pentru paste 400g ","slug":"100080907-barilla-sos-toscana-pentru-paste-400g","unitPriceLabel":"28,48 Lei/kg","brand":"Barilla","brandCode":"267","brandFilterCode":"barilla-b268","sku":"100080907","price":11.39,"originalPrice":null,"currencyCode":"RON","currency":"Lei","image":{"thumbnail":{"default":"https://cdn.freshful.ro/media/cache/sylius_shop_product_thumbnail/1e/db/569c8d73b477fff3ef4fa7f8b248.jpg"},"large":{"default":"https://cdn.freshful.ro/media/cache/freshful_large/1e/db/569c8d73b477fff3ef4fa7f8b248.jpg"},"extralarge":{"default":"https://cdn.freshful.ro/media/cache/sylius_shop_product_original/1e/db/569c8d73b477fff3ef4fa7f8b248.jpg"}},"label":null,"tags":[],"isAvailable":true,"maxAvailableQuantity":100,"maxAllowedQuantity":100,"breadcrumbs":[{"code":"8","name":"Băcănie","slug":"8-ceva-sarat"},{"code":"803","name":"Condimente și sosuri","slug":"803-condimente-si-sosuri"},{"code":"80305","name":"Sosuri și pastă de tomate","slug":"80305-sosuri-si-pasta-de-tomate"},{"code":"100080907","name":"Sos Toscana pentru paste 400g ","slug":"100080907-barilla-sos-toscana-pentru-paste-400g"}],"activePromotion":null,"saveMe":null,"labels":[],"geniusPrice":null,"geniusUnitPricePerLabel":null,"banner":null,"discountLabel":null,"geniusDiscountLabel":null,"badge":null}],"filters":{"countSelected":0,"items":[{"code":"promotion","name":"Promoții","countSelected":0,"values":[{"code":"special-produse-vegane-mar23","name":"Și bun, și de post","isSelected":false,"count":1}]},{"code":"brand","name":"Brand","countSelected":0,"values":[{"code":"arrigoni-b2710","name":"Arrigoni","isSelected":false,"count":1},{"code":"barilla-b268","name":"Barilla","isSelected":false,"count":14},{"code":"bucataria-brancoveneasca-b1615","name":"Bucătăria Brâncovenească","isSelected":false,"count":1},{"code":"cirio-b643","name":"Cirio","isSelected":false,"count":7},{"code":"contec-b3097","name":"Contec","isSelected":false,"count":1},{"code":"del-monte-b2397","name":"Del Monte","isSelected":false,"count":1},{"code":"granoro-b2153","name":"Granoro","isSelected":false,"count":1},{"code":"greenomic-b1848","name":"Greenomic","isSelected":false,"count":2},{"code":"heinz-b1628","name":"Heinz","isSelected":false,"count":2},{"code":"home-garden-b782","name":"Home Garden","isSelected":false,"count":7},{"code":"inzersdorfer-b1107","name":"Inzersdorfer","isSelected":false,"count":2},{"code":"mutti-b646","name":"Mutti","isSelected":false,"count":8},{"code":"olympia-b244","name":"Olympia","isSelected":false,"count":7},{"code":"panzani-b1688","name":"Panzani","isSelected":false,"count":28},{"code":"patak-s-b631","name":"Patak's","isSelected":false,"count":1},{"code":"pivnita-bunicii-b2310","name":"Pivnița Bunicii","isSelected":false,"count":5},{"code":"raureni-b773","name":"Râureni","isSelected":false,"count":5},{"code":"sacla-b882","name":"Saclà","isSelected":false,"count":3},{"code":"sera-b201","name":"Sera","isSelected":false,"count":1},{"code":"sultan-b1551","name":"Sultan","isSelected":false,"count":8},{"code":"univer-b1246","name":"Univer","isSelected":false,"count":8},{"code":"valenii-de-munte-b2718","name":"Valenii De Munte","isSelected":false,"count":3},{"code":"vasluianca-b1833","name":"Vasluianca","isSelected":false,"count":1}]},{"code":"diet_lifestyle","name":"Dietă și lifestyle","countSelected":0,"values":[{"code":"fara-conservanti-a37","name":"Fara conservanti","isSelected":false,"count":12},{"code":"fara-gluten-a16","name":"Fara gluten","isSelected":false,"count":10},{"code":"made-in-romania-a85","name":"Made In Romania","isSelected":false,"count":7}]}]},"orderBy":[{"field":"price","direction":"asc","name":"Preț crescător","isSelected":false},{"field":"price","direction":"desc","name":"Preț descrescător","isSelected":false},{"field":"popularity","direction":"desc","name":"Cele mai populare","isSelected":true},{"field":"category","direction":"asc","name":"Categorie","isSelected":false}],"metaTitle":"Sosuri și pastă de tomate - Gamă variată","metaDescription":"Vrei Sosuri și pastă de tomate? Alege dintr-o gamă variată. Comanzi simplu și ai livrare rapidă, calitate și prospețime. Hai pe Freshful.ro","metaKeywords":null,"banners":[]}}