{"type":"subcategory","payload":{"analyticsListId":"category_80303-baza-de-mancare-si-premix","analyticsListName":"Category - Bază de mâncare și premix","name":"Bază de mâncare și premix","slug":"80303-baza-de-mancare-si-premix","image":null,"breadcrumbs":[{"code":"8","name":"Băcănie","slug":"8-ceva-sarat"},{"code":"803","name":"Condimente și sosuri","slug":"803-condimente-si-sosuri"},{"code":"80303","name":"Bază de mâncare și premix","slug":"80303-baza-de-mancare-si-premix"}],"slots":[],"page":1,"limit":10,"pages":9,"count":82,"siblings":[{"name":"Paste, orez și legume uscate","slug":"801-paste-orez-si-legume-uscate","selected":false},{"name":"Conserve","slug":"802-conserve","selected":false},{"name":"Condimente și sosuri","slug":"803-condimente-si-sosuri","selected":true},{"name":"Ulei și oțet","slug":"804-ulei-si-otet","selected":false},{"name":"De ronțăit","slug":"805-aperitive-sarate","selected":false},{"name":"Făină, zahăr și produse gourmet","slug":"faina-zahar-si-produse-gourmet","selected":false}],"children":[{"name":"Toate produsele","slug":"803-condimente-si-sosuri","selected":false},{"name":"Supe și ciorbe","slug":"80301-supe-si-ciorbe","selected":false},{"name":"Sare și condimente","slug":"80302-sare-si-condimentre","selected":false},{"name":"Bază de mâncare și premix","slug":"80303-baza-de-mancare-si-premix","selected":true},{"name":"Muștar, ketchup și maioneză","slug":"80304-mustar-ketchup-si-maioneza","selected":false},{"name":"Sosuri și pastă de tomate","slug":"80305-sosuri-si-pasta-de-tomate","selected":false}],"products":[{"code":"100061073","variantCode":"100061073","name":"Condimente pui cu usturoi Punga Magică 28g","slug":"100061073-knorr-condimente-pui-cu-usturoi-punga-magica-28g","unitPriceLabel":"178,21 Lei/kg","brand":"Knorr","brandCode":"139","brandFilterCode":"knorr-b123","sku":"100061073","price":4.99,"originalPrice":null,"currencyCode":"RON","currency":"Lei","image":{"thumbnail":{"default":"https://cdn.freshful.ro/media/cache/sylius_shop_product_thumbnail/08/89/28e6e3230d384bb501f03e670d2e.jpg"},"large":{"default":"https://cdn.freshful.ro/media/cache/freshful_large/08/89/28e6e3230d384bb501f03e670d2e.jpg"},"extralarge":{"default":"https://cdn.freshful.ro/media/cache/sylius_shop_product_original/08/89/28e6e3230d384bb501f03e670d2e.jpg"}},"label":{"text":"Profită acum","backgroundColor":"#FF9903","textColor":"#FFFFFF"},"tags":[],"isAvailable":true,"maxAvailableQuantity":100,"maxAllowedQuantity":100,"breadcrumbs":[{"code":"8","name":"Băcănie","slug":"8-ceva-sarat"},{"code":"803","name":"Condimente și sosuri","slug":"803-condimente-si-sosuri"},{"code":"80303","name":"Bază de mâncare și premix","slug":"80303-baza-de-mancare-si-premix"},{"code":"100061073","name":"Condimente pui cu usturoi Punga Magică 28g","slug":"100061073-knorr-condimente-pui-cu-usturoi-punga-magica-28g"}],"activePromotion":{"code":"freshful-top-deals-2023","name":"Preț avantajos","targetQuantity":null},"saveMe":null,"labels":[{"type":"v1","items":[{"text":"Profită acum","backgroundColor":"#FF9903","textColor":"#FFFFFF"}]}],"geniusPrice":null,"geniusUnitPricePerLabel":null,"banner":{"text":"Preț avantajos","textColor":"#F95510","bgColor":"#FEF1CD","icon":null,"link":"https://www.freshful.ro/oferte/freshful-top-deals-2023","type":"promo","analyticsEventType":"select_promotion","analyticsEventPayload":{"promotion_id":"freshful-top-deals-2023","promotion_name":"Profită de Top Deals"}},"discountLabel":null,"geniusDiscountLabel":null,"badge":null},{"code":"100061070","variantCode":"100061070","name":"Bază pentru mâncare gust de găină 400g","slug":"100061070-delikat-baza-pentru-mancare-gust-de-gaina-400g","unitPriceLabel":"","brand":"Delikat","brandCode":"140","brandFilterCode":"delikat-b124","sku":"100061070","price":11.99,"originalPrice":null,"currencyCode":"RON","currency":"Lei","image":{"thumbnail":{"default":"https://cdn.freshful.ro/media/cache/sylius_shop_product_thumbnail/fb/e2/131675a86735b49e02bc8348e5aa.jpg"},"large":{"default":"https://cdn.freshful.ro/media/cache/freshful_large/fb/e2/131675a86735b49e02bc8348e5aa.jpg"},"extralarge":{"default":"https://cdn.freshful.ro/media/cache/sylius_shop_product_original/fb/e2/131675a86735b49e02bc8348e5aa.jpg"}},"label":{"text":"Profită acum","backgroundColor":"#FF9903","textColor":"#FFFFFF"},"tags":[{"type":"MadeInRomania","text":"Made In Romania","icon":"https://cdn.freshful.ro/assets/product_tags/made_in_romania.svg","iconPng":"https://cdn.freshful.ro/assets/product_tags/made_in_romania.png","backgroundColor":"#EDF2FD","textColor":"#1653CA"}],"isAvailable":true,"maxAvailableQuantity":27,"maxAllowedQuantity":100,"breadcrumbs":[{"code":"8","name":"Băcănie","slug":"8-ceva-sarat"},{"code":"803","name":"Condimente și sosuri","slug":"803-condimente-si-sosuri"},{"code":"80303","name":"Bază de mâncare și premix","slug":"80303-baza-de-mancare-si-premix"},{"code":"100061070","name":"Bază pentru mâncare gust de găină 400g","slug":"100061070-delikat-baza-pentru-mancare-gust-de-gaina-400g"}],"activePromotion":{"code":"freshful-top-deals-2023","name":"Preț avantajos","targetQuantity":null},"saveMe":null,"labels":[{"type":"v1","items":[{"text":"Profită acum","backgroundColor":"#FF9903","textColor":"#FFFFFF"}]}],"geniusPrice":null,"geniusUnitPricePerLabel":null,"banner":{"text":"Preț avantajos","textColor":"#F95510","bgColor":"#FEF1CD","icon":null,"link":"https://www.freshful.ro/oferte/freshful-top-deals-2023","type":"promo","analyticsEventType":"select_promotion","analyticsEventPayload":{"promotion_id":"freshful-top-deals-2023","promotion_name":"Profită de Top Deals"}},"discountLabel":null,"geniusDiscountLabel":null,"badge":null},{"code":"100061076","variantCode":"100061076","name":"Condimente pentru porc cu usturoi și afumătură Punga Magică 29g","slug":"100061076-knorr-condimente-pentru-porc-cu-usturoi-si-afumatura-punga-magica-29g","unitPriceLabel":"172,07 Lei/kg","brand":"Knorr","brandCode":"139","brandFilterCode":"knorr-b123","sku":"100061076","price":4.99,"originalPrice":null,"currencyCode":"RON","currency":"Lei","image":{"thumbnail":{"default":"https://cdn.freshful.ro/media/cache/sylius_shop_product_thumbnail/72/85/61bbced47e31808eda6a44f125f1.jpg"},"large":{"default":"https://cdn.freshful.ro/media/cache/freshful_large/72/85/61bbced47e31808eda6a44f125f1.jpg"},"extralarge":{"default":"https://cdn.freshful.ro/media/cache/sylius_shop_product_original/72/85/61bbced47e31808eda6a44f125f1.jpg"}},"label":{"text":"Profită acum","backgroundColor":"#FF9903","textColor":"#FFFFFF"},"tags":[],"isAvailable":true,"maxAvailableQuantity":32,"maxAllowedQuantity":100,"breadcrumbs":[{"code":"8","name":"Băcănie","slug":"8-ceva-sarat"},{"code":"803","name":"Condimente și sosuri","slug":"803-condimente-si-sosuri"},{"code":"80303","name":"Bază de mâncare și premix","slug":"80303-baza-de-mancare-si-premix"},{"code":"100061076","name":"Condimente pentru porc cu usturoi și afumătură Punga Magică 29g","slug":"100061076-knorr-condimente-pentru-porc-cu-usturoi-si-afumatura-punga-magica-29g"}],"activePromotion":{"code":"freshful-top-deals-2023","name":"Preț avantajos","targetQuantity":null},"saveMe":null,"labels":[{"type":"v1","items":[{"text":"Profită acum","backgroundColor":"#FF9903","textColor":"#FFFFFF"}]}],"geniusPrice":null,"geniusUnitPricePerLabel":null,"banner":{"text":"Preț avantajos","textColor":"#F95510","bgColor":"#FEF1CD","icon":null,"link":"https://www.freshful.ro/oferte/freshful-top-deals-2023","type":"promo","analyticsEventType":"select_promotion","analyticsEventPayload":{"promotion_id":"freshful-top-deals-2023","promotion_name":"Profită de Top Deals"}},"discountLabel":null,"geniusDiscountLabel":null,"badge":null},{"code":"100075621","variantCode":"5902578006000","name":"Burger vegan mexican cu speltă, quinoa și linte roșie 140g","slug":"100075621-soligrano-burger-vegan-mexican-cu-spelta-quinoa-si-linte-rosie-140g","unitPriceLabel":"71,36 Lei/kg","brand":"Soligrano","brandCode":"981","brandFilterCode":"soligrano-b995","sku":"100075621","price":9.99,"originalPrice":11,"currencyCode":"RON","currency":"Lei","image":{"thumbnail":{"default":"https://cdn.freshful.ro/media/cache/sylius_shop_product_thumbnail/04/93/74f7912e626a1438d1be640a6f27.jpg"},"large":{"default":"https://cdn.freshful.ro/media/cache/freshful_large/04/93/74f7912e626a1438d1be640a6f27.jpg"},"extralarge":{"default":"https://cdn.freshful.ro/media/cache/sylius_shop_product_original/04/93/74f7912e626a1438d1be640a6f27.jpg"}},"label":{"text":"-9%","backgroundColor":"#FF9903","textColor":"#FFFFFF"},"tags":[{"type":"vegan","text":"Vegan","icon":"https://cdn.freshful.ro/assets/product_tags/vegan.svg","iconPng":"https://cdn.freshful.ro/assets/product_tags/vegan.png","backgroundColor":"#ECF9F8","textColor":"#33A39C"}],"isAvailable":true,"maxAvailableQuantity":16,"maxAllowedQuantity":100,"breadcrumbs":[{"code":"8","name":"Băcănie","slug":"8-ceva-sarat"},{"code":"803","name":"Condimente și sosuri","slug":"803-condimente-si-sosuri"},{"code":"80303","name":"Bază de mâncare și premix","slug":"80303-baza-de-mancare-si-premix"},{"code":"100075621","name":"Burger vegan mexican cu speltă, quinoa și linte roșie 140g","slug":"100075621-soligrano-burger-vegan-mexican-cu-spelta-quinoa-si-linte-rosie-140g"}],"activePromotion":{"code":"special-produse-vegane-mar23","name":"Preț redus","targetQuantity":null},"saveMe":null,"labels":[{"type":"v1","items":[{"text":"-9%","backgroundColor":"#FF9903","textColor":"#FFFFFF"}]}],"geniusPrice":null,"geniusUnitPricePerLabel":null,"banner":{"text":"Super preț","textColor":"#FF0000","bgColor":"#FFF2EC","icon":null,"link":"https://www.freshful.ro/oferte/special-produse-vegane-mar23","type":"promo","analyticsEventType":"select_promotion","analyticsEventPayload":{"promotion_id":"special-produse-vegane-mar23","promotion_name":"Și bun, și de post"}},"discountLabel":"Economisești 9%","geniusDiscountLabel":null,"badge":null},{"code":"100075623","variantCode":"5902578006024","name":"Falafel cu năut și spelta 140g","slug":"100075623-soligrano-falafel-cu-naut-si-spelta-140g","unitPriceLabel":"71,36 Lei/kg","brand":"Soligrano","brandCode":"981","brandFilterCode":"soligrano-b995","sku":"100075623","price":9.99,"originalPrice":11,"currencyCode":"RON","currency":"Lei","image":{"thumbnail":{"default":"https://cdn.freshful.ro/media/cache/sylius_shop_product_thumbnail/11/ef/9237a9b3cbe8b18f7c7a5c4c4073.jpg"},"large":{"default":"https://cdn.freshful.ro/media/cache/freshful_large/11/ef/9237a9b3cbe8b18f7c7a5c4c4073.jpg"},"extralarge":{"default":"https://cdn.freshful.ro/media/cache/sylius_shop_product_original/11/ef/9237a9b3cbe8b18f7c7a5c4c4073.jpg"}},"label":{"text":"-9%","backgroundColor":"#FF9903","textColor":"#FFFFFF"},"tags":[{"type":"vegan","text":"Vegan","icon":"https://cdn.freshful.ro/assets/product_tags/vegan.svg","iconPng":"https://cdn.freshful.ro/assets/product_tags/vegan.png","backgroundColor":"#ECF9F8","textColor":"#33A39C"}],"isAvailable":true,"maxAvailableQuantity":20,"maxAllowedQuantity":100,"breadcrumbs":[{"code":"8","name":"Băcănie","slug":"8-ceva-sarat"},{"code":"803","name":"Condimente și sosuri","slug":"803-condimente-si-sosuri"},{"code":"80303","name":"Bază de mâncare și premix","slug":"80303-baza-de-mancare-si-premix"},{"code":"100075623","name":"Falafel cu năut și spelta 140g","slug":"100075623-soligrano-falafel-cu-naut-si-spelta-140g"}],"activePromotion":{"code":"special-produse-vegane-mar23","name":"Preț redus","targetQuantity":null},"saveMe":null,"labels":[{"type":"v1","items":[{"text":"-9%","backgroundColor":"#FF9903","textColor":"#FFFFFF"}]}],"geniusPrice":null,"geniusUnitPricePerLabel":null,"banner":{"text":"Super preț","textColor":"#FF0000","bgColor":"#FFF2EC","icon":null,"link":"https://www.freshful.ro/oferte/special-produse-vegane-mar23","type":"promo","analyticsEventType":"select_promotion","analyticsEventPayload":{"promotion_id":"special-produse-vegane-mar23","promotion_name":"Și bun, și de post"}},"discountLabel":"Economisești 9%","geniusDiscountLabel":null,"badge":null},{"code":"100075622","variantCode":"5902578004778","name":"Burger vegan mediteranean cu spelta, roșii și năut 140g ","slug":"100075622-soligrano-burger-vegan-mediteranean-cu-spelta-rosii-si-naut-140g","unitPriceLabel":"71,36 Lei/kg","brand":"Soligrano","brandCode":"981","brandFilterCode":"soligrano-b995","sku":"100075622","price":9.99,"originalPrice":11,"currencyCode":"RON","currency":"Lei","image":{"thumbnail":{"default":"https://cdn.freshful.ro/media/cache/sylius_shop_product_thumbnail/e1/af/3509b59af94dba4707475f44b208.jpg"},"large":{"default":"https://cdn.freshful.ro/media/cache/freshful_large/e1/af/3509b59af94dba4707475f44b208.jpg"},"extralarge":{"default":"https://cdn.freshful.ro/media/cache/sylius_shop_product_original/e1/af/3509b59af94dba4707475f44b208.jpg"}},"label":{"text":"-9%","backgroundColor":"#FF9903","textColor":"#FFFFFF"},"tags":[{"type":"vegan","text":"Vegan","icon":"https://cdn.freshful.ro/assets/product_tags/vegan.svg","iconPng":"https://cdn.freshful.ro/assets/product_tags/vegan.png","backgroundColor":"#ECF9F8","textColor":"#33A39C"}],"isAvailable":true,"maxAvailableQuantity":10,"maxAllowedQuantity":100,"breadcrumbs":[{"code":"8","name":"Băcănie","slug":"8-ceva-sarat"},{"code":"803","name":"Condimente și sosuri","slug":"803-condimente-si-sosuri"},{"code":"80303","name":"Bază de mâncare și premix","slug":"80303-baza-de-mancare-si-premix"},{"code":"100075622","name":"Burger vegan mediteranean cu spelta, roșii și năut 140g ","slug":"100075622-soligrano-burger-vegan-mediteranean-cu-spelta-rosii-si-naut-140g"}],"activePromotion":{"code":"special-produse-vegane-mar23","name":"Preț redus","targetQuantity":null},"saveMe":null,"labels":[{"type":"v1","items":[{"text":"-9%","backgroundColor":"#FF9903","textColor":"#FFFFFF"}]}],"geniusPrice":null,"geniusUnitPricePerLabel":null,"banner":{"text":"Super preț","textColor":"#FF0000","bgColor":"#FFF2EC","icon":null,"link":"https://www.freshful.ro/oferte/special-produse-vegane-mar23","type":"promo","analyticsEventType":"select_promotion","analyticsEventPayload":{"promotion_id":"special-produse-vegane-mar23","promotion_name":"Și bun, și de post"}},"discountLabel":"Economisești 9%","geniusDiscountLabel":null,"badge":null},{"code":"100061079","variantCode":"100061079","name":"Borș Magic 20g","slug":"100061079-delikat-bors-magic-20g","unitPriceLabel":"","brand":"Delikat","brandCode":"140","brandFilterCode":"delikat-b124","sku":"100061079","price":3.07,"originalPrice":null,"currencyCode":"RON","currency":"Lei","image":{"thumbnail":{"default":"https://cdn.freshful.ro/media/cache/sylius_shop_product_thumbnail/c0/e4/77e4097e5faab8f1e9cf2b95682a.jpg"},"large":{"default":"https://cdn.freshful.ro/media/cache/freshful_large/c0/e4/77e4097e5faab8f1e9cf2b95682a.jpg"},"extralarge":{"default":"https://cdn.freshful.ro/media/cache/sylius_shop_product_original/c0/e4/77e4097e5faab8f1e9cf2b95682a.jpg"}},"label":null,"tags":[{"type":"MadeInRomania","text":"Made In Romania","icon":"https://cdn.freshful.ro/assets/product_tags/made_in_romania.svg","iconPng":"https://cdn.freshful.ro/assets/product_tags/made_in_romania.png","backgroundColor":"#EDF2FD","textColor":"#1653CA"}],"isAvailable":true,"maxAvailableQuantity":100,"maxAllowedQuantity":100,"breadcrumbs":[{"code":"8","name":"Băcănie","slug":"8-ceva-sarat"},{"code":"803","name":"Condimente și sosuri","slug":"803-condimente-si-sosuri"},{"code":"80303","name":"Bază de mâncare și premix","slug":"80303-baza-de-mancare-si-premix"},{"code":"100061079","name":"Borș Magic 20g","slug":"100061079-delikat-bors-magic-20g"}],"activePromotion":null,"saveMe":null,"labels":[],"geniusPrice":null,"geniusUnitPricePerLabel":null,"banner":null,"discountLabel":null,"geniusDiscountLabel":null,"badge":null},{"code":"100090451","variantCode":"100090451","name":"Cub cu gust de găină 120g","slug":"100090451-vegeta-cub-cu-gust-de-gaina-120g","unitPriceLabel":"34,92 Lei/kg","brand":"Vegeta","brandCode":"1143","brandFilterCode":"vegeta-b1144","sku":"100090451","price":4.19,"originalPrice":null,"currencyCode":"RON","currency":"Lei","image":{"thumbnail":{"default":"https://cdn.freshful.ro/media/cache/sylius_shop_product_thumbnail/47/7c/296c723809e7519e5d7e47d8c32e.jpg"},"large":{"default":"https://cdn.freshful.ro/media/cache/freshful_large/47/7c/296c723809e7519e5d7e47d8c32e.jpg"},"extralarge":{"default":"https://cdn.freshful.ro/media/cache/sylius_shop_product_original/47/7c/296c723809e7519e5d7e47d8c32e.jpg"}},"label":null,"tags":[],"isAvailable":true,"maxAvailableQuantity":100,"maxAllowedQuantity":100,"breadcrumbs":[{"code":"8","name":"Băcănie","slug":"8-ceva-sarat"},{"code":"803","name":"Condimente și sosuri","slug":"803-condimente-si-sosuri"},{"code":"80303","name":"Bază de mâncare și premix","slug":"80303-baza-de-mancare-si-premix"},{"code":"100090451","name":"Cub cu gust de găină 120g","slug":"100090451-vegeta-cub-cu-gust-de-gaina-120g"}],"activePromotion":null,"saveMe":null,"labels":[],"geniusPrice":null,"geniusUnitPricePerLabel":null,"banner":null,"discountLabel":null,"geniusDiscountLabel":null,"badge":null},{"code":"100126117","variantCode":"8585002461889","name":"Bază de mâncare cu gust de găină 20 cuburi, 200g","slug":"100126117-maggi-baza-de-mancare-cu-gust-de-gaina-20-cuburi-200g","unitPriceLabel":"30,29 Lei/kg","brand":"Maggi","brandCode":"2295","brandFilterCode":"maggi-b2337","sku":"100126117","price":6.36,"originalPrice":null,"currencyCode":"RON","currency":"Lei","image":{"thumbnail":{"default":"https://cdn.freshful.ro/media/cache/sylius_shop_product_thumbnail/71/c4/9a85c4a2ec8b962d908ed99efc61.jpg"},"large":{"default":"https://cdn.freshful.ro/media/cache/freshful_large/71/c4/9a85c4a2ec8b962d908ed99efc61.jpg"},"extralarge":{"default":"https://cdn.freshful.ro/media/cache/sylius_shop_product_original/71/c4/9a85c4a2ec8b962d908ed99efc61.jpg"}},"label":null,"tags":[],"isAvailable":true,"maxAvailableQuantity":100,"maxAllowedQuantity":100,"breadcrumbs":[{"code":"8","name":"Băcănie","slug":"8-ceva-sarat"},{"code":"803","name":"Condimente și sosuri","slug":"803-condimente-si-sosuri"},{"code":"80303","name":"Bază de mâncare și premix","slug":"80303-baza-de-mancare-si-premix"},{"code":"100126117","name":"Bază de mâncare cu gust de găină 20 cuburi, 200g","slug":"100126117-maggi-baza-de-mancare-cu-gust-de-gaina-20-cuburi-200g"}],"activePromotion":null,"saveMe":null,"labels":[],"geniusPrice":null,"geniusUnitPricePerLabel":null,"banner":null,"discountLabel":null,"geniusDiscountLabel":null,"badge":null},{"code":"100139895","variantCode":"100139895","name":"Amestec de legume 125g","slug":"100139895-sanovita-amestec-de-legume-125g","unitPriceLabel":"77,52 Lei/kg","brand":"Sanovita","brandCode":"482","brandFilterCode":"sanovita-b483","sku":"100139895","price":9.69,"originalPrice":null,"currencyCode":"RON","currency":"Lei","image":{"thumbnail":{"default":"https://cdn.freshful.ro/media/cache/sylius_shop_product_thumbnail/85/fa/f2fbf2d06bd1f5ea380aa4a6b870.jpg"},"large":{"default":"https://cdn.freshful.ro/media/cache/freshful_large/85/fa/f2fbf2d06bd1f5ea380aa4a6b870.jpg"},"extralarge":{"default":"https://cdn.freshful.ro/media/cache/sylius_shop_product_original/85/fa/f2fbf2d06bd1f5ea380aa4a6b870.jpg"}},"label":null,"tags":[],"isAvailable":true,"maxAvailableQuantity":100,"maxAllowedQuantity":100,"breadcrumbs":[{"code":"8","name":"Băcănie","slug":"8-ceva-sarat"},{"code":"803","name":"Condimente și sosuri","slug":"803-condimente-si-sosuri"},{"code":"80303","name":"Bază de mâncare și premix","slug":"80303-baza-de-mancare-si-premix"},{"code":"100139895","name":"Amestec de legume 125g","slug":"100139895-sanovita-amestec-de-legume-125g"}],"activePromotion":null,"saveMe":null,"labels":[],"geniusPrice":null,"geniusUnitPricePerLabel":null,"banner":null,"discountLabel":null,"geniusDiscountLabel":null,"badge":null}],"filters":{"countSelected":0,"items":[{"code":"promotion","name":"Promoții","countSelected":0,"values":[{"code":"freshful-top-deals-2023","name":"Profită de Top Deals","isSelected":false,"count":3},{"code":"special-produse-vegane-mar23","name":"Și bun, și de post","isSelected":false,"count":3}]},{"code":"brand","name":"Brand","countSelected":0,"values":[{"code":"delikat-b124","name":"Delikat","isSelected":false,"count":8},{"code":"dr-oetker-b51","name":"Dr. Oetker","isSelected":false,"count":1},{"code":"knorr-b123","name":"Knorr","isSelected":false,"count":8},{"code":"maggi-b2337","name":"Maggi","isSelected":false,"count":17},{"code":"mirodenia-b921","name":"Mirodenia","isSelected":false,"count":9},{"code":"niavis-b191","name":"Niavis","isSelected":false,"count":1},{"code":"sanovita-b483","name":"Sanovita","isSelected":false,"count":3},{"code":"soligrano-b995","name":"Soligrano","isSelected":false,"count":3},{"code":"vegeta-b1144","name":"Vegeta","isSelected":false,"count":32}]},{"code":"diet_lifestyle","name":"Dietă și lifestyle","countSelected":0,"values":[{"code":"fara-conservanti-a37","name":"Fara conservanti","isSelected":false,"count":1},{"code":"fara-gluten-a16","name":"Fara gluten","isSelected":false,"count":2},{"code":"fara-sare-a52","name":"Fara sare","isSelected":false,"count":2},{"code":"made-in-romania-a85","name":"Made In Romania","isSelected":false,"count":5},{"code":"vegan-a24","name":"Vegan","isSelected":false,"count":5}]}]},"orderBy":[{"field":"price","direction":"asc","name":"Preț crescător","isSelected":false},{"field":"price","direction":"desc","name":"Preț descrescător","isSelected":false},{"field":"popularity","direction":"desc","name":"Cele mai populare","isSelected":true},{"field":"category","direction":"asc","name":"Categorie","isSelected":false}],"metaTitle":"Bază de mâncare și premix - Gamă variată","metaDescription":"Vrei Bază de mâncare și premix? Alege dintr-o gamă variată. Comanzi simplu și ai livrare rapidă, calitate și prospețime. Hai pe Freshful.ro","metaKeywords":null,"banners":[]}}