{"type":"subcategory","payload":{"analyticsListId":"category_80304-mustar-ketchup-si-maioneza","analyticsListName":"Category - Muștar, ketchup și maioneză","name":"Muștar, ketchup și maioneză","slug":"80304-mustar-ketchup-si-maioneza","image":null,"breadcrumbs":[{"code":"8","name":"Băcănie","slug":"8-ceva-sarat"},{"code":"803","name":"Condimente și sosuri","slug":"803-condimente-si-sosuri"},{"code":"80304","name":"Muștar, ketchup și maioneză","slug":"80304-mustar-ketchup-si-maioneza"}],"slots":[],"page":1,"limit":10,"pages":20,"count":193,"siblings":[{"name":"Paste, orez și legume uscate","slug":"801-paste-orez-si-legume-uscate","selected":false},{"name":"Conserve","slug":"802-conserve","selected":false},{"name":"Condimente și sosuri","slug":"803-condimente-si-sosuri","selected":true},{"name":"Ulei și oțet","slug":"804-ulei-si-otet","selected":false},{"name":"De ronțăit","slug":"805-aperitive-sarate","selected":false},{"name":"Făină, zahăr și produse gourmet","slug":"faina-zahar-si-produse-gourmet","selected":false}],"children":[{"name":"Toate produsele","slug":"803-condimente-si-sosuri","selected":false},{"name":"Supe și ciorbe","slug":"80301-supe-si-ciorbe","selected":false},{"name":"Sare și condimente","slug":"80302-sare-si-condimentre","selected":false},{"name":"Bază de mâncare și premix","slug":"80303-baza-de-mancare-si-premix","selected":false},{"name":"Muștar, ketchup și maioneză","slug":"80304-mustar-ketchup-si-maioneza","selected":true},{"name":"Sosuri și pastă de tomate","slug":"80305-sosuri-si-pasta-de-tomate","selected":false}],"products":[{"code":"100001497","variantCode":"5941132014501","name":"Sos de soia 250ml","slug":"100001497-inedit-sos-de-soia-250ml","unitPriceLabel":"25,96 Lei/kg","brand":"Inedit","brandCode":"60","brandFilterCode":"inedit-b57","sku":"100001497","price":6.49,"originalPrice":8.15,"currencyCode":"RON","currency":"Lei","image":{"thumbnail":{"default":"https://cdn.freshful.ro/media/cache/sylius_shop_product_thumbnail/de/f3/46dc076f6cfaaa152a7a6de7d1cd.jpg"},"large":{"default":"https://cdn.freshful.ro/media/cache/freshful_large/de/f3/46dc076f6cfaaa152a7a6de7d1cd.jpg"},"extralarge":{"default":"https://cdn.freshful.ro/media/cache/sylius_shop_product_original/de/f3/46dc076f6cfaaa152a7a6de7d1cd.jpg"}},"label":{"text":"-20%","backgroundColor":"#FF9903","textColor":"#FFFFFF"},"tags":[{"type":"vegan","text":"Vegan","icon":"https://cdn.freshful.ro/assets/product_tags/vegan.svg","iconPng":"https://cdn.freshful.ro/assets/product_tags/vegan.png","backgroundColor":"#ECF9F8","textColor":"#33A39C"}],"isAvailable":true,"maxAvailableQuantity":100,"maxAllowedQuantity":100,"breadcrumbs":[{"code":"8","name":"Băcănie","slug":"8-ceva-sarat"},{"code":"803","name":"Condimente și sosuri","slug":"803-condimente-si-sosuri"},{"code":"80304","name":"Muștar, ketchup și maioneză","slug":"80304-mustar-ketchup-si-maioneza"},{"code":"100001497","name":"Sos de soia 250ml","slug":"100001497-inedit-sos-de-soia-250ml"}],"activePromotion":{"code":"special-produse-vegane-mar23","name":"Preț redus","targetQuantity":null},"saveMe":null,"labels":[{"type":"v1","items":[{"text":"-20%","backgroundColor":"#FF9903","textColor":"#FFFFFF"}]}],"geniusPrice":null,"geniusUnitPricePerLabel":null,"banner":{"text":"Super preț","textColor":"#FF0000","bgColor":"#FFF2EC","icon":null,"link":"https://www.freshful.ro/oferte/special-produse-vegane-mar23","type":"promo","analyticsEventType":"select_promotion","analyticsEventPayload":{"promotion_id":"special-produse-vegane-mar23","promotion_name":"Și bun, și de post"}},"discountLabel":"Economisești 20%","geniusDiscountLabel":null,"badge":null},{"code":"100143516","variantCode":"100143516","name":"Maioneză 450ml","slug":"100143516-no-brand-maioneza-450ml","unitPriceLabel":"37,76 Lei/l","brand":"Calve","brandCode":"2778","brandFilterCode":"calve-b2852","sku":"100143516","price":16.99,"originalPrice":19.99,"currencyCode":"RON","currency":"Lei","image":{"thumbnail":{"default":"https://cdn.freshful.ro/media/cache/sylius_shop_product_thumbnail/c0/7b/7ae657790f17fd2217310bd36b7a.jpg"},"large":{"default":"https://cdn.freshful.ro/media/cache/freshful_large/c0/7b/7ae657790f17fd2217310bd36b7a.jpg"},"extralarge":{"default":"https://cdn.freshful.ro/media/cache/sylius_shop_product_original/c0/7b/7ae657790f17fd2217310bd36b7a.jpg"}},"label":{"text":"-15%","backgroundColor":"#FF9903","textColor":"#FFFFFF"},"tags":[],"isAvailable":true,"maxAvailableQuantity":29,"maxAllowedQuantity":100,"breadcrumbs":[{"code":"8","name":"Băcănie","slug":"8-ceva-sarat"},{"code":"803","name":"Condimente și sosuri","slug":"803-condimente-si-sosuri"},{"code":"80304","name":"Muștar, ketchup și maioneză","slug":"80304-mustar-ketchup-si-maioneza"},{"code":"100143516","name":"Maioneză 450ml","slug":"100143516-no-brand-maioneza-450ml"}],"activePromotion":{"code":"oferte-bacanie-bauturi-21feb-8mar23","name":"Preț redus","targetQuantity":null},"saveMe":null,"labels":[{"type":"v1","items":[{"text":"-15%","backgroundColor":"#FF9903","textColor":"#FFFFFF"}]}],"geniusPrice":null,"geniusUnitPricePerLabel":null,"banner":{"text":"Super preț","textColor":"#FF0000","bgColor":"#FFF2EC","icon":null,"link":"https://www.freshful.ro/oferte/oferte-bacanie-bauturi-21feb-8mar23","type":"promo","analyticsEventType":"select_promotion","analyticsEventPayload":{"promotion_id":"oferte-bacanie-bauturi-21feb-8mar23","promotion_name":"Cămara cu băuturi și bunătăți"}},"discountLabel":"Economisești 15%","geniusDiscountLabel":null,"badge":null},{"code":"100143519","variantCode":"100143519","name":"Sos de usturoi 250ml ","slug":"100143519-no-brand-sos-de-usturoi-250ml","unitPriceLabel":"55,96 Lei/l","brand":"Calve","brandCode":"2778","brandFilterCode":"calve-b2852","sku":"100143519","price":13.99,"originalPrice":16.99,"currencyCode":"RON","currency":"Lei","image":{"thumbnail":{"default":"https://cdn.freshful.ro/media/cache/sylius_shop_product_thumbnail/01/2b/912c52d9ba0dd6b529b0fc396f28.jpg"},"large":{"default":"https://cdn.freshful.ro/media/cache/freshful_large/01/2b/912c52d9ba0dd6b529b0fc396f28.jpg"},"extralarge":{"default":"https://cdn.freshful.ro/media/cache/sylius_shop_product_original/01/2b/912c52d9ba0dd6b529b0fc396f28.jpg"}},"label":{"text":"-17%","backgroundColor":"#FF9903","textColor":"#FFFFFF"},"tags":[{"type":"Vegetarian","text":"Vegetarian","icon":"https://cdn.freshful.ro/assets/product_tags/vegetarian.svg","iconPng":"https://cdn.freshful.ro/assets/product_tags/vegetarian.png","backgroundColor":"#FAEAEE","textColor":"#B26275"}],"isAvailable":true,"maxAvailableQuantity":19,"maxAllowedQuantity":100,"breadcrumbs":[{"code":"8","name":"Băcănie","slug":"8-ceva-sarat"},{"code":"803","name":"Condimente și sosuri","slug":"803-condimente-si-sosuri"},{"code":"80304","name":"Muștar, ketchup și maioneză","slug":"80304-mustar-ketchup-si-maioneza"},{"code":"100143519","name":"Sos de usturoi 250ml ","slug":"100143519-no-brand-sos-de-usturoi-250ml"}],"activePromotion":{"code":"oferte-bacanie-bauturi-21feb-8mar23","name":"Preț redus","targetQuantity":null},"saveMe":null,"labels":[{"type":"v1","items":[{"text":"-17%","backgroundColor":"#FF9903","textColor":"#FFFFFF"}]}],"geniusPrice":null,"geniusUnitPricePerLabel":null,"banner":{"text":"Super preț","textColor":"#FF0000","bgColor":"#FFF2EC","icon":null,"link":"https://www.freshful.ro/oferte/oferte-bacanie-bauturi-21feb-8mar23","type":"promo","analyticsEventType":"select_promotion","analyticsEventPayload":{"promotion_id":"oferte-bacanie-bauturi-21feb-8mar23","promotion_name":"Cămara cu băuturi și bunătăți"}},"discountLabel":"Economisești 17%","geniusDiscountLabel":null,"badge":null},{"code":"100143520","variantCode":"100143520","name":"Sos pentru Hot Dog 250ml ","slug":"100143520-no-brand-sos-pentru-hot-dog-250ml","unitPriceLabel":"55,96 Lei/l","brand":"Calve","brandCode":"2778","brandFilterCode":"calve-b2852","sku":"100143520","price":13.99,"originalPrice":16.99,"currencyCode":"RON","currency":"Lei","image":{"thumbnail":{"default":"https://cdn.freshful.ro/media/cache/sylius_shop_product_thumbnail/c3/a9/537d4b5c290d8379037e26121fa7.jpg"},"large":{"default":"https://cdn.freshful.ro/media/cache/freshful_large/c3/a9/537d4b5c290d8379037e26121fa7.jpg"},"extralarge":{"default":"https://cdn.freshful.ro/media/cache/sylius_shop_product_original/c3/a9/537d4b5c290d8379037e26121fa7.jpg"}},"label":{"text":"-17%","backgroundColor":"#FF9903","textColor":"#FFFFFF"},"tags":[{"type":"Vegetarian","text":"Vegetarian","icon":"https://cdn.freshful.ro/assets/product_tags/vegetarian.svg","iconPng":"https://cdn.freshful.ro/assets/product_tags/vegetarian.png","backgroundColor":"#FAEAEE","textColor":"#B26275"}],"isAvailable":true,"maxAvailableQuantity":32,"maxAllowedQuantity":100,"breadcrumbs":[{"code":"8","name":"Băcănie","slug":"8-ceva-sarat"},{"code":"803","name":"Condimente și sosuri","slug":"803-condimente-si-sosuri"},{"code":"80304","name":"Muștar, ketchup și maioneză","slug":"80304-mustar-ketchup-si-maioneza"},{"code":"100143520","name":"Sos pentru Hot Dog 250ml ","slug":"100143520-no-brand-sos-pentru-hot-dog-250ml"}],"activePromotion":{"code":"oferte-bacanie-bauturi-21feb-8mar23","name":"Preț redus","targetQuantity":null},"saveMe":null,"labels":[{"type":"v1","items":[{"text":"-17%","backgroundColor":"#FF9903","textColor":"#FFFFFF"}]}],"geniusPrice":null,"geniusUnitPricePerLabel":null,"banner":{"text":"Super preț","textColor":"#FF0000","bgColor":"#FFF2EC","icon":null,"link":"https://www.freshful.ro/oferte/oferte-bacanie-bauturi-21feb-8mar23","type":"promo","analyticsEventType":"select_promotion","analyticsEventPayload":{"promotion_id":"oferte-bacanie-bauturi-21feb-8mar23","promotion_name":"Cămara cu băuturi și bunătăți"}},"discountLabel":"Economisești 17%","geniusDiscountLabel":null,"badge":null},{"code":"100118527","variantCode":"100118527","name":"Sos de maioneză 199g","slug":"100118527-hellmann-s-sos-de-maioneza-199g","unitPriceLabel":"10,5 Lei/buc","brand":"Hellmann's","brandCode":"138","brandFilterCode":"hellmann-s-b122","sku":"100118527","price":10.5,"originalPrice":null,"currencyCode":"RON","currency":"Lei","image":{"thumbnail":{"default":"https://cdn.freshful.ro/media/cache/sylius_shop_product_thumbnail/ba/60/c417967e90a2f9fedb916d1cf558.jpg"},"large":{"default":"https://cdn.freshful.ro/media/cache/freshful_large/ba/60/c417967e90a2f9fedb916d1cf558.jpg"},"extralarge":{"default":"https://cdn.freshful.ro/media/cache/sylius_shop_product_original/ba/60/c417967e90a2f9fedb916d1cf558.jpg"}},"label":null,"tags":[{"type":"Vegetarian","text":"Vegetarian","icon":"https://cdn.freshful.ro/assets/product_tags/vegetarian.svg","iconPng":"https://cdn.freshful.ro/assets/product_tags/vegetarian.png","backgroundColor":"#FAEAEE","textColor":"#B26275"}],"isAvailable":true,"maxAvailableQuantity":100,"maxAllowedQuantity":100,"breadcrumbs":[{"code":"8","name":"Băcănie","slug":"8-ceva-sarat"},{"code":"803","name":"Condimente și sosuri","slug":"803-condimente-si-sosuri"},{"code":"80304","name":"Muștar, ketchup și maioneză","slug":"80304-mustar-ketchup-si-maioneza"},{"code":"100118527","name":"Sos de maioneză 199g","slug":"100118527-hellmann-s-sos-de-maioneza-199g"}],"activePromotion":null,"saveMe":null,"labels":[],"geniusPrice":null,"geniusUnitPricePerLabel":null,"banner":null,"discountLabel":null,"geniusDiscountLabel":null,"badge":null},{"code":"100092752","variantCode":"5941466002571","name":"Muștar clasic 300g","slug":"100092752-olympia-mustar-clasic-300g","unitPriceLabel":"16,1 Lei/buc","brand":"Olympia","brandCode":"243","brandFilterCode":"olympia-b244","sku":"100092752","price":4.99,"originalPrice":null,"currencyCode":"RON","currency":"Lei","image":{"thumbnail":{"default":"https://cdn.freshful.ro/media/cache/sylius_shop_product_thumbnail/14/37/c76600ba8afc4272a6b328fcd62a.jpg"},"large":{"default":"https://cdn.freshful.ro/media/cache/freshful_large/14/37/c76600ba8afc4272a6b328fcd62a.jpg"},"extralarge":{"default":"https://cdn.freshful.ro/media/cache/sylius_shop_product_original/14/37/c76600ba8afc4272a6b328fcd62a.jpg"}},"label":null,"tags":[{"type":"NoPreservatives","text":"Fara conservanti","icon":"https://cdn.freshful.ro/assets/product_tags/fara_conservanti.svg","iconPng":"https://cdn.freshful.ro/assets/product_tags/fara_conservanti.png","backgroundColor":"#F0F2FF","textColor":"#7889DD"}],"isAvailable":true,"maxAvailableQuantity":72,"maxAllowedQuantity":100,"breadcrumbs":[{"code":"8","name":"Băcănie","slug":"8-ceva-sarat"},{"code":"803","name":"Condimente și sosuri","slug":"803-condimente-si-sosuri"},{"code":"80304","name":"Muștar, ketchup și maioneză","slug":"80304-mustar-ketchup-si-maioneza"},{"code":"100092752","name":"Muștar clasic 300g","slug":"100092752-olympia-mustar-clasic-300g"}],"activePromotion":null,"saveMe":null,"labels":[],"geniusPrice":null,"geniusUnitPricePerLabel":null,"banner":null,"discountLabel":null,"geniusDiscountLabel":null,"badge":null},{"code":"100097231","variantCode":"8715700421469","name":"Ketchup 570g","slug":"100097231-heinz-ketchup-570g","unitPriceLabel":"22,63 Lei/kg","brand":"Heinz","brandCode":"1624","brandFilterCode":"heinz-b1628","sku":"100097231","price":12.9,"originalPrice":null,"currencyCode":"RON","currency":"Lei","image":{"thumbnail":{"default":"https://cdn.freshful.ro/media/cache/sylius_shop_product_thumbnail/b4/58/84b9eec1f6f2754959ce35a1ee70.jpg"},"large":{"default":"https://cdn.freshful.ro/media/cache/freshful_large/b4/58/84b9eec1f6f2754959ce35a1ee70.jpg"},"extralarge":{"default":"https://cdn.freshful.ro/media/cache/sylius_shop_product_original/b4/58/84b9eec1f6f2754959ce35a1ee70.jpg"}},"label":null,"tags":[],"isAvailable":true,"maxAvailableQuantity":100,"maxAllowedQuantity":100,"breadcrumbs":[{"code":"8","name":"Băcănie","slug":"8-ceva-sarat"},{"code":"803","name":"Condimente și sosuri","slug":"803-condimente-si-sosuri"},{"code":"80304","name":"Muștar, ketchup și maioneză","slug":"80304-mustar-ketchup-si-maioneza"},{"code":"100097231","name":"Ketchup 570g","slug":"100097231-heinz-ketchup-570g"}],"activePromotion":null,"saveMe":null,"labels":[],"geniusPrice":null,"geniusUnitPricePerLabel":null,"banner":null,"discountLabel":null,"geniusDiscountLabel":null,"badge":null},{"code":"100086684","variantCode":"100086684","name":"Ketchup dulce 500g","slug":"100086684-tomi-ketchup-dulce-500g","unitPriceLabel":"15,78 Lei/kg","brand":"Tomi","brandCode":"260","brandFilterCode":"tomi-b261","sku":"100086684","price":7.89,"originalPrice":null,"currencyCode":"RON","currency":"Lei","image":{"thumbnail":{"default":"https://cdn.freshful.ro/media/cache/sylius_shop_product_thumbnail/93/42/cb83b88c96986c6a0e1395ab21db.jpg"},"large":{"default":"https://cdn.freshful.ro/media/cache/freshful_large/93/42/cb83b88c96986c6a0e1395ab21db.jpg"},"extralarge":{"default":"https://cdn.freshful.ro/media/cache/sylius_shop_product_original/93/42/cb83b88c96986c6a0e1395ab21db.jpg"}},"label":null,"tags":[],"isAvailable":true,"maxAvailableQuantity":59,"maxAllowedQuantity":100,"breadcrumbs":[{"code":"8","name":"Băcănie","slug":"8-ceva-sarat"},{"code":"803","name":"Condimente și sosuri","slug":"803-condimente-si-sosuri"},{"code":"80304","name":"Muștar, ketchup și maioneză","slug":"80304-mustar-ketchup-si-maioneza"},{"code":"100086684","name":"Ketchup dulce 500g","slug":"100086684-tomi-ketchup-dulce-500g"}],"activePromotion":null,"saveMe":null,"labels":[],"geniusPrice":null,"geniusUnitPricePerLabel":null,"banner":null,"discountLabel":null,"geniusDiscountLabel":null,"badge":null},{"code":"100118526","variantCode":"100118526","name":"Sos de maioneză 384g","slug":"100118526-hellmann-s-sos-de-maioneza-384g","unitPriceLabel":"16,79 Lei/buc","brand":"Hellmann's","brandCode":"138","brandFilterCode":"hellmann-s-b122","sku":"100118526","price":16.79,"originalPrice":null,"currencyCode":"RON","currency":"Lei","image":{"thumbnail":{"default":"https://cdn.freshful.ro/media/cache/sylius_shop_product_thumbnail/f9/74/1618eb6c3e93f83431002e0d424c.jpg"},"large":{"default":"https://cdn.freshful.ro/media/cache/freshful_large/f9/74/1618eb6c3e93f83431002e0d424c.jpg"},"extralarge":{"default":"https://cdn.freshful.ro/media/cache/sylius_shop_product_original/f9/74/1618eb6c3e93f83431002e0d424c.jpg"}},"label":null,"tags":[{"type":"Vegetarian","text":"Vegetarian","icon":"https://cdn.freshful.ro/assets/product_tags/vegetarian.svg","iconPng":"https://cdn.freshful.ro/assets/product_tags/vegetarian.png","backgroundColor":"#FAEAEE","textColor":"#B26275"}],"isAvailable":true,"maxAvailableQuantity":100,"maxAllowedQuantity":100,"breadcrumbs":[{"code":"8","name":"Băcănie","slug":"8-ceva-sarat"},{"code":"803","name":"Condimente și sosuri","slug":"803-condimente-si-sosuri"},{"code":"80304","name":"Muștar, ketchup și maioneză","slug":"80304-mustar-ketchup-si-maioneza"},{"code":"100118526","name":"Sos de maioneză 384g","slug":"100118526-hellmann-s-sos-de-maioneza-384g"}],"activePromotion":null,"saveMe":null,"labels":[],"geniusPrice":null,"geniusUnitPricePerLabel":null,"banner":null,"discountLabel":null,"geniusDiscountLabel":null,"badge":null},{"code":"100118525","variantCode":"100118525","name":"Sos de maioneză light 413g","slug":"100118525-hellmann-s-sos-de-maioneza-light-413g","unitPriceLabel":"14,21 Lei/buc","brand":"Hellmann's","brandCode":"138","brandFilterCode":"hellmann-s-b122","sku":"100118525","price":14.21,"originalPrice":null,"currencyCode":"RON","currency":"Lei","image":{"thumbnail":{"default":"https://cdn.freshful.ro/media/cache/sylius_shop_product_thumbnail/f7/a6/a882931723ea9cfc1c867685381f.jpg"},"large":{"default":"https://cdn.freshful.ro/media/cache/freshful_large/f7/a6/a882931723ea9cfc1c867685381f.jpg"},"extralarge":{"default":"https://cdn.freshful.ro/media/cache/sylius_shop_product_original/f7/a6/a882931723ea9cfc1c867685381f.jpg"}},"label":null,"tags":[{"type":"Vegetarian","text":"Vegetarian","icon":"https://cdn.freshful.ro/assets/product_tags/vegetarian.svg","iconPng":"https://cdn.freshful.ro/assets/product_tags/vegetarian.png","backgroundColor":"#FAEAEE","textColor":"#B26275"}],"isAvailable":true,"maxAvailableQuantity":99,"maxAllowedQuantity":100,"breadcrumbs":[{"code":"8","name":"Băcănie","slug":"8-ceva-sarat"},{"code":"803","name":"Condimente și sosuri","slug":"803-condimente-si-sosuri"},{"code":"80304","name":"Muștar, ketchup și maioneză","slug":"80304-mustar-ketchup-si-maioneza"},{"code":"100118525","name":"Sos de maioneză light 413g","slug":"100118525-hellmann-s-sos-de-maioneza-light-413g"}],"activePromotion":null,"saveMe":null,"labels":[],"geniusPrice":null,"geniusUnitPricePerLabel":null,"banner":null,"discountLabel":null,"geniusDiscountLabel":null,"badge":null}],"filters":{"countSelected":0,"items":[{"code":"promotion","name":"Promoții","countSelected":0,"values":[{"code":"oferte-bacanie-bauturi-21feb-8mar23","name":"Cămara cu băuturi și bunătăți","isSelected":false,"count":3},{"code":"special-produse-vegane-mar23","name":"Și bun, și de post","isSelected":false,"count":1}]},{"code":"brand","name":"Brand","countSelected":0,"values":[{"code":"biffi-b633","name":"Biffi","isSelected":false,"count":1},{"code":"blue-dragon-b630","name":"Blue Dragon","isSelected":false,"count":4},{"code":"bunica-b263","name":"Bunica","isSelected":false,"count":4},{"code":"calve-b2852","name":"Calve","isSelected":false,"count":9},{"code":"desiam-b1074","name":"Desiam","isSelected":false,"count":3},{"code":"develey-b641","name":"Develey","isSelected":false,"count":19},{"code":"flying-goose-b658","name":"Flying Goose","isSelected":false,"count":2},{"code":"greenomic-b1848","name":"Greenomic","isSelected":false,"count":1},{"code":"hamker-b2155","name":"Hamker","isSelected":false,"count":2},{"code":"heinz-b1628","name":"Heinz","isSelected":false,"count":16},{"code":"hellmann-s-b122","name":"Hellmann's","isSelected":false,"count":16},{"code":"homann-b2156","name":"Homann","isSelected":false,"count":3},{"code":"inedit-b57","name":"Inedit","isSelected":false,"count":1},{"code":"kamis-b511","name":"Kamis","isSelected":false,"count":4},{"code":"kfc-b1562","name":"KFC","isSelected":false,"count":2},{"code":"knorr-b123","name":"Knorr","isSelected":false,"count":4},{"code":"laminut-b262","name":"LaMinut","isSelected":false,"count":8},{"code":"maggi-b2337","name":"Maggi","isSelected":false,"count":2},{"code":"maille-b881","name":"Maille","isSelected":false,"count":2},{"code":"maxim-s-b271","name":"Maxim's","isSelected":false,"count":1},{"code":"mutti-b646","name":"Mutti","isSelected":false,"count":1},{"code":"olympia-b244","name":"Olympia","isSelected":false,"count":14},{"code":"pivnita-bunicii-b2310","name":"Pivnița Bunicii","isSelected":false,"count":4},{"code":"pofta-focului-b1566","name":"Pofta Focului","isSelected":false,"count":4},{"code":"raureni-b773","name":"Râureni","isSelected":false,"count":3},{"code":"razvan-b1127","name":"Răzvan","isSelected":false,"count":2},{"code":"saitaku-b994","name":"Saitaku","isSelected":false,"count":1},{"code":"sera-b201","name":"Sera","isSelected":false,"count":1},{"code":"smak-b2157","name":"Smak","isSelected":false,"count":9},{"code":"suntat-b980","name":"Suntat","isSelected":false,"count":2},{"code":"tabasco-b649","name":"Tabasco","isSelected":false,"count":7},{"code":"tartufi-jimmy-b655","name":"Tartufi Jimmy","isSelected":false,"count":4},{"code":"thai-dancer-b1080","name":"Thai Dancer","isSelected":false,"count":6},{"code":"tomi-b261","name":"Tomi","isSelected":false,"count":12},{"code":"univer-b1246","name":"Univer","isSelected":false,"count":11},{"code":"valenii-de-munte-b2718","name":"Valenii De Munte","isSelected":false,"count":1},{"code":"vanka-b883","name":"Vanka","isSelected":false,"count":2},{"code":"varmazis-b506","name":"Varmazis","isSelected":false,"count":5}]},{"code":"diet_lifestyle","name":"Dietă și lifestyle","countSelected":0,"values":[{"code":"fara-conservanti-a37","name":"Fara conservanti","isSelected":false,"count":27},{"code":"fara-e-uri-a84","name":"Fara E-uri","isSelected":false,"count":2},{"code":"fara-gluten-a16","name":"Fara gluten","isSelected":false,"count":10},{"code":"made-in-romania-a85","name":"Made In Romania","isSelected":false,"count":4},{"code":"vegan-a24","name":"Vegan","isSelected":false,"count":6},{"code":"vegetarian-a28","name":"Vegetarian","isSelected":false,"count":7}]}]},"orderBy":[{"field":"price","direction":"asc","name":"Preț crescător","isSelected":false},{"field":"price","direction":"desc","name":"Preț descrescător","isSelected":false},{"field":"popularity","direction":"desc","name":"Cele mai populare","isSelected":true},{"field":"category","direction":"asc","name":"Categorie","isSelected":false}],"metaTitle":"Muștar, ketchup și maioneză - Gamă variată","metaDescription":"Vrei Muștar, ketchup și maioneză? Alege dintr-o gamă variată. Comanzi simplu și ai livrare rapidă, calitate și prospețime. Hai pe Freshful.ro","metaKeywords":null,"banners":[]}}