{"type":"subcategory","payload":{"analyticsListId":"category_804-ulei-si-otet","analyticsListName":"Category - Ulei și oțet","name":"Ulei și oțet","slug":"804-ulei-si-otet","image":null,"breadcrumbs":[{"code":"8","name":"Băcănie","slug":"8-ceva-sarat"},{"code":"804","name":"Ulei și oțet","slug":"804-ulei-si-otet"}],"slots":[],"page":1,"limit":10,"pages":11,"count":102,"siblings":[{"name":"Paste, orez și legume uscate","slug":"801-paste-orez-si-legume-uscate","selected":false},{"name":"Conserve","slug":"802-conserve","selected":false},{"name":"Condimente și sosuri","slug":"803-condimente-si-sosuri","selected":false},{"name":"Ulei și oțet","slug":"804-ulei-si-otet","selected":true},{"name":"De ronțăit","slug":"805-aperitive-sarate","selected":false},{"name":"Făină, zahăr și produse gourmet","slug":"faina-zahar-si-produse-gourmet","selected":false}],"children":[{"name":"Toate produsele","slug":"804-ulei-si-otet","selected":true},{"name":"Ulei de floarea soarelui","slug":"80401-ulei-de-floarea-soarelui","selected":false},{"name":"Ulei de măsline","slug":"80402-ulei-de-masline","selected":false},{"name":"Alte tipuri de ulei","slug":"80403-alte-tipuri-de-ulei","selected":false},{"name":"Oțet","slug":"80404-otet","selected":false},{"name":"Suc de lămâie","slug":"80405-suc-de-lamaie","selected":false}],"products":[{"code":"100117634","variantCode":"100117634","name":"Ulei rafinat din floarea-soarelui 1l","slug":"100117634-surasul-soarelui-ulei-rafinat-din-floarea-soarelui-1l","unitPriceLabel":"7,99 Lei/l","brand":"Surâsul Soarelui","brandCode":"2006","brandFilterCode":"surasul-soarelui-b1997","sku":"100117634","price":7.99,"originalPrice":null,"currencyCode":"RON","currency":"Lei","image":{"thumbnail":{"default":"https://cdn.freshful.ro/media/cache/sylius_shop_product_thumbnail/92/ed/355238502c803b677cfefff9f63e.jpg"},"large":{"default":"https://cdn.freshful.ro/media/cache/freshful_large/92/ed/355238502c803b677cfefff9f63e.jpg"},"extralarge":{"default":"https://cdn.freshful.ro/media/cache/sylius_shop_product_original/92/ed/355238502c803b677cfefff9f63e.jpg"}},"label":{"text":"Profită acum","backgroundColor":"#FF9903","textColor":"#FFFFFF"},"tags":[],"isAvailable":true,"maxAvailableQuantity":6,"maxAllowedQuantity":6,"breadcrumbs":[{"code":"8","name":"Băcănie","slug":"8-ceva-sarat"},{"code":"804","name":"Ulei și oțet","slug":"804-ulei-si-otet"},{"code":"80401","name":"Ulei de floarea soarelui","slug":"80401-ulei-de-floarea-soarelui"},{"code":"100117634","name":"Ulei rafinat din floarea-soarelui 1l","slug":"100117634-surasul-soarelui-ulei-rafinat-din-floarea-soarelui-1l"}],"activePromotion":{"code":"oferte-bacanie-bauturi-21feb-8mar23","name":"Preț avantajos","targetQuantity":null},"saveMe":null,"labels":[{"type":"v1","items":[{"text":"Profită acum","backgroundColor":"#FF9903","textColor":"#FFFFFF"}]}],"geniusPrice":null,"geniusUnitPricePerLabel":null,"banner":{"text":"Preț avantajos","textColor":"#F95510","bgColor":"#FEF1CD","icon":null,"link":"https://www.freshful.ro/oferte/oferte-bacanie-bauturi-21feb-8mar23","type":"promo","analyticsEventType":"select_promotion","analyticsEventPayload":{"promotion_id":"oferte-bacanie-bauturi-21feb-8mar23","promotion_name":"Cămara cu băuturi și bunătăți"}},"discountLabel":null,"geniusDiscountLabel":null,"badge":null},{"code":"100075541","variantCode":"5214000101024","name":"Ulei de măsline extravirgin 750ml","slug":"100075541-kidonakis-ulei-de-masline-extravirgin-750ml","unitPriceLabel":"59,99 Lei/l","brand":"Kidonakis","brandCode":"968","brandFilterCode":"kidonakis-b982","sku":"100075541","price":44.99,"originalPrice":null,"currencyCode":"RON","currency":"Lei","image":{"thumbnail":{"default":"https://cdn.freshful.ro/media/cache/sylius_shop_product_thumbnail/21/b3/11861022f407e61f77a9f26a3c98.jpg"},"large":{"default":"https://cdn.freshful.ro/media/cache/freshful_large/21/b3/11861022f407e61f77a9f26a3c98.jpg"},"extralarge":{"default":"https://cdn.freshful.ro/media/cache/sylius_shop_product_original/21/b3/11861022f407e61f77a9f26a3c98.jpg"}},"label":{"text":"Profită acum","backgroundColor":"#FF9903","textColor":"#FFFFFF"},"tags":[],"isAvailable":true,"maxAvailableQuantity":6,"maxAllowedQuantity":6,"breadcrumbs":[{"code":"8","name":"Băcănie","slug":"8-ceva-sarat"},{"code":"804","name":"Ulei și oțet","slug":"804-ulei-si-otet"},{"code":"80402","name":"Ulei de măsline","slug":"80402-ulei-de-masline"},{"code":"100075541","name":"Ulei de măsline extravirgin 750ml","slug":"100075541-kidonakis-ulei-de-masline-extravirgin-750ml"}],"activePromotion":{"code":"oferte-bacanie-bauturi-21feb-8mar23","name":"Preț avantajos","targetQuantity":null},"saveMe":null,"labels":[{"type":"v1","items":[{"text":"Profită acum","backgroundColor":"#FF9903","textColor":"#FFFFFF"}]}],"geniusPrice":null,"geniusUnitPricePerLabel":null,"banner":{"text":"Preț avantajos","textColor":"#F95510","bgColor":"#FEF1CD","icon":null,"link":"https://www.freshful.ro/oferte/oferte-bacanie-bauturi-21feb-8mar23","type":"promo","analyticsEventType":"select_promotion","analyticsEventPayload":{"promotion_id":"oferte-bacanie-bauturi-21feb-8mar23","promotion_name":"Cămara cu băuturi și bunătăți"}},"discountLabel":null,"geniusDiscountLabel":null,"badge":null},{"code":"100075590","variantCode":"5601252116157","name":"Oțet balsamic de Modena 250ml","slug":"100075590-gallo-otet-balsamic-de-modena-250ml","unitPriceLabel":"39,96 Lei/l","brand":"Gallo","brandCode":"976","brandFilterCode":"gallo-b990","sku":"100075590","price":9.99,"originalPrice":11.79,"currencyCode":"RON","currency":"Lei","image":{"thumbnail":{"default":"https://cdn.freshful.ro/media/cache/sylius_shop_product_thumbnail/c1/c1/a4a4ffaa2ae091be80460e9d2f47.jpg"},"large":{"default":"https://cdn.freshful.ro/media/cache/freshful_large/c1/c1/a4a4ffaa2ae091be80460e9d2f47.jpg"},"extralarge":{"default":"https://cdn.freshful.ro/media/cache/sylius_shop_product_original/c1/c1/a4a4ffaa2ae091be80460e9d2f47.jpg"}},"label":{"text":"-15%","backgroundColor":"#FF9903","textColor":"#FFFFFF"},"tags":[],"isAvailable":true,"maxAvailableQuantity":19,"maxAllowedQuantity":100,"breadcrumbs":[{"code":"8","name":"Băcănie","slug":"8-ceva-sarat"},{"code":"804","name":"Ulei și oțet","slug":"804-ulei-si-otet"},{"code":"80404","name":"Oțet","slug":"80404-otet"},{"code":"100075590","name":"Oțet balsamic de Modena 250ml","slug":"100075590-gallo-otet-balsamic-de-modena-250ml"}],"activePromotion":{"code":"oferte-bacanie-bauturi-21feb-8mar23","name":"Preț redus","targetQuantity":null},"saveMe":null,"labels":[{"type":"v1","items":[{"text":"-15%","backgroundColor":"#FF9903","textColor":"#FFFFFF"}]}],"geniusPrice":null,"geniusUnitPricePerLabel":null,"banner":{"text":"Super preț","textColor":"#FF0000","bgColor":"#FFF2EC","icon":null,"link":"https://www.freshful.ro/oferte/oferte-bacanie-bauturi-21feb-8mar23","type":"promo","analyticsEventType":"select_promotion","analyticsEventPayload":{"promotion_id":"oferte-bacanie-bauturi-21feb-8mar23","promotion_name":"Cămara cu băuturi și bunătăți"}},"discountLabel":"Economisești 15%","geniusDiscountLabel":null,"badge":null},{"code":"100141399","variantCode":"100141399","name":"Ulei de floarea soarelui untdelemn de la bunica, 1l","slug":"100141399-bunica-ulei-de-floarea-soarelui-untdelemn-de-la-bunica-1l","unitPriceLabel":"11,39 Lei/l","brand":"Bunica","brandCode":"262","brandFilterCode":"bunica-b263","sku":"100141399","price":11.39,"originalPrice":null,"currencyCode":"RON","currency":"Lei","image":{"thumbnail":{"default":"https://cdn.freshful.ro/media/cache/sylius_shop_product_thumbnail/64/49/9b51cb2d33b8f880038dd92352af.jpg"},"large":{"default":"https://cdn.freshful.ro/media/cache/freshful_large/64/49/9b51cb2d33b8f880038dd92352af.jpg"},"extralarge":{"default":"https://cdn.freshful.ro/media/cache/sylius_shop_product_original/64/49/9b51cb2d33b8f880038dd92352af.jpg"}},"label":null,"tags":[],"isAvailable":true,"maxAvailableQuantity":6,"maxAllowedQuantity":6,"breadcrumbs":[{"code":"8","name":"Băcănie","slug":"8-ceva-sarat"},{"code":"804","name":"Ulei și oțet","slug":"804-ulei-si-otet"},{"code":"80401","name":"Ulei de floarea soarelui","slug":"80401-ulei-de-floarea-soarelui"},{"code":"100141399","name":"Ulei de floarea soarelui untdelemn de la bunica, 1l","slug":"100141399-bunica-ulei-de-floarea-soarelui-untdelemn-de-la-bunica-1l"}],"activePromotion":null,"saveMe":null,"labels":[],"geniusPrice":null,"geniusUnitPricePerLabel":null,"banner":null,"discountLabel":null,"geniusDiscountLabel":null,"badge":null},{"code":"100151169","variantCode":"100151169","name":"Ulei rafinat de floarea-soarelui 1l","slug":"100151169-no-brand-ulei-rafinat-de-floarea-soarelui-1l","unitPriceLabel":"10,99 Lei/l","brand":"Delicia","brandCode":"3157","brandFilterCode":"delicia-b3251","sku":"100151169","price":10.99,"originalPrice":null,"currencyCode":"RON","currency":"Lei","image":{"thumbnail":{"default":"https://cdn.freshful.ro/media/cache/sylius_shop_product_thumbnail/c5/ea/83b0f6791080f43570a031340743.jpg"},"large":{"default":"https://cdn.freshful.ro/media/cache/freshful_large/c5/ea/83b0f6791080f43570a031340743.jpg"},"extralarge":{"default":"https://cdn.freshful.ro/media/cache/sylius_shop_product_original/c5/ea/83b0f6791080f43570a031340743.jpg"}},"label":null,"tags":[],"isAvailable":true,"maxAvailableQuantity":6,"maxAllowedQuantity":6,"breadcrumbs":[{"code":"8","name":"Băcănie","slug":"8-ceva-sarat"},{"code":"804","name":"Ulei și oțet","slug":"804-ulei-si-otet"},{"code":"80401","name":"Ulei de floarea soarelui","slug":"80401-ulei-de-floarea-soarelui"},{"code":"100151169","name":"Ulei rafinat de floarea-soarelui 1l","slug":"100151169-no-brand-ulei-rafinat-de-floarea-soarelui-1l"}],"activePromotion":null,"saveMe":null,"labels":[],"geniusPrice":null,"geniusUnitPricePerLabel":null,"banner":null,"discountLabel":null,"geniusDiscountLabel":null,"badge":null},{"code":"100097216","variantCode":"8007270000039","name":"Ulei de măsline extravirgin 500ml","slug":"100097216-costa-d-oro-ulei-de-masline-extravirgin-500ml","unitPriceLabel":"59,06 Lei/kg","brand":"Costa D'Oro","brandCode":"1620","brandFilterCode":"costa-d-oro-b1624","sku":"100097216","price":26.99,"originalPrice":null,"currencyCode":"RON","currency":"Lei","image":{"thumbnail":{"default":"https://cdn.freshful.ro/media/cache/sylius_shop_product_thumbnail/35/01/299526238809338f80626599a365.jpg"},"large":{"default":"https://cdn.freshful.ro/media/cache/freshful_large/35/01/299526238809338f80626599a365.jpg"},"extralarge":{"default":"https://cdn.freshful.ro/media/cache/sylius_shop_product_original/35/01/299526238809338f80626599a365.jpg"}},"label":null,"tags":[],"isAvailable":true,"maxAvailableQuantity":6,"maxAllowedQuantity":6,"breadcrumbs":[{"code":"8","name":"Băcănie","slug":"8-ceva-sarat"},{"code":"804","name":"Ulei și oțet","slug":"804-ulei-si-otet"},{"code":"80402","name":"Ulei de măsline","slug":"80402-ulei-de-masline"},{"code":"100097216","name":"Ulei de măsline extravirgin 500ml","slug":"100097216-costa-d-oro-ulei-de-masline-extravirgin-500ml"}],"activePromotion":null,"saveMe":null,"labels":[],"geniusPrice":null,"geniusUnitPricePerLabel":null,"banner":null,"discountLabel":null,"geniusDiscountLabel":null,"badge":null},{"code":"100063013","variantCode":"5948990130138","name":"Ulei rafinat de floarea-soarelui 1l","slug":"100063013-floriol-ulei-rafinat-de-floarea-soarelui-1l","unitPriceLabel":"12,15 Lei/l","brand":"Floriol","brandCode":"168","brandFilterCode":"floriol-b169","sku":"100063013","price":12.15,"originalPrice":null,"currencyCode":"RON","currency":"Lei","image":{"thumbnail":{"default":"https://cdn.freshful.ro/media/cache/sylius_shop_product_thumbnail/86/8f/704c85d701aaae0becf4f5623860.jpg"},"large":{"default":"https://cdn.freshful.ro/media/cache/freshful_large/86/8f/704c85d701aaae0becf4f5623860.jpg"},"extralarge":{"default":"https://cdn.freshful.ro/media/cache/sylius_shop_product_original/86/8f/704c85d701aaae0becf4f5623860.jpg"}},"label":null,"tags":[],"isAvailable":true,"maxAvailableQuantity":6,"maxAllowedQuantity":6,"breadcrumbs":[{"code":"8","name":"Băcănie","slug":"8-ceva-sarat"},{"code":"804","name":"Ulei și oțet","slug":"804-ulei-si-otet"},{"code":"80401","name":"Ulei de floarea soarelui","slug":"80401-ulei-de-floarea-soarelui"},{"code":"100063013","name":"Ulei rafinat de floarea-soarelui 1l","slug":"100063013-floriol-ulei-rafinat-de-floarea-soarelui-1l"}],"activePromotion":null,"saveMe":null,"labels":[],"geniusPrice":null,"geniusUnitPricePerLabel":null,"banner":null,"discountLabel":null,"geniusDiscountLabel":null,"badge":null},{"code":"100063018","variantCode":"5948990130237","name":"Ulei rafinat de floarea-soarelui de primă presă 1l","slug":"100063018-unisol-ulei-rafinat-de-floarea-soarelui-de-prima-presa-1l","unitPriceLabel":"11,99 Lei/l","brand":"Unisol","brandCode":"169","brandFilterCode":"unisol-b170","sku":"100063018","price":11.99,"originalPrice":null,"currencyCode":"RON","currency":"Lei","image":{"thumbnail":{"default":"https://cdn.freshful.ro/media/cache/sylius_shop_product_thumbnail/43/0e/49bdabef4944d8f2bbbfb3feee11.jpg"},"large":{"default":"https://cdn.freshful.ro/media/cache/freshful_large/43/0e/49bdabef4944d8f2bbbfb3feee11.jpg"},"extralarge":{"default":"https://cdn.freshful.ro/media/cache/sylius_shop_product_original/43/0e/49bdabef4944d8f2bbbfb3feee11.jpg"}},"label":null,"tags":[],"isAvailable":true,"maxAvailableQuantity":6,"maxAllowedQuantity":6,"breadcrumbs":[{"code":"8","name":"Băcănie","slug":"8-ceva-sarat"},{"code":"804","name":"Ulei și oțet","slug":"804-ulei-si-otet"},{"code":"80401","name":"Ulei de floarea soarelui","slug":"80401-ulei-de-floarea-soarelui"},{"code":"100063018","name":"Ulei rafinat de floarea-soarelui de primă presă 1l","slug":"100063018-unisol-ulei-rafinat-de-floarea-soarelui-de-prima-presa-1l"}],"activePromotion":null,"saveMe":null,"labels":[],"geniusPrice":null,"geniusUnitPricePerLabel":null,"banner":null,"discountLabel":null,"geniusDiscountLabel":null,"badge":null},{"code":"100065354","variantCode":"5941865004725","name":"Oțet de mere 0.5l","slug":"100065354-raureni-otet-de-mere-0-5l","unitPriceLabel":"8,1 Lei/l","brand":"Râureni","brandCode":"772","brandFilterCode":"raureni-b773","sku":"100065354","price":4.05,"originalPrice":null,"currencyCode":"RON","currency":"Lei","image":{"thumbnail":{"default":"https://cdn.freshful.ro/media/cache/sylius_shop_product_thumbnail/39/3f/f99a58d8897535ce476c65208883.jpg"},"large":{"default":"https://cdn.freshful.ro/media/cache/freshful_large/39/3f/f99a58d8897535ce476c65208883.jpg"},"extralarge":{"default":"https://cdn.freshful.ro/media/cache/sylius_shop_product_original/39/3f/f99a58d8897535ce476c65208883.jpg"}},"label":{"text":"Primul preț","backgroundColor":"#3A0808","textColor":"#FFFFFF"},"tags":[],"isAvailable":true,"maxAvailableQuantity":100,"maxAllowedQuantity":100,"breadcrumbs":[{"code":"8","name":"Băcănie","slug":"8-ceva-sarat"},{"code":"804","name":"Ulei și oțet","slug":"804-ulei-si-otet"},{"code":"80404","name":"Oțet","slug":"80404-otet"},{"code":"100065354","name":"Oțet de mere 0.5l","slug":"100065354-raureni-otet-de-mere-0-5l"}],"activePromotion":null,"saveMe":null,"labels":[{"type":"v4","items":[{"text":"Primul","backgroundColor":"#3A0808","textColor":"#FFFFFF"},{"text":"preț","backgroundColor":"#BC0606","textColor":"#FFFFFF"}]}],"geniusPrice":null,"geniusUnitPricePerLabel":null,"banner":null,"discountLabel":null,"geniusDiscountLabel":null,"badge":null},{"code":"100150734","variantCode":"100150734","name":"Ulei de măsline 1l","slug":"100150734-no-brand-ulei-de-masline-1l","unitPriceLabel":"23,5 Lei/l","brand":"ANTICO FRANTOIO","brandCode":"2999","brandFilterCode":"antico-frantoio-b3096","sku":"100150734","price":23.5,"originalPrice":null,"currencyCode":"RON","currency":"Lei","image":{"thumbnail":{"default":"https://cdn.freshful.ro/media/cache/sylius_shop_product_thumbnail/64/db/ee77637841554c6b920415983ee0.jpg"},"large":{"default":"https://cdn.freshful.ro/media/cache/freshful_large/64/db/ee77637841554c6b920415983ee0.jpg"},"extralarge":{"default":"https://cdn.freshful.ro/media/cache/sylius_shop_product_original/64/db/ee77637841554c6b920415983ee0.jpg"}},"label":{"text":"Primul preț","backgroundColor":"#3A0808","textColor":"#FFFFFF"},"tags":[],"isAvailable":true,"maxAvailableQuantity":6,"maxAllowedQuantity":6,"breadcrumbs":[{"code":"8","name":"Băcănie","slug":"8-ceva-sarat"},{"code":"804","name":"Ulei și oțet","slug":"804-ulei-si-otet"},{"code":"80402","name":"Ulei de măsline","slug":"80402-ulei-de-masline"},{"code":"100150734","name":"Ulei de măsline 1l","slug":"100150734-no-brand-ulei-de-masline-1l"}],"activePromotion":null,"saveMe":null,"labels":[{"type":"v4","items":[{"text":"Primul","backgroundColor":"#3A0808","textColor":"#FFFFFF"},{"text":"preț","backgroundColor":"#BC0606","textColor":"#FFFFFF"}]}],"geniusPrice":null,"geniusUnitPricePerLabel":null,"banner":null,"discountLabel":null,"geniusDiscountLabel":null,"badge":null}],"filters":{"countSelected":0,"items":[{"code":"promotion","name":"Promoții","countSelected":0,"values":[{"code":"oferte-bacanie-bauturi-21feb-8mar23","name":"Cămara cu băuturi și bunătăți","isSelected":false,"count":3}]},{"code":"brand","name":"Brand","countSelected":0,"values":[{"code":"antico-frantoio-b3096","name":"ANTICO FRANTOIO","isSelected":false,"count":1},{"code":"argus-b2713","name":"Argus","isSelected":false,"count":2},{"code":"blue-dragon-b630","name":"Blue Dragon","isSelected":false,"count":1},{"code":"bunica-b263","name":"Bunica","isSelected":false,"count":3},{"code":"chatel-b2534","name":"Chatel","isSelected":false,"count":2},{"code":"cirio-b643","name":"Cirio","isSelected":false,"count":2},{"code":"colavita-b2929","name":"Colavita","isSelected":false,"count":2},{"code":"contec-b3097","name":"Contec","isSelected":false,"count":1},{"code":"costa-d-oro-b1624","name":"Costa D'Oro","isSelected":false,"count":4},{"code":"de-nigris-b640","name":"De Nigris","isSelected":false,"count":3},{"code":"delicia-b3251","name":"Delicia","isSelected":false,"count":1},{"code":"floriol-b169","name":"Floriol","isSelected":false,"count":3},{"code":"food-from-light-b1897","name":"Food From Light","isSelected":false,"count":3},{"code":"galaxy-b2154","name":"Galaxy","isSelected":false,"count":1},{"code":"gallo-b990","name":"Gallo","isSelected":false,"count":2},{"code":"harvest-land-b3020","name":"Harvest Land","isSelected":false,"count":1},{"code":"il-grezzo-b1629","name":"Il Grezzo","isSelected":false,"count":1},{"code":"kamis-b511","name":"Kamis","isSelected":false,"count":2},{"code":"kidonakis-b982","name":"Kidonakis","isSelected":false,"count":3},{"code":"limmi-b638","name":"Limmi","isSelected":false,"count":2},{"code":"luna-s-premium-truffles-b1876","name":"Luna'S Premium Truffles","isSelected":false,"count":4},{"code":"lyrakis-family-b2615","name":"Lyrakis Family","isSelected":false,"count":4},{"code":"mantova-b2295","name":"Mantova","isSelected":false,"count":4},{"code":"mazza-b645","name":"Mazza","isSelected":false,"count":1},{"code":"monastiri-b651","name":"Monastiri","isSelected":false,"count":2},{"code":"monini-b781","name":"Monini","isSelected":false,"count":12},{"code":"olitalia-b199","name":"Olitalia","isSelected":false,"count":3},{"code":"olympia-b244","name":"Olympia","isSelected":false,"count":1},{"code":"otet-b1464","name":"Oțet","isSelected":false,"count":3},{"code":"papadim-s-b2614","name":"Papadim's","isSelected":false,"count":4},{"code":"pietro-coricelli-b642","name":"Pietro Coricelli","isSelected":false,"count":5},{"code":"polenghi-b1632","name":"Polenghi","isSelected":false,"count":1},{"code":"raureni-b773","name":"Râureni","isSelected":false,"count":1},{"code":"soland-b2753","name":"SOLAND","isSelected":false,"count":1},{"code":"sora-soarelui-b2714","name":"Sora Soarelui","isSelected":false,"count":1},{"code":"spornic-b1699","name":"Spornic","isSelected":false,"count":3},{"code":"surasul-soarelui-b1997","name":"Surâsul Soarelui","isSelected":false,"count":1},{"code":"unisol-b170","name":"Unisol","isSelected":false,"count":4},{"code":"valahia-b3021","name":"Valahia","isSelected":false,"count":3},{"code":"varvello-b2158","name":"Varvello","isSelected":false,"count":4}]},{"code":"diet_lifestyle","name":"Dietă și lifestyle","countSelected":0,"values":[{"code":"eco-a83","name":"Eco","isSelected":false,"count":2},{"code":"fara-gluten-a16","name":"Fara gluten","isSelected":false,"count":2},{"code":"made-in-romania-a85","name":"Made In Romania","isSelected":false,"count":5},{"code":"natural-a27","name":"Natural","isSelected":false,"count":3},{"code":"vegan-a24","name":"Vegan","isSelected":false,"count":2},{"code":"vegetarian-a28","name":"Vegetarian","isSelected":false,"count":4}]}]},"orderBy":[{"field":"price","direction":"asc","name":"Preț crescător","isSelected":false},{"field":"price","direction":"desc","name":"Preț descrescător","isSelected":false},{"field":"popularity","direction":"desc","name":"Cele mai populare","isSelected":true},{"field":"category","direction":"asc","name":"Categorie","isSelected":false}],"metaTitle":"Ulei și oțet - Gamă variată","metaDescription":"Vrei Ulei și oțet? Alege dintr-o gamă variată. Comanzi simplu și ai livrare rapidă, calitate și prospețime. Hai pe Freshful.ro","metaKeywords":null,"banners":[{"name":"Prim pret","position":2,"type":"listing","displayOnMobile":true,"image":{"jpg":"https://cdn.freshful.ro/media/image/87/b8/2c5353731cb930753b2e9388cb6c.jpg","webp":"https://cdn.freshful.ro/media/image/2f/81/31f258b5a853f724d1a0ee704aea.webp"},"imageResponsive":{"jpg":"https://cdn.freshful.ro/media/image/bc/92/2fd607eef07234c1e524156e1312.jpg","webp":"https://cdn.freshful.ro/media/image/87/db/5b4fc5253bb990fdd0477492ff28.webp"},"url":"/l/custom-listing-prim-pret"}]}}