{"type":"subcategory","payload":{"analyticsListId":"category_80404-otet","analyticsListName":"Category - Oțet","name":"Oțet","slug":"80404-otet","image":null,"breadcrumbs":[{"code":"8","name":"Băcănie","slug":"8-ceva-sarat"},{"code":"804","name":"Ulei și oțet","slug":"804-ulei-si-otet"},{"code":"80404","name":"Oțet","slug":"80404-otet"}],"slots":[],"page":1,"limit":10,"pages":3,"count":27,"siblings":[{"name":"Paste, orez și legume uscate","slug":"801-paste-orez-si-legume-uscate","selected":false},{"name":"Conserve","slug":"802-conserve","selected":false},{"name":"Condimente și sosuri","slug":"803-condimente-si-sosuri","selected":false},{"name":"Ulei și oțet","slug":"804-ulei-si-otet","selected":true},{"name":"De ronțăit","slug":"805-aperitive-sarate","selected":false},{"name":"Făină, zahăr și produse gourmet","slug":"faina-zahar-si-produse-gourmet","selected":false}],"children":[{"name":"Toate produsele","slug":"804-ulei-si-otet","selected":false},{"name":"Ulei de floarea soarelui","slug":"80401-ulei-de-floarea-soarelui","selected":false},{"name":"Ulei de măsline","slug":"80402-ulei-de-masline","selected":false},{"name":"Alte tipuri de ulei","slug":"80403-alte-tipuri-de-ulei","selected":false},{"name":"Oțet","slug":"80404-otet","selected":true},{"name":"Suc de lămâie","slug":"80405-suc-de-lamaie","selected":false}],"products":[{"code":"100075590","variantCode":"5601252116157","name":"Oțet balsamic de Modena 250ml","slug":"100075590-gallo-otet-balsamic-de-modena-250ml","unitPriceLabel":"39,96 Lei/l","brand":"Gallo","brandCode":"976","brandFilterCode":"gallo-b990","sku":"100075590","price":9.99,"originalPrice":11.79,"currencyCode":"RON","currency":"Lei","image":{"thumbnail":{"default":"https://cdn.freshful.ro/media/cache/sylius_shop_product_thumbnail/c1/c1/a4a4ffaa2ae091be80460e9d2f47.jpg"},"large":{"default":"https://cdn.freshful.ro/media/cache/freshful_large/c1/c1/a4a4ffaa2ae091be80460e9d2f47.jpg"},"extralarge":{"default":"https://cdn.freshful.ro/media/cache/sylius_shop_product_original/c1/c1/a4a4ffaa2ae091be80460e9d2f47.jpg"}},"label":{"text":"-15%","backgroundColor":"#FF9903","textColor":"#FFFFFF"},"tags":[],"isAvailable":true,"maxAvailableQuantity":19,"maxAllowedQuantity":100,"breadcrumbs":[{"code":"8","name":"Băcănie","slug":"8-ceva-sarat"},{"code":"804","name":"Ulei și oțet","slug":"804-ulei-si-otet"},{"code":"80404","name":"Oțet","slug":"80404-otet"},{"code":"100075590","name":"Oțet balsamic de Modena 250ml","slug":"100075590-gallo-otet-balsamic-de-modena-250ml"}],"activePromotion":{"code":"oferte-bacanie-bauturi-21feb-8mar23","name":"Preț redus","targetQuantity":null},"saveMe":null,"labels":[{"type":"v1","items":[{"text":"-15%","backgroundColor":"#FF9903","textColor":"#FFFFFF"}]}],"geniusPrice":null,"geniusUnitPricePerLabel":null,"banner":{"text":"Super preț","textColor":"#FF0000","bgColor":"#FFF2EC","icon":null,"link":"https://www.freshful.ro/oferte/oferte-bacanie-bauturi-21feb-8mar23","type":"promo","analyticsEventType":"select_promotion","analyticsEventPayload":{"promotion_id":"oferte-bacanie-bauturi-21feb-8mar23","promotion_name":"Cămara cu băuturi și bunătăți"}},"discountLabel":"Economisești 15%","geniusDiscountLabel":null,"badge":null},{"code":"100065354","variantCode":"5941865004725","name":"Oțet de mere 0.5l","slug":"100065354-raureni-otet-de-mere-0-5l","unitPriceLabel":"8,1 Lei/l","brand":"Râureni","brandCode":"772","brandFilterCode":"raureni-b773","sku":"100065354","price":4.05,"originalPrice":null,"currencyCode":"RON","currency":"Lei","image":{"thumbnail":{"default":"https://cdn.freshful.ro/media/cache/sylius_shop_product_thumbnail/39/3f/f99a58d8897535ce476c65208883.jpg"},"large":{"default":"https://cdn.freshful.ro/media/cache/freshful_large/39/3f/f99a58d8897535ce476c65208883.jpg"},"extralarge":{"default":"https://cdn.freshful.ro/media/cache/sylius_shop_product_original/39/3f/f99a58d8897535ce476c65208883.jpg"}},"label":{"text":"Primul preț","backgroundColor":"#3A0808","textColor":"#FFFFFF"},"tags":[],"isAvailable":true,"maxAvailableQuantity":100,"maxAllowedQuantity":100,"breadcrumbs":[{"code":"8","name":"Băcănie","slug":"8-ceva-sarat"},{"code":"804","name":"Ulei și oțet","slug":"804-ulei-si-otet"},{"code":"80404","name":"Oțet","slug":"80404-otet"},{"code":"100065354","name":"Oțet de mere 0.5l","slug":"100065354-raureni-otet-de-mere-0-5l"}],"activePromotion":null,"saveMe":null,"labels":[{"type":"v4","items":[{"text":"Primul","backgroundColor":"#3A0808","textColor":"#FFFFFF"},{"text":"preț","backgroundColor":"#BC0606","textColor":"#FFFFFF"}]}],"geniusPrice":null,"geniusUnitPricePerLabel":null,"banner":null,"discountLabel":null,"geniusDiscountLabel":null,"badge":null},{"code":"100092757","variantCode":"5941466003578","name":"Oțet din alcool etilic rafinat 1l","slug":"100092757-olympia-otet-din-alcool-etilic-rafinat-1l","unitPriceLabel":"3,79 Lei/buc","brand":"Olympia","brandCode":"243","brandFilterCode":"olympia-b244","sku":"100092757","price":3.79,"originalPrice":null,"currencyCode":"RON","currency":"Lei","image":{"thumbnail":{"default":"https://cdn.freshful.ro/media/cache/sylius_shop_product_thumbnail/46/63/29ca23708358cc7d8e87aa131237.jpg"},"large":{"default":"https://cdn.freshful.ro/media/cache/freshful_large/46/63/29ca23708358cc7d8e87aa131237.jpg"},"extralarge":{"default":"https://cdn.freshful.ro/media/cache/sylius_shop_product_original/46/63/29ca23708358cc7d8e87aa131237.jpg"}},"label":{"text":"Primul preț","backgroundColor":"#3A0808","textColor":"#FFFFFF"},"tags":[],"isAvailable":true,"maxAvailableQuantity":100,"maxAllowedQuantity":100,"breadcrumbs":[{"code":"8","name":"Băcănie","slug":"8-ceva-sarat"},{"code":"804","name":"Ulei și oțet","slug":"804-ulei-si-otet"},{"code":"80404","name":"Oțet","slug":"80404-otet"},{"code":"100092757","name":"Oțet din alcool etilic rafinat 1l","slug":"100092757-olympia-otet-din-alcool-etilic-rafinat-1l"}],"activePromotion":null,"saveMe":null,"labels":[{"type":"v4","items":[{"text":"Primul","backgroundColor":"#3A0808","textColor":"#FFFFFF"},{"text":"preț","backgroundColor":"#BC0606","textColor":"#FFFFFF"}]}],"geniusPrice":null,"geniusUnitPricePerLabel":null,"banner":null,"discountLabel":null,"geniusDiscountLabel":null,"badge":null},{"code":"100083332","variantCode":"100083332","name":"Oțet alb 1l","slug":"100083332-otet-otet-alb-1l","unitPriceLabel":"5,49 Lei/l","brand":"Oțet","brandCode":"1471","brandFilterCode":"otet-b1464","sku":"100083332","price":5.49,"originalPrice":null,"currencyCode":"RON","currency":"Lei","image":{"thumbnail":{"default":"https://cdn.freshful.ro/media/cache/sylius_shop_product_thumbnail/d1/5a/34143e5f05dc09f192da40fdc1a7.jpg"},"large":{"default":"https://cdn.freshful.ro/media/cache/freshful_large/d1/5a/34143e5f05dc09f192da40fdc1a7.jpg"},"extralarge":{"default":"https://cdn.freshful.ro/media/cache/sylius_shop_product_original/d1/5a/34143e5f05dc09f192da40fdc1a7.jpg"}},"label":null,"tags":[],"isAvailable":true,"maxAvailableQuantity":100,"maxAllowedQuantity":100,"breadcrumbs":[{"code":"8","name":"Băcănie","slug":"8-ceva-sarat"},{"code":"804","name":"Ulei și oțet","slug":"804-ulei-si-otet"},{"code":"80404","name":"Oțet","slug":"80404-otet"},{"code":"100083332","name":"Oțet alb 1l","slug":"100083332-otet-otet-alb-1l"}],"activePromotion":null,"saveMe":null,"labels":[],"geniusPrice":null,"geniusUnitPricePerLabel":null,"banner":null,"discountLabel":null,"geniusDiscountLabel":null,"badge":null},{"code":"100083333","variantCode":"100083333","name":"Oțet de mere 0.5l","slug":"100083333-otet-otet-de-mere-0-5l","unitPriceLabel":"9,38 Lei/l","brand":"Oțet","brandCode":"1471","brandFilterCode":"otet-b1464","sku":"100083333","price":4.69,"originalPrice":null,"currencyCode":"RON","currency":"Lei","image":{"thumbnail":{"default":"https://cdn.freshful.ro/media/cache/sylius_shop_product_thumbnail/98/d9/ce81978012331c444b635a8cd6a8.jpg"},"large":{"default":"https://cdn.freshful.ro/media/cache/freshful_large/98/d9/ce81978012331c444b635a8cd6a8.jpg"},"extralarge":{"default":"https://cdn.freshful.ro/media/cache/sylius_shop_product_original/98/d9/ce81978012331c444b635a8cd6a8.jpg"}},"label":null,"tags":[],"isAvailable":true,"maxAvailableQuantity":100,"maxAllowedQuantity":100,"breadcrumbs":[{"code":"8","name":"Băcănie","slug":"8-ceva-sarat"},{"code":"804","name":"Ulei și oțet","slug":"804-ulei-si-otet"},{"code":"80404","name":"Oțet","slug":"80404-otet"},{"code":"100083333","name":"Oțet de mere 0.5l","slug":"100083333-otet-otet-de-mere-0-5l"}],"activePromotion":null,"saveMe":null,"labels":[],"geniusPrice":null,"geniusUnitPricePerLabel":null,"banner":null,"discountLabel":null,"geniusDiscountLabel":null,"badge":null},{"code":"100042062","variantCode":"8010532000876","name":"Oțet balsamic de Modena 500ml","slug":"100042062-de-nigris-otet-balsamic-de-modena-500ml","unitPriceLabel":"31 Lei/l","brand":"De Nigris","brandCode":"639","brandFilterCode":"de-nigris-b640","sku":"100042062","price":15.5,"originalPrice":null,"currencyCode":"RON","currency":"Lei","image":{"thumbnail":{"default":"https://cdn.freshful.ro/media/cache/sylius_shop_product_thumbnail/2e/6e/7f8d9319f0b111af9865794100a1.jpg"},"large":{"default":"https://cdn.freshful.ro/media/cache/freshful_large/2e/6e/7f8d9319f0b111af9865794100a1.jpg"},"extralarge":{"default":"https://cdn.freshful.ro/media/cache/sylius_shop_product_original/2e/6e/7f8d9319f0b111af9865794100a1.jpg"}},"label":null,"tags":[],"isAvailable":true,"maxAvailableQuantity":75,"maxAllowedQuantity":100,"breadcrumbs":[{"code":"8","name":"Băcănie","slug":"8-ceva-sarat"},{"code":"804","name":"Ulei și oțet","slug":"804-ulei-si-otet"},{"code":"80404","name":"Oțet","slug":"80404-otet"},{"code":"100042062","name":"Oțet balsamic de Modena 500ml","slug":"100042062-de-nigris-otet-balsamic-de-modena-500ml"}],"activePromotion":null,"saveMe":null,"labels":[],"geniusPrice":null,"geniusUnitPricePerLabel":null,"banner":null,"discountLabel":null,"geniusDiscountLabel":null,"badge":null},{"code":"100150728","variantCode":"100150728","name":"Oțet din alcool etilic rafinat 9°, 1l","slug":"100150728-contec-otet-din-alcool-etilic-rafinat-9deg-1l","unitPriceLabel":"3,39 Lei/kg","brand":"Contec","brandCode":"3000","brandFilterCode":"contec-b3097","sku":"100150728","price":3.39,"originalPrice":null,"currencyCode":"RON","currency":"Lei","image":{"thumbnail":{"default":"https://cdn.freshful.ro/media/cache/sylius_shop_product_thumbnail/c5/36/4d844d9c347d77c2f15260d7e3b8.jpg"},"large":{"default":"https://cdn.freshful.ro/media/cache/freshful_large/c5/36/4d844d9c347d77c2f15260d7e3b8.jpg"},"extralarge":{"default":"https://cdn.freshful.ro/media/cache/sylius_shop_product_original/c5/36/4d844d9c347d77c2f15260d7e3b8.jpg"}},"label":{"text":"Primul preț","backgroundColor":"#3A0808","textColor":"#FFFFFF"},"tags":[],"isAvailable":true,"maxAvailableQuantity":100,"maxAllowedQuantity":100,"breadcrumbs":[{"code":"8","name":"Băcănie","slug":"8-ceva-sarat"},{"code":"804","name":"Ulei și oțet","slug":"804-ulei-si-otet"},{"code":"80404","name":"Oțet","slug":"80404-otet"},{"code":"100150728","name":"Oțet din alcool etilic rafinat 9°, 1l","slug":"100150728-contec-otet-din-alcool-etilic-rafinat-9deg-1l"}],"activePromotion":null,"saveMe":null,"labels":[{"type":"v4","items":[{"text":"Primul","backgroundColor":"#3A0808","textColor":"#FFFFFF"},{"text":"preț","backgroundColor":"#BC0606","textColor":"#FFFFFF"}]}],"geniusPrice":null,"geniusUnitPricePerLabel":null,"banner":null,"discountLabel":null,"geniusDiscountLabel":null,"badge":null},{"code":"100044029","variantCode":"100044029","name":"Oțet balsamic Modena 250ml","slug":"100044029-monini-otet-balsamic-modena-250ml","unitPriceLabel":"49,36 Lei/l","brand":"Monini","brandCode":"780","brandFilterCode":"monini-b781","sku":"100044029","price":12.34,"originalPrice":null,"currencyCode":"RON","currency":"Lei","image":{"thumbnail":{"default":"https://cdn.freshful.ro/media/cache/sylius_shop_product_thumbnail/54/16/a034d350ece22063782e5222e406.jpg"},"large":{"default":"https://cdn.freshful.ro/media/cache/freshful_large/54/16/a034d350ece22063782e5222e406.jpg"},"extralarge":{"default":"https://cdn.freshful.ro/media/cache/sylius_shop_product_original/54/16/a034d350ece22063782e5222e406.jpg"}},"label":null,"tags":[],"isAvailable":true,"maxAvailableQuantity":100,"maxAllowedQuantity":100,"breadcrumbs":[{"code":"8","name":"Băcănie","slug":"8-ceva-sarat"},{"code":"804","name":"Ulei și oțet","slug":"804-ulei-si-otet"},{"code":"80404","name":"Oțet","slug":"80404-otet"},{"code":"100044029","name":"Oțet balsamic Modena 250ml","slug":"100044029-monini-otet-balsamic-modena-250ml"}],"activePromotion":null,"saveMe":null,"labels":[],"geniusPrice":null,"geniusUnitPricePerLabel":null,"banner":null,"discountLabel":null,"geniusDiscountLabel":null,"badge":null},{"code":"100106588","variantCode":"5900084198905","name":"Oțet de mere 250ml","slug":"100106588-kamis-otet-de-mere-250ml","unitPriceLabel":"49,64 Lei/l","brand":"Kamis","brandCode":"510","brandFilterCode":"kamis-b511","sku":"100106588","price":12.41,"originalPrice":null,"currencyCode":"RON","currency":"Lei","image":{"thumbnail":{"default":"https://cdn.freshful.ro/media/cache/sylius_shop_product_thumbnail/7e/e3/6ffe7d119d68c3b0046ace95e2a3.jpg"},"large":{"default":"https://cdn.freshful.ro/media/cache/freshful_large/7e/e3/6ffe7d119d68c3b0046ace95e2a3.jpg"},"extralarge":{"default":"https://cdn.freshful.ro/media/cache/sylius_shop_product_original/7e/e3/6ffe7d119d68c3b0046ace95e2a3.jpg"}},"label":null,"tags":[],"isAvailable":true,"maxAvailableQuantity":45,"maxAllowedQuantity":100,"breadcrumbs":[{"code":"8","name":"Băcănie","slug":"8-ceva-sarat"},{"code":"804","name":"Ulei și oțet","slug":"804-ulei-si-otet"},{"code":"80404","name":"Oțet","slug":"80404-otet"},{"code":"100106588","name":"Oțet de mere 250ml","slug":"100106588-kamis-otet-de-mere-250ml"}],"activePromotion":null,"saveMe":null,"labels":[],"geniusPrice":null,"geniusUnitPricePerLabel":null,"banner":null,"discountLabel":null,"geniusDiscountLabel":null,"badge":null},{"code":"100042109","variantCode":"8004275059895","name":"Oțet din vin alb 500ml","slug":"100042109-cirio-otet-din-vin-alb-500ml","unitPriceLabel":"17,08 Lei/l","brand":"Cirio","brandCode":"642","brandFilterCode":"cirio-b643","sku":"100042109","price":8.54,"originalPrice":null,"currencyCode":"RON","currency":"Lei","image":{"thumbnail":{"default":"https://cdn.freshful.ro/media/cache/sylius_shop_product_thumbnail/9a/83/e6ebd4e47dd0bd8182eb5c9d5ce9.jpg"},"large":{"default":"https://cdn.freshful.ro/media/cache/freshful_large/9a/83/e6ebd4e47dd0bd8182eb5c9d5ce9.jpg"},"extralarge":{"default":"https://cdn.freshful.ro/media/cache/sylius_shop_product_original/9a/83/e6ebd4e47dd0bd8182eb5c9d5ce9.jpg"}},"label":null,"tags":[],"isAvailable":true,"maxAvailableQuantity":26,"maxAllowedQuantity":100,"breadcrumbs":[{"code":"8","name":"Băcănie","slug":"8-ceva-sarat"},{"code":"804","name":"Ulei și oțet","slug":"804-ulei-si-otet"},{"code":"80404","name":"Oțet","slug":"80404-otet"},{"code":"100042109","name":"Oțet din vin alb 500ml","slug":"100042109-cirio-otet-din-vin-alb-500ml"}],"activePromotion":null,"saveMe":null,"labels":[],"geniusPrice":null,"geniusUnitPricePerLabel":null,"banner":null,"discountLabel":null,"geniusDiscountLabel":null,"badge":null}],"filters":{"countSelected":0,"items":[{"code":"promotion","name":"Promoții","countSelected":0,"values":[{"code":"oferte-bacanie-bauturi-21feb-8mar23","name":"Cămara cu băuturi și bunătăți","isSelected":false,"count":1}]},{"code":"brand","name":"Brand","countSelected":0,"values":[{"code":"chatel-b2534","name":"Chatel","isSelected":false,"count":2},{"code":"cirio-b643","name":"Cirio","isSelected":false,"count":2},{"code":"colavita-b2929","name":"Colavita","isSelected":false,"count":1},{"code":"contec-b3097","name":"Contec","isSelected":false,"count":1},{"code":"de-nigris-b640","name":"De Nigris","isSelected":false,"count":3},{"code":"gallo-b990","name":"Gallo","isSelected":false,"count":1},{"code":"kamis-b511","name":"Kamis","isSelected":false,"count":2},{"code":"monini-b781","name":"Monini","isSelected":false,"count":2},{"code":"olympia-b244","name":"Olympia","isSelected":false,"count":1},{"code":"otet-b1464","name":"Oțet","isSelected":false,"count":3},{"code":"papadim-s-b2614","name":"Papadim's","isSelected":false,"count":4},{"code":"raureni-b773","name":"Râureni","isSelected":false,"count":1},{"code":"varvello-b2158","name":"Varvello","isSelected":false,"count":4}]},{"code":"diet_lifestyle","name":"Dietă și lifestyle","countSelected":0,"values":[{"code":"eco-a83","name":"Eco","isSelected":false,"count":1},{"code":"vegan-a24","name":"Vegan","isSelected":false,"count":2}]}]},"orderBy":[{"field":"price","direction":"asc","name":"Preț crescător","isSelected":false},{"field":"price","direction":"desc","name":"Preț descrescător","isSelected":false},{"field":"popularity","direction":"desc","name":"Cele mai populare","isSelected":true},{"field":"category","direction":"asc","name":"Categorie","isSelected":false}],"metaTitle":"Oțet - Gamă variată","metaDescription":"Vrei Oțet? Alege dintr-o gamă variată. Comanzi simplu și ai livrare rapidă, calitate și prospețime. Hai pe Freshful.ro","metaKeywords":null,"banners":[]}}