{"type":"subcategory","payload":{"analyticsListId":"category_80401-ulei-de-floarea-soarelui","analyticsListName":"Category - Ulei de floarea soarelui","name":"Ulei de floarea soarelui","slug":"80401-ulei-de-floarea-soarelui","image":null,"breadcrumbs":[{"code":"8","name":"Băcănie","slug":"8-ceva-sarat"},{"code":"804","name":"Ulei și oțet","slug":"804-ulei-si-otet"},{"code":"80401","name":"Ulei de floarea soarelui","slug":"80401-ulei-de-floarea-soarelui"}],"slots":[],"page":1,"limit":10,"pages":3,"count":24,"siblings":[{"name":"Paste, orez și legume uscate","slug":"801-paste-orez-si-legume-uscate","selected":false},{"name":"Conserve","slug":"802-conserve","selected":false},{"name":"Condimente și sosuri","slug":"803-condimente-si-sosuri","selected":false},{"name":"Ulei și oțet","slug":"804-ulei-si-otet","selected":true},{"name":"De ronțăit","slug":"805-aperitive-sarate","selected":false},{"name":"Făină, zahăr și produse gourmet","slug":"faina-zahar-si-produse-gourmet","selected":false}],"children":[{"name":"Toate produsele","slug":"804-ulei-si-otet","selected":false},{"name":"Ulei de floarea soarelui","slug":"80401-ulei-de-floarea-soarelui","selected":true},{"name":"Ulei de măsline","slug":"80402-ulei-de-masline","selected":false},{"name":"Alte tipuri de ulei","slug":"80403-alte-tipuri-de-ulei","selected":false},{"name":"Oțet","slug":"80404-otet","selected":false},{"name":"Suc de lămâie","slug":"80405-suc-de-lamaie","selected":false}],"products":[{"code":"100117634","variantCode":"100117634","name":"Ulei rafinat din floarea-soarelui 1l","slug":"100117634-surasul-soarelui-ulei-rafinat-din-floarea-soarelui-1l","unitPriceLabel":"7,99 Lei/l","brand":"Surâsul Soarelui","brandCode":"2006","brandFilterCode":"surasul-soarelui-b1997","sku":"100117634","price":7.99,"originalPrice":null,"currencyCode":"RON","currency":"Lei","image":{"thumbnail":{"default":"https://cdn.freshful.ro/media/cache/sylius_shop_product_thumbnail/92/ed/355238502c803b677cfefff9f63e.jpg"},"large":{"default":"https://cdn.freshful.ro/media/cache/freshful_large/92/ed/355238502c803b677cfefff9f63e.jpg"},"extralarge":{"default":"https://cdn.freshful.ro/media/cache/sylius_shop_product_original/92/ed/355238502c803b677cfefff9f63e.jpg"}},"label":{"text":"Profită acum","backgroundColor":"#FF9903","textColor":"#FFFFFF"},"tags":[],"isAvailable":true,"maxAvailableQuantity":6,"maxAllowedQuantity":6,"breadcrumbs":[{"code":"8","name":"Băcănie","slug":"8-ceva-sarat"},{"code":"804","name":"Ulei și oțet","slug":"804-ulei-si-otet"},{"code":"80401","name":"Ulei de floarea soarelui","slug":"80401-ulei-de-floarea-soarelui"},{"code":"100117634","name":"Ulei rafinat din floarea-soarelui 1l","slug":"100117634-surasul-soarelui-ulei-rafinat-din-floarea-soarelui-1l"}],"activePromotion":{"code":"oferte-bacanie-bauturi-21feb-8mar23","name":"Preț avantajos","targetQuantity":null},"saveMe":null,"labels":[{"type":"v1","items":[{"text":"Profită acum","backgroundColor":"#FF9903","textColor":"#FFFFFF"}]}],"geniusPrice":null,"geniusUnitPricePerLabel":null,"banner":{"text":"Preț avantajos","textColor":"#F95510","bgColor":"#FEF1CD","icon":null,"link":"https://www.freshful.ro/oferte/oferte-bacanie-bauturi-21feb-8mar23","type":"promo","analyticsEventType":"select_promotion","analyticsEventPayload":{"promotion_id":"oferte-bacanie-bauturi-21feb-8mar23","promotion_name":"Cămara cu băuturi și bunătăți"}},"discountLabel":null,"geniusDiscountLabel":null,"badge":null},{"code":"100141399","variantCode":"100141399","name":"Ulei de floarea soarelui untdelemn de la bunica, 1l","slug":"100141399-bunica-ulei-de-floarea-soarelui-untdelemn-de-la-bunica-1l","unitPriceLabel":"11,39 Lei/l","brand":"Bunica","brandCode":"262","brandFilterCode":"bunica-b263","sku":"100141399","price":11.39,"originalPrice":null,"currencyCode":"RON","currency":"Lei","image":{"thumbnail":{"default":"https://cdn.freshful.ro/media/cache/sylius_shop_product_thumbnail/64/49/9b51cb2d33b8f880038dd92352af.jpg"},"large":{"default":"https://cdn.freshful.ro/media/cache/freshful_large/64/49/9b51cb2d33b8f880038dd92352af.jpg"},"extralarge":{"default":"https://cdn.freshful.ro/media/cache/sylius_shop_product_original/64/49/9b51cb2d33b8f880038dd92352af.jpg"}},"label":null,"tags":[],"isAvailable":true,"maxAvailableQuantity":6,"maxAllowedQuantity":6,"breadcrumbs":[{"code":"8","name":"Băcănie","slug":"8-ceva-sarat"},{"code":"804","name":"Ulei și oțet","slug":"804-ulei-si-otet"},{"code":"80401","name":"Ulei de floarea soarelui","slug":"80401-ulei-de-floarea-soarelui"},{"code":"100141399","name":"Ulei de floarea soarelui untdelemn de la bunica, 1l","slug":"100141399-bunica-ulei-de-floarea-soarelui-untdelemn-de-la-bunica-1l"}],"activePromotion":null,"saveMe":null,"labels":[],"geniusPrice":null,"geniusUnitPricePerLabel":null,"banner":null,"discountLabel":null,"geniusDiscountLabel":null,"badge":null},{"code":"100151169","variantCode":"100151169","name":"Ulei rafinat de floarea-soarelui 1l","slug":"100151169-no-brand-ulei-rafinat-de-floarea-soarelui-1l","unitPriceLabel":"10,99 Lei/l","brand":"Delicia","brandCode":"3157","brandFilterCode":"delicia-b3251","sku":"100151169","price":10.99,"originalPrice":null,"currencyCode":"RON","currency":"Lei","image":{"thumbnail":{"default":"https://cdn.freshful.ro/media/cache/sylius_shop_product_thumbnail/c5/ea/83b0f6791080f43570a031340743.jpg"},"large":{"default":"https://cdn.freshful.ro/media/cache/freshful_large/c5/ea/83b0f6791080f43570a031340743.jpg"},"extralarge":{"default":"https://cdn.freshful.ro/media/cache/sylius_shop_product_original/c5/ea/83b0f6791080f43570a031340743.jpg"}},"label":null,"tags":[],"isAvailable":true,"maxAvailableQuantity":6,"maxAllowedQuantity":6,"breadcrumbs":[{"code":"8","name":"Băcănie","slug":"8-ceva-sarat"},{"code":"804","name":"Ulei și oțet","slug":"804-ulei-si-otet"},{"code":"80401","name":"Ulei de floarea soarelui","slug":"80401-ulei-de-floarea-soarelui"},{"code":"100151169","name":"Ulei rafinat de floarea-soarelui 1l","slug":"100151169-no-brand-ulei-rafinat-de-floarea-soarelui-1l"}],"activePromotion":null,"saveMe":null,"labels":[],"geniusPrice":null,"geniusUnitPricePerLabel":null,"banner":null,"discountLabel":null,"geniusDiscountLabel":null,"badge":null},{"code":"100063013","variantCode":"5948990130138","name":"Ulei rafinat de floarea-soarelui 1l","slug":"100063013-floriol-ulei-rafinat-de-floarea-soarelui-1l","unitPriceLabel":"12,15 Lei/l","brand":"Floriol","brandCode":"168","brandFilterCode":"floriol-b169","sku":"100063013","price":12.15,"originalPrice":null,"currencyCode":"RON","currency":"Lei","image":{"thumbnail":{"default":"https://cdn.freshful.ro/media/cache/sylius_shop_product_thumbnail/86/8f/704c85d701aaae0becf4f5623860.jpg"},"large":{"default":"https://cdn.freshful.ro/media/cache/freshful_large/86/8f/704c85d701aaae0becf4f5623860.jpg"},"extralarge":{"default":"https://cdn.freshful.ro/media/cache/sylius_shop_product_original/86/8f/704c85d701aaae0becf4f5623860.jpg"}},"label":null,"tags":[],"isAvailable":true,"maxAvailableQuantity":6,"maxAllowedQuantity":6,"breadcrumbs":[{"code":"8","name":"Băcănie","slug":"8-ceva-sarat"},{"code":"804","name":"Ulei și oțet","slug":"804-ulei-si-otet"},{"code":"80401","name":"Ulei de floarea soarelui","slug":"80401-ulei-de-floarea-soarelui"},{"code":"100063013","name":"Ulei rafinat de floarea-soarelui 1l","slug":"100063013-floriol-ulei-rafinat-de-floarea-soarelui-1l"}],"activePromotion":null,"saveMe":null,"labels":[],"geniusPrice":null,"geniusUnitPricePerLabel":null,"banner":null,"discountLabel":null,"geniusDiscountLabel":null,"badge":null},{"code":"100063018","variantCode":"5948990130237","name":"Ulei rafinat de floarea-soarelui de primă presă 1l","slug":"100063018-unisol-ulei-rafinat-de-floarea-soarelui-de-prima-presa-1l","unitPriceLabel":"11,99 Lei/l","brand":"Unisol","brandCode":"169","brandFilterCode":"unisol-b170","sku":"100063018","price":11.99,"originalPrice":null,"currencyCode":"RON","currency":"Lei","image":{"thumbnail":{"default":"https://cdn.freshful.ro/media/cache/sylius_shop_product_thumbnail/43/0e/49bdabef4944d8f2bbbfb3feee11.jpg"},"large":{"default":"https://cdn.freshful.ro/media/cache/freshful_large/43/0e/49bdabef4944d8f2bbbfb3feee11.jpg"},"extralarge":{"default":"https://cdn.freshful.ro/media/cache/sylius_shop_product_original/43/0e/49bdabef4944d8f2bbbfb3feee11.jpg"}},"label":null,"tags":[],"isAvailable":true,"maxAvailableQuantity":6,"maxAllowedQuantity":6,"breadcrumbs":[{"code":"8","name":"Băcănie","slug":"8-ceva-sarat"},{"code":"804","name":"Ulei și oțet","slug":"804-ulei-si-otet"},{"code":"80401","name":"Ulei de floarea soarelui","slug":"80401-ulei-de-floarea-soarelui"},{"code":"100063018","name":"Ulei rafinat de floarea-soarelui de primă presă 1l","slug":"100063018-unisol-ulei-rafinat-de-floarea-soarelui-de-prima-presa-1l"}],"activePromotion":null,"saveMe":null,"labels":[],"geniusPrice":null,"geniusUnitPricePerLabel":null,"banner":null,"discountLabel":null,"geniusDiscountLabel":null,"badge":null},{"code":"100141420","variantCode":"100141420","name":"Ulei rafinat de floarea-soarelui Untdelemn 1.8l","slug":"100141420-bunica-ulei-rafinat-de-floarea-soarelui-untdelemn-1-8l","unitPriceLabel":"12,5 Lei/l","brand":"Bunica","brandCode":"262","brandFilterCode":"bunica-b263","sku":"100141420","price":22.5,"originalPrice":null,"currencyCode":"RON","currency":"Lei","image":{"thumbnail":{"default":"https://cdn.freshful.ro/media/cache/sylius_shop_product_thumbnail/4e/1c/575c90e222aec32fa9ddc7ecd6ee.jpg"},"large":{"default":"https://cdn.freshful.ro/media/cache/freshful_large/4e/1c/575c90e222aec32fa9ddc7ecd6ee.jpg"},"extralarge":{"default":"https://cdn.freshful.ro/media/cache/sylius_shop_product_original/4e/1c/575c90e222aec32fa9ddc7ecd6ee.jpg"}},"label":null,"tags":[],"isAvailable":true,"maxAvailableQuantity":6,"maxAllowedQuantity":6,"breadcrumbs":[{"code":"8","name":"Băcănie","slug":"8-ceva-sarat"},{"code":"804","name":"Ulei și oțet","slug":"804-ulei-si-otet"},{"code":"80401","name":"Ulei de floarea soarelui","slug":"80401-ulei-de-floarea-soarelui"},{"code":"100141420","name":"Ulei rafinat de floarea-soarelui Untdelemn 1.8l","slug":"100141420-bunica-ulei-rafinat-de-floarea-soarelui-untdelemn-1-8l"}],"activePromotion":null,"saveMe":null,"labels":[],"geniusPrice":null,"geniusUnitPricePerLabel":null,"banner":null,"discountLabel":null,"geniusDiscountLabel":null,"badge":null},{"code":"100102958","variantCode":"100102958","name":"Ulei de floarea-soarelui 1l","slug":"100102958-spornic-ulei-de-floarea-soarelui-1l","unitPriceLabel":"10,49 Lei/l","brand":"Spornic","brandCode":"1695","brandFilterCode":"spornic-b1699","sku":"100102958","price":10.49,"originalPrice":null,"currencyCode":"RON","currency":"Lei","image":{"thumbnail":{"default":"https://cdn.freshful.ro/media/cache/sylius_shop_product_thumbnail/6b/1d/0d0c4242086dd2eba216381e113a.jpg"},"large":{"default":"https://cdn.freshful.ro/media/cache/freshful_large/6b/1d/0d0c4242086dd2eba216381e113a.jpg"},"extralarge":{"default":"https://cdn.freshful.ro/media/cache/sylius_shop_product_original/6b/1d/0d0c4242086dd2eba216381e113a.jpg"}},"label":null,"tags":[],"isAvailable":true,"maxAvailableQuantity":6,"maxAllowedQuantity":6,"breadcrumbs":[{"code":"8","name":"Băcănie","slug":"8-ceva-sarat"},{"code":"804","name":"Ulei și oțet","slug":"804-ulei-si-otet"},{"code":"80401","name":"Ulei de floarea soarelui","slug":"80401-ulei-de-floarea-soarelui"},{"code":"100102958","name":"Ulei de floarea-soarelui 1l","slug":"100102958-spornic-ulei-de-floarea-soarelui-1l"}],"activePromotion":null,"saveMe":null,"labels":[],"geniusPrice":null,"geniusUnitPricePerLabel":null,"banner":null,"discountLabel":null,"geniusDiscountLabel":null,"badge":null},{"code":"100148609","variantCode":"100148609","name":"Ulei de floarea soarelui 1l","slug":"100148609-harvest-land-ulei-de-floarea-soarelui-1l","unitPriceLabel":"8,99 Lei/l","brand":"Harvest Land","brandCode":"2926","brandFilterCode":"harvest-land-b3020","sku":"100148609","price":8.99,"originalPrice":null,"currencyCode":"RON","currency":"Lei","image":{"thumbnail":{"default":"https://cdn.freshful.ro/media/cache/sylius_shop_product_thumbnail/14/09/4e3e2637ea999579286cbddebdc1.jpg"},"large":{"default":"https://cdn.freshful.ro/media/cache/freshful_large/14/09/4e3e2637ea999579286cbddebdc1.jpg"},"extralarge":{"default":"https://cdn.freshful.ro/media/cache/sylius_shop_product_original/14/09/4e3e2637ea999579286cbddebdc1.jpg"}},"label":{"text":"Primul preț","backgroundColor":"#3A0808","textColor":"#FFFFFF"},"tags":[],"isAvailable":true,"maxAvailableQuantity":6,"maxAllowedQuantity":6,"breadcrumbs":[{"code":"8","name":"Băcănie","slug":"8-ceva-sarat"},{"code":"804","name":"Ulei și oțet","slug":"804-ulei-si-otet"},{"code":"80401","name":"Ulei de floarea soarelui","slug":"80401-ulei-de-floarea-soarelui"},{"code":"100148609","name":"Ulei de floarea soarelui 1l","slug":"100148609-harvest-land-ulei-de-floarea-soarelui-1l"}],"activePromotion":null,"saveMe":null,"labels":[{"type":"v4","items":[{"text":"Primul","backgroundColor":"#3A0808","textColor":"#FFFFFF"},{"text":"preț","backgroundColor":"#BC0606","textColor":"#FFFFFF"}]}],"geniusPrice":null,"geniusUnitPricePerLabel":null,"banner":null,"discountLabel":null,"geniusDiscountLabel":null,"badge":null},{"code":"100063014","variantCode":"5948990130602","name":"Ulei rafinat de floarea-soarelui 2l","slug":"100063014-floriol-ulei-rafinat-de-floarea-soarelui-2l","unitPriceLabel":"13,45 Lei/l","brand":"Floriol","brandCode":"168","brandFilterCode":"floriol-b169","sku":"100063014","price":26.9,"originalPrice":null,"currencyCode":"RON","currency":"Lei","image":{"thumbnail":{"default":"https://cdn.freshful.ro/media/cache/sylius_shop_product_thumbnail/ff/65/c1e0b5377fc53393269fe453b5d8.jpg"},"large":{"default":"https://cdn.freshful.ro/media/cache/freshful_large/ff/65/c1e0b5377fc53393269fe453b5d8.jpg"},"extralarge":{"default":"https://cdn.freshful.ro/media/cache/sylius_shop_product_original/ff/65/c1e0b5377fc53393269fe453b5d8.jpg"}},"label":null,"tags":[],"isAvailable":true,"maxAvailableQuantity":6,"maxAllowedQuantity":6,"breadcrumbs":[{"code":"8","name":"Băcănie","slug":"8-ceva-sarat"},{"code":"804","name":"Ulei și oțet","slug":"804-ulei-si-otet"},{"code":"80401","name":"Ulei de floarea soarelui","slug":"80401-ulei-de-floarea-soarelui"},{"code":"100063014","name":"Ulei rafinat de floarea-soarelui 2l","slug":"100063014-floriol-ulei-rafinat-de-floarea-soarelui-2l"}],"activePromotion":null,"saveMe":null,"labels":[],"geniusPrice":null,"geniusUnitPricePerLabel":null,"banner":null,"discountLabel":null,"geniusDiscountLabel":null,"badge":null},{"code":"100142745","variantCode":"100142745","name":"Ulei de floarea soarelui 1l","slug":"100142745-no-brand-ulei-de-floarea-soarelui-1l","unitPriceLabel":"8,99 Lei/l","brand":"SOLAND","brandCode":"2747","brandFilterCode":"soland-b2753","sku":"100142745","price":8.99,"originalPrice":null,"currencyCode":"RON","currency":"Lei","image":{"thumbnail":{"default":"https://cdn.freshful.ro/media/cache/sylius_shop_product_thumbnail/17/f5/a1d04713df06e62d043f16ecfb33.jpg"},"large":{"default":"https://cdn.freshful.ro/media/cache/freshful_large/17/f5/a1d04713df06e62d043f16ecfb33.jpg"},"extralarge":{"default":"https://cdn.freshful.ro/media/cache/sylius_shop_product_original/17/f5/a1d04713df06e62d043f16ecfb33.jpg"}},"label":null,"tags":[],"isAvailable":true,"maxAvailableQuantity":6,"maxAllowedQuantity":6,"breadcrumbs":[{"code":"8","name":"Băcănie","slug":"8-ceva-sarat"},{"code":"804","name":"Ulei și oțet","slug":"804-ulei-si-otet"},{"code":"80401","name":"Ulei de floarea soarelui","slug":"80401-ulei-de-floarea-soarelui"},{"code":"100142745","name":"Ulei de floarea soarelui 1l","slug":"100142745-no-brand-ulei-de-floarea-soarelui-1l"}],"activePromotion":null,"saveMe":null,"labels":[],"geniusPrice":null,"geniusUnitPricePerLabel":null,"banner":null,"discountLabel":null,"geniusDiscountLabel":null,"badge":null}],"filters":{"countSelected":0,"items":[{"code":"promotion","name":"Promoții","countSelected":0,"values":[{"code":"oferte-bacanie-bauturi-21feb-8mar23","name":"Cămara cu băuturi și bunătăți","isSelected":false,"count":1}]},{"code":"brand","name":"Brand","countSelected":0,"values":[{"code":"argus-b2713","name":"Argus","isSelected":false,"count":2},{"code":"bunica-b263","name":"Bunica","isSelected":false,"count":3},{"code":"delicia-b3251","name":"Delicia","isSelected":false,"count":1},{"code":"floriol-b169","name":"Floriol","isSelected":false,"count":3},{"code":"harvest-land-b3020","name":"Harvest Land","isSelected":false,"count":1},{"code":"luna-s-premium-truffles-b1876","name":"Luna'S Premium Truffles","isSelected":false,"count":1},{"code":"soland-b2753","name":"SOLAND","isSelected":false,"count":1},{"code":"sora-soarelui-b2714","name":"Sora Soarelui","isSelected":false,"count":1},{"code":"spornic-b1699","name":"Spornic","isSelected":false,"count":3},{"code":"surasul-soarelui-b1997","name":"Surâsul Soarelui","isSelected":false,"count":1},{"code":"unisol-b170","name":"Unisol","isSelected":false,"count":4},{"code":"valahia-b3021","name":"Valahia","isSelected":false,"count":3}]},{"code":"diet_lifestyle","name":"Dietă și lifestyle","countSelected":0,"values":[{"code":"made-in-romania-a85","name":"Made In Romania","isSelected":false,"count":3},{"code":"natural-a27","name":"Natural","isSelected":false,"count":1},{"code":"vegetarian-a28","name":"Vegetarian","isSelected":false,"count":1}]}]},"orderBy":[{"field":"price","direction":"asc","name":"Preț crescător","isSelected":false},{"field":"price","direction":"desc","name":"Preț descrescător","isSelected":false},{"field":"popularity","direction":"desc","name":"Cele mai populare","isSelected":true},{"field":"category","direction":"asc","name":"Categorie","isSelected":false}],"metaTitle":"Ulei de floarea soarelui - Gamă variată","metaDescription":"Vrei Ulei de floarea soarelui? Alege dintr-o gamă variată. Comanzi simplu și ai livrare rapidă, calitate și prospețime. Hai pe Freshful.ro","metaKeywords":null,"banners":[]}}