{"type":"subcategory","payload":{"analyticsListId":"category_80402-ulei-de-masline","analyticsListName":"Category - Ulei de măsline","name":"Ulei de măsline","slug":"80402-ulei-de-masline","image":null,"breadcrumbs":[{"code":"8","name":"Băcănie","slug":"8-ceva-sarat"},{"code":"804","name":"Ulei și oțet","slug":"804-ulei-si-otet"},{"code":"80402","name":"Ulei de măsline","slug":"80402-ulei-de-masline"}],"slots":[],"page":1,"limit":10,"pages":4,"count":39,"siblings":[{"name":"Paste, orez și legume uscate","slug":"801-paste-orez-si-legume-uscate","selected":false},{"name":"Conserve","slug":"802-conserve","selected":false},{"name":"Condimente și sosuri","slug":"803-condimente-si-sosuri","selected":false},{"name":"Ulei și oțet","slug":"804-ulei-si-otet","selected":true},{"name":"De ronțăit","slug":"805-aperitive-sarate","selected":false},{"name":"Făină, zahăr și produse gourmet","slug":"faina-zahar-si-produse-gourmet","selected":false}],"children":[{"name":"Toate produsele","slug":"804-ulei-si-otet","selected":false},{"name":"Ulei de floarea soarelui","slug":"80401-ulei-de-floarea-soarelui","selected":false},{"name":"Ulei de măsline","slug":"80402-ulei-de-masline","selected":true},{"name":"Alte tipuri de ulei","slug":"80403-alte-tipuri-de-ulei","selected":false},{"name":"Oțet","slug":"80404-otet","selected":false},{"name":"Suc de lămâie","slug":"80405-suc-de-lamaie","selected":false}],"products":[{"code":"100075541","variantCode":"5214000101024","name":"Ulei de măsline extravirgin 750ml","slug":"100075541-kidonakis-ulei-de-masline-extravirgin-750ml","unitPriceLabel":"59,99 Lei/l","brand":"Kidonakis","brandCode":"968","brandFilterCode":"kidonakis-b982","sku":"100075541","price":44.99,"originalPrice":null,"currencyCode":"RON","currency":"Lei","image":{"thumbnail":{"default":"https://cdn.freshful.ro/media/cache/sylius_shop_product_thumbnail/21/b3/11861022f407e61f77a9f26a3c98.jpg"},"large":{"default":"https://cdn.freshful.ro/media/cache/freshful_large/21/b3/11861022f407e61f77a9f26a3c98.jpg"},"extralarge":{"default":"https://cdn.freshful.ro/media/cache/sylius_shop_product_original/21/b3/11861022f407e61f77a9f26a3c98.jpg"}},"label":{"text":"Profită acum","backgroundColor":"#FF9903","textColor":"#FFFFFF"},"tags":[],"isAvailable":true,"maxAvailableQuantity":6,"maxAllowedQuantity":6,"breadcrumbs":[{"code":"8","name":"Băcănie","slug":"8-ceva-sarat"},{"code":"804","name":"Ulei și oțet","slug":"804-ulei-si-otet"},{"code":"80402","name":"Ulei de măsline","slug":"80402-ulei-de-masline"},{"code":"100075541","name":"Ulei de măsline extravirgin 750ml","slug":"100075541-kidonakis-ulei-de-masline-extravirgin-750ml"}],"activePromotion":{"code":"oferte-bacanie-bauturi-21feb-8mar23","name":"Preț avantajos","targetQuantity":null},"saveMe":null,"labels":[{"type":"v1","items":[{"text":"Profită acum","backgroundColor":"#FF9903","textColor":"#FFFFFF"}]}],"geniusPrice":null,"geniusUnitPricePerLabel":null,"banner":{"text":"Preț avantajos","textColor":"#F95510","bgColor":"#FEF1CD","icon":null,"link":"https://www.freshful.ro/oferte/oferte-bacanie-bauturi-21feb-8mar23","type":"promo","analyticsEventType":"select_promotion","analyticsEventPayload":{"promotion_id":"oferte-bacanie-bauturi-21feb-8mar23","promotion_name":"Cămara cu băuturi și bunătăți"}},"discountLabel":null,"geniusDiscountLabel":null,"badge":null},{"code":"100097216","variantCode":"8007270000039","name":"Ulei de măsline extravirgin 500ml","slug":"100097216-costa-d-oro-ulei-de-masline-extravirgin-500ml","unitPriceLabel":"59,06 Lei/kg","brand":"Costa D'Oro","brandCode":"1620","brandFilterCode":"costa-d-oro-b1624","sku":"100097216","price":26.99,"originalPrice":null,"currencyCode":"RON","currency":"Lei","image":{"thumbnail":{"default":"https://cdn.freshful.ro/media/cache/sylius_shop_product_thumbnail/35/01/299526238809338f80626599a365.jpg"},"large":{"default":"https://cdn.freshful.ro/media/cache/freshful_large/35/01/299526238809338f80626599a365.jpg"},"extralarge":{"default":"https://cdn.freshful.ro/media/cache/sylius_shop_product_original/35/01/299526238809338f80626599a365.jpg"}},"label":null,"tags":[],"isAvailable":true,"maxAvailableQuantity":6,"maxAllowedQuantity":6,"breadcrumbs":[{"code":"8","name":"Băcănie","slug":"8-ceva-sarat"},{"code":"804","name":"Ulei și oțet","slug":"804-ulei-si-otet"},{"code":"80402","name":"Ulei de măsline","slug":"80402-ulei-de-masline"},{"code":"100097216","name":"Ulei de măsline extravirgin 500ml","slug":"100097216-costa-d-oro-ulei-de-masline-extravirgin-500ml"}],"activePromotion":null,"saveMe":null,"labels":[],"geniusPrice":null,"geniusUnitPricePerLabel":null,"banner":null,"discountLabel":null,"geniusDiscountLabel":null,"badge":null},{"code":"100150734","variantCode":"100150734","name":"Ulei de măsline 1l","slug":"100150734-no-brand-ulei-de-masline-1l","unitPriceLabel":"23,5 Lei/l","brand":"ANTICO FRANTOIO","brandCode":"2999","brandFilterCode":"antico-frantoio-b3096","sku":"100150734","price":23.5,"originalPrice":null,"currencyCode":"RON","currency":"Lei","image":{"thumbnail":{"default":"https://cdn.freshful.ro/media/cache/sylius_shop_product_thumbnail/64/db/ee77637841554c6b920415983ee0.jpg"},"large":{"default":"https://cdn.freshful.ro/media/cache/freshful_large/64/db/ee77637841554c6b920415983ee0.jpg"},"extralarge":{"default":"https://cdn.freshful.ro/media/cache/sylius_shop_product_original/64/db/ee77637841554c6b920415983ee0.jpg"}},"label":{"text":"Primul preț","backgroundColor":"#3A0808","textColor":"#FFFFFF"},"tags":[],"isAvailable":true,"maxAvailableQuantity":6,"maxAllowedQuantity":6,"breadcrumbs":[{"code":"8","name":"Băcănie","slug":"8-ceva-sarat"},{"code":"804","name":"Ulei și oțet","slug":"804-ulei-si-otet"},{"code":"80402","name":"Ulei de măsline","slug":"80402-ulei-de-masline"},{"code":"100150734","name":"Ulei de măsline 1l","slug":"100150734-no-brand-ulei-de-masline-1l"}],"activePromotion":null,"saveMe":null,"labels":[{"type":"v4","items":[{"text":"Primul","backgroundColor":"#3A0808","textColor":"#FFFFFF"},{"text":"preț","backgroundColor":"#BC0606","textColor":"#FFFFFF"}]}],"geniusPrice":null,"geniusUnitPricePerLabel":null,"banner":null,"discountLabel":null,"geniusDiscountLabel":null,"badge":null},{"code":"100042203","variantCode":"100042203","name":"Ulei de măsline extravirgin 500ml","slug":"100042203-monastiri-ulei-de-masline-extravirgin-500ml","unitPriceLabel":"54,14 Lei/l","brand":"Monastiri","brandCode":"650","brandFilterCode":"monastiri-b651","sku":"100042203","price":27.07,"originalPrice":null,"currencyCode":"RON","currency":"Lei","image":{"thumbnail":{"default":"https://cdn.freshful.ro/media/cache/sylius_shop_product_thumbnail/97/64/1540022b5e96b3810fb1c30afc5c.jpg"},"large":{"default":"https://cdn.freshful.ro/media/cache/freshful_large/97/64/1540022b5e96b3810fb1c30afc5c.jpg"},"extralarge":{"default":"https://cdn.freshful.ro/media/cache/sylius_shop_product_original/97/64/1540022b5e96b3810fb1c30afc5c.jpg"}},"label":null,"tags":[],"isAvailable":true,"maxAvailableQuantity":6,"maxAllowedQuantity":6,"breadcrumbs":[{"code":"8","name":"Băcănie","slug":"8-ceva-sarat"},{"code":"804","name":"Ulei și oțet","slug":"804-ulei-si-otet"},{"code":"80402","name":"Ulei de măsline","slug":"80402-ulei-de-masline"},{"code":"100042203","name":"Ulei de măsline extravirgin 500ml","slug":"100042203-monastiri-ulei-de-masline-extravirgin-500ml"}],"activePromotion":null,"saveMe":null,"labels":[],"geniusPrice":null,"geniusUnitPricePerLabel":null,"banner":null,"discountLabel":null,"geniusDiscountLabel":null,"badge":null},{"code":"100097215","variantCode":"8007270110158","name":"Ulei de măsline extravirgin 1l","slug":"100097215-costa-d-oro-ulei-de-masline-extravirgin-1l","unitPriceLabel":"52,02 Lei/kg","brand":"Costa D'Oro","brandCode":"1620","brandFilterCode":"costa-d-oro-b1624","sku":"100097215","price":47.49,"originalPrice":null,"currencyCode":"RON","currency":"Lei","image":{"thumbnail":{"default":"https://cdn.freshful.ro/media/cache/sylius_shop_product_thumbnail/43/fe/2b7fb46facf69bf9de46a323b7cc.jpg"},"large":{"default":"https://cdn.freshful.ro/media/cache/freshful_large/43/fe/2b7fb46facf69bf9de46a323b7cc.jpg"},"extralarge":{"default":"https://cdn.freshful.ro/media/cache/sylius_shop_product_original/43/fe/2b7fb46facf69bf9de46a323b7cc.jpg"}},"label":null,"tags":[],"isAvailable":true,"maxAvailableQuantity":6,"maxAllowedQuantity":6,"breadcrumbs":[{"code":"8","name":"Băcănie","slug":"8-ceva-sarat"},{"code":"804","name":"Ulei și oțet","slug":"804-ulei-si-otet"},{"code":"80402","name":"Ulei de măsline","slug":"80402-ulei-de-masline"},{"code":"100097215","name":"Ulei de măsline extravirgin 1l","slug":"100097215-costa-d-oro-ulei-de-masline-extravirgin-1l"}],"activePromotion":null,"saveMe":null,"labels":[],"geniusPrice":null,"geniusUnitPricePerLabel":null,"banner":null,"discountLabel":null,"geniusDiscountLabel":null,"badge":null},{"code":"100042106","variantCode":"8004275052186","name":"Ulei de măsline extravirgin spray 200ml","slug":"100042106-pietro-coricelli-ulei-de-masline-extravirgin-spray-200ml","unitPriceLabel":"149,95 Lei/l","brand":"Pietro Coricelli","brandCode":"641","brandFilterCode":"pietro-coricelli-b642","sku":"100042106","price":29.99,"originalPrice":null,"currencyCode":"RON","currency":"Lei","image":{"thumbnail":{"default":"https://cdn.freshful.ro/media/cache/sylius_shop_product_thumbnail/c6/33/63c05c967d191761d7199b6e6ff6.jpg"},"large":{"default":"https://cdn.freshful.ro/media/cache/freshful_large/c6/33/63c05c967d191761d7199b6e6ff6.jpg"},"extralarge":{"default":"https://cdn.freshful.ro/media/cache/sylius_shop_product_original/c6/33/63c05c967d191761d7199b6e6ff6.jpg"}},"label":null,"tags":[],"isAvailable":true,"maxAvailableQuantity":6,"maxAllowedQuantity":6,"breadcrumbs":[{"code":"8","name":"Băcănie","slug":"8-ceva-sarat"},{"code":"804","name":"Ulei și oțet","slug":"804-ulei-si-otet"},{"code":"80402","name":"Ulei de măsline","slug":"80402-ulei-de-masline"},{"code":"100042106","name":"Ulei de măsline extravirgin spray 200ml","slug":"100042106-pietro-coricelli-ulei-de-masline-extravirgin-spray-200ml"}],"activePromotion":null,"saveMe":null,"labels":[],"geniusPrice":null,"geniusUnitPricePerLabel":null,"banner":null,"discountLabel":null,"geniusDiscountLabel":null,"badge":null},{"code":"100042165","variantCode":"100042165","name":"Ulei de măsline extravirgin 1l","slug":"100042165-monastiri-ulei-de-masline-extravirgin-1l","unitPriceLabel":"47,49 Lei/l","brand":"Monastiri","brandCode":"650","brandFilterCode":"monastiri-b651","sku":"100042165","price":47.49,"originalPrice":null,"currencyCode":"RON","currency":"Lei","image":{"thumbnail":{"default":"https://cdn.freshful.ro/media/cache/sylius_shop_product_thumbnail/2a/94/2b076a0e8807cf5491b5412fb69b.jpg"},"large":{"default":"https://cdn.freshful.ro/media/cache/freshful_large/2a/94/2b076a0e8807cf5491b5412fb69b.jpg"},"extralarge":{"default":"https://cdn.freshful.ro/media/cache/sylius_shop_product_original/2a/94/2b076a0e8807cf5491b5412fb69b.jpg"}},"label":null,"tags":[],"isAvailable":true,"maxAvailableQuantity":6,"maxAllowedQuantity":6,"breadcrumbs":[{"code":"8","name":"Băcănie","slug":"8-ceva-sarat"},{"code":"804","name":"Ulei și oțet","slug":"804-ulei-si-otet"},{"code":"80402","name":"Ulei de măsline","slug":"80402-ulei-de-masline"},{"code":"100042165","name":"Ulei de măsline extravirgin 1l","slug":"100042165-monastiri-ulei-de-masline-extravirgin-1l"}],"activePromotion":null,"saveMe":null,"labels":[],"geniusPrice":null,"geniusUnitPricePerLabel":null,"banner":null,"discountLabel":null,"geniusDiscountLabel":null,"badge":null},{"code":"100044021","variantCode":"100044021","name":"Ulei de măsline extra virgin Classico 1l","slug":"100044021-monini-ulei-de-masline-extra-virgin-classico-1l","unitPriceLabel":"40,5 Lei/l","brand":"Monini","brandCode":"780","brandFilterCode":"monini-b781","sku":"100044021","price":40.5,"originalPrice":null,"currencyCode":"RON","currency":"Lei","image":{"thumbnail":{"default":"https://cdn.freshful.ro/media/cache/sylius_shop_product_thumbnail/c7/57/eab2f74295797273a6f75e417c2a.jpg"},"large":{"default":"https://cdn.freshful.ro/media/cache/freshful_large/c7/57/eab2f74295797273a6f75e417c2a.jpg"},"extralarge":{"default":"https://cdn.freshful.ro/media/cache/sylius_shop_product_original/c7/57/eab2f74295797273a6f75e417c2a.jpg"}},"label":null,"tags":[],"isAvailable":true,"maxAvailableQuantity":6,"maxAllowedQuantity":6,"breadcrumbs":[{"code":"8","name":"Băcănie","slug":"8-ceva-sarat"},{"code":"804","name":"Ulei și oțet","slug":"804-ulei-si-otet"},{"code":"80402","name":"Ulei de măsline","slug":"80402-ulei-de-masline"},{"code":"100044021","name":"Ulei de măsline extra virgin Classico 1l","slug":"100044021-monini-ulei-de-masline-extra-virgin-classico-1l"}],"activePromotion":null,"saveMe":null,"labels":[],"geniusPrice":null,"geniusUnitPricePerLabel":null,"banner":null,"discountLabel":null,"geniusDiscountLabel":null,"badge":null},{"code":"100044018","variantCode":"100044018","name":"Ulei de măsline extra virgin Classico 500ml","slug":"100044018-monini-ulei-de-masline-extra-virgin-classico-500ml","unitPriceLabel":"47,8 Lei/l","brand":"Monini","brandCode":"780","brandFilterCode":"monini-b781","sku":"100044018","price":23.9,"originalPrice":null,"currencyCode":"RON","currency":"Lei","image":{"thumbnail":{"default":"https://cdn.freshful.ro/media/cache/sylius_shop_product_thumbnail/58/32/3eeac1b90d7021300bc637044c2c.jpg"},"large":{"default":"https://cdn.freshful.ro/media/cache/freshful_large/58/32/3eeac1b90d7021300bc637044c2c.jpg"},"extralarge":{"default":"https://cdn.freshful.ro/media/cache/sylius_shop_product_original/58/32/3eeac1b90d7021300bc637044c2c.jpg"}},"label":null,"tags":[],"isAvailable":true,"maxAvailableQuantity":6,"maxAllowedQuantity":6,"breadcrumbs":[{"code":"8","name":"Băcănie","slug":"8-ceva-sarat"},{"code":"804","name":"Ulei și oțet","slug":"804-ulei-si-otet"},{"code":"80402","name":"Ulei de măsline","slug":"80402-ulei-de-masline"},{"code":"100044018","name":"Ulei de măsline extra virgin Classico 500ml","slug":"100044018-monini-ulei-de-masline-extra-virgin-classico-500ml"}],"activePromotion":null,"saveMe":null,"labels":[],"geniusPrice":null,"geniusUnitPricePerLabel":null,"banner":null,"discountLabel":null,"geniusDiscountLabel":null,"badge":null},{"code":"100042102","variantCode":"8004275001115","name":"Ulei de măsline extravirgin 1l","slug":"100042102-pietro-coricelli-ulei-de-masline-extravirgin-1l","unitPriceLabel":"56,99 Lei/l","brand":"Pietro Coricelli","brandCode":"641","brandFilterCode":"pietro-coricelli-b642","sku":"100042102","price":56.99,"originalPrice":null,"currencyCode":"RON","currency":"Lei","image":{"thumbnail":{"default":"https://cdn.freshful.ro/media/cache/sylius_shop_product_thumbnail/90/fb/f4c879f6f8f5578e7e186604e1ae.jpg"},"large":{"default":"https://cdn.freshful.ro/media/cache/freshful_large/90/fb/f4c879f6f8f5578e7e186604e1ae.jpg"},"extralarge":{"default":"https://cdn.freshful.ro/media/cache/sylius_shop_product_original/90/fb/f4c879f6f8f5578e7e186604e1ae.jpg"}},"label":null,"tags":[],"isAvailable":true,"maxAvailableQuantity":6,"maxAllowedQuantity":6,"breadcrumbs":[{"code":"8","name":"Băcănie","slug":"8-ceva-sarat"},{"code":"804","name":"Ulei și oțet","slug":"804-ulei-si-otet"},{"code":"80402","name":"Ulei de măsline","slug":"80402-ulei-de-masline"},{"code":"100042102","name":"Ulei de măsline extravirgin 1l","slug":"100042102-pietro-coricelli-ulei-de-masline-extravirgin-1l"}],"activePromotion":null,"saveMe":null,"labels":[],"geniusPrice":null,"geniusUnitPricePerLabel":null,"banner":null,"discountLabel":null,"geniusDiscountLabel":null,"badge":null}],"filters":{"countSelected":0,"items":[{"code":"promotion","name":"Promoții","countSelected":0,"values":[{"code":"oferte-bacanie-bauturi-21feb-8mar23","name":"Cămara cu băuturi și bunătăți","isSelected":false,"count":1}]},{"code":"brand","name":"Brand","countSelected":0,"values":[{"code":"antico-frantoio-b3096","name":"ANTICO FRANTOIO","isSelected":false,"count":1},{"code":"colavita-b2929","name":"Colavita","isSelected":false,"count":1},{"code":"costa-d-oro-b1624","name":"Costa D'Oro","isSelected":false,"count":2},{"code":"gallo-b990","name":"Gallo","isSelected":false,"count":1},{"code":"il-grezzo-b1629","name":"Il Grezzo","isSelected":false,"count":1},{"code":"kidonakis-b982","name":"Kidonakis","isSelected":false,"count":3},{"code":"luna-s-premium-truffles-b1876","name":"Luna'S Premium Truffles","isSelected":false,"count":3},{"code":"lyrakis-family-b2615","name":"Lyrakis Family","isSelected":false,"count":4},{"code":"mantova-b2295","name":"Mantova","isSelected":false,"count":3},{"code":"mazza-b645","name":"Mazza","isSelected":false,"count":1},{"code":"monastiri-b651","name":"Monastiri","isSelected":false,"count":2},{"code":"monini-b781","name":"Monini","isSelected":false,"count":9},{"code":"olitalia-b199","name":"Olitalia","isSelected":false,"count":3},{"code":"pietro-coricelli-b642","name":"Pietro Coricelli","isSelected":false,"count":5}]},{"code":"diet_lifestyle","name":"Dietă și lifestyle","countSelected":0,"values":[{"code":"eco-a83","name":"Eco","isSelected":false,"count":1},{"code":"fara-gluten-a16","name":"Fara gluten","isSelected":false,"count":1},{"code":"made-in-romania-a85","name":"Made In Romania","isSelected":false,"count":2},{"code":"vegetarian-a28","name":"Vegetarian","isSelected":false,"count":3}]}]},"orderBy":[{"field":"price","direction":"asc","name":"Preț crescător","isSelected":false},{"field":"price","direction":"desc","name":"Preț descrescător","isSelected":false},{"field":"popularity","direction":"desc","name":"Cele mai populare","isSelected":true},{"field":"category","direction":"asc","name":"Categorie","isSelected":false}],"metaTitle":"Ulei de măsline - Gamă variată","metaDescription":"Vrei Ulei de măsline? Alege dintr-o gamă variată. Comanzi simplu și ai livrare rapidă, calitate și prospețime. Hai pe Freshful.ro","metaKeywords":null,"banners":[]}}