{"type":"subcategory","payload":{"analyticsListId":"category_805-aperitive-sarate","analyticsListName":"Category - De ronțăit","name":"De ronțăit","slug":"805-aperitive-sarate","image":null,"breadcrumbs":[{"code":"8","name":"Băcănie","slug":"8-ceva-sarat"},{"code":"805","name":"De ronțăit","slug":"805-aperitive-sarate"}],"slots":[],"page":1,"limit":10,"pages":46,"count":459,"siblings":[{"name":"Paste, orez și legume uscate","slug":"801-paste-orez-si-legume-uscate","selected":false},{"name":"Conserve","slug":"802-conserve","selected":false},{"name":"Condimente și sosuri","slug":"803-condimente-si-sosuri","selected":false},{"name":"Ulei și oțet","slug":"804-ulei-si-otet","selected":false},{"name":"De ronțăit","slug":"805-aperitive-sarate","selected":true},{"name":"Făină, zahăr și produse gourmet","slug":"faina-zahar-si-produse-gourmet","selected":false}],"children":[{"name":"Toate produsele","slug":"805-aperitive-sarate","selected":true},{"name":"Chipsuri","slug":"80501-chipsuri","selected":false},{"name":"Snacks și popcorn","slug":"80502-snacks-si-popcorn","selected":false},{"name":"Semințe, alune și mixuri","slug":"80503-seminte-alune-si-fructe-uscate","selected":false}],"products":[{"code":"100139036","variantCode":"100139036","name":"Chipsuri cu linte și paprika 65g","slug":"100139036-chio-chipsuri-cu-linte-si-paprika-65g","unitPriceLabel":"79,86 Lei/kg","brand":"Chio","brandCode":"238","brandFilterCode":"chio-b239","sku":"100139036","price":5.59,"originalPrice":null,"currencyCode":"RON","currency":"Lei","image":{"thumbnail":{"default":"https://cdn.freshful.ro/media/cache/sylius_shop_product_thumbnail/99/49/7a46a9593e541da64cdc9e7e8c2b.jpg"},"large":{"default":"https://cdn.freshful.ro/media/cache/freshful_large/99/49/7a46a9593e541da64cdc9e7e8c2b.jpg"},"extralarge":{"default":"https://cdn.freshful.ro/media/cache/sylius_shop_product_original/99/49/7a46a9593e541da64cdc9e7e8c2b.jpg"}},"label":{"text":"Profită acum","backgroundColor":"#FF9903","textColor":"#FFFFFF"},"tags":[],"isAvailable":true,"maxAvailableQuantity":6,"maxAllowedQuantity":6,"breadcrumbs":[{"code":"8","name":"Băcănie","slug":"8-ceva-sarat"},{"code":"805","name":"De ronțăit","slug":"805-aperitive-sarate"},{"code":"80501","name":"Chipsuri","slug":"80501-chipsuri"},{"code":"100139036","name":"Chipsuri cu linte și paprika 65g","slug":"100139036-chio-chipsuri-cu-linte-si-paprika-65g"}],"activePromotion":{"code":"targ-bere-snacks-mar23","name":"Preț avantajos","targetQuantity":null},"saveMe":null,"labels":[{"type":"v1","items":[{"text":"Profită acum","backgroundColor":"#FF9903","textColor":"#FFFFFF"}]}],"geniusPrice":null,"geniusUnitPricePerLabel":null,"banner":{"text":"Preț avantajos","textColor":"#F95510","bgColor":"#FEF1CD","icon":null,"link":"https://www.freshful.ro/oferte/targ-bere-snacks-mar23","type":"promo","analyticsEventType":"select_promotion","analyticsEventPayload":{"promotion_id":"targ-bere-snacks-mar23","promotion_name":"Bere și snackuri pentru toate gusturile"}},"discountLabel":null,"geniusDiscountLabel":null,"badge":null},{"code":"100139037","variantCode":"100139037","name":"Chipsuri cu linte, smântână și ceapă 65g","slug":"100139037-chio-chipsuri-cu-linte-smantana-si-ceapa-65g","unitPriceLabel":"79,86 Lei/kg","brand":"Chio","brandCode":"238","brandFilterCode":"chio-b239","sku":"100139037","price":5.59,"originalPrice":null,"currencyCode":"RON","currency":"Lei","image":{"thumbnail":{"default":"https://cdn.freshful.ro/media/cache/sylius_shop_product_thumbnail/64/08/835595898de3b4f79c736d8dc8c8.jpg"},"large":{"default":"https://cdn.freshful.ro/media/cache/freshful_large/64/08/835595898de3b4f79c736d8dc8c8.jpg"},"extralarge":{"default":"https://cdn.freshful.ro/media/cache/sylius_shop_product_original/64/08/835595898de3b4f79c736d8dc8c8.jpg"}},"label":{"text":"Profită acum","backgroundColor":"#FF9903","textColor":"#FFFFFF"},"tags":[],"isAvailable":true,"maxAvailableQuantity":6,"maxAllowedQuantity":6,"breadcrumbs":[{"code":"8","name":"Băcănie","slug":"8-ceva-sarat"},{"code":"805","name":"De ronțăit","slug":"805-aperitive-sarate"},{"code":"80501","name":"Chipsuri","slug":"80501-chipsuri"},{"code":"100139037","name":"Chipsuri cu linte, smântână și ceapă 65g","slug":"100139037-chio-chipsuri-cu-linte-smantana-si-ceapa-65g"}],"activePromotion":{"code":"targ-bere-snacks-mar23","name":"Preț avantajos","targetQuantity":null},"saveMe":null,"labels":[{"type":"v1","items":[{"text":"Profită acum","backgroundColor":"#FF9903","textColor":"#FFFFFF"}]}],"geniusPrice":null,"geniusUnitPricePerLabel":null,"banner":{"text":"Preț avantajos","textColor":"#F95510","bgColor":"#FEF1CD","icon":null,"link":"https://www.freshful.ro/oferte/targ-bere-snacks-mar23","type":"promo","analyticsEventType":"select_promotion","analyticsEventPayload":{"promotion_id":"targ-bere-snacks-mar23","promotion_name":"Bere și snackuri pentru toate gusturile"}},"discountLabel":null,"geniusDiscountLabel":null,"badge":null},{"code":"100078575","variantCode":"100078575","name":"Chipsuri cu sare 200g","slug":"100078575-chio-chipsuri-cu-sare-200g","unitPriceLabel":"44,95 Lei/kg","brand":"Chio","brandCode":"238","brandFilterCode":"chio-b239","sku":"100078575","price":8.99,"originalPrice":null,"currencyCode":"RON","currency":"Lei","image":{"thumbnail":{"default":"https://cdn.freshful.ro/media/cache/sylius_shop_product_thumbnail/d6/91/3d1c56555e83f9aeb3c241032863.jpg"},"large":{"default":"https://cdn.freshful.ro/media/cache/freshful_large/d6/91/3d1c56555e83f9aeb3c241032863.jpg"},"extralarge":{"default":"https://cdn.freshful.ro/media/cache/sylius_shop_product_original/d6/91/3d1c56555e83f9aeb3c241032863.jpg"}},"label":{"text":"Profită acum","backgroundColor":"#FF9903","textColor":"#FFFFFF"},"tags":[],"isAvailable":true,"maxAvailableQuantity":6,"maxAllowedQuantity":6,"breadcrumbs":[{"code":"8","name":"Băcănie","slug":"8-ceva-sarat"},{"code":"805","name":"De ronțăit","slug":"805-aperitive-sarate"},{"code":"80501","name":"Chipsuri","slug":"80501-chipsuri"},{"code":"100078575","name":"Chipsuri cu sare 200g","slug":"100078575-chio-chipsuri-cu-sare-200g"}],"activePromotion":{"code":"targ-bere-snacks-mar23","name":"Preț avantajos","targetQuantity":null},"saveMe":null,"labels":[{"type":"v1","items":[{"text":"Profită acum","backgroundColor":"#FF9903","textColor":"#FFFFFF"}]}],"geniusPrice":null,"geniusUnitPricePerLabel":null,"banner":{"text":"Preț avantajos","textColor":"#F95510","bgColor":"#FEF1CD","icon":null,"link":"https://www.freshful.ro/oferte/targ-bere-snacks-mar23","type":"promo","analyticsEventType":"select_promotion","analyticsEventPayload":{"promotion_id":"targ-bere-snacks-mar23","promotion_name":"Bere și snackuri pentru toate gusturile"}},"discountLabel":null,"geniusDiscountLabel":null,"badge":null},{"code":"100078631","variantCode":"5941448003336","name":"Semințe dovleac cu sare 200g","slug":"100078631-nutline-seminte-dovleac-cu-sare-200g","unitPriceLabel":"64,95 Lei/kg","brand":"Nutline","brandCode":"240","brandFilterCode":"nutline-b241","sku":"100078631","price":12.99,"originalPrice":14.7,"currencyCode":"RON","currency":"Lei","image":{"thumbnail":{"default":"https://cdn.freshful.ro/media/cache/sylius_shop_product_thumbnail/88/34/6e9f277d7b74a7452f616ff70fea.jpg"},"large":{"default":"https://cdn.freshful.ro/media/cache/freshful_large/88/34/6e9f277d7b74a7452f616ff70fea.jpg"},"extralarge":{"default":"https://cdn.freshful.ro/media/cache/sylius_shop_product_original/88/34/6e9f277d7b74a7452f616ff70fea.jpg"}},"label":{"text":"-11%","backgroundColor":"#FF9903","textColor":"#FFFFFF"},"tags":[],"isAvailable":true,"maxAvailableQuantity":100,"maxAllowedQuantity":100,"breadcrumbs":[{"code":"8","name":"Băcănie","slug":"8-ceva-sarat"},{"code":"805","name":"De ronțăit","slug":"805-aperitive-sarate"},{"code":"80503","name":"Semințe, alune și mixuri","slug":"80503-seminte-alune-si-fructe-uscate"},{"code":"100078631","name":"Semințe dovleac cu sare 200g","slug":"100078631-nutline-seminte-dovleac-cu-sare-200g"}],"activePromotion":{"code":"targ-bere-snacks-mar23","name":"Preț redus","targetQuantity":null},"saveMe":null,"labels":[{"type":"v1","items":[{"text":"-11%","backgroundColor":"#FF9903","textColor":"#FFFFFF"}]}],"geniusPrice":null,"geniusUnitPricePerLabel":null,"banner":{"text":"Super preț","textColor":"#FF0000","bgColor":"#FFF2EC","icon":null,"link":"https://www.freshful.ro/oferte/targ-bere-snacks-mar23","type":"promo","analyticsEventType":"select_promotion","analyticsEventPayload":{"promotion_id":"targ-bere-snacks-mar23","promotion_name":"Bere și snackuri pentru toate gusturile"}},"discountLabel":"Economisești 11%","geniusDiscountLabel":null,"badge":null},{"code":"100078639","variantCode":"100078639","name":"Mix de snackuri coapte 200g","slug":"100078639-chio-mix-de-snackuri-coapte-200g","unitPriceLabel":"39,95 Lei/kg","brand":"Chio","brandCode":"238","brandFilterCode":"chio-b239","sku":"100078639","price":7.99,"originalPrice":null,"currencyCode":"RON","currency":"Lei","image":{"thumbnail":{"default":"https://cdn.freshful.ro/media/cache/sylius_shop_product_thumbnail/65/27/6690380859eaa8b97e4056a52183.jpg"},"large":{"default":"https://cdn.freshful.ro/media/cache/freshful_large/65/27/6690380859eaa8b97e4056a52183.jpg"},"extralarge":{"default":"https://cdn.freshful.ro/media/cache/sylius_shop_product_original/65/27/6690380859eaa8b97e4056a52183.jpg"}},"label":{"text":"Profită acum","backgroundColor":"#FF9903","textColor":"#FFFFFF"},"tags":[],"isAvailable":true,"maxAvailableQuantity":86,"maxAllowedQuantity":100,"breadcrumbs":[{"code":"8","name":"Băcănie","slug":"8-ceva-sarat"},{"code":"805","name":"De ronțăit","slug":"805-aperitive-sarate"},{"code":"80502","name":"Snacks și popcorn","slug":"80502-snacks-si-popcorn"},{"code":"100078639","name":"Mix de snackuri coapte 200g","slug":"100078639-chio-mix-de-snackuri-coapte-200g"}],"activePromotion":{"code":"targ-bere-snacks-mar23","name":"Preț avantajos","targetQuantity":null},"saveMe":null,"labels":[{"type":"v1","items":[{"text":"Profită acum","backgroundColor":"#FF9903","textColor":"#FFFFFF"}]}],"geniusPrice":null,"geniusUnitPricePerLabel":null,"banner":{"text":"Preț avantajos","textColor":"#F95510","bgColor":"#FEF1CD","icon":null,"link":"https://www.freshful.ro/oferte/targ-bere-snacks-mar23","type":"promo","analyticsEventType":"select_promotion","analyticsEventPayload":{"promotion_id":"targ-bere-snacks-mar23","promotion_name":"Bere și snackuri pentru toate gusturile"}},"discountLabel":null,"geniusDiscountLabel":null,"badge":null},{"code":"100135171","variantCode":"100135171","name":"Chipsuri de legume exotice cu sare de mare 110g","slug":"100135171-terra-chipsuri-de-legume-exotice-cu-sare-de-mare-110g","unitPriceLabel":"15,99 Lei/buc","brand":"Terra","brandCode":"1142","brandFilterCode":"terra-b1143","sku":"100135171","price":15.99,"originalPrice":null,"currencyCode":"RON","currency":"Lei","image":{"thumbnail":{"default":"https://cdn.freshful.ro/media/cache/sylius_shop_product_thumbnail/94/16/703b3dbf83433c0394ea0352b900.jpg"},"large":{"default":"https://cdn.freshful.ro/media/cache/freshful_large/94/16/703b3dbf83433c0394ea0352b900.jpg"},"extralarge":{"default":"https://cdn.freshful.ro/media/cache/sylius_shop_product_original/94/16/703b3dbf83433c0394ea0352b900.jpg"}},"label":{"text":"Profită acum","backgroundColor":"#FF9903","textColor":"#FFFFFF"},"tags":[{"type":"vegan","text":"Vegan","icon":"https://cdn.freshful.ro/assets/product_tags/vegan.svg","iconPng":"https://cdn.freshful.ro/assets/product_tags/vegan.png","backgroundColor":"#ECF9F8","textColor":"#33A39C"},{"type":"NoGluten","text":"Fara gluten","icon":"https://cdn.freshful.ro/assets/product_tags/fara_gluten.svg","iconPng":"https://cdn.freshful.ro/assets/product_tags/fara_gluten.png","backgroundColor":"#FFF2E5","textColor":"#F07900"}],"isAvailable":true,"maxAvailableQuantity":6,"maxAllowedQuantity":6,"breadcrumbs":[{"code":"8","name":"Băcănie","slug":"8-ceva-sarat"},{"code":"805","name":"De ronțăit","slug":"805-aperitive-sarate"},{"code":"80501","name":"Chipsuri","slug":"80501-chipsuri"},{"code":"100135171","name":"Chipsuri de legume exotice cu sare de mare 110g","slug":"100135171-terra-chipsuri-de-legume-exotice-cu-sare-de-mare-110g"}],"activePromotion":{"code":"oferte-bacanie-bauturi-21feb-8mar23","name":"Preț avantajos","targetQuantity":null},"saveMe":null,"labels":[{"type":"v1","items":[{"text":"Profită acum","backgroundColor":"#FF9903","textColor":"#FFFFFF"}]}],"geniusPrice":null,"geniusUnitPricePerLabel":null,"banner":{"text":"Preț avantajos","textColor":"#F95510","bgColor":"#FEF1CD","icon":null,"link":"https://www.freshful.ro/oferte/oferte-bacanie-bauturi-21feb-8mar23","type":"promo","analyticsEventType":"select_promotion","analyticsEventPayload":{"promotion_id":"oferte-bacanie-bauturi-21feb-8mar23","promotion_name":"Cămara cu băuturi și bunătăți"}},"discountLabel":null,"geniusDiscountLabel":null,"badge":null},{"code":"100078576","variantCode":"100078576","name":"Chipsuri cu gust de ardei gras 200g","slug":"100078576-chio-chipsuri-cu-gust-de-ardei-gras-200g","unitPriceLabel":"44,95 Lei/kg","brand":"Chio","brandCode":"238","brandFilterCode":"chio-b239","sku":"100078576","price":8.99,"originalPrice":null,"currencyCode":"RON","currency":"Lei","image":{"thumbnail":{"default":"https://cdn.freshful.ro/media/cache/sylius_shop_product_thumbnail/bd/f4/9893cecf4ddf8170eb041393099d.jpg"},"large":{"default":"https://cdn.freshful.ro/media/cache/freshful_large/bd/f4/9893cecf4ddf8170eb041393099d.jpg"},"extralarge":{"default":"https://cdn.freshful.ro/media/cache/sylius_shop_product_original/bd/f4/9893cecf4ddf8170eb041393099d.jpg"}},"label":{"text":"Profită acum","backgroundColor":"#FF9903","textColor":"#FFFFFF"},"tags":[],"isAvailable":true,"maxAvailableQuantity":6,"maxAllowedQuantity":6,"breadcrumbs":[{"code":"8","name":"Băcănie","slug":"8-ceva-sarat"},{"code":"805","name":"De ronțăit","slug":"805-aperitive-sarate"},{"code":"80501","name":"Chipsuri","slug":"80501-chipsuri"},{"code":"100078576","name":"Chipsuri cu gust de ardei gras 200g","slug":"100078576-chio-chipsuri-cu-gust-de-ardei-gras-200g"}],"activePromotion":{"code":"targ-bere-snacks-mar23","name":"Preț avantajos","targetQuantity":null},"saveMe":null,"labels":[{"type":"v1","items":[{"text":"Profită acum","backgroundColor":"#FF9903","textColor":"#FFFFFF"}]}],"geniusPrice":null,"geniusUnitPricePerLabel":null,"banner":{"text":"Preț avantajos","textColor":"#F95510","bgColor":"#FEF1CD","icon":null,"link":"https://www.freshful.ro/oferte/targ-bere-snacks-mar23","type":"promo","analyticsEventType":"select_promotion","analyticsEventPayload":{"promotion_id":"targ-bere-snacks-mar23","promotion_name":"Bere și snackuri pentru toate gusturile"}},"discountLabel":null,"geniusDiscountLabel":null,"badge":null},{"code":"100078615","variantCode":"5941445671859","name":"Arahide prăjite fără sare 135g","slug":"100078615-nutline-arahide-prajite-fara-sare-135g","unitPriceLabel":"59,19 Lei/kg","brand":"Nutline","brandCode":"240","brandFilterCode":"nutline-b241","sku":"100078615","price":7.99,"originalPrice":null,"currencyCode":"RON","currency":"Lei","image":{"thumbnail":{"default":"https://cdn.freshful.ro/media/cache/sylius_shop_product_thumbnail/9f/73/7ed1b4e5e84f4b193f988cef4df1.jpg"},"large":{"default":"https://cdn.freshful.ro/media/cache/freshful_large/9f/73/7ed1b4e5e84f4b193f988cef4df1.jpg"},"extralarge":{"default":"https://cdn.freshful.ro/media/cache/sylius_shop_product_original/9f/73/7ed1b4e5e84f4b193f988cef4df1.jpg"}},"label":{"text":"Profită acum","backgroundColor":"#FF9903","textColor":"#FFFFFF"},"tags":[],"isAvailable":true,"maxAvailableQuantity":96,"maxAllowedQuantity":100,"breadcrumbs":[{"code":"8","name":"Băcănie","slug":"8-ceva-sarat"},{"code":"805","name":"De ronțăit","slug":"805-aperitive-sarate"},{"code":"80503","name":"Semințe, alune și mixuri","slug":"80503-seminte-alune-si-fructe-uscate"},{"code":"100078615","name":"Arahide prăjite fără sare 135g","slug":"100078615-nutline-arahide-prajite-fara-sare-135g"}],"activePromotion":{"code":"freshful-top-deals-2023","name":"Preț avantajos","targetQuantity":null},"saveMe":null,"labels":[{"type":"v1","items":[{"text":"Profită acum","backgroundColor":"#FF9903","textColor":"#FFFFFF"}]}],"geniusPrice":null,"geniusUnitPricePerLabel":null,"banner":{"text":"Preț avantajos","textColor":"#F95510","bgColor":"#FEF1CD","icon":null,"link":"https://www.freshful.ro/oferte/freshful-top-deals-2023","type":"promo","analyticsEventType":"select_promotion","analyticsEventPayload":{"promotion_id":"freshful-top-deals-2023","promotion_name":"Profită de Top Deals"}},"discountLabel":null,"geniusDiscountLabel":null,"badge":null},{"code":"100129416","variantCode":"100129416","name":"Chipsuri din cartofi cu gust de cașcaval 200g","slug":"100129416-chio-chipsuri-din-cartofi-cu-gust-de-cascaval-200g","unitPriceLabel":"44,95 Lei/kg","brand":"Chio","brandCode":"238","brandFilterCode":"chio-b239","sku":"100129416","price":8.99,"originalPrice":null,"currencyCode":"RON","currency":"Lei","image":{"thumbnail":{"default":"https://cdn.freshful.ro/media/cache/sylius_shop_product_thumbnail/d1/0d/6658bfe50a196130c61000a63562.jpg"},"large":{"default":"https://cdn.freshful.ro/media/cache/freshful_large/d1/0d/6658bfe50a196130c61000a63562.jpg"},"extralarge":{"default":"https://cdn.freshful.ro/media/cache/sylius_shop_product_original/d1/0d/6658bfe50a196130c61000a63562.jpg"}},"label":{"text":"Profită acum","backgroundColor":"#FF9903","textColor":"#FFFFFF"},"tags":[],"isAvailable":true,"maxAvailableQuantity":6,"maxAllowedQuantity":6,"breadcrumbs":[{"code":"8","name":"Băcănie","slug":"8-ceva-sarat"},{"code":"805","name":"De ronțăit","slug":"805-aperitive-sarate"},{"code":"80501","name":"Chipsuri","slug":"80501-chipsuri"},{"code":"100129416","name":"Chipsuri din cartofi cu gust de cașcaval 200g","slug":"100129416-chio-chipsuri-din-cartofi-cu-gust-de-cascaval-200g"}],"activePromotion":{"code":"targ-bere-snacks-mar23","name":"Preț avantajos","targetQuantity":null},"saveMe":null,"labels":[{"type":"v1","items":[{"text":"Profită acum","backgroundColor":"#FF9903","textColor":"#FFFFFF"}]}],"geniusPrice":null,"geniusUnitPricePerLabel":null,"banner":{"text":"Preț avantajos","textColor":"#F95510","bgColor":"#FEF1CD","icon":null,"link":"https://www.freshful.ro/oferte/targ-bere-snacks-mar23","type":"promo","analyticsEventType":"select_promotion","analyticsEventPayload":{"promotion_id":"targ-bere-snacks-mar23","promotion_name":"Bere și snackuri pentru toate gusturile"}},"discountLabel":null,"geniusDiscountLabel":null,"badge":null},{"code":"100078654","variantCode":"100078654","name":"Fistic în coajă cu sare 200g","slug":"100078654-nutline-fistic-in-coaja-cu-sare-200g","unitPriceLabel":"134,95 Lei/kg","brand":"Nutline","brandCode":"240","brandFilterCode":"nutline-b241","sku":"100078654","price":26.99,"originalPrice":33.9,"currencyCode":"RON","currency":"Lei","image":{"thumbnail":{"default":"https://cdn.freshful.ro/media/cache/sylius_shop_product_thumbnail/87/48/98fd297565026da80f32af0312a0.jpg"},"large":{"default":"https://cdn.freshful.ro/media/cache/freshful_large/87/48/98fd297565026da80f32af0312a0.jpg"},"extralarge":{"default":"https://cdn.freshful.ro/media/cache/sylius_shop_product_original/87/48/98fd297565026da80f32af0312a0.jpg"}},"label":{"text":"-20%","backgroundColor":"#FF9903","textColor":"#FFFFFF"},"tags":[],"isAvailable":true,"maxAvailableQuantity":19,"maxAllowedQuantity":100,"breadcrumbs":[{"code":"8","name":"Băcănie","slug":"8-ceva-sarat"},{"code":"805","name":"De ronțăit","slug":"805-aperitive-sarate"},{"code":"80503","name":"Semințe, alune și mixuri","slug":"80503-seminte-alune-si-fructe-uscate"},{"code":"100078654","name":"Fistic în coajă cu sare 200g","slug":"100078654-nutline-fistic-in-coaja-cu-sare-200g"}],"activePromotion":{"code":"targ-bere-snacks-mar23","name":"Preț redus","targetQuantity":null},"saveMe":null,"labels":[{"type":"v1","items":[{"text":"-20%","backgroundColor":"#FF9903","textColor":"#FFFFFF"}]}],"geniusPrice":null,"geniusUnitPricePerLabel":null,"banner":{"text":"Super preț","textColor":"#FF0000","bgColor":"#FFF2EC","icon":null,"link":"https://www.freshful.ro/oferte/targ-bere-snacks-mar23","type":"promo","analyticsEventType":"select_promotion","analyticsEventPayload":{"promotion_id":"targ-bere-snacks-mar23","promotion_name":"Bere și snackuri pentru toate gusturile"}},"discountLabel":"Economisești 20%","geniusDiscountLabel":null,"badge":null}],"filters":{"countSelected":0,"items":[{"code":"promotion","name":"Promoții","countSelected":0,"values":[{"code":"targ-bere-snacks-mar23","name":"Bere și snackuri pentru toate gusturile","isSelected":false,"count":14},{"code":"oferte-bacanie-bauturi-21feb-8mar23","name":"Cămara cu băuturi și bunătăți","isSelected":false,"count":1},{"code":"freshful-top-deals-2023","name":"Profită de Top Deals","isSelected":false,"count":1},{"code":"special-produse-vegane-mar23","name":"Și bun, și de post","isSelected":false,"count":1}]},{"code":"brand","name":"Brand","countSelected":0,"values":[{"code":"5-to-go-b2826","name":"5 To Go","isSelected":false,"count":1},{"code":"7days-b1259","name":"7Days","isSelected":false,"count":3},{"code":"alka-b1804","name":"Alka","isSelected":false,"count":1},{"code":"beer-crunch-b1677","name":"Beer Crunch","isSelected":false,"count":4},{"code":"benlian-b188","name":"Benlian","isSelected":false,"count":3},{"code":"cheetos-b2724","name":"Cheetos","isSelected":false,"count":3},{"code":"chio-b239","name":"Chio","isSelected":false,"count":69},{"code":"cizi-b960","name":"Cizi","isSelected":false,"count":1},{"code":"clip-b959","name":"Clip","isSelected":false,"count":3},{"code":"colussi-b1497","name":"Colussi","isSelected":false,"count":4},{"code":"covrigei-italienesti-b1794","name":"Covrigei Italienești","isSelected":false,"count":4},{"code":"crax-b1708","name":"Crax","isSelected":false,"count":2},{"code":"croco-b1177","name":"Croco","isSelected":false,"count":25},{"code":"csiki-csipsz-b3090","name":"Csíki Csipsz","isSelected":false,"count":20},{"code":"deroni-b1467","name":"Deroni","isSelected":false,"count":2},{"code":"digesta-b230","name":"Digesta","isSelected":false,"count":3},{"code":"doritos-b1257","name":"Doritos","isSelected":false,"count":3},{"code":"dr-ensa-b1100","name":"Dr.Ensa","isSelected":false,"count":2},{"code":"dr-snack-b1675","name":"Dr.Snack","isSelected":false,"count":7},{"code":"eat-real-b1086","name":"Eat Real","isSelected":false,"count":5},{"code":"fantasy-dragee-b1676","name":"Fantasy Dragée","isSelected":false,"count":1},{"code":"favr-b2715","name":"favr.","isSelected":false,"count":4},{"code":"finn-crisp-b2270","name":"Finn Crisp","isSelected":false,"count":7},{"code":"gusto-b1253","name":"Gusto","isSelected":false,"count":19},{"code":"jack-link-s-b2663","name":"Jack Link’S","isSelected":false,"count":3},{"code":"jardin-du-rice-b966","name":"Jardin du Rice","isSelected":false,"count":4},{"code":"kaloudi-b503","name":"Kaloudi","isSelected":false,"count":3},{"code":"kubeti-b1865","name":"Kubeti","isSelected":false,"count":9},{"code":"la-mole-b1614","name":"La Mole","isSelected":false,"count":4},{"code":"lays-b1254","name":"Lays","isSelected":false,"count":23},{"code":"maretti-b1864","name":"Maretti","isSelected":false,"count":6},{"code":"mcvitie-s-b954","name":"McVitie's","isSelected":false,"count":5},{"code":"meteoritzi-b1806","name":"Meteoritzi","isSelected":false,"count":2},{"code":"mikso-b1830","name":"Mikso","isSelected":false,"count":3},{"code":"misura-b1496","name":"Misura","isSelected":false,"count":1},{"code":"mogyi-b754","name":"Mogyi","isSelected":false,"count":32},{"code":"monte-banato-b1495","name":"Monte Banato","isSelected":false,"count":5},{"code":"mr-stix-b1866","name":"Mr. Stix","isSelected":false,"count":4},{"code":"nutline-b241","name":"Nutline","isSelected":false,"count":46},{"code":"pom-bar-b240","name":"Pom-Bär","isSelected":false,"count":8},{"code":"pringles-b1489","name":"Pringles","isSelected":false,"count":16},{"code":"risovital-b1691","name":"Risovital","isSelected":false,"count":1},{"code":"roland-b1634","name":"Roland","isSelected":false,"count":2},{"code":"salatini-b461","name":"Salatini","isSelected":false,"count":18},{"code":"sanovita-b483","name":"Sanovita","isSelected":false,"count":9},{"code":"shehrazade-b2925","name":"Shehrazade","isSelected":false,"count":4},{"code":"snack-2-go-b1874","name":"Snack 2 Go","isSelected":false,"count":4},{"code":"snack-italy-b2842","name":"Snack Italy","isSelected":false,"count":2},{"code":"soocitzi-b1805","name":"Soocitzi","isSelected":false,"count":3},{"code":"star-b1256","name":"Star","isSelected":false,"count":10},{"code":"sunset-nuts-b1036","name":"Sunset Nuts","isSelected":false,"count":16},{"code":"terra-b1143","name":"Terra","isSelected":false,"count":5},{"code":"toortitzi-b1800","name":"Toortitzi","isSelected":false,"count":7},{"code":"tuc-b1884","name":"Tuc","isSelected":false,"count":2},{"code":"werther-s-b876","name":"Werther's","isSelected":false,"count":2},{"code":"zanae-b504","name":"Zanae","isSelected":false,"count":4}]},{"code":"diet_lifestyle","name":"Dietă și lifestyle","countSelected":0,"values":[{"code":"fara-conservanti-a37","name":"Fara conservanti","isSelected":false,"count":18},{"code":"fara-gluten-a16","name":"Fara gluten","isSelected":false,"count":40},{"code":"fara-lactoza-a38","name":"Fara lactoza","isSelected":false,"count":3},{"code":"fara-sare-a52","name":"Fara sare","isSelected":false,"count":5},{"code":"fara-zahar-adaugat-a29","name":"Fara zahar adaugat","isSelected":false,"count":5},{"code":"vegan-a24","name":"Vegan","isSelected":false,"count":23},{"code":"vegetarian-a28","name":"Vegetarian","isSelected":false,"count":20}]}]},"orderBy":[{"field":"price","direction":"asc","name":"Preț crescător","isSelected":false},{"field":"price","direction":"desc","name":"Preț descrescător","isSelected":false},{"field":"popularity","direction":"desc","name":"Cele mai populare","isSelected":true},{"field":"category","direction":"asc","name":"Categorie","isSelected":false}],"metaTitle":"De ronțăit - Gamă variată","metaDescription":"Vrei De ronțăit? Alege dintr-o gamă variată. Comanzi simplu și ai livrare rapidă, calitate și prospețime. Hai pe Freshful.ro","metaKeywords":null,"banners":[]}}