{"type":"subcategory","payload":{"analyticsListId":"category_80501-chipsuri","analyticsListName":"Category - Chipsuri","name":"Chipsuri","slug":"80501-chipsuri","image":null,"breadcrumbs":[{"code":"8","name":"Băcănie","slug":"8-ceva-sarat"},{"code":"805","name":"De ronțăit","slug":"805-aperitive-sarate"},{"code":"80501","name":"Chipsuri","slug":"80501-chipsuri"}],"slots":[],"page":1,"limit":10,"pages":13,"count":130,"siblings":[{"name":"Paste, orez și legume uscate","slug":"801-paste-orez-si-legume-uscate","selected":false},{"name":"Conserve","slug":"802-conserve","selected":false},{"name":"Condimente și sosuri","slug":"803-condimente-si-sosuri","selected":false},{"name":"Ulei și oțet","slug":"804-ulei-si-otet","selected":false},{"name":"De ronțăit","slug":"805-aperitive-sarate","selected":true},{"name":"Făină, zahăr și produse gourmet","slug":"faina-zahar-si-produse-gourmet","selected":false}],"children":[{"name":"Toate produsele","slug":"805-aperitive-sarate","selected":false},{"name":"Chipsuri","slug":"80501-chipsuri","selected":true},{"name":"Snacks și popcorn","slug":"80502-snacks-si-popcorn","selected":false},{"name":"Semințe, alune și mixuri","slug":"80503-seminte-alune-si-fructe-uscate","selected":false}],"products":[{"code":"100139036","variantCode":"100139036","name":"Chipsuri cu linte și paprika 65g","slug":"100139036-chio-chipsuri-cu-linte-si-paprika-65g","unitPriceLabel":"79,86 Lei/kg","brand":"Chio","brandCode":"238","brandFilterCode":"chio-b239","sku":"100139036","price":5.59,"originalPrice":null,"currencyCode":"RON","currency":"Lei","image":{"thumbnail":{"default":"https://cdn.freshful.ro/media/cache/sylius_shop_product_thumbnail/99/49/7a46a9593e541da64cdc9e7e8c2b.jpg"},"large":{"default":"https://cdn.freshful.ro/media/cache/freshful_large/99/49/7a46a9593e541da64cdc9e7e8c2b.jpg"},"extralarge":{"default":"https://cdn.freshful.ro/media/cache/sylius_shop_product_original/99/49/7a46a9593e541da64cdc9e7e8c2b.jpg"}},"label":{"text":"Profită acum","backgroundColor":"#FF9903","textColor":"#FFFFFF"},"tags":[],"isAvailable":true,"maxAvailableQuantity":6,"maxAllowedQuantity":6,"breadcrumbs":[{"code":"8","name":"Băcănie","slug":"8-ceva-sarat"},{"code":"805","name":"De ronțăit","slug":"805-aperitive-sarate"},{"code":"80501","name":"Chipsuri","slug":"80501-chipsuri"},{"code":"100139036","name":"Chipsuri cu linte și paprika 65g","slug":"100139036-chio-chipsuri-cu-linte-si-paprika-65g"}],"activePromotion":{"code":"targ-bere-snacks-mar23","name":"Preț avantajos","targetQuantity":null},"saveMe":null,"labels":[{"type":"v1","items":[{"text":"Profită acum","backgroundColor":"#FF9903","textColor":"#FFFFFF"}]}],"geniusPrice":null,"geniusUnitPricePerLabel":null,"banner":{"text":"Preț avantajos","textColor":"#F95510","bgColor":"#FEF1CD","icon":null,"link":"https://www.freshful.ro/oferte/targ-bere-snacks-mar23","type":"promo","analyticsEventType":"select_promotion","analyticsEventPayload":{"promotion_id":"targ-bere-snacks-mar23","promotion_name":"Bere și snackuri pentru toate gusturile"}},"discountLabel":null,"geniusDiscountLabel":null,"badge":null},{"code":"100139037","variantCode":"100139037","name":"Chipsuri cu linte, smântână și ceapă 65g","slug":"100139037-chio-chipsuri-cu-linte-smantana-si-ceapa-65g","unitPriceLabel":"79,86 Lei/kg","brand":"Chio","brandCode":"238","brandFilterCode":"chio-b239","sku":"100139037","price":5.59,"originalPrice":null,"currencyCode":"RON","currency":"Lei","image":{"thumbnail":{"default":"https://cdn.freshful.ro/media/cache/sylius_shop_product_thumbnail/64/08/835595898de3b4f79c736d8dc8c8.jpg"},"large":{"default":"https://cdn.freshful.ro/media/cache/freshful_large/64/08/835595898de3b4f79c736d8dc8c8.jpg"},"extralarge":{"default":"https://cdn.freshful.ro/media/cache/sylius_shop_product_original/64/08/835595898de3b4f79c736d8dc8c8.jpg"}},"label":{"text":"Profită acum","backgroundColor":"#FF9903","textColor":"#FFFFFF"},"tags":[],"isAvailable":true,"maxAvailableQuantity":6,"maxAllowedQuantity":6,"breadcrumbs":[{"code":"8","name":"Băcănie","slug":"8-ceva-sarat"},{"code":"805","name":"De ronțăit","slug":"805-aperitive-sarate"},{"code":"80501","name":"Chipsuri","slug":"80501-chipsuri"},{"code":"100139037","name":"Chipsuri cu linte, smântână și ceapă 65g","slug":"100139037-chio-chipsuri-cu-linte-smantana-si-ceapa-65g"}],"activePromotion":{"code":"targ-bere-snacks-mar23","name":"Preț avantajos","targetQuantity":null},"saveMe":null,"labels":[{"type":"v1","items":[{"text":"Profită acum","backgroundColor":"#FF9903","textColor":"#FFFFFF"}]}],"geniusPrice":null,"geniusUnitPricePerLabel":null,"banner":{"text":"Preț avantajos","textColor":"#F95510","bgColor":"#FEF1CD","icon":null,"link":"https://www.freshful.ro/oferte/targ-bere-snacks-mar23","type":"promo","analyticsEventType":"select_promotion","analyticsEventPayload":{"promotion_id":"targ-bere-snacks-mar23","promotion_name":"Bere și snackuri pentru toate gusturile"}},"discountLabel":null,"geniusDiscountLabel":null,"badge":null},{"code":"100078575","variantCode":"100078575","name":"Chipsuri cu sare 200g","slug":"100078575-chio-chipsuri-cu-sare-200g","unitPriceLabel":"44,95 Lei/kg","brand":"Chio","brandCode":"238","brandFilterCode":"chio-b239","sku":"100078575","price":8.99,"originalPrice":null,"currencyCode":"RON","currency":"Lei","image":{"thumbnail":{"default":"https://cdn.freshful.ro/media/cache/sylius_shop_product_thumbnail/d6/91/3d1c56555e83f9aeb3c241032863.jpg"},"large":{"default":"https://cdn.freshful.ro/media/cache/freshful_large/d6/91/3d1c56555e83f9aeb3c241032863.jpg"},"extralarge":{"default":"https://cdn.freshful.ro/media/cache/sylius_shop_product_original/d6/91/3d1c56555e83f9aeb3c241032863.jpg"}},"label":{"text":"Profită acum","backgroundColor":"#FF9903","textColor":"#FFFFFF"},"tags":[],"isAvailable":true,"maxAvailableQuantity":6,"maxAllowedQuantity":6,"breadcrumbs":[{"code":"8","name":"Băcănie","slug":"8-ceva-sarat"},{"code":"805","name":"De ronțăit","slug":"805-aperitive-sarate"},{"code":"80501","name":"Chipsuri","slug":"80501-chipsuri"},{"code":"100078575","name":"Chipsuri cu sare 200g","slug":"100078575-chio-chipsuri-cu-sare-200g"}],"activePromotion":{"code":"targ-bere-snacks-mar23","name":"Preț avantajos","targetQuantity":null},"saveMe":null,"labels":[{"type":"v1","items":[{"text":"Profită acum","backgroundColor":"#FF9903","textColor":"#FFFFFF"}]}],"geniusPrice":null,"geniusUnitPricePerLabel":null,"banner":{"text":"Preț avantajos","textColor":"#F95510","bgColor":"#FEF1CD","icon":null,"link":"https://www.freshful.ro/oferte/targ-bere-snacks-mar23","type":"promo","analyticsEventType":"select_promotion","analyticsEventPayload":{"promotion_id":"targ-bere-snacks-mar23","promotion_name":"Bere și snackuri pentru toate gusturile"}},"discountLabel":null,"geniusDiscountLabel":null,"badge":null},{"code":"100135171","variantCode":"100135171","name":"Chipsuri de legume exotice cu sare de mare 110g","slug":"100135171-terra-chipsuri-de-legume-exotice-cu-sare-de-mare-110g","unitPriceLabel":"15,99 Lei/buc","brand":"Terra","brandCode":"1142","brandFilterCode":"terra-b1143","sku":"100135171","price":15.99,"originalPrice":null,"currencyCode":"RON","currency":"Lei","image":{"thumbnail":{"default":"https://cdn.freshful.ro/media/cache/sylius_shop_product_thumbnail/94/16/703b3dbf83433c0394ea0352b900.jpg"},"large":{"default":"https://cdn.freshful.ro/media/cache/freshful_large/94/16/703b3dbf83433c0394ea0352b900.jpg"},"extralarge":{"default":"https://cdn.freshful.ro/media/cache/sylius_shop_product_original/94/16/703b3dbf83433c0394ea0352b900.jpg"}},"label":{"text":"Profită acum","backgroundColor":"#FF9903","textColor":"#FFFFFF"},"tags":[{"type":"vegan","text":"Vegan","icon":"https://cdn.freshful.ro/assets/product_tags/vegan.svg","iconPng":"https://cdn.freshful.ro/assets/product_tags/vegan.png","backgroundColor":"#ECF9F8","textColor":"#33A39C"},{"type":"NoGluten","text":"Fara gluten","icon":"https://cdn.freshful.ro/assets/product_tags/fara_gluten.svg","iconPng":"https://cdn.freshful.ro/assets/product_tags/fara_gluten.png","backgroundColor":"#FFF2E5","textColor":"#F07900"}],"isAvailable":true,"maxAvailableQuantity":6,"maxAllowedQuantity":6,"breadcrumbs":[{"code":"8","name":"Băcănie","slug":"8-ceva-sarat"},{"code":"805","name":"De ronțăit","slug":"805-aperitive-sarate"},{"code":"80501","name":"Chipsuri","slug":"80501-chipsuri"},{"code":"100135171","name":"Chipsuri de legume exotice cu sare de mare 110g","slug":"100135171-terra-chipsuri-de-legume-exotice-cu-sare-de-mare-110g"}],"activePromotion":{"code":"oferte-bacanie-bauturi-21feb-8mar23","name":"Preț avantajos","targetQuantity":null},"saveMe":null,"labels":[{"type":"v1","items":[{"text":"Profită acum","backgroundColor":"#FF9903","textColor":"#FFFFFF"}]}],"geniusPrice":null,"geniusUnitPricePerLabel":null,"banner":{"text":"Preț avantajos","textColor":"#F95510","bgColor":"#FEF1CD","icon":null,"link":"https://www.freshful.ro/oferte/oferte-bacanie-bauturi-21feb-8mar23","type":"promo","analyticsEventType":"select_promotion","analyticsEventPayload":{"promotion_id":"oferte-bacanie-bauturi-21feb-8mar23","promotion_name":"Cămara cu băuturi și bunătăți"}},"discountLabel":null,"geniusDiscountLabel":null,"badge":null},{"code":"100078576","variantCode":"100078576","name":"Chipsuri cu gust de ardei gras 200g","slug":"100078576-chio-chipsuri-cu-gust-de-ardei-gras-200g","unitPriceLabel":"44,95 Lei/kg","brand":"Chio","brandCode":"238","brandFilterCode":"chio-b239","sku":"100078576","price":8.99,"originalPrice":null,"currencyCode":"RON","currency":"Lei","image":{"thumbnail":{"default":"https://cdn.freshful.ro/media/cache/sylius_shop_product_thumbnail/bd/f4/9893cecf4ddf8170eb041393099d.jpg"},"large":{"default":"https://cdn.freshful.ro/media/cache/freshful_large/bd/f4/9893cecf4ddf8170eb041393099d.jpg"},"extralarge":{"default":"https://cdn.freshful.ro/media/cache/sylius_shop_product_original/bd/f4/9893cecf4ddf8170eb041393099d.jpg"}},"label":{"text":"Profită acum","backgroundColor":"#FF9903","textColor":"#FFFFFF"},"tags":[],"isAvailable":true,"maxAvailableQuantity":6,"maxAllowedQuantity":6,"breadcrumbs":[{"code":"8","name":"Băcănie","slug":"8-ceva-sarat"},{"code":"805","name":"De ronțăit","slug":"805-aperitive-sarate"},{"code":"80501","name":"Chipsuri","slug":"80501-chipsuri"},{"code":"100078576","name":"Chipsuri cu gust de ardei gras 200g","slug":"100078576-chio-chipsuri-cu-gust-de-ardei-gras-200g"}],"activePromotion":{"code":"targ-bere-snacks-mar23","name":"Preț avantajos","targetQuantity":null},"saveMe":null,"labels":[{"type":"v1","items":[{"text":"Profită acum","backgroundColor":"#FF9903","textColor":"#FFFFFF"}]}],"geniusPrice":null,"geniusUnitPricePerLabel":null,"banner":{"text":"Preț avantajos","textColor":"#F95510","bgColor":"#FEF1CD","icon":null,"link":"https://www.freshful.ro/oferte/targ-bere-snacks-mar23","type":"promo","analyticsEventType":"select_promotion","analyticsEventPayload":{"promotion_id":"targ-bere-snacks-mar23","promotion_name":"Bere și snackuri pentru toate gusturile"}},"discountLabel":null,"geniusDiscountLabel":null,"badge":null},{"code":"100129416","variantCode":"100129416","name":"Chipsuri din cartofi cu gust de cașcaval 200g","slug":"100129416-chio-chipsuri-din-cartofi-cu-gust-de-cascaval-200g","unitPriceLabel":"44,95 Lei/kg","brand":"Chio","brandCode":"238","brandFilterCode":"chio-b239","sku":"100129416","price":8.99,"originalPrice":null,"currencyCode":"RON","currency":"Lei","image":{"thumbnail":{"default":"https://cdn.freshful.ro/media/cache/sylius_shop_product_thumbnail/d1/0d/6658bfe50a196130c61000a63562.jpg"},"large":{"default":"https://cdn.freshful.ro/media/cache/freshful_large/d1/0d/6658bfe50a196130c61000a63562.jpg"},"extralarge":{"default":"https://cdn.freshful.ro/media/cache/sylius_shop_product_original/d1/0d/6658bfe50a196130c61000a63562.jpg"}},"label":{"text":"Profită acum","backgroundColor":"#FF9903","textColor":"#FFFFFF"},"tags":[],"isAvailable":true,"maxAvailableQuantity":6,"maxAllowedQuantity":6,"breadcrumbs":[{"code":"8","name":"Băcănie","slug":"8-ceva-sarat"},{"code":"805","name":"De ronțăit","slug":"805-aperitive-sarate"},{"code":"80501","name":"Chipsuri","slug":"80501-chipsuri"},{"code":"100129416","name":"Chipsuri din cartofi cu gust de cașcaval 200g","slug":"100129416-chio-chipsuri-din-cartofi-cu-gust-de-cascaval-200g"}],"activePromotion":{"code":"targ-bere-snacks-mar23","name":"Preț avantajos","targetQuantity":null},"saveMe":null,"labels":[{"type":"v1","items":[{"text":"Profită acum","backgroundColor":"#FF9903","textColor":"#FFFFFF"}]}],"geniusPrice":null,"geniusUnitPricePerLabel":null,"banner":{"text":"Preț avantajos","textColor":"#F95510","bgColor":"#FEF1CD","icon":null,"link":"https://www.freshful.ro/oferte/targ-bere-snacks-mar23","type":"promo","analyticsEventType":"select_promotion","analyticsEventPayload":{"promotion_id":"targ-bere-snacks-mar23","promotion_name":"Bere și snackuri pentru toate gusturile"}},"discountLabel":null,"geniusDiscountLabel":null,"badge":null},{"code":"100078574","variantCode":"100078574","name":"Chipsuri cu gust de smântână și ceapă 200g","slug":"100078574-chio-chipsuri-cu-gust-de-smantana-si-ceapa-200g","unitPriceLabel":"44,95 Lei/kg","brand":"Chio","brandCode":"238","brandFilterCode":"chio-b239","sku":"100078574","price":8.99,"originalPrice":null,"currencyCode":"RON","currency":"Lei","image":{"thumbnail":{"default":"https://cdn.freshful.ro/media/cache/sylius_shop_product_thumbnail/41/b7/f1d33ff8ae465ce79faa8781c54f.jpg"},"large":{"default":"https://cdn.freshful.ro/media/cache/freshful_large/41/b7/f1d33ff8ae465ce79faa8781c54f.jpg"},"extralarge":{"default":"https://cdn.freshful.ro/media/cache/sylius_shop_product_original/41/b7/f1d33ff8ae465ce79faa8781c54f.jpg"}},"label":{"text":"Profită acum","backgroundColor":"#FF9903","textColor":"#FFFFFF"},"tags":[],"isAvailable":true,"maxAvailableQuantity":6,"maxAllowedQuantity":6,"breadcrumbs":[{"code":"8","name":"Băcănie","slug":"8-ceva-sarat"},{"code":"805","name":"De ronțăit","slug":"805-aperitive-sarate"},{"code":"80501","name":"Chipsuri","slug":"80501-chipsuri"},{"code":"100078574","name":"Chipsuri cu gust de smântână și ceapă 200g","slug":"100078574-chio-chipsuri-cu-gust-de-smantana-si-ceapa-200g"}],"activePromotion":{"code":"targ-bere-snacks-mar23","name":"Preț avantajos","targetQuantity":null},"saveMe":null,"labels":[{"type":"v1","items":[{"text":"Profită acum","backgroundColor":"#FF9903","textColor":"#FFFFFF"}]}],"geniusPrice":null,"geniusUnitPricePerLabel":null,"banner":{"text":"Preț avantajos","textColor":"#F95510","bgColor":"#FEF1CD","icon":null,"link":"https://www.freshful.ro/oferte/targ-bere-snacks-mar23","type":"promo","analyticsEventType":"select_promotion","analyticsEventPayload":{"promotion_id":"targ-bere-snacks-mar23","promotion_name":"Bere și snackuri pentru toate gusturile"}},"discountLabel":null,"geniusDiscountLabel":null,"badge":null},{"code":"100141811","variantCode":"100141811","name":"Chipsuri din cartofi cu smântână și ceapă, Oven 125g","slug":"100141811-chio-chipsuri-din-cartofi-cu-smantana-si-ceapa-oven-125g","unitPriceLabel":"55,92 Lei/kg","brand":"Chio","brandCode":"238","brandFilterCode":"chio-b239","sku":"100141811","price":6.99,"originalPrice":null,"currencyCode":"RON","currency":"Lei","image":{"thumbnail":{"default":"https://cdn.freshful.ro/media/cache/sylius_shop_product_thumbnail/d8/a0/8da8b68b139cd93ef0b29b8aaa19.jpg"},"large":{"default":"https://cdn.freshful.ro/media/cache/freshful_large/d8/a0/8da8b68b139cd93ef0b29b8aaa19.jpg"},"extralarge":{"default":"https://cdn.freshful.ro/media/cache/sylius_shop_product_original/d8/a0/8da8b68b139cd93ef0b29b8aaa19.jpg"}},"label":null,"tags":[],"isAvailable":true,"maxAvailableQuantity":6,"maxAllowedQuantity":6,"breadcrumbs":[{"code":"8","name":"Băcănie","slug":"8-ceva-sarat"},{"code":"805","name":"De ronțăit","slug":"805-aperitive-sarate"},{"code":"80501","name":"Chipsuri","slug":"80501-chipsuri"},{"code":"100141811","name":"Chipsuri din cartofi cu smântână și ceapă, Oven 125g","slug":"100141811-chio-chipsuri-din-cartofi-cu-smantana-si-ceapa-oven-125g"}],"activePromotion":null,"saveMe":null,"labels":[],"geniusPrice":null,"geniusUnitPricePerLabel":null,"banner":null,"discountLabel":null,"geniusDiscountLabel":null,"badge":null},{"code":"100141810","variantCode":"100141810","name":"Chipsuri din cartofi cu gust de paprika, Oven 125g","slug":"100141810-chio-chipsuri-din-cartofi-cu-gust-de-paprika-oven-125g","unitPriceLabel":"56,4 Lei/kg","brand":"Chio","brandCode":"238","brandFilterCode":"chio-b239","sku":"100141810","price":7.05,"originalPrice":null,"currencyCode":"RON","currency":"Lei","image":{"thumbnail":{"default":"https://cdn.freshful.ro/media/cache/sylius_shop_product_thumbnail/a4/9b/9ba055536690088b8b8fbf0353a8.jpg"},"large":{"default":"https://cdn.freshful.ro/media/cache/freshful_large/a4/9b/9ba055536690088b8b8fbf0353a8.jpg"},"extralarge":{"default":"https://cdn.freshful.ro/media/cache/sylius_shop_product_original/a4/9b/9ba055536690088b8b8fbf0353a8.jpg"}},"label":null,"tags":[],"isAvailable":true,"maxAvailableQuantity":6,"maxAllowedQuantity":6,"breadcrumbs":[{"code":"8","name":"Băcănie","slug":"8-ceva-sarat"},{"code":"805","name":"De ronțăit","slug":"805-aperitive-sarate"},{"code":"80501","name":"Chipsuri","slug":"80501-chipsuri"},{"code":"100141810","name":"Chipsuri din cartofi cu gust de paprika, Oven 125g","slug":"100141810-chio-chipsuri-din-cartofi-cu-gust-de-paprika-oven-125g"}],"activePromotion":null,"saveMe":null,"labels":[],"geniusPrice":null,"geniusUnitPricePerLabel":null,"banner":null,"discountLabel":null,"geniusDiscountLabel":null,"badge":null},{"code":"100078573","variantCode":"100078573","name":"Chipsuri cu sare de mare, Intense 190g","slug":"100078573-chio-chipsuri-cu-sare-de-mare-intense-190g","unitPriceLabel":"41,84 Lei/kg","brand":"Chio","brandCode":"238","brandFilterCode":"chio-b239","sku":"100078573","price":7.95,"originalPrice":null,"currencyCode":"RON","currency":"Lei","image":{"thumbnail":{"default":"https://cdn.freshful.ro/media/cache/sylius_shop_product_thumbnail/05/5f/ae12cc1d2b12395e995bce948170.jpg"},"large":{"default":"https://cdn.freshful.ro/media/cache/freshful_large/05/5f/ae12cc1d2b12395e995bce948170.jpg"},"extralarge":{"default":"https://cdn.freshful.ro/media/cache/sylius_shop_product_original/05/5f/ae12cc1d2b12395e995bce948170.jpg"}},"label":null,"tags":[],"isAvailable":true,"maxAvailableQuantity":6,"maxAllowedQuantity":6,"breadcrumbs":[{"code":"8","name":"Băcănie","slug":"8-ceva-sarat"},{"code":"805","name":"De ronțăit","slug":"805-aperitive-sarate"},{"code":"80501","name":"Chipsuri","slug":"80501-chipsuri"},{"code":"100078573","name":"Chipsuri cu sare de mare, Intense 190g","slug":"100078573-chio-chipsuri-cu-sare-de-mare-intense-190g"}],"activePromotion":null,"saveMe":null,"labels":[],"geniusPrice":null,"geniusUnitPricePerLabel":null,"banner":null,"discountLabel":null,"geniusDiscountLabel":null,"badge":null}],"filters":{"countSelected":0,"items":[{"code":"promotion","name":"Promoții","countSelected":0,"values":[{"code":"targ-bere-snacks-mar23","name":"Bere și snackuri pentru toate gusturile","isSelected":false,"count":6},{"code":"oferte-bacanie-bauturi-21feb-8mar23","name":"Cămara cu băuturi și bunătăți","isSelected":false,"count":1}]},{"code":"brand","name":"Brand","countSelected":0,"values":[{"code":"benlian-b188","name":"Benlian","isSelected":false,"count":3},{"code":"chio-b239","name":"Chio","isSelected":false,"count":45},{"code":"csiki-csipsz-b3090","name":"Csíki Csipsz","isSelected":false,"count":13},{"code":"doritos-b1257","name":"Doritos","isSelected":false,"count":3},{"code":"eat-real-b1086","name":"Eat Real","isSelected":false,"count":5},{"code":"favr-b2715","name":"favr.","isSelected":false,"count":4},{"code":"jack-link-s-b2663","name":"Jack Link’S","isSelected":false,"count":3},{"code":"jardin-du-rice-b966","name":"Jardin du Rice","isSelected":false,"count":4},{"code":"lays-b1254","name":"Lays","isSelected":false,"count":23},{"code":"mikso-b1830","name":"Mikso","isSelected":false,"count":3},{"code":"pringles-b1489","name":"Pringles","isSelected":false,"count":16},{"code":"risovital-b1691","name":"Risovital","isSelected":false,"count":1},{"code":"snack-italy-b2842","name":"Snack Italy","isSelected":false,"count":2},{"code":"terra-b1143","name":"Terra","isSelected":false,"count":5}]},{"code":"diet_lifestyle","name":"Dietă și lifestyle","countSelected":0,"values":[{"code":"fara-conservanti-a37","name":"Fara conservanti","isSelected":false,"count":11},{"code":"fara-gluten-a16","name":"Fara gluten","isSelected":false,"count":31},{"code":"fara-lactoza-a38","name":"Fara lactoza","isSelected":false,"count":1},{"code":"fara-zahar-adaugat-a29","name":"Fara zahar adaugat","isSelected":false,"count":5},{"code":"vegan-a24","name":"Vegan","isSelected":false,"count":19},{"code":"vegetarian-a28","name":"Vegetarian","isSelected":false,"count":10}]}]},"orderBy":[{"field":"price","direction":"asc","name":"Preț crescător","isSelected":false},{"field":"price","direction":"desc","name":"Preț descrescător","isSelected":false},{"field":"popularity","direction":"desc","name":"Cele mai populare","isSelected":true},{"field":"category","direction":"asc","name":"Categorie","isSelected":false}],"metaTitle":"Chipsuri - Gamă variată","metaDescription":"Vrei Chipsuri? Alege dintr-o gamă variată. Comanzi simplu și ai livrare rapidă, calitate și prospețime. Hai pe Freshful.ro","metaKeywords":null,"banners":[]}}