{"type":"subcategory","payload":{"analyticsListId":"category_80503-seminte-alune-si-fructe-uscate","analyticsListName":"Category - Semințe, alune și mixuri","name":"Semințe, alune și mixuri","slug":"80503-seminte-alune-si-fructe-uscate","image":null,"breadcrumbs":[{"code":"8","name":"Băcănie","slug":"8-ceva-sarat"},{"code":"805","name":"De ronțăit","slug":"805-aperitive-sarate"},{"code":"80503","name":"Semințe, alune și mixuri","slug":"80503-seminte-alune-si-fructe-uscate"}],"slots":[],"page":1,"limit":10,"pages":12,"count":115,"siblings":[{"name":"Paste, orez și legume uscate","slug":"801-paste-orez-si-legume-uscate","selected":false},{"name":"Conserve","slug":"802-conserve","selected":false},{"name":"Condimente și sosuri","slug":"803-condimente-si-sosuri","selected":false},{"name":"Ulei și oțet","slug":"804-ulei-si-otet","selected":false},{"name":"De ronțăit","slug":"805-aperitive-sarate","selected":true},{"name":"Făină, zahăr și produse gourmet","slug":"faina-zahar-si-produse-gourmet","selected":false}],"children":[{"name":"Toate produsele","slug":"805-aperitive-sarate","selected":false},{"name":"Chipsuri","slug":"80501-chipsuri","selected":false},{"name":"Snacks și popcorn","slug":"80502-snacks-si-popcorn","selected":false},{"name":"Semințe, alune și mixuri","slug":"80503-seminte-alune-si-fructe-uscate","selected":true}],"products":[{"code":"100078631","variantCode":"5941448003336","name":"Semințe dovleac cu sare 200g","slug":"100078631-nutline-seminte-dovleac-cu-sare-200g","unitPriceLabel":"64,95 Lei/kg","brand":"Nutline","brandCode":"240","brandFilterCode":"nutline-b241","sku":"100078631","price":12.99,"originalPrice":14.7,"currencyCode":"RON","currency":"Lei","image":{"thumbnail":{"default":"https://cdn.freshful.ro/media/cache/sylius_shop_product_thumbnail/88/34/6e9f277d7b74a7452f616ff70fea.jpg"},"large":{"default":"https://cdn.freshful.ro/media/cache/freshful_large/88/34/6e9f277d7b74a7452f616ff70fea.jpg"},"extralarge":{"default":"https://cdn.freshful.ro/media/cache/sylius_shop_product_original/88/34/6e9f277d7b74a7452f616ff70fea.jpg"}},"label":{"text":"-11%","backgroundColor":"#FF9903","textColor":"#FFFFFF"},"tags":[],"isAvailable":true,"maxAvailableQuantity":100,"maxAllowedQuantity":100,"breadcrumbs":[{"code":"8","name":"Băcănie","slug":"8-ceva-sarat"},{"code":"805","name":"De ronțăit","slug":"805-aperitive-sarate"},{"code":"80503","name":"Semințe, alune și mixuri","slug":"80503-seminte-alune-si-fructe-uscate"},{"code":"100078631","name":"Semințe dovleac cu sare 200g","slug":"100078631-nutline-seminte-dovleac-cu-sare-200g"}],"activePromotion":{"code":"targ-bere-snacks-mar23","name":"Preț redus","targetQuantity":null},"saveMe":null,"labels":[{"type":"v1","items":[{"text":"-11%","backgroundColor":"#FF9903","textColor":"#FFFFFF"}]}],"geniusPrice":null,"geniusUnitPricePerLabel":null,"banner":{"text":"Super preț","textColor":"#FF0000","bgColor":"#FFF2EC","icon":null,"link":"https://www.freshful.ro/oferte/targ-bere-snacks-mar23","type":"promo","analyticsEventType":"select_promotion","analyticsEventPayload":{"promotion_id":"targ-bere-snacks-mar23","promotion_name":"Bere și snackuri pentru toate gusturile"}},"discountLabel":"Economisești 11%","geniusDiscountLabel":null,"badge":null},{"code":"100078615","variantCode":"5941445671859","name":"Arahide prăjite fără sare 135g","slug":"100078615-nutline-arahide-prajite-fara-sare-135g","unitPriceLabel":"59,19 Lei/kg","brand":"Nutline","brandCode":"240","brandFilterCode":"nutline-b241","sku":"100078615","price":7.99,"originalPrice":null,"currencyCode":"RON","currency":"Lei","image":{"thumbnail":{"default":"https://cdn.freshful.ro/media/cache/sylius_shop_product_thumbnail/9f/73/7ed1b4e5e84f4b193f988cef4df1.jpg"},"large":{"default":"https://cdn.freshful.ro/media/cache/freshful_large/9f/73/7ed1b4e5e84f4b193f988cef4df1.jpg"},"extralarge":{"default":"https://cdn.freshful.ro/media/cache/sylius_shop_product_original/9f/73/7ed1b4e5e84f4b193f988cef4df1.jpg"}},"label":{"text":"Profită acum","backgroundColor":"#FF9903","textColor":"#FFFFFF"},"tags":[],"isAvailable":true,"maxAvailableQuantity":96,"maxAllowedQuantity":100,"breadcrumbs":[{"code":"8","name":"Băcănie","slug":"8-ceva-sarat"},{"code":"805","name":"De ronțăit","slug":"805-aperitive-sarate"},{"code":"80503","name":"Semințe, alune și mixuri","slug":"80503-seminte-alune-si-fructe-uscate"},{"code":"100078615","name":"Arahide prăjite fără sare 135g","slug":"100078615-nutline-arahide-prajite-fara-sare-135g"}],"activePromotion":{"code":"freshful-top-deals-2023","name":"Preț avantajos","targetQuantity":null},"saveMe":null,"labels":[{"type":"v1","items":[{"text":"Profită acum","backgroundColor":"#FF9903","textColor":"#FFFFFF"}]}],"geniusPrice":null,"geniusUnitPricePerLabel":null,"banner":{"text":"Preț avantajos","textColor":"#F95510","bgColor":"#FEF1CD","icon":null,"link":"https://www.freshful.ro/oferte/freshful-top-deals-2023","type":"promo","analyticsEventType":"select_promotion","analyticsEventPayload":{"promotion_id":"freshful-top-deals-2023","promotion_name":"Profită de Top Deals"}},"discountLabel":null,"geniusDiscountLabel":null,"badge":null},{"code":"100078654","variantCode":"100078654","name":"Fistic în coajă cu sare 200g","slug":"100078654-nutline-fistic-in-coaja-cu-sare-200g","unitPriceLabel":"134,95 Lei/kg","brand":"Nutline","brandCode":"240","brandFilterCode":"nutline-b241","sku":"100078654","price":26.99,"originalPrice":33.9,"currencyCode":"RON","currency":"Lei","image":{"thumbnail":{"default":"https://cdn.freshful.ro/media/cache/sylius_shop_product_thumbnail/87/48/98fd297565026da80f32af0312a0.jpg"},"large":{"default":"https://cdn.freshful.ro/media/cache/freshful_large/87/48/98fd297565026da80f32af0312a0.jpg"},"extralarge":{"default":"https://cdn.freshful.ro/media/cache/sylius_shop_product_original/87/48/98fd297565026da80f32af0312a0.jpg"}},"label":{"text":"-20%","backgroundColor":"#FF9903","textColor":"#FFFFFF"},"tags":[],"isAvailable":true,"maxAvailableQuantity":19,"maxAllowedQuantity":100,"breadcrumbs":[{"code":"8","name":"Băcănie","slug":"8-ceva-sarat"},{"code":"805","name":"De ronțăit","slug":"805-aperitive-sarate"},{"code":"80503","name":"Semințe, alune și mixuri","slug":"80503-seminte-alune-si-fructe-uscate"},{"code":"100078654","name":"Fistic în coajă cu sare 200g","slug":"100078654-nutline-fistic-in-coaja-cu-sare-200g"}],"activePromotion":{"code":"targ-bere-snacks-mar23","name":"Preț redus","targetQuantity":null},"saveMe":null,"labels":[{"type":"v1","items":[{"text":"-20%","backgroundColor":"#FF9903","textColor":"#FFFFFF"}]}],"geniusPrice":null,"geniusUnitPricePerLabel":null,"banner":{"text":"Super preț","textColor":"#FF0000","bgColor":"#FFF2EC","icon":null,"link":"https://www.freshful.ro/oferte/targ-bere-snacks-mar23","type":"promo","analyticsEventType":"select_promotion","analyticsEventPayload":{"promotion_id":"targ-bere-snacks-mar23","promotion_name":"Bere și snackuri pentru toate gusturile"}},"discountLabel":"Economisești 20%","geniusDiscountLabel":null,"badge":null},{"code":"100078626","variantCode":"5941445666268","name":"Semințe floarea-soarelui albe ușor sărate 200g","slug":"100078626-nutline-seminte-floarea-soarelui-albe-usor-sarate-200g","unitPriceLabel":"64,5 Lei/kg","brand":"Nutline","brandCode":"240","brandFilterCode":"nutline-b241","sku":"100078626","price":12.9,"originalPrice":null,"currencyCode":"RON","currency":"Lei","image":{"thumbnail":{"default":"https://cdn.freshful.ro/media/cache/sylius_shop_product_thumbnail/92/0b/e3d36e4850991828b5dcf67dd576.jpg"},"large":{"default":"https://cdn.freshful.ro/media/cache/freshful_large/92/0b/e3d36e4850991828b5dcf67dd576.jpg"},"extralarge":{"default":"https://cdn.freshful.ro/media/cache/sylius_shop_product_original/92/0b/e3d36e4850991828b5dcf67dd576.jpg"}},"label":null,"tags":[],"isAvailable":true,"maxAvailableQuantity":100,"maxAllowedQuantity":100,"breadcrumbs":[{"code":"8","name":"Băcănie","slug":"8-ceva-sarat"},{"code":"805","name":"De ronțăit","slug":"805-aperitive-sarate"},{"code":"80503","name":"Semințe, alune și mixuri","slug":"80503-seminte-alune-si-fructe-uscate"},{"code":"100078626","name":"Semințe floarea-soarelui albe ușor sărate 200g","slug":"100078626-nutline-seminte-floarea-soarelui-albe-usor-sarate-200g"}],"activePromotion":null,"saveMe":null,"labels":[],"geniusPrice":null,"geniusUnitPricePerLabel":null,"banner":null,"discountLabel":null,"geniusDiscountLabel":null,"badge":null},{"code":"100078611","variantCode":"5941448003046","name":"Arahide în coajă roșie coapte cu sare 300g","slug":"100078611-nutline-arahide-in-coaja-rosie-coapte-cu-sare-300g","unitPriceLabel":"35 Lei/kg","brand":"Nutline","brandCode":"240","brandFilterCode":"nutline-b241","sku":"100078611","price":10.5,"originalPrice":null,"currencyCode":"RON","currency":"Lei","image":{"thumbnail":{"default":"https://cdn.freshful.ro/media/cache/sylius_shop_product_thumbnail/dd/5a/afc4628657fc11a7f94bac180a73.jpg"},"large":{"default":"https://cdn.freshful.ro/media/cache/freshful_large/dd/5a/afc4628657fc11a7f94bac180a73.jpg"},"extralarge":{"default":"https://cdn.freshful.ro/media/cache/sylius_shop_product_original/dd/5a/afc4628657fc11a7f94bac180a73.jpg"}},"label":null,"tags":[],"isAvailable":true,"maxAvailableQuantity":100,"maxAllowedQuantity":100,"breadcrumbs":[{"code":"8","name":"Băcănie","slug":"8-ceva-sarat"},{"code":"805","name":"De ronțăit","slug":"805-aperitive-sarate"},{"code":"80503","name":"Semințe, alune și mixuri","slug":"80503-seminte-alune-si-fructe-uscate"},{"code":"100078611","name":"Arahide în coajă roșie coapte cu sare 300g","slug":"100078611-nutline-arahide-in-coaja-rosie-coapte-cu-sare-300g"}],"activePromotion":null,"saveMe":null,"labels":[],"geniusPrice":null,"geniusUnitPricePerLabel":null,"banner":null,"discountLabel":null,"geniusDiscountLabel":null,"badge":null},{"code":"100078628","variantCode":"5941448003473","name":"Semințe floarea-soarelui pestrițe 300g","slug":"100078628-nutline-seminte-floarea-soarelui-pestrite-300g","unitPriceLabel":"30,63 Lei/kg","brand":"Nutline","brandCode":"240","brandFilterCode":"nutline-b241","sku":"100078628","price":9.19,"originalPrice":null,"currencyCode":"RON","currency":"Lei","image":{"thumbnail":{"default":"https://cdn.freshful.ro/media/cache/sylius_shop_product_thumbnail/ed/95/fb25b85da7cacd84250cb11b5d88.jpg"},"large":{"default":"https://cdn.freshful.ro/media/cache/freshful_large/ed/95/fb25b85da7cacd84250cb11b5d88.jpg"},"extralarge":{"default":"https://cdn.freshful.ro/media/cache/sylius_shop_product_original/ed/95/fb25b85da7cacd84250cb11b5d88.jpg"}},"label":null,"tags":[],"isAvailable":true,"maxAvailableQuantity":100,"maxAllowedQuantity":100,"breadcrumbs":[{"code":"8","name":"Băcănie","slug":"8-ceva-sarat"},{"code":"805","name":"De ronțăit","slug":"805-aperitive-sarate"},{"code":"80503","name":"Semințe, alune și mixuri","slug":"80503-seminte-alune-si-fructe-uscate"},{"code":"100078628","name":"Semințe floarea-soarelui pestrițe 300g","slug":"100078628-nutline-seminte-floarea-soarelui-pestrite-300g"}],"activePromotion":null,"saveMe":null,"labels":[],"geniusPrice":null,"geniusUnitPricePerLabel":null,"banner":null,"discountLabel":null,"geniusDiscountLabel":null,"badge":null},{"code":"100078613","variantCode":"5941445670210","name":"Alune extra rumenite 135g","slug":"100078613-nutline-alune-extra-rumenite-135g","unitPriceLabel":"59,19 Lei/kg","brand":"Nutline","brandCode":"240","brandFilterCode":"nutline-b241","sku":"100078613","price":7.99,"originalPrice":null,"currencyCode":"RON","currency":"Lei","image":{"thumbnail":{"default":"https://cdn.freshful.ro/media/cache/sylius_shop_product_thumbnail/5b/ae/7d3835aa24df92ae018896e18444.jpg"},"large":{"default":"https://cdn.freshful.ro/media/cache/freshful_large/5b/ae/7d3835aa24df92ae018896e18444.jpg"},"extralarge":{"default":"https://cdn.freshful.ro/media/cache/sylius_shop_product_original/5b/ae/7d3835aa24df92ae018896e18444.jpg"}},"label":null,"tags":[],"isAvailable":true,"maxAvailableQuantity":100,"maxAllowedQuantity":100,"breadcrumbs":[{"code":"8","name":"Băcănie","slug":"8-ceva-sarat"},{"code":"805","name":"De ronțăit","slug":"805-aperitive-sarate"},{"code":"80503","name":"Semințe, alune și mixuri","slug":"80503-seminte-alune-si-fructe-uscate"},{"code":"100078613","name":"Alune extra rumenite 135g","slug":"100078613-nutline-alune-extra-rumenite-135g"}],"activePromotion":null,"saveMe":null,"labels":[],"geniusPrice":null,"geniusUnitPricePerLabel":null,"banner":null,"discountLabel":null,"geniusDiscountLabel":null,"badge":null},{"code":"100078629","variantCode":"5941445670562","name":"Semințe floarea-soarelui negre 100g","slug":"100078629-nutline-seminte-floarea-soarelui-negre-100g","unitPriceLabel":"35,5 Lei/kg","brand":"Nutline","brandCode":"240","brandFilterCode":"nutline-b241","sku":"100078629","price":3.55,"originalPrice":null,"currencyCode":"RON","currency":"Lei","image":{"thumbnail":{"default":"https://cdn.freshful.ro/media/cache/sylius_shop_product_thumbnail/d1/05/6f8676633ac015589dc7b1c6af97.jpg"},"large":{"default":"https://cdn.freshful.ro/media/cache/freshful_large/d1/05/6f8676633ac015589dc7b1c6af97.jpg"},"extralarge":{"default":"https://cdn.freshful.ro/media/cache/sylius_shop_product_original/d1/05/6f8676633ac015589dc7b1c6af97.jpg"}},"label":null,"tags":[],"isAvailable":true,"maxAvailableQuantity":100,"maxAllowedQuantity":100,"breadcrumbs":[{"code":"8","name":"Băcănie","slug":"8-ceva-sarat"},{"code":"805","name":"De ronțăit","slug":"805-aperitive-sarate"},{"code":"80503","name":"Semințe, alune și mixuri","slug":"80503-seminte-alune-si-fructe-uscate"},{"code":"100078629","name":"Semințe floarea-soarelui negre 100g","slug":"100078629-nutline-seminte-floarea-soarelui-negre-100g"}],"activePromotion":null,"saveMe":null,"labels":[],"geniusPrice":null,"geniusUnitPricePerLabel":null,"banner":null,"discountLabel":null,"geniusDiscountLabel":null,"badge":null},{"code":"100139909","variantCode":"100139909","name":"Mix 4 semințe 150g","slug":"100139909-sanovita-mix-4-seminte-150g","unitPriceLabel":"34,6 Lei/kg","brand":"Sanovita","brandCode":"482","brandFilterCode":"sanovita-b483","sku":"100139909","price":5.19,"originalPrice":null,"currencyCode":"RON","currency":"Lei","image":{"thumbnail":{"default":"https://cdn.freshful.ro/media/cache/sylius_shop_product_thumbnail/64/47/b5e39190c681dbc05af734045413.jpg"},"large":{"default":"https://cdn.freshful.ro/media/cache/freshful_large/64/47/b5e39190c681dbc05af734045413.jpg"},"extralarge":{"default":"https://cdn.freshful.ro/media/cache/sylius_shop_product_original/64/47/b5e39190c681dbc05af734045413.jpg"}},"label":null,"tags":[],"isAvailable":true,"maxAvailableQuantity":74,"maxAllowedQuantity":100,"breadcrumbs":[{"code":"8","name":"Băcănie","slug":"8-ceva-sarat"},{"code":"805","name":"De ronțăit","slug":"805-aperitive-sarate"},{"code":"80503","name":"Semințe, alune și mixuri","slug":"80503-seminte-alune-si-fructe-uscate"},{"code":"100139909","name":"Mix 4 semințe 150g","slug":"100139909-sanovita-mix-4-seminte-150g"}],"activePromotion":null,"saveMe":null,"labels":[],"geniusPrice":null,"geniusUnitPricePerLabel":null,"banner":null,"discountLabel":null,"geniusDiscountLabel":null,"badge":null},{"code":"100139038","variantCode":"100139038","name":"Semințe negre XXL 80g","slug":"100139038-nutline-seminte-negre-xxl-80g","unitPriceLabel":"41,28 Lei/kg","brand":"Nutline","brandCode":"240","brandFilterCode":"nutline-b241","sku":"100139038","price":3.55,"originalPrice":null,"currencyCode":"RON","currency":"Lei","image":{"thumbnail":{"default":"https://cdn.freshful.ro/media/cache/sylius_shop_product_thumbnail/b2/df/6a0d73aebebd0c1f81055229e185.jpg"},"large":{"default":"https://cdn.freshful.ro/media/cache/freshful_large/b2/df/6a0d73aebebd0c1f81055229e185.jpg"},"extralarge":{"default":"https://cdn.freshful.ro/media/cache/sylius_shop_product_original/b2/df/6a0d73aebebd0c1f81055229e185.jpg"}},"label":null,"tags":[],"isAvailable":true,"maxAvailableQuantity":100,"maxAllowedQuantity":100,"breadcrumbs":[{"code":"8","name":"Băcănie","slug":"8-ceva-sarat"},{"code":"805","name":"De ronțăit","slug":"805-aperitive-sarate"},{"code":"80503","name":"Semințe, alune și mixuri","slug":"80503-seminte-alune-si-fructe-uscate"},{"code":"100139038","name":"Semințe negre XXL 80g","slug":"100139038-nutline-seminte-negre-xxl-80g"}],"activePromotion":null,"saveMe":null,"labels":[],"geniusPrice":null,"geniusUnitPricePerLabel":null,"banner":null,"discountLabel":null,"geniusDiscountLabel":null,"badge":null}],"filters":{"countSelected":0,"items":[{"code":"promotion","name":"Promoții","countSelected":0,"values":[{"code":"targ-bere-snacks-mar23","name":"Bere și snackuri pentru toate gusturile","isSelected":false,"count":2},{"code":"freshful-top-deals-2023","name":"Profită de Top Deals","isSelected":false,"count":1}]},{"code":"brand","name":"Brand","countSelected":0,"values":[{"code":"alka-b1804","name":"Alka","isSelected":false,"count":1},{"code":"beer-crunch-b1677","name":"Beer Crunch","isSelected":false,"count":3},{"code":"dr-ensa-b1100","name":"Dr.Ensa","isSelected":false,"count":2},{"code":"dr-snack-b1675","name":"Dr.Snack","isSelected":false,"count":6},{"code":"fantasy-dragee-b1676","name":"Fantasy Dragée","isSelected":false,"count":1},{"code":"gusto-b1253","name":"Gusto","isSelected":false,"count":1},{"code":"kaloudi-b503","name":"Kaloudi","isSelected":false,"count":3},{"code":"mogyi-b754","name":"Mogyi","isSelected":false,"count":22},{"code":"nutline-b241","name":"Nutline","isSelected":false,"count":43},{"code":"sanovita-b483","name":"Sanovita","isSelected":false,"count":6},{"code":"shehrazade-b2925","name":"Shehrazade","isSelected":false,"count":4},{"code":"snack-2-go-b1874","name":"Snack 2 Go","isSelected":false,"count":4},{"code":"sunset-nuts-b1036","name":"Sunset Nuts","isSelected":false,"count":15},{"code":"zanae-b504","name":"Zanae","isSelected":false,"count":4}]},{"code":"diet_lifestyle","name":"Dietă și lifestyle","countSelected":0,"values":[{"code":"fara-sare-a52","name":"Fara sare","isSelected":false,"count":5}]}]},"orderBy":[{"field":"price","direction":"asc","name":"Preț crescător","isSelected":false},{"field":"price","direction":"desc","name":"Preț descrescător","isSelected":false},{"field":"popularity","direction":"desc","name":"Cele mai populare","isSelected":true},{"field":"category","direction":"asc","name":"Categorie","isSelected":false}],"metaTitle":"Semințe, alune și mixuri - Gamă variată","metaDescription":"Vrei Semințe, alune și mixuri? Alege dintr-o gamă variată. Comanzi simplu și ai livrare rapidă, calitate și prospețime. Hai pe Freshful.ro","metaKeywords":null,"banners":[]}}