{"type":"subcategory","payload":{"analyticsListId":"category_80502-snacks-si-popcorn","analyticsListName":"Category - Snacks și popcorn","name":"Snacks și popcorn","slug":"80502-snacks-si-popcorn","image":null,"breadcrumbs":[{"code":"8","name":"Băcănie","slug":"8-ceva-sarat"},{"code":"805","name":"De ronțăit","slug":"805-aperitive-sarate"},{"code":"80502","name":"Snacks și popcorn","slug":"80502-snacks-si-popcorn"}],"slots":[],"page":1,"limit":10,"pages":22,"count":214,"siblings":[{"name":"Paste, orez și legume uscate","slug":"801-paste-orez-si-legume-uscate","selected":false},{"name":"Conserve","slug":"802-conserve","selected":false},{"name":"Condimente și sosuri","slug":"803-condimente-si-sosuri","selected":false},{"name":"Ulei și oțet","slug":"804-ulei-si-otet","selected":false},{"name":"De ronțăit","slug":"805-aperitive-sarate","selected":true},{"name":"Făină, zahăr și produse gourmet","slug":"faina-zahar-si-produse-gourmet","selected":false}],"children":[{"name":"Toate produsele","slug":"805-aperitive-sarate","selected":false},{"name":"Chipsuri","slug":"80501-chipsuri","selected":false},{"name":"Snacks și popcorn","slug":"80502-snacks-si-popcorn","selected":true},{"name":"Semințe, alune și mixuri","slug":"80503-seminte-alune-si-fructe-uscate","selected":false}],"products":[{"code":"100078639","variantCode":"100078639","name":"Mix de snackuri coapte 200g","slug":"100078639-chio-mix-de-snackuri-coapte-200g","unitPriceLabel":"39,95 Lei/kg","brand":"Chio","brandCode":"238","brandFilterCode":"chio-b239","sku":"100078639","price":7.99,"originalPrice":null,"currencyCode":"RON","currency":"Lei","image":{"thumbnail":{"default":"https://cdn.freshful.ro/media/cache/sylius_shop_product_thumbnail/65/27/6690380859eaa8b97e4056a52183.jpg"},"large":{"default":"https://cdn.freshful.ro/media/cache/freshful_large/65/27/6690380859eaa8b97e4056a52183.jpg"},"extralarge":{"default":"https://cdn.freshful.ro/media/cache/sylius_shop_product_original/65/27/6690380859eaa8b97e4056a52183.jpg"}},"label":{"text":"Profită acum","backgroundColor":"#FF9903","textColor":"#FFFFFF"},"tags":[],"isAvailable":true,"maxAvailableQuantity":86,"maxAllowedQuantity":100,"breadcrumbs":[{"code":"8","name":"Băcănie","slug":"8-ceva-sarat"},{"code":"805","name":"De ronțăit","slug":"805-aperitive-sarate"},{"code":"80502","name":"Snacks și popcorn","slug":"80502-snacks-si-popcorn"},{"code":"100078639","name":"Mix de snackuri coapte 200g","slug":"100078639-chio-mix-de-snackuri-coapte-200g"}],"activePromotion":{"code":"targ-bere-snacks-mar23","name":"Preț avantajos","targetQuantity":null},"saveMe":null,"labels":[{"type":"v1","items":[{"text":"Profită acum","backgroundColor":"#FF9903","textColor":"#FFFFFF"}]}],"geniusPrice":null,"geniusUnitPricePerLabel":null,"banner":{"text":"Preț avantajos","textColor":"#F95510","bgColor":"#FEF1CD","icon":null,"link":"https://www.freshful.ro/oferte/targ-bere-snacks-mar23","type":"promo","analyticsEventType":"select_promotion","analyticsEventPayload":{"promotion_id":"targ-bere-snacks-mar23","promotion_name":"Bere și snackuri pentru toate gusturile"}},"discountLabel":null,"geniusDiscountLabel":null,"badge":null},{"code":"100131165","variantCode":"100131165","name":"Sticksuri cu susan 250g","slug":"100131165-salatini-sticksuri-cu-susan-250g","unitPriceLabel":"16,76 Lei/kg","brand":"Salatini","brandCode":"460","brandFilterCode":"salatini-b461","sku":"100131165","price":4.19,"originalPrice":null,"currencyCode":"RON","currency":"Lei","image":{"thumbnail":{"default":"https://cdn.freshful.ro/media/cache/sylius_shop_product_thumbnail/e9/87/fbdaeb4c01f552bdd7f035d79a37.jpg"},"large":{"default":"https://cdn.freshful.ro/media/cache/freshful_large/e9/87/fbdaeb4c01f552bdd7f035d79a37.jpg"},"extralarge":{"default":"https://cdn.freshful.ro/media/cache/sylius_shop_product_original/e9/87/fbdaeb4c01f552bdd7f035d79a37.jpg"}},"label":{"text":"Profită acum","backgroundColor":"#FF9903","textColor":"#FFFFFF"},"tags":[],"isAvailable":true,"maxAvailableQuantity":38,"maxAllowedQuantity":100,"breadcrumbs":[{"code":"8","name":"Băcănie","slug":"8-ceva-sarat"},{"code":"805","name":"De ronțăit","slug":"805-aperitive-sarate"},{"code":"80502","name":"Snacks și popcorn","slug":"80502-snacks-si-popcorn"},{"code":"100131165","name":"Sticksuri cu susan 250g","slug":"100131165-salatini-sticksuri-cu-susan-250g"}],"activePromotion":{"code":"targ-bere-snacks-mar23","name":"Preț avantajos","targetQuantity":null},"saveMe":null,"labels":[{"type":"v1","items":[{"text":"Profită acum","backgroundColor":"#FF9903","textColor":"#FFFFFF"}]}],"geniusPrice":null,"geniusUnitPricePerLabel":null,"banner":{"text":"Preț avantajos","textColor":"#F95510","bgColor":"#FEF1CD","icon":null,"link":"https://www.freshful.ro/oferte/targ-bere-snacks-mar23","type":"promo","analyticsEventType":"select_promotion","analyticsEventPayload":{"promotion_id":"targ-bere-snacks-mar23","promotion_name":"Bere și snackuri pentru toate gusturile"}},"discountLabel":null,"geniusDiscountLabel":null,"badge":null},{"code":"100131178","variantCode":"100131178","name":"Covrigei cu sare 700g","slug":"100131178-salatini-covrigei-cu-sare-700g","unitPriceLabel":"15,7 Lei/kg","brand":"Salatini","brandCode":"460","brandFilterCode":"salatini-b461","sku":"100131178","price":10.99,"originalPrice":11.99,"currencyCode":"RON","currency":"Lei","image":{"thumbnail":{"default":"https://cdn.freshful.ro/media/cache/sylius_shop_product_thumbnail/80/db/e65d1b1cabd15dbe0258bbb2d134.jpg"},"large":{"default":"https://cdn.freshful.ro/media/cache/freshful_large/80/db/e65d1b1cabd15dbe0258bbb2d134.jpg"},"extralarge":{"default":"https://cdn.freshful.ro/media/cache/sylius_shop_product_original/80/db/e65d1b1cabd15dbe0258bbb2d134.jpg"}},"label":{"text":"-8%","backgroundColor":"#FF9903","textColor":"#FFFFFF"},"tags":[],"isAvailable":true,"maxAvailableQuantity":29,"maxAllowedQuantity":100,"breadcrumbs":[{"code":"8","name":"Băcănie","slug":"8-ceva-sarat"},{"code":"805","name":"De ronțăit","slug":"805-aperitive-sarate"},{"code":"80502","name":"Snacks și popcorn","slug":"80502-snacks-si-popcorn"},{"code":"100131178","name":"Covrigei cu sare 700g","slug":"100131178-salatini-covrigei-cu-sare-700g"}],"activePromotion":{"code":"special-produse-vegane-mar23","name":"Preț redus","targetQuantity":null},"saveMe":null,"labels":[{"type":"v1","items":[{"text":"-8%","backgroundColor":"#FF9903","textColor":"#FFFFFF"}]}],"geniusPrice":null,"geniusUnitPricePerLabel":null,"banner":{"text":"Super preț","textColor":"#FF0000","bgColor":"#FFF2EC","icon":null,"link":"https://www.freshful.ro/oferte/special-produse-vegane-mar23","type":"promo","analyticsEventType":"select_promotion","analyticsEventPayload":{"promotion_id":"special-produse-vegane-mar23","promotion_name":"Și bun, și de post"}},"discountLabel":"Economisești 8%","geniusDiscountLabel":null,"badge":null},{"code":"100131171","variantCode":"100131171","name":"Crackers mac 90g","slug":"100131171-salatini-crackers-mac-90g","unitPriceLabel":"22,11 Lei/kg","brand":"Salatini","brandCode":"460","brandFilterCode":"salatini-b461","sku":"100131171","price":1.99,"originalPrice":2.19,"currencyCode":"RON","currency":"Lei","image":{"thumbnail":{"default":"https://cdn.freshful.ro/media/cache/sylius_shop_product_thumbnail/bf/0c/d5d0582f1f4472654434906f88ed.jpg"},"large":{"default":"https://cdn.freshful.ro/media/cache/freshful_large/bf/0c/d5d0582f1f4472654434906f88ed.jpg"},"extralarge":{"default":"https://cdn.freshful.ro/media/cache/sylius_shop_product_original/bf/0c/d5d0582f1f4472654434906f88ed.jpg"}},"label":{"text":"-9%","backgroundColor":"#FF9903","textColor":"#FFFFFF"},"tags":[],"isAvailable":true,"maxAvailableQuantity":45,"maxAllowedQuantity":100,"breadcrumbs":[{"code":"8","name":"Băcănie","slug":"8-ceva-sarat"},{"code":"805","name":"De ronțăit","slug":"805-aperitive-sarate"},{"code":"80502","name":"Snacks și popcorn","slug":"80502-snacks-si-popcorn"},{"code":"100131171","name":"Crackers mac 90g","slug":"100131171-salatini-crackers-mac-90g"}],"activePromotion":{"code":"targ-bere-snacks-mar23","name":"Preț redus","targetQuantity":null},"saveMe":null,"labels":[{"type":"v1","items":[{"text":"-9%","backgroundColor":"#FF9903","textColor":"#FFFFFF"}]}],"geniusPrice":null,"geniusUnitPricePerLabel":null,"banner":{"text":"Super preț","textColor":"#FF0000","bgColor":"#FFF2EC","icon":null,"link":"https://www.freshful.ro/oferte/targ-bere-snacks-mar23","type":"promo","analyticsEventType":"select_promotion","analyticsEventPayload":{"promotion_id":"targ-bere-snacks-mar23","promotion_name":"Bere și snackuri pentru toate gusturile"}},"discountLabel":"Economisești 9%","geniusDiscountLabel":null,"badge":null},{"code":"100131163","variantCode":"100131163","name":"Sărățele cu pizza 110g","slug":"100131163-salatini-saratele-cu-pizza-110g","unitPriceLabel":"30,82 Lei/kg","brand":"Salatini","brandCode":"460","brandFilterCode":"salatini-b461","sku":"100131163","price":3.39,"originalPrice":null,"currencyCode":"RON","currency":"Lei","image":{"thumbnail":{"default":"https://cdn.freshful.ro/media/cache/sylius_shop_product_thumbnail/9f/de/aa1a84ff96b26fd7ccc08b224699.jpg"},"large":{"default":"https://cdn.freshful.ro/media/cache/freshful_large/9f/de/aa1a84ff96b26fd7ccc08b224699.jpg"},"extralarge":{"default":"https://cdn.freshful.ro/media/cache/sylius_shop_product_original/9f/de/aa1a84ff96b26fd7ccc08b224699.jpg"}},"label":{"text":"Profită acum","backgroundColor":"#FF9903","textColor":"#FFFFFF"},"tags":[],"isAvailable":true,"maxAvailableQuantity":94,"maxAllowedQuantity":100,"breadcrumbs":[{"code":"8","name":"Băcănie","slug":"8-ceva-sarat"},{"code":"805","name":"De ronțăit","slug":"805-aperitive-sarate"},{"code":"80502","name":"Snacks și popcorn","slug":"80502-snacks-si-popcorn"},{"code":"100131163","name":"Sărățele cu pizza 110g","slug":"100131163-salatini-saratele-cu-pizza-110g"}],"activePromotion":{"code":"targ-bere-snacks-mar23","name":"Preț avantajos","targetQuantity":null},"saveMe":null,"labels":[{"type":"v1","items":[{"text":"Profită acum","backgroundColor":"#FF9903","textColor":"#FFFFFF"}]}],"geniusPrice":null,"geniusUnitPricePerLabel":null,"banner":{"text":"Preț avantajos","textColor":"#F95510","bgColor":"#FEF1CD","icon":null,"link":"https://www.freshful.ro/oferte/targ-bere-snacks-mar23","type":"promo","analyticsEventType":"select_promotion","analyticsEventPayload":{"promotion_id":"targ-bere-snacks-mar23","promotion_name":"Bere și snackuri pentru toate gusturile"}},"discountLabel":null,"geniusDiscountLabel":null,"badge":null},{"code":"100131169","variantCode":"100131169","name":"Biscuiți Football 90g","slug":"100131169-salatini-biscuiti-football-90g","unitPriceLabel":"22,11 Lei/kg","brand":"Salatini","brandCode":"460","brandFilterCode":"salatini-b461","sku":"100131169","price":1.99,"originalPrice":2.19,"currencyCode":"RON","currency":"Lei","image":{"thumbnail":{"default":"https://cdn.freshful.ro/media/cache/sylius_shop_product_thumbnail/81/9c/56a1464494c825366c4398efbb7a.jpg"},"large":{"default":"https://cdn.freshful.ro/media/cache/freshful_large/81/9c/56a1464494c825366c4398efbb7a.jpg"},"extralarge":{"default":"https://cdn.freshful.ro/media/cache/sylius_shop_product_original/81/9c/56a1464494c825366c4398efbb7a.jpg"}},"label":{"text":"-9%","backgroundColor":"#FF9903","textColor":"#FFFFFF"},"tags":[],"isAvailable":true,"maxAvailableQuantity":26,"maxAllowedQuantity":100,"breadcrumbs":[{"code":"8","name":"Băcănie","slug":"8-ceva-sarat"},{"code":"805","name":"De ronțăit","slug":"805-aperitive-sarate"},{"code":"80502","name":"Snacks și popcorn","slug":"80502-snacks-si-popcorn"},{"code":"100131169","name":"Biscuiți Football 90g","slug":"100131169-salatini-biscuiti-football-90g"}],"activePromotion":{"code":"targ-bere-snacks-mar23","name":"Preț redus","targetQuantity":null},"saveMe":null,"labels":[{"type":"v1","items":[{"text":"-9%","backgroundColor":"#FF9903","textColor":"#FFFFFF"}]}],"geniusPrice":null,"geniusUnitPricePerLabel":null,"banner":{"text":"Super preț","textColor":"#FF0000","bgColor":"#FFF2EC","icon":null,"link":"https://www.freshful.ro/oferte/targ-bere-snacks-mar23","type":"promo","analyticsEventType":"select_promotion","analyticsEventPayload":{"promotion_id":"targ-bere-snacks-mar23","promotion_name":"Bere și snackuri pentru toate gusturile"}},"discountLabel":"Economisești 9%","geniusDiscountLabel":null,"badge":null},{"code":"100131170","variantCode":"100131170","name":"Crackers cașcaval 90g","slug":"100131170-salatini-crackers-cascaval-90g","unitPriceLabel":"22,11 Lei/kg","brand":"Salatini","brandCode":"460","brandFilterCode":"salatini-b461","sku":"100131170","price":1.99,"originalPrice":2.19,"currencyCode":"RON","currency":"Lei","image":{"thumbnail":{"default":"https://cdn.freshful.ro/media/cache/sylius_shop_product_thumbnail/ea/a4/cd708036987694ab827571536272.jpg"},"large":{"default":"https://cdn.freshful.ro/media/cache/freshful_large/ea/a4/cd708036987694ab827571536272.jpg"},"extralarge":{"default":"https://cdn.freshful.ro/media/cache/sylius_shop_product_original/ea/a4/cd708036987694ab827571536272.jpg"}},"label":{"text":"-9%","backgroundColor":"#FF9903","textColor":"#FFFFFF"},"tags":[],"isAvailable":true,"maxAvailableQuantity":52,"maxAllowedQuantity":100,"breadcrumbs":[{"code":"8","name":"Băcănie","slug":"8-ceva-sarat"},{"code":"805","name":"De ronțăit","slug":"805-aperitive-sarate"},{"code":"80502","name":"Snacks și popcorn","slug":"80502-snacks-si-popcorn"},{"code":"100131170","name":"Crackers cașcaval 90g","slug":"100131170-salatini-crackers-cascaval-90g"}],"activePromotion":{"code":"targ-bere-snacks-mar23","name":"Preț redus","targetQuantity":null},"saveMe":null,"labels":[{"type":"v1","items":[{"text":"-9%","backgroundColor":"#FF9903","textColor":"#FFFFFF"}]}],"geniusPrice":null,"geniusUnitPricePerLabel":null,"banner":{"text":"Super preț","textColor":"#FF0000","bgColor":"#FFF2EC","icon":null,"link":"https://www.freshful.ro/oferte/targ-bere-snacks-mar23","type":"promo","analyticsEventType":"select_promotion","analyticsEventPayload":{"promotion_id":"targ-bere-snacks-mar23","promotion_name":"Bere și snackuri pentru toate gusturile"}},"discountLabel":"Economisești 9%","geniusDiscountLabel":null,"badge":null},{"code":"100070425","variantCode":"100070425","name":"Pufuleți cu sare 85g","slug":"100070425-gusto-pufuleti-cu-sare-85g","unitPriceLabel":"17,53 Lei/kg","brand":"Gusto","brandCode":"1314","brandFilterCode":"gusto-b1253","sku":"100070425","price":1.49,"originalPrice":null,"currencyCode":"RON","currency":"Lei","image":{"thumbnail":{"default":"https://cdn.freshful.ro/media/cache/sylius_shop_product_thumbnail/e8/46/f3976271282e5c22d822d634c919.jpg"},"large":{"default":"https://cdn.freshful.ro/media/cache/freshful_large/e8/46/f3976271282e5c22d822d634c919.jpg"},"extralarge":{"default":"https://cdn.freshful.ro/media/cache/sylius_shop_product_original/e8/46/f3976271282e5c22d822d634c919.jpg"}},"label":null,"tags":[],"isAvailable":true,"maxAvailableQuantity":100,"maxAllowedQuantity":100,"breadcrumbs":[{"code":"8","name":"Băcănie","slug":"8-ceva-sarat"},{"code":"805","name":"De ronțăit","slug":"805-aperitive-sarate"},{"code":"80502","name":"Snacks și popcorn","slug":"80502-snacks-si-popcorn"},{"code":"100070425","name":"Pufuleți cu sare 85g","slug":"100070425-gusto-pufuleti-cu-sare-85g"}],"activePromotion":null,"saveMe":null,"labels":[],"geniusPrice":null,"geniusUnitPricePerLabel":null,"banner":null,"discountLabel":null,"geniusDiscountLabel":null,"badge":null},{"code":"100078599","variantCode":"3577060130017","name":"Popcorn cu sare pentru cuptorul cu microunde 80g","slug":"100078599-chio-popcorn-cu-sare-pentru-cuptorul-cu-microunde-80g","unitPriceLabel":"40,25 Lei/kg","brand":"Chio","brandCode":"238","brandFilterCode":"chio-b239","sku":"100078599","price":3.22,"originalPrice":null,"currencyCode":"RON","currency":"Lei","image":{"thumbnail":{"default":"https://cdn.freshful.ro/media/cache/sylius_shop_product_thumbnail/67/a6/f78d9c682342f82677cf5e8e6a2b.jpg"},"large":{"default":"https://cdn.freshful.ro/media/cache/freshful_large/67/a6/f78d9c682342f82677cf5e8e6a2b.jpg"},"extralarge":{"default":"https://cdn.freshful.ro/media/cache/sylius_shop_product_original/67/a6/f78d9c682342f82677cf5e8e6a2b.jpg"}},"label":null,"tags":[],"isAvailable":true,"maxAvailableQuantity":100,"maxAllowedQuantity":100,"breadcrumbs":[{"code":"8","name":"Băcănie","slug":"8-ceva-sarat"},{"code":"805","name":"De ronțăit","slug":"805-aperitive-sarate"},{"code":"80502","name":"Snacks și popcorn","slug":"80502-snacks-si-popcorn"},{"code":"100078599","name":"Popcorn cu sare pentru cuptorul cu microunde 80g","slug":"100078599-chio-popcorn-cu-sare-pentru-cuptorul-cu-microunde-80g"}],"activePromotion":null,"saveMe":null,"labels":[],"geniusPrice":null,"geniusUnitPricePerLabel":null,"banner":null,"discountLabel":null,"geniusDiscountLabel":null,"badge":null},{"code":"100078600","variantCode":"100078600","name":"Popcorn unt microunde 80g","slug":"100078600-chio-popcorn-unt-microunde-80g","unitPriceLabel":"40,25 Lei/kg","brand":"Chio","brandCode":"238","brandFilterCode":"chio-b239","sku":"100078600","price":3.22,"originalPrice":null,"currencyCode":"RON","currency":"Lei","image":{"thumbnail":{"default":"https://cdn.freshful.ro/media/cache/sylius_shop_product_thumbnail/6d/8f/38c9aa6fdb241dc6ff8970193e29.jpg"},"large":{"default":"https://cdn.freshful.ro/media/cache/freshful_large/6d/8f/38c9aa6fdb241dc6ff8970193e29.jpg"},"extralarge":{"default":"https://cdn.freshful.ro/media/cache/sylius_shop_product_original/6d/8f/38c9aa6fdb241dc6ff8970193e29.jpg"}},"label":null,"tags":[],"isAvailable":true,"maxAvailableQuantity":100,"maxAllowedQuantity":100,"breadcrumbs":[{"code":"8","name":"Băcănie","slug":"8-ceva-sarat"},{"code":"805","name":"De ronțăit","slug":"805-aperitive-sarate"},{"code":"80502","name":"Snacks și popcorn","slug":"80502-snacks-si-popcorn"},{"code":"100078600","name":"Popcorn unt microunde 80g","slug":"100078600-chio-popcorn-unt-microunde-80g"}],"activePromotion":null,"saveMe":null,"labels":[],"geniusPrice":null,"geniusUnitPricePerLabel":null,"banner":null,"discountLabel":null,"geniusDiscountLabel":null,"badge":null}],"filters":{"countSelected":0,"items":[{"code":"promotion","name":"Promoții","countSelected":0,"values":[{"code":"targ-bere-snacks-mar23","name":"Bere și snackuri pentru toate gusturile","isSelected":false,"count":6},{"code":"special-produse-vegane-mar23","name":"Și bun, și de post","isSelected":false,"count":1}]},{"code":"brand","name":"Brand","countSelected":0,"values":[{"code":"5-to-go-b2826","name":"5 To Go","isSelected":false,"count":1},{"code":"7days-b1259","name":"7Days","isSelected":false,"count":3},{"code":"beer-crunch-b1677","name":"Beer Crunch","isSelected":false,"count":1},{"code":"cheetos-b2724","name":"Cheetos","isSelected":false,"count":3},{"code":"chio-b239","name":"Chio","isSelected":false,"count":24},{"code":"cizi-b960","name":"Cizi","isSelected":false,"count":1},{"code":"clip-b959","name":"Clip","isSelected":false,"count":3},{"code":"colussi-b1497","name":"Colussi","isSelected":false,"count":4},{"code":"covrigei-italienesti-b1794","name":"Covrigei Italienești","isSelected":false,"count":4},{"code":"crax-b1708","name":"Crax","isSelected":false,"count":2},{"code":"croco-b1177","name":"Croco","isSelected":false,"count":25},{"code":"csiki-csipsz-b3090","name":"Csíki Csipsz","isSelected":false,"count":7},{"code":"deroni-b1467","name":"Deroni","isSelected":false,"count":2},{"code":"digesta-b230","name":"Digesta","isSelected":false,"count":3},{"code":"dr-snack-b1675","name":"Dr.Snack","isSelected":false,"count":1},{"code":"finn-crisp-b2270","name":"Finn Crisp","isSelected":false,"count":7},{"code":"gusto-b1253","name":"Gusto","isSelected":false,"count":18},{"code":"kubeti-b1865","name":"Kubeti","isSelected":false,"count":9},{"code":"la-mole-b1614","name":"La Mole","isSelected":false,"count":4},{"code":"maretti-b1864","name":"Maretti","isSelected":false,"count":6},{"code":"mcvitie-s-b954","name":"McVitie's","isSelected":false,"count":5},{"code":"meteoritzi-b1806","name":"Meteoritzi","isSelected":false,"count":2},{"code":"misura-b1496","name":"Misura","isSelected":false,"count":1},{"code":"mogyi-b754","name":"Mogyi","isSelected":false,"count":10},{"code":"monte-banato-b1495","name":"Monte Banato","isSelected":false,"count":5},{"code":"mr-stix-b1866","name":"Mr. Stix","isSelected":false,"count":4},{"code":"nutline-b241","name":"Nutline","isSelected":false,"count":3},{"code":"pom-bar-b240","name":"Pom-Bär","isSelected":false,"count":8},{"code":"roland-b1634","name":"Roland","isSelected":false,"count":2},{"code":"salatini-b461","name":"Salatini","isSelected":false,"count":18},{"code":"sanovita-b483","name":"Sanovita","isSelected":false,"count":3},{"code":"soocitzi-b1805","name":"Soocitzi","isSelected":false,"count":3},{"code":"star-b1256","name":"Star","isSelected":false,"count":10},{"code":"sunset-nuts-b1036","name":"Sunset Nuts","isSelected":false,"count":1},{"code":"toortitzi-b1800","name":"Toortitzi","isSelected":false,"count":7},{"code":"tuc-b1884","name":"Tuc","isSelected":false,"count":2},{"code":"werther-s-b876","name":"Werther's","isSelected":false,"count":2}]},{"code":"diet_lifestyle","name":"Dietă și lifestyle","countSelected":0,"values":[{"code":"fara-conservanti-a37","name":"Fara conservanti","isSelected":false,"count":7},{"code":"fara-gluten-a16","name":"Fara gluten","isSelected":false,"count":9},{"code":"fara-lactoza-a38","name":"Fara lactoza","isSelected":false,"count":2},{"code":"vegan-a24","name":"Vegan","isSelected":false,"count":4},{"code":"vegetarian-a28","name":"Vegetarian","isSelected":false,"count":10}]}]},"orderBy":[{"field":"price","direction":"asc","name":"Preț crescător","isSelected":false},{"field":"price","direction":"desc","name":"Preț descrescător","isSelected":false},{"field":"popularity","direction":"desc","name":"Cele mai populare","isSelected":true},{"field":"category","direction":"asc","name":"Categorie","isSelected":false}],"metaTitle":"Snacks și popcorn - Gamă variată","metaDescription":"Vrei Snacks și popcorn? Alege dintr-o gamă variată. Comanzi simplu și ai livrare rapidă, calitate și prospețime. Hai pe Freshful.ro","metaKeywords":null,"banners":[]}}