{"type":"subcategory","payload":{"analyticsListId":"category_902-biscuiti-napolitane-si-prajituri","analyticsListName":"Category - Biscuiți, napolitane și prăjituri","name":"Biscuiți, napolitane și prăjituri","slug":"902-biscuiti-napolitane-si-prajituri","image":null,"breadcrumbs":[{"code":"9","name":"Dulciuri & mic dejun","slug":"9-ceva-dulce"},{"code":"902","name":"Biscuiți, napolitane și prăjituri","slug":"902-biscuiti-napolitane-si-prajituri"}],"slots":[],"page":1,"limit":10,"pages":34,"count":336,"siblings":[{"name":"Biscuiți, napolitane și prăjituri","slug":"902-biscuiti-napolitane-si-prajituri","selected":true},{"name":"Cereale și mic dejun","slug":"903-cereale-si-mic-dejun","selected":false},{"name":"Cafea și ceai","slug":"904-cafea-si-ceai","selected":false},{"name":"Bomboane și ciocolată","slug":"905-bomboane-si-ciocolata","selected":false}],"children":[{"name":"Toate produsele","slug":"902-biscuiti-napolitane-si-prajituri","selected":true},{"name":"Biscuiți simpli","slug":"90201-biscuiti-simpli","selected":false},{"name":"Biscuiți cu cremă","slug":"90202-biscuiti-cu-crema","selected":false},{"name":"Napolitane și turtă dulce","slug":"90203-napolitane-si-turta-dulce","selected":false},{"name":"Croissant, brioșe, checuri și cozonaci","slug":"90204-croissant-briose-checuri-si-cozonaci","selected":false},{"name":"Pișcoturi și fursecuri","slug":"90205-piscoturi-si-fursecuri","selected":false},{"name":"Nuga, halva și rahat","slug":"90206-nuga-halva-si-rahat","selected":false},{"name":"Prăjituri, rulade și madlene","slug":"90207-prajituri-rulada-si-madlene","selected":false}],"products":[{"code":"100143809","variantCode":"100143809","name":"Napolitană acoperită cu ciocolată cu lapte si cremă de alune 50g","slug":"100143809-dare-napolitana-acoperita-cu-ciocolata-cu-lapte-si-crema-de-alune-50g","unitPriceLabel":"49,8 Lei/kg","brand":"Dare","brandCode":"162","brandFilterCode":"dare-b163","sku":"100143809","price":2.49,"originalPrice":null,"currencyCode":"RON","currency":"Lei","image":{"thumbnail":{"default":"https://cdn.freshful.ro/media/cache/sylius_shop_product_thumbnail/b6/3a/b05def2c1e6681c9ec64645810cc.jpg"},"large":{"default":"https://cdn.freshful.ro/media/cache/freshful_large/b6/3a/b05def2c1e6681c9ec64645810cc.jpg"},"extralarge":{"default":"https://cdn.freshful.ro/media/cache/sylius_shop_product_original/b6/3a/b05def2c1e6681c9ec64645810cc.jpg"}},"label":null,"tags":[],"isAvailable":true,"maxAvailableQuantity":100,"maxAllowedQuantity":100,"breadcrumbs":[{"code":"9","name":"Dulciuri & mic dejun","slug":"9-ceva-dulce"},{"code":"902","name":"Biscuiți, napolitane și prăjituri","slug":"902-biscuiti-napolitane-si-prajituri"},{"code":"90203","name":"Napolitane și turtă dulce","slug":"90203-napolitane-si-turta-dulce"},{"code":"100143809","name":"Napolitană acoperită cu ciocolată cu lapte si cremă de alune 50g","slug":"100143809-dare-napolitana-acoperita-cu-ciocolata-cu-lapte-si-crema-de-alune-50g"}],"activePromotion":null,"saveMe":null,"labels":[],"geniusPrice":null,"geniusUnitPricePerLabel":null,"banner":null,"discountLabel":null,"geniusDiscountLabel":null,"badge":null},{"code":"100122919","variantCode":"100122919","name":"Specialitate cu umplutură de lapte și de cacao Cards 128g","slug":"100122919-kinder-specialitate-cu-umplutura-de-lapte-si-de-cacao-cards-128g","unitPriceLabel":"9,49 Lei/buc","brand":"Kinder","brandCode":"19","brandFilterCode":"kinder-b11","sku":"100122919","price":9.49,"originalPrice":null,"currencyCode":"RON","currency":"Lei","image":{"thumbnail":{"default":"https://cdn.freshful.ro/media/cache/sylius_shop_product_thumbnail/c7/7c/3eb434c14dc66df25986fdb340e4.jpg"},"large":{"default":"https://cdn.freshful.ro/media/cache/freshful_large/c7/7c/3eb434c14dc66df25986fdb340e4.jpg"},"extralarge":{"default":"https://cdn.freshful.ro/media/cache/sylius_shop_product_original/c7/7c/3eb434c14dc66df25986fdb340e4.jpg"}},"label":null,"tags":[],"isAvailable":true,"maxAvailableQuantity":100,"maxAllowedQuantity":100,"breadcrumbs":[{"code":"9","name":"Dulciuri & mic dejun","slug":"9-ceva-dulce"},{"code":"902","name":"Biscuiți, napolitane și prăjituri","slug":"902-biscuiti-napolitane-si-prajituri"},{"code":"90202","name":"Biscuiți cu cremă","slug":"90202-biscuiti-cu-crema"},{"code":"100122919","name":"Specialitate cu umplutură de lapte și de cacao Cards 128g","slug":"100122919-kinder-specialitate-cu-umplutura-de-lapte-si-de-cacao-cards-128g"}],"activePromotion":null,"saveMe":null,"labels":[],"geniusPrice":null,"geniusUnitPricePerLabel":null,"banner":null,"discountLabel":null,"geniusDiscountLabel":null,"badge":null},{"code":"100065659","variantCode":"100065659","name":"Biscuiți cu bezea glazurați cu ciocolată cu lapte 30g","slug":"100065659-halley-biscuiti-cu-bezea-glazurati-cu-ciocolata-cu-lapte-30g","unitPriceLabel":"55 Lei/kg","brand":"Halley","brandCode":"1007","brandFilterCode":"halley-b957","sku":"100065659","price":1.65,"originalPrice":null,"currencyCode":"RON","currency":"Lei","image":{"thumbnail":{"default":"https://cdn.freshful.ro/media/cache/sylius_shop_product_thumbnail/1a/47/2967903b6c72feebd7bd1dc5f53d.jpg"},"large":{"default":"https://cdn.freshful.ro/media/cache/freshful_large/1a/47/2967903b6c72feebd7bd1dc5f53d.jpg"},"extralarge":{"default":"https://cdn.freshful.ro/media/cache/sylius_shop_product_original/1a/47/2967903b6c72feebd7bd1dc5f53d.jpg"}},"label":null,"tags":[],"isAvailable":true,"maxAvailableQuantity":100,"maxAllowedQuantity":100,"breadcrumbs":[{"code":"9","name":"Dulciuri & mic dejun","slug":"9-ceva-dulce"},{"code":"902","name":"Biscuiți, napolitane și prăjituri","slug":"902-biscuiti-napolitane-si-prajituri"},{"code":"90202","name":"Biscuiți cu cremă","slug":"90202-biscuiti-cu-crema"},{"code":"100065659","name":"Biscuiți cu bezea glazurați cu ciocolată cu lapte 30g","slug":"100065659-halley-biscuiti-cu-bezea-glazurati-cu-ciocolata-cu-lapte-30g"}],"activePromotion":null,"saveMe":null,"labels":[],"geniusPrice":null,"geniusUnitPricePerLabel":null,"banner":null,"discountLabel":null,"geniusDiscountLabel":null,"badge":null},{"code":"100064975","variantCode":"100064975","name":"Biscuiți cu multă cremă de cacao Original Familial 360g (10x36g)","slug":"100064975-eugenia-biscuiti-cu-multa-crema-de-cacao-original-familial-360g-10x36g","unitPriceLabel":"34,03 Lei/kg","brand":"Eugenia","brandCode":"231","brandFilterCode":"eugenia-b232","sku":"100064975","price":12.25,"originalPrice":null,"currencyCode":"RON","currency":"Lei","image":{"thumbnail":{"default":"https://cdn.freshful.ro/media/cache/sylius_shop_product_thumbnail/b6/dc/738ea4a1295bd9e5697c563fb62a.jpg"},"large":{"default":"https://cdn.freshful.ro/media/cache/freshful_large/b6/dc/738ea4a1295bd9e5697c563fb62a.jpg"},"extralarge":{"default":"https://cdn.freshful.ro/media/cache/sylius_shop_product_original/b6/dc/738ea4a1295bd9e5697c563fb62a.jpg"}},"label":null,"tags":[],"isAvailable":true,"maxAvailableQuantity":98,"maxAllowedQuantity":100,"breadcrumbs":[{"code":"9","name":"Dulciuri & mic dejun","slug":"9-ceva-dulce"},{"code":"902","name":"Biscuiți, napolitane și prăjituri","slug":"902-biscuiti-napolitane-si-prajituri"},{"code":"90202","name":"Biscuiți cu cremă","slug":"90202-biscuiti-cu-crema"},{"code":"100064975","name":"Biscuiți cu multă cremă de cacao Original Familial 360g (10x36g)","slug":"100064975-eugenia-biscuiti-cu-multa-crema-de-cacao-original-familial-360g-10x36g"}],"activePromotion":null,"saveMe":null,"labels":[],"geniusPrice":null,"geniusUnitPricePerLabel":null,"banner":null,"discountLabel":null,"geniusDiscountLabel":null,"badge":null},{"code":"100058670","variantCode":"100058670","name":"Napolitane crocante cu cremă de lapte și nuga 3x25g","slug":"100058670-knoppers-napolitane-crocante-cu-crema-de-lapte-si-nuga-3x25g","unitPriceLabel":"83,87 Lei/kg","brand":"Knoppers","brandCode":"876","brandFilterCode":"knoppers-b877","sku":"100058670","price":6.29,"originalPrice":null,"currencyCode":"RON","currency":"Lei","image":{"thumbnail":{"default":"https://cdn.freshful.ro/media/cache/sylius_shop_product_thumbnail/b6/df/0558cc14aaa67e2f0f9f76c4882d.jpg"},"large":{"default":"https://cdn.freshful.ro/media/cache/freshful_large/b6/df/0558cc14aaa67e2f0f9f76c4882d.jpg"},"extralarge":{"default":"https://cdn.freshful.ro/media/cache/sylius_shop_product_original/b6/df/0558cc14aaa67e2f0f9f76c4882d.jpg"}},"label":null,"tags":[],"isAvailable":true,"maxAvailableQuantity":100,"maxAllowedQuantity":100,"breadcrumbs":[{"code":"9","name":"Dulciuri & mic dejun","slug":"9-ceva-dulce"},{"code":"902","name":"Biscuiți, napolitane și prăjituri","slug":"902-biscuiti-napolitane-si-prajituri"},{"code":"90203","name":"Napolitane și turtă dulce","slug":"90203-napolitane-si-turta-dulce"},{"code":"100058670","name":"Napolitane crocante cu cremă de lapte și nuga 3x25g","slug":"100058670-knoppers-napolitane-crocante-cu-crema-de-lapte-si-nuga-3x25g"}],"activePromotion":null,"saveMe":null,"labels":[],"geniusPrice":null,"geniusUnitPricePerLabel":null,"banner":null,"discountLabel":null,"geniusDiscountLabel":null,"badge":null},{"code":"100038460","variantCode":"8690526065700","name":"Napolitană cu ciocolată neagră 50g","slug":"100038460-dare-napolitana-cu-ciocolata-neagra-50g","unitPriceLabel":"41 Lei/kg","brand":"Dare","brandCode":"162","brandFilterCode":"dare-b163","sku":"100038460","price":2.05,"originalPrice":null,"currencyCode":"RON","currency":"Lei","image":{"thumbnail":{"default":"https://cdn.freshful.ro/media/cache/sylius_shop_product_thumbnail/88/c8/7f4ac8050fc30bca104b7c63d624.jpg"},"large":{"default":"https://cdn.freshful.ro/media/cache/freshful_large/88/c8/7f4ac8050fc30bca104b7c63d624.jpg"},"extralarge":{"default":"https://cdn.freshful.ro/media/cache/sylius_shop_product_original/88/c8/7f4ac8050fc30bca104b7c63d624.jpg"}},"label":null,"tags":[],"isAvailable":true,"maxAvailableQuantity":100,"maxAllowedQuantity":100,"breadcrumbs":[{"code":"9","name":"Dulciuri & mic dejun","slug":"9-ceva-dulce"},{"code":"902","name":"Biscuiți, napolitane și prăjituri","slug":"902-biscuiti-napolitane-si-prajituri"},{"code":"90203","name":"Napolitane și turtă dulce","slug":"90203-napolitane-si-turta-dulce"},{"code":"100038460","name":"Napolitană cu ciocolată neagră 50g","slug":"100038460-dare-napolitana-cu-ciocolata-neagra-50g"}],"activePromotion":null,"saveMe":null,"labels":[],"geniusPrice":null,"geniusUnitPricePerLabel":null,"banner":null,"discountLabel":null,"geniusDiscountLabel":null,"badge":null},{"code":"100140819","variantCode":"100140819","name":"Biscuiți Petit Beurre lapte 450g","slug":"100140819-petit-beurre-biscuiti-petit-beurre-lapte-450g","unitPriceLabel":"26,64 Lei/kg","brand":"Petit Beurre","brandCode":"1008","brandFilterCode":"petit-beurre-b958","sku":"100140819","price":11.99,"originalPrice":null,"currencyCode":"RON","currency":"Lei","image":{"thumbnail":{"default":"https://cdn.freshful.ro/media/cache/sylius_shop_product_thumbnail/fe/65/9200142ae40a4933004dbf7ce030.jpg"},"large":{"default":"https://cdn.freshful.ro/media/cache/freshful_large/fe/65/9200142ae40a4933004dbf7ce030.jpg"},"extralarge":{"default":"https://cdn.freshful.ro/media/cache/sylius_shop_product_original/fe/65/9200142ae40a4933004dbf7ce030.jpg"}},"label":null,"tags":[],"isAvailable":true,"maxAvailableQuantity":100,"maxAllowedQuantity":100,"breadcrumbs":[{"code":"9","name":"Dulciuri & mic dejun","slug":"9-ceva-dulce"},{"code":"902","name":"Biscuiți, napolitane și prăjituri","slug":"902-biscuiti-napolitane-si-prajituri"},{"code":"90201","name":"Biscuiți simpli","slug":"90201-biscuiti-simpli"},{"code":"100140819","name":"Biscuiți Petit Beurre lapte 450g","slug":"100140819-petit-beurre-biscuiti-petit-beurre-lapte-450g"}],"activePromotion":null,"saveMe":null,"labels":[],"geniusPrice":null,"geniusUnitPricePerLabel":null,"banner":null,"discountLabel":null,"geniusDiscountLabel":null,"badge":null},{"code":"100058689","variantCode":"100058689","name":"Biscuiți cu unt 200g","slug":"100058689-leibniz-biscuiti-cu-unt-200g","unitPriceLabel":"46,45 Lei/kg","brand":"Leibniz","brandCode":"878","brandFilterCode":"leibniz-b879","sku":"100058689","price":9.29,"originalPrice":null,"currencyCode":"RON","currency":"Lei","image":{"thumbnail":{"default":"https://cdn.freshful.ro/media/cache/sylius_shop_product_thumbnail/cf/2c/b98d47442684dec7bc9186c2fb68.jpg"},"large":{"default":"https://cdn.freshful.ro/media/cache/freshful_large/cf/2c/b98d47442684dec7bc9186c2fb68.jpg"},"extralarge":{"default":"https://cdn.freshful.ro/media/cache/sylius_shop_product_original/cf/2c/b98d47442684dec7bc9186c2fb68.jpg"}},"label":null,"tags":[],"isAvailable":true,"maxAvailableQuantity":100,"maxAllowedQuantity":100,"breadcrumbs":[{"code":"9","name":"Dulciuri & mic dejun","slug":"9-ceva-dulce"},{"code":"902","name":"Biscuiți, napolitane și prăjituri","slug":"902-biscuiti-napolitane-si-prajituri"},{"code":"90201","name":"Biscuiți simpli","slug":"90201-biscuiti-simpli"},{"code":"100058689","name":"Biscuiți cu unt 200g","slug":"100058689-leibniz-biscuiti-cu-unt-200g"}],"activePromotion":null,"saveMe":null,"labels":[],"geniusPrice":null,"geniusUnitPricePerLabel":null,"banner":null,"discountLabel":null,"geniusDiscountLabel":null,"badge":null},{"code":"100058697","variantCode":"100058697","name":"Biscuiți cu cremă de ciocolată Keks'n Cream 190g","slug":"100058697-leibniz-biscuiti-cu-crema-de-ciocolata-keks-n-cream-190g","unitPriceLabel":"68,37 Lei/kg","brand":"Leibniz","brandCode":"878","brandFilterCode":"leibniz-b879","sku":"100058697","price":12.99,"originalPrice":null,"currencyCode":"RON","currency":"Lei","image":{"thumbnail":{"default":"https://cdn.freshful.ro/media/cache/sylius_shop_product_thumbnail/9f/a7/9a6024d17dc04e16a06931ea3f25.jpg"},"large":{"default":"https://cdn.freshful.ro/media/cache/freshful_large/9f/a7/9a6024d17dc04e16a06931ea3f25.jpg"},"extralarge":{"default":"https://cdn.freshful.ro/media/cache/sylius_shop_product_original/9f/a7/9a6024d17dc04e16a06931ea3f25.jpg"}},"label":null,"tags":[],"isAvailable":true,"maxAvailableQuantity":100,"maxAllowedQuantity":100,"breadcrumbs":[{"code":"9","name":"Dulciuri & mic dejun","slug":"9-ceva-dulce"},{"code":"902","name":"Biscuiți, napolitane și prăjituri","slug":"902-biscuiti-napolitane-si-prajituri"},{"code":"90201","name":"Biscuiți simpli","slug":"90201-biscuiti-simpli"},{"code":"100058697","name":"Biscuiți cu cremă de ciocolată Keks'n Cream 190g","slug":"100058697-leibniz-biscuiti-cu-crema-de-ciocolata-keks-n-cream-190g"}],"activePromotion":null,"saveMe":null,"labels":[],"geniusPrice":null,"geniusUnitPricePerLabel":null,"banner":null,"discountLabel":null,"geniusDiscountLabel":null,"badge":null},{"code":"100097410","variantCode":"100097410","name":"Biscuiți digestivi 400g","slug":"100097410-gullon-biscuiti-digestivi-400g","unitPriceLabel":"24,48 Lei/kg","brand":"Gullon","brandCode":"1531","brandFilterCode":"gullon-b1535","sku":"100097410","price":9.79,"originalPrice":null,"currencyCode":"RON","currency":"Lei","image":{"thumbnail":{"default":"https://cdn.freshful.ro/media/cache/sylius_shop_product_thumbnail/16/2c/ab6dcd08aea896c91cd18834b364.jpg"},"large":{"default":"https://cdn.freshful.ro/media/cache/freshful_large/16/2c/ab6dcd08aea896c91cd18834b364.jpg"},"extralarge":{"default":"https://cdn.freshful.ro/media/cache/sylius_shop_product_original/16/2c/ab6dcd08aea896c91cd18834b364.jpg"}},"label":null,"tags":[{"type":"Vegetarian","text":"Vegetarian","icon":"https://cdn.freshful.ro/assets/product_tags/vegetarian.svg","iconPng":"https://cdn.freshful.ro/assets/product_tags/vegetarian.png","backgroundColor":"#FAEAEE","textColor":"#B26275"}],"isAvailable":true,"maxAvailableQuantity":100,"maxAllowedQuantity":100,"breadcrumbs":[{"code":"9","name":"Dulciuri & mic dejun","slug":"9-ceva-dulce"},{"code":"902","name":"Biscuiți, napolitane și prăjituri","slug":"902-biscuiti-napolitane-si-prajituri"},{"code":"90201","name":"Biscuiți simpli","slug":"90201-biscuiti-simpli"},{"code":"100097410","name":"Biscuiți digestivi 400g","slug":"100097410-gullon-biscuiti-digestivi-400g"}],"activePromotion":null,"saveMe":null,"labels":[],"geniusPrice":null,"geniusUnitPricePerLabel":null,"banner":null,"discountLabel":null,"geniusDiscountLabel":null,"badge":null}],"filters":{"countSelected":0,"items":[{"code":"brand","name":"Brand","countSelected":0,"values":[{"code":"7days-b1259","name":"7Days","isSelected":false,"count":26},{"code":"alfers-b1799","name":"Alfers","isSelected":false,"count":11},{"code":"alka-biscuiti-b1796","name":"Alka Biscuiți","isSelected":false,"count":3},{"code":"artebianca-b107","name":"Artebianca","isSelected":false,"count":2},{"code":"balconi-b1537","name":"Balconi","isSelected":false,"count":5},{"code":"bauli-b146","name":"Bauli","isSelected":false,"count":3},{"code":"belami-b1064","name":"Belami","isSelected":false,"count":3},{"code":"belvita-b1882","name":"Belvita","isSelected":false,"count":4},{"code":"biscottificio-verona-b150","name":"Biscottificio Verona","isSelected":false,"count":1},{"code":"biskrem-b955","name":"Biskrem","isSelected":false,"count":11},{"code":"bolero-b2837","name":"Bolero","isSelected":false,"count":3},{"code":"boromir-b141","name":"Boromir","isSelected":false,"count":5},{"code":"caprice-b1491","name":"Caprice","isSelected":false,"count":2},{"code":"chipita-b1173","name":"Chipita","isSelected":false,"count":1},{"code":"colussi-b1497","name":"Colussi","isSelected":false,"count":1},{"code":"croco-b1177","name":"Croco","isSelected":false,"count":6},{"code":"dare-b163","name":"Dare","isSelected":false,"count":14},{"code":"daruri-din-moldova-b3064","name":"Daruri Din Moldova","isSelected":false,"count":3},{"code":"delasheras-b1538","name":"Delasheras","isSelected":false,"count":1},{"code":"digesta-b230","name":"Digesta","isSelected":false,"count":4},{"code":"dolci-di-montagna-b634","name":"Dolci Di Montagna","isSelected":false,"count":2},{"code":"duplo-b2946","name":"Duplo","isSelected":false,"count":1},{"code":"enola-b2500","name":"Enola","isSelected":false,"count":8},{"code":"eti-b29","name":"Eti","isSelected":false,"count":1},{"code":"eugenia-b232","name":"Eugenia","isSelected":false,"count":12},{"code":"feiny-biscuits-b2309","name":"Feiny Biscuits","isSelected":false,"count":4},{"code":"firesco-b1539","name":"Firesco","isSelected":false,"count":1},{"code":"freddi-dolciaria-b2672","name":"Freddi Dolciaria","isSelected":false,"count":10},{"code":"gerble-b1711","name":"Gerble","isSelected":false,"count":14},{"code":"gullon-b1535","name":"Gullon","isSelected":false,"count":5},{"code":"halley-b957","name":"Halley","isSelected":false,"count":2},{"code":"hanuta-b2945","name":"Hanuta","isSelected":false,"count":1},{"code":"hellema-b98","name":"Hellema","isSelected":false,"count":1},{"code":"joe-b294","name":"Joe","isSelected":false,"count":7},{"code":"kat-kat-tat-b963","name":"Kat Kat Tat","isSelected":false,"count":1},{"code":"kinder-b11","name":"Kinder","isSelected":false,"count":1},{"code":"knoppers-b877","name":"Knoppers","isSelected":false,"count":2},{"code":"leibniz-b879","name":"Leibniz","isSelected":false,"count":14},{"code":"loacker-b2644","name":"Loacker","isSelected":false,"count":10},{"code":"lotus-b2683","name":"Lotus","isSelected":false,"count":3},{"code":"magic-b3258","name":"Magic","isSelected":false,"count":4},{"code":"manner-b161","name":"Manner","isSelected":false,"count":3},{"code":"mcvitie-s-b954","name":"McVitie's","isSelected":false,"count":8},{"code":"merba-b637","name":"Merba","isSelected":false,"count":6},{"code":"merlin-b231","name":"Merlin","isSelected":false,"count":2},{"code":"milka-b470","name":"Milka","isSelected":false,"count":10},{"code":"minitort-b1795","name":"Minitort","isSelected":false,"count":2},{"code":"misura-b1496","name":"Misura","isSelected":false,"count":9},{"code":"mulino-bianco-b269","name":"Mulino Bianco","isSelected":false,"count":4},{"code":"my-motto-b1867","name":"My Motto","isSelected":false,"count":1},{"code":"magura-b1549","name":"Măgura","isSelected":false,"count":7},{"code":"nutella-b158","name":"Nutella","isSelected":false,"count":1},{"code":"o-lala-b962","name":"O'Lala","isSelected":false,"count":2},{"code":"oreo-b469","name":"Oreo","isSelected":false,"count":2},{"code":"paula-ana-b1622","name":"Paula Ana","isSelected":false,"count":5},{"code":"petit-beurre-b958","name":"Petit Beurre","isSelected":false,"count":4},{"code":"poof-b485","name":"Poof","isSelected":false,"count":8},{"code":"prajitura-casei-b1793","name":"Prajitura Casei","isSelected":false,"count":8},{"code":"puf-b2283","name":"Puf","isSelected":false,"count":12},{"code":"quaranta-b101","name":"Quaranta","isSelected":false,"count":2},{"code":"rom-b1544","name":"Rom","isSelected":false,"count":4},{"code":"san-b1883","name":"San","isSelected":false,"count":2},{"code":"schulte-b2991","name":"Schulte","isSelected":false,"count":3},{"code":"ulpio-b2985","name":"Ulpio","isSelected":false,"count":8},{"code":"vicenzi-b153","name":"Vicenzi","isSelected":false,"count":7},{"code":"woogie-b2305","name":"Woogie","isSelected":false,"count":3}]},{"code":"diet_lifestyle","name":"Dietă și lifestyle","countSelected":0,"values":[{"code":"fara-conservanti-a37","name":"Fara conservanti","isSelected":false,"count":13},{"code":"fara-gluten-a16","name":"Fara gluten","isSelected":false,"count":2},{"code":"fara-lactoza-a38","name":"Fara lactoza","isSelected":false,"count":9},{"code":"fara-zahar-adaugat-a29","name":"Fara zahar adaugat","isSelected":false,"count":2},{"code":"made-in-romania-a85","name":"Made In Romania","isSelected":false,"count":3},{"code":"vegetarian-a28","name":"Vegetarian","isSelected":false,"count":1}]}]},"orderBy":[{"field":"price","direction":"asc","name":"Preț crescător","isSelected":false},{"field":"price","direction":"desc","name":"Preț descrescător","isSelected":false},{"field":"popularity","direction":"desc","name":"Cele mai populare","isSelected":true},{"field":"category","direction":"asc","name":"Categorie","isSelected":false}],"metaTitle":"Biscuiți, napolitane și prăjituri - Gamă variată","metaDescription":"Vrei Biscuiți, napolitane și prăjituri? Alege dintr-o gamă variată. Comanzi simplu și ai livrare rapidă, calitate și prospețime. Hai pe Freshful.ro","metaKeywords":null,"banners":[]}}