{"type":"subcategory","payload":{"analyticsListId":"category_90204-croissant-briose-checuri-si-cozonaci","analyticsListName":"Category - Croissant, brioșe, checuri și cozonaci","name":"Croissant, brioșe, checuri și cozonaci","slug":"90204-croissant-briose-checuri-si-cozonaci","image":null,"breadcrumbs":[{"code":"9","name":"Dulciuri & mic dejun","slug":"9-ceva-dulce"},{"code":"902","name":"Biscuiți, napolitane și prăjituri","slug":"902-biscuiti-napolitane-si-prajituri"},{"code":"90204","name":"Croissant, brioșe, checuri și cozonaci","slug":"90204-croissant-briose-checuri-si-cozonaci"}],"slots":[],"page":1,"limit":10,"pages":5,"count":50,"siblings":[{"name":"Biscuiți, napolitane și prăjituri","slug":"902-biscuiti-napolitane-si-prajituri","selected":true},{"name":"Cereale și mic dejun","slug":"903-cereale-si-mic-dejun","selected":false},{"name":"Cafea și ceai","slug":"904-cafea-si-ceai","selected":false},{"name":"Bomboane și ciocolată","slug":"905-bomboane-si-ciocolata","selected":false}],"children":[{"name":"Toate produsele","slug":"902-biscuiti-napolitane-si-prajituri","selected":false},{"name":"Biscuiți simpli","slug":"90201-biscuiti-simpli","selected":false},{"name":"Biscuiți cu cremă","slug":"90202-biscuiti-cu-crema","selected":false},{"name":"Napolitane și turtă dulce","slug":"90203-napolitane-si-turta-dulce","selected":false},{"name":"Croissant, brioșe, checuri și cozonaci","slug":"90204-croissant-briose-checuri-si-cozonaci","selected":true},{"name":"Pișcoturi și fursecuri","slug":"90205-piscoturi-si-fursecuri","selected":false},{"name":"Nuga, halva și rahat","slug":"90206-nuga-halva-si-rahat","selected":false},{"name":"Prăjituri, rulade și madlene","slug":"90207-prajituri-rulada-si-madlene","selected":false}],"products":[{"code":"100070710","variantCode":"100070710","name":"Croissant cu umplutură de cacao, învelit în ciocolată cu lapte 60g","slug":"100070710-7days-croissant-cu-umplutura-de-cacao-invelit-in-ciocolata-cu-lapte-60g","unitPriceLabel":"50,67 Lei/kg","brand":"7Days","brandCode":"1356","brandFilterCode":"7days-b1259","sku":"100070710","price":3.04,"originalPrice":null,"currencyCode":"RON","currency":"Lei","image":{"thumbnail":{"default":"https://cdn.freshful.ro/media/cache/sylius_shop_product_thumbnail/e5/11/7eef760f7bbd11d2ea30163694b0.jpg"},"large":{"default":"https://cdn.freshful.ro/media/cache/freshful_large/e5/11/7eef760f7bbd11d2ea30163694b0.jpg"},"extralarge":{"default":"https://cdn.freshful.ro/media/cache/sylius_shop_product_original/e5/11/7eef760f7bbd11d2ea30163694b0.jpg"}},"label":null,"tags":[],"isAvailable":true,"maxAvailableQuantity":100,"maxAllowedQuantity":100,"breadcrumbs":[{"code":"9","name":"Dulciuri & mic dejun","slug":"9-ceva-dulce"},{"code":"902","name":"Biscuiți, napolitane și prăjituri","slug":"902-biscuiti-napolitane-si-prajituri"},{"code":"90204","name":"Croissant, brioșe, checuri și cozonaci","slug":"90204-croissant-briose-checuri-si-cozonaci"},{"code":"100070710","name":"Croissant cu umplutură de cacao, învelit în ciocolată cu lapte 60g","slug":"100070710-7days-croissant-cu-umplutura-de-cacao-invelit-in-ciocolata-cu-lapte-60g"}],"activePromotion":null,"saveMe":null,"labels":[],"geniusPrice":null,"geniusUnitPricePerLabel":null,"banner":null,"discountLabel":null,"geniusDiscountLabel":null,"badge":null},{"code":"100151057","variantCode":"100151057","name":"Croissant glazurat 90g","slug":"100151057-magic-croissant-glazurat-90g","unitPriceLabel":"2,99 Lei/buc","brand":"Magic","brandCode":"3164","brandFilterCode":"magic-b3258","sku":"100151057","price":2.99,"originalPrice":null,"currencyCode":"RON","currency":"Lei","image":{"thumbnail":{"default":"https://cdn.freshful.ro/media/cache/sylius_shop_product_thumbnail/fc/aa/aa5c5306d175f75a76eb7ceede02.jpg"},"large":{"default":"https://cdn.freshful.ro/media/cache/freshful_large/fc/aa/aa5c5306d175f75a76eb7ceede02.jpg"},"extralarge":{"default":"https://cdn.freshful.ro/media/cache/sylius_shop_product_original/fc/aa/aa5c5306d175f75a76eb7ceede02.jpg"}},"label":null,"tags":[],"isAvailable":true,"maxAvailableQuantity":100,"maxAllowedQuantity":100,"breadcrumbs":[{"code":"9","name":"Dulciuri & mic dejun","slug":"9-ceva-dulce"},{"code":"902","name":"Biscuiți, napolitane și prăjituri","slug":"902-biscuiti-napolitane-si-prajituri"},{"code":"90204","name":"Croissant, brioșe, checuri și cozonaci","slug":"90204-croissant-briose-checuri-si-cozonaci"},{"code":"100151057","name":"Croissant glazurat 90g","slug":"100151057-magic-croissant-glazurat-90g"}],"activePromotion":null,"saveMe":null,"labels":[],"geniusPrice":null,"geniusUnitPricePerLabel":null,"banner":null,"discountLabel":null,"geniusDiscountLabel":null,"badge":null},{"code":"100151059","variantCode":"100151059","name":"Croissant Breakfast cu cremă de cacao 5 buc. 300g","slug":"100151059-magic-croissant-breakfast-cu-crema-de-cacao-5-buc-300g","unitPriceLabel":"7,19 Lei/buc","brand":"Magic","brandCode":"3164","brandFilterCode":"magic-b3258","sku":"100151059","price":7.19,"originalPrice":null,"currencyCode":"RON","currency":"Lei","image":{"thumbnail":{"default":"https://cdn.freshful.ro/media/cache/sylius_shop_product_thumbnail/14/d9/52c2720fd5476e3e07d1cde44860.jpg"},"large":{"default":"https://cdn.freshful.ro/media/cache/freshful_large/14/d9/52c2720fd5476e3e07d1cde44860.jpg"},"extralarge":{"default":"https://cdn.freshful.ro/media/cache/sylius_shop_product_original/14/d9/52c2720fd5476e3e07d1cde44860.jpg"}},"label":null,"tags":[],"isAvailable":true,"maxAvailableQuantity":100,"maxAllowedQuantity":100,"breadcrumbs":[{"code":"9","name":"Dulciuri & mic dejun","slug":"9-ceva-dulce"},{"code":"902","name":"Biscuiți, napolitane și prăjituri","slug":"902-biscuiti-napolitane-si-prajituri"},{"code":"90204","name":"Croissant, brioșe, checuri și cozonaci","slug":"90204-croissant-briose-checuri-si-cozonaci"},{"code":"100151059","name":"Croissant Breakfast cu cremă de cacao 5 buc. 300g","slug":"100151059-magic-croissant-breakfast-cu-crema-de-cacao-5-buc-300g"}],"activePromotion":null,"saveMe":null,"labels":[],"geniusPrice":null,"geniusUnitPricePerLabel":null,"banner":null,"discountLabel":null,"geniusDiscountLabel":null,"badge":null},{"code":"100070713","variantCode":"100070713","name":"Croissant cu cremă de vin spumant 65g","slug":"100070713-7days-croissant-cu-crema-de-vin-spumant-65g","unitPriceLabel":"28,46 Lei/kg","brand":"7Days","brandCode":"1356","brandFilterCode":"7days-b1259","sku":"100070713","price":1.85,"originalPrice":null,"currencyCode":"RON","currency":"Lei","image":{"thumbnail":{"default":"https://cdn.freshful.ro/media/cache/sylius_shop_product_thumbnail/32/12/d29f966a039f54e5359aee101c27.jpg"},"large":{"default":"https://cdn.freshful.ro/media/cache/freshful_large/32/12/d29f966a039f54e5359aee101c27.jpg"},"extralarge":{"default":"https://cdn.freshful.ro/media/cache/sylius_shop_product_original/32/12/d29f966a039f54e5359aee101c27.jpg"}},"label":null,"tags":[],"isAvailable":true,"maxAvailableQuantity":61,"maxAllowedQuantity":100,"breadcrumbs":[{"code":"9","name":"Dulciuri & mic dejun","slug":"9-ceva-dulce"},{"code":"902","name":"Biscuiți, napolitane și prăjituri","slug":"902-biscuiti-napolitane-si-prajituri"},{"code":"90204","name":"Croissant, brioșe, checuri și cozonaci","slug":"90204-croissant-briose-checuri-si-cozonaci"},{"code":"100070713","name":"Croissant cu cremă de vin spumant 65g","slug":"100070713-7days-croissant-cu-crema-de-vin-spumant-65g"}],"activePromotion":null,"saveMe":null,"labels":[],"geniusPrice":null,"geniusUnitPricePerLabel":null,"banner":null,"discountLabel":null,"geniusDiscountLabel":null,"badge":null},{"code":"100070715","variantCode":"100070715","name":"Croissant Double Max cu cremă de vanilie și vișine 86g","slug":"100070715-7days-croissant-double-max-cu-crema-de-vanilie-si-visine-86g","unitPriceLabel":"43,63 Lei/kg","brand":"7Days","brandCode":"1356","brandFilterCode":"7days-b1259","sku":"100070715","price":3.49,"originalPrice":null,"currencyCode":"RON","currency":"Lei","image":{"thumbnail":{"default":"https://cdn.freshful.ro/media/cache/sylius_shop_product_thumbnail/fd/01/1a216e597e712d772577eb248575.jpg"},"large":{"default":"https://cdn.freshful.ro/media/cache/freshful_large/fd/01/1a216e597e712d772577eb248575.jpg"},"extralarge":{"default":"https://cdn.freshful.ro/media/cache/sylius_shop_product_original/fd/01/1a216e597e712d772577eb248575.jpg"}},"label":null,"tags":[],"isAvailable":true,"maxAvailableQuantity":94,"maxAllowedQuantity":100,"breadcrumbs":[{"code":"9","name":"Dulciuri & mic dejun","slug":"9-ceva-dulce"},{"code":"902","name":"Biscuiți, napolitane și prăjituri","slug":"902-biscuiti-napolitane-si-prajituri"},{"code":"90204","name":"Croissant, brioșe, checuri și cozonaci","slug":"90204-croissant-briose-checuri-si-cozonaci"},{"code":"100070715","name":"Croissant Double Max cu cremă de vanilie și vișine 86g","slug":"100070715-7days-croissant-double-max-cu-crema-de-vanilie-si-visine-86g"}],"activePromotion":null,"saveMe":null,"labels":[],"geniusPrice":null,"geniusUnitPricePerLabel":null,"banner":null,"discountLabel":null,"geniusDiscountLabel":null,"badge":null},{"code":"100070704","variantCode":"100070704","name":"Mini Croissants cu cremă de cacao 185g","slug":"100070704-7days-mini-croissants-cu-crema-de-cacao-185g","unitPriceLabel":"54 Lei/kg","brand":"7Days","brandCode":"1356","brandFilterCode":"7days-b1259","sku":"100070704","price":9.99,"originalPrice":null,"currencyCode":"RON","currency":"Lei","image":{"thumbnail":{"default":"https://cdn.freshful.ro/media/cache/sylius_shop_product_thumbnail/d3/13/22125c2deacbf5fd0b95f3e53eac.jpg"},"large":{"default":"https://cdn.freshful.ro/media/cache/freshful_large/d3/13/22125c2deacbf5fd0b95f3e53eac.jpg"},"extralarge":{"default":"https://cdn.freshful.ro/media/cache/sylius_shop_product_original/d3/13/22125c2deacbf5fd0b95f3e53eac.jpg"}},"label":null,"tags":[],"isAvailable":true,"maxAvailableQuantity":43,"maxAllowedQuantity":100,"breadcrumbs":[{"code":"9","name":"Dulciuri & mic dejun","slug":"9-ceva-dulce"},{"code":"902","name":"Biscuiți, napolitane și prăjituri","slug":"902-biscuiti-napolitane-si-prajituri"},{"code":"90204","name":"Croissant, brioșe, checuri și cozonaci","slug":"90204-croissant-briose-checuri-si-cozonaci"},{"code":"100070704","name":"Mini Croissants cu cremă de cacao 185g","slug":"100070704-7days-mini-croissants-cu-crema-de-cacao-185g"}],"activePromotion":null,"saveMe":null,"labels":[],"geniusPrice":null,"geniusUnitPricePerLabel":null,"banner":null,"discountLabel":null,"geniusDiscountLabel":null,"badge":null},{"code":"100151056","variantCode":"100151056","name":"Croissant cu cremă de cacao 90g","slug":"100151056-magic-croissant-cu-crema-de-cacao-90g","unitPriceLabel":"2,79 Lei/buc","brand":"Magic","brandCode":"3164","brandFilterCode":"magic-b3258","sku":"100151056","price":2.79,"originalPrice":null,"currencyCode":"RON","currency":"Lei","image":{"thumbnail":{"default":"https://cdn.freshful.ro/media/cache/sylius_shop_product_thumbnail/74/05/2909c0f348f54dd81454e7a9fe75.jpg"},"large":{"default":"https://cdn.freshful.ro/media/cache/freshful_large/74/05/2909c0f348f54dd81454e7a9fe75.jpg"},"extralarge":{"default":"https://cdn.freshful.ro/media/cache/sylius_shop_product_original/74/05/2909c0f348f54dd81454e7a9fe75.jpg"}},"label":null,"tags":[],"isAvailable":true,"maxAvailableQuantity":100,"maxAllowedQuantity":100,"breadcrumbs":[{"code":"9","name":"Dulciuri & mic dejun","slug":"9-ceva-dulce"},{"code":"902","name":"Biscuiți, napolitane și prăjituri","slug":"902-biscuiti-napolitane-si-prajituri"},{"code":"90204","name":"Croissant, brioșe, checuri și cozonaci","slug":"90204-croissant-briose-checuri-si-cozonaci"},{"code":"100151056","name":"Croissant cu cremă de cacao 90g","slug":"100151056-magic-croissant-cu-crema-de-cacao-90g"}],"activePromotion":null,"saveMe":null,"labels":[],"geniusPrice":null,"geniusUnitPricePerLabel":null,"banner":null,"discountLabel":null,"geniusDiscountLabel":null,"badge":null},{"code":"100068351","variantCode":"100068351","name":"Gaufre cu vanilie cu ouă proaspete 250g","slug":"100068351-belami-gaufre-cu-vanilie-cu-oua-proaspete-250g","unitPriceLabel":"83,6 Lei/kg","brand":"Belami","brandCode":"1064","brandFilterCode":"belami-b1064","sku":"100068351","price":20.9,"originalPrice":null,"currencyCode":"RON","currency":"Lei","image":{"thumbnail":{"default":"https://cdn.freshful.ro/media/cache/sylius_shop_product_thumbnail/4d/cc/46fb5f5b542b4b6f7f4c599497c3.jpg"},"large":{"default":"https://cdn.freshful.ro/media/cache/freshful_large/4d/cc/46fb5f5b542b4b6f7f4c599497c3.jpg"},"extralarge":{"default":"https://cdn.freshful.ro/media/cache/sylius_shop_product_original/4d/cc/46fb5f5b542b4b6f7f4c599497c3.jpg"}},"label":null,"tags":[],"isAvailable":true,"maxAvailableQuantity":99,"maxAllowedQuantity":100,"breadcrumbs":[{"code":"9","name":"Dulciuri & mic dejun","slug":"9-ceva-dulce"},{"code":"902","name":"Biscuiți, napolitane și prăjituri","slug":"902-biscuiti-napolitane-si-prajituri"},{"code":"90204","name":"Croissant, brioșe, checuri și cozonaci","slug":"90204-croissant-briose-checuri-si-cozonaci"},{"code":"100068351","name":"Gaufre cu vanilie cu ouă proaspete 250g","slug":"100068351-belami-gaufre-cu-vanilie-cu-oua-proaspete-250g"}],"activePromotion":null,"saveMe":null,"labels":[],"geniusPrice":null,"geniusUnitPricePerLabel":null,"banner":null,"discountLabel":null,"geniusDiscountLabel":null,"badge":null},{"code":"100070718","variantCode":"100070718","name":"Croissant Max cu cremă de vin spumant 85g","slug":"100070718-7days-croissant-max-cu-crema-de-vin-spumant-85g","unitPriceLabel":"42,94 Lei/kg","brand":"7Days","brandCode":"1356","brandFilterCode":"7days-b1259","sku":"100070718","price":3.65,"originalPrice":null,"currencyCode":"RON","currency":"Lei","image":{"thumbnail":{"default":"https://cdn.freshful.ro/media/cache/sylius_shop_product_thumbnail/7d/23/a78d7e76a435de43a47b500f6069.jpg"},"large":{"default":"https://cdn.freshful.ro/media/cache/freshful_large/7d/23/a78d7e76a435de43a47b500f6069.jpg"},"extralarge":{"default":"https://cdn.freshful.ro/media/cache/sylius_shop_product_original/7d/23/a78d7e76a435de43a47b500f6069.jpg"}},"label":null,"tags":[],"isAvailable":true,"maxAvailableQuantity":61,"maxAllowedQuantity":100,"breadcrumbs":[{"code":"9","name":"Dulciuri & mic dejun","slug":"9-ceva-dulce"},{"code":"902","name":"Biscuiți, napolitane și prăjituri","slug":"902-biscuiti-napolitane-si-prajituri"},{"code":"90204","name":"Croissant, brioșe, checuri și cozonaci","slug":"90204-croissant-briose-checuri-si-cozonaci"},{"code":"100070718","name":"Croissant Max cu cremă de vin spumant 85g","slug":"100070718-7days-croissant-max-cu-crema-de-vin-spumant-85g"}],"activePromotion":null,"saveMe":null,"labels":[],"geniusPrice":null,"geniusUnitPricePerLabel":null,"banner":null,"discountLabel":null,"geniusDiscountLabel":null,"badge":null},{"code":"100070701","variantCode":"100070701","name":"Mini croissant cacao 65g","slug":"100070701-7days-mini-croissant-cacao-65g","unitPriceLabel":"61,38 Lei/kg","brand":"7Days","brandCode":"1356","brandFilterCode":"7days-b1259","sku":"100070701","price":3.99,"originalPrice":null,"currencyCode":"RON","currency":"Lei","image":{"thumbnail":{"default":"https://cdn.freshful.ro/media/cache/sylius_shop_product_thumbnail/e7/a3/1a7d3f402d7d8545e00fd97b51dc.jpg"},"large":{"default":"https://cdn.freshful.ro/media/cache/freshful_large/e7/a3/1a7d3f402d7d8545e00fd97b51dc.jpg"},"extralarge":{"default":"https://cdn.freshful.ro/media/cache/sylius_shop_product_original/e7/a3/1a7d3f402d7d8545e00fd97b51dc.jpg"}},"label":null,"tags":[],"isAvailable":true,"maxAvailableQuantity":100,"maxAllowedQuantity":100,"breadcrumbs":[{"code":"9","name":"Dulciuri & mic dejun","slug":"9-ceva-dulce"},{"code":"902","name":"Biscuiți, napolitane și prăjituri","slug":"902-biscuiti-napolitane-si-prajituri"},{"code":"90204","name":"Croissant, brioșe, checuri și cozonaci","slug":"90204-croissant-briose-checuri-si-cozonaci"},{"code":"100070701","name":"Mini croissant cacao 65g","slug":"100070701-7days-mini-croissant-cacao-65g"}],"activePromotion":null,"saveMe":null,"labels":[],"geniusPrice":null,"geniusUnitPricePerLabel":null,"banner":null,"discountLabel":null,"geniusDiscountLabel":null,"badge":null}],"filters":{"countSelected":0,"items":[{"code":"brand","name":"Brand","countSelected":0,"values":[{"code":"7days-b1259","name":"7Days","isSelected":false,"count":23},{"code":"bauli-b146","name":"Bauli","isSelected":false,"count":3},{"code":"belami-b1064","name":"Belami","isSelected":false,"count":3},{"code":"boromir-b141","name":"Boromir","isSelected":false,"count":4},{"code":"magic-b3258","name":"Magic","isSelected":false,"count":3},{"code":"misura-b1496","name":"Misura","isSelected":false,"count":3},{"code":"magura-b1549","name":"Măgura","isSelected":false,"count":3},{"code":"prajitura-casei-b1793","name":"Prajitura Casei","isSelected":false,"count":8}]},{"code":"diet_lifestyle","name":"Dietă și lifestyle","countSelected":0,"values":[{"code":"fara-lactoza-a38","name":"Fara lactoza","isSelected":false,"count":2},{"code":"fara-zahar-adaugat-a29","name":"Fara zahar adaugat","isSelected":false,"count":1}]}]},"orderBy":[{"field":"price","direction":"asc","name":"Preț crescător","isSelected":false},{"field":"price","direction":"desc","name":"Preț descrescător","isSelected":false},{"field":"popularity","direction":"desc","name":"Cele mai populare","isSelected":true},{"field":"category","direction":"asc","name":"Categorie","isSelected":false}],"metaTitle":"Croissant, brioșe, checuri și cozonaci - Gamă variată","metaDescription":"Vrei Croissant, brioșe, checuri și cozonaci? Alege dintr-o gamă variată. Comanzi simplu și ai livrare rapidă, calitate și prospețime. Hai pe Freshful.ro","metaKeywords":null,"banners":[]}}