{"type":"subcategory","payload":{"analyticsListId":"category_90203-napolitane-si-turta-dulce","analyticsListName":"Category - Napolitane și turtă dulce","name":"Napolitane și turtă dulce","slug":"90203-napolitane-si-turta-dulce","image":null,"breadcrumbs":[{"code":"9","name":"Dulciuri & mic dejun","slug":"9-ceva-dulce"},{"code":"902","name":"Biscuiți, napolitane și prăjituri","slug":"902-biscuiti-napolitane-si-prajituri"},{"code":"90203","name":"Napolitane și turtă dulce","slug":"90203-napolitane-si-turta-dulce"}],"slots":[],"page":1,"limit":10,"pages":7,"count":70,"siblings":[{"name":"Biscuiți, napolitane și prăjituri","slug":"902-biscuiti-napolitane-si-prajituri","selected":true},{"name":"Cereale și mic dejun","slug":"903-cereale-si-mic-dejun","selected":false},{"name":"Cafea și ceai","slug":"904-cafea-si-ceai","selected":false},{"name":"Bomboane și ciocolată","slug":"905-bomboane-si-ciocolata","selected":false}],"children":[{"name":"Toate produsele","slug":"902-biscuiti-napolitane-si-prajituri","selected":false},{"name":"Biscuiți simpli","slug":"90201-biscuiti-simpli","selected":false},{"name":"Biscuiți cu cremă","slug":"90202-biscuiti-cu-crema","selected":false},{"name":"Napolitane și turtă dulce","slug":"90203-napolitane-si-turta-dulce","selected":true},{"name":"Croissant, brioșe, checuri și cozonaci","slug":"90204-croissant-briose-checuri-si-cozonaci","selected":false},{"name":"Pișcoturi și fursecuri","slug":"90205-piscoturi-si-fursecuri","selected":false},{"name":"Nuga, halva și rahat","slug":"90206-nuga-halva-si-rahat","selected":false},{"name":"Prăjituri, rulade și madlene","slug":"90207-prajituri-rulada-si-madlene","selected":false}],"products":[{"code":"100143809","variantCode":"100143809","name":"Napolitană acoperită cu ciocolată cu lapte si cremă de alune 50g","slug":"100143809-dare-napolitana-acoperita-cu-ciocolata-cu-lapte-si-crema-de-alune-50g","unitPriceLabel":"49,8 Lei/kg","brand":"Dare","brandCode":"162","brandFilterCode":"dare-b163","sku":"100143809","price":2.49,"originalPrice":null,"currencyCode":"RON","currency":"Lei","image":{"thumbnail":{"default":"https://cdn.freshful.ro/media/cache/sylius_shop_product_thumbnail/b6/3a/b05def2c1e6681c9ec64645810cc.jpg"},"large":{"default":"https://cdn.freshful.ro/media/cache/freshful_large/b6/3a/b05def2c1e6681c9ec64645810cc.jpg"},"extralarge":{"default":"https://cdn.freshful.ro/media/cache/sylius_shop_product_original/b6/3a/b05def2c1e6681c9ec64645810cc.jpg"}},"label":null,"tags":[],"isAvailable":true,"maxAvailableQuantity":100,"maxAllowedQuantity":100,"breadcrumbs":[{"code":"9","name":"Dulciuri & mic dejun","slug":"9-ceva-dulce"},{"code":"902","name":"Biscuiți, napolitane și prăjituri","slug":"902-biscuiti-napolitane-si-prajituri"},{"code":"90203","name":"Napolitane și turtă dulce","slug":"90203-napolitane-si-turta-dulce"},{"code":"100143809","name":"Napolitană acoperită cu ciocolată cu lapte si cremă de alune 50g","slug":"100143809-dare-napolitana-acoperita-cu-ciocolata-cu-lapte-si-crema-de-alune-50g"}],"activePromotion":null,"saveMe":null,"labels":[],"geniusPrice":null,"geniusUnitPricePerLabel":null,"banner":null,"discountLabel":null,"geniusDiscountLabel":null,"badge":null},{"code":"100058670","variantCode":"100058670","name":"Napolitane crocante cu cremă de lapte și nuga 3x25g","slug":"100058670-knoppers-napolitane-crocante-cu-crema-de-lapte-si-nuga-3x25g","unitPriceLabel":"83,87 Lei/kg","brand":"Knoppers","brandCode":"876","brandFilterCode":"knoppers-b877","sku":"100058670","price":6.29,"originalPrice":null,"currencyCode":"RON","currency":"Lei","image":{"thumbnail":{"default":"https://cdn.freshful.ro/media/cache/sylius_shop_product_thumbnail/b6/df/0558cc14aaa67e2f0f9f76c4882d.jpg"},"large":{"default":"https://cdn.freshful.ro/media/cache/freshful_large/b6/df/0558cc14aaa67e2f0f9f76c4882d.jpg"},"extralarge":{"default":"https://cdn.freshful.ro/media/cache/sylius_shop_product_original/b6/df/0558cc14aaa67e2f0f9f76c4882d.jpg"}},"label":null,"tags":[],"isAvailable":true,"maxAvailableQuantity":100,"maxAllowedQuantity":100,"breadcrumbs":[{"code":"9","name":"Dulciuri & mic dejun","slug":"9-ceva-dulce"},{"code":"902","name":"Biscuiți, napolitane și prăjituri","slug":"902-biscuiti-napolitane-si-prajituri"},{"code":"90203","name":"Napolitane și turtă dulce","slug":"90203-napolitane-si-turta-dulce"},{"code":"100058670","name":"Napolitane crocante cu cremă de lapte și nuga 3x25g","slug":"100058670-knoppers-napolitane-crocante-cu-crema-de-lapte-si-nuga-3x25g"}],"activePromotion":null,"saveMe":null,"labels":[],"geniusPrice":null,"geniusUnitPricePerLabel":null,"banner":null,"discountLabel":null,"geniusDiscountLabel":null,"badge":null},{"code":"100038460","variantCode":"8690526065700","name":"Napolitană cu ciocolată neagră 50g","slug":"100038460-dare-napolitana-cu-ciocolata-neagra-50g","unitPriceLabel":"41 Lei/kg","brand":"Dare","brandCode":"162","brandFilterCode":"dare-b163","sku":"100038460","price":2.05,"originalPrice":null,"currencyCode":"RON","currency":"Lei","image":{"thumbnail":{"default":"https://cdn.freshful.ro/media/cache/sylius_shop_product_thumbnail/88/c8/7f4ac8050fc30bca104b7c63d624.jpg"},"large":{"default":"https://cdn.freshful.ro/media/cache/freshful_large/88/c8/7f4ac8050fc30bca104b7c63d624.jpg"},"extralarge":{"default":"https://cdn.freshful.ro/media/cache/sylius_shop_product_original/88/c8/7f4ac8050fc30bca104b7c63d624.jpg"}},"label":null,"tags":[],"isAvailable":true,"maxAvailableQuantity":100,"maxAllowedQuantity":100,"breadcrumbs":[{"code":"9","name":"Dulciuri & mic dejun","slug":"9-ceva-dulce"},{"code":"902","name":"Biscuiți, napolitane și prăjituri","slug":"902-biscuiti-napolitane-si-prajituri"},{"code":"90203","name":"Napolitane și turtă dulce","slug":"90203-napolitane-si-turta-dulce"},{"code":"100038460","name":"Napolitană cu ciocolată neagră 50g","slug":"100038460-dare-napolitana-cu-ciocolata-neagra-50g"}],"activePromotion":null,"saveMe":null,"labels":[],"geniusPrice":null,"geniusUnitPricePerLabel":null,"banner":null,"discountLabel":null,"geniusDiscountLabel":null,"badge":null},{"code":"100065643","variantCode":"8690504108023","name":"Sticksuri umplute cu cremă de cacao 32g ","slug":"100065643-biskrem-sticksuri-umplute-cu-crema-de-cacao-32g","unitPriceLabel":"57,19 Lei/kg","brand":"Biskrem","brandCode":"1005","brandFilterCode":"biskrem-b955","sku":"100065643","price":1.83,"originalPrice":null,"currencyCode":"RON","currency":"Lei","image":{"thumbnail":{"default":"https://cdn.freshful.ro/media/cache/sylius_shop_product_thumbnail/35/59/a804daed14451e1d6289b6195429.jpg"},"large":{"default":"https://cdn.freshful.ro/media/cache/freshful_large/35/59/a804daed14451e1d6289b6195429.jpg"},"extralarge":{"default":"https://cdn.freshful.ro/media/cache/sylius_shop_product_original/35/59/a804daed14451e1d6289b6195429.jpg"}},"label":null,"tags":[],"isAvailable":true,"maxAvailableQuantity":100,"maxAllowedQuantity":100,"breadcrumbs":[{"code":"9","name":"Dulciuri & mic dejun","slug":"9-ceva-dulce"},{"code":"902","name":"Biscuiți, napolitane și prăjituri","slug":"902-biscuiti-napolitane-si-prajituri"},{"code":"90203","name":"Napolitane și turtă dulce","slug":"90203-napolitane-si-turta-dulce"},{"code":"100065643","name":"Sticksuri umplute cu cremă de cacao 32g ","slug":"100065643-biskrem-sticksuri-umplute-cu-crema-de-cacao-32g"}],"activePromotion":null,"saveMe":null,"labels":[],"geniusPrice":null,"geniusUnitPricePerLabel":null,"banner":null,"discountLabel":null,"geniusDiscountLabel":null,"badge":null},{"code":"100044130","variantCode":"7613287354433","name":"Napolitane Cioco alune de pădure 160g","slug":"100044130-joe-napolitane-cioco-alune-de-padure-160g","unitPriceLabel":"38,56 Lei/kg","brand":"Joe","brandCode":"293","brandFilterCode":"joe-b294","sku":"100044130","price":6.17,"originalPrice":null,"currencyCode":"RON","currency":"Lei","image":{"thumbnail":{"default":"https://cdn.freshful.ro/media/cache/sylius_shop_product_thumbnail/84/13/d55104ee50d8ab7b2faa88b96dbd.jpg"},"large":{"default":"https://cdn.freshful.ro/media/cache/freshful_large/84/13/d55104ee50d8ab7b2faa88b96dbd.jpg"},"extralarge":{"default":"https://cdn.freshful.ro/media/cache/sylius_shop_product_original/84/13/d55104ee50d8ab7b2faa88b96dbd.jpg"}},"label":null,"tags":[],"isAvailable":true,"maxAvailableQuantity":100,"maxAllowedQuantity":100,"breadcrumbs":[{"code":"9","name":"Dulciuri & mic dejun","slug":"9-ceva-dulce"},{"code":"902","name":"Biscuiți, napolitane și prăjituri","slug":"902-biscuiti-napolitane-si-prajituri"},{"code":"90203","name":"Napolitane și turtă dulce","slug":"90203-napolitane-si-turta-dulce"},{"code":"100044130","name":"Napolitane Cioco alune de pădure 160g","slug":"100044130-joe-napolitane-cioco-alune-de-padure-160g"}],"activePromotion":null,"saveMe":null,"labels":[],"geniusPrice":null,"geniusUnitPricePerLabel":null,"banner":null,"discountLabel":null,"geniusDiscountLabel":null,"badge":null},{"code":"100044131","variantCode":"7613287354280","name":"Napolitane Original cacao 160g","slug":"100044131-joe-napolitane-original-cacao-160g","unitPriceLabel":"39,13 Lei/kg","brand":"Joe","brandCode":"293","brandFilterCode":"joe-b294","sku":"100044131","price":6.26,"originalPrice":null,"currencyCode":"RON","currency":"Lei","image":{"thumbnail":{"default":"https://cdn.freshful.ro/media/cache/sylius_shop_product_thumbnail/cb/57/c33a3f1dbb0b5fabf2387eb4cc2e.jpg"},"large":{"default":"https://cdn.freshful.ro/media/cache/freshful_large/cb/57/c33a3f1dbb0b5fabf2387eb4cc2e.jpg"},"extralarge":{"default":"https://cdn.freshful.ro/media/cache/sylius_shop_product_original/cb/57/c33a3f1dbb0b5fabf2387eb4cc2e.jpg"}},"label":null,"tags":[],"isAvailable":true,"maxAvailableQuantity":100,"maxAllowedQuantity":100,"breadcrumbs":[{"code":"9","name":"Dulciuri & mic dejun","slug":"9-ceva-dulce"},{"code":"902","name":"Biscuiți, napolitane și prăjituri","slug":"902-biscuiti-napolitane-si-prajituri"},{"code":"90203","name":"Napolitane și turtă dulce","slug":"90203-napolitane-si-turta-dulce"},{"code":"100044131","name":"Napolitane Original cacao 160g","slug":"100044131-joe-napolitane-original-cacao-160g"}],"activePromotion":null,"saveMe":null,"labels":[],"geniusPrice":null,"geniusUnitPricePerLabel":null,"banner":null,"discountLabel":null,"geniusDiscountLabel":null,"badge":null},{"code":"100138254","variantCode":"100138254","name":"Napolitane crocante Sandwich cu lapte și vanilie 25g","slug":"100138254-loacker-napolitane-crocante-sandwich-cu-lapte-si-vanilie-25g","unitPriceLabel":"70 Lei/kg","brand":"Loacker","brandCode":"2640","brandFilterCode":"loacker-b2644","sku":"100138254","price":1.75,"originalPrice":null,"currencyCode":"RON","currency":"Lei","image":{"thumbnail":{"default":"https://cdn.freshful.ro/media/cache/sylius_shop_product_thumbnail/fc/eb/aaf37212f43c393f9ee0b2650d9e.jpg"},"large":{"default":"https://cdn.freshful.ro/media/cache/freshful_large/fc/eb/aaf37212f43c393f9ee0b2650d9e.jpg"},"extralarge":{"default":"https://cdn.freshful.ro/media/cache/sylius_shop_product_original/fc/eb/aaf37212f43c393f9ee0b2650d9e.jpg"}},"label":null,"tags":[],"isAvailable":true,"maxAvailableQuantity":100,"maxAllowedQuantity":100,"breadcrumbs":[{"code":"9","name":"Dulciuri & mic dejun","slug":"9-ceva-dulce"},{"code":"902","name":"Biscuiți, napolitane și prăjituri","slug":"902-biscuiti-napolitane-si-prajituri"},{"code":"90203","name":"Napolitane și turtă dulce","slug":"90203-napolitane-si-turta-dulce"},{"code":"100138254","name":"Napolitane crocante Sandwich cu lapte și vanilie 25g","slug":"100138254-loacker-napolitane-crocante-sandwich-cu-lapte-si-vanilie-25g"}],"activePromotion":null,"saveMe":null,"labels":[],"geniusPrice":null,"geniusUnitPricePerLabel":null,"banner":null,"discountLabel":null,"geniusDiscountLabel":null,"badge":null},{"code":"100038455","variantCode":"8690526015798","name":"Mininapolitane cu ciocolată neagră 112g","slug":"100038455-dare-mininapolitane-cu-ciocolata-neagra-112g","unitPriceLabel":"67,77 Lei/kg","brand":"Dare","brandCode":"162","brandFilterCode":"dare-b163","sku":"100038455","price":7.59,"originalPrice":null,"currencyCode":"RON","currency":"Lei","image":{"thumbnail":{"default":"https://cdn.freshful.ro/media/cache/sylius_shop_product_thumbnail/94/c0/b0f8f4d29e00969a5f75dd3a714e.jpg"},"large":{"default":"https://cdn.freshful.ro/media/cache/freshful_large/94/c0/b0f8f4d29e00969a5f75dd3a714e.jpg"},"extralarge":{"default":"https://cdn.freshful.ro/media/cache/sylius_shop_product_original/94/c0/b0f8f4d29e00969a5f75dd3a714e.jpg"}},"label":null,"tags":[],"isAvailable":true,"maxAvailableQuantity":100,"maxAllowedQuantity":100,"breadcrumbs":[{"code":"9","name":"Dulciuri & mic dejun","slug":"9-ceva-dulce"},{"code":"902","name":"Biscuiți, napolitane și prăjituri","slug":"902-biscuiti-napolitane-si-prajituri"},{"code":"90203","name":"Napolitane și turtă dulce","slug":"90203-napolitane-si-turta-dulce"},{"code":"100038455","name":"Mininapolitane cu ciocolată neagră 112g","slug":"100038455-dare-mininapolitane-cu-ciocolata-neagra-112g"}],"activePromotion":null,"saveMe":null,"labels":[],"geniusPrice":null,"geniusUnitPricePerLabel":null,"banner":null,"discountLabel":null,"geniusDiscountLabel":null,"badge":null},{"code":"100138248","variantCode":"100138248","name":"Napolitane Classic 90g","slug":"100138248-loacker-napolitane-classic-90g","unitPriceLabel":"59 Lei/kg","brand":"Loacker","brandCode":"2640","brandFilterCode":"loacker-b2644","sku":"100138248","price":5.31,"originalPrice":null,"currencyCode":"RON","currency":"Lei","image":{"thumbnail":{"default":"https://cdn.freshful.ro/media/cache/sylius_shop_product_thumbnail/35/26/a9641e32ed0bd64ae9d34fab72c4.jpg"},"large":{"default":"https://cdn.freshful.ro/media/cache/freshful_large/35/26/a9641e32ed0bd64ae9d34fab72c4.jpg"},"extralarge":{"default":"https://cdn.freshful.ro/media/cache/sylius_shop_product_original/35/26/a9641e32ed0bd64ae9d34fab72c4.jpg"}},"label":null,"tags":[],"isAvailable":true,"maxAvailableQuantity":100,"maxAllowedQuantity":100,"breadcrumbs":[{"code":"9","name":"Dulciuri & mic dejun","slug":"9-ceva-dulce"},{"code":"902","name":"Biscuiți, napolitane și prăjituri","slug":"902-biscuiti-napolitane-si-prajituri"},{"code":"90203","name":"Napolitane și turtă dulce","slug":"90203-napolitane-si-turta-dulce"},{"code":"100138248","name":"Napolitane Classic 90g","slug":"100138248-loacker-napolitane-classic-90g"}],"activePromotion":null,"saveMe":null,"labels":[],"geniusPrice":null,"geniusUnitPricePerLabel":null,"banner":null,"discountLabel":null,"geniusDiscountLabel":null,"badge":null},{"code":"100044155","variantCode":"7613287354303","name":"Napolitane Origina cul vanilie 160g","slug":"100044155-joe-napolitane-origina-cul-vanilie-160g","unitPriceLabel":"31,19 Lei/kg","brand":"Joe","brandCode":"293","brandFilterCode":"joe-b294","sku":"100044155","price":4.99,"originalPrice":null,"currencyCode":"RON","currency":"Lei","image":{"thumbnail":{"default":"https://cdn.freshful.ro/media/cache/sylius_shop_product_thumbnail/1b/10/577f7392f60d9ec984ba3b7d0862.jpg"},"large":{"default":"https://cdn.freshful.ro/media/cache/freshful_large/1b/10/577f7392f60d9ec984ba3b7d0862.jpg"},"extralarge":{"default":"https://cdn.freshful.ro/media/cache/sylius_shop_product_original/1b/10/577f7392f60d9ec984ba3b7d0862.jpg"}},"label":null,"tags":[],"isAvailable":true,"maxAvailableQuantity":100,"maxAllowedQuantity":100,"breadcrumbs":[{"code":"9","name":"Dulciuri & mic dejun","slug":"9-ceva-dulce"},{"code":"902","name":"Biscuiți, napolitane și prăjituri","slug":"902-biscuiti-napolitane-si-prajituri"},{"code":"90203","name":"Napolitane și turtă dulce","slug":"90203-napolitane-si-turta-dulce"},{"code":"100044155","name":"Napolitane Origina cul vanilie 160g","slug":"100044155-joe-napolitane-origina-cul-vanilie-160g"}],"activePromotion":null,"saveMe":null,"labels":[],"geniusPrice":null,"geniusUnitPricePerLabel":null,"banner":null,"discountLabel":null,"geniusDiscountLabel":null,"badge":null}],"filters":{"countSelected":0,"items":[{"code":"brand","name":"Brand","countSelected":0,"values":[{"code":"alfers-b1799","name":"Alfers","isSelected":false,"count":11},{"code":"biskrem-b955","name":"Biskrem","isSelected":false,"count":1},{"code":"bolero-b2837","name":"Bolero","isSelected":false,"count":3},{"code":"boromir-b141","name":"Boromir","isSelected":false,"count":1},{"code":"caprice-b1491","name":"Caprice","isSelected":false,"count":2},{"code":"chipita-b1173","name":"Chipita","isSelected":false,"count":1},{"code":"dare-b163","name":"Dare","isSelected":false,"count":9},{"code":"daruri-din-moldova-b3064","name":"Daruri Din Moldova","isSelected":false,"count":3},{"code":"duplo-b2946","name":"Duplo","isSelected":false,"count":1},{"code":"feiny-biscuits-b2309","name":"Feiny Biscuits","isSelected":false,"count":4},{"code":"hanuta-b2945","name":"Hanuta","isSelected":false,"count":1},{"code":"joe-b294","name":"Joe","isSelected":false,"count":7},{"code":"knoppers-b877","name":"Knoppers","isSelected":false,"count":2},{"code":"loacker-b2644","name":"Loacker","isSelected":false,"count":10},{"code":"manner-b161","name":"Manner","isSelected":false,"count":3},{"code":"my-motto-b1867","name":"My Motto","isSelected":false,"count":1},{"code":"nutella-b158","name":"Nutella","isSelected":false,"count":1},{"code":"paula-ana-b1622","name":"Paula Ana","isSelected":false,"count":1},{"code":"rom-b1544","name":"Rom","isSelected":false,"count":1},{"code":"schulte-b2991","name":"Schulte","isSelected":false,"count":3},{"code":"vicenzi-b153","name":"Vicenzi","isSelected":false,"count":4}]}]},"orderBy":[{"field":"price","direction":"asc","name":"Preț crescător","isSelected":false},{"field":"price","direction":"desc","name":"Preț descrescător","isSelected":false},{"field":"popularity","direction":"desc","name":"Cele mai populare","isSelected":true},{"field":"category","direction":"asc","name":"Categorie","isSelected":false}],"metaTitle":"Napolitane și turtă dulce - Gamă variată","metaDescription":"Vrei Napolitane și turtă dulce? Alege dintr-o gamă variată. Comanzi simplu și ai livrare rapidă, calitate și prospețime. Hai pe Freshful.ro","metaKeywords":null,"banners":[]}}