{"type":"subcategory","payload":{"analyticsListId":"category_90207-prajituri-rulada-si-madlene","analyticsListName":"Category - Prăjituri, rulade și madlene","name":"Prăjituri, rulade și madlene","slug":"90207-prajituri-rulada-si-madlene","image":null,"breadcrumbs":[{"code":"9","name":"Dulciuri & mic dejun","slug":"9-ceva-dulce"},{"code":"902","name":"Biscuiți, napolitane și prăjituri","slug":"902-biscuiti-napolitane-si-prajituri"},{"code":"90207","name":"Prăjituri, rulade și madlene","slug":"90207-prajituri-rulada-si-madlene"}],"slots":[],"page":1,"limit":10,"pages":5,"count":48,"siblings":[{"name":"Biscuiți, napolitane și prăjituri","slug":"902-biscuiti-napolitane-si-prajituri","selected":true},{"name":"Cereale și mic dejun","slug":"903-cereale-si-mic-dejun","selected":false},{"name":"Cafea și ceai","slug":"904-cafea-si-ceai","selected":false},{"name":"Bomboane și ciocolată","slug":"905-bomboane-si-ciocolata","selected":false}],"children":[{"name":"Toate produsele","slug":"902-biscuiti-napolitane-si-prajituri","selected":false},{"name":"Biscuiți simpli","slug":"90201-biscuiti-simpli","selected":false},{"name":"Biscuiți cu cremă","slug":"90202-biscuiti-cu-crema","selected":false},{"name":"Napolitane și turtă dulce","slug":"90203-napolitane-si-turta-dulce","selected":false},{"name":"Croissant, brioșe, checuri și cozonaci","slug":"90204-croissant-briose-checuri-si-cozonaci","selected":false},{"name":"Pișcoturi și fursecuri","slug":"90205-piscoturi-si-fursecuri","selected":false},{"name":"Nuga, halva și rahat","slug":"90206-nuga-halva-si-rahat","selected":false},{"name":"Prăjituri, rulade și madlene","slug":"90207-prajituri-rulada-si-madlene","selected":true}],"products":[{"code":"100151058","variantCode":"100151058","name":"Madeleines cu cremă de cacao 250g","slug":"100151058-no-brand-madeleines-cu-crema-de-cacao-250g","unitPriceLabel":"5,99 Lei/buc","brand":"Magic","brandCode":"3164","brandFilterCode":"magic-b3258","sku":"100151058","price":5.99,"originalPrice":null,"currencyCode":"RON","currency":"Lei","image":{"thumbnail":{"default":"https://cdn.freshful.ro/media/cache/sylius_shop_product_thumbnail/db/d5/3845a044d02ff087fbc6603ee5b3.jpg"},"large":{"default":"https://cdn.freshful.ro/media/cache/freshful_large/db/d5/3845a044d02ff087fbc6603ee5b3.jpg"},"extralarge":{"default":"https://cdn.freshful.ro/media/cache/sylius_shop_product_original/db/d5/3845a044d02ff087fbc6603ee5b3.jpg"}},"label":null,"tags":[],"isAvailable":true,"maxAvailableQuantity":100,"maxAllowedQuantity":100,"breadcrumbs":[{"code":"9","name":"Dulciuri & mic dejun","slug":"9-ceva-dulce"},{"code":"902","name":"Biscuiți, napolitane și prăjituri","slug":"902-biscuiti-napolitane-si-prajituri"},{"code":"90207","name":"Prăjituri, rulade și madlene","slug":"90207-prajituri-rulada-si-madlene"},{"code":"100151058","name":"Madeleines cu cremă de cacao 250g","slug":"100151058-no-brand-madeleines-cu-crema-de-cacao-250g"}],"activePromotion":null,"saveMe":null,"labels":[],"geniusPrice":null,"geniusUnitPricePerLabel":null,"banner":null,"discountLabel":null,"geniusDiscountLabel":null,"badge":null},{"code":"100143810","variantCode":"100143810","name":"Prăjitură cu ciocolată neagră  45g","slug":"100143810-dare-prajitura-cu-ciocolata-neagra-45g","unitPriceLabel":"45,33 Lei/kg","brand":"Dare","brandCode":"162","brandFilterCode":"dare-b163","sku":"100143810","price":2.04,"originalPrice":null,"currencyCode":"RON","currency":"Lei","image":{"thumbnail":{"default":"https://cdn.freshful.ro/media/cache/sylius_shop_product_thumbnail/55/ca/cd8016613fdd48822678200960d3.jpg"},"large":{"default":"https://cdn.freshful.ro/media/cache/freshful_large/55/ca/cd8016613fdd48822678200960d3.jpg"},"extralarge":{"default":"https://cdn.freshful.ro/media/cache/sylius_shop_product_original/55/ca/cd8016613fdd48822678200960d3.jpg"}},"label":null,"tags":[],"isAvailable":true,"maxAvailableQuantity":100,"maxAllowedQuantity":100,"breadcrumbs":[{"code":"9","name":"Dulciuri & mic dejun","slug":"9-ceva-dulce"},{"code":"902","name":"Biscuiți, napolitane și prăjituri","slug":"902-biscuiti-napolitane-si-prajituri"},{"code":"90207","name":"Prăjituri, rulade și madlene","slug":"90207-prajituri-rulada-si-madlene"},{"code":"100143810","name":"Prăjitură cu ciocolată neagră  45g","slug":"100143810-dare-prajitura-cu-ciocolata-neagra-45g"}],"activePromotion":null,"saveMe":null,"labels":[],"geniusPrice":null,"geniusUnitPricePerLabel":null,"banner":null,"discountLabel":null,"geniusDiscountLabel":null,"badge":null},{"code":"100093552","variantCode":"100093552","name":"Prăjitură cu cremă de lapte 35g","slug":"100093552-magura-prajitura-cu-crema-de-lapte-35g","unitPriceLabel":"50 Lei/buc","brand":"Măgura","brandCode":"1545","brandFilterCode":"magura-b1549","sku":"100093552","price":1.75,"originalPrice":null,"currencyCode":"RON","currency":"Lei","image":{"thumbnail":{"default":"https://cdn.freshful.ro/media/cache/sylius_shop_product_thumbnail/44/94/b67b18900f5728edb2dd48288fd5.jpg"},"large":{"default":"https://cdn.freshful.ro/media/cache/freshful_large/44/94/b67b18900f5728edb2dd48288fd5.jpg"},"extralarge":{"default":"https://cdn.freshful.ro/media/cache/sylius_shop_product_original/44/94/b67b18900f5728edb2dd48288fd5.jpg"}},"label":null,"tags":[],"isAvailable":true,"maxAvailableQuantity":100,"maxAllowedQuantity":100,"breadcrumbs":[{"code":"9","name":"Dulciuri & mic dejun","slug":"9-ceva-dulce"},{"code":"902","name":"Biscuiți, napolitane și prăjituri","slug":"902-biscuiti-napolitane-si-prajituri"},{"code":"90207","name":"Prăjituri, rulade și madlene","slug":"90207-prajituri-rulada-si-madlene"},{"code":"100093552","name":"Prăjitură cu cremă de lapte 35g","slug":"100093552-magura-prajitura-cu-crema-de-lapte-35g"}],"activePromotion":null,"saveMe":null,"labels":[],"geniusPrice":null,"geniusUnitPricePerLabel":null,"banner":null,"discountLabel":null,"geniusDiscountLabel":null,"badge":null},{"code":"100093553","variantCode":"100093553","name":"Prăjitură cu cremă de cacao 35g","slug":"100093553-magura-prajitura-cu-crema-de-cacao-35g","unitPriceLabel":"47,14 Lei/buc","brand":"Măgura","brandCode":"1545","brandFilterCode":"magura-b1549","sku":"100093553","price":1.65,"originalPrice":null,"currencyCode":"RON","currency":"Lei","image":{"thumbnail":{"default":"https://cdn.freshful.ro/media/cache/sylius_shop_product_thumbnail/d1/8f/c72edf0c7c00e142a2b0670c74bd.jpg"},"large":{"default":"https://cdn.freshful.ro/media/cache/freshful_large/d1/8f/c72edf0c7c00e142a2b0670c74bd.jpg"},"extralarge":{"default":"https://cdn.freshful.ro/media/cache/sylius_shop_product_original/d1/8f/c72edf0c7c00e142a2b0670c74bd.jpg"}},"label":null,"tags":[],"isAvailable":true,"maxAvailableQuantity":100,"maxAllowedQuantity":100,"breadcrumbs":[{"code":"9","name":"Dulciuri & mic dejun","slug":"9-ceva-dulce"},{"code":"902","name":"Biscuiți, napolitane și prăjituri","slug":"902-biscuiti-napolitane-si-prajituri"},{"code":"90207","name":"Prăjituri, rulade și madlene","slug":"90207-prajituri-rulada-si-madlene"},{"code":"100093553","name":"Prăjitură cu cremă de cacao 35g","slug":"100093553-magura-prajitura-cu-crema-de-cacao-35g"}],"activePromotion":null,"saveMe":null,"labels":[],"geniusPrice":null,"geniusUnitPricePerLabel":null,"banner":null,"discountLabel":null,"geniusDiscountLabel":null,"badge":null},{"code":"100093555","variantCode":"100093555","name":"Prăjitură cu cremă de căpșuni 35g","slug":"100093555-magura-prajitura-cu-crema-de-capsuni-35g","unitPriceLabel":"51,14 Lei/buc","brand":"Măgura","brandCode":"1545","brandFilterCode":"magura-b1549","sku":"100093555","price":1.79,"originalPrice":null,"currencyCode":"RON","currency":"Lei","image":{"thumbnail":{"default":"https://cdn.freshful.ro/media/cache/sylius_shop_product_thumbnail/fa/36/45c49831dd0a68fb0c42fb850344.jpg"},"large":{"default":"https://cdn.freshful.ro/media/cache/freshful_large/fa/36/45c49831dd0a68fb0c42fb850344.jpg"},"extralarge":{"default":"https://cdn.freshful.ro/media/cache/sylius_shop_product_original/fa/36/45c49831dd0a68fb0c42fb850344.jpg"}},"label":null,"tags":[],"isAvailable":true,"maxAvailableQuantity":100,"maxAllowedQuantity":100,"breadcrumbs":[{"code":"9","name":"Dulciuri & mic dejun","slug":"9-ceva-dulce"},{"code":"902","name":"Biscuiți, napolitane și prăjituri","slug":"902-biscuiti-napolitane-si-prajituri"},{"code":"90207","name":"Prăjituri, rulade și madlene","slug":"90207-prajituri-rulada-si-madlene"},{"code":"100093555","name":"Prăjitură cu cremă de căpșuni 35g","slug":"100093555-magura-prajitura-cu-crema-de-capsuni-35g"}],"activePromotion":null,"saveMe":null,"labels":[],"geniusPrice":null,"geniusUnitPricePerLabel":null,"banner":null,"discountLabel":null,"geniusDiscountLabel":null,"badge":null},{"code":"100093554","variantCode":"100093554","name":"Prăjitură cu cremă de alune 35g","slug":"100093554-magura-prajitura-cu-crema-de-alune-35g","unitPriceLabel":"47,14 Lei/buc","brand":"Măgura","brandCode":"1545","brandFilterCode":"magura-b1549","sku":"100093554","price":1.65,"originalPrice":null,"currencyCode":"RON","currency":"Lei","image":{"thumbnail":{"default":"https://cdn.freshful.ro/media/cache/sylius_shop_product_thumbnail/2b/b7/7b529d9e0702412e02393cae7a98.jpg"},"large":{"default":"https://cdn.freshful.ro/media/cache/freshful_large/2b/b7/7b529d9e0702412e02393cae7a98.jpg"},"extralarge":{"default":"https://cdn.freshful.ro/media/cache/sylius_shop_product_original/2b/b7/7b529d9e0702412e02393cae7a98.jpg"}},"label":null,"tags":[],"isAvailable":true,"maxAvailableQuantity":100,"maxAllowedQuantity":100,"breadcrumbs":[{"code":"9","name":"Dulciuri & mic dejun","slug":"9-ceva-dulce"},{"code":"902","name":"Biscuiți, napolitane și prăjituri","slug":"902-biscuiti-napolitane-si-prajituri"},{"code":"90207","name":"Prăjituri, rulade și madlene","slug":"90207-prajituri-rulada-si-madlene"},{"code":"100093554","name":"Prăjitură cu cremă de alune 35g","slug":"100093554-magura-prajitura-cu-crema-de-alune-35g"}],"activePromotion":null,"saveMe":null,"labels":[],"geniusPrice":null,"geniusUnitPricePerLabel":null,"banner":null,"discountLabel":null,"geniusDiscountLabel":null,"badge":null},{"code":"100042045","variantCode":"8710502060021","name":"Biscuiți soft muffins 210g","slug":"100042045-merba-biscuiti-soft-muffins-210g","unitPriceLabel":"69,05 Lei/kg","brand":"Merba","brandCode":"636","brandFilterCode":"merba-b637","sku":"100042045","price":14.5,"originalPrice":null,"currencyCode":"RON","currency":"Lei","image":{"thumbnail":{"default":"https://cdn.freshful.ro/media/cache/sylius_shop_product_thumbnail/91/9c/8caf90da135603784c2f8d0f2427.jpg"},"large":{"default":"https://cdn.freshful.ro/media/cache/freshful_large/91/9c/8caf90da135603784c2f8d0f2427.jpg"},"extralarge":{"default":"https://cdn.freshful.ro/media/cache/sylius_shop_product_original/91/9c/8caf90da135603784c2f8d0f2427.jpg"}},"label":null,"tags":[],"isAvailable":true,"maxAvailableQuantity":57,"maxAllowedQuantity":100,"breadcrumbs":[{"code":"9","name":"Dulciuri & mic dejun","slug":"9-ceva-dulce"},{"code":"902","name":"Biscuiți, napolitane și prăjituri","slug":"902-biscuiti-napolitane-si-prajituri"},{"code":"90207","name":"Prăjituri, rulade și madlene","slug":"90207-prajituri-rulada-si-madlene"},{"code":"100042045","name":"Biscuiți soft muffins 210g","slug":"100042045-merba-biscuiti-soft-muffins-210g"}],"activePromotion":null,"saveMe":null,"labels":[],"geniusPrice":null,"geniusUnitPricePerLabel":null,"banner":null,"discountLabel":null,"geniusDiscountLabel":null,"badge":null},{"code":"100096998","variantCode":"100096998","name":"Brioșe cu cireșe și afine fără lactoză 6 bucăți, 290g","slug":"100096998-misura-briose-cu-cirese-si-afine-fara-lactoza-6-bucati-290g","unitPriceLabel":"52,45 Lei/kg","brand":"Misura","brandCode":"1492","brandFilterCode":"misura-b1496","sku":"100096998","price":15.21,"originalPrice":null,"currencyCode":"RON","currency":"Lei","image":{"thumbnail":{"default":"https://cdn.freshful.ro/media/cache/sylius_shop_product_thumbnail/f3/e3/b1d668edd1730df1a0a43dc7f2de.jpg"},"large":{"default":"https://cdn.freshful.ro/media/cache/freshful_large/f3/e3/b1d668edd1730df1a0a43dc7f2de.jpg"},"extralarge":{"default":"https://cdn.freshful.ro/media/cache/sylius_shop_product_original/f3/e3/b1d668edd1730df1a0a43dc7f2de.jpg"}},"label":null,"tags":[{"type":"LactoseFree","text":"Fara lactoza","icon":"https://cdn.freshful.ro/assets/product_tags/fara_lactoza.svg","iconPng":"https://cdn.freshful.ro/assets/product_tags/fara_lactoza.png","backgroundColor":"#E9F7FB","textColor":"#25A6D0"}],"isAvailable":true,"maxAvailableQuantity":35,"maxAllowedQuantity":100,"breadcrumbs":[{"code":"9","name":"Dulciuri & mic dejun","slug":"9-ceva-dulce"},{"code":"902","name":"Biscuiți, napolitane și prăjituri","slug":"902-biscuiti-napolitane-si-prajituri"},{"code":"90207","name":"Prăjituri, rulade și madlene","slug":"90207-prajituri-rulada-si-madlene"},{"code":"100096998","name":"Brioșe cu cireșe și afine fără lactoză 6 bucăți, 290g","slug":"100096998-misura-briose-cu-cirese-si-afine-fara-lactoza-6-bucati-290g"}],"activePromotion":null,"saveMe":null,"labels":[],"geniusPrice":null,"geniusUnitPricePerLabel":null,"banner":null,"discountLabel":null,"geniusDiscountLabel":null,"badge":null},{"code":"100093557","variantCode":"100093557","name":"Prăjitură cu aromă de rom 35g","slug":"100093557-rom-prajitura-cu-aroma-de-rom-35g","unitPriceLabel":"45,43 Lei/buc","brand":"Rom","brandCode":"1540","brandFilterCode":"rom-b1544","sku":"100093557","price":1.59,"originalPrice":null,"currencyCode":"RON","currency":"Lei","image":{"thumbnail":{"default":"https://cdn.freshful.ro/media/cache/sylius_shop_product_thumbnail/93/b6/e998f2c50a3ece78f78fb2334bc0.jpg"},"large":{"default":"https://cdn.freshful.ro/media/cache/freshful_large/93/b6/e998f2c50a3ece78f78fb2334bc0.jpg"},"extralarge":{"default":"https://cdn.freshful.ro/media/cache/sylius_shop_product_original/93/b6/e998f2c50a3ece78f78fb2334bc0.jpg"}},"label":null,"tags":[],"isAvailable":true,"maxAvailableQuantity":100,"maxAllowedQuantity":100,"breadcrumbs":[{"code":"9","name":"Dulciuri & mic dejun","slug":"9-ceva-dulce"},{"code":"902","name":"Biscuiți, napolitane și prăjituri","slug":"902-biscuiti-napolitane-si-prajituri"},{"code":"90207","name":"Prăjituri, rulade și madlene","slug":"90207-prajituri-rulada-si-madlene"},{"code":"100093557","name":"Prăjitură cu aromă de rom 35g","slug":"100093557-rom-prajitura-cu-aroma-de-rom-35g"}],"activePromotion":null,"saveMe":null,"labels":[],"geniusPrice":null,"geniusUnitPricePerLabel":null,"banner":null,"discountLabel":null,"geniusDiscountLabel":null,"badge":null},{"code":"100047036","variantCode":"100047036","name":"Vrăjiturica prăjitură cu cremă de lapte 25g","slug":"100047036-poof-vrajiturica-prajitura-cu-crema-de-lapte-25g","unitPriceLabel":"47,6 Lei/kg","brand":"Poof","brandCode":"484","brandFilterCode":"poof-b485","sku":"100047036","price":1.19,"originalPrice":null,"currencyCode":"RON","currency":"Lei","image":{"thumbnail":{"default":"https://cdn.freshful.ro/media/cache/sylius_shop_product_thumbnail/40/b5/83e1834583e5f2bb751604cb5ea0.jpg"},"large":{"default":"https://cdn.freshful.ro/media/cache/freshful_large/40/b5/83e1834583e5f2bb751604cb5ea0.jpg"},"extralarge":{"default":"https://cdn.freshful.ro/media/cache/sylius_shop_product_original/40/b5/83e1834583e5f2bb751604cb5ea0.jpg"}},"label":null,"tags":[],"isAvailable":true,"maxAvailableQuantity":100,"maxAllowedQuantity":100,"breadcrumbs":[{"code":"9","name":"Dulciuri & mic dejun","slug":"9-ceva-dulce"},{"code":"902","name":"Biscuiți, napolitane și prăjituri","slug":"902-biscuiti-napolitane-si-prajituri"},{"code":"90207","name":"Prăjituri, rulade și madlene","slug":"90207-prajituri-rulada-si-madlene"},{"code":"100047036","name":"Vrăjiturica prăjitură cu cremă de lapte 25g","slug":"100047036-poof-vrajiturica-prajitura-cu-crema-de-lapte-25g"}],"activePromotion":null,"saveMe":null,"labels":[],"geniusPrice":null,"geniusUnitPricePerLabel":null,"banner":null,"discountLabel":null,"geniusDiscountLabel":null,"badge":null}],"filters":{"countSelected":0,"items":[{"code":"brand","name":"Brand","countSelected":0,"values":[{"code":"7days-b1259","name":"7Days","isSelected":false,"count":3},{"code":"balconi-b1537","name":"Balconi","isSelected":false,"count":5},{"code":"dare-b163","name":"Dare","isSelected":false,"count":1},{"code":"delasheras-b1538","name":"Delasheras","isSelected":false,"count":1},{"code":"freddi-dolciaria-b2672","name":"Freddi Dolciaria","isSelected":false,"count":10},{"code":"magic-b3258","name":"Magic","isSelected":false,"count":1},{"code":"merba-b637","name":"Merba","isSelected":false,"count":1},{"code":"milka-b470","name":"Milka","isSelected":false,"count":1},{"code":"minitort-b1795","name":"Minitort","isSelected":false,"count":2},{"code":"misura-b1496","name":"Misura","isSelected":false,"count":2},{"code":"magura-b1549","name":"Măgura","isSelected":false,"count":4},{"code":"o-lala-b962","name":"O'Lala","isSelected":false,"count":2},{"code":"poof-b485","name":"Poof","isSelected":false,"count":8},{"code":"puf-b2283","name":"Puf","isSelected":false,"count":4},{"code":"rom-b1544","name":"Rom","isSelected":false,"count":1},{"code":"vicenzi-b153","name":"Vicenzi","isSelected":false,"count":2}]},{"code":"diet_lifestyle","name":"Dietă și lifestyle","countSelected":0,"values":[{"code":"fara-conservanti-a37","name":"Fara conservanti","isSelected":false,"count":9},{"code":"fara-lactoza-a38","name":"Fara lactoza","isSelected":false,"count":6}]}]},"orderBy":[{"field":"price","direction":"asc","name":"Preț crescător","isSelected":false},{"field":"price","direction":"desc","name":"Preț descrescător","isSelected":false},{"field":"popularity","direction":"desc","name":"Cele mai populare","isSelected":true},{"field":"category","direction":"asc","name":"Categorie","isSelected":false}],"metaTitle":"Prăjituri, rulade și madlene - Gamă variată","metaDescription":"Vrei Prăjituri, rulade și madlene? Alege dintr-o gamă variată. Comanzi simplu și ai livrare rapidă, calitate și prospețime. Hai pe Freshful.ro","metaKeywords":null,"banners":[]}}