{"type":"subcategory","payload":{"analyticsListId":"category_90202-biscuiti-cu-crema","analyticsListName":"Category - Biscuiți cu cremă","name":"Biscuiți cu cremă","slug":"90202-biscuiti-cu-crema","image":null,"breadcrumbs":[{"code":"9","name":"Dulciuri & mic dejun","slug":"9-ceva-dulce"},{"code":"902","name":"Biscuiți, napolitane și prăjituri","slug":"902-biscuiti-napolitane-si-prajituri"},{"code":"90202","name":"Biscuiți cu cremă","slug":"90202-biscuiti-cu-crema"}],"slots":[],"page":1,"limit":10,"pages":7,"count":63,"siblings":[{"name":"Biscuiți, napolitane și prăjituri","slug":"902-biscuiti-napolitane-si-prajituri","selected":true},{"name":"Cereale și mic dejun","slug":"903-cereale-si-mic-dejun","selected":false},{"name":"Cafea și ceai","slug":"904-cafea-si-ceai","selected":false},{"name":"Bomboane și ciocolată","slug":"905-bomboane-si-ciocolata","selected":false}],"children":[{"name":"Toate produsele","slug":"902-biscuiti-napolitane-si-prajituri","selected":false},{"name":"Biscuiți simpli","slug":"90201-biscuiti-simpli","selected":false},{"name":"Biscuiți cu cremă","slug":"90202-biscuiti-cu-crema","selected":true},{"name":"Napolitane și turtă dulce","slug":"90203-napolitane-si-turta-dulce","selected":false},{"name":"Croissant, brioșe, checuri și cozonaci","slug":"90204-croissant-briose-checuri-si-cozonaci","selected":false},{"name":"Pișcoturi și fursecuri","slug":"90205-piscoturi-si-fursecuri","selected":false},{"name":"Nuga, halva și rahat","slug":"90206-nuga-halva-si-rahat","selected":false},{"name":"Prăjituri, rulade și madlene","slug":"90207-prajituri-rulada-si-madlene","selected":false}],"products":[{"code":"100122919","variantCode":"100122919","name":"Specialitate cu umplutură de lapte și de cacao Cards 128g","slug":"100122919-kinder-specialitate-cu-umplutura-de-lapte-si-de-cacao-cards-128g","unitPriceLabel":"9,49 Lei/buc","brand":"Kinder","brandCode":"19","brandFilterCode":"kinder-b11","sku":"100122919","price":9.49,"originalPrice":null,"currencyCode":"RON","currency":"Lei","image":{"thumbnail":{"default":"https://cdn.freshful.ro/media/cache/sylius_shop_product_thumbnail/c7/7c/3eb434c14dc66df25986fdb340e4.jpg"},"large":{"default":"https://cdn.freshful.ro/media/cache/freshful_large/c7/7c/3eb434c14dc66df25986fdb340e4.jpg"},"extralarge":{"default":"https://cdn.freshful.ro/media/cache/sylius_shop_product_original/c7/7c/3eb434c14dc66df25986fdb340e4.jpg"}},"label":null,"tags":[],"isAvailable":true,"maxAvailableQuantity":100,"maxAllowedQuantity":100,"breadcrumbs":[{"code":"9","name":"Dulciuri & mic dejun","slug":"9-ceva-dulce"},{"code":"902","name":"Biscuiți, napolitane și prăjituri","slug":"902-biscuiti-napolitane-si-prajituri"},{"code":"90202","name":"Biscuiți cu cremă","slug":"90202-biscuiti-cu-crema"},{"code":"100122919","name":"Specialitate cu umplutură de lapte și de cacao Cards 128g","slug":"100122919-kinder-specialitate-cu-umplutura-de-lapte-si-de-cacao-cards-128g"}],"activePromotion":null,"saveMe":null,"labels":[],"geniusPrice":null,"geniusUnitPricePerLabel":null,"banner":null,"discountLabel":null,"geniusDiscountLabel":null,"badge":null},{"code":"100065659","variantCode":"100065659","name":"Biscuiți cu bezea glazurați cu ciocolată cu lapte 30g","slug":"100065659-halley-biscuiti-cu-bezea-glazurati-cu-ciocolata-cu-lapte-30g","unitPriceLabel":"55 Lei/kg","brand":"Halley","brandCode":"1007","brandFilterCode":"halley-b957","sku":"100065659","price":1.65,"originalPrice":null,"currencyCode":"RON","currency":"Lei","image":{"thumbnail":{"default":"https://cdn.freshful.ro/media/cache/sylius_shop_product_thumbnail/1a/47/2967903b6c72feebd7bd1dc5f53d.jpg"},"large":{"default":"https://cdn.freshful.ro/media/cache/freshful_large/1a/47/2967903b6c72feebd7bd1dc5f53d.jpg"},"extralarge":{"default":"https://cdn.freshful.ro/media/cache/sylius_shop_product_original/1a/47/2967903b6c72feebd7bd1dc5f53d.jpg"}},"label":null,"tags":[],"isAvailable":true,"maxAvailableQuantity":100,"maxAllowedQuantity":100,"breadcrumbs":[{"code":"9","name":"Dulciuri & mic dejun","slug":"9-ceva-dulce"},{"code":"902","name":"Biscuiți, napolitane și prăjituri","slug":"902-biscuiti-napolitane-si-prajituri"},{"code":"90202","name":"Biscuiți cu cremă","slug":"90202-biscuiti-cu-crema"},{"code":"100065659","name":"Biscuiți cu bezea glazurați cu ciocolată cu lapte 30g","slug":"100065659-halley-biscuiti-cu-bezea-glazurati-cu-ciocolata-cu-lapte-30g"}],"activePromotion":null,"saveMe":null,"labels":[],"geniusPrice":null,"geniusUnitPricePerLabel":null,"banner":null,"discountLabel":null,"geniusDiscountLabel":null,"badge":null},{"code":"100064975","variantCode":"100064975","name":"Biscuiți cu multă cremă de cacao Original Familial 360g (10x36g)","slug":"100064975-eugenia-biscuiti-cu-multa-crema-de-cacao-original-familial-360g-10x36g","unitPriceLabel":"34,03 Lei/kg","brand":"Eugenia","brandCode":"231","brandFilterCode":"eugenia-b232","sku":"100064975","price":12.25,"originalPrice":null,"currencyCode":"RON","currency":"Lei","image":{"thumbnail":{"default":"https://cdn.freshful.ro/media/cache/sylius_shop_product_thumbnail/b6/dc/738ea4a1295bd9e5697c563fb62a.jpg"},"large":{"default":"https://cdn.freshful.ro/media/cache/freshful_large/b6/dc/738ea4a1295bd9e5697c563fb62a.jpg"},"extralarge":{"default":"https://cdn.freshful.ro/media/cache/sylius_shop_product_original/b6/dc/738ea4a1295bd9e5697c563fb62a.jpg"}},"label":null,"tags":[],"isAvailable":true,"maxAvailableQuantity":98,"maxAllowedQuantity":100,"breadcrumbs":[{"code":"9","name":"Dulciuri & mic dejun","slug":"9-ceva-dulce"},{"code":"902","name":"Biscuiți, napolitane și prăjituri","slug":"902-biscuiti-napolitane-si-prajituri"},{"code":"90202","name":"Biscuiți cu cremă","slug":"90202-biscuiti-cu-crema"},{"code":"100064975","name":"Biscuiți cu multă cremă de cacao Original Familial 360g (10x36g)","slug":"100064975-eugenia-biscuiti-cu-multa-crema-de-cacao-original-familial-360g-10x36g"}],"activePromotion":null,"saveMe":null,"labels":[],"geniusPrice":null,"geniusUnitPricePerLabel":null,"banner":null,"discountLabel":null,"geniusDiscountLabel":null,"badge":null},{"code":"100065648","variantCode":"5941664006814","name":"Biscuiți umpluți cu cremă de cacao 160g","slug":"100065648-biskrem-biscuiti-umpluti-cu-crema-de-cacao-160g","unitPriceLabel":"26,69 Lei/kg","brand":"Biskrem","brandCode":"1005","brandFilterCode":"biskrem-b955","sku":"100065648","price":4.27,"originalPrice":null,"currencyCode":"RON","currency":"Lei","image":{"thumbnail":{"default":"https://cdn.freshful.ro/media/cache/sylius_shop_product_thumbnail/8b/6b/aa8d95134bbf4e57c5f3abd75a7a.jpg"},"large":{"default":"https://cdn.freshful.ro/media/cache/freshful_large/8b/6b/aa8d95134bbf4e57c5f3abd75a7a.jpg"},"extralarge":{"default":"https://cdn.freshful.ro/media/cache/sylius_shop_product_original/8b/6b/aa8d95134bbf4e57c5f3abd75a7a.jpg"}},"label":null,"tags":[],"isAvailable":true,"maxAvailableQuantity":100,"maxAllowedQuantity":100,"breadcrumbs":[{"code":"9","name":"Dulciuri & mic dejun","slug":"9-ceva-dulce"},{"code":"902","name":"Biscuiți, napolitane și prăjituri","slug":"902-biscuiti-napolitane-si-prajituri"},{"code":"90202","name":"Biscuiți cu cremă","slug":"90202-biscuiti-cu-crema"},{"code":"100065648","name":"Biscuiți umpluți cu cremă de cacao 160g","slug":"100065648-biskrem-biscuiti-umpluti-cu-crema-de-cacao-160g"}],"activePromotion":null,"saveMe":null,"labels":[],"geniusPrice":null,"geniusUnitPricePerLabel":null,"banner":null,"discountLabel":null,"geniusDiscountLabel":null,"badge":null},{"code":"100065660","variantCode":"100065660","name":"Biscuiți cu bezea glazurați cu ciocolată cu lapte 77g","slug":"100065660-halley-biscuiti-cu-bezea-glazurati-cu-ciocolata-cu-lapte-77g","unitPriceLabel":"38,18 Lei/kg","brand":"Halley","brandCode":"1007","brandFilterCode":"halley-b957","sku":"100065660","price":2.94,"originalPrice":null,"currencyCode":"RON","currency":"Lei","image":{"thumbnail":{"default":"https://cdn.freshful.ro/media/cache/sylius_shop_product_thumbnail/56/cd/16e52d813f61137f153f0fff4fc0.jpg"},"large":{"default":"https://cdn.freshful.ro/media/cache/freshful_large/56/cd/16e52d813f61137f153f0fff4fc0.jpg"},"extralarge":{"default":"https://cdn.freshful.ro/media/cache/sylius_shop_product_original/56/cd/16e52d813f61137f153f0fff4fc0.jpg"}},"label":null,"tags":[],"isAvailable":true,"maxAvailableQuantity":100,"maxAllowedQuantity":100,"breadcrumbs":[{"code":"9","name":"Dulciuri & mic dejun","slug":"9-ceva-dulce"},{"code":"902","name":"Biscuiți, napolitane și prăjituri","slug":"902-biscuiti-napolitane-si-prajituri"},{"code":"90202","name":"Biscuiți cu cremă","slug":"90202-biscuiti-cu-crema"},{"code":"100065660","name":"Biscuiți cu bezea glazurați cu ciocolată cu lapte 77g","slug":"100065660-halley-biscuiti-cu-bezea-glazurati-cu-ciocolata-cu-lapte-77g"}],"activePromotion":null,"saveMe":null,"labels":[],"geniusPrice":null,"geniusUnitPricePerLabel":null,"banner":null,"discountLabel":null,"geniusDiscountLabel":null,"badge":null},{"code":"100103856","variantCode":"100103856","name":"Biscuit cu bezea și fulgi de nucă de cocos 18g","slug":"100103856-puf-biscuit-cu-bezea-si-fulgi-de-nuca-de-cocos-18g","unitPriceLabel":"36,88 Lei/kg","brand":"Puf","brandCode":"2278","brandFilterCode":"puf-b2283","sku":"100103856","price":0.59,"originalPrice":null,"currencyCode":"RON","currency":"Lei","image":{"thumbnail":{"default":"https://cdn.freshful.ro/media/cache/sylius_shop_product_thumbnail/a9/4a/ce3970f49a4cd53e9952bcb075b2.jpg"},"large":{"default":"https://cdn.freshful.ro/media/cache/freshful_large/a9/4a/ce3970f49a4cd53e9952bcb075b2.jpg"},"extralarge":{"default":"https://cdn.freshful.ro/media/cache/sylius_shop_product_original/a9/4a/ce3970f49a4cd53e9952bcb075b2.jpg"}},"label":null,"tags":[],"isAvailable":true,"maxAvailableQuantity":100,"maxAllowedQuantity":100,"breadcrumbs":[{"code":"9","name":"Dulciuri & mic dejun","slug":"9-ceva-dulce"},{"code":"902","name":"Biscuiți, napolitane și prăjituri","slug":"902-biscuiti-napolitane-si-prajituri"},{"code":"90202","name":"Biscuiți cu cremă","slug":"90202-biscuiti-cu-crema"},{"code":"100103856","name":"Biscuit cu bezea și fulgi de nucă de cocos 18g","slug":"100103856-puf-biscuit-cu-bezea-si-fulgi-de-nuca-de-cocos-18g"}],"activePromotion":null,"saveMe":null,"labels":[],"geniusPrice":null,"geniusUnitPricePerLabel":null,"banner":null,"discountLabel":null,"geniusDiscountLabel":null,"badge":null},{"code":"100112964","variantCode":"100112964","name":"Prăjitură cu ciocolată 150g","slug":"100112964-milka-prajitura-cu-ciocolata-150g","unitPriceLabel":"61,27 Lei/kg","brand":"Milka","brandCode":"469","brandFilterCode":"milka-b470","sku":"100112964","price":9.19,"originalPrice":null,"currencyCode":"RON","currency":"Lei","image":{"thumbnail":{"default":"https://cdn.freshful.ro/media/cache/sylius_shop_product_thumbnail/d3/2f/ae4e1c57dac0c399879d38818662.jpg"},"large":{"default":"https://cdn.freshful.ro/media/cache/freshful_large/d3/2f/ae4e1c57dac0c399879d38818662.jpg"},"extralarge":{"default":"https://cdn.freshful.ro/media/cache/sylius_shop_product_original/d3/2f/ae4e1c57dac0c399879d38818662.jpg"}},"label":null,"tags":[],"isAvailable":true,"maxAvailableQuantity":63,"maxAllowedQuantity":100,"breadcrumbs":[{"code":"9","name":"Dulciuri & mic dejun","slug":"9-ceva-dulce"},{"code":"902","name":"Biscuiți, napolitane și prăjituri","slug":"902-biscuiti-napolitane-si-prajituri"},{"code":"90202","name":"Biscuiți cu cremă","slug":"90202-biscuiti-cu-crema"},{"code":"100112964","name":"Prăjitură cu ciocolată 150g","slug":"100112964-milka-prajitura-cu-ciocolata-150g"}],"activePromotion":null,"saveMe":null,"labels":[],"geniusPrice":null,"geniusUnitPricePerLabel":null,"banner":null,"discountLabel":null,"geniusDiscountLabel":null,"badge":null},{"code":"100112965","variantCode":"100112965","name":"Biscuiți sandwich cu cremă de ciocolată 260g","slug":"100112965-milka-biscuiti-sandwich-cu-crema-de-ciocolata-260g","unitPriceLabel":"35,35 Lei/kg","brand":"Milka","brandCode":"469","brandFilterCode":"milka-b470","sku":"100112965","price":9.19,"originalPrice":null,"currencyCode":"RON","currency":"Lei","image":{"thumbnail":{"default":"https://cdn.freshful.ro/media/cache/sylius_shop_product_thumbnail/e5/ac/f9683ee99e87930b982f99ff966a.jpg"},"large":{"default":"https://cdn.freshful.ro/media/cache/freshful_large/e5/ac/f9683ee99e87930b982f99ff966a.jpg"},"extralarge":{"default":"https://cdn.freshful.ro/media/cache/sylius_shop_product_original/e5/ac/f9683ee99e87930b982f99ff966a.jpg"}},"label":null,"tags":[],"isAvailable":true,"maxAvailableQuantity":52,"maxAllowedQuantity":100,"breadcrumbs":[{"code":"9","name":"Dulciuri & mic dejun","slug":"9-ceva-dulce"},{"code":"902","name":"Biscuiți, napolitane și prăjituri","slug":"902-biscuiti-napolitane-si-prajituri"},{"code":"90202","name":"Biscuiți cu cremă","slug":"90202-biscuiti-cu-crema"},{"code":"100112965","name":"Biscuiți sandwich cu cremă de ciocolată 260g","slug":"100112965-milka-biscuiti-sandwich-cu-crema-de-ciocolata-260g"}],"activePromotion":null,"saveMe":null,"labels":[],"geniusPrice":null,"geniusUnitPricePerLabel":null,"banner":null,"discountLabel":null,"geniusDiscountLabel":null,"badge":null},{"code":"100065651","variantCode":"5941664007767","name":"Biscuiți cu umplutură de zmeură 160g","slug":"100065651-biskrem-biscuiti-cu-umplutura-de-zmeura-160g","unitPriceLabel":"26,69 Lei/kg","brand":"Biskrem","brandCode":"1005","brandFilterCode":"biskrem-b955","sku":"100065651","price":4.27,"originalPrice":null,"currencyCode":"RON","currency":"Lei","image":{"thumbnail":{"default":"https://cdn.freshful.ro/media/cache/sylius_shop_product_thumbnail/8a/c4/d44ac0db728cba2711caac27f6d7.jpg"},"large":{"default":"https://cdn.freshful.ro/media/cache/freshful_large/8a/c4/d44ac0db728cba2711caac27f6d7.jpg"},"extralarge":{"default":"https://cdn.freshful.ro/media/cache/sylius_shop_product_original/8a/c4/d44ac0db728cba2711caac27f6d7.jpg"}},"label":null,"tags":[],"isAvailable":true,"maxAvailableQuantity":100,"maxAllowedQuantity":100,"breadcrumbs":[{"code":"9","name":"Dulciuri & mic dejun","slug":"9-ceva-dulce"},{"code":"902","name":"Biscuiți, napolitane și prăjituri","slug":"902-biscuiti-napolitane-si-prajituri"},{"code":"90202","name":"Biscuiți cu cremă","slug":"90202-biscuiti-cu-crema"},{"code":"100065651","name":"Biscuiți cu umplutură de zmeură 160g","slug":"100065651-biskrem-biscuiti-cu-umplutura-de-zmeura-160g"}],"activePromotion":null,"saveMe":null,"labels":[],"geniusPrice":null,"geniusUnitPricePerLabel":null,"banner":null,"discountLabel":null,"geniusDiscountLabel":null,"badge":null},{"code":"100103854","variantCode":"100103854","name":"Biscuit cu bezea și granule de cacao 18g","slug":"100103854-puf-biscuit-cu-bezea-si-granule-de-cacao-18g","unitPriceLabel":"32,78 Lei/kg","brand":"Puf","brandCode":"2278","brandFilterCode":"puf-b2283","sku":"100103854","price":0.59,"originalPrice":null,"currencyCode":"RON","currency":"Lei","image":{"thumbnail":{"default":"https://cdn.freshful.ro/media/cache/sylius_shop_product_thumbnail/e4/80/968c2f345f829bd8ef40d7164ce1.jpg"},"large":{"default":"https://cdn.freshful.ro/media/cache/freshful_large/e4/80/968c2f345f829bd8ef40d7164ce1.jpg"},"extralarge":{"default":"https://cdn.freshful.ro/media/cache/sylius_shop_product_original/e4/80/968c2f345f829bd8ef40d7164ce1.jpg"}},"label":null,"tags":[],"isAvailable":true,"maxAvailableQuantity":100,"maxAllowedQuantity":100,"breadcrumbs":[{"code":"9","name":"Dulciuri & mic dejun","slug":"9-ceva-dulce"},{"code":"902","name":"Biscuiți, napolitane și prăjituri","slug":"902-biscuiti-napolitane-si-prajituri"},{"code":"90202","name":"Biscuiți cu cremă","slug":"90202-biscuiti-cu-crema"},{"code":"100103854","name":"Biscuit cu bezea și granule de cacao 18g","slug":"100103854-puf-biscuit-cu-bezea-si-granule-de-cacao-18g"}],"activePromotion":null,"saveMe":null,"labels":[],"geniusPrice":null,"geniusUnitPricePerLabel":null,"banner":null,"discountLabel":null,"geniusDiscountLabel":null,"badge":null}],"filters":{"countSelected":0,"items":[{"code":"brand","name":"Brand","countSelected":0,"values":[{"code":"biskrem-b955","name":"Biskrem","isSelected":false,"count":10},{"code":"croco-b1177","name":"Croco","isSelected":false,"count":4},{"code":"eugenia-b232","name":"Eugenia","isSelected":false,"count":12},{"code":"gullon-b1535","name":"Gullon","isSelected":false,"count":1},{"code":"halley-b957","name":"Halley","isSelected":false,"count":2},{"code":"hellema-b98","name":"Hellema","isSelected":false,"count":1},{"code":"kinder-b11","name":"Kinder","isSelected":false,"count":1},{"code":"merba-b637","name":"Merba","isSelected":false,"count":4},{"code":"milka-b470","name":"Milka","isSelected":false,"count":9},{"code":"mulino-bianco-b269","name":"Mulino Bianco","isSelected":false,"count":2},{"code":"oreo-b469","name":"Oreo","isSelected":false,"count":2},{"code":"puf-b2283","name":"Puf","isSelected":false,"count":8},{"code":"rom-b1544","name":"Rom","isSelected":false,"count":2},{"code":"ulpio-b2985","name":"Ulpio","isSelected":false,"count":4},{"code":"woogie-b2305","name":"Woogie","isSelected":false,"count":1}]}]},"orderBy":[{"field":"price","direction":"asc","name":"Preț crescător","isSelected":false},{"field":"price","direction":"desc","name":"Preț descrescător","isSelected":false},{"field":"popularity","direction":"desc","name":"Cele mai populare","isSelected":true},{"field":"category","direction":"asc","name":"Categorie","isSelected":false}],"metaTitle":"Biscuiți cu cremă - Gamă variată","metaDescription":"Vrei Biscuiți cu cremă? Alege dintr-o gamă variată. Comanzi simplu și ai livrare rapidă, calitate și prospețime. Hai pe Freshful.ro","metaKeywords":null,"banners":[]}}