{"type":"subcategory","payload":{"analyticsListId":"category_90201-biscuiti-simpli","analyticsListName":"Category - Biscuiți simpli","name":"Biscuiți simpli","slug":"90201-biscuiti-simpli","image":null,"breadcrumbs":[{"code":"9","name":"Dulciuri & mic dejun","slug":"9-ceva-dulce"},{"code":"902","name":"Biscuiți, napolitane și prăjituri","slug":"902-biscuiti-napolitane-si-prajituri"},{"code":"90201","name":"Biscuiți simpli","slug":"90201-biscuiti-simpli"}],"slots":[],"page":1,"limit":10,"pages":9,"count":89,"siblings":[{"name":"Biscuiți, napolitane și prăjituri","slug":"902-biscuiti-napolitane-si-prajituri","selected":true},{"name":"Cereale și mic dejun","slug":"903-cereale-si-mic-dejun","selected":false},{"name":"Cafea și ceai","slug":"904-cafea-si-ceai","selected":false},{"name":"Bomboane și ciocolată","slug":"905-bomboane-si-ciocolata","selected":false}],"children":[{"name":"Toate produsele","slug":"902-biscuiti-napolitane-si-prajituri","selected":false},{"name":"Biscuiți simpli","slug":"90201-biscuiti-simpli","selected":true},{"name":"Biscuiți cu cremă","slug":"90202-biscuiti-cu-crema","selected":false},{"name":"Napolitane și turtă dulce","slug":"90203-napolitane-si-turta-dulce","selected":false},{"name":"Croissant, brioșe, checuri și cozonaci","slug":"90204-croissant-briose-checuri-si-cozonaci","selected":false},{"name":"Pișcoturi și fursecuri","slug":"90205-piscoturi-si-fursecuri","selected":false},{"name":"Nuga, halva și rahat","slug":"90206-nuga-halva-si-rahat","selected":false},{"name":"Prăjituri, rulade și madlene","slug":"90207-prajituri-rulada-si-madlene","selected":false}],"products":[{"code":"100140819","variantCode":"100140819","name":"Biscuiți Petit Beurre lapte 450g","slug":"100140819-petit-beurre-biscuiti-petit-beurre-lapte-450g","unitPriceLabel":"26,64 Lei/kg","brand":"Petit Beurre","brandCode":"1008","brandFilterCode":"petit-beurre-b958","sku":"100140819","price":11.99,"originalPrice":null,"currencyCode":"RON","currency":"Lei","image":{"thumbnail":{"default":"https://cdn.freshful.ro/media/cache/sylius_shop_product_thumbnail/fe/65/9200142ae40a4933004dbf7ce030.jpg"},"large":{"default":"https://cdn.freshful.ro/media/cache/freshful_large/fe/65/9200142ae40a4933004dbf7ce030.jpg"},"extralarge":{"default":"https://cdn.freshful.ro/media/cache/sylius_shop_product_original/fe/65/9200142ae40a4933004dbf7ce030.jpg"}},"label":null,"tags":[],"isAvailable":true,"maxAvailableQuantity":100,"maxAllowedQuantity":100,"breadcrumbs":[{"code":"9","name":"Dulciuri & mic dejun","slug":"9-ceva-dulce"},{"code":"902","name":"Biscuiți, napolitane și prăjituri","slug":"902-biscuiti-napolitane-si-prajituri"},{"code":"90201","name":"Biscuiți simpli","slug":"90201-biscuiti-simpli"},{"code":"100140819","name":"Biscuiți Petit Beurre lapte 450g","slug":"100140819-petit-beurre-biscuiti-petit-beurre-lapte-450g"}],"activePromotion":null,"saveMe":null,"labels":[],"geniusPrice":null,"geniusUnitPricePerLabel":null,"banner":null,"discountLabel":null,"geniusDiscountLabel":null,"badge":null},{"code":"100058689","variantCode":"100058689","name":"Biscuiți cu unt 200g","slug":"100058689-leibniz-biscuiti-cu-unt-200g","unitPriceLabel":"46,45 Lei/kg","brand":"Leibniz","brandCode":"878","brandFilterCode":"leibniz-b879","sku":"100058689","price":9.29,"originalPrice":null,"currencyCode":"RON","currency":"Lei","image":{"thumbnail":{"default":"https://cdn.freshful.ro/media/cache/sylius_shop_product_thumbnail/cf/2c/b98d47442684dec7bc9186c2fb68.jpg"},"large":{"default":"https://cdn.freshful.ro/media/cache/freshful_large/cf/2c/b98d47442684dec7bc9186c2fb68.jpg"},"extralarge":{"default":"https://cdn.freshful.ro/media/cache/sylius_shop_product_original/cf/2c/b98d47442684dec7bc9186c2fb68.jpg"}},"label":null,"tags":[],"isAvailable":true,"maxAvailableQuantity":100,"maxAllowedQuantity":100,"breadcrumbs":[{"code":"9","name":"Dulciuri & mic dejun","slug":"9-ceva-dulce"},{"code":"902","name":"Biscuiți, napolitane și prăjituri","slug":"902-biscuiti-napolitane-si-prajituri"},{"code":"90201","name":"Biscuiți simpli","slug":"90201-biscuiti-simpli"},{"code":"100058689","name":"Biscuiți cu unt 200g","slug":"100058689-leibniz-biscuiti-cu-unt-200g"}],"activePromotion":null,"saveMe":null,"labels":[],"geniusPrice":null,"geniusUnitPricePerLabel":null,"banner":null,"discountLabel":null,"geniusDiscountLabel":null,"badge":null},{"code":"100058697","variantCode":"100058697","name":"Biscuiți cu cremă de ciocolată Keks'n Cream 190g","slug":"100058697-leibniz-biscuiti-cu-crema-de-ciocolata-keks-n-cream-190g","unitPriceLabel":"68,37 Lei/kg","brand":"Leibniz","brandCode":"878","brandFilterCode":"leibniz-b879","sku":"100058697","price":12.99,"originalPrice":null,"currencyCode":"RON","currency":"Lei","image":{"thumbnail":{"default":"https://cdn.freshful.ro/media/cache/sylius_shop_product_thumbnail/9f/a7/9a6024d17dc04e16a06931ea3f25.jpg"},"large":{"default":"https://cdn.freshful.ro/media/cache/freshful_large/9f/a7/9a6024d17dc04e16a06931ea3f25.jpg"},"extralarge":{"default":"https://cdn.freshful.ro/media/cache/sylius_shop_product_original/9f/a7/9a6024d17dc04e16a06931ea3f25.jpg"}},"label":null,"tags":[],"isAvailable":true,"maxAvailableQuantity":100,"maxAllowedQuantity":100,"breadcrumbs":[{"code":"9","name":"Dulciuri & mic dejun","slug":"9-ceva-dulce"},{"code":"902","name":"Biscuiți, napolitane și prăjituri","slug":"902-biscuiti-napolitane-si-prajituri"},{"code":"90201","name":"Biscuiți simpli","slug":"90201-biscuiti-simpli"},{"code":"100058697","name":"Biscuiți cu cremă de ciocolată Keks'n Cream 190g","slug":"100058697-leibniz-biscuiti-cu-crema-de-ciocolata-keks-n-cream-190g"}],"activePromotion":null,"saveMe":null,"labels":[],"geniusPrice":null,"geniusUnitPricePerLabel":null,"banner":null,"discountLabel":null,"geniusDiscountLabel":null,"badge":null},{"code":"100097410","variantCode":"100097410","name":"Biscuiți digestivi 400g","slug":"100097410-gullon-biscuiti-digestivi-400g","unitPriceLabel":"24,48 Lei/kg","brand":"Gullon","brandCode":"1531","brandFilterCode":"gullon-b1535","sku":"100097410","price":9.79,"originalPrice":null,"currencyCode":"RON","currency":"Lei","image":{"thumbnail":{"default":"https://cdn.freshful.ro/media/cache/sylius_shop_product_thumbnail/16/2c/ab6dcd08aea896c91cd18834b364.jpg"},"large":{"default":"https://cdn.freshful.ro/media/cache/freshful_large/16/2c/ab6dcd08aea896c91cd18834b364.jpg"},"extralarge":{"default":"https://cdn.freshful.ro/media/cache/sylius_shop_product_original/16/2c/ab6dcd08aea896c91cd18834b364.jpg"}},"label":null,"tags":[{"type":"Vegetarian","text":"Vegetarian","icon":"https://cdn.freshful.ro/assets/product_tags/vegetarian.svg","iconPng":"https://cdn.freshful.ro/assets/product_tags/vegetarian.png","backgroundColor":"#FAEAEE","textColor":"#B26275"}],"isAvailable":true,"maxAvailableQuantity":100,"maxAllowedQuantity":100,"breadcrumbs":[{"code":"9","name":"Dulciuri & mic dejun","slug":"9-ceva-dulce"},{"code":"902","name":"Biscuiți, napolitane și prăjituri","slug":"902-biscuiti-napolitane-si-prajituri"},{"code":"90201","name":"Biscuiți simpli","slug":"90201-biscuiti-simpli"},{"code":"100097410","name":"Biscuiți digestivi 400g","slug":"100097410-gullon-biscuiti-digestivi-400g"}],"activePromotion":null,"saveMe":null,"labels":[],"geniusPrice":null,"geniusUnitPricePerLabel":null,"banner":null,"discountLabel":null,"geniusDiscountLabel":null,"badge":null},{"code":"100097428","variantCode":"100097428","name":"Biscuiți integrali cu fulgi de ovăz 280g","slug":"100097428-gullon-biscuiti-integrali-cu-fulgi-de-ovaz-280g","unitPriceLabel":"33,89 Lei/kg","brand":"Gullon","brandCode":"1531","brandFilterCode":"gullon-b1535","sku":"100097428","price":9.49,"originalPrice":null,"currencyCode":"RON","currency":"Lei","image":{"thumbnail":{"default":"https://cdn.freshful.ro/media/cache/sylius_shop_product_thumbnail/c2/7b/7031069b21f36bb186de377a6121.jpg"},"large":{"default":"https://cdn.freshful.ro/media/cache/freshful_large/c2/7b/7031069b21f36bb186de377a6121.jpg"},"extralarge":{"default":"https://cdn.freshful.ro/media/cache/sylius_shop_product_original/c2/7b/7031069b21f36bb186de377a6121.jpg"}},"label":null,"tags":[],"isAvailable":true,"maxAvailableQuantity":100,"maxAllowedQuantity":100,"breadcrumbs":[{"code":"9","name":"Dulciuri & mic dejun","slug":"9-ceva-dulce"},{"code":"902","name":"Biscuiți, napolitane și prăjituri","slug":"902-biscuiti-napolitane-si-prajituri"},{"code":"90201","name":"Biscuiți simpli","slug":"90201-biscuiti-simpli"},{"code":"100097428","name":"Biscuiți integrali cu fulgi de ovăz 280g","slug":"100097428-gullon-biscuiti-integrali-cu-fulgi-de-ovaz-280g"}],"activePromotion":null,"saveMe":null,"labels":[],"geniusPrice":null,"geniusUnitPricePerLabel":null,"banner":null,"discountLabel":null,"geniusDiscountLabel":null,"badge":null},{"code":"100058698","variantCode":"100058698","name":"Biscuiți de cacao cu cremă de lapte Keks'n Cream 190g","slug":"100058698-leibniz-biscuiti-de-cacao-cu-crema-de-lapte-keks-n-cream-190g","unitPriceLabel":"56,58 Lei/kg","brand":"Leibniz","brandCode":"878","brandFilterCode":"leibniz-b879","sku":"100058698","price":12.9,"originalPrice":null,"currencyCode":"RON","currency":"Lei","image":{"thumbnail":{"default":"https://cdn.freshful.ro/media/cache/sylius_shop_product_thumbnail/a9/f4/46da548ea1b6c58e5673f167da82.jpg"},"large":{"default":"https://cdn.freshful.ro/media/cache/freshful_large/a9/f4/46da548ea1b6c58e5673f167da82.jpg"},"extralarge":{"default":"https://cdn.freshful.ro/media/cache/sylius_shop_product_original/a9/f4/46da548ea1b6c58e5673f167da82.jpg"}},"label":null,"tags":[],"isAvailable":true,"maxAvailableQuantity":100,"maxAllowedQuantity":100,"breadcrumbs":[{"code":"9","name":"Dulciuri & mic dejun","slug":"9-ceva-dulce"},{"code":"902","name":"Biscuiți, napolitane și prăjituri","slug":"902-biscuiti-napolitane-si-prajituri"},{"code":"90201","name":"Biscuiți simpli","slug":"90201-biscuiti-simpli"},{"code":"100058698","name":"Biscuiți de cacao cu cremă de lapte Keks'n Cream 190g","slug":"100058698-leibniz-biscuiti-de-cacao-cu-crema-de-lapte-keks-n-cream-190g"}],"activePromotion":null,"saveMe":null,"labels":[],"geniusPrice":null,"geniusUnitPricePerLabel":null,"banner":null,"discountLabel":null,"geniusDiscountLabel":null,"badge":null},{"code":"100058688","variantCode":"100058688","name":"Biscuiți cu unt 100g","slug":"100058688-leibniz-biscuiti-cu-unt-100g","unitPriceLabel":"91 Lei/kg","brand":"Leibniz","brandCode":"878","brandFilterCode":"leibniz-b879","sku":"100058688","price":4.55,"originalPrice":null,"currencyCode":"RON","currency":"Lei","image":{"thumbnail":{"default":"https://cdn.freshful.ro/media/cache/sylius_shop_product_thumbnail/c2/eb/107b275fde850e8991f97265c18e.jpg"},"large":{"default":"https://cdn.freshful.ro/media/cache/freshful_large/c2/eb/107b275fde850e8991f97265c18e.jpg"},"extralarge":{"default":"https://cdn.freshful.ro/media/cache/sylius_shop_product_original/c2/eb/107b275fde850e8991f97265c18e.jpg"}},"label":null,"tags":[],"isAvailable":true,"maxAvailableQuantity":100,"maxAllowedQuantity":100,"breadcrumbs":[{"code":"9","name":"Dulciuri & mic dejun","slug":"9-ceva-dulce"},{"code":"902","name":"Biscuiți, napolitane și prăjituri","slug":"902-biscuiti-napolitane-si-prajituri"},{"code":"90201","name":"Biscuiți simpli","slug":"90201-biscuiti-simpli"},{"code":"100058688","name":"Biscuiți cu unt 100g","slug":"100058688-leibniz-biscuiti-cu-unt-100g"}],"activePromotion":null,"saveMe":null,"labels":[],"geniusPrice":null,"geniusUnitPricePerLabel":null,"banner":null,"discountLabel":null,"geniusDiscountLabel":null,"badge":null},{"code":"100058692","variantCode":"100058692","name":"Biscuiți crocanți cu ciocolată și lapte Minis Choco 100g","slug":"100058692-leibniz-biscuiti-crocanti-cu-ciocolata-si-lapte-minis-choco-100g","unitPriceLabel":"61,9 Lei/kg","brand":"Leibniz","brandCode":"878","brandFilterCode":"leibniz-b879","sku":"100058692","price":6.19,"originalPrice":null,"currencyCode":"RON","currency":"Lei","image":{"thumbnail":{"default":"https://cdn.freshful.ro/media/cache/sylius_shop_product_thumbnail/32/86/0cb42e80c2e65211d849a5351e86.jpg"},"large":{"default":"https://cdn.freshful.ro/media/cache/freshful_large/32/86/0cb42e80c2e65211d849a5351e86.jpg"},"extralarge":{"default":"https://cdn.freshful.ro/media/cache/sylius_shop_product_original/32/86/0cb42e80c2e65211d849a5351e86.jpg"}},"label":null,"tags":[],"isAvailable":true,"maxAvailableQuantity":100,"maxAllowedQuantity":100,"breadcrumbs":[{"code":"9","name":"Dulciuri & mic dejun","slug":"9-ceva-dulce"},{"code":"902","name":"Biscuiți, napolitane și prăjituri","slug":"902-biscuiti-napolitane-si-prajituri"},{"code":"90201","name":"Biscuiți simpli","slug":"90201-biscuiti-simpli"},{"code":"100058692","name":"Biscuiți crocanți cu ciocolată și lapte Minis Choco 100g","slug":"100058692-leibniz-biscuiti-crocanti-cu-ciocolata-si-lapte-minis-choco-100g"}],"activePromotion":null,"saveMe":null,"labels":[],"geniusPrice":null,"geniusUnitPricePerLabel":null,"banner":null,"discountLabel":null,"geniusDiscountLabel":null,"badge":null},{"code":"100058695","variantCode":"100058695","name":"Biscuiți cu unt Zoo original 100g","slug":"100058695-leibniz-biscuiti-cu-unt-zoo-original-100g","unitPriceLabel":"69,9 Lei/kg","brand":"Leibniz","brandCode":"878","brandFilterCode":"leibniz-b879","sku":"100058695","price":6.99,"originalPrice":null,"currencyCode":"RON","currency":"Lei","image":{"thumbnail":{"default":"https://cdn.freshful.ro/media/cache/sylius_shop_product_thumbnail/da/be/4e341f37b57afc65b738b3a20b96.jpg"},"large":{"default":"https://cdn.freshful.ro/media/cache/freshful_large/da/be/4e341f37b57afc65b738b3a20b96.jpg"},"extralarge":{"default":"https://cdn.freshful.ro/media/cache/sylius_shop_product_original/da/be/4e341f37b57afc65b738b3a20b96.jpg"}},"label":null,"tags":[],"isAvailable":true,"maxAvailableQuantity":100,"maxAllowedQuantity":100,"breadcrumbs":[{"code":"9","name":"Dulciuri & mic dejun","slug":"9-ceva-dulce"},{"code":"902","name":"Biscuiți, napolitane și prăjituri","slug":"902-biscuiti-napolitane-si-prajituri"},{"code":"90201","name":"Biscuiți simpli","slug":"90201-biscuiti-simpli"},{"code":"100058695","name":"Biscuiți cu unt Zoo original 100g","slug":"100058695-leibniz-biscuiti-cu-unt-zoo-original-100g"}],"activePromotion":null,"saveMe":null,"labels":[],"geniusPrice":null,"geniusUnitPricePerLabel":null,"banner":null,"discountLabel":null,"geniusDiscountLabel":null,"badge":null},{"code":"100098413","variantCode":"100098413","name":"Biscuiți scoțieni cu ciocolată 100g","slug":"100098413-paula-ana-biscuiti-scotieni-cu-ciocolata-100g","unitPriceLabel":"109,9 Lei/kg","brand":"Paula Ana","brandCode":"1618","brandFilterCode":"paula-ana-b1622","sku":"100098413","price":10.99,"originalPrice":null,"currencyCode":"RON","currency":"Lei","image":{"thumbnail":{"default":"https://cdn.freshful.ro/media/cache/sylius_shop_product_thumbnail/df/96/32391d6d9fe76022a1dd91239262.jpg"},"large":{"default":"https://cdn.freshful.ro/media/cache/freshful_large/df/96/32391d6d9fe76022a1dd91239262.jpg"},"extralarge":{"default":"https://cdn.freshful.ro/media/cache/sylius_shop_product_original/df/96/32391d6d9fe76022a1dd91239262.jpg"}},"label":{"text":"Mici producători","backgroundColor":"#7B61FF","textColor":"#FFFFFF"},"tags":[],"isAvailable":true,"maxAvailableQuantity":1,"maxAllowedQuantity":100,"breadcrumbs":[{"code":"9","name":"Dulciuri & mic dejun","slug":"9-ceva-dulce"},{"code":"902","name":"Biscuiți, napolitane și prăjituri","slug":"902-biscuiti-napolitane-si-prajituri"},{"code":"90201","name":"Biscuiți simpli","slug":"90201-biscuiti-simpli"},{"code":"100098413","name":"Biscuiți scoțieni cu ciocolată 100g","slug":"100098413-paula-ana-biscuiti-scotieni-cu-ciocolata-100g"}],"activePromotion":null,"saveMe":null,"labels":[{"type":"v1","items":[{"text":"Mici producători","backgroundColor":"#7B61FF","textColor":"#FFFFFF"}]}],"geniusPrice":null,"geniusUnitPricePerLabel":null,"banner":null,"discountLabel":null,"geniusDiscountLabel":null,"badge":null}],"filters":{"countSelected":0,"items":[{"code":"brand","name":"Brand","countSelected":0,"values":[{"code":"alka-biscuiti-b1796","name":"Alka Biscuiți","isSelected":false,"count":3},{"code":"artebianca-b107","name":"Artebianca","isSelected":false,"count":2},{"code":"belvita-b1882","name":"Belvita","isSelected":false,"count":4},{"code":"colussi-b1497","name":"Colussi","isSelected":false,"count":1},{"code":"croco-b1177","name":"Croco","isSelected":false,"count":2},{"code":"dare-b163","name":"Dare","isSelected":false,"count":4},{"code":"digesta-b230","name":"Digesta","isSelected":false,"count":4},{"code":"eti-b29","name":"Eti","isSelected":false,"count":1},{"code":"gerble-b1711","name":"Gerble","isSelected":false,"count":14},{"code":"gullon-b1535","name":"Gullon","isSelected":false,"count":4},{"code":"leibniz-b879","name":"Leibniz","isSelected":false,"count":14},{"code":"lotus-b2683","name":"Lotus","isSelected":false,"count":3},{"code":"mcvitie-s-b954","name":"McVitie's","isSelected":false,"count":8},{"code":"merba-b637","name":"Merba","isSelected":false,"count":1},{"code":"merlin-b231","name":"Merlin","isSelected":false,"count":2},{"code":"misura-b1496","name":"Misura","isSelected":false,"count":4},{"code":"mulino-bianco-b269","name":"Mulino Bianco","isSelected":false,"count":2},{"code":"paula-ana-b1622","name":"Paula Ana","isSelected":false,"count":4},{"code":"petit-beurre-b958","name":"Petit Beurre","isSelected":false,"count":4},{"code":"san-b1883","name":"San","isSelected":false,"count":2},{"code":"ulpio-b2985","name":"Ulpio","isSelected":false,"count":4},{"code":"woogie-b2305","name":"Woogie","isSelected":false,"count":2}]},{"code":"diet_lifestyle","name":"Dietă și lifestyle","countSelected":0,"values":[{"code":"fara-conservanti-a37","name":"Fara conservanti","isSelected":false,"count":4},{"code":"fara-lactoza-a38","name":"Fara lactoza","isSelected":false,"count":1},{"code":"fara-zahar-adaugat-a29","name":"Fara zahar adaugat","isSelected":false,"count":1},{"code":"vegetarian-a28","name":"Vegetarian","isSelected":false,"count":1}]}]},"orderBy":[{"field":"price","direction":"asc","name":"Preț crescător","isSelected":false},{"field":"price","direction":"desc","name":"Preț descrescător","isSelected":false},{"field":"popularity","direction":"desc","name":"Cele mai populare","isSelected":true},{"field":"category","direction":"asc","name":"Categorie","isSelected":false}],"metaTitle":"Biscuiți simpli - Gamă variată","metaDescription":"Vrei Biscuiți simpli? Alege dintr-o gamă variată. Comanzi simplu și ai livrare rapidă, calitate și prospețime. Hai pe Freshful.ro","metaKeywords":null,"banners":[]}}