{"type":"subcategory","payload":{"analyticsListId":"category_903-cereale-si-mic-dejun","analyticsListName":"Category - Cereale și mic dejun","name":"Cereale și mic dejun","slug":"903-cereale-si-mic-dejun","image":null,"breadcrumbs":[{"code":"9","name":"Dulciuri & mic dejun","slug":"9-ceva-dulce"},{"code":"903","name":"Cereale și mic dejun","slug":"903-cereale-si-mic-dejun"}],"slots":[],"page":1,"limit":10,"pages":46,"count":454,"siblings":[{"name":"Biscuiți, napolitane și prăjituri","slug":"902-biscuiti-napolitane-si-prajituri","selected":false},{"name":"Cereale și mic dejun","slug":"903-cereale-si-mic-dejun","selected":true},{"name":"Cafea și ceai","slug":"904-cafea-si-ceai","selected":false},{"name":"Bomboane și ciocolată","slug":"905-bomboane-si-ciocolata","selected":false}],"children":[{"name":"Toate produsele","slug":"903-cereale-si-mic-dejun","selected":true},{"name":"Batoane","slug":"90301-batoane","selected":false},{"name":"Fulgi","slug":"90302-fulgi","selected":false},{"name":"Musli","slug":"90303-musli","selected":false},{"name":"Cereale pentru copii","slug":"90304-cereale-copii","selected":false},{"name":"Alte cereale","slug":"90305-alte-cereale","selected":false},{"name":"Cremă tartinabilă","slug":"90306-crema-tartinabila","selected":false},{"name":"Miere","slug":"90307-miere","selected":false},{"name":"Gem și dulceață","slug":"90308-gem-si-dulceata","selected":false}],"products":[{"code":"100065320","variantCode":"5941028002803","name":"Gem de căpșuni 370g","slug":"100065320-raureni-gem-de-capsuni-370g","unitPriceLabel":"24,3 Lei/kg","brand":"Râureni","brandCode":"772","brandFilterCode":"raureni-b773","sku":"100065320","price":8.99,"originalPrice":12.9,"currencyCode":"RON","currency":"Lei","image":{"thumbnail":{"default":"https://cdn.freshful.ro/media/cache/sylius_shop_product_thumbnail/5b/7b/3fe3f49a7908ed4080f0ee6f7681.jpg"},"large":{"default":"https://cdn.freshful.ro/media/cache/freshful_large/5b/7b/3fe3f49a7908ed4080f0ee6f7681.jpg"},"extralarge":{"default":"https://cdn.freshful.ro/media/cache/sylius_shop_product_original/5b/7b/3fe3f49a7908ed4080f0ee6f7681.jpg"}},"label":{"text":"-30%","backgroundColor":"#FF9903","textColor":"#FFFFFF"},"tags":[{"type":"MadeInRomania","text":"Made In Romania","icon":"https://cdn.freshful.ro/assets/product_tags/made_in_romania.svg","iconPng":"https://cdn.freshful.ro/assets/product_tags/made_in_romania.png","backgroundColor":"#EDF2FD","textColor":"#1653CA"}],"isAvailable":true,"maxAvailableQuantity":100,"maxAllowedQuantity":100,"breadcrumbs":[{"code":"9","name":"Dulciuri & mic dejun","slug":"9-ceva-dulce"},{"code":"903","name":"Cereale și mic dejun","slug":"903-cereale-si-mic-dejun"},{"code":"90308","name":"Gem și dulceață","slug":"90308-gem-si-dulceata"},{"code":"100065320","name":"Gem de căpșuni 370g","slug":"100065320-raureni-gem-de-capsuni-370g"}],"activePromotion":{"code":"oferte-bacanie-bauturi-21feb-8mar23","name":"Preț redus","targetQuantity":null},"saveMe":null,"labels":[{"type":"v1","items":[{"text":"-30%","backgroundColor":"#FF9903","textColor":"#FFFFFF"}]}],"geniusPrice":null,"geniusUnitPricePerLabel":null,"banner":{"text":"Super preț","textColor":"#FF0000","bgColor":"#FFF2EC","icon":null,"link":"https://www.freshful.ro/oferte/oferte-bacanie-bauturi-21feb-8mar23","type":"promo","analyticsEventType":"select_promotion","analyticsEventPayload":{"promotion_id":"oferte-bacanie-bauturi-21feb-8mar23","promotion_name":"Cămara cu băuturi și bunătăți"}},"discountLabel":"Economisești 30%","geniusDiscountLabel":null,"badge":null},{"code":"100065319","variantCode":"5941028002919","name":"Gem de caise 370g","slug":"100065319-raureni-gem-de-caise-370g","unitPriceLabel":"21,59 Lei/kg","brand":"Râureni","brandCode":"772","brandFilterCode":"raureni-b773","sku":"100065319","price":7.99,"originalPrice":9.95,"currencyCode":"RON","currency":"Lei","image":{"thumbnail":{"default":"https://cdn.freshful.ro/media/cache/sylius_shop_product_thumbnail/bd/58/b7f8dc60e558b62ed3c9ca941614.jpg"},"large":{"default":"https://cdn.freshful.ro/media/cache/freshful_large/bd/58/b7f8dc60e558b62ed3c9ca941614.jpg"},"extralarge":{"default":"https://cdn.freshful.ro/media/cache/sylius_shop_product_original/bd/58/b7f8dc60e558b62ed3c9ca941614.jpg"}},"label":{"text":"-19%","backgroundColor":"#FF9903","textColor":"#FFFFFF"},"tags":[{"type":"MadeInRomania","text":"Made In Romania","icon":"https://cdn.freshful.ro/assets/product_tags/made_in_romania.svg","iconPng":"https://cdn.freshful.ro/assets/product_tags/made_in_romania.png","backgroundColor":"#EDF2FD","textColor":"#1653CA"}],"isAvailable":true,"maxAvailableQuantity":100,"maxAllowedQuantity":100,"breadcrumbs":[{"code":"9","name":"Dulciuri & mic dejun","slug":"9-ceva-dulce"},{"code":"903","name":"Cereale și mic dejun","slug":"903-cereale-si-mic-dejun"},{"code":"90308","name":"Gem și dulceață","slug":"90308-gem-si-dulceata"},{"code":"100065319","name":"Gem de caise 370g","slug":"100065319-raureni-gem-de-caise-370g"}],"activePromotion":{"code":"oferte-bacanie-bauturi-21feb-8mar23","name":"Preț redus","targetQuantity":null},"saveMe":null,"labels":[{"type":"v1","items":[{"text":"-19%","backgroundColor":"#FF9903","textColor":"#FFFFFF"}]}],"geniusPrice":null,"geniusUnitPricePerLabel":null,"banner":{"text":"Super preț","textColor":"#FF0000","bgColor":"#FFF2EC","icon":null,"link":"https://www.freshful.ro/oferte/oferte-bacanie-bauturi-21feb-8mar23","type":"promo","analyticsEventType":"select_promotion","analyticsEventPayload":{"promotion_id":"oferte-bacanie-bauturi-21feb-8mar23","promotion_name":"Cămara cu băuturi și bunătăți"}},"discountLabel":"Economisești 19%","geniusDiscountLabel":null,"badge":null},{"code":"100143512","variantCode":"100143512","name":"Cremă de arahide Crunchy 350g","slug":"100143512-calve-crema-de-arahide-crunchy-350g","unitPriceLabel":"51,4 Lei/kg","brand":"Calve","brandCode":"2778","brandFilterCode":"calve-b2852","sku":"100143512","price":17.99,"originalPrice":21.99,"currencyCode":"RON","currency":"Lei","image":{"thumbnail":{"default":"https://cdn.freshful.ro/media/cache/sylius_shop_product_thumbnail/c8/9e/e570630ae893d5947e486c9deac5.jpg"},"large":{"default":"https://cdn.freshful.ro/media/cache/freshful_large/c8/9e/e570630ae893d5947e486c9deac5.jpg"},"extralarge":{"default":"https://cdn.freshful.ro/media/cache/sylius_shop_product_original/c8/9e/e570630ae893d5947e486c9deac5.jpg"}},"label":{"text":"-18%","backgroundColor":"#FF9903","textColor":"#FFFFFF"},"tags":[{"type":"Vegetarian","text":"Vegetarian","icon":"https://cdn.freshful.ro/assets/product_tags/vegetarian.svg","iconPng":"https://cdn.freshful.ro/assets/product_tags/vegetarian.png","backgroundColor":"#FAEAEE","textColor":"#B26275"}],"isAvailable":true,"maxAvailableQuantity":42,"maxAllowedQuantity":100,"breadcrumbs":[{"code":"9","name":"Dulciuri & mic dejun","slug":"9-ceva-dulce"},{"code":"903","name":"Cereale și mic dejun","slug":"903-cereale-si-mic-dejun"},{"code":"90306","name":"Cremă tartinabilă","slug":"90306-crema-tartinabila"},{"code":"100143512","name":"Cremă de arahide Crunchy 350g","slug":"100143512-calve-crema-de-arahide-crunchy-350g"}],"activePromotion":{"code":"oferte-bacanie-bauturi-21feb-8mar23","name":"Preț redus","targetQuantity":null},"saveMe":null,"labels":[{"type":"v1","items":[{"text":"-18%","backgroundColor":"#FF9903","textColor":"#FFFFFF"}]}],"geniusPrice":null,"geniusUnitPricePerLabel":null,"banner":{"text":"Super preț","textColor":"#FF0000","bgColor":"#FFF2EC","icon":null,"link":"https://www.freshful.ro/oferte/oferte-bacanie-bauturi-21feb-8mar23","type":"promo","analyticsEventType":"select_promotion","analyticsEventPayload":{"promotion_id":"oferte-bacanie-bauturi-21feb-8mar23","promotion_name":"Cămara cu băuturi și bunătăți"}},"discountLabel":"Economisești 18%","geniusDiscountLabel":null,"badge":null},{"code":"100130331","variantCode":"100130331","name":"Miere de salcâm crudă 800g","slug":"100130331-colonia-miere-de-salcam-cruda-800g","unitPriceLabel":"62,49 Lei/kg","brand":"Colonia","brandCode":"2450","brandFilterCode":"colonia-b2454","sku":"100130331","price":49.99,"originalPrice":55.99,"currencyCode":"RON","currency":"Lei","image":{"thumbnail":{"default":"https://cdn.freshful.ro/media/cache/sylius_shop_product_thumbnail/6c/a6/0c629e4b55a4b8511a491c9b70ca.jpg"},"large":{"default":"https://cdn.freshful.ro/media/cache/freshful_large/6c/a6/0c629e4b55a4b8511a491c9b70ca.jpg"},"extralarge":{"default":"https://cdn.freshful.ro/media/cache/sylius_shop_product_original/6c/a6/0c629e4b55a4b8511a491c9b70ca.jpg"}},"label":{"text":"-10%","backgroundColor":"#FF9903","textColor":"#FFFFFF"},"tags":[{"type":"Natural","text":"Natural","icon":"https://cdn.freshful.ro/assets/product_tags/natural.svg","iconPng":"https://cdn.freshful.ro/assets/product_tags/natural.png","backgroundColor":"#E9FCF2","textColor":"#18AF62"}],"isAvailable":true,"maxAvailableQuantity":61,"maxAllowedQuantity":100,"breadcrumbs":[{"code":"9","name":"Dulciuri & mic dejun","slug":"9-ceva-dulce"},{"code":"903","name":"Cereale și mic dejun","slug":"903-cereale-si-mic-dejun"},{"code":"90307","name":"Miere","slug":"90307-miere"},{"code":"100130331","name":"Miere de salcâm crudă 800g","slug":"100130331-colonia-miere-de-salcam-cruda-800g"}],"activePromotion":{"code":"oferte-bacanie-bauturi-21feb-8mar23","name":"Preț redus","targetQuantity":null},"saveMe":null,"labels":[{"type":"v1","items":[{"text":"-10%","backgroundColor":"#FF9903","textColor":"#FFFFFF"}]}],"geniusPrice":null,"geniusUnitPricePerLabel":null,"banner":{"text":"Super preț","textColor":"#FF0000","bgColor":"#FFF2EC","icon":null,"link":"https://www.freshful.ro/oferte/oferte-bacanie-bauturi-21feb-8mar23","type":"promo","analyticsEventType":"select_promotion","analyticsEventPayload":{"promotion_id":"oferte-bacanie-bauturi-21feb-8mar23","promotion_name":"Cămara cu băuturi și bunătăți"}},"discountLabel":"Economisești 10%","geniusDiscountLabel":null,"badge":null},{"code":"100143513","variantCode":"100143513","name":"Cremă de arahide Light 350g","slug":"100143513-calve-crema-de-arahide-light-350g","unitPriceLabel":"54,26 Lei/kg","brand":"Calve","brandCode":"2778","brandFilterCode":"calve-b2852","sku":"100143513","price":18.99,"originalPrice":23.49,"currencyCode":"RON","currency":"Lei","image":{"thumbnail":{"default":"https://cdn.freshful.ro/media/cache/sylius_shop_product_thumbnail/d0/d5/8ac493d7135b3ed3cbf08f1d2368.jpg"},"large":{"default":"https://cdn.freshful.ro/media/cache/freshful_large/d0/d5/8ac493d7135b3ed3cbf08f1d2368.jpg"},"extralarge":{"default":"https://cdn.freshful.ro/media/cache/sylius_shop_product_original/d0/d5/8ac493d7135b3ed3cbf08f1d2368.jpg"}},"label":{"text":"-19%","backgroundColor":"#FF9903","textColor":"#FFFFFF"},"tags":[],"isAvailable":true,"maxAvailableQuantity":34,"maxAllowedQuantity":100,"breadcrumbs":[{"code":"9","name":"Dulciuri & mic dejun","slug":"9-ceva-dulce"},{"code":"903","name":"Cereale și mic dejun","slug":"903-cereale-si-mic-dejun"},{"code":"90306","name":"Cremă tartinabilă","slug":"90306-crema-tartinabila"},{"code":"100143513","name":"Cremă de arahide Light 350g","slug":"100143513-calve-crema-de-arahide-light-350g"}],"activePromotion":{"code":"special-produse-vegane-mar23","name":"Preț redus","targetQuantity":null},"saveMe":null,"labels":[{"type":"v1","items":[{"text":"-19%","backgroundColor":"#FF9903","textColor":"#FFFFFF"}]}],"geniusPrice":null,"geniusUnitPricePerLabel":null,"banner":{"text":"Super preț","textColor":"#FF0000","bgColor":"#FFF2EC","icon":null,"link":"https://www.freshful.ro/oferte/special-produse-vegane-mar23","type":"promo","analyticsEventType":"select_promotion","analyticsEventPayload":{"promotion_id":"special-produse-vegane-mar23","promotion_name":"Și bun, și de post"}},"discountLabel":"Economisești 19%","geniusDiscountLabel":null,"badge":null},{"code":"100150975","variantCode":"100150975","name":"Cereale cu cacao și bucăți de marshmallow Sea Party 325g","slug":"100150975-no-brand-cereale-cu-cacao-si-bucati-de-marshmallow-sea-party-325g","unitPriceLabel":"66,64 Lei/kg","brand":"Cereal Crunch","brandCode":"3155","brandFilterCode":"cereal-crunch-b3249","sku":"100150975","price":29.99,"originalPrice":null,"currencyCode":"RON","currency":"Lei","image":{"thumbnail":{"default":"https://cdn.freshful.ro/media/cache/sylius_shop_product_thumbnail/34/27/e84764810d8601346c1a420b9311.jpg"},"large":{"default":"https://cdn.freshful.ro/media/cache/freshful_large/34/27/e84764810d8601346c1a420b9311.jpg"},"extralarge":{"default":"https://cdn.freshful.ro/media/cache/sylius_shop_product_original/34/27/e84764810d8601346c1a420b9311.jpg"}},"label":{"text":"-20% cu Genius","backgroundColor":"#FEF3FA","textColor":"#CD015F"},"tags":[],"isAvailable":true,"maxAvailableQuantity":30,"maxAllowedQuantity":100,"breadcrumbs":[{"code":"9","name":"Dulciuri & mic dejun","slug":"9-ceva-dulce"},{"code":"903","name":"Cereale și mic dejun","slug":"903-cereale-si-mic-dejun"},{"code":"90305","name":"Alte cereale","slug":"90305-alte-cereale"},{"code":"100150975","name":"Cereale cu cacao și bucăți de marshmallow Sea Party 325g","slug":"100150975-no-brand-cereale-cu-cacao-si-bucati-de-marshmallow-sea-party-325g"}],"activePromotion":null,"saveMe":null,"labels":[{"type":"gdeals","items":[{"text":"","backgroundColor":"","textColor":""}]},{"type":"v3","items":[{"text":"-20% cu Genius","backgroundColor":"#FEF3FA","textColor":"#CD015F"}]}],"geniusPrice":23.99,"geniusUnitPricePerLabel":"53,31 Lei/kg","banner":null,"discountLabel":null,"geniusDiscountLabel":"Economisești 20%","badge":null},{"code":"100150978","variantCode":"100150978","name":"Cereale fulgi cu scortișoară 450g","slug":"100150978-cereal-crunch-cereale-fulgi-cu-scortisoara-450g","unitPriceLabel":"51,09 Lei/kg","brand":"Cereal Crunch","brandCode":"3155","brandFilterCode":"cereal-crunch-b3249","sku":"100150978","price":22.99,"originalPrice":null,"currencyCode":"RON","currency":"Lei","image":{"thumbnail":{"default":"https://cdn.freshful.ro/media/cache/sylius_shop_product_thumbnail/bc/ee/02020498bd4956271474bb85d835.jpg"},"large":{"default":"https://cdn.freshful.ro/media/cache/freshful_large/bc/ee/02020498bd4956271474bb85d835.jpg"},"extralarge":{"default":"https://cdn.freshful.ro/media/cache/sylius_shop_product_original/bc/ee/02020498bd4956271474bb85d835.jpg"}},"label":{"text":"-20% cu Genius","backgroundColor":"#FEF3FA","textColor":"#CD015F"},"tags":[],"isAvailable":true,"maxAvailableQuantity":21,"maxAllowedQuantity":100,"breadcrumbs":[{"code":"9","name":"Dulciuri & mic dejun","slug":"9-ceva-dulce"},{"code":"903","name":"Cereale și mic dejun","slug":"903-cereale-si-mic-dejun"},{"code":"90305","name":"Alte cereale","slug":"90305-alte-cereale"},{"code":"100150978","name":"Cereale fulgi cu scortișoară 450g","slug":"100150978-cereal-crunch-cereale-fulgi-cu-scortisoara-450g"}],"activePromotion":null,"saveMe":null,"labels":[{"type":"gdeals","items":[{"text":"","backgroundColor":"","textColor":""}]},{"type":"v3","items":[{"text":"-20% cu Genius","backgroundColor":"#FEF3FA","textColor":"#CD015F"}]}],"geniusPrice":18.39,"geniusUnitPricePerLabel":"40,87 Lei/kg","banner":null,"discountLabel":null,"geniusDiscountLabel":"Economisești 20%","badge":null},{"code":"100143514","variantCode":"100143514","name":"Cremă de arahide Creamy 350g","slug":"100143514-calve-crema-de-arahide-creamy-350g","unitPriceLabel":"51,4 Lei/kg","brand":"Calve","brandCode":"2778","brandFilterCode":"calve-b2852","sku":"100143514","price":17.99,"originalPrice":22.99,"currencyCode":"RON","currency":"Lei","image":{"thumbnail":{"default":"https://cdn.freshful.ro/media/cache/sylius_shop_product_thumbnail/99/71/e1644284bb8c75eedf7fb01d159d.jpg"},"large":{"default":"https://cdn.freshful.ro/media/cache/freshful_large/99/71/e1644284bb8c75eedf7fb01d159d.jpg"},"extralarge":{"default":"https://cdn.freshful.ro/media/cache/sylius_shop_product_original/99/71/e1644284bb8c75eedf7fb01d159d.jpg"}},"label":{"text":"-21%","backgroundColor":"#FF9903","textColor":"#FFFFFF"},"tags":[],"isAvailable":true,"maxAvailableQuantity":28,"maxAllowedQuantity":100,"breadcrumbs":[{"code":"9","name":"Dulciuri & mic dejun","slug":"9-ceva-dulce"},{"code":"903","name":"Cereale și mic dejun","slug":"903-cereale-si-mic-dejun"},{"code":"90306","name":"Cremă tartinabilă","slug":"90306-crema-tartinabila"},{"code":"100143514","name":"Cremă de arahide Creamy 350g","slug":"100143514-calve-crema-de-arahide-creamy-350g"}],"activePromotion":{"code":"special-produse-vegane-mar23","name":"Preț redus","targetQuantity":null},"saveMe":null,"labels":[{"type":"v1","items":[{"text":"-21%","backgroundColor":"#FF9903","textColor":"#FFFFFF"}]}],"geniusPrice":null,"geniusUnitPricePerLabel":null,"banner":{"text":"Super preț","textColor":"#FF0000","bgColor":"#FFF2EC","icon":null,"link":"https://www.freshful.ro/oferte/special-produse-vegane-mar23","type":"promo","analyticsEventType":"select_promotion","analyticsEventPayload":{"promotion_id":"special-produse-vegane-mar23","promotion_name":"Și bun, și de post"}},"discountLabel":"Economisești 21%","geniusDiscountLabel":null,"badge":null},{"code":"100140171","variantCode":"100140171","name":"Cremă tartinabilă de arahide 100%, 185g","slug":"100140171-primavika-crema-tartinabila-de-arahide-100-185g","unitPriceLabel":"64,81 Lei/kg","brand":"Primavika","brandCode":"2682","brandFilterCode":"primavika-b2686","sku":"100140171","price":11.99,"originalPrice":17.99,"currencyCode":"RON","currency":"Lei","image":{"thumbnail":{"default":"https://cdn.freshful.ro/media/cache/sylius_shop_product_thumbnail/c9/ca/592a12e54caa2000ce24876e8c95.jpg"},"large":{"default":"https://cdn.freshful.ro/media/cache/freshful_large/c9/ca/592a12e54caa2000ce24876e8c95.jpg"},"extralarge":{"default":"https://cdn.freshful.ro/media/cache/sylius_shop_product_original/c9/ca/592a12e54caa2000ce24876e8c95.jpg"}},"label":{"text":"-33%","backgroundColor":"#FF9903","textColor":"#FFFFFF"},"tags":[{"type":"vegan","text":"Vegan","icon":"https://cdn.freshful.ro/assets/product_tags/vegan.svg","iconPng":"https://cdn.freshful.ro/assets/product_tags/vegan.png","backgroundColor":"#ECF9F8","textColor":"#33A39C"},{"type":"NoGluten","text":"Fara gluten","icon":"https://cdn.freshful.ro/assets/product_tags/fara_gluten.svg","iconPng":"https://cdn.freshful.ro/assets/product_tags/fara_gluten.png","backgroundColor":"#FFF2E5","textColor":"#F07900"}],"isAvailable":true,"maxAvailableQuantity":47,"maxAllowedQuantity":100,"breadcrumbs":[{"code":"9","name":"Dulciuri & mic dejun","slug":"9-ceva-dulce"},{"code":"903","name":"Cereale și mic dejun","slug":"903-cereale-si-mic-dejun"},{"code":"90306","name":"Cremă tartinabilă","slug":"90306-crema-tartinabila"},{"code":"100140171","name":"Cremă tartinabilă de arahide 100%, 185g","slug":"100140171-primavika-crema-tartinabila-de-arahide-100-185g"}],"activePromotion":{"code":"special-produse-vegane-mar23","name":"Preț redus","targetQuantity":null},"saveMe":null,"labels":[{"type":"v1","items":[{"text":"-33%","backgroundColor":"#FF9903","textColor":"#FFFFFF"}]}],"geniusPrice":null,"geniusUnitPricePerLabel":null,"banner":{"text":"Super preț","textColor":"#FF0000","bgColor":"#FFF2EC","icon":null,"link":"https://www.freshful.ro/oferte/special-produse-vegane-mar23","type":"promo","analyticsEventType":"select_promotion","analyticsEventPayload":{"promotion_id":"special-produse-vegane-mar23","promotion_name":"Și bun, și de post"}},"discountLabel":"Economisești 33%","geniusDiscountLabel":null,"badge":null},{"code":"100140168","variantCode":"100140168","name":"Cremă tartinabilă de migdale 185g","slug":"100140168-primavika-crema-tartinabila-de-migdale-185g","unitPriceLabel":"167,51 Lei/kg","brand":"Primavika","brandCode":"2682","brandFilterCode":"primavika-b2686","sku":"100140168","price":30.99,"originalPrice":46.99,"currencyCode":"RON","currency":"Lei","image":{"thumbnail":{"default":"https://cdn.freshful.ro/media/cache/sylius_shop_product_thumbnail/8c/9c/4184cd9f8d91212879566008ab9c.jpg"},"large":{"default":"https://cdn.freshful.ro/media/cache/freshful_large/8c/9c/4184cd9f8d91212879566008ab9c.jpg"},"extralarge":{"default":"https://cdn.freshful.ro/media/cache/sylius_shop_product_original/8c/9c/4184cd9f8d91212879566008ab9c.jpg"}},"label":{"text":"-34%","backgroundColor":"#FF9903","textColor":"#FFFFFF"},"tags":[{"type":"vegan","text":"Vegan","icon":"https://cdn.freshful.ro/assets/product_tags/vegan.svg","iconPng":"https://cdn.freshful.ro/assets/product_tags/vegan.png","backgroundColor":"#ECF9F8","textColor":"#33A39C"},{"type":"NoGluten","text":"Fara gluten","icon":"https://cdn.freshful.ro/assets/product_tags/fara_gluten.svg","iconPng":"https://cdn.freshful.ro/assets/product_tags/fara_gluten.png","backgroundColor":"#FFF2E5","textColor":"#F07900"}],"isAvailable":true,"maxAvailableQuantity":39,"maxAllowedQuantity":100,"breadcrumbs":[{"code":"9","name":"Dulciuri & mic dejun","slug":"9-ceva-dulce"},{"code":"903","name":"Cereale și mic dejun","slug":"903-cereale-si-mic-dejun"},{"code":"90306","name":"Cremă tartinabilă","slug":"90306-crema-tartinabila"},{"code":"100140168","name":"Cremă tartinabilă de migdale 185g","slug":"100140168-primavika-crema-tartinabila-de-migdale-185g"}],"activePromotion":{"code":"special-produse-vegane-mar23","name":"Preț redus","targetQuantity":null},"saveMe":null,"labels":[{"type":"v1","items":[{"text":"-34%","backgroundColor":"#FF9903","textColor":"#FFFFFF"}]}],"geniusPrice":null,"geniusUnitPricePerLabel":null,"banner":{"text":"Super preț","textColor":"#FF0000","bgColor":"#FFF2EC","icon":null,"link":"https://www.freshful.ro/oferte/special-produse-vegane-mar23","type":"promo","analyticsEventType":"select_promotion","analyticsEventPayload":{"promotion_id":"special-produse-vegane-mar23","promotion_name":"Și bun, și de post"}},"discountLabel":"Economisești 34%","geniusDiscountLabel":null,"badge":null}],"filters":{"countSelected":0,"items":[{"code":"promotion","name":"Promoții","countSelected":0,"values":[{"code":"oferte-bacanie-bauturi-21feb-8mar23","name":"Cămara cu băuturi și bunătăți","isSelected":false,"count":6},{"code":"special-produse-vegane-mar23","name":"Și bun, și de post","isSelected":false,"count":4}]},{"code":"brand","name":"Brand","countSelected":0,"values":[{"code":"aarts-b985","name":"Aarts","isSelected":false,"count":1},{"code":"albina-carpatina-b1249","name":"Albina Carpatina","isSelected":false,"count":17},{"code":"apimelia-b1250","name":"Apimelia","isSelected":false,"count":4},{"code":"brumi-b457","name":"Brumi","isSelected":false,"count":3},{"code":"bucataria-brancoveneasca-b1615","name":"Bucătăria Brâncovenească","isSelected":false,"count":2},{"code":"bun-de-tot-b944","name":"Bun de Tot","isSelected":false,"count":13},{"code":"bacanie-b1770","name":"Băcănie","isSelected":false,"count":1},{"code":"calve-b2852","name":"Calve","isSelected":false,"count":4},{"code":"cereal-crunch-b3249","name":"Cereal Crunch","isSelected":false,"count":5},{"code":"cheerios-b2558","name":"Cheerios","isSelected":false,"count":3},{"code":"chocapic-b692","name":"Chocapic","isSelected":false,"count":4},{"code":"cini-minis-b693","name":"Cini Minis","isSelected":false,"count":8},{"code":"colonia-b2454","name":"Colonia","isSelected":false,"count":11},{"code":"corn-flakes-b3271","name":"Corn Flakes","isSelected":false,"count":1},{"code":"croco-b1177","name":"Croco","isSelected":false,"count":2},{"code":"dacia-plant-b934","name":"Dacia Plant","isSelected":false,"count":3},{"code":"dalfour-b1625","name":"Dalfour","isSelected":false,"count":7},{"code":"damhert-b1823","name":"Damhert","isSelected":false,"count":1},{"code":"darbo-b636","name":"Darbo","isSelected":false,"count":3},{"code":"delirs-b965","name":"Delirs","isSelected":false,"count":13},{"code":"dobrodulce-b2949","name":"Dobrodulce","isSelected":false,"count":6},{"code":"dr-oetker-b51","name":"Dr. Oetker","isSelected":false,"count":5},{"code":"dr-oetker-professional-b2444","name":"Dr. Oetker Professional","isSelected":false,"count":2},{"code":"dr-oetker-vitalis-b177","name":"Dr. Oetker-Vitalis","isSelected":false,"count":15},{"code":"egmont-b830","name":"Egmont","isSelected":false,"count":9},{"code":"fineti-b1674","name":"Fineti","isSelected":false,"count":6},{"code":"fitness-b891","name":"Fitness","isSelected":false,"count":11},{"code":"fortin-b3063","name":"Fortin","isSelected":false,"count":1},{"code":"fratii-matei-b1603","name":"Frații Matei","isSelected":false,"count":4},{"code":"gerlinea-b1712","name":"Gerlinea","isSelected":false,"count":1},{"code":"gina-b2308","name":"Gina","isSelected":false,"count":2},{"code":"go-on-b1783","name":"GO On","isSelected":false,"count":4},{"code":"greenomic-b1848","name":"Greenomic","isSelected":false,"count":1},{"code":"gradinile-doamnei-b2303","name":"Grădinile Doamnei","isSelected":false,"count":2},{"code":"hada-b2499","name":"Hada","isSelected":false,"count":4},{"code":"happy-valley-b832","name":"Happy Valley","isSelected":false,"count":12},{"code":"honey-line-b1602","name":"Honey Line","isSelected":false,"count":15},{"code":"jugais-b992","name":"Jugais","isSelected":false,"count":5},{"code":"lino-lada-b1146","name":"Lino Lada","isSelected":false,"count":2},{"code":"lion-b4","name":"Lion","isSelected":false,"count":4},{"code":"lizi-s-b1514","name":"Lizi's","isSelected":false,"count":8},{"code":"maxim-s-b271","name":"Maxim's","isSelected":false,"count":1},{"code":"menz-gasser-b2170","name":"Menz&Gasser","isSelected":false,"count":7},{"code":"mica-ilinca-b1526","name":"Mica Ilinca","isSelected":false,"count":12},{"code":"musli-b694","name":"Musli","isSelected":false,"count":2},{"code":"nature-valley-b1546","name":"Nature Valley","isSelected":false,"count":1},{"code":"nesquik-b56","name":"Nesquik","isSelected":false,"count":7},{"code":"nestle-b698","name":"Nestlé","isSelected":false,"count":1},{"code":"nesvita-b3019","name":"Nesvita","isSelected":false,"count":3},{"code":"nutella-b158","name":"Nutella","isSelected":false,"count":3},{"code":"nutline-b241","name":"Nutline","isSelected":false,"count":2},{"code":"ohvaz-b109","name":"Ohvăz","isSelected":false,"count":3},{"code":"olympia-b244","name":"Olympia","isSelected":false,"count":3},{"code":"oshee-b1066","name":"Oshee","isSelected":false,"count":2},{"code":"pivnita-bunicii-b2310","name":"Pivnița Bunicii","isSelected":false,"count":19},{"code":"pofta-focului-b1566","name":"Pofta Focului","isSelected":false,"count":10},{"code":"poiana-fermecata-b1877","name":"Poiana Fermecată","isSelected":false,"count":7},{"code":"primavika-b2686","name":"Primavika","isSelected":false,"count":3},{"code":"risovital-b1691","name":"Risovital","isSelected":false,"count":3},{"code":"roadele-muntilor-b2722","name":"Roadele Munților","isSelected":false,"count":2},{"code":"raureni-b773","name":"Râureni","isSelected":false,"count":29},{"code":"razvan-b1127","name":"Răzvan","isSelected":false,"count":8},{"code":"sanovita-b483","name":"Sanovita","isSelected":false,"count":42},{"code":"sante-b1784","name":"Sante","isSelected":false,"count":4},{"code":"schwartau-b880","name":"Schwartau","isSelected":false,"count":5},{"code":"sunday-bites-b1501","name":"Sunday Bites","isSelected":false,"count":6},{"code":"topoloveana-b1193","name":"Topoloveana","isSelected":false,"count":1},{"code":"topoloveni-b1192","name":"Topoloveni","isSelected":false,"count":18},{"code":"urban-fruit-b1506","name":"Urban Fruit","isSelected":false,"count":2},{"code":"valenii-de-munte-b2718","name":"Valenii De Munte","isSelected":false,"count":3},{"code":"vasluianca-b1833","name":"Vasluianca","isSelected":false,"count":4},{"code":"venosta-b987","name":"Venosta","isSelected":false,"count":3},{"code":"verival-b972","name":"Verival","isSelected":false,"count":4},{"code":"waimete-b831","name":"Waimete","isSelected":false,"count":9}]},{"code":"diet_lifestyle","name":"Dietă și lifestyle","countSelected":0,"values":[{"code":"eco-a83","name":"Eco","isSelected":false,"count":4},{"code":"fara-conservanti-a37","name":"Fara conservanti","isSelected":false,"count":81},{"code":"fara-e-uri-a84","name":"Fara E-uri","isSelected":false,"count":30},{"code":"fara-gluten-a16","name":"Fara gluten","isSelected":false,"count":44},{"code":"fara-lactoza-a38","name":"Fara lactoza","isSelected":false,"count":2},{"code":"fara-sare-a52","name":"Fara sare","isSelected":false,"count":5},{"code":"fara-zahar-adaugat-a29","name":"Fara zahar adaugat","isSelected":false,"count":54},{"code":"made-in-romania-a85","name":"Made In Romania","isSelected":false,"count":85},{"code":"natural-a27","name":"Natural","isSelected":false,"count":48},{"code":"vegan-a24","name":"Vegan","isSelected":false,"count":19},{"code":"vegetarian-a28","name":"Vegetarian","isSelected":false,"count":2}]}]},"orderBy":[{"field":"price","direction":"asc","name":"Preț crescător","isSelected":false},{"field":"price","direction":"desc","name":"Preț descrescător","isSelected":false},{"field":"popularity","direction":"desc","name":"Cele mai populare","isSelected":true},{"field":"category","direction":"asc","name":"Categorie","isSelected":false}],"metaTitle":"Cereale și mic dejun - Gamă variată","metaDescription":"Vrei Cereale și mic dejun? Alege dintr-o gamă variată. Comanzi simplu și ai livrare rapidă, calitate și prospețime. Hai pe Freshful.ro","metaKeywords":null,"banners":[]}}