{"type":"subcategory","payload":{"analyticsListId":"category_90301-batoane","analyticsListName":"Category - Batoane","name":"Batoane","slug":"90301-batoane","image":null,"breadcrumbs":[{"code":"9","name":"Dulciuri & mic dejun","slug":"9-ceva-dulce"},{"code":"903","name":"Cereale și mic dejun","slug":"903-cereale-si-mic-dejun"},{"code":"90301","name":"Batoane","slug":"90301-batoane"}],"slots":[],"page":1,"limit":10,"pages":2,"count":18,"siblings":[{"name":"Biscuiți, napolitane și prăjituri","slug":"902-biscuiti-napolitane-si-prajituri","selected":false},{"name":"Cereale și mic dejun","slug":"903-cereale-si-mic-dejun","selected":true},{"name":"Cafea și ceai","slug":"904-cafea-si-ceai","selected":false},{"name":"Bomboane și ciocolată","slug":"905-bomboane-si-ciocolata","selected":false}],"children":[{"name":"Toate produsele","slug":"903-cereale-si-mic-dejun","selected":false},{"name":"Batoane","slug":"90301-batoane","selected":true},{"name":"Fulgi","slug":"90302-fulgi","selected":false},{"name":"Musli","slug":"90303-musli","selected":false},{"name":"Cereale pentru copii","slug":"90304-cereale-copii","selected":false},{"name":"Alte cereale","slug":"90305-alte-cereale","selected":false},{"name":"Cremă tartinabilă","slug":"90306-crema-tartinabila","selected":false},{"name":"Miere","slug":"90307-miere","selected":false},{"name":"Gem și dulceață","slug":"90308-gem-si-dulceata","selected":false}],"products":[{"code":"100043236","variantCode":"8593893007468","name":"Baton cu ciocolată pentru mic dejun 25g","slug":"100043236-chocapic-baton-cu-ciocolata-pentru-mic-dejun-25g","unitPriceLabel":"58 Lei/kg","brand":"Chocapic","brandCode":"691","brandFilterCode":"chocapic-b692","sku":"100043236","price":1.45,"originalPrice":null,"currencyCode":"RON","currency":"Lei","image":{"thumbnail":{"default":"https://cdn.freshful.ro/media/cache/sylius_shop_product_thumbnail/22/05/68cab8e667d76a6ed2f67acbee99.jpg"},"large":{"default":"https://cdn.freshful.ro/media/cache/freshful_large/22/05/68cab8e667d76a6ed2f67acbee99.jpg"},"extralarge":{"default":"https://cdn.freshful.ro/media/cache/sylius_shop_product_original/22/05/68cab8e667d76a6ed2f67acbee99.jpg"}},"label":null,"tags":[],"isAvailable":true,"maxAvailableQuantity":100,"maxAllowedQuantity":100,"breadcrumbs":[{"code":"9","name":"Dulciuri & mic dejun","slug":"9-ceva-dulce"},{"code":"903","name":"Cereale și mic dejun","slug":"903-cereale-si-mic-dejun"},{"code":"90301","name":"Batoane","slug":"90301-batoane"},{"code":"100043236","name":"Baton cu ciocolată pentru mic dejun 25g","slug":"100043236-chocapic-baton-cu-ciocolata-pentru-mic-dejun-25g"}],"activePromotion":null,"saveMe":null,"labels":[],"geniusPrice":null,"geniusUnitPricePerLabel":null,"banner":null,"discountLabel":null,"geniusDiscountLabel":null,"badge":null},{"code":"100061118","variantCode":"8593893007437","name":"Baton de cereale pentru micul dejun 25g","slug":"100061118-nesquik-baton-de-cereale-pentru-micul-dejun-25g","unitPriceLabel":"58 Lei/kg","brand":"Nesquik","brandCode":"6","brandFilterCode":"nesquik-b56","sku":"100061118","price":1.45,"originalPrice":null,"currencyCode":"RON","currency":"Lei","image":{"thumbnail":{"default":"https://cdn.freshful.ro/media/cache/sylius_shop_product_thumbnail/f7/ef/308fbd30d922a65de9d4cda53411.jpg"},"large":{"default":"https://cdn.freshful.ro/media/cache/freshful_large/f7/ef/308fbd30d922a65de9d4cda53411.jpg"},"extralarge":{"default":"https://cdn.freshful.ro/media/cache/sylius_shop_product_original/f7/ef/308fbd30d922a65de9d4cda53411.jpg"}},"label":null,"tags":[],"isAvailable":true,"maxAvailableQuantity":100,"maxAllowedQuantity":100,"breadcrumbs":[{"code":"9","name":"Dulciuri & mic dejun","slug":"9-ceva-dulce"},{"code":"903","name":"Cereale și mic dejun","slug":"903-cereale-si-mic-dejun"},{"code":"90301","name":"Batoane","slug":"90301-batoane"},{"code":"100061118","name":"Baton de cereale pentru micul dejun 25g","slug":"100061118-nesquik-baton-de-cereale-pentru-micul-dejun-25g"}],"activePromotion":null,"saveMe":null,"labels":[],"geniusPrice":null,"geniusUnitPricePerLabel":null,"banner":null,"discountLabel":null,"geniusDiscountLabel":null,"badge":null},{"code":"100061131","variantCode":"5900020025678","name":"Baton de cereale pentru mic dejun cu ciocolată și lapte 22.5g","slug":"100061131-fitness-baton-de-cereale-pentru-mic-dejun-cu-ciocolata-si-lapte-22-5g","unitPriceLabel":"68,89 Lei/kg","brand":"Fitness","brandCode":"890","brandFilterCode":"fitness-b891","sku":"100061131","price":1.55,"originalPrice":null,"currencyCode":"RON","currency":"Lei","image":{"thumbnail":{"default":"https://cdn.freshful.ro/media/cache/sylius_shop_product_thumbnail/57/33/62a860493b948a0208994fb13b27.jpg"},"large":{"default":"https://cdn.freshful.ro/media/cache/freshful_large/57/33/62a860493b948a0208994fb13b27.jpg"},"extralarge":{"default":"https://cdn.freshful.ro/media/cache/sylius_shop_product_original/57/33/62a860493b948a0208994fb13b27.jpg"}},"label":null,"tags":[],"isAvailable":true,"maxAvailableQuantity":100,"maxAllowedQuantity":100,"breadcrumbs":[{"code":"9","name":"Dulciuri & mic dejun","slug":"9-ceva-dulce"},{"code":"903","name":"Cereale și mic dejun","slug":"903-cereale-si-mic-dejun"},{"code":"90301","name":"Batoane","slug":"90301-batoane"},{"code":"100061131","name":"Baton de cereale pentru mic dejun cu ciocolată și lapte 22.5g","slug":"100061131-fitness-baton-de-cereale-pentru-mic-dejun-cu-ciocolata-si-lapte-22-5g"}],"activePromotion":null,"saveMe":null,"labels":[],"geniusPrice":null,"geniusUnitPricePerLabel":null,"banner":null,"discountLabel":null,"geniusDiscountLabel":null,"badge":null},{"code":"100061132","variantCode":"5900020025210","name":"Baton de cereale pentru mic dejun cu ciocolată albă 22.5g","slug":"100061132-fitness-baton-de-cereale-pentru-mic-dejun-cu-ciocolata-alba-22-5g","unitPriceLabel":"68,89 Lei/kg","brand":"Fitness","brandCode":"890","brandFilterCode":"fitness-b891","sku":"100061132","price":1.55,"originalPrice":null,"currencyCode":"RON","currency":"Lei","image":{"thumbnail":{"default":"https://cdn.freshful.ro/media/cache/sylius_shop_product_thumbnail/43/b8/6ba18e5683c54009afced73f9f16.jpg"},"large":{"default":"https://cdn.freshful.ro/media/cache/freshful_large/43/b8/6ba18e5683c54009afced73f9f16.jpg"},"extralarge":{"default":"https://cdn.freshful.ro/media/cache/sylius_shop_product_original/43/b8/6ba18e5683c54009afced73f9f16.jpg"}},"label":null,"tags":[],"isAvailable":true,"maxAvailableQuantity":100,"maxAllowedQuantity":100,"breadcrumbs":[{"code":"9","name":"Dulciuri & mic dejun","slug":"9-ceva-dulce"},{"code":"903","name":"Cereale și mic dejun","slug":"903-cereale-si-mic-dejun"},{"code":"90301","name":"Batoane","slug":"90301-batoane"},{"code":"100061132","name":"Baton de cereale pentru mic dejun cu ciocolată albă 22.5g","slug":"100061132-fitness-baton-de-cereale-pentru-mic-dejun-cu-ciocolata-alba-22-5g"}],"activePromotion":null,"saveMe":null,"labels":[],"geniusPrice":null,"geniusUnitPricePerLabel":null,"banner":null,"discountLabel":null,"geniusDiscountLabel":null,"badge":null},{"code":"100132907","variantCode":"5900020027696","name":"Baton de cereale pentru mic dejun cireșe 35g","slug":"100132907-musli-baton-de-cereale-pentru-mic-dejun-cirese-35g","unitPriceLabel":"70 Lei/kg","brand":"Musli","brandCode":"693","brandFilterCode":"musli-b694","sku":"100132907","price":2.45,"originalPrice":null,"currencyCode":"RON","currency":"Lei","image":{"thumbnail":{"default":"https://cdn.freshful.ro/media/cache/sylius_shop_product_thumbnail/48/70/f6331afa26fbcd2a3b267c4e4aba.jpg"},"large":{"default":"https://cdn.freshful.ro/media/cache/freshful_large/48/70/f6331afa26fbcd2a3b267c4e4aba.jpg"},"extralarge":{"default":"https://cdn.freshful.ro/media/cache/sylius_shop_product_original/48/70/f6331afa26fbcd2a3b267c4e4aba.jpg"}},"label":null,"tags":[],"isAvailable":true,"maxAvailableQuantity":100,"maxAllowedQuantity":100,"breadcrumbs":[{"code":"9","name":"Dulciuri & mic dejun","slug":"9-ceva-dulce"},{"code":"903","name":"Cereale și mic dejun","slug":"903-cereale-si-mic-dejun"},{"code":"90301","name":"Batoane","slug":"90301-batoane"},{"code":"100132907","name":"Baton de cereale pentru mic dejun cireșe 35g","slug":"100132907-musli-baton-de-cereale-pentru-mic-dejun-cirese-35g"}],"activePromotion":null,"saveMe":null,"labels":[],"geniusPrice":null,"geniusUnitPricePerLabel":null,"banner":null,"discountLabel":null,"geniusDiscountLabel":null,"badge":null},{"code":"100132903","variantCode":"100132903","name":"Baton de cereale ciocolată și alune 22.5g","slug":"100132903-fitness-baton-de-cereale-ciocolata-si-alune-22-5g","unitPriceLabel":"75,11 Lei/kg","brand":"Fitness","brandCode":"890","brandFilterCode":"fitness-b891","sku":"100132903","price":1.69,"originalPrice":null,"currencyCode":"RON","currency":"Lei","image":{"thumbnail":{"default":"https://cdn.freshful.ro/media/cache/sylius_shop_product_thumbnail/87/e8/6fb8db45d5df64ca702af6e4ab06.jpg"},"large":{"default":"https://cdn.freshful.ro/media/cache/freshful_large/87/e8/6fb8db45d5df64ca702af6e4ab06.jpg"},"extralarge":{"default":"https://cdn.freshful.ro/media/cache/sylius_shop_product_original/87/e8/6fb8db45d5df64ca702af6e4ab06.jpg"}},"label":null,"tags":[],"isAvailable":true,"maxAvailableQuantity":100,"maxAllowedQuantity":100,"breadcrumbs":[{"code":"9","name":"Dulciuri & mic dejun","slug":"9-ceva-dulce"},{"code":"903","name":"Cereale și mic dejun","slug":"903-cereale-si-mic-dejun"},{"code":"90301","name":"Batoane","slug":"90301-batoane"},{"code":"100132903","name":"Baton de cereale ciocolată și alune 22.5g","slug":"100132903-fitness-baton-de-cereale-ciocolata-si-alune-22-5g"}],"activePromotion":null,"saveMe":null,"labels":[],"geniusPrice":null,"geniusUnitPricePerLabel":null,"banner":null,"discountLabel":null,"geniusDiscountLabel":null,"badge":null},{"code":"100061130","variantCode":"5900020005038","name":"Baton de cereale pentru mic dejun căpșuni 23.5g","slug":"100061130-fitness-baton-de-cereale-pentru-mic-dejun-capsuni-23-5g","unitPriceLabel":"74,47 Lei/kg","brand":"Fitness","brandCode":"890","brandFilterCode":"fitness-b891","sku":"100061130","price":1.75,"originalPrice":null,"currencyCode":"RON","currency":"Lei","image":{"thumbnail":{"default":"https://cdn.freshful.ro/media/cache/sylius_shop_product_thumbnail/8f/50/1565c7dc6f2903d4357c9b004b3d.jpg"},"large":{"default":"https://cdn.freshful.ro/media/cache/freshful_large/8f/50/1565c7dc6f2903d4357c9b004b3d.jpg"},"extralarge":{"default":"https://cdn.freshful.ro/media/cache/sylius_shop_product_original/8f/50/1565c7dc6f2903d4357c9b004b3d.jpg"}},"label":null,"tags":[],"isAvailable":true,"maxAvailableQuantity":100,"maxAllowedQuantity":100,"breadcrumbs":[{"code":"9","name":"Dulciuri & mic dejun","slug":"9-ceva-dulce"},{"code":"903","name":"Cereale și mic dejun","slug":"903-cereale-si-mic-dejun"},{"code":"90301","name":"Batoane","slug":"90301-batoane"},{"code":"100061130","name":"Baton de cereale pentru mic dejun căpșuni 23.5g","slug":"100061130-fitness-baton-de-cereale-pentru-mic-dejun-capsuni-23-5g"}],"activePromotion":null,"saveMe":null,"labels":[],"geniusPrice":null,"geniusUnitPricePerLabel":null,"banner":null,"discountLabel":null,"geniusDiscountLabel":null,"badge":null},{"code":"100043237","variantCode":"8593893007499","name":"Baton de cereale cu scorțișoară pentru mic dejun 25g","slug":"100043237-cini-minis-baton-de-cereale-cu-scortisoara-pentru-mic-dejun-25g","unitPriceLabel":"51,6 Lei/kg","brand":"Cini Minis","brandCode":"692","brandFilterCode":"cini-minis-b693","sku":"100043237","price":1.29,"originalPrice":null,"currencyCode":"RON","currency":"Lei","image":{"thumbnail":{"default":"https://cdn.freshful.ro/media/cache/sylius_shop_product_thumbnail/01/7d/11418f329a6cf6b218dcf1aa9102.jpg"},"large":{"default":"https://cdn.freshful.ro/media/cache/freshful_large/01/7d/11418f329a6cf6b218dcf1aa9102.jpg"},"extralarge":{"default":"https://cdn.freshful.ro/media/cache/sylius_shop_product_original/01/7d/11418f329a6cf6b218dcf1aa9102.jpg"}},"label":null,"tags":[],"isAvailable":true,"maxAvailableQuantity":100,"maxAllowedQuantity":100,"breadcrumbs":[{"code":"9","name":"Dulciuri & mic dejun","slug":"9-ceva-dulce"},{"code":"903","name":"Cereale și mic dejun","slug":"903-cereale-si-mic-dejun"},{"code":"90301","name":"Batoane","slug":"90301-batoane"},{"code":"100043237","name":"Baton de cereale cu scorțișoară pentru mic dejun 25g","slug":"100043237-cini-minis-baton-de-cereale-cu-scortisoara-pentru-mic-dejun-25g"}],"activePromotion":null,"saveMe":null,"labels":[],"geniusPrice":null,"geniusUnitPricePerLabel":null,"banner":null,"discountLabel":null,"geniusDiscountLabel":null,"badge":null},{"code":"100132902","variantCode":"3387390320374","name":"Baton de cereale pentru mic dejun 23.5g","slug":"100132902-fitness-baton-de-cereale-pentru-mic-dejun-23-5g","unitPriceLabel":"67,66 Lei/kg","brand":"Fitness","brandCode":"890","brandFilterCode":"fitness-b891","sku":"100132902","price":1.59,"originalPrice":null,"currencyCode":"RON","currency":"Lei","image":{"thumbnail":{"default":"https://cdn.freshful.ro/media/cache/sylius_shop_product_thumbnail/e3/0d/86a5680175508bab1bb9364cf81d.jpg"},"large":{"default":"https://cdn.freshful.ro/media/cache/freshful_large/e3/0d/86a5680175508bab1bb9364cf81d.jpg"},"extralarge":{"default":"https://cdn.freshful.ro/media/cache/sylius_shop_product_original/e3/0d/86a5680175508bab1bb9364cf81d.jpg"}},"label":null,"tags":[],"isAvailable":true,"maxAvailableQuantity":100,"maxAllowedQuantity":100,"breadcrumbs":[{"code":"9","name":"Dulciuri & mic dejun","slug":"9-ceva-dulce"},{"code":"903","name":"Cereale și mic dejun","slug":"903-cereale-si-mic-dejun"},{"code":"90301","name":"Batoane","slug":"90301-batoane"},{"code":"100132902","name":"Baton de cereale pentru mic dejun 23.5g","slug":"100132902-fitness-baton-de-cereale-pentru-mic-dejun-23-5g"}],"activePromotion":null,"saveMe":null,"labels":[],"geniusPrice":null,"geniusUnitPricePerLabel":null,"banner":null,"discountLabel":null,"geniusDiscountLabel":null,"badge":null},{"code":"100132904","variantCode":"5900020033956","name":"Baton de cereale pentru mic dejun Choco Banana 23.5g","slug":"100132904-fitness-baton-de-cereale-pentru-mic-dejun-choco-banana-23-5g","unitPriceLabel":"76,17 Lei/kg","brand":"Fitness","brandCode":"890","brandFilterCode":"fitness-b891","sku":"100132904","price":1.79,"originalPrice":null,"currencyCode":"RON","currency":"Lei","image":{"thumbnail":{"default":"https://cdn.freshful.ro/media/cache/sylius_shop_product_thumbnail/f0/32/624d4f152149f418bbe8f4d251d9.jpg"},"large":{"default":"https://cdn.freshful.ro/media/cache/freshful_large/f0/32/624d4f152149f418bbe8f4d251d9.jpg"},"extralarge":{"default":"https://cdn.freshful.ro/media/cache/sylius_shop_product_original/f0/32/624d4f152149f418bbe8f4d251d9.jpg"}},"label":null,"tags":[],"isAvailable":true,"maxAvailableQuantity":100,"maxAllowedQuantity":100,"breadcrumbs":[{"code":"9","name":"Dulciuri & mic dejun","slug":"9-ceva-dulce"},{"code":"903","name":"Cereale și mic dejun","slug":"903-cereale-si-mic-dejun"},{"code":"90301","name":"Batoane","slug":"90301-batoane"},{"code":"100132904","name":"Baton de cereale pentru mic dejun Choco Banana 23.5g","slug":"100132904-fitness-baton-de-cereale-pentru-mic-dejun-choco-banana-23-5g"}],"activePromotion":null,"saveMe":null,"labels":[],"geniusPrice":null,"geniusUnitPricePerLabel":null,"banner":null,"discountLabel":null,"geniusDiscountLabel":null,"badge":null}],"filters":{"countSelected":0,"items":[{"code":"brand","name":"Brand","countSelected":0,"values":[{"code":"chocapic-b692","name":"Chocapic","isSelected":false,"count":1},{"code":"cini-minis-b693","name":"Cini Minis","isSelected":false,"count":1},{"code":"corn-flakes-b3271","name":"Corn Flakes","isSelected":false,"count":1},{"code":"fitness-b891","name":"Fitness","isSelected":false,"count":7},{"code":"gerlinea-b1712","name":"Gerlinea","isSelected":false,"count":1},{"code":"musli-b694","name":"Musli","isSelected":false,"count":2},{"code":"nature-valley-b1546","name":"Nature Valley","isSelected":false,"count":1},{"code":"nesquik-b56","name":"Nesquik","isSelected":false,"count":2},{"code":"oshee-b1066","name":"Oshee","isSelected":false,"count":2}]},{"code":"diet_lifestyle","name":"Dietă și lifestyle","countSelected":0,"values":[{"code":"fara-gluten-a16","name":"Fara gluten","isSelected":false,"count":1}]}]},"orderBy":[{"field":"price","direction":"asc","name":"Preț crescător","isSelected":false},{"field":"price","direction":"desc","name":"Preț descrescător","isSelected":false},{"field":"popularity","direction":"desc","name":"Cele mai populare","isSelected":true},{"field":"category","direction":"asc","name":"Categorie","isSelected":false}],"metaTitle":"Batoane - Gamă variată","metaDescription":"Vrei Batoane? Alege dintr-o gamă variată. Comanzi simplu și ai livrare rapidă, calitate și prospețime. Hai pe Freshful.ro","metaKeywords":null,"banners":[]}}