{"type":"subcategory","payload":{"analyticsListId":"category_90302-fulgi","analyticsListName":"Category - Fulgi","name":"Fulgi","slug":"90302-fulgi","image":null,"breadcrumbs":[{"code":"9","name":"Dulciuri & mic dejun","slug":"9-ceva-dulce"},{"code":"903","name":"Cereale și mic dejun","slug":"903-cereale-si-mic-dejun"},{"code":"90302","name":"Fulgi","slug":"90302-fulgi"}],"slots":[],"page":1,"limit":10,"pages":6,"count":53,"siblings":[{"name":"Biscuiți, napolitane și prăjituri","slug":"902-biscuiti-napolitane-si-prajituri","selected":false},{"name":"Cereale și mic dejun","slug":"903-cereale-si-mic-dejun","selected":true},{"name":"Cafea și ceai","slug":"904-cafea-si-ceai","selected":false},{"name":"Bomboane și ciocolată","slug":"905-bomboane-si-ciocolata","selected":false}],"children":[{"name":"Toate produsele","slug":"903-cereale-si-mic-dejun","selected":false},{"name":"Batoane","slug":"90301-batoane","selected":false},{"name":"Fulgi","slug":"90302-fulgi","selected":true},{"name":"Musli","slug":"90303-musli","selected":false},{"name":"Cereale pentru copii","slug":"90304-cereale-copii","selected":false},{"name":"Alte cereale","slug":"90305-alte-cereale","selected":false},{"name":"Cremă tartinabilă","slug":"90306-crema-tartinabila","selected":false},{"name":"Miere","slug":"90307-miere","selected":false},{"name":"Gem și dulceață","slug":"90308-gem-si-dulceata","selected":false}],"products":[{"code":"100096508","variantCode":"100096508","name":"Fulgi de ovăz 1kg","slug":"100096508-sanovita-fulgi-de-ovaz-1kg","unitPriceLabel":"13,9 Lei/kg","brand":"Sanovita","brandCode":"482","brandFilterCode":"sanovita-b483","sku":"100096508","price":13.9,"originalPrice":null,"currencyCode":"RON","currency":"Lei","image":{"thumbnail":{"default":"https://cdn.freshful.ro/media/cache/sylius_shop_product_thumbnail/12/76/5f041f7ca9304b3308c36d05bf2c.jpg"},"large":{"default":"https://cdn.freshful.ro/media/cache/freshful_large/12/76/5f041f7ca9304b3308c36d05bf2c.jpg"},"extralarge":{"default":"https://cdn.freshful.ro/media/cache/sylius_shop_product_original/12/76/5f041f7ca9304b3308c36d05bf2c.jpg"}},"label":null,"tags":[],"isAvailable":true,"maxAvailableQuantity":100,"maxAllowedQuantity":100,"breadcrumbs":[{"code":"9","name":"Dulciuri & mic dejun","slug":"9-ceva-dulce"},{"code":"903","name":"Cereale și mic dejun","slug":"903-cereale-si-mic-dejun"},{"code":"90302","name":"Fulgi","slug":"90302-fulgi"},{"code":"100096508","name":"Fulgi de ovăz 1kg","slug":"100096508-sanovita-fulgi-de-ovaz-1kg"}],"activePromotion":null,"saveMe":null,"labels":[],"geniusPrice":null,"geniusUnitPricePerLabel":null,"banner":null,"discountLabel":null,"geniusDiscountLabel":null,"badge":null},{"code":"100096507","variantCode":"100096507","name":"Fulgi de ovăz 500g","slug":"100096507-sanovita-fulgi-de-ovaz-500g","unitPriceLabel":"11,5 Lei/kg","brand":"Fortin","brandCode":"2968","brandFilterCode":"fortin-b3063","sku":"100096507","price":5.75,"originalPrice":null,"currencyCode":"RON","currency":"Lei","image":{"thumbnail":{"default":"https://cdn.freshful.ro/media/cache/sylius_shop_product_thumbnail/93/1b/c294c4b09508521876f24f1cd637.jpg"},"large":{"default":"https://cdn.freshful.ro/media/cache/freshful_large/93/1b/c294c4b09508521876f24f1cd637.jpg"},"extralarge":{"default":"https://cdn.freshful.ro/media/cache/sylius_shop_product_original/93/1b/c294c4b09508521876f24f1cd637.jpg"}},"label":null,"tags":[],"isAvailable":true,"maxAvailableQuantity":100,"maxAllowedQuantity":100,"breadcrumbs":[{"code":"9","name":"Dulciuri & mic dejun","slug":"9-ceva-dulce"},{"code":"903","name":"Cereale și mic dejun","slug":"903-cereale-si-mic-dejun"},{"code":"90302","name":"Fulgi","slug":"90302-fulgi"},{"code":"100096507","name":"Fulgi de ovăz 500g","slug":"100096507-sanovita-fulgi-de-ovaz-500g"}],"activePromotion":null,"saveMe":null,"labels":[],"geniusPrice":null,"geniusUnitPricePerLabel":null,"banner":null,"discountLabel":null,"geniusDiscountLabel":null,"badge":null},{"code":"100132898","variantCode":"5900020020932","name":"Cereale integrale de grâu și ovăz cu ciocolată 425g","slug":"100132898-fitness-cereale-integrale-de-grau-si-ovaz-cu-ciocolata-425g","unitPriceLabel":"38,82 Lei/kg","brand":"Fitness","brandCode":"890","brandFilterCode":"fitness-b891","sku":"100132898","price":16.5,"originalPrice":null,"currencyCode":"RON","currency":"Lei","image":{"thumbnail":{"default":"https://cdn.freshful.ro/media/cache/sylius_shop_product_thumbnail/f6/78/a23269450d1a5a400c587c4285a9.jpg"},"large":{"default":"https://cdn.freshful.ro/media/cache/freshful_large/f6/78/a23269450d1a5a400c587c4285a9.jpg"},"extralarge":{"default":"https://cdn.freshful.ro/media/cache/sylius_shop_product_original/f6/78/a23269450d1a5a400c587c4285a9.jpg"}},"label":null,"tags":[],"isAvailable":true,"maxAvailableQuantity":100,"maxAllowedQuantity":100,"breadcrumbs":[{"code":"9","name":"Dulciuri & mic dejun","slug":"9-ceva-dulce"},{"code":"903","name":"Cereale și mic dejun","slug":"903-cereale-si-mic-dejun"},{"code":"90302","name":"Fulgi","slug":"90302-fulgi"},{"code":"100132898","name":"Cereale integrale de grâu și ovăz cu ciocolată 425g","slug":"100132898-fitness-cereale-integrale-de-grau-si-ovaz-cu-ciocolata-425g"}],"activePromotion":null,"saveMe":null,"labels":[],"geniusPrice":null,"geniusUnitPricePerLabel":null,"banner":null,"discountLabel":null,"geniusDiscountLabel":null,"badge":null},{"code":"100096511","variantCode":"100096511","name":"Fulgi crocanți de porumb 250g","slug":"100096511-sanovita-fulgi-crocanti-de-porumb-250g","unitPriceLabel":"20,76 Lei/kg","brand":"Sanovita","brandCode":"482","brandFilterCode":"sanovita-b483","sku":"100096511","price":5.19,"originalPrice":null,"currencyCode":"RON","currency":"Lei","image":{"thumbnail":{"default":"https://cdn.freshful.ro/media/cache/sylius_shop_product_thumbnail/53/32/dfa8d185c7069946bfa8c9844f97.jpg"},"large":{"default":"https://cdn.freshful.ro/media/cache/freshful_large/53/32/dfa8d185c7069946bfa8c9844f97.jpg"},"extralarge":{"default":"https://cdn.freshful.ro/media/cache/sylius_shop_product_original/53/32/dfa8d185c7069946bfa8c9844f97.jpg"}},"label":null,"tags":[],"isAvailable":true,"maxAvailableQuantity":100,"maxAllowedQuantity":100,"breadcrumbs":[{"code":"9","name":"Dulciuri & mic dejun","slug":"9-ceva-dulce"},{"code":"903","name":"Cereale și mic dejun","slug":"903-cereale-si-mic-dejun"},{"code":"90302","name":"Fulgi","slug":"90302-fulgi"},{"code":"100096511","name":"Fulgi crocanți de porumb 250g","slug":"100096511-sanovita-fulgi-crocanti-de-porumb-250g"}],"activePromotion":null,"saveMe":null,"labels":[],"geniusPrice":null,"geniusUnitPricePerLabel":null,"banner":null,"discountLabel":null,"geniusDiscountLabel":null,"badge":null},{"code":"100132895","variantCode":"100132895","name":"Cereale pentru mic dejun 425g","slug":"100132895-fitness-cereale-pentru-mic-dejun-425g","unitPriceLabel":"29,48 Lei/kg","brand":"Fitness","brandCode":"890","brandFilterCode":"fitness-b891","sku":"100132895","price":12.53,"originalPrice":null,"currencyCode":"RON","currency":"Lei","image":{"thumbnail":{"default":"https://cdn.freshful.ro/media/cache/sylius_shop_product_thumbnail/5c/47/91acda3a8680c83de3704ebae470.jpg"},"large":{"default":"https://cdn.freshful.ro/media/cache/freshful_large/5c/47/91acda3a8680c83de3704ebae470.jpg"},"extralarge":{"default":"https://cdn.freshful.ro/media/cache/sylius_shop_product_original/5c/47/91acda3a8680c83de3704ebae470.jpg"}},"label":null,"tags":[],"isAvailable":true,"maxAvailableQuantity":100,"maxAllowedQuantity":100,"breadcrumbs":[{"code":"9","name":"Dulciuri & mic dejun","slug":"9-ceva-dulce"},{"code":"903","name":"Cereale și mic dejun","slug":"903-cereale-si-mic-dejun"},{"code":"90302","name":"Fulgi","slug":"90302-fulgi"},{"code":"100132895","name":"Cereale pentru mic dejun 425g","slug":"100132895-fitness-cereale-pentru-mic-dejun-425g"}],"activePromotion":null,"saveMe":null,"labels":[],"geniusPrice":null,"geniusUnitPricePerLabel":null,"banner":null,"discountLabel":null,"geniusDiscountLabel":null,"badge":null},{"code":"100096499","variantCode":"100096499","name":"Fulgi de ovăz crocanți 250g","slug":"100096499-sanovita-fulgi-de-ovaz-crocanti-250g","unitPriceLabel":"31,96 Lei/kg","brand":"Sanovita","brandCode":"482","brandFilterCode":"sanovita-b483","sku":"100096499","price":7.99,"originalPrice":null,"currencyCode":"RON","currency":"Lei","image":{"thumbnail":{"default":"https://cdn.freshful.ro/media/cache/sylius_shop_product_thumbnail/a2/d2/0cd72b64d409c41f7462d2727408.jpg"},"large":{"default":"https://cdn.freshful.ro/media/cache/freshful_large/a2/d2/0cd72b64d409c41f7462d2727408.jpg"},"extralarge":{"default":"https://cdn.freshful.ro/media/cache/sylius_shop_product_original/a2/d2/0cd72b64d409c41f7462d2727408.jpg"}},"label":null,"tags":[],"isAvailable":true,"maxAvailableQuantity":1,"maxAllowedQuantity":100,"breadcrumbs":[{"code":"9","name":"Dulciuri & mic dejun","slug":"9-ceva-dulce"},{"code":"903","name":"Cereale și mic dejun","slug":"903-cereale-si-mic-dejun"},{"code":"90302","name":"Fulgi","slug":"90302-fulgi"},{"code":"100096499","name":"Fulgi de ovăz crocanți 250g","slug":"100096499-sanovita-fulgi-de-ovaz-crocanti-250g"}],"activePromotion":null,"saveMe":null,"labels":[],"geniusPrice":null,"geniusUnitPricePerLabel":null,"banner":null,"discountLabel":null,"geniusDiscountLabel":null,"badge":null},{"code":"100096498","variantCode":"100096498","name":"Fulgi de hrișcă crocanți 250g","slug":"100096498-sanovita-fulgi-de-hrisca-crocanti-250g","unitPriceLabel":"55,96 Lei/kg","brand":"Sanovita","brandCode":"482","brandFilterCode":"sanovita-b483","sku":"100096498","price":13.99,"originalPrice":null,"currencyCode":"RON","currency":"Lei","image":{"thumbnail":{"default":"https://cdn.freshful.ro/media/cache/sylius_shop_product_thumbnail/48/38/66c1f742f305a78b08211d06155e.jpg"},"large":{"default":"https://cdn.freshful.ro/media/cache/freshful_large/48/38/66c1f742f305a78b08211d06155e.jpg"},"extralarge":{"default":"https://cdn.freshful.ro/media/cache/sylius_shop_product_original/48/38/66c1f742f305a78b08211d06155e.jpg"}},"label":null,"tags":[],"isAvailable":true,"maxAvailableQuantity":42,"maxAllowedQuantity":100,"breadcrumbs":[{"code":"9","name":"Dulciuri & mic dejun","slug":"9-ceva-dulce"},{"code":"903","name":"Cereale și mic dejun","slug":"903-cereale-si-mic-dejun"},{"code":"90302","name":"Fulgi","slug":"90302-fulgi"},{"code":"100096498","name":"Fulgi de hrișcă crocanți 250g","slug":"100096498-sanovita-fulgi-de-hrisca-crocanti-250g"}],"activePromotion":null,"saveMe":null,"labels":[],"geniusPrice":null,"geniusUnitPricePerLabel":null,"banner":null,"discountLabel":null,"geniusDiscountLabel":null,"badge":null},{"code":"100132897","variantCode":"100132897","name":"Cereale pentru mic dejun cu fructe 425g","slug":"100132897-fitness-cereale-pentru-mic-dejun-cu-fructe-425g","unitPriceLabel":"38,82 Lei/kg","brand":"Fitness","brandCode":"890","brandFilterCode":"fitness-b891","sku":"100132897","price":16.5,"originalPrice":null,"currencyCode":"RON","currency":"Lei","image":{"thumbnail":{"default":"https://cdn.freshful.ro/media/cache/sylius_shop_product_thumbnail/19/a8/16cb92e3f660ac80b7d50e2b8bc5.jpg"},"large":{"default":"https://cdn.freshful.ro/media/cache/freshful_large/19/a8/16cb92e3f660ac80b7d50e2b8bc5.jpg"},"extralarge":{"default":"https://cdn.freshful.ro/media/cache/sylius_shop_product_original/19/a8/16cb92e3f660ac80b7d50e2b8bc5.jpg"}},"label":null,"tags":[],"isAvailable":true,"maxAvailableQuantity":100,"maxAllowedQuantity":100,"breadcrumbs":[{"code":"9","name":"Dulciuri & mic dejun","slug":"9-ceva-dulce"},{"code":"903","name":"Cereale și mic dejun","slug":"903-cereale-si-mic-dejun"},{"code":"90302","name":"Fulgi","slug":"90302-fulgi"},{"code":"100132897","name":"Cereale pentru mic dejun cu fructe 425g","slug":"100132897-fitness-cereale-pentru-mic-dejun-cu-fructe-425g"}],"activePromotion":null,"saveMe":null,"labels":[],"geniusPrice":null,"geniusUnitPricePerLabel":null,"banner":null,"discountLabel":null,"geniusDiscountLabel":null,"badge":null},{"code":"100001584","variantCode":"5941132022421","name":"Mix pentru gustare de ovăz cu ciocolată 60g","slug":"100001584-dr-oetker-vitalis-mix-pentru-gustare-de-ovaz-cu-ciocolata-60g","unitPriceLabel":"47,33 Lei/kg","brand":"Dr. Oetker-Vitalis","brandCode":"176","brandFilterCode":"dr-oetker-vitalis-b177","sku":"100001584","price":2.84,"originalPrice":null,"currencyCode":"RON","currency":"Lei","image":{"thumbnail":{"default":"https://cdn.freshful.ro/media/cache/sylius_shop_product_thumbnail/fd/1b/c347bf8bdcf4316b06221dd18477.jpg"},"large":{"default":"https://cdn.freshful.ro/media/cache/freshful_large/fd/1b/c347bf8bdcf4316b06221dd18477.jpg"},"extralarge":{"default":"https://cdn.freshful.ro/media/cache/sylius_shop_product_original/fd/1b/c347bf8bdcf4316b06221dd18477.jpg"}},"label":null,"tags":[],"isAvailable":true,"maxAvailableQuantity":100,"maxAllowedQuantity":100,"breadcrumbs":[{"code":"9","name":"Dulciuri & mic dejun","slug":"9-ceva-dulce"},{"code":"903","name":"Cereale și mic dejun","slug":"903-cereale-si-mic-dejun"},{"code":"90302","name":"Fulgi","slug":"90302-fulgi"},{"code":"100001584","name":"Mix pentru gustare de ovăz cu ciocolată 60g","slug":"100001584-dr-oetker-vitalis-mix-pentru-gustare-de-ovaz-cu-ciocolata-60g"}],"activePromotion":null,"saveMe":null,"labels":[],"geniusPrice":null,"geniusUnitPricePerLabel":null,"banner":null,"discountLabel":null,"geniusDiscountLabel":null,"badge":null},{"code":"100001583","variantCode":"5941132022384","name":"Mix pentru gustare de ovăz cu zmeură 55g","slug":"100001583-dr-oetker-vitalis-mix-pentru-gustare-de-ovaz-cu-zmeura-55g","unitPriceLabel":"54,36 Lei/kg","brand":"Dr. Oetker-Vitalis","brandCode":"176","brandFilterCode":"dr-oetker-vitalis-b177","sku":"100001583","price":2.99,"originalPrice":null,"currencyCode":"RON","currency":"Lei","image":{"thumbnail":{"default":"https://cdn.freshful.ro/media/cache/sylius_shop_product_thumbnail/4b/39/764bf7f35aac304947d679819d09.jpg"},"large":{"default":"https://cdn.freshful.ro/media/cache/freshful_large/4b/39/764bf7f35aac304947d679819d09.jpg"},"extralarge":{"default":"https://cdn.freshful.ro/media/cache/sylius_shop_product_original/4b/39/764bf7f35aac304947d679819d09.jpg"}},"label":null,"tags":[],"isAvailable":true,"maxAvailableQuantity":100,"maxAllowedQuantity":100,"breadcrumbs":[{"code":"9","name":"Dulciuri & mic dejun","slug":"9-ceva-dulce"},{"code":"903","name":"Cereale și mic dejun","slug":"903-cereale-si-mic-dejun"},{"code":"90302","name":"Fulgi","slug":"90302-fulgi"},{"code":"100001583","name":"Mix pentru gustare de ovăz cu zmeură 55g","slug":"100001583-dr-oetker-vitalis-mix-pentru-gustare-de-ovaz-cu-zmeura-55g"}],"activePromotion":null,"saveMe":null,"labels":[],"geniusPrice":null,"geniusUnitPricePerLabel":null,"banner":null,"discountLabel":null,"geniusDiscountLabel":null,"badge":null}],"filters":{"countSelected":0,"items":[{"code":"brand","name":"Brand","countSelected":0,"values":[{"code":"brumi-b457","name":"Brumi","isSelected":false,"count":1},{"code":"dr-oetker-vitalis-b177","name":"Dr. Oetker-Vitalis","isSelected":false,"count":8},{"code":"fitness-b891","name":"Fitness","isSelected":false,"count":4},{"code":"fortin-b3063","name":"Fortin","isSelected":false,"count":1},{"code":"go-on-b1783","name":"GO On","isSelected":false,"count":2},{"code":"lizi-s-b1514","name":"Lizi's","isSelected":false,"count":4},{"code":"nesvita-b3019","name":"Nesvita","isSelected":false,"count":3},{"code":"ohvaz-b109","name":"Ohvăz","isSelected":false,"count":3},{"code":"sanovita-b483","name":"Sanovita","isSelected":false,"count":20},{"code":"sante-b1784","name":"Sante","isSelected":false,"count":4},{"code":"urban-fruit-b1506","name":"Urban Fruit","isSelected":false,"count":2},{"code":"verival-b972","name":"Verival","isSelected":false,"count":1}]},{"code":"diet_lifestyle","name":"Dietă și lifestyle","countSelected":0,"values":[{"code":"eco-a83","name":"Eco","isSelected":false,"count":1},{"code":"fara-conservanti-a37","name":"Fara conservanti","isSelected":false,"count":2},{"code":"fara-gluten-a16","name":"Fara gluten","isSelected":false,"count":1},{"code":"fara-lactoza-a38","name":"Fara lactoza","isSelected":false,"count":1},{"code":"fara-sare-a52","name":"Fara sare","isSelected":false,"count":2},{"code":"fara-zahar-adaugat-a29","name":"Fara zahar adaugat","isSelected":false,"count":9},{"code":"made-in-romania-a85","name":"Made In Romania","isSelected":false,"count":3},{"code":"vegan-a24","name":"Vegan","isSelected":false,"count":3}]}]},"orderBy":[{"field":"price","direction":"asc","name":"Preț crescător","isSelected":false},{"field":"price","direction":"desc","name":"Preț descrescător","isSelected":false},{"field":"popularity","direction":"desc","name":"Cele mai populare","isSelected":true},{"field":"category","direction":"asc","name":"Categorie","isSelected":false}],"metaTitle":"Fulgi - Gamă variată","metaDescription":"Vrei Fulgi? Alege dintr-o gamă variată. Comanzi simplu și ai livrare rapidă, calitate și prospețime. Hai pe Freshful.ro","metaKeywords":null,"banners":[]}}