{"type":"subcategory","payload":{"analyticsListId":"category_90306-crema-tartinabila","analyticsListName":"Category - Cremă tartinabilă","name":"Cremă tartinabilă","slug":"90306-crema-tartinabila","image":null,"breadcrumbs":[{"code":"9","name":"Dulciuri & mic dejun","slug":"9-ceva-dulce"},{"code":"903","name":"Cereale și mic dejun","slug":"903-cereale-si-mic-dejun"},{"code":"90306","name":"Cremă tartinabilă","slug":"90306-crema-tartinabila"}],"slots":[],"page":1,"limit":10,"pages":4,"count":38,"siblings":[{"name":"Biscuiți, napolitane și prăjituri","slug":"902-biscuiti-napolitane-si-prajituri","selected":false},{"name":"Cereale și mic dejun","slug":"903-cereale-si-mic-dejun","selected":true},{"name":"Cafea și ceai","slug":"904-cafea-si-ceai","selected":false},{"name":"Bomboane și ciocolată","slug":"905-bomboane-si-ciocolata","selected":false}],"children":[{"name":"Toate produsele","slug":"903-cereale-si-mic-dejun","selected":false},{"name":"Batoane","slug":"90301-batoane","selected":false},{"name":"Fulgi","slug":"90302-fulgi","selected":false},{"name":"Musli","slug":"90303-musli","selected":false},{"name":"Cereale pentru copii","slug":"90304-cereale-copii","selected":false},{"name":"Alte cereale","slug":"90305-alte-cereale","selected":false},{"name":"Cremă tartinabilă","slug":"90306-crema-tartinabila","selected":true},{"name":"Miere","slug":"90307-miere","selected":false},{"name":"Gem și dulceață","slug":"90308-gem-si-dulceata","selected":false}],"products":[{"code":"100143512","variantCode":"100143512","name":"Cremă de arahide Crunchy 350g","slug":"100143512-calve-crema-de-arahide-crunchy-350g","unitPriceLabel":"51,4 Lei/kg","brand":"Calve","brandCode":"2778","brandFilterCode":"calve-b2852","sku":"100143512","price":17.99,"originalPrice":21.99,"currencyCode":"RON","currency":"Lei","image":{"thumbnail":{"default":"https://cdn.freshful.ro/media/cache/sylius_shop_product_thumbnail/c8/9e/e570630ae893d5947e486c9deac5.jpg"},"large":{"default":"https://cdn.freshful.ro/media/cache/freshful_large/c8/9e/e570630ae893d5947e486c9deac5.jpg"},"extralarge":{"default":"https://cdn.freshful.ro/media/cache/sylius_shop_product_original/c8/9e/e570630ae893d5947e486c9deac5.jpg"}},"label":{"text":"-18%","backgroundColor":"#FF9903","textColor":"#FFFFFF"},"tags":[{"type":"Vegetarian","text":"Vegetarian","icon":"https://cdn.freshful.ro/assets/product_tags/vegetarian.svg","iconPng":"https://cdn.freshful.ro/assets/product_tags/vegetarian.png","backgroundColor":"#FAEAEE","textColor":"#B26275"}],"isAvailable":true,"maxAvailableQuantity":42,"maxAllowedQuantity":100,"breadcrumbs":[{"code":"9","name":"Dulciuri & mic dejun","slug":"9-ceva-dulce"},{"code":"903","name":"Cereale și mic dejun","slug":"903-cereale-si-mic-dejun"},{"code":"90306","name":"Cremă tartinabilă","slug":"90306-crema-tartinabila"},{"code":"100143512","name":"Cremă de arahide Crunchy 350g","slug":"100143512-calve-crema-de-arahide-crunchy-350g"}],"activePromotion":{"code":"oferte-bacanie-bauturi-21feb-8mar23","name":"Preț redus","targetQuantity":null},"saveMe":null,"labels":[{"type":"v1","items":[{"text":"-18%","backgroundColor":"#FF9903","textColor":"#FFFFFF"}]}],"geniusPrice":null,"geniusUnitPricePerLabel":null,"banner":{"text":"Super preț","textColor":"#FF0000","bgColor":"#FFF2EC","icon":null,"link":"https://www.freshful.ro/oferte/oferte-bacanie-bauturi-21feb-8mar23","type":"promo","analyticsEventType":"select_promotion","analyticsEventPayload":{"promotion_id":"oferte-bacanie-bauturi-21feb-8mar23","promotion_name":"Cămara cu băuturi și bunătăți"}},"discountLabel":"Economisești 18%","geniusDiscountLabel":null,"badge":null},{"code":"100143513","variantCode":"100143513","name":"Cremă de arahide Light 350g","slug":"100143513-calve-crema-de-arahide-light-350g","unitPriceLabel":"54,26 Lei/kg","brand":"Calve","brandCode":"2778","brandFilterCode":"calve-b2852","sku":"100143513","price":18.99,"originalPrice":23.49,"currencyCode":"RON","currency":"Lei","image":{"thumbnail":{"default":"https://cdn.freshful.ro/media/cache/sylius_shop_product_thumbnail/d0/d5/8ac493d7135b3ed3cbf08f1d2368.jpg"},"large":{"default":"https://cdn.freshful.ro/media/cache/freshful_large/d0/d5/8ac493d7135b3ed3cbf08f1d2368.jpg"},"extralarge":{"default":"https://cdn.freshful.ro/media/cache/sylius_shop_product_original/d0/d5/8ac493d7135b3ed3cbf08f1d2368.jpg"}},"label":{"text":"-19%","backgroundColor":"#FF9903","textColor":"#FFFFFF"},"tags":[],"isAvailable":true,"maxAvailableQuantity":34,"maxAllowedQuantity":100,"breadcrumbs":[{"code":"9","name":"Dulciuri & mic dejun","slug":"9-ceva-dulce"},{"code":"903","name":"Cereale și mic dejun","slug":"903-cereale-si-mic-dejun"},{"code":"90306","name":"Cremă tartinabilă","slug":"90306-crema-tartinabila"},{"code":"100143513","name":"Cremă de arahide Light 350g","slug":"100143513-calve-crema-de-arahide-light-350g"}],"activePromotion":{"code":"special-produse-vegane-mar23","name":"Preț redus","targetQuantity":null},"saveMe":null,"labels":[{"type":"v1","items":[{"text":"-19%","backgroundColor":"#FF9903","textColor":"#FFFFFF"}]}],"geniusPrice":null,"geniusUnitPricePerLabel":null,"banner":{"text":"Super preț","textColor":"#FF0000","bgColor":"#FFF2EC","icon":null,"link":"https://www.freshful.ro/oferte/special-produse-vegane-mar23","type":"promo","analyticsEventType":"select_promotion","analyticsEventPayload":{"promotion_id":"special-produse-vegane-mar23","promotion_name":"Și bun, și de post"}},"discountLabel":"Economisești 19%","geniusDiscountLabel":null,"badge":null},{"code":"100143514","variantCode":"100143514","name":"Cremă de arahide Creamy 350g","slug":"100143514-calve-crema-de-arahide-creamy-350g","unitPriceLabel":"51,4 Lei/kg","brand":"Calve","brandCode":"2778","brandFilterCode":"calve-b2852","sku":"100143514","price":17.99,"originalPrice":22.99,"currencyCode":"RON","currency":"Lei","image":{"thumbnail":{"default":"https://cdn.freshful.ro/media/cache/sylius_shop_product_thumbnail/99/71/e1644284bb8c75eedf7fb01d159d.jpg"},"large":{"default":"https://cdn.freshful.ro/media/cache/freshful_large/99/71/e1644284bb8c75eedf7fb01d159d.jpg"},"extralarge":{"default":"https://cdn.freshful.ro/media/cache/sylius_shop_product_original/99/71/e1644284bb8c75eedf7fb01d159d.jpg"}},"label":{"text":"-21%","backgroundColor":"#FF9903","textColor":"#FFFFFF"},"tags":[],"isAvailable":true,"maxAvailableQuantity":28,"maxAllowedQuantity":100,"breadcrumbs":[{"code":"9","name":"Dulciuri & mic dejun","slug":"9-ceva-dulce"},{"code":"903","name":"Cereale și mic dejun","slug":"903-cereale-si-mic-dejun"},{"code":"90306","name":"Cremă tartinabilă","slug":"90306-crema-tartinabila"},{"code":"100143514","name":"Cremă de arahide Creamy 350g","slug":"100143514-calve-crema-de-arahide-creamy-350g"}],"activePromotion":{"code":"special-produse-vegane-mar23","name":"Preț redus","targetQuantity":null},"saveMe":null,"labels":[{"type":"v1","items":[{"text":"-21%","backgroundColor":"#FF9903","textColor":"#FFFFFF"}]}],"geniusPrice":null,"geniusUnitPricePerLabel":null,"banner":{"text":"Super preț","textColor":"#FF0000","bgColor":"#FFF2EC","icon":null,"link":"https://www.freshful.ro/oferte/special-produse-vegane-mar23","type":"promo","analyticsEventType":"select_promotion","analyticsEventPayload":{"promotion_id":"special-produse-vegane-mar23","promotion_name":"Și bun, și de post"}},"discountLabel":"Economisești 21%","geniusDiscountLabel":null,"badge":null},{"code":"100140171","variantCode":"100140171","name":"Cremă tartinabilă de arahide 100%, 185g","slug":"100140171-primavika-crema-tartinabila-de-arahide-100-185g","unitPriceLabel":"64,81 Lei/kg","brand":"Primavika","brandCode":"2682","brandFilterCode":"primavika-b2686","sku":"100140171","price":11.99,"originalPrice":17.99,"currencyCode":"RON","currency":"Lei","image":{"thumbnail":{"default":"https://cdn.freshful.ro/media/cache/sylius_shop_product_thumbnail/c9/ca/592a12e54caa2000ce24876e8c95.jpg"},"large":{"default":"https://cdn.freshful.ro/media/cache/freshful_large/c9/ca/592a12e54caa2000ce24876e8c95.jpg"},"extralarge":{"default":"https://cdn.freshful.ro/media/cache/sylius_shop_product_original/c9/ca/592a12e54caa2000ce24876e8c95.jpg"}},"label":{"text":"-33%","backgroundColor":"#FF9903","textColor":"#FFFFFF"},"tags":[{"type":"vegan","text":"Vegan","icon":"https://cdn.freshful.ro/assets/product_tags/vegan.svg","iconPng":"https://cdn.freshful.ro/assets/product_tags/vegan.png","backgroundColor":"#ECF9F8","textColor":"#33A39C"},{"type":"NoGluten","text":"Fara gluten","icon":"https://cdn.freshful.ro/assets/product_tags/fara_gluten.svg","iconPng":"https://cdn.freshful.ro/assets/product_tags/fara_gluten.png","backgroundColor":"#FFF2E5","textColor":"#F07900"}],"isAvailable":true,"maxAvailableQuantity":47,"maxAllowedQuantity":100,"breadcrumbs":[{"code":"9","name":"Dulciuri & mic dejun","slug":"9-ceva-dulce"},{"code":"903","name":"Cereale și mic dejun","slug":"903-cereale-si-mic-dejun"},{"code":"90306","name":"Cremă tartinabilă","slug":"90306-crema-tartinabila"},{"code":"100140171","name":"Cremă tartinabilă de arahide 100%, 185g","slug":"100140171-primavika-crema-tartinabila-de-arahide-100-185g"}],"activePromotion":{"code":"special-produse-vegane-mar23","name":"Preț redus","targetQuantity":null},"saveMe":null,"labels":[{"type":"v1","items":[{"text":"-33%","backgroundColor":"#FF9903","textColor":"#FFFFFF"}]}],"geniusPrice":null,"geniusUnitPricePerLabel":null,"banner":{"text":"Super preț","textColor":"#FF0000","bgColor":"#FFF2EC","icon":null,"link":"https://www.freshful.ro/oferte/special-produse-vegane-mar23","type":"promo","analyticsEventType":"select_promotion","analyticsEventPayload":{"promotion_id":"special-produse-vegane-mar23","promotion_name":"Și bun, și de post"}},"discountLabel":"Economisești 33%","geniusDiscountLabel":null,"badge":null},{"code":"100140168","variantCode":"100140168","name":"Cremă tartinabilă de migdale 185g","slug":"100140168-primavika-crema-tartinabila-de-migdale-185g","unitPriceLabel":"167,51 Lei/kg","brand":"Primavika","brandCode":"2682","brandFilterCode":"primavika-b2686","sku":"100140168","price":30.99,"originalPrice":46.99,"currencyCode":"RON","currency":"Lei","image":{"thumbnail":{"default":"https://cdn.freshful.ro/media/cache/sylius_shop_product_thumbnail/8c/9c/4184cd9f8d91212879566008ab9c.jpg"},"large":{"default":"https://cdn.freshful.ro/media/cache/freshful_large/8c/9c/4184cd9f8d91212879566008ab9c.jpg"},"extralarge":{"default":"https://cdn.freshful.ro/media/cache/sylius_shop_product_original/8c/9c/4184cd9f8d91212879566008ab9c.jpg"}},"label":{"text":"-34%","backgroundColor":"#FF9903","textColor":"#FFFFFF"},"tags":[{"type":"vegan","text":"Vegan","icon":"https://cdn.freshful.ro/assets/product_tags/vegan.svg","iconPng":"https://cdn.freshful.ro/assets/product_tags/vegan.png","backgroundColor":"#ECF9F8","textColor":"#33A39C"},{"type":"NoGluten","text":"Fara gluten","icon":"https://cdn.freshful.ro/assets/product_tags/fara_gluten.svg","iconPng":"https://cdn.freshful.ro/assets/product_tags/fara_gluten.png","backgroundColor":"#FFF2E5","textColor":"#F07900"}],"isAvailable":true,"maxAvailableQuantity":39,"maxAllowedQuantity":100,"breadcrumbs":[{"code":"9","name":"Dulciuri & mic dejun","slug":"9-ceva-dulce"},{"code":"903","name":"Cereale și mic dejun","slug":"903-cereale-si-mic-dejun"},{"code":"90306","name":"Cremă tartinabilă","slug":"90306-crema-tartinabila"},{"code":"100140168","name":"Cremă tartinabilă de migdale 185g","slug":"100140168-primavika-crema-tartinabila-de-migdale-185g"}],"activePromotion":{"code":"special-produse-vegane-mar23","name":"Preț redus","targetQuantity":null},"saveMe":null,"labels":[{"type":"v1","items":[{"text":"-34%","backgroundColor":"#FF9903","textColor":"#FFFFFF"}]}],"geniusPrice":null,"geniusUnitPricePerLabel":null,"banner":{"text":"Super preț","textColor":"#FF0000","bgColor":"#FFF2EC","icon":null,"link":"https://www.freshful.ro/oferte/special-produse-vegane-mar23","type":"promo","analyticsEventType":"select_promotion","analyticsEventPayload":{"promotion_id":"special-produse-vegane-mar23","promotion_name":"Și bun, și de post"}},"discountLabel":"Economisești 34%","geniusDiscountLabel":null,"badge":null},{"code":"100038405","variantCode":"100038405","name":"Cremă de alune de pădure cu cacao 400g ","slug":"100038405-nutella-crema-de-alune-de-padure-cu-cacao-400g","unitPriceLabel":"30,85 Lei/kg","brand":"Nutella","brandCode":"157","brandFilterCode":"nutella-b158","sku":"100038405","price":12.34,"originalPrice":null,"currencyCode":"RON","currency":"Lei","image":{"thumbnail":{"default":"https://cdn.freshful.ro/media/cache/sylius_shop_product_thumbnail/1c/ed/e6b7811616b5daf9ace664eef4e0.jpg"},"large":{"default":"https://cdn.freshful.ro/media/cache/freshful_large/1c/ed/e6b7811616b5daf9ace664eef4e0.jpg"},"extralarge":{"default":"https://cdn.freshful.ro/media/cache/sylius_shop_product_original/1c/ed/e6b7811616b5daf9ace664eef4e0.jpg"}},"label":null,"tags":[],"isAvailable":true,"maxAvailableQuantity":100,"maxAllowedQuantity":100,"breadcrumbs":[{"code":"9","name":"Dulciuri & mic dejun","slug":"9-ceva-dulce"},{"code":"903","name":"Cereale și mic dejun","slug":"903-cereale-si-mic-dejun"},{"code":"90306","name":"Cremă tartinabilă","slug":"90306-crema-tartinabila"},{"code":"100038405","name":"Cremă de alune de pădure cu cacao 400g ","slug":"100038405-nutella-crema-de-alune-de-padure-cu-cacao-400g"}],"activePromotion":null,"saveMe":null,"labels":[],"geniusPrice":null,"geniusUnitPricePerLabel":null,"banner":null,"discountLabel":null,"geniusDiscountLabel":null,"badge":null},{"code":"100087723","variantCode":"100087723","name":"Cremă tartinabilă și fină de arahide 360g","slug":"100087723-sunday-bites-crema-tartinabila-si-fina-de-arahide-360g","unitPriceLabel":"72,19 Lei/kg","brand":"Sunday Bites","brandCode":"1497","brandFilterCode":"sunday-bites-b1501","sku":"100087723","price":25.99,"originalPrice":null,"currencyCode":"RON","currency":"Lei","image":{"thumbnail":{"default":"https://cdn.freshful.ro/media/cache/sylius_shop_product_thumbnail/ce/8a/e4fb24d1d25d7790034da5b28e47.jpg"},"large":{"default":"https://cdn.freshful.ro/media/cache/freshful_large/ce/8a/e4fb24d1d25d7790034da5b28e47.jpg"},"extralarge":{"default":"https://cdn.freshful.ro/media/cache/sylius_shop_product_original/ce/8a/e4fb24d1d25d7790034da5b28e47.jpg"}},"label":{"text":"Mici producători","backgroundColor":"#7B61FF","textColor":"#FFFFFF"},"tags":[{"type":"vegan","text":"Vegan","icon":"https://cdn.freshful.ro/assets/product_tags/vegan.svg","iconPng":"https://cdn.freshful.ro/assets/product_tags/vegan.png","backgroundColor":"#ECF9F8","textColor":"#33A39C"},{"type":"NoGluten","text":"Fara gluten","icon":"https://cdn.freshful.ro/assets/product_tags/fara_gluten.svg","iconPng":"https://cdn.freshful.ro/assets/product_tags/fara_gluten.png","backgroundColor":"#FFF2E5","textColor":"#F07900"}],"isAvailable":true,"maxAvailableQuantity":77,"maxAllowedQuantity":100,"breadcrumbs":[{"code":"9","name":"Dulciuri & mic dejun","slug":"9-ceva-dulce"},{"code":"903","name":"Cereale și mic dejun","slug":"903-cereale-si-mic-dejun"},{"code":"90306","name":"Cremă tartinabilă","slug":"90306-crema-tartinabila"},{"code":"100087723","name":"Cremă tartinabilă și fină de arahide 360g","slug":"100087723-sunday-bites-crema-tartinabila-si-fina-de-arahide-360g"}],"activePromotion":null,"saveMe":null,"labels":[{"type":"v1","items":[{"text":"Mici producători","backgroundColor":"#7B61FF","textColor":"#FFFFFF"}]}],"geniusPrice":null,"geniusUnitPricePerLabel":null,"banner":null,"discountLabel":null,"geniusDiscountLabel":null,"badge":null},{"code":"100038406","variantCode":"80895237","name":"Cremă de alune de pădure cu cacao 700g","slug":"100038406-nutella-crema-de-alune-de-padure-cu-cacao-700g","unitPriceLabel":"28,39 Lei/kg","brand":"Nutella","brandCode":"157","brandFilterCode":"nutella-b158","sku":"100038406","price":19.9,"originalPrice":null,"currencyCode":"RON","currency":"Lei","image":{"thumbnail":{"default":"https://cdn.freshful.ro/media/cache/sylius_shop_product_thumbnail/33/3d/9a741b7c6eded5abc1192e193c30.jpg"},"large":{"default":"https://cdn.freshful.ro/media/cache/freshful_large/33/3d/9a741b7c6eded5abc1192e193c30.jpg"},"extralarge":{"default":"https://cdn.freshful.ro/media/cache/sylius_shop_product_original/33/3d/9a741b7c6eded5abc1192e193c30.jpg"}},"label":null,"tags":[],"isAvailable":true,"maxAvailableQuantity":100,"maxAllowedQuantity":100,"breadcrumbs":[{"code":"9","name":"Dulciuri & mic dejun","slug":"9-ceva-dulce"},{"code":"903","name":"Cereale și mic dejun","slug":"903-cereale-si-mic-dejun"},{"code":"90306","name":"Cremă tartinabilă","slug":"90306-crema-tartinabila"},{"code":"100038406","name":"Cremă de alune de pădure cu cacao 700g","slug":"100038406-nutella-crema-de-alune-de-padure-cu-cacao-700g"}],"activePromotion":null,"saveMe":null,"labels":[],"geniusPrice":null,"geniusUnitPricePerLabel":null,"banner":null,"discountLabel":null,"geniusDiscountLabel":null,"badge":null},{"code":"100087724","variantCode":"100087724","name":"Cremă tartinabilă de arahide crocante 360g","slug":"100087724-sunday-bites-crema-tartinabila-de-arahide-crocante-360g","unitPriceLabel":"72,19 Lei/kg","brand":"Sunday Bites","brandCode":"1497","brandFilterCode":"sunday-bites-b1501","sku":"100087724","price":25.99,"originalPrice":null,"currencyCode":"RON","currency":"Lei","image":{"thumbnail":{"default":"https://cdn.freshful.ro/media/cache/sylius_shop_product_thumbnail/e4/c3/e2927cbd4efbe728880a98e3747e.jpg"},"large":{"default":"https://cdn.freshful.ro/media/cache/freshful_large/e4/c3/e2927cbd4efbe728880a98e3747e.jpg"},"extralarge":{"default":"https://cdn.freshful.ro/media/cache/sylius_shop_product_original/e4/c3/e2927cbd4efbe728880a98e3747e.jpg"}},"label":{"text":"Mici producători","backgroundColor":"#7B61FF","textColor":"#FFFFFF"},"tags":[{"type":"vegan","text":"Vegan","icon":"https://cdn.freshful.ro/assets/product_tags/vegan.svg","iconPng":"https://cdn.freshful.ro/assets/product_tags/vegan.png","backgroundColor":"#ECF9F8","textColor":"#33A39C"},{"type":"NoGluten","text":"Fara gluten","icon":"https://cdn.freshful.ro/assets/product_tags/fara_gluten.svg","iconPng":"https://cdn.freshful.ro/assets/product_tags/fara_gluten.png","backgroundColor":"#FFF2E5","textColor":"#F07900"}],"isAvailable":true,"maxAvailableQuantity":21,"maxAllowedQuantity":100,"breadcrumbs":[{"code":"9","name":"Dulciuri & mic dejun","slug":"9-ceva-dulce"},{"code":"903","name":"Cereale și mic dejun","slug":"903-cereale-si-mic-dejun"},{"code":"90306","name":"Cremă tartinabilă","slug":"90306-crema-tartinabila"},{"code":"100087724","name":"Cremă tartinabilă de arahide crocante 360g","slug":"100087724-sunday-bites-crema-tartinabila-de-arahide-crocante-360g"}],"activePromotion":null,"saveMe":null,"labels":[{"type":"v1","items":[{"text":"Mici producători","backgroundColor":"#7B61FF","textColor":"#FFFFFF"}]}],"geniusPrice":null,"geniusUnitPricePerLabel":null,"banner":null,"discountLabel":null,"geniusDiscountLabel":null,"badge":null},{"code":"100146899","variantCode":"100146899","name":"Cremă de alune de pădure cu cacao 200g","slug":"100146899-nutella-crema-de-alune-de-padure-cu-cacao-200g","unitPriceLabel":"8,07 Lei/buc","brand":"Nutella","brandCode":"157","brandFilterCode":"nutella-b158","sku":"100146899","price":8.07,"originalPrice":null,"currencyCode":"RON","currency":"Lei","image":{"thumbnail":{"default":"https://cdn.freshful.ro/media/cache/sylius_shop_product_thumbnail/6a/a5/b5edeee3991393ba9e0b5efc8f3e.jpg"},"large":{"default":"https://cdn.freshful.ro/media/cache/freshful_large/6a/a5/b5edeee3991393ba9e0b5efc8f3e.jpg"},"extralarge":{"default":"https://cdn.freshful.ro/media/cache/sylius_shop_product_original/6a/a5/b5edeee3991393ba9e0b5efc8f3e.jpg"}},"label":null,"tags":[],"isAvailable":true,"maxAvailableQuantity":100,"maxAllowedQuantity":100,"breadcrumbs":[{"code":"9","name":"Dulciuri & mic dejun","slug":"9-ceva-dulce"},{"code":"903","name":"Cereale și mic dejun","slug":"903-cereale-si-mic-dejun"},{"code":"90306","name":"Cremă tartinabilă","slug":"90306-crema-tartinabila"},{"code":"100146899","name":"Cremă de alune de pădure cu cacao 200g","slug":"100146899-nutella-crema-de-alune-de-padure-cu-cacao-200g"}],"activePromotion":null,"saveMe":null,"labels":[],"geniusPrice":null,"geniusUnitPricePerLabel":null,"banner":null,"discountLabel":null,"geniusDiscountLabel":null,"badge":null}],"filters":{"countSelected":0,"items":[{"code":"promotion","name":"Promoții","countSelected":0,"values":[{"code":"oferte-bacanie-bauturi-21feb-8mar23","name":"Cămara cu băuturi și bunătăți","isSelected":false,"count":2},{"code":"special-produse-vegane-mar23","name":"Și bun, și de post","isSelected":false,"count":4}]},{"code":"brand","name":"Brand","countSelected":0,"values":[{"code":"bucataria-brancoveneasca-b1615","name":"Bucătăria Brâncovenească","isSelected":false,"count":1},{"code":"calve-b2852","name":"Calve","isSelected":false,"count":4},{"code":"damhert-b1823","name":"Damhert","isSelected":false,"count":1},{"code":"fineti-b1674","name":"Fineti","isSelected":false,"count":6},{"code":"gina-b2308","name":"Gina","isSelected":false,"count":2},{"code":"go-on-b1783","name":"GO On","isSelected":false,"count":2},{"code":"lino-lada-b1146","name":"Lino Lada","isSelected":false,"count":2},{"code":"maxim-s-b271","name":"Maxim's","isSelected":false,"count":1},{"code":"menz-gasser-b2170","name":"Menz&Gasser","isSelected":false,"count":1},{"code":"nutella-b158","name":"Nutella","isSelected":false,"count":3},{"code":"nutline-b241","name":"Nutline","isSelected":false,"count":2},{"code":"primavika-b2686","name":"Primavika","isSelected":false,"count":3},{"code":"razvan-b1127","name":"Răzvan","isSelected":false,"count":1},{"code":"sanovita-b483","name":"Sanovita","isSelected":false,"count":3},{"code":"sunday-bites-b1501","name":"Sunday Bites","isSelected":false,"count":6}]},{"code":"diet_lifestyle","name":"Dietă și lifestyle","countSelected":0,"values":[{"code":"fara-conservanti-a37","name":"Fara conservanti","isSelected":false,"count":2},{"code":"fara-gluten-a16","name":"Fara gluten","isSelected":false,"count":14},{"code":"fara-lactoza-a38","name":"Fara lactoza","isSelected":false,"count":1},{"code":"fara-sare-a52","name":"Fara sare","isSelected":false,"count":2},{"code":"fara-zahar-adaugat-a29","name":"Fara zahar adaugat","isSelected":false,"count":5},{"code":"vegan-a24","name":"Vegan","isSelected":false,"count":9},{"code":"vegetarian-a28","name":"Vegetarian","isSelected":false,"count":2}]}]},"orderBy":[{"field":"price","direction":"asc","name":"Preț crescător","isSelected":false},{"field":"price","direction":"desc","name":"Preț descrescător","isSelected":false},{"field":"popularity","direction":"desc","name":"Cele mai populare","isSelected":true},{"field":"category","direction":"asc","name":"Categorie","isSelected":false}],"metaTitle":"Cremă tartinabilă - Gamă variată","metaDescription":"Vrei Cremă tartinabilă? Alege dintr-o gamă variată. Comanzi simplu și ai livrare rapidă, calitate și prospețime. Hai pe Freshful.ro","metaKeywords":null,"banners":[]}}