{"type":"subcategory","payload":{"analyticsListId":"category_90307-miere","analyticsListName":"Category - Miere","name":"Miere","slug":"90307-miere","image":null,"breadcrumbs":[{"code":"9","name":"Dulciuri & mic dejun","slug":"9-ceva-dulce"},{"code":"903","name":"Cereale și mic dejun","slug":"903-cereale-si-mic-dejun"},{"code":"90307","name":"Miere","slug":"90307-miere"}],"slots":[],"page":1,"limit":10,"pages":10,"count":92,"siblings":[{"name":"Biscuiți, napolitane și prăjituri","slug":"902-biscuiti-napolitane-si-prajituri","selected":false},{"name":"Cereale și mic dejun","slug":"903-cereale-si-mic-dejun","selected":true},{"name":"Cafea și ceai","slug":"904-cafea-si-ceai","selected":false},{"name":"Bomboane și ciocolată","slug":"905-bomboane-si-ciocolata","selected":false}],"children":[{"name":"Toate produsele","slug":"903-cereale-si-mic-dejun","selected":false},{"name":"Batoane","slug":"90301-batoane","selected":false},{"name":"Fulgi","slug":"90302-fulgi","selected":false},{"name":"Musli","slug":"90303-musli","selected":false},{"name":"Cereale pentru copii","slug":"90304-cereale-copii","selected":false},{"name":"Alte cereale","slug":"90305-alte-cereale","selected":false},{"name":"Cremă tartinabilă","slug":"90306-crema-tartinabila","selected":false},{"name":"Miere","slug":"90307-miere","selected":true},{"name":"Gem și dulceață","slug":"90308-gem-si-dulceata","selected":false}],"products":[{"code":"100130331","variantCode":"100130331","name":"Miere de salcâm crudă 800g","slug":"100130331-colonia-miere-de-salcam-cruda-800g","unitPriceLabel":"62,49 Lei/kg","brand":"Colonia","brandCode":"2450","brandFilterCode":"colonia-b2454","sku":"100130331","price":49.99,"originalPrice":55.99,"currencyCode":"RON","currency":"Lei","image":{"thumbnail":{"default":"https://cdn.freshful.ro/media/cache/sylius_shop_product_thumbnail/6c/a6/0c629e4b55a4b8511a491c9b70ca.jpg"},"large":{"default":"https://cdn.freshful.ro/media/cache/freshful_large/6c/a6/0c629e4b55a4b8511a491c9b70ca.jpg"},"extralarge":{"default":"https://cdn.freshful.ro/media/cache/sylius_shop_product_original/6c/a6/0c629e4b55a4b8511a491c9b70ca.jpg"}},"label":{"text":"-10%","backgroundColor":"#FF9903","textColor":"#FFFFFF"},"tags":[{"type":"Natural","text":"Natural","icon":"https://cdn.freshful.ro/assets/product_tags/natural.svg","iconPng":"https://cdn.freshful.ro/assets/product_tags/natural.png","backgroundColor":"#E9FCF2","textColor":"#18AF62"}],"isAvailable":true,"maxAvailableQuantity":61,"maxAllowedQuantity":100,"breadcrumbs":[{"code":"9","name":"Dulciuri & mic dejun","slug":"9-ceva-dulce"},{"code":"903","name":"Cereale și mic dejun","slug":"903-cereale-si-mic-dejun"},{"code":"90307","name":"Miere","slug":"90307-miere"},{"code":"100130331","name":"Miere de salcâm crudă 800g","slug":"100130331-colonia-miere-de-salcam-cruda-800g"}],"activePromotion":{"code":"oferte-bacanie-bauturi-21feb-8mar23","name":"Preț redus","targetQuantity":null},"saveMe":null,"labels":[{"type":"v1","items":[{"text":"-10%","backgroundColor":"#FF9903","textColor":"#FFFFFF"}]}],"geniusPrice":null,"geniusUnitPricePerLabel":null,"banner":{"text":"Super preț","textColor":"#FF0000","bgColor":"#FFF2EC","icon":null,"link":"https://www.freshful.ro/oferte/oferte-bacanie-bauturi-21feb-8mar23","type":"promo","analyticsEventType":"select_promotion","analyticsEventPayload":{"promotion_id":"oferte-bacanie-bauturi-21feb-8mar23","promotion_name":"Cămara cu băuturi și bunătăți"}},"discountLabel":"Economisești 10%","geniusDiscountLabel":null,"badge":null},{"code":"100101373","variantCode":"100101373","name":"Miere polifloră 400g","slug":"100101373-honey-line-miere-poliflora-400g","unitPriceLabel":"31,23 Lei/kg","brand":"Honey Line","brandCode":"1598","brandFilterCode":"honey-line-b1602","sku":"100101373","price":12.49,"originalPrice":null,"currencyCode":"RON","currency":"Lei","image":{"thumbnail":{"default":"https://cdn.freshful.ro/media/cache/sylius_shop_product_thumbnail/26/9e/acd58a04cc57370f36cf3aa8dfe3.jpg"},"large":{"default":"https://cdn.freshful.ro/media/cache/freshful_large/26/9e/acd58a04cc57370f36cf3aa8dfe3.jpg"},"extralarge":{"default":"https://cdn.freshful.ro/media/cache/sylius_shop_product_original/26/9e/acd58a04cc57370f36cf3aa8dfe3.jpg"}},"label":{"text":"Primul preț","backgroundColor":"#3A0808","textColor":"#FFFFFF"},"tags":[],"isAvailable":true,"maxAvailableQuantity":46,"maxAllowedQuantity":100,"breadcrumbs":[{"code":"9","name":"Dulciuri & mic dejun","slug":"9-ceva-dulce"},{"code":"903","name":"Cereale și mic dejun","slug":"903-cereale-si-mic-dejun"},{"code":"90307","name":"Miere","slug":"90307-miere"},{"code":"100101373","name":"Miere polifloră 400g","slug":"100101373-honey-line-miere-poliflora-400g"}],"activePromotion":null,"saveMe":null,"labels":[{"type":"v4","items":[{"text":"Primul","backgroundColor":"#3A0808","textColor":"#FFFFFF"},{"text":"preț","backgroundColor":"#BC0606","textColor":"#FFFFFF"}]}],"geniusPrice":null,"geniusUnitPricePerLabel":null,"banner":null,"discountLabel":null,"geniusDiscountLabel":null,"badge":null},{"code":"100147957","variantCode":"100147957","name":"Miere polifloră 350g","slug":"100147957-honey-line-miere-poliflora-350g","unitPriceLabel":"42,57 Lei/kg","brand":"Honey Line","brandCode":"1598","brandFilterCode":"honey-line-b1602","sku":"100147957","price":14.9,"originalPrice":null,"currencyCode":"RON","currency":"Lei","image":{"thumbnail":{"default":"https://cdn.freshful.ro/media/cache/sylius_shop_product_thumbnail/82/57/dd364cc68d4da61857786cfe21aa.jpg"},"large":{"default":"https://cdn.freshful.ro/media/cache/freshful_large/82/57/dd364cc68d4da61857786cfe21aa.jpg"},"extralarge":{"default":"https://cdn.freshful.ro/media/cache/sylius_shop_product_original/82/57/dd364cc68d4da61857786cfe21aa.jpg"}},"label":null,"tags":[],"isAvailable":true,"maxAvailableQuantity":79,"maxAllowedQuantity":100,"breadcrumbs":[{"code":"9","name":"Dulciuri & mic dejun","slug":"9-ceva-dulce"},{"code":"903","name":"Cereale și mic dejun","slug":"903-cereale-si-mic-dejun"},{"code":"90307","name":"Miere","slug":"90307-miere"},{"code":"100147957","name":"Miere polifloră 350g","slug":"100147957-honey-line-miere-poliflora-350g"}],"activePromotion":null,"saveMe":null,"labels":[],"geniusPrice":null,"geniusUnitPricePerLabel":null,"banner":null,"discountLabel":null,"geniusDiscountLabel":null,"badge":null},{"code":"100079733","variantCode":"6420325000785","name":"Miere de tei 360g","slug":"100079733-albina-carpatina-miere-de-tei-360g","unitPriceLabel":"51,39 Lei/kg","brand":"Albina Carpatina","brandCode":"1248","brandFilterCode":"albina-carpatina-b1249","sku":"100079733","price":18.5,"originalPrice":null,"currencyCode":"RON","currency":"Lei","image":{"thumbnail":{"default":"https://cdn.freshful.ro/media/cache/sylius_shop_product_thumbnail/6f/f2/504e17c8b5b70d03aae56be35f5e.jpg"},"large":{"default":"https://cdn.freshful.ro/media/cache/freshful_large/6f/f2/504e17c8b5b70d03aae56be35f5e.jpg"},"extralarge":{"default":"https://cdn.freshful.ro/media/cache/sylius_shop_product_original/6f/f2/504e17c8b5b70d03aae56be35f5e.jpg"}},"label":null,"tags":[{"type":"Natural","text":"Natural","icon":"https://cdn.freshful.ro/assets/product_tags/natural.svg","iconPng":"https://cdn.freshful.ro/assets/product_tags/natural.png","backgroundColor":"#E9FCF2","textColor":"#18AF62"},{"type":"MadeInRomania","text":"Made In Romania","icon":"https://cdn.freshful.ro/assets/product_tags/made_in_romania.svg","iconPng":"https://cdn.freshful.ro/assets/product_tags/made_in_romania.png","backgroundColor":"#EDF2FD","textColor":"#1653CA"}],"isAvailable":true,"maxAvailableQuantity":73,"maxAllowedQuantity":100,"breadcrumbs":[{"code":"9","name":"Dulciuri & mic dejun","slug":"9-ceva-dulce"},{"code":"903","name":"Cereale și mic dejun","slug":"903-cereale-si-mic-dejun"},{"code":"90307","name":"Miere","slug":"90307-miere"},{"code":"100079733","name":"Miere de tei 360g","slug":"100079733-albina-carpatina-miere-de-tei-360g"}],"activePromotion":null,"saveMe":null,"labels":[],"geniusPrice":null,"geniusUnitPricePerLabel":null,"banner":null,"discountLabel":null,"geniusDiscountLabel":null,"badge":null},{"code":"100097899","variantCode":"100097899","name":"Miere de salcâm 430g","slug":"100097899-dacia-plant-miere-de-salcam-430g","unitPriceLabel":"48,42 Lei/kg","brand":"Dacia Plant","brandCode":"934","brandFilterCode":"dacia-plant-b934","sku":"100097899","price":30.99,"originalPrice":null,"currencyCode":"RON","currency":"Lei","image":{"thumbnail":{"default":"https://cdn.freshful.ro/media/cache/sylius_shop_product_thumbnail/91/cc/10b55dc0ac6d06e2ece94a336968.jpg"},"large":{"default":"https://cdn.freshful.ro/media/cache/freshful_large/91/cc/10b55dc0ac6d06e2ece94a336968.jpg"},"extralarge":{"default":"https://cdn.freshful.ro/media/cache/sylius_shop_product_original/91/cc/10b55dc0ac6d06e2ece94a336968.jpg"}},"label":null,"tags":[],"isAvailable":true,"maxAvailableQuantity":72,"maxAllowedQuantity":100,"breadcrumbs":[{"code":"9","name":"Dulciuri & mic dejun","slug":"9-ceva-dulce"},{"code":"903","name":"Cereale și mic dejun","slug":"903-cereale-si-mic-dejun"},{"code":"90307","name":"Miere","slug":"90307-miere"},{"code":"100097899","name":"Miere de salcâm 430g","slug":"100097899-dacia-plant-miere-de-salcam-430g"}],"activePromotion":null,"saveMe":null,"labels":[],"geniusPrice":null,"geniusUnitPricePerLabel":null,"banner":null,"discountLabel":null,"geniusDiscountLabel":null,"badge":null},{"code":"100079740","variantCode":"100079740","name":"Miere de tei 750g","slug":"100079740-apimelia-miere-de-tei-750g","unitPriceLabel":"43,33 Lei/kg","brand":"Apimelia","brandCode":"1249","brandFilterCode":"apimelia-b1250","sku":"100079740","price":32.5,"originalPrice":null,"currencyCode":"RON","currency":"Lei","image":{"thumbnail":{"default":"https://cdn.freshful.ro/media/cache/sylius_shop_product_thumbnail/df/4a/73704e133e2e01ee6ce6220cc5f9.jpg"},"large":{"default":"https://cdn.freshful.ro/media/cache/freshful_large/df/4a/73704e133e2e01ee6ce6220cc5f9.jpg"},"extralarge":{"default":"https://cdn.freshful.ro/media/cache/sylius_shop_product_original/df/4a/73704e133e2e01ee6ce6220cc5f9.jpg"}},"label":null,"tags":[],"isAvailable":true,"maxAvailableQuantity":56,"maxAllowedQuantity":100,"breadcrumbs":[{"code":"9","name":"Dulciuri & mic dejun","slug":"9-ceva-dulce"},{"code":"903","name":"Cereale și mic dejun","slug":"903-cereale-si-mic-dejun"},{"code":"90307","name":"Miere","slug":"90307-miere"},{"code":"100079740","name":"Miere de tei 750g","slug":"100079740-apimelia-miere-de-tei-750g"}],"activePromotion":null,"saveMe":null,"labels":[],"geniusPrice":null,"geniusUnitPricePerLabel":null,"banner":null,"discountLabel":null,"geniusDiscountLabel":null,"badge":null},{"code":"100079739","variantCode":"100079739","name":"Miere polifloră 750g","slug":"100079739-apimelia-miere-poliflora-750g","unitPriceLabel":"38 Lei/kg","brand":"Apimelia","brandCode":"1249","brandFilterCode":"apimelia-b1250","sku":"100079739","price":28.5,"originalPrice":null,"currencyCode":"RON","currency":"Lei","image":{"thumbnail":{"default":"https://cdn.freshful.ro/media/cache/sylius_shop_product_thumbnail/09/ed/a31b8b212a30b71f0c42b0b43dbc.jpg"},"large":{"default":"https://cdn.freshful.ro/media/cache/freshful_large/09/ed/a31b8b212a30b71f0c42b0b43dbc.jpg"},"extralarge":{"default":"https://cdn.freshful.ro/media/cache/sylius_shop_product_original/09/ed/a31b8b212a30b71f0c42b0b43dbc.jpg"}},"label":null,"tags":[],"isAvailable":true,"maxAvailableQuantity":57,"maxAllowedQuantity":100,"breadcrumbs":[{"code":"9","name":"Dulciuri & mic dejun","slug":"9-ceva-dulce"},{"code":"903","name":"Cereale și mic dejun","slug":"903-cereale-si-mic-dejun"},{"code":"90307","name":"Miere","slug":"90307-miere"},{"code":"100079739","name":"Miere polifloră 750g","slug":"100079739-apimelia-miere-poliflora-750g"}],"activePromotion":null,"saveMe":null,"labels":[],"geniusPrice":null,"geniusUnitPricePerLabel":null,"banner":null,"discountLabel":null,"geniusDiscountLabel":null,"badge":null},{"code":"100101380","variantCode":"100101380","name":"Miere de floarea-soarelui 400g","slug":"100101380-honey-line-miere-de-floarea-soarelui-400g","unitPriceLabel":"24,98 Lei/kg","brand":"Honey Line","brandCode":"1598","brandFilterCode":"honey-line-b1602","sku":"100101380","price":9.99,"originalPrice":null,"currencyCode":"RON","currency":"Lei","image":{"thumbnail":{"default":"https://cdn.freshful.ro/media/cache/sylius_shop_product_thumbnail/35/21/d517d01e0c401acbdbb25024e95b.jpg"},"large":{"default":"https://cdn.freshful.ro/media/cache/freshful_large/35/21/d517d01e0c401acbdbb25024e95b.jpg"},"extralarge":{"default":"https://cdn.freshful.ro/media/cache/sylius_shop_product_original/35/21/d517d01e0c401acbdbb25024e95b.jpg"}},"label":null,"tags":[],"isAvailable":true,"maxAvailableQuantity":8,"maxAllowedQuantity":100,"breadcrumbs":[{"code":"9","name":"Dulciuri & mic dejun","slug":"9-ceva-dulce"},{"code":"903","name":"Cereale și mic dejun","slug":"903-cereale-si-mic-dejun"},{"code":"90307","name":"Miere","slug":"90307-miere"},{"code":"100101380","name":"Miere de floarea-soarelui 400g","slug":"100101380-honey-line-miere-de-floarea-soarelui-400g"}],"activePromotion":null,"saveMe":null,"labels":[],"geniusPrice":null,"geniusUnitPricePerLabel":null,"banner":null,"discountLabel":null,"geniusDiscountLabel":null,"badge":null},{"code":"100147807","variantCode":"100147807","name":"Miere de salcâm 600g","slug":"100147807-no-brand-miere-de-salcam-600g","unitPriceLabel":"83,32 Lei/kg","brand":"Dobrodulce","brandCode":"2859","brandFilterCode":"dobrodulce-b2949","sku":"100147807","price":49.99,"originalPrice":null,"currencyCode":"RON","currency":"Lei","image":{"thumbnail":{"default":"https://cdn.freshful.ro/media/cache/sylius_shop_product_thumbnail/0e/31/f0a3918e39f6fc3d8c051b8d8d99.jpg"},"large":{"default":"https://cdn.freshful.ro/media/cache/freshful_large/0e/31/f0a3918e39f6fc3d8c051b8d8d99.jpg"},"extralarge":{"default":"https://cdn.freshful.ro/media/cache/sylius_shop_product_original/0e/31/f0a3918e39f6fc3d8c051b8d8d99.jpg"}},"label":null,"tags":[{"type":"MadeInRomania","text":"Made In Romania","icon":"https://cdn.freshful.ro/assets/product_tags/made_in_romania.svg","iconPng":"https://cdn.freshful.ro/assets/product_tags/made_in_romania.png","backgroundColor":"#EDF2FD","textColor":"#1653CA"}],"isAvailable":true,"maxAvailableQuantity":25,"maxAllowedQuantity":100,"breadcrumbs":[{"code":"9","name":"Dulciuri & mic dejun","slug":"9-ceva-dulce"},{"code":"903","name":"Cereale și mic dejun","slug":"903-cereale-si-mic-dejun"},{"code":"90307","name":"Miere","slug":"90307-miere"},{"code":"100147807","name":"Miere de salcâm 600g","slug":"100147807-no-brand-miere-de-salcam-600g"}],"activePromotion":null,"saveMe":null,"labels":[],"geniusPrice":null,"geniusUnitPricePerLabel":null,"banner":null,"discountLabel":null,"geniusDiscountLabel":null,"badge":null},{"code":"100101376","variantCode":"100101376","name":"Miere de rapiță 400g","slug":"100101376-honey-line-miere-de-rapita-400g","unitPriceLabel":"37,48 Lei/kg","brand":"Honey Line","brandCode":"1598","brandFilterCode":"honey-line-b1602","sku":"100101376","price":14.99,"originalPrice":null,"currencyCode":"RON","currency":"Lei","image":{"thumbnail":{"default":"https://cdn.freshful.ro/media/cache/sylius_shop_product_thumbnail/cd/35/7468046cbc901ce5e524b106c1a9.jpg"},"large":{"default":"https://cdn.freshful.ro/media/cache/freshful_large/cd/35/7468046cbc901ce5e524b106c1a9.jpg"},"extralarge":{"default":"https://cdn.freshful.ro/media/cache/sylius_shop_product_original/cd/35/7468046cbc901ce5e524b106c1a9.jpg"}},"label":null,"tags":[],"isAvailable":true,"maxAvailableQuantity":5,"maxAllowedQuantity":100,"breadcrumbs":[{"code":"9","name":"Dulciuri & mic dejun","slug":"9-ceva-dulce"},{"code":"903","name":"Cereale și mic dejun","slug":"903-cereale-si-mic-dejun"},{"code":"90307","name":"Miere","slug":"90307-miere"},{"code":"100101376","name":"Miere de rapiță 400g","slug":"100101376-honey-line-miere-de-rapita-400g"}],"activePromotion":null,"saveMe":null,"labels":[],"geniusPrice":null,"geniusUnitPricePerLabel":null,"banner":null,"discountLabel":null,"geniusDiscountLabel":null,"badge":null}],"filters":{"countSelected":0,"items":[{"code":"promotion","name":"Promoții","countSelected":0,"values":[{"code":"oferte-bacanie-bauturi-21feb-8mar23","name":"Cămara cu băuturi și bunătăți","isSelected":false,"count":2}]},{"code":"brand","name":"Brand","countSelected":0,"values":[{"code":"albina-carpatina-b1249","name":"Albina Carpatina","isSelected":false,"count":17},{"code":"apimelia-b1250","name":"Apimelia","isSelected":false,"count":4},{"code":"colonia-b2454","name":"Colonia","isSelected":false,"count":11},{"code":"dacia-plant-b934","name":"Dacia Plant","isSelected":false,"count":3},{"code":"dobrodulce-b2949","name":"Dobrodulce","isSelected":false,"count":6},{"code":"egmont-b830","name":"Egmont","isSelected":false,"count":9},{"code":"fratii-matei-b1603","name":"Frații Matei","isSelected":false,"count":4},{"code":"happy-valley-b832","name":"Happy Valley","isSelected":false,"count":12},{"code":"honey-line-b1602","name":"Honey Line","isSelected":false,"count":15},{"code":"pivnita-bunicii-b2310","name":"Pivnița Bunicii","isSelected":false,"count":2},{"code":"waimete-b831","name":"Waimete","isSelected":false,"count":9}]},{"code":"diet_lifestyle","name":"Dietă și lifestyle","countSelected":0,"values":[{"code":"fara-gluten-a16","name":"Fara gluten","isSelected":false,"count":2},{"code":"made-in-romania-a85","name":"Made In Romania","isSelected":false,"count":14},{"code":"natural-a27","name":"Natural","isSelected":false,"count":19}]}]},"orderBy":[{"field":"price","direction":"asc","name":"Preț crescător","isSelected":false},{"field":"price","direction":"desc","name":"Preț descrescător","isSelected":false},{"field":"popularity","direction":"desc","name":"Cele mai populare","isSelected":true},{"field":"category","direction":"asc","name":"Categorie","isSelected":false}],"metaTitle":"Miere - Gamă variată","metaDescription":"Vrei Miere? Alege dintr-o gamă variată. Comanzi simplu și ai livrare rapidă, calitate și prospețime. Hai pe Freshful.ro","metaKeywords":null,"banners":[]}}