{"type":"subcategory","payload":{"analyticsListId":"category_90308-gem-si-dulceata","analyticsListName":"Category - Gem și dulceață","name":"Gem și dulceață","slug":"90308-gem-si-dulceata","image":null,"breadcrumbs":[{"code":"9","name":"Dulciuri & mic dejun","slug":"9-ceva-dulce"},{"code":"903","name":"Cereale și mic dejun","slug":"903-cereale-si-mic-dejun"},{"code":"90308","name":"Gem și dulceață","slug":"90308-gem-si-dulceata"}],"slots":[],"page":1,"limit":10,"pages":18,"count":175,"siblings":[{"name":"Biscuiți, napolitane și prăjituri","slug":"902-biscuiti-napolitane-si-prajituri","selected":false},{"name":"Cereale și mic dejun","slug":"903-cereale-si-mic-dejun","selected":true},{"name":"Cafea și ceai","slug":"904-cafea-si-ceai","selected":false},{"name":"Bomboane și ciocolată","slug":"905-bomboane-si-ciocolata","selected":false}],"children":[{"name":"Toate produsele","slug":"903-cereale-si-mic-dejun","selected":false},{"name":"Batoane","slug":"90301-batoane","selected":false},{"name":"Fulgi","slug":"90302-fulgi","selected":false},{"name":"Musli","slug":"90303-musli","selected":false},{"name":"Cereale pentru copii","slug":"90304-cereale-copii","selected":false},{"name":"Alte cereale","slug":"90305-alte-cereale","selected":false},{"name":"Cremă tartinabilă","slug":"90306-crema-tartinabila","selected":false},{"name":"Miere","slug":"90307-miere","selected":false},{"name":"Gem și dulceață","slug":"90308-gem-si-dulceata","selected":true}],"products":[{"code":"100065320","variantCode":"5941028002803","name":"Gem de căpșuni 370g","slug":"100065320-raureni-gem-de-capsuni-370g","unitPriceLabel":"24,3 Lei/kg","brand":"Râureni","brandCode":"772","brandFilterCode":"raureni-b773","sku":"100065320","price":8.99,"originalPrice":12.9,"currencyCode":"RON","currency":"Lei","image":{"thumbnail":{"default":"https://cdn.freshful.ro/media/cache/sylius_shop_product_thumbnail/5b/7b/3fe3f49a7908ed4080f0ee6f7681.jpg"},"large":{"default":"https://cdn.freshful.ro/media/cache/freshful_large/5b/7b/3fe3f49a7908ed4080f0ee6f7681.jpg"},"extralarge":{"default":"https://cdn.freshful.ro/media/cache/sylius_shop_product_original/5b/7b/3fe3f49a7908ed4080f0ee6f7681.jpg"}},"label":{"text":"-30%","backgroundColor":"#FF9903","textColor":"#FFFFFF"},"tags":[{"type":"MadeInRomania","text":"Made In Romania","icon":"https://cdn.freshful.ro/assets/product_tags/made_in_romania.svg","iconPng":"https://cdn.freshful.ro/assets/product_tags/made_in_romania.png","backgroundColor":"#EDF2FD","textColor":"#1653CA"}],"isAvailable":true,"maxAvailableQuantity":100,"maxAllowedQuantity":100,"breadcrumbs":[{"code":"9","name":"Dulciuri & mic dejun","slug":"9-ceva-dulce"},{"code":"903","name":"Cereale și mic dejun","slug":"903-cereale-si-mic-dejun"},{"code":"90308","name":"Gem și dulceață","slug":"90308-gem-si-dulceata"},{"code":"100065320","name":"Gem de căpșuni 370g","slug":"100065320-raureni-gem-de-capsuni-370g"}],"activePromotion":{"code":"oferte-bacanie-bauturi-21feb-8mar23","name":"Preț redus","targetQuantity":null},"saveMe":null,"labels":[{"type":"v1","items":[{"text":"-30%","backgroundColor":"#FF9903","textColor":"#FFFFFF"}]}],"geniusPrice":null,"geniusUnitPricePerLabel":null,"banner":{"text":"Super preț","textColor":"#FF0000","bgColor":"#FFF2EC","icon":null,"link":"https://www.freshful.ro/oferte/oferte-bacanie-bauturi-21feb-8mar23","type":"promo","analyticsEventType":"select_promotion","analyticsEventPayload":{"promotion_id":"oferte-bacanie-bauturi-21feb-8mar23","promotion_name":"Cămara cu băuturi și bunătăți"}},"discountLabel":"Economisești 30%","geniusDiscountLabel":null,"badge":null},{"code":"100065319","variantCode":"5941028002919","name":"Gem de caise 370g","slug":"100065319-raureni-gem-de-caise-370g","unitPriceLabel":"21,59 Lei/kg","brand":"Râureni","brandCode":"772","brandFilterCode":"raureni-b773","sku":"100065319","price":7.99,"originalPrice":9.95,"currencyCode":"RON","currency":"Lei","image":{"thumbnail":{"default":"https://cdn.freshful.ro/media/cache/sylius_shop_product_thumbnail/bd/58/b7f8dc60e558b62ed3c9ca941614.jpg"},"large":{"default":"https://cdn.freshful.ro/media/cache/freshful_large/bd/58/b7f8dc60e558b62ed3c9ca941614.jpg"},"extralarge":{"default":"https://cdn.freshful.ro/media/cache/sylius_shop_product_original/bd/58/b7f8dc60e558b62ed3c9ca941614.jpg"}},"label":{"text":"-19%","backgroundColor":"#FF9903","textColor":"#FFFFFF"},"tags":[{"type":"MadeInRomania","text":"Made In Romania","icon":"https://cdn.freshful.ro/assets/product_tags/made_in_romania.svg","iconPng":"https://cdn.freshful.ro/assets/product_tags/made_in_romania.png","backgroundColor":"#EDF2FD","textColor":"#1653CA"}],"isAvailable":true,"maxAvailableQuantity":100,"maxAllowedQuantity":100,"breadcrumbs":[{"code":"9","name":"Dulciuri & mic dejun","slug":"9-ceva-dulce"},{"code":"903","name":"Cereale și mic dejun","slug":"903-cereale-si-mic-dejun"},{"code":"90308","name":"Gem și dulceață","slug":"90308-gem-si-dulceata"},{"code":"100065319","name":"Gem de caise 370g","slug":"100065319-raureni-gem-de-caise-370g"}],"activePromotion":{"code":"oferte-bacanie-bauturi-21feb-8mar23","name":"Preț redus","targetQuantity":null},"saveMe":null,"labels":[{"type":"v1","items":[{"text":"-19%","backgroundColor":"#FF9903","textColor":"#FFFFFF"}]}],"geniusPrice":null,"geniusUnitPricePerLabel":null,"banner":{"text":"Super preț","textColor":"#FF0000","bgColor":"#FFF2EC","icon":null,"link":"https://www.freshful.ro/oferte/oferte-bacanie-bauturi-21feb-8mar23","type":"promo","analyticsEventType":"select_promotion","analyticsEventPayload":{"promotion_id":"oferte-bacanie-bauturi-21feb-8mar23","promotion_name":"Cămara cu băuturi și bunătăți"}},"discountLabel":"Economisești 19%","geniusDiscountLabel":null,"badge":null},{"code":"100094955","variantCode":"100094955","name":"Dulceață de cireșe amare albe 230g","slug":"100094955-pofta-focului-dulceata-de-cirese-amare-albe-230g","unitPriceLabel":"91,26 Lei/kg","brand":"Pofta Focului","brandCode":"1562","brandFilterCode":"pofta-focului-b1566","sku":"100094955","price":20.99,"originalPrice":null,"currencyCode":"RON","currency":"Lei","image":{"thumbnail":{"default":"https://cdn.freshful.ro/media/cache/sylius_shop_product_thumbnail/c2/75/e14181e0e44db6face96e9ba1626.jpg"},"large":{"default":"https://cdn.freshful.ro/media/cache/freshful_large/c2/75/e14181e0e44db6face96e9ba1626.jpg"},"extralarge":{"default":"https://cdn.freshful.ro/media/cache/sylius_shop_product_original/c2/75/e14181e0e44db6face96e9ba1626.jpg"}},"label":{"text":"Mici producători","backgroundColor":"#7B61FF","textColor":"#FFFFFF"},"tags":[{"type":"NoPreservatives","text":"Fara conservanti","icon":"https://cdn.freshful.ro/assets/product_tags/fara_conservanti.svg","iconPng":"https://cdn.freshful.ro/assets/product_tags/fara_conservanti.png","backgroundColor":"#F0F2FF","textColor":"#7889DD"}],"isAvailable":true,"maxAvailableQuantity":35,"maxAllowedQuantity":100,"breadcrumbs":[{"code":"9","name":"Dulciuri & mic dejun","slug":"9-ceva-dulce"},{"code":"903","name":"Cereale și mic dejun","slug":"903-cereale-si-mic-dejun"},{"code":"90308","name":"Gem și dulceață","slug":"90308-gem-si-dulceata"},{"code":"100094955","name":"Dulceață de cireșe amare albe 230g","slug":"100094955-pofta-focului-dulceata-de-cirese-amare-albe-230g"}],"activePromotion":null,"saveMe":null,"labels":[{"type":"v1","items":[{"text":"Mici producători","backgroundColor":"#7B61FF","textColor":"#FFFFFF"}]}],"geniusPrice":null,"geniusUnitPricePerLabel":null,"banner":null,"discountLabel":null,"geniusDiscountLabel":null,"badge":null},{"code":"100075696","variantCode":"100075696","name":"Magiun de prune 350g","slug":"100075696-topoloveni-magiun-de-prune-350g","unitPriceLabel":"18,9 Lei/buc","brand":"Topoloveni","brandCode":"1191","brandFilterCode":"topoloveni-b1192","sku":"100075696","price":18.9,"originalPrice":null,"currencyCode":"RON","currency":"Lei","image":{"thumbnail":{"default":"https://cdn.freshful.ro/media/cache/sylius_shop_product_thumbnail/46/7b/0471897878f993f50581f3b01df8.jpg"},"large":{"default":"https://cdn.freshful.ro/media/cache/freshful_large/46/7b/0471897878f993f50581f3b01df8.jpg"},"extralarge":{"default":"https://cdn.freshful.ro/media/cache/sylius_shop_product_original/46/7b/0471897878f993f50581f3b01df8.jpg"}},"label":null,"tags":[{"type":"NoAddedSugar","text":"Fara zahar adaugat","icon":"https://cdn.freshful.ro/assets/product_tags/fara_zahar_adaugat.svg","iconPng":"https://cdn.freshful.ro/assets/product_tags/fara_zahar_adaugat.png","backgroundColor":"#F8EDF7","textColor":"#C05EBC"},{"type":"NoPreservatives","text":"Fara conservanti","icon":"https://cdn.freshful.ro/assets/product_tags/fara_conservanti.svg","iconPng":"https://cdn.freshful.ro/assets/product_tags/fara_conservanti.png","backgroundColor":"#F0F2FF","textColor":"#7889DD"},{"type":"NoE","text":"Fara E-uri","icon":"https://cdn.freshful.ro/assets/product_tags/fara_euri.svg","iconPng":"https://cdn.freshful.ro/assets/product_tags/fara_euri.png","backgroundColor":"#FCF5DF","textColor":"#CAA316"}],"isAvailable":true,"maxAvailableQuantity":100,"maxAllowedQuantity":100,"breadcrumbs":[{"code":"9","name":"Dulciuri & mic dejun","slug":"9-ceva-dulce"},{"code":"903","name":"Cereale și mic dejun","slug":"903-cereale-si-mic-dejun"},{"code":"90308","name":"Gem și dulceață","slug":"90308-gem-si-dulceata"},{"code":"100075696","name":"Magiun de prune 350g","slug":"100075696-topoloveni-magiun-de-prune-350g"}],"activePromotion":null,"saveMe":null,"labels":[],"geniusPrice":null,"geniusUnitPricePerLabel":null,"banner":null,"discountLabel":null,"geniusDiscountLabel":null,"badge":null},{"code":"100144048","variantCode":"100144048","name":"Dulceață de căpșuni 240g","slug":"100144048-valenii-de-munte-dulceata-de-capsuni-240g","unitPriceLabel":"54,13 Lei/kg","brand":"Valenii De Munte","brandCode":"2712","brandFilterCode":"valenii-de-munte-b2718","sku":"100144048","price":12.99,"originalPrice":null,"currencyCode":"RON","currency":"Lei","image":{"thumbnail":{"default":"https://cdn.freshful.ro/media/cache/sylius_shop_product_thumbnail/46/da/f98941aa6e2ce51f5a5a6697ced6.jpg"},"large":{"default":"https://cdn.freshful.ro/media/cache/freshful_large/46/da/f98941aa6e2ce51f5a5a6697ced6.jpg"},"extralarge":{"default":"https://cdn.freshful.ro/media/cache/sylius_shop_product_original/46/da/f98941aa6e2ce51f5a5a6697ced6.jpg"}},"label":null,"tags":[],"isAvailable":true,"maxAvailableQuantity":100,"maxAllowedQuantity":100,"breadcrumbs":[{"code":"9","name":"Dulciuri & mic dejun","slug":"9-ceva-dulce"},{"code":"903","name":"Cereale și mic dejun","slug":"903-cereale-si-mic-dejun"},{"code":"90308","name":"Gem și dulceață","slug":"90308-gem-si-dulceata"},{"code":"100144048","name":"Dulceață de căpșuni 240g","slug":"100144048-valenii-de-munte-dulceata-de-capsuni-240g"}],"activePromotion":null,"saveMe":null,"labels":[],"geniusPrice":null,"geniusUnitPricePerLabel":null,"banner":null,"discountLabel":null,"geniusDiscountLabel":null,"badge":null},{"code":"100093429","variantCode":"5941891400485","name":"Dulceață de cireșe negre gătită la ceaun pe foc de lemne 380g","slug":"100093429-razvan-dulceata-de-cirese-negre-gatita-la-ceaun-pe-foc-de-lemne-380g","unitPriceLabel":"55 Lei/kg","brand":"Răzvan","brandCode":"1126","brandFilterCode":"razvan-b1127","sku":"100093429","price":20.9,"originalPrice":null,"currencyCode":"RON","currency":"Lei","image":{"thumbnail":{"default":"https://cdn.freshful.ro/media/cache/sylius_shop_product_thumbnail/68/a1/d84f4bc1da6dd6afcc765f4b8566.jpg"},"large":{"default":"https://cdn.freshful.ro/media/cache/freshful_large/68/a1/d84f4bc1da6dd6afcc765f4b8566.jpg"},"extralarge":{"default":"https://cdn.freshful.ro/media/cache/sylius_shop_product_original/68/a1/d84f4bc1da6dd6afcc765f4b8566.jpg"}},"label":{"text":"Mici producători","backgroundColor":"#7B61FF","textColor":"#FFFFFF"},"tags":[],"isAvailable":true,"maxAvailableQuantity":92,"maxAllowedQuantity":100,"breadcrumbs":[{"code":"9","name":"Dulciuri & mic dejun","slug":"9-ceva-dulce"},{"code":"903","name":"Cereale și mic dejun","slug":"903-cereale-si-mic-dejun"},{"code":"90308","name":"Gem și dulceață","slug":"90308-gem-si-dulceata"},{"code":"100093429","name":"Dulceață de cireșe negre gătită la ceaun pe foc de lemne 380g","slug":"100093429-razvan-dulceata-de-cirese-negre-gatita-la-ceaun-pe-foc-de-lemne-380g"}],"activePromotion":null,"saveMe":null,"labels":[{"type":"v1","items":[{"text":"Mici producători","backgroundColor":"#7B61FF","textColor":"#FFFFFF"}]}],"geniusPrice":null,"geniusUnitPricePerLabel":null,"banner":null,"discountLabel":null,"geniusDiscountLabel":null,"badge":null},{"code":"100097223","variantCode":"5014271400426","name":"Gem de căpșuni 284g","slug":"100097223-dalfour-gem-de-capsuni-284g","unitPriceLabel":"72,18 Lei/kg","brand":"Dalfour","brandCode":"1621","brandFilterCode":"dalfour-b1625","sku":"100097223","price":20.5,"originalPrice":null,"currencyCode":"RON","currency":"Lei","image":{"thumbnail":{"default":"https://cdn.freshful.ro/media/cache/sylius_shop_product_thumbnail/a9/39/4a4dfa3e923e5092ba8088d921f7.jpg"},"large":{"default":"https://cdn.freshful.ro/media/cache/freshful_large/a9/39/4a4dfa3e923e5092ba8088d921f7.jpg"},"extralarge":{"default":"https://cdn.freshful.ro/media/cache/sylius_shop_product_original/a9/39/4a4dfa3e923e5092ba8088d921f7.jpg"}},"label":null,"tags":[],"isAvailable":true,"maxAvailableQuantity":60,"maxAllowedQuantity":100,"breadcrumbs":[{"code":"9","name":"Dulciuri & mic dejun","slug":"9-ceva-dulce"},{"code":"903","name":"Cereale și mic dejun","slug":"903-cereale-si-mic-dejun"},{"code":"90308","name":"Gem și dulceață","slug":"90308-gem-si-dulceata"},{"code":"100097223","name":"Gem de căpșuni 284g","slug":"100097223-dalfour-gem-de-capsuni-284g"}],"activePromotion":null,"saveMe":null,"labels":[],"geniusPrice":null,"geniusUnitPricePerLabel":null,"banner":null,"discountLabel":null,"geniusDiscountLabel":null,"badge":null},{"code":"100065327","variantCode":"100065327","name":"Magiun de prune fără adaos de zahăr 350g ","slug":"100065327-raureni-magiun-de-prune-fara-adaos-de-zahar-350g","unitPriceLabel":"54 Lei/kg","brand":"Râureni","brandCode":"772","brandFilterCode":"raureni-b773","sku":"100065327","price":18.9,"originalPrice":null,"currencyCode":"RON","currency":"Lei","image":{"thumbnail":{"default":"https://cdn.freshful.ro/media/cache/sylius_shop_product_thumbnail/90/08/7250e17e3f205ce91275a813d555.jpg"},"large":{"default":"https://cdn.freshful.ro/media/cache/freshful_large/90/08/7250e17e3f205ce91275a813d555.jpg"},"extralarge":{"default":"https://cdn.freshful.ro/media/cache/sylius_shop_product_original/90/08/7250e17e3f205ce91275a813d555.jpg"}},"label":null,"tags":[{"type":"MadeInRomania","text":"Made In Romania","icon":"https://cdn.freshful.ro/assets/product_tags/made_in_romania.svg","iconPng":"https://cdn.freshful.ro/assets/product_tags/made_in_romania.png","backgroundColor":"#EDF2FD","textColor":"#1653CA"},{"type":"Natural","text":"Natural","icon":"https://cdn.freshful.ro/assets/product_tags/natural.svg","iconPng":"https://cdn.freshful.ro/assets/product_tags/natural.png","backgroundColor":"#E9FCF2","textColor":"#18AF62"},{"type":"NoAddedSugar","text":"Fara zahar adaugat","icon":"https://cdn.freshful.ro/assets/product_tags/fara_zahar_adaugat.svg","iconPng":"https://cdn.freshful.ro/assets/product_tags/fara_zahar_adaugat.png","backgroundColor":"#F8EDF7","textColor":"#C05EBC"}],"isAvailable":true,"maxAvailableQuantity":100,"maxAllowedQuantity":100,"breadcrumbs":[{"code":"9","name":"Dulciuri & mic dejun","slug":"9-ceva-dulce"},{"code":"903","name":"Cereale și mic dejun","slug":"903-cereale-si-mic-dejun"},{"code":"90308","name":"Gem și dulceață","slug":"90308-gem-si-dulceata"},{"code":"100065327","name":"Magiun de prune fără adaos de zahăr 350g ","slug":"100065327-raureni-magiun-de-prune-fara-adaos-de-zahar-350g"}],"activePromotion":null,"saveMe":null,"labels":[],"geniusPrice":null,"geniusUnitPricePerLabel":null,"banner":null,"discountLabel":null,"geniusDiscountLabel":null,"badge":null},{"code":"100144047","variantCode":"100144047","name":"Dulceață de afine 240g","slug":"100144047-valenii-de-munte-dulceata-de-afine-240g","unitPriceLabel":"58,29 Lei/kg","brand":"Valenii De Munte","brandCode":"2712","brandFilterCode":"valenii-de-munte-b2718","sku":"100144047","price":13.99,"originalPrice":null,"currencyCode":"RON","currency":"Lei","image":{"thumbnail":{"default":"https://cdn.freshful.ro/media/cache/sylius_shop_product_thumbnail/af/44/fd0f693d170bbffafccbfb3bbe57.jpg"},"large":{"default":"https://cdn.freshful.ro/media/cache/freshful_large/af/44/fd0f693d170bbffafccbfb3bbe57.jpg"},"extralarge":{"default":"https://cdn.freshful.ro/media/cache/sylius_shop_product_original/af/44/fd0f693d170bbffafccbfb3bbe57.jpg"}},"label":null,"tags":[],"isAvailable":true,"maxAvailableQuantity":100,"maxAllowedQuantity":100,"breadcrumbs":[{"code":"9","name":"Dulciuri & mic dejun","slug":"9-ceva-dulce"},{"code":"903","name":"Cereale și mic dejun","slug":"903-cereale-si-mic-dejun"},{"code":"90308","name":"Gem și dulceață","slug":"90308-gem-si-dulceata"},{"code":"100144047","name":"Dulceață de afine 240g","slug":"100144047-valenii-de-munte-dulceata-de-afine-240g"}],"activePromotion":null,"saveMe":null,"labels":[],"geniusPrice":null,"geniusUnitPricePerLabel":null,"banner":null,"discountLabel":null,"geniusDiscountLabel":null,"badge":null},{"code":"100097220","variantCode":"5014271300429","name":"Gem de caise 284g","slug":"100097220-dalfour-gem-de-caise-284g","unitPriceLabel":"72,18 Lei/kg","brand":"Dalfour","brandCode":"1621","brandFilterCode":"dalfour-b1625","sku":"100097220","price":20.5,"originalPrice":null,"currencyCode":"RON","currency":"Lei","image":{"thumbnail":{"default":"https://cdn.freshful.ro/media/cache/sylius_shop_product_thumbnail/cb/56/31e9fc2075d033e5c9bebd08aa63.jpg"},"large":{"default":"https://cdn.freshful.ro/media/cache/freshful_large/cb/56/31e9fc2075d033e5c9bebd08aa63.jpg"},"extralarge":{"default":"https://cdn.freshful.ro/media/cache/sylius_shop_product_original/cb/56/31e9fc2075d033e5c9bebd08aa63.jpg"}},"label":null,"tags":[],"isAvailable":true,"maxAvailableQuantity":53,"maxAllowedQuantity":100,"breadcrumbs":[{"code":"9","name":"Dulciuri & mic dejun","slug":"9-ceva-dulce"},{"code":"903","name":"Cereale și mic dejun","slug":"903-cereale-si-mic-dejun"},{"code":"90308","name":"Gem și dulceață","slug":"90308-gem-si-dulceata"},{"code":"100097220","name":"Gem de caise 284g","slug":"100097220-dalfour-gem-de-caise-284g"}],"activePromotion":null,"saveMe":null,"labels":[],"geniusPrice":null,"geniusUnitPricePerLabel":null,"banner":null,"discountLabel":null,"geniusDiscountLabel":null,"badge":null}],"filters":{"countSelected":0,"items":[{"code":"promotion","name":"Promoții","countSelected":0,"values":[{"code":"oferte-bacanie-bauturi-21feb-8mar23","name":"Cămara cu băuturi și bunătăți","isSelected":false,"count":2}]},{"code":"brand","name":"Brand","countSelected":0,"values":[{"code":"aarts-b985","name":"Aarts","isSelected":false,"count":1},{"code":"bucataria-brancoveneasca-b1615","name":"Bucătăria Brâncovenească","isSelected":false,"count":1},{"code":"bun-de-tot-b944","name":"Bun de Tot","isSelected":false,"count":13},{"code":"bacanie-b1770","name":"Băcănie","isSelected":false,"count":1},{"code":"dalfour-b1625","name":"Dalfour","isSelected":false,"count":7},{"code":"darbo-b636","name":"Darbo","isSelected":false,"count":3},{"code":"delirs-b965","name":"Delirs","isSelected":false,"count":13},{"code":"greenomic-b1848","name":"Greenomic","isSelected":false,"count":1},{"code":"gradinile-doamnei-b2303","name":"Grădinile Doamnei","isSelected":false,"count":2},{"code":"hada-b2499","name":"Hada","isSelected":false,"count":4},{"code":"jugais-b992","name":"Jugais","isSelected":false,"count":5},{"code":"menz-gasser-b2170","name":"Menz&Gasser","isSelected":false,"count":6},{"code":"mica-ilinca-b1526","name":"Mica Ilinca","isSelected":false,"count":12},{"code":"olympia-b244","name":"Olympia","isSelected":false,"count":3},{"code":"pivnita-bunicii-b2310","name":"Pivnița Bunicii","isSelected":false,"count":17},{"code":"pofta-focului-b1566","name":"Pofta Focului","isSelected":false,"count":10},{"code":"poiana-fermecata-b1877","name":"Poiana Fermecată","isSelected":false,"count":7},{"code":"roadele-muntilor-b2722","name":"Roadele Munților","isSelected":false,"count":2},{"code":"raureni-b773","name":"Râureni","isSelected":false,"count":29},{"code":"razvan-b1127","name":"Răzvan","isSelected":false,"count":7},{"code":"schwartau-b880","name":"Schwartau","isSelected":false,"count":5},{"code":"topoloveana-b1193","name":"Topoloveana","isSelected":false,"count":1},{"code":"topoloveni-b1192","name":"Topoloveni","isSelected":false,"count":18},{"code":"valenii-de-munte-b2718","name":"Valenii De Munte","isSelected":false,"count":3},{"code":"vasluianca-b1833","name":"Vasluianca","isSelected":false,"count":4}]},{"code":"diet_lifestyle","name":"Dietă și lifestyle","countSelected":0,"values":[{"code":"fara-conservanti-a37","name":"Fara conservanti","isSelected":false,"count":77},{"code":"fara-e-uri-a84","name":"Fara E-uri","isSelected":false,"count":30},{"code":"fara-gluten-a16","name":"Fara gluten","isSelected":false,"count":17},{"code":"fara-zahar-adaugat-a29","name":"Fara zahar adaugat","isSelected":false,"count":38},{"code":"made-in-romania-a85","name":"Made In Romania","isSelected":false,"count":68},{"code":"natural-a27","name":"Natural","isSelected":false,"count":27}]}]},"orderBy":[{"field":"price","direction":"asc","name":"Preț crescător","isSelected":false},{"field":"price","direction":"desc","name":"Preț descrescător","isSelected":false},{"field":"popularity","direction":"desc","name":"Cele mai populare","isSelected":true},{"field":"category","direction":"asc","name":"Categorie","isSelected":false}],"metaTitle":"Gem și dulceață - Gamă variată","metaDescription":"Vrei Gem și dulceață? Alege dintr-o gamă variată. Comanzi simplu și ai livrare rapidă, calitate și prospețime. Hai pe Freshful.ro","metaKeywords":null,"banners":[]}}