{"type":"subcategory","payload":{"analyticsListId":"category_90303-musli","analyticsListName":"Category - Musli","name":"Musli","slug":"90303-musli","image":null,"breadcrumbs":[{"code":"9","name":"Dulciuri & mic dejun","slug":"9-ceva-dulce"},{"code":"903","name":"Cereale și mic dejun","slug":"903-cereale-si-mic-dejun"},{"code":"90303","name":"Musli","slug":"90303-musli"}],"slots":[],"page":1,"limit":10,"pages":4,"count":34,"siblings":[{"name":"Biscuiți, napolitane și prăjituri","slug":"902-biscuiti-napolitane-si-prajituri","selected":false},{"name":"Cereale și mic dejun","slug":"903-cereale-si-mic-dejun","selected":true},{"name":"Cafea și ceai","slug":"904-cafea-si-ceai","selected":false},{"name":"Bomboane și ciocolată","slug":"905-bomboane-si-ciocolata","selected":false}],"children":[{"name":"Toate produsele","slug":"903-cereale-si-mic-dejun","selected":false},{"name":"Batoane","slug":"90301-batoane","selected":false},{"name":"Fulgi","slug":"90302-fulgi","selected":false},{"name":"Musli","slug":"90303-musli","selected":true},{"name":"Cereale pentru copii","slug":"90304-cereale-copii","selected":false},{"name":"Alte cereale","slug":"90305-alte-cereale","selected":false},{"name":"Cremă tartinabilă","slug":"90306-crema-tartinabila","selected":false},{"name":"Miere","slug":"90307-miere","selected":false},{"name":"Gem și dulceață","slug":"90308-gem-si-dulceata","selected":false}],"products":[{"code":"100001632","variantCode":"5941132005196","name":"Musli vitalis cu ciocolată 300g","slug":"100001632-dr-oetker-musli-vitalis-cu-ciocolata-300g","unitPriceLabel":"49,67 Lei/kg","brand":"Dr. Oetker","brandCode":"55","brandFilterCode":"dr-oetker-b51","sku":"100001632","price":14.9,"originalPrice":null,"currencyCode":"RON","currency":"Lei","image":{"thumbnail":{"default":"https://cdn.freshful.ro/media/cache/sylius_shop_product_thumbnail/89/fd/7444fc427b3e4290394b2d032984.jpg"},"large":{"default":"https://cdn.freshful.ro/media/cache/freshful_large/89/fd/7444fc427b3e4290394b2d032984.jpg"},"extralarge":{"default":"https://cdn.freshful.ro/media/cache/sylius_shop_product_original/89/fd/7444fc427b3e4290394b2d032984.jpg"}},"label":null,"tags":[],"isAvailable":true,"maxAvailableQuantity":100,"maxAllowedQuantity":100,"breadcrumbs":[{"code":"9","name":"Dulciuri & mic dejun","slug":"9-ceva-dulce"},{"code":"903","name":"Cereale și mic dejun","slug":"903-cereale-si-mic-dejun"},{"code":"90303","name":"Musli","slug":"90303-musli"},{"code":"100001632","name":"Musli vitalis cu ciocolată 300g","slug":"100001632-dr-oetker-musli-vitalis-cu-ciocolata-300g"}],"activePromotion":null,"saveMe":null,"labels":[],"geniusPrice":null,"geniusUnitPricePerLabel":null,"banner":null,"discountLabel":null,"geniusDiscountLabel":null,"badge":null},{"code":"100139078","variantCode":"100139078","name":"Musli cu fructe 500g","slug":"100139078-sanovita-musli-cu-fructe-500g","unitPriceLabel":"23,98 Lei/kg","brand":"Sanovita","brandCode":"482","brandFilterCode":"sanovita-b483","sku":"100139078","price":11.99,"originalPrice":null,"currencyCode":"RON","currency":"Lei","image":{"thumbnail":{"default":"https://cdn.freshful.ro/media/cache/sylius_shop_product_thumbnail/54/9d/d8d924d6ef576fc63c885337b225.jpg"},"large":{"default":"https://cdn.freshful.ro/media/cache/freshful_large/54/9d/d8d924d6ef576fc63c885337b225.jpg"},"extralarge":{"default":"https://cdn.freshful.ro/media/cache/sylius_shop_product_original/54/9d/d8d924d6ef576fc63c885337b225.jpg"}},"label":null,"tags":[],"isAvailable":true,"maxAvailableQuantity":27,"maxAllowedQuantity":100,"breadcrumbs":[{"code":"9","name":"Dulciuri & mic dejun","slug":"9-ceva-dulce"},{"code":"903","name":"Cereale și mic dejun","slug":"903-cereale-si-mic-dejun"},{"code":"90303","name":"Musli","slug":"90303-musli"},{"code":"100139078","name":"Musli cu fructe 500g","slug":"100139078-sanovita-musli-cu-fructe-500g"}],"activePromotion":null,"saveMe":null,"labels":[],"geniusPrice":null,"geniusUnitPricePerLabel":null,"banner":null,"discountLabel":null,"geniusDiscountLabel":null,"badge":null},{"code":"100001405","variantCode":"4000521021894","name":"Musli extra crocant cu amestec de nuci 450g","slug":"100001405-dr-oetker-vitalis-musli-extra-crocant-cu-amestec-de-nuci-450g","unitPriceLabel":"39,04 Lei/kg","brand":"Dr. Oetker-Vitalis","brandCode":"176","brandFilterCode":"dr-oetker-vitalis-b177","sku":"100001405","price":17.57,"originalPrice":null,"currencyCode":"RON","currency":"Lei","image":{"thumbnail":{"default":"https://cdn.freshful.ro/media/cache/sylius_shop_product_thumbnail/7c/f1/39bcd43fdbcc0999b451b416ef83.jpg"},"large":{"default":"https://cdn.freshful.ro/media/cache/freshful_large/7c/f1/39bcd43fdbcc0999b451b416ef83.jpg"},"extralarge":{"default":"https://cdn.freshful.ro/media/cache/sylius_shop_product_original/7c/f1/39bcd43fdbcc0999b451b416ef83.jpg"}},"label":null,"tags":[],"isAvailable":true,"maxAvailableQuantity":58,"maxAllowedQuantity":100,"breadcrumbs":[{"code":"9","name":"Dulciuri & mic dejun","slug":"9-ceva-dulce"},{"code":"903","name":"Cereale și mic dejun","slug":"903-cereale-si-mic-dejun"},{"code":"90303","name":"Musli","slug":"90303-musli"},{"code":"100001405","name":"Musli extra crocant cu amestec de nuci 450g","slug":"100001405-dr-oetker-vitalis-musli-extra-crocant-cu-amestec-de-nuci-450g"}],"activePromotion":null,"saveMe":null,"labels":[],"geniusPrice":null,"geniusUnitPricePerLabel":null,"banner":null,"discountLabel":null,"geniusDiscountLabel":null,"badge":null},{"code":"100001635","variantCode":"5941132005172","name":"Musli vitalis crocant cu miere 300g","slug":"100001635-dr-oetker-musli-vitalis-crocant-cu-miere-300g","unitPriceLabel":"48,33 Lei/kg","brand":"Dr. Oetker","brandCode":"55","brandFilterCode":"dr-oetker-b51","sku":"100001635","price":14.5,"originalPrice":null,"currencyCode":"RON","currency":"Lei","image":{"thumbnail":{"default":"https://cdn.freshful.ro/media/cache/sylius_shop_product_thumbnail/0c/b9/488665411417ccab41a4ab668ddf.jpg"},"large":{"default":"https://cdn.freshful.ro/media/cache/freshful_large/0c/b9/488665411417ccab41a4ab668ddf.jpg"},"extralarge":{"default":"https://cdn.freshful.ro/media/cache/sylius_shop_product_original/0c/b9/488665411417ccab41a4ab668ddf.jpg"}},"label":null,"tags":[],"isAvailable":true,"maxAvailableQuantity":81,"maxAllowedQuantity":100,"breadcrumbs":[{"code":"9","name":"Dulciuri & mic dejun","slug":"9-ceva-dulce"},{"code":"903","name":"Cereale și mic dejun","slug":"903-cereale-si-mic-dejun"},{"code":"90303","name":"Musli","slug":"90303-musli"},{"code":"100001635","name":"Musli vitalis crocant cu miere 300g","slug":"100001635-dr-oetker-musli-vitalis-crocant-cu-miere-300g"}],"activePromotion":null,"saveMe":null,"labels":[],"geniusPrice":null,"geniusUnitPricePerLabel":null,"banner":null,"discountLabel":null,"geniusDiscountLabel":null,"badge":null},{"code":"100001633","variantCode":"5941132005158","name":"Musli vitalis crocant cu banane și ciocolată 300g","slug":"100001633-dr-oetker-musli-vitalis-crocant-cu-banane-si-ciocolata-300g","unitPriceLabel":"45,9 Lei/kg","brand":"Dr. Oetker","brandCode":"55","brandFilterCode":"dr-oetker-b51","sku":"100001633","price":13.77,"originalPrice":null,"currencyCode":"RON","currency":"Lei","image":{"thumbnail":{"default":"https://cdn.freshful.ro/media/cache/sylius_shop_product_thumbnail/20/89/df6082c757942a8e89e1079b3611.jpg"},"large":{"default":"https://cdn.freshful.ro/media/cache/freshful_large/20/89/df6082c757942a8e89e1079b3611.jpg"},"extralarge":{"default":"https://cdn.freshful.ro/media/cache/sylius_shop_product_original/20/89/df6082c757942a8e89e1079b3611.jpg"}},"label":null,"tags":[],"isAvailable":true,"maxAvailableQuantity":55,"maxAllowedQuantity":100,"breadcrumbs":[{"code":"9","name":"Dulciuri & mic dejun","slug":"9-ceva-dulce"},{"code":"903","name":"Cereale și mic dejun","slug":"903-cereale-si-mic-dejun"},{"code":"90303","name":"Musli","slug":"90303-musli"},{"code":"100001633","name":"Musli vitalis crocant cu banane și ciocolată 300g","slug":"100001633-dr-oetker-musli-vitalis-crocant-cu-banane-si-ciocolata-300g"}],"activePromotion":null,"saveMe":null,"labels":[],"geniusPrice":null,"geniusUnitPricePerLabel":null,"banner":null,"discountLabel":null,"geniusDiscountLabel":null,"badge":null},{"code":"100096520","variantCode":"100096520","name":"Musli cu merișor 400g","slug":"100096520-sanovita-musli-cu-merisor-400g","unitPriceLabel":"33,75 Lei/kg","brand":"Sanovita","brandCode":"482","brandFilterCode":"sanovita-b483","sku":"100096520","price":13.5,"originalPrice":null,"currencyCode":"RON","currency":"Lei","image":{"thumbnail":{"default":"https://cdn.freshful.ro/media/cache/sylius_shop_product_thumbnail/7c/99/269161ee72294d1d09e6c6c1a8f1.jpg"},"large":{"default":"https://cdn.freshful.ro/media/cache/freshful_large/7c/99/269161ee72294d1d09e6c6c1a8f1.jpg"},"extralarge":{"default":"https://cdn.freshful.ro/media/cache/sylius_shop_product_original/7c/99/269161ee72294d1d09e6c6c1a8f1.jpg"}},"label":null,"tags":[],"isAvailable":true,"maxAvailableQuantity":41,"maxAllowedQuantity":100,"breadcrumbs":[{"code":"9","name":"Dulciuri & mic dejun","slug":"9-ceva-dulce"},{"code":"903","name":"Cereale și mic dejun","slug":"903-cereale-si-mic-dejun"},{"code":"90303","name":"Musli","slug":"90303-musli"},{"code":"100096520","name":"Musli cu merișor 400g","slug":"100096520-sanovita-musli-cu-merisor-400g"}],"activePromotion":null,"saveMe":null,"labels":[],"geniusPrice":null,"geniusUnitPricePerLabel":null,"banner":null,"discountLabel":null,"geniusDiscountLabel":null,"badge":null},{"code":"100001634","variantCode":"5941132005165","name":"Musli vitalis crocant cu fructe 300g","slug":"100001634-dr-oetker-musli-vitalis-crocant-cu-fructe-300g","unitPriceLabel":"48,33 Lei/kg","brand":"Dr. Oetker","brandCode":"55","brandFilterCode":"dr-oetker-b51","sku":"100001634","price":14.5,"originalPrice":null,"currencyCode":"RON","currency":"Lei","image":{"thumbnail":{"default":"https://cdn.freshful.ro/media/cache/sylius_shop_product_thumbnail/01/c4/677e05000ef30e9fb65f12007276.jpg"},"large":{"default":"https://cdn.freshful.ro/media/cache/freshful_large/01/c4/677e05000ef30e9fb65f12007276.jpg"},"extralarge":{"default":"https://cdn.freshful.ro/media/cache/sylius_shop_product_original/01/c4/677e05000ef30e9fb65f12007276.jpg"}},"label":null,"tags":[],"isAvailable":true,"maxAvailableQuantity":97,"maxAllowedQuantity":100,"breadcrumbs":[{"code":"9","name":"Dulciuri & mic dejun","slug":"9-ceva-dulce"},{"code":"903","name":"Cereale și mic dejun","slug":"903-cereale-si-mic-dejun"},{"code":"90303","name":"Musli","slug":"90303-musli"},{"code":"100001634","name":"Musli vitalis crocant cu fructe 300g","slug":"100001634-dr-oetker-musli-vitalis-crocant-cu-fructe-300g"}],"activePromotion":null,"saveMe":null,"labels":[],"geniusPrice":null,"geniusUnitPricePerLabel":null,"banner":null,"discountLabel":null,"geniusDiscountLabel":null,"badge":null},{"code":"100001570","variantCode":"5941132021189","name":"Musli vitalis cu 40% fructe 300g","slug":"100001570-dr-oetker-musli-vitalis-cu-40-fructe-300g","unitPriceLabel":"48,33 Lei/kg","brand":"Dr. Oetker","brandCode":"55","brandFilterCode":"dr-oetker-b51","sku":"100001570","price":14.5,"originalPrice":null,"currencyCode":"RON","currency":"Lei","image":{"thumbnail":{"default":"https://cdn.freshful.ro/media/cache/sylius_shop_product_thumbnail/ee/9d/0fb7a7ca54e4b36ff0c7aa0b1e60.jpg"},"large":{"default":"https://cdn.freshful.ro/media/cache/freshful_large/ee/9d/0fb7a7ca54e4b36ff0c7aa0b1e60.jpg"},"extralarge":{"default":"https://cdn.freshful.ro/media/cache/sylius_shop_product_original/ee/9d/0fb7a7ca54e4b36ff0c7aa0b1e60.jpg"}},"label":null,"tags":[],"isAvailable":true,"maxAvailableQuantity":86,"maxAllowedQuantity":100,"breadcrumbs":[{"code":"9","name":"Dulciuri & mic dejun","slug":"9-ceva-dulce"},{"code":"903","name":"Cereale și mic dejun","slug":"903-cereale-si-mic-dejun"},{"code":"90303","name":"Musli","slug":"90303-musli"},{"code":"100001570","name":"Musli vitalis cu 40% fructe 300g","slug":"100001570-dr-oetker-musli-vitalis-cu-40-fructe-300g"}],"activePromotion":null,"saveMe":null,"labels":[],"geniusPrice":null,"geniusUnitPricePerLabel":null,"banner":null,"discountLabel":null,"geniusDiscountLabel":null,"badge":null},{"code":"100096523","variantCode":"100096523","name":"Musli cu fructe 1kg","slug":"100096523-sanovita-musli-cu-fructe-1kg","unitPriceLabel":"21,9 Lei/kg","brand":"Sanovita","brandCode":"482","brandFilterCode":"sanovita-b483","sku":"100096523","price":21.9,"originalPrice":null,"currencyCode":"RON","currency":"Lei","image":{"thumbnail":{"default":"https://cdn.freshful.ro/media/cache/sylius_shop_product_thumbnail/7c/0a/346e570fa843fcfb65934ed9b3e7.jpg"},"large":{"default":"https://cdn.freshful.ro/media/cache/freshful_large/7c/0a/346e570fa843fcfb65934ed9b3e7.jpg"},"extralarge":{"default":"https://cdn.freshful.ro/media/cache/sylius_shop_product_original/7c/0a/346e570fa843fcfb65934ed9b3e7.jpg"}},"label":null,"tags":[],"isAvailable":true,"maxAvailableQuantity":43,"maxAllowedQuantity":100,"breadcrumbs":[{"code":"9","name":"Dulciuri & mic dejun","slug":"9-ceva-dulce"},{"code":"903","name":"Cereale și mic dejun","slug":"903-cereale-si-mic-dejun"},{"code":"90303","name":"Musli","slug":"90303-musli"},{"code":"100096523","name":"Musli cu fructe 1kg","slug":"100096523-sanovita-musli-cu-fructe-1kg"}],"activePromotion":null,"saveMe":null,"labels":[],"geniusPrice":null,"geniusUnitPricePerLabel":null,"banner":null,"discountLabel":null,"geniusDiscountLabel":null,"badge":null},{"code":"100139079","variantCode":"100139079","name":"Musli cu goji 400g","slug":"100139079-sanovita-musli-cu-goji-400g","unitPriceLabel":"36,8 Lei/kg","brand":"Sanovita","brandCode":"482","brandFilterCode":"sanovita-b483","sku":"100139079","price":14.72,"originalPrice":null,"currencyCode":"RON","currency":"Lei","image":{"thumbnail":{"default":"https://cdn.freshful.ro/media/cache/sylius_shop_product_thumbnail/fa/f7/b39fc7785c3011caafbe72c98ef3.jpg"},"large":{"default":"https://cdn.freshful.ro/media/cache/freshful_large/fa/f7/b39fc7785c3011caafbe72c98ef3.jpg"},"extralarge":{"default":"https://cdn.freshful.ro/media/cache/sylius_shop_product_original/fa/f7/b39fc7785c3011caafbe72c98ef3.jpg"}},"label":null,"tags":[],"isAvailable":true,"maxAvailableQuantity":42,"maxAllowedQuantity":100,"breadcrumbs":[{"code":"9","name":"Dulciuri & mic dejun","slug":"9-ceva-dulce"},{"code":"903","name":"Cereale și mic dejun","slug":"903-cereale-si-mic-dejun"},{"code":"90303","name":"Musli","slug":"90303-musli"},{"code":"100139079","name":"Musli cu goji 400g","slug":"100139079-sanovita-musli-cu-goji-400g"}],"activePromotion":null,"saveMe":null,"labels":[],"geniusPrice":null,"geniusUnitPricePerLabel":null,"banner":null,"discountLabel":null,"geniusDiscountLabel":null,"badge":null}],"filters":{"countSelected":0,"items":[{"code":"brand","name":"Brand","countSelected":0,"values":[{"code":"dr-oetker-b51","name":"Dr. Oetker","isSelected":false,"count":5},{"code":"dr-oetker-professional-b2444","name":"Dr. Oetker Professional","isSelected":false,"count":2},{"code":"dr-oetker-vitalis-b177","name":"Dr. Oetker-Vitalis","isSelected":false,"count":7},{"code":"lizi-s-b1514","name":"Lizi's","isSelected":false,"count":4},{"code":"sanovita-b483","name":"Sanovita","isSelected":false,"count":10},{"code":"venosta-b987","name":"Venosta","isSelected":false,"count":3},{"code":"verival-b972","name":"Verival","isSelected":false,"count":3}]},{"code":"diet_lifestyle","name":"Dietă și lifestyle","countSelected":0,"values":[{"code":"eco-a83","name":"Eco","isSelected":false,"count":3},{"code":"fara-zahar-adaugat-a29","name":"Fara zahar adaugat","isSelected":false,"count":1},{"code":"natural-a27","name":"Natural","isSelected":false,"count":2},{"code":"vegan-a24","name":"Vegan","isSelected":false,"count":1}]}]},"orderBy":[{"field":"price","direction":"asc","name":"Preț crescător","isSelected":false},{"field":"price","direction":"desc","name":"Preț descrescător","isSelected":false},{"field":"popularity","direction":"desc","name":"Cele mai populare","isSelected":true},{"field":"category","direction":"asc","name":"Categorie","isSelected":false}],"metaTitle":"Musli - Gamă variată","metaDescription":"Vrei Musli? Alege dintr-o gamă variată. Comanzi simplu și ai livrare rapidă, calitate și prospețime. Hai pe Freshful.ro","metaKeywords":null,"banners":[]}}