{"type":"subcategory","payload":{"analyticsListId":"category_90304-cereale-copii","analyticsListName":"Category - Cereale pentru copii","name":"Cereale pentru copii","slug":"90304-cereale-copii","image":null,"breadcrumbs":[{"code":"9","name":"Dulciuri & mic dejun","slug":"9-ceva-dulce"},{"code":"903","name":"Cereale și mic dejun","slug":"903-cereale-si-mic-dejun"},{"code":"90304","name":"Cereale pentru copii","slug":"90304-cereale-copii"}],"slots":[],"page":1,"limit":10,"pages":3,"count":24,"siblings":[{"name":"Biscuiți, napolitane și prăjituri","slug":"902-biscuiti-napolitane-si-prajituri","selected":false},{"name":"Cereale și mic dejun","slug":"903-cereale-si-mic-dejun","selected":true},{"name":"Cafea și ceai","slug":"904-cafea-si-ceai","selected":false},{"name":"Bomboane și ciocolată","slug":"905-bomboane-si-ciocolata","selected":false}],"children":[{"name":"Toate produsele","slug":"903-cereale-si-mic-dejun","selected":false},{"name":"Batoane","slug":"90301-batoane","selected":false},{"name":"Fulgi","slug":"90302-fulgi","selected":false},{"name":"Musli","slug":"90303-musli","selected":false},{"name":"Cereale pentru copii","slug":"90304-cereale-copii","selected":true},{"name":"Alte cereale","slug":"90305-alte-cereale","selected":false},{"name":"Cremă tartinabilă","slug":"90306-crema-tartinabila","selected":false},{"name":"Miere","slug":"90307-miere","selected":false},{"name":"Gem și dulceață","slug":"90308-gem-si-dulceata","selected":false}],"products":[{"code":"100132875","variantCode":"5900020000613","name":"Cereale pentru mic dejun cu miere 250g","slug":"100132875-cheerios-cereale-pentru-mic-dejun-cu-miere-250g","unitPriceLabel":"27,96 Lei/kg","brand":"Cheerios","brandCode":"2553","brandFilterCode":"cheerios-b2558","sku":"100132875","price":6.99,"originalPrice":null,"currencyCode":"RON","currency":"Lei","image":{"thumbnail":{"default":"https://cdn.freshful.ro/media/cache/sylius_shop_product_thumbnail/db/f5/71fc1f7002e2932a2150bc1e594c.jpg"},"large":{"default":"https://cdn.freshful.ro/media/cache/freshful_large/db/f5/71fc1f7002e2932a2150bc1e594c.jpg"},"extralarge":{"default":"https://cdn.freshful.ro/media/cache/sylius_shop_product_original/db/f5/71fc1f7002e2932a2150bc1e594c.jpg"}},"label":null,"tags":[],"isAvailable":true,"maxAvailableQuantity":100,"maxAllowedQuantity":100,"breadcrumbs":[{"code":"9","name":"Dulciuri & mic dejun","slug":"9-ceva-dulce"},{"code":"903","name":"Cereale și mic dejun","slug":"903-cereale-si-mic-dejun"},{"code":"90304","name":"Cereale pentru copii","slug":"90304-cereale-copii"},{"code":"100132875","name":"Cereale pentru mic dejun cu miere 250g","slug":"100132875-cheerios-cereale-pentru-mic-dejun-cu-miere-250g"}],"activePromotion":null,"saveMe":null,"labels":[],"geniusPrice":null,"geniusUnitPricePerLabel":null,"banner":null,"discountLabel":null,"geniusDiscountLabel":null,"badge":null},{"code":"100132865","variantCode":"5900020000576","name":"Cereale cu ciocolată pentru mic dejun 250g","slug":"100132865-nesquik-cereale-cu-ciocolata-pentru-mic-dejun-250g","unitPriceLabel":"27,96 Lei/kg","brand":"Nesquik","brandCode":"6","brandFilterCode":"nesquik-b56","sku":"100132865","price":6.99,"originalPrice":null,"currencyCode":"RON","currency":"Lei","image":{"thumbnail":{"default":"https://cdn.freshful.ro/media/cache/sylius_shop_product_thumbnail/7a/8c/208bc152ec575d3530ec14bdd466.jpg"},"large":{"default":"https://cdn.freshful.ro/media/cache/freshful_large/7a/8c/208bc152ec575d3530ec14bdd466.jpg"},"extralarge":{"default":"https://cdn.freshful.ro/media/cache/sylius_shop_product_original/7a/8c/208bc152ec575d3530ec14bdd466.jpg"}},"label":null,"tags":[],"isAvailable":true,"maxAvailableQuantity":100,"maxAllowedQuantity":100,"breadcrumbs":[{"code":"9","name":"Dulciuri & mic dejun","slug":"9-ceva-dulce"},{"code":"903","name":"Cereale și mic dejun","slug":"903-cereale-si-mic-dejun"},{"code":"90304","name":"Cereale pentru copii","slug":"90304-cereale-copii"},{"code":"100132865","name":"Cereale cu ciocolată pentru mic dejun 250g","slug":"100132865-nesquik-cereale-cu-ciocolata-pentru-mic-dejun-250g"}],"activePromotion":null,"saveMe":null,"labels":[],"geniusPrice":null,"geniusUnitPricePerLabel":null,"banner":null,"discountLabel":null,"geniusDiscountLabel":null,"badge":null},{"code":"100132885","variantCode":"5900020005946","name":"Cookie Crisp cereale pentru mic dejun 250g","slug":"100132885-nestle-cookie-crisp-cereale-pentru-mic-dejun-250g","unitPriceLabel":"27,96 Lei/kg","brand":"Nestlé","brandCode":"697","brandFilterCode":"nestle-b698","sku":"100132885","price":6.99,"originalPrice":null,"currencyCode":"RON","currency":"Lei","image":{"thumbnail":{"default":"https://cdn.freshful.ro/media/cache/sylius_shop_product_thumbnail/38/ef/2778bc835b39c5f954924bae2dd7.jpg"},"large":{"default":"https://cdn.freshful.ro/media/cache/freshful_large/38/ef/2778bc835b39c5f954924bae2dd7.jpg"},"extralarge":{"default":"https://cdn.freshful.ro/media/cache/sylius_shop_product_original/38/ef/2778bc835b39c5f954924bae2dd7.jpg"}},"label":null,"tags":[],"isAvailable":true,"maxAvailableQuantity":100,"maxAllowedQuantity":100,"breadcrumbs":[{"code":"9","name":"Dulciuri & mic dejun","slug":"9-ceva-dulce"},{"code":"903","name":"Cereale și mic dejun","slug":"903-cereale-si-mic-dejun"},{"code":"90304","name":"Cereale pentru copii","slug":"90304-cereale-copii"},{"code":"100132885","name":"Cookie Crisp cereale pentru mic dejun 250g","slug":"100132885-nestle-cookie-crisp-cereale-pentru-mic-dejun-250g"}],"activePromotion":null,"saveMe":null,"labels":[],"geniusPrice":null,"geniusUnitPricePerLabel":null,"banner":null,"discountLabel":null,"geniusDiscountLabel":null,"badge":null},{"code":"100132879","variantCode":"5900020002730","name":"Cereale cu scorțișoară pentru mic dejun 250g","slug":"100132879-cini-minis-cereale-cu-scortisoara-pentru-mic-dejun-250g","unitPriceLabel":"27,96 Lei/kg","brand":"Cini Minis","brandCode":"692","brandFilterCode":"cini-minis-b693","sku":"100132879","price":6.99,"originalPrice":null,"currencyCode":"RON","currency":"Lei","image":{"thumbnail":{"default":"https://cdn.freshful.ro/media/cache/sylius_shop_product_thumbnail/88/d3/ee6839d1457fd2f6079283269663.jpg"},"large":{"default":"https://cdn.freshful.ro/media/cache/freshful_large/88/d3/ee6839d1457fd2f6079283269663.jpg"},"extralarge":{"default":"https://cdn.freshful.ro/media/cache/sylius_shop_product_original/88/d3/ee6839d1457fd2f6079283269663.jpg"}},"label":null,"tags":[],"isAvailable":true,"maxAvailableQuantity":100,"maxAllowedQuantity":100,"breadcrumbs":[{"code":"9","name":"Dulciuri & mic dejun","slug":"9-ceva-dulce"},{"code":"903","name":"Cereale și mic dejun","slug":"903-cereale-si-mic-dejun"},{"code":"90304","name":"Cereale pentru copii","slug":"90304-cereale-copii"},{"code":"100132879","name":"Cereale cu scorțișoară pentru mic dejun 250g","slug":"100132879-cini-minis-cereale-cu-scortisoara-pentru-mic-dejun-250g"}],"activePromotion":null,"saveMe":null,"labels":[],"geniusPrice":null,"geniusUnitPricePerLabel":null,"banner":null,"discountLabel":null,"geniusDiscountLabel":null,"badge":null},{"code":"100132864","variantCode":"5900020013491","name":"Cereale Mix de ciocolată și vanilie pentru mic dejun 225g","slug":"100132864-nesquik-cereale-mix-de-ciocolata-si-vanilie-pentru-mic-dejun-225g","unitPriceLabel":"31,07 Lei/kg","brand":"Nesquik","brandCode":"6","brandFilterCode":"nesquik-b56","sku":"100132864","price":6.99,"originalPrice":null,"currencyCode":"RON","currency":"Lei","image":{"thumbnail":{"default":"https://cdn.freshful.ro/media/cache/sylius_shop_product_thumbnail/ec/48/5dc9a43036ee19cf44a5db86afa7.jpg"},"large":{"default":"https://cdn.freshful.ro/media/cache/freshful_large/ec/48/5dc9a43036ee19cf44a5db86afa7.jpg"},"extralarge":{"default":"https://cdn.freshful.ro/media/cache/sylius_shop_product_original/ec/48/5dc9a43036ee19cf44a5db86afa7.jpg"}},"label":null,"tags":[],"isAvailable":true,"maxAvailableQuantity":100,"maxAllowedQuantity":100,"breadcrumbs":[{"code":"9","name":"Dulciuri & mic dejun","slug":"9-ceva-dulce"},{"code":"903","name":"Cereale și mic dejun","slug":"903-cereale-si-mic-dejun"},{"code":"90304","name":"Cereale pentru copii","slug":"90304-cereale-copii"},{"code":"100132864","name":"Cereale Mix de ciocolată și vanilie pentru mic dejun 225g","slug":"100132864-nesquik-cereale-mix-de-ciocolata-si-vanilie-pentru-mic-dejun-225g"}],"activePromotion":null,"saveMe":null,"labels":[],"geniusPrice":null,"geniusUnitPricePerLabel":null,"banner":null,"discountLabel":null,"geniusDiscountLabel":null,"badge":null},{"code":"100132887","variantCode":"5900020021625","name":"Cereale caramel și ciocolată pentru mic dejun 250g","slug":"100132887-lion-cereale-caramel-si-ciocolata-pentru-mic-dejun-250g","unitPriceLabel":"27,96 Lei/kg","brand":"Lion","brandCode":"12","brandFilterCode":"lion-b4","sku":"100132887","price":6.99,"originalPrice":null,"currencyCode":"RON","currency":"Lei","image":{"thumbnail":{"default":"https://cdn.freshful.ro/media/cache/sylius_shop_product_thumbnail/ed/db/68f3a7874602060062c44b849a1f.jpg"},"large":{"default":"https://cdn.freshful.ro/media/cache/freshful_large/ed/db/68f3a7874602060062c44b849a1f.jpg"},"extralarge":{"default":"https://cdn.freshful.ro/media/cache/sylius_shop_product_original/ed/db/68f3a7874602060062c44b849a1f.jpg"}},"label":null,"tags":[],"isAvailable":true,"maxAvailableQuantity":100,"maxAllowedQuantity":100,"breadcrumbs":[{"code":"9","name":"Dulciuri & mic dejun","slug":"9-ceva-dulce"},{"code":"903","name":"Cereale și mic dejun","slug":"903-cereale-si-mic-dejun"},{"code":"90304","name":"Cereale pentru copii","slug":"90304-cereale-copii"},{"code":"100132887","name":"Cereale caramel și ciocolată pentru mic dejun 250g","slug":"100132887-lion-cereale-caramel-si-ciocolata-pentru-mic-dejun-250g"}],"activePromotion":null,"saveMe":null,"labels":[],"geniusPrice":null,"geniusUnitPricePerLabel":null,"banner":null,"discountLabel":null,"geniusDiscountLabel":null,"badge":null},{"code":"100131137","variantCode":"100131137","name":"Cereale scoici cu aromă de ciocolată 250g","slug":"100131137-brumi-cereale-scoici-cu-aroma-de-ciocolata-250g","unitPriceLabel":"23,8 Lei/kg","brand":"Brumi","brandCode":"456","brandFilterCode":"brumi-b457","sku":"100131137","price":5.95,"originalPrice":null,"currencyCode":"RON","currency":"Lei","image":{"thumbnail":{"default":"https://cdn.freshful.ro/media/cache/sylius_shop_product_thumbnail/48/1a/a2695fa48c1ec9856516efa07557.jpg"},"large":{"default":"https://cdn.freshful.ro/media/cache/freshful_large/48/1a/a2695fa48c1ec9856516efa07557.jpg"},"extralarge":{"default":"https://cdn.freshful.ro/media/cache/sylius_shop_product_original/48/1a/a2695fa48c1ec9856516efa07557.jpg"}},"label":null,"tags":[],"isAvailable":true,"maxAvailableQuantity":100,"maxAllowedQuantity":100,"breadcrumbs":[{"code":"9","name":"Dulciuri & mic dejun","slug":"9-ceva-dulce"},{"code":"903","name":"Cereale și mic dejun","slug":"903-cereale-si-mic-dejun"},{"code":"90304","name":"Cereale pentru copii","slug":"90304-cereale-copii"},{"code":"100131137","name":"Cereale scoici cu aromă de ciocolată 250g","slug":"100131137-brumi-cereale-scoici-cu-aroma-de-ciocolata-250g"}],"activePromotion":null,"saveMe":null,"labels":[],"geniusPrice":null,"geniusUnitPricePerLabel":null,"banner":null,"discountLabel":null,"geniusDiscountLabel":null,"badge":null},{"code":"100132883","variantCode":"5900020012067","name":"Cereale cu căpșuni pentru mic dejun 250g","slug":"100132883-cini-minis-cereale-cu-capsuni-pentru-mic-dejun-250g","unitPriceLabel":"27,96 Lei/kg","brand":"Cini Minis","brandCode":"692","brandFilterCode":"cini-minis-b693","sku":"100132883","price":6.99,"originalPrice":null,"currencyCode":"RON","currency":"Lei","image":{"thumbnail":{"default":"https://cdn.freshful.ro/media/cache/sylius_shop_product_thumbnail/5e/50/1ddbd9e38ca189cfb425eb669458.jpg"},"large":{"default":"https://cdn.freshful.ro/media/cache/freshful_large/5e/50/1ddbd9e38ca189cfb425eb669458.jpg"},"extralarge":{"default":"https://cdn.freshful.ro/media/cache/sylius_shop_product_original/5e/50/1ddbd9e38ca189cfb425eb669458.jpg"}},"label":null,"tags":[],"isAvailable":true,"maxAvailableQuantity":100,"maxAllowedQuantity":100,"breadcrumbs":[{"code":"9","name":"Dulciuri & mic dejun","slug":"9-ceva-dulce"},{"code":"903","name":"Cereale și mic dejun","slug":"903-cereale-si-mic-dejun"},{"code":"90304","name":"Cereale pentru copii","slug":"90304-cereale-copii"},{"code":"100132883","name":"Cereale cu căpșuni pentru mic dejun 250g","slug":"100132883-cini-minis-cereale-cu-capsuni-pentru-mic-dejun-250g"}],"activePromotion":null,"saveMe":null,"labels":[],"geniusPrice":null,"geniusUnitPricePerLabel":null,"banner":null,"discountLabel":null,"geniusDiscountLabel":null,"badge":null},{"code":"100132880","variantCode":"5900020038593","name":"Cereale cu scorțișoară pentru mic dejun 400g","slug":"100132880-cini-minis-cereale-cu-scortisoara-pentru-mic-dejun-400g","unitPriceLabel":"41,23 Lei/kg","brand":"Cini Minis","brandCode":"692","brandFilterCode":"cini-minis-b693","sku":"100132880","price":16.49,"originalPrice":null,"currencyCode":"RON","currency":"Lei","image":{"thumbnail":{"default":"https://cdn.freshful.ro/media/cache/sylius_shop_product_thumbnail/7c/ec/f02686ca59ce81c48ac5dac90177.jpg"},"large":{"default":"https://cdn.freshful.ro/media/cache/freshful_large/7c/ec/f02686ca59ce81c48ac5dac90177.jpg"},"extralarge":{"default":"https://cdn.freshful.ro/media/cache/sylius_shop_product_original/7c/ec/f02686ca59ce81c48ac5dac90177.jpg"}},"label":null,"tags":[],"isAvailable":true,"maxAvailableQuantity":83,"maxAllowedQuantity":100,"breadcrumbs":[{"code":"9","name":"Dulciuri & mic dejun","slug":"9-ceva-dulce"},{"code":"903","name":"Cereale și mic dejun","slug":"903-cereale-si-mic-dejun"},{"code":"90304","name":"Cereale pentru copii","slug":"90304-cereale-copii"},{"code":"100132880","name":"Cereale cu scorțișoară pentru mic dejun 400g","slug":"100132880-cini-minis-cereale-cu-scortisoara-pentru-mic-dejun-400g"}],"activePromotion":null,"saveMe":null,"labels":[],"geniusPrice":null,"geniusUnitPricePerLabel":null,"banner":null,"discountLabel":null,"geniusDiscountLabel":null,"badge":null},{"code":"100132884","variantCode":"5900020012098","name":"Cereale cu căpșuni pentru mic dejun 500g","slug":"100132884-cini-minis-cereale-cu-capsuni-pentru-mic-dejun-500g","unitPriceLabel":"29,92 Lei/kg","brand":"Cini Minis","brandCode":"692","brandFilterCode":"cini-minis-b693","sku":"100132884","price":14.96,"originalPrice":null,"currencyCode":"RON","currency":"Lei","image":{"thumbnail":{"default":"https://cdn.freshful.ro/media/cache/sylius_shop_product_thumbnail/83/0c/cdfce9f8defd556fe840870b19d8.jpg"},"large":{"default":"https://cdn.freshful.ro/media/cache/freshful_large/83/0c/cdfce9f8defd556fe840870b19d8.jpg"},"extralarge":{"default":"https://cdn.freshful.ro/media/cache/sylius_shop_product_original/83/0c/cdfce9f8defd556fe840870b19d8.jpg"}},"label":null,"tags":[],"isAvailable":true,"maxAvailableQuantity":46,"maxAllowedQuantity":100,"breadcrumbs":[{"code":"9","name":"Dulciuri & mic dejun","slug":"9-ceva-dulce"},{"code":"903","name":"Cereale și mic dejun","slug":"903-cereale-si-mic-dejun"},{"code":"90304","name":"Cereale pentru copii","slug":"90304-cereale-copii"},{"code":"100132884","name":"Cereale cu căpșuni pentru mic dejun 500g","slug":"100132884-cini-minis-cereale-cu-capsuni-pentru-mic-dejun-500g"}],"activePromotion":null,"saveMe":null,"labels":[],"geniusPrice":null,"geniusUnitPricePerLabel":null,"banner":null,"discountLabel":null,"geniusDiscountLabel":null,"badge":null}],"filters":{"countSelected":0,"items":[{"code":"brand","name":"Brand","countSelected":0,"values":[{"code":"brumi-b457","name":"Brumi","isSelected":false,"count":2},{"code":"cheerios-b2558","name":"Cheerios","isSelected":false,"count":3},{"code":"chocapic-b692","name":"Chocapic","isSelected":false,"count":3},{"code":"cini-minis-b693","name":"Cini Minis","isSelected":false,"count":7},{"code":"lion-b4","name":"Lion","isSelected":false,"count":3},{"code":"nesquik-b56","name":"Nesquik","isSelected":false,"count":5},{"code":"nestle-b698","name":"Nestlé","isSelected":false,"count":1}]}]},"orderBy":[{"field":"price","direction":"asc","name":"Preț crescător","isSelected":false},{"field":"price","direction":"desc","name":"Preț descrescător","isSelected":false},{"field":"popularity","direction":"desc","name":"Cele mai populare","isSelected":true},{"field":"category","direction":"asc","name":"Categorie","isSelected":false}],"metaTitle":"Cereale pentru copii - Gamă variată","metaDescription":"Vrei Cereale pentru copii? Alege dintr-o gamă variată. Comanzi simplu și ai livrare rapidă, calitate și prospețime. Hai pe Freshful.ro","metaKeywords":null,"banners":[]}}