{"type":"subcategory","payload":{"analyticsListId":"category_90305-alte-cereale","analyticsListName":"Category - Alte cereale","name":"Alte cereale","slug":"90305-alte-cereale","image":null,"breadcrumbs":[{"code":"9","name":"Dulciuri & mic dejun","slug":"9-ceva-dulce"},{"code":"903","name":"Cereale și mic dejun","slug":"903-cereale-si-mic-dejun"},{"code":"90305","name":"Alte cereale","slug":"90305-alte-cereale"}],"slots":[],"page":1,"limit":10,"pages":2,"count":20,"siblings":[{"name":"Biscuiți, napolitane și prăjituri","slug":"902-biscuiti-napolitane-si-prajituri","selected":false},{"name":"Cereale și mic dejun","slug":"903-cereale-si-mic-dejun","selected":true},{"name":"Cafea și ceai","slug":"904-cafea-si-ceai","selected":false},{"name":"Bomboane și ciocolată","slug":"905-bomboane-si-ciocolata","selected":false}],"children":[{"name":"Toate produsele","slug":"903-cereale-si-mic-dejun","selected":false},{"name":"Batoane","slug":"90301-batoane","selected":false},{"name":"Fulgi","slug":"90302-fulgi","selected":false},{"name":"Musli","slug":"90303-musli","selected":false},{"name":"Cereale pentru copii","slug":"90304-cereale-copii","selected":false},{"name":"Alte cereale","slug":"90305-alte-cereale","selected":true},{"name":"Cremă tartinabilă","slug":"90306-crema-tartinabila","selected":false},{"name":"Miere","slug":"90307-miere","selected":false},{"name":"Gem și dulceață","slug":"90308-gem-si-dulceata","selected":false}],"products":[{"code":"100150975","variantCode":"100150975","name":"Cereale cu cacao și bucăți de marshmallow Sea Party 325g","slug":"100150975-no-brand-cereale-cu-cacao-si-bucati-de-marshmallow-sea-party-325g","unitPriceLabel":"66,64 Lei/kg","brand":"Cereal Crunch","brandCode":"3155","brandFilterCode":"cereal-crunch-b3249","sku":"100150975","price":29.99,"originalPrice":null,"currencyCode":"RON","currency":"Lei","image":{"thumbnail":{"default":"https://cdn.freshful.ro/media/cache/sylius_shop_product_thumbnail/34/27/e84764810d8601346c1a420b9311.jpg"},"large":{"default":"https://cdn.freshful.ro/media/cache/freshful_large/34/27/e84764810d8601346c1a420b9311.jpg"},"extralarge":{"default":"https://cdn.freshful.ro/media/cache/sylius_shop_product_original/34/27/e84764810d8601346c1a420b9311.jpg"}},"label":{"text":"-20% cu Genius","backgroundColor":"#FEF3FA","textColor":"#CD015F"},"tags":[],"isAvailable":true,"maxAvailableQuantity":30,"maxAllowedQuantity":100,"breadcrumbs":[{"code":"9","name":"Dulciuri & mic dejun","slug":"9-ceva-dulce"},{"code":"903","name":"Cereale și mic dejun","slug":"903-cereale-si-mic-dejun"},{"code":"90305","name":"Alte cereale","slug":"90305-alte-cereale"},{"code":"100150975","name":"Cereale cu cacao și bucăți de marshmallow Sea Party 325g","slug":"100150975-no-brand-cereale-cu-cacao-si-bucati-de-marshmallow-sea-party-325g"}],"activePromotion":null,"saveMe":null,"labels":[{"type":"gdeals","items":[{"text":"","backgroundColor":"","textColor":""}]},{"type":"v3","items":[{"text":"-20% cu Genius","backgroundColor":"#FEF3FA","textColor":"#CD015F"}]}],"geniusPrice":23.99,"geniusUnitPricePerLabel":"53,31 Lei/kg","banner":null,"discountLabel":null,"geniusDiscountLabel":"Economisești 20%","badge":null},{"code":"100150978","variantCode":"100150978","name":"Cereale fulgi cu scortișoară 450g","slug":"100150978-cereal-crunch-cereale-fulgi-cu-scortisoara-450g","unitPriceLabel":"51,09 Lei/kg","brand":"Cereal Crunch","brandCode":"3155","brandFilterCode":"cereal-crunch-b3249","sku":"100150978","price":22.99,"originalPrice":null,"currencyCode":"RON","currency":"Lei","image":{"thumbnail":{"default":"https://cdn.freshful.ro/media/cache/sylius_shop_product_thumbnail/bc/ee/02020498bd4956271474bb85d835.jpg"},"large":{"default":"https://cdn.freshful.ro/media/cache/freshful_large/bc/ee/02020498bd4956271474bb85d835.jpg"},"extralarge":{"default":"https://cdn.freshful.ro/media/cache/sylius_shop_product_original/bc/ee/02020498bd4956271474bb85d835.jpg"}},"label":{"text":"-20% cu Genius","backgroundColor":"#FEF3FA","textColor":"#CD015F"},"tags":[],"isAvailable":true,"maxAvailableQuantity":21,"maxAllowedQuantity":100,"breadcrumbs":[{"code":"9","name":"Dulciuri & mic dejun","slug":"9-ceva-dulce"},{"code":"903","name":"Cereale și mic dejun","slug":"903-cereale-si-mic-dejun"},{"code":"90305","name":"Alte cereale","slug":"90305-alte-cereale"},{"code":"100150978","name":"Cereale fulgi cu scortișoară 450g","slug":"100150978-cereal-crunch-cereale-fulgi-cu-scortisoara-450g"}],"activePromotion":null,"saveMe":null,"labels":[{"type":"gdeals","items":[{"text":"","backgroundColor":"","textColor":""}]},{"type":"v3","items":[{"text":"-20% cu Genius","backgroundColor":"#FEF3FA","textColor":"#CD015F"}]}],"geniusPrice":18.39,"geniusUnitPricePerLabel":"40,87 Lei/kg","banner":null,"discountLabel":null,"geniusDiscountLabel":"Economisești 20%","badge":null},{"code":"100096551","variantCode":"100096551","name":"Rondele din orez cu glazură de cacao fără zahăr 66g","slug":"100096551-sanovita-rondele-din-orez-cu-glazura-de-cacao-fara-zahar-66g","unitPriceLabel":"58,94 Lei/kg","brand":"Sanovita","brandCode":"482","brandFilterCode":"sanovita-b483","sku":"100096551","price":3.89,"originalPrice":null,"currencyCode":"RON","currency":"Lei","image":{"thumbnail":{"default":"https://cdn.freshful.ro/media/cache/sylius_shop_product_thumbnail/7d/31/0d22758c4525dac7612f5e07a62f.jpg"},"large":{"default":"https://cdn.freshful.ro/media/cache/freshful_large/7d/31/0d22758c4525dac7612f5e07a62f.jpg"},"extralarge":{"default":"https://cdn.freshful.ro/media/cache/sylius_shop_product_original/7d/31/0d22758c4525dac7612f5e07a62f.jpg"}},"label":null,"tags":[{"type":"vegan","text":"Vegan","icon":"https://cdn.freshful.ro/assets/product_tags/vegan.svg","iconPng":"https://cdn.freshful.ro/assets/product_tags/vegan.png","backgroundColor":"#ECF9F8","textColor":"#33A39C"},{"type":"NoGluten","text":"Fara gluten","icon":"https://cdn.freshful.ro/assets/product_tags/fara_gluten.svg","iconPng":"https://cdn.freshful.ro/assets/product_tags/fara_gluten.png","backgroundColor":"#FFF2E5","textColor":"#F07900"},{"type":"NoAddedSugar","text":"Fara zahar adaugat","icon":"https://cdn.freshful.ro/assets/product_tags/fara_zahar_adaugat.svg","iconPng":"https://cdn.freshful.ro/assets/product_tags/fara_zahar_adaugat.png","backgroundColor":"#F8EDF7","textColor":"#C05EBC"}],"isAvailable":true,"maxAvailableQuantity":100,"maxAllowedQuantity":100,"breadcrumbs":[{"code":"9","name":"Dulciuri & mic dejun","slug":"9-ceva-dulce"},{"code":"903","name":"Cereale și mic dejun","slug":"903-cereale-si-mic-dejun"},{"code":"90305","name":"Alte cereale","slug":"90305-alte-cereale"},{"code":"100096551","name":"Rondele din orez cu glazură de cacao fără zahăr 66g","slug":"100096551-sanovita-rondele-din-orez-cu-glazura-de-cacao-fara-zahar-66g"}],"activePromotion":null,"saveMe":null,"labels":[],"geniusPrice":null,"geniusUnitPricePerLabel":null,"banner":null,"discountLabel":null,"geniusDiscountLabel":null,"badge":null},{"code":"100096530","variantCode":"100096530","name":"Rondele din orez cu glazură de cacao fără gluten 66g","slug":"100096530-sanovita-rondele-din-orez-cu-glazura-de-cacao-fara-gluten-66g","unitPriceLabel":"57,42 Lei/kg","brand":"Sanovita","brandCode":"482","brandFilterCode":"sanovita-b483","sku":"100096530","price":3.79,"originalPrice":null,"currencyCode":"RON","currency":"Lei","image":{"thumbnail":{"default":"https://cdn.freshful.ro/media/cache/sylius_shop_product_thumbnail/2e/bf/02cf90af890ed3fcefc75d9b7b42.jpg"},"large":{"default":"https://cdn.freshful.ro/media/cache/freshful_large/2e/bf/02cf90af890ed3fcefc75d9b7b42.jpg"},"extralarge":{"default":"https://cdn.freshful.ro/media/cache/sylius_shop_product_original/2e/bf/02cf90af890ed3fcefc75d9b7b42.jpg"}},"label":null,"tags":[{"type":"vegan","text":"Vegan","icon":"https://cdn.freshful.ro/assets/product_tags/vegan.svg","iconPng":"https://cdn.freshful.ro/assets/product_tags/vegan.png","backgroundColor":"#ECF9F8","textColor":"#33A39C"},{"type":"NoGluten","text":"Fara gluten","icon":"https://cdn.freshful.ro/assets/product_tags/fara_gluten.svg","iconPng":"https://cdn.freshful.ro/assets/product_tags/fara_gluten.png","backgroundColor":"#FFF2E5","textColor":"#F07900"}],"isAvailable":true,"maxAvailableQuantity":100,"maxAllowedQuantity":100,"breadcrumbs":[{"code":"9","name":"Dulciuri & mic dejun","slug":"9-ceva-dulce"},{"code":"903","name":"Cereale și mic dejun","slug":"903-cereale-si-mic-dejun"},{"code":"90305","name":"Alte cereale","slug":"90305-alte-cereale"},{"code":"100096530","name":"Rondele din orez cu glazură de cacao fără gluten 66g","slug":"100096530-sanovita-rondele-din-orez-cu-glazura-de-cacao-fara-gluten-66g"}],"activePromotion":null,"saveMe":null,"labels":[],"geniusPrice":null,"geniusUnitPricePerLabel":null,"banner":null,"discountLabel":null,"geniusDiscountLabel":null,"badge":null},{"code":"100132888","variantCode":"5900020032195","name":"Cereale pentru mic dejun WildCrush 350g","slug":"100132888-lion-cereale-pentru-mic-dejun-wildcrush-350g","unitPriceLabel":"40,69 Lei/kg","brand":"Lion","brandCode":"12","brandFilterCode":"lion-b4","sku":"100132888","price":14.24,"originalPrice":null,"currencyCode":"RON","currency":"Lei","image":{"thumbnail":{"default":"https://cdn.freshful.ro/media/cache/sylius_shop_product_thumbnail/4f/0c/54a39be98e90dcea9a521b4a3a51.jpg"},"large":{"default":"https://cdn.freshful.ro/media/cache/freshful_large/4f/0c/54a39be98e90dcea9a521b4a3a51.jpg"},"extralarge":{"default":"https://cdn.freshful.ro/media/cache/sylius_shop_product_original/4f/0c/54a39be98e90dcea9a521b4a3a51.jpg"}},"label":null,"tags":[],"isAvailable":true,"maxAvailableQuantity":100,"maxAllowedQuantity":100,"breadcrumbs":[{"code":"9","name":"Dulciuri & mic dejun","slug":"9-ceva-dulce"},{"code":"903","name":"Cereale și mic dejun","slug":"903-cereale-si-mic-dejun"},{"code":"90305","name":"Alte cereale","slug":"90305-alte-cereale"},{"code":"100132888","name":"Cereale pentru mic dejun WildCrush 350g","slug":"100132888-lion-cereale-pentru-mic-dejun-wildcrush-350g"}],"activePromotion":null,"saveMe":null,"labels":[],"geniusPrice":null,"geniusUnitPricePerLabel":null,"banner":null,"discountLabel":null,"geniusDiscountLabel":null,"badge":null},{"code":"100070374","variantCode":"100070374","name":"Pernuțe umplute cu cremă cacao 100g","slug":"100070374-croco-pernute-umplute-cu-crema-cacao-100g","unitPriceLabel":"25,9 Lei/kg","brand":"Croco","brandCode":"1176","brandFilterCode":"croco-b1177","sku":"100070374","price":2.59,"originalPrice":null,"currencyCode":"RON","currency":"Lei","image":{"thumbnail":{"default":"https://cdn.freshful.ro/media/cache/sylius_shop_product_thumbnail/bc/64/a542f0a1164aafb50a81d0407261.jpg"},"large":{"default":"https://cdn.freshful.ro/media/cache/freshful_large/bc/64/a542f0a1164aafb50a81d0407261.jpg"},"extralarge":{"default":"https://cdn.freshful.ro/media/cache/sylius_shop_product_original/bc/64/a542f0a1164aafb50a81d0407261.jpg"}},"label":null,"tags":[],"isAvailable":true,"maxAvailableQuantity":41,"maxAllowedQuantity":100,"breadcrumbs":[{"code":"9","name":"Dulciuri & mic dejun","slug":"9-ceva-dulce"},{"code":"903","name":"Cereale și mic dejun","slug":"903-cereale-si-mic-dejun"},{"code":"90305","name":"Alte cereale","slug":"90305-alte-cereale"},{"code":"100070374","name":"Pernuțe umplute cu cremă cacao 100g","slug":"100070374-croco-pernute-umplute-cu-crema-cacao-100g"}],"activePromotion":null,"saveMe":null,"labels":[],"geniusPrice":null,"geniusUnitPricePerLabel":null,"banner":null,"discountLabel":null,"geniusDiscountLabel":null,"badge":null},{"code":"100096519","variantCode":"100096519","name":"Mini-rondele din orez cu glazură de căpșuni 24g","slug":"100096519-sanovita-mini-rondele-din-orez-cu-glazura-de-capsuni-24g","unitPriceLabel":"95,42 Lei/kg","brand":"Sanovita","brandCode":"482","brandFilterCode":"sanovita-b483","sku":"100096519","price":2.29,"originalPrice":null,"currencyCode":"RON","currency":"Lei","image":{"thumbnail":{"default":"https://cdn.freshful.ro/media/cache/sylius_shop_product_thumbnail/a4/99/7101702523588fd8d783cb1bcc7a.jpg"},"large":{"default":"https://cdn.freshful.ro/media/cache/freshful_large/a4/99/7101702523588fd8d783cb1bcc7a.jpg"},"extralarge":{"default":"https://cdn.freshful.ro/media/cache/sylius_shop_product_original/a4/99/7101702523588fd8d783cb1bcc7a.jpg"}},"label":null,"tags":[{"type":"NoGluten","text":"Fara gluten","icon":"https://cdn.freshful.ro/assets/product_tags/fara_gluten.svg","iconPng":"https://cdn.freshful.ro/assets/product_tags/fara_gluten.png","backgroundColor":"#FFF2E5","textColor":"#F07900"}],"isAvailable":true,"maxAvailableQuantity":100,"maxAllowedQuantity":100,"breadcrumbs":[{"code":"9","name":"Dulciuri & mic dejun","slug":"9-ceva-dulce"},{"code":"903","name":"Cereale și mic dejun","slug":"903-cereale-si-mic-dejun"},{"code":"90305","name":"Alte cereale","slug":"90305-alte-cereale"},{"code":"100096519","name":"Mini-rondele din orez cu glazură de căpșuni 24g","slug":"100096519-sanovita-mini-rondele-din-orez-cu-glazura-de-capsuni-24g"}],"activePromotion":null,"saveMe":null,"labels":[],"geniusPrice":null,"geniusUnitPricePerLabel":null,"banner":null,"discountLabel":null,"geniusDiscountLabel":null,"badge":null},{"code":"100096529","variantCode":"100096529","name":"Rondele din grâu cu glazură de cacao 66g ","slug":"100096529-sanovita-rondele-din-grau-cu-glazura-de-cacao-66g","unitPriceLabel":"47,73 Lei/kg","brand":"Sanovita","brandCode":"482","brandFilterCode":"sanovita-b483","sku":"100096529","price":3.15,"originalPrice":null,"currencyCode":"RON","currency":"Lei","image":{"thumbnail":{"default":"https://cdn.freshful.ro/media/cache/sylius_shop_product_thumbnail/80/30/be6c27f464dd000dd9590003a767.jpg"},"large":{"default":"https://cdn.freshful.ro/media/cache/freshful_large/80/30/be6c27f464dd000dd9590003a767.jpg"},"extralarge":{"default":"https://cdn.freshful.ro/media/cache/sylius_shop_product_original/80/30/be6c27f464dd000dd9590003a767.jpg"}},"label":null,"tags":[{"type":"vegan","text":"Vegan","icon":"https://cdn.freshful.ro/assets/product_tags/vegan.svg","iconPng":"https://cdn.freshful.ro/assets/product_tags/vegan.png","backgroundColor":"#ECF9F8","textColor":"#33A39C"}],"isAvailable":true,"maxAvailableQuantity":100,"maxAllowedQuantity":100,"breadcrumbs":[{"code":"9","name":"Dulciuri & mic dejun","slug":"9-ceva-dulce"},{"code":"903","name":"Cereale și mic dejun","slug":"903-cereale-si-mic-dejun"},{"code":"90305","name":"Alte cereale","slug":"90305-alte-cereale"},{"code":"100096529","name":"Rondele din grâu cu glazură de cacao 66g ","slug":"100096529-sanovita-rondele-din-grau-cu-glazura-de-cacao-66g"}],"activePromotion":null,"saveMe":null,"labels":[],"geniusPrice":null,"geniusUnitPricePerLabel":null,"banner":null,"discountLabel":null,"geniusDiscountLabel":null,"badge":null},{"code":"100139080","variantCode":"100139080","name":"Rondele din grâu cu glazură de iaurt 66g","slug":"100139080-sanovita-rondele-din-grau-cu-glazura-de-iaurt-66g","unitPriceLabel":"52,88 Lei/kg","brand":"Sanovita","brandCode":"482","brandFilterCode":"sanovita-b483","sku":"100139080","price":3.49,"originalPrice":null,"currencyCode":"RON","currency":"Lei","image":{"thumbnail":{"default":"https://cdn.freshful.ro/media/cache/sylius_shop_product_thumbnail/bc/26/fa08aa8ca6fc38b79341f5056484.jpg"},"large":{"default":"https://cdn.freshful.ro/media/cache/freshful_large/bc/26/fa08aa8ca6fc38b79341f5056484.jpg"},"extralarge":{"default":"https://cdn.freshful.ro/media/cache/sylius_shop_product_original/bc/26/fa08aa8ca6fc38b79341f5056484.jpg"}},"label":null,"tags":[],"isAvailable":true,"maxAvailableQuantity":71,"maxAllowedQuantity":100,"breadcrumbs":[{"code":"9","name":"Dulciuri & mic dejun","slug":"9-ceva-dulce"},{"code":"903","name":"Cereale și mic dejun","slug":"903-cereale-si-mic-dejun"},{"code":"90305","name":"Alte cereale","slug":"90305-alte-cereale"},{"code":"100139080","name":"Rondele din grâu cu glazură de iaurt 66g","slug":"100139080-sanovita-rondele-din-grau-cu-glazura-de-iaurt-66g"}],"activePromotion":null,"saveMe":null,"labels":[],"geniusPrice":null,"geniusUnitPricePerLabel":null,"banner":null,"discountLabel":null,"geniusDiscountLabel":null,"badge":null},{"code":"100101447","variantCode":"100101447","name":"Rondele de orez cu sare de mare 100g","slug":"100101447-risovital-rondele-de-orez-cu-sare-de-mare-100g","unitPriceLabel":"40,9 Lei/kg","brand":"Risovital","brandCode":"1687","brandFilterCode":"risovital-b1691","sku":"100101447","price":4.09,"originalPrice":null,"currencyCode":"RON","currency":"Lei","image":{"thumbnail":{"default":"https://cdn.freshful.ro/media/cache/sylius_shop_product_thumbnail/90/e5/1e7fb655e80804f66dd5aa252ccb.jpg"},"large":{"default":"https://cdn.freshful.ro/media/cache/freshful_large/90/e5/1e7fb655e80804f66dd5aa252ccb.jpg"},"extralarge":{"default":"https://cdn.freshful.ro/media/cache/sylius_shop_product_original/90/e5/1e7fb655e80804f66dd5aa252ccb.jpg"}},"label":null,"tags":[{"type":"NoGluten","text":"Fara gluten","icon":"https://cdn.freshful.ro/assets/product_tags/fara_gluten.svg","iconPng":"https://cdn.freshful.ro/assets/product_tags/fara_gluten.png","backgroundColor":"#FFF2E5","textColor":"#F07900"}],"isAvailable":true,"maxAvailableQuantity":100,"maxAllowedQuantity":100,"breadcrumbs":[{"code":"9","name":"Dulciuri & mic dejun","slug":"9-ceva-dulce"},{"code":"903","name":"Cereale și mic dejun","slug":"903-cereale-si-mic-dejun"},{"code":"90305","name":"Alte cereale","slug":"90305-alte-cereale"},{"code":"100101447","name":"Rondele de orez cu sare de mare 100g","slug":"100101447-risovital-rondele-de-orez-cu-sare-de-mare-100g"}],"activePromotion":null,"saveMe":null,"labels":[],"geniusPrice":null,"geniusUnitPricePerLabel":null,"banner":null,"discountLabel":null,"geniusDiscountLabel":null,"badge":null}],"filters":{"countSelected":0,"items":[{"code":"promotion","name":"Promoții","countSelected":0,"values":[]},{"code":"brand","name":"Brand","countSelected":0,"values":[{"code":"cereal-crunch-b3249","name":"Cereal Crunch","isSelected":false,"count":5},{"code":"croco-b1177","name":"Croco","isSelected":false,"count":2},{"code":"lion-b4","name":"Lion","isSelected":false,"count":1},{"code":"risovital-b1691","name":"Risovital","isSelected":false,"count":3},{"code":"sanovita-b483","name":"Sanovita","isSelected":false,"count":9}]},{"code":"diet_lifestyle","name":"Dietă și lifestyle","countSelected":0,"values":[{"code":"fara-gluten-a16","name":"Fara gluten","isSelected":false,"count":9},{"code":"fara-sare-a52","name":"Fara sare","isSelected":false,"count":1},{"code":"fara-zahar-adaugat-a29","name":"Fara zahar adaugat","isSelected":false,"count":1},{"code":"vegan-a24","name":"Vegan","isSelected":false,"count":6}]}]},"orderBy":[{"field":"price","direction":"asc","name":"Preț crescător","isSelected":false},{"field":"price","direction":"desc","name":"Preț descrescător","isSelected":false},{"field":"popularity","direction":"desc","name":"Cele mai populare","isSelected":true},{"field":"category","direction":"asc","name":"Categorie","isSelected":false}],"metaTitle":"Alte cereale - Gamă variată","metaDescription":"Vrei Alte cereale? Alege dintr-o gamă variată. Comanzi simplu și ai livrare rapidă, calitate și prospețime. Hai pe Freshful.ro","metaKeywords":null,"banners":[]}}