{"type":"subcategory","payload":{"analyticsListId":"category_904-cafea-si-ceai","analyticsListName":"Category - Cafea și ceai","name":"Cafea și ceai","slug":"904-cafea-si-ceai","image":null,"breadcrumbs":[{"code":"9","name":"Dulciuri & mic dejun","slug":"9-ceva-dulce"},{"code":"904","name":"Cafea și ceai","slug":"904-cafea-si-ceai"}],"slots":[],"page":1,"limit":10,"pages":66,"count":657,"siblings":[{"name":"Biscuiți, napolitane și prăjituri","slug":"902-biscuiti-napolitane-si-prajituri","selected":false},{"name":"Cereale și mic dejun","slug":"903-cereale-si-mic-dejun","selected":false},{"name":"Cafea și ceai","slug":"904-cafea-si-ceai","selected":true},{"name":"Bomboane și ciocolată","slug":"905-bomboane-si-ciocolata","selected":false}],"children":[{"name":"Toate produsele","slug":"904-cafea-si-ceai","selected":true},{"name":"Cafea de specialitate","slug":"90401-cafea-de-specialitate","selected":false},{"name":"Cafea boabe","slug":"90402-cafea-boabe","selected":false},{"name":"Cafea măcinată","slug":"90403-cafea-macinata","selected":false},{"name":"Cafea solubilă","slug":"90404-cafea-solubila","selected":false},{"name":"Capsule","slug":"90405-capsule","selected":false},{"name":"Sirop cafea","slug":"90406-filtre-cafea","selected":false},{"name":"Cicoare și lapte condensat","slug":"90407-cicoare-si-lapte-concentrat","selected":false},{"name":"Cappuccino și mixuri","slug":"90408-capuccino-si-mixuri","selected":false},{"name":"Ciocolată caldă","slug":"90409-ciocolata-calda","selected":false},{"name":"Ceai negru","slug":"90410-ceai-negru","selected":false},{"name":"Ceai verde","slug":"90411-ceai-verde","selected":false},{"name":"Ceai din fructe","slug":"90412-ceai-din-fructe","selected":false},{"name":"Ceai din plante","slug":"90413-ceai-din-plante","selected":false},{"name":"Ceai de specialitate","slug":"90414-ceai-de-specialitate","selected":false}],"products":[{"code":"100117121","variantCode":"100117121","name":"Cafea măcinată Il Mattino 250g","slug":"100117121-lavazza-cafea-macinata-il-mattino-250g","unitPriceLabel":"14,99 Lei/buc","brand":"Lavazza","brandCode":"161","brandFilterCode":"lavazza-b162","sku":"100117121","price":14.99,"originalPrice":17.5,"currencyCode":"RON","currency":"Lei","image":{"thumbnail":{"default":"https://cdn.freshful.ro/media/cache/sylius_shop_product_thumbnail/8f/07/49a9f0281473346f47bcbec95ce2.jpg"},"large":{"default":"https://cdn.freshful.ro/media/cache/freshful_large/8f/07/49a9f0281473346f47bcbec95ce2.jpg"},"extralarge":{"default":"https://cdn.freshful.ro/media/cache/sylius_shop_product_original/8f/07/49a9f0281473346f47bcbec95ce2.jpg"}},"label":{"text":"-14%","backgroundColor":"#FF9903","textColor":"#FFFFFF"},"tags":[],"isAvailable":true,"maxAvailableQuantity":6,"maxAllowedQuantity":6,"breadcrumbs":[{"code":"9","name":"Dulciuri & mic dejun","slug":"9-ceva-dulce"},{"code":"904","name":"Cafea și ceai","slug":"904-cafea-si-ceai"},{"code":"90403","name":"Cafea măcinată","slug":"90403-cafea-macinata"},{"code":"100117121","name":"Cafea măcinată Il Mattino 250g","slug":"100117121-lavazza-cafea-macinata-il-mattino-250g"}],"activePromotion":{"code":"oferte-bacanie-bauturi-21feb-8mar23","name":"Preț redus","targetQuantity":null},"saveMe":null,"labels":[{"type":"v1","items":[{"text":"-14%","backgroundColor":"#FF9903","textColor":"#FFFFFF"}]}],"geniusPrice":null,"geniusUnitPricePerLabel":null,"banner":{"text":"Super preț","textColor":"#FF0000","bgColor":"#FFF2EC","icon":null,"link":"https://www.freshful.ro/oferte/oferte-bacanie-bauturi-21feb-8mar23","type":"promo","analyticsEventType":"select_promotion","analyticsEventPayload":{"promotion_id":"oferte-bacanie-bauturi-21feb-8mar23","promotion_name":"Cămara cu băuturi și bunătăți"}},"discountLabel":"Economisești 14%","geniusDiscountLabel":null,"badge":null},{"code":"100002911","variantCode":"5012547001582","name":"Cafea boabe Colombian Roast 500g","slug":"100002911-costa-coffee-cafea-boabe-colombian-roast-500g","unitPriceLabel":"84,6 Lei/kg","brand":"Costa Coffee","brandCode":"290","brandFilterCode":"costa-coffee-b291","sku":"100002911","price":43.99,"originalPrice":57.99,"currencyCode":"RON","currency":"Lei","image":{"thumbnail":{"default":"https://cdn.freshful.ro/media/cache/sylius_shop_product_thumbnail/a7/4b/b674e3f8514e74b355fa48a11993.jpg"},"large":{"default":"https://cdn.freshful.ro/media/cache/freshful_large/a7/4b/b674e3f8514e74b355fa48a11993.jpg"},"extralarge":{"default":"https://cdn.freshful.ro/media/cache/sylius_shop_product_original/a7/4b/b674e3f8514e74b355fa48a11993.jpg"}},"label":{"text":"-24%","backgroundColor":"#FF9903","textColor":"#FFFFFF"},"tags":[],"isAvailable":true,"maxAvailableQuantity":100,"maxAllowedQuantity":100,"breadcrumbs":[{"code":"9","name":"Dulciuri & mic dejun","slug":"9-ceva-dulce"},{"code":"904","name":"Cafea și ceai","slug":"904-cafea-si-ceai"},{"code":"90402","name":"Cafea boabe","slug":"90402-cafea-boabe"},{"code":"100002911","name":"Cafea boabe Colombian Roast 500g","slug":"100002911-costa-coffee-cafea-boabe-colombian-roast-500g"}],"activePromotion":{"code":"special-bacanie-bauturi-mar23","name":"Preț redus","targetQuantity":null},"saveMe":null,"labels":[{"type":"v1","items":[{"text":"-24%","backgroundColor":"#FF9903","textColor":"#FFFFFF"}]}],"geniusPrice":null,"geniusUnitPricePerLabel":null,"banner":{"text":"Super preț","textColor":"#FF0000","bgColor":"#FFF2EC","icon":null,"link":"https://www.freshful.ro/oferte/special-bacanie-bauturi-mar23","type":"promo","analyticsEventType":"select_promotion","analyticsEventPayload":{"promotion_id":"special-bacanie-bauturi-mar23","promotion_name":"Prețuri speciale pentru Ziua Femeii"}},"discountLabel":"Economisești 24%","geniusDiscountLabel":null,"badge":null},{"code":"100002917","variantCode":"5012547001759","name":"Capsule cafea, Ristretto Lively Blend, 10 băuturi, 75g","slug":"100002917-costa-coffee-capsule-cafea-ristretto-lively-blend-10-bauturi-75g","unitPriceLabel":"166,56 Lei/kg","brand":"Costa Coffee","brandCode":"290","brandFilterCode":"costa-coffee-b291","sku":"100002917","price":14.99,"originalPrice":18.5,"currencyCode":"RON","currency":"Lei","image":{"thumbnail":{"default":"https://cdn.freshful.ro/media/cache/sylius_shop_product_thumbnail/e9/4d/469fef7272f4801ab5ecdc798446.jpg"},"large":{"default":"https://cdn.freshful.ro/media/cache/freshful_large/e9/4d/469fef7272f4801ab5ecdc798446.jpg"},"extralarge":{"default":"https://cdn.freshful.ro/media/cache/sylius_shop_product_original/e9/4d/469fef7272f4801ab5ecdc798446.jpg"}},"label":{"text":"-18%","backgroundColor":"#FF9903","textColor":"#FFFFFF"},"tags":[],"isAvailable":true,"maxAvailableQuantity":84,"maxAllowedQuantity":100,"breadcrumbs":[{"code":"9","name":"Dulciuri & mic dejun","slug":"9-ceva-dulce"},{"code":"904","name":"Cafea și ceai","slug":"904-cafea-si-ceai"},{"code":"90405","name":"Capsule","slug":"90405-capsule"},{"code":"100002917","name":"Capsule cafea, Ristretto Lively Blend, 10 băuturi, 75g","slug":"100002917-costa-coffee-capsule-cafea-ristretto-lively-blend-10-bauturi-75g"}],"activePromotion":{"code":"special-bacanie-bauturi-mar23","name":"Preț redus","targetQuantity":null},"saveMe":null,"labels":[{"type":"v1","items":[{"text":"-18%","backgroundColor":"#FF9903","textColor":"#FFFFFF"}]}],"geniusPrice":null,"geniusUnitPricePerLabel":null,"banner":{"text":"Super preț","textColor":"#FF0000","bgColor":"#FFF2EC","icon":null,"link":"https://www.freshful.ro/oferte/special-bacanie-bauturi-mar23","type":"promo","analyticsEventType":"select_promotion","analyticsEventPayload":{"promotion_id":"special-bacanie-bauturi-mar23","promotion_name":"Prețuri speciale pentru Ziua Femeii"}},"discountLabel":"Economisești 18%","geniusDiscountLabel":null,"badge":null},{"code":"100087172","variantCode":"8711000360620","name":"Capsule cafea Espresso Papua Noua Guinee 10 băuturi","slug":"100087172-l-or-capsule-cafea-espresso-papua-noua-guinee-10-bauturi","unitPriceLabel":"","brand":"L'OR","brandCode":"750","brandFilterCode":"l-or-b751","sku":"100087172","price":15.99,"originalPrice":18.5,"currencyCode":"RON","currency":"Lei","image":{"thumbnail":{"default":"https://cdn.freshful.ro/media/cache/sylius_shop_product_thumbnail/13/e1/cd17dd2c4f3529f7ede4e9b6f90c.jpg"},"large":{"default":"https://cdn.freshful.ro/media/cache/freshful_large/13/e1/cd17dd2c4f3529f7ede4e9b6f90c.jpg"},"extralarge":{"default":"https://cdn.freshful.ro/media/cache/sylius_shop_product_original/13/e1/cd17dd2c4f3529f7ede4e9b6f90c.jpg"}},"label":{"text":"-13%","backgroundColor":"#FF9903","textColor":"#FFFFFF"},"tags":[],"isAvailable":true,"maxAvailableQuantity":83,"maxAllowedQuantity":100,"breadcrumbs":[{"code":"9","name":"Dulciuri & mic dejun","slug":"9-ceva-dulce"},{"code":"904","name":"Cafea și ceai","slug":"904-cafea-si-ceai"},{"code":"90405","name":"Capsule","slug":"90405-capsule"},{"code":"100087172","name":"Capsule cafea Espresso Papua Noua Guinee 10 băuturi","slug":"100087172-l-or-capsule-cafea-espresso-papua-noua-guinee-10-bauturi"}],"activePromotion":{"code":"special-bacanie-bauturi-mar23","name":"Preț redus","targetQuantity":null},"saveMe":null,"labels":[{"type":"v1","items":[{"text":"-13%","backgroundColor":"#FF9903","textColor":"#FFFFFF"}]}],"geniusPrice":null,"geniusUnitPricePerLabel":null,"banner":{"text":"Super preț","textColor":"#FF0000","bgColor":"#FFF2EC","icon":null,"link":"https://www.freshful.ro/oferte/special-bacanie-bauturi-mar23","type":"promo","analyticsEventType":"select_promotion","analyticsEventPayload":{"promotion_id":"special-bacanie-bauturi-mar23","promotion_name":"Prețuri speciale pentru Ziua Femeii"}},"discountLabel":"Economisești 13%","geniusDiscountLabel":null,"badge":null},{"code":"100127670","variantCode":"7630477891592","name":"Capsule cafea, House Blend Lungo, 10 băuturi, 57g","slug":"100127670-starbucks-capsule-cafea-house-blend-lungo-10-bauturi-57g","unitPriceLabel":"231,59 Lei/kg","brand":"Starbucks","brandCode":"226","brandFilterCode":"starbucks-b227","sku":"100127670","price":18.99,"originalPrice":21.9,"currencyCode":"RON","currency":"Lei","image":{"thumbnail":{"default":"https://cdn.freshful.ro/media/cache/sylius_shop_product_thumbnail/c4/1b/931037e7f3b3eae788b2c7dfc53c.jpg"},"large":{"default":"https://cdn.freshful.ro/media/cache/freshful_large/c4/1b/931037e7f3b3eae788b2c7dfc53c.jpg"},"extralarge":{"default":"https://cdn.freshful.ro/media/cache/sylius_shop_product_original/c4/1b/931037e7f3b3eae788b2c7dfc53c.jpg"}},"label":{"text":"-13%","backgroundColor":"#FF9903","textColor":"#FFFFFF"},"tags":[],"isAvailable":true,"maxAvailableQuantity":80,"maxAllowedQuantity":100,"breadcrumbs":[{"code":"9","name":"Dulciuri & mic dejun","slug":"9-ceva-dulce"},{"code":"904","name":"Cafea și ceai","slug":"904-cafea-si-ceai"},{"code":"90405","name":"Capsule","slug":"90405-capsule"},{"code":"100127670","name":"Capsule cafea, House Blend Lungo, 10 băuturi, 57g","slug":"100127670-starbucks-capsule-cafea-house-blend-lungo-10-bauturi-57g"}],"activePromotion":{"code":"special-bacanie-bauturi-mar23","name":"Preț redus","targetQuantity":null},"saveMe":null,"labels":[{"type":"v1","items":[{"text":"-13%","backgroundColor":"#FF9903","textColor":"#FFFFFF"}]}],"geniusPrice":null,"geniusUnitPricePerLabel":null,"banner":{"text":"Super preț","textColor":"#FF0000","bgColor":"#FFF2EC","icon":null,"link":"https://www.freshful.ro/oferte/special-bacanie-bauturi-mar23","type":"promo","analyticsEventType":"select_promotion","analyticsEventPayload":{"promotion_id":"special-bacanie-bauturi-mar23","promotion_name":"Prețuri speciale pentru Ziua Femeii"}},"discountLabel":"Economisești 13%","geniusDiscountLabel":null,"badge":null},{"code":"100002782","variantCode":"5012547001674","name":"Cafea măcinată Colombian Roast 200g","slug":"100002782-costa-coffee-cafea-macinata-colombian-roast-200g","unitPriceLabel":"90,86 Lei/kg","brand":"Costa Coffee","brandCode":"290","brandFilterCode":"costa-coffee-b291","sku":"100002782","price":19.99,"originalPrice":23.99,"currencyCode":"RON","currency":"Lei","image":{"thumbnail":{"default":"https://cdn.freshful.ro/media/cache/sylius_shop_product_thumbnail/45/a9/20634d6eedc8f83baf7e63bbd279.jpg"},"large":{"default":"https://cdn.freshful.ro/media/cache/freshful_large/45/a9/20634d6eedc8f83baf7e63bbd279.jpg"},"extralarge":{"default":"https://cdn.freshful.ro/media/cache/sylius_shop_product_original/45/a9/20634d6eedc8f83baf7e63bbd279.jpg"}},"label":{"text":"-16%","backgroundColor":"#FF9903","textColor":"#FFFFFF"},"tags":[],"isAvailable":true,"maxAvailableQuantity":45,"maxAllowedQuantity":100,"breadcrumbs":[{"code":"9","name":"Dulciuri & mic dejun","slug":"9-ceva-dulce"},{"code":"904","name":"Cafea și ceai","slug":"904-cafea-si-ceai"},{"code":"90403","name":"Cafea măcinată","slug":"90403-cafea-macinata"},{"code":"100002782","name":"Cafea măcinată Colombian Roast 200g","slug":"100002782-costa-coffee-cafea-macinata-colombian-roast-200g"}],"activePromotion":{"code":"special-bacanie-bauturi-mar23","name":"Preț redus","targetQuantity":null},"saveMe":null,"labels":[{"type":"v1","items":[{"text":"-16%","backgroundColor":"#FF9903","textColor":"#FFFFFF"}]}],"geniusPrice":null,"geniusUnitPricePerLabel":null,"banner":{"text":"Super preț","textColor":"#FF0000","bgColor":"#FFF2EC","icon":null,"link":"https://www.freshful.ro/oferte/special-bacanie-bauturi-mar23","type":"promo","analyticsEventType":"select_promotion","analyticsEventPayload":{"promotion_id":"special-bacanie-bauturi-mar23","promotion_name":"Prețuri speciale pentru Ziua Femeii"}},"discountLabel":"Economisești 16%","geniusDiscountLabel":null,"badge":null},{"code":"100127676","variantCode":"7630477891738","name":"Capsule cafea, Blonde Espresso Roast, 10 băuturi, 53g","slug":"100127676-starbucks-capsule-cafea-blonde-espresso-roast-10-bauturi-53g","unitPriceLabel":"246,62 Lei/kg","brand":"Starbucks","brandCode":"226","brandFilterCode":"starbucks-b227","sku":"100127676","price":18.99,"originalPrice":20.5,"currencyCode":"RON","currency":"Lei","image":{"thumbnail":{"default":"https://cdn.freshful.ro/media/cache/sylius_shop_product_thumbnail/5e/1e/60f79a00ff2b34912faf08ce36b0.jpg"},"large":{"default":"https://cdn.freshful.ro/media/cache/freshful_large/5e/1e/60f79a00ff2b34912faf08ce36b0.jpg"},"extralarge":{"default":"https://cdn.freshful.ro/media/cache/sylius_shop_product_original/5e/1e/60f79a00ff2b34912faf08ce36b0.jpg"}},"label":{"text":"-7%","backgroundColor":"#FF9903","textColor":"#FFFFFF"},"tags":[],"isAvailable":true,"maxAvailableQuantity":65,"maxAllowedQuantity":100,"breadcrumbs":[{"code":"9","name":"Dulciuri & mic dejun","slug":"9-ceva-dulce"},{"code":"904","name":"Cafea și ceai","slug":"904-cafea-si-ceai"},{"code":"90405","name":"Capsule","slug":"90405-capsule"},{"code":"100127676","name":"Capsule cafea, Blonde Espresso Roast, 10 băuturi, 53g","slug":"100127676-starbucks-capsule-cafea-blonde-espresso-roast-10-bauturi-53g"}],"activePromotion":{"code":"special-bacanie-bauturi-mar23","name":"Preț redus","targetQuantity":null},"saveMe":null,"labels":[{"type":"v1","items":[{"text":"-7%","backgroundColor":"#FF9903","textColor":"#FFFFFF"}]}],"geniusPrice":null,"geniusUnitPricePerLabel":null,"banner":{"text":"Super preț","textColor":"#FF0000","bgColor":"#FFF2EC","icon":null,"link":"https://www.freshful.ro/oferte/special-bacanie-bauturi-mar23","type":"promo","analyticsEventType":"select_promotion","analyticsEventPayload":{"promotion_id":"special-bacanie-bauturi-mar23","promotion_name":"Prețuri speciale pentru Ziua Femeii"}},"discountLabel":"Economisești 7%","geniusDiscountLabel":null,"badge":null},{"code":"100127673","variantCode":"7630477891691","name":"Capsule cafea, single-origin Colombia, 10 băuturi, 57g","slug":"100127673-starbucks-capsule-cafea-single-origin-colombia-10-bauturi-57g","unitPriceLabel":"234,44 Lei/kg","brand":"Starbucks","brandCode":"226","brandFilterCode":"starbucks-b227","sku":"100127673","price":18.99,"originalPrice":20.89,"currencyCode":"RON","currency":"Lei","image":{"thumbnail":{"default":"https://cdn.freshful.ro/media/cache/sylius_shop_product_thumbnail/6a/d2/6dd4bc4406c0a28b23a1fc7dc100.jpg"},"large":{"default":"https://cdn.freshful.ro/media/cache/freshful_large/6a/d2/6dd4bc4406c0a28b23a1fc7dc100.jpg"},"extralarge":{"default":"https://cdn.freshful.ro/media/cache/sylius_shop_product_original/6a/d2/6dd4bc4406c0a28b23a1fc7dc100.jpg"}},"label":{"text":"-9%","backgroundColor":"#FF9903","textColor":"#FFFFFF"},"tags":[],"isAvailable":true,"maxAvailableQuantity":100,"maxAllowedQuantity":100,"breadcrumbs":[{"code":"9","name":"Dulciuri & mic dejun","slug":"9-ceva-dulce"},{"code":"904","name":"Cafea și ceai","slug":"904-cafea-si-ceai"},{"code":"90405","name":"Capsule","slug":"90405-capsule"},{"code":"100127673","name":"Capsule cafea, single-origin Colombia, 10 băuturi, 57g","slug":"100127673-starbucks-capsule-cafea-single-origin-colombia-10-bauturi-57g"}],"activePromotion":{"code":"special-bacanie-bauturi-mar23","name":"Preț redus","targetQuantity":null},"saveMe":null,"labels":[{"type":"v1","items":[{"text":"-9%","backgroundColor":"#FF9903","textColor":"#FFFFFF"}]}],"geniusPrice":null,"geniusUnitPricePerLabel":null,"banner":{"text":"Super preț","textColor":"#FF0000","bgColor":"#FFF2EC","icon":null,"link":"https://www.freshful.ro/oferte/special-bacanie-bauturi-mar23","type":"promo","analyticsEventType":"select_promotion","analyticsEventPayload":{"promotion_id":"special-bacanie-bauturi-mar23","promotion_name":"Prețuri speciale pentru Ziua Femeii"}},"discountLabel":"Economisești 9%","geniusDiscountLabel":null,"badge":null},{"code":"100002770","variantCode":"5012547001605","name":"Cafea boabe Signature Blend Medium 500g","slug":"100002770-costa-coffee-cafea-boabe-signature-blend-medium-500g","unitPriceLabel":"82,19 Lei/kg","brand":"Costa Coffee","brandCode":"290","brandFilterCode":"costa-coffee-b291","sku":"100002770","price":42.74,"originalPrice":null,"currencyCode":"RON","currency":"Lei","image":{"thumbnail":{"default":"https://cdn.freshful.ro/media/cache/sylius_shop_product_thumbnail/2e/0f/05086d371d66cfe5ae13432d71cc.jpg"},"large":{"default":"https://cdn.freshful.ro/media/cache/freshful_large/2e/0f/05086d371d66cfe5ae13432d71cc.jpg"},"extralarge":{"default":"https://cdn.freshful.ro/media/cache/sylius_shop_product_original/2e/0f/05086d371d66cfe5ae13432d71cc.jpg"}},"label":{"text":"-20% cu Genius","backgroundColor":"#FEF3FA","textColor":"#CD015F"},"tags":[],"isAvailable":true,"maxAvailableQuantity":48,"maxAllowedQuantity":100,"breadcrumbs":[{"code":"9","name":"Dulciuri & mic dejun","slug":"9-ceva-dulce"},{"code":"904","name":"Cafea și ceai","slug":"904-cafea-si-ceai"},{"code":"90402","name":"Cafea boabe","slug":"90402-cafea-boabe"},{"code":"100002770","name":"Cafea boabe Signature Blend Medium 500g","slug":"100002770-costa-coffee-cafea-boabe-signature-blend-medium-500g"}],"activePromotion":null,"saveMe":null,"labels":[{"type":"gdeals","items":[{"text":"","backgroundColor":"","textColor":""}]},{"type":"v3","items":[{"text":"-20% cu Genius","backgroundColor":"#FEF3FA","textColor":"#CD015F"}]}],"geniusPrice":34.19,"geniusUnitPricePerLabel":"65,75 Lei/kg","banner":null,"discountLabel":null,"geniusDiscountLabel":"Economisești 20%","badge":null},{"code":"100061476","variantCode":"6423602005510","name":"Ceai de ghimbir 50g","slug":"100061476-alevia-ceai-de-ghimbir-50g","unitPriceLabel":"159,8 Lei/kg","brand":"Alevia","brandCode":"83","brandFilterCode":"alevia-b128","sku":"100061476","price":7.99,"originalPrice":9.99,"currencyCode":"RON","currency":"Lei","image":{"thumbnail":{"default":"https://cdn.freshful.ro/media/cache/sylius_shop_product_thumbnail/5e/c5/8a22045996dc6a233e4999d326ce.jpg"},"large":{"default":"https://cdn.freshful.ro/media/cache/freshful_large/5e/c5/8a22045996dc6a233e4999d326ce.jpg"},"extralarge":{"default":"https://cdn.freshful.ro/media/cache/sylius_shop_product_original/5e/c5/8a22045996dc6a233e4999d326ce.jpg"}},"label":{"text":"-20%","backgroundColor":"#FF9903","textColor":"#FFFFFF"},"tags":[{"type":"Natural","text":"Natural","icon":"https://cdn.freshful.ro/assets/product_tags/natural.svg","iconPng":"https://cdn.freshful.ro/assets/product_tags/natural.png","backgroundColor":"#E9FCF2","textColor":"#18AF62"}],"isAvailable":true,"maxAvailableQuantity":46,"maxAllowedQuantity":100,"breadcrumbs":[{"code":"9","name":"Dulciuri & mic dejun","slug":"9-ceva-dulce"},{"code":"904","name":"Cafea și ceai","slug":"904-cafea-si-ceai"},{"code":"90413","name":"Ceai din plante","slug":"90413-ceai-din-plante"},{"code":"100061476","name":"Ceai de ghimbir 50g","slug":"100061476-alevia-ceai-de-ghimbir-50g"}],"activePromotion":{"code":"oferte-bacanie-bauturi-21feb-8mar23","name":"Preț redus","targetQuantity":null},"saveMe":null,"labels":[{"type":"v1","items":[{"text":"-20%","backgroundColor":"#FF9903","textColor":"#FFFFFF"}]}],"geniusPrice":null,"geniusUnitPricePerLabel":null,"banner":{"text":"Super preț","textColor":"#FF0000","bgColor":"#FFF2EC","icon":null,"link":"https://www.freshful.ro/oferte/oferte-bacanie-bauturi-21feb-8mar23","type":"promo","analyticsEventType":"select_promotion","analyticsEventPayload":{"promotion_id":"oferte-bacanie-bauturi-21feb-8mar23","promotion_name":"Cămara cu băuturi și bunătăți"}},"discountLabel":"Economisești 20%","geniusDiscountLabel":null,"badge":null}],"filters":{"countSelected":0,"items":[{"code":"promotion","name":"Promoții","countSelected":0,"values":[{"code":"oferte-bacanie-bauturi-21feb-8mar23","name":"Cămara cu băuturi și bunătăți","isSelected":false,"count":7},{"code":"special-bacanie-bauturi-mar23","name":"Prețuri speciale pentru Ziua Femeii","isSelected":false,"count":21},{"code":"freshful-top-deals-2023","name":"Profită de Top Deals","isSelected":false,"count":2}]},{"code":"brand","name":"Brand","countSelected":0,"values":[{"code":"5-o-clock-tea-time-b143","name":"5 O'Clock Tea Time","isSelected":false,"count":18},{"code":"5-to-go-b2826","name":"5 To Go","isSelected":false,"count":13},{"code":"alevia-b128","name":"Alevia","isSelected":false,"count":39},{"code":"all-for-nature-b2147","name":"All For Nature","isSelected":false,"count":9},{"code":"amigo-b118","name":"Amigo","isSelected":false,"count":6},{"code":"bazzara-b1807","name":"Bazzara","isSelected":false,"count":1},{"code":"beanz-cafe-b119","name":"BeanZ Café","isSelected":false,"count":4},{"code":"belin-b1379","name":"Belin","isSelected":false,"count":17},{"code":"beyoutea-b1559","name":"BeYouTea","isSelected":false,"count":28},{"code":"brewzeus-b2517","name":"Brewzeus","isSelected":false,"count":10},{"code":"brumi-b457","name":"Brumi","isSelected":false,"count":1},{"code":"carraro-b1808","name":"Carraro","isSelected":false,"count":3},{"code":"coffeeta-b458","name":"Coffeeta","isSelected":false,"count":2},{"code":"corsini-b656","name":"Corsini","isSelected":false,"count":2},{"code":"costa-coffee-b291","name":"Costa Coffee","isSelected":false,"count":15},{"code":"dacia-plant-b934","name":"Dacia Plant","isSelected":false,"count":1},{"code":"dallmayr-b1971","name":"Dallmayr","isSelected":false,"count":7},{"code":"davidoff-b1157","name":"Davidoff","isSelected":false,"count":4},{"code":"dolce-bacio-flavored-coffee-b85","name":"Dolce Bacio Flavored Coffee","isSelected":false,"count":12},{"code":"doncafe-b116","name":"Doncafé","isSelected":false,"count":23},{"code":"doncafe-fresh-b2466","name":"Doncafé Fresh","isSelected":false,"count":7},{"code":"douwe-egberts-b2857","name":"Douwe Egberts","isSelected":false,"count":2},{"code":"dr-oetker-b51","name":"Dr. Oetker","isSelected":false,"count":3},{"code":"eduscho-b1972","name":"Eduscho","isSelected":false,"count":1},{"code":"ekoland-b2445","name":"Ekoland","isSelected":false,"count":4},{"code":"fort-b117","name":"Fort","isSelected":false,"count":3},{"code":"fortuna-b1248","name":"Fortuna","isSelected":false,"count":6},{"code":"frez-b2210","name":"Frez","isSelected":false,"count":4},{"code":"gold-mocca-b1798","name":"Gold Mocca","isSelected":false,"count":1},{"code":"hausbrandt-b1975","name":"Hausbrandt","isSelected":false,"count":2},{"code":"hearts-b1976","name":"Hearts","isSelected":false,"count":6},{"code":"illy-b1810","name":"Illy","isSelected":false,"count":14},{"code":"inka-b455","name":"inka","isSelected":false,"count":1},{"code":"jacobs-b752","name":"Jacobs","isSelected":false,"count":41},{"code":"julius-meinl-b1707","name":"Julius Meinl","isSelected":false,"count":16},{"code":"kimbo-b657","name":"Kimbo","isSelected":false,"count":6},{"code":"kruger-b1977","name":"Kruger","isSelected":false,"count":1},{"code":"l-or-b751","name":"L'OR","isSelected":false,"count":14},{"code":"la-festa-b454","name":"La Festa","isSelected":false,"count":18},{"code":"lavazza-b162","name":"Lavazza","isSelected":false,"count":29},{"code":"legal-b2841","name":"Legal","isSelected":false,"count":3},{"code":"lipton-b125","name":"Lipton","isSelected":false,"count":3},{"code":"malongo-b1062","name":"Malongo","isSelected":false,"count":5},{"code":"mehmet-efendi-b1563","name":"Mehmet Efendi","isSelected":false,"count":2},{"code":"melitta-b1811","name":"Melitta","isSelected":false,"count":1},{"code":"motta-b2351","name":"Motta","isSelected":false,"count":6},{"code":"mount-himalaya-tea-b144","name":"Mount Himalaya Tea","isSelected":false,"count":25},{"code":"mr-mrs-mill-b121","name":"Mr & Mrs Mill","isSelected":false,"count":4},{"code":"movenpick-b746","name":"Mövenpick","isSelected":false,"count":5},{"code":"nerro-nobile-b2000","name":"Nerro Nobile","isSelected":false,"count":1},{"code":"nescafe-b67","name":"Nescafé","isSelected":false,"count":6},{"code":"nescafe-brasero-b2292","name":"Nescafé Brasero","isSelected":false,"count":6},{"code":"nescafe-dolce-gusto-b292","name":"Nescafé Dolce Gusto","isSelected":false,"count":24},{"code":"nespresso-b2699","name":"Nespresso","isSelected":false,"count":15},{"code":"nesquik-b56","name":"Nesquik","isSelected":false,"count":3},{"code":"pellini-b108","name":"Pellini","isSelected":false,"count":1},{"code":"plafar-b1612","name":"Plafar","isSelected":false,"count":30},{"code":"rombouts-b2840","name":"Rombouts","isSelected":false,"count":1},{"code":"sanovita-b483","name":"Sanovita","isSelected":false,"count":1},{"code":"schwartau-b880","name":"Schwartau","isSelected":false,"count":2},{"code":"sebahat-b986","name":"Sebahat","isSelected":false,"count":3},{"code":"segafredo-b1981","name":"Segafredo","isSelected":false,"count":2},{"code":"sir-roger-b2839","name":"Sir Roger","isSelected":false,"count":6},{"code":"splendid-b3263","name":"Splendid","isSelected":false,"count":1},{"code":"starbucks-b227","name":"Starbucks","isSelected":false,"count":24},{"code":"stretto-b1797","name":"Stretto","isSelected":false,"count":4},{"code":"tassimo-b750","name":"Tassimo","isSelected":false,"count":13},{"code":"tchibo-b2412","name":"Tchibo","isSelected":false,"count":16},{"code":"teekanne-b884","name":"Teekanne","isSelected":false,"count":21},{"code":"the-capsoul-b1846","name":"The Capsoul","isSelected":false,"count":1},{"code":"twinings-b644","name":"Twinings","isSelected":false,"count":16},{"code":"varanini-b2002","name":"Varanini","isSelected":false,"count":5},{"code":"vergnano-b1983","name":"Vergnano","isSelected":false,"count":2},{"code":"woods-foods-b2275","name":"Woods Foods","isSelected":false,"count":3}]},{"code":"diet_lifestyle","name":"Dietă și lifestyle","countSelected":0,"values":[{"code":"fara-gluten-a16","name":"Fara gluten","isSelected":false,"count":2},{"code":"fara-sare-a52","name":"Fara sare","isSelected":false,"count":1},{"code":"made-in-romania-a85","name":"Made In Romania","isSelected":false,"count":17},{"code":"natural-a27","name":"Natural","isSelected":false,"count":40}]}]},"orderBy":[{"field":"price","direction":"asc","name":"Preț crescător","isSelected":false},{"field":"price","direction":"desc","name":"Preț descrescător","isSelected":false},{"field":"popularity","direction":"desc","name":"Cele mai populare","isSelected":true},{"field":"category","direction":"asc","name":"Categorie","isSelected":false}],"metaTitle":"Cafea și ceai - Gamă variată","metaDescription":"Vrei Cafea și ceai? Alege dintr-o gamă variată. Comanzi simplu și ai livrare rapidă, calitate și prospețime. Hai pe Freshful.ro","metaKeywords":null,"banners":[]}}