{"type":"subcategory","payload":{"analyticsListId":"category_90402-cafea-boabe","analyticsListName":"Category - Cafea boabe","name":"Cafea boabe","slug":"90402-cafea-boabe","image":null,"breadcrumbs":[{"code":"9","name":"Dulciuri & mic dejun","slug":"9-ceva-dulce"},{"code":"904","name":"Cafea și ceai","slug":"904-cafea-si-ceai"},{"code":"90402","name":"Cafea boabe","slug":"90402-cafea-boabe"}],"slots":[],"page":1,"limit":10,"pages":11,"count":104,"siblings":[{"name":"Biscuiți, napolitane și prăjituri","slug":"902-biscuiti-napolitane-si-prajituri","selected":false},{"name":"Cereale și mic dejun","slug":"903-cereale-si-mic-dejun","selected":false},{"name":"Cafea și ceai","slug":"904-cafea-si-ceai","selected":true},{"name":"Bomboane și ciocolată","slug":"905-bomboane-si-ciocolata","selected":false}],"children":[{"name":"Toate produsele","slug":"904-cafea-si-ceai","selected":false},{"name":"Cafea de specialitate","slug":"90401-cafea-de-specialitate","selected":false},{"name":"Cafea boabe","slug":"90402-cafea-boabe","selected":true},{"name":"Cafea măcinată","slug":"90403-cafea-macinata","selected":false},{"name":"Cafea solubilă","slug":"90404-cafea-solubila","selected":false},{"name":"Capsule","slug":"90405-capsule","selected":false},{"name":"Sirop cafea","slug":"90406-filtre-cafea","selected":false},{"name":"Cicoare și lapte condensat","slug":"90407-cicoare-si-lapte-concentrat","selected":false},{"name":"Cappuccino și mixuri","slug":"90408-capuccino-si-mixuri","selected":false},{"name":"Ciocolată caldă","slug":"90409-ciocolata-calda","selected":false},{"name":"Ceai negru","slug":"90410-ceai-negru","selected":false},{"name":"Ceai verde","slug":"90411-ceai-verde","selected":false},{"name":"Ceai din fructe","slug":"90412-ceai-din-fructe","selected":false},{"name":"Ceai din plante","slug":"90413-ceai-din-plante","selected":false},{"name":"Ceai de specialitate","slug":"90414-ceai-de-specialitate","selected":false}],"products":[{"code":"100002911","variantCode":"5012547001582","name":"Cafea boabe Colombian Roast 500g","slug":"100002911-costa-coffee-cafea-boabe-colombian-roast-500g","unitPriceLabel":"84,6 Lei/kg","brand":"Costa Coffee","brandCode":"290","brandFilterCode":"costa-coffee-b291","sku":"100002911","price":43.99,"originalPrice":57.99,"currencyCode":"RON","currency":"Lei","image":{"thumbnail":{"default":"https://cdn.freshful.ro/media/cache/sylius_shop_product_thumbnail/a7/4b/b674e3f8514e74b355fa48a11993.jpg"},"large":{"default":"https://cdn.freshful.ro/media/cache/freshful_large/a7/4b/b674e3f8514e74b355fa48a11993.jpg"},"extralarge":{"default":"https://cdn.freshful.ro/media/cache/sylius_shop_product_original/a7/4b/b674e3f8514e74b355fa48a11993.jpg"}},"label":{"text":"-24%","backgroundColor":"#FF9903","textColor":"#FFFFFF"},"tags":[],"isAvailable":true,"maxAvailableQuantity":100,"maxAllowedQuantity":100,"breadcrumbs":[{"code":"9","name":"Dulciuri & mic dejun","slug":"9-ceva-dulce"},{"code":"904","name":"Cafea și ceai","slug":"904-cafea-si-ceai"},{"code":"90402","name":"Cafea boabe","slug":"90402-cafea-boabe"},{"code":"100002911","name":"Cafea boabe Colombian Roast 500g","slug":"100002911-costa-coffee-cafea-boabe-colombian-roast-500g"}],"activePromotion":{"code":"special-bacanie-bauturi-mar23","name":"Preț redus","targetQuantity":null},"saveMe":null,"labels":[{"type":"v1","items":[{"text":"-24%","backgroundColor":"#FF9903","textColor":"#FFFFFF"}]}],"geniusPrice":null,"geniusUnitPricePerLabel":null,"banner":{"text":"Super preț","textColor":"#FF0000","bgColor":"#FFF2EC","icon":null,"link":"https://www.freshful.ro/oferte/special-bacanie-bauturi-mar23","type":"promo","analyticsEventType":"select_promotion","analyticsEventPayload":{"promotion_id":"special-bacanie-bauturi-mar23","promotion_name":"Prețuri speciale pentru Ziua Femeii"}},"discountLabel":"Economisești 24%","geniusDiscountLabel":null,"badge":null},{"code":"100002770","variantCode":"5012547001605","name":"Cafea boabe Signature Blend Medium 500g","slug":"100002770-costa-coffee-cafea-boabe-signature-blend-medium-500g","unitPriceLabel":"82,19 Lei/kg","brand":"Costa Coffee","brandCode":"290","brandFilterCode":"costa-coffee-b291","sku":"100002770","price":42.74,"originalPrice":null,"currencyCode":"RON","currency":"Lei","image":{"thumbnail":{"default":"https://cdn.freshful.ro/media/cache/sylius_shop_product_thumbnail/2e/0f/05086d371d66cfe5ae13432d71cc.jpg"},"large":{"default":"https://cdn.freshful.ro/media/cache/freshful_large/2e/0f/05086d371d66cfe5ae13432d71cc.jpg"},"extralarge":{"default":"https://cdn.freshful.ro/media/cache/sylius_shop_product_original/2e/0f/05086d371d66cfe5ae13432d71cc.jpg"}},"label":{"text":"-20% cu Genius","backgroundColor":"#FEF3FA","textColor":"#CD015F"},"tags":[],"isAvailable":true,"maxAvailableQuantity":48,"maxAllowedQuantity":100,"breadcrumbs":[{"code":"9","name":"Dulciuri & mic dejun","slug":"9-ceva-dulce"},{"code":"904","name":"Cafea și ceai","slug":"904-cafea-si-ceai"},{"code":"90402","name":"Cafea boabe","slug":"90402-cafea-boabe"},{"code":"100002770","name":"Cafea boabe Signature Blend Medium 500g","slug":"100002770-costa-coffee-cafea-boabe-signature-blend-medium-500g"}],"activePromotion":null,"saveMe":null,"labels":[{"type":"gdeals","items":[{"text":"","backgroundColor":"","textColor":""}]},{"type":"v3","items":[{"text":"-20% cu Genius","backgroundColor":"#FEF3FA","textColor":"#CD015F"}]}],"geniusPrice":34.19,"geniusUnitPricePerLabel":"65,75 Lei/kg","banner":null,"discountLabel":null,"geniusDiscountLabel":"Economisești 20%","badge":null},{"code":"100117059","variantCode":"100117059","name":"Cafea prăjită boabe Espresso 57 Dark & Chocolatey 500g ","slug":"100117059-davidoff-cafea-prajita-boabe-espresso-57-dark-chocolatey-500g","unitPriceLabel":"58,13 Lei/buc","brand":"Davidoff","brandCode":"1156","brandFilterCode":"davidoff-b1157","sku":"100117059","price":58.13,"originalPrice":null,"currencyCode":"RON","currency":"Lei","image":{"thumbnail":{"default":"https://cdn.freshful.ro/media/cache/sylius_shop_product_thumbnail/47/14/df3e5a598a9b07a1d3e42247fc2c.jpg"},"large":{"default":"https://cdn.freshful.ro/media/cache/freshful_large/47/14/df3e5a598a9b07a1d3e42247fc2c.jpg"},"extralarge":{"default":"https://cdn.freshful.ro/media/cache/sylius_shop_product_original/47/14/df3e5a598a9b07a1d3e42247fc2c.jpg"}},"label":{"text":"Profită acum","backgroundColor":"#FF9903","textColor":"#FFFFFF"},"tags":[],"isAvailable":true,"maxAvailableQuantity":7,"maxAllowedQuantity":100,"breadcrumbs":[{"code":"9","name":"Dulciuri & mic dejun","slug":"9-ceva-dulce"},{"code":"904","name":"Cafea și ceai","slug":"904-cafea-si-ceai"},{"code":"90402","name":"Cafea boabe","slug":"90402-cafea-boabe"},{"code":"100117059","name":"Cafea prăjită boabe Espresso 57 Dark & Chocolatey 500g ","slug":"100117059-davidoff-cafea-prajita-boabe-espresso-57-dark-chocolatey-500g"}],"activePromotion":{"code":"freshful-top-deals-2023","name":"Preț avantajos","targetQuantity":null},"saveMe":null,"labels":[{"type":"v1","items":[{"text":"Profită acum","backgroundColor":"#FF9903","textColor":"#FFFFFF"}]}],"geniusPrice":null,"geniusUnitPricePerLabel":null,"banner":{"text":"Preț avantajos","textColor":"#F95510","bgColor":"#FEF1CD","icon":null,"link":"https://www.freshful.ro/oferte/freshful-top-deals-2023","type":"promo","analyticsEventType":"select_promotion","analyticsEventPayload":{"promotion_id":"freshful-top-deals-2023","promotion_name":"Profită de Top Deals"}},"discountLabel":null,"geniusDiscountLabel":null,"badge":null},{"code":"100129735","variantCode":"100129735","name":"Cafea boabe Espresso Milano Style 1kg","slug":"100129735-tchibo-cafea-boabe-espresso-milano-style-1kg","unitPriceLabel":"66,39 Lei/kg","brand":"Tchibo","brandCode":"2408","brandFilterCode":"tchibo-b2412","sku":"100129735","price":66.39,"originalPrice":null,"currencyCode":"RON","currency":"Lei","image":{"thumbnail":{"default":"https://cdn.freshful.ro/media/cache/sylius_shop_product_thumbnail/b9/4f/5522a848e76bcc600d7a93694d9a.jpg"},"large":{"default":"https://cdn.freshful.ro/media/cache/freshful_large/b9/4f/5522a848e76bcc600d7a93694d9a.jpg"},"extralarge":{"default":"https://cdn.freshful.ro/media/cache/sylius_shop_product_original/b9/4f/5522a848e76bcc600d7a93694d9a.jpg"}},"label":{"text":"Profită acum","backgroundColor":"#FF9903","textColor":"#FFFFFF"},"tags":[],"isAvailable":true,"maxAvailableQuantity":10,"maxAllowedQuantity":100,"breadcrumbs":[{"code":"9","name":"Dulciuri & mic dejun","slug":"9-ceva-dulce"},{"code":"904","name":"Cafea și ceai","slug":"904-cafea-si-ceai"},{"code":"90402","name":"Cafea boabe","slug":"90402-cafea-boabe"},{"code":"100129735","name":"Cafea boabe Espresso Milano Style 1kg","slug":"100129735-tchibo-cafea-boabe-espresso-milano-style-1kg"}],"activePromotion":{"code":"freshful-top-deals-2023","name":"Preț avantajos","targetQuantity":null},"saveMe":null,"labels":[{"type":"v1","items":[{"text":"Profită acum","backgroundColor":"#FF9903","textColor":"#FFFFFF"}]}],"geniusPrice":null,"geniusUnitPricePerLabel":null,"banner":{"text":"Preț avantajos","textColor":"#F95510","bgColor":"#FEF1CD","icon":null,"link":"https://www.freshful.ro/oferte/freshful-top-deals-2023","type":"promo","analyticsEventType":"select_promotion","analyticsEventPayload":{"promotion_id":"freshful-top-deals-2023","promotion_name":"Profită de Top Deals"}},"discountLabel":null,"geniusDiscountLabel":null,"badge":null},{"code":"100087185","variantCode":"8711000464625","name":"Cafea boabe Colombia 500g","slug":"100087185-l-or-cafea-boabe-colombia-500g","unitPriceLabel":"99,98 Lei/kg","brand":"L'OR","brandCode":"750","brandFilterCode":"l-or-b751","sku":"100087185","price":49.99,"originalPrice":57.5,"currencyCode":"RON","currency":"Lei","image":{"thumbnail":{"default":"https://cdn.freshful.ro/media/cache/sylius_shop_product_thumbnail/56/32/d73247d4a955ce450684c8e92ab0.jpg"},"large":{"default":"https://cdn.freshful.ro/media/cache/freshful_large/56/32/d73247d4a955ce450684c8e92ab0.jpg"},"extralarge":{"default":"https://cdn.freshful.ro/media/cache/sylius_shop_product_original/56/32/d73247d4a955ce450684c8e92ab0.jpg"}},"label":{"text":"-13%","backgroundColor":"#FF9903","textColor":"#FFFFFF"},"tags":[],"isAvailable":true,"maxAvailableQuantity":28,"maxAllowedQuantity":100,"breadcrumbs":[{"code":"9","name":"Dulciuri & mic dejun","slug":"9-ceva-dulce"},{"code":"904","name":"Cafea și ceai","slug":"904-cafea-si-ceai"},{"code":"90402","name":"Cafea boabe","slug":"90402-cafea-boabe"},{"code":"100087185","name":"Cafea boabe Colombia 500g","slug":"100087185-l-or-cafea-boabe-colombia-500g"}],"activePromotion":{"code":"special-bacanie-bauturi-mar23","name":"Preț redus","targetQuantity":null},"saveMe":null,"labels":[{"type":"v1","items":[{"text":"-13%","backgroundColor":"#FF9903","textColor":"#FFFFFF"}]}],"geniusPrice":null,"geniusUnitPricePerLabel":null,"banner":{"text":"Super preț","textColor":"#FF0000","bgColor":"#FFF2EC","icon":null,"link":"https://www.freshful.ro/oferte/special-bacanie-bauturi-mar23","type":"promo","analyticsEventType":"select_promotion","analyticsEventPayload":{"promotion_id":"special-bacanie-bauturi-mar23","promotion_name":"Prețuri speciale pentru Ziua Femeii"}},"discountLabel":"Economisești 13%","geniusDiscountLabel":null,"badge":null},{"code":"100117092","variantCode":"100117092","name":"Cafea boabe Barista Crema 1kg","slug":"100117092-jacobs-cafea-boabe-barista-crema-1kg","unitPriceLabel":"69,99 Lei/buc","brand":"Jacobs","brandCode":"751","brandFilterCode":"jacobs-b752","sku":"100117092","price":69.99,"originalPrice":75.49,"currencyCode":"RON","currency":"Lei","image":{"thumbnail":{"default":"https://cdn.freshful.ro/media/cache/sylius_shop_product_thumbnail/eb/1e/4723f1275af04b178ed3c530a5b0.jpg"},"large":{"default":"https://cdn.freshful.ro/media/cache/freshful_large/eb/1e/4723f1275af04b178ed3c530a5b0.jpg"},"extralarge":{"default":"https://cdn.freshful.ro/media/cache/sylius_shop_product_original/eb/1e/4723f1275af04b178ed3c530a5b0.jpg"}},"label":{"text":"-7%","backgroundColor":"#FF9903","textColor":"#FFFFFF"},"tags":[],"isAvailable":true,"maxAvailableQuantity":28,"maxAllowedQuantity":100,"breadcrumbs":[{"code":"9","name":"Dulciuri & mic dejun","slug":"9-ceva-dulce"},{"code":"904","name":"Cafea și ceai","slug":"904-cafea-si-ceai"},{"code":"90402","name":"Cafea boabe","slug":"90402-cafea-boabe"},{"code":"100117092","name":"Cafea boabe Barista Crema 1kg","slug":"100117092-jacobs-cafea-boabe-barista-crema-1kg"}],"activePromotion":{"code":"oferte-bacanie-bauturi-21feb-8mar23","name":"Preț redus","targetQuantity":null},"saveMe":null,"labels":[{"type":"v1","items":[{"text":"-7%","backgroundColor":"#FF9903","textColor":"#FFFFFF"}]}],"geniusPrice":null,"geniusUnitPricePerLabel":null,"banner":{"text":"Super preț","textColor":"#FF0000","bgColor":"#FFF2EC","icon":null,"link":"https://www.freshful.ro/oferte/oferte-bacanie-bauturi-21feb-8mar23","type":"promo","analyticsEventType":"select_promotion","analyticsEventPayload":{"promotion_id":"oferte-bacanie-bauturi-21feb-8mar23","promotion_name":"Cămara cu băuturi și bunătăți"}},"discountLabel":"Economisești 7%","geniusDiscountLabel":null,"badge":null},{"code":"100117123","variantCode":"100117123","name":"Cafea boabe Crema e aroma 1kg","slug":"100117123-lavazza-cafea-boabe-crema-e-aroma-1kg","unitPriceLabel":"87,99 Lei/buc","brand":"Lavazza","brandCode":"161","brandFilterCode":"lavazza-b162","sku":"100117123","price":87.99,"originalPrice":null,"currencyCode":"RON","currency":"Lei","image":{"thumbnail":{"default":"https://cdn.freshful.ro/media/cache/sylius_shop_product_thumbnail/d4/d2/dd55f3950f334e27e0b342b48ef8.jpg"},"large":{"default":"https://cdn.freshful.ro/media/cache/freshful_large/d4/d2/dd55f3950f334e27e0b342b48ef8.jpg"},"extralarge":{"default":"https://cdn.freshful.ro/media/cache/sylius_shop_product_original/d4/d2/dd55f3950f334e27e0b342b48ef8.jpg"}},"label":null,"tags":[],"isAvailable":true,"maxAvailableQuantity":79,"maxAllowedQuantity":100,"breadcrumbs":[{"code":"9","name":"Dulciuri & mic dejun","slug":"9-ceva-dulce"},{"code":"904","name":"Cafea și ceai","slug":"904-cafea-si-ceai"},{"code":"90402","name":"Cafea boabe","slug":"90402-cafea-boabe"},{"code":"100117123","name":"Cafea boabe Crema e aroma 1kg","slug":"100117123-lavazza-cafea-boabe-crema-e-aroma-1kg"}],"activePromotion":null,"saveMe":null,"labels":[],"geniusPrice":null,"geniusUnitPricePerLabel":null,"banner":null,"discountLabel":null,"geniusDiscountLabel":null,"badge":null},{"code":"100127659","variantCode":"7613036932073","name":"Cafea boabe Blonde Espresso Roast 200g","slug":"100127659-starbucks-cafea-boabe-blonde-espresso-roast-200g","unitPriceLabel":"120,85 Lei/kg","brand":"Starbucks","brandCode":"226","brandFilterCode":"starbucks-b227","sku":"100127659","price":25.5,"originalPrice":null,"currencyCode":"RON","currency":"Lei","image":{"thumbnail":{"default":"https://cdn.freshful.ro/media/cache/sylius_shop_product_thumbnail/e4/6d/bd09d0f1393ecacbe362dae891fb.jpg"},"large":{"default":"https://cdn.freshful.ro/media/cache/freshful_large/e4/6d/bd09d0f1393ecacbe362dae891fb.jpg"},"extralarge":{"default":"https://cdn.freshful.ro/media/cache/sylius_shop_product_original/e4/6d/bd09d0f1393ecacbe362dae891fb.jpg"}},"label":null,"tags":[],"isAvailable":true,"maxAvailableQuantity":84,"maxAllowedQuantity":100,"breadcrumbs":[{"code":"9","name":"Dulciuri & mic dejun","slug":"9-ceva-dulce"},{"code":"904","name":"Cafea și ceai","slug":"904-cafea-si-ceai"},{"code":"90402","name":"Cafea boabe","slug":"90402-cafea-boabe"},{"code":"100127659","name":"Cafea boabe Blonde Espresso Roast 200g","slug":"100127659-starbucks-cafea-boabe-blonde-espresso-roast-200g"}],"activePromotion":null,"saveMe":null,"labels":[],"geniusPrice":null,"geniusUnitPricePerLabel":null,"banner":null,"discountLabel":null,"geniusDiscountLabel":null,"badge":null},{"code":"100043179","variantCode":"5941623008828","name":"Cafea boabe prăjită 500g","slug":"100043179-doncafe-cafea-boabe-prajita-500g","unitPriceLabel":"67 Lei/kg","brand":"Doncafé","brandCode":"132","brandFilterCode":"doncafe-b116","sku":"100043179","price":33.5,"originalPrice":null,"currencyCode":"RON","currency":"Lei","image":{"thumbnail":{"default":"https://cdn.freshful.ro/media/cache/sylius_shop_product_thumbnail/9c/76/4993890ec2ac790ea0c4bb97d88d.jpg"},"large":{"default":"https://cdn.freshful.ro/media/cache/freshful_large/9c/76/4993890ec2ac790ea0c4bb97d88d.jpg"},"extralarge":{"default":"https://cdn.freshful.ro/media/cache/sylius_shop_product_original/9c/76/4993890ec2ac790ea0c4bb97d88d.jpg"}},"label":null,"tags":[],"isAvailable":true,"maxAvailableQuantity":50,"maxAllowedQuantity":100,"breadcrumbs":[{"code":"9","name":"Dulciuri & mic dejun","slug":"9-ceva-dulce"},{"code":"904","name":"Cafea și ceai","slug":"904-cafea-si-ceai"},{"code":"90402","name":"Cafea boabe","slug":"90402-cafea-boabe"},{"code":"100043179","name":"Cafea boabe prăjită 500g","slug":"100043179-doncafe-cafea-boabe-prajita-500g"}],"activePromotion":null,"saveMe":null,"labels":[],"geniusPrice":null,"geniusUnitPricePerLabel":null,"banner":null,"discountLabel":null,"geniusDiscountLabel":null,"badge":null},{"code":"100117145","variantCode":"100117145","name":"Cafea boabe Intermezzo 1kg","slug":"100117145-segafredo-cafea-boabe-intermezzo-1kg","unitPriceLabel":"48,69 Lei/buc","brand":"Segafredo","brandCode":"1977","brandFilterCode":"segafredo-b1981","sku":"100117145","price":48.69,"originalPrice":null,"currencyCode":"RON","currency":"Lei","image":{"thumbnail":{"default":"https://cdn.freshful.ro/media/cache/sylius_shop_product_thumbnail/89/01/7893aab46479f97ed9f44e695d0e.jpg"},"large":{"default":"https://cdn.freshful.ro/media/cache/freshful_large/89/01/7893aab46479f97ed9f44e695d0e.jpg"},"extralarge":{"default":"https://cdn.freshful.ro/media/cache/sylius_shop_product_original/89/01/7893aab46479f97ed9f44e695d0e.jpg"}},"label":null,"tags":[],"isAvailable":true,"maxAvailableQuantity":38,"maxAllowedQuantity":100,"breadcrumbs":[{"code":"9","name":"Dulciuri & mic dejun","slug":"9-ceva-dulce"},{"code":"904","name":"Cafea și ceai","slug":"904-cafea-si-ceai"},{"code":"90402","name":"Cafea boabe","slug":"90402-cafea-boabe"},{"code":"100117145","name":"Cafea boabe Intermezzo 1kg","slug":"100117145-segafredo-cafea-boabe-intermezzo-1kg"}],"activePromotion":null,"saveMe":null,"labels":[],"geniusPrice":null,"geniusUnitPricePerLabel":null,"banner":null,"discountLabel":null,"geniusDiscountLabel":null,"badge":null}],"filters":{"countSelected":0,"items":[{"code":"promotion","name":"Promoții","countSelected":0,"values":[{"code":"oferte-bacanie-bauturi-21feb-8mar23","name":"Cămara cu băuturi și bunătăți","isSelected":false,"count":1},{"code":"special-bacanie-bauturi-mar23","name":"Prețuri speciale pentru Ziua Femeii","isSelected":false,"count":2},{"code":"freshful-top-deals-2023","name":"Profită de Top Deals","isSelected":false,"count":2}]},{"code":"brand","name":"Brand","countSelected":0,"values":[{"code":"all-for-nature-b2147","name":"All For Nature","isSelected":false,"count":1},{"code":"bazzara-b1807","name":"Bazzara","isSelected":false,"count":1},{"code":"beanz-cafe-b119","name":"BeanZ Café","isSelected":false,"count":4},{"code":"carraro-b1808","name":"Carraro","isSelected":false,"count":1},{"code":"costa-coffee-b291","name":"Costa Coffee","isSelected":false,"count":4},{"code":"dallmayr-b1971","name":"Dallmayr","isSelected":false,"count":4},{"code":"davidoff-b1157","name":"Davidoff","isSelected":false,"count":1},{"code":"dolce-bacio-flavored-coffee-b85","name":"Dolce Bacio Flavored Coffee","isSelected":false,"count":4},{"code":"doncafe-b116","name":"Doncafé","isSelected":false,"count":8},{"code":"douwe-egberts-b2857","name":"Douwe Egberts","isSelected":false,"count":2},{"code":"fort-b117","name":"Fort","isSelected":false,"count":1},{"code":"fortuna-b1248","name":"Fortuna","isSelected":false,"count":2},{"code":"gold-mocca-b1798","name":"Gold Mocca","isSelected":false,"count":1},{"code":"hausbrandt-b1975","name":"Hausbrandt","isSelected":false,"count":2},{"code":"illy-b1810","name":"Illy","isSelected":false,"count":7},{"code":"jacobs-b752","name":"Jacobs","isSelected":false,"count":15},{"code":"julius-meinl-b1707","name":"Julius Meinl","isSelected":false,"count":8},{"code":"kimbo-b657","name":"Kimbo","isSelected":false,"count":2},{"code":"l-or-b751","name":"L'OR","isSelected":false,"count":3},{"code":"lavazza-b162","name":"Lavazza","isSelected":false,"count":5},{"code":"malongo-b1062","name":"Malongo","isSelected":false,"count":3},{"code":"melitta-b1811","name":"Melitta","isSelected":false,"count":1},{"code":"motta-b2351","name":"Motta","isSelected":false,"count":1},{"code":"movenpick-b746","name":"Mövenpick","isSelected":false,"count":4},{"code":"nerro-nobile-b2000","name":"Nerro Nobile","isSelected":false,"count":1},{"code":"pellini-b108","name":"Pellini","isSelected":false,"count":1},{"code":"rombouts-b2840","name":"Rombouts","isSelected":false,"count":1},{"code":"segafredo-b1981","name":"Segafredo","isSelected":false,"count":2},{"code":"splendid-b3263","name":"Splendid","isSelected":false,"count":1},{"code":"starbucks-b227","name":"Starbucks","isSelected":false,"count":3},{"code":"stretto-b1797","name":"Stretto","isSelected":false,"count":4},{"code":"tchibo-b2412","name":"Tchibo","isSelected":false,"count":3},{"code":"varanini-b2002","name":"Varanini","isSelected":false,"count":1},{"code":"vergnano-b1983","name":"Vergnano","isSelected":false,"count":2}]}]},"orderBy":[{"field":"price","direction":"asc","name":"Preț crescător","isSelected":false},{"field":"price","direction":"desc","name":"Preț descrescător","isSelected":false},{"field":"popularity","direction":"desc","name":"Cele mai populare","isSelected":true},{"field":"category","direction":"asc","name":"Categorie","isSelected":false}],"metaTitle":"Cafea boabe - Gamă variată","metaDescription":"Vrei Cafea boabe? Alege dintr-o gamă variată. Comanzi simplu și ai livrare rapidă, calitate și prospețime. Hai pe Freshful.ro","metaKeywords":null,"banners":[]}}