{"type":"subcategory","payload":{"analyticsListId":"category_90404-cafea-solubila","analyticsListName":"Category - Cafea solubilă","name":"Cafea solubilă","slug":"90404-cafea-solubila","image":null,"breadcrumbs":[{"code":"9","name":"Dulciuri & mic dejun","slug":"9-ceva-dulce"},{"code":"904","name":"Cafea și ceai","slug":"904-cafea-si-ceai"},{"code":"90404","name":"Cafea solubilă","slug":"90404-cafea-solubila"}],"slots":[],"page":1,"limit":10,"pages":5,"count":46,"siblings":[{"name":"Biscuiți, napolitane și prăjituri","slug":"902-biscuiti-napolitane-si-prajituri","selected":false},{"name":"Cereale și mic dejun","slug":"903-cereale-si-mic-dejun","selected":false},{"name":"Cafea și ceai","slug":"904-cafea-si-ceai","selected":true},{"name":"Bomboane și ciocolată","slug":"905-bomboane-si-ciocolata","selected":false}],"children":[{"name":"Toate produsele","slug":"904-cafea-si-ceai","selected":false},{"name":"Cafea de specialitate","slug":"90401-cafea-de-specialitate","selected":false},{"name":"Cafea boabe","slug":"90402-cafea-boabe","selected":false},{"name":"Cafea măcinată","slug":"90403-cafea-macinata","selected":false},{"name":"Cafea solubilă","slug":"90404-cafea-solubila","selected":true},{"name":"Capsule","slug":"90405-capsule","selected":false},{"name":"Sirop cafea","slug":"90406-filtre-cafea","selected":false},{"name":"Cicoare și lapte condensat","slug":"90407-cicoare-si-lapte-concentrat","selected":false},{"name":"Cappuccino și mixuri","slug":"90408-capuccino-si-mixuri","selected":false},{"name":"Ciocolată caldă","slug":"90409-ciocolata-calda","selected":false},{"name":"Ceai negru","slug":"90410-ceai-negru","selected":false},{"name":"Ceai verde","slug":"90411-ceai-verde","selected":false},{"name":"Ceai din fructe","slug":"90412-ceai-din-fructe","selected":false},{"name":"Ceai din plante","slug":"90413-ceai-din-plante","selected":false},{"name":"Ceai de specialitate","slug":"90414-ceai-de-specialitate","selected":false}],"products":[{"code":"100117055","variantCode":"100117055","name":"Cafea instant Rich Aroma 100g ","slug":"100117055-davidoff-cafea-instant-rich-aroma-100g","unitPriceLabel":"33,5 Lei/buc","brand":"Davidoff","brandCode":"1156","brandFilterCode":"davidoff-b1157","sku":"100117055","price":33.5,"originalPrice":null,"currencyCode":"RON","currency":"Lei","image":{"thumbnail":{"default":"https://cdn.freshful.ro/media/cache/sylius_shop_product_thumbnail/70/43/d4f5b0c16b643ff0d3b23d29298f.jpg"},"large":{"default":"https://cdn.freshful.ro/media/cache/freshful_large/70/43/d4f5b0c16b643ff0d3b23d29298f.jpg"},"extralarge":{"default":"https://cdn.freshful.ro/media/cache/sylius_shop_product_original/70/43/d4f5b0c16b643ff0d3b23d29298f.jpg"}},"label":null,"tags":[],"isAvailable":true,"maxAvailableQuantity":20,"maxAllowedQuantity":100,"breadcrumbs":[{"code":"9","name":"Dulciuri & mic dejun","slug":"9-ceva-dulce"},{"code":"904","name":"Cafea și ceai","slug":"904-cafea-si-ceai"},{"code":"90404","name":"Cafea solubilă","slug":"90404-cafea-solubila"},{"code":"100117055","name":"Cafea instant Rich Aroma 100g ","slug":"100117055-davidoff-cafea-instant-rich-aroma-100g"}],"activePromotion":null,"saveMe":null,"labels":[],"geniusPrice":null,"geniusUnitPricePerLabel":null,"banner":null,"discountLabel":null,"geniusDiscountLabel":null,"badge":null},{"code":"100087218","variantCode":"8711000514009","name":"Cafea instant 3în1 Intense plicuri 24*17.5g","slug":"100087218-jacobs-cafea-instant-3in1-intense-plicuri-24-17-5g","unitPriceLabel":"","brand":"Jacobs","brandCode":"751","brandFilterCode":"jacobs-b752","sku":"100087218","price":18.67,"originalPrice":null,"currencyCode":"RON","currency":"Lei","image":{"thumbnail":{"default":"https://cdn.freshful.ro/media/cache/sylius_shop_product_thumbnail/0b/35/43220580f8ba42623b131e5d0cdf.jpg"},"large":{"default":"https://cdn.freshful.ro/media/cache/freshful_large/0b/35/43220580f8ba42623b131e5d0cdf.jpg"},"extralarge":{"default":"https://cdn.freshful.ro/media/cache/sylius_shop_product_original/0b/35/43220580f8ba42623b131e5d0cdf.jpg"}},"label":null,"tags":[],"isAvailable":true,"maxAvailableQuantity":17,"maxAllowedQuantity":100,"breadcrumbs":[{"code":"9","name":"Dulciuri & mic dejun","slug":"9-ceva-dulce"},{"code":"904","name":"Cafea și ceai","slug":"904-cafea-si-ceai"},{"code":"90404","name":"Cafea solubilă","slug":"90404-cafea-solubila"},{"code":"100087218","name":"Cafea instant 3în1 Intense plicuri 24*17.5g","slug":"100087218-jacobs-cafea-instant-3in1-intense-plicuri-24-17-5g"}],"activePromotion":null,"saveMe":null,"labels":[],"geniusPrice":null,"geniusUnitPricePerLabel":null,"banner":null,"discountLabel":null,"geniusDiscountLabel":null,"badge":null},{"code":"100127647","variantCode":"7613032144296","name":"Cafea instant 200g","slug":"100127647-nescafe-brasero-cafea-instant-200g","unitPriceLabel":"38,89 Lei/kg","brand":"Nescafé Brasero","brandCode":"2293","brandFilterCode":"nescafe-brasero-b2292","sku":"100127647","price":24.5,"originalPrice":null,"currencyCode":"RON","currency":"Lei","image":{"thumbnail":{"default":"https://cdn.freshful.ro/media/cache/sylius_shop_product_thumbnail/f8/ec/563fc3b776d91b998e4fbc0f2196.jpg"},"large":{"default":"https://cdn.freshful.ro/media/cache/freshful_large/f8/ec/563fc3b776d91b998e4fbc0f2196.jpg"},"extralarge":{"default":"https://cdn.freshful.ro/media/cache/sylius_shop_product_original/f8/ec/563fc3b776d91b998e4fbc0f2196.jpg"}},"label":null,"tags":[],"isAvailable":true,"maxAvailableQuantity":44,"maxAllowedQuantity":100,"breadcrumbs":[{"code":"9","name":"Dulciuri & mic dejun","slug":"9-ceva-dulce"},{"code":"904","name":"Cafea și ceai","slug":"904-cafea-si-ceai"},{"code":"90404","name":"Cafea solubilă","slug":"90404-cafea-solubila"},{"code":"100127647","name":"Cafea instant 200g","slug":"100127647-nescafe-brasero-cafea-instant-200g"}],"activePromotion":null,"saveMe":null,"labels":[],"geniusPrice":null,"geniusUnitPricePerLabel":null,"banner":null,"discountLabel":null,"geniusDiscountLabel":null,"badge":null},{"code":"100043199","variantCode":"100043199","name":"Pachet de energie cafea solubilă 250g","slug":"100043199-amigo-pachet-de-energie-cafea-solubila-250g","unitPriceLabel":"115,96 Lei/kg","brand":"Amigo","brandCode":"134","brandFilterCode":"amigo-b118","sku":"100043199","price":28.99,"originalPrice":null,"currencyCode":"RON","currency":"Lei","image":{"thumbnail":{"default":"https://cdn.freshful.ro/media/cache/sylius_shop_product_thumbnail/11/b6/7cf4f52181f57584952be344473f.jpg"},"large":{"default":"https://cdn.freshful.ro/media/cache/freshful_large/11/b6/7cf4f52181f57584952be344473f.jpg"},"extralarge":{"default":"https://cdn.freshful.ro/media/cache/sylius_shop_product_original/11/b6/7cf4f52181f57584952be344473f.jpg"}},"label":null,"tags":[],"isAvailable":true,"maxAvailableQuantity":18,"maxAllowedQuantity":100,"breadcrumbs":[{"code":"9","name":"Dulciuri & mic dejun","slug":"9-ceva-dulce"},{"code":"904","name":"Cafea și ceai","slug":"904-cafea-si-ceai"},{"code":"90404","name":"Cafea solubilă","slug":"90404-cafea-solubila"},{"code":"100043199","name":"Pachet de energie cafea solubilă 250g","slug":"100043199-amigo-pachet-de-energie-cafea-solubila-250g"}],"activePromotion":null,"saveMe":null,"labels":[],"geniusPrice":null,"geniusUnitPricePerLabel":null,"banner":null,"discountLabel":null,"geniusDiscountLabel":null,"badge":null},{"code":"100131120","variantCode":"100131120","name":"Băutură instant Cappuccino Irish Cream plicuri 8*22g","slug":"100131120-la-festa-bautura-instant-cappuccino-irish-cream-plicuri-8-22g","unitPriceLabel":"47,78 Lei/kg","brand":"La Festa","brandCode":"453","brandFilterCode":"la-festa-b454","sku":"100131120","price":8.41,"originalPrice":null,"currencyCode":"RON","currency":"Lei","image":{"thumbnail":{"default":"https://cdn.freshful.ro/media/cache/sylius_shop_product_thumbnail/9d/d9/12a094a4472d3c1e384843eaf330.jpg"},"large":{"default":"https://cdn.freshful.ro/media/cache/freshful_large/9d/d9/12a094a4472d3c1e384843eaf330.jpg"},"extralarge":{"default":"https://cdn.freshful.ro/media/cache/sylius_shop_product_original/9d/d9/12a094a4472d3c1e384843eaf330.jpg"}},"label":null,"tags":[],"isAvailable":true,"maxAvailableQuantity":45,"maxAllowedQuantity":100,"breadcrumbs":[{"code":"9","name":"Dulciuri & mic dejun","slug":"9-ceva-dulce"},{"code":"904","name":"Cafea și ceai","slug":"904-cafea-si-ceai"},{"code":"90404","name":"Cafea solubilă","slug":"90404-cafea-solubila"},{"code":"100131120","name":"Băutură instant Cappuccino Irish Cream plicuri 8*22g","slug":"100131120-la-festa-bautura-instant-cappuccino-irish-cream-plicuri-8-22g"}],"activePromotion":null,"saveMe":null,"labels":[],"geniusPrice":null,"geniusUnitPricePerLabel":null,"banner":null,"discountLabel":null,"geniusDiscountLabel":null,"badge":null},{"code":"100087208","variantCode":"8711000513675","name":"Cafea solubilă Cappuccino Original plicuri 8*11.6g","slug":"100087208-jacobs-cafea-solubila-cappuccino-original-plicuri-8-11-6g","unitPriceLabel":"85 Lei/kg","brand":"Jacobs","brandCode":"751","brandFilterCode":"jacobs-b752","sku":"100087208","price":12.24,"originalPrice":null,"currencyCode":"RON","currency":"Lei","image":{"thumbnail":{"default":"https://cdn.freshful.ro/media/cache/sylius_shop_product_thumbnail/fa/76/80753d6e521fcbd13f16f2d7d01e.jpg"},"large":{"default":"https://cdn.freshful.ro/media/cache/freshful_large/fa/76/80753d6e521fcbd13f16f2d7d01e.jpg"},"extralarge":{"default":"https://cdn.freshful.ro/media/cache/sylius_shop_product_original/fa/76/80753d6e521fcbd13f16f2d7d01e.jpg"}},"label":null,"tags":[],"isAvailable":true,"maxAvailableQuantity":53,"maxAllowedQuantity":100,"breadcrumbs":[{"code":"9","name":"Dulciuri & mic dejun","slug":"9-ceva-dulce"},{"code":"904","name":"Cafea și ceai","slug":"904-cafea-si-ceai"},{"code":"90404","name":"Cafea solubilă","slug":"90404-cafea-solubila"},{"code":"100087208","name":"Cafea solubilă Cappuccino Original plicuri 8*11.6g","slug":"100087208-jacobs-cafea-solubila-cappuccino-original-plicuri-8-11-6g"}],"activePromotion":null,"saveMe":null,"labels":[],"geniusPrice":null,"geniusUnitPricePerLabel":null,"banner":null,"discountLabel":null,"geniusDiscountLabel":null,"badge":null},{"code":"100087213","variantCode":"8711000515419","name":"Cafea solubilă instant Kronung 100g","slug":"100087213-jacobs-cafea-solubila-instant-kronung-100g","unitPriceLabel":"255 Lei/kg","brand":"Jacobs","brandCode":"751","brandFilterCode":"jacobs-b752","sku":"100087213","price":25.5,"originalPrice":null,"currencyCode":"RON","currency":"Lei","image":{"thumbnail":{"default":"https://cdn.freshful.ro/media/cache/sylius_shop_product_thumbnail/61/33/b6cefdf16ef3fe171ec548fa5844.jpg"},"large":{"default":"https://cdn.freshful.ro/media/cache/freshful_large/61/33/b6cefdf16ef3fe171ec548fa5844.jpg"},"extralarge":{"default":"https://cdn.freshful.ro/media/cache/sylius_shop_product_original/61/33/b6cefdf16ef3fe171ec548fa5844.jpg"}},"label":null,"tags":[],"isAvailable":true,"maxAvailableQuantity":27,"maxAllowedQuantity":100,"breadcrumbs":[{"code":"9","name":"Dulciuri & mic dejun","slug":"9-ceva-dulce"},{"code":"904","name":"Cafea și ceai","slug":"904-cafea-si-ceai"},{"code":"90404","name":"Cafea solubilă","slug":"90404-cafea-solubila"},{"code":"100087213","name":"Cafea solubilă instant Kronung 100g","slug":"100087213-jacobs-cafea-solubila-instant-kronung-100g"}],"activePromotion":null,"saveMe":null,"labels":[],"geniusPrice":null,"geniusUnitPricePerLabel":null,"banner":null,"discountLabel":null,"geniusDiscountLabel":null,"badge":null},{"code":"100087217","variantCode":"8711000517338","name":"Cafea instant 3în1 Ice coffee plicuri 24*18g","slug":"100087217-jacobs-cafea-instant-3in1-ice-coffee-plicuri-24-18g","unitPriceLabel":"","brand":"Jacobs","brandCode":"751","brandFilterCode":"jacobs-b752","sku":"100087217","price":18.48,"originalPrice":null,"currencyCode":"RON","currency":"Lei","image":{"thumbnail":{"default":"https://cdn.freshful.ro/media/cache/sylius_shop_product_thumbnail/10/39/dbf6bfb288cbbcb2572931f3eaef.jpg"},"large":{"default":"https://cdn.freshful.ro/media/cache/freshful_large/10/39/dbf6bfb288cbbcb2572931f3eaef.jpg"},"extralarge":{"default":"https://cdn.freshful.ro/media/cache/sylius_shop_product_original/10/39/dbf6bfb288cbbcb2572931f3eaef.jpg"}},"label":null,"tags":[],"isAvailable":true,"maxAvailableQuantity":14,"maxAllowedQuantity":100,"breadcrumbs":[{"code":"9","name":"Dulciuri & mic dejun","slug":"9-ceva-dulce"},{"code":"904","name":"Cafea și ceai","slug":"904-cafea-si-ceai"},{"code":"90404","name":"Cafea solubilă","slug":"90404-cafea-solubila"},{"code":"100087217","name":"Cafea instant 3în1 Ice coffee plicuri 24*18g","slug":"100087217-jacobs-cafea-instant-3in1-ice-coffee-plicuri-24-18g"}],"activePromotion":null,"saveMe":null,"labels":[],"geniusPrice":null,"geniusUnitPricePerLabel":null,"banner":null,"discountLabel":null,"geniusDiscountLabel":null,"badge":null},{"code":"100131119","variantCode":"100131119","name":"Băutură instant Cappuccino Toffee plicuri 8*22g","slug":"100131119-la-festa-bautura-instant-cappuccino-toffee-plicuri-8-22g","unitPriceLabel":"47,78 Lei/kg","brand":"La Festa","brandCode":"453","brandFilterCode":"la-festa-b454","sku":"100131119","price":8.41,"originalPrice":null,"currencyCode":"RON","currency":"Lei","image":{"thumbnail":{"default":"https://cdn.freshful.ro/media/cache/sylius_shop_product_thumbnail/c8/b6/5b094e4d801e3c1ca6266a35e6bb.jpg"},"large":{"default":"https://cdn.freshful.ro/media/cache/freshful_large/c8/b6/5b094e4d801e3c1ca6266a35e6bb.jpg"},"extralarge":{"default":"https://cdn.freshful.ro/media/cache/sylius_shop_product_original/c8/b6/5b094e4d801e3c1ca6266a35e6bb.jpg"}},"label":null,"tags":[],"isAvailable":true,"maxAvailableQuantity":25,"maxAllowedQuantity":100,"breadcrumbs":[{"code":"9","name":"Dulciuri & mic dejun","slug":"9-ceva-dulce"},{"code":"904","name":"Cafea și ceai","slug":"904-cafea-si-ceai"},{"code":"90404","name":"Cafea solubilă","slug":"90404-cafea-solubila"},{"code":"100131119","name":"Băutură instant Cappuccino Toffee plicuri 8*22g","slug":"100131119-la-festa-bautura-instant-cappuccino-toffee-plicuri-8-22g"}],"activePromotion":null,"saveMe":null,"labels":[],"geniusPrice":null,"geniusUnitPricePerLabel":null,"banner":null,"discountLabel":null,"geniusDiscountLabel":null,"badge":null},{"code":"100133305","variantCode":"100133305","name":"Cafea solubilă cappuccino caramel  plicuri 8*17.8g","slug":"100133305-jacobs-cafea-solubila-cappuccino-caramel-plicuri-8-17-8g","unitPriceLabel":"81,5 Lei/kg","brand":"Jacobs","brandCode":"751","brandFilterCode":"jacobs-b752","sku":"100133305","price":9.78,"originalPrice":null,"currencyCode":"RON","currency":"Lei","image":{"thumbnail":{"default":"https://cdn.freshful.ro/media/cache/sylius_shop_product_thumbnail/32/cb/ca96044ccff80c966b76c7c49be0.jpg"},"large":{"default":"https://cdn.freshful.ro/media/cache/freshful_large/32/cb/ca96044ccff80c966b76c7c49be0.jpg"},"extralarge":{"default":"https://cdn.freshful.ro/media/cache/sylius_shop_product_original/32/cb/ca96044ccff80c966b76c7c49be0.jpg"}},"label":null,"tags":[],"isAvailable":true,"maxAvailableQuantity":24,"maxAllowedQuantity":100,"breadcrumbs":[{"code":"9","name":"Dulciuri & mic dejun","slug":"9-ceva-dulce"},{"code":"904","name":"Cafea și ceai","slug":"904-cafea-si-ceai"},{"code":"90404","name":"Cafea solubilă","slug":"90404-cafea-solubila"},{"code":"100133305","name":"Cafea solubilă cappuccino caramel  plicuri 8*17.8g","slug":"100133305-jacobs-cafea-solubila-cappuccino-caramel-plicuri-8-17-8g"}],"activePromotion":null,"saveMe":null,"labels":[],"geniusPrice":null,"geniusUnitPricePerLabel":null,"banner":null,"discountLabel":null,"geniusDiscountLabel":null,"badge":null}],"filters":{"countSelected":0,"items":[{"code":"brand","name":"Brand","countSelected":0,"values":[{"code":"amigo-b118","name":"Amigo","isSelected":false,"count":6},{"code":"davidoff-b1157","name":"Davidoff","isSelected":false,"count":1},{"code":"doncafe-b116","name":"Doncafé","isSelected":false,"count":5},{"code":"fortuna-b1248","name":"Fortuna","isSelected":false,"count":2},{"code":"jacobs-b752","name":"Jacobs","isSelected":false,"count":11},{"code":"la-festa-b454","name":"La Festa","isSelected":false,"count":14},{"code":"nescafe-b67","name":"Nescafé","isSelected":false,"count":5},{"code":"nescafe-brasero-b2292","name":"Nescafé Brasero","isSelected":false,"count":2}]}]},"orderBy":[{"field":"price","direction":"asc","name":"Preț crescător","isSelected":false},{"field":"price","direction":"desc","name":"Preț descrescător","isSelected":false},{"field":"popularity","direction":"desc","name":"Cele mai populare","isSelected":true},{"field":"category","direction":"asc","name":"Categorie","isSelected":false}],"metaTitle":"Cafea solubilă - Gamă variată","metaDescription":"Vrei Cafea solubilă? Alege dintr-o gamă variată. Comanzi simplu și ai livrare rapidă, calitate și prospețime. Hai pe Freshful.ro","metaKeywords":null,"banners":[]}}