{"type":"subcategory","payload":{"analyticsListId":"category_90409-ciocolata-calda","analyticsListName":"Category - Ciocolată caldă","name":"Ciocolată caldă","slug":"90409-ciocolata-calda","image":null,"breadcrumbs":[{"code":"9","name":"Dulciuri & mic dejun","slug":"9-ceva-dulce"},{"code":"904","name":"Cafea și ceai","slug":"904-cafea-si-ceai"},{"code":"90409","name":"Ciocolată caldă","slug":"90409-ciocolata-calda"}],"slots":[],"page":1,"limit":10,"pages":2,"count":17,"siblings":[{"name":"Biscuiți, napolitane și prăjituri","slug":"902-biscuiti-napolitane-si-prajituri","selected":false},{"name":"Cereale și mic dejun","slug":"903-cereale-si-mic-dejun","selected":false},{"name":"Cafea și ceai","slug":"904-cafea-si-ceai","selected":true},{"name":"Bomboane și ciocolată","slug":"905-bomboane-si-ciocolata","selected":false}],"children":[{"name":"Toate produsele","slug":"904-cafea-si-ceai","selected":false},{"name":"Cafea de specialitate","slug":"90401-cafea-de-specialitate","selected":false},{"name":"Cafea boabe","slug":"90402-cafea-boabe","selected":false},{"name":"Cafea măcinată","slug":"90403-cafea-macinata","selected":false},{"name":"Cafea solubilă","slug":"90404-cafea-solubila","selected":false},{"name":"Capsule","slug":"90405-capsule","selected":false},{"name":"Sirop cafea","slug":"90406-filtre-cafea","selected":false},{"name":"Cicoare și lapte condensat","slug":"90407-cicoare-si-lapte-concentrat","selected":false},{"name":"Cappuccino și mixuri","slug":"90408-capuccino-si-mixuri","selected":false},{"name":"Ciocolată caldă","slug":"90409-ciocolata-calda","selected":true},{"name":"Ceai negru","slug":"90410-ceai-negru","selected":false},{"name":"Ceai verde","slug":"90411-ceai-verde","selected":false},{"name":"Ceai din fructe","slug":"90412-ceai-din-fructe","selected":false},{"name":"Ceai din plante","slug":"90413-ceai-din-plante","selected":false},{"name":"Ceai de specialitate","slug":"90414-ceai-de-specialitate","selected":false}],"products":[{"code":"100131129","variantCode":"100131129","name":"Ciocolată caldă Classic plicuri 10*25g","slug":"100131129-la-festa-ciocolata-calda-classic-plicuri-10-25g","unitPriceLabel":"35,96 Lei/kg","brand":"La Festa","brandCode":"453","brandFilterCode":"la-festa-b454","sku":"100131129","price":8.99,"originalPrice":null,"currencyCode":"RON","currency":"Lei","image":{"thumbnail":{"default":"https://cdn.freshful.ro/media/cache/sylius_shop_product_thumbnail/5a/9d/952279ee12654832390e754db380.jpg"},"large":{"default":"https://cdn.freshful.ro/media/cache/freshful_large/5a/9d/952279ee12654832390e754db380.jpg"},"extralarge":{"default":"https://cdn.freshful.ro/media/cache/sylius_shop_product_original/5a/9d/952279ee12654832390e754db380.jpg"}},"label":null,"tags":[],"isAvailable":true,"maxAvailableQuantity":100,"maxAllowedQuantity":100,"breadcrumbs":[{"code":"9","name":"Dulciuri & mic dejun","slug":"9-ceva-dulce"},{"code":"904","name":"Cafea și ceai","slug":"904-cafea-si-ceai"},{"code":"90409","name":"Ciocolată caldă","slug":"90409-ciocolata-calda"},{"code":"100131129","name":"Ciocolată caldă Classic plicuri 10*25g","slug":"100131129-la-festa-ciocolata-calda-classic-plicuri-10-25g"}],"activePromotion":null,"saveMe":null,"labels":[],"geniusPrice":null,"geniusUnitPricePerLabel":null,"banner":null,"discountLabel":null,"geniusDiscountLabel":null,"badge":null},{"code":"100044162","variantCode":"5998710960620","name":"Cacao instant cu vitamine și minerale 400g","slug":"100044162-nesquik-cacao-instant-cu-vitamine-si-minerale-400g","unitPriceLabel":"32,25 Lei/kg","brand":"Nesquik","brandCode":"6","brandFilterCode":"nesquik-b56","sku":"100044162","price":12.9,"originalPrice":null,"currencyCode":"RON","currency":"Lei","image":{"thumbnail":{"default":"https://cdn.freshful.ro/media/cache/sylius_shop_product_thumbnail/d6/f0/b1968b23cb3ef8a96001cb8759d4.jpg"},"large":{"default":"https://cdn.freshful.ro/media/cache/freshful_large/d6/f0/b1968b23cb3ef8a96001cb8759d4.jpg"},"extralarge":{"default":"https://cdn.freshful.ro/media/cache/sylius_shop_product_original/d6/f0/b1968b23cb3ef8a96001cb8759d4.jpg"}},"label":null,"tags":[{"type":"NoGluten","text":"Fara gluten","icon":"https://cdn.freshful.ro/assets/product_tags/fara_gluten.svg","iconPng":"https://cdn.freshful.ro/assets/product_tags/fara_gluten.png","backgroundColor":"#FFF2E5","textColor":"#F07900"}],"isAvailable":true,"maxAvailableQuantity":89,"maxAllowedQuantity":100,"breadcrumbs":[{"code":"9","name":"Dulciuri & mic dejun","slug":"9-ceva-dulce"},{"code":"904","name":"Cafea și ceai","slug":"904-cafea-si-ceai"},{"code":"90409","name":"Ciocolată caldă","slug":"90409-ciocolata-calda"},{"code":"100044162","name":"Cacao instant cu vitamine și minerale 400g","slug":"100044162-nesquik-cacao-instant-cu-vitamine-si-minerale-400g"}],"activePromotion":null,"saveMe":null,"labels":[],"geniusPrice":null,"geniusUnitPricePerLabel":null,"banner":null,"discountLabel":null,"geniusDiscountLabel":null,"badge":null},{"code":"100148606","variantCode":"100148606","name":"Ciocolată caldă pudră, Signature Chocolate 42%, 330g","slug":"100148606-starbucks-ciocolata-calda-pudra-signature-chocolate-42-330g","unitPriceLabel":"103,33 Lei/kg","brand":"Starbucks","brandCode":"226","brandFilterCode":"starbucks-b227","sku":"100148606","price":34.1,"originalPrice":null,"currencyCode":"RON","currency":"Lei","image":{"thumbnail":{"default":"https://cdn.freshful.ro/media/cache/sylius_shop_product_thumbnail/71/2b/27f9659a7d76ebb23a96f25f3bea.jpg"},"large":{"default":"https://cdn.freshful.ro/media/cache/freshful_large/71/2b/27f9659a7d76ebb23a96f25f3bea.jpg"},"extralarge":{"default":"https://cdn.freshful.ro/media/cache/sylius_shop_product_original/71/2b/27f9659a7d76ebb23a96f25f3bea.jpg"}},"label":null,"tags":[],"isAvailable":true,"maxAvailableQuantity":78,"maxAllowedQuantity":100,"breadcrumbs":[{"code":"9","name":"Dulciuri & mic dejun","slug":"9-ceva-dulce"},{"code":"904","name":"Cafea și ceai","slug":"904-cafea-si-ceai"},{"code":"90409","name":"Ciocolată caldă","slug":"90409-ciocolata-calda"},{"code":"100148606","name":"Ciocolată caldă pudră, Signature Chocolate 42%, 330g","slug":"100148606-starbucks-ciocolata-calda-pudra-signature-chocolate-42-330g"}],"activePromotion":null,"saveMe":null,"labels":[],"geniusPrice":null,"geniusUnitPricePerLabel":null,"banner":null,"discountLabel":null,"geniusDiscountLabel":null,"badge":null},{"code":"100131130","variantCode":"100131130","name":"Ciocolată caldă albă plicuri 10*25g","slug":"100131130-la-festa-ciocolata-calda-alba-plicuri-10-25g","unitPriceLabel":"35,96 Lei/kg","brand":"La Festa","brandCode":"453","brandFilterCode":"la-festa-b454","sku":"100131130","price":8.99,"originalPrice":null,"currencyCode":"RON","currency":"Lei","image":{"thumbnail":{"default":"https://cdn.freshful.ro/media/cache/sylius_shop_product_thumbnail/6c/ce/1e47c39f1e11d23952ccc2f76f1f.jpg"},"large":{"default":"https://cdn.freshful.ro/media/cache/freshful_large/6c/ce/1e47c39f1e11d23952ccc2f76f1f.jpg"},"extralarge":{"default":"https://cdn.freshful.ro/media/cache/sylius_shop_product_original/6c/ce/1e47c39f1e11d23952ccc2f76f1f.jpg"}},"label":null,"tags":[],"isAvailable":true,"maxAvailableQuantity":72,"maxAllowedQuantity":100,"breadcrumbs":[{"code":"9","name":"Dulciuri & mic dejun","slug":"9-ceva-dulce"},{"code":"904","name":"Cafea și ceai","slug":"904-cafea-si-ceai"},{"code":"90409","name":"Ciocolată caldă","slug":"90409-ciocolata-calda"},{"code":"100131130","name":"Ciocolată caldă albă plicuri 10*25g","slug":"100131130-la-festa-ciocolata-calda-alba-plicuri-10-25g"}],"activePromotion":null,"saveMe":null,"labels":[],"geniusPrice":null,"geniusUnitPricePerLabel":null,"banner":null,"discountLabel":null,"geniusDiscountLabel":null,"badge":null},{"code":"100131131","variantCode":"100131131","name":"Ciocolată caldă cu gust de caramel plicuri 10*25g","slug":"100131131-la-festa-ciocolata-calda-cu-gust-de-caramel-plicuri-10-25g","unitPriceLabel":"32,4 Lei/kg","brand":"La Festa","brandCode":"453","brandFilterCode":"la-festa-b454","sku":"100131131","price":8.1,"originalPrice":null,"currencyCode":"RON","currency":"Lei","image":{"thumbnail":{"default":"https://cdn.freshful.ro/media/cache/sylius_shop_product_thumbnail/19/09/eeed79ca151900aa47b9a5db2ecf.jpg"},"large":{"default":"https://cdn.freshful.ro/media/cache/freshful_large/19/09/eeed79ca151900aa47b9a5db2ecf.jpg"},"extralarge":{"default":"https://cdn.freshful.ro/media/cache/sylius_shop_product_original/19/09/eeed79ca151900aa47b9a5db2ecf.jpg"}},"label":null,"tags":[],"isAvailable":true,"maxAvailableQuantity":57,"maxAllowedQuantity":100,"breadcrumbs":[{"code":"9","name":"Dulciuri & mic dejun","slug":"9-ceva-dulce"},{"code":"904","name":"Cafea și ceai","slug":"904-cafea-si-ceai"},{"code":"90409","name":"Ciocolată caldă","slug":"90409-ciocolata-calda"},{"code":"100131131","name":"Ciocolată caldă cu gust de caramel plicuri 10*25g","slug":"100131131-la-festa-ciocolata-calda-cu-gust-de-caramel-plicuri-10-25g"}],"activePromotion":null,"saveMe":null,"labels":[],"geniusPrice":null,"geniusUnitPricePerLabel":null,"banner":null,"discountLabel":null,"geniusDiscountLabel":null,"badge":null},{"code":"100043705","variantCode":"5998710960569","name":"Cacao instant cu vitamine și minerale 800g","slug":"100043705-nesquik-cacao-instant-cu-vitamine-si-minerale-800g","unitPriceLabel":"30,63 Lei/kg","brand":"Nesquik","brandCode":"6","brandFilterCode":"nesquik-b56","sku":"100043705","price":24.5,"originalPrice":null,"currencyCode":"RON","currency":"Lei","image":{"thumbnail":{"default":"https://cdn.freshful.ro/media/cache/sylius_shop_product_thumbnail/b0/2e/3839b634f97f89ff38853ffbd251.jpg"},"large":{"default":"https://cdn.freshful.ro/media/cache/freshful_large/b0/2e/3839b634f97f89ff38853ffbd251.jpg"},"extralarge":{"default":"https://cdn.freshful.ro/media/cache/sylius_shop_product_original/b0/2e/3839b634f97f89ff38853ffbd251.jpg"}},"label":null,"tags":[{"type":"NoGluten","text":"Fara gluten","icon":"https://cdn.freshful.ro/assets/product_tags/fara_gluten.svg","iconPng":"https://cdn.freshful.ro/assets/product_tags/fara_gluten.png","backgroundColor":"#FFF2E5","textColor":"#F07900"}],"isAvailable":true,"maxAvailableQuantity":89,"maxAllowedQuantity":100,"breadcrumbs":[{"code":"9","name":"Dulciuri & mic dejun","slug":"9-ceva-dulce"},{"code":"904","name":"Cafea și ceai","slug":"904-cafea-si-ceai"},{"code":"90409","name":"Ciocolată caldă","slug":"90409-ciocolata-calda"},{"code":"100043705","name":"Cacao instant cu vitamine și minerale 800g","slug":"100043705-nesquik-cacao-instant-cu-vitamine-si-minerale-800g"}],"activePromotion":null,"saveMe":null,"labels":[],"geniusPrice":null,"geniusUnitPricePerLabel":null,"banner":null,"discountLabel":null,"geniusDiscountLabel":null,"badge":null},{"code":"100131132","variantCode":"100131132","name":"Ciocolată caldă Dark plicuri 10*25g","slug":"100131132-la-festa-ciocolata-calda-dark-plicuri-10-25g","unitPriceLabel":"32,4 Lei/kg","brand":"La Festa","brandCode":"453","brandFilterCode":"la-festa-b454","sku":"100131132","price":8.1,"originalPrice":null,"currencyCode":"RON","currency":"Lei","image":{"thumbnail":{"default":"https://cdn.freshful.ro/media/cache/sylius_shop_product_thumbnail/b1/4a/029c5a2c1a63bfa889f73ef460fd.jpg"},"large":{"default":"https://cdn.freshful.ro/media/cache/freshful_large/b1/4a/029c5a2c1a63bfa889f73ef460fd.jpg"},"extralarge":{"default":"https://cdn.freshful.ro/media/cache/sylius_shop_product_original/b1/4a/029c5a2c1a63bfa889f73ef460fd.jpg"}},"label":null,"tags":[],"isAvailable":true,"maxAvailableQuantity":42,"maxAllowedQuantity":100,"breadcrumbs":[{"code":"9","name":"Dulciuri & mic dejun","slug":"9-ceva-dulce"},{"code":"904","name":"Cafea și ceai","slug":"904-cafea-si-ceai"},{"code":"90409","name":"Ciocolată caldă","slug":"90409-ciocolata-calda"},{"code":"100131132","name":"Ciocolată caldă Dark plicuri 10*25g","slug":"100131132-la-festa-ciocolata-calda-dark-plicuri-10-25g"}],"activePromotion":null,"saveMe":null,"labels":[],"geniusPrice":null,"geniusUnitPricePerLabel":null,"banner":null,"discountLabel":null,"geniusDiscountLabel":null,"badge":null},{"code":"100043753","variantCode":"7613033160141","name":"Capsule ciocolată caldă Nesquik 16 băuturi 256g","slug":"100043753-nescafe-dolce-gusto-capsule-ciocolata-calda-nesquik-16-bauturi-256g","unitPriceLabel":"102,15 Lei/kg","brand":"Nescafé Dolce Gusto","brandCode":"291","brandFilterCode":"nescafe-dolce-gusto-b292","sku":"100043753","price":26.15,"originalPrice":null,"currencyCode":"RON","currency":"Lei","image":{"thumbnail":{"default":"https://cdn.freshful.ro/media/cache/sylius_shop_product_thumbnail/a9/cc/91d18b11f2cd768fac670ccd1df7.jpg"},"large":{"default":"https://cdn.freshful.ro/media/cache/freshful_large/a9/cc/91d18b11f2cd768fac670ccd1df7.jpg"},"extralarge":{"default":"https://cdn.freshful.ro/media/cache/sylius_shop_product_original/a9/cc/91d18b11f2cd768fac670ccd1df7.jpg"}},"label":null,"tags":[],"isAvailable":true,"maxAvailableQuantity":54,"maxAllowedQuantity":100,"breadcrumbs":[{"code":"9","name":"Dulciuri & mic dejun","slug":"9-ceva-dulce"},{"code":"904","name":"Cafea și ceai","slug":"904-cafea-si-ceai"},{"code":"90409","name":"Ciocolată caldă","slug":"90409-ciocolata-calda"},{"code":"100043753","name":"Capsule ciocolată caldă Nesquik 16 băuturi 256g","slug":"100043753-nescafe-dolce-gusto-capsule-ciocolata-calda-nesquik-16-bauturi-256g"}],"activePromotion":null,"saveMe":null,"labels":[],"geniusPrice":null,"geniusUnitPricePerLabel":null,"banner":null,"discountLabel":null,"geniusDiscountLabel":null,"badge":null},{"code":"100131135","variantCode":"100131135","name":"Cacao instant cu vitamine și calciu 350g","slug":"100131135-brumi-cacao-instant-cu-vitamine-si-calciu-350g","unitPriceLabel":"22,77 Lei/kg","brand":"Brumi","brandCode":"456","brandFilterCode":"brumi-b457","sku":"100131135","price":7.97,"originalPrice":null,"currencyCode":"RON","currency":"Lei","image":{"thumbnail":{"default":"https://cdn.freshful.ro/media/cache/sylius_shop_product_thumbnail/b5/67/4d5f32e95ef75e158008fa883569.jpg"},"large":{"default":"https://cdn.freshful.ro/media/cache/freshful_large/b5/67/4d5f32e95ef75e158008fa883569.jpg"},"extralarge":{"default":"https://cdn.freshful.ro/media/cache/sylius_shop_product_original/b5/67/4d5f32e95ef75e158008fa883569.jpg"}},"label":null,"tags":[],"isAvailable":true,"maxAvailableQuantity":13,"maxAllowedQuantity":100,"breadcrumbs":[{"code":"9","name":"Dulciuri & mic dejun","slug":"9-ceva-dulce"},{"code":"904","name":"Cafea și ceai","slug":"904-cafea-si-ceai"},{"code":"90409","name":"Ciocolată caldă","slug":"90409-ciocolata-calda"},{"code":"100131135","name":"Cacao instant cu vitamine și calciu 350g","slug":"100131135-brumi-cacao-instant-cu-vitamine-si-calciu-350g"}],"activePromotion":null,"saveMe":null,"labels":[],"geniusPrice":null,"geniusUnitPricePerLabel":null,"banner":null,"discountLabel":null,"geniusDiscountLabel":null,"badge":null},{"code":"100043747","variantCode":"7613035690660","name":"Capsule cafea Chococino 8 băuturi 256g","slug":"100043747-nescafe-dolce-gusto-capsule-cafea-chococino-8-bauturi-256g","unitPriceLabel":"102,15 Lei/kg","brand":"Nescafé Dolce Gusto","brandCode":"291","brandFilterCode":"nescafe-dolce-gusto-b292","sku":"100043747","price":26.15,"originalPrice":null,"currencyCode":"RON","currency":"Lei","image":{"thumbnail":{"default":"https://cdn.freshful.ro/media/cache/sylius_shop_product_thumbnail/5b/09/a1a2e19859e95cc9a0955fd27daf.jpg"},"large":{"default":"https://cdn.freshful.ro/media/cache/freshful_large/5b/09/a1a2e19859e95cc9a0955fd27daf.jpg"},"extralarge":{"default":"https://cdn.freshful.ro/media/cache/sylius_shop_product_original/5b/09/a1a2e19859e95cc9a0955fd27daf.jpg"}},"label":null,"tags":[],"isAvailable":true,"maxAvailableQuantity":69,"maxAllowedQuantity":100,"breadcrumbs":[{"code":"9","name":"Dulciuri & mic dejun","slug":"9-ceva-dulce"},{"code":"904","name":"Cafea și ceai","slug":"904-cafea-si-ceai"},{"code":"90409","name":"Ciocolată caldă","slug":"90409-ciocolata-calda"},{"code":"100043747","name":"Capsule cafea Chococino 8 băuturi 256g","slug":"100043747-nescafe-dolce-gusto-capsule-cafea-chococino-8-bauturi-256g"}],"activePromotion":null,"saveMe":null,"labels":[],"geniusPrice":null,"geniusUnitPricePerLabel":null,"banner":null,"discountLabel":null,"geniusDiscountLabel":null,"badge":null}],"filters":{"countSelected":0,"items":[{"code":"brand","name":"Brand","countSelected":0,"values":[{"code":"brumi-b457","name":"Brumi","isSelected":false,"count":1},{"code":"dr-oetker-b51","name":"Dr. Oetker","isSelected":false,"count":3},{"code":"hearts-b1976","name":"Hearts","isSelected":false,"count":1},{"code":"la-festa-b454","name":"La Festa","isSelected":false,"count":4},{"code":"nescafe-dolce-gusto-b292","name":"Nescafé Dolce Gusto","isSelected":false,"count":2},{"code":"nesquik-b56","name":"Nesquik","isSelected":false,"count":3},{"code":"starbucks-b227","name":"Starbucks","isSelected":false,"count":2},{"code":"tassimo-b750","name":"Tassimo","isSelected":false,"count":1}]},{"code":"diet_lifestyle","name":"Dietă și lifestyle","countSelected":0,"values":[{"code":"fara-gluten-a16","name":"Fara gluten","isSelected":false,"count":2}]}]},"orderBy":[{"field":"price","direction":"asc","name":"Preț crescător","isSelected":false},{"field":"price","direction":"desc","name":"Preț descrescător","isSelected":false},{"field":"popularity","direction":"desc","name":"Cele mai populare","isSelected":true},{"field":"category","direction":"asc","name":"Categorie","isSelected":false}],"metaTitle":"Ciocolată caldă - Gamă variată","metaDescription":"Vrei Ciocolată caldă? Alege dintr-o gamă variată. Comanzi simplu și ai livrare rapidă, calitate și prospețime. Hai pe Freshful.ro","metaKeywords":null,"banners":[]}}