{"type":"subcategory","payload":{"analyticsListId":"category_90405-capsule","analyticsListName":"Category - Capsule","name":"Capsule","slug":"90405-capsule","image":null,"breadcrumbs":[{"code":"9","name":"Dulciuri & mic dejun","slug":"9-ceva-dulce"},{"code":"904","name":"Cafea și ceai","slug":"904-cafea-si-ceai"},{"code":"90405","name":"Capsule","slug":"90405-capsule"}],"slots":[],"page":1,"limit":10,"pages":13,"count":128,"siblings":[{"name":"Biscuiți, napolitane și prăjituri","slug":"902-biscuiti-napolitane-si-prajituri","selected":false},{"name":"Cereale și mic dejun","slug":"903-cereale-si-mic-dejun","selected":false},{"name":"Cafea și ceai","slug":"904-cafea-si-ceai","selected":true},{"name":"Bomboane și ciocolată","slug":"905-bomboane-si-ciocolata","selected":false}],"children":[{"name":"Toate produsele","slug":"904-cafea-si-ceai","selected":false},{"name":"Cafea de specialitate","slug":"90401-cafea-de-specialitate","selected":false},{"name":"Cafea boabe","slug":"90402-cafea-boabe","selected":false},{"name":"Cafea măcinată","slug":"90403-cafea-macinata","selected":false},{"name":"Cafea solubilă","slug":"90404-cafea-solubila","selected":false},{"name":"Capsule","slug":"90405-capsule","selected":true},{"name":"Sirop cafea","slug":"90406-filtre-cafea","selected":false},{"name":"Cicoare și lapte condensat","slug":"90407-cicoare-si-lapte-concentrat","selected":false},{"name":"Cappuccino și mixuri","slug":"90408-capuccino-si-mixuri","selected":false},{"name":"Ciocolată caldă","slug":"90409-ciocolata-calda","selected":false},{"name":"Ceai negru","slug":"90410-ceai-negru","selected":false},{"name":"Ceai verde","slug":"90411-ceai-verde","selected":false},{"name":"Ceai din fructe","slug":"90412-ceai-din-fructe","selected":false},{"name":"Ceai din plante","slug":"90413-ceai-din-plante","selected":false},{"name":"Ceai de specialitate","slug":"90414-ceai-de-specialitate","selected":false}],"products":[{"code":"100002917","variantCode":"5012547001759","name":"Capsule cafea, Ristretto Lively Blend, 10 băuturi, 75g","slug":"100002917-costa-coffee-capsule-cafea-ristretto-lively-blend-10-bauturi-75g","unitPriceLabel":"166,56 Lei/kg","brand":"Costa Coffee","brandCode":"290","brandFilterCode":"costa-coffee-b291","sku":"100002917","price":14.99,"originalPrice":18.5,"currencyCode":"RON","currency":"Lei","image":{"thumbnail":{"default":"https://cdn.freshful.ro/media/cache/sylius_shop_product_thumbnail/e9/4d/469fef7272f4801ab5ecdc798446.jpg"},"large":{"default":"https://cdn.freshful.ro/media/cache/freshful_large/e9/4d/469fef7272f4801ab5ecdc798446.jpg"},"extralarge":{"default":"https://cdn.freshful.ro/media/cache/sylius_shop_product_original/e9/4d/469fef7272f4801ab5ecdc798446.jpg"}},"label":{"text":"-18%","backgroundColor":"#FF9903","textColor":"#FFFFFF"},"tags":[],"isAvailable":true,"maxAvailableQuantity":84,"maxAllowedQuantity":100,"breadcrumbs":[{"code":"9","name":"Dulciuri & mic dejun","slug":"9-ceva-dulce"},{"code":"904","name":"Cafea și ceai","slug":"904-cafea-si-ceai"},{"code":"90405","name":"Capsule","slug":"90405-capsule"},{"code":"100002917","name":"Capsule cafea, Ristretto Lively Blend, 10 băuturi, 75g","slug":"100002917-costa-coffee-capsule-cafea-ristretto-lively-blend-10-bauturi-75g"}],"activePromotion":{"code":"special-bacanie-bauturi-mar23","name":"Preț redus","targetQuantity":null},"saveMe":null,"labels":[{"type":"v1","items":[{"text":"-18%","backgroundColor":"#FF9903","textColor":"#FFFFFF"}]}],"geniusPrice":null,"geniusUnitPricePerLabel":null,"banner":{"text":"Super preț","textColor":"#FF0000","bgColor":"#FFF2EC","icon":null,"link":"https://www.freshful.ro/oferte/special-bacanie-bauturi-mar23","type":"promo","analyticsEventType":"select_promotion","analyticsEventPayload":{"promotion_id":"special-bacanie-bauturi-mar23","promotion_name":"Prețuri speciale pentru Ziua Femeii"}},"discountLabel":"Economisești 18%","geniusDiscountLabel":null,"badge":null},{"code":"100087172","variantCode":"8711000360620","name":"Capsule cafea Espresso Papua Noua Guinee 10 băuturi","slug":"100087172-l-or-capsule-cafea-espresso-papua-noua-guinee-10-bauturi","unitPriceLabel":"","brand":"L'OR","brandCode":"750","brandFilterCode":"l-or-b751","sku":"100087172","price":15.99,"originalPrice":18.5,"currencyCode":"RON","currency":"Lei","image":{"thumbnail":{"default":"https://cdn.freshful.ro/media/cache/sylius_shop_product_thumbnail/13/e1/cd17dd2c4f3529f7ede4e9b6f90c.jpg"},"large":{"default":"https://cdn.freshful.ro/media/cache/freshful_large/13/e1/cd17dd2c4f3529f7ede4e9b6f90c.jpg"},"extralarge":{"default":"https://cdn.freshful.ro/media/cache/sylius_shop_product_original/13/e1/cd17dd2c4f3529f7ede4e9b6f90c.jpg"}},"label":{"text":"-13%","backgroundColor":"#FF9903","textColor":"#FFFFFF"},"tags":[],"isAvailable":true,"maxAvailableQuantity":83,"maxAllowedQuantity":100,"breadcrumbs":[{"code":"9","name":"Dulciuri & mic dejun","slug":"9-ceva-dulce"},{"code":"904","name":"Cafea și ceai","slug":"904-cafea-si-ceai"},{"code":"90405","name":"Capsule","slug":"90405-capsule"},{"code":"100087172","name":"Capsule cafea Espresso Papua Noua Guinee 10 băuturi","slug":"100087172-l-or-capsule-cafea-espresso-papua-noua-guinee-10-bauturi"}],"activePromotion":{"code":"special-bacanie-bauturi-mar23","name":"Preț redus","targetQuantity":null},"saveMe":null,"labels":[{"type":"v1","items":[{"text":"-13%","backgroundColor":"#FF9903","textColor":"#FFFFFF"}]}],"geniusPrice":null,"geniusUnitPricePerLabel":null,"banner":{"text":"Super preț","textColor":"#FF0000","bgColor":"#FFF2EC","icon":null,"link":"https://www.freshful.ro/oferte/special-bacanie-bauturi-mar23","type":"promo","analyticsEventType":"select_promotion","analyticsEventPayload":{"promotion_id":"special-bacanie-bauturi-mar23","promotion_name":"Prețuri speciale pentru Ziua Femeii"}},"discountLabel":"Economisești 13%","geniusDiscountLabel":null,"badge":null},{"code":"100127670","variantCode":"7630477891592","name":"Capsule cafea, House Blend Lungo, 10 băuturi, 57g","slug":"100127670-starbucks-capsule-cafea-house-blend-lungo-10-bauturi-57g","unitPriceLabel":"231,59 Lei/kg","brand":"Starbucks","brandCode":"226","brandFilterCode":"starbucks-b227","sku":"100127670","price":18.99,"originalPrice":21.9,"currencyCode":"RON","currency":"Lei","image":{"thumbnail":{"default":"https://cdn.freshful.ro/media/cache/sylius_shop_product_thumbnail/c4/1b/931037e7f3b3eae788b2c7dfc53c.jpg"},"large":{"default":"https://cdn.freshful.ro/media/cache/freshful_large/c4/1b/931037e7f3b3eae788b2c7dfc53c.jpg"},"extralarge":{"default":"https://cdn.freshful.ro/media/cache/sylius_shop_product_original/c4/1b/931037e7f3b3eae788b2c7dfc53c.jpg"}},"label":{"text":"-13%","backgroundColor":"#FF9903","textColor":"#FFFFFF"},"tags":[],"isAvailable":true,"maxAvailableQuantity":80,"maxAllowedQuantity":100,"breadcrumbs":[{"code":"9","name":"Dulciuri & mic dejun","slug":"9-ceva-dulce"},{"code":"904","name":"Cafea și ceai","slug":"904-cafea-si-ceai"},{"code":"90405","name":"Capsule","slug":"90405-capsule"},{"code":"100127670","name":"Capsule cafea, House Blend Lungo, 10 băuturi, 57g","slug":"100127670-starbucks-capsule-cafea-house-blend-lungo-10-bauturi-57g"}],"activePromotion":{"code":"special-bacanie-bauturi-mar23","name":"Preț redus","targetQuantity":null},"saveMe":null,"labels":[{"type":"v1","items":[{"text":"-13%","backgroundColor":"#FF9903","textColor":"#FFFFFF"}]}],"geniusPrice":null,"geniusUnitPricePerLabel":null,"banner":{"text":"Super preț","textColor":"#FF0000","bgColor":"#FFF2EC","icon":null,"link":"https://www.freshful.ro/oferte/special-bacanie-bauturi-mar23","type":"promo","analyticsEventType":"select_promotion","analyticsEventPayload":{"promotion_id":"special-bacanie-bauturi-mar23","promotion_name":"Prețuri speciale pentru Ziua Femeii"}},"discountLabel":"Economisești 13%","geniusDiscountLabel":null,"badge":null},{"code":"100127676","variantCode":"7630477891738","name":"Capsule cafea, Blonde Espresso Roast, 10 băuturi, 53g","slug":"100127676-starbucks-capsule-cafea-blonde-espresso-roast-10-bauturi-53g","unitPriceLabel":"246,62 Lei/kg","brand":"Starbucks","brandCode":"226","brandFilterCode":"starbucks-b227","sku":"100127676","price":18.99,"originalPrice":20.5,"currencyCode":"RON","currency":"Lei","image":{"thumbnail":{"default":"https://cdn.freshful.ro/media/cache/sylius_shop_product_thumbnail/5e/1e/60f79a00ff2b34912faf08ce36b0.jpg"},"large":{"default":"https://cdn.freshful.ro/media/cache/freshful_large/5e/1e/60f79a00ff2b34912faf08ce36b0.jpg"},"extralarge":{"default":"https://cdn.freshful.ro/media/cache/sylius_shop_product_original/5e/1e/60f79a00ff2b34912faf08ce36b0.jpg"}},"label":{"text":"-7%","backgroundColor":"#FF9903","textColor":"#FFFFFF"},"tags":[],"isAvailable":true,"maxAvailableQuantity":65,"maxAllowedQuantity":100,"breadcrumbs":[{"code":"9","name":"Dulciuri & mic dejun","slug":"9-ceva-dulce"},{"code":"904","name":"Cafea și ceai","slug":"904-cafea-si-ceai"},{"code":"90405","name":"Capsule","slug":"90405-capsule"},{"code":"100127676","name":"Capsule cafea, Blonde Espresso Roast, 10 băuturi, 53g","slug":"100127676-starbucks-capsule-cafea-blonde-espresso-roast-10-bauturi-53g"}],"activePromotion":{"code":"special-bacanie-bauturi-mar23","name":"Preț redus","targetQuantity":null},"saveMe":null,"labels":[{"type":"v1","items":[{"text":"-7%","backgroundColor":"#FF9903","textColor":"#FFFFFF"}]}],"geniusPrice":null,"geniusUnitPricePerLabel":null,"banner":{"text":"Super preț","textColor":"#FF0000","bgColor":"#FFF2EC","icon":null,"link":"https://www.freshful.ro/oferte/special-bacanie-bauturi-mar23","type":"promo","analyticsEventType":"select_promotion","analyticsEventPayload":{"promotion_id":"special-bacanie-bauturi-mar23","promotion_name":"Prețuri speciale pentru Ziua Femeii"}},"discountLabel":"Economisești 7%","geniusDiscountLabel":null,"badge":null},{"code":"100127673","variantCode":"7630477891691","name":"Capsule cafea, single-origin Colombia, 10 băuturi, 57g","slug":"100127673-starbucks-capsule-cafea-single-origin-colombia-10-bauturi-57g","unitPriceLabel":"234,44 Lei/kg","brand":"Starbucks","brandCode":"226","brandFilterCode":"starbucks-b227","sku":"100127673","price":18.99,"originalPrice":20.89,"currencyCode":"RON","currency":"Lei","image":{"thumbnail":{"default":"https://cdn.freshful.ro/media/cache/sylius_shop_product_thumbnail/6a/d2/6dd4bc4406c0a28b23a1fc7dc100.jpg"},"large":{"default":"https://cdn.freshful.ro/media/cache/freshful_large/6a/d2/6dd4bc4406c0a28b23a1fc7dc100.jpg"},"extralarge":{"default":"https://cdn.freshful.ro/media/cache/sylius_shop_product_original/6a/d2/6dd4bc4406c0a28b23a1fc7dc100.jpg"}},"label":{"text":"-9%","backgroundColor":"#FF9903","textColor":"#FFFFFF"},"tags":[],"isAvailable":true,"maxAvailableQuantity":100,"maxAllowedQuantity":100,"breadcrumbs":[{"code":"9","name":"Dulciuri & mic dejun","slug":"9-ceva-dulce"},{"code":"904","name":"Cafea și ceai","slug":"904-cafea-si-ceai"},{"code":"90405","name":"Capsule","slug":"90405-capsule"},{"code":"100127673","name":"Capsule cafea, single-origin Colombia, 10 băuturi, 57g","slug":"100127673-starbucks-capsule-cafea-single-origin-colombia-10-bauturi-57g"}],"activePromotion":{"code":"special-bacanie-bauturi-mar23","name":"Preț redus","targetQuantity":null},"saveMe":null,"labels":[{"type":"v1","items":[{"text":"-9%","backgroundColor":"#FF9903","textColor":"#FFFFFF"}]}],"geniusPrice":null,"geniusUnitPricePerLabel":null,"banner":{"text":"Super preț","textColor":"#FF0000","bgColor":"#FFF2EC","icon":null,"link":"https://www.freshful.ro/oferte/special-bacanie-bauturi-mar23","type":"promo","analyticsEventType":"select_promotion","analyticsEventPayload":{"promotion_id":"special-bacanie-bauturi-mar23","promotion_name":"Prețuri speciale pentru Ziua Femeii"}},"discountLabel":"Economisești 9%","geniusDiscountLabel":null,"badge":null},{"code":"100127671","variantCode":"7630477891639","name":"Capsule cafea, Caffe Verona, 10 băuturi, 55g","slug":"100127671-starbucks-capsule-cafea-caffe-verona-10-bauturi-55g","unitPriceLabel":"240,38 Lei/kg","brand":"Starbucks","brandCode":"226","brandFilterCode":"starbucks-b227","sku":"100127671","price":18.99,"originalPrice":20.89,"currencyCode":"RON","currency":"Lei","image":{"thumbnail":{"default":"https://cdn.freshful.ro/media/cache/sylius_shop_product_thumbnail/15/57/1ed914bb48890bc5655c45c080cb.jpg"},"large":{"default":"https://cdn.freshful.ro/media/cache/freshful_large/15/57/1ed914bb48890bc5655c45c080cb.jpg"},"extralarge":{"default":"https://cdn.freshful.ro/media/cache/sylius_shop_product_original/15/57/1ed914bb48890bc5655c45c080cb.jpg"}},"label":{"text":"-9%","backgroundColor":"#FF9903","textColor":"#FFFFFF"},"tags":[],"isAvailable":true,"maxAvailableQuantity":47,"maxAllowedQuantity":100,"breadcrumbs":[{"code":"9","name":"Dulciuri & mic dejun","slug":"9-ceva-dulce"},{"code":"904","name":"Cafea și ceai","slug":"904-cafea-si-ceai"},{"code":"90405","name":"Capsule","slug":"90405-capsule"},{"code":"100127671","name":"Capsule cafea, Caffe Verona, 10 băuturi, 55g","slug":"100127671-starbucks-capsule-cafea-caffe-verona-10-bauturi-55g"}],"activePromotion":{"code":"special-bacanie-bauturi-mar23","name":"Preț redus","targetQuantity":null},"saveMe":null,"labels":[{"type":"v1","items":[{"text":"-9%","backgroundColor":"#FF9903","textColor":"#FFFFFF"}]}],"geniusPrice":null,"geniusUnitPricePerLabel":null,"banner":{"text":"Super preț","textColor":"#FF0000","bgColor":"#FFF2EC","icon":null,"link":"https://www.freshful.ro/oferte/special-bacanie-bauturi-mar23","type":"promo","analyticsEventType":"select_promotion","analyticsEventPayload":{"promotion_id":"special-bacanie-bauturi-mar23","promotion_name":"Prețuri speciale pentru Ziua Femeii"}},"discountLabel":"Economisești 9%","geniusDiscountLabel":null,"badge":null},{"code":"100087171","variantCode":"8711000360613","name":"Capsule cafea Espresso Columbia 10 băuturi 52g","slug":"100087171-l-or-capsule-cafea-espresso-columbia-10-bauturi-52g","unitPriceLabel":"","brand":"L'OR","brandCode":"750","brandFilterCode":"l-or-b751","sku":"100087171","price":15.99,"originalPrice":19.5,"currencyCode":"RON","currency":"Lei","image":{"thumbnail":{"default":"https://cdn.freshful.ro/media/cache/sylius_shop_product_thumbnail/c4/47/8bff73325aef16abc977715aeaf4.jpg"},"large":{"default":"https://cdn.freshful.ro/media/cache/freshful_large/c4/47/8bff73325aef16abc977715aeaf4.jpg"},"extralarge":{"default":"https://cdn.freshful.ro/media/cache/sylius_shop_product_original/c4/47/8bff73325aef16abc977715aeaf4.jpg"}},"label":{"text":"-18%","backgroundColor":"#FF9903","textColor":"#FFFFFF"},"tags":[],"isAvailable":true,"maxAvailableQuantity":6,"maxAllowedQuantity":100,"breadcrumbs":[{"code":"9","name":"Dulciuri & mic dejun","slug":"9-ceva-dulce"},{"code":"904","name":"Cafea și ceai","slug":"904-cafea-si-ceai"},{"code":"90405","name":"Capsule","slug":"90405-capsule"},{"code":"100087171","name":"Capsule cafea Espresso Columbia 10 băuturi 52g","slug":"100087171-l-or-capsule-cafea-espresso-columbia-10-bauturi-52g"}],"activePromotion":{"code":"special-bacanie-bauturi-mar23","name":"Preț redus","targetQuantity":null},"saveMe":null,"labels":[{"type":"v1","items":[{"text":"-18%","backgroundColor":"#FF9903","textColor":"#FFFFFF"}]}],"geniusPrice":null,"geniusUnitPricePerLabel":null,"banner":{"text":"Super preț","textColor":"#FF0000","bgColor":"#FFF2EC","icon":null,"link":"https://www.freshful.ro/oferte/special-bacanie-bauturi-mar23","type":"promo","analyticsEventType":"select_promotion","analyticsEventPayload":{"promotion_id":"special-bacanie-bauturi-mar23","promotion_name":"Prețuri speciale pentru Ziua Femeii"}},"discountLabel":"Economisești 17%","geniusDiscountLabel":null,"badge":null},{"code":"100002780","variantCode":"5012547001735","name":"Capsule cafea, Espresso Signature Blend Medium, 10 băuturi, 57g","slug":"100002780-costa-coffee-capsule-cafea-espresso-signature-blend-medium-10-bauturi-57g","unitPriceLabel":"166,56 Lei/kg","brand":"Costa Coffee","brandCode":"290","brandFilterCode":"costa-coffee-b291","sku":"100002780","price":14.99,"originalPrice":18.5,"currencyCode":"RON","currency":"Lei","image":{"thumbnail":{"default":"https://cdn.freshful.ro/media/cache/sylius_shop_product_thumbnail/ea/6f/52fa444332ef5340d1d1b3265dee.jpg"},"large":{"default":"https://cdn.freshful.ro/media/cache/freshful_large/ea/6f/52fa444332ef5340d1d1b3265dee.jpg"},"extralarge":{"default":"https://cdn.freshful.ro/media/cache/sylius_shop_product_original/ea/6f/52fa444332ef5340d1d1b3265dee.jpg"}},"label":{"text":"-18%","backgroundColor":"#FF9903","textColor":"#FFFFFF"},"tags":[],"isAvailable":true,"maxAvailableQuantity":7,"maxAllowedQuantity":100,"breadcrumbs":[{"code":"9","name":"Dulciuri & mic dejun","slug":"9-ceva-dulce"},{"code":"904","name":"Cafea și ceai","slug":"904-cafea-si-ceai"},{"code":"90405","name":"Capsule","slug":"90405-capsule"},{"code":"100002780","name":"Capsule cafea, Espresso Signature Blend Medium, 10 băuturi, 57g","slug":"100002780-costa-coffee-capsule-cafea-espresso-signature-blend-medium-10-bauturi-57g"}],"activePromotion":{"code":"special-bacanie-bauturi-mar23","name":"Preț redus","targetQuantity":null},"saveMe":null,"labels":[{"type":"v1","items":[{"text":"-18%","backgroundColor":"#FF9903","textColor":"#FFFFFF"}]}],"geniusPrice":null,"geniusUnitPricePerLabel":null,"banner":{"text":"Super preț","textColor":"#FF0000","bgColor":"#FFF2EC","icon":null,"link":"https://www.freshful.ro/oferte/special-bacanie-bauturi-mar23","type":"promo","analyticsEventType":"select_promotion","analyticsEventPayload":{"promotion_id":"special-bacanie-bauturi-mar23","promotion_name":"Prețuri speciale pentru Ziua Femeii"}},"discountLabel":"Economisești 18%","geniusDiscountLabel":null,"badge":null},{"code":"100127675","variantCode":"7630477891714","name":"Capsule cafea, Espresso Roast, 10 băuturi, 57g","slug":"100127675-starbucks-capsule-cafea-espresso-roast-10-bauturi-57g","unitPriceLabel":"234,44 Lei/kg","brand":"Starbucks","brandCode":"226","brandFilterCode":"starbucks-b227","sku":"100127675","price":18.99,"originalPrice":20.89,"currencyCode":"RON","currency":"Lei","image":{"thumbnail":{"default":"https://cdn.freshful.ro/media/cache/sylius_shop_product_thumbnail/9f/4c/e70acaa8d3179c9ff97d3d4d8626.jpg"},"large":{"default":"https://cdn.freshful.ro/media/cache/freshful_large/9f/4c/e70acaa8d3179c9ff97d3d4d8626.jpg"},"extralarge":{"default":"https://cdn.freshful.ro/media/cache/sylius_shop_product_original/9f/4c/e70acaa8d3179c9ff97d3d4d8626.jpg"}},"label":{"text":"-9%","backgroundColor":"#FF9903","textColor":"#FFFFFF"},"tags":[],"isAvailable":true,"maxAvailableQuantity":51,"maxAllowedQuantity":100,"breadcrumbs":[{"code":"9","name":"Dulciuri & mic dejun","slug":"9-ceva-dulce"},{"code":"904","name":"Cafea și ceai","slug":"904-cafea-si-ceai"},{"code":"90405","name":"Capsule","slug":"90405-capsule"},{"code":"100127675","name":"Capsule cafea, Espresso Roast, 10 băuturi, 57g","slug":"100127675-starbucks-capsule-cafea-espresso-roast-10-bauturi-57g"}],"activePromotion":{"code":"special-bacanie-bauturi-mar23","name":"Preț redus","targetQuantity":null},"saveMe":null,"labels":[{"type":"v1","items":[{"text":"-9%","backgroundColor":"#FF9903","textColor":"#FFFFFF"}]}],"geniusPrice":null,"geniusUnitPricePerLabel":null,"banner":{"text":"Super preț","textColor":"#FF0000","bgColor":"#FFF2EC","icon":null,"link":"https://www.freshful.ro/oferte/special-bacanie-bauturi-mar23","type":"promo","analyticsEventType":"select_promotion","analyticsEventPayload":{"promotion_id":"special-bacanie-bauturi-mar23","promotion_name":"Prețuri speciale pentru Ziua Femeii"}},"discountLabel":"Economisești 9%","geniusDiscountLabel":null,"badge":null},{"code":"100127677","variantCode":"7630477891653","name":"Capsule cafea decafeinizată Espresso Roast, 10 băuturi, 57g","slug":"100127677-starbucks-capsule-cafea-decafeinizata-espresso-roast-10-bauturi-57g","unitPriceLabel":"234,44 Lei/kg","brand":"Starbucks","brandCode":"226","brandFilterCode":"starbucks-b227","sku":"100127677","price":18.99,"originalPrice":20.5,"currencyCode":"RON","currency":"Lei","image":{"thumbnail":{"default":"https://cdn.freshful.ro/media/cache/sylius_shop_product_thumbnail/3e/4d/e7cf895ea68ab0d11ac93c89a793.jpg"},"large":{"default":"https://cdn.freshful.ro/media/cache/freshful_large/3e/4d/e7cf895ea68ab0d11ac93c89a793.jpg"},"extralarge":{"default":"https://cdn.freshful.ro/media/cache/sylius_shop_product_original/3e/4d/e7cf895ea68ab0d11ac93c89a793.jpg"}},"label":{"text":"-7%","backgroundColor":"#FF9903","textColor":"#FFFFFF"},"tags":[],"isAvailable":true,"maxAvailableQuantity":64,"maxAllowedQuantity":100,"breadcrumbs":[{"code":"9","name":"Dulciuri & mic dejun","slug":"9-ceva-dulce"},{"code":"904","name":"Cafea și ceai","slug":"904-cafea-si-ceai"},{"code":"90405","name":"Capsule","slug":"90405-capsule"},{"code":"100127677","name":"Capsule cafea decafeinizată Espresso Roast, 10 băuturi, 57g","slug":"100127677-starbucks-capsule-cafea-decafeinizata-espresso-roast-10-bauturi-57g"}],"activePromotion":{"code":"special-bacanie-bauturi-mar23","name":"Preț redus","targetQuantity":null},"saveMe":null,"labels":[{"type":"v1","items":[{"text":"-7%","backgroundColor":"#FF9903","textColor":"#FFFFFF"}]}],"geniusPrice":null,"geniusUnitPricePerLabel":null,"banner":{"text":"Super preț","textColor":"#FF0000","bgColor":"#FFF2EC","icon":null,"link":"https://www.freshful.ro/oferte/special-bacanie-bauturi-mar23","type":"promo","analyticsEventType":"select_promotion","analyticsEventPayload":{"promotion_id":"special-bacanie-bauturi-mar23","promotion_name":"Prețuri speciale pentru Ziua Femeii"}},"discountLabel":"Economisești 7%","geniusDiscountLabel":null,"badge":null}],"filters":{"countSelected":0,"items":[{"code":"promotion","name":"Promoții","countSelected":0,"values":[{"code":"oferte-bacanie-bauturi-21feb-8mar23","name":"Cămara cu băuturi și bunătăți","isSelected":false,"count":3},{"code":"special-bacanie-bauturi-mar23","name":"Prețuri speciale pentru Ziua Femeii","isSelected":false,"count":18}]},{"code":"brand","name":"Brand","countSelected":0,"values":[{"code":"5-to-go-b2826","name":"5 To Go","isSelected":false,"count":3},{"code":"corsini-b656","name":"Corsini","isSelected":false,"count":2},{"code":"costa-coffee-b291","name":"Costa Coffee","isSelected":false,"count":7},{"code":"illy-b1810","name":"Illy","isSelected":false,"count":4},{"code":"jacobs-b752","name":"Jacobs","isSelected":false,"count":2},{"code":"julius-meinl-b1707","name":"Julius Meinl","isSelected":false,"count":3},{"code":"kimbo-b657","name":"Kimbo","isSelected":false,"count":2},{"code":"l-or-b751","name":"L'OR","isSelected":false,"count":9},{"code":"lavazza-b162","name":"Lavazza","isSelected":false,"count":22},{"code":"motta-b2351","name":"Motta","isSelected":false,"count":2},{"code":"mr-mrs-mill-b121","name":"Mr & Mrs Mill","isSelected":false,"count":4},{"code":"nescafe-dolce-gusto-b292","name":"Nescafé Dolce Gusto","isSelected":false,"count":22},{"code":"nespresso-b2699","name":"Nespresso","isSelected":false,"count":15},{"code":"starbucks-b227","name":"Starbucks","isSelected":false,"count":16},{"code":"tassimo-b750","name":"Tassimo","isSelected":false,"count":12},{"code":"varanini-b2002","name":"Varanini","isSelected":false,"count":3}]}]},"orderBy":[{"field":"price","direction":"asc","name":"Preț crescător","isSelected":false},{"field":"price","direction":"desc","name":"Preț descrescător","isSelected":false},{"field":"popularity","direction":"desc","name":"Cele mai populare","isSelected":true},{"field":"category","direction":"asc","name":"Categorie","isSelected":false}],"metaTitle":"Capsule - Gamă variată","metaDescription":"Vrei Capsule? Alege dintr-o gamă variată. Comanzi simplu și ai livrare rapidă, calitate și prospețime. Hai pe Freshful.ro","metaKeywords":null,"banners":[]}}