{"type":"subcategory","payload":{"analyticsListId":"category_90403-cafea-macinata","analyticsListName":"Category - Cafea măcinată","name":"Cafea măcinată","slug":"90403-cafea-macinata","image":null,"breadcrumbs":[{"code":"9","name":"Dulciuri & mic dejun","slug":"9-ceva-dulce"},{"code":"904","name":"Cafea și ceai","slug":"904-cafea-si-ceai"},{"code":"90403","name":"Cafea măcinată","slug":"90403-cafea-macinata"}],"slots":[],"page":1,"limit":10,"pages":11,"count":102,"siblings":[{"name":"Biscuiți, napolitane și prăjituri","slug":"902-biscuiti-napolitane-si-prajituri","selected":false},{"name":"Cereale și mic dejun","slug":"903-cereale-si-mic-dejun","selected":false},{"name":"Cafea și ceai","slug":"904-cafea-si-ceai","selected":true},{"name":"Bomboane și ciocolată","slug":"905-bomboane-si-ciocolata","selected":false}],"children":[{"name":"Toate produsele","slug":"904-cafea-si-ceai","selected":false},{"name":"Cafea de specialitate","slug":"90401-cafea-de-specialitate","selected":false},{"name":"Cafea boabe","slug":"90402-cafea-boabe","selected":false},{"name":"Cafea măcinată","slug":"90403-cafea-macinata","selected":true},{"name":"Cafea solubilă","slug":"90404-cafea-solubila","selected":false},{"name":"Capsule","slug":"90405-capsule","selected":false},{"name":"Sirop cafea","slug":"90406-filtre-cafea","selected":false},{"name":"Cicoare și lapte condensat","slug":"90407-cicoare-si-lapte-concentrat","selected":false},{"name":"Cappuccino și mixuri","slug":"90408-capuccino-si-mixuri","selected":false},{"name":"Ciocolată caldă","slug":"90409-ciocolata-calda","selected":false},{"name":"Ceai negru","slug":"90410-ceai-negru","selected":false},{"name":"Ceai verde","slug":"90411-ceai-verde","selected":false},{"name":"Ceai din fructe","slug":"90412-ceai-din-fructe","selected":false},{"name":"Ceai din plante","slug":"90413-ceai-din-plante","selected":false},{"name":"Ceai de specialitate","slug":"90414-ceai-de-specialitate","selected":false}],"products":[{"code":"100117121","variantCode":"100117121","name":"Cafea măcinată Il Mattino 250g","slug":"100117121-lavazza-cafea-macinata-il-mattino-250g","unitPriceLabel":"14,99 Lei/buc","brand":"Lavazza","brandCode":"161","brandFilterCode":"lavazza-b162","sku":"100117121","price":14.99,"originalPrice":17.5,"currencyCode":"RON","currency":"Lei","image":{"thumbnail":{"default":"https://cdn.freshful.ro/media/cache/sylius_shop_product_thumbnail/8f/07/49a9f0281473346f47bcbec95ce2.jpg"},"large":{"default":"https://cdn.freshful.ro/media/cache/freshful_large/8f/07/49a9f0281473346f47bcbec95ce2.jpg"},"extralarge":{"default":"https://cdn.freshful.ro/media/cache/sylius_shop_product_original/8f/07/49a9f0281473346f47bcbec95ce2.jpg"}},"label":{"text":"-14%","backgroundColor":"#FF9903","textColor":"#FFFFFF"},"tags":[],"isAvailable":true,"maxAvailableQuantity":6,"maxAllowedQuantity":6,"breadcrumbs":[{"code":"9","name":"Dulciuri & mic dejun","slug":"9-ceva-dulce"},{"code":"904","name":"Cafea și ceai","slug":"904-cafea-si-ceai"},{"code":"90403","name":"Cafea măcinată","slug":"90403-cafea-macinata"},{"code":"100117121","name":"Cafea măcinată Il Mattino 250g","slug":"100117121-lavazza-cafea-macinata-il-mattino-250g"}],"activePromotion":{"code":"oferte-bacanie-bauturi-21feb-8mar23","name":"Preț redus","targetQuantity":null},"saveMe":null,"labels":[{"type":"v1","items":[{"text":"-14%","backgroundColor":"#FF9903","textColor":"#FFFFFF"}]}],"geniusPrice":null,"geniusUnitPricePerLabel":null,"banner":{"text":"Super preț","textColor":"#FF0000","bgColor":"#FFF2EC","icon":null,"link":"https://www.freshful.ro/oferte/oferte-bacanie-bauturi-21feb-8mar23","type":"promo","analyticsEventType":"select_promotion","analyticsEventPayload":{"promotion_id":"oferte-bacanie-bauturi-21feb-8mar23","promotion_name":"Cămara cu băuturi și bunătăți"}},"discountLabel":"Economisești 14%","geniusDiscountLabel":null,"badge":null},{"code":"100002782","variantCode":"5012547001674","name":"Cafea măcinată Colombian Roast 200g","slug":"100002782-costa-coffee-cafea-macinata-colombian-roast-200g","unitPriceLabel":"90,86 Lei/kg","brand":"Costa Coffee","brandCode":"290","brandFilterCode":"costa-coffee-b291","sku":"100002782","price":19.99,"originalPrice":23.99,"currencyCode":"RON","currency":"Lei","image":{"thumbnail":{"default":"https://cdn.freshful.ro/media/cache/sylius_shop_product_thumbnail/45/a9/20634d6eedc8f83baf7e63bbd279.jpg"},"large":{"default":"https://cdn.freshful.ro/media/cache/freshful_large/45/a9/20634d6eedc8f83baf7e63bbd279.jpg"},"extralarge":{"default":"https://cdn.freshful.ro/media/cache/sylius_shop_product_original/45/a9/20634d6eedc8f83baf7e63bbd279.jpg"}},"label":{"text":"-16%","backgroundColor":"#FF9903","textColor":"#FFFFFF"},"tags":[],"isAvailable":true,"maxAvailableQuantity":45,"maxAllowedQuantity":100,"breadcrumbs":[{"code":"9","name":"Dulciuri & mic dejun","slug":"9-ceva-dulce"},{"code":"904","name":"Cafea și ceai","slug":"904-cafea-si-ceai"},{"code":"90403","name":"Cafea măcinată","slug":"90403-cafea-macinata"},{"code":"100002782","name":"Cafea măcinată Colombian Roast 200g","slug":"100002782-costa-coffee-cafea-macinata-colombian-roast-200g"}],"activePromotion":{"code":"special-bacanie-bauturi-mar23","name":"Preț redus","targetQuantity":null},"saveMe":null,"labels":[{"type":"v1","items":[{"text":"-16%","backgroundColor":"#FF9903","textColor":"#FFFFFF"}]}],"geniusPrice":null,"geniusUnitPricePerLabel":null,"banner":{"text":"Super preț","textColor":"#FF0000","bgColor":"#FFF2EC","icon":null,"link":"https://www.freshful.ro/oferte/special-bacanie-bauturi-mar23","type":"promo","analyticsEventType":"select_promotion","analyticsEventPayload":{"promotion_id":"special-bacanie-bauturi-mar23","promotion_name":"Prețuri speciale pentru Ziua Femeii"}},"discountLabel":"Economisești 16%","geniusDiscountLabel":null,"badge":null},{"code":"100087204","variantCode":"8711000517604","name":"Cafea măcinată Kronung 500g","slug":"100087204-jacobs-cafea-macinata-kronung-500g","unitPriceLabel":"57 Lei/kg","brand":"Jacobs","brandCode":"751","brandFilterCode":"jacobs-b752","sku":"100087204","price":28.5,"originalPrice":null,"currencyCode":"RON","currency":"Lei","image":{"thumbnail":{"default":"https://cdn.freshful.ro/media/cache/sylius_shop_product_thumbnail/c8/28/92b59b901f1ba9cb685f697eab92.jpg"},"large":{"default":"https://cdn.freshful.ro/media/cache/freshful_large/c8/28/92b59b901f1ba9cb685f697eab92.jpg"},"extralarge":{"default":"https://cdn.freshful.ro/media/cache/sylius_shop_product_original/c8/28/92b59b901f1ba9cb685f697eab92.jpg"}},"label":null,"tags":[],"isAvailable":true,"maxAvailableQuantity":6,"maxAllowedQuantity":6,"breadcrumbs":[{"code":"9","name":"Dulciuri & mic dejun","slug":"9-ceva-dulce"},{"code":"904","name":"Cafea și ceai","slug":"904-cafea-si-ceai"},{"code":"90403","name":"Cafea măcinată","slug":"90403-cafea-macinata"},{"code":"100087204","name":"Cafea măcinată Kronung 500g","slug":"100087204-jacobs-cafea-macinata-kronung-500g"}],"activePromotion":null,"saveMe":null,"labels":[],"geniusPrice":null,"geniusUnitPricePerLabel":null,"banner":null,"discountLabel":null,"geniusDiscountLabel":null,"badge":null},{"code":"100117120","variantCode":"100117120","name":"Cafea măcinată Qualita Rossa 250g","slug":"100117120-lavazza-cafea-macinata-qualita-rossa-250g","unitPriceLabel":"20,89 Lei/buc","brand":"Lavazza","brandCode":"161","brandFilterCode":"lavazza-b162","sku":"100117120","price":20.89,"originalPrice":null,"currencyCode":"RON","currency":"Lei","image":{"thumbnail":{"default":"https://cdn.freshful.ro/media/cache/sylius_shop_product_thumbnail/12/08/7bedef3bc7c5e5493108b975bf73.jpg"},"large":{"default":"https://cdn.freshful.ro/media/cache/freshful_large/12/08/7bedef3bc7c5e5493108b975bf73.jpg"},"extralarge":{"default":"https://cdn.freshful.ro/media/cache/sylius_shop_product_original/12/08/7bedef3bc7c5e5493108b975bf73.jpg"}},"label":null,"tags":[],"isAvailable":true,"maxAvailableQuantity":6,"maxAllowedQuantity":6,"breadcrumbs":[{"code":"9","name":"Dulciuri & mic dejun","slug":"9-ceva-dulce"},{"code":"904","name":"Cafea și ceai","slug":"904-cafea-si-ceai"},{"code":"90403","name":"Cafea măcinată","slug":"90403-cafea-macinata"},{"code":"100117120","name":"Cafea măcinată Qualita Rossa 250g","slug":"100117120-lavazza-cafea-macinata-qualita-rossa-250g"}],"activePromotion":null,"saveMe":null,"labels":[],"geniusPrice":null,"geniusUnitPricePerLabel":null,"banner":null,"discountLabel":null,"geniusDiscountLabel":null,"badge":null},{"code":"100129729","variantCode":"100129729","name":"Cafea prăjită și măcinată exclusive original 500g","slug":"100129729-tchibo-cafea-prajita-si-macinata-exclusive-original-500g","unitPriceLabel":"62,5 Lei/kg","brand":"Tchibo","brandCode":"2408","brandFilterCode":"tchibo-b2412","sku":"100129729","price":31.25,"originalPrice":null,"currencyCode":"RON","currency":"Lei","image":{"thumbnail":{"default":"https://cdn.freshful.ro/media/cache/sylius_shop_product_thumbnail/cc/ee/52bc9339fed0a5b3fa6d0474935c.jpg"},"large":{"default":"https://cdn.freshful.ro/media/cache/freshful_large/cc/ee/52bc9339fed0a5b3fa6d0474935c.jpg"},"extralarge":{"default":"https://cdn.freshful.ro/media/cache/sylius_shop_product_original/cc/ee/52bc9339fed0a5b3fa6d0474935c.jpg"}},"label":null,"tags":[],"isAvailable":true,"maxAvailableQuantity":6,"maxAllowedQuantity":6,"breadcrumbs":[{"code":"9","name":"Dulciuri & mic dejun","slug":"9-ceva-dulce"},{"code":"904","name":"Cafea și ceai","slug":"904-cafea-si-ceai"},{"code":"90403","name":"Cafea măcinată","slug":"90403-cafea-macinata"},{"code":"100129729","name":"Cafea prăjită și măcinată exclusive original 500g","slug":"100129729-tchibo-cafea-prajita-si-macinata-exclusive-original-500g"}],"activePromotion":null,"saveMe":null,"labels":[],"geniusPrice":null,"geniusUnitPricePerLabel":null,"banner":null,"discountLabel":null,"geniusDiscountLabel":null,"badge":null},{"code":"100129728","variantCode":"100129728","name":"Cafea prăjită și măcinată exclusive original 250g","slug":"100129728-tchibo-cafea-prajita-si-macinata-exclusive-original-250g","unitPriceLabel":"64,2 Lei/kg","brand":"Tchibo","brandCode":"2408","brandFilterCode":"tchibo-b2412","sku":"100129728","price":16.05,"originalPrice":null,"currencyCode":"RON","currency":"Lei","image":{"thumbnail":{"default":"https://cdn.freshful.ro/media/cache/sylius_shop_product_thumbnail/39/05/11c92c8ebacc88d1173c9824f9c7.jpg"},"large":{"default":"https://cdn.freshful.ro/media/cache/freshful_large/39/05/11c92c8ebacc88d1173c9824f9c7.jpg"},"extralarge":{"default":"https://cdn.freshful.ro/media/cache/sylius_shop_product_original/39/05/11c92c8ebacc88d1173c9824f9c7.jpg"}},"label":null,"tags":[],"isAvailable":true,"maxAvailableQuantity":6,"maxAllowedQuantity":6,"breadcrumbs":[{"code":"9","name":"Dulciuri & mic dejun","slug":"9-ceva-dulce"},{"code":"904","name":"Cafea și ceai","slug":"904-cafea-si-ceai"},{"code":"90403","name":"Cafea măcinată","slug":"90403-cafea-macinata"},{"code":"100129728","name":"Cafea prăjită și măcinată exclusive original 250g","slug":"100129728-tchibo-cafea-prajita-si-macinata-exclusive-original-250g"}],"activePromotion":null,"saveMe":null,"labels":[],"geniusPrice":null,"geniusUnitPricePerLabel":null,"banner":null,"discountLabel":null,"geniusDiscountLabel":null,"badge":null},{"code":"100043164","variantCode":"5941623005322","name":"Cafea prăjită și măcinată 600g","slug":"100043164-doncafe-cafea-prajita-si-macinata-600g","unitPriceLabel":"44,15 Lei/kg","brand":"Doncafé","brandCode":"132","brandFilterCode":"doncafe-b116","sku":"100043164","price":26.49,"originalPrice":null,"currencyCode":"RON","currency":"Lei","image":{"thumbnail":{"default":"https://cdn.freshful.ro/media/cache/sylius_shop_product_thumbnail/ab/0a/d96e1de1ef343185ac3e31101e27.jpg"},"large":{"default":"https://cdn.freshful.ro/media/cache/freshful_large/ab/0a/d96e1de1ef343185ac3e31101e27.jpg"},"extralarge":{"default":"https://cdn.freshful.ro/media/cache/sylius_shop_product_original/ab/0a/d96e1de1ef343185ac3e31101e27.jpg"}},"label":null,"tags":[],"isAvailable":true,"maxAvailableQuantity":6,"maxAllowedQuantity":6,"breadcrumbs":[{"code":"9","name":"Dulciuri & mic dejun","slug":"9-ceva-dulce"},{"code":"904","name":"Cafea și ceai","slug":"904-cafea-si-ceai"},{"code":"90403","name":"Cafea măcinată","slug":"90403-cafea-macinata"},{"code":"100043164","name":"Cafea prăjită și măcinată 600g","slug":"100043164-doncafe-cafea-prajita-si-macinata-600g"}],"activePromotion":null,"saveMe":null,"labels":[],"geniusPrice":null,"geniusUnitPricePerLabel":null,"banner":null,"discountLabel":null,"geniusDiscountLabel":null,"badge":null},{"code":"100117057","variantCode":"100117057","name":"Cafea prăjită și măcinată fine aroma 250g ","slug":"100117057-davidoff-cafea-prajita-si-macinata-fine-aroma-250g","unitPriceLabel":"25,99 Lei/buc","brand":"Davidoff","brandCode":"1156","brandFilterCode":"davidoff-b1157","sku":"100117057","price":25.99,"originalPrice":null,"currencyCode":"RON","currency":"Lei","image":{"thumbnail":{"default":"https://cdn.freshful.ro/media/cache/sylius_shop_product_thumbnail/23/21/7e6e7b1b1b1dd85d414d2e333f97.jpg"},"large":{"default":"https://cdn.freshful.ro/media/cache/freshful_large/23/21/7e6e7b1b1b1dd85d414d2e333f97.jpg"},"extralarge":{"default":"https://cdn.freshful.ro/media/cache/sylius_shop_product_original/23/21/7e6e7b1b1b1dd85d414d2e333f97.jpg"}},"label":null,"tags":[],"isAvailable":true,"maxAvailableQuantity":6,"maxAllowedQuantity":6,"breadcrumbs":[{"code":"9","name":"Dulciuri & mic dejun","slug":"9-ceva-dulce"},{"code":"904","name":"Cafea și ceai","slug":"904-cafea-si-ceai"},{"code":"90403","name":"Cafea măcinată","slug":"90403-cafea-macinata"},{"code":"100117057","name":"Cafea prăjită și măcinată fine aroma 250g ","slug":"100117057-davidoff-cafea-prajita-si-macinata-fine-aroma-250g"}],"activePromotion":null,"saveMe":null,"labels":[],"geniusPrice":null,"geniusUnitPricePerLabel":null,"banner":null,"discountLabel":null,"geniusDiscountLabel":null,"badge":null},{"code":"100142820","variantCode":"100142820","name":"Cafea măcinată Ibrik 100g","slug":"100142820-no-brand-cafea-macinata-ibrik-100g","unitPriceLabel":"45,9 Lei/kg","brand":"5 To Go","brandCode":"2751","brandFilterCode":"5-to-go-b2826","sku":"100142820","price":4.59,"originalPrice":null,"currencyCode":"RON","currency":"Lei","image":{"thumbnail":{"default":"https://cdn.freshful.ro/media/cache/sylius_shop_product_thumbnail/53/f7/0b17e773e9fd9c4384f39d09ea9e.jpg"},"large":{"default":"https://cdn.freshful.ro/media/cache/freshful_large/53/f7/0b17e773e9fd9c4384f39d09ea9e.jpg"},"extralarge":{"default":"https://cdn.freshful.ro/media/cache/sylius_shop_product_original/53/f7/0b17e773e9fd9c4384f39d09ea9e.jpg"}},"label":{"text":"Primul preț","backgroundColor":"#3A0808","textColor":"#FFFFFF"},"tags":[],"isAvailable":true,"maxAvailableQuantity":6,"maxAllowedQuantity":6,"breadcrumbs":[{"code":"9","name":"Dulciuri & mic dejun","slug":"9-ceva-dulce"},{"code":"904","name":"Cafea și ceai","slug":"904-cafea-si-ceai"},{"code":"90403","name":"Cafea măcinată","slug":"90403-cafea-macinata"},{"code":"100142820","name":"Cafea măcinată Ibrik 100g","slug":"100142820-no-brand-cafea-macinata-ibrik-100g"}],"activePromotion":null,"saveMe":null,"labels":[{"type":"v4","items":[{"text":"Primul","backgroundColor":"#3A0808","textColor":"#FFFFFF"},{"text":"preț","backgroundColor":"#BC0606","textColor":"#FFFFFF"}]}],"geniusPrice":null,"geniusUnitPricePerLabel":null,"banner":null,"discountLabel":null,"geniusDiscountLabel":null,"badge":null},{"code":"100087203","variantCode":"8711000517543","name":"Cafea prăjită și măcinată Kronung 250g","slug":"100087203-jacobs-cafea-prajita-si-macinata-kronung-250g","unitPriceLabel":"71,8 Lei/kg","brand":"Jacobs","brandCode":"751","brandFilterCode":"jacobs-b752","sku":"100087203","price":17.95,"originalPrice":null,"currencyCode":"RON","currency":"Lei","image":{"thumbnail":{"default":"https://cdn.freshful.ro/media/cache/sylius_shop_product_thumbnail/f1/7e/8c4a7fb0804e09757648dbd9eaba.jpg"},"large":{"default":"https://cdn.freshful.ro/media/cache/freshful_large/f1/7e/8c4a7fb0804e09757648dbd9eaba.jpg"},"extralarge":{"default":"https://cdn.freshful.ro/media/cache/sylius_shop_product_original/f1/7e/8c4a7fb0804e09757648dbd9eaba.jpg"}},"label":null,"tags":[],"isAvailable":true,"maxAvailableQuantity":6,"maxAllowedQuantity":6,"breadcrumbs":[{"code":"9","name":"Dulciuri & mic dejun","slug":"9-ceva-dulce"},{"code":"904","name":"Cafea și ceai","slug":"904-cafea-si-ceai"},{"code":"90403","name":"Cafea măcinată","slug":"90403-cafea-macinata"},{"code":"100087203","name":"Cafea prăjită și măcinată Kronung 250g","slug":"100087203-jacobs-cafea-prajita-si-macinata-kronung-250g"}],"activePromotion":null,"saveMe":null,"labels":[],"geniusPrice":null,"geniusUnitPricePerLabel":null,"banner":null,"discountLabel":null,"geniusDiscountLabel":null,"badge":null}],"filters":{"countSelected":0,"items":[{"code":"promotion","name":"Promoții","countSelected":0,"values":[{"code":"oferte-bacanie-bauturi-21feb-8mar23","name":"Cămara cu băuturi și bunătăți","isSelected":false,"count":1},{"code":"special-bacanie-bauturi-mar23","name":"Prețuri speciale pentru Ziua Femeii","isSelected":false,"count":1}]},{"code":"brand","name":"Brand","countSelected":0,"values":[{"code":"5-to-go-b2826","name":"5 To Go","isSelected":false,"count":3},{"code":"all-for-nature-b2147","name":"All For Nature","isSelected":false,"count":8},{"code":"carraro-b1808","name":"Carraro","isSelected":false,"count":2},{"code":"costa-coffee-b291","name":"Costa Coffee","isSelected":false,"count":4},{"code":"dallmayr-b1971","name":"Dallmayr","isSelected":false,"count":3},{"code":"davidoff-b1157","name":"Davidoff","isSelected":false,"count":2},{"code":"dolce-bacio-flavored-coffee-b85","name":"Dolce Bacio Flavored Coffee","isSelected":false,"count":8},{"code":"doncafe-b116","name":"Doncafé","isSelected":false,"count":10},{"code":"eduscho-b1972","name":"Eduscho","isSelected":false,"count":1},{"code":"fort-b117","name":"Fort","isSelected":false,"count":2},{"code":"fortuna-b1248","name":"Fortuna","isSelected":false,"count":2},{"code":"illy-b1810","name":"Illy","isSelected":false,"count":3},{"code":"jacobs-b752","name":"Jacobs","isSelected":false,"count":10},{"code":"julius-meinl-b1707","name":"Julius Meinl","isSelected":false,"count":5},{"code":"kimbo-b657","name":"Kimbo","isSelected":false,"count":2},{"code":"l-or-b751","name":"L'OR","isSelected":false,"count":2},{"code":"lavazza-b162","name":"Lavazza","isSelected":false,"count":2},{"code":"legal-b2841","name":"Legal","isSelected":false,"count":3},{"code":"malongo-b1062","name":"Malongo","isSelected":false,"count":2},{"code":"mehmet-efendi-b1563","name":"Mehmet Efendi","isSelected":false,"count":2},{"code":"motta-b2351","name":"Motta","isSelected":false,"count":3},{"code":"movenpick-b746","name":"Mövenpick","isSelected":false,"count":1},{"code":"nescafe-b67","name":"Nescafé","isSelected":false,"count":1},{"code":"nescafe-brasero-b2292","name":"Nescafé Brasero","isSelected":false,"count":4},{"code":"starbucks-b227","name":"Starbucks","isSelected":false,"count":3},{"code":"tchibo-b2412","name":"Tchibo","isSelected":false,"count":13},{"code":"varanini-b2002","name":"Varanini","isSelected":false,"count":1}]}]},"orderBy":[{"field":"price","direction":"asc","name":"Preț crescător","isSelected":false},{"field":"price","direction":"desc","name":"Preț descrescător","isSelected":false},{"field":"popularity","direction":"desc","name":"Cele mai populare","isSelected":true},{"field":"category","direction":"asc","name":"Categorie","isSelected":false}],"metaTitle":"Cafea măcinată - Gamă variată","metaDescription":"Vrei Cafea măcinată? Alege dintr-o gamă variată. Comanzi simplu și ai livrare rapidă, calitate și prospețime. Hai pe Freshful.ro","metaKeywords":null,"banners":[]}}