{"type":"subcategory","payload":{"analyticsListId":"category_90414-ceai-de-specialitate","analyticsListName":"Category - Ceai de specialitate","name":"Ceai de specialitate","slug":"90414-ceai-de-specialitate","image":null,"breadcrumbs":[{"code":"9","name":"Dulciuri & mic dejun","slug":"9-ceva-dulce"},{"code":"904","name":"Cafea și ceai","slug":"904-cafea-si-ceai"},{"code":"90414","name":"Ceai de specialitate","slug":"90414-ceai-de-specialitate"}],"slots":[],"page":1,"limit":10,"pages":5,"count":47,"siblings":[{"name":"Biscuiți, napolitane și prăjituri","slug":"902-biscuiti-napolitane-si-prajituri","selected":false},{"name":"Cereale și mic dejun","slug":"903-cereale-si-mic-dejun","selected":false},{"name":"Cafea și ceai","slug":"904-cafea-si-ceai","selected":true},{"name":"Bomboane și ciocolată","slug":"905-bomboane-si-ciocolata","selected":false}],"children":[{"name":"Toate produsele","slug":"904-cafea-si-ceai","selected":false},{"name":"Cafea de specialitate","slug":"90401-cafea-de-specialitate","selected":false},{"name":"Cafea boabe","slug":"90402-cafea-boabe","selected":false},{"name":"Cafea măcinată","slug":"90403-cafea-macinata","selected":false},{"name":"Cafea solubilă","slug":"90404-cafea-solubila","selected":false},{"name":"Capsule","slug":"90405-capsule","selected":false},{"name":"Sirop cafea","slug":"90406-filtre-cafea","selected":false},{"name":"Cicoare și lapte condensat","slug":"90407-cicoare-si-lapte-concentrat","selected":false},{"name":"Cappuccino și mixuri","slug":"90408-capuccino-si-mixuri","selected":false},{"name":"Ciocolată caldă","slug":"90409-ciocolata-calda","selected":false},{"name":"Ceai negru","slug":"90410-ceai-negru","selected":false},{"name":"Ceai verde","slug":"90411-ceai-verde","selected":false},{"name":"Ceai din fructe","slug":"90412-ceai-din-fructe","selected":false},{"name":"Ceai din plante","slug":"90413-ceai-din-plante","selected":false},{"name":"Ceai de specialitate","slug":"90414-ceai-de-specialitate","selected":true}],"products":[{"code":"100061466","variantCode":"6423602009297","name":"Ceai pentru somn 20 plicuri","slug":"100061466-alevia-ceai-pentru-somn-20-plicuri","unitPriceLabel":"243 Lei/kg","brand":"Alevia","brandCode":"83","brandFilterCode":"alevia-b128","sku":"100061466","price":7.29,"originalPrice":null,"currencyCode":"RON","currency":"Lei","image":{"thumbnail":{"default":"https://cdn.freshful.ro/media/cache/sylius_shop_product_thumbnail/d2/cd/2264aa8077d2c37c04e14f2e0496.jpg"},"large":{"default":"https://cdn.freshful.ro/media/cache/freshful_large/d2/cd/2264aa8077d2c37c04e14f2e0496.jpg"},"extralarge":{"default":"https://cdn.freshful.ro/media/cache/sylius_shop_product_original/d2/cd/2264aa8077d2c37c04e14f2e0496.jpg"}},"label":null,"tags":[{"type":"Natural","text":"Natural","icon":"https://cdn.freshful.ro/assets/product_tags/natural.svg","iconPng":"https://cdn.freshful.ro/assets/product_tags/natural.png","backgroundColor":"#E9FCF2","textColor":"#18AF62"}],"isAvailable":true,"maxAvailableQuantity":28,"maxAllowedQuantity":100,"breadcrumbs":[{"code":"9","name":"Dulciuri & mic dejun","slug":"9-ceva-dulce"},{"code":"904","name":"Cafea și ceai","slug":"904-cafea-si-ceai"},{"code":"90414","name":"Ceai de specialitate","slug":"90414-ceai-de-specialitate"},{"code":"100061466","name":"Ceai pentru somn 20 plicuri","slug":"100061466-alevia-ceai-pentru-somn-20-plicuri"}],"activePromotion":null,"saveMe":null,"labels":[],"geniusPrice":null,"geniusUnitPricePerLabel":null,"banner":null,"discountLabel":null,"geniusDiscountLabel":null,"badge":null},{"code":"100105108","variantCode":"6423602013287","name":"Ceai atusin 20 plicuri","slug":"100105108-alevia-ceai-atusin-20-plicuri","unitPriceLabel":"233 Lei/kg","brand":"Alevia","brandCode":"83","brandFilterCode":"alevia-b128","sku":"100105108","price":6.99,"originalPrice":null,"currencyCode":"RON","currency":"Lei","image":{"thumbnail":{"default":"https://cdn.freshful.ro/media/cache/sylius_shop_product_thumbnail/95/43/cbd496c89b34ceb6337546f4127d.jpg"},"large":{"default":"https://cdn.freshful.ro/media/cache/freshful_large/95/43/cbd496c89b34ceb6337546f4127d.jpg"},"extralarge":{"default":"https://cdn.freshful.ro/media/cache/sylius_shop_product_original/95/43/cbd496c89b34ceb6337546f4127d.jpg"}},"label":null,"tags":[{"type":"Natural","text":"Natural","icon":"https://cdn.freshful.ro/assets/product_tags/natural.svg","iconPng":"https://cdn.freshful.ro/assets/product_tags/natural.png","backgroundColor":"#E9FCF2","textColor":"#18AF62"}],"isAvailable":true,"maxAvailableQuantity":52,"maxAllowedQuantity":100,"breadcrumbs":[{"code":"9","name":"Dulciuri & mic dejun","slug":"9-ceva-dulce"},{"code":"904","name":"Cafea și ceai","slug":"904-cafea-si-ceai"},{"code":"90414","name":"Ceai de specialitate","slug":"90414-ceai-de-specialitate"},{"code":"100105108","name":"Ceai atusin 20 plicuri","slug":"100105108-alevia-ceai-atusin-20-plicuri"}],"activePromotion":null,"saveMe":null,"labels":[],"geniusPrice":null,"geniusUnitPricePerLabel":null,"banner":null,"discountLabel":null,"geniusDiscountLabel":null,"badge":null},{"code":"100061456","variantCode":"6423602009105","name":"Ceai antistres 20 plicuri","slug":"100061456-alevia-ceai-antistres-20-plicuri","unitPriceLabel":"199,67 Lei/kg","brand":"Alevia","brandCode":"83","brandFilterCode":"alevia-b128","sku":"100061456","price":5.99,"originalPrice":null,"currencyCode":"RON","currency":"Lei","image":{"thumbnail":{"default":"https://cdn.freshful.ro/media/cache/sylius_shop_product_thumbnail/c9/1b/495cd8b5fbaafec60578fa7acd1e.jpg"},"large":{"default":"https://cdn.freshful.ro/media/cache/freshful_large/c9/1b/495cd8b5fbaafec60578fa7acd1e.jpg"},"extralarge":{"default":"https://cdn.freshful.ro/media/cache/sylius_shop_product_original/c9/1b/495cd8b5fbaafec60578fa7acd1e.jpg"}},"label":null,"tags":[{"type":"Natural","text":"Natural","icon":"https://cdn.freshful.ro/assets/product_tags/natural.svg","iconPng":"https://cdn.freshful.ro/assets/product_tags/natural.png","backgroundColor":"#E9FCF2","textColor":"#18AF62"}],"isAvailable":true,"maxAvailableQuantity":54,"maxAllowedQuantity":100,"breadcrumbs":[{"code":"9","name":"Dulciuri & mic dejun","slug":"9-ceva-dulce"},{"code":"904","name":"Cafea și ceai","slug":"904-cafea-si-ceai"},{"code":"90414","name":"Ceai de specialitate","slug":"90414-ceai-de-specialitate"},{"code":"100061456","name":"Ceai antistres 20 plicuri","slug":"100061456-alevia-ceai-antistres-20-plicuri"}],"activePromotion":null,"saveMe":null,"labels":[],"geniusPrice":null,"geniusUnitPricePerLabel":null,"banner":null,"discountLabel":null,"geniusDiscountLabel":null,"badge":null},{"code":"100061463","variantCode":"6423602007668","name":"Ceai Gripalin 50g","slug":"100061463-alevia-ceai-gripalin-50g","unitPriceLabel":"155,8 Lei/kg","brand":"Alevia","brandCode":"83","brandFilterCode":"alevia-b128","sku":"100061463","price":7.79,"originalPrice":null,"currencyCode":"RON","currency":"Lei","image":{"thumbnail":{"default":"https://cdn.freshful.ro/media/cache/sylius_shop_product_thumbnail/2e/25/44bab7993ab31c38b9240a7a16f0.jpg"},"large":{"default":"https://cdn.freshful.ro/media/cache/freshful_large/2e/25/44bab7993ab31c38b9240a7a16f0.jpg"},"extralarge":{"default":"https://cdn.freshful.ro/media/cache/sylius_shop_product_original/2e/25/44bab7993ab31c38b9240a7a16f0.jpg"}},"label":null,"tags":[{"type":"Natural","text":"Natural","icon":"https://cdn.freshful.ro/assets/product_tags/natural.svg","iconPng":"https://cdn.freshful.ro/assets/product_tags/natural.png","backgroundColor":"#E9FCF2","textColor":"#18AF62"}],"isAvailable":true,"maxAvailableQuantity":35,"maxAllowedQuantity":100,"breadcrumbs":[{"code":"9","name":"Dulciuri & mic dejun","slug":"9-ceva-dulce"},{"code":"904","name":"Cafea și ceai","slug":"904-cafea-si-ceai"},{"code":"90414","name":"Ceai de specialitate","slug":"90414-ceai-de-specialitate"},{"code":"100061463","name":"Ceai Gripalin 50g","slug":"100061463-alevia-ceai-gripalin-50g"}],"activePromotion":null,"saveMe":null,"labels":[],"geniusPrice":null,"geniusUnitPricePerLabel":null,"banner":null,"discountLabel":null,"geniusDiscountLabel":null,"badge":null},{"code":"100061459","variantCode":"6423602007613","name":"Ceai de slăbit 50g","slug":"100061459-alevia-ceai-de-slabit-50g","unitPriceLabel":"133,8 Lei/kg","brand":"Alevia","brandCode":"83","brandFilterCode":"alevia-b128","sku":"100061459","price":6.69,"originalPrice":null,"currencyCode":"RON","currency":"Lei","image":{"thumbnail":{"default":"https://cdn.freshful.ro/media/cache/sylius_shop_product_thumbnail/8c/ab/731dedb099cf64da70e2c9e462a1.jpg"},"large":{"default":"https://cdn.freshful.ro/media/cache/freshful_large/8c/ab/731dedb099cf64da70e2c9e462a1.jpg"},"extralarge":{"default":"https://cdn.freshful.ro/media/cache/sylius_shop_product_original/8c/ab/731dedb099cf64da70e2c9e462a1.jpg"}},"label":null,"tags":[{"type":"Natural","text":"Natural","icon":"https://cdn.freshful.ro/assets/product_tags/natural.svg","iconPng":"https://cdn.freshful.ro/assets/product_tags/natural.png","backgroundColor":"#E9FCF2","textColor":"#18AF62"}],"isAvailable":true,"maxAvailableQuantity":16,"maxAllowedQuantity":100,"breadcrumbs":[{"code":"9","name":"Dulciuri & mic dejun","slug":"9-ceva-dulce"},{"code":"904","name":"Cafea și ceai","slug":"904-cafea-si-ceai"},{"code":"90414","name":"Ceai de specialitate","slug":"90414-ceai-de-specialitate"},{"code":"100061459","name":"Ceai de slăbit 50g","slug":"100061459-alevia-ceai-de-slabit-50g"}],"activePromotion":null,"saveMe":null,"labels":[],"geniusPrice":null,"geniusUnitPricePerLabel":null,"banner":null,"discountLabel":null,"geniusDiscountLabel":null,"badge":null},{"code":"100145194","variantCode":"100145194","name":"Ceai natural digestiv, 20 plicuri x 1.8g","slug":"100145194-teekanne-ceai-natural-digestiv-20-plicuri-x-1-8g","unitPriceLabel":"270,28 Lei/kg","brand":"Teekanne","brandCode":"883","brandFilterCode":"teekanne-b884","sku":"100145194","price":9.73,"originalPrice":null,"currencyCode":"RON","currency":"Lei","image":{"thumbnail":{"default":"https://cdn.freshful.ro/media/cache/sylius_shop_product_thumbnail/67/ec/27f7ed02f39875b959e90f226ef0.jpg"},"large":{"default":"https://cdn.freshful.ro/media/cache/freshful_large/67/ec/27f7ed02f39875b959e90f226ef0.jpg"},"extralarge":{"default":"https://cdn.freshful.ro/media/cache/sylius_shop_product_original/67/ec/27f7ed02f39875b959e90f226ef0.jpg"}},"label":null,"tags":[{"type":"Natural","text":"Natural","icon":"https://cdn.freshful.ro/assets/product_tags/natural.svg","iconPng":"https://cdn.freshful.ro/assets/product_tags/natural.png","backgroundColor":"#E9FCF2","textColor":"#18AF62"}],"isAvailable":true,"maxAvailableQuantity":22,"maxAllowedQuantity":100,"breadcrumbs":[{"code":"9","name":"Dulciuri & mic dejun","slug":"9-ceva-dulce"},{"code":"904","name":"Cafea și ceai","slug":"904-cafea-si-ceai"},{"code":"90414","name":"Ceai de specialitate","slug":"90414-ceai-de-specialitate"},{"code":"100145194","name":"Ceai natural digestiv, 20 plicuri x 1.8g","slug":"100145194-teekanne-ceai-natural-digestiv-20-plicuri-x-1-8g"}],"activePromotion":null,"saveMe":null,"labels":[],"geniusPrice":null,"geniusUnitPricePerLabel":null,"banner":null,"discountLabel":null,"geniusDiscountLabel":null,"badge":null},{"code":"100061491","variantCode":"6423602008221","name":"Ceai rooibos crème brûlée Tabieturi 12 plicuri","slug":"100061491-alevia-ceai-rooibos-creme-brulee-tabieturi-12-plicuri","unitPriceLabel":"530,69 Lei/kg","brand":"Alevia","brandCode":"83","brandFilterCode":"alevia-b128","sku":"100061491","price":15.39,"originalPrice":null,"currencyCode":"RON","currency":"Lei","image":{"thumbnail":{"default":"https://cdn.freshful.ro/media/cache/sylius_shop_product_thumbnail/2d/65/49f44d6c8e4cd5997cfb69e44a0a.jpg"},"large":{"default":"https://cdn.freshful.ro/media/cache/freshful_large/2d/65/49f44d6c8e4cd5997cfb69e44a0a.jpg"},"extralarge":{"default":"https://cdn.freshful.ro/media/cache/sylius_shop_product_original/2d/65/49f44d6c8e4cd5997cfb69e44a0a.jpg"}},"label":null,"tags":[],"isAvailable":true,"maxAvailableQuantity":17,"maxAllowedQuantity":100,"breadcrumbs":[{"code":"9","name":"Dulciuri & mic dejun","slug":"9-ceva-dulce"},{"code":"904","name":"Cafea și ceai","slug":"904-cafea-si-ceai"},{"code":"90414","name":"Ceai de specialitate","slug":"90414-ceai-de-specialitate"},{"code":"100061491","name":"Ceai rooibos crème brûlée Tabieturi 12 plicuri","slug":"100061491-alevia-ceai-rooibos-creme-brulee-tabieturi-12-plicuri"}],"activePromotion":null,"saveMe":null,"labels":[],"geniusPrice":null,"geniusUnitPricePerLabel":null,"banner":null,"discountLabel":null,"geniusDiscountLabel":null,"badge":null},{"code":"100092891","variantCode":"6425744401038","name":"Ceai Rooibos Vanilla 20 plicuri piramidă","slug":"100092891-beyoutea-ceai-rooibos-vanilla-20-plicuri-piramida","unitPriceLabel":"149,9 Lei/buc","brand":"BeYouTea","brandCode":"1553","brandFilterCode":"beyoutea-b1559","sku":"100092891","price":14.99,"originalPrice":null,"currencyCode":"RON","currency":"Lei","image":{"thumbnail":{"default":"https://cdn.freshful.ro/media/cache/sylius_shop_product_thumbnail/fb/df/a928e224c643f631456f2abeff8c.jpg"},"large":{"default":"https://cdn.freshful.ro/media/cache/freshful_large/fb/df/a928e224c643f631456f2abeff8c.jpg"},"extralarge":{"default":"https://cdn.freshful.ro/media/cache/sylius_shop_product_original/fb/df/a928e224c643f631456f2abeff8c.jpg"}},"label":null,"tags":[],"isAvailable":true,"maxAvailableQuantity":17,"maxAllowedQuantity":100,"breadcrumbs":[{"code":"9","name":"Dulciuri & mic dejun","slug":"9-ceva-dulce"},{"code":"904","name":"Cafea și ceai","slug":"904-cafea-si-ceai"},{"code":"90414","name":"Ceai de specialitate","slug":"90414-ceai-de-specialitate"},{"code":"100092891","name":"Ceai Rooibos Vanilla 20 plicuri piramidă","slug":"100092891-beyoutea-ceai-rooibos-vanilla-20-plicuri-piramida"}],"activePromotion":null,"saveMe":null,"labels":[],"geniusPrice":null,"geniusUnitPricePerLabel":null,"banner":null,"discountLabel":null,"geniusDiscountLabel":null,"badge":null},{"code":"100145196","variantCode":"100145196","name":"Ceai pentru imunitate, Immuni 20 plicuri x 2g","slug":"100145196-teekanne-ceai-pentru-imunitate-immuni-20-plicuri-x-2g","unitPriceLabel":"249,75 Lei/kg","brand":"Teekanne","brandCode":"883","brandFilterCode":"teekanne-b884","sku":"100145196","price":9.99,"originalPrice":null,"currencyCode":"RON","currency":"Lei","image":{"thumbnail":{"default":"https://cdn.freshful.ro/media/cache/sylius_shop_product_thumbnail/7f/5e/c23169648326c25dc50dd9a7aa95.jpg"},"large":{"default":"https://cdn.freshful.ro/media/cache/freshful_large/7f/5e/c23169648326c25dc50dd9a7aa95.jpg"},"extralarge":{"default":"https://cdn.freshful.ro/media/cache/sylius_shop_product_original/7f/5e/c23169648326c25dc50dd9a7aa95.jpg"}},"label":null,"tags":[],"isAvailable":true,"maxAvailableQuantity":18,"maxAllowedQuantity":100,"breadcrumbs":[{"code":"9","name":"Dulciuri & mic dejun","slug":"9-ceva-dulce"},{"code":"904","name":"Cafea și ceai","slug":"904-cafea-si-ceai"},{"code":"90414","name":"Ceai de specialitate","slug":"90414-ceai-de-specialitate"},{"code":"100145196","name":"Ceai pentru imunitate, Immuni 20 plicuri x 2g","slug":"100145196-teekanne-ceai-pentru-imunitate-immuni-20-plicuri-x-2g"}],"activePromotion":null,"saveMe":null,"labels":[],"geniusPrice":null,"geniusUnitPricePerLabel":null,"banner":null,"discountLabel":null,"geniusDiscountLabel":null,"badge":null},{"code":"100058727","variantCode":"100058727","name":"Ceai cu aromă de fructe Multivitamin 20 plicuri","slug":"100058727-teekanne-ceai-cu-aroma-de-fructe-multivitamin-20-plicuri","unitPriceLabel":"233,33 Lei/kg","brand":"Teekanne","brandCode":"883","brandFilterCode":"teekanne-b884","sku":"100058727","price":10.5,"originalPrice":null,"currencyCode":"RON","currency":"Lei","image":{"thumbnail":{"default":"https://cdn.freshful.ro/media/cache/sylius_shop_product_thumbnail/6f/d0/15d9d10e808b37ae5cbfbe659a11.jpg"},"large":{"default":"https://cdn.freshful.ro/media/cache/freshful_large/6f/d0/15d9d10e808b37ae5cbfbe659a11.jpg"},"extralarge":{"default":"https://cdn.freshful.ro/media/cache/sylius_shop_product_original/6f/d0/15d9d10e808b37ae5cbfbe659a11.jpg"}},"label":null,"tags":[],"isAvailable":true,"maxAvailableQuantity":17,"maxAllowedQuantity":100,"breadcrumbs":[{"code":"9","name":"Dulciuri & mic dejun","slug":"9-ceva-dulce"},{"code":"904","name":"Cafea și ceai","slug":"904-cafea-si-ceai"},{"code":"90414","name":"Ceai de specialitate","slug":"90414-ceai-de-specialitate"},{"code":"100058727","name":"Ceai cu aromă de fructe Multivitamin 20 plicuri","slug":"100058727-teekanne-ceai-cu-aroma-de-fructe-multivitamin-20-plicuri"}],"activePromotion":null,"saveMe":null,"labels":[],"geniusPrice":null,"geniusUnitPricePerLabel":null,"banner":null,"discountLabel":null,"geniusDiscountLabel":null,"badge":null}],"filters":{"countSelected":0,"items":[{"code":"brand","name":"Brand","countSelected":0,"values":[{"code":"5-o-clock-tea-time-b143","name":"5 O'Clock Tea Time","isSelected":false,"count":1},{"code":"alevia-b128","name":"Alevia","isSelected":false,"count":13},{"code":"beyoutea-b1559","name":"BeYouTea","isSelected":false,"count":6},{"code":"dacia-plant-b934","name":"Dacia Plant","isSelected":false,"count":1},{"code":"ekoland-b2445","name":"Ekoland","isSelected":false,"count":4},{"code":"mount-himalaya-tea-b144","name":"Mount Himalaya Tea","isSelected":false,"count":3},{"code":"plafar-b1612","name":"Plafar","isSelected":false,"count":10},{"code":"sebahat-b986","name":"Sebahat","isSelected":false,"count":3},{"code":"teekanne-b884","name":"Teekanne","isSelected":false,"count":5},{"code":"the-capsoul-b1846","name":"The Capsoul","isSelected":false,"count":1}]},{"code":"diet_lifestyle","name":"Dietă și lifestyle","countSelected":0,"values":[{"code":"made-in-romania-a85","name":"Made In Romania","isSelected":false,"count":5},{"code":"natural-a27","name":"Natural","isSelected":false,"count":13}]}]},"orderBy":[{"field":"price","direction":"asc","name":"Preț crescător","isSelected":false},{"field":"price","direction":"desc","name":"Preț descrescător","isSelected":false},{"field":"popularity","direction":"desc","name":"Cele mai populare","isSelected":true},{"field":"category","direction":"asc","name":"Categorie","isSelected":false}],"metaTitle":"Ceai de specialitate - Gamă variată","metaDescription":"Vrei Ceai de specialitate? Alege dintr-o gamă variată. Comanzi simplu și ai livrare rapidă, calitate și prospețime. Hai pe Freshful.ro","metaKeywords":null,"banners":[]}}