{"type":"subcategory","payload":{"analyticsListId":"category_90410-ceai-negru","analyticsListName":"Category - Ceai negru","name":"Ceai negru","slug":"90410-ceai-negru","image":null,"breadcrumbs":[{"code":"9","name":"Dulciuri & mic dejun","slug":"9-ceva-dulce"},{"code":"904","name":"Cafea și ceai","slug":"904-cafea-si-ceai"},{"code":"90410","name":"Ceai negru","slug":"90410-ceai-negru"}],"slots":[],"page":1,"limit":10,"pages":3,"count":21,"siblings":[{"name":"Biscuiți, napolitane și prăjituri","slug":"902-biscuiti-napolitane-si-prajituri","selected":false},{"name":"Cereale și mic dejun","slug":"903-cereale-si-mic-dejun","selected":false},{"name":"Cafea și ceai","slug":"904-cafea-si-ceai","selected":true},{"name":"Bomboane și ciocolată","slug":"905-bomboane-si-ciocolata","selected":false}],"children":[{"name":"Toate produsele","slug":"904-cafea-si-ceai","selected":false},{"name":"Cafea de specialitate","slug":"90401-cafea-de-specialitate","selected":false},{"name":"Cafea boabe","slug":"90402-cafea-boabe","selected":false},{"name":"Cafea măcinată","slug":"90403-cafea-macinata","selected":false},{"name":"Cafea solubilă","slug":"90404-cafea-solubila","selected":false},{"name":"Capsule","slug":"90405-capsule","selected":false},{"name":"Sirop cafea","slug":"90406-filtre-cafea","selected":false},{"name":"Cicoare și lapte condensat","slug":"90407-cicoare-si-lapte-concentrat","selected":false},{"name":"Cappuccino și mixuri","slug":"90408-capuccino-si-mixuri","selected":false},{"name":"Ciocolată caldă","slug":"90409-ciocolata-calda","selected":false},{"name":"Ceai negru","slug":"90410-ceai-negru","selected":true},{"name":"Ceai verde","slug":"90411-ceai-verde","selected":false},{"name":"Ceai din fructe","slug":"90412-ceai-din-fructe","selected":false},{"name":"Ceai din plante","slug":"90413-ceai-din-plante","selected":false},{"name":"Ceai de specialitate","slug":"90414-ceai-de-specialitate","selected":false}],"products":[{"code":"100042120","variantCode":"70177077693","name":"Ceai negru english breakfast 25 plicuri","slug":"100042120-twinings-ceai-negru-english-breakfast-25-plicuri","unitPriceLabel":"357,8 Lei/kg","brand":"Twinings","brandCode":"643","brandFilterCode":"twinings-b644","sku":"100042120","price":17.89,"originalPrice":null,"currencyCode":"RON","currency":"Lei","image":{"thumbnail":{"default":"https://cdn.freshful.ro/media/cache/sylius_shop_product_thumbnail/03/2c/50029d322afce355d82cc2e511f9.jpg"},"large":{"default":"https://cdn.freshful.ro/media/cache/freshful_large/03/2c/50029d322afce355d82cc2e511f9.jpg"},"extralarge":{"default":"https://cdn.freshful.ro/media/cache/sylius_shop_product_original/03/2c/50029d322afce355d82cc2e511f9.jpg"}},"label":null,"tags":[],"isAvailable":true,"maxAvailableQuantity":100,"maxAllowedQuantity":100,"breadcrumbs":[{"code":"9","name":"Dulciuri & mic dejun","slug":"9-ceva-dulce"},{"code":"904","name":"Cafea și ceai","slug":"904-cafea-si-ceai"},{"code":"90410","name":"Ceai negru","slug":"90410-ceai-negru"},{"code":"100042120","name":"Ceai negru english breakfast 25 plicuri","slug":"100042120-twinings-ceai-negru-english-breakfast-25-plicuri"}],"activePromotion":null,"saveMe":null,"labels":[],"geniusPrice":null,"geniusUnitPricePerLabel":null,"banner":null,"discountLabel":null,"geniusDiscountLabel":null,"badge":null},{"code":"100058740","variantCode":"100058740","name":"Ceai negru 20 plicuri","slug":"100058740-teekanne-ceai-negru-20-plicuri","unitPriceLabel":"371,14 Lei/kg","brand":"Teekanne","brandCode":"883","brandFilterCode":"teekanne-b884","sku":"100058740","price":12.99,"originalPrice":null,"currencyCode":"RON","currency":"Lei","image":{"thumbnail":{"default":"https://cdn.freshful.ro/media/cache/sylius_shop_product_thumbnail/7c/d4/2cb1acf04f6c85bdf61eee289088.jpg"},"large":{"default":"https://cdn.freshful.ro/media/cache/freshful_large/7c/d4/2cb1acf04f6c85bdf61eee289088.jpg"},"extralarge":{"default":"https://cdn.freshful.ro/media/cache/sylius_shop_product_original/7c/d4/2cb1acf04f6c85bdf61eee289088.jpg"}},"label":null,"tags":[],"isAvailable":true,"maxAvailableQuantity":8,"maxAllowedQuantity":100,"breadcrumbs":[{"code":"9","name":"Dulciuri & mic dejun","slug":"9-ceva-dulce"},{"code":"904","name":"Cafea și ceai","slug":"904-cafea-si-ceai"},{"code":"90410","name":"Ceai negru","slug":"90410-ceai-negru"},{"code":"100058740","name":"Ceai negru 20 plicuri","slug":"100058740-teekanne-ceai-negru-20-plicuri"}],"activePromotion":null,"saveMe":null,"labels":[],"geniusPrice":null,"geniusUnitPricePerLabel":null,"banner":null,"discountLabel":null,"geniusDiscountLabel":null,"badge":null},{"code":"100042119","variantCode":"70177084806","name":"Ceai negru cu fructe de pădure 25 plicuri","slug":"100042119-twinings-ceai-negru-cu-fructe-de-padure-25-plicuri","unitPriceLabel":"470 Lei/kg","brand":"Twinings","brandCode":"643","brandFilterCode":"twinings-b644","sku":"100042119","price":23.5,"originalPrice":null,"currencyCode":"RON","currency":"Lei","image":{"thumbnail":{"default":"https://cdn.freshful.ro/media/cache/sylius_shop_product_thumbnail/ee/3b/0a5d4f74cc71bf8d9e41c3a38a0e.jpg"},"large":{"default":"https://cdn.freshful.ro/media/cache/freshful_large/ee/3b/0a5d4f74cc71bf8d9e41c3a38a0e.jpg"},"extralarge":{"default":"https://cdn.freshful.ro/media/cache/sylius_shop_product_original/ee/3b/0a5d4f74cc71bf8d9e41c3a38a0e.jpg"}},"label":null,"tags":[],"isAvailable":true,"maxAvailableQuantity":36,"maxAllowedQuantity":100,"breadcrumbs":[{"code":"9","name":"Dulciuri & mic dejun","slug":"9-ceva-dulce"},{"code":"904","name":"Cafea și ceai","slug":"904-cafea-si-ceai"},{"code":"90410","name":"Ceai negru","slug":"90410-ceai-negru"},{"code":"100042119","name":"Ceai negru cu fructe de pădure 25 plicuri","slug":"100042119-twinings-ceai-negru-cu-fructe-de-padure-25-plicuri"}],"activePromotion":null,"saveMe":null,"labels":[],"geniusPrice":null,"geniusUnitPricePerLabel":null,"banner":null,"discountLabel":null,"geniusDiscountLabel":null,"badge":null},{"code":"100087607","variantCode":"6425824105320","name":"Ceai negru cu caramel 50g","slug":"100087607-mount-himalaya-tea-ceai-negru-cu-caramel-50g","unitPriceLabel":"261,4 Lei/kg","brand":"Mount Himalaya Tea","brandCode":"99","brandFilterCode":"mount-himalaya-tea-b144","sku":"100087607","price":13.07,"originalPrice":null,"currencyCode":"RON","currency":"Lei","image":{"thumbnail":{"default":"https://cdn.freshful.ro/media/cache/sylius_shop_product_thumbnail/f4/c1/3ddb3e9d3ca1a2066d89ebf56f1a.jpg"},"large":{"default":"https://cdn.freshful.ro/media/cache/freshful_large/f4/c1/3ddb3e9d3ca1a2066d89ebf56f1a.jpg"},"extralarge":{"default":"https://cdn.freshful.ro/media/cache/sylius_shop_product_original/f4/c1/3ddb3e9d3ca1a2066d89ebf56f1a.jpg"}},"label":null,"tags":[],"isAvailable":true,"maxAvailableQuantity":15,"maxAllowedQuantity":100,"breadcrumbs":[{"code":"9","name":"Dulciuri & mic dejun","slug":"9-ceva-dulce"},{"code":"904","name":"Cafea și ceai","slug":"904-cafea-si-ceai"},{"code":"90410","name":"Ceai negru","slug":"90410-ceai-negru"},{"code":"100087607","name":"Ceai negru cu caramel 50g","slug":"100087607-mount-himalaya-tea-ceai-negru-cu-caramel-50g"}],"activePromotion":null,"saveMe":null,"labels":[],"geniusPrice":null,"geniusUnitPricePerLabel":null,"banner":null,"discountLabel":null,"geniusDiscountLabel":null,"badge":null},{"code":"100145204","variantCode":"100145204","name":"Ceai Premium Earl Grey 20 plicuri x 2g","slug":"100145204-teekanne-ceai-premium-earl-grey-20-plicuri-x-2g","unitPriceLabel":"374,75 Lei/kg","brand":"Teekanne","brandCode":"883","brandFilterCode":"teekanne-b884","sku":"100145204","price":14.99,"originalPrice":null,"currencyCode":"RON","currency":"Lei","image":{"thumbnail":{"default":"https://cdn.freshful.ro/media/cache/sylius_shop_product_thumbnail/8b/10/a20894fa857faf27b3e539804154.jpg"},"large":{"default":"https://cdn.freshful.ro/media/cache/freshful_large/8b/10/a20894fa857faf27b3e539804154.jpg"},"extralarge":{"default":"https://cdn.freshful.ro/media/cache/sylius_shop_product_original/8b/10/a20894fa857faf27b3e539804154.jpg"}},"label":null,"tags":[],"isAvailable":true,"maxAvailableQuantity":15,"maxAllowedQuantity":100,"breadcrumbs":[{"code":"9","name":"Dulciuri & mic dejun","slug":"9-ceva-dulce"},{"code":"904","name":"Cafea și ceai","slug":"904-cafea-si-ceai"},{"code":"90410","name":"Ceai negru","slug":"90410-ceai-negru"},{"code":"100145204","name":"Ceai Premium Earl Grey 20 plicuri x 2g","slug":"100145204-teekanne-ceai-premium-earl-grey-20-plicuri-x-2g"}],"activePromotion":null,"saveMe":null,"labels":[],"geniusPrice":null,"geniusUnitPricePerLabel":null,"banner":null,"discountLabel":null,"geniusDiscountLabel":null,"badge":null},{"code":"100061498","variantCode":"6423602008214","name":"Ceai oriental condimentat Tabieturi 12 plicuri","slug":"100061498-alevia-ceai-oriental-condimentat-tabieturi-12-plicuri","unitPriceLabel":"538,08 Lei/kg","brand":"Alevia","brandCode":"83","brandFilterCode":"alevia-b128","sku":"100061498","price":13.99,"originalPrice":null,"currencyCode":"RON","currency":"Lei","image":{"thumbnail":{"default":"https://cdn.freshful.ro/media/cache/sylius_shop_product_thumbnail/42/6e/c5bf15be1e59709c7c61a351094c.jpg"},"large":{"default":"https://cdn.freshful.ro/media/cache/freshful_large/42/6e/c5bf15be1e59709c7c61a351094c.jpg"},"extralarge":{"default":"https://cdn.freshful.ro/media/cache/sylius_shop_product_original/42/6e/c5bf15be1e59709c7c61a351094c.jpg"}},"label":null,"tags":[{"type":"Natural","text":"Natural","icon":"https://cdn.freshful.ro/assets/product_tags/natural.svg","iconPng":"https://cdn.freshful.ro/assets/product_tags/natural.png","backgroundColor":"#E9FCF2","textColor":"#18AF62"}],"isAvailable":true,"maxAvailableQuantity":49,"maxAllowedQuantity":100,"breadcrumbs":[{"code":"9","name":"Dulciuri & mic dejun","slug":"9-ceva-dulce"},{"code":"904","name":"Cafea și ceai","slug":"904-cafea-si-ceai"},{"code":"90410","name":"Ceai negru","slug":"90410-ceai-negru"},{"code":"100061498","name":"Ceai oriental condimentat Tabieturi 12 plicuri","slug":"100061498-alevia-ceai-oriental-condimentat-tabieturi-12-plicuri"}],"activePromotion":null,"saveMe":null,"labels":[],"geniusPrice":null,"geniusUnitPricePerLabel":null,"banner":null,"discountLabel":null,"geniusDiscountLabel":null,"badge":null},{"code":"100087613","variantCode":"6425824105290","name":"Ceai negru Earl grey 50g","slug":"100087613-mount-himalaya-tea-ceai-negru-earl-grey-50g","unitPriceLabel":"237,6 Lei/kg","brand":"Mount Himalaya Tea","brandCode":"99","brandFilterCode":"mount-himalaya-tea-b144","sku":"100087613","price":11.88,"originalPrice":null,"currencyCode":"RON","currency":"Lei","image":{"thumbnail":{"default":"https://cdn.freshful.ro/media/cache/sylius_shop_product_thumbnail/0c/69/432ab383b39082f3612395a83370.jpg"},"large":{"default":"https://cdn.freshful.ro/media/cache/freshful_large/0c/69/432ab383b39082f3612395a83370.jpg"},"extralarge":{"default":"https://cdn.freshful.ro/media/cache/sylius_shop_product_original/0c/69/432ab383b39082f3612395a83370.jpg"}},"label":null,"tags":[],"isAvailable":true,"maxAvailableQuantity":11,"maxAllowedQuantity":100,"breadcrumbs":[{"code":"9","name":"Dulciuri & mic dejun","slug":"9-ceva-dulce"},{"code":"904","name":"Cafea și ceai","slug":"904-cafea-si-ceai"},{"code":"90410","name":"Ceai negru","slug":"90410-ceai-negru"},{"code":"100087613","name":"Ceai negru Earl grey 50g","slug":"100087613-mount-himalaya-tea-ceai-negru-earl-grey-50g"}],"activePromotion":null,"saveMe":null,"labels":[],"geniusPrice":null,"geniusUnitPricePerLabel":null,"banner":null,"discountLabel":null,"geniusDiscountLabel":null,"badge":null},{"code":"100058737","variantCode":"100058737","name":"Ceai Irish Cream 20 plicuri ","slug":"100058737-teekanne-ceai-irish-cream-20-plicuri","unitPriceLabel":"295,45 Lei/kg","brand":"Teekanne","brandCode":"883","brandFilterCode":"teekanne-b884","sku":"100058737","price":9.75,"originalPrice":null,"currencyCode":"RON","currency":"Lei","image":{"thumbnail":{"default":"https://cdn.freshful.ro/media/cache/sylius_shop_product_thumbnail/31/ff/c1ba77949315424327e76b87daa6.jpg"},"large":{"default":"https://cdn.freshful.ro/media/cache/freshful_large/31/ff/c1ba77949315424327e76b87daa6.jpg"},"extralarge":{"default":"https://cdn.freshful.ro/media/cache/sylius_shop_product_original/31/ff/c1ba77949315424327e76b87daa6.jpg"}},"label":null,"tags":[],"isAvailable":true,"maxAvailableQuantity":11,"maxAllowedQuantity":100,"breadcrumbs":[{"code":"9","name":"Dulciuri & mic dejun","slug":"9-ceva-dulce"},{"code":"904","name":"Cafea și ceai","slug":"904-cafea-si-ceai"},{"code":"90410","name":"Ceai negru","slug":"90410-ceai-negru"},{"code":"100058737","name":"Ceai Irish Cream 20 plicuri ","slug":"100058737-teekanne-ceai-irish-cream-20-plicuri"}],"activePromotion":null,"saveMe":null,"labels":[],"geniusPrice":null,"geniusUnitPricePerLabel":null,"banner":null,"discountLabel":null,"geniusDiscountLabel":null,"badge":null},{"code":"100143110","variantCode":"100143110","name":"Ceai negru Earl Grey plicuri 25*2g","slug":"100143110-sir-roger-ceai-negru-earl-grey-plicuri-25-2g","unitPriceLabel":"299,8 Lei/kg","brand":"Sir Roger","brandCode":"2764","brandFilterCode":"sir-roger-b2839","sku":"100143110","price":14.99,"originalPrice":null,"currencyCode":"RON","currency":"Lei","image":{"thumbnail":{"default":"https://cdn.freshful.ro/media/cache/sylius_shop_product_thumbnail/e3/cc/37b34107dc4d5e4f4cd17c7e978a.jpg"},"large":{"default":"https://cdn.freshful.ro/media/cache/freshful_large/e3/cc/37b34107dc4d5e4f4cd17c7e978a.jpg"},"extralarge":{"default":"https://cdn.freshful.ro/media/cache/sylius_shop_product_original/e3/cc/37b34107dc4d5e4f4cd17c7e978a.jpg"}},"label":null,"tags":[],"isAvailable":true,"maxAvailableQuantity":17,"maxAllowedQuantity":100,"breadcrumbs":[{"code":"9","name":"Dulciuri & mic dejun","slug":"9-ceva-dulce"},{"code":"904","name":"Cafea și ceai","slug":"904-cafea-si-ceai"},{"code":"90410","name":"Ceai negru","slug":"90410-ceai-negru"},{"code":"100143110","name":"Ceai negru Earl Grey plicuri 25*2g","slug":"100143110-sir-roger-ceai-negru-earl-grey-plicuri-25-2g"}],"activePromotion":null,"saveMe":null,"labels":[],"geniusPrice":null,"geniusUnitPricePerLabel":null,"banner":null,"discountLabel":null,"geniusDiscountLabel":null,"badge":null},{"code":"100061087","variantCode":"100061087","name":"Ceai Yellow Label 50 plicuri 100g","slug":"100061087-lipton-ceai-yellow-label-50-plicuri-100g","unitPriceLabel":"425 Lei/kg","brand":"Lipton","brandCode":"141","brandFilterCode":"lipton-b125","sku":"100061087","price":21.25,"originalPrice":null,"currencyCode":"RON","currency":"Lei","image":{"thumbnail":{"default":"https://cdn.freshful.ro/media/cache/sylius_shop_product_thumbnail/ff/d7/4ec4d12a4e3e6662085c9d435b6e.jpg"},"large":{"default":"https://cdn.freshful.ro/media/cache/freshful_large/ff/d7/4ec4d12a4e3e6662085c9d435b6e.jpg"},"extralarge":{"default":"https://cdn.freshful.ro/media/cache/sylius_shop_product_original/ff/d7/4ec4d12a4e3e6662085c9d435b6e.jpg"}},"label":null,"tags":[],"isAvailable":true,"maxAvailableQuantity":1,"maxAllowedQuantity":100,"breadcrumbs":[{"code":"9","name":"Dulciuri & mic dejun","slug":"9-ceva-dulce"},{"code":"904","name":"Cafea și ceai","slug":"904-cafea-si-ceai"},{"code":"90410","name":"Ceai negru","slug":"90410-ceai-negru"},{"code":"100061087","name":"Ceai Yellow Label 50 plicuri 100g","slug":"100061087-lipton-ceai-yellow-label-50-plicuri-100g"}],"activePromotion":null,"saveMe":null,"labels":[],"geniusPrice":null,"geniusUnitPricePerLabel":null,"banner":null,"discountLabel":null,"geniusDiscountLabel":null,"badge":null}],"filters":{"countSelected":0,"items":[{"code":"brand","name":"Brand","countSelected":0,"values":[{"code":"5-o-clock-tea-time-b143","name":"5 O'Clock Tea Time","isSelected":false,"count":2},{"code":"alevia-b128","name":"Alevia","isSelected":false,"count":2},{"code":"belin-b1379","name":"Belin","isSelected":false,"count":1},{"code":"beyoutea-b1559","name":"BeYouTea","isSelected":false,"count":2},{"code":"lipton-b125","name":"Lipton","isSelected":false,"count":1},{"code":"mount-himalaya-tea-b144","name":"Mount Himalaya Tea","isSelected":false,"count":5},{"code":"sir-roger-b2839","name":"Sir Roger","isSelected":false,"count":2},{"code":"teekanne-b884","name":"Teekanne","isSelected":false,"count":3},{"code":"twinings-b644","name":"Twinings","isSelected":false,"count":3}]},{"code":"diet_lifestyle","name":"Dietă și lifestyle","countSelected":0,"values":[{"code":"natural-a27","name":"Natural","isSelected":false,"count":1}]}]},"orderBy":[{"field":"price","direction":"asc","name":"Preț crescător","isSelected":false},{"field":"price","direction":"desc","name":"Preț descrescător","isSelected":false},{"field":"popularity","direction":"desc","name":"Cele mai populare","isSelected":true},{"field":"category","direction":"asc","name":"Categorie","isSelected":false}],"metaTitle":"Ceai negru - Gamă variată","metaDescription":"Vrei Ceai negru? Alege dintr-o gamă variată. Comanzi simplu și ai livrare rapidă, calitate și prospețime. Hai pe Freshful.ro","metaKeywords":null,"banners":[]}}