{"type":"subcategory","payload":{"analyticsListId":"category_90411-ceai-verde","analyticsListName":"Category - Ceai verde","name":"Ceai verde","slug":"90411-ceai-verde","image":null,"breadcrumbs":[{"code":"9","name":"Dulciuri & mic dejun","slug":"9-ceva-dulce"},{"code":"904","name":"Cafea și ceai","slug":"904-cafea-si-ceai"},{"code":"90411","name":"Ceai verde","slug":"90411-ceai-verde"}],"slots":[],"page":1,"limit":10,"pages":4,"count":34,"siblings":[{"name":"Biscuiți, napolitane și prăjituri","slug":"902-biscuiti-napolitane-si-prajituri","selected":false},{"name":"Cereale și mic dejun","slug":"903-cereale-si-mic-dejun","selected":false},{"name":"Cafea și ceai","slug":"904-cafea-si-ceai","selected":true},{"name":"Bomboane și ciocolată","slug":"905-bomboane-si-ciocolata","selected":false}],"children":[{"name":"Toate produsele","slug":"904-cafea-si-ceai","selected":false},{"name":"Cafea de specialitate","slug":"90401-cafea-de-specialitate","selected":false},{"name":"Cafea boabe","slug":"90402-cafea-boabe","selected":false},{"name":"Cafea măcinată","slug":"90403-cafea-macinata","selected":false},{"name":"Cafea solubilă","slug":"90404-cafea-solubila","selected":false},{"name":"Capsule","slug":"90405-capsule","selected":false},{"name":"Sirop cafea","slug":"90406-filtre-cafea","selected":false},{"name":"Cicoare și lapte condensat","slug":"90407-cicoare-si-lapte-concentrat","selected":false},{"name":"Cappuccino și mixuri","slug":"90408-capuccino-si-mixuri","selected":false},{"name":"Ciocolată caldă","slug":"90409-ciocolata-calda","selected":false},{"name":"Ceai negru","slug":"90410-ceai-negru","selected":false},{"name":"Ceai verde","slug":"90411-ceai-verde","selected":true},{"name":"Ceai din fructe","slug":"90412-ceai-din-fructe","selected":false},{"name":"Ceai din plante","slug":"90413-ceai-din-plante","selected":false},{"name":"Ceai de specialitate","slug":"90414-ceai-de-specialitate","selected":false}],"products":[{"code":"100042118","variantCode":"70177086664","name":"Ceai verde pur 25 plicuri","slug":"100042118-twinings-ceai-verde-pur-25-plicuri","unitPriceLabel":"341,8 Lei/kg","brand":"Twinings","brandCode":"643","brandFilterCode":"twinings-b644","sku":"100042118","price":17.09,"originalPrice":null,"currencyCode":"RON","currency":"Lei","image":{"thumbnail":{"default":"https://cdn.freshful.ro/media/cache/sylius_shop_product_thumbnail/31/2f/048feeda84052ddc9470e9fdb8df.jpg"},"large":{"default":"https://cdn.freshful.ro/media/cache/freshful_large/31/2f/048feeda84052ddc9470e9fdb8df.jpg"},"extralarge":{"default":"https://cdn.freshful.ro/media/cache/sylius_shop_product_original/31/2f/048feeda84052ddc9470e9fdb8df.jpg"}},"label":null,"tags":[],"isAvailable":true,"maxAvailableQuantity":25,"maxAllowedQuantity":100,"breadcrumbs":[{"code":"9","name":"Dulciuri & mic dejun","slug":"9-ceva-dulce"},{"code":"904","name":"Cafea și ceai","slug":"904-cafea-si-ceai"},{"code":"90411","name":"Ceai verde","slug":"90411-ceai-verde"},{"code":"100042118","name":"Ceai verde pur 25 plicuri","slug":"100042118-twinings-ceai-verde-pur-25-plicuri"}],"activePromotion":null,"saveMe":null,"labels":[],"geniusPrice":null,"geniusUnitPricePerLabel":null,"banner":null,"discountLabel":null,"geniusDiscountLabel":null,"badge":null},{"code":"100089511","variantCode":"100089511","name":"Ceai verde 20 plicuri","slug":"100089511-belin-ceai-verde-20-plicuri","unitPriceLabel":"101,25 Lei/kg","brand":"Belin","brandCode":"1375","brandFilterCode":"belin-b1379","sku":"100089511","price":4.05,"originalPrice":null,"currencyCode":"RON","currency":"Lei","image":{"thumbnail":{"default":"https://cdn.freshful.ro/media/cache/sylius_shop_product_thumbnail/69/e4/277818c3f2a4778e08b238a97e7f.jpg"},"large":{"default":"https://cdn.freshful.ro/media/cache/freshful_large/69/e4/277818c3f2a4778e08b238a97e7f.jpg"},"extralarge":{"default":"https://cdn.freshful.ro/media/cache/sylius_shop_product_original/69/e4/277818c3f2a4778e08b238a97e7f.jpg"}},"label":null,"tags":[],"isAvailable":true,"maxAvailableQuantity":55,"maxAllowedQuantity":100,"breadcrumbs":[{"code":"9","name":"Dulciuri & mic dejun","slug":"9-ceva-dulce"},{"code":"904","name":"Cafea și ceai","slug":"904-cafea-si-ceai"},{"code":"90411","name":"Ceai verde","slug":"90411-ceai-verde"},{"code":"100089511","name":"Ceai verde 20 plicuri","slug":"100089511-belin-ceai-verde-20-plicuri"}],"activePromotion":null,"saveMe":null,"labels":[],"geniusPrice":null,"geniusUnitPricePerLabel":null,"banner":null,"discountLabel":null,"geniusDiscountLabel":null,"badge":null},{"code":"100061490","variantCode":"6423602008184","name":"Ceai verde cu aromă de iasomie Tabieturi 12 plicuri","slug":"100061490-alevia-ceai-verde-cu-aroma-de-iasomie-tabieturi-12-plicuri","unitPriceLabel":"538,08 Lei/kg","brand":"Alevia","brandCode":"83","brandFilterCode":"alevia-b128","sku":"100061490","price":13.99,"originalPrice":null,"currencyCode":"RON","currency":"Lei","image":{"thumbnail":{"default":"https://cdn.freshful.ro/media/cache/sylius_shop_product_thumbnail/9e/cf/7f263fa4559a5d219632f67b3a14.jpg"},"large":{"default":"https://cdn.freshful.ro/media/cache/freshful_large/9e/cf/7f263fa4559a5d219632f67b3a14.jpg"},"extralarge":{"default":"https://cdn.freshful.ro/media/cache/sylius_shop_product_original/9e/cf/7f263fa4559a5d219632f67b3a14.jpg"}},"label":null,"tags":[],"isAvailable":true,"maxAvailableQuantity":27,"maxAllowedQuantity":100,"breadcrumbs":[{"code":"9","name":"Dulciuri & mic dejun","slug":"9-ceva-dulce"},{"code":"904","name":"Cafea și ceai","slug":"904-cafea-si-ceai"},{"code":"90411","name":"Ceai verde","slug":"90411-ceai-verde"},{"code":"100061490","name":"Ceai verde cu aromă de iasomie Tabieturi 12 plicuri","slug":"100061490-alevia-ceai-verde-cu-aroma-de-iasomie-tabieturi-12-plicuri"}],"activePromotion":null,"saveMe":null,"labels":[],"geniusPrice":null,"geniusUnitPricePerLabel":null,"banner":null,"discountLabel":null,"geniusDiscountLabel":null,"badge":null},{"code":"100061089","variantCode":"100061089","name":"Ceai verde cu aromă de mandarine și portocală 20 plicuri 36g","slug":"100061089-lipton-ceai-verde-cu-aroma-de-mandarine-si-portocala-20-plicuri-36g","unitPriceLabel":"439,06 Lei/kg","brand":"Lipton","brandCode":"141","brandFilterCode":"lipton-b125","sku":"100061089","price":14.05,"originalPrice":null,"currencyCode":"RON","currency":"Lei","image":{"thumbnail":{"default":"https://cdn.freshful.ro/media/cache/sylius_shop_product_thumbnail/80/1a/526dc83b20b4c07e13e38de05f84.jpg"},"large":{"default":"https://cdn.freshful.ro/media/cache/freshful_large/80/1a/526dc83b20b4c07e13e38de05f84.jpg"},"extralarge":{"default":"https://cdn.freshful.ro/media/cache/sylius_shop_product_original/80/1a/526dc83b20b4c07e13e38de05f84.jpg"}},"label":null,"tags":[],"isAvailable":true,"maxAvailableQuantity":5,"maxAllowedQuantity":100,"breadcrumbs":[{"code":"9","name":"Dulciuri & mic dejun","slug":"9-ceva-dulce"},{"code":"904","name":"Cafea și ceai","slug":"904-cafea-si-ceai"},{"code":"90411","name":"Ceai verde","slug":"90411-ceai-verde"},{"code":"100061089","name":"Ceai verde cu aromă de mandarine și portocală 20 plicuri 36g","slug":"100061089-lipton-ceai-verde-cu-aroma-de-mandarine-si-portocala-20-plicuri-36g"}],"activePromotion":null,"saveMe":null,"labels":[],"geniusPrice":null,"geniusUnitPricePerLabel":null,"banner":null,"discountLabel":null,"geniusDiscountLabel":null,"badge":null},{"code":"100042123","variantCode":"70177173791","name":"Ceai verde cu aromă de rodie, zmeură și căpșuni 25 plicuri","slug":"100042123-twinings-ceai-verde-cu-aroma-de-rodie-zmeura-si-capsuni-25-plicuri","unitPriceLabel":"626,67 Lei/kg","brand":"Twinings","brandCode":"643","brandFilterCode":"twinings-b644","sku":"100042123","price":23.5,"originalPrice":null,"currencyCode":"RON","currency":"Lei","image":{"thumbnail":{"default":"https://cdn.freshful.ro/media/cache/sylius_shop_product_thumbnail/52/84/4b5036a6270647fce0c8a3d0dd4e.jpg"},"large":{"default":"https://cdn.freshful.ro/media/cache/freshful_large/52/84/4b5036a6270647fce0c8a3d0dd4e.jpg"},"extralarge":{"default":"https://cdn.freshful.ro/media/cache/sylius_shop_product_original/52/84/4b5036a6270647fce0c8a3d0dd4e.jpg"}},"label":null,"tags":[],"isAvailable":true,"maxAvailableQuantity":19,"maxAllowedQuantity":100,"breadcrumbs":[{"code":"9","name":"Dulciuri & mic dejun","slug":"9-ceva-dulce"},{"code":"904","name":"Cafea și ceai","slug":"904-cafea-si-ceai"},{"code":"90411","name":"Ceai verde","slug":"90411-ceai-verde"},{"code":"100042123","name":"Ceai verde cu aromă de rodie, zmeură și căpșuni 25 plicuri","slug":"100042123-twinings-ceai-verde-cu-aroma-de-rodie-zmeura-si-capsuni-25-plicuri"}],"activePromotion":null,"saveMe":null,"labels":[],"geniusPrice":null,"geniusUnitPricePerLabel":null,"banner":null,"discountLabel":null,"geniusDiscountLabel":null,"badge":null},{"code":"100042113","variantCode":"70177173203","name":"Ceai verde cu aromă de mentă 25 plicuri","slug":"100042113-twinings-ceai-verde-cu-aroma-de-menta-25-plicuri","unitPriceLabel":"582,4 Lei/kg","brand":"Twinings","brandCode":"643","brandFilterCode":"twinings-b644","sku":"100042113","price":21.84,"originalPrice":null,"currencyCode":"RON","currency":"Lei","image":{"thumbnail":{"default":"https://cdn.freshful.ro/media/cache/sylius_shop_product_thumbnail/c1/b6/4778eb49418c86da63268afd0537.jpg"},"large":{"default":"https://cdn.freshful.ro/media/cache/freshful_large/c1/b6/4778eb49418c86da63268afd0537.jpg"},"extralarge":{"default":"https://cdn.freshful.ro/media/cache/sylius_shop_product_original/c1/b6/4778eb49418c86da63268afd0537.jpg"}},"label":null,"tags":[],"isAvailable":true,"maxAvailableQuantity":40,"maxAllowedQuantity":100,"breadcrumbs":[{"code":"9","name":"Dulciuri & mic dejun","slug":"9-ceva-dulce"},{"code":"904","name":"Cafea și ceai","slug":"904-cafea-si-ceai"},{"code":"90411","name":"Ceai verde","slug":"90411-ceai-verde"},{"code":"100042113","name":"Ceai verde cu aromă de mentă 25 plicuri","slug":"100042113-twinings-ceai-verde-cu-aroma-de-menta-25-plicuri"}],"activePromotion":null,"saveMe":null,"labels":[],"geniusPrice":null,"geniusUnitPricePerLabel":null,"banner":null,"discountLabel":null,"geniusDiscountLabel":null,"badge":null},{"code":"100042124","variantCode":"70177173784","name":"Ceai verde cu aromă de cireșe și vanilie 25 plicuri","slug":"100042124-twinings-ceai-verde-cu-aroma-de-cirese-si-vanilie-25-plicuri","unitPriceLabel":"552,94 Lei/kg","brand":"Twinings","brandCode":"643","brandFilterCode":"twinings-b644","sku":"100042124","price":23.5,"originalPrice":null,"currencyCode":"RON","currency":"Lei","image":{"thumbnail":{"default":"https://cdn.freshful.ro/media/cache/sylius_shop_product_thumbnail/7e/2a/411f9b1bf6f1224b48691d9f2005.jpg"},"large":{"default":"https://cdn.freshful.ro/media/cache/freshful_large/7e/2a/411f9b1bf6f1224b48691d9f2005.jpg"},"extralarge":{"default":"https://cdn.freshful.ro/media/cache/sylius_shop_product_original/7e/2a/411f9b1bf6f1224b48691d9f2005.jpg"}},"label":null,"tags":[],"isAvailable":true,"maxAvailableQuantity":24,"maxAllowedQuantity":100,"breadcrumbs":[{"code":"9","name":"Dulciuri & mic dejun","slug":"9-ceva-dulce"},{"code":"904","name":"Cafea și ceai","slug":"904-cafea-si-ceai"},{"code":"90411","name":"Ceai verde","slug":"90411-ceai-verde"},{"code":"100042124","name":"Ceai verde cu aromă de cireșe și vanilie 25 plicuri","slug":"100042124-twinings-ceai-verde-cu-aroma-de-cirese-si-vanilie-25-plicuri"}],"activePromotion":null,"saveMe":null,"labels":[],"geniusPrice":null,"geniusUnitPricePerLabel":null,"banner":null,"discountLabel":null,"geniusDiscountLabel":null,"badge":null},{"code":"100058736","variantCode":"100058736","name":"Ceai verde de lămâie 20 plicuri","slug":"100058736-teekanne-ceai-verde-de-lamaie-20-plicuri","unitPriceLabel":"278,57 Lei/kg","brand":"Teekanne","brandCode":"883","brandFilterCode":"teekanne-b884","sku":"100058736","price":9.75,"originalPrice":null,"currencyCode":"RON","currency":"Lei","image":{"thumbnail":{"default":"https://cdn.freshful.ro/media/cache/sylius_shop_product_thumbnail/3f/43/00dfc8e5171e0c75fbd8a163fd2b.jpg"},"large":{"default":"https://cdn.freshful.ro/media/cache/freshful_large/3f/43/00dfc8e5171e0c75fbd8a163fd2b.jpg"},"extralarge":{"default":"https://cdn.freshful.ro/media/cache/sylius_shop_product_original/3f/43/00dfc8e5171e0c75fbd8a163fd2b.jpg"}},"label":null,"tags":[],"isAvailable":true,"maxAvailableQuantity":17,"maxAllowedQuantity":100,"breadcrumbs":[{"code":"9","name":"Dulciuri & mic dejun","slug":"9-ceva-dulce"},{"code":"904","name":"Cafea și ceai","slug":"904-cafea-si-ceai"},{"code":"90411","name":"Ceai verde","slug":"90411-ceai-verde"},{"code":"100058736","name":"Ceai verde de lămâie 20 plicuri","slug":"100058736-teekanne-ceai-verde-de-lamaie-20-plicuri"}],"activePromotion":null,"saveMe":null,"labels":[],"geniusPrice":null,"geniusUnitPricePerLabel":null,"banner":null,"discountLabel":null,"geniusDiscountLabel":null,"badge":null},{"code":"100042117","variantCode":"70177173166","name":"Ceai verde cu aromă de iasomie 25 plicuri","slug":"100042117-twinings-ceai-verde-cu-aroma-de-iasomie-25-plicuri","unitPriceLabel":"422 Lei/kg","brand":"Twinings","brandCode":"643","brandFilterCode":"twinings-b644","sku":"100042117","price":18.99,"originalPrice":null,"currencyCode":"RON","currency":"Lei","image":{"thumbnail":{"default":"https://cdn.freshful.ro/media/cache/sylius_shop_product_thumbnail/ee/66/2ba0a73c87f3d62fdfb4f4febcae.jpg"},"large":{"default":"https://cdn.freshful.ro/media/cache/freshful_large/ee/66/2ba0a73c87f3d62fdfb4f4febcae.jpg"},"extralarge":{"default":"https://cdn.freshful.ro/media/cache/sylius_shop_product_original/ee/66/2ba0a73c87f3d62fdfb4f4febcae.jpg"}},"label":null,"tags":[],"isAvailable":true,"maxAvailableQuantity":18,"maxAllowedQuantity":100,"breadcrumbs":[{"code":"9","name":"Dulciuri & mic dejun","slug":"9-ceva-dulce"},{"code":"904","name":"Cafea și ceai","slug":"904-cafea-si-ceai"},{"code":"90411","name":"Ceai verde","slug":"90411-ceai-verde"},{"code":"100042117","name":"Ceai verde cu aromă de iasomie 25 plicuri","slug":"100042117-twinings-ceai-verde-cu-aroma-de-iasomie-25-plicuri"}],"activePromotion":null,"saveMe":null,"labels":[],"geniusPrice":null,"geniusUnitPricePerLabel":null,"banner":null,"discountLabel":null,"geniusDiscountLabel":null,"badge":null},{"code":"100092879","variantCode":"6425744400048","name":"Ceai verde 20 plicuri","slug":"100092879-beyoutea-ceai-verde-20-plicuri","unitPriceLabel":"99,75 Lei/buc","brand":"BeYouTea","brandCode":"1553","brandFilterCode":"beyoutea-b1559","sku":"100092879","price":3.99,"originalPrice":null,"currencyCode":"RON","currency":"Lei","image":{"thumbnail":{"default":"https://cdn.freshful.ro/media/cache/sylius_shop_product_thumbnail/1a/53/55669c570dc6bf89b23e9f375de1.jpg"},"large":{"default":"https://cdn.freshful.ro/media/cache/freshful_large/1a/53/55669c570dc6bf89b23e9f375de1.jpg"},"extralarge":{"default":"https://cdn.freshful.ro/media/cache/sylius_shop_product_original/1a/53/55669c570dc6bf89b23e9f375de1.jpg"}},"label":null,"tags":[],"isAvailable":true,"maxAvailableQuantity":17,"maxAllowedQuantity":100,"breadcrumbs":[{"code":"9","name":"Dulciuri & mic dejun","slug":"9-ceva-dulce"},{"code":"904","name":"Cafea și ceai","slug":"904-cafea-si-ceai"},{"code":"90411","name":"Ceai verde","slug":"90411-ceai-verde"},{"code":"100092879","name":"Ceai verde 20 plicuri","slug":"100092879-beyoutea-ceai-verde-20-plicuri"}],"activePromotion":null,"saveMe":null,"labels":[],"geniusPrice":null,"geniusUnitPricePerLabel":null,"banner":null,"discountLabel":null,"geniusDiscountLabel":null,"badge":null}],"filters":{"countSelected":0,"items":[{"code":"brand","name":"Brand","countSelected":0,"values":[{"code":"5-o-clock-tea-time-b143","name":"5 O'Clock Tea Time","isSelected":false,"count":10},{"code":"alevia-b128","name":"Alevia","isSelected":false,"count":1},{"code":"belin-b1379","name":"Belin","isSelected":false,"count":1},{"code":"beyoutea-b1559","name":"BeYouTea","isSelected":false,"count":2},{"code":"lipton-b125","name":"Lipton","isSelected":false,"count":2},{"code":"mount-himalaya-tea-b144","name":"Mount Himalaya Tea","isSelected":false,"count":7},{"code":"teekanne-b884","name":"Teekanne","isSelected":false,"count":2},{"code":"twinings-b644","name":"Twinings","isSelected":false,"count":9}]}]},"orderBy":[{"field":"price","direction":"asc","name":"Preț crescător","isSelected":false},{"field":"price","direction":"desc","name":"Preț descrescător","isSelected":false},{"field":"popularity","direction":"desc","name":"Cele mai populare","isSelected":true},{"field":"category","direction":"asc","name":"Categorie","isSelected":false}],"metaTitle":"Ceai verde - Gamă variată","metaDescription":"Vrei Ceai verde? Alege dintr-o gamă variată. Comanzi simplu și ai livrare rapidă, calitate și prospețime. Hai pe Freshful.ro","metaKeywords":null,"banners":[]}}