{"type":"subcategory","payload":{"analyticsListId":"category_90412-ceai-din-fructe","analyticsListName":"Category - Ceai din fructe","name":"Ceai din fructe","slug":"90412-ceai-din-fructe","image":null,"breadcrumbs":[{"code":"9","name":"Dulciuri & mic dejun","slug":"9-ceva-dulce"},{"code":"904","name":"Cafea și ceai","slug":"904-cafea-si-ceai"},{"code":"90412","name":"Ceai din fructe","slug":"90412-ceai-din-fructe"}],"slots":[],"page":1,"limit":10,"pages":5,"count":49,"siblings":[{"name":"Biscuiți, napolitane și prăjituri","slug":"902-biscuiti-napolitane-si-prajituri","selected":false},{"name":"Cereale și mic dejun","slug":"903-cereale-si-mic-dejun","selected":false},{"name":"Cafea și ceai","slug":"904-cafea-si-ceai","selected":true},{"name":"Bomboane și ciocolată","slug":"905-bomboane-si-ciocolata","selected":false}],"children":[{"name":"Toate produsele","slug":"904-cafea-si-ceai","selected":false},{"name":"Cafea de specialitate","slug":"90401-cafea-de-specialitate","selected":false},{"name":"Cafea boabe","slug":"90402-cafea-boabe","selected":false},{"name":"Cafea măcinată","slug":"90403-cafea-macinata","selected":false},{"name":"Cafea solubilă","slug":"90404-cafea-solubila","selected":false},{"name":"Capsule","slug":"90405-capsule","selected":false},{"name":"Sirop cafea","slug":"90406-filtre-cafea","selected":false},{"name":"Cicoare și lapte condensat","slug":"90407-cicoare-si-lapte-concentrat","selected":false},{"name":"Cappuccino și mixuri","slug":"90408-capuccino-si-mixuri","selected":false},{"name":"Ciocolată caldă","slug":"90409-ciocolata-calda","selected":false},{"name":"Ceai negru","slug":"90410-ceai-negru","selected":false},{"name":"Ceai verde","slug":"90411-ceai-verde","selected":false},{"name":"Ceai din fructe","slug":"90412-ceai-din-fructe","selected":true},{"name":"Ceai din plante","slug":"90413-ceai-din-plante","selected":false},{"name":"Ceai de specialitate","slug":"90414-ceai-de-specialitate","selected":false}],"products":[{"code":"100058730","variantCode":"100058730","name":"Ceai de zmeură 20 plicuri","slug":"100058730-teekanne-ceai-de-zmeura-20-plicuri","unitPriceLabel":"233,33 Lei/kg","brand":"Teekanne","brandCode":"883","brandFilterCode":"teekanne-b884","sku":"100058730","price":10.5,"originalPrice":null,"currencyCode":"RON","currency":"Lei","image":{"thumbnail":{"default":"https://cdn.freshful.ro/media/cache/sylius_shop_product_thumbnail/fe/94/48b6d345dea8fc121a55bb189fb7.jpg"},"large":{"default":"https://cdn.freshful.ro/media/cache/freshful_large/fe/94/48b6d345dea8fc121a55bb189fb7.jpg"},"extralarge":{"default":"https://cdn.freshful.ro/media/cache/sylius_shop_product_original/fe/94/48b6d345dea8fc121a55bb189fb7.jpg"}},"label":null,"tags":[],"isAvailable":true,"maxAvailableQuantity":32,"maxAllowedQuantity":100,"breadcrumbs":[{"code":"9","name":"Dulciuri & mic dejun","slug":"9-ceva-dulce"},{"code":"904","name":"Cafea și ceai","slug":"904-cafea-si-ceai"},{"code":"90412","name":"Ceai din fructe","slug":"90412-ceai-din-fructe"},{"code":"100058730","name":"Ceai de zmeură 20 plicuri","slug":"100058730-teekanne-ceai-de-zmeura-20-plicuri"}],"activePromotion":null,"saveMe":null,"labels":[],"geniusPrice":null,"geniusUnitPricePerLabel":null,"banner":null,"discountLabel":null,"geniusDiscountLabel":null,"badge":null},{"code":"100042126","variantCode":"70177177669","name":"Ceai de lămâie și ghimbir 20 plicuri","slug":"100042126-twinings-ceai-de-lamaie-si-ghimbir-20-plicuri","unitPriceLabel":"506,33 Lei/kg","brand":"Twinings","brandCode":"643","brandFilterCode":"twinings-b644","sku":"100042126","price":15.19,"originalPrice":null,"currencyCode":"RON","currency":"Lei","image":{"thumbnail":{"default":"https://cdn.freshful.ro/media/cache/sylius_shop_product_thumbnail/31/ef/35301bcf03e08443c576373d0a66.jpg"},"large":{"default":"https://cdn.freshful.ro/media/cache/freshful_large/31/ef/35301bcf03e08443c576373d0a66.jpg"},"extralarge":{"default":"https://cdn.freshful.ro/media/cache/sylius_shop_product_original/31/ef/35301bcf03e08443c576373d0a66.jpg"}},"label":null,"tags":[],"isAvailable":true,"maxAvailableQuantity":36,"maxAllowedQuantity":100,"breadcrumbs":[{"code":"9","name":"Dulciuri & mic dejun","slug":"9-ceva-dulce"},{"code":"904","name":"Cafea și ceai","slug":"904-cafea-si-ceai"},{"code":"90412","name":"Ceai din fructe","slug":"90412-ceai-din-fructe"},{"code":"100042126","name":"Ceai de lămâie și ghimbir 20 plicuri","slug":"100042126-twinings-ceai-de-lamaie-si-ghimbir-20-plicuri"}],"activePromotion":null,"saveMe":null,"labels":[],"geniusPrice":null,"geniusUnitPricePerLabel":null,"banner":null,"discountLabel":null,"geniusDiscountLabel":null,"badge":null},{"code":"100042125","variantCode":"100042125","name":"Ceai infuzie cu gust de fructe și plante 20 plicuri","slug":"100042125-twinings-ceai-infuzie-cu-gust-de-fructe-si-plante-20-plicuri","unitPriceLabel":"421,78 Lei/kg","brand":"Twinings","brandCode":"643","brandFilterCode":"twinings-b644","sku":"100042125","price":18.98,"originalPrice":null,"currencyCode":"RON","currency":"Lei","image":{"thumbnail":{"default":"https://cdn.freshful.ro/media/cache/sylius_shop_product_thumbnail/7d/75/2d9425497b778f73f84cbd28b4f6.jpg"},"large":{"default":"https://cdn.freshful.ro/media/cache/freshful_large/7d/75/2d9425497b778f73f84cbd28b4f6.jpg"},"extralarge":{"default":"https://cdn.freshful.ro/media/cache/sylius_shop_product_original/7d/75/2d9425497b778f73f84cbd28b4f6.jpg"}},"label":null,"tags":[],"isAvailable":true,"maxAvailableQuantity":39,"maxAllowedQuantity":100,"breadcrumbs":[{"code":"9","name":"Dulciuri & mic dejun","slug":"9-ceva-dulce"},{"code":"904","name":"Cafea și ceai","slug":"904-cafea-si-ceai"},{"code":"90412","name":"Ceai din fructe","slug":"90412-ceai-din-fructe"},{"code":"100042125","name":"Ceai infuzie cu gust de fructe și plante 20 plicuri","slug":"100042125-twinings-ceai-infuzie-cu-gust-de-fructe-si-plante-20-plicuri"}],"activePromotion":null,"saveMe":null,"labels":[],"geniusPrice":null,"geniusUnitPricePerLabel":null,"banner":null,"discountLabel":null,"geniusDiscountLabel":null,"badge":null},{"code":"100089494","variantCode":"100089494","name":"Ceai aromă fructe de pădure 20 plicuri","slug":"100089494-belin-ceai-aroma-fructe-de-padure-20-plicuri","unitPriceLabel":"101,25 Lei/kg","brand":"Belin","brandCode":"1375","brandFilterCode":"belin-b1379","sku":"100089494","price":4.05,"originalPrice":null,"currencyCode":"RON","currency":"Lei","image":{"thumbnail":{"default":"https://cdn.freshful.ro/media/cache/sylius_shop_product_thumbnail/a1/b4/bf9a66f61182a8c0c974548ae122.jpg"},"large":{"default":"https://cdn.freshful.ro/media/cache/freshful_large/a1/b4/bf9a66f61182a8c0c974548ae122.jpg"},"extralarge":{"default":"https://cdn.freshful.ro/media/cache/sylius_shop_product_original/a1/b4/bf9a66f61182a8c0c974548ae122.jpg"}},"label":null,"tags":[],"isAvailable":true,"maxAvailableQuantity":100,"maxAllowedQuantity":100,"breadcrumbs":[{"code":"9","name":"Dulciuri & mic dejun","slug":"9-ceva-dulce"},{"code":"904","name":"Cafea și ceai","slug":"904-cafea-si-ceai"},{"code":"90412","name":"Ceai din fructe","slug":"90412-ceai-din-fructe"},{"code":"100089494","name":"Ceai aromă fructe de pădure 20 plicuri","slug":"100089494-belin-ceai-aroma-fructe-de-padure-20-plicuri"}],"activePromotion":null,"saveMe":null,"labels":[],"geniusPrice":null,"geniusUnitPricePerLabel":null,"banner":null,"discountLabel":null,"geniusDiscountLabel":null,"badge":null},{"code":"100058732","variantCode":"100058732","name":"Ceai Fruit Love 20 plicuri","slug":"100058732-teekanne-ceai-fruit-love-20-plicuri","unitPriceLabel":"177,78 Lei/kg","brand":"Teekanne","brandCode":"883","brandFilterCode":"teekanne-b884","sku":"100058732","price":8,"originalPrice":null,"currencyCode":"RON","currency":"Lei","image":{"thumbnail":{"default":"https://cdn.freshful.ro/media/cache/sylius_shop_product_thumbnail/24/35/59ddc87cebd5b4002bdbd2e2b3f6.jpg"},"large":{"default":"https://cdn.freshful.ro/media/cache/freshful_large/24/35/59ddc87cebd5b4002bdbd2e2b3f6.jpg"},"extralarge":{"default":"https://cdn.freshful.ro/media/cache/sylius_shop_product_original/24/35/59ddc87cebd5b4002bdbd2e2b3f6.jpg"}},"label":null,"tags":[],"isAvailable":true,"maxAvailableQuantity":21,"maxAllowedQuantity":100,"breadcrumbs":[{"code":"9","name":"Dulciuri & mic dejun","slug":"9-ceva-dulce"},{"code":"904","name":"Cafea și ceai","slug":"904-cafea-si-ceai"},{"code":"90412","name":"Ceai din fructe","slug":"90412-ceai-din-fructe"},{"code":"100058732","name":"Ceai Fruit Love 20 plicuri","slug":"100058732-teekanne-ceai-fruit-love-20-plicuri"}],"activePromotion":null,"saveMe":null,"labels":[],"geniusPrice":null,"geniusUnitPricePerLabel":null,"banner":null,"discountLabel":null,"geniusDiscountLabel":null,"badge":null},{"code":"100096350","variantCode":"100096350","name":"Ceai fructe de pădure 20 plicuri","slug":"100096350-plafar-ceai-fructe-de-padure-20-plicuri","unitPriceLabel":"153 Lei/kg","brand":"Plafar","brandCode":"1608","brandFilterCode":"plafar-b1612","sku":"100096350","price":4.59,"originalPrice":null,"currencyCode":"RON","currency":"Lei","image":{"thumbnail":{"default":"https://cdn.freshful.ro/media/cache/sylius_shop_product_thumbnail/f2/13/e2dfb2dfeb06e66ebe8fbde1ec23.jpg"},"large":{"default":"https://cdn.freshful.ro/media/cache/freshful_large/f2/13/e2dfb2dfeb06e66ebe8fbde1ec23.jpg"},"extralarge":{"default":"https://cdn.freshful.ro/media/cache/sylius_shop_product_original/f2/13/e2dfb2dfeb06e66ebe8fbde1ec23.jpg"}},"label":null,"tags":[],"isAvailable":true,"maxAvailableQuantity":58,"maxAllowedQuantity":100,"breadcrumbs":[{"code":"9","name":"Dulciuri & mic dejun","slug":"9-ceva-dulce"},{"code":"904","name":"Cafea și ceai","slug":"904-cafea-si-ceai"},{"code":"90412","name":"Ceai din fructe","slug":"90412-ceai-din-fructe"},{"code":"100096350","name":"Ceai fructe de pădure 20 plicuri","slug":"100096350-plafar-ceai-fructe-de-padure-20-plicuri"}],"activePromotion":null,"saveMe":null,"labels":[],"geniusPrice":null,"geniusUnitPricePerLabel":null,"banner":null,"discountLabel":null,"geniusDiscountLabel":null,"badge":null},{"code":"100096347","variantCode":"100096347","name":"Ceai de fructe 20 plicuri","slug":"100096347-plafar-ceai-de-fructe-20-plicuri","unitPriceLabel":"134,75 Lei/kg","brand":"Plafar","brandCode":"1608","brandFilterCode":"plafar-b1612","sku":"100096347","price":5.39,"originalPrice":null,"currencyCode":"RON","currency":"Lei","image":{"thumbnail":{"default":"https://cdn.freshful.ro/media/cache/sylius_shop_product_thumbnail/ca/2f/ce7002b6dbc86a92e1c1ef31da2e.jpg"},"large":{"default":"https://cdn.freshful.ro/media/cache/freshful_large/ca/2f/ce7002b6dbc86a92e1c1ef31da2e.jpg"},"extralarge":{"default":"https://cdn.freshful.ro/media/cache/sylius_shop_product_original/ca/2f/ce7002b6dbc86a92e1c1ef31da2e.jpg"}},"label":null,"tags":[],"isAvailable":true,"maxAvailableQuantity":50,"maxAllowedQuantity":100,"breadcrumbs":[{"code":"9","name":"Dulciuri & mic dejun","slug":"9-ceva-dulce"},{"code":"904","name":"Cafea și ceai","slug":"904-cafea-si-ceai"},{"code":"90412","name":"Ceai din fructe","slug":"90412-ceai-din-fructe"},{"code":"100096347","name":"Ceai de fructe 20 plicuri","slug":"100096347-plafar-ceai-de-fructe-20-plicuri"}],"activePromotion":null,"saveMe":null,"labels":[],"geniusPrice":null,"geniusUnitPricePerLabel":null,"banner":null,"discountLabel":null,"geniusDiscountLabel":null,"badge":null},{"code":"100096351","variantCode":"100096351","name":"Ceai de merișoare 20 plicuri","slug":"100096351-plafar-ceai-de-merisoare-20-plicuri","unitPriceLabel":"149,67 Lei/kg","brand":"Plafar","brandCode":"1608","brandFilterCode":"plafar-b1612","sku":"100096351","price":4.49,"originalPrice":null,"currencyCode":"RON","currency":"Lei","image":{"thumbnail":{"default":"https://cdn.freshful.ro/media/cache/sylius_shop_product_thumbnail/86/67/3e3f424fd3e00cc429d21ba9d1a7.jpg"},"large":{"default":"https://cdn.freshful.ro/media/cache/freshful_large/86/67/3e3f424fd3e00cc429d21ba9d1a7.jpg"},"extralarge":{"default":"https://cdn.freshful.ro/media/cache/sylius_shop_product_original/86/67/3e3f424fd3e00cc429d21ba9d1a7.jpg"}},"label":null,"tags":[],"isAvailable":true,"maxAvailableQuantity":33,"maxAllowedQuantity":100,"breadcrumbs":[{"code":"9","name":"Dulciuri & mic dejun","slug":"9-ceva-dulce"},{"code":"904","name":"Cafea și ceai","slug":"904-cafea-si-ceai"},{"code":"90412","name":"Ceai din fructe","slug":"90412-ceai-din-fructe"},{"code":"100096351","name":"Ceai de merișoare 20 plicuri","slug":"100096351-plafar-ceai-de-merisoare-20-plicuri"}],"activePromotion":null,"saveMe":null,"labels":[],"geniusPrice":null,"geniusUnitPricePerLabel":null,"banner":null,"discountLabel":null,"geniusDiscountLabel":null,"badge":null},{"code":"100145200","variantCode":"100145200","name":"Ceai de fructe de pădure Premium, 20 plicuri","slug":"100145200-teekanne-ceai-de-fructe-de-padure-premium-20-plicuri","unitPriceLabel":"250 Lei/kg","brand":"Teekanne","brandCode":"883","brandFilterCode":"teekanne-b884","sku":"100145200","price":15,"originalPrice":null,"currencyCode":"RON","currency":"Lei","image":{"thumbnail":{"default":"https://cdn.freshful.ro/media/cache/sylius_shop_product_thumbnail/1f/b0/f09491d99d1704099046aee2d541.jpg"},"large":{"default":"https://cdn.freshful.ro/media/cache/freshful_large/1f/b0/f09491d99d1704099046aee2d541.jpg"},"extralarge":{"default":"https://cdn.freshful.ro/media/cache/sylius_shop_product_original/1f/b0/f09491d99d1704099046aee2d541.jpg"}},"label":null,"tags":[],"isAvailable":true,"maxAvailableQuantity":7,"maxAllowedQuantity":100,"breadcrumbs":[{"code":"9","name":"Dulciuri & mic dejun","slug":"9-ceva-dulce"},{"code":"904","name":"Cafea și ceai","slug":"904-cafea-si-ceai"},{"code":"90412","name":"Ceai din fructe","slug":"90412-ceai-din-fructe"},{"code":"100145200","name":"Ceai de fructe de pădure Premium, 20 plicuri","slug":"100145200-teekanne-ceai-de-fructe-de-padure-premium-20-plicuri"}],"activePromotion":null,"saveMe":null,"labels":[],"geniusPrice":null,"geniusUnitPricePerLabel":null,"banner":null,"discountLabel":null,"geniusDiscountLabel":null,"badge":null},{"code":"100058733","variantCode":"100058733","name":"Ceai cu aromă de rodie Love 20 plicuri","slug":"100058733-teekanne-ceai-cu-aroma-de-rodie-love-20-plicuri","unitPriceLabel":"233,33 Lei/kg","brand":"Teekanne","brandCode":"883","brandFilterCode":"teekanne-b884","sku":"100058733","price":10.5,"originalPrice":null,"currencyCode":"RON","currency":"Lei","image":{"thumbnail":{"default":"https://cdn.freshful.ro/media/cache/sylius_shop_product_thumbnail/b4/d1/443871c623c0376e26b8a5739732.jpg"},"large":{"default":"https://cdn.freshful.ro/media/cache/freshful_large/b4/d1/443871c623c0376e26b8a5739732.jpg"},"extralarge":{"default":"https://cdn.freshful.ro/media/cache/sylius_shop_product_original/b4/d1/443871c623c0376e26b8a5739732.jpg"}},"label":null,"tags":[],"isAvailable":true,"maxAvailableQuantity":32,"maxAllowedQuantity":100,"breadcrumbs":[{"code":"9","name":"Dulciuri & mic dejun","slug":"9-ceva-dulce"},{"code":"904","name":"Cafea și ceai","slug":"904-cafea-si-ceai"},{"code":"90412","name":"Ceai din fructe","slug":"90412-ceai-din-fructe"},{"code":"100058733","name":"Ceai cu aromă de rodie Love 20 plicuri","slug":"100058733-teekanne-ceai-cu-aroma-de-rodie-love-20-plicuri"}],"activePromotion":null,"saveMe":null,"labels":[],"geniusPrice":null,"geniusUnitPricePerLabel":null,"banner":null,"discountLabel":null,"geniusDiscountLabel":null,"badge":null}],"filters":{"countSelected":0,"items":[{"code":"brand","name":"Brand","countSelected":0,"values":[{"code":"5-o-clock-tea-time-b143","name":"5 O'Clock Tea Time","isSelected":false,"count":5},{"code":"alevia-b128","name":"Alevia","isSelected":false,"count":2},{"code":"belin-b1379","name":"Belin","isSelected":false,"count":7},{"code":"beyoutea-b1559","name":"BeYouTea","isSelected":false,"count":8},{"code":"mount-himalaya-tea-b144","name":"Mount Himalaya Tea","isSelected":false,"count":9},{"code":"plafar-b1612","name":"Plafar","isSelected":false,"count":3},{"code":"sir-roger-b2839","name":"Sir Roger","isSelected":false,"count":4},{"code":"teekanne-b884","name":"Teekanne","isSelected":false,"count":7},{"code":"twinings-b644","name":"Twinings","isSelected":false,"count":3},{"code":"woods-foods-b2275","name":"Woods Foods","isSelected":false,"count":1}]},{"code":"diet_lifestyle","name":"Dietă și lifestyle","countSelected":0,"values":[{"code":"fara-sare-a52","name":"Fara sare","isSelected":false,"count":1}]}]},"orderBy":[{"field":"price","direction":"asc","name":"Preț crescător","isSelected":false},{"field":"price","direction":"desc","name":"Preț descrescător","isSelected":false},{"field":"popularity","direction":"desc","name":"Cele mai populare","isSelected":true},{"field":"category","direction":"asc","name":"Categorie","isSelected":false}],"metaTitle":"Ceai din fructe - Gamă variată","metaDescription":"Vrei Ceai din fructe? Alege dintr-o gamă variată. Comanzi simplu și ai livrare rapidă, calitate și prospețime. Hai pe Freshful.ro","metaKeywords":null,"banners":[]}}