{"type":"subcategory","payload":{"analyticsListId":"category_90413-ceai-din-plante","analyticsListName":"Category - Ceai din plante","name":"Ceai din plante","slug":"90413-ceai-din-plante","image":null,"breadcrumbs":[{"code":"9","name":"Dulciuri & mic dejun","slug":"9-ceva-dulce"},{"code":"904","name":"Cafea și ceai","slug":"904-cafea-si-ceai"},{"code":"90413","name":"Ceai din plante","slug":"90413-ceai-din-plante"}],"slots":[],"page":1,"limit":10,"pages":7,"count":64,"siblings":[{"name":"Biscuiți, napolitane și prăjituri","slug":"902-biscuiti-napolitane-si-prajituri","selected":false},{"name":"Cereale și mic dejun","slug":"903-cereale-si-mic-dejun","selected":false},{"name":"Cafea și ceai","slug":"904-cafea-si-ceai","selected":true},{"name":"Bomboane și ciocolată","slug":"905-bomboane-si-ciocolata","selected":false}],"children":[{"name":"Toate produsele","slug":"904-cafea-si-ceai","selected":false},{"name":"Cafea de specialitate","slug":"90401-cafea-de-specialitate","selected":false},{"name":"Cafea boabe","slug":"90402-cafea-boabe","selected":false},{"name":"Cafea măcinată","slug":"90403-cafea-macinata","selected":false},{"name":"Cafea solubilă","slug":"90404-cafea-solubila","selected":false},{"name":"Capsule","slug":"90405-capsule","selected":false},{"name":"Sirop cafea","slug":"90406-filtre-cafea","selected":false},{"name":"Cicoare și lapte condensat","slug":"90407-cicoare-si-lapte-concentrat","selected":false},{"name":"Cappuccino și mixuri","slug":"90408-capuccino-si-mixuri","selected":false},{"name":"Ciocolată caldă","slug":"90409-ciocolata-calda","selected":false},{"name":"Ceai negru","slug":"90410-ceai-negru","selected":false},{"name":"Ceai verde","slug":"90411-ceai-verde","selected":false},{"name":"Ceai din fructe","slug":"90412-ceai-din-fructe","selected":false},{"name":"Ceai din plante","slug":"90413-ceai-din-plante","selected":true},{"name":"Ceai de specialitate","slug":"90414-ceai-de-specialitate","selected":false}],"products":[{"code":"100061476","variantCode":"6423602005510","name":"Ceai de ghimbir 50g","slug":"100061476-alevia-ceai-de-ghimbir-50g","unitPriceLabel":"159,8 Lei/kg","brand":"Alevia","brandCode":"83","brandFilterCode":"alevia-b128","sku":"100061476","price":7.99,"originalPrice":9.99,"currencyCode":"RON","currency":"Lei","image":{"thumbnail":{"default":"https://cdn.freshful.ro/media/cache/sylius_shop_product_thumbnail/5e/c5/8a22045996dc6a233e4999d326ce.jpg"},"large":{"default":"https://cdn.freshful.ro/media/cache/freshful_large/5e/c5/8a22045996dc6a233e4999d326ce.jpg"},"extralarge":{"default":"https://cdn.freshful.ro/media/cache/sylius_shop_product_original/5e/c5/8a22045996dc6a233e4999d326ce.jpg"}},"label":{"text":"-20%","backgroundColor":"#FF9903","textColor":"#FFFFFF"},"tags":[{"type":"Natural","text":"Natural","icon":"https://cdn.freshful.ro/assets/product_tags/natural.svg","iconPng":"https://cdn.freshful.ro/assets/product_tags/natural.png","backgroundColor":"#E9FCF2","textColor":"#18AF62"}],"isAvailable":true,"maxAvailableQuantity":46,"maxAllowedQuantity":100,"breadcrumbs":[{"code":"9","name":"Dulciuri & mic dejun","slug":"9-ceva-dulce"},{"code":"904","name":"Cafea și ceai","slug":"904-cafea-si-ceai"},{"code":"90413","name":"Ceai din plante","slug":"90413-ceai-din-plante"},{"code":"100061476","name":"Ceai de ghimbir 50g","slug":"100061476-alevia-ceai-de-ghimbir-50g"}],"activePromotion":{"code":"oferte-bacanie-bauturi-21feb-8mar23","name":"Preț redus","targetQuantity":null},"saveMe":null,"labels":[{"type":"v1","items":[{"text":"-20%","backgroundColor":"#FF9903","textColor":"#FFFFFF"}]}],"geniusPrice":null,"geniusUnitPricePerLabel":null,"banner":{"text":"Super preț","textColor":"#FF0000","bgColor":"#FFF2EC","icon":null,"link":"https://www.freshful.ro/oferte/oferte-bacanie-bauturi-21feb-8mar23","type":"promo","analyticsEventType":"select_promotion","analyticsEventPayload":{"promotion_id":"oferte-bacanie-bauturi-21feb-8mar23","promotion_name":"Cămara cu băuturi și bunătăți"}},"discountLabel":"Economisești 20%","geniusDiscountLabel":null,"badge":null},{"code":"100061472","variantCode":"6423602005459","name":"Ceai de cătină 50g","slug":"100061472-alevia-ceai-de-catina-50g","unitPriceLabel":"279,8 Lei/kg","brand":"Alevia","brandCode":"83","brandFilterCode":"alevia-b128","sku":"100061472","price":13.99,"originalPrice":null,"currencyCode":"RON","currency":"Lei","image":{"thumbnail":{"default":"https://cdn.freshful.ro/media/cache/sylius_shop_product_thumbnail/fb/41/d0e83d95cdc3f0d91a915878a02e.jpg"},"large":{"default":"https://cdn.freshful.ro/media/cache/freshful_large/fb/41/d0e83d95cdc3f0d91a915878a02e.jpg"},"extralarge":{"default":"https://cdn.freshful.ro/media/cache/sylius_shop_product_original/fb/41/d0e83d95cdc3f0d91a915878a02e.jpg"}},"label":{"text":"Profită acum","backgroundColor":"#FF9903","textColor":"#FFFFFF"},"tags":[{"type":"Natural","text":"Natural","icon":"https://cdn.freshful.ro/assets/product_tags/natural.svg","iconPng":"https://cdn.freshful.ro/assets/product_tags/natural.png","backgroundColor":"#E9FCF2","textColor":"#18AF62"}],"isAvailable":true,"maxAvailableQuantity":48,"maxAllowedQuantity":100,"breadcrumbs":[{"code":"9","name":"Dulciuri & mic dejun","slug":"9-ceva-dulce"},{"code":"904","name":"Cafea și ceai","slug":"904-cafea-si-ceai"},{"code":"90413","name":"Ceai din plante","slug":"90413-ceai-din-plante"},{"code":"100061472","name":"Ceai de cătină 50g","slug":"100061472-alevia-ceai-de-catina-50g"}],"activePromotion":{"code":"oferte-bacanie-bauturi-21feb-8mar23","name":"Preț avantajos","targetQuantity":null},"saveMe":null,"labels":[{"type":"v1","items":[{"text":"Profită acum","backgroundColor":"#FF9903","textColor":"#FFFFFF"}]}],"geniusPrice":null,"geniusUnitPricePerLabel":null,"banner":{"text":"Preț avantajos","textColor":"#F95510","bgColor":"#FEF1CD","icon":null,"link":"https://www.freshful.ro/oferte/oferte-bacanie-bauturi-21feb-8mar23","type":"promo","analyticsEventType":"select_promotion","analyticsEventPayload":{"promotion_id":"oferte-bacanie-bauturi-21feb-8mar23","promotion_name":"Cămara cu băuturi și bunătăți"}},"discountLabel":null,"geniusDiscountLabel":null,"badge":null},{"code":"100089504","variantCode":"100089504","name":"Ceai de mușețel 20 plicuri","slug":"100089504-belin-ceai-de-musetel-20-plicuri","unitPriceLabel":"77,5 Lei/kg","brand":"Belin","brandCode":"1375","brandFilterCode":"belin-b1379","sku":"100089504","price":2.79,"originalPrice":null,"currencyCode":"RON","currency":"Lei","image":{"thumbnail":{"default":"https://cdn.freshful.ro/media/cache/sylius_shop_product_thumbnail/91/be/c6a98a677ab41f7a00cc61ea4ca2.jpg"},"large":{"default":"https://cdn.freshful.ro/media/cache/freshful_large/91/be/c6a98a677ab41f7a00cc61ea4ca2.jpg"},"extralarge":{"default":"https://cdn.freshful.ro/media/cache/sylius_shop_product_original/91/be/c6a98a677ab41f7a00cc61ea4ca2.jpg"}},"label":{"text":"Primul preț","backgroundColor":"#3A0808","textColor":"#FFFFFF"},"tags":[{"type":"Natural","text":"Natural","icon":"https://cdn.freshful.ro/assets/product_tags/natural.svg","iconPng":"https://cdn.freshful.ro/assets/product_tags/natural.png","backgroundColor":"#E9FCF2","textColor":"#18AF62"}],"isAvailable":true,"maxAvailableQuantity":51,"maxAllowedQuantity":100,"breadcrumbs":[{"code":"9","name":"Dulciuri & mic dejun","slug":"9-ceva-dulce"},{"code":"904","name":"Cafea și ceai","slug":"904-cafea-si-ceai"},{"code":"90413","name":"Ceai din plante","slug":"90413-ceai-din-plante"},{"code":"100089504","name":"Ceai de mușețel 20 plicuri","slug":"100089504-belin-ceai-de-musetel-20-plicuri"}],"activePromotion":null,"saveMe":null,"labels":[{"type":"v4","items":[{"text":"Primul","backgroundColor":"#3A0808","textColor":"#FFFFFF"},{"text":"preț","backgroundColor":"#BC0606","textColor":"#FFFFFF"}]}],"geniusPrice":null,"geniusUnitPricePerLabel":null,"banner":null,"discountLabel":null,"geniusDiscountLabel":null,"badge":null},{"code":"100096346","variantCode":"100096346","name":"Ceai de tei 20 plicuri","slug":"100096346-plafar-ceai-de-tei-20-plicuri","unitPriceLabel":"299,5 Lei/kg","brand":"Plafar","brandCode":"1608","brandFilterCode":"plafar-b1612","sku":"100096346","price":5.99,"originalPrice":null,"currencyCode":"RON","currency":"Lei","image":{"thumbnail":{"default":"https://cdn.freshful.ro/media/cache/sylius_shop_product_thumbnail/18/60/a73a133c6fb89314f5bfbe097ab4.jpg"},"large":{"default":"https://cdn.freshful.ro/media/cache/freshful_large/18/60/a73a133c6fb89314f5bfbe097ab4.jpg"},"extralarge":{"default":"https://cdn.freshful.ro/media/cache/sylius_shop_product_original/18/60/a73a133c6fb89314f5bfbe097ab4.jpg"}},"label":null,"tags":[],"isAvailable":true,"maxAvailableQuantity":95,"maxAllowedQuantity":100,"breadcrumbs":[{"code":"9","name":"Dulciuri & mic dejun","slug":"9-ceva-dulce"},{"code":"904","name":"Cafea și ceai","slug":"904-cafea-si-ceai"},{"code":"90413","name":"Ceai din plante","slug":"90413-ceai-din-plante"},{"code":"100096346","name":"Ceai de tei 20 plicuri","slug":"100096346-plafar-ceai-de-tei-20-plicuri"}],"activePromotion":null,"saveMe":null,"labels":[],"geniusPrice":null,"geniusUnitPricePerLabel":null,"banner":null,"discountLabel":null,"geniusDiscountLabel":null,"badge":null},{"code":"100089503","variantCode":"100089503","name":"Ceai de mentă 20 plicuri","slug":"100089503-belin-ceai-de-menta-20-plicuri","unitPriceLabel":"77,5 Lei/kg","brand":"Belin","brandCode":"1375","brandFilterCode":"belin-b1379","sku":"100089503","price":2.79,"originalPrice":null,"currencyCode":"RON","currency":"Lei","image":{"thumbnail":{"default":"https://cdn.freshful.ro/media/cache/sylius_shop_product_thumbnail/9f/a0/529053b3b0d7758c769f06403333.jpg"},"large":{"default":"https://cdn.freshful.ro/media/cache/freshful_large/9f/a0/529053b3b0d7758c769f06403333.jpg"},"extralarge":{"default":"https://cdn.freshful.ro/media/cache/sylius_shop_product_original/9f/a0/529053b3b0d7758c769f06403333.jpg"}},"label":null,"tags":[{"type":"Natural","text":"Natural","icon":"https://cdn.freshful.ro/assets/product_tags/natural.svg","iconPng":"https://cdn.freshful.ro/assets/product_tags/natural.png","backgroundColor":"#E9FCF2","textColor":"#18AF62"}],"isAvailable":true,"maxAvailableQuantity":80,"maxAllowedQuantity":100,"breadcrumbs":[{"code":"9","name":"Dulciuri & mic dejun","slug":"9-ceva-dulce"},{"code":"904","name":"Cafea și ceai","slug":"904-cafea-si-ceai"},{"code":"90413","name":"Ceai din plante","slug":"90413-ceai-din-plante"},{"code":"100089503","name":"Ceai de mentă 20 plicuri","slug":"100089503-belin-ceai-de-menta-20-plicuri"}],"activePromotion":null,"saveMe":null,"labels":[],"geniusPrice":null,"geniusUnitPricePerLabel":null,"banner":null,"discountLabel":null,"geniusDiscountLabel":null,"badge":null},{"code":"100096343","variantCode":"100096343","name":"Ceai de mușețel 20 plicuri","slug":"100096343-plafar-ceai-de-musetel-20-plicuri","unitPriceLabel":"179,5 Lei/kg","brand":"Plafar","brandCode":"1608","brandFilterCode":"plafar-b1612","sku":"100096343","price":3.59,"originalPrice":null,"currencyCode":"RON","currency":"Lei","image":{"thumbnail":{"default":"https://cdn.freshful.ro/media/cache/sylius_shop_product_thumbnail/ee/82/fbc88cdf4ef8e91fb423e6a773d0.jpg"},"large":{"default":"https://cdn.freshful.ro/media/cache/freshful_large/ee/82/fbc88cdf4ef8e91fb423e6a773d0.jpg"},"extralarge":{"default":"https://cdn.freshful.ro/media/cache/sylius_shop_product_original/ee/82/fbc88cdf4ef8e91fb423e6a773d0.jpg"}},"label":null,"tags":[],"isAvailable":true,"maxAvailableQuantity":88,"maxAllowedQuantity":100,"breadcrumbs":[{"code":"9","name":"Dulciuri & mic dejun","slug":"9-ceva-dulce"},{"code":"904","name":"Cafea și ceai","slug":"904-cafea-si-ceai"},{"code":"90413","name":"Ceai din plante","slug":"90413-ceai-din-plante"},{"code":"100096343","name":"Ceai de mușețel 20 plicuri","slug":"100096343-plafar-ceai-de-musetel-20-plicuri"}],"activePromotion":null,"saveMe":null,"labels":[],"geniusPrice":null,"geniusUnitPricePerLabel":null,"banner":null,"discountLabel":null,"geniusDiscountLabel":null,"badge":null},{"code":"100096342","variantCode":"100096342","name":"Ceai de mentă 20 plicuri","slug":"100096342-plafar-ceai-de-menta-20-plicuri","unitPriceLabel":"151,5 Lei/kg","brand":"Plafar","brandCode":"1608","brandFilterCode":"plafar-b1612","sku":"100096342","price":3.03,"originalPrice":null,"currencyCode":"RON","currency":"Lei","image":{"thumbnail":{"default":"https://cdn.freshful.ro/media/cache/sylius_shop_product_thumbnail/34/84/042a6896c5a35e817b94f7d0dd81.jpg"},"large":{"default":"https://cdn.freshful.ro/media/cache/freshful_large/34/84/042a6896c5a35e817b94f7d0dd81.jpg"},"extralarge":{"default":"https://cdn.freshful.ro/media/cache/sylius_shop_product_original/34/84/042a6896c5a35e817b94f7d0dd81.jpg"}},"label":null,"tags":[],"isAvailable":true,"maxAvailableQuantity":74,"maxAllowedQuantity":100,"breadcrumbs":[{"code":"9","name":"Dulciuri & mic dejun","slug":"9-ceva-dulce"},{"code":"904","name":"Cafea și ceai","slug":"904-cafea-si-ceai"},{"code":"90413","name":"Ceai din plante","slug":"90413-ceai-din-plante"},{"code":"100096342","name":"Ceai de mentă 20 plicuri","slug":"100096342-plafar-ceai-de-menta-20-plicuri"}],"activePromotion":null,"saveMe":null,"labels":[],"geniusPrice":null,"geniusUnitPricePerLabel":null,"banner":null,"discountLabel":null,"geniusDiscountLabel":null,"badge":null},{"code":"100042129","variantCode":"70177177683","name":"Ceai de mușețel, miere și vanilie 20 plicuri","slug":"100042129-twinings-ceai-de-musetel-miere-si-vanilie-20-plicuri","unitPriceLabel":"683,33 Lei/kg","brand":"Twinings","brandCode":"643","brandFilterCode":"twinings-b644","sku":"100042129","price":20.5,"originalPrice":null,"currencyCode":"RON","currency":"Lei","image":{"thumbnail":{"default":"https://cdn.freshful.ro/media/cache/sylius_shop_product_thumbnail/73/66/938f6348120fcfe638df6ec5a3e9.jpg"},"large":{"default":"https://cdn.freshful.ro/media/cache/freshful_large/73/66/938f6348120fcfe638df6ec5a3e9.jpg"},"extralarge":{"default":"https://cdn.freshful.ro/media/cache/sylius_shop_product_original/73/66/938f6348120fcfe638df6ec5a3e9.jpg"}},"label":null,"tags":[],"isAvailable":true,"maxAvailableQuantity":31,"maxAllowedQuantity":100,"breadcrumbs":[{"code":"9","name":"Dulciuri & mic dejun","slug":"9-ceva-dulce"},{"code":"904","name":"Cafea și ceai","slug":"904-cafea-si-ceai"},{"code":"90413","name":"Ceai din plante","slug":"90413-ceai-din-plante"},{"code":"100042129","name":"Ceai de mușețel, miere și vanilie 20 plicuri","slug":"100042129-twinings-ceai-de-musetel-miere-si-vanilie-20-plicuri"}],"activePromotion":null,"saveMe":null,"labels":[],"geniusPrice":null,"geniusUnitPricePerLabel":null,"banner":null,"discountLabel":null,"geniusDiscountLabel":null,"badge":null},{"code":"100089507","variantCode":"100089507","name":"Ceai de tei 18 plicuri","slug":"100089507-belin-ceai-de-tei-18-plicuri","unitPriceLabel":"302,78 Lei/kg","brand":"Belin","brandCode":"1375","brandFilterCode":"belin-b1379","sku":"100089507","price":5.45,"originalPrice":null,"currencyCode":"RON","currency":"Lei","image":{"thumbnail":{"default":"https://cdn.freshful.ro/media/cache/sylius_shop_product_thumbnail/ef/8e/e0e7c59b485bea0c56c314f38373.jpg"},"large":{"default":"https://cdn.freshful.ro/media/cache/freshful_large/ef/8e/e0e7c59b485bea0c56c314f38373.jpg"},"extralarge":{"default":"https://cdn.freshful.ro/media/cache/sylius_shop_product_original/ef/8e/e0e7c59b485bea0c56c314f38373.jpg"}},"label":null,"tags":[{"type":"Natural","text":"Natural","icon":"https://cdn.freshful.ro/assets/product_tags/natural.svg","iconPng":"https://cdn.freshful.ro/assets/product_tags/natural.png","backgroundColor":"#E9FCF2","textColor":"#18AF62"}],"isAvailable":true,"maxAvailableQuantity":100,"maxAllowedQuantity":100,"breadcrumbs":[{"code":"9","name":"Dulciuri & mic dejun","slug":"9-ceva-dulce"},{"code":"904","name":"Cafea și ceai","slug":"904-cafea-si-ceai"},{"code":"90413","name":"Ceai din plante","slug":"90413-ceai-din-plante"},{"code":"100089507","name":"Ceai de tei 18 plicuri","slug":"100089507-belin-ceai-de-tei-18-plicuri"}],"activePromotion":null,"saveMe":null,"labels":[],"geniusPrice":null,"geniusUnitPricePerLabel":null,"banner":null,"discountLabel":null,"geniusDiscountLabel":null,"badge":null},{"code":"100096320","variantCode":"100096320","name":"Ceai de tei 50g","slug":"100096320-plafar-ceai-de-tei-50g","unitPriceLabel":"183,8 Lei/kg","brand":"Plafar","brandCode":"1608","brandFilterCode":"plafar-b1612","sku":"100096320","price":9.19,"originalPrice":null,"currencyCode":"RON","currency":"Lei","image":{"thumbnail":{"default":"https://cdn.freshful.ro/media/cache/sylius_shop_product_thumbnail/1d/67/987f7087e8b5925f097c4230a884.jpg"},"large":{"default":"https://cdn.freshful.ro/media/cache/freshful_large/1d/67/987f7087e8b5925f097c4230a884.jpg"},"extralarge":{"default":"https://cdn.freshful.ro/media/cache/sylius_shop_product_original/1d/67/987f7087e8b5925f097c4230a884.jpg"}},"label":null,"tags":[{"type":"MadeInRomania","text":"Made In Romania","icon":"https://cdn.freshful.ro/assets/product_tags/made_in_romania.svg","iconPng":"https://cdn.freshful.ro/assets/product_tags/made_in_romania.png","backgroundColor":"#EDF2FD","textColor":"#1653CA"}],"isAvailable":true,"maxAvailableQuantity":100,"maxAllowedQuantity":100,"breadcrumbs":[{"code":"9","name":"Dulciuri & mic dejun","slug":"9-ceva-dulce"},{"code":"904","name":"Cafea și ceai","slug":"904-cafea-si-ceai"},{"code":"90413","name":"Ceai din plante","slug":"90413-ceai-din-plante"},{"code":"100096320","name":"Ceai de tei 50g","slug":"100096320-plafar-ceai-de-tei-50g"}],"activePromotion":null,"saveMe":null,"labels":[],"geniusPrice":null,"geniusUnitPricePerLabel":null,"banner":null,"discountLabel":null,"geniusDiscountLabel":null,"badge":null}],"filters":{"countSelected":0,"items":[{"code":"promotion","name":"Promoții","countSelected":0,"values":[{"code":"oferte-bacanie-bauturi-21feb-8mar23","name":"Cămara cu băuturi și bunătăți","isSelected":false,"count":2}]},{"code":"brand","name":"Brand","countSelected":0,"values":[{"code":"alevia-b128","name":"Alevia","isSelected":false,"count":21},{"code":"belin-b1379","name":"Belin","isSelected":false,"count":8},{"code":"beyoutea-b1559","name":"BeYouTea","isSelected":false,"count":10},{"code":"mount-himalaya-tea-b144","name":"Mount Himalaya Tea","isSelected":false,"count":1},{"code":"plafar-b1612","name":"Plafar","isSelected":false,"count":17},{"code":"teekanne-b884","name":"Teekanne","isSelected":false,"count":4},{"code":"twinings-b644","name":"Twinings","isSelected":false,"count":1},{"code":"woods-foods-b2275","name":"Woods Foods","isSelected":false,"count":2}]},{"code":"diet_lifestyle","name":"Dietă și lifestyle","countSelected":0,"values":[{"code":"made-in-romania-a85","name":"Made In Romania","isSelected":false,"count":12},{"code":"natural-a27","name":"Natural","isSelected":false,"count":26}]}]},"orderBy":[{"field":"price","direction":"asc","name":"Preț crescător","isSelected":false},{"field":"price","direction":"desc","name":"Preț descrescător","isSelected":false},{"field":"popularity","direction":"desc","name":"Cele mai populare","isSelected":true},{"field":"category","direction":"asc","name":"Categorie","isSelected":false}],"metaTitle":"Ceai din plante - Gamă variată","metaDescription":"Vrei Ceai din plante? Alege dintr-o gamă variată. Comanzi simplu și ai livrare rapidă, calitate și prospețime. Hai pe Freshful.ro","metaKeywords":null,"banners":[]}}