{"type":"subcategory","payload":{"analyticsListId":"category_90504-drajeuri-din-ciocolata","analyticsListName":"Category - Drajeuri de ciocolată","name":"Drajeuri de ciocolată","slug":"90504-drajeuri-din-ciocolata","image":null,"breadcrumbs":[{"code":"9","name":"Dulciuri & mic dejun","slug":"9-ceva-dulce"},{"code":"905","name":"Bomboane și ciocolată","slug":"905-bomboane-si-ciocolata"},{"code":"90504","name":"Drajeuri de ciocolată","slug":"90504-drajeuri-din-ciocolata"}],"slots":[],"page":1,"limit":10,"pages":7,"count":64,"siblings":[{"name":"Biscuiți, napolitane și prăjituri","slug":"902-biscuiti-napolitane-si-prajituri","selected":false},{"name":"Cereale și mic dejun","slug":"903-cereale-si-mic-dejun","selected":false},{"name":"Cafea și ceai","slug":"904-cafea-si-ceai","selected":false},{"name":"Bomboane și ciocolată","slug":"905-bomboane-si-ciocolata","selected":true}],"children":[{"name":"Toate produsele","slug":"905-bomboane-si-ciocolata","selected":false},{"name":"Tablete de ciocolată","slug":"90501-tablete-de-ciocolata","selected":false},{"name":"Batoane de ciocolată","slug":"90502-batoane-de-ciocolata","selected":false},{"name":"Ciocolată pentru copii","slug":"90503-ciocolata-pentru-copii","selected":false},{"name":"Drajeuri de ciocolată","slug":"90504-drajeuri-din-ciocolata","selected":true},{"name":"Praline de ciocolată","slug":"90505-praline-de-ciocolata","selected":false},{"name":"Jeleuri și drajeuri","slug":"90506-jeleuri-si-drajeuri","selected":false},{"name":"Dulciuri de sezon","slug":"90507-dulciuri-de-sezon","selected":false}],"products":[{"code":"100040376","variantCode":"4011100005846","name":"M&M'S - Arahide învelite în ciocolată cu lapte 250g","slug":"100040376-m-m-s-m-m-s-arahide-invelite-in-ciocolata-cu-lapte-250g","unitPriceLabel":"47,96 Lei/kg","brand":"M&M'S","brandCode":"109","brandFilterCode":"m-m-s-b93","sku":"100040376","price":11.99,"originalPrice":null,"currencyCode":"RON","currency":"Lei","image":{"thumbnail":{"default":"https://cdn.freshful.ro/media/cache/sylius_shop_product_thumbnail/79/cf/490a2a092da03e49979524be8256.jpg"},"large":{"default":"https://cdn.freshful.ro/media/cache/freshful_large/79/cf/490a2a092da03e49979524be8256.jpg"},"extralarge":{"default":"https://cdn.freshful.ro/media/cache/sylius_shop_product_original/79/cf/490a2a092da03e49979524be8256.jpg"}},"label":{"text":"Profită acum","backgroundColor":"#FF9903","textColor":"#FFFFFF"},"tags":[],"isAvailable":true,"maxAvailableQuantity":100,"maxAllowedQuantity":100,"breadcrumbs":[{"code":"9","name":"Dulciuri & mic dejun","slug":"9-ceva-dulce"},{"code":"905","name":"Bomboane și ciocolată","slug":"905-bomboane-si-ciocolata"},{"code":"90504","name":"Drajeuri de ciocolată","slug":"90504-drajeuri-din-ciocolata"},{"code":"100040376","name":"M&M'S - Arahide învelite în ciocolată cu lapte 250g","slug":"100040376-m-m-s-m-m-s-arahide-invelite-in-ciocolata-cu-lapte-250g"}],"activePromotion":{"code":"freshful-top-deals-2023","name":"Preț avantajos","targetQuantity":null},"saveMe":null,"labels":[{"type":"v1","items":[{"text":"Profită acum","backgroundColor":"#FF9903","textColor":"#FFFFFF"}]}],"geniusPrice":null,"geniusUnitPricePerLabel":null,"banner":{"text":"Preț avantajos","textColor":"#F95510","bgColor":"#FEF1CD","icon":null,"link":"https://www.freshful.ro/oferte/freshful-top-deals-2023","type":"promo","analyticsEventType":"select_promotion","analyticsEventPayload":{"promotion_id":"freshful-top-deals-2023","promotion_name":"Profită de Top Deals"}},"discountLabel":null,"geniusDiscountLabel":null,"badge":null},{"code":"100133440","variantCode":"100133440","name":"Bomboane de ciocolată Geisha caramel și sare de mare 150g","slug":"100133440-fazer-bomboane-de-ciocolata-geisha-caramel-si-sare-de-mare-150g","unitPriceLabel":"126,6 Lei/kg","brand":"Fazer","brandCode":"2524","brandFilterCode":"fazer-b2528","sku":"100133440","price":18.99,"originalPrice":22.99,"currencyCode":"RON","currency":"Lei","image":{"thumbnail":{"default":"https://cdn.freshful.ro/media/cache/sylius_shop_product_thumbnail/cf/c5/91b3b8c421d2a3b81564e9e7e869.jpg"},"large":{"default":"https://cdn.freshful.ro/media/cache/freshful_large/cf/c5/91b3b8c421d2a3b81564e9e7e869.jpg"},"extralarge":{"default":"https://cdn.freshful.ro/media/cache/sylius_shop_product_original/cf/c5/91b3b8c421d2a3b81564e9e7e869.jpg"}},"label":{"text":"-17%","backgroundColor":"#FF9903","textColor":"#FFFFFF"},"tags":[],"isAvailable":true,"maxAvailableQuantity":88,"maxAllowedQuantity":100,"breadcrumbs":[{"code":"9","name":"Dulciuri & mic dejun","slug":"9-ceva-dulce"},{"code":"905","name":"Bomboane și ciocolată","slug":"905-bomboane-si-ciocolata"},{"code":"90504","name":"Drajeuri de ciocolată","slug":"90504-drajeuri-din-ciocolata"},{"code":"100133440","name":"Bomboane de ciocolată Geisha caramel și sare de mare 150g","slug":"100133440-fazer-bomboane-de-ciocolata-geisha-caramel-si-sare-de-mare-150g"}],"activePromotion":{"code":"special-bacanie-bauturi-mar23","name":"Preț redus","targetQuantity":null},"saveMe":null,"labels":[{"type":"v1","items":[{"text":"-17%","backgroundColor":"#FF9903","textColor":"#FFFFFF"}]}],"geniusPrice":null,"geniusUnitPricePerLabel":null,"banner":{"text":"Super preț","textColor":"#FF0000","bgColor":"#FFF2EC","icon":null,"link":"https://www.freshful.ro/oferte/special-bacanie-bauturi-mar23","type":"promo","analyticsEventType":"select_promotion","analyticsEventPayload":{"promotion_id":"special-bacanie-bauturi-mar23","promotion_name":"Prețuri speciale pentru Ziua Femeii"}},"discountLabel":"Economisești 17%","geniusDiscountLabel":null,"badge":null},{"code":"100058634","variantCode":"100058634","name":"Bomboane cu alune și caramel 125g ","slug":"100058634-toffifee-bomboane-cu-alune-si-caramel-125g","unitPriceLabel":"91,12 Lei/kg","brand":"Toffifee","brandCode":"870","brandFilterCode":"toffifee-b871","sku":"100058634","price":11.39,"originalPrice":null,"currencyCode":"RON","currency":"Lei","image":{"thumbnail":{"default":"https://cdn.freshful.ro/media/cache/sylius_shop_product_thumbnail/fc/1a/a88f547c61f31cc005853691a0b7.jpg"},"large":{"default":"https://cdn.freshful.ro/media/cache/freshful_large/fc/1a/a88f547c61f31cc005853691a0b7.jpg"},"extralarge":{"default":"https://cdn.freshful.ro/media/cache/sylius_shop_product_original/fc/1a/a88f547c61f31cc005853691a0b7.jpg"}},"label":null,"tags":[],"isAvailable":true,"maxAvailableQuantity":100,"maxAllowedQuantity":100,"breadcrumbs":[{"code":"9","name":"Dulciuri & mic dejun","slug":"9-ceva-dulce"},{"code":"905","name":"Bomboane și ciocolată","slug":"905-bomboane-si-ciocolata"},{"code":"90504","name":"Drajeuri de ciocolată","slug":"90504-drajeuri-din-ciocolata"},{"code":"100058634","name":"Bomboane cu alune și caramel 125g ","slug":"100058634-toffifee-bomboane-cu-alune-si-caramel-125g"}],"activePromotion":null,"saveMe":null,"labels":[],"geniusPrice":null,"geniusUnitPricePerLabel":null,"banner":null,"discountLabel":null,"geniusDiscountLabel":null,"badge":null},{"code":"100038423","variantCode":"9000332813973","name":"Bomboane cu rom și cocos 175g","slug":"100038423-casali-bomboane-cu-rom-si-cocos-175g","unitPriceLabel":"77,14 Lei/kg","brand":"Casali","brandCode":"159","brandFilterCode":"casali-b160","sku":"100038423","price":13.5,"originalPrice":null,"currencyCode":"RON","currency":"Lei","image":{"thumbnail":{"default":"https://cdn.freshful.ro/media/cache/sylius_shop_product_thumbnail/f6/e6/5c8b8e0fd5c63983998ae0e96c62.jpg"},"large":{"default":"https://cdn.freshful.ro/media/cache/freshful_large/f6/e6/5c8b8e0fd5c63983998ae0e96c62.jpg"},"extralarge":{"default":"https://cdn.freshful.ro/media/cache/sylius_shop_product_original/f6/e6/5c8b8e0fd5c63983998ae0e96c62.jpg"}},"label":null,"tags":[],"isAvailable":true,"maxAvailableQuantity":79,"maxAllowedQuantity":100,"breadcrumbs":[{"code":"9","name":"Dulciuri & mic dejun","slug":"9-ceva-dulce"},{"code":"905","name":"Bomboane și ciocolată","slug":"905-bomboane-si-ciocolata"},{"code":"90504","name":"Drajeuri de ciocolată","slug":"90504-drajeuri-din-ciocolata"},{"code":"100038423","name":"Bomboane cu rom și cocos 175g","slug":"100038423-casali-bomboane-cu-rom-si-cocos-175g"}],"activePromotion":null,"saveMe":null,"labels":[],"geniusPrice":null,"geniusUnitPricePerLabel":null,"banner":null,"discountLabel":null,"geniusDiscountLabel":null,"badge":null},{"code":"100040381","variantCode":"5000159503617","name":"Bomboane de ciocolată cu miez ușor și crocant 68g","slug":"100040381-maltesers-bomboane-de-ciocolata-cu-miez-usor-si-crocant-68g","unitPriceLabel":"74,85 Lei/kg","brand":"Maltesers","brandCode":"110","brandFilterCode":"maltesers-b94","sku":"100040381","price":5.09,"originalPrice":null,"currencyCode":"RON","currency":"Lei","image":{"thumbnail":{"default":"https://cdn.freshful.ro/media/cache/sylius_shop_product_thumbnail/89/97/bc4e6006182a1db845a271acdf28.jpg"},"large":{"default":"https://cdn.freshful.ro/media/cache/freshful_large/89/97/bc4e6006182a1db845a271acdf28.jpg"},"extralarge":{"default":"https://cdn.freshful.ro/media/cache/sylius_shop_product_original/89/97/bc4e6006182a1db845a271acdf28.jpg"}},"label":null,"tags":[],"isAvailable":true,"maxAvailableQuantity":100,"maxAllowedQuantity":100,"breadcrumbs":[{"code":"9","name":"Dulciuri & mic dejun","slug":"9-ceva-dulce"},{"code":"905","name":"Bomboane și ciocolată","slug":"905-bomboane-si-ciocolata"},{"code":"90504","name":"Drajeuri de ciocolată","slug":"90504-drajeuri-din-ciocolata"},{"code":"100040381","name":"Bomboane de ciocolată cu miez ușor și crocant 68g","slug":"100040381-maltesers-bomboane-de-ciocolata-cu-miez-usor-si-crocant-68g"}],"activePromotion":null,"saveMe":null,"labels":[],"geniusPrice":null,"geniusUnitPricePerLabel":null,"banner":null,"discountLabel":null,"geniusDiscountLabel":null,"badge":null},{"code":"100058637","variantCode":"100058637","name":"Mini ciocolate asortate Finest Selection 8 sortimente, 250g","slug":"100058637-merci-mini-ciocolate-asortate-finest-selection-8-sortimente-250g","unitPriceLabel":"87,96 Lei/kg","brand":"Merci","brandCode":"871","brandFilterCode":"merci-b872","sku":"100058637","price":21.99,"originalPrice":null,"currencyCode":"RON","currency":"Lei","image":{"thumbnail":{"default":"https://cdn.freshful.ro/media/cache/sylius_shop_product_thumbnail/f0/b0/0265f2a0a114793039b752a68dcc.jpg"},"large":{"default":"https://cdn.freshful.ro/media/cache/freshful_large/f0/b0/0265f2a0a114793039b752a68dcc.jpg"},"extralarge":{"default":"https://cdn.freshful.ro/media/cache/sylius_shop_product_original/f0/b0/0265f2a0a114793039b752a68dcc.jpg"}},"label":null,"tags":[],"isAvailable":true,"maxAvailableQuantity":19,"maxAllowedQuantity":100,"breadcrumbs":[{"code":"9","name":"Dulciuri & mic dejun","slug":"9-ceva-dulce"},{"code":"905","name":"Bomboane și ciocolată","slug":"905-bomboane-si-ciocolata"},{"code":"90504","name":"Drajeuri de ciocolată","slug":"90504-drajeuri-din-ciocolata"},{"code":"100058637","name":"Mini ciocolate asortate Finest Selection 8 sortimente, 250g","slug":"100058637-merci-mini-ciocolate-asortate-finest-selection-8-sortimente-250g"}],"activePromotion":null,"saveMe":null,"labels":[],"geniusPrice":null,"geniusUnitPricePerLabel":null,"banner":null,"discountLabel":null,"geniusDiscountLabel":null,"badge":null},{"code":"100040375","variantCode":"5000159023283","name":"M&M'S - Ciocolată cu lapte, cu glazură crocantă și colorată 250g","slug":"100040375-m-m-s-m-m-s-ciocolata-cu-lapte-cu-glazura-crocanta-si-colorata-250g","unitPriceLabel":"45,56 Lei/kg","brand":"M&M'S","brandCode":"109","brandFilterCode":"m-m-s-b93","sku":"100040375","price":11.39,"originalPrice":null,"currencyCode":"RON","currency":"Lei","image":{"thumbnail":{"default":"https://cdn.freshful.ro/media/cache/sylius_shop_product_thumbnail/0a/95/ef316b3c56d5dfb507f66b36aa8f.jpg"},"large":{"default":"https://cdn.freshful.ro/media/cache/freshful_large/0a/95/ef316b3c56d5dfb507f66b36aa8f.jpg"},"extralarge":{"default":"https://cdn.freshful.ro/media/cache/sylius_shop_product_original/0a/95/ef316b3c56d5dfb507f66b36aa8f.jpg"}},"label":null,"tags":[],"isAvailable":true,"maxAvailableQuantity":100,"maxAllowedQuantity":100,"breadcrumbs":[{"code":"9","name":"Dulciuri & mic dejun","slug":"9-ceva-dulce"},{"code":"905","name":"Bomboane și ciocolată","slug":"905-bomboane-si-ciocolata"},{"code":"90504","name":"Drajeuri de ciocolată","slug":"90504-drajeuri-din-ciocolata"},{"code":"100040375","name":"M&M'S - Ciocolată cu lapte, cu glazură crocantă și colorată 250g","slug":"100040375-m-m-s-m-m-s-ciocolata-cu-lapte-cu-glazura-crocanta-si-colorata-250g"}],"activePromotion":null,"saveMe":null,"labels":[],"geniusPrice":null,"geniusUnitPricePerLabel":null,"banner":null,"discountLabel":null,"geniusDiscountLabel":null,"badge":null},{"code":"100040382","variantCode":"5000159437943","name":"Bomboane de ciocolată cu miez ușor și crocant 192.5g","slug":"100040382-maltesers-bomboane-de-ciocolata-cu-miez-usor-si-crocant-192-5g","unitPriceLabel":"72,49 Lei/kg","brand":"Maltesers","brandCode":"110","brandFilterCode":"maltesers-b94","sku":"100040382","price":13.99,"originalPrice":null,"currencyCode":"RON","currency":"Lei","image":{"thumbnail":{"default":"https://cdn.freshful.ro/media/cache/sylius_shop_product_thumbnail/54/cc/dc3f369a36216299ab4ae98b614b.jpg"},"large":{"default":"https://cdn.freshful.ro/media/cache/freshful_large/54/cc/dc3f369a36216299ab4ae98b614b.jpg"},"extralarge":{"default":"https://cdn.freshful.ro/media/cache/sylius_shop_product_original/54/cc/dc3f369a36216299ab4ae98b614b.jpg"}},"label":null,"tags":[],"isAvailable":true,"maxAvailableQuantity":100,"maxAllowedQuantity":100,"breadcrumbs":[{"code":"9","name":"Dulciuri & mic dejun","slug":"9-ceva-dulce"},{"code":"905","name":"Bomboane și ciocolată","slug":"905-bomboane-si-ciocolata"},{"code":"90504","name":"Drajeuri de ciocolată","slug":"90504-drajeuri-din-ciocolata"},{"code":"100040382","name":"Bomboane de ciocolată cu miez ușor și crocant 192.5g","slug":"100040382-maltesers-bomboane-de-ciocolata-cu-miez-usor-si-crocant-192-5g"}],"activePromotion":null,"saveMe":null,"labels":[],"geniusPrice":null,"geniusUnitPricePerLabel":null,"banner":null,"discountLabel":null,"geniusDiscountLabel":null,"badge":null},{"code":"100038394","variantCode":"100038394","name":"Bomboane de ciocolată cu lapte și bucăți de alune 200g","slug":"100038394-kinder-bomboane-de-ciocolata-cu-lapte-si-bucati-de-alune-200g","unitPriceLabel":"73,04 Lei/kg","brand":"Kinder","brandCode":"19","brandFilterCode":"kinder-b11","sku":"100038394","price":14.9,"originalPrice":null,"currencyCode":"RON","currency":"Lei","image":{"thumbnail":{"default":"https://cdn.freshful.ro/media/cache/sylius_shop_product_thumbnail/e5/2b/b16f3897cef01797d9f89d5d1cfb.jpg"},"large":{"default":"https://cdn.freshful.ro/media/cache/freshful_large/e5/2b/b16f3897cef01797d9f89d5d1cfb.jpg"},"extralarge":{"default":"https://cdn.freshful.ro/media/cache/sylius_shop_product_original/e5/2b/b16f3897cef01797d9f89d5d1cfb.jpg"}},"label":null,"tags":[],"isAvailable":true,"maxAvailableQuantity":100,"maxAllowedQuantity":100,"breadcrumbs":[{"code":"9","name":"Dulciuri & mic dejun","slug":"9-ceva-dulce"},{"code":"905","name":"Bomboane și ciocolată","slug":"905-bomboane-si-ciocolata"},{"code":"90504","name":"Drajeuri de ciocolată","slug":"90504-drajeuri-din-ciocolata"},{"code":"100038394","name":"Bomboane de ciocolată cu lapte și bucăți de alune 200g","slug":"100038394-kinder-bomboane-de-ciocolata-cu-lapte-si-bucati-de-alune-200g"}],"activePromotion":null,"saveMe":null,"labels":[],"geniusPrice":null,"geniusUnitPricePerLabel":null,"banner":null,"discountLabel":null,"geniusDiscountLabel":null,"badge":null},{"code":"100040379","variantCode":"100040379","name":"M&M'S - Miez din orez crocant în ciocolată cu lapte 213g","slug":"100040379-m-m-s-m-m-s-miez-din-orez-crocant-in-ciocolata-cu-lapte-213g","unitPriceLabel":"63,38 Lei/kg","brand":"M&M'S","brandCode":"109","brandFilterCode":"m-m-s-b93","sku":"100040379","price":13.5,"originalPrice":null,"currencyCode":"RON","currency":"Lei","image":{"thumbnail":{"default":"https://cdn.freshful.ro/media/cache/sylius_shop_product_thumbnail/10/46/653cfa8734418f3726e0d262797e.jpg"},"large":{"default":"https://cdn.freshful.ro/media/cache/freshful_large/10/46/653cfa8734418f3726e0d262797e.jpg"},"extralarge":{"default":"https://cdn.freshful.ro/media/cache/sylius_shop_product_original/10/46/653cfa8734418f3726e0d262797e.jpg"}},"label":null,"tags":[],"isAvailable":true,"maxAvailableQuantity":100,"maxAllowedQuantity":100,"breadcrumbs":[{"code":"9","name":"Dulciuri & mic dejun","slug":"9-ceva-dulce"},{"code":"905","name":"Bomboane și ciocolată","slug":"905-bomboane-si-ciocolata"},{"code":"90504","name":"Drajeuri de ciocolată","slug":"90504-drajeuri-din-ciocolata"},{"code":"100040379","name":"M&M'S - Miez din orez crocant în ciocolată cu lapte 213g","slug":"100040379-m-m-s-m-m-s-miez-din-orez-crocant-in-ciocolata-cu-lapte-213g"}],"activePromotion":null,"saveMe":null,"labels":[],"geniusPrice":null,"geniusUnitPricePerLabel":null,"banner":null,"discountLabel":null,"geniusDiscountLabel":null,"badge":null}],"filters":{"countSelected":0,"items":[{"code":"promotion","name":"Promoții","countSelected":0,"values":[{"code":"special-bacanie-bauturi-mar23","name":"Prețuri speciale pentru Ziua Femeii","isSelected":false,"count":2},{"code":"freshful-top-deals-2023","name":"Profită de Top Deals","isSelected":false,"count":1}]},{"code":"brand","name":"Brand","countSelected":0,"values":[{"code":"belgian-b147","name":"Belgian","isSelected":false,"count":2},{"code":"bon-sweet-bon-b834","name":"Bon Sweet Bon","isSelected":false,"count":1},{"code":"casali-b160","name":"Casali","isSelected":false,"count":5},{"code":"celebrations-b95","name":"Celebrations","isSelected":false,"count":1},{"code":"fantasy-dragee-b1676","name":"Fantasy Dragée","isSelected":false,"count":2},{"code":"fazer-b2528","name":"Fazer","isSelected":false,"count":2},{"code":"fazermint-b1781","name":"Fazermint","isSelected":false,"count":1},{"code":"godiva-b953","name":"Godiva","isSelected":false,"count":1},{"code":"gusto-b1253","name":"Gusto","isSelected":false,"count":4},{"code":"kinder-b11","name":"Kinder","isSelected":false,"count":1},{"code":"lindt-b1493","name":"Lindt","isSelected":false,"count":6},{"code":"m-m-s-b93","name":"M&M'S","isSelected":false,"count":8},{"code":"maltesers-b94","name":"Maltesers","isSelected":false,"count":3},{"code":"mentos-b1802","name":"Mentos","isSelected":false,"count":2},{"code":"merci-b872","name":"Merci","isSelected":false,"count":6},{"code":"nardo-b156","name":"Nardo","isSelected":false,"count":2},{"code":"piasten-b152","name":"Piasten","isSelected":false,"count":5},{"code":"poiana-b1881","name":"Poiana","isSelected":false,"count":1},{"code":"ritter-sport-b878","name":"Ritter Sport","isSelected":false,"count":1},{"code":"rom-b1544","name":"Rom","isSelected":false,"count":2},{"code":"smarties-b5","name":"Smarties","isSelected":false,"count":2},{"code":"snack-2-go-b1874","name":"Snack 2 Go","isSelected":false,"count":2},{"code":"toffifee-b871","name":"Toffifee","isSelected":false,"count":2},{"code":"yummy-sweets-b1694","name":"Yummy Sweets","isSelected":false,"count":1},{"code":"zaini-b148","name":"Zaini","isSelected":false,"count":1}]}]},"orderBy":[{"field":"price","direction":"asc","name":"Preț crescător","isSelected":false},{"field":"price","direction":"desc","name":"Preț descrescător","isSelected":false},{"field":"popularity","direction":"desc","name":"Cele mai populare","isSelected":true},{"field":"category","direction":"asc","name":"Categorie","isSelected":false}],"metaTitle":"Drajeuri de ciocolată - Gamă variată","metaDescription":"Vrei Drajeuri de ciocolată? Alege dintr-o gamă variată. Comanzi simplu și ai livrare rapidă, calitate și prospețime. Hai pe Freshful.ro","metaKeywords":null,"banners":[]}}