{"type":"subcategory","payload":{"analyticsListId":"category_90501-tablete-de-ciocolata","analyticsListName":"Category - Tablete de ciocolată","name":"Tablete de ciocolată","slug":"90501-tablete-de-ciocolata","image":null,"breadcrumbs":[{"code":"9","name":"Dulciuri & mic dejun","slug":"9-ceva-dulce"},{"code":"905","name":"Bomboane și ciocolată","slug":"905-bomboane-si-ciocolata"},{"code":"90501","name":"Tablete de ciocolată","slug":"90501-tablete-de-ciocolata"}],"slots":[],"page":1,"limit":10,"pages":17,"count":170,"siblings":[{"name":"Biscuiți, napolitane și prăjituri","slug":"902-biscuiti-napolitane-si-prajituri","selected":false},{"name":"Cereale și mic dejun","slug":"903-cereale-si-mic-dejun","selected":false},{"name":"Cafea și ceai","slug":"904-cafea-si-ceai","selected":false},{"name":"Bomboane și ciocolată","slug":"905-bomboane-si-ciocolata","selected":true}],"children":[{"name":"Toate produsele","slug":"905-bomboane-si-ciocolata","selected":false},{"name":"Tablete de ciocolată","slug":"90501-tablete-de-ciocolata","selected":true},{"name":"Batoane de ciocolată","slug":"90502-batoane-de-ciocolata","selected":false},{"name":"Ciocolată pentru copii","slug":"90503-ciocolata-pentru-copii","selected":false},{"name":"Drajeuri de ciocolată","slug":"90504-drajeuri-din-ciocolata","selected":false},{"name":"Praline de ciocolată","slug":"90505-praline-de-ciocolata","selected":false},{"name":"Jeleuri și drajeuri","slug":"90506-jeleuri-si-drajeuri","selected":false},{"name":"Dulciuri de sezon","slug":"90507-dulciuri-de-sezon","selected":false}],"products":[{"code":"100081612","variantCode":"8690504142553","name":"Ciocolată Extra cu lapte 60g","slug":"100081612-godiva-ciocolata-extra-cu-lapte-60g","unitPriceLabel":"116,5 Lei/kg","brand":"Godiva","brandCode":"1003","brandFilterCode":"godiva-b953","sku":"100081612","price":6.99,"originalPrice":7.49,"currencyCode":"RON","currency":"Lei","image":{"thumbnail":{"default":"https://cdn.freshful.ro/media/cache/sylius_shop_product_thumbnail/80/bb/a9f62c17ea57f3eae1c138a277c8.jpg"},"large":{"default":"https://cdn.freshful.ro/media/cache/freshful_large/80/bb/a9f62c17ea57f3eae1c138a277c8.jpg"},"extralarge":{"default":"https://cdn.freshful.ro/media/cache/sylius_shop_product_original/80/bb/a9f62c17ea57f3eae1c138a277c8.jpg"}},"label":{"text":"-6%","backgroundColor":"#FF9903","textColor":"#FFFFFF"},"tags":[],"isAvailable":true,"maxAvailableQuantity":13,"maxAllowedQuantity":100,"breadcrumbs":[{"code":"9","name":"Dulciuri & mic dejun","slug":"9-ceva-dulce"},{"code":"905","name":"Bomboane și ciocolată","slug":"905-bomboane-si-ciocolata"},{"code":"90501","name":"Tablete de ciocolată","slug":"90501-tablete-de-ciocolata"},{"code":"100081612","name":"Ciocolată Extra cu lapte 60g","slug":"100081612-godiva-ciocolata-extra-cu-lapte-60g"}],"activePromotion":{"code":"special-bacanie-bauturi-mar23","name":"Preț redus","targetQuantity":null},"saveMe":null,"labels":[{"type":"v1","items":[{"text":"-6%","backgroundColor":"#FF9903","textColor":"#FFFFFF"}]}],"geniusPrice":null,"geniusUnitPricePerLabel":null,"banner":{"text":"Super preț","textColor":"#FF0000","bgColor":"#FFF2EC","icon":null,"link":"https://www.freshful.ro/oferte/special-bacanie-bauturi-mar23","type":"promo","analyticsEventType":"select_promotion","analyticsEventPayload":{"promotion_id":"special-bacanie-bauturi-mar23","promotion_name":"Prețuri speciale pentru Ziua Femeii"}},"discountLabel":"Economisești 6%","geniusDiscountLabel":null,"badge":null},{"code":"100065619","variantCode":"8690504153740","name":"Ciocolată neagră cu umplutură ganache 86g","slug":"100065619-godiva-ciocolata-neagra-cu-umplutura-ganache-86g","unitPriceLabel":"127,79 Lei/kg","brand":"Godiva","brandCode":"1003","brandFilterCode":"godiva-b953","sku":"100065619","price":10.99,"originalPrice":11.9,"currencyCode":"RON","currency":"Lei","image":{"thumbnail":{"default":"https://cdn.freshful.ro/media/cache/sylius_shop_product_thumbnail/e4/5c/a1bc480c69c7dea2e3b5463169c3.jpg"},"large":{"default":"https://cdn.freshful.ro/media/cache/freshful_large/e4/5c/a1bc480c69c7dea2e3b5463169c3.jpg"},"extralarge":{"default":"https://cdn.freshful.ro/media/cache/sylius_shop_product_original/e4/5c/a1bc480c69c7dea2e3b5463169c3.jpg"}},"label":{"text":"-7%","backgroundColor":"#FF9903","textColor":"#FFFFFF"},"tags":[],"isAvailable":true,"maxAvailableQuantity":46,"maxAllowedQuantity":100,"breadcrumbs":[{"code":"9","name":"Dulciuri & mic dejun","slug":"9-ceva-dulce"},{"code":"905","name":"Bomboane și ciocolată","slug":"905-bomboane-si-ciocolata"},{"code":"90501","name":"Tablete de ciocolată","slug":"90501-tablete-de-ciocolata"},{"code":"100065619","name":"Ciocolată neagră cu umplutură ganache 86g","slug":"100065619-godiva-ciocolata-neagra-cu-umplutura-ganache-86g"}],"activePromotion":{"code":"special-bacanie-bauturi-mar23","name":"Preț redus","targetQuantity":null},"saveMe":null,"labels":[{"type":"v1","items":[{"text":"-7%","backgroundColor":"#FF9903","textColor":"#FFFFFF"}]}],"geniusPrice":null,"geniusUnitPricePerLabel":null,"banner":{"text":"Super preț","textColor":"#FF0000","bgColor":"#FFF2EC","icon":null,"link":"https://www.freshful.ro/oferte/special-bacanie-bauturi-mar23","type":"promo","analyticsEventType":"select_promotion","analyticsEventPayload":{"promotion_id":"special-bacanie-bauturi-mar23","promotion_name":"Prețuri speciale pentru Ziua Femeii"}},"discountLabel":"Economisești 7%","geniusDiscountLabel":null,"badge":null},{"code":"100148363","variantCode":"100148363","name":"Ciocolată amăruie cu alune întregi 85g","slug":"100148363-ion-break-ciocolata-amaruie-cu-alune-intregi-85g","unitPriceLabel":"58,71 Lei/kg","brand":"Ion Break","brandCode":"2915","brandFilterCode":"ion-break-b3009","sku":"100148363","price":4.99,"originalPrice":8.09,"currencyCode":"RON","currency":"Lei","image":{"thumbnail":{"default":"https://cdn.freshful.ro/media/cache/sylius_shop_product_thumbnail/85/73/02d5b61b24cd0c34d766d9f0413e.jpg"},"large":{"default":"https://cdn.freshful.ro/media/cache/freshful_large/85/73/02d5b61b24cd0c34d766d9f0413e.jpg"},"extralarge":{"default":"https://cdn.freshful.ro/media/cache/sylius_shop_product_original/85/73/02d5b61b24cd0c34d766d9f0413e.jpg"}},"label":{"text":"-38%","backgroundColor":"#FF9903","textColor":"#FFFFFF"},"tags":[],"isAvailable":true,"maxAvailableQuantity":72,"maxAllowedQuantity":100,"breadcrumbs":[{"code":"9","name":"Dulciuri & mic dejun","slug":"9-ceva-dulce"},{"code":"905","name":"Bomboane și ciocolată","slug":"905-bomboane-si-ciocolata"},{"code":"90501","name":"Tablete de ciocolată","slug":"90501-tablete-de-ciocolata"},{"code":"100148363","name":"Ciocolată amăruie cu alune întregi 85g","slug":"100148363-ion-break-ciocolata-amaruie-cu-alune-intregi-85g"}],"activePromotion":{"code":"special-bacanie-bauturi-mar23","name":"Preț redus","targetQuantity":null},"saveMe":null,"labels":[{"type":"v1","items":[{"text":"-38%","backgroundColor":"#FF9903","textColor":"#FFFFFF"}]}],"geniusPrice":null,"geniusUnitPricePerLabel":null,"banner":{"text":"Super preț","textColor":"#FF0000","bgColor":"#FFF2EC","icon":null,"link":"https://www.freshful.ro/oferte/special-bacanie-bauturi-mar23","type":"promo","analyticsEventType":"select_promotion","analyticsEventPayload":{"promotion_id":"special-bacanie-bauturi-mar23","promotion_name":"Prețuri speciale pentru Ziua Femeii"}},"discountLabel":"Economisești 38%","geniusDiscountLabel":null,"badge":null},{"code":"100148361","variantCode":"100148361","name":"Ciocolată cu lapte cu alune întregi 85g","slug":"100148361-ion-break-ciocolata-cu-lapte-cu-alune-intregi-85g","unitPriceLabel":"58,71 Lei/kg","brand":"Ion Break","brandCode":"2915","brandFilterCode":"ion-break-b3009","sku":"100148361","price":4.99,"originalPrice":8.09,"currencyCode":"RON","currency":"Lei","image":{"thumbnail":{"default":"https://cdn.freshful.ro/media/cache/sylius_shop_product_thumbnail/fc/9c/f90562f2f98dc09fdce158acbfcf.jpg"},"large":{"default":"https://cdn.freshful.ro/media/cache/freshful_large/fc/9c/f90562f2f98dc09fdce158acbfcf.jpg"},"extralarge":{"default":"https://cdn.freshful.ro/media/cache/sylius_shop_product_original/fc/9c/f90562f2f98dc09fdce158acbfcf.jpg"}},"label":{"text":"-38%","backgroundColor":"#FF9903","textColor":"#FFFFFF"},"tags":[],"isAvailable":true,"maxAvailableQuantity":62,"maxAllowedQuantity":100,"breadcrumbs":[{"code":"9","name":"Dulciuri & mic dejun","slug":"9-ceva-dulce"},{"code":"905","name":"Bomboane și ciocolată","slug":"905-bomboane-si-ciocolata"},{"code":"90501","name":"Tablete de ciocolată","slug":"90501-tablete-de-ciocolata"},{"code":"100148361","name":"Ciocolată cu lapte cu alune întregi 85g","slug":"100148361-ion-break-ciocolata-cu-lapte-cu-alune-intregi-85g"}],"activePromotion":{"code":"special-bacanie-bauturi-mar23","name":"Preț redus","targetQuantity":null},"saveMe":null,"labels":[{"type":"v1","items":[{"text":"-38%","backgroundColor":"#FF9903","textColor":"#FFFFFF"}]}],"geniusPrice":null,"geniusUnitPricePerLabel":null,"banner":{"text":"Super preț","textColor":"#FF0000","bgColor":"#FFF2EC","icon":null,"link":"https://www.freshful.ro/oferte/special-bacanie-bauturi-mar23","type":"promo","analyticsEventType":"select_promotion","analyticsEventPayload":{"promotion_id":"special-bacanie-bauturi-mar23","promotion_name":"Prețuri speciale pentru Ziua Femeii"}},"discountLabel":"Economisești 38%","geniusDiscountLabel":null,"badge":null},{"code":"100065627","variantCode":"8690504142584","name":"Ciocolată neagră cu migdale prăjite 60g","slug":"100065627-godiva-ciocolata-neagra-cu-migdale-prajite-60g","unitPriceLabel":"139,83 Lei/kg","brand":"Godiva","brandCode":"1003","brandFilterCode":"godiva-b953","sku":"100065627","price":8.39,"originalPrice":9.49,"currencyCode":"RON","currency":"Lei","image":{"thumbnail":{"default":"https://cdn.freshful.ro/media/cache/sylius_shop_product_thumbnail/07/29/bfbb358a3b819ffd793b6a09de0f.jpg"},"large":{"default":"https://cdn.freshful.ro/media/cache/freshful_large/07/29/bfbb358a3b819ffd793b6a09de0f.jpg"},"extralarge":{"default":"https://cdn.freshful.ro/media/cache/sylius_shop_product_original/07/29/bfbb358a3b819ffd793b6a09de0f.jpg"}},"label":{"text":"-11%","backgroundColor":"#FF9903","textColor":"#FFFFFF"},"tags":[],"isAvailable":true,"maxAvailableQuantity":100,"maxAllowedQuantity":100,"breadcrumbs":[{"code":"9","name":"Dulciuri & mic dejun","slug":"9-ceva-dulce"},{"code":"905","name":"Bomboane și ciocolată","slug":"905-bomboane-si-ciocolata"},{"code":"90501","name":"Tablete de ciocolată","slug":"90501-tablete-de-ciocolata"},{"code":"100065627","name":"Ciocolată neagră cu migdale prăjite 60g","slug":"100065627-godiva-ciocolata-neagra-cu-migdale-prajite-60g"}],"activePromotion":{"code":"special-bacanie-bauturi-mar23","name":"Preț redus","targetQuantity":null},"saveMe":null,"labels":[{"type":"v1","items":[{"text":"-11%","backgroundColor":"#FF9903","textColor":"#FFFFFF"}]}],"geniusPrice":null,"geniusUnitPricePerLabel":null,"banner":{"text":"Super preț","textColor":"#FF0000","bgColor":"#FFF2EC","icon":null,"link":"https://www.freshful.ro/oferte/special-bacanie-bauturi-mar23","type":"promo","analyticsEventType":"select_promotion","analyticsEventPayload":{"promotion_id":"special-bacanie-bauturi-mar23","promotion_name":"Prețuri speciale pentru Ziua Femeii"}},"discountLabel":"Economisești 11%","geniusDiscountLabel":null,"badge":null},{"code":"100065618","variantCode":"8690504153849","name":"Ciocolată cu lapte și umplutură de praline 83g","slug":"100065618-godiva-ciocolata-cu-lapte-si-umplutura-de-praline-83g","unitPriceLabel":"131,33 Lei/kg","brand":"Godiva","brandCode":"1003","brandFilterCode":"godiva-b953","sku":"100065618","price":10.9,"originalPrice":11.99,"currencyCode":"RON","currency":"Lei","image":{"thumbnail":{"default":"https://cdn.freshful.ro/media/cache/sylius_shop_product_thumbnail/27/c1/ec0313b1546d15c723761a309a16.jpg"},"large":{"default":"https://cdn.freshful.ro/media/cache/freshful_large/27/c1/ec0313b1546d15c723761a309a16.jpg"},"extralarge":{"default":"https://cdn.freshful.ro/media/cache/sylius_shop_product_original/27/c1/ec0313b1546d15c723761a309a16.jpg"}},"label":{"text":"-9%","backgroundColor":"#FF9903","textColor":"#FFFFFF"},"tags":[],"isAvailable":true,"maxAvailableQuantity":81,"maxAllowedQuantity":100,"breadcrumbs":[{"code":"9","name":"Dulciuri & mic dejun","slug":"9-ceva-dulce"},{"code":"905","name":"Bomboane și ciocolată","slug":"905-bomboane-si-ciocolata"},{"code":"90501","name":"Tablete de ciocolată","slug":"90501-tablete-de-ciocolata"},{"code":"100065618","name":"Ciocolată cu lapte și umplutură de praline 83g","slug":"100065618-godiva-ciocolata-cu-lapte-si-umplutura-de-praline-83g"}],"activePromotion":{"code":"special-bacanie-bauturi-mar23","name":"Preț redus","targetQuantity":null},"saveMe":null,"labels":[{"type":"v1","items":[{"text":"-9%","backgroundColor":"#FF9903","textColor":"#FFFFFF"}]}],"geniusPrice":null,"geniusUnitPricePerLabel":null,"banner":{"text":"Super preț","textColor":"#FF0000","bgColor":"#FFF2EC","icon":null,"link":"https://www.freshful.ro/oferte/special-bacanie-bauturi-mar23","type":"promo","analyticsEventType":"select_promotion","analyticsEventPayload":{"promotion_id":"special-bacanie-bauturi-mar23","promotion_name":"Prețuri speciale pentru Ziua Femeii"}},"discountLabel":"Economisești 9%","geniusDiscountLabel":null,"badge":null},{"code":"100148360","variantCode":"100148360","name":"Ciocolată amăruie 85g","slug":"100148360-ion-break-ciocolata-amaruie-85g","unitPriceLabel":"58,71 Lei/kg","brand":"Ion Break","brandCode":"2915","brandFilterCode":"ion-break-b3009","sku":"100148360","price":4.99,"originalPrice":7.49,"currencyCode":"RON","currency":"Lei","image":{"thumbnail":{"default":"https://cdn.freshful.ro/media/cache/sylius_shop_product_thumbnail/7f/5d/006edc481bcf381067c74fcbc927.jpg"},"large":{"default":"https://cdn.freshful.ro/media/cache/freshful_large/7f/5d/006edc481bcf381067c74fcbc927.jpg"},"extralarge":{"default":"https://cdn.freshful.ro/media/cache/sylius_shop_product_original/7f/5d/006edc481bcf381067c74fcbc927.jpg"}},"label":{"text":"-33%","backgroundColor":"#FF9903","textColor":"#FFFFFF"},"tags":[],"isAvailable":true,"maxAvailableQuantity":94,"maxAllowedQuantity":100,"breadcrumbs":[{"code":"9","name":"Dulciuri & mic dejun","slug":"9-ceva-dulce"},{"code":"905","name":"Bomboane și ciocolată","slug":"905-bomboane-si-ciocolata"},{"code":"90501","name":"Tablete de ciocolată","slug":"90501-tablete-de-ciocolata"},{"code":"100148360","name":"Ciocolată amăruie 85g","slug":"100148360-ion-break-ciocolata-amaruie-85g"}],"activePromotion":{"code":"special-bacanie-bauturi-mar23","name":"Preț redus","targetQuantity":null},"saveMe":null,"labels":[{"type":"v1","items":[{"text":"-33%","backgroundColor":"#FF9903","textColor":"#FFFFFF"}]}],"geniusPrice":null,"geniusUnitPricePerLabel":null,"banner":{"text":"Super preț","textColor":"#FF0000","bgColor":"#FFF2EC","icon":null,"link":"https://www.freshful.ro/oferte/special-bacanie-bauturi-mar23","type":"promo","analyticsEventType":"select_promotion","analyticsEventPayload":{"promotion_id":"special-bacanie-bauturi-mar23","promotion_name":"Prețuri speciale pentru Ziua Femeii"}},"discountLabel":"Economisești 33%","geniusDiscountLabel":null,"badge":null},{"code":"100148362","variantCode":"100148362","name":"Ciocolată cu lapte, alune și stafide 85g","slug":"100148362-ion-break-ciocolata-cu-lapte-alune-si-stafide-85g","unitPriceLabel":"58,71 Lei/kg","brand":"Ion Break","brandCode":"2915","brandFilterCode":"ion-break-b3009","sku":"100148362","price":4.99,"originalPrice":7.49,"currencyCode":"RON","currency":"Lei","image":{"thumbnail":{"default":"https://cdn.freshful.ro/media/cache/sylius_shop_product_thumbnail/38/50/17a31b0b9d57c8d3b05593312092.jpg"},"large":{"default":"https://cdn.freshful.ro/media/cache/freshful_large/38/50/17a31b0b9d57c8d3b05593312092.jpg"},"extralarge":{"default":"https://cdn.freshful.ro/media/cache/sylius_shop_product_original/38/50/17a31b0b9d57c8d3b05593312092.jpg"}},"label":{"text":"-33%","backgroundColor":"#FF9903","textColor":"#FFFFFF"},"tags":[],"isAvailable":true,"maxAvailableQuantity":90,"maxAllowedQuantity":100,"breadcrumbs":[{"code":"9","name":"Dulciuri & mic dejun","slug":"9-ceva-dulce"},{"code":"905","name":"Bomboane și ciocolată","slug":"905-bomboane-si-ciocolata"},{"code":"90501","name":"Tablete de ciocolată","slug":"90501-tablete-de-ciocolata"},{"code":"100148362","name":"Ciocolată cu lapte, alune și stafide 85g","slug":"100148362-ion-break-ciocolata-cu-lapte-alune-si-stafide-85g"}],"activePromotion":{"code":"special-bacanie-bauturi-mar23","name":"Preț redus","targetQuantity":null},"saveMe":null,"labels":[{"type":"v1","items":[{"text":"-33%","backgroundColor":"#FF9903","textColor":"#FFFFFF"}]}],"geniusPrice":null,"geniusUnitPricePerLabel":null,"banner":{"text":"Super preț","textColor":"#FF0000","bgColor":"#FFF2EC","icon":null,"link":"https://www.freshful.ro/oferte/special-bacanie-bauturi-mar23","type":"promo","analyticsEventType":"select_promotion","analyticsEventPayload":{"promotion_id":"special-bacanie-bauturi-mar23","promotion_name":"Prețuri speciale pentru Ziua Femeii"}},"discountLabel":"Economisești 33%","geniusDiscountLabel":null,"badge":null},{"code":"100148364","variantCode":"100148364","name":"Ciocolată cu lapte și migdale întregi 85g","slug":"100148364-ion-break-ciocolata-cu-lapte-si-migdale-intregi-85g","unitPriceLabel":"58,71 Lei/kg","brand":"Ion Break","brandCode":"2915","brandFilterCode":"ion-break-b3009","sku":"100148364","price":4.99,"originalPrice":7.49,"currencyCode":"RON","currency":"Lei","image":{"thumbnail":{"default":"https://cdn.freshful.ro/media/cache/sylius_shop_product_thumbnail/dd/a1/5185f94c7eda78cbd328c4d83f25.jpg"},"large":{"default":"https://cdn.freshful.ro/media/cache/freshful_large/dd/a1/5185f94c7eda78cbd328c4d83f25.jpg"},"extralarge":{"default":"https://cdn.freshful.ro/media/cache/sylius_shop_product_original/dd/a1/5185f94c7eda78cbd328c4d83f25.jpg"}},"label":{"text":"-33%","backgroundColor":"#FF9903","textColor":"#FFFFFF"},"tags":[],"isAvailable":true,"maxAvailableQuantity":86,"maxAllowedQuantity":100,"breadcrumbs":[{"code":"9","name":"Dulciuri & mic dejun","slug":"9-ceva-dulce"},{"code":"905","name":"Bomboane și ciocolată","slug":"905-bomboane-si-ciocolata"},{"code":"90501","name":"Tablete de ciocolată","slug":"90501-tablete-de-ciocolata"},{"code":"100148364","name":"Ciocolată cu lapte și migdale întregi 85g","slug":"100148364-ion-break-ciocolata-cu-lapte-si-migdale-intregi-85g"}],"activePromotion":{"code":"special-bacanie-bauturi-mar23","name":"Preț redus","targetQuantity":null},"saveMe":null,"labels":[{"type":"v1","items":[{"text":"-33%","backgroundColor":"#FF9903","textColor":"#FFFFFF"}]}],"geniusPrice":null,"geniusUnitPricePerLabel":null,"banner":{"text":"Super preț","textColor":"#FF0000","bgColor":"#FFF2EC","icon":null,"link":"https://www.freshful.ro/oferte/special-bacanie-bauturi-mar23","type":"promo","analyticsEventType":"select_promotion","analyticsEventPayload":{"promotion_id":"special-bacanie-bauturi-mar23","promotion_name":"Prețuri speciale pentru Ziua Femeii"}},"discountLabel":"Economisești 33%","geniusDiscountLabel":null,"badge":null},{"code":"100148359","variantCode":"100148359","name":"Ciocolată cu lapte 85g","slug":"100148359-ion-break-ciocolata-cu-lapte-85g","unitPriceLabel":"58,71 Lei/kg","brand":"Ion Break","brandCode":"2915","brandFilterCode":"ion-break-b3009","sku":"100148359","price":4.99,"originalPrice":null,"currencyCode":"RON","currency":"Lei","image":{"thumbnail":{"default":"https://cdn.freshful.ro/media/cache/sylius_shop_product_thumbnail/8a/4f/90cd9a1df4ffd10ed845a331a08d.jpg"},"large":{"default":"https://cdn.freshful.ro/media/cache/freshful_large/8a/4f/90cd9a1df4ffd10ed845a331a08d.jpg"},"extralarge":{"default":"https://cdn.freshful.ro/media/cache/sylius_shop_product_original/8a/4f/90cd9a1df4ffd10ed845a331a08d.jpg"}},"label":{"text":"Profită acum","backgroundColor":"#FF9903","textColor":"#FFFFFF"},"tags":[],"isAvailable":true,"maxAvailableQuantity":83,"maxAllowedQuantity":100,"breadcrumbs":[{"code":"9","name":"Dulciuri & mic dejun","slug":"9-ceva-dulce"},{"code":"905","name":"Bomboane și ciocolată","slug":"905-bomboane-si-ciocolata"},{"code":"90501","name":"Tablete de ciocolată","slug":"90501-tablete-de-ciocolata"},{"code":"100148359","name":"Ciocolată cu lapte 85g","slug":"100148359-ion-break-ciocolata-cu-lapte-85g"}],"activePromotion":{"code":"special-bacanie-bauturi-mar23","name":"Preț avantajos","targetQuantity":null},"saveMe":null,"labels":[{"type":"v1","items":[{"text":"Profită acum","backgroundColor":"#FF9903","textColor":"#FFFFFF"}]}],"geniusPrice":null,"geniusUnitPricePerLabel":null,"banner":{"text":"Preț avantajos","textColor":"#F95510","bgColor":"#FEF1CD","icon":null,"link":"https://www.freshful.ro/oferte/special-bacanie-bauturi-mar23","type":"promo","analyticsEventType":"select_promotion","analyticsEventPayload":{"promotion_id":"special-bacanie-bauturi-mar23","promotion_name":"Prețuri speciale pentru Ziua Femeii"}},"discountLabel":null,"geniusDiscountLabel":null,"badge":null}],"filters":{"countSelected":0,"items":[{"code":"promotion","name":"Promoții","countSelected":0,"values":[{"code":"special-bacanie-bauturi-mar23","name":"Prețuri speciale pentru Ziua Femeii","isSelected":false,"count":12}]},{"code":"brand","name":"Brand","countSelected":0,"values":[{"code":"after-eight-b295","name":"After Eight","isSelected":false,"count":1},{"code":"bailey-s-b1786","name":"Bailey's","isSelected":false,"count":1},{"code":"belgian-b147","name":"Belgian","isSelected":false,"count":3},{"code":"bohme-b2159","name":"Bohme","isSelected":false,"count":6},{"code":"celebrations-b95","name":"Celebrations","isSelected":false,"count":1},{"code":"ciocolateria-9-b2373","name":"Ciocolateria 9","isSelected":false,"count":10},{"code":"dare-b163","name":"Dare","isSelected":false,"count":1},{"code":"godiva-b953","name":"Godiva","isSelected":false,"count":13},{"code":"heidi-b727","name":"Heidi","isSelected":false,"count":11},{"code":"ion-break-b3009","name":"Ion Break","isSelected":false,"count":6},{"code":"kandia-b1542","name":"Kandia","isSelected":false,"count":2},{"code":"lindt-b1493","name":"Lindt","isSelected":false,"count":13},{"code":"maitre-truffout-b2306","name":"Maitre Truffout","isSelected":false,"count":8},{"code":"merci-b872","name":"Merci","isSelected":false,"count":7},{"code":"milka-b470","name":"Milka","isSelected":false,"count":18},{"code":"nestle-b698","name":"Nestlé","isSelected":false,"count":4},{"code":"novi-b2498","name":"Novi","isSelected":false,"count":1},{"code":"paula-ana-b1622","name":"Paula Ana","isSelected":false,"count":7},{"code":"perugina-b2594","name":"Perugina","isSelected":false,"count":1},{"code":"poiana-b1881","name":"Poiana","isSelected":false,"count":1},{"code":"primola-b1543","name":"Primola","isSelected":false,"count":2},{"code":"ritter-sport-b878","name":"Ritter Sport","isSelected":false,"count":13},{"code":"rom-b1544","name":"Rom","isSelected":false,"count":2},{"code":"razvan-b1127","name":"Răzvan","isSelected":false,"count":8},{"code":"schogetten-b99","name":"Schogetten","isSelected":false,"count":14},{"code":"sweet-safe-b112","name":"Sweet&Safe","isSelected":false,"count":9},{"code":"toblerone-b749","name":"Toblerone","isSelected":false,"count":3},{"code":"trianon-b1070","name":"Trianon","isSelected":false,"count":1},{"code":"weinrich-b149","name":"Weinrich","isSelected":false,"count":3}]},{"code":"diet_lifestyle","name":"Dietă și lifestyle","countSelected":0,"values":[{"code":"fara-gluten-a16","name":"Fara gluten","isSelected":false,"count":9},{"code":"fara-lactoza-a38","name":"Fara lactoza","isSelected":false,"count":1},{"code":"fara-zahar-adaugat-a29","name":"Fara zahar adaugat","isSelected":false,"count":11},{"code":"made-in-romania-a85","name":"Made In Romania","isSelected":false,"count":20},{"code":"vegan-a24","name":"Vegan","isSelected":false,"count":3}]}]},"orderBy":[{"field":"price","direction":"asc","name":"Preț crescător","isSelected":false},{"field":"price","direction":"desc","name":"Preț descrescător","isSelected":false},{"field":"popularity","direction":"desc","name":"Cele mai populare","isSelected":true},{"field":"category","direction":"asc","name":"Categorie","isSelected":false}],"metaTitle":"Tablete de ciocolată - Gamă variată","metaDescription":"Vrei Tablete de ciocolată? Alege dintr-o gamă variată. Comanzi simplu și ai livrare rapidă, calitate și prospețime. Hai pe Freshful.ro","metaKeywords":null,"banners":[]}}