{"type":"subcategory","payload":{"analyticsListId":"category_90507-dulciuri-de-sezon","analyticsListName":"Category - Dulciuri de sezon","name":"Dulciuri de sezon","slug":"90507-dulciuri-de-sezon","image":null,"breadcrumbs":[{"code":"9","name":"Dulciuri & mic dejun","slug":"9-ceva-dulce"},{"code":"905","name":"Bomboane și ciocolată","slug":"905-bomboane-si-ciocolata"},{"code":"90507","name":"Dulciuri de sezon","slug":"90507-dulciuri-de-sezon"}],"slots":[],"page":1,"limit":10,"pages":3,"count":23,"siblings":[{"name":"Biscuiți, napolitane și prăjituri","slug":"902-biscuiti-napolitane-si-prajituri","selected":false},{"name":"Cereale și mic dejun","slug":"903-cereale-si-mic-dejun","selected":false},{"name":"Cafea și ceai","slug":"904-cafea-si-ceai","selected":false},{"name":"Bomboane și ciocolată","slug":"905-bomboane-si-ciocolata","selected":true}],"children":[{"name":"Toate produsele","slug":"905-bomboane-si-ciocolata","selected":false},{"name":"Tablete de ciocolată","slug":"90501-tablete-de-ciocolata","selected":false},{"name":"Batoane de ciocolată","slug":"90502-batoane-de-ciocolata","selected":false},{"name":"Ciocolată pentru copii","slug":"90503-ciocolata-pentru-copii","selected":false},{"name":"Drajeuri de ciocolată","slug":"90504-drajeuri-din-ciocolata","selected":false},{"name":"Praline de ciocolată","slug":"90505-praline-de-ciocolata","selected":false},{"name":"Jeleuri și drajeuri","slug":"90506-jeleuri-si-drajeuri","selected":false},{"name":"Dulciuri de sezon","slug":"90507-dulciuri-de-sezon","selected":true}],"products":[{"code":"100128449","variantCode":"100128449","name":"Panettone tradițional cu stafide și fructe uscate 1000g","slug":"100128449-valentino-panettone-traditional-cu-stafide-si-fructe-uscate-1000g","unitPriceLabel":"51,99 Lei/kg","brand":"Valentino","brandCode":"2390","brandFilterCode":"valentino-b2394","sku":"100128449","price":51.99,"originalPrice":null,"currencyCode":"RON","currency":"Lei","image":{"thumbnail":{"default":"https://cdn.freshful.ro/media/cache/sylius_shop_product_thumbnail/07/ee/ddf893d8ba269e33399343ec45ae.jpg"},"large":{"default":"https://cdn.freshful.ro/media/cache/freshful_large/07/ee/ddf893d8ba269e33399343ec45ae.jpg"},"extralarge":{"default":"https://cdn.freshful.ro/media/cache/sylius_shop_product_original/07/ee/ddf893d8ba269e33399343ec45ae.jpg"}},"label":null,"tags":[],"isAvailable":true,"maxAvailableQuantity":100,"maxAllowedQuantity":100,"breadcrumbs":[{"code":"9","name":"Dulciuri & mic dejun","slug":"9-ceva-dulce"},{"code":"905","name":"Bomboane și ciocolată","slug":"905-bomboane-si-ciocolata"},{"code":"90507","name":"Dulciuri de sezon","slug":"90507-dulciuri-de-sezon"},{"code":"100128449","name":"Panettone tradițional cu stafide și fructe uscate 1000g","slug":"100128449-valentino-panettone-traditional-cu-stafide-si-fructe-uscate-1000g"}],"activePromotion":null,"saveMe":null,"labels":[],"geniusPrice":null,"geniusUnitPricePerLabel":null,"banner":null,"discountLabel":null,"geniusDiscountLabel":null,"badge":null},{"code":"100128212","variantCode":"100128212","name":"Panettone Chocolate 500g","slug":"100128212-bauducco-panettone-chocolate-500g","unitPriceLabel":"70,78 Lei/kg","brand":"Bauducco","brandCode":"2366","brandFilterCode":"bauducco-b2370","sku":"100128212","price":35.39,"originalPrice":null,"currencyCode":"RON","currency":"Lei","image":{"thumbnail":{"default":"https://cdn.freshful.ro/media/cache/sylius_shop_product_thumbnail/0b/0a/9c912660e54a5385513de96f72c3.jpg"},"large":{"default":"https://cdn.freshful.ro/media/cache/freshful_large/0b/0a/9c912660e54a5385513de96f72c3.jpg"},"extralarge":{"default":"https://cdn.freshful.ro/media/cache/sylius_shop_product_original/0b/0a/9c912660e54a5385513de96f72c3.jpg"}},"label":null,"tags":[],"isAvailable":true,"maxAvailableQuantity":50,"maxAllowedQuantity":100,"breadcrumbs":[{"code":"9","name":"Dulciuri & mic dejun","slug":"9-ceva-dulce"},{"code":"905","name":"Bomboane și ciocolată","slug":"905-bomboane-si-ciocolata"},{"code":"90507","name":"Dulciuri de sezon","slug":"90507-dulciuri-de-sezon"},{"code":"100128212","name":"Panettone Chocolate 500g","slug":"100128212-bauducco-panettone-chocolate-500g"}],"activePromotion":null,"saveMe":null,"labels":[],"geniusPrice":null,"geniusUnitPricePerLabel":null,"banner":null,"discountLabel":null,"geniusDiscountLabel":null,"badge":null},{"code":"100128447","variantCode":"100128447","name":"Panettone cu bucăți de ciocolată fondant 500g","slug":"100128447-valentino-panettone-cu-bucati-de-ciocolata-fondant-500g","unitPriceLabel":"101,98 Lei/kg","brand":"Valentino","brandCode":"2390","brandFilterCode":"valentino-b2394","sku":"100128447","price":50.99,"originalPrice":null,"currencyCode":"RON","currency":"Lei","image":{"thumbnail":{"default":"https://cdn.freshful.ro/media/cache/sylius_shop_product_thumbnail/4f/28/2a45895f48b10ef341502e8f4cca.jpg"},"large":{"default":"https://cdn.freshful.ro/media/cache/freshful_large/4f/28/2a45895f48b10ef341502e8f4cca.jpg"},"extralarge":{"default":"https://cdn.freshful.ro/media/cache/sylius_shop_product_original/4f/28/2a45895f48b10ef341502e8f4cca.jpg"}},"label":null,"tags":[],"isAvailable":true,"maxAvailableQuantity":55,"maxAllowedQuantity":100,"breadcrumbs":[{"code":"9","name":"Dulciuri & mic dejun","slug":"9-ceva-dulce"},{"code":"905","name":"Bomboane și ciocolată","slug":"905-bomboane-si-ciocolata"},{"code":"90507","name":"Dulciuri de sezon","slug":"90507-dulciuri-de-sezon"},{"code":"100128447","name":"Panettone cu bucăți de ciocolată fondant 500g","slug":"100128447-valentino-panettone-cu-bucati-de-ciocolata-fondant-500g"}],"activePromotion":null,"saveMe":null,"labels":[],"geniusPrice":null,"geniusUnitPricePerLabel":null,"banner":null,"discountLabel":null,"geniusDiscountLabel":null,"badge":null},{"code":"100128450","variantCode":"100128450","name":"Pandoro tradițional 1000g","slug":"100128450-valentino-pandoro-traditional-1000g","unitPriceLabel":"65,98 Lei/kg","brand":"Valentino","brandCode":"2390","brandFilterCode":"valentino-b2394","sku":"100128450","price":65.98,"originalPrice":null,"currencyCode":"RON","currency":"Lei","image":{"thumbnail":{"default":"https://cdn.freshful.ro/media/cache/sylius_shop_product_thumbnail/fe/bf/06d82c5e8cea393c6da5f8f2c06f.jpg"},"large":{"default":"https://cdn.freshful.ro/media/cache/freshful_large/fe/bf/06d82c5e8cea393c6da5f8f2c06f.jpg"},"extralarge":{"default":"https://cdn.freshful.ro/media/cache/sylius_shop_product_original/fe/bf/06d82c5e8cea393c6da5f8f2c06f.jpg"}},"label":null,"tags":[],"isAvailable":true,"maxAvailableQuantity":100,"maxAllowedQuantity":100,"breadcrumbs":[{"code":"9","name":"Dulciuri & mic dejun","slug":"9-ceva-dulce"},{"code":"905","name":"Bomboane și ciocolată","slug":"905-bomboane-si-ciocolata"},{"code":"90507","name":"Dulciuri de sezon","slug":"90507-dulciuri-de-sezon"},{"code":"100128450","name":"Pandoro tradițional 1000g","slug":"100128450-valentino-pandoro-traditional-1000g"}],"activePromotion":null,"saveMe":null,"labels":[],"geniusPrice":null,"geniusUnitPricePerLabel":null,"banner":null,"discountLabel":null,"geniusDiscountLabel":null,"badge":null},{"code":"100128582","variantCode":"100128582","name":"Baton de ciocolată cu cremă vanilie 38g","slug":"100128582-papi-baton-de-ciocolata-cu-crema-vanilie-38g","unitPriceLabel":"52,37 Lei/kg","brand":"Papi","brandCode":"2487","brandFilterCode":"papi-b2491","sku":"100128582","price":1.99,"originalPrice":null,"currencyCode":"RON","currency":"Lei","image":{"thumbnail":{"default":"https://cdn.freshful.ro/media/cache/sylius_shop_product_thumbnail/bb/90/15be3b01025f9f0546b4fe1f4c0d.jpg"},"large":{"default":"https://cdn.freshful.ro/media/cache/freshful_large/bb/90/15be3b01025f9f0546b4fe1f4c0d.jpg"},"extralarge":{"default":"https://cdn.freshful.ro/media/cache/sylius_shop_product_original/bb/90/15be3b01025f9f0546b4fe1f4c0d.jpg"}},"label":null,"tags":[],"isAvailable":true,"maxAvailableQuantity":2,"maxAllowedQuantity":100,"breadcrumbs":[{"code":"9","name":"Dulciuri & mic dejun","slug":"9-ceva-dulce"},{"code":"905","name":"Bomboane și ciocolată","slug":"905-bomboane-si-ciocolata"},{"code":"90507","name":"Dulciuri de sezon","slug":"90507-dulciuri-de-sezon"},{"code":"100128582","name":"Baton de ciocolată cu cremă vanilie 38g","slug":"100128582-papi-baton-de-ciocolata-cu-crema-vanilie-38g"}],"activePromotion":null,"saveMe":null,"labels":[],"geniusPrice":null,"geniusUnitPricePerLabel":null,"banner":null,"discountLabel":null,"geniusDiscountLabel":null,"badge":null},{"code":"100130654","variantCode":"100130654","name":"Panettone cu stafide și merișoare 750g","slug":"100130654-valentino-panettone-cu-stafide-si-merisoare-750g","unitPriceLabel":"79,99 Lei/kg","brand":"Valentino","brandCode":"2390","brandFilterCode":"valentino-b2394","sku":"100130654","price":59.99,"originalPrice":null,"currencyCode":"RON","currency":"Lei","image":{"thumbnail":{"default":"https://cdn.freshful.ro/media/cache/sylius_shop_product_thumbnail/89/31/752982c47889c13c964809affc79.jpg"},"large":{"default":"https://cdn.freshful.ro/media/cache/freshful_large/89/31/752982c47889c13c964809affc79.jpg"},"extralarge":{"default":"https://cdn.freshful.ro/media/cache/sylius_shop_product_original/89/31/752982c47889c13c964809affc79.jpg"}},"label":null,"tags":[],"isAvailable":true,"maxAvailableQuantity":100,"maxAllowedQuantity":100,"breadcrumbs":[{"code":"9","name":"Dulciuri & mic dejun","slug":"9-ceva-dulce"},{"code":"905","name":"Bomboane și ciocolată","slug":"905-bomboane-si-ciocolata"},{"code":"90507","name":"Dulciuri de sezon","slug":"90507-dulciuri-de-sezon"},{"code":"100130654","name":"Panettone cu stafide și merișoare 750g","slug":"100130654-valentino-panettone-cu-stafide-si-merisoare-750g"}],"activePromotion":null,"saveMe":null,"labels":[],"geniusPrice":null,"geniusUnitPricePerLabel":null,"banner":null,"discountLabel":null,"geniusDiscountLabel":null,"badge":null},{"code":"100144613","variantCode":"100144613","name":"Figurină de ciocolată în formă de  Moș Crăciun 175g","slug":"100144613-smarties-figurina-de-ciocolata-in-forma-de-mos-craciun-175g","unitPriceLabel":"130,39 Lei/kg","brand":"Smarties","brandCode":"13","brandFilterCode":"smarties-b5","sku":"100144613","price":23.47,"originalPrice":null,"currencyCode":"RON","currency":"Lei","image":{"thumbnail":{"default":"https://cdn.freshful.ro/media/cache/sylius_shop_product_thumbnail/8c/37/a34ce9cd4f01623fecbe92141db0.jpg"},"large":{"default":"https://cdn.freshful.ro/media/cache/freshful_large/8c/37/a34ce9cd4f01623fecbe92141db0.jpg"},"extralarge":{"default":"https://cdn.freshful.ro/media/cache/sylius_shop_product_original/8c/37/a34ce9cd4f01623fecbe92141db0.jpg"}},"label":null,"tags":[],"isAvailable":true,"maxAvailableQuantity":81,"maxAllowedQuantity":100,"breadcrumbs":[{"code":"9","name":"Dulciuri & mic dejun","slug":"9-ceva-dulce"},{"code":"905","name":"Bomboane și ciocolată","slug":"905-bomboane-si-ciocolata"},{"code":"90507","name":"Dulciuri de sezon","slug":"90507-dulciuri-de-sezon"},{"code":"100144613","name":"Figurină de ciocolată în formă de  Moș Crăciun 175g","slug":"100144613-smarties-figurina-de-ciocolata-in-forma-de-mos-craciun-175g"}],"activePromotion":null,"saveMe":null,"labels":[],"geniusPrice":null,"geniusUnitPricePerLabel":null,"banner":null,"discountLabel":null,"geniusDiscountLabel":null,"badge":null},{"code":"100124683","variantCode":"100124683","name":"M&M'S - Calendar Crăciun 3D cu selecții de bomboane de ciocolată 346g","slug":"100124683-m-m-s-m-m-s-calendar-craciun-3d-cu-selectii-de-bomboane-de-ciocolata-346g","unitPriceLabel":"150,26 Lei/kg","brand":"M&M'S","brandCode":"109","brandFilterCode":"m-m-s-b93","sku":"100124683","price":51.99,"originalPrice":null,"currencyCode":"RON","currency":"Lei","image":{"thumbnail":{"default":"https://cdn.freshful.ro/media/cache/sylius_shop_product_thumbnail/7f/bd/14391fa4c2e4aaebf456db7d80bd.jpg"},"large":{"default":"https://cdn.freshful.ro/media/cache/freshful_large/7f/bd/14391fa4c2e4aaebf456db7d80bd.jpg"},"extralarge":{"default":"https://cdn.freshful.ro/media/cache/sylius_shop_product_original/7f/bd/14391fa4c2e4aaebf456db7d80bd.jpg"}},"label":null,"tags":[],"isAvailable":true,"maxAvailableQuantity":100,"maxAllowedQuantity":100,"breadcrumbs":[{"code":"9","name":"Dulciuri & mic dejun","slug":"9-ceva-dulce"},{"code":"905","name":"Bomboane și ciocolată","slug":"905-bomboane-si-ciocolata"},{"code":"90507","name":"Dulciuri de sezon","slug":"90507-dulciuri-de-sezon"},{"code":"100124683","name":"M&M'S - Calendar Crăciun 3D cu selecții de bomboane de ciocolată 346g","slug":"100124683-m-m-s-m-m-s-calendar-craciun-3d-cu-selectii-de-bomboane-de-ciocolata-346g"}],"activePromotion":null,"saveMe":null,"labels":[],"geniusPrice":null,"geniusUnitPricePerLabel":null,"banner":null,"discountLabel":null,"geniusDiscountLabel":null,"badge":null},{"code":"100133424","variantCode":"100133424","name":"Praline Heart Valentine's Day 140g","slug":"100133424-raffaello-praline-heart-valentine-s-day-140g","unitPriceLabel":"89,23 Lei/kg","brand":"Raffaello","brandCode":"158","brandFilterCode":"raffaello-b159","sku":"100133424","price":20.88,"originalPrice":null,"currencyCode":"RON","currency":"Lei","image":{"thumbnail":{"default":"https://cdn.freshful.ro/media/cache/sylius_shop_product_thumbnail/53/d2/74f5ed6f7531bb305a55cd842a01.jpg"},"large":{"default":"https://cdn.freshful.ro/media/cache/freshful_large/53/d2/74f5ed6f7531bb305a55cd842a01.jpg"},"extralarge":{"default":"https://cdn.freshful.ro/media/cache/sylius_shop_product_original/53/d2/74f5ed6f7531bb305a55cd842a01.jpg"}},"label":null,"tags":[],"isAvailable":true,"maxAvailableQuantity":100,"maxAllowedQuantity":100,"breadcrumbs":[{"code":"9","name":"Dulciuri & mic dejun","slug":"9-ceva-dulce"},{"code":"905","name":"Bomboane și ciocolată","slug":"905-bomboane-si-ciocolata"},{"code":"90507","name":"Dulciuri de sezon","slug":"90507-dulciuri-de-sezon"},{"code":"100133424","name":"Praline Heart Valentine's Day 140g","slug":"100133424-raffaello-praline-heart-valentine-s-day-140g"}],"activePromotion":null,"saveMe":null,"labels":[],"geniusPrice":null,"geniusUnitPricePerLabel":null,"banner":null,"discountLabel":null,"geniusDiscountLabel":null,"badge":null},{"code":"100146082","variantCode":"100146082","name":"Figurină din ciocolată cu lapte Moș Crăciun 70g","slug":"100146082-heidi-figurina-din-ciocolata-cu-lapte-mos-craciun-70g","unitPriceLabel":"13,99 Lei/buc","brand":"Heidi","brandCode":"726","brandFilterCode":"heidi-b727","sku":"100146082","price":13.99,"originalPrice":null,"currencyCode":"RON","currency":"Lei","image":{"thumbnail":{"default":"https://cdn.freshful.ro/media/cache/sylius_shop_product_thumbnail/51/f8/27c4972e5e923b781fcb114d3e2a.jpg"},"large":{"default":"https://cdn.freshful.ro/media/cache/freshful_large/51/f8/27c4972e5e923b781fcb114d3e2a.jpg"},"extralarge":{"default":"https://cdn.freshful.ro/media/cache/sylius_shop_product_original/51/f8/27c4972e5e923b781fcb114d3e2a.jpg"}},"label":null,"tags":[],"isAvailable":true,"maxAvailableQuantity":61,"maxAllowedQuantity":100,"breadcrumbs":[{"code":"9","name":"Dulciuri & mic dejun","slug":"9-ceva-dulce"},{"code":"905","name":"Bomboane și ciocolată","slug":"905-bomboane-si-ciocolata"},{"code":"90507","name":"Dulciuri de sezon","slug":"90507-dulciuri-de-sezon"},{"code":"100146082","name":"Figurină din ciocolată cu lapte Moș Crăciun 70g","slug":"100146082-heidi-figurina-din-ciocolata-cu-lapte-mos-craciun-70g"}],"activePromotion":null,"saveMe":null,"labels":[],"geniusPrice":null,"geniusUnitPricePerLabel":null,"banner":null,"discountLabel":null,"geniusDiscountLabel":null,"badge":null}],"filters":{"countSelected":0,"items":[{"code":"brand","name":"Brand","countSelected":0,"values":[{"code":"bauducco-b2370","name":"Bauducco","isSelected":false,"count":1},{"code":"celebrations-b95","name":"Celebrations","isSelected":false,"count":1},{"code":"ferrero-rocher-b620","name":"Ferrero Rocher","isSelected":false,"count":1},{"code":"heidi-b727","name":"Heidi","isSelected":false,"count":9},{"code":"m-m-s-b93","name":"M&M'S","isSelected":false,"count":1},{"code":"papi-b2491","name":"Papi","isSelected":false,"count":3},{"code":"raffaello-b159","name":"Raffaello","isSelected":false,"count":1},{"code":"razvan-b1127","name":"Răzvan","isSelected":false,"count":1},{"code":"smarties-b5","name":"Smarties","isSelected":false,"count":1},{"code":"valentino-b2394","name":"Valentino","isSelected":false,"count":4}]}]},"orderBy":[{"field":"price","direction":"asc","name":"Preț crescător","isSelected":false},{"field":"price","direction":"desc","name":"Preț descrescător","isSelected":false},{"field":"popularity","direction":"desc","name":"Cele mai populare","isSelected":true},{"field":"category","direction":"asc","name":"Categorie","isSelected":false}],"metaTitle":"Dulciuri de sezon - Gamă variată","metaDescription":"Vrei Dulciuri de sezon? Alege dintr-o gamă variată. Comanzi simplu și ai livrare rapidă, calitate și prospețime. Hai pe Freshful.ro","metaKeywords":null,"banners":[]}}