{"type":"subcategory","payload":{"analyticsListId":"category_90502-batoane-de-ciocolata","analyticsListName":"Category - Batoane de ciocolată","name":"Batoane de ciocolată","slug":"90502-batoane-de-ciocolata","image":null,"breadcrumbs":[{"code":"9","name":"Dulciuri & mic dejun","slug":"9-ceva-dulce"},{"code":"905","name":"Bomboane și ciocolată","slug":"905-bomboane-si-ciocolata"},{"code":"90502","name":"Batoane de ciocolată","slug":"90502-batoane-de-ciocolata"}],"slots":[],"page":1,"limit":10,"pages":7,"count":65,"siblings":[{"name":"Biscuiți, napolitane și prăjituri","slug":"902-biscuiti-napolitane-si-prajituri","selected":false},{"name":"Cereale și mic dejun","slug":"903-cereale-si-mic-dejun","selected":false},{"name":"Cafea și ceai","slug":"904-cafea-si-ceai","selected":false},{"name":"Bomboane și ciocolată","slug":"905-bomboane-si-ciocolata","selected":true}],"children":[{"name":"Toate produsele","slug":"905-bomboane-si-ciocolata","selected":false},{"name":"Tablete de ciocolată","slug":"90501-tablete-de-ciocolata","selected":false},{"name":"Batoane de ciocolată","slug":"90502-batoane-de-ciocolata","selected":true},{"name":"Ciocolată pentru copii","slug":"90503-ciocolata-pentru-copii","selected":false},{"name":"Drajeuri de ciocolată","slug":"90504-drajeuri-din-ciocolata","selected":false},{"name":"Praline de ciocolată","slug":"90505-praline-de-ciocolata","selected":false},{"name":"Jeleuri și drajeuri","slug":"90506-jeleuri-si-drajeuri","selected":false},{"name":"Dulciuri de sezon","slug":"90507-dulciuri-de-sezon","selected":false}],"products":[{"code":"100038414","variantCode":"100038414","name":"Batoane de ciocolată cu lapte 8x12.5g","slug":"100038414-kinder-batoane-de-ciocolata-cu-lapte-8x12-5g","unitPriceLabel":"46,93 Lei/kg","brand":"Kinder","brandCode":"19","brandFilterCode":"kinder-b11","sku":"100038414","price":4.74,"originalPrice":null,"currencyCode":"RON","currency":"Lei","image":{"thumbnail":{"default":"https://cdn.freshful.ro/media/cache/sylius_shop_product_thumbnail/3f/c1/f4b4956f121126ba54ac42ee6744.jpg"},"large":{"default":"https://cdn.freshful.ro/media/cache/freshful_large/3f/c1/f4b4956f121126ba54ac42ee6744.jpg"},"extralarge":{"default":"https://cdn.freshful.ro/media/cache/sylius_shop_product_original/3f/c1/f4b4956f121126ba54ac42ee6744.jpg"}},"label":null,"tags":[],"isAvailable":true,"maxAvailableQuantity":100,"maxAllowedQuantity":100,"breadcrumbs":[{"code":"9","name":"Dulciuri & mic dejun","slug":"9-ceva-dulce"},{"code":"905","name":"Bomboane și ciocolată","slug":"905-bomboane-si-ciocolata"},{"code":"90502","name":"Batoane de ciocolată","slug":"90502-batoane-de-ciocolata"},{"code":"100038414","name":"Batoane de ciocolată cu lapte 8x12.5g","slug":"100038414-kinder-batoane-de-ciocolata-cu-lapte-8x12-5g"}],"activePromotion":null,"saveMe":null,"labels":[],"geniusPrice":null,"geniusUnitPricePerLabel":null,"banner":null,"discountLabel":null,"geniusDiscountLabel":null,"badge":null},{"code":"100038416","variantCode":"100038416","name":"Ciocolată cu lapte și cereale Country 23.5g","slug":"100038416-kinder-ciocolata-cu-lapte-si-cereale-country-23-5g","unitPriceLabel":"72,92 Lei/kg","brand":"Kinder","brandCode":"19","brandFilterCode":"kinder-b11","sku":"100038416","price":1.75,"originalPrice":null,"currencyCode":"RON","currency":"Lei","image":{"thumbnail":{"default":"https://cdn.freshful.ro/media/cache/sylius_shop_product_thumbnail/69/32/e642e3bf87c4dfc022ce23e3868d.jpg"},"large":{"default":"https://cdn.freshful.ro/media/cache/freshful_large/69/32/e642e3bf87c4dfc022ce23e3868d.jpg"},"extralarge":{"default":"https://cdn.freshful.ro/media/cache/sylius_shop_product_original/69/32/e642e3bf87c4dfc022ce23e3868d.jpg"}},"label":null,"tags":[],"isAvailable":true,"maxAvailableQuantity":100,"maxAllowedQuantity":100,"breadcrumbs":[{"code":"9","name":"Dulciuri & mic dejun","slug":"9-ceva-dulce"},{"code":"905","name":"Bomboane și ciocolată","slug":"905-bomboane-si-ciocolata"},{"code":"90502","name":"Batoane de ciocolată","slug":"90502-batoane-de-ciocolata"},{"code":"100038416","name":"Ciocolată cu lapte și cereale Country 23.5g","slug":"100038416-kinder-ciocolata-cu-lapte-si-cereale-country-23-5g"}],"activePromotion":null,"saveMe":null,"labels":[],"geniusPrice":null,"geniusUnitPricePerLabel":null,"banner":null,"discountLabel":null,"geniusDiscountLabel":null,"badge":null},{"code":"100043233","variantCode":"40052403","name":"Ciocolată cu lapte și napolitană 41.5g","slug":"100043233-kit-kat-ciocolata-cu-lapte-si-napolitana-41-5g","unitPriceLabel":"55,18 Lei/kg","brand":"Kit Kat","brandCode":"11","brandFilterCode":"kit-kat-b3","sku":"100043233","price":2.29,"originalPrice":null,"currencyCode":"RON","currency":"Lei","image":{"thumbnail":{"default":"https://cdn.freshful.ro/media/cache/sylius_shop_product_thumbnail/50/76/93ede773143a91928819610ec3a0.jpg"},"large":{"default":"https://cdn.freshful.ro/media/cache/freshful_large/50/76/93ede773143a91928819610ec3a0.jpg"},"extralarge":{"default":"https://cdn.freshful.ro/media/cache/sylius_shop_product_original/50/76/93ede773143a91928819610ec3a0.jpg"}},"label":null,"tags":[],"isAvailable":true,"maxAvailableQuantity":100,"maxAllowedQuantity":100,"breadcrumbs":[{"code":"9","name":"Dulciuri & mic dejun","slug":"9-ceva-dulce"},{"code":"905","name":"Bomboane și ciocolată","slug":"905-bomboane-si-ciocolata"},{"code":"90502","name":"Batoane de ciocolată","slug":"90502-batoane-de-ciocolata"},{"code":"100043233","name":"Ciocolată cu lapte și napolitană 41.5g","slug":"100043233-kit-kat-ciocolata-cu-lapte-si-napolitana-41-5g"}],"activePromotion":null,"saveMe":null,"labels":[],"geniusPrice":null,"geniusUnitPricePerLabel":null,"banner":null,"discountLabel":null,"geniusDiscountLabel":null,"badge":null},{"code":"100038409","variantCode":"100038409","name":"Napolitane trase în ciocolată cu lapte 39g","slug":"100038409-kinder-napolitane-trase-in-ciocolata-cu-lapte-39g","unitPriceLabel":"58,86 Lei/kg","brand":"Kinder","brandCode":"19","brandFilterCode":"kinder-b11","sku":"100038409","price":2.59,"originalPrice":null,"currencyCode":"RON","currency":"Lei","image":{"thumbnail":{"default":"https://cdn.freshful.ro/media/cache/sylius_shop_product_thumbnail/dd/d8/f35111363a3c2d21ae25cca9d41e.jpg"},"large":{"default":"https://cdn.freshful.ro/media/cache/freshful_large/dd/d8/f35111363a3c2d21ae25cca9d41e.jpg"},"extralarge":{"default":"https://cdn.freshful.ro/media/cache/sylius_shop_product_original/dd/d8/f35111363a3c2d21ae25cca9d41e.jpg"}},"label":null,"tags":[],"isAvailable":true,"maxAvailableQuantity":100,"maxAllowedQuantity":100,"breadcrumbs":[{"code":"9","name":"Dulciuri & mic dejun","slug":"9-ceva-dulce"},{"code":"905","name":"Bomboane și ciocolată","slug":"905-bomboane-si-ciocolata"},{"code":"90502","name":"Batoane de ciocolată","slug":"90502-batoane-de-ciocolata"},{"code":"100038409","name":"Napolitane trase în ciocolată cu lapte 39g","slug":"100038409-kinder-napolitane-trase-in-ciocolata-cu-lapte-39g"}],"activePromotion":null,"saveMe":null,"labels":[],"geniusPrice":null,"geniusUnitPricePerLabel":null,"banner":null,"discountLabel":null,"geniusDiscountLabel":null,"badge":null},{"code":"100058671","variantCode":"100058671","name":"Baton cu alune 40g","slug":"100058671-knoppers-baton-cu-alune-40g","unitPriceLabel":"84,75 Lei/kg","brand":"Knoppers","brandCode":"876","brandFilterCode":"knoppers-b877","sku":"100058671","price":3.39,"originalPrice":null,"currencyCode":"RON","currency":"Lei","image":{"thumbnail":{"default":"https://cdn.freshful.ro/media/cache/sylius_shop_product_thumbnail/88/d2/cff49eccb21d2f7eb9f1f107876f.jpg"},"large":{"default":"https://cdn.freshful.ro/media/cache/freshful_large/88/d2/cff49eccb21d2f7eb9f1f107876f.jpg"},"extralarge":{"default":"https://cdn.freshful.ro/media/cache/sylius_shop_product_original/88/d2/cff49eccb21d2f7eb9f1f107876f.jpg"}},"label":null,"tags":[],"isAvailable":true,"maxAvailableQuantity":100,"maxAllowedQuantity":100,"breadcrumbs":[{"code":"9","name":"Dulciuri & mic dejun","slug":"9-ceva-dulce"},{"code":"905","name":"Bomboane și ciocolată","slug":"905-bomboane-si-ciocolata"},{"code":"90502","name":"Batoane de ciocolată","slug":"90502-batoane-de-ciocolata"},{"code":"100058671","name":"Baton cu alune 40g","slug":"100058671-knoppers-baton-cu-alune-40g"}],"activePromotion":null,"saveMe":null,"labels":[],"geniusPrice":null,"geniusUnitPricePerLabel":null,"banner":null,"discountLabel":null,"geniusDiscountLabel":null,"badge":null},{"code":"100040360","variantCode":"5000159384209","name":"Ciocolată cu lapte și arahide proaspăt prăjite 4x50g","slug":"100040360-snickers-ciocolata-cu-lapte-si-arahide-proaspat-prajite-4x50g","unitPriceLabel":"39,95 Lei/kg","brand":"Snickers","brandCode":"105","brandFilterCode":"snickers-b89","sku":"100040360","price":7.99,"originalPrice":null,"currencyCode":"RON","currency":"Lei","image":{"thumbnail":{"default":"https://cdn.freshful.ro/media/cache/sylius_shop_product_thumbnail/dc/c5/51dde47e38347f95e7e1fd6bcfff.jpg"},"large":{"default":"https://cdn.freshful.ro/media/cache/freshful_large/dc/c5/51dde47e38347f95e7e1fd6bcfff.jpg"},"extralarge":{"default":"https://cdn.freshful.ro/media/cache/sylius_shop_product_original/dc/c5/51dde47e38347f95e7e1fd6bcfff.jpg"}},"label":null,"tags":[],"isAvailable":true,"maxAvailableQuantity":100,"maxAllowedQuantity":100,"breadcrumbs":[{"code":"9","name":"Dulciuri & mic dejun","slug":"9-ceva-dulce"},{"code":"905","name":"Bomboane și ciocolată","slug":"905-bomboane-si-ciocolata"},{"code":"90502","name":"Batoane de ciocolată","slug":"90502-batoane-de-ciocolata"},{"code":"100040360","name":"Ciocolată cu lapte și arahide proaspăt prăjite 4x50g","slug":"100040360-snickers-ciocolata-cu-lapte-si-arahide-proaspat-prajite-4x50g"}],"activePromotion":null,"saveMe":null,"labels":[],"geniusPrice":null,"geniusUnitPricePerLabel":null,"banner":null,"discountLabel":null,"geniusDiscountLabel":null,"badge":null},{"code":"100038410","variantCode":"100038410","name":"Batoane Bueno White 39g","slug":"100038410-kinder-batoane-bueno-white-39g","unitPriceLabel":"68,75 Lei/kg","brand":"Kinder","brandCode":"19","brandFilterCode":"kinder-b11","sku":"100038410","price":2.75,"originalPrice":null,"currencyCode":"RON","currency":"Lei","image":{"thumbnail":{"default":"https://cdn.freshful.ro/media/cache/sylius_shop_product_thumbnail/eb/86/79ab20f4f5b97a9bd0e58e223227.jpg"},"large":{"default":"https://cdn.freshful.ro/media/cache/freshful_large/eb/86/79ab20f4f5b97a9bd0e58e223227.jpg"},"extralarge":{"default":"https://cdn.freshful.ro/media/cache/sylius_shop_product_original/eb/86/79ab20f4f5b97a9bd0e58e223227.jpg"}},"label":null,"tags":[],"isAvailable":true,"maxAvailableQuantity":100,"maxAllowedQuantity":100,"breadcrumbs":[{"code":"9","name":"Dulciuri & mic dejun","slug":"9-ceva-dulce"},{"code":"905","name":"Bomboane și ciocolată","slug":"905-bomboane-si-ciocolata"},{"code":"90502","name":"Batoane de ciocolată","slug":"90502-batoane-de-ciocolata"},{"code":"100038410","name":"Batoane Bueno White 39g","slug":"100038410-kinder-batoane-bueno-white-39g"}],"activePromotion":null,"saveMe":null,"labels":[],"geniusPrice":null,"geniusUnitPricePerLabel":null,"banner":null,"discountLabel":null,"geniusDiscountLabel":null,"badge":null},{"code":"100143546","variantCode":"100143546","name":"Baton cu interior de cocos și glazură de ciocolată cu lapte 28g","slug":"100143546-dare-baton-cu-interior-de-cocos-si-glazura-de-ciocolata-cu-lapte-28g","unitPriceLabel":"63,57 Lei/kg","brand":"Dare","brandCode":"162","brandFilterCode":"dare-b163","sku":"100143546","price":1.78,"originalPrice":null,"currencyCode":"RON","currency":"Lei","image":{"thumbnail":{"default":"https://cdn.freshful.ro/media/cache/sylius_shop_product_thumbnail/ee/4b/222bde57feacb41e4a5d3ba85c57.jpg"},"large":{"default":"https://cdn.freshful.ro/media/cache/freshful_large/ee/4b/222bde57feacb41e4a5d3ba85c57.jpg"},"extralarge":{"default":"https://cdn.freshful.ro/media/cache/sylius_shop_product_original/ee/4b/222bde57feacb41e4a5d3ba85c57.jpg"}},"label":null,"tags":[],"isAvailable":true,"maxAvailableQuantity":100,"maxAllowedQuantity":100,"breadcrumbs":[{"code":"9","name":"Dulciuri & mic dejun","slug":"9-ceva-dulce"},{"code":"905","name":"Bomboane și ciocolată","slug":"905-bomboane-si-ciocolata"},{"code":"90502","name":"Batoane de ciocolată","slug":"90502-batoane-de-ciocolata"},{"code":"100143546","name":"Baton cu interior de cocos și glazură de ciocolată cu lapte 28g","slug":"100143546-dare-baton-cu-interior-de-cocos-si-glazura-de-ciocolata-cu-lapte-28g"}],"activePromotion":null,"saveMe":null,"labels":[],"geniusPrice":null,"geniusUnitPricePerLabel":null,"banner":null,"discountLabel":null,"geniusDiscountLabel":null,"badge":null},{"code":"100143011","variantCode":"100143011","name":"Baton Creamy ciocolată cu lapte cu umplutură de pastă de arahide și miez de caramel cu arahide prăjite 36.5g","slug":"100143011-snickers-baton-creamy-ciocolata-cu-lapte-cu-umplutura-de-pasta-de-arahide-si-miez-de-caramel-cu-arahide-prajite-36-5g","unitPriceLabel":"90,28 Lei/kg","brand":"Snickers","brandCode":"105","brandFilterCode":"snickers-b89","sku":"100143011","price":3.25,"originalPrice":null,"currencyCode":"RON","currency":"Lei","image":{"thumbnail":{"default":"https://cdn.freshful.ro/media/cache/sylius_shop_product_thumbnail/46/08/9945199dabd0a81127f7a6f45739.jpg"},"large":{"default":"https://cdn.freshful.ro/media/cache/freshful_large/46/08/9945199dabd0a81127f7a6f45739.jpg"},"extralarge":{"default":"https://cdn.freshful.ro/media/cache/sylius_shop_product_original/46/08/9945199dabd0a81127f7a6f45739.jpg"}},"label":null,"tags":[],"isAvailable":true,"maxAvailableQuantity":100,"maxAllowedQuantity":100,"breadcrumbs":[{"code":"9","name":"Dulciuri & mic dejun","slug":"9-ceva-dulce"},{"code":"905","name":"Bomboane și ciocolată","slug":"905-bomboane-si-ciocolata"},{"code":"90502","name":"Batoane de ciocolată","slug":"90502-batoane-de-ciocolata"},{"code":"100143011","name":"Baton Creamy ciocolată cu lapte cu umplutură de pastă de arahide și miez de caramel cu arahide prăjite 36.5g","slug":"100143011-snickers-baton-creamy-ciocolata-cu-lapte-cu-umplutura-de-pasta-de-arahide-si-miez-de-caramel-cu-arahide-prajite-36-5g"}],"activePromotion":null,"saveMe":null,"labels":[],"geniusPrice":null,"geniusUnitPricePerLabel":null,"banner":null,"discountLabel":null,"geniusDiscountLabel":null,"badge":null},{"code":"100038404","variantCode":"8000500227848","name":"Batoane cu cremă de ciocolată și alune B-Ready 132g, 6 buc","slug":"100038404-nutella-batoane-cu-crema-de-ciocolata-si-alune-b-ready-132g-6-buc","unitPriceLabel":"64,34 Lei/kg","brand":"Nutella","brandCode":"157","brandFilterCode":"nutella-b158","sku":"100038404","price":8.75,"originalPrice":null,"currencyCode":"RON","currency":"Lei","image":{"thumbnail":{"default":"https://cdn.freshful.ro/media/cache/sylius_shop_product_thumbnail/30/45/5c651066dcb874e9cf47aa7e88a6.jpg"},"large":{"default":"https://cdn.freshful.ro/media/cache/freshful_large/30/45/5c651066dcb874e9cf47aa7e88a6.jpg"},"extralarge":{"default":"https://cdn.freshful.ro/media/cache/sylius_shop_product_original/30/45/5c651066dcb874e9cf47aa7e88a6.jpg"}},"label":null,"tags":[],"isAvailable":true,"maxAvailableQuantity":100,"maxAllowedQuantity":100,"breadcrumbs":[{"code":"9","name":"Dulciuri & mic dejun","slug":"9-ceva-dulce"},{"code":"905","name":"Bomboane și ciocolată","slug":"905-bomboane-si-ciocolata"},{"code":"90502","name":"Batoane de ciocolată","slug":"90502-batoane-de-ciocolata"},{"code":"100038404","name":"Batoane cu cremă de ciocolată și alune B-Ready 132g, 6 buc","slug":"100038404-nutella-batoane-cu-crema-de-ciocolata-si-alune-b-ready-132g-6-buc"}],"activePromotion":null,"saveMe":null,"labels":[],"geniusPrice":null,"geniusUnitPricePerLabel":null,"banner":null,"discountLabel":null,"geniusDiscountLabel":null,"badge":null}],"filters":{"countSelected":0,"items":[{"code":"brand","name":"Brand","countSelected":0,"values":[{"code":"albeni-b961","name":"Albeni","isSelected":false,"count":3},{"code":"bounty-b91","name":"Bounty","isSelected":false,"count":3},{"code":"cadbury-b2684","name":"Cadbury","isSelected":false,"count":3},{"code":"cavalier-b1069","name":"Cavalier","isSelected":false,"count":7},{"code":"dare-b163","name":"Dare","isSelected":false,"count":8},{"code":"fagaras-b1545","name":"Făgăraș","isSelected":false,"count":2},{"code":"kinder-b11","name":"Kinder","isSelected":false,"count":5},{"code":"kit-kat-b3","name":"Kit Kat","isSelected":false,"count":5},{"code":"knoppers-b877","name":"Knoppers","isSelected":false,"count":1},{"code":"lion-b4","name":"Lion","isSelected":false,"count":5},{"code":"mars-b62","name":"Mars","isSelected":false,"count":2},{"code":"nutella-b158","name":"Nutella","isSelected":false,"count":1},{"code":"papi-b2491","name":"Papi","isSelected":false,"count":1},{"code":"paula-ana-b1622","name":"Paula Ana","isSelected":false,"count":2},{"code":"rom-b1544","name":"Rom","isSelected":false,"count":6},{"code":"snickers-b89","name":"Snickers","isSelected":false,"count":5},{"code":"trianon-b1070","name":"Trianon","isSelected":false,"count":3},{"code":"twix-b90","name":"Twix","isSelected":false,"count":3}]},{"code":"diet_lifestyle","name":"Dietă și lifestyle","countSelected":0,"values":[{"code":"fara-zahar-adaugat-a29","name":"Fara zahar adaugat","isSelected":false,"count":7}]}]},"orderBy":[{"field":"price","direction":"asc","name":"Preț crescător","isSelected":false},{"field":"price","direction":"desc","name":"Preț descrescător","isSelected":false},{"field":"popularity","direction":"desc","name":"Cele mai populare","isSelected":true},{"field":"category","direction":"asc","name":"Categorie","isSelected":false}],"metaTitle":"Batoane de ciocolată - Gamă variată","metaDescription":"Vrei Batoane de ciocolată? Alege dintr-o gamă variată. Comanzi simplu și ai livrare rapidă, calitate și prospețime. Hai pe Freshful.ro","metaKeywords":null,"banners":[]}}