{"type":"subcategory","payload":{"analyticsListId":"category_90505-praline-de-ciocolata","analyticsListName":"Category - Praline de ciocolată","name":"Praline de ciocolată","slug":"90505-praline-de-ciocolata","image":null,"breadcrumbs":[{"code":"9","name":"Dulciuri & mic dejun","slug":"9-ceva-dulce"},{"code":"905","name":"Bomboane și ciocolată","slug":"905-bomboane-si-ciocolata"},{"code":"90505","name":"Praline de ciocolată","slug":"90505-praline-de-ciocolata"}],"slots":[],"page":1,"limit":10,"pages":8,"count":72,"siblings":[{"name":"Biscuiți, napolitane și prăjituri","slug":"902-biscuiti-napolitane-si-prajituri","selected":false},{"name":"Cereale și mic dejun","slug":"903-cereale-si-mic-dejun","selected":false},{"name":"Cafea și ceai","slug":"904-cafea-si-ceai","selected":false},{"name":"Bomboane și ciocolată","slug":"905-bomboane-si-ciocolata","selected":true}],"children":[{"name":"Toate produsele","slug":"905-bomboane-si-ciocolata","selected":false},{"name":"Tablete de ciocolată","slug":"90501-tablete-de-ciocolata","selected":false},{"name":"Batoane de ciocolată","slug":"90502-batoane-de-ciocolata","selected":false},{"name":"Ciocolată pentru copii","slug":"90503-ciocolata-pentru-copii","selected":false},{"name":"Drajeuri de ciocolată","slug":"90504-drajeuri-din-ciocolata","selected":false},{"name":"Praline de ciocolată","slug":"90505-praline-de-ciocolata","selected":true},{"name":"Jeleuri și drajeuri","slug":"90506-jeleuri-si-drajeuri","selected":false},{"name":"Dulciuri de sezon","slug":"90507-dulciuri-de-sezon","selected":false}],"products":[{"code":"100038407","variantCode":"8000500023976","name":"Specialități crocante de nucă de cocos cu migdală întreagă în interior 150g","slug":"100038407-raffaello-specialitati-crocante-de-nuca-de-cocos-cu-migdala-intreaga-in-interior-150g","unitPriceLabel":"77,06 Lei/kg","brand":"Raffaello","brandCode":"158","brandFilterCode":"raffaello-b159","sku":"100038407","price":11.79,"originalPrice":null,"currencyCode":"RON","currency":"Lei","image":{"thumbnail":{"default":"https://cdn.freshful.ro/media/cache/sylius_shop_product_thumbnail/aa/d9/aacc821e15a8ffaab4e472e84525.jpg"},"large":{"default":"https://cdn.freshful.ro/media/cache/freshful_large/aa/d9/aacc821e15a8ffaab4e472e84525.jpg"},"extralarge":{"default":"https://cdn.freshful.ro/media/cache/sylius_shop_product_original/aa/d9/aacc821e15a8ffaab4e472e84525.jpg"}},"label":{"text":"Profită acum","backgroundColor":"#FF9903","textColor":"#FFFFFF"},"tags":[],"isAvailable":true,"maxAvailableQuantity":6,"maxAllowedQuantity":100,"breadcrumbs":[{"code":"9","name":"Dulciuri & mic dejun","slug":"9-ceva-dulce"},{"code":"905","name":"Bomboane și ciocolată","slug":"905-bomboane-si-ciocolata"},{"code":"90505","name":"Praline de ciocolată","slug":"90505-praline-de-ciocolata"},{"code":"100038407","name":"Specialități crocante de nucă de cocos cu migdală întreagă în interior 150g","slug":"100038407-raffaello-specialitati-crocante-de-nuca-de-cocos-cu-migdala-intreaga-in-interior-150g"}],"activePromotion":{"code":"special-bacanie-bauturi-mar23","name":"Preț avantajos","targetQuantity":null},"saveMe":null,"labels":[{"type":"v1","items":[{"text":"Profită acum","backgroundColor":"#FF9903","textColor":"#FFFFFF"}]}],"geniusPrice":null,"geniusUnitPricePerLabel":null,"banner":{"text":"Preț avantajos","textColor":"#F95510","bgColor":"#FEF1CD","icon":null,"link":"https://www.freshful.ro/oferte/special-bacanie-bauturi-mar23","type":"promo","analyticsEventType":"select_promotion","analyticsEventPayload":{"promotion_id":"special-bacanie-bauturi-mar23","promotion_name":"Prețuri speciale pentru Ziua Femeii"}},"discountLabel":null,"geniusDiscountLabel":null,"badge":null},{"code":"100070803","variantCode":"100070803","name":"Praline din ciocolată lapte cu cocos 120g","slug":"100070803-heidi-praline-din-ciocolata-lapte-cu-cocos-120g","unitPriceLabel":"108,25 Lei/kg","brand":"Heidi","brandCode":"726","brandFilterCode":"heidi-b727","sku":"100070803","price":12.99,"originalPrice":14.49,"currencyCode":"RON","currency":"Lei","image":{"thumbnail":{"default":"https://cdn.freshful.ro/media/cache/sylius_shop_product_thumbnail/7b/ea/0f14da5bb362482da1ae8ebf2121.jpg"},"large":{"default":"https://cdn.freshful.ro/media/cache/freshful_large/7b/ea/0f14da5bb362482da1ae8ebf2121.jpg"},"extralarge":{"default":"https://cdn.freshful.ro/media/cache/sylius_shop_product_original/7b/ea/0f14da5bb362482da1ae8ebf2121.jpg"}},"label":{"text":"-10%","backgroundColor":"#FF9903","textColor":"#FFFFFF"},"tags":[],"isAvailable":true,"maxAvailableQuantity":29,"maxAllowedQuantity":100,"breadcrumbs":[{"code":"9","name":"Dulciuri & mic dejun","slug":"9-ceva-dulce"},{"code":"905","name":"Bomboane și ciocolată","slug":"905-bomboane-si-ciocolata"},{"code":"90505","name":"Praline de ciocolată","slug":"90505-praline-de-ciocolata"},{"code":"100070803","name":"Praline din ciocolată lapte cu cocos 120g","slug":"100070803-heidi-praline-din-ciocolata-lapte-cu-cocos-120g"}],"activePromotion":{"code":"special-bacanie-bauturi-mar23","name":"Preț redus","targetQuantity":null},"saveMe":null,"labels":[{"type":"v1","items":[{"text":"-10%","backgroundColor":"#FF9903","textColor":"#FFFFFF"}]}],"geniusPrice":null,"geniusUnitPricePerLabel":null,"banner":{"text":"Super preț","textColor":"#FF0000","bgColor":"#FFF2EC","icon":null,"link":"https://www.freshful.ro/oferte/special-bacanie-bauturi-mar23","type":"promo","analyticsEventType":"select_promotion","analyticsEventPayload":{"promotion_id":"special-bacanie-bauturi-mar23","promotion_name":"Prețuri speciale pentru Ziua Femeii"}},"discountLabel":"Economisești 10%","geniusDiscountLabel":null,"badge":null},{"code":"100146109","variantCode":"100146109","name":"Praline Bijou Red Amore&Passion 150g","slug":"100146109-baci-praline-bijou-red-amore-passion-150g","unitPriceLabel":"29,99 Lei/buc","brand":"Baci","brandCode":"2292","brandFilterCode":"baci-b2296","sku":"100146109","price":29.99,"originalPrice":44.99,"currencyCode":"RON","currency":"Lei","image":{"thumbnail":{"default":"https://cdn.freshful.ro/media/cache/sylius_shop_product_thumbnail/43/58/6a4632440a85d23831b07e55b3ab.jpg"},"large":{"default":"https://cdn.freshful.ro/media/cache/freshful_large/43/58/6a4632440a85d23831b07e55b3ab.jpg"},"extralarge":{"default":"https://cdn.freshful.ro/media/cache/sylius_shop_product_original/43/58/6a4632440a85d23831b07e55b3ab.jpg"}},"label":{"text":"-33%","backgroundColor":"#FF9903","textColor":"#FFFFFF"},"tags":[],"isAvailable":true,"maxAvailableQuantity":49,"maxAllowedQuantity":100,"breadcrumbs":[{"code":"9","name":"Dulciuri & mic dejun","slug":"9-ceva-dulce"},{"code":"905","name":"Bomboane și ciocolată","slug":"905-bomboane-si-ciocolata"},{"code":"90505","name":"Praline de ciocolată","slug":"90505-praline-de-ciocolata"},{"code":"100146109","name":"Praline Bijou Red Amore&Passion 150g","slug":"100146109-baci-praline-bijou-red-amore-passion-150g"}],"activePromotion":{"code":"special-bacanie-bauturi-mar23","name":"Preț redus","targetQuantity":null},"saveMe":null,"labels":[{"type":"v1","items":[{"text":"-33%","backgroundColor":"#FF9903","textColor":"#FFFFFF"}]}],"geniusPrice":null,"geniusUnitPricePerLabel":null,"banner":{"text":"Super preț","textColor":"#FF0000","bgColor":"#FFF2EC","icon":null,"link":"https://www.freshful.ro/oferte/special-bacanie-bauturi-mar23","type":"promo","analyticsEventType":"select_promotion","analyticsEventPayload":{"promotion_id":"special-bacanie-bauturi-mar23","promotion_name":"Prețuri speciale pentru Ziua Femeii"}},"discountLabel":"Economisești 33%","geniusDiscountLabel":null,"badge":null},{"code":"100146110","variantCode":"100146110","name":"Praline Red Tube Amore&Passion 37.5g","slug":"100146110-baci-praline-red-tube-amore-passion-37-5g","unitPriceLabel":"9,99 Lei/buc","brand":"Baci","brandCode":"2292","brandFilterCode":"baci-b2296","sku":"100146110","price":9.99,"originalPrice":13.99,"currencyCode":"RON","currency":"Lei","image":{"thumbnail":{"default":"https://cdn.freshful.ro/media/cache/sylius_shop_product_thumbnail/94/75/011eda6b3165c33e1e740afbdc8d.jpg"},"large":{"default":"https://cdn.freshful.ro/media/cache/freshful_large/94/75/011eda6b3165c33e1e740afbdc8d.jpg"},"extralarge":{"default":"https://cdn.freshful.ro/media/cache/sylius_shop_product_original/94/75/011eda6b3165c33e1e740afbdc8d.jpg"}},"label":{"text":"-28%","backgroundColor":"#FF9903","textColor":"#FFFFFF"},"tags":[],"isAvailable":true,"maxAvailableQuantity":47,"maxAllowedQuantity":100,"breadcrumbs":[{"code":"9","name":"Dulciuri & mic dejun","slug":"9-ceva-dulce"},{"code":"905","name":"Bomboane și ciocolată","slug":"905-bomboane-si-ciocolata"},{"code":"90505","name":"Praline de ciocolată","slug":"90505-praline-de-ciocolata"},{"code":"100146110","name":"Praline Red Tube Amore&Passion 37.5g","slug":"100146110-baci-praline-red-tube-amore-passion-37-5g"}],"activePromotion":{"code":"special-bacanie-bauturi-mar23","name":"Preț redus","targetQuantity":null},"saveMe":null,"labels":[{"type":"v1","items":[{"text":"-28%","backgroundColor":"#FF9903","textColor":"#FFFFFF"}]}],"geniusPrice":null,"geniusUnitPricePerLabel":null,"banner":{"text":"Super preț","textColor":"#FF0000","bgColor":"#FFF2EC","icon":null,"link":"https://www.freshful.ro/oferte/special-bacanie-bauturi-mar23","type":"promo","analyticsEventType":"select_promotion","analyticsEventPayload":{"promotion_id":"special-bacanie-bauturi-mar23","promotion_name":"Prețuri speciale pentru Ziua Femeii"}},"discountLabel":"Economisești 28%","geniusDiscountLabel":null,"badge":null},{"code":"100070802","variantCode":"100070802","name":"Praline din ciocolată amăruie cu cafea 120g","slug":"100070802-heidi-praline-din-ciocolata-amaruie-cu-cafea-120g","unitPriceLabel":"108,25 Lei/kg","brand":"Heidi","brandCode":"726","brandFilterCode":"heidi-b727","sku":"100070802","price":12.99,"originalPrice":14.99,"currencyCode":"RON","currency":"Lei","image":{"thumbnail":{"default":"https://cdn.freshful.ro/media/cache/sylius_shop_product_thumbnail/f6/eb/650d721dc0617d409e8ce3b41c0f.jpg"},"large":{"default":"https://cdn.freshful.ro/media/cache/freshful_large/f6/eb/650d721dc0617d409e8ce3b41c0f.jpg"},"extralarge":{"default":"https://cdn.freshful.ro/media/cache/sylius_shop_product_original/f6/eb/650d721dc0617d409e8ce3b41c0f.jpg"}},"label":{"text":"-13%","backgroundColor":"#FF9903","textColor":"#FFFFFF"},"tags":[],"isAvailable":true,"maxAvailableQuantity":28,"maxAllowedQuantity":100,"breadcrumbs":[{"code":"9","name":"Dulciuri & mic dejun","slug":"9-ceva-dulce"},{"code":"905","name":"Bomboane și ciocolată","slug":"905-bomboane-si-ciocolata"},{"code":"90505","name":"Praline de ciocolată","slug":"90505-praline-de-ciocolata"},{"code":"100070802","name":"Praline din ciocolată amăruie cu cafea 120g","slug":"100070802-heidi-praline-din-ciocolata-amaruie-cu-cafea-120g"}],"activePromotion":{"code":"special-bacanie-bauturi-mar23","name":"Preț redus","targetQuantity":null},"saveMe":null,"labels":[{"type":"v1","items":[{"text":"-13%","backgroundColor":"#FF9903","textColor":"#FFFFFF"}]}],"geniusPrice":null,"geniusUnitPricePerLabel":null,"banner":{"text":"Super preț","textColor":"#FF0000","bgColor":"#FFF2EC","icon":null,"link":"https://www.freshful.ro/oferte/special-bacanie-bauturi-mar23","type":"promo","analyticsEventType":"select_promotion","analyticsEventPayload":{"promotion_id":"special-bacanie-bauturi-mar23","promotion_name":"Prețuri speciale pentru Ziua Femeii"}},"discountLabel":"Economisești 13%","geniusDiscountLabel":null,"badge":null},{"code":"100151202","variantCode":"100151202","name":"Praline de ciocolată asortate Signature Desserts 180g","slug":"100151202-heidi-praline-de-ciocolata-asortate-signature-desserts-180g","unitPriceLabel":"216,61 Lei/kg","brand":"Heidi","brandCode":"726","brandFilterCode":"heidi-b727","sku":"100151202","price":38.99,"originalPrice":45.99,"currencyCode":"RON","currency":"Lei","image":{"thumbnail":{"default":"https://cdn.freshful.ro/media/cache/sylius_shop_product_thumbnail/5a/6b/14f24fc412b896dbb9882998c3f8.jpg"},"large":{"default":"https://cdn.freshful.ro/media/cache/freshful_large/5a/6b/14f24fc412b896dbb9882998c3f8.jpg"},"extralarge":{"default":"https://cdn.freshful.ro/media/cache/sylius_shop_product_original/5a/6b/14f24fc412b896dbb9882998c3f8.jpg"}},"label":{"text":"-15%","backgroundColor":"#FF9903","textColor":"#FFFFFF"},"tags":[],"isAvailable":true,"maxAvailableQuantity":100,"maxAllowedQuantity":100,"breadcrumbs":[{"code":"9","name":"Dulciuri & mic dejun","slug":"9-ceva-dulce"},{"code":"905","name":"Bomboane și ciocolată","slug":"905-bomboane-si-ciocolata"},{"code":"90505","name":"Praline de ciocolată","slug":"90505-praline-de-ciocolata"},{"code":"100151202","name":"Praline de ciocolată asortate Signature Desserts 180g","slug":"100151202-heidi-praline-de-ciocolata-asortate-signature-desserts-180g"}],"activePromotion":{"code":"special-bacanie-bauturi-mar23","name":"Preț redus","targetQuantity":null},"saveMe":null,"labels":[{"type":"v1","items":[{"text":"-15%","backgroundColor":"#FF9903","textColor":"#FFFFFF"}]}],"geniusPrice":null,"geniusUnitPricePerLabel":null,"banner":{"text":"Super preț","textColor":"#FF0000","bgColor":"#FFF2EC","icon":null,"link":"https://www.freshful.ro/oferte/special-bacanie-bauturi-mar23","type":"promo","analyticsEventType":"select_promotion","analyticsEventPayload":{"promotion_id":"special-bacanie-bauturi-mar23","promotion_name":"Prețuri speciale pentru Ziua Femeii"}},"discountLabel":"Economisești 15%","geniusDiscountLabel":null,"badge":null},{"code":"100131199","variantCode":"100131199","name":"Praline ciocolată asortate Collection 275g","slug":"100131199-witors-praline-ciocolata-asortate-collection-275g","unitPriceLabel":"109,05 Lei/buc","brand":"Witors","brandCode":"2439","brandFilterCode":"witors-b2443","sku":"100131199","price":29.99,"originalPrice":39.99,"currencyCode":"RON","currency":"Lei","image":{"thumbnail":{"default":"https://cdn.freshful.ro/media/cache/sylius_shop_product_thumbnail/0c/49/8efe54de279911f81a93a17418e4.jpg"},"large":{"default":"https://cdn.freshful.ro/media/cache/freshful_large/0c/49/8efe54de279911f81a93a17418e4.jpg"},"extralarge":{"default":"https://cdn.freshful.ro/media/cache/sylius_shop_product_original/0c/49/8efe54de279911f81a93a17418e4.jpg"}},"label":{"text":"-25%","backgroundColor":"#FF9903","textColor":"#FFFFFF"},"tags":[],"isAvailable":true,"maxAvailableQuantity":8,"maxAllowedQuantity":100,"breadcrumbs":[{"code":"9","name":"Dulciuri & mic dejun","slug":"9-ceva-dulce"},{"code":"905","name":"Bomboane și ciocolată","slug":"905-bomboane-si-ciocolata"},{"code":"90505","name":"Praline de ciocolată","slug":"90505-praline-de-ciocolata"},{"code":"100131199","name":"Praline ciocolată asortate Collection 275g","slug":"100131199-witors-praline-ciocolata-asortate-collection-275g"}],"activePromotion":{"code":"special-bacanie-bauturi-mar23","name":"Preț redus","targetQuantity":null},"saveMe":null,"labels":[{"type":"v1","items":[{"text":"-25%","backgroundColor":"#FF9903","textColor":"#FFFFFF"}]}],"geniusPrice":null,"geniusUnitPricePerLabel":null,"banner":{"text":"Super preț","textColor":"#FF0000","bgColor":"#FFF2EC","icon":null,"link":"https://www.freshful.ro/oferte/special-bacanie-bauturi-mar23","type":"promo","analyticsEventType":"select_promotion","analyticsEventPayload":{"promotion_id":"special-bacanie-bauturi-mar23","promotion_name":"Prețuri speciale pentru Ziua Femeii"}},"discountLabel":"Economisești 25%","geniusDiscountLabel":null,"badge":null},{"code":"100125969","variantCode":"100125969","name":"Pralină de ciocolată cu lapte cu umplutură alune de pădure 175g","slug":"100125969-baci-pralina-de-ciocolata-cu-lapte-cu-umplutura-alune-de-padure-175g","unitPriceLabel":"137,09 Lei/kg","brand":"Baci","brandCode":"2292","brandFilterCode":"baci-b2296","sku":"100125969","price":23.99,"originalPrice":29.99,"currencyCode":"RON","currency":"Lei","image":{"thumbnail":{"default":"https://cdn.freshful.ro/media/cache/sylius_shop_product_thumbnail/e2/8b/bf4e0653d44d54e70f15bba4087b.jpg"},"large":{"default":"https://cdn.freshful.ro/media/cache/freshful_large/e2/8b/bf4e0653d44d54e70f15bba4087b.jpg"},"extralarge":{"default":"https://cdn.freshful.ro/media/cache/sylius_shop_product_original/e2/8b/bf4e0653d44d54e70f15bba4087b.jpg"}},"label":{"text":"-20%","backgroundColor":"#FF9903","textColor":"#FFFFFF"},"tags":[{"type":"NoGluten","text":"Fara gluten","icon":"https://cdn.freshful.ro/assets/product_tags/fara_gluten.svg","iconPng":"https://cdn.freshful.ro/assets/product_tags/fara_gluten.png","backgroundColor":"#FFF2E5","textColor":"#F07900"}],"isAvailable":true,"maxAvailableQuantity":64,"maxAllowedQuantity":100,"breadcrumbs":[{"code":"9","name":"Dulciuri & mic dejun","slug":"9-ceva-dulce"},{"code":"905","name":"Bomboane și ciocolată","slug":"905-bomboane-si-ciocolata"},{"code":"90505","name":"Praline de ciocolată","slug":"90505-praline-de-ciocolata"},{"code":"100125969","name":"Pralină de ciocolată cu lapte cu umplutură alune de pădure 175g","slug":"100125969-baci-pralina-de-ciocolata-cu-lapte-cu-umplutura-alune-de-padure-175g"}],"activePromotion":{"code":"special-bacanie-bauturi-mar23","name":"Preț redus","targetQuantity":null},"saveMe":null,"labels":[{"type":"v1","items":[{"text":"-20%","backgroundColor":"#FF9903","textColor":"#FFFFFF"}]}],"geniusPrice":null,"geniusUnitPricePerLabel":null,"banner":{"text":"Super preț","textColor":"#FF0000","bgColor":"#FFF2EC","icon":null,"link":"https://www.freshful.ro/oferte/special-bacanie-bauturi-mar23","type":"promo","analyticsEventType":"select_promotion","analyticsEventPayload":{"promotion_id":"special-bacanie-bauturi-mar23","promotion_name":"Prețuri speciale pentru Ziua Femeii"}},"discountLabel":"Economisești 20%","geniusDiscountLabel":null,"badge":null},{"code":"100129682","variantCode":"100129682","name":"Praline Cremino 165g","slug":"100129682-caffarel-praline-cremino-165g","unitPriceLabel":"151,45 Lei/kg","brand":"Caffarel","brandCode":"2409","brandFilterCode":"caffarel-b2413","sku":"100129682","price":24.99,"originalPrice":31.15,"currencyCode":"RON","currency":"Lei","image":{"thumbnail":{"default":"https://cdn.freshful.ro/media/cache/sylius_shop_product_thumbnail/89/be/5a50d52acababb09075500707df3.jpg"},"large":{"default":"https://cdn.freshful.ro/media/cache/freshful_large/89/be/5a50d52acababb09075500707df3.jpg"},"extralarge":{"default":"https://cdn.freshful.ro/media/cache/sylius_shop_product_original/89/be/5a50d52acababb09075500707df3.jpg"}},"label":{"text":"-19%","backgroundColor":"#FF9903","textColor":"#FFFFFF"},"tags":[],"isAvailable":true,"maxAvailableQuantity":8,"maxAllowedQuantity":100,"breadcrumbs":[{"code":"9","name":"Dulciuri & mic dejun","slug":"9-ceva-dulce"},{"code":"905","name":"Bomboane și ciocolată","slug":"905-bomboane-si-ciocolata"},{"code":"90505","name":"Praline de ciocolată","slug":"90505-praline-de-ciocolata"},{"code":"100129682","name":"Praline Cremino 165g","slug":"100129682-caffarel-praline-cremino-165g"}],"activePromotion":{"code":"special-bacanie-bauturi-mar23","name":"Preț redus","targetQuantity":null},"saveMe":null,"labels":[{"type":"v1","items":[{"text":"-19%","backgroundColor":"#FF9903","textColor":"#FFFFFF"}]}],"geniusPrice":null,"geniusUnitPricePerLabel":null,"banner":{"text":"Super preț","textColor":"#FF0000","bgColor":"#FFF2EC","icon":null,"link":"https://www.freshful.ro/oferte/special-bacanie-bauturi-mar23","type":"promo","analyticsEventType":"select_promotion","analyticsEventPayload":{"promotion_id":"special-bacanie-bauturi-mar23","promotion_name":"Prețuri speciale pentru Ziua Femeii"}},"discountLabel":"Economisești 19%","geniusDiscountLabel":null,"badge":null},{"code":"100151518","variantCode":"100151518","name":"Praline de ciocolată cu cremă de alune de pădure 225g","slug":"100151518-geisha-praline-de-ciocolata-cu-crema-de-alune-de-padure-225g","unitPriceLabel":"133.288,89 Lei/kg","brand":"Geisha","brandCode":"1778","brandFilterCode":"geisha-b1782","sku":"100151518","price":29.99,"originalPrice":55.99,"currencyCode":"RON","currency":"Lei","image":{"thumbnail":{"default":"https://cdn.freshful.ro/media/cache/sylius_shop_product_thumbnail/f1/8a/b58ec8d988e4df269d3617c2fd71.jpg"},"large":{"default":"https://cdn.freshful.ro/media/cache/freshful_large/f1/8a/b58ec8d988e4df269d3617c2fd71.jpg"},"extralarge":{"default":"https://cdn.freshful.ro/media/cache/sylius_shop_product_original/f1/8a/b58ec8d988e4df269d3617c2fd71.jpg"}},"label":{"text":"-46%","backgroundColor":"#FF9903","textColor":"#FFFFFF"},"tags":[],"isAvailable":true,"maxAvailableQuantity":30,"maxAllowedQuantity":100,"breadcrumbs":[{"code":"9","name":"Dulciuri & mic dejun","slug":"9-ceva-dulce"},{"code":"905","name":"Bomboane și ciocolată","slug":"905-bomboane-si-ciocolata"},{"code":"90505","name":"Praline de ciocolată","slug":"90505-praline-de-ciocolata"},{"code":"100151518","name":"Praline de ciocolată cu cremă de alune de pădure 225g","slug":"100151518-geisha-praline-de-ciocolata-cu-crema-de-alune-de-padure-225g"}],"activePromotion":{"code":"special-bacanie-bauturi-mar23","name":"Preț redus","targetQuantity":null},"saveMe":null,"labels":[{"type":"v1","items":[{"text":"-46%","backgroundColor":"#FF9903","textColor":"#FFFFFF"}]}],"geniusPrice":null,"geniusUnitPricePerLabel":null,"banner":{"text":"Super preț","textColor":"#FF0000","bgColor":"#FFF2EC","icon":null,"link":"https://www.freshful.ro/oferte/special-bacanie-bauturi-mar23","type":"promo","analyticsEventType":"select_promotion","analyticsEventPayload":{"promotion_id":"special-bacanie-bauturi-mar23","promotion_name":"Prețuri speciale pentru Ziua Femeii"}},"discountLabel":"Economisești 46%","geniusDiscountLabel":null,"badge":null}],"filters":{"countSelected":0,"items":[{"code":"promotion","name":"Promoții","countSelected":0,"values":[{"code":"special-bacanie-bauturi-mar23","name":"Prețuri speciale pentru Ziua Femeii","isSelected":false,"count":24}]},{"code":"brand","name":"Brand","countSelected":0,"values":[{"code":"anthon-berg-b1779","name":"Anthon Berg","isSelected":false,"count":5},{"code":"baci-b2296","name":"Baci","isSelected":false,"count":9},{"code":"bailey-s-b1786","name":"Bailey's","isSelected":false,"count":1},{"code":"belgian-b147","name":"Belgian","isSelected":false,"count":2},{"code":"bianca-b1067","name":"Bianca","isSelected":false,"count":1},{"code":"caffarel-b2413","name":"Caffarel","isSelected":false,"count":1},{"code":"chocmod-b2161","name":"Chocmod","isSelected":false,"count":2},{"code":"dr-ensa-b1100","name":"Dr.Ensa","isSelected":false,"count":1},{"code":"ferrero-collection-b2942","name":"Ferrero Collection","isSelected":false,"count":1},{"code":"ferrero-prestige-b2943","name":"Ferrero Prestige","isSelected":false,"count":1},{"code":"ferrero-rocher-b620","name":"Ferrero Rocher","isSelected":false,"count":2},{"code":"geisha-b1782","name":"Geisha","isSelected":false,"count":3},{"code":"halloren-b2160","name":"Halloren","isSelected":false,"count":6},{"code":"heidi-b727","name":"Heidi","isSelected":false,"count":12},{"code":"maitre-truffout-b2306","name":"Maitre Truffout","isSelected":false,"count":5},{"code":"mars-b62","name":"Mars","isSelected":false,"count":1},{"code":"mauxion-b145","name":"Mauxion","isSelected":false,"count":2},{"code":"milka-b470","name":"Milka","isSelected":false,"count":2},{"code":"mon-cheri-b2941","name":"Mon Cheri","isSelected":false,"count":2},{"code":"oliva-b102","name":"Oliva","isSelected":false,"count":1},{"code":"pocket-coffee-b2944","name":"Pocket Coffee","isSelected":false,"count":1},{"code":"raffaello-b159","name":"Raffaello","isSelected":false,"count":4},{"code":"socado-b154","name":"Socado","isSelected":false,"count":4},{"code":"wawel-b2529","name":"Wawel","isSelected":false,"count":2},{"code":"witors-b2443","name":"Witors","isSelected":false,"count":1}]},{"code":"diet_lifestyle","name":"Dietă și lifestyle","countSelected":0,"values":[{"code":"fara-gluten-a16","name":"Fara gluten","isSelected":false,"count":6}]}]},"orderBy":[{"field":"price","direction":"asc","name":"Preț crescător","isSelected":false},{"field":"price","direction":"desc","name":"Preț descrescător","isSelected":false},{"field":"popularity","direction":"desc","name":"Cele mai populare","isSelected":true},{"field":"category","direction":"asc","name":"Categorie","isSelected":false}],"metaTitle":"Praline de ciocolată - Gamă variată","metaDescription":"Vrei Praline de ciocolată? Alege dintr-o gamă variată. Comanzi simplu și ai livrare rapidă, calitate și prospețime. Hai pe Freshful.ro","metaKeywords":null,"banners":[]}}