{"type":"subcategory","payload":{"analyticsListId":"category_90506-jeleuri-si-drajeuri","analyticsListName":"Category - Jeleuri și drajeuri","name":"Jeleuri și drajeuri","slug":"90506-jeleuri-si-drajeuri","image":null,"breadcrumbs":[{"code":"9","name":"Dulciuri & mic dejun","slug":"9-ceva-dulce"},{"code":"905","name":"Bomboane și ciocolată","slug":"905-bomboane-si-ciocolata"},{"code":"90506","name":"Jeleuri și drajeuri","slug":"90506-jeleuri-si-drajeuri"}],"slots":[],"page":1,"limit":10,"pages":16,"count":157,"siblings":[{"name":"Biscuiți, napolitane și prăjituri","slug":"902-biscuiti-napolitane-si-prajituri","selected":false},{"name":"Cereale și mic dejun","slug":"903-cereale-si-mic-dejun","selected":false},{"name":"Cafea și ceai","slug":"904-cafea-si-ceai","selected":false},{"name":"Bomboane și ciocolată","slug":"905-bomboane-si-ciocolata","selected":true}],"children":[{"name":"Toate produsele","slug":"905-bomboane-si-ciocolata","selected":false},{"name":"Tablete de ciocolată","slug":"90501-tablete-de-ciocolata","selected":false},{"name":"Batoane de ciocolată","slug":"90502-batoane-de-ciocolata","selected":false},{"name":"Ciocolată pentru copii","slug":"90503-ciocolata-pentru-copii","selected":false},{"name":"Drajeuri de ciocolată","slug":"90504-drajeuri-din-ciocolata","selected":false},{"name":"Praline de ciocolată","slug":"90505-praline-de-ciocolata","selected":false},{"name":"Jeleuri și drajeuri","slug":"90506-jeleuri-si-drajeuri","selected":true},{"name":"Dulciuri de sezon","slug":"90507-dulciuri-de-sezon","selected":false}],"products":[{"code":"100145995","variantCode":"100145995","name":"Gumă de mestecat fără zahăr cu îndulcitori și aromă de pepene roșu 16.5g","slug":"100145995-5-guma-de-mestecat-fara-zahar-cu-indulcitori-si-aroma-de-pepene-rosu-16-5g","unitPriceLabel":"273,33 Lei/kg","brand":"5","brandCode":"245","brandFilterCode":"5-b246","sku":"100145995","price":4.51,"originalPrice":null,"currencyCode":"RON","currency":"Lei","image":{"thumbnail":{"default":"https://cdn.freshful.ro/media/cache/sylius_shop_product_thumbnail/49/37/2aa72a18d54201cc8c4a2063379f.jpg"},"large":{"default":"https://cdn.freshful.ro/media/cache/freshful_large/49/37/2aa72a18d54201cc8c4a2063379f.jpg"},"extralarge":{"default":"https://cdn.freshful.ro/media/cache/sylius_shop_product_original/49/37/2aa72a18d54201cc8c4a2063379f.jpg"}},"label":null,"tags":[{"type":"NoAddedSugar","text":"Fara zahar adaugat","icon":"https://cdn.freshful.ro/assets/product_tags/fara_zahar_adaugat.svg","iconPng":"https://cdn.freshful.ro/assets/product_tags/fara_zahar_adaugat.png","backgroundColor":"#F8EDF7","textColor":"#C05EBC"}],"isAvailable":true,"maxAvailableQuantity":41,"maxAllowedQuantity":100,"breadcrumbs":[{"code":"9","name":"Dulciuri & mic dejun","slug":"9-ceva-dulce"},{"code":"905","name":"Bomboane și ciocolată","slug":"905-bomboane-si-ciocolata"},{"code":"90506","name":"Jeleuri și drajeuri","slug":"90506-jeleuri-si-drajeuri"},{"code":"100145995","name":"Gumă de mestecat fără zahăr cu îndulcitori și aromă de pepene roșu 16.5g","slug":"100145995-5-guma-de-mestecat-fara-zahar-cu-indulcitori-si-aroma-de-pepene-rosu-16-5g"}],"activePromotion":null,"saveMe":null,"labels":[],"geniusPrice":null,"geniusUnitPricePerLabel":null,"banner":null,"discountLabel":null,"geniusDiscountLabel":null,"badge":null},{"code":"100145162","variantCode":"100145162","name":"Gumă de mestecat cu aromă de căpșuni 35g","slug":"100145162-hubba-bubba-guma-de-mestecat-cu-aroma-de-capsuni-35g","unitPriceLabel":"99,71 Lei/kg","brand":"Hubba Bubba","brandCode":"248","brandFilterCode":"hubba-bubba-b249","sku":"100145162","price":3.49,"originalPrice":null,"currencyCode":"RON","currency":"Lei","image":{"thumbnail":{"default":"https://cdn.freshful.ro/media/cache/sylius_shop_product_thumbnail/62/1a/ec135f1b22e4b02c6643f6fbed06.jpg"},"large":{"default":"https://cdn.freshful.ro/media/cache/freshful_large/62/1a/ec135f1b22e4b02c6643f6fbed06.jpg"},"extralarge":{"default":"https://cdn.freshful.ro/media/cache/sylius_shop_product_original/62/1a/ec135f1b22e4b02c6643f6fbed06.jpg"}},"label":null,"tags":[],"isAvailable":true,"maxAvailableQuantity":100,"maxAllowedQuantity":100,"breadcrumbs":[{"code":"9","name":"Dulciuri & mic dejun","slug":"9-ceva-dulce"},{"code":"905","name":"Bomboane și ciocolată","slug":"905-bomboane-si-ciocolata"},{"code":"90506","name":"Jeleuri și drajeuri","slug":"90506-jeleuri-si-drajeuri"},{"code":"100145162","name":"Gumă de mestecat cu aromă de căpșuni 35g","slug":"100145162-hubba-bubba-guma-de-mestecat-cu-aroma-de-capsuni-35g"}],"activePromotion":null,"saveMe":null,"labels":[],"geniusPrice":null,"geniusUnitPricePerLabel":null,"banner":null,"discountLabel":null,"geniusDiscountLabel":null,"badge":null},{"code":"100125937","variantCode":"100125937","name":"Bomboane gumate din spumă de zahăr cu aromă de fructe 100g","slug":"100125937-haribo-bomboane-gumate-din-spuma-de-zahar-cu-aroma-de-fructe-100g","unitPriceLabel":"53,5 Lei/kg","brand":"Haribo","brandCode":"2283","brandFilterCode":"haribo-b2294","sku":"100125937","price":5.35,"originalPrice":null,"currencyCode":"RON","currency":"Lei","image":{"thumbnail":{"default":"https://cdn.freshful.ro/media/cache/sylius_shop_product_thumbnail/c6/4d/ae42b95481f17e2a688942806185.jpg"},"large":{"default":"https://cdn.freshful.ro/media/cache/freshful_large/c6/4d/ae42b95481f17e2a688942806185.jpg"},"extralarge":{"default":"https://cdn.freshful.ro/media/cache/sylius_shop_product_original/c6/4d/ae42b95481f17e2a688942806185.jpg"}},"label":null,"tags":[],"isAvailable":true,"maxAvailableQuantity":100,"maxAllowedQuantity":100,"breadcrumbs":[{"code":"9","name":"Dulciuri & mic dejun","slug":"9-ceva-dulce"},{"code":"905","name":"Bomboane și ciocolată","slug":"905-bomboane-si-ciocolata"},{"code":"90506","name":"Jeleuri și drajeuri","slug":"90506-jeleuri-si-drajeuri"},{"code":"100125937","name":"Bomboane gumate din spumă de zahăr cu aromă de fructe 100g","slug":"100125937-haribo-bomboane-gumate-din-spuma-de-zahar-cu-aroma-de-fructe-100g"}],"activePromotion":null,"saveMe":null,"labels":[],"geniusPrice":null,"geniusUnitPricePerLabel":null,"banner":null,"discountLabel":null,"geniusDiscountLabel":null,"badge":null},{"code":"100040403","variantCode":"4009900535519","name":"Gumă de mestecat fără zahăr cu aromă de mentă și mentol 15.6g","slug":"100040403-orbit-guma-de-mestecat-fara-zahar-cu-aroma-de-menta-si-mentol-15-6g","unitPriceLabel":"174,38 Lei/kg","brand":"Orbit","brandCode":"247","brandFilterCode":"orbit-b248","sku":"100040403","price":2.79,"originalPrice":null,"currencyCode":"RON","currency":"Lei","image":{"thumbnail":{"default":"https://cdn.freshful.ro/media/cache/sylius_shop_product_thumbnail/8a/7a/1e02a6eddcf127cace98d2c21ca1.jpg"},"large":{"default":"https://cdn.freshful.ro/media/cache/freshful_large/8a/7a/1e02a6eddcf127cace98d2c21ca1.jpg"},"extralarge":{"default":"https://cdn.freshful.ro/media/cache/sylius_shop_product_original/8a/7a/1e02a6eddcf127cace98d2c21ca1.jpg"}},"label":null,"tags":[{"type":"NoAddedSugar","text":"Fara zahar adaugat","icon":"https://cdn.freshful.ro/assets/product_tags/fara_zahar_adaugat.svg","iconPng":"https://cdn.freshful.ro/assets/product_tags/fara_zahar_adaugat.png","backgroundColor":"#F8EDF7","textColor":"#C05EBC"}],"isAvailable":true,"maxAvailableQuantity":100,"maxAllowedQuantity":100,"breadcrumbs":[{"code":"9","name":"Dulciuri & mic dejun","slug":"9-ceva-dulce"},{"code":"905","name":"Bomboane și ciocolată","slug":"905-bomboane-si-ciocolata"},{"code":"90506","name":"Jeleuri și drajeuri","slug":"90506-jeleuri-si-drajeuri"},{"code":"100040403","name":"Gumă de mestecat fără zahăr cu aromă de mentă și mentol 15.6g","slug":"100040403-orbit-guma-de-mestecat-fara-zahar-cu-aroma-de-menta-si-mentol-15-6g"}],"activePromotion":null,"saveMe":null,"labels":[],"geniusPrice":null,"geniusUnitPricePerLabel":null,"banner":null,"discountLabel":null,"geniusDiscountLabel":null,"badge":null},{"code":"100058667","variantCode":"100058667","name":"Caramele cu smântână dulce 50g","slug":"100058667-werther-s-caramele-cu-smantana-dulce-50g","unitPriceLabel":"67 Lei/kg","brand":"Werther's","brandCode":"875","brandFilterCode":"werther-s-b876","sku":"100058667","price":3.35,"originalPrice":null,"currencyCode":"RON","currency":"Lei","image":{"thumbnail":{"default":"https://cdn.freshful.ro/media/cache/sylius_shop_product_thumbnail/f7/78/6cf622244e43f5ba0ac6ae116810.jpg"},"large":{"default":"https://cdn.freshful.ro/media/cache/freshful_large/f7/78/6cf622244e43f5ba0ac6ae116810.jpg"},"extralarge":{"default":"https://cdn.freshful.ro/media/cache/sylius_shop_product_original/f7/78/6cf622244e43f5ba0ac6ae116810.jpg"}},"label":null,"tags":[],"isAvailable":true,"maxAvailableQuantity":100,"maxAllowedQuantity":100,"breadcrumbs":[{"code":"9","name":"Dulciuri & mic dejun","slug":"9-ceva-dulce"},{"code":"905","name":"Bomboane și ciocolată","slug":"905-bomboane-si-ciocolata"},{"code":"90506","name":"Jeleuri și drajeuri","slug":"90506-jeleuri-si-drajeuri"},{"code":"100058667","name":"Caramele cu smântână dulce 50g","slug":"100058667-werther-s-caramele-cu-smantana-dulce-50g"}],"activePromotion":null,"saveMe":null,"labels":[],"geniusPrice":null,"geniusUnitPricePerLabel":null,"banner":null,"discountLabel":null,"geniusDiscountLabel":null,"badge":null},{"code":"100133118","variantCode":"100133118","name":"Drajeuri cu gust de portocală 18g","slug":"100133118-tic-tac-drajeuri-cu-gust-de-portocala-18g","unitPriceLabel":"136,11 Lei/kg","brand":"Tic Tac","brandCode":"2509","brandFilterCode":"tic-tac-b2513","sku":"100133118","price":2.45,"originalPrice":null,"currencyCode":"RON","currency":"Lei","image":{"thumbnail":{"default":"https://cdn.freshful.ro/media/cache/sylius_shop_product_thumbnail/61/4f/b402729c3cf998d573897f30a03b.jpg"},"large":{"default":"https://cdn.freshful.ro/media/cache/freshful_large/61/4f/b402729c3cf998d573897f30a03b.jpg"},"extralarge":{"default":"https://cdn.freshful.ro/media/cache/sylius_shop_product_original/61/4f/b402729c3cf998d573897f30a03b.jpg"}},"label":null,"tags":[],"isAvailable":true,"maxAvailableQuantity":100,"maxAllowedQuantity":100,"breadcrumbs":[{"code":"9","name":"Dulciuri & mic dejun","slug":"9-ceva-dulce"},{"code":"905","name":"Bomboane și ciocolată","slug":"905-bomboane-si-ciocolata"},{"code":"90506","name":"Jeleuri și drajeuri","slug":"90506-jeleuri-si-drajeuri"},{"code":"100133118","name":"Drajeuri cu gust de portocală 18g","slug":"100133118-tic-tac-drajeuri-cu-gust-de-portocala-18g"}],"activePromotion":null,"saveMe":null,"labels":[],"geniusPrice":null,"geniusUnitPricePerLabel":null,"banner":null,"discountLabel":null,"geniusDiscountLabel":null,"badge":null},{"code":"100133187","variantCode":"100133187","name":"Gumă de mestecat fără zahăr cu îndulcitori și aromă de mentă 58g","slug":"100133187-orbit-guma-de-mestecat-fara-zahar-cu-indulcitori-si-aroma-de-menta-58g","unitPriceLabel":"120,52 Lei/kg","brand":"Orbit","brandCode":"247","brandFilterCode":"orbit-b248","sku":"100133187","price":6.99,"originalPrice":null,"currencyCode":"RON","currency":"Lei","image":{"thumbnail":{"default":"https://cdn.freshful.ro/media/cache/sylius_shop_product_thumbnail/0c/cd/53d78af5b19328bf4cbca180e66f.jpg"},"large":{"default":"https://cdn.freshful.ro/media/cache/freshful_large/0c/cd/53d78af5b19328bf4cbca180e66f.jpg"},"extralarge":{"default":"https://cdn.freshful.ro/media/cache/sylius_shop_product_original/0c/cd/53d78af5b19328bf4cbca180e66f.jpg"}},"label":null,"tags":[{"type":"NoAddedSugar","text":"Fara zahar adaugat","icon":"https://cdn.freshful.ro/assets/product_tags/fara_zahar_adaugat.svg","iconPng":"https://cdn.freshful.ro/assets/product_tags/fara_zahar_adaugat.png","backgroundColor":"#F8EDF7","textColor":"#C05EBC"}],"isAvailable":true,"maxAvailableQuantity":1,"maxAllowedQuantity":100,"breadcrumbs":[{"code":"9","name":"Dulciuri & mic dejun","slug":"9-ceva-dulce"},{"code":"905","name":"Bomboane și ciocolată","slug":"905-bomboane-si-ciocolata"},{"code":"90506","name":"Jeleuri și drajeuri","slug":"90506-jeleuri-si-drajeuri"},{"code":"100133187","name":"Gumă de mestecat fără zahăr cu îndulcitori și aromă de mentă 58g","slug":"100133187-orbit-guma-de-mestecat-fara-zahar-cu-indulcitori-si-aroma-de-menta-58g"}],"activePromotion":null,"saveMe":null,"labels":[],"geniusPrice":null,"geniusUnitPricePerLabel":null,"banner":null,"discountLabel":null,"geniusDiscountLabel":null,"badge":null},{"code":"100145161","variantCode":"100145161","name":"Gumă de mestecat Refreshers Tropical fără zahăr, 30 buc, 75g","slug":"100145161-orbit-guma-de-mestecat-refreshers-tropical-fara-zahar-30-buc-75g","unitPriceLabel":"208,81 Lei/kg","brand":"Orbit","brandCode":"247","brandFilterCode":"orbit-b248","sku":"100145161","price":13.99,"originalPrice":null,"currencyCode":"RON","currency":"Lei","image":{"thumbnail":{"default":"https://cdn.freshful.ro/media/cache/sylius_shop_product_thumbnail/78/e3/928a8eccac45176c5479f6c9ff6a.jpg"},"large":{"default":"https://cdn.freshful.ro/media/cache/freshful_large/78/e3/928a8eccac45176c5479f6c9ff6a.jpg"},"extralarge":{"default":"https://cdn.freshful.ro/media/cache/sylius_shop_product_original/78/e3/928a8eccac45176c5479f6c9ff6a.jpg"}},"label":null,"tags":[{"type":"NoAddedSugar","text":"Fara zahar adaugat","icon":"https://cdn.freshful.ro/assets/product_tags/fara_zahar_adaugat.svg","iconPng":"https://cdn.freshful.ro/assets/product_tags/fara_zahar_adaugat.png","backgroundColor":"#F8EDF7","textColor":"#C05EBC"}],"isAvailable":true,"maxAvailableQuantity":36,"maxAllowedQuantity":100,"breadcrumbs":[{"code":"9","name":"Dulciuri & mic dejun","slug":"9-ceva-dulce"},{"code":"905","name":"Bomboane și ciocolată","slug":"905-bomboane-si-ciocolata"},{"code":"90506","name":"Jeleuri și drajeuri","slug":"90506-jeleuri-si-drajeuri"},{"code":"100145161","name":"Gumă de mestecat Refreshers Tropical fără zahăr, 30 buc, 75g","slug":"100145161-orbit-guma-de-mestecat-refreshers-tropical-fara-zahar-30-buc-75g"}],"activePromotion":null,"saveMe":null,"labels":[],"geniusPrice":null,"geniusUnitPricePerLabel":null,"banner":null,"discountLabel":null,"geniusDiscountLabel":null,"badge":null},{"code":"100140208","variantCode":"100140208","name":"Jeleu natural din mere și zmeură fără zahăr 14g","slug":"100140208-bob-snail-jeleu-natural-din-mere-si-zmeura-fara-zahar-14g","unitPriceLabel":"213,57 Lei/kg","brand":"Bob Snail","brandCode":"87","brandFilterCode":"bob-snail-b132","sku":"100140208","price":2.99,"originalPrice":null,"currencyCode":"RON","currency":"Lei","image":{"thumbnail":{"default":"https://cdn.freshful.ro/media/cache/sylius_shop_product_thumbnail/9d/ae/5fdf357a933334b6f73b962542c7.jpg"},"large":{"default":"https://cdn.freshful.ro/media/cache/freshful_large/9d/ae/5fdf357a933334b6f73b962542c7.jpg"},"extralarge":{"default":"https://cdn.freshful.ro/media/cache/sylius_shop_product_original/9d/ae/5fdf357a933334b6f73b962542c7.jpg"}},"label":null,"tags":[{"type":"NoAddedSugar","text":"Fara zahar adaugat","icon":"https://cdn.freshful.ro/assets/product_tags/fara_zahar_adaugat.svg","iconPng":"https://cdn.freshful.ro/assets/product_tags/fara_zahar_adaugat.png","backgroundColor":"#F8EDF7","textColor":"#C05EBC"},{"type":"NoGluten","text":"Fara gluten","icon":"https://cdn.freshful.ro/assets/product_tags/fara_gluten.svg","iconPng":"https://cdn.freshful.ro/assets/product_tags/fara_gluten.png","backgroundColor":"#FFF2E5","textColor":"#F07900"},{"type":"NoPreservatives","text":"Fara conservanti","icon":"https://cdn.freshful.ro/assets/product_tags/fara_conservanti.svg","iconPng":"https://cdn.freshful.ro/assets/product_tags/fara_conservanti.png","backgroundColor":"#F0F2FF","textColor":"#7889DD"}],"isAvailable":true,"maxAvailableQuantity":43,"maxAllowedQuantity":100,"breadcrumbs":[{"code":"9","name":"Dulciuri & mic dejun","slug":"9-ceva-dulce"},{"code":"905","name":"Bomboane și ciocolată","slug":"905-bomboane-si-ciocolata"},{"code":"90506","name":"Jeleuri și drajeuri","slug":"90506-jeleuri-si-drajeuri"},{"code":"100140208","name":"Jeleu natural din mere și zmeură fără zahăr 14g","slug":"100140208-bob-snail-jeleu-natural-din-mere-si-zmeura-fara-zahar-14g"}],"activePromotion":null,"saveMe":null,"labels":[],"geniusPrice":null,"geniusUnitPricePerLabel":null,"banner":null,"discountLabel":null,"geniusDiscountLabel":null,"badge":null},{"code":"100125928","variantCode":"100125928","name":"Bomboane gumate cu aromă de fructe Goldbears 200g","slug":"100125928-haribo-bomboane-gumate-cu-aroma-de-fructe-goldbears-200g","unitPriceLabel":"46,25 Lei/kg","brand":"Haribo","brandCode":"2283","brandFilterCode":"haribo-b2294","sku":"100125928","price":9.25,"originalPrice":null,"currencyCode":"RON","currency":"Lei","image":{"thumbnail":{"default":"https://cdn.freshful.ro/media/cache/sylius_shop_product_thumbnail/e5/5f/36b5fe43431866f93ae138e7c9ba.jpg"},"large":{"default":"https://cdn.freshful.ro/media/cache/freshful_large/e5/5f/36b5fe43431866f93ae138e7c9ba.jpg"},"extralarge":{"default":"https://cdn.freshful.ro/media/cache/sylius_shop_product_original/e5/5f/36b5fe43431866f93ae138e7c9ba.jpg"}},"label":null,"tags":[],"isAvailable":true,"maxAvailableQuantity":74,"maxAllowedQuantity":100,"breadcrumbs":[{"code":"9","name":"Dulciuri & mic dejun","slug":"9-ceva-dulce"},{"code":"905","name":"Bomboane și ciocolată","slug":"905-bomboane-si-ciocolata"},{"code":"90506","name":"Jeleuri și drajeuri","slug":"90506-jeleuri-si-drajeuri"},{"code":"100125928","name":"Bomboane gumate cu aromă de fructe Goldbears 200g","slug":"100125928-haribo-bomboane-gumate-cu-aroma-de-fructe-goldbears-200g"}],"activePromotion":null,"saveMe":null,"labels":[],"geniusPrice":null,"geniusUnitPricePerLabel":null,"banner":null,"discountLabel":null,"geniusDiscountLabel":null,"badge":null}],"filters":{"countSelected":0,"items":[{"code":"brand","name":"Brand","countSelected":0,"values":[{"code":"5-b246","name":"5","isSelected":false,"count":4},{"code":"airwaves-b247","name":"Airwaves","isSelected":false,"count":2},{"code":"bob-snail-b132","name":"Bob Snail","isSelected":false,"count":9},{"code":"bon-sweet-bon-b834","name":"Bon Sweet Bon","isSelected":false,"count":13},{"code":"bunte-welt-b875","name":"Bunte Welt","isSelected":false,"count":2},{"code":"cavendish-harvey-b1803","name":"Cavendish & Harvey","isSelected":false,"count":3},{"code":"charms-b2662","name":"Charms","isSelected":false,"count":1},{"code":"chupa-chups-b1801","name":"Chupa Chups","isSelected":false,"count":4},{"code":"damel-b2932","name":"Damel","isSelected":false,"count":11},{"code":"daruri-din-moldova-b3064","name":"Daruri Din Moldova","isSelected":false,"count":4},{"code":"debron-b1824","name":"Debron","isSelected":false,"count":1},{"code":"dumle-b1780","name":"Dumle","isSelected":false,"count":1},{"code":"feleacul-b142","name":"Feleacul","isSelected":false,"count":2},{"code":"haribo-b2294","name":"Haribo","isSelected":false,"count":21},{"code":"hubba-bubba-b249","name":"Hubba Bubba","isSelected":false,"count":2},{"code":"ibons-b1828","name":"Ibons","isSelected":false,"count":2},{"code":"kellogg-s-b2666","name":"Kellogg’S","isSelected":false,"count":1},{"code":"kindly-s-b1825","name":"Kindly's","isSelected":false,"count":1},{"code":"laffy-taffy-b2668","name":"Laffy Taffy","isSelected":false,"count":1},{"code":"mamba-b873","name":"Mamba","isSelected":false,"count":1},{"code":"mentos-b1802","name":"Mentos","isSelected":false,"count":3},{"code":"minos-b505","name":"Minos","isSelected":false,"count":1},{"code":"nerds-b2664","name":"Nerds","isSelected":false,"count":1},{"code":"nimm2-b874","name":"Nimm2","isSelected":false,"count":3},{"code":"olympic-b1172","name":"Olympic","isSelected":false,"count":6},{"code":"orbit-b248","name":"Orbit","isSelected":false,"count":10},{"code":"paula-ana-b1622","name":"Paula Ana","isSelected":false,"count":2},{"code":"pedro-b1540","name":"Pedro","isSelected":false,"count":8},{"code":"ricola-b1785","name":"Ricola","isSelected":false,"count":1},{"code":"sebahat-b986","name":"Sebahat","isSelected":false,"count":3},{"code":"skittles-b250","name":"Skittles","isSelected":false,"count":3},{"code":"sugus-b1547","name":"Sugus","isSelected":false,"count":7},{"code":"tic-tac-b2513","name":"Tic Tac","isSelected":false,"count":6},{"code":"wawel-b2529","name":"Wawel","isSelected":false,"count":2},{"code":"werther-s-b876","name":"Werther's","isSelected":false,"count":4},{"code":"woogie-b2305","name":"Woogie","isSelected":false,"count":11}]},{"code":"diet_lifestyle","name":"Dietă și lifestyle","countSelected":0,"values":[{"code":"fara-conservanti-a37","name":"Fara conservanti","isSelected":false,"count":9},{"code":"fara-gluten-a16","name":"Fara gluten","isSelected":false,"count":14},{"code":"fara-lactoza-a38","name":"Fara lactoza","isSelected":false,"count":1},{"code":"fara-sare-a52","name":"Fara sare","isSelected":false,"count":1},{"code":"fara-zahar-adaugat-a29","name":"Fara zahar adaugat","isSelected":false,"count":29},{"code":"vegan-a24","name":"Vegan","isSelected":false,"count":4},{"code":"vegetarian-a28","name":"Vegetarian","isSelected":false,"count":1}]}]},"orderBy":[{"field":"price","direction":"asc","name":"Preț crescător","isSelected":false},{"field":"price","direction":"desc","name":"Preț descrescător","isSelected":false},{"field":"popularity","direction":"desc","name":"Cele mai populare","isSelected":true},{"field":"category","direction":"asc","name":"Categorie","isSelected":false}],"metaTitle":"Jeleuri și drajeuri - Gamă variată","metaDescription":"Vrei Jeleuri și drajeuri? Alege dintr-o gamă variată. Comanzi simplu și ai livrare rapidă, calitate și prospețime. Hai pe Freshful.ro","metaKeywords":null,"banners":[]}}