{"type":"subcategory","payload":{"analyticsListId":"category_accesorii-pentru-rufe","analyticsListName":"Category - Accesorii pentru rufe","name":"Accesorii pentru rufe","slug":"accesorii-pentru-rufe","image":null,"breadcrumbs":[{"code":"13","name":"Detergenți & igienizare","slug":"13-detergent-si-igienizare"},{"code":"1301","name":"Spălare și întreținere rufe","slug":"1301-spalare-si-intretinere-rufe"},{"code":"130107","name":"Accesorii pentru rufe","slug":"accesorii-pentru-rufe"}],"slots":[],"page":1,"limit":10,"pages":2,"count":11,"siblings":[{"name":"Spălare și întreținere rufe","slug":"1301-spalare-si-intretinere-rufe","selected":true},{"name":"Curățenie și întreținerea casei","slug":"1302-igienizarea-casei","selected":false},{"name":"Hârtie igienică, șervețele și prosoape","slug":"1303-hartie-igienica-si-servetele","selected":false}],"children":[{"name":"Toate produsele","slug":"1301-spalare-si-intretinere-rufe","selected":false},{"name":"Balsam de rufe","slug":"130101-balsam-rufe","selected":false},{"name":"Înălbitor și soluții pentru pete","slug":"130102-inalbitor-si-soluti-pete","selected":false},{"name":"Anticalcar","slug":"130103-anticalcar","selected":false},{"name":"Detergent pudră","slug":"130104-detergenti-pudra","selected":false},{"name":"Detergent lichid","slug":"130105-detergent-lichid","selected":false},{"name":"Detergent capsule","slug":"130106-detergent-capsule","selected":false},{"name":"Accesorii pentru rufe","slug":"accesorii-pentru-rufe","selected":true}],"products":[{"code":"100134656","variantCode":"100134656","name":"Saci vacuum pentru depozitare XXL, 90x55cm, 2 buc","slug":"100134656-sano-saci-vacuum-pentru-depozitare-xxl-90x55cm-2-buc","unitPriceLabel":"","brand":"Sano","brandCode":"579","brandFilterCode":"sano-b580","sku":"100134656","price":27.49,"originalPrice":null,"currencyCode":"RON","currency":"Lei","image":{"thumbnail":{"default":"https://cdn.freshful.ro/media/cache/sylius_shop_product_thumbnail/49/24/ea26026f4325a0702b5800d679fa.jpg"},"large":{"default":"https://cdn.freshful.ro/media/cache/freshful_large/49/24/ea26026f4325a0702b5800d679fa.jpg"},"extralarge":{"default":"https://cdn.freshful.ro/media/cache/sylius_shop_product_original/49/24/ea26026f4325a0702b5800d679fa.jpg"}},"label":null,"tags":[],"isAvailable":true,"maxAvailableQuantity":41,"maxAllowedQuantity":100,"breadcrumbs":[{"code":"13","name":"Detergenți & igienizare","slug":"13-detergent-si-igienizare"},{"code":"1301","name":"Spălare și întreținere rufe","slug":"1301-spalare-si-intretinere-rufe"},{"code":"130107","name":"Accesorii pentru rufe","slug":"accesorii-pentru-rufe"},{"code":"100134656","name":"Saci vacuum pentru depozitare XXL, 90x55cm, 2 buc","slug":"100134656-sano-saci-vacuum-pentru-depozitare-xxl-90x55cm-2-buc"}],"activePromotion":null,"saveMe":null,"labels":[],"geniusPrice":null,"geniusUnitPricePerLabel":null,"banner":null,"discountLabel":null,"geniusDiscountLabel":null,"badge":null},{"code":"100074452","variantCode":"100074452","name":"Uscător de rufe 20m ","slug":"100074452-vileda-uscator-de-rufe-20m","unitPriceLabel":"","brand":"Vileda","brandCode":"430","brandFilterCode":"vileda-b431","sku":"100074452","price":279.99,"originalPrice":null,"currencyCode":"RON","currency":"Lei","image":{"thumbnail":{"default":"https://cdn.freshful.ro/media/cache/sylius_shop_product_thumbnail/6a/c4/548775a10b77d8ae75c2f6acf6b2.jpg"},"large":{"default":"https://cdn.freshful.ro/media/cache/freshful_large/6a/c4/548775a10b77d8ae75c2f6acf6b2.jpg"},"extralarge":{"default":"https://cdn.freshful.ro/media/cache/sylius_shop_product_original/6a/c4/548775a10b77d8ae75c2f6acf6b2.jpg"}},"label":null,"tags":[],"isAvailable":true,"maxAvailableQuantity":7,"maxAllowedQuantity":100,"breadcrumbs":[{"code":"13","name":"Detergenți & igienizare","slug":"13-detergent-si-igienizare"},{"code":"1301","name":"Spălare și întreținere rufe","slug":"1301-spalare-si-intretinere-rufe"},{"code":"130107","name":"Accesorii pentru rufe","slug":"accesorii-pentru-rufe"},{"code":"100074452","name":"Uscător de rufe 20m ","slug":"100074452-vileda-uscator-de-rufe-20m"}],"activePromotion":null,"saveMe":null,"labels":[],"geniusPrice":null,"geniusUnitPricePerLabel":null,"banner":null,"discountLabel":null,"geniusDiscountLabel":null,"badge":null},{"code":"100074458","variantCode":"100074458","name":"Husă metalică pentru călcat ","slug":"100074458-vileda-husa-metalica-pentru-calcat","unitPriceLabel":"","brand":"Vileda","brandCode":"430","brandFilterCode":"vileda-b431","sku":"100074458","price":81.9,"originalPrice":null,"currencyCode":"RON","currency":"Lei","image":{"thumbnail":{"default":"https://cdn.freshful.ro/media/cache/sylius_shop_product_thumbnail/30/98/262c58f5ae7d45d472cf8d9daec3.jpg"},"large":{"default":"https://cdn.freshful.ro/media/cache/freshful_large/30/98/262c58f5ae7d45d472cf8d9daec3.jpg"},"extralarge":{"default":"https://cdn.freshful.ro/media/cache/sylius_shop_product_original/30/98/262c58f5ae7d45d472cf8d9daec3.jpg"}},"label":null,"tags":[],"isAvailable":true,"maxAvailableQuantity":8,"maxAllowedQuantity":100,"breadcrumbs":[{"code":"13","name":"Detergenți & igienizare","slug":"13-detergent-si-igienizare"},{"code":"1301","name":"Spălare și întreținere rufe","slug":"1301-spalare-si-intretinere-rufe"},{"code":"130107","name":"Accesorii pentru rufe","slug":"accesorii-pentru-rufe"},{"code":"100074458","name":"Husă metalică pentru călcat ","slug":"100074458-vileda-husa-metalica-pentru-calcat"}],"activePromotion":null,"saveMe":null,"labels":[],"geniusPrice":null,"geniusUnitPricePerLabel":null,"banner":null,"discountLabel":null,"geniusDiscountLabel":null,"badge":null},{"code":"100074453","variantCode":"100074453","name":"Uscător rufe Premium 2în1, 18m","slug":"100074453-vileda-uscator-rufe-premium-2in1-18m","unitPriceLabel":"","brand":"Vileda","brandCode":"430","brandFilterCode":"vileda-b431","sku":"100074453","price":260.19,"originalPrice":null,"currencyCode":"RON","currency":"Lei","image":{"thumbnail":{"default":"https://cdn.freshful.ro/media/cache/sylius_shop_product_thumbnail/f2/db/56cbb3a3074bccfe29e06eb8a39e.jpg"},"large":{"default":"https://cdn.freshful.ro/media/cache/freshful_large/f2/db/56cbb3a3074bccfe29e06eb8a39e.jpg"},"extralarge":{"default":"https://cdn.freshful.ro/media/cache/sylius_shop_product_original/f2/db/56cbb3a3074bccfe29e06eb8a39e.jpg"}},"label":null,"tags":[],"isAvailable":true,"maxAvailableQuantity":17,"maxAllowedQuantity":100,"breadcrumbs":[{"code":"13","name":"Detergenți & igienizare","slug":"13-detergent-si-igienizare"},{"code":"1301","name":"Spălare și întreținere rufe","slug":"1301-spalare-si-intretinere-rufe"},{"code":"130107","name":"Accesorii pentru rufe","slug":"accesorii-pentru-rufe"},{"code":"100074453","name":"Uscător rufe Premium 2în1, 18m","slug":"100074453-vileda-uscator-rufe-premium-2in1-18m"}],"activePromotion":null,"saveMe":null,"labels":[],"geniusPrice":null,"geniusUnitPricePerLabel":null,"banner":null,"discountLabel":null,"geniusDiscountLabel":null,"badge":null},{"code":"100074459","variantCode":"100074459","name":"Husă de bumbac pentru călcat ","slug":"100074459-vileda-husa-de-bumbac-pentru-calcat","unitPriceLabel":"","brand":"Vileda","brandCode":"430","brandFilterCode":"vileda-b431","sku":"100074459","price":70.9,"originalPrice":null,"currencyCode":"RON","currency":"Lei","image":{"thumbnail":{"default":"https://cdn.freshful.ro/media/cache/sylius_shop_product_thumbnail/0e/ed/10a8413c12eda90677a8fcf55301.jpg"},"large":{"default":"https://cdn.freshful.ro/media/cache/freshful_large/0e/ed/10a8413c12eda90677a8fcf55301.jpg"},"extralarge":{"default":"https://cdn.freshful.ro/media/cache/sylius_shop_product_original/0e/ed/10a8413c12eda90677a8fcf55301.jpg"}},"label":null,"tags":[],"isAvailable":true,"maxAvailableQuantity":17,"maxAllowedQuantity":100,"breadcrumbs":[{"code":"13","name":"Detergenți & igienizare","slug":"13-detergent-si-igienizare"},{"code":"1301","name":"Spălare și întreținere rufe","slug":"1301-spalare-si-intretinere-rufe"},{"code":"130107","name":"Accesorii pentru rufe","slug":"accesorii-pentru-rufe"},{"code":"100074459","name":"Husă de bumbac pentru călcat ","slug":"100074459-vileda-husa-de-bumbac-pentru-calcat"}],"activePromotion":null,"saveMe":null,"labels":[],"geniusPrice":null,"geniusUnitPricePerLabel":null,"banner":null,"discountLabel":null,"geniusDiscountLabel":null,"badge":null},{"code":"100074454","variantCode":"100074454","name":"Uscător rufe mixer 3 - 30m turn ","slug":"100074454-vileda-uscator-rufe-mixer-3-30m-turn","unitPriceLabel":"","brand":"Vileda","brandCode":"430","brandFilterCode":"vileda-b431","sku":"100074454","price":219.99,"originalPrice":null,"currencyCode":"RON","currency":"Lei","image":{"thumbnail":{"default":"https://cdn.freshful.ro/media/cache/sylius_shop_product_thumbnail/aa/bd/6ca7203bb251162a27b1cefd8c34.jpg"},"large":{"default":"https://cdn.freshful.ro/media/cache/freshful_large/aa/bd/6ca7203bb251162a27b1cefd8c34.jpg"},"extralarge":{"default":"https://cdn.freshful.ro/media/cache/sylius_shop_product_original/aa/bd/6ca7203bb251162a27b1cefd8c34.jpg"}},"label":null,"tags":[],"isAvailable":true,"maxAvailableQuantity":8,"maxAllowedQuantity":100,"breadcrumbs":[{"code":"13","name":"Detergenți & igienizare","slug":"13-detergent-si-igienizare"},{"code":"1301","name":"Spălare și întreținere rufe","slug":"1301-spalare-si-intretinere-rufe"},{"code":"130107","name":"Accesorii pentru rufe","slug":"accesorii-pentru-rufe"},{"code":"100074454","name":"Uscător rufe mixer 3 - 30m turn ","slug":"100074454-vileda-uscator-rufe-mixer-3-30m-turn"}],"activePromotion":null,"saveMe":null,"labels":[],"geniusPrice":null,"geniusUnitPricePerLabel":null,"banner":null,"discountLabel":null,"geniusDiscountLabel":null,"badge":null},{"code":"100074456","variantCode":"100074456","name":"Masă de călcat Neo plus","slug":"100074456-vileda-masa-de-calcat-neo-plus","unitPriceLabel":"","brand":"Vileda","brandCode":"430","brandFilterCode":"vileda-b431","sku":"100074456","price":299,"originalPrice":null,"currencyCode":"RON","currency":"Lei","image":{"thumbnail":{"default":"https://cdn.freshful.ro/media/cache/sylius_shop_product_thumbnail/1c/63/22967c6a4f2ba1838a1fea0247eb.jpg"},"large":{"default":"https://cdn.freshful.ro/media/cache/freshful_large/1c/63/22967c6a4f2ba1838a1fea0247eb.jpg"},"extralarge":{"default":"https://cdn.freshful.ro/media/cache/sylius_shop_product_original/1c/63/22967c6a4f2ba1838a1fea0247eb.jpg"}},"label":null,"tags":[],"isAvailable":true,"maxAvailableQuantity":1,"maxAllowedQuantity":100,"breadcrumbs":[{"code":"13","name":"Detergenți & igienizare","slug":"13-detergent-si-igienizare"},{"code":"1301","name":"Spălare și întreținere rufe","slug":"1301-spalare-si-intretinere-rufe"},{"code":"130107","name":"Accesorii pentru rufe","slug":"accesorii-pentru-rufe"},{"code":"100074456","name":"Masă de călcat Neo plus","slug":"100074456-vileda-masa-de-calcat-neo-plus"}],"activePromotion":null,"saveMe":null,"labels":[],"geniusPrice":null,"geniusUnitPricePerLabel":null,"banner":null,"discountLabel":null,"geniusDiscountLabel":null,"badge":null},{"code":"100143388","variantCode":"100143388","name":"Coș de rufe din plastic tip ratan bej 45l ","slug":"100143388-cooking-by-heinner-cos-de-rufe-din-plastic-tip-ratan-bej-45l","unitPriceLabel":"","brand":"Cooking By Heinner","brandCode":"2756","brandFilterCode":"cooking-by-heinner-b2830","sku":"100143388","price":48.99,"originalPrice":null,"currencyCode":"RON","currency":"Lei","image":{"thumbnail":{"default":"https://cdn.freshful.ro/media/cache/sylius_shop_product_thumbnail/01/0a/b80b21fb535a83014b15439ee114.jpg"},"large":{"default":"https://cdn.freshful.ro/media/cache/freshful_large/01/0a/b80b21fb535a83014b15439ee114.jpg"},"extralarge":{"default":"https://cdn.freshful.ro/media/cache/sylius_shop_product_original/01/0a/b80b21fb535a83014b15439ee114.jpg"}},"label":null,"tags":[],"isAvailable":true,"maxAvailableQuantity":27,"maxAllowedQuantity":100,"breadcrumbs":[{"code":"13","name":"Detergenți & igienizare","slug":"13-detergent-si-igienizare"},{"code":"1301","name":"Spălare și întreținere rufe","slug":"1301-spalare-si-intretinere-rufe"},{"code":"130107","name":"Accesorii pentru rufe","slug":"accesorii-pentru-rufe"},{"code":"100143388","name":"Coș de rufe din plastic tip ratan bej 45l ","slug":"100143388-cooking-by-heinner-cos-de-rufe-din-plastic-tip-ratan-bej-45l"}],"activePromotion":null,"saveMe":null,"labels":[],"geniusPrice":null,"geniusUnitPricePerLabel":null,"banner":null,"discountLabel":null,"geniusDiscountLabel":null,"badge":null},{"code":"100074455","variantCode":"100074455","name":"Masă de călcat neo  ","slug":"100074455-vileda-masa-de-calcat-neo","unitPriceLabel":"","brand":"Vileda","brandCode":"430","brandFilterCode":"vileda-b431","sku":"100074455","price":303.99,"originalPrice":null,"currencyCode":"RON","currency":"Lei","image":{"thumbnail":{"default":"https://cdn.freshful.ro/media/cache/sylius_shop_product_thumbnail/c3/e9/d3172078742c9866f03141fff42c.jpg"},"large":{"default":"https://cdn.freshful.ro/media/cache/freshful_large/c3/e9/d3172078742c9866f03141fff42c.jpg"},"extralarge":{"default":"https://cdn.freshful.ro/media/cache/sylius_shop_product_original/c3/e9/d3172078742c9866f03141fff42c.jpg"}},"label":null,"tags":[],"isAvailable":true,"maxAvailableQuantity":10,"maxAllowedQuantity":100,"breadcrumbs":[{"code":"13","name":"Detergenți & igienizare","slug":"13-detergent-si-igienizare"},{"code":"1301","name":"Spălare și întreținere rufe","slug":"1301-spalare-si-intretinere-rufe"},{"code":"130107","name":"Accesorii pentru rufe","slug":"accesorii-pentru-rufe"},{"code":"100074455","name":"Masă de călcat neo  ","slug":"100074455-vileda-masa-de-calcat-neo"}],"activePromotion":null,"saveMe":null,"labels":[],"geniusPrice":null,"geniusUnitPricePerLabel":null,"banner":null,"discountLabel":null,"geniusDiscountLabel":null,"badge":null},{"code":"100074470","variantCode":"100074470","name":"Husă Park&Go ","slug":"100074470-vileda-husa-park-go","unitPriceLabel":"","brand":"Vileda","brandCode":"430","brandFilterCode":"vileda-b431","sku":"100074470","price":89.9,"originalPrice":null,"currencyCode":"RON","currency":"Lei","image":{"thumbnail":{"default":"https://cdn.freshful.ro/media/cache/sylius_shop_product_thumbnail/34/2a/e31ff9a54a97101c9a418b83a19d.jpg"},"large":{"default":"https://cdn.freshful.ro/media/cache/freshful_large/34/2a/e31ff9a54a97101c9a418b83a19d.jpg"},"extralarge":{"default":"https://cdn.freshful.ro/media/cache/sylius_shop_product_original/34/2a/e31ff9a54a97101c9a418b83a19d.jpg"}},"label":null,"tags":[],"isAvailable":true,"maxAvailableQuantity":15,"maxAllowedQuantity":100,"breadcrumbs":[{"code":"13","name":"Detergenți & igienizare","slug":"13-detergent-si-igienizare"},{"code":"1301","name":"Spălare și întreținere rufe","slug":"1301-spalare-si-intretinere-rufe"},{"code":"130107","name":"Accesorii pentru rufe","slug":"accesorii-pentru-rufe"},{"code":"100074470","name":"Husă Park&Go ","slug":"100074470-vileda-husa-park-go"}],"activePromotion":null,"saveMe":null,"labels":[],"geniusPrice":null,"geniusUnitPricePerLabel":null,"banner":null,"discountLabel":null,"geniusDiscountLabel":null,"badge":null}],"filters":{"countSelected":0,"items":[{"code":"brand","name":"Brand","countSelected":0,"values":[{"code":"cooking-by-heinner-b2830","name":"Cooking By Heinner","isSelected":false,"count":1},{"code":"sano-b580","name":"Sano","isSelected":false,"count":2},{"code":"vileda-b431","name":"Vileda","isSelected":false,"count":8}]}]},"orderBy":[{"field":"price","direction":"asc","name":"Preț crescător","isSelected":false},{"field":"price","direction":"desc","name":"Preț descrescător","isSelected":false},{"field":"popularity","direction":"desc","name":"Cele mai populare","isSelected":true},{"field":"category","direction":"asc","name":"Categorie","isSelected":false}],"metaTitle":"Accesorii pentru rufe - Gamă variată","metaDescription":"Vrei Accesorii pentru rufe? Alege dintr-o gamă variată. Comanzi simplu și ai livrare rapidă, calitate și prospețime. Hai pe Freshful.ro","metaKeywords":null,"banners":[]}}