{"type":"subcategory","payload":{"analyticsListId":"category_accesorii-pentru-curatenie","analyticsListName":"Category - Accesorii pentru curățenie","name":"Accesorii pentru curățenie","slug":"accesorii-pentru-curatenie","image":null,"breadcrumbs":[{"code":"13","name":"Detergenți & igienizare","slug":"13-detergent-si-igienizare"},{"code":"1302","name":"Curățenie și întreținerea casei","slug":"1302-igienizarea-casei"},{"code":"130212","name":"Accesorii pentru curățenie","slug":"accesorii-pentru-curatenie"}],"slots":[],"page":1,"limit":10,"pages":8,"count":80,"siblings":[{"name":"Spălare și întreținere rufe","slug":"1301-spalare-si-intretinere-rufe","selected":false},{"name":"Curățenie și întreținerea casei","slug":"1302-igienizarea-casei","selected":true},{"name":"Hârtie igienică, șervețele și prosoape","slug":"1303-hartie-igienica-si-servetele","selected":false}],"children":[{"name":"Toate produsele","slug":"1302-igienizarea-casei","selected":false},{"name":"Detergent de vase","slug":"130201-detergent-vase","selected":false},{"name":"Cremă de pantofi","slug":"130202-crema-de-pantofi","selected":false},{"name":"Insecticide","slug":"130203-insecticide","selected":false},{"name":"Soluții de curățat","slug":"130204-solutii-de-curatat","selected":false},{"name":"Bureți și lavete","slug":"130205-burete-si-lavete","selected":false},{"name":"Hârtie de copt, folii și pungi alimentare","slug":"130207-folie-si-pungi-alimentar-hartie-de-copt","selected":false},{"name":"Saci de gunoi","slug":"130208-saci-pentru-gunoi","selected":false},{"name":"Odorizante pentru casă","slug":"130209-odorizant-casa","selected":false},{"name":"Produse pentru baie","slug":"130210-produse-pentru-baie","selected":false},{"name":"Produse pentru bucătărie","slug":"130211-produse-pentru-bucatarie","selected":false},{"name":"Accesorii pentru curățenie","slug":"accesorii-pentru-curatenie","selected":true}],"products":[{"code":"100092456","variantCode":"100092456","name":"Rezerve pămătuf pentru curățarea prafului Trap & lock 5 buc","slug":"100092456-swiffer-rezerve-pamatuf-pentru-curatarea-prafului-trap-lock-5-buc","unitPriceLabel":"","brand":"Swiffer","brandCode":"679","brandFilterCode":"swiffer-b680","sku":"100092456","price":22.99,"originalPrice":25.5,"currencyCode":"RON","currency":"Lei","image":{"thumbnail":{"default":"https://cdn.freshful.ro/media/cache/sylius_shop_product_thumbnail/bc/84/585dc5068d3fe188d8a41f99f5e7.jpg"},"large":{"default":"https://cdn.freshful.ro/media/cache/freshful_large/bc/84/585dc5068d3fe188d8a41f99f5e7.jpg"},"extralarge":{"default":"https://cdn.freshful.ro/media/cache/sylius_shop_product_original/bc/84/585dc5068d3fe188d8a41f99f5e7.jpg"}},"label":{"text":"-9%","backgroundColor":"#FF9903","textColor":"#FFFFFF"},"tags":[],"isAvailable":true,"maxAvailableQuantity":44,"maxAllowedQuantity":100,"breadcrumbs":[{"code":"13","name":"Detergenți & igienizare","slug":"13-detergent-si-igienizare"},{"code":"1302","name":"Curățenie și întreținerea casei","slug":"1302-igienizarea-casei"},{"code":"130212","name":"Accesorii pentru curățenie","slug":"accesorii-pentru-curatenie"},{"code":"100092456","name":"Rezerve pămătuf pentru curățarea prafului Trap & lock 5 buc","slug":"100092456-swiffer-rezerve-pamatuf-pentru-curatarea-prafului-trap-lock-5-buc"}],"activePromotion":{"code":"oferte-dph-21feb-8mar23","name":"Preț redus","targetQuantity":null},"saveMe":null,"labels":[{"type":"v1","items":[{"text":"-9%","backgroundColor":"#FF9903","textColor":"#FFFFFF"}]}],"geniusPrice":null,"geniusUnitPricePerLabel":null,"banner":{"text":"Super preț","textColor":"#FF0000","bgColor":"#FFF2EC","icon":null,"link":"https://www.freshful.ro/oferte/oferte-dph-21feb-8mar23","type":"promo","analyticsEventType":"select_promotion","analyticsEventPayload":{"promotion_id":"oferte-dph-21feb-8mar23","promotion_name":"Curățenie și îngrijire personală"}},"discountLabel":"Economisești 9%","geniusDiscountLabel":null,"badge":null},{"code":"100092455","variantCode":"100092455","name":"Pămătuf pentru curățarea prafului Trap&lock cu mâner scurt + 4 rezerve","slug":"100092455-swiffer-pamatuf-pentru-curatarea-prafului-trap-lock-cu-maner-scurt-4-rezerve","unitPriceLabel":"","brand":"Swiffer","brandCode":"679","brandFilterCode":"swiffer-b680","sku":"100092455","price":21.89,"originalPrice":null,"currencyCode":"RON","currency":"Lei","image":{"thumbnail":{"default":"https://cdn.freshful.ro/media/cache/sylius_shop_product_thumbnail/15/1b/7e362a4cbb586aa8a27700272ae6.jpg"},"large":{"default":"https://cdn.freshful.ro/media/cache/freshful_large/15/1b/7e362a4cbb586aa8a27700272ae6.jpg"},"extralarge":{"default":"https://cdn.freshful.ro/media/cache/sylius_shop_product_original/15/1b/7e362a4cbb586aa8a27700272ae6.jpg"}},"label":{"text":"Profită acum","backgroundColor":"#FF9903","textColor":"#FFFFFF"},"tags":[],"isAvailable":true,"maxAvailableQuantity":29,"maxAllowedQuantity":100,"breadcrumbs":[{"code":"13","name":"Detergenți & igienizare","slug":"13-detergent-si-igienizare"},{"code":"1302","name":"Curățenie și întreținerea casei","slug":"1302-igienizarea-casei"},{"code":"130212","name":"Accesorii pentru curățenie","slug":"accesorii-pentru-curatenie"},{"code":"100092455","name":"Pămătuf pentru curățarea prafului Trap&lock cu mâner scurt + 4 rezerve","slug":"100092455-swiffer-pamatuf-pentru-curatarea-prafului-trap-lock-cu-maner-scurt-4-rezerve"}],"activePromotion":{"code":"oferte-dph-21feb-8mar23","name":"Preț avantajos","targetQuantity":null},"saveMe":null,"labels":[{"type":"v1","items":[{"text":"Profită acum","backgroundColor":"#FF9903","textColor":"#FFFFFF"}]}],"geniusPrice":null,"geniusUnitPricePerLabel":null,"banner":{"text":"Preț avantajos","textColor":"#F95510","bgColor":"#FEF1CD","icon":null,"link":"https://www.freshful.ro/oferte/oferte-dph-21feb-8mar23","type":"promo","analyticsEventType":"select_promotion","analyticsEventPayload":{"promotion_id":"oferte-dph-21feb-8mar23","promotion_name":"Curățenie și îngrijire personală"}},"discountLabel":null,"geniusDiscountLabel":null,"badge":null},{"code":"100074386","variantCode":"100074386","name":"Rezervă mop BBC 160g","slug":"100074386-vileda-rezerva-mop-bbc-160g","unitPriceLabel":"","brand":"Vileda","brandCode":"430","brandFilterCode":"vileda-b431","sku":"100074386","price":17.89,"originalPrice":null,"currencyCode":"RON","currency":"Lei","image":{"thumbnail":{"default":"https://cdn.freshful.ro/media/cache/sylius_shop_product_thumbnail/b0/fe/c5793461f036882272ac0b4e1946.jpg"},"large":{"default":"https://cdn.freshful.ro/media/cache/freshful_large/b0/fe/c5793461f036882272ac0b4e1946.jpg"},"extralarge":{"default":"https://cdn.freshful.ro/media/cache/sylius_shop_product_original/b0/fe/c5793461f036882272ac0b4e1946.jpg"}},"label":null,"tags":[],"isAvailable":true,"maxAvailableQuantity":100,"maxAllowedQuantity":100,"breadcrumbs":[{"code":"13","name":"Detergenți & igienizare","slug":"13-detergent-si-igienizare"},{"code":"1302","name":"Curățenie și întreținerea casei","slug":"1302-igienizarea-casei"},{"code":"130212","name":"Accesorii pentru curățenie","slug":"accesorii-pentru-curatenie"},{"code":"100074386","name":"Rezervă mop BBC 160g","slug":"100074386-vileda-rezerva-mop-bbc-160g"}],"activePromotion":null,"saveMe":null,"labels":[],"geniusPrice":null,"geniusUnitPricePerLabel":null,"banner":null,"discountLabel":null,"geniusDiscountLabel":null,"badge":null},{"code":"100086277","variantCode":"100086277","name":"Mănuși menaj mărimea M","slug":"100086277-fino-manusi-menaj-marimea-m","unitPriceLabel":"","brand":"Fino","brandCode":"545","brandFilterCode":"fino-b546","sku":"100086277","price":6.99,"originalPrice":null,"currencyCode":"RON","currency":"Lei","image":{"thumbnail":{"default":"https://cdn.freshful.ro/media/cache/sylius_shop_product_thumbnail/65/9f/97f9a3ef2e2af657896ce40e0dd3.jpg"},"large":{"default":"https://cdn.freshful.ro/media/cache/freshful_large/65/9f/97f9a3ef2e2af657896ce40e0dd3.jpg"},"extralarge":{"default":"https://cdn.freshful.ro/media/cache/sylius_shop_product_original/65/9f/97f9a3ef2e2af657896ce40e0dd3.jpg"}},"label":null,"tags":[],"isAvailable":true,"maxAvailableQuantity":100,"maxAllowedQuantity":100,"breadcrumbs":[{"code":"13","name":"Detergenți & igienizare","slug":"13-detergent-si-igienizare"},{"code":"1302","name":"Curățenie și întreținerea casei","slug":"1302-igienizarea-casei"},{"code":"130212","name":"Accesorii pentru curățenie","slug":"accesorii-pentru-curatenie"},{"code":"100086277","name":"Mănuși menaj mărimea M","slug":"100086277-fino-manusi-menaj-marimea-m"}],"activePromotion":null,"saveMe":null,"labels":[],"geniusPrice":null,"geniusUnitPricePerLabel":null,"banner":null,"discountLabel":null,"geniusDiscountLabel":null,"badge":null},{"code":"100092458","variantCode":"100092458","name":"Rezerve lavete umede pentru pardoseală Sweeper 20 buc","slug":"100092458-swiffer-rezerve-lavete-umede-pentru-pardoseala-sweeper-20-buc","unitPriceLabel":"","brand":"Swiffer","brandCode":"679","brandFilterCode":"swiffer-b680","sku":"100092458","price":44.5,"originalPrice":null,"currencyCode":"RON","currency":"Lei","image":{"thumbnail":{"default":"https://cdn.freshful.ro/media/cache/sylius_shop_product_thumbnail/c5/19/6d15b6bc6ff99deef615b34fa30d.jpg"},"large":{"default":"https://cdn.freshful.ro/media/cache/freshful_large/c5/19/6d15b6bc6ff99deef615b34fa30d.jpg"},"extralarge":{"default":"https://cdn.freshful.ro/media/cache/sylius_shop_product_original/c5/19/6d15b6bc6ff99deef615b34fa30d.jpg"}},"label":null,"tags":[],"isAvailable":true,"maxAvailableQuantity":100,"maxAllowedQuantity":100,"breadcrumbs":[{"code":"13","name":"Detergenți & igienizare","slug":"13-detergent-si-igienizare"},{"code":"1302","name":"Curățenie și întreținerea casei","slug":"1302-igienizarea-casei"},{"code":"130212","name":"Accesorii pentru curățenie","slug":"accesorii-pentru-curatenie"},{"code":"100092458","name":"Rezerve lavete umede pentru pardoseală Sweeper 20 buc","slug":"100092458-swiffer-rezerve-lavete-umede-pentru-pardoseala-sweeper-20-buc"}],"activePromotion":null,"saveMe":null,"labels":[],"geniusPrice":null,"geniusUnitPricePerLabel":null,"banner":null,"discountLabel":null,"geniusDiscountLabel":null,"badge":null},{"code":"100092461","variantCode":"100092461","name":"Pămătuf pentru curățarea prafului Trap & lock cu un mâner scurt + 1 rezervă","slug":"100092461-swiffer-pamatuf-pentru-curatarea-prafului-trap-lock-cu-un-maner-scurt-1-rezerva","unitPriceLabel":"","brand":"Swiffer","brandCode":"679","brandFilterCode":"swiffer-b680","sku":"100092461","price":7.99,"originalPrice":null,"currencyCode":"RON","currency":"Lei","image":{"thumbnail":{"default":"https://cdn.freshful.ro/media/cache/sylius_shop_product_thumbnail/f6/c0/e1ed96e1f857a1ccd75cbbeed266.jpg"},"large":{"default":"https://cdn.freshful.ro/media/cache/freshful_large/f6/c0/e1ed96e1f857a1ccd75cbbeed266.jpg"},"extralarge":{"default":"https://cdn.freshful.ro/media/cache/sylius_shop_product_original/f6/c0/e1ed96e1f857a1ccd75cbbeed266.jpg"}},"label":null,"tags":[],"isAvailable":true,"maxAvailableQuantity":100,"maxAllowedQuantity":100,"breadcrumbs":[{"code":"13","name":"Detergenți & igienizare","slug":"13-detergent-si-igienizare"},{"code":"1302","name":"Curățenie și întreținerea casei","slug":"1302-igienizarea-casei"},{"code":"130212","name":"Accesorii pentru curățenie","slug":"accesorii-pentru-curatenie"},{"code":"100092461","name":"Pămătuf pentru curățarea prafului Trap & lock cu un mâner scurt + 1 rezervă","slug":"100092461-swiffer-pamatuf-pentru-curatarea-prafului-trap-lock-cu-un-maner-scurt-1-rezerva"}],"activePromotion":null,"saveMe":null,"labels":[],"geniusPrice":null,"geniusUnitPricePerLabel":null,"banner":null,"discountLabel":null,"geniusDiscountLabel":null,"badge":null},{"code":"100092457","variantCode":"100092457","name":"Rezerve pămătuf pentru curățarea prafului trap & lock 10 buc","slug":"100092457-swiffer-rezerve-pamatuf-pentru-curatarea-prafului-trap-lock-10-buc","unitPriceLabel":"","brand":"Swiffer","brandCode":"679","brandFilterCode":"swiffer-b680","sku":"100092457","price":40.29,"originalPrice":null,"currencyCode":"RON","currency":"Lei","image":{"thumbnail":{"default":"https://cdn.freshful.ro/media/cache/sylius_shop_product_thumbnail/31/17/881ecdced597deee0359d20a1c8e.jpg"},"large":{"default":"https://cdn.freshful.ro/media/cache/freshful_large/31/17/881ecdced597deee0359d20a1c8e.jpg"},"extralarge":{"default":"https://cdn.freshful.ro/media/cache/sylius_shop_product_original/31/17/881ecdced597deee0359d20a1c8e.jpg"}},"label":null,"tags":[],"isAvailable":true,"maxAvailableQuantity":100,"maxAllowedQuantity":100,"breadcrumbs":[{"code":"13","name":"Detergenți & igienizare","slug":"13-detergent-si-igienizare"},{"code":"1302","name":"Curățenie și întreținerea casei","slug":"1302-igienizarea-casei"},{"code":"130212","name":"Accesorii pentru curățenie","slug":"accesorii-pentru-curatenie"},{"code":"100092457","name":"Rezerve pămătuf pentru curățarea prafului trap & lock 10 buc","slug":"100092457-swiffer-rezerve-pamatuf-pentru-curatarea-prafului-trap-lock-10-buc"}],"activePromotion":null,"saveMe":null,"labels":[],"geniusPrice":null,"geniusUnitPricePerLabel":null,"banner":null,"discountLabel":null,"geniusDiscountLabel":null,"badge":null},{"code":"100074385","variantCode":"100074385","name":"Rezervă de mop din vâscoză ","slug":"100074385-vileda-rezerva-de-mop-din-vascoza","unitPriceLabel":"","brand":"Vileda","brandCode":"430","brandFilterCode":"vileda-b431","sku":"100074385","price":14.59,"originalPrice":null,"currencyCode":"RON","currency":"Lei","image":{"thumbnail":{"default":"https://cdn.freshful.ro/media/cache/sylius_shop_product_thumbnail/59/61/d8a78924c4ccdb35d6d0c5153c6e.jpg"},"large":{"default":"https://cdn.freshful.ro/media/cache/freshful_large/59/61/d8a78924c4ccdb35d6d0c5153c6e.jpg"},"extralarge":{"default":"https://cdn.freshful.ro/media/cache/sylius_shop_product_original/59/61/d8a78924c4ccdb35d6d0c5153c6e.jpg"}},"label":null,"tags":[],"isAvailable":true,"maxAvailableQuantity":100,"maxAllowedQuantity":100,"breadcrumbs":[{"code":"13","name":"Detergenți & igienizare","slug":"13-detergent-si-igienizare"},{"code":"1302","name":"Curățenie și întreținerea casei","slug":"1302-igienizarea-casei"},{"code":"130212","name":"Accesorii pentru curățenie","slug":"accesorii-pentru-curatenie"},{"code":"100074385","name":"Rezervă de mop din vâscoză ","slug":"100074385-vileda-rezerva-de-mop-din-vascoza"}],"activePromotion":null,"saveMe":null,"labels":[],"geniusPrice":null,"geniusUnitPricePerLabel":null,"banner":null,"discountLabel":null,"geniusDiscountLabel":null,"badge":null},{"code":"100123750","variantCode":"100123750","name":"Set făraș cu coadă lungă + mătură „Maria”","slug":"100123750-oti-set-faras-cu-coada-lunga-matura-maria","unitPriceLabel":"","brand":"Oti","brandCode":"988","brandFilterCode":"oti-b1002","sku":"100123750","price":15.99,"originalPrice":null,"currencyCode":"RON","currency":"Lei","image":{"thumbnail":{"default":"https://cdn.freshful.ro/media/cache/sylius_shop_product_thumbnail/b2/35/d0ca3a0ed86c663a738f5a601a70.jpg"},"large":{"default":"https://cdn.freshful.ro/media/cache/freshful_large/b2/35/d0ca3a0ed86c663a738f5a601a70.jpg"},"extralarge":{"default":"https://cdn.freshful.ro/media/cache/sylius_shop_product_original/b2/35/d0ca3a0ed86c663a738f5a601a70.jpg"}},"label":null,"tags":[],"isAvailable":true,"maxAvailableQuantity":34,"maxAllowedQuantity":100,"breadcrumbs":[{"code":"13","name":"Detergenți & igienizare","slug":"13-detergent-si-igienizare"},{"code":"1302","name":"Curățenie și întreținerea casei","slug":"1302-igienizarea-casei"},{"code":"130212","name":"Accesorii pentru curățenie","slug":"accesorii-pentru-curatenie"},{"code":"100123750","name":"Set făraș cu coadă lungă + mătură „Maria”","slug":"100123750-oti-set-faras-cu-coada-lunga-matura-maria"}],"activePromotion":null,"saveMe":null,"labels":[],"geniusPrice":null,"geniusUnitPricePerLabel":null,"banner":null,"discountLabel":null,"geniusDiscountLabel":null,"badge":null},{"code":"100002956","variantCode":"100002956","name":"Mănuși de unică folosință mărimea L 100 buc","slug":"100002956-biodeck-manusi-de-unica-folosinta-marimea-l-100-buc","unitPriceLabel":"","brand":"Biodeck","brandCode":"299","brandFilterCode":"biodeck-b300","sku":"100002956","price":17.99,"originalPrice":null,"currencyCode":"RON","currency":"Lei","image":{"thumbnail":{"default":"https://cdn.freshful.ro/media/cache/sylius_shop_product_thumbnail/c9/e9/d4a8bf0a4365f8a59deb3ba7ddc1.jpg"},"large":{"default":"https://cdn.freshful.ro/media/cache/freshful_large/c9/e9/d4a8bf0a4365f8a59deb3ba7ddc1.jpg"},"extralarge":{"default":"https://cdn.freshful.ro/media/cache/sylius_shop_product_original/c9/e9/d4a8bf0a4365f8a59deb3ba7ddc1.jpg"}},"label":null,"tags":[{"type":"bio","text":"Bio","icon":"https://cdn.freshful.ro/assets/product_tags/bio.svg","iconPng":"https://cdn.freshful.ro/assets/product_tags/bio.png","backgroundColor":"#ECF6E9","textColor":"#399225"}],"isAvailable":true,"maxAvailableQuantity":45,"maxAllowedQuantity":100,"breadcrumbs":[{"code":"13","name":"Detergenți & igienizare","slug":"13-detergent-si-igienizare"},{"code":"1302","name":"Curățenie și întreținerea casei","slug":"1302-igienizarea-casei"},{"code":"130212","name":"Accesorii pentru curățenie","slug":"accesorii-pentru-curatenie"},{"code":"100002956","name":"Mănuși de unică folosință mărimea L 100 buc","slug":"100002956-biodeck-manusi-de-unica-folosinta-marimea-l-100-buc"}],"activePromotion":null,"saveMe":null,"labels":[],"geniusPrice":null,"geniusUnitPricePerLabel":null,"banner":null,"discountLabel":null,"geniusDiscountLabel":null,"badge":null}],"filters":{"countSelected":0,"items":[{"code":"promotion","name":"Promoții","countSelected":0,"values":[{"code":"oferte-dph-21feb-8mar23","name":"Curățenie și îngrijire personală","isSelected":false,"count":4}]},{"code":"brand","name":"Brand","countSelected":0,"values":[{"code":"biodeck-b300","name":"Biodeck","isSelected":false,"count":1},{"code":"epack-b369","name":"epack","isSelected":false,"count":3},{"code":"fino-b546","name":"Fino","isSelected":false,"count":1},{"code":"oti-b1002","name":"Oti","isSelected":false,"count":9},{"code":"scotch-brite-b367","name":"Scotch Brite","isSelected":false,"count":16},{"code":"swiffer-b680","name":"Swiffer","isSelected":false,"count":10},{"code":"vileda-b431","name":"Vileda","isSelected":false,"count":40}]},{"code":"diet_lifestyle","name":"Dietă și lifestyle","countSelected":0,"values":[{"code":"bio-a26","name":"Bio","isSelected":false,"count":1}]}]},"orderBy":[{"field":"price","direction":"asc","name":"Preț crescător","isSelected":false},{"field":"price","direction":"desc","name":"Preț descrescător","isSelected":false},{"field":"popularity","direction":"desc","name":"Cele mai populare","isSelected":true},{"field":"category","direction":"asc","name":"Categorie","isSelected":false}],"metaTitle":"Accesorii pentru curățenie - Gamă variată","metaDescription":"Vrei Accesorii pentru curățenie? Alege dintr-o gamă variată. Comanzi simplu și ai livrare rapidă, calitate și prospețime. Hai pe Freshful.ro","metaKeywords":null,"banners":[]}}