{"type":"subcategory","payload":{"analyticsListId":"category_accesorii-pentru-petrecere","analyticsListName":"Category - Accesorii pentru petrecere","name":"Accesorii pentru petrecere","slug":"accesorii-pentru-petrecere","image":null,"breadcrumbs":[{"code":"14","name":"Casă și agrement","slug":"14-casa-si-agrement"},{"code":"1403","name":"Articole de menaj","slug":"1403-articole-de-menaj"},{"code":"140309","name":"Accesorii pentru petrecere","slug":"accesorii-pentru-petrecere"}],"slots":[],"page":1,"limit":10,"pages":10,"count":96,"siblings":[{"name":"Bricolaj și auto","slug":"1401-bricolaj-si-auto","selected":false},{"name":"Grădină","slug":"1402-gradina","selected":false},{"name":"Articole de menaj","slug":"1403-articole-de-menaj","selected":true},{"name":"Textile pentru casă","slug":"1404-textile-de-casa","selected":false},{"name":"Birotică și papetărie","slug":"1405-birotica-si-papetarie","selected":false},{"name":"Jucării","slug":"1406-jucarii","selected":false},{"name":"Accesorii IT&C","slug":"1408-hitech-audio-video","selected":false},{"name":"Textile și accesorii","slug":"1410-textile-basic","selected":false}],"children":[{"name":"Toate produsele","slug":"1403-articole-de-menaj","selected":false},{"name":"Pahare și carafe","slug":"140301-pahare-si-carafe","selected":false},{"name":"Veselă, tacâmuri și accesorii pentru masă","slug":"140302-vesela-tacamuri-si-accesorii-pentru-masa","selected":false},{"name":"Veselă de unică folosință","slug":"140303-vesela-de-unica-folosinta","selected":false},{"name":"Articole pentru gătit","slug":"140304-articole-pentru-gatit-si-coacere","selected":false},{"name":"Articole menajere și pentru bucătărie","slug":"140305-articole-menajere-si-pentru-bucatarie","selected":false},{"name":"Lumânări și aromatice","slug":"140308-lumanari-si-aromatice","selected":false},{"name":"Accesorii pentru petrecere","slug":"accesorii-pentru-petrecere","selected":true}],"products":[{"code":"100042319","variantCode":"100042319","name":"Pungă cadou plastifiată M, 17.5x23x10cm","slug":"100042319-no-brand-punga-cadou-plastifiata-m-17-5x23x10cm","unitPriceLabel":"","brand":null,"brandCode":null,"brandFilterCode":"no-brand-b83","sku":"100042319","price":4.99,"originalPrice":6.99,"currencyCode":"RON","currency":"Lei","image":{"thumbnail":{"default":"https://cdn.freshful.ro/media/cache/sylius_shop_product_thumbnail/8f/2c/2b034fe198b4a3524a57aba596c4.jpg"},"large":{"default":"https://cdn.freshful.ro/media/cache/freshful_large/8f/2c/2b034fe198b4a3524a57aba596c4.jpg"},"extralarge":{"default":"https://cdn.freshful.ro/media/cache/sylius_shop_product_original/8f/2c/2b034fe198b4a3524a57aba596c4.jpg"}},"label":{"text":"-28%","backgroundColor":"#FF9903","textColor":"#FFFFFF"},"tags":[],"isAvailable":true,"maxAvailableQuantity":61,"maxAllowedQuantity":100,"breadcrumbs":[{"code":"14","name":"Casă și agrement","slug":"14-casa-si-agrement"},{"code":"1403","name":"Articole de menaj","slug":"1403-articole-de-menaj"},{"code":"140309","name":"Accesorii pentru petrecere","slug":"accesorii-pentru-petrecere"},{"code":"100042319","name":"Pungă cadou plastifiată M, 17.5x23x10cm","slug":"100042319-no-brand-punga-cadou-plastifiata-m-17-5x23x10cm"}],"activePromotion":{"code":"special-cosmetice-21feb-8mar23","name":"Preț redus","targetQuantity":null},"saveMe":null,"labels":[{"type":"v1","items":[{"text":"-28%","backgroundColor":"#FF9903","textColor":"#FFFFFF"}]}],"geniusPrice":null,"geniusUnitPricePerLabel":null,"banner":{"text":"Super preț","textColor":"#FF0000","bgColor":"#FFF2EC","icon":null,"link":"https://www.freshful.ro/oferte/special-cosmetice-21feb-8mar23","type":"promo","analyticsEventType":"select_promotion","analyticsEventPayload":{"promotion_id":"special-cosmetice-21feb-8mar23","promotion_name":"Cadouri pentru sărbătoritele lunii martie"}},"discountLabel":"Economisești 28%","geniusDiscountLabel":null,"badge":null},{"code":"100042320","variantCode":"100042320","name":"Pungă cadou plastifiată L, 26x32x12cm","slug":"100042320-no-brand-punga-cadou-plastifiata-l-26x32x12cm","unitPriceLabel":"","brand":null,"brandCode":null,"brandFilterCode":"no-brand-b83","sku":"100042320","price":7.99,"originalPrice":9.99,"currencyCode":"RON","currency":"Lei","image":{"thumbnail":{"default":"https://cdn.freshful.ro/media/cache/sylius_shop_product_thumbnail/c8/d0/05eb010d66a99195119c3d9f863c.jpg"},"large":{"default":"https://cdn.freshful.ro/media/cache/freshful_large/c8/d0/05eb010d66a99195119c3d9f863c.jpg"},"extralarge":{"default":"https://cdn.freshful.ro/media/cache/sylius_shop_product_original/c8/d0/05eb010d66a99195119c3d9f863c.jpg"}},"label":{"text":"-20%","backgroundColor":"#FF9903","textColor":"#FFFFFF"},"tags":[],"isAvailable":true,"maxAvailableQuantity":40,"maxAllowedQuantity":100,"breadcrumbs":[{"code":"14","name":"Casă și agrement","slug":"14-casa-si-agrement"},{"code":"1403","name":"Articole de menaj","slug":"1403-articole-de-menaj"},{"code":"140309","name":"Accesorii pentru petrecere","slug":"accesorii-pentru-petrecere"},{"code":"100042320","name":"Pungă cadou plastifiată L, 26x32x12cm","slug":"100042320-no-brand-punga-cadou-plastifiata-l-26x32x12cm"}],"activePromotion":{"code":"special-cosmetice-21feb-8mar23","name":"Preț redus","targetQuantity":null},"saveMe":null,"labels":[{"type":"v1","items":[{"text":"-20%","backgroundColor":"#FF9903","textColor":"#FFFFFF"}]}],"geniusPrice":null,"geniusUnitPricePerLabel":null,"banner":{"text":"Super preț","textColor":"#FF0000","bgColor":"#FFF2EC","icon":null,"link":"https://www.freshful.ro/oferte/special-cosmetice-21feb-8mar23","type":"promo","analyticsEventType":"select_promotion","analyticsEventPayload":{"promotion_id":"special-cosmetice-21feb-8mar23","promotion_name":"Cadouri pentru sărbătoritele lunii martie"}},"discountLabel":"Economisești 20%","geniusDiscountLabel":null,"badge":null},{"code":"100042321","variantCode":"100042321","name":"Pungă cadou plastifiată L, 32x26x12cm","slug":"100042321-no-brand-punga-cadou-plastifiata-l-32x26x12cm","unitPriceLabel":"","brand":null,"brandCode":null,"brandFilterCode":"no-brand-b83","sku":"100042321","price":7.99,"originalPrice":9.99,"currencyCode":"RON","currency":"Lei","image":{"thumbnail":{"default":"https://cdn.freshful.ro/media/cache/sylius_shop_product_thumbnail/0c/35/da8a9d193edbb150c05e2ef50a01.jpg"},"large":{"default":"https://cdn.freshful.ro/media/cache/freshful_large/0c/35/da8a9d193edbb150c05e2ef50a01.jpg"},"extralarge":{"default":"https://cdn.freshful.ro/media/cache/sylius_shop_product_original/0c/35/da8a9d193edbb150c05e2ef50a01.jpg"}},"label":{"text":"-20%","backgroundColor":"#FF9903","textColor":"#FFFFFF"},"tags":[],"isAvailable":true,"maxAvailableQuantity":63,"maxAllowedQuantity":100,"breadcrumbs":[{"code":"14","name":"Casă și agrement","slug":"14-casa-si-agrement"},{"code":"1403","name":"Articole de menaj","slug":"1403-articole-de-menaj"},{"code":"140309","name":"Accesorii pentru petrecere","slug":"accesorii-pentru-petrecere"},{"code":"100042321","name":"Pungă cadou plastifiată L, 32x26x12cm","slug":"100042321-no-brand-punga-cadou-plastifiata-l-32x26x12cm"}],"activePromotion":{"code":"special-cosmetice-21feb-8mar23","name":"Preț redus","targetQuantity":null},"saveMe":null,"labels":[{"type":"v1","items":[{"text":"-20%","backgroundColor":"#FF9903","textColor":"#FFFFFF"}]}],"geniusPrice":null,"geniusUnitPricePerLabel":null,"banner":{"text":"Super preț","textColor":"#FF0000","bgColor":"#FFF2EC","icon":null,"link":"https://www.freshful.ro/oferte/special-cosmetice-21feb-8mar23","type":"promo","analyticsEventType":"select_promotion","analyticsEventPayload":{"promotion_id":"special-cosmetice-21feb-8mar23","promotion_name":"Cadouri pentru sărbătoritele lunii martie"}},"discountLabel":"Economisești 20%","geniusDiscountLabel":null,"badge":null},{"code":"100042313","variantCode":"100042313","name":"Pungă cadou L, 32x26x10cm","slug":"100042313-no-brand-punga-cadou-l-32x26x10cm","unitPriceLabel":"","brand":null,"brandCode":null,"brandFilterCode":"no-brand-b83","sku":"100042313","price":7.99,"originalPrice":10.9,"currencyCode":"RON","currency":"Lei","image":{"thumbnail":{"default":"https://cdn.freshful.ro/media/cache/sylius_shop_product_thumbnail/7c/ef/3ded9dc370547a17359b55de0dd0.jpg"},"large":{"default":"https://cdn.freshful.ro/media/cache/freshful_large/7c/ef/3ded9dc370547a17359b55de0dd0.jpg"},"extralarge":{"default":"https://cdn.freshful.ro/media/cache/sylius_shop_product_original/7c/ef/3ded9dc370547a17359b55de0dd0.jpg"}},"label":{"text":"-26%","backgroundColor":"#FF9903","textColor":"#FFFFFF"},"tags":[],"isAvailable":true,"maxAvailableQuantity":7,"maxAllowedQuantity":100,"breadcrumbs":[{"code":"14","name":"Casă și agrement","slug":"14-casa-si-agrement"},{"code":"1403","name":"Articole de menaj","slug":"1403-articole-de-menaj"},{"code":"140309","name":"Accesorii pentru petrecere","slug":"accesorii-pentru-petrecere"},{"code":"100042313","name":"Pungă cadou L, 32x26x10cm","slug":"100042313-no-brand-punga-cadou-l-32x26x10cm"}],"activePromotion":{"code":"special-cosmetice-21feb-8mar23","name":"Preț redus","targetQuantity":null},"saveMe":null,"labels":[{"type":"v1","items":[{"text":"-26%","backgroundColor":"#FF9903","textColor":"#FFFFFF"}]}],"geniusPrice":null,"geniusUnitPricePerLabel":null,"banner":{"text":"Super preț","textColor":"#FF0000","bgColor":"#FFF2EC","icon":null,"link":"https://www.freshful.ro/oferte/special-cosmetice-21feb-8mar23","type":"promo","analyticsEventType":"select_promotion","analyticsEventPayload":{"promotion_id":"special-cosmetice-21feb-8mar23","promotion_name":"Cadouri pentru sărbătoritele lunii martie"}},"discountLabel":"Economisești 26%","geniusDiscountLabel":null,"badge":null},{"code":"100042312","variantCode":"100042312","name":"Pungă cadou L, 26x32x10cm","slug":"100042312-no-brand-punga-cadou-l-26x32x10cm","unitPriceLabel":"","brand":null,"brandCode":null,"brandFilterCode":"no-brand-b83","sku":"100042312","price":6.99,"originalPrice":9.99,"currencyCode":"RON","currency":"Lei","image":{"thumbnail":{"default":"https://cdn.freshful.ro/media/cache/sylius_shop_product_thumbnail/b2/bb/15f6d6656aca268603c402aedbfe.jpg"},"large":{"default":"https://cdn.freshful.ro/media/cache/freshful_large/b2/bb/15f6d6656aca268603c402aedbfe.jpg"},"extralarge":{"default":"https://cdn.freshful.ro/media/cache/sylius_shop_product_original/b2/bb/15f6d6656aca268603c402aedbfe.jpg"}},"label":{"text":"-30%","backgroundColor":"#FF9903","textColor":"#FFFFFF"},"tags":[],"isAvailable":true,"maxAvailableQuantity":6,"maxAllowedQuantity":100,"breadcrumbs":[{"code":"14","name":"Casă și agrement","slug":"14-casa-si-agrement"},{"code":"1403","name":"Articole de menaj","slug":"1403-articole-de-menaj"},{"code":"140309","name":"Accesorii pentru petrecere","slug":"accesorii-pentru-petrecere"},{"code":"100042312","name":"Pungă cadou L, 26x32x10cm","slug":"100042312-no-brand-punga-cadou-l-26x32x10cm"}],"activePromotion":{"code":"special-cosmetice-21feb-8mar23","name":"Preț redus","targetQuantity":null},"saveMe":null,"labels":[{"type":"v1","items":[{"text":"-30%","backgroundColor":"#FF9903","textColor":"#FFFFFF"}]}],"geniusPrice":null,"geniusUnitPricePerLabel":null,"banner":{"text":"Super preț","textColor":"#FF0000","bgColor":"#FFF2EC","icon":null,"link":"https://www.freshful.ro/oferte/special-cosmetice-21feb-8mar23","type":"promo","analyticsEventType":"select_promotion","analyticsEventPayload":{"promotion_id":"special-cosmetice-21feb-8mar23","promotion_name":"Cadouri pentru sărbătoritele lunii martie"}},"discountLabel":"Economisești 30%","geniusDiscountLabel":null,"badge":null},{"code":"100042317","variantCode":"100042317","name":"Pungă cadou AR1, 26x32x12cm","slug":"100042317-no-brand-punga-cadou-ar1-26x32x12cm","unitPriceLabel":"","brand":null,"brandCode":null,"brandFilterCode":"no-brand-b83","sku":"100042317","price":9.99,"originalPrice":12.9,"currencyCode":"RON","currency":"Lei","image":{"thumbnail":{"default":"https://cdn.freshful.ro/media/cache/sylius_shop_product_thumbnail/91/93/b43ecbdb13d12b43f6033741191d.jpg"},"large":{"default":"https://cdn.freshful.ro/media/cache/freshful_large/91/93/b43ecbdb13d12b43f6033741191d.jpg"},"extralarge":{"default":"https://cdn.freshful.ro/media/cache/sylius_shop_product_original/91/93/b43ecbdb13d12b43f6033741191d.jpg"}},"label":{"text":"-22%","backgroundColor":"#FF9903","textColor":"#FFFFFF"},"tags":[],"isAvailable":true,"maxAvailableQuantity":7,"maxAllowedQuantity":100,"breadcrumbs":[{"code":"14","name":"Casă și agrement","slug":"14-casa-si-agrement"},{"code":"1403","name":"Articole de menaj","slug":"1403-articole-de-menaj"},{"code":"140309","name":"Accesorii pentru petrecere","slug":"accesorii-pentru-petrecere"},{"code":"100042317","name":"Pungă cadou AR1, 26x32x12cm","slug":"100042317-no-brand-punga-cadou-ar1-26x32x12cm"}],"activePromotion":{"code":"special-cosmetice-21feb-8mar23","name":"Preț redus","targetQuantity":null},"saveMe":null,"labels":[{"type":"v1","items":[{"text":"-22%","backgroundColor":"#FF9903","textColor":"#FFFFFF"}]}],"geniusPrice":null,"geniusUnitPricePerLabel":null,"banner":{"text":"Super preț","textColor":"#FF0000","bgColor":"#FFF2EC","icon":null,"link":"https://www.freshful.ro/oferte/special-cosmetice-21feb-8mar23","type":"promo","analyticsEventType":"select_promotion","analyticsEventPayload":{"promotion_id":"special-cosmetice-21feb-8mar23","promotion_name":"Cadouri pentru sărbătoritele lunii martie"}},"discountLabel":"Economisești 22%","geniusDiscountLabel":null,"badge":null},{"code":"100119413","variantCode":"100119413","name":"Artificii tort aniversare 4 buc","slug":"100119413-partycenter-artificii-tort-aniversare-4-buc","unitPriceLabel":"","brand":"Partycenter","brandCode":"2020","brandFilterCode":"partycenter-b2024","sku":"100119413","price":16.99,"originalPrice":null,"currencyCode":"RON","currency":"Lei","image":{"thumbnail":{"default":"https://cdn.freshful.ro/media/cache/sylius_shop_product_thumbnail/45/45/a02180399e137598a7001fba7158.jpg"},"large":{"default":"https://cdn.freshful.ro/media/cache/freshful_large/45/45/a02180399e137598a7001fba7158.jpg"},"extralarge":{"default":"https://cdn.freshful.ro/media/cache/sylius_shop_product_original/45/45/a02180399e137598a7001fba7158.jpg"}},"label":null,"tags":[],"isAvailable":true,"maxAvailableQuantity":89,"maxAllowedQuantity":100,"breadcrumbs":[{"code":"14","name":"Casă și agrement","slug":"14-casa-si-agrement"},{"code":"1403","name":"Articole de menaj","slug":"1403-articole-de-menaj"},{"code":"140309","name":"Accesorii pentru petrecere","slug":"accesorii-pentru-petrecere"},{"code":"100119413","name":"Artificii tort aniversare 4 buc","slug":"100119413-partycenter-artificii-tort-aniversare-4-buc"}],"activePromotion":null,"saveMe":null,"labels":[],"geniusPrice":null,"geniusUnitPricePerLabel":null,"banner":null,"discountLabel":null,"geniusDiscountLabel":null,"badge":null},{"code":"100151156","variantCode":"100151156","name":"Lumânare cifra 3, albastră","slug":"100151156-no-brand-lumanare-cifra-3-albastra","unitPriceLabel":"","brand":null,"brandCode":null,"brandFilterCode":"no-brand-b83","sku":"100151156","price":6.99,"originalPrice":null,"currencyCode":"RON","currency":"Lei","image":{"thumbnail":{"default":"https://cdn.freshful.ro/media/cache/sylius_shop_product_thumbnail/61/21/9b07f6a15105ebab11a571cd4af8.jpg"},"large":{"default":"https://cdn.freshful.ro/media/cache/freshful_large/61/21/9b07f6a15105ebab11a571cd4af8.jpg"},"extralarge":{"default":"https://cdn.freshful.ro/media/cache/sylius_shop_product_original/61/21/9b07f6a15105ebab11a571cd4af8.jpg"}},"label":null,"tags":[],"isAvailable":true,"maxAvailableQuantity":36,"maxAllowedQuantity":100,"breadcrumbs":[{"code":"14","name":"Casă și agrement","slug":"14-casa-si-agrement"},{"code":"1403","name":"Articole de menaj","slug":"1403-articole-de-menaj"},{"code":"140309","name":"Accesorii pentru petrecere","slug":"accesorii-pentru-petrecere"},{"code":"100151156","name":"Lumânare cifra 3, albastră","slug":"100151156-no-brand-lumanare-cifra-3-albastra"}],"activePromotion":null,"saveMe":null,"labels":[],"geniusPrice":null,"geniusUnitPricePerLabel":null,"banner":null,"discountLabel":null,"geniusDiscountLabel":null,"badge":null},{"code":"100042331","variantCode":"100042331","name":"Baloane Happy Birthday 7 buc","slug":"100042331-no-brand-baloane-happy-birthday-7-buc","unitPriceLabel":"","brand":null,"brandCode":null,"brandFilterCode":"no-brand-b83","sku":"100042331","price":8.49,"originalPrice":null,"currencyCode":"RON","currency":"Lei","image":{"thumbnail":{"default":"https://cdn.freshful.ro/media/cache/sylius_shop_product_thumbnail/30/30/c0f79c49a648597e233d1ab02e52.jpg"},"large":{"default":"https://cdn.freshful.ro/media/cache/freshful_large/30/30/c0f79c49a648597e233d1ab02e52.jpg"},"extralarge":{"default":"https://cdn.freshful.ro/media/cache/sylius_shop_product_original/30/30/c0f79c49a648597e233d1ab02e52.jpg"}},"label":null,"tags":[],"isAvailable":true,"maxAvailableQuantity":21,"maxAllowedQuantity":100,"breadcrumbs":[{"code":"14","name":"Casă și agrement","slug":"14-casa-si-agrement"},{"code":"1403","name":"Articole de menaj","slug":"1403-articole-de-menaj"},{"code":"140309","name":"Accesorii pentru petrecere","slug":"accesorii-pentru-petrecere"},{"code":"100042331","name":"Baloane Happy Birthday 7 buc","slug":"100042331-no-brand-baloane-happy-birthday-7-buc"}],"activePromotion":null,"saveMe":null,"labels":[],"geniusPrice":null,"geniusUnitPricePerLabel":null,"banner":null,"discountLabel":null,"geniusDiscountLabel":null,"badge":null},{"code":"100119431","variantCode":"100119431","name":"Pompă pentru baloane","slug":"100119431-partycenter-pompa-pentru-baloane","unitPriceLabel":"","brand":"Partycenter","brandCode":"2020","brandFilterCode":"partycenter-b2024","sku":"100119431","price":15.99,"originalPrice":null,"currencyCode":"RON","currency":"Lei","image":{"thumbnail":{"default":"https://cdn.freshful.ro/media/cache/sylius_shop_product_thumbnail/5c/1d/cb5d8b71bd367eb2d4a9be302dc0.jpg"},"large":{"default":"https://cdn.freshful.ro/media/cache/freshful_large/5c/1d/cb5d8b71bd367eb2d4a9be302dc0.jpg"},"extralarge":{"default":"https://cdn.freshful.ro/media/cache/sylius_shop_product_original/5c/1d/cb5d8b71bd367eb2d4a9be302dc0.jpg"}},"label":null,"tags":[],"isAvailable":true,"maxAvailableQuantity":25,"maxAllowedQuantity":100,"breadcrumbs":[{"code":"14","name":"Casă și agrement","slug":"14-casa-si-agrement"},{"code":"1403","name":"Articole de menaj","slug":"1403-articole-de-menaj"},{"code":"140309","name":"Accesorii pentru petrecere","slug":"accesorii-pentru-petrecere"},{"code":"100119431","name":"Pompă pentru baloane","slug":"100119431-partycenter-pompa-pentru-baloane"}],"activePromotion":null,"saveMe":null,"labels":[],"geniusPrice":null,"geniusUnitPricePerLabel":null,"banner":null,"discountLabel":null,"geniusDiscountLabel":null,"badge":null}],"filters":{"countSelected":0,"items":[{"code":"promotion","name":"Promoții","countSelected":0,"values":[{"code":"special-cosmetice-21feb-8mar23","name":"Cadouri pentru sărbătoritele lunii martie","isSelected":false,"count":11}]},{"code":"brand","name":"Brand","countSelected":0,"values":[{"code":"disney-b35","name":"Disney","isSelected":false,"count":2},{"code":"partycenter-b2024","name":"Partycenter","isSelected":false,"count":45},{"code":"romania-frumoasa-b1641","name":"România Frumoasă","isSelected":false,"count":1}]}]},"orderBy":[{"field":"price","direction":"asc","name":"Preț crescător","isSelected":false},{"field":"price","direction":"desc","name":"Preț descrescător","isSelected":false},{"field":"popularity","direction":"desc","name":"Cele mai populare","isSelected":true},{"field":"category","direction":"asc","name":"Categorie","isSelected":false}],"metaTitle":"Accesorii pentru petrecere - Gamă variată","metaDescription":"Vrei Accesorii pentru petrecere? Alege dintr-o gamă variată. Comanzi simplu și ai livrare rapidă, calitate și prospețime. Hai pe Freshful.ro","metaKeywords":null,"banners":[]}}