{"type":"subcategory","payload":{"analyticsListId":"category_bauturi-creme-si-grasimi-vegetale","analyticsListName":"Category - Băuturi, creme și grăsimi vegetale","name":"Băuturi, creme și grăsimi vegetale","slug":"bauturi-creme-si-grasimi-vegetale","image":null,"breadcrumbs":[{"code":"17","name":"Produse vegetale","slug":"produse-vegetale"},{"code":"1702","name":"Băuturi, creme și grăsimi vegetale","slug":"bauturi-creme-si-grasimi-vegetale"}],"slots":[],"page":1,"limit":10,"pages":20,"count":198,"siblings":[{"name":"Carne și specialități vegetale","slug":"carne-si-specialitati-vegetale","selected":false},{"name":"Băuturi, creme și grăsimi vegetale","slug":"bauturi-creme-si-grasimi-vegetale","selected":true}],"children":[{"name":"Toate produsele","slug":"bauturi-creme-si-grasimi-vegetale","selected":true},{"name":"Creme, tofu și tartinabile vegetale","slug":"creme-tofu-si-tartinabile-vegetale","selected":false},{"name":"Grăsimi vegetale și produse fermentate","slug":"grasimi-vegetale-si-produse-fermentate","selected":false},{"name":"Băuturi vegetale UHT","slug":"bauturi-vegetale-uht","selected":false},{"name":"Băuturi vegetale și desert","slug":"bauturi-vegetale-si-desert","selected":false}],"products":[{"code":"100064169","variantCode":"100064169","name":"Pastă tartinabilă de caju cu ceapă şi mărar 200g","slug":"100064169-filgud-pasta-tartinabila-de-caju-cu-ceapa-si-marar-200g","unitPriceLabel":"109,95 Lei/kg","brand":"Filgud","brandCode":"950","brandFilterCode":"filgud-b964","sku":"100064169","price":21.99,"originalPrice":23.49,"currencyCode":"RON","currency":"Lei","image":{"thumbnail":{"default":"https://cdn.freshful.ro/media/cache/sylius_shop_product_thumbnail/a3/9f/08a40988598ea24102002ff3d6b4.jpg"},"large":{"default":"https://cdn.freshful.ro/media/cache/freshful_large/a3/9f/08a40988598ea24102002ff3d6b4.jpg"},"extralarge":{"default":"https://cdn.freshful.ro/media/cache/sylius_shop_product_original/a3/9f/08a40988598ea24102002ff3d6b4.jpg"}},"label":{"text":"-6%","backgroundColor":"#FF9903","textColor":"#FFFFFF"},"tags":[{"type":"vegan","text":"Vegan","icon":"https://cdn.freshful.ro/assets/product_tags/vegan.svg","iconPng":"https://cdn.freshful.ro/assets/product_tags/vegan.png","backgroundColor":"#ECF9F8","textColor":"#33A39C"},{"type":"NoGluten","text":"Fara gluten","icon":"https://cdn.freshful.ro/assets/product_tags/fara_gluten.svg","iconPng":"https://cdn.freshful.ro/assets/product_tags/fara_gluten.png","backgroundColor":"#FFF2E5","textColor":"#F07900"},{"type":"LactoseFree","text":"Fara lactoza","icon":"https://cdn.freshful.ro/assets/product_tags/fara_lactoza.svg","iconPng":"https://cdn.freshful.ro/assets/product_tags/fara_lactoza.png","backgroundColor":"#E9F7FB","textColor":"#25A6D0"}],"isAvailable":true,"maxAvailableQuantity":100,"maxAllowedQuantity":100,"breadcrumbs":[{"code":"17","name":"Produse vegetale","slug":"produse-vegetale"},{"code":"1702","name":"Băuturi, creme și grăsimi vegetale","slug":"bauturi-creme-si-grasimi-vegetale"},{"code":"170201","name":"Creme, tofu și tartinabile vegetale","slug":"creme-tofu-si-tartinabile-vegetale"},{"code":"100064169","name":"Pastă tartinabilă de caju cu ceapă şi mărar 200g","slug":"100064169-filgud-pasta-tartinabila-de-caju-cu-ceapa-si-marar-200g"}],"activePromotion":{"code":"special-produse-vegane-mar23","name":"Preț redus","targetQuantity":null},"saveMe":null,"labels":[{"type":"v1","items":[{"text":"-6%","backgroundColor":"#FF9903","textColor":"#FFFFFF"}]}],"geniusPrice":null,"geniusUnitPricePerLabel":null,"banner":{"text":"Super preț","textColor":"#FF0000","bgColor":"#FFF2EC","icon":null,"link":"https://www.freshful.ro/oferte/special-produse-vegane-mar23","type":"promo","analyticsEventType":"select_promotion","analyticsEventPayload":{"promotion_id":"special-produse-vegane-mar23","promotion_name":"Și bun, și de post"}},"discountLabel":"Economisești 6%","geniusDiscountLabel":null,"badge":null},{"code":"100004425","variantCode":"5411188110835","name":"Băutură din migdale 1l","slug":"100004425-alpro-bautura-din-migdale-1l","unitPriceLabel":"14,49 Lei/l","brand":"Alpro","brandCode":"31","brandFilterCode":"alpro-b25","sku":"100004425","price":14.49,"originalPrice":16.89,"currencyCode":"RON","currency":"Lei","image":{"thumbnail":{"default":"https://cdn.freshful.ro/media/cache/sylius_shop_product_thumbnail/92/52/b80931447d28bfca2fc897626af6.jpg"},"large":{"default":"https://cdn.freshful.ro/media/cache/freshful_large/92/52/b80931447d28bfca2fc897626af6.jpg"},"extralarge":{"default":"https://cdn.freshful.ro/media/cache/sylius_shop_product_original/92/52/b80931447d28bfca2fc897626af6.jpg"}},"label":{"text":"-14%","backgroundColor":"#FF9903","textColor":"#FFFFFF"},"tags":[{"type":"vegan","text":"Vegan","icon":"https://cdn.freshful.ro/assets/product_tags/vegan.svg","iconPng":"https://cdn.freshful.ro/assets/product_tags/vegan.png","backgroundColor":"#ECF9F8","textColor":"#33A39C"},{"type":"NoGluten","text":"Fara gluten","icon":"https://cdn.freshful.ro/assets/product_tags/fara_gluten.svg","iconPng":"https://cdn.freshful.ro/assets/product_tags/fara_gluten.png","backgroundColor":"#FFF2E5","textColor":"#F07900"},{"type":"LactoseFree","text":"Fara lactoza","icon":"https://cdn.freshful.ro/assets/product_tags/fara_lactoza.svg","iconPng":"https://cdn.freshful.ro/assets/product_tags/fara_lactoza.png","backgroundColor":"#E9F7FB","textColor":"#25A6D0"}],"isAvailable":true,"maxAvailableQuantity":32,"maxAllowedQuantity":100,"breadcrumbs":[{"code":"17","name":"Produse vegetale","slug":"produse-vegetale"},{"code":"1702","name":"Băuturi, creme și grăsimi vegetale","slug":"bauturi-creme-si-grasimi-vegetale"},{"code":"170203","name":"Băuturi vegetale UHT","slug":"bauturi-vegetale-uht"},{"code":"100004425","name":"Băutură din migdale 1l","slug":"100004425-alpro-bautura-din-migdale-1l"}],"activePromotion":{"code":"bunatatile-saptamanii-cw0923","name":"Preț redus","targetQuantity":null},"saveMe":null,"labels":[{"type":"v1","items":[{"text":"-14%","backgroundColor":"#FF9903","textColor":"#FFFFFF"}]}],"geniusPrice":null,"geniusUnitPricePerLabel":null,"banner":{"text":"Super preț","textColor":"#FF0000","bgColor":"#FFF2EC","icon":null,"link":"https://www.freshful.ro/oferte/bunatatile-saptamanii-cw0923","type":"promo","analyticsEventType":"select_promotion","analyticsEventPayload":{"promotion_id":"bunatatile-saptamanii-cw0923","promotion_name":"Oferta proaspătă a săptămânii"}},"discountLabel":"Economisești 14%","geniusDiscountLabel":null,"badge":null},{"code":"100063197","variantCode":"100063197","name":"Grăsime tartinabilă eco vegană 200g","slug":"100063197-naturli-grasime-tartinabila-eco-vegana-200g","unitPriceLabel":"59,95 Lei/kg","brand":"Naturli'","brandCode":"946","brandFilterCode":"naturli-b946","sku":"100063197","price":11.99,"originalPrice":16.49,"currencyCode":"RON","currency":"Lei","image":{"thumbnail":{"default":"https://cdn.freshful.ro/media/cache/sylius_shop_product_thumbnail/0e/13/e9f17f9bd8f7cc5b6c52bf4e7403.jpg"},"large":{"default":"https://cdn.freshful.ro/media/cache/freshful_large/0e/13/e9f17f9bd8f7cc5b6c52bf4e7403.jpg"},"extralarge":{"default":"https://cdn.freshful.ro/media/cache/sylius_shop_product_original/0e/13/e9f17f9bd8f7cc5b6c52bf4e7403.jpg"}},"label":{"text":"-27%","backgroundColor":"#FF9903","textColor":"#FFFFFF"},"tags":[{"type":"vegan","text":"Vegan","icon":"https://cdn.freshful.ro/assets/product_tags/vegan.svg","iconPng":"https://cdn.freshful.ro/assets/product_tags/vegan.png","backgroundColor":"#ECF9F8","textColor":"#33A39C"},{"type":"Eco","text":"Eco","icon":"https://cdn.freshful.ro/assets/product_tags/eco.svg","iconPng":"https://cdn.freshful.ro/assets/product_tags/eco.png","backgroundColor":"#EFFBE4","textColor":"#66BB1B"}],"isAvailable":true,"maxAvailableQuantity":100,"maxAllowedQuantity":100,"breadcrumbs":[{"code":"17","name":"Produse vegetale","slug":"produse-vegetale"},{"code":"1702","name":"Băuturi, creme și grăsimi vegetale","slug":"bauturi-creme-si-grasimi-vegetale"},{"code":"170201","name":"Creme, tofu și tartinabile vegetale","slug":"creme-tofu-si-tartinabile-vegetale"},{"code":"100063197","name":"Grăsime tartinabilă eco vegană 200g","slug":"100063197-naturli-grasime-tartinabila-eco-vegana-200g"}],"activePromotion":{"code":"special-produse-vegane-mar23","name":"Preț redus","targetQuantity":null},"saveMe":null,"labels":[{"type":"v1","items":[{"text":"-27%","backgroundColor":"#FF9903","textColor":"#FFFFFF"}]}],"geniusPrice":null,"geniusUnitPricePerLabel":null,"banner":{"text":"Super preț","textColor":"#FF0000","bgColor":"#FFF2EC","icon":null,"link":"https://www.freshful.ro/oferte/special-produse-vegane-mar23","type":"promo","analyticsEventType":"select_promotion","analyticsEventPayload":{"promotion_id":"special-produse-vegane-mar23","promotion_name":"Și bun, și de post"}},"discountLabel":"Economisești 27%","geniusDiscountLabel":null,"badge":null},{"code":"100032206","variantCode":"5941866617214","name":"Specialitate vegetală bloc 200g","slug":"100032206-verdino-specialitate-vegetala-bloc-200g","unitPriceLabel":"71,75 Lei/kg","brand":"Verdino","brandCode":"206","brandFilterCode":"verdino-b207","sku":"100032206","price":14.35,"originalPrice":15.99,"currencyCode":"RON","currency":"Lei","image":{"thumbnail":{"default":"https://cdn.freshful.ro/media/cache/sylius_shop_product_thumbnail/db/27/125bbb50ef27cfed28fe186bbf2f.jpg"},"large":{"default":"https://cdn.freshful.ro/media/cache/freshful_large/db/27/125bbb50ef27cfed28fe186bbf2f.jpg"},"extralarge":{"default":"https://cdn.freshful.ro/media/cache/sylius_shop_product_original/db/27/125bbb50ef27cfed28fe186bbf2f.jpg"}},"label":{"text":"-10%","backgroundColor":"#FF9903","textColor":"#FFFFFF"},"tags":[{"type":"vegan","text":"Vegan","icon":"https://cdn.freshful.ro/assets/product_tags/vegan.svg","iconPng":"https://cdn.freshful.ro/assets/product_tags/vegan.png","backgroundColor":"#ECF9F8","textColor":"#33A39C"},{"type":"LactoseFree","text":"Fara lactoza","icon":"https://cdn.freshful.ro/assets/product_tags/fara_lactoza.svg","iconPng":"https://cdn.freshful.ro/assets/product_tags/fara_lactoza.png","backgroundColor":"#E9F7FB","textColor":"#25A6D0"}],"isAvailable":true,"maxAvailableQuantity":19,"maxAllowedQuantity":100,"breadcrumbs":[{"code":"17","name":"Produse vegetale","slug":"produse-vegetale"},{"code":"1702","name":"Băuturi, creme și grăsimi vegetale","slug":"bauturi-creme-si-grasimi-vegetale"},{"code":"170202","name":"Grăsimi vegetale și produse fermentate","slug":"grasimi-vegetale-si-produse-fermentate"},{"code":"100032206","name":"Specialitate vegetală bloc 200g","slug":"100032206-verdino-specialitate-vegetala-bloc-200g"}],"activePromotion":{"code":"freshful-top-deals-2023","name":"Preț redus","targetQuantity":null},"saveMe":null,"labels":[{"type":"v1","items":[{"text":"-10%","backgroundColor":"#FF9903","textColor":"#FFFFFF"}]}],"geniusPrice":null,"geniusUnitPricePerLabel":null,"banner":{"text":"Super preț","textColor":"#FF0000","bgColor":"#FFF2EC","icon":null,"link":"https://www.freshful.ro/oferte/freshful-top-deals-2023","type":"promo","analyticsEventType":"select_promotion","analyticsEventPayload":{"promotion_id":"freshful-top-deals-2023","promotion_name":"Profită de Top Deals"}},"discountLabel":"Economisești 10%","geniusDiscountLabel":null,"badge":null},{"code":"100138292","variantCode":"100138292","name":"Produs tartinabil din migdale cu verdeață 150g","slug":"100138292-simply-v-produs-tartinabil-din-migdale-cu-verdeata-150g","unitPriceLabel":"99,93 Lei/kg","brand":"Simply V","brandCode":"2635","brandFilterCode":"simply-v-b2639","sku":"100138292","price":14.99,"originalPrice":17.49,"currencyCode":"RON","currency":"Lei","image":{"thumbnail":{"default":"https://cdn.freshful.ro/media/cache/sylius_shop_product_thumbnail/4b/40/490f14085d3318b40dd4fd50fc4f.jpg"},"large":{"default":"https://cdn.freshful.ro/media/cache/freshful_large/4b/40/490f14085d3318b40dd4fd50fc4f.jpg"},"extralarge":{"default":"https://cdn.freshful.ro/media/cache/sylius_shop_product_original/4b/40/490f14085d3318b40dd4fd50fc4f.jpg"}},"label":{"text":"-14%","backgroundColor":"#FF9903","textColor":"#FFFFFF"},"tags":[{"type":"vegan","text":"Vegan","icon":"https://cdn.freshful.ro/assets/product_tags/vegan.svg","iconPng":"https://cdn.freshful.ro/assets/product_tags/vegan.png","backgroundColor":"#ECF9F8","textColor":"#33A39C"}],"isAvailable":true,"maxAvailableQuantity":57,"maxAllowedQuantity":100,"breadcrumbs":[{"code":"17","name":"Produse vegetale","slug":"produse-vegetale"},{"code":"1702","name":"Băuturi, creme și grăsimi vegetale","slug":"bauturi-creme-si-grasimi-vegetale"},{"code":"170201","name":"Creme, tofu și tartinabile vegetale","slug":"creme-tofu-si-tartinabile-vegetale"},{"code":"100138292","name":"Produs tartinabil din migdale cu verdeață 150g","slug":"100138292-simply-v-produs-tartinabil-din-migdale-cu-verdeata-150g"}],"activePromotion":{"code":"bunatatile-saptamanii-cw0923","name":"Preț redus","targetQuantity":null},"saveMe":null,"labels":[{"type":"v1","items":[{"text":"-14%","backgroundColor":"#FF9903","textColor":"#FFFFFF"}]}],"geniusPrice":null,"geniusUnitPricePerLabel":null,"banner":{"text":"Super preț","textColor":"#FF0000","bgColor":"#FFF2EC","icon":null,"link":"https://www.freshful.ro/oferte/bunatatile-saptamanii-cw0923","type":"promo","analyticsEventType":"select_promotion","analyticsEventPayload":{"promotion_id":"bunatatile-saptamanii-cw0923","promotion_name":"Oferta proaspătă a săptămânii"}},"discountLabel":"Economisești 14%","geniusDiscountLabel":null,"badge":null},{"code":"100141535","variantCode":"100141535","name":"Budincă de ciocolată vegană din cremă de nuci de cocos 300g","slug":"100141535-muller-budinca-de-ciocolata-vegana-din-crema-de-nuci-de-cocos-300g","unitPriceLabel":"34,97 Lei/kg","brand":"Müller","brandCode":"258","brandFilterCode":"muller-b259","sku":"100141535","price":10.49,"originalPrice":12.99,"currencyCode":"RON","currency":"Lei","image":{"thumbnail":{"default":"https://cdn.freshful.ro/media/cache/sylius_shop_product_thumbnail/b5/08/5ac784e7a6b0cee1d32cd5b3d579.jpg"},"large":{"default":"https://cdn.freshful.ro/media/cache/freshful_large/b5/08/5ac784e7a6b0cee1d32cd5b3d579.jpg"},"extralarge":{"default":"https://cdn.freshful.ro/media/cache/sylius_shop_product_original/b5/08/5ac784e7a6b0cee1d32cd5b3d579.jpg"}},"label":{"text":"-19%","backgroundColor":"#FF9903","textColor":"#FFFFFF"},"tags":[{"type":"vegan","text":"Vegan","icon":"https://cdn.freshful.ro/assets/product_tags/vegan.svg","iconPng":"https://cdn.freshful.ro/assets/product_tags/vegan.png","backgroundColor":"#ECF9F8","textColor":"#33A39C"}],"isAvailable":true,"maxAvailableQuantity":70,"maxAllowedQuantity":100,"breadcrumbs":[{"code":"17","name":"Produse vegetale","slug":"produse-vegetale"},{"code":"1702","name":"Băuturi, creme și grăsimi vegetale","slug":"bauturi-creme-si-grasimi-vegetale"},{"code":"170204","name":"Băuturi vegetale și desert","slug":"bauturi-vegetale-si-desert"},{"code":"100141535","name":"Budincă de ciocolată vegană din cremă de nuci de cocos 300g","slug":"100141535-muller-budinca-de-ciocolata-vegana-din-crema-de-nuci-de-cocos-300g"}],"activePromotion":{"code":"special-produse-vegane-mar23","name":"Preț redus","targetQuantity":null},"saveMe":null,"labels":[{"type":"v1","items":[{"text":"-19%","backgroundColor":"#FF9903","textColor":"#FFFFFF"}]}],"geniusPrice":null,"geniusUnitPricePerLabel":null,"banner":{"text":"Super preț","textColor":"#FF0000","bgColor":"#FFF2EC","icon":null,"link":"https://www.freshful.ro/oferte/special-produse-vegane-mar23","type":"promo","analyticsEventType":"select_promotion","analyticsEventPayload":{"promotion_id":"special-produse-vegane-mar23","promotion_name":"Și bun, și de post"}},"discountLabel":"Economisești 19%","geniusDiscountLabel":null,"badge":null},{"code":"100004421","variantCode":"5411188543381","name":"Băutură din soia Original 1l","slug":"100004421-alpro-bautura-din-soia-original-1l","unitPriceLabel":"11,99 Lei/l","brand":"Alpro","brandCode":"31","brandFilterCode":"alpro-b25","sku":"100004421","price":11.99,"originalPrice":14.49,"currencyCode":"RON","currency":"Lei","image":{"thumbnail":{"default":"https://cdn.freshful.ro/media/cache/sylius_shop_product_thumbnail/de/ea/123399398bfb7b99db56196e74d1.jpg"},"large":{"default":"https://cdn.freshful.ro/media/cache/freshful_large/de/ea/123399398bfb7b99db56196e74d1.jpg"},"extralarge":{"default":"https://cdn.freshful.ro/media/cache/sylius_shop_product_original/de/ea/123399398bfb7b99db56196e74d1.jpg"}},"label":{"text":"-17%","backgroundColor":"#FF9903","textColor":"#FFFFFF"},"tags":[{"type":"vegan","text":"Vegan","icon":"https://cdn.freshful.ro/assets/product_tags/vegan.svg","iconPng":"https://cdn.freshful.ro/assets/product_tags/vegan.png","backgroundColor":"#ECF9F8","textColor":"#33A39C"},{"type":"NoGluten","text":"Fara gluten","icon":"https://cdn.freshful.ro/assets/product_tags/fara_gluten.svg","iconPng":"https://cdn.freshful.ro/assets/product_tags/fara_gluten.png","backgroundColor":"#FFF2E5","textColor":"#F07900"},{"type":"LactoseFree","text":"Fara lactoza","icon":"https://cdn.freshful.ro/assets/product_tags/fara_lactoza.svg","iconPng":"https://cdn.freshful.ro/assets/product_tags/fara_lactoza.png","backgroundColor":"#E9F7FB","textColor":"#25A6D0"}],"isAvailable":true,"maxAvailableQuantity":100,"maxAllowedQuantity":100,"breadcrumbs":[{"code":"17","name":"Produse vegetale","slug":"produse-vegetale"},{"code":"1702","name":"Băuturi, creme și grăsimi vegetale","slug":"bauturi-creme-si-grasimi-vegetale"},{"code":"170203","name":"Băuturi vegetale UHT","slug":"bauturi-vegetale-uht"},{"code":"100004421","name":"Băutură din soia Original 1l","slug":"100004421-alpro-bautura-din-soia-original-1l"}],"activePromotion":{"code":"bunatatile-saptamanii-cw0923","name":"Preț redus","targetQuantity":null},"saveMe":null,"labels":[{"type":"v1","items":[{"text":"-17%","backgroundColor":"#FF9903","textColor":"#FFFFFF"}]}],"geniusPrice":null,"geniusUnitPricePerLabel":null,"banner":{"text":"Super preț","textColor":"#FF0000","bgColor":"#FFF2EC","icon":null,"link":"https://www.freshful.ro/oferte/bunatatile-saptamanii-cw0923","type":"promo","analyticsEventType":"select_promotion","analyticsEventPayload":{"promotion_id":"bunatatile-saptamanii-cw0923","promotion_name":"Oferta proaspătă a săptămânii"}},"discountLabel":"Economisești 17%","geniusDiscountLabel":null,"badge":null},{"code":"100138381","variantCode":"100138381","name":"Desert de orez vegan cu zmeură 160g","slug":"100138381-muller-desert-de-orez-vegan-cu-zmeura-160g","unitPriceLabel":"34,31 Lei/kg","brand":"Müller","brandCode":"258","brandFilterCode":"muller-b259","sku":"100138381","price":5.49,"originalPrice":6.99,"currencyCode":"RON","currency":"Lei","image":{"thumbnail":{"default":"https://cdn.freshful.ro/media/cache/sylius_shop_product_thumbnail/df/c9/9e726d02148fa36f21d1b284ea88.jpg"},"large":{"default":"https://cdn.freshful.ro/media/cache/freshful_large/df/c9/9e726d02148fa36f21d1b284ea88.jpg"},"extralarge":{"default":"https://cdn.freshful.ro/media/cache/sylius_shop_product_original/df/c9/9e726d02148fa36f21d1b284ea88.jpg"}},"label":{"text":"-21%","backgroundColor":"#FF9903","textColor":"#FFFFFF"},"tags":[{"type":"vegan","text":"Vegan","icon":"https://cdn.freshful.ro/assets/product_tags/vegan.svg","iconPng":"https://cdn.freshful.ro/assets/product_tags/vegan.png","backgroundColor":"#ECF9F8","textColor":"#33A39C"}],"isAvailable":true,"maxAvailableQuantity":35,"maxAllowedQuantity":100,"breadcrumbs":[{"code":"17","name":"Produse vegetale","slug":"produse-vegetale"},{"code":"1702","name":"Băuturi, creme și grăsimi vegetale","slug":"bauturi-creme-si-grasimi-vegetale"},{"code":"170204","name":"Băuturi vegetale și desert","slug":"bauturi-vegetale-si-desert"},{"code":"100138381","name":"Desert de orez vegan cu zmeură 160g","slug":"100138381-muller-desert-de-orez-vegan-cu-zmeura-160g"}],"activePromotion":{"code":"special-produse-vegane-mar23","name":"Preț redus","targetQuantity":null},"saveMe":null,"labels":[{"type":"v1","items":[{"text":"-21%","backgroundColor":"#FF9903","textColor":"#FFFFFF"}]}],"geniusPrice":null,"geniusUnitPricePerLabel":null,"banner":{"text":"Super preț","textColor":"#FF0000","bgColor":"#FFF2EC","icon":null,"link":"https://www.freshful.ro/oferte/special-produse-vegane-mar23","type":"promo","analyticsEventType":"select_promotion","analyticsEventPayload":{"promotion_id":"special-produse-vegane-mar23","promotion_name":"Și bun, și de post"}},"discountLabel":"Economisești 21%","geniusDiscountLabel":null,"badge":null},{"code":"100004428","variantCode":"5411188115366","name":"Băutură din ovăz original 1l","slug":"100004428-alpro-bautura-din-ovaz-original-1l","unitPriceLabel":"14,49 Lei/l","brand":"Alpro","brandCode":"31","brandFilterCode":"alpro-b25","sku":"100004428","price":14.49,"originalPrice":17.99,"currencyCode":"RON","currency":"Lei","image":{"thumbnail":{"default":"https://cdn.freshful.ro/media/cache/sylius_shop_product_thumbnail/fc/bc/302f57cee5370c0a8fc1b02fac03.jpg"},"large":{"default":"https://cdn.freshful.ro/media/cache/freshful_large/fc/bc/302f57cee5370c0a8fc1b02fac03.jpg"},"extralarge":{"default":"https://cdn.freshful.ro/media/cache/sylius_shop_product_original/fc/bc/302f57cee5370c0a8fc1b02fac03.jpg"}},"label":{"text":"-19%","backgroundColor":"#FF9903","textColor":"#FFFFFF"},"tags":[{"type":"vegan","text":"Vegan","icon":"https://cdn.freshful.ro/assets/product_tags/vegan.svg","iconPng":"https://cdn.freshful.ro/assets/product_tags/vegan.png","backgroundColor":"#ECF9F8","textColor":"#33A39C"},{"type":"LactoseFree","text":"Fara lactoza","icon":"https://cdn.freshful.ro/assets/product_tags/fara_lactoza.svg","iconPng":"https://cdn.freshful.ro/assets/product_tags/fara_lactoza.png","backgroundColor":"#E9F7FB","textColor":"#25A6D0"}],"isAvailable":true,"maxAvailableQuantity":77,"maxAllowedQuantity":100,"breadcrumbs":[{"code":"17","name":"Produse vegetale","slug":"produse-vegetale"},{"code":"1702","name":"Băuturi, creme și grăsimi vegetale","slug":"bauturi-creme-si-grasimi-vegetale"},{"code":"170203","name":"Băuturi vegetale UHT","slug":"bauturi-vegetale-uht"},{"code":"100004428","name":"Băutură din ovăz original 1l","slug":"100004428-alpro-bautura-din-ovaz-original-1l"}],"activePromotion":{"code":"bunatatile-saptamanii-cw0923","name":"Preț redus","targetQuantity":null},"saveMe":null,"labels":[{"type":"v1","items":[{"text":"-19%","backgroundColor":"#FF9903","textColor":"#FFFFFF"}]}],"geniusPrice":null,"geniusUnitPricePerLabel":null,"banner":{"text":"Super preț","textColor":"#FF0000","bgColor":"#FFF2EC","icon":null,"link":"https://www.freshful.ro/oferte/bunatatile-saptamanii-cw0923","type":"promo","analyticsEventType":"select_promotion","analyticsEventPayload":{"promotion_id":"bunatatile-saptamanii-cw0923","promotion_name":"Oferta proaspătă a săptămânii"}},"discountLabel":"Economisești 19%","geniusDiscountLabel":null,"badge":null},{"code":"100145254","variantCode":"100145254","name":"Specialitate vegetală din nuci de caju rasă eco 100g","slug":"100145254-rawckers-specialitate-vegetala-din-nuci-de-caju-rasa-eco-100g","unitPriceLabel":"179,9 Lei/kg","brand":"Rawckers","brandCode":"220","brandFilterCode":"rawckers-b221","sku":"100145254","price":17.99,"originalPrice":19.49,"currencyCode":"RON","currency":"Lei","image":{"thumbnail":{"default":"https://cdn.freshful.ro/media/cache/sylius_shop_product_thumbnail/b9/ec/6c5dd7e111cc5d1a97fbc298b5c8.jpg"},"large":{"default":"https://cdn.freshful.ro/media/cache/freshful_large/b9/ec/6c5dd7e111cc5d1a97fbc298b5c8.jpg"},"extralarge":{"default":"https://cdn.freshful.ro/media/cache/sylius_shop_product_original/b9/ec/6c5dd7e111cc5d1a97fbc298b5c8.jpg"}},"label":{"text":"-7%","backgroundColor":"#FF9903","textColor":"#FFFFFF"},"tags":[{"type":"Eco","text":"Eco","icon":"https://cdn.freshful.ro/assets/product_tags/eco.svg","iconPng":"https://cdn.freshful.ro/assets/product_tags/eco.png","backgroundColor":"#EFFBE4","textColor":"#66BB1B"},{"type":"vegan","text":"Vegan","icon":"https://cdn.freshful.ro/assets/product_tags/vegan.svg","iconPng":"https://cdn.freshful.ro/assets/product_tags/vegan.png","backgroundColor":"#ECF9F8","textColor":"#33A39C"},{"type":"NoGluten","text":"Fara gluten","icon":"https://cdn.freshful.ro/assets/product_tags/fara_gluten.svg","iconPng":"https://cdn.freshful.ro/assets/product_tags/fara_gluten.png","backgroundColor":"#FFF2E5","textColor":"#F07900"},{"type":"LactoseFree","text":"Fara lactoza","icon":"https://cdn.freshful.ro/assets/product_tags/fara_lactoza.svg","iconPng":"https://cdn.freshful.ro/assets/product_tags/fara_lactoza.png","backgroundColor":"#E9F7FB","textColor":"#25A6D0"},{"type":"NoPreservatives","text":"Fara conservanti","icon":"https://cdn.freshful.ro/assets/product_tags/fara_conservanti.svg","iconPng":"https://cdn.freshful.ro/assets/product_tags/fara_conservanti.png","backgroundColor":"#F0F2FF","textColor":"#7889DD"}],"isAvailable":true,"maxAvailableQuantity":23,"maxAllowedQuantity":100,"breadcrumbs":[{"code":"17","name":"Produse vegetale","slug":"produse-vegetale"},{"code":"1702","name":"Băuturi, creme și grăsimi vegetale","slug":"bauturi-creme-si-grasimi-vegetale"},{"code":"170202","name":"Grăsimi vegetale și produse fermentate","slug":"grasimi-vegetale-si-produse-fermentate"},{"code":"100145254","name":"Specialitate vegetală din nuci de caju rasă eco 100g","slug":"100145254-rawckers-specialitate-vegetala-din-nuci-de-caju-rasa-eco-100g"}],"activePromotion":{"code":"special-produse-vegane-mar23","name":"Preț redus","targetQuantity":null},"saveMe":null,"labels":[{"type":"v1","items":[{"text":"-7%","backgroundColor":"#FF9903","textColor":"#FFFFFF"}]}],"geniusPrice":null,"geniusUnitPricePerLabel":null,"banner":{"text":"Super preț","textColor":"#FF0000","bgColor":"#FFF2EC","icon":null,"link":"https://www.freshful.ro/oferte/special-produse-vegane-mar23","type":"promo","analyticsEventType":"select_promotion","analyticsEventPayload":{"promotion_id":"special-produse-vegane-mar23","promotion_name":"Și bun, și de post"}},"discountLabel":"Economisești 7%","geniusDiscountLabel":null,"badge":null}],"filters":{"countSelected":0,"items":[{"code":"promotion","name":"Promoții","countSelected":0,"values":[{"code":"bunatatile-saptamanii-cw0923","name":"Oferta proaspătă a săptămânii","isSelected":false,"count":17},{"code":"freshful-top-deals-2023","name":"Profită de Top Deals","isSelected":false,"count":1},{"code":"special-produse-vegane-mar23","name":"Și bun, și de post","isSelected":false,"count":31}]},{"code":"brand","name":"Brand","countSelected":0,"values":[{"code":"alpro-b25","name":"Alpro","isSelected":false,"count":51},{"code":"berief-b400","name":"Berief","isSelected":false,"count":8},{"code":"cheese-the-queen-b377","name":"CHEESE the QUEEN","isSelected":false,"count":6},{"code":"cucina-d-oro-b467","name":"Cucina d'oro","isSelected":false,"count":3},{"code":"delishu-b376","name":"Delishu","isSelected":false,"count":3},{"code":"dr-oetker-b51","name":"Dr. Oetker","isSelected":false,"count":2},{"code":"filgud-b964","name":"Filgud","isSelected":false,"count":6},{"code":"holland-b947","name":"Holland","isSelected":false,"count":1},{"code":"inedit-b57","name":"Inedit","isSelected":false,"count":5},{"code":"joya-b466","name":"Joya","isSelected":false,"count":11},{"code":"lacto-food-b378","name":"Lacto Food","isSelected":false,"count":1},{"code":"linco-b948","name":"Linco","isSelected":false,"count":3},{"code":"mediterranea-b1769","name":"Mediterranea","isSelected":false,"count":3},{"code":"meggle-b498","name":"Meggle","isSelected":false,"count":8},{"code":"muller-b259","name":"Müller","isSelected":false,"count":8},{"code":"naturli-b946","name":"Naturli'","isSelected":false,"count":2},{"code":"nomomoo-b366","name":"NoMoMoo","isSelected":false,"count":9},{"code":"nurishh-b2520","name":"Nurishh","isSelected":false,"count":2},{"code":"olympus-b40","name":"Olympus","isSelected":false,"count":10},{"code":"rawckers-b221","name":"Rawckers","isSelected":false,"count":22},{"code":"simply-v-b2639","name":"Simply V","isSelected":false,"count":6},{"code":"the-bridge-b39","name":"The Bridge","isSelected":false,"count":8},{"code":"unirea-b949","name":"Unirea","isSelected":false,"count":2},{"code":"valsoia-b1666","name":"Valsoia","isSelected":false,"count":3},{"code":"vegan-style-b852","name":"Vegan Style","isSelected":false,"count":6},{"code":"verdino-b207","name":"Verdino","isSelected":false,"count":3},{"code":"voila-b1668","name":"Voilà","isSelected":false,"count":6}]},{"code":"diet_lifestyle","name":"Dietă și lifestyle","countSelected":0,"values":[{"code":"eco-a83","name":"Eco","isSelected":false,"count":59},{"code":"fara-conservanti-a37","name":"Fara conservanti","isSelected":false,"count":12},{"code":"fara-gluten-a16","name":"Fara gluten","isSelected":false,"count":111},{"code":"fara-lactoza-a38","name":"Fara lactoza","isSelected":false,"count":115},{"code":"fara-zahar-adaugat-a29","name":"Fara zahar adaugat","isSelected":false,"count":34},{"code":"made-in-romania-a85","name":"Made In Romania","isSelected":false,"count":2},{"code":"vegan-a24","name":"Vegan","isSelected":false,"count":153},{"code":"vegetarian-a28","name":"Vegetarian","isSelected":false,"count":7}]}]},"orderBy":[{"field":"price","direction":"asc","name":"Preț crescător","isSelected":false},{"field":"price","direction":"desc","name":"Preț descrescător","isSelected":false},{"field":"popularity","direction":"desc","name":"Cele mai populare","isSelected":true},{"field":"category","direction":"asc","name":"Categorie","isSelected":false}],"metaTitle":"Băuturi, creme și grăsimi vegetale - Gamă variată","metaDescription":"Vrei Băuturi, creme și grăsimi vegetale? Alege dintr-o gamă variată. Comanzi simplu și ai livrare rapidă, calitate și prospețime. Hai pe Freshful.ro","metaKeywords":null,"banners":[]}}