{"type":"subcategory","payload":{"analyticsListId":"category_bauturi-vegetale-si-desert","analyticsListName":"Category - Băuturi vegetale și desert","name":"Băuturi vegetale și desert","slug":"bauturi-vegetale-si-desert","image":null,"breadcrumbs":[{"code":"17","name":"Produse vegetale","slug":"produse-vegetale"},{"code":"1702","name":"Băuturi, creme și grăsimi vegetale","slug":"bauturi-creme-si-grasimi-vegetale"},{"code":"170204","name":"Băuturi vegetale și desert","slug":"bauturi-vegetale-si-desert"}],"slots":[],"page":1,"limit":10,"pages":4,"count":35,"siblings":[{"name":"Carne și specialități vegetale","slug":"carne-si-specialitati-vegetale","selected":false},{"name":"Băuturi, creme și grăsimi vegetale","slug":"bauturi-creme-si-grasimi-vegetale","selected":true}],"children":[{"name":"Toate produsele","slug":"bauturi-creme-si-grasimi-vegetale","selected":false},{"name":"Creme, tofu și tartinabile vegetale","slug":"creme-tofu-si-tartinabile-vegetale","selected":false},{"name":"Grăsimi vegetale și produse fermentate","slug":"grasimi-vegetale-si-produse-fermentate","selected":false},{"name":"Băuturi vegetale UHT","slug":"bauturi-vegetale-uht","selected":false},{"name":"Băuturi vegetale și desert","slug":"bauturi-vegetale-si-desert","selected":true}],"products":[{"code":"100141535","variantCode":"100141535","name":"Budincă de ciocolată vegană din cremă de nuci de cocos 300g","slug":"100141535-muller-budinca-de-ciocolata-vegana-din-crema-de-nuci-de-cocos-300g","unitPriceLabel":"34,97 Lei/kg","brand":"Müller","brandCode":"258","brandFilterCode":"muller-b259","sku":"100141535","price":10.49,"originalPrice":12.99,"currencyCode":"RON","currency":"Lei","image":{"thumbnail":{"default":"https://cdn.freshful.ro/media/cache/sylius_shop_product_thumbnail/b5/08/5ac784e7a6b0cee1d32cd5b3d579.jpg"},"large":{"default":"https://cdn.freshful.ro/media/cache/freshful_large/b5/08/5ac784e7a6b0cee1d32cd5b3d579.jpg"},"extralarge":{"default":"https://cdn.freshful.ro/media/cache/sylius_shop_product_original/b5/08/5ac784e7a6b0cee1d32cd5b3d579.jpg"}},"label":{"text":"-19%","backgroundColor":"#FF9903","textColor":"#FFFFFF"},"tags":[{"type":"vegan","text":"Vegan","icon":"https://cdn.freshful.ro/assets/product_tags/vegan.svg","iconPng":"https://cdn.freshful.ro/assets/product_tags/vegan.png","backgroundColor":"#ECF9F8","textColor":"#33A39C"}],"isAvailable":true,"maxAvailableQuantity":70,"maxAllowedQuantity":100,"breadcrumbs":[{"code":"17","name":"Produse vegetale","slug":"produse-vegetale"},{"code":"1702","name":"Băuturi, creme și grăsimi vegetale","slug":"bauturi-creme-si-grasimi-vegetale"},{"code":"170204","name":"Băuturi vegetale și desert","slug":"bauturi-vegetale-si-desert"},{"code":"100141535","name":"Budincă de ciocolată vegană din cremă de nuci de cocos 300g","slug":"100141535-muller-budinca-de-ciocolata-vegana-din-crema-de-nuci-de-cocos-300g"}],"activePromotion":{"code":"special-produse-vegane-mar23","name":"Preț redus","targetQuantity":null},"saveMe":null,"labels":[{"type":"v1","items":[{"text":"-19%","backgroundColor":"#FF9903","textColor":"#FFFFFF"}]}],"geniusPrice":null,"geniusUnitPricePerLabel":null,"banner":{"text":"Super preț","textColor":"#FF0000","bgColor":"#FFF2EC","icon":null,"link":"https://www.freshful.ro/oferte/special-produse-vegane-mar23","type":"promo","analyticsEventType":"select_promotion","analyticsEventPayload":{"promotion_id":"special-produse-vegane-mar23","promotion_name":"Și bun, și de post"}},"discountLabel":"Economisești 19%","geniusDiscountLabel":null,"badge":null},{"code":"100138381","variantCode":"100138381","name":"Desert de orez vegan cu zmeură 160g","slug":"100138381-muller-desert-de-orez-vegan-cu-zmeura-160g","unitPriceLabel":"34,31 Lei/kg","brand":"Müller","brandCode":"258","brandFilterCode":"muller-b259","sku":"100138381","price":5.49,"originalPrice":6.99,"currencyCode":"RON","currency":"Lei","image":{"thumbnail":{"default":"https://cdn.freshful.ro/media/cache/sylius_shop_product_thumbnail/df/c9/9e726d02148fa36f21d1b284ea88.jpg"},"large":{"default":"https://cdn.freshful.ro/media/cache/freshful_large/df/c9/9e726d02148fa36f21d1b284ea88.jpg"},"extralarge":{"default":"https://cdn.freshful.ro/media/cache/sylius_shop_product_original/df/c9/9e726d02148fa36f21d1b284ea88.jpg"}},"label":{"text":"-21%","backgroundColor":"#FF9903","textColor":"#FFFFFF"},"tags":[{"type":"vegan","text":"Vegan","icon":"https://cdn.freshful.ro/assets/product_tags/vegan.svg","iconPng":"https://cdn.freshful.ro/assets/product_tags/vegan.png","backgroundColor":"#ECF9F8","textColor":"#33A39C"}],"isAvailable":true,"maxAvailableQuantity":35,"maxAllowedQuantity":100,"breadcrumbs":[{"code":"17","name":"Produse vegetale","slug":"produse-vegetale"},{"code":"1702","name":"Băuturi, creme și grăsimi vegetale","slug":"bauturi-creme-si-grasimi-vegetale"},{"code":"170204","name":"Băuturi vegetale și desert","slug":"bauturi-vegetale-si-desert"},{"code":"100138381","name":"Desert de orez vegan cu zmeură 160g","slug":"100138381-muller-desert-de-orez-vegan-cu-zmeura-160g"}],"activePromotion":{"code":"special-produse-vegane-mar23","name":"Preț redus","targetQuantity":null},"saveMe":null,"labels":[{"type":"v1","items":[{"text":"-21%","backgroundColor":"#FF9903","textColor":"#FFFFFF"}]}],"geniusPrice":null,"geniusUnitPricePerLabel":null,"banner":{"text":"Super preț","textColor":"#FF0000","bgColor":"#FFF2EC","icon":null,"link":"https://www.freshful.ro/oferte/special-produse-vegane-mar23","type":"promo","analyticsEventType":"select_promotion","analyticsEventPayload":{"promotion_id":"special-produse-vegane-mar23","promotion_name":"Și bun, și de post"}},"discountLabel":"Economisești 21%","geniusDiscountLabel":null,"badge":null},{"code":"100126311","variantCode":"100126311","name":"Orez vegan vanilie 160g","slug":"100126311-muller-orez-vegan-vanilie-160g","unitPriceLabel":"34,31 Lei/kg","brand":"Müller","brandCode":"258","brandFilterCode":"muller-b259","sku":"100126311","price":5.49,"originalPrice":6.79,"currencyCode":"RON","currency":"Lei","image":{"thumbnail":{"default":"https://cdn.freshful.ro/media/cache/sylius_shop_product_thumbnail/99/70/6c8e1164952bd270dec73a490412.jpg"},"large":{"default":"https://cdn.freshful.ro/media/cache/freshful_large/99/70/6c8e1164952bd270dec73a490412.jpg"},"extralarge":{"default":"https://cdn.freshful.ro/media/cache/sylius_shop_product_original/99/70/6c8e1164952bd270dec73a490412.jpg"}},"label":{"text":"-19%","backgroundColor":"#FF9903","textColor":"#FFFFFF"},"tags":[{"type":"vegan","text":"Vegan","icon":"https://cdn.freshful.ro/assets/product_tags/vegan.svg","iconPng":"https://cdn.freshful.ro/assets/product_tags/vegan.png","backgroundColor":"#ECF9F8","textColor":"#33A39C"}],"isAvailable":true,"maxAvailableQuantity":62,"maxAllowedQuantity":100,"breadcrumbs":[{"code":"17","name":"Produse vegetale","slug":"produse-vegetale"},{"code":"1702","name":"Băuturi, creme și grăsimi vegetale","slug":"bauturi-creme-si-grasimi-vegetale"},{"code":"170204","name":"Băuturi vegetale și desert","slug":"bauturi-vegetale-si-desert"},{"code":"100126311","name":"Orez vegan vanilie 160g","slug":"100126311-muller-orez-vegan-vanilie-160g"}],"activePromotion":{"code":"special-produse-vegane-mar23","name":"Preț redus","targetQuantity":null},"saveMe":null,"labels":[{"type":"v1","items":[{"text":"-19%","backgroundColor":"#FF9903","textColor":"#FFFFFF"}]}],"geniusPrice":null,"geniusUnitPricePerLabel":null,"banner":{"text":"Super preț","textColor":"#FF0000","bgColor":"#FFF2EC","icon":null,"link":"https://www.freshful.ro/oferte/special-produse-vegane-mar23","type":"promo","analyticsEventType":"select_promotion","analyticsEventPayload":{"promotion_id":"special-produse-vegane-mar23","promotion_name":"Și bun, și de post"}},"discountLabel":"Economisești 19%","geniusDiscountLabel":null,"badge":null},{"code":"100126310","variantCode":"100126310","name":"Orez vegan ciocolată 160g","slug":"100126310-muller-orez-vegan-ciocolata-160g","unitPriceLabel":"34,31 Lei/kg","brand":"Müller","brandCode":"258","brandFilterCode":"muller-b259","sku":"100126310","price":5.49,"originalPrice":6.39,"currencyCode":"RON","currency":"Lei","image":{"thumbnail":{"default":"https://cdn.freshful.ro/media/cache/sylius_shop_product_thumbnail/a9/0f/44fca28db81d85cfb3a4ca099510.jpg"},"large":{"default":"https://cdn.freshful.ro/media/cache/freshful_large/a9/0f/44fca28db81d85cfb3a4ca099510.jpg"},"extralarge":{"default":"https://cdn.freshful.ro/media/cache/sylius_shop_product_original/a9/0f/44fca28db81d85cfb3a4ca099510.jpg"}},"label":{"text":"-14%","backgroundColor":"#FF9903","textColor":"#FFFFFF"},"tags":[{"type":"vegan","text":"Vegan","icon":"https://cdn.freshful.ro/assets/product_tags/vegan.svg","iconPng":"https://cdn.freshful.ro/assets/product_tags/vegan.png","backgroundColor":"#ECF9F8","textColor":"#33A39C"}],"isAvailable":true,"maxAvailableQuantity":39,"maxAllowedQuantity":100,"breadcrumbs":[{"code":"17","name":"Produse vegetale","slug":"produse-vegetale"},{"code":"1702","name":"Băuturi, creme și grăsimi vegetale","slug":"bauturi-creme-si-grasimi-vegetale"},{"code":"170204","name":"Băuturi vegetale și desert","slug":"bauturi-vegetale-si-desert"},{"code":"100126310","name":"Orez vegan ciocolată 160g","slug":"100126310-muller-orez-vegan-ciocolata-160g"}],"activePromotion":{"code":"special-produse-vegane-mar23","name":"Preț redus","targetQuantity":null},"saveMe":null,"labels":[{"type":"v1","items":[{"text":"-14%","backgroundColor":"#FF9903","textColor":"#FFFFFF"}]}],"geniusPrice":null,"geniusUnitPricePerLabel":null,"banner":{"text":"Super preț","textColor":"#FF0000","bgColor":"#FFF2EC","icon":null,"link":"https://www.freshful.ro/oferte/special-produse-vegane-mar23","type":"promo","analyticsEventType":"select_promotion","analyticsEventPayload":{"promotion_id":"special-produse-vegane-mar23","promotion_name":"Și bun, și de post"}},"discountLabel":"Economisești 14%","geniusDiscountLabel":null,"badge":null},{"code":"100032028","variantCode":"100032028","name":"Băutură vegetală pe bază de migdale 1l","slug":"100032028-olympus-bautura-vegetala-pe-baza-de-migdale-1l","unitPriceLabel":"14,99 Lei/l","brand":"Olympus","brandCode":"45","brandFilterCode":"olympus-b40","sku":"100032028","price":14.99,"originalPrice":16.99,"currencyCode":"RON","currency":"Lei","image":{"thumbnail":{"default":"https://cdn.freshful.ro/media/cache/sylius_shop_product_thumbnail/9d/c9/a56cd6b71eb1b38b32cb2ce7a191.jpg"},"large":{"default":"https://cdn.freshful.ro/media/cache/freshful_large/9d/c9/a56cd6b71eb1b38b32cb2ce7a191.jpg"},"extralarge":{"default":"https://cdn.freshful.ro/media/cache/sylius_shop_product_original/9d/c9/a56cd6b71eb1b38b32cb2ce7a191.jpg"}},"label":{"text":"-11%","backgroundColor":"#FF9903","textColor":"#FFFFFF"},"tags":[{"type":"NoGluten","text":"Fara gluten","icon":"https://cdn.freshful.ro/assets/product_tags/fara_gluten.svg","iconPng":"https://cdn.freshful.ro/assets/product_tags/fara_gluten.png","backgroundColor":"#FFF2E5","textColor":"#F07900"},{"type":"LactoseFree","text":"Fara lactoza","icon":"https://cdn.freshful.ro/assets/product_tags/fara_lactoza.svg","iconPng":"https://cdn.freshful.ro/assets/product_tags/fara_lactoza.png","backgroundColor":"#E9F7FB","textColor":"#25A6D0"}],"isAvailable":true,"maxAvailableQuantity":28,"maxAllowedQuantity":100,"breadcrumbs":[{"code":"17","name":"Produse vegetale","slug":"produse-vegetale"},{"code":"1702","name":"Băuturi, creme și grăsimi vegetale","slug":"bauturi-creme-si-grasimi-vegetale"},{"code":"170204","name":"Băuturi vegetale și desert","slug":"bauturi-vegetale-si-desert"},{"code":"100032028","name":"Băutură vegetală pe bază de migdale 1l","slug":"100032028-olympus-bautura-vegetala-pe-baza-de-migdale-1l"}],"activePromotion":{"code":"bunatatile-saptamanii-cw0923","name":"Preț redus","targetQuantity":null},"saveMe":null,"labels":[{"type":"v1","items":[{"text":"-11%","backgroundColor":"#FF9903","textColor":"#FFFFFF"}]}],"geniusPrice":null,"geniusUnitPricePerLabel":null,"banner":{"text":"Super preț","textColor":"#FF0000","bgColor":"#FFF2EC","icon":null,"link":"https://www.freshful.ro/oferte/bunatatile-saptamanii-cw0923","type":"promo","analyticsEventType":"select_promotion","analyticsEventPayload":{"promotion_id":"bunatatile-saptamanii-cw0923","promotion_name":"Oferta proaspătă a săptămânii"}},"discountLabel":"Economisești 11%","geniusDiscountLabel":null,"badge":null},{"code":"100138382","variantCode":"100138382","name":"Desert de orez vegan cu mango-maracuja 160g","slug":"100138382-muller-desert-de-orez-vegan-cu-mango-maracuja-160g","unitPriceLabel":"34,31 Lei/kg","brand":"Müller","brandCode":"258","brandFilterCode":"muller-b259","sku":"100138382","price":5.49,"originalPrice":6.99,"currencyCode":"RON","currency":"Lei","image":{"thumbnail":{"default":"https://cdn.freshful.ro/media/cache/sylius_shop_product_thumbnail/0e/b0/236a95f352dbc4317f7f156240cc.jpg"},"large":{"default":"https://cdn.freshful.ro/media/cache/freshful_large/0e/b0/236a95f352dbc4317f7f156240cc.jpg"},"extralarge":{"default":"https://cdn.freshful.ro/media/cache/sylius_shop_product_original/0e/b0/236a95f352dbc4317f7f156240cc.jpg"}},"label":{"text":"-21%","backgroundColor":"#FF9903","textColor":"#FFFFFF"},"tags":[{"type":"vegan","text":"Vegan","icon":"https://cdn.freshful.ro/assets/product_tags/vegan.svg","iconPng":"https://cdn.freshful.ro/assets/product_tags/vegan.png","backgroundColor":"#ECF9F8","textColor":"#33A39C"}],"isAvailable":true,"maxAvailableQuantity":51,"maxAllowedQuantity":100,"breadcrumbs":[{"code":"17","name":"Produse vegetale","slug":"produse-vegetale"},{"code":"1702","name":"Băuturi, creme și grăsimi vegetale","slug":"bauturi-creme-si-grasimi-vegetale"},{"code":"170204","name":"Băuturi vegetale și desert","slug":"bauturi-vegetale-si-desert"},{"code":"100138382","name":"Desert de orez vegan cu mango-maracuja 160g","slug":"100138382-muller-desert-de-orez-vegan-cu-mango-maracuja-160g"}],"activePromotion":{"code":"special-produse-vegane-mar23","name":"Preț redus","targetQuantity":null},"saveMe":null,"labels":[{"type":"v1","items":[{"text":"-21%","backgroundColor":"#FF9903","textColor":"#FFFFFF"}]}],"geniusPrice":null,"geniusUnitPricePerLabel":null,"banner":{"text":"Super preț","textColor":"#FF0000","bgColor":"#FFF2EC","icon":null,"link":"https://www.freshful.ro/oferte/special-produse-vegane-mar23","type":"promo","analyticsEventType":"select_promotion","analyticsEventPayload":{"promotion_id":"special-produse-vegane-mar23","promotion_name":"Și bun, și de post"}},"discountLabel":"Economisești 21%","geniusDiscountLabel":null,"badge":null},{"code":"100032031","variantCode":"100032031","name":"Băutură vegetală pe bază de ovăz și alune de pădure Carpos 1l","slug":"100032031-olympus-bautura-vegetala-pe-baza-de-ovaz-si-alune-de-padure-carpos-1l","unitPriceLabel":"14,49 Lei/l","brand":"Olympus","brandCode":"45","brandFilterCode":"olympus-b40","sku":"100032031","price":14.49,"originalPrice":18.49,"currencyCode":"RON","currency":"Lei","image":{"thumbnail":{"default":"https://cdn.freshful.ro/media/cache/sylius_shop_product_thumbnail/0f/97/08694d497e30a6fa2c2933ec14ed.jpg"},"large":{"default":"https://cdn.freshful.ro/media/cache/freshful_large/0f/97/08694d497e30a6fa2c2933ec14ed.jpg"},"extralarge":{"default":"https://cdn.freshful.ro/media/cache/sylius_shop_product_original/0f/97/08694d497e30a6fa2c2933ec14ed.jpg"}},"label":{"text":"-21%","backgroundColor":"#FF9903","textColor":"#FFFFFF"},"tags":[{"type":"LactoseFree","text":"Fara lactoza","icon":"https://cdn.freshful.ro/assets/product_tags/fara_lactoza.svg","iconPng":"https://cdn.freshful.ro/assets/product_tags/fara_lactoza.png","backgroundColor":"#E9F7FB","textColor":"#25A6D0"},{"type":"NoAddedSugar","text":"Fara zahar adaugat","icon":"https://cdn.freshful.ro/assets/product_tags/fara_zahar_adaugat.svg","iconPng":"https://cdn.freshful.ro/assets/product_tags/fara_zahar_adaugat.png","backgroundColor":"#F8EDF7","textColor":"#C05EBC"},{"type":"Vegetarian","text":"Vegetarian","icon":"https://cdn.freshful.ro/assets/product_tags/vegetarian.svg","iconPng":"https://cdn.freshful.ro/assets/product_tags/vegetarian.png","backgroundColor":"#FAEAEE","textColor":"#B26275"}],"isAvailable":true,"maxAvailableQuantity":100,"maxAllowedQuantity":100,"breadcrumbs":[{"code":"17","name":"Produse vegetale","slug":"produse-vegetale"},{"code":"1702","name":"Băuturi, creme și grăsimi vegetale","slug":"bauturi-creme-si-grasimi-vegetale"},{"code":"170204","name":"Băuturi vegetale și desert","slug":"bauturi-vegetale-si-desert"},{"code":"100032031","name":"Băutură vegetală pe bază de ovăz și alune de pădure Carpos 1l","slug":"100032031-olympus-bautura-vegetala-pe-baza-de-ovaz-si-alune-de-padure-carpos-1l"}],"activePromotion":{"code":"bunatatile-saptamanii-cw0923","name":"Preț redus","targetQuantity":null},"saveMe":null,"labels":[{"type":"v1","items":[{"text":"-21%","backgroundColor":"#FF9903","textColor":"#FFFFFF"}]}],"geniusPrice":null,"geniusUnitPricePerLabel":null,"banner":{"text":"Super preț","textColor":"#FF0000","bgColor":"#FFF2EC","icon":null,"link":"https://www.freshful.ro/oferte/bunatatile-saptamanii-cw0923","type":"promo","analyticsEventType":"select_promotion","analyticsEventPayload":{"promotion_id":"bunatatile-saptamanii-cw0923","promotion_name":"Oferta proaspătă a săptămânii"}},"discountLabel":"Economisești 21%","geniusDiscountLabel":null,"badge":null},{"code":"100141534","variantCode":"100141534","name":"Budincă de vanilie vegană din cremă din nuci de cocos 300g","slug":"100141534-muller-budinca-de-vanilie-vegana-din-crema-din-nuci-de-cocos-300g","unitPriceLabel":"34,97 Lei/kg","brand":"Müller","brandCode":"258","brandFilterCode":"muller-b259","sku":"100141534","price":10.49,"originalPrice":12.99,"currencyCode":"RON","currency":"Lei","image":{"thumbnail":{"default":"https://cdn.freshful.ro/media/cache/sylius_shop_product_thumbnail/30/19/fcca4602b8b0a921bff3d3526b10.jpg"},"large":{"default":"https://cdn.freshful.ro/media/cache/freshful_large/30/19/fcca4602b8b0a921bff3d3526b10.jpg"},"extralarge":{"default":"https://cdn.freshful.ro/media/cache/sylius_shop_product_original/30/19/fcca4602b8b0a921bff3d3526b10.jpg"}},"label":{"text":"-19%","backgroundColor":"#FF9903","textColor":"#FFFFFF"},"tags":[{"type":"vegan","text":"Vegan","icon":"https://cdn.freshful.ro/assets/product_tags/vegan.svg","iconPng":"https://cdn.freshful.ro/assets/product_tags/vegan.png","backgroundColor":"#ECF9F8","textColor":"#33A39C"}],"isAvailable":true,"maxAvailableQuantity":21,"maxAllowedQuantity":100,"breadcrumbs":[{"code":"17","name":"Produse vegetale","slug":"produse-vegetale"},{"code":"1702","name":"Băuturi, creme și grăsimi vegetale","slug":"bauturi-creme-si-grasimi-vegetale"},{"code":"170204","name":"Băuturi vegetale și desert","slug":"bauturi-vegetale-si-desert"},{"code":"100141534","name":"Budincă de vanilie vegană din cremă din nuci de cocos 300g","slug":"100141534-muller-budinca-de-vanilie-vegana-din-crema-din-nuci-de-cocos-300g"}],"activePromotion":{"code":"special-produse-vegane-mar23","name":"Preț redus","targetQuantity":null},"saveMe":null,"labels":[{"type":"v1","items":[{"text":"-19%","backgroundColor":"#FF9903","textColor":"#FFFFFF"}]}],"geniusPrice":null,"geniusUnitPricePerLabel":null,"banner":{"text":"Super preț","textColor":"#FF0000","bgColor":"#FFF2EC","icon":null,"link":"https://www.freshful.ro/oferte/special-produse-vegane-mar23","type":"promo","analyticsEventType":"select_promotion","analyticsEventPayload":{"promotion_id":"special-produse-vegane-mar23","promotion_name":"Și bun, și de post"}},"discountLabel":"Economisești 19%","geniusDiscountLabel":null,"badge":null},{"code":"100144622","variantCode":"100144622","name":"Produs fermentat din migdale cu afine 2x125g","slug":"100144622-olympus-produs-fermentat-din-migdale-cu-afine-2x125g","unitPriceLabel":"29,96 Lei/kg","brand":"Olympus","brandCode":"45","brandFilterCode":"olympus-b40","sku":"100144622","price":7.49,"originalPrice":8.99,"currencyCode":"RON","currency":"Lei","image":{"thumbnail":{"default":"https://cdn.freshful.ro/media/cache/sylius_shop_product_thumbnail/b0/03/24a64cbea7686456e684bfa26bc2.jpg"},"large":{"default":"https://cdn.freshful.ro/media/cache/freshful_large/b0/03/24a64cbea7686456e684bfa26bc2.jpg"},"extralarge":{"default":"https://cdn.freshful.ro/media/cache/sylius_shop_product_original/b0/03/24a64cbea7686456e684bfa26bc2.jpg"}},"label":{"text":"-16%","backgroundColor":"#FF9903","textColor":"#FFFFFF"},"tags":[{"type":"vegan","text":"Vegan","icon":"https://cdn.freshful.ro/assets/product_tags/vegan.svg","iconPng":"https://cdn.freshful.ro/assets/product_tags/vegan.png","backgroundColor":"#ECF9F8","textColor":"#33A39C"}],"isAvailable":true,"maxAvailableQuantity":52,"maxAllowedQuantity":100,"breadcrumbs":[{"code":"17","name":"Produse vegetale","slug":"produse-vegetale"},{"code":"1702","name":"Băuturi, creme și grăsimi vegetale","slug":"bauturi-creme-si-grasimi-vegetale"},{"code":"170204","name":"Băuturi vegetale și desert","slug":"bauturi-vegetale-si-desert"},{"code":"100144622","name":"Produs fermentat din migdale cu afine 2x125g","slug":"100144622-olympus-produs-fermentat-din-migdale-cu-afine-2x125g"}],"activePromotion":{"code":"special-produse-vegane-mar23","name":"Preț redus","targetQuantity":null},"saveMe":null,"labels":[{"type":"v1","items":[{"text":"-16%","backgroundColor":"#FF9903","textColor":"#FFFFFF"}]}],"geniusPrice":null,"geniusUnitPricePerLabel":null,"banner":{"text":"Super preț","textColor":"#FF0000","bgColor":"#FFF2EC","icon":null,"link":"https://www.freshful.ro/oferte/special-produse-vegane-mar23","type":"promo","analyticsEventType":"select_promotion","analyticsEventPayload":{"promotion_id":"special-produse-vegane-mar23","promotion_name":"Și bun, și de post"}},"discountLabel":"Economisești 16%","geniusDiscountLabel":null,"badge":null},{"code":"100032030","variantCode":"100032030","name":"Băutură vegetală pe bază de ovăz Carpos 1l","slug":"100032030-olympus-bautura-vegetala-pe-baza-de-ovaz-carpos-1l","unitPriceLabel":"14,49 Lei/l","brand":"Olympus","brandCode":"45","brandFilterCode":"olympus-b40","sku":"100032030","price":14.49,"originalPrice":16.99,"currencyCode":"RON","currency":"Lei","image":{"thumbnail":{"default":"https://cdn.freshful.ro/media/cache/sylius_shop_product_thumbnail/3d/5d/5e1df4f26c3f81ef5ca7631b7b34.jpg"},"large":{"default":"https://cdn.freshful.ro/media/cache/freshful_large/3d/5d/5e1df4f26c3f81ef5ca7631b7b34.jpg"},"extralarge":{"default":"https://cdn.freshful.ro/media/cache/sylius_shop_product_original/3d/5d/5e1df4f26c3f81ef5ca7631b7b34.jpg"}},"label":{"text":"-14%","backgroundColor":"#FF9903","textColor":"#FFFFFF"},"tags":[{"type":"LactoseFree","text":"Fara lactoza","icon":"https://cdn.freshful.ro/assets/product_tags/fara_lactoza.svg","iconPng":"https://cdn.freshful.ro/assets/product_tags/fara_lactoza.png","backgroundColor":"#E9F7FB","textColor":"#25A6D0"},{"type":"NoAddedSugar","text":"Fara zahar adaugat","icon":"https://cdn.freshful.ro/assets/product_tags/fara_zahar_adaugat.svg","iconPng":"https://cdn.freshful.ro/assets/product_tags/fara_zahar_adaugat.png","backgroundColor":"#F8EDF7","textColor":"#C05EBC"}],"isAvailable":true,"maxAvailableQuantity":9,"maxAllowedQuantity":100,"breadcrumbs":[{"code":"17","name":"Produse vegetale","slug":"produse-vegetale"},{"code":"1702","name":"Băuturi, creme și grăsimi vegetale","slug":"bauturi-creme-si-grasimi-vegetale"},{"code":"170204","name":"Băuturi vegetale și desert","slug":"bauturi-vegetale-si-desert"},{"code":"100032030","name":"Băutură vegetală pe bază de ovăz Carpos 1l","slug":"100032030-olympus-bautura-vegetala-pe-baza-de-ovaz-carpos-1l"}],"activePromotion":{"code":"bunatatile-saptamanii-cw0923","name":"Preț redus","targetQuantity":null},"saveMe":null,"labels":[{"type":"v1","items":[{"text":"-14%","backgroundColor":"#FF9903","textColor":"#FFFFFF"}]}],"geniusPrice":null,"geniusUnitPricePerLabel":null,"banner":{"text":"Super preț","textColor":"#FF0000","bgColor":"#FFF2EC","icon":null,"link":"https://www.freshful.ro/oferte/bunatatile-saptamanii-cw0923","type":"promo","analyticsEventType":"select_promotion","analyticsEventPayload":{"promotion_id":"bunatatile-saptamanii-cw0923","promotion_name":"Oferta proaspătă a săptămânii"}},"discountLabel":"Economisești 14%","geniusDiscountLabel":null,"badge":null}],"filters":{"countSelected":0,"items":[{"code":"promotion","name":"Promoții","countSelected":0,"values":[{"code":"bunatatile-saptamanii-cw0923","name":"Oferta proaspătă a săptămânii","isSelected":false,"count":4},{"code":"special-produse-vegane-mar23","name":"Și bun, și de post","isSelected":false,"count":13}]},{"code":"brand","name":"Brand","countSelected":0,"values":[{"code":"alpro-b25","name":"Alpro","isSelected":false,"count":7},{"code":"dr-oetker-b51","name":"Dr. Oetker","isSelected":false,"count":2},{"code":"meggle-b498","name":"Meggle","isSelected":false,"count":5},{"code":"muller-b259","name":"Müller","isSelected":false,"count":8},{"code":"olympus-b40","name":"Olympus","isSelected":false,"count":9},{"code":"valsoia-b1666","name":"Valsoia","isSelected":false,"count":1},{"code":"voila-b1668","name":"Voilà","isSelected":false,"count":3}]},{"code":"diet_lifestyle","name":"Dietă și lifestyle","countSelected":0,"values":[{"code":"fara-gluten-a16","name":"Fara gluten","isSelected":false,"count":8},{"code":"fara-lactoza-a38","name":"Fara lactoza","isSelected":false,"count":13},{"code":"fara-zahar-adaugat-a29","name":"Fara zahar adaugat","isSelected":false,"count":2},{"code":"vegan-a24","name":"Vegan","isSelected":false,"count":25},{"code":"vegetarian-a28","name":"Vegetarian","isSelected":false,"count":1}]}]},"orderBy":[{"field":"price","direction":"asc","name":"Preț crescător","isSelected":false},{"field":"price","direction":"desc","name":"Preț descrescător","isSelected":false},{"field":"popularity","direction":"desc","name":"Cele mai populare","isSelected":true},{"field":"category","direction":"asc","name":"Categorie","isSelected":false}],"metaTitle":"Băuturi vegetale și desert - Gamă variată","metaDescription":"Vrei Băuturi vegetale și desert? Alege dintr-o gamă variată. Comanzi simplu și ai livrare rapidă, calitate și prospețime. Hai pe Freshful.ro","metaKeywords":null,"banners":[]}}