{"type":"subcategory","payload":{"analyticsListId":"category_carne-si-specialitati-vegetale","analyticsListName":"Category - Carne și specialități vegetale","name":"Carne și specialități vegetale","slug":"carne-si-specialitati-vegetale","image":null,"breadcrumbs":[{"code":"17","name":"Produse vegetale","slug":"produse-vegetale"},{"code":"1701","name":"Carne și specialități vegetale","slug":"carne-si-specialitati-vegetale"}],"slots":[],"page":1,"limit":10,"pages":4,"count":39,"siblings":[{"name":"Carne și specialități vegetale","slug":"carne-si-specialitati-vegetale","selected":true},{"name":"Băuturi, creme și grăsimi vegetale","slug":"bauturi-creme-si-grasimi-vegetale","selected":false}],"children":[{"name":"Toate produsele","slug":"carne-si-specialitati-vegetale","selected":true},{"name":"Carne vegetală","slug":"carne-vegetala","selected":false},{"name":"Specialități vegetale","slug":"specialitati-vegetale","selected":false}],"products":[{"code":"100032214","variantCode":"5941866616477","name":"Mortadella vegetală cu fistic 80g","slug":"100032214-verdino-mortadella-vegetala-cu-fistic-80g","unitPriceLabel":"99,88 Lei/kg","brand":"Verdino","brandCode":"206","brandFilterCode":"verdino-b207","sku":"100032214","price":7.99,"originalPrice":9.69,"currencyCode":"RON","currency":"Lei","image":{"thumbnail":{"default":"https://cdn.freshful.ro/media/cache/sylius_shop_product_thumbnail/5a/ce/e4d8e713d79faeb77bd314dbb894.jpg"},"large":{"default":"https://cdn.freshful.ro/media/cache/freshful_large/5a/ce/e4d8e713d79faeb77bd314dbb894.jpg"},"extralarge":{"default":"https://cdn.freshful.ro/media/cache/sylius_shop_product_original/5a/ce/e4d8e713d79faeb77bd314dbb894.jpg"}},"label":{"text":"-17%","backgroundColor":"#FF9903","textColor":"#FFFFFF"},"tags":[{"type":"vegan","text":"Vegan","icon":"https://cdn.freshful.ro/assets/product_tags/vegan.svg","iconPng":"https://cdn.freshful.ro/assets/product_tags/vegan.png","backgroundColor":"#ECF9F8","textColor":"#33A39C"}],"isAvailable":true,"maxAvailableQuantity":65,"maxAllowedQuantity":100,"breadcrumbs":[{"code":"17","name":"Produse vegetale","slug":"produse-vegetale"},{"code":"1701","name":"Carne și specialități vegetale","slug":"carne-si-specialitati-vegetale"},{"code":"170102","name":"Specialități vegetale","slug":"specialitati-vegetale"},{"code":"100032214","name":"Mortadella vegetală cu fistic 80g","slug":"100032214-verdino-mortadella-vegetala-cu-fistic-80g"}],"activePromotion":{"code":"special-produse-vegane-mar23","name":"Preț redus","targetQuantity":null},"saveMe":null,"labels":[{"type":"v1","items":[{"text":"-17%","backgroundColor":"#FF9903","textColor":"#FFFFFF"}]}],"geniusPrice":null,"geniusUnitPricePerLabel":null,"banner":{"text":"Super preț","textColor":"#FF0000","bgColor":"#FFF2EC","icon":null,"link":"https://www.freshful.ro/oferte/special-produse-vegane-mar23","type":"promo","analyticsEventType":"select_promotion","analyticsEventPayload":{"promotion_id":"special-produse-vegane-mar23","promotion_name":"Și bun, și de post"}},"discountLabel":"Economisești 17%","geniusDiscountLabel":null,"badge":null},{"code":"100036936","variantCode":"5941866614893","name":"Burger vegetal 220g","slug":"100036936-verdino-burger-vegetal-220g","unitPriceLabel":"54,5 Lei/kg","brand":"Verdino","brandCode":"206","brandFilterCode":"verdino-b207","sku":"100036936","price":11.99,"originalPrice":14.49,"currencyCode":"RON","currency":"Lei","image":{"thumbnail":{"default":"https://cdn.freshful.ro/media/cache/sylius_shop_product_thumbnail/12/e2/008dfe9a013e281ca1744babc9b4.jpg"},"large":{"default":"https://cdn.freshful.ro/media/cache/freshful_large/12/e2/008dfe9a013e281ca1744babc9b4.jpg"},"extralarge":{"default":"https://cdn.freshful.ro/media/cache/sylius_shop_product_original/12/e2/008dfe9a013e281ca1744babc9b4.jpg"}},"label":{"text":"-17%","backgroundColor":"#FF9903","textColor":"#FFFFFF"},"tags":[{"type":"vegan","text":"Vegan","icon":"https://cdn.freshful.ro/assets/product_tags/vegan.svg","iconPng":"https://cdn.freshful.ro/assets/product_tags/vegan.png","backgroundColor":"#ECF9F8","textColor":"#33A39C"}],"isAvailable":true,"maxAvailableQuantity":30,"maxAllowedQuantity":100,"breadcrumbs":[{"code":"17","name":"Produse vegetale","slug":"produse-vegetale"},{"code":"1701","name":"Carne și specialități vegetale","slug":"carne-si-specialitati-vegetale"},{"code":"170101","name":"Carne vegetală","slug":"carne-vegetala"},{"code":"100036936","name":"Burger vegetal 220g","slug":"100036936-verdino-burger-vegetal-220g"}],"activePromotion":{"code":"special-produse-vegane-mar23","name":"Preț redus","targetQuantity":null},"saveMe":null,"labels":[{"type":"v1","items":[{"text":"-17%","backgroundColor":"#FF9903","textColor":"#FFFFFF"}]}],"geniusPrice":null,"geniusUnitPricePerLabel":null,"banner":{"text":"Super preț","textColor":"#FF0000","bgColor":"#FFF2EC","icon":null,"link":"https://www.freshful.ro/oferte/special-produse-vegane-mar23","type":"promo","analyticsEventType":"select_promotion","analyticsEventPayload":{"promotion_id":"special-produse-vegane-mar23","promotion_name":"Și bun, și de post"}},"discountLabel":"Economisești 17%","geniusDiscountLabel":null,"badge":null},{"code":"100064168","variantCode":"100064168","name":"Pastă de amarant cu ceapă roşie 200g","slug":"100064168-filgud-pasta-de-amarant-cu-ceapa-rosie-200g","unitPriceLabel":"109,95 Lei/kg","brand":"Filgud","brandCode":"950","brandFilterCode":"filgud-b964","sku":"100064168","price":21.99,"originalPrice":24.95,"currencyCode":"RON","currency":"Lei","image":{"thumbnail":{"default":"https://cdn.freshful.ro/media/cache/sylius_shop_product_thumbnail/a8/eb/643d33491fdb1595d967d3ece938.jpg"},"large":{"default":"https://cdn.freshful.ro/media/cache/freshful_large/a8/eb/643d33491fdb1595d967d3ece938.jpg"},"extralarge":{"default":"https://cdn.freshful.ro/media/cache/sylius_shop_product_original/a8/eb/643d33491fdb1595d967d3ece938.jpg"}},"label":{"text":"-11%","backgroundColor":"#FF9903","textColor":"#FFFFFF"},"tags":[{"type":"vegan","text":"Vegan","icon":"https://cdn.freshful.ro/assets/product_tags/vegan.svg","iconPng":"https://cdn.freshful.ro/assets/product_tags/vegan.png","backgroundColor":"#ECF9F8","textColor":"#33A39C"},{"type":"NoGluten","text":"Fara gluten","icon":"https://cdn.freshful.ro/assets/product_tags/fara_gluten.svg","iconPng":"https://cdn.freshful.ro/assets/product_tags/fara_gluten.png","backgroundColor":"#FFF2E5","textColor":"#F07900"},{"type":"LactoseFree","text":"Fara lactoza","icon":"https://cdn.freshful.ro/assets/product_tags/fara_lactoza.svg","iconPng":"https://cdn.freshful.ro/assets/product_tags/fara_lactoza.png","backgroundColor":"#E9F7FB","textColor":"#25A6D0"}],"isAvailable":true,"maxAvailableQuantity":79,"maxAllowedQuantity":100,"breadcrumbs":[{"code":"17","name":"Produse vegetale","slug":"produse-vegetale"},{"code":"1701","name":"Carne și specialități vegetale","slug":"carne-si-specialitati-vegetale"},{"code":"170102","name":"Specialități vegetale","slug":"specialitati-vegetale"},{"code":"100064168","name":"Pastă de amarant cu ceapă roşie 200g","slug":"100064168-filgud-pasta-de-amarant-cu-ceapa-rosie-200g"}],"activePromotion":{"code":"special-produse-vegane-mar23","name":"Preț redus","targetQuantity":null},"saveMe":null,"labels":[{"type":"v1","items":[{"text":"-11%","backgroundColor":"#FF9903","textColor":"#FFFFFF"}]}],"geniusPrice":null,"geniusUnitPricePerLabel":null,"banner":{"text":"Super preț","textColor":"#FF0000","bgColor":"#FFF2EC","icon":null,"link":"https://www.freshful.ro/oferte/special-produse-vegane-mar23","type":"promo","analyticsEventType":"select_promotion","analyticsEventPayload":{"promotion_id":"special-produse-vegane-mar23","promotion_name":"Și bun, și de post"}},"discountLabel":"Economisești 11%","geniusDiscountLabel":null,"badge":null},{"code":"100145155","variantCode":"100145155","name":"Șnițel vegan pe bază de plante 200g","slug":"100145155-vivera-snitel-vegan-pe-baza-de-plante-200g","unitPriceLabel":"74,95 Lei/kg","brand":"VIVERA","brandCode":"2812","brandFilterCode":"vivera-b2899","sku":"100145155","price":14.99,"originalPrice":15.99,"currencyCode":"RON","currency":"Lei","image":{"thumbnail":{"default":"https://cdn.freshful.ro/media/cache/sylius_shop_product_thumbnail/b2/a5/3a5796de8976d9f6268374791eb0.jpg"},"large":{"default":"https://cdn.freshful.ro/media/cache/freshful_large/b2/a5/3a5796de8976d9f6268374791eb0.jpg"},"extralarge":{"default":"https://cdn.freshful.ro/media/cache/sylius_shop_product_original/b2/a5/3a5796de8976d9f6268374791eb0.jpg"}},"label":{"text":"-6%","backgroundColor":"#FF9903","textColor":"#FFFFFF"},"tags":[{"type":"vegan","text":"Vegan","icon":"https://cdn.freshful.ro/assets/product_tags/vegan.svg","iconPng":"https://cdn.freshful.ro/assets/product_tags/vegan.png","backgroundColor":"#ECF9F8","textColor":"#33A39C"}],"isAvailable":true,"maxAvailableQuantity":73,"maxAllowedQuantity":100,"breadcrumbs":[{"code":"17","name":"Produse vegetale","slug":"produse-vegetale"},{"code":"1701","name":"Carne și specialități vegetale","slug":"carne-si-specialitati-vegetale"},{"code":"170101","name":"Carne vegetală","slug":"carne-vegetala"},{"code":"100145155","name":"Șnițel vegan pe bază de plante 200g","slug":"100145155-vivera-snitel-vegan-pe-baza-de-plante-200g"}],"activePromotion":{"code":"special-produse-vegane-mar23","name":"Preț redus","targetQuantity":null},"saveMe":null,"labels":[{"type":"v1","items":[{"text":"-6%","backgroundColor":"#FF9903","textColor":"#FFFFFF"}]}],"geniusPrice":null,"geniusUnitPricePerLabel":null,"banner":{"text":"Super preț","textColor":"#FF0000","bgColor":"#FFF2EC","icon":null,"link":"https://www.freshful.ro/oferte/special-produse-vegane-mar23","type":"promo","analyticsEventType":"select_promotion","analyticsEventPayload":{"promotion_id":"special-produse-vegane-mar23","promotion_name":"Și bun, și de post"}},"discountLabel":"Economisești 6%","geniusDiscountLabel":null,"badge":null},{"code":"100032215","variantCode":"5941866614855","name":"Salam vegetal afumat 80g","slug":"100032215-verdino-salam-vegetal-afumat-80g","unitPriceLabel":"99,88 Lei/kg","brand":"Verdino","brandCode":"206","brandFilterCode":"verdino-b207","sku":"100032215","price":7.99,"originalPrice":8.99,"currencyCode":"RON","currency":"Lei","image":{"thumbnail":{"default":"https://cdn.freshful.ro/media/cache/sylius_shop_product_thumbnail/16/60/ef952924f6230c3fc26f70e6aa54.jpg"},"large":{"default":"https://cdn.freshful.ro/media/cache/freshful_large/16/60/ef952924f6230c3fc26f70e6aa54.jpg"},"extralarge":{"default":"https://cdn.freshful.ro/media/cache/sylius_shop_product_original/16/60/ef952924f6230c3fc26f70e6aa54.jpg"}},"label":{"text":"-11%","backgroundColor":"#FF9903","textColor":"#FFFFFF"},"tags":[{"type":"vegan","text":"Vegan","icon":"https://cdn.freshful.ro/assets/product_tags/vegan.svg","iconPng":"https://cdn.freshful.ro/assets/product_tags/vegan.png","backgroundColor":"#ECF9F8","textColor":"#33A39C"}],"isAvailable":true,"maxAvailableQuantity":17,"maxAllowedQuantity":100,"breadcrumbs":[{"code":"17","name":"Produse vegetale","slug":"produse-vegetale"},{"code":"1701","name":"Carne și specialități vegetale","slug":"carne-si-specialitati-vegetale"},{"code":"170102","name":"Specialități vegetale","slug":"specialitati-vegetale"},{"code":"100032215","name":"Salam vegetal afumat 80g","slug":"100032215-verdino-salam-vegetal-afumat-80g"}],"activePromotion":{"code":"special-produse-vegane-mar23","name":"Preț redus","targetQuantity":null},"saveMe":null,"labels":[{"type":"v1","items":[{"text":"-11%","backgroundColor":"#FF9903","textColor":"#FFFFFF"}]}],"geniusPrice":null,"geniusUnitPricePerLabel":null,"banner":{"text":"Super preț","textColor":"#FF0000","bgColor":"#FFF2EC","icon":null,"link":"https://www.freshful.ro/oferte/special-produse-vegane-mar23","type":"promo","analyticsEventType":"select_promotion","analyticsEventPayload":{"promotion_id":"special-produse-vegane-mar23","promotion_name":"Și bun, și de post"}},"discountLabel":"Economisești 11%","geniusDiscountLabel":null,"badge":null},{"code":"100145153","variantCode":"100145153","name":"Bucăți vegane cu aromă de pui 160g","slug":"100145153-vivera-bucati-vegane-cu-aroma-de-pui-160g","unitPriceLabel":"84,31 Lei/kg","brand":"VIVERA","brandCode":"2812","brandFilterCode":"vivera-b2899","sku":"100145153","price":13.49,"originalPrice":14.99,"currencyCode":"RON","currency":"Lei","image":{"thumbnail":{"default":"https://cdn.freshful.ro/media/cache/sylius_shop_product_thumbnail/2d/f9/cd28515875272c6800acee89b892.jpg"},"large":{"default":"https://cdn.freshful.ro/media/cache/freshful_large/2d/f9/cd28515875272c6800acee89b892.jpg"},"extralarge":{"default":"https://cdn.freshful.ro/media/cache/sylius_shop_product_original/2d/f9/cd28515875272c6800acee89b892.jpg"}},"label":{"text":"-10%","backgroundColor":"#FF9903","textColor":"#FFFFFF"},"tags":[{"type":"vegan","text":"Vegan","icon":"https://cdn.freshful.ro/assets/product_tags/vegan.svg","iconPng":"https://cdn.freshful.ro/assets/product_tags/vegan.png","backgroundColor":"#ECF9F8","textColor":"#33A39C"}],"isAvailable":true,"maxAvailableQuantity":100,"maxAllowedQuantity":100,"breadcrumbs":[{"code":"17","name":"Produse vegetale","slug":"produse-vegetale"},{"code":"1701","name":"Carne și specialități vegetale","slug":"carne-si-specialitati-vegetale"},{"code":"170101","name":"Carne vegetală","slug":"carne-vegetala"},{"code":"100145153","name":"Bucăți vegane cu aromă de pui 160g","slug":"100145153-vivera-bucati-vegane-cu-aroma-de-pui-160g"}],"activePromotion":{"code":"special-produse-vegane-mar23","name":"Preț redus","targetQuantity":null},"saveMe":null,"labels":[{"type":"v1","items":[{"text":"-10%","backgroundColor":"#FF9903","textColor":"#FFFFFF"}]}],"geniusPrice":null,"geniusUnitPricePerLabel":null,"banner":{"text":"Super preț","textColor":"#FF0000","bgColor":"#FFF2EC","icon":null,"link":"https://www.freshful.ro/oferte/special-produse-vegane-mar23","type":"promo","analyticsEventType":"select_promotion","analyticsEventPayload":{"promotion_id":"special-produse-vegane-mar23","promotion_name":"Și bun, și de post"}},"discountLabel":"Economisești 10%","geniusDiscountLabel":null,"badge":null},{"code":"100036934","variantCode":"5941866618297","name":"Cârnați vegetali tip Salsiccia 200g","slug":"100036934-verdino-carnati-vegetali-tip-salsiccia-200g","unitPriceLabel":"64,45 Lei/kg","brand":"Verdino","brandCode":"206","brandFilterCode":"verdino-b207","sku":"100036934","price":12.89,"originalPrice":13.99,"currencyCode":"RON","currency":"Lei","image":{"thumbnail":{"default":"https://cdn.freshful.ro/media/cache/sylius_shop_product_thumbnail/b7/0a/c3b1ff0de15fe190c4c28749f3ae.jpg"},"large":{"default":"https://cdn.freshful.ro/media/cache/freshful_large/b7/0a/c3b1ff0de15fe190c4c28749f3ae.jpg"},"extralarge":{"default":"https://cdn.freshful.ro/media/cache/sylius_shop_product_original/b7/0a/c3b1ff0de15fe190c4c28749f3ae.jpg"}},"label":{"text":"-7%","backgroundColor":"#FF9903","textColor":"#FFFFFF"},"tags":[{"type":"vegan","text":"Vegan","icon":"https://cdn.freshful.ro/assets/product_tags/vegan.svg","iconPng":"https://cdn.freshful.ro/assets/product_tags/vegan.png","backgroundColor":"#ECF9F8","textColor":"#33A39C"}],"isAvailable":true,"maxAvailableQuantity":55,"maxAllowedQuantity":100,"breadcrumbs":[{"code":"17","name":"Produse vegetale","slug":"produse-vegetale"},{"code":"1701","name":"Carne și specialități vegetale","slug":"carne-si-specialitati-vegetale"},{"code":"170101","name":"Carne vegetală","slug":"carne-vegetala"},{"code":"100036934","name":"Cârnați vegetali tip Salsiccia 200g","slug":"100036934-verdino-carnati-vegetali-tip-salsiccia-200g"}],"activePromotion":{"code":"freshful-top-deals-2023","name":"Preț redus","targetQuantity":null},"saveMe":null,"labels":[{"type":"v1","items":[{"text":"-7%","backgroundColor":"#FF9903","textColor":"#FFFFFF"}]}],"geniusPrice":null,"geniusUnitPricePerLabel":null,"banner":{"text":"Super preț","textColor":"#FF0000","bgColor":"#FFF2EC","icon":null,"link":"https://www.freshful.ro/oferte/freshful-top-deals-2023","type":"promo","analyticsEventType":"select_promotion","analyticsEventPayload":{"promotion_id":"freshful-top-deals-2023","promotion_name":"Profită de Top Deals"}},"discountLabel":"Economisești 7%","geniusDiscountLabel":null,"badge":null},{"code":"100144346","variantCode":"100144346","name":"Șuncă vegană 250g","slug":"100144346-aivia-sunca-vegana-250g","unitPriceLabel":"55,96 Lei/kg","brand":"Aivia","brandCode":"212","brandFilterCode":"aivia-b213","sku":"100144346","price":13.99,"originalPrice":16.89,"currencyCode":"RON","currency":"Lei","image":{"thumbnail":{"default":"https://cdn.freshful.ro/media/cache/sylius_shop_product_thumbnail/81/05/87607ec9bd0f7cfb7d4ba911e3e1.jpg"},"large":{"default":"https://cdn.freshful.ro/media/cache/freshful_large/81/05/87607ec9bd0f7cfb7d4ba911e3e1.jpg"},"extralarge":{"default":"https://cdn.freshful.ro/media/cache/sylius_shop_product_original/81/05/87607ec9bd0f7cfb7d4ba911e3e1.jpg"}},"label":{"text":"-17%","backgroundColor":"#FF9903","textColor":"#FFFFFF"},"tags":[{"type":"NoE","text":"Fara E-uri","icon":"https://cdn.freshful.ro/assets/product_tags/fara_euri.svg","iconPng":"https://cdn.freshful.ro/assets/product_tags/fara_euri.png","backgroundColor":"#FCF5DF","textColor":"#CAA316"},{"type":"vegan","text":"Vegan","icon":"https://cdn.freshful.ro/assets/product_tags/vegan.svg","iconPng":"https://cdn.freshful.ro/assets/product_tags/vegan.png","backgroundColor":"#ECF9F8","textColor":"#33A39C"},{"type":"NoGluten","text":"Fara gluten","icon":"https://cdn.freshful.ro/assets/product_tags/fara_gluten.svg","iconPng":"https://cdn.freshful.ro/assets/product_tags/fara_gluten.png","backgroundColor":"#FFF2E5","textColor":"#F07900"},{"type":"NoPreservatives","text":"Fara conservanti","icon":"https://cdn.freshful.ro/assets/product_tags/fara_conservanti.svg","iconPng":"https://cdn.freshful.ro/assets/product_tags/fara_conservanti.png","backgroundColor":"#F0F2FF","textColor":"#7889DD"}],"isAvailable":true,"maxAvailableQuantity":42,"maxAllowedQuantity":100,"breadcrumbs":[{"code":"17","name":"Produse vegetale","slug":"produse-vegetale"},{"code":"1701","name":"Carne și specialități vegetale","slug":"carne-si-specialitati-vegetale"},{"code":"170102","name":"Specialități vegetale","slug":"specialitati-vegetale"},{"code":"100144346","name":"Șuncă vegană 250g","slug":"100144346-aivia-sunca-vegana-250g"}],"activePromotion":{"code":"bunatatile-saptamanii-cw0923","name":"Preț redus","targetQuantity":null},"saveMe":null,"labels":[{"type":"v1","items":[{"text":"-17%","backgroundColor":"#FF9903","textColor":"#FFFFFF"}]}],"geniusPrice":null,"geniusUnitPricePerLabel":null,"banner":{"text":"Super preț","textColor":"#FF0000","bgColor":"#FFF2EC","icon":null,"link":"https://www.freshful.ro/oferte/bunatatile-saptamanii-cw0923","type":"promo","analyticsEventType":"select_promotion","analyticsEventPayload":{"promotion_id":"bunatatile-saptamanii-cw0923","promotion_name":"Oferta proaspătă a săptămânii"}},"discountLabel":"Economisești 17%","geniusDiscountLabel":null,"badge":null},{"code":"100145154","variantCode":"100145154","name":"Nuggets vegani pe bază de plante 200g","slug":"100145154-vivera-nuggets-vegani-pe-baza-de-plante-200g","unitPriceLabel":"84,95 Lei/kg","brand":"VIVERA","brandCode":"2812","brandFilterCode":"vivera-b2899","sku":"100145154","price":16.99,"originalPrice":18.79,"currencyCode":"RON","currency":"Lei","image":{"thumbnail":{"default":"https://cdn.freshful.ro/media/cache/sylius_shop_product_thumbnail/a3/07/da51874bce1c47196d15c2dc94f4.jpg"},"large":{"default":"https://cdn.freshful.ro/media/cache/freshful_large/a3/07/da51874bce1c47196d15c2dc94f4.jpg"},"extralarge":{"default":"https://cdn.freshful.ro/media/cache/sylius_shop_product_original/a3/07/da51874bce1c47196d15c2dc94f4.jpg"}},"label":{"text":"-9%","backgroundColor":"#FF9903","textColor":"#FFFFFF"},"tags":[{"type":"vegan","text":"Vegan","icon":"https://cdn.freshful.ro/assets/product_tags/vegan.svg","iconPng":"https://cdn.freshful.ro/assets/product_tags/vegan.png","backgroundColor":"#ECF9F8","textColor":"#33A39C"}],"isAvailable":true,"maxAvailableQuantity":100,"maxAllowedQuantity":100,"breadcrumbs":[{"code":"17","name":"Produse vegetale","slug":"produse-vegetale"},{"code":"1701","name":"Carne și specialități vegetale","slug":"carne-si-specialitati-vegetale"},{"code":"170101","name":"Carne vegetală","slug":"carne-vegetala"},{"code":"100145154","name":"Nuggets vegani pe bază de plante 200g","slug":"100145154-vivera-nuggets-vegani-pe-baza-de-plante-200g"}],"activePromotion":{"code":"special-produse-vegane-mar23","name":"Preț redus","targetQuantity":null},"saveMe":null,"labels":[{"type":"v1","items":[{"text":"-9%","backgroundColor":"#FF9903","textColor":"#FFFFFF"}]}],"geniusPrice":null,"geniusUnitPricePerLabel":null,"banner":{"text":"Super preț","textColor":"#FF0000","bgColor":"#FFF2EC","icon":null,"link":"https://www.freshful.ro/oferte/special-produse-vegane-mar23","type":"promo","analyticsEventType":"select_promotion","analyticsEventPayload":{"promotion_id":"special-produse-vegane-mar23","promotion_name":"Și bun, și de post"}},"discountLabel":"Economisești 9%","geniusDiscountLabel":null,"badge":null},{"code":"100063426","variantCode":"6427177000154","name":"Pastă tartinabilă vegană cu ceapă 150g","slug":"100063426-aivia-pasta-tartinabila-vegana-cu-ceapa-150g","unitPriceLabel":"46,6 Lei/kg","brand":"Aivia","brandCode":"212","brandFilterCode":"aivia-b213","sku":"100063426","price":6.99,"originalPrice":7.99,"currencyCode":"RON","currency":"Lei","image":{"thumbnail":{"default":"https://cdn.freshful.ro/media/cache/sylius_shop_product_thumbnail/b6/4d/f1abed9599838dea03b0ea04e0a9.jpg"},"large":{"default":"https://cdn.freshful.ro/media/cache/freshful_large/b6/4d/f1abed9599838dea03b0ea04e0a9.jpg"},"extralarge":{"default":"https://cdn.freshful.ro/media/cache/sylius_shop_product_original/b6/4d/f1abed9599838dea03b0ea04e0a9.jpg"}},"label":{"text":"-12%","backgroundColor":"#FF9903","textColor":"#FFFFFF"},"tags":[{"type":"vegan","text":"Vegan","icon":"https://cdn.freshful.ro/assets/product_tags/vegan.svg","iconPng":"https://cdn.freshful.ro/assets/product_tags/vegan.png","backgroundColor":"#ECF9F8","textColor":"#33A39C"},{"type":"NoGluten","text":"Fara gluten","icon":"https://cdn.freshful.ro/assets/product_tags/fara_gluten.svg","iconPng":"https://cdn.freshful.ro/assets/product_tags/fara_gluten.png","backgroundColor":"#FFF2E5","textColor":"#F07900"},{"type":"NoPreservatives","text":"Fara conservanti","icon":"https://cdn.freshful.ro/assets/product_tags/fara_conservanti.svg","iconPng":"https://cdn.freshful.ro/assets/product_tags/fara_conservanti.png","backgroundColor":"#F0F2FF","textColor":"#7889DD"},{"type":"NoE","text":"Fara E-uri","icon":"https://cdn.freshful.ro/assets/product_tags/fara_euri.svg","iconPng":"https://cdn.freshful.ro/assets/product_tags/fara_euri.png","backgroundColor":"#FCF5DF","textColor":"#CAA316"}],"isAvailable":true,"maxAvailableQuantity":84,"maxAllowedQuantity":100,"breadcrumbs":[{"code":"17","name":"Produse vegetale","slug":"produse-vegetale"},{"code":"1701","name":"Carne și specialități vegetale","slug":"carne-si-specialitati-vegetale"},{"code":"170102","name":"Specialități vegetale","slug":"specialitati-vegetale"},{"code":"100063426","name":"Pastă tartinabilă vegană cu ceapă 150g","slug":"100063426-aivia-pasta-tartinabila-vegana-cu-ceapa-150g"}],"activePromotion":{"code":"bunatatile-saptamanii-cw0923","name":"Preț redus","targetQuantity":null},"saveMe":null,"labels":[{"type":"v1","items":[{"text":"-12%","backgroundColor":"#FF9903","textColor":"#FFFFFF"}]}],"geniusPrice":null,"geniusUnitPricePerLabel":null,"banner":{"text":"Super preț","textColor":"#FF0000","bgColor":"#FFF2EC","icon":null,"link":"https://www.freshful.ro/oferte/bunatatile-saptamanii-cw0923","type":"promo","analyticsEventType":"select_promotion","analyticsEventPayload":{"promotion_id":"bunatatile-saptamanii-cw0923","promotion_name":"Oferta proaspătă a săptămânii"}},"discountLabel":"Economisești 12%","geniusDiscountLabel":null,"badge":null}],"filters":{"countSelected":0,"items":[{"code":"promotion","name":"Promoții","countSelected":0,"values":[{"code":"bunatatile-saptamanii-cw0923","name":"Oferta proaspătă a săptămânii","isSelected":false,"count":3},{"code":"freshful-top-deals-2023","name":"Profită de Top Deals","isSelected":false,"count":1},{"code":"special-produse-vegane-mar23","name":"Și bun, și de post","isSelected":false,"count":14}]},{"code":"brand","name":"Brand","countSelected":0,"values":[{"code":"aivia-b213","name":"Aivia","isSelected":false,"count":12},{"code":"espina-b42","name":"Espina","isSelected":false,"count":1},{"code":"filgud-b964","name":"Filgud","isSelected":false,"count":4},{"code":"inedit-b57","name":"Inedit","isSelected":false,"count":3},{"code":"verdino-b207","name":"Verdino","isSelected":false,"count":11},{"code":"vivera-b2899","name":"VIVERA","isSelected":false,"count":8}]},{"code":"diet_lifestyle","name":"Dietă și lifestyle","countSelected":0,"values":[{"code":"congelat-a66","name":"Congelat","isSelected":false,"count":1},{"code":"fara-conservanti-a37","name":"Fara conservanti","isSelected":false,"count":10},{"code":"fara-e-uri-a84","name":"Fara E-uri","isSelected":false,"count":12},{"code":"fara-gluten-a16","name":"Fara gluten","isSelected":false,"count":15},{"code":"fara-lactoza-a38","name":"Fara lactoza","isSelected":false,"count":5},{"code":"fara-zahar-adaugat-a29","name":"Fara zahar adaugat","isSelected":false,"count":2},{"code":"vegan-a24","name":"Vegan","isSelected":false,"count":39}]}]},"orderBy":[{"field":"price","direction":"asc","name":"Preț crescător","isSelected":false},{"field":"price","direction":"desc","name":"Preț descrescător","isSelected":false},{"field":"popularity","direction":"desc","name":"Cele mai populare","isSelected":true},{"field":"category","direction":"asc","name":"Categorie","isSelected":false}],"metaTitle":"Carne și specialități vegetale - Gamă variată","metaDescription":"Vrei Carne și specialități vegetale? Alege dintr-o gamă variată. Comanzi simplu și ai livrare rapidă, calitate și prospețime. Hai pe Freshful.ro","metaKeywords":null,"banners":[]}}