{"type":"subcategory","payload":{"analyticsListId":"category_carne-vegetala","analyticsListName":"Category - Carne vegetală","name":"Carne vegetală","slug":"carne-vegetala","image":null,"breadcrumbs":[{"code":"17","name":"Produse vegetale","slug":"produse-vegetale"},{"code":"1701","name":"Carne și specialități vegetale","slug":"carne-si-specialitati-vegetale"},{"code":"170101","name":"Carne vegetală","slug":"carne-vegetala"}],"slots":[],"page":1,"limit":10,"pages":2,"count":18,"siblings":[{"name":"Carne și specialități vegetale","slug":"carne-si-specialitati-vegetale","selected":true},{"name":"Băuturi, creme și grăsimi vegetale","slug":"bauturi-creme-si-grasimi-vegetale","selected":false}],"children":[{"name":"Toate produsele","slug":"carne-si-specialitati-vegetale","selected":false},{"name":"Carne vegetală","slug":"carne-vegetala","selected":true},{"name":"Specialități vegetale","slug":"specialitati-vegetale","selected":false}],"products":[{"code":"100036936","variantCode":"5941866614893","name":"Burger vegetal 220g","slug":"100036936-verdino-burger-vegetal-220g","unitPriceLabel":"54,5 Lei/kg","brand":"Verdino","brandCode":"206","brandFilterCode":"verdino-b207","sku":"100036936","price":11.99,"originalPrice":14.49,"currencyCode":"RON","currency":"Lei","image":{"thumbnail":{"default":"https://cdn.freshful.ro/media/cache/sylius_shop_product_thumbnail/12/e2/008dfe9a013e281ca1744babc9b4.jpg"},"large":{"default":"https://cdn.freshful.ro/media/cache/freshful_large/12/e2/008dfe9a013e281ca1744babc9b4.jpg"},"extralarge":{"default":"https://cdn.freshful.ro/media/cache/sylius_shop_product_original/12/e2/008dfe9a013e281ca1744babc9b4.jpg"}},"label":{"text":"-17%","backgroundColor":"#FF9903","textColor":"#FFFFFF"},"tags":[{"type":"vegan","text":"Vegan","icon":"https://cdn.freshful.ro/assets/product_tags/vegan.svg","iconPng":"https://cdn.freshful.ro/assets/product_tags/vegan.png","backgroundColor":"#ECF9F8","textColor":"#33A39C"}],"isAvailable":true,"maxAvailableQuantity":30,"maxAllowedQuantity":100,"breadcrumbs":[{"code":"17","name":"Produse vegetale","slug":"produse-vegetale"},{"code":"1701","name":"Carne și specialități vegetale","slug":"carne-si-specialitati-vegetale"},{"code":"170101","name":"Carne vegetală","slug":"carne-vegetala"},{"code":"100036936","name":"Burger vegetal 220g","slug":"100036936-verdino-burger-vegetal-220g"}],"activePromotion":{"code":"special-produse-vegane-mar23","name":"Preț redus","targetQuantity":null},"saveMe":null,"labels":[{"type":"v1","items":[{"text":"-17%","backgroundColor":"#FF9903","textColor":"#FFFFFF"}]}],"geniusPrice":null,"geniusUnitPricePerLabel":null,"banner":{"text":"Super preț","textColor":"#FF0000","bgColor":"#FFF2EC","icon":null,"link":"https://www.freshful.ro/oferte/special-produse-vegane-mar23","type":"promo","analyticsEventType":"select_promotion","analyticsEventPayload":{"promotion_id":"special-produse-vegane-mar23","promotion_name":"Și bun, și de post"}},"discountLabel":"Economisești 17%","geniusDiscountLabel":null,"badge":null},{"code":"100145155","variantCode":"100145155","name":"Șnițel vegan pe bază de plante 200g","slug":"100145155-vivera-snitel-vegan-pe-baza-de-plante-200g","unitPriceLabel":"74,95 Lei/kg","brand":"VIVERA","brandCode":"2812","brandFilterCode":"vivera-b2899","sku":"100145155","price":14.99,"originalPrice":15.99,"currencyCode":"RON","currency":"Lei","image":{"thumbnail":{"default":"https://cdn.freshful.ro/media/cache/sylius_shop_product_thumbnail/b2/a5/3a5796de8976d9f6268374791eb0.jpg"},"large":{"default":"https://cdn.freshful.ro/media/cache/freshful_large/b2/a5/3a5796de8976d9f6268374791eb0.jpg"},"extralarge":{"default":"https://cdn.freshful.ro/media/cache/sylius_shop_product_original/b2/a5/3a5796de8976d9f6268374791eb0.jpg"}},"label":{"text":"-6%","backgroundColor":"#FF9903","textColor":"#FFFFFF"},"tags":[{"type":"vegan","text":"Vegan","icon":"https://cdn.freshful.ro/assets/product_tags/vegan.svg","iconPng":"https://cdn.freshful.ro/assets/product_tags/vegan.png","backgroundColor":"#ECF9F8","textColor":"#33A39C"}],"isAvailable":true,"maxAvailableQuantity":73,"maxAllowedQuantity":100,"breadcrumbs":[{"code":"17","name":"Produse vegetale","slug":"produse-vegetale"},{"code":"1701","name":"Carne și specialități vegetale","slug":"carne-si-specialitati-vegetale"},{"code":"170101","name":"Carne vegetală","slug":"carne-vegetala"},{"code":"100145155","name":"Șnițel vegan pe bază de plante 200g","slug":"100145155-vivera-snitel-vegan-pe-baza-de-plante-200g"}],"activePromotion":{"code":"special-produse-vegane-mar23","name":"Preț redus","targetQuantity":null},"saveMe":null,"labels":[{"type":"v1","items":[{"text":"-6%","backgroundColor":"#FF9903","textColor":"#FFFFFF"}]}],"geniusPrice":null,"geniusUnitPricePerLabel":null,"banner":{"text":"Super preț","textColor":"#FF0000","bgColor":"#FFF2EC","icon":null,"link":"https://www.freshful.ro/oferte/special-produse-vegane-mar23","type":"promo","analyticsEventType":"select_promotion","analyticsEventPayload":{"promotion_id":"special-produse-vegane-mar23","promotion_name":"Și bun, și de post"}},"discountLabel":"Economisești 6%","geniusDiscountLabel":null,"badge":null},{"code":"100145153","variantCode":"100145153","name":"Bucăți vegane cu aromă de pui 160g","slug":"100145153-vivera-bucati-vegane-cu-aroma-de-pui-160g","unitPriceLabel":"84,31 Lei/kg","brand":"VIVERA","brandCode":"2812","brandFilterCode":"vivera-b2899","sku":"100145153","price":13.49,"originalPrice":14.99,"currencyCode":"RON","currency":"Lei","image":{"thumbnail":{"default":"https://cdn.freshful.ro/media/cache/sylius_shop_product_thumbnail/2d/f9/cd28515875272c6800acee89b892.jpg"},"large":{"default":"https://cdn.freshful.ro/media/cache/freshful_large/2d/f9/cd28515875272c6800acee89b892.jpg"},"extralarge":{"default":"https://cdn.freshful.ro/media/cache/sylius_shop_product_original/2d/f9/cd28515875272c6800acee89b892.jpg"}},"label":{"text":"-10%","backgroundColor":"#FF9903","textColor":"#FFFFFF"},"tags":[{"type":"vegan","text":"Vegan","icon":"https://cdn.freshful.ro/assets/product_tags/vegan.svg","iconPng":"https://cdn.freshful.ro/assets/product_tags/vegan.png","backgroundColor":"#ECF9F8","textColor":"#33A39C"}],"isAvailable":true,"maxAvailableQuantity":100,"maxAllowedQuantity":100,"breadcrumbs":[{"code":"17","name":"Produse vegetale","slug":"produse-vegetale"},{"code":"1701","name":"Carne și specialități vegetale","slug":"carne-si-specialitati-vegetale"},{"code":"170101","name":"Carne vegetală","slug":"carne-vegetala"},{"code":"100145153","name":"Bucăți vegane cu aromă de pui 160g","slug":"100145153-vivera-bucati-vegane-cu-aroma-de-pui-160g"}],"activePromotion":{"code":"special-produse-vegane-mar23","name":"Preț redus","targetQuantity":null},"saveMe":null,"labels":[{"type":"v1","items":[{"text":"-10%","backgroundColor":"#FF9903","textColor":"#FFFFFF"}]}],"geniusPrice":null,"geniusUnitPricePerLabel":null,"banner":{"text":"Super preț","textColor":"#FF0000","bgColor":"#FFF2EC","icon":null,"link":"https://www.freshful.ro/oferte/special-produse-vegane-mar23","type":"promo","analyticsEventType":"select_promotion","analyticsEventPayload":{"promotion_id":"special-produse-vegane-mar23","promotion_name":"Și bun, și de post"}},"discountLabel":"Economisești 10%","geniusDiscountLabel":null,"badge":null},{"code":"100036934","variantCode":"5941866618297","name":"Cârnați vegetali tip Salsiccia 200g","slug":"100036934-verdino-carnati-vegetali-tip-salsiccia-200g","unitPriceLabel":"64,45 Lei/kg","brand":"Verdino","brandCode":"206","brandFilterCode":"verdino-b207","sku":"100036934","price":12.89,"originalPrice":13.99,"currencyCode":"RON","currency":"Lei","image":{"thumbnail":{"default":"https://cdn.freshful.ro/media/cache/sylius_shop_product_thumbnail/b7/0a/c3b1ff0de15fe190c4c28749f3ae.jpg"},"large":{"default":"https://cdn.freshful.ro/media/cache/freshful_large/b7/0a/c3b1ff0de15fe190c4c28749f3ae.jpg"},"extralarge":{"default":"https://cdn.freshful.ro/media/cache/sylius_shop_product_original/b7/0a/c3b1ff0de15fe190c4c28749f3ae.jpg"}},"label":{"text":"-7%","backgroundColor":"#FF9903","textColor":"#FFFFFF"},"tags":[{"type":"vegan","text":"Vegan","icon":"https://cdn.freshful.ro/assets/product_tags/vegan.svg","iconPng":"https://cdn.freshful.ro/assets/product_tags/vegan.png","backgroundColor":"#ECF9F8","textColor":"#33A39C"}],"isAvailable":true,"maxAvailableQuantity":55,"maxAllowedQuantity":100,"breadcrumbs":[{"code":"17","name":"Produse vegetale","slug":"produse-vegetale"},{"code":"1701","name":"Carne și specialități vegetale","slug":"carne-si-specialitati-vegetale"},{"code":"170101","name":"Carne vegetală","slug":"carne-vegetala"},{"code":"100036934","name":"Cârnați vegetali tip Salsiccia 200g","slug":"100036934-verdino-carnati-vegetali-tip-salsiccia-200g"}],"activePromotion":{"code":"freshful-top-deals-2023","name":"Preț redus","targetQuantity":null},"saveMe":null,"labels":[{"type":"v1","items":[{"text":"-7%","backgroundColor":"#FF9903","textColor":"#FFFFFF"}]}],"geniusPrice":null,"geniusUnitPricePerLabel":null,"banner":{"text":"Super preț","textColor":"#FF0000","bgColor":"#FFF2EC","icon":null,"link":"https://www.freshful.ro/oferte/freshful-top-deals-2023","type":"promo","analyticsEventType":"select_promotion","analyticsEventPayload":{"promotion_id":"freshful-top-deals-2023","promotion_name":"Profită de Top Deals"}},"discountLabel":"Economisești 7%","geniusDiscountLabel":null,"badge":null},{"code":"100145154","variantCode":"100145154","name":"Nuggets vegani pe bază de plante 200g","slug":"100145154-vivera-nuggets-vegani-pe-baza-de-plante-200g","unitPriceLabel":"84,95 Lei/kg","brand":"VIVERA","brandCode":"2812","brandFilterCode":"vivera-b2899","sku":"100145154","price":16.99,"originalPrice":18.79,"currencyCode":"RON","currency":"Lei","image":{"thumbnail":{"default":"https://cdn.freshful.ro/media/cache/sylius_shop_product_thumbnail/a3/07/da51874bce1c47196d15c2dc94f4.jpg"},"large":{"default":"https://cdn.freshful.ro/media/cache/freshful_large/a3/07/da51874bce1c47196d15c2dc94f4.jpg"},"extralarge":{"default":"https://cdn.freshful.ro/media/cache/sylius_shop_product_original/a3/07/da51874bce1c47196d15c2dc94f4.jpg"}},"label":{"text":"-9%","backgroundColor":"#FF9903","textColor":"#FFFFFF"},"tags":[{"type":"vegan","text":"Vegan","icon":"https://cdn.freshful.ro/assets/product_tags/vegan.svg","iconPng":"https://cdn.freshful.ro/assets/product_tags/vegan.png","backgroundColor":"#ECF9F8","textColor":"#33A39C"}],"isAvailable":true,"maxAvailableQuantity":100,"maxAllowedQuantity":100,"breadcrumbs":[{"code":"17","name":"Produse vegetale","slug":"produse-vegetale"},{"code":"1701","name":"Carne și specialități vegetale","slug":"carne-si-specialitati-vegetale"},{"code":"170101","name":"Carne vegetală","slug":"carne-vegetala"},{"code":"100145154","name":"Nuggets vegani pe bază de plante 200g","slug":"100145154-vivera-nuggets-vegani-pe-baza-de-plante-200g"}],"activePromotion":{"code":"special-produse-vegane-mar23","name":"Preț redus","targetQuantity":null},"saveMe":null,"labels":[{"type":"v1","items":[{"text":"-9%","backgroundColor":"#FF9903","textColor":"#FFFFFF"}]}],"geniusPrice":null,"geniusUnitPricePerLabel":null,"banner":{"text":"Super preț","textColor":"#FF0000","bgColor":"#FFF2EC","icon":null,"link":"https://www.freshful.ro/oferte/special-produse-vegane-mar23","type":"promo","analyticsEventType":"select_promotion","analyticsEventPayload":{"promotion_id":"special-produse-vegane-mar23","promotion_name":"Și bun, și de post"}},"discountLabel":"Economisești 9%","geniusDiscountLabel":null,"badge":null},{"code":"100036937","variantCode":"5941866618051","name":"Cheeseburger vegetal 220g","slug":"100036937-verdino-cheeseburger-vegetal-220g","unitPriceLabel":"63,59 Lei/kg","brand":"Verdino","brandCode":"206","brandFilterCode":"verdino-b207","sku":"100036937","price":13.99,"originalPrice":19.49,"currencyCode":"RON","currency":"Lei","image":{"thumbnail":{"default":"https://cdn.freshful.ro/media/cache/sylius_shop_product_thumbnail/7d/35/0b1868d1c26dcc320915a700a06b.jpg"},"large":{"default":"https://cdn.freshful.ro/media/cache/freshful_large/7d/35/0b1868d1c26dcc320915a700a06b.jpg"},"extralarge":{"default":"https://cdn.freshful.ro/media/cache/sylius_shop_product_original/7d/35/0b1868d1c26dcc320915a700a06b.jpg"}},"label":{"text":"-28%","backgroundColor":"#FF9903","textColor":"#FFFFFF"},"tags":[{"type":"vegan","text":"Vegan","icon":"https://cdn.freshful.ro/assets/product_tags/vegan.svg","iconPng":"https://cdn.freshful.ro/assets/product_tags/vegan.png","backgroundColor":"#ECF9F8","textColor":"#33A39C"}],"isAvailable":true,"maxAvailableQuantity":55,"maxAllowedQuantity":100,"breadcrumbs":[{"code":"17","name":"Produse vegetale","slug":"produse-vegetale"},{"code":"1701","name":"Carne și specialități vegetale","slug":"carne-si-specialitati-vegetale"},{"code":"170101","name":"Carne vegetală","slug":"carne-vegetala"},{"code":"100036937","name":"Cheeseburger vegetal 220g","slug":"100036937-verdino-cheeseburger-vegetal-220g"}],"activePromotion":{"code":"special-produse-vegane-mar23","name":"Preț redus","targetQuantity":null},"saveMe":null,"labels":[{"type":"v1","items":[{"text":"-28%","backgroundColor":"#FF9903","textColor":"#FFFFFF"}]}],"geniusPrice":null,"geniusUnitPricePerLabel":null,"banner":{"text":"Super preț","textColor":"#FF0000","bgColor":"#FFF2EC","icon":null,"link":"https://www.freshful.ro/oferte/special-produse-vegane-mar23","type":"promo","analyticsEventType":"select_promotion","analyticsEventPayload":{"promotion_id":"special-produse-vegane-mar23","promotion_name":"Și bun, și de post"}},"discountLabel":"Economisești 28%","geniusDiscountLabel":null,"badge":null},{"code":"100145156","variantCode":"100145156","name":"Bastonașe vegane cu aromă de pește 210g","slug":"100145156-vivera-bastonase-vegane-cu-aroma-de-peste-210g","unitPriceLabel":"80,9 Lei/kg","brand":"VIVERA","brandCode":"2812","brandFilterCode":"vivera-b2899","sku":"100145156","price":16.99,"originalPrice":18.99,"currencyCode":"RON","currency":"Lei","image":{"thumbnail":{"default":"https://cdn.freshful.ro/media/cache/sylius_shop_product_thumbnail/86/5f/88b26ddfcfd8bf0ec4dccf59d41b.jpg"},"large":{"default":"https://cdn.freshful.ro/media/cache/freshful_large/86/5f/88b26ddfcfd8bf0ec4dccf59d41b.jpg"},"extralarge":{"default":"https://cdn.freshful.ro/media/cache/sylius_shop_product_original/86/5f/88b26ddfcfd8bf0ec4dccf59d41b.jpg"}},"label":{"text":"-10%","backgroundColor":"#FF9903","textColor":"#FFFFFF"},"tags":[{"type":"vegan","text":"Vegan","icon":"https://cdn.freshful.ro/assets/product_tags/vegan.svg","iconPng":"https://cdn.freshful.ro/assets/product_tags/vegan.png","backgroundColor":"#ECF9F8","textColor":"#33A39C"}],"isAvailable":true,"maxAvailableQuantity":58,"maxAllowedQuantity":100,"breadcrumbs":[{"code":"17","name":"Produse vegetale","slug":"produse-vegetale"},{"code":"1701","name":"Carne și specialități vegetale","slug":"carne-si-specialitati-vegetale"},{"code":"170101","name":"Carne vegetală","slug":"carne-vegetala"},{"code":"100145156","name":"Bastonașe vegane cu aromă de pește 210g","slug":"100145156-vivera-bastonase-vegane-cu-aroma-de-peste-210g"}],"activePromotion":{"code":"special-produse-vegane-mar23","name":"Preț redus","targetQuantity":null},"saveMe":null,"labels":[{"type":"v1","items":[{"text":"-10%","backgroundColor":"#FF9903","textColor":"#FFFFFF"}]}],"geniusPrice":null,"geniusUnitPricePerLabel":null,"banner":{"text":"Super preț","textColor":"#FF0000","bgColor":"#FFF2EC","icon":null,"link":"https://www.freshful.ro/oferte/special-produse-vegane-mar23","type":"promo","analyticsEventType":"select_promotion","analyticsEventPayload":{"promotion_id":"special-produse-vegane-mar23","promotion_name":"Și bun, și de post"}},"discountLabel":"Economisești 10%","geniusDiscountLabel":null,"badge":null},{"code":"100147930","variantCode":"100147930","name":"Burger vegetal cu gust de carne 220g","slug":"100147930-inedit-burger-vegetal-cu-gust-de-carne-220g","unitPriceLabel":"90,86 Lei/kg","brand":"Inedit","brandCode":"60","brandFilterCode":"inedit-b57","sku":"100147930","price":19.99,"originalPrice":23.99,"currencyCode":"RON","currency":"Lei","image":{"thumbnail":{"default":"https://cdn.freshful.ro/media/cache/sylius_shop_product_thumbnail/ba/8d/b84353a695352233bc63b2b96ea0.jpg"},"large":{"default":"https://cdn.freshful.ro/media/cache/freshful_large/ba/8d/b84353a695352233bc63b2b96ea0.jpg"},"extralarge":{"default":"https://cdn.freshful.ro/media/cache/sylius_shop_product_original/ba/8d/b84353a695352233bc63b2b96ea0.jpg"}},"label":{"text":"-16%","backgroundColor":"#FF9903","textColor":"#FFFFFF"},"tags":[{"type":"vegan","text":"Vegan","icon":"https://cdn.freshful.ro/assets/product_tags/vegan.svg","iconPng":"https://cdn.freshful.ro/assets/product_tags/vegan.png","backgroundColor":"#ECF9F8","textColor":"#33A39C"},{"type":"Frozen","text":"Congelat","icon":"https://cdn.freshful.ro/assets/product_tags/congelat.svg","iconPng":"https://cdn.freshful.ro/assets/product_tags/congelat.png","backgroundColor":"#EDF6FA","textColor":"#2E9AD1"}],"isAvailable":true,"maxAvailableQuantity":28,"maxAllowedQuantity":100,"breadcrumbs":[{"code":"17","name":"Produse vegetale","slug":"produse-vegetale"},{"code":"1701","name":"Carne și specialități vegetale","slug":"carne-si-specialitati-vegetale"},{"code":"170101","name":"Carne vegetală","slug":"carne-vegetala"},{"code":"100147930","name":"Burger vegetal cu gust de carne 220g","slug":"100147930-inedit-burger-vegetal-cu-gust-de-carne-220g"}],"activePromotion":{"code":"special-produse-vegane-mar23","name":"Preț redus","targetQuantity":null},"saveMe":null,"labels":[{"type":"v1","items":[{"text":"-16%","backgroundColor":"#FF9903","textColor":"#FFFFFF"}]}],"geniusPrice":null,"geniusUnitPricePerLabel":null,"banner":{"text":"Super preț","textColor":"#FF0000","bgColor":"#FFF2EC","icon":null,"link":"https://www.freshful.ro/oferte/special-produse-vegane-mar23","type":"promo","analyticsEventType":"select_promotion","analyticsEventPayload":{"promotion_id":"special-produse-vegane-mar23","promotion_name":"Și bun, și de post"}},"discountLabel":"Economisești 16%","geniusDiscountLabel":null,"badge":null},{"code":"100148053","variantCode":"100148053","name":"Burger vegan 200g","slug":"100148053-aivia-burger-vegan-200g","unitPriceLabel":"99,95 Lei/kg","brand":"Aivia","brandCode":"212","brandFilterCode":"aivia-b213","sku":"100148053","price":19.99,"originalPrice":null,"currencyCode":"RON","currency":"Lei","image":{"thumbnail":{"default":"https://cdn.freshful.ro/media/cache/sylius_shop_product_thumbnail/25/b3/d7335161b44b5cedb8f27ee72d6a.jpg"},"large":{"default":"https://cdn.freshful.ro/media/cache/freshful_large/25/b3/d7335161b44b5cedb8f27ee72d6a.jpg"},"extralarge":{"default":"https://cdn.freshful.ro/media/cache/sylius_shop_product_original/25/b3/d7335161b44b5cedb8f27ee72d6a.jpg"}},"label":null,"tags":[{"type":"vegan","text":"Vegan","icon":"https://cdn.freshful.ro/assets/product_tags/vegan.svg","iconPng":"https://cdn.freshful.ro/assets/product_tags/vegan.png","backgroundColor":"#ECF9F8","textColor":"#33A39C"},{"type":"NoGluten","text":"Fara gluten","icon":"https://cdn.freshful.ro/assets/product_tags/fara_gluten.svg","iconPng":"https://cdn.freshful.ro/assets/product_tags/fara_gluten.png","backgroundColor":"#FFF2E5","textColor":"#F07900"},{"type":"NoE","text":"Fara E-uri","icon":"https://cdn.freshful.ro/assets/product_tags/fara_euri.svg","iconPng":"https://cdn.freshful.ro/assets/product_tags/fara_euri.png","backgroundColor":"#FCF5DF","textColor":"#CAA316"}],"isAvailable":true,"maxAvailableQuantity":32,"maxAllowedQuantity":100,"breadcrumbs":[{"code":"17","name":"Produse vegetale","slug":"produse-vegetale"},{"code":"1701","name":"Carne și specialități vegetale","slug":"carne-si-specialitati-vegetale"},{"code":"170101","name":"Carne vegetală","slug":"carne-vegetala"},{"code":"100148053","name":"Burger vegan 200g","slug":"100148053-aivia-burger-vegan-200g"}],"activePromotion":null,"saveMe":null,"labels":[],"geniusPrice":null,"geniusUnitPricePerLabel":null,"banner":null,"discountLabel":null,"geniusDiscountLabel":null,"badge":null},{"code":"100036940","variantCode":"5941866617153","name":"Carne vegetală tocată 200g","slug":"100036940-verdino-carne-vegetala-tocata-200g","unitPriceLabel":"59,95 Lei/kg","brand":"Verdino","brandCode":"206","brandFilterCode":"verdino-b207","sku":"100036940","price":11.99,"originalPrice":null,"currencyCode":"RON","currency":"Lei","image":{"thumbnail":{"default":"https://cdn.freshful.ro/media/cache/sylius_shop_product_thumbnail/91/75/9d74bd5450ee67fbe3244d69c008.jpg"},"large":{"default":"https://cdn.freshful.ro/media/cache/freshful_large/91/75/9d74bd5450ee67fbe3244d69c008.jpg"},"extralarge":{"default":"https://cdn.freshful.ro/media/cache/sylius_shop_product_original/91/75/9d74bd5450ee67fbe3244d69c008.jpg"}},"label":null,"tags":[{"type":"vegan","text":"Vegan","icon":"https://cdn.freshful.ro/assets/product_tags/vegan.svg","iconPng":"https://cdn.freshful.ro/assets/product_tags/vegan.png","backgroundColor":"#ECF9F8","textColor":"#33A39C"}],"isAvailable":true,"maxAvailableQuantity":84,"maxAllowedQuantity":100,"breadcrumbs":[{"code":"17","name":"Produse vegetale","slug":"produse-vegetale"},{"code":"1701","name":"Carne și specialități vegetale","slug":"carne-si-specialitati-vegetale"},{"code":"170101","name":"Carne vegetală","slug":"carne-vegetala"},{"code":"100036940","name":"Carne vegetală tocată 200g","slug":"100036940-verdino-carne-vegetala-tocata-200g"}],"activePromotion":null,"saveMe":null,"labels":[],"geniusPrice":null,"geniusUnitPricePerLabel":null,"banner":null,"discountLabel":null,"geniusDiscountLabel":null,"badge":null}],"filters":{"countSelected":0,"items":[{"code":"promotion","name":"Promoții","countSelected":0,"values":[{"code":"freshful-top-deals-2023","name":"Profită de Top Deals","isSelected":false,"count":1},{"code":"special-produse-vegane-mar23","name":"Și bun, și de post","isSelected":false,"count":7}]},{"code":"brand","name":"Brand","countSelected":0,"values":[{"code":"aivia-b213","name":"Aivia","isSelected":false,"count":3},{"code":"inedit-b57","name":"Inedit","isSelected":false,"count":1},{"code":"verdino-b207","name":"Verdino","isSelected":false,"count":6},{"code":"vivera-b2899","name":"VIVERA","isSelected":false,"count":8}]},{"code":"diet_lifestyle","name":"Dietă și lifestyle","countSelected":0,"values":[{"code":"congelat-a66","name":"Congelat","isSelected":false,"count":1},{"code":"fara-conservanti-a37","name":"Fara conservanti","isSelected":false,"count":2},{"code":"fara-e-uri-a84","name":"Fara E-uri","isSelected":false,"count":3},{"code":"fara-gluten-a16","name":"Fara gluten","isSelected":false,"count":2},{"code":"vegan-a24","name":"Vegan","isSelected":false,"count":18}]}]},"orderBy":[{"field":"price","direction":"asc","name":"Preț crescător","isSelected":false},{"field":"price","direction":"desc","name":"Preț descrescător","isSelected":false},{"field":"popularity","direction":"desc","name":"Cele mai populare","isSelected":true},{"field":"category","direction":"asc","name":"Categorie","isSelected":false}],"metaTitle":"Carne vegetală - Gamă variată","metaDescription":"Vrei Carne vegetală? Alege dintr-o gamă variată. Comanzi simplu și ai livrare rapidă, calitate și prospețime. Hai pe Freshful.ro","metaKeywords":null,"banners":[]}}