{"type":"subcategory","payload":{"analyticsListId":"category_compot-de-fructe","analyticsListName":"Category - Compot de fructe","name":"Compot de fructe","slug":"compot-de-fructe","image":null,"breadcrumbs":[{"code":"8","name":"Băcănie","slug":"8-ceva-sarat"},{"code":"806","name":"Făină, zahăr și produse gourmet","slug":"faina-zahar-si-produse-gourmet"},{"code":"80603","name":"Compot de fructe","slug":"compot-de-fructe"}],"slots":[],"page":1,"limit":10,"pages":5,"count":46,"siblings":[{"name":"Paste, orez și legume uscate","slug":"801-paste-orez-si-legume-uscate","selected":false},{"name":"Conserve","slug":"802-conserve","selected":false},{"name":"Condimente și sosuri","slug":"803-condimente-si-sosuri","selected":false},{"name":"Ulei și oțet","slug":"804-ulei-si-otet","selected":false},{"name":"De ronțăit","slug":"805-aperitive-sarate","selected":false},{"name":"Făină, zahăr și produse gourmet","slug":"faina-zahar-si-produse-gourmet","selected":true}],"children":[{"name":"Toate produsele","slug":"faina-zahar-si-produse-gourmet","selected":false},{"name":"Făină, mălai și griș","slug":"faina-malai-si-gris","selected":false},{"name":"Zahăr","slug":"zahar","selected":false},{"name":"Compot de fructe","slug":"compot-de-fructe","selected":true},{"name":"Creme, budinci și semipreparate","slug":"creme-budinci-si-semipreparate","selected":false},{"name":"Zahăr vanilat și esențe","slug":"zahar-vanilat-si-esente","selected":false},{"name":"Praf de copt, drojdie, bicarbonat și decorațiuni","slug":"praf-de-copt-drojdie-bicarbonat-si-decoratiuni","selected":false}],"products":[{"code":"100086821","variantCode":"8856049000196","name":"Ananas bucăți, în sirop 565g","slug":"100086821-home-garden-ananas-bucati-in-sirop-565g","unitPriceLabel":"13,97 Lei/buc","brand":"Home Garden","brandCode":"781","brandFilterCode":"home-garden-b782","sku":"100086821","price":9.99,"originalPrice":null,"currencyCode":"RON","currency":"Lei","image":{"thumbnail":{"default":"https://cdn.freshful.ro/media/cache/sylius_shop_product_thumbnail/8a/47/76701698a628653fe35f76913d81.jpg"},"large":{"default":"https://cdn.freshful.ro/media/cache/freshful_large/8a/47/76701698a628653fe35f76913d81.jpg"},"extralarge":{"default":"https://cdn.freshful.ro/media/cache/sylius_shop_product_original/8a/47/76701698a628653fe35f76913d81.jpg"}},"label":{"text":"Primul preț","backgroundColor":"#3A0808","textColor":"#FFFFFF"},"tags":[],"isAvailable":true,"maxAvailableQuantity":100,"maxAllowedQuantity":100,"breadcrumbs":[{"code":"8","name":"Băcănie","slug":"8-ceva-sarat"},{"code":"806","name":"Făină, zahăr și produse gourmet","slug":"faina-zahar-si-produse-gourmet"},{"code":"80603","name":"Compot de fructe","slug":"compot-de-fructe"},{"code":"100086821","name":"Ananas bucăți, în sirop 565g","slug":"100086821-home-garden-ananas-bucati-in-sirop-565g"}],"activePromotion":null,"saveMe":null,"labels":[{"type":"v4","items":[{"text":"Primul","backgroundColor":"#3A0808","textColor":"#FFFFFF"},{"text":"preț","backgroundColor":"#BC0606","textColor":"#FFFFFF"}]}],"geniusPrice":null,"geniusUnitPricePerLabel":null,"banner":null,"discountLabel":null,"geniusDiscountLabel":null,"badge":null},{"code":"100150727","variantCode":"100150727","name":"Compot piersici jumătăți, decojite 560g","slug":"100150727-olympia-compot-piersici-jumatati-decojite-560g","unitPriceLabel":"16,77 Lei/kg","brand":"Olympia","brandCode":"243","brandFilterCode":"olympia-b244","sku":"100150727","price":9.56,"originalPrice":null,"currencyCode":"RON","currency":"Lei","image":{"thumbnail":{"default":"https://cdn.freshful.ro/media/cache/sylius_shop_product_thumbnail/8a/2b/bddc2debfb2395a083d4dc1dfa38.jpg"},"large":{"default":"https://cdn.freshful.ro/media/cache/freshful_large/8a/2b/bddc2debfb2395a083d4dc1dfa38.jpg"},"extralarge":{"default":"https://cdn.freshful.ro/media/cache/sylius_shop_product_original/8a/2b/bddc2debfb2395a083d4dc1dfa38.jpg"}},"label":{"text":"Primul preț","backgroundColor":"#3A0808","textColor":"#FFFFFF"},"tags":[],"isAvailable":true,"maxAvailableQuantity":100,"maxAllowedQuantity":100,"breadcrumbs":[{"code":"8","name":"Băcănie","slug":"8-ceva-sarat"},{"code":"806","name":"Făină, zahăr și produse gourmet","slug":"faina-zahar-si-produse-gourmet"},{"code":"80603","name":"Compot de fructe","slug":"compot-de-fructe"},{"code":"100150727","name":"Compot piersici jumătăți, decojite 560g","slug":"100150727-olympia-compot-piersici-jumatati-decojite-560g"}],"activePromotion":null,"saveMe":null,"labels":[{"type":"v4","items":[{"text":"Primul","backgroundColor":"#3A0808","textColor":"#FFFFFF"},{"text":"preț","backgroundColor":"#BC0606","textColor":"#FFFFFF"}]}],"geniusPrice":null,"geniusUnitPricePerLabel":null,"banner":null,"discountLabel":null,"geniusDiscountLabel":null,"badge":null},{"code":"100097227","variantCode":"38900014124","name":"Ananas cuburi, în suc propriu, Tropical Gold 567g","slug":"100097227-dole-ananas-cuburi-in-suc-propriu-tropical-gold-567g","unitPriceLabel":"27,34 Lei/kg","brand":"Dole","brandCode":"1622","brandFilterCode":"dole-b1626","sku":"100097227","price":15.5,"originalPrice":null,"currencyCode":"RON","currency":"Lei","image":{"thumbnail":{"default":"https://cdn.freshful.ro/media/cache/sylius_shop_product_thumbnail/b0/73/4e385484f371dec7a804369650a9.jpg"},"large":{"default":"https://cdn.freshful.ro/media/cache/freshful_large/b0/73/4e385484f371dec7a804369650a9.jpg"},"extralarge":{"default":"https://cdn.freshful.ro/media/cache/sylius_shop_product_original/b0/73/4e385484f371dec7a804369650a9.jpg"}},"label":null,"tags":[],"isAvailable":true,"maxAvailableQuantity":67,"maxAllowedQuantity":100,"breadcrumbs":[{"code":"8","name":"Băcănie","slug":"8-ceva-sarat"},{"code":"806","name":"Făină, zahăr și produse gourmet","slug":"faina-zahar-si-produse-gourmet"},{"code":"80603","name":"Compot de fructe","slug":"compot-de-fructe"},{"code":"100097227","name":"Ananas cuburi, în suc propriu, Tropical Gold 567g","slug":"100097227-dole-ananas-cuburi-in-suc-propriu-tropical-gold-567g"}],"activePromotion":null,"saveMe":null,"labels":[],"geniusPrice":null,"geniusUnitPricePerLabel":null,"banner":null,"discountLabel":null,"geniusDiscountLabel":null,"badge":null},{"code":"100150726","variantCode":"100150726","name":"Compot de caise 720ml","slug":"100150726-olympia-compot-de-caise-720ml","unitPriceLabel":"7,34 Lei/kg","brand":"Olympia","brandCode":"243","brandFilterCode":"olympia-b244","sku":"100150726","price":4.99,"originalPrice":null,"currencyCode":"RON","currency":"Lei","image":{"thumbnail":{"default":"https://cdn.freshful.ro/media/cache/sylius_shop_product_thumbnail/22/66/dd11f3cddedbbaab6c115fc3a367.jpg"},"large":{"default":"https://cdn.freshful.ro/media/cache/freshful_large/22/66/dd11f3cddedbbaab6c115fc3a367.jpg"},"extralarge":{"default":"https://cdn.freshful.ro/media/cache/sylius_shop_product_original/22/66/dd11f3cddedbbaab6c115fc3a367.jpg"}},"label":{"text":"Primul preț","backgroundColor":"#3A0808","textColor":"#FFFFFF"},"tags":[],"isAvailable":true,"maxAvailableQuantity":100,"maxAllowedQuantity":100,"breadcrumbs":[{"code":"8","name":"Băcănie","slug":"8-ceva-sarat"},{"code":"806","name":"Făină, zahăr și produse gourmet","slug":"faina-zahar-si-produse-gourmet"},{"code":"80603","name":"Compot de fructe","slug":"compot-de-fructe"},{"code":"100150726","name":"Compot de caise 720ml","slug":"100150726-olympia-compot-de-caise-720ml"}],"activePromotion":null,"saveMe":null,"labels":[{"type":"v4","items":[{"text":"Primul","backgroundColor":"#3A0808","textColor":"#FFFFFF"},{"text":"preț","backgroundColor":"#BC0606","textColor":"#FFFFFF"}]}],"geniusPrice":null,"geniusUnitPricePerLabel":null,"banner":null,"discountLabel":null,"geniusDiscountLabel":null,"badge":null},{"code":"100097226","variantCode":"100097226","name":"Ananas rondele, în suc propriu, Tropical Gold 567g","slug":"100097226-dole-ananas-rondele-in-suc-propriu-tropical-gold-567g","unitPriceLabel":"26,1 Lei/kg","brand":"Dole","brandCode":"1622","brandFilterCode":"dole-b1626","sku":"100097226","price":14.8,"originalPrice":null,"currencyCode":"RON","currency":"Lei","image":{"thumbnail":{"default":"https://cdn.freshful.ro/media/cache/sylius_shop_product_thumbnail/4f/64/bddb19c5aeb21cc5e7eb0beb52f6.jpg"},"large":{"default":"https://cdn.freshful.ro/media/cache/freshful_large/4f/64/bddb19c5aeb21cc5e7eb0beb52f6.jpg"},"extralarge":{"default":"https://cdn.freshful.ro/media/cache/sylius_shop_product_original/4f/64/bddb19c5aeb21cc5e7eb0beb52f6.jpg"}},"label":null,"tags":[],"isAvailable":true,"maxAvailableQuantity":67,"maxAllowedQuantity":100,"breadcrumbs":[{"code":"8","name":"Băcănie","slug":"8-ceva-sarat"},{"code":"806","name":"Făină, zahăr și produse gourmet","slug":"faina-zahar-si-produse-gourmet"},{"code":"80603","name":"Compot de fructe","slug":"compot-de-fructe"},{"code":"100097226","name":"Ananas rondele, în suc propriu, Tropical Gold 567g","slug":"100097226-dole-ananas-rondele-in-suc-propriu-tropical-gold-567g"}],"activePromotion":null,"saveMe":null,"labels":[],"geniusPrice":null,"geniusUnitPricePerLabel":null,"banner":null,"discountLabel":null,"geniusDiscountLabel":null,"badge":null},{"code":"100097228","variantCode":"38900014278","name":"Ananas cuburi, în suc propriu, Tropical Gold 3x227g","slug":"100097228-dole-ananas-cuburi-in-suc-propriu-tropical-gold-3x227g","unitPriceLabel":"30,1 Lei/kg","brand":"Dole","brandCode":"1622","brandFilterCode":"dole-b1626","sku":"100097228","price":20.5,"originalPrice":null,"currencyCode":"RON","currency":"Lei","image":{"thumbnail":{"default":"https://cdn.freshful.ro/media/cache/sylius_shop_product_thumbnail/fc/a3/c9eef15ba260a5b8b41b085bcd89.jpg"},"large":{"default":"https://cdn.freshful.ro/media/cache/freshful_large/fc/a3/c9eef15ba260a5b8b41b085bcd89.jpg"},"extralarge":{"default":"https://cdn.freshful.ro/media/cache/sylius_shop_product_original/fc/a3/c9eef15ba260a5b8b41b085bcd89.jpg"}},"label":null,"tags":[],"isAvailable":true,"maxAvailableQuantity":98,"maxAllowedQuantity":100,"breadcrumbs":[{"code":"8","name":"Băcănie","slug":"8-ceva-sarat"},{"code":"806","name":"Făină, zahăr și produse gourmet","slug":"faina-zahar-si-produse-gourmet"},{"code":"80603","name":"Compot de fructe","slug":"compot-de-fructe"},{"code":"100097228","name":"Ananas cuburi, în suc propriu, Tropical Gold 3x227g","slug":"100097228-dole-ananas-cuburi-in-suc-propriu-tropical-gold-3x227g"}],"activePromotion":null,"saveMe":null,"labels":[],"geniusPrice":null,"geniusUnitPricePerLabel":null,"banner":null,"discountLabel":null,"geniusDiscountLabel":null,"badge":null},{"code":"100086825","variantCode":"100086825","name":"Compot de piersici 720g","slug":"100086825-home-garden-compot-de-piersici-720g","unitPriceLabel":"8,99 Lei/buc","brand":"Home Garden","brandCode":"781","brandFilterCode":"home-garden-b782","sku":"100086825","price":8.99,"originalPrice":null,"currencyCode":"RON","currency":"Lei","image":{"thumbnail":{"default":"https://cdn.freshful.ro/media/cache/sylius_shop_product_thumbnail/5d/6f/05c7f2525048ce7fd3065b06bf1f.jpg"},"large":{"default":"https://cdn.freshful.ro/media/cache/freshful_large/5d/6f/05c7f2525048ce7fd3065b06bf1f.jpg"},"extralarge":{"default":"https://cdn.freshful.ro/media/cache/sylius_shop_product_original/5d/6f/05c7f2525048ce7fd3065b06bf1f.jpg"}},"label":null,"tags":[],"isAvailable":true,"maxAvailableQuantity":100,"maxAllowedQuantity":100,"breadcrumbs":[{"code":"8","name":"Băcănie","slug":"8-ceva-sarat"},{"code":"806","name":"Făină, zahăr și produse gourmet","slug":"faina-zahar-si-produse-gourmet"},{"code":"80603","name":"Compot de fructe","slug":"compot-de-fructe"},{"code":"100086825","name":"Compot de piersici 720g","slug":"100086825-home-garden-compot-de-piersici-720g"}],"activePromotion":null,"saveMe":null,"labels":[],"geniusPrice":null,"geniusUnitPricePerLabel":null,"banner":null,"discountLabel":null,"geniusDiscountLabel":null,"badge":null},{"code":"100092737","variantCode":"5941466002069","name":"Compot de piersici decojite 700g","slug":"100092737-olympia-compot-de-piersici-decojite-700g","unitPriceLabel":"17,49 Lei/buc","brand":"Olympia","brandCode":"243","brandFilterCode":"olympia-b244","sku":"100092737","price":11.89,"originalPrice":null,"currencyCode":"RON","currency":"Lei","image":{"thumbnail":{"default":"https://cdn.freshful.ro/media/cache/sylius_shop_product_thumbnail/05/78/362f7399573e088ed2af4f9d9e06.jpg"},"large":{"default":"https://cdn.freshful.ro/media/cache/freshful_large/05/78/362f7399573e088ed2af4f9d9e06.jpg"},"extralarge":{"default":"https://cdn.freshful.ro/media/cache/sylius_shop_product_original/05/78/362f7399573e088ed2af4f9d9e06.jpg"}},"label":null,"tags":[],"isAvailable":true,"maxAvailableQuantity":55,"maxAllowedQuantity":100,"breadcrumbs":[{"code":"8","name":"Băcănie","slug":"8-ceva-sarat"},{"code":"806","name":"Făină, zahăr și produse gourmet","slug":"faina-zahar-si-produse-gourmet"},{"code":"80603","name":"Compot de fructe","slug":"compot-de-fructe"},{"code":"100092737","name":"Compot de piersici decojite 700g","slug":"100092737-olympia-compot-de-piersici-decojite-700g"}],"activePromotion":null,"saveMe":null,"labels":[],"geniusPrice":null,"geniusUnitPricePerLabel":null,"banner":null,"discountLabel":null,"geniusDiscountLabel":null,"badge":null},{"code":"100086826","variantCode":"5999544369344","name":"Compot de vișine 700g","slug":"100086826-home-garden-compot-de-visine-700g","unitPriceLabel":"11,99 Lei/buc","brand":"Home Garden","brandCode":"781","brandFilterCode":"home-garden-b782","sku":"100086826","price":11.99,"originalPrice":null,"currencyCode":"RON","currency":"Lei","image":{"thumbnail":{"default":"https://cdn.freshful.ro/media/cache/sylius_shop_product_thumbnail/e2/6c/becc2437ee23e1ca8c3fed67ac6c.jpg"},"large":{"default":"https://cdn.freshful.ro/media/cache/freshful_large/e2/6c/becc2437ee23e1ca8c3fed67ac6c.jpg"},"extralarge":{"default":"https://cdn.freshful.ro/media/cache/sylius_shop_product_original/e2/6c/becc2437ee23e1ca8c3fed67ac6c.jpg"}},"label":null,"tags":[],"isAvailable":true,"maxAvailableQuantity":67,"maxAllowedQuantity":100,"breadcrumbs":[{"code":"8","name":"Băcănie","slug":"8-ceva-sarat"},{"code":"806","name":"Făină, zahăr și produse gourmet","slug":"faina-zahar-si-produse-gourmet"},{"code":"80603","name":"Compot de fructe","slug":"compot-de-fructe"},{"code":"100086826","name":"Compot de vișine 700g","slug":"100086826-home-garden-compot-de-visine-700g"}],"activePromotion":null,"saveMe":null,"labels":[],"geniusPrice":null,"geniusUnitPricePerLabel":null,"banner":null,"discountLabel":null,"geniusDiscountLabel":null,"badge":null},{"code":"100065333","variantCode":"5941028000250","name":"Compot prune întregi în sirop slab îndulcit 720g","slug":"100065333-raureni-compot-prune-intregi-in-sirop-slab-indulcit-720g","unitPriceLabel":"7,86 Lei/kg","brand":"Râureni","brandCode":"772","brandFilterCode":"raureni-b773","sku":"100065333","price":5.66,"originalPrice":null,"currencyCode":"RON","currency":"Lei","image":{"thumbnail":{"default":"https://cdn.freshful.ro/media/cache/sylius_shop_product_thumbnail/46/be/4a1bd8c1b0c4a8b001390677ba60.jpg"},"large":{"default":"https://cdn.freshful.ro/media/cache/freshful_large/46/be/4a1bd8c1b0c4a8b001390677ba60.jpg"},"extralarge":{"default":"https://cdn.freshful.ro/media/cache/sylius_shop_product_original/46/be/4a1bd8c1b0c4a8b001390677ba60.jpg"}},"label":null,"tags":[],"isAvailable":true,"maxAvailableQuantity":39,"maxAllowedQuantity":100,"breadcrumbs":[{"code":"8","name":"Băcănie","slug":"8-ceva-sarat"},{"code":"806","name":"Făină, zahăr și produse gourmet","slug":"faina-zahar-si-produse-gourmet"},{"code":"80603","name":"Compot de fructe","slug":"compot-de-fructe"},{"code":"100065333","name":"Compot prune întregi în sirop slab îndulcit 720g","slug":"100065333-raureni-compot-prune-intregi-in-sirop-slab-indulcit-720g"}],"activePromotion":null,"saveMe":null,"labels":[],"geniusPrice":null,"geniusUnitPricePerLabel":null,"banner":null,"discountLabel":null,"geniusDiscountLabel":null,"badge":null}],"filters":{"countSelected":0,"items":[{"code":"brand","name":"Brand","countSelected":0,"values":[{"code":"aarts-b985","name":"Aarts","isSelected":false,"count":6},{"code":"darinne-b2922","name":"Darinne","isSelected":false,"count":2},{"code":"del-monte-b2397","name":"Del Monte","isSelected":false,"count":6},{"code":"delirs-b965","name":"Delirs","isSelected":false,"count":3},{"code":"dole-b1626","name":"Dole","isSelected":false,"count":3},{"code":"hada-b2499","name":"Hada","isSelected":false,"count":4},{"code":"home-garden-b782","name":"Home Garden","isSelected":false,"count":5},{"code":"maxim-s-b271","name":"Maxim's","isSelected":false,"count":1},{"code":"olympia-b244","name":"Olympia","isSelected":false,"count":3},{"code":"raureni-b773","name":"Râureni","isSelected":false,"count":8},{"code":"st-mamet-b977","name":"St Mamet","isSelected":false,"count":1},{"code":"vasluianca-b1833","name":"Vasluianca","isSelected":false,"count":2},{"code":"venus-b2616","name":"Venus","isSelected":false,"count":1},{"code":"videca-b988","name":"Videca","isSelected":false,"count":1}]},{"code":"diet_lifestyle","name":"Dietă și lifestyle","countSelected":0,"values":[{"code":"fara-conservanti-a37","name":"Fara conservanti","isSelected":false,"count":5},{"code":"made-in-romania-a85","name":"Made In Romania","isSelected":false,"count":4},{"code":"natural-a27","name":"Natural","isSelected":false,"count":3}]}]},"orderBy":[{"field":"price","direction":"asc","name":"Preț crescător","isSelected":false},{"field":"price","direction":"desc","name":"Preț descrescător","isSelected":false},{"field":"popularity","direction":"desc","name":"Cele mai populare","isSelected":true},{"field":"category","direction":"asc","name":"Categorie","isSelected":false}],"metaTitle":"Compot de fructe - Gamă variată","metaDescription":"Vrei Compot de fructe? Alege dintr-o gamă variată. Comanzi simplu și ai livrare rapidă, calitate și prospețime. Hai pe Freshful.ro","metaKeywords":null,"banners":[]}}