{"type":"subcategory","payload":{"analyticsListId":"category_creme-budinci-si-semipreparate","analyticsListName":"Category - Creme, budinci și semipreparate","name":"Creme, budinci și semipreparate","slug":"creme-budinci-si-semipreparate","image":null,"breadcrumbs":[{"code":"8","name":"Băcănie","slug":"8-ceva-sarat"},{"code":"806","name":"Făină, zahăr și produse gourmet","slug":"faina-zahar-si-produse-gourmet"},{"code":"80604","name":"Creme, budinci și semipreparate","slug":"creme-budinci-si-semipreparate"}],"slots":[],"page":1,"limit":10,"pages":10,"count":100,"siblings":[{"name":"Paste, orez și legume uscate","slug":"801-paste-orez-si-legume-uscate","selected":false},{"name":"Conserve","slug":"802-conserve","selected":false},{"name":"Condimente și sosuri","slug":"803-condimente-si-sosuri","selected":false},{"name":"Ulei și oțet","slug":"804-ulei-si-otet","selected":false},{"name":"De ronțăit","slug":"805-aperitive-sarate","selected":false},{"name":"Făină, zahăr și produse gourmet","slug":"faina-zahar-si-produse-gourmet","selected":true}],"children":[{"name":"Toate produsele","slug":"faina-zahar-si-produse-gourmet","selected":false},{"name":"Făină, mălai și griș","slug":"faina-malai-si-gris","selected":false},{"name":"Zahăr","slug":"zahar","selected":false},{"name":"Compot de fructe","slug":"compot-de-fructe","selected":false},{"name":"Creme, budinci și semipreparate","slug":"creme-budinci-si-semipreparate","selected":true},{"name":"Zahăr vanilat și esențe","slug":"zahar-vanilat-si-esente","selected":false},{"name":"Praf de copt, drojdie, bicarbonat și decorațiuni","slug":"praf-de-copt-drojdie-bicarbonat-si-decoratiuni","selected":false}],"products":[{"code":"100133950","variantCode":"100133950","name":"Mucenici 200g","slug":"100133950-baneasa-mucenici-200g","unitPriceLabel":"16,45 Lei/kg","brand":"Băneasa","brandCode":"1560","brandFilterCode":"baneasa-b1557","sku":"100133950","price":3.29,"originalPrice":null,"currencyCode":"RON","currency":"Lei","image":{"thumbnail":{"default":"https://cdn.freshful.ro/media/cache/sylius_shop_product_thumbnail/11/cd/1e7a29c698c3623cb642a377883d.jpg"},"large":{"default":"https://cdn.freshful.ro/media/cache/freshful_large/11/cd/1e7a29c698c3623cb642a377883d.jpg"},"extralarge":{"default":"https://cdn.freshful.ro/media/cache/sylius_shop_product_original/11/cd/1e7a29c698c3623cb642a377883d.jpg"}},"label":null,"tags":[],"isAvailable":true,"maxAvailableQuantity":100,"maxAllowedQuantity":100,"breadcrumbs":[{"code":"8","name":"Băcănie","slug":"8-ceva-sarat"},{"code":"806","name":"Făină, zahăr și produse gourmet","slug":"faina-zahar-si-produse-gourmet"},{"code":"80604","name":"Creme, budinci și semipreparate","slug":"creme-budinci-si-semipreparate"},{"code":"100133950","name":"Mucenici 200g","slug":"100133950-baneasa-mucenici-200g"}],"activePromotion":null,"saveMe":null,"labels":[],"geniusPrice":null,"geniusUnitPricePerLabel":null,"banner":null,"discountLabel":null,"geniusDiscountLabel":null,"badge":null},{"code":"100142791","variantCode":"100142791","name":"Blat de tort simplu 400g","slug":"100142791-firesco-blat-de-tort-simplu-400g","unitPriceLabel":"52,48 Lei/kg","brand":"Firesco","brandCode":"1535","brandFilterCode":"firesco-b1539","sku":"100142791","price":20.99,"originalPrice":null,"currencyCode":"RON","currency":"Lei","image":{"thumbnail":{"default":"https://cdn.freshful.ro/media/cache/sylius_shop_product_thumbnail/ef/b0/c0267a51142e5bbc2866f81f44cd.jpg"},"large":{"default":"https://cdn.freshful.ro/media/cache/freshful_large/ef/b0/c0267a51142e5bbc2866f81f44cd.jpg"},"extralarge":{"default":"https://cdn.freshful.ro/media/cache/sylius_shop_product_original/ef/b0/c0267a51142e5bbc2866f81f44cd.jpg"}},"label":null,"tags":[],"isAvailable":true,"maxAvailableQuantity":18,"maxAllowedQuantity":100,"breadcrumbs":[{"code":"8","name":"Băcănie","slug":"8-ceva-sarat"},{"code":"806","name":"Făină, zahăr și produse gourmet","slug":"faina-zahar-si-produse-gourmet"},{"code":"80604","name":"Creme, budinci și semipreparate","slug":"creme-budinci-si-semipreparate"},{"code":"100142791","name":"Blat de tort simplu 400g","slug":"100142791-firesco-blat-de-tort-simplu-400g"}],"activePromotion":null,"saveMe":null,"labels":[],"geniusPrice":null,"geniusUnitPricePerLabel":null,"banner":null,"discountLabel":null,"geniusDiscountLabel":null,"badge":null},{"code":"100001524","variantCode":"5941132017663","name":"Mix pentru clătite 190g","slug":"100001524-dr-oetker-mix-pentru-clatite-190g","unitPriceLabel":"15,47 Lei/kg","brand":"Dr. Oetker","brandCode":"55","brandFilterCode":"dr-oetker-b51","sku":"100001524","price":2.94,"originalPrice":null,"currencyCode":"RON","currency":"Lei","image":{"thumbnail":{"default":"https://cdn.freshful.ro/media/cache/sylius_shop_product_thumbnail/d3/e2/2ffddcd719a1f3d157ed0157f209.jpg"},"large":{"default":"https://cdn.freshful.ro/media/cache/freshful_large/d3/e2/2ffddcd719a1f3d157ed0157f209.jpg"},"extralarge":{"default":"https://cdn.freshful.ro/media/cache/sylius_shop_product_original/d3/e2/2ffddcd719a1f3d157ed0157f209.jpg"}},"label":null,"tags":[],"isAvailable":true,"maxAvailableQuantity":62,"maxAllowedQuantity":100,"breadcrumbs":[{"code":"8","name":"Băcănie","slug":"8-ceva-sarat"},{"code":"806","name":"Făină, zahăr și produse gourmet","slug":"faina-zahar-si-produse-gourmet"},{"code":"80604","name":"Creme, budinci și semipreparate","slug":"creme-budinci-si-semipreparate"},{"code":"100001524","name":"Mix pentru clătite 190g","slug":"100001524-dr-oetker-mix-pentru-clatite-190g"}],"activePromotion":null,"saveMe":null,"labels":[],"geniusPrice":null,"geniusUnitPricePerLabel":null,"banner":null,"discountLabel":null,"geniusDiscountLabel":null,"badge":null},{"code":"100001460","variantCode":"100001460","name":"Mix pentru clătite pufoase cu gust de vanilie 150g","slug":"100001460-dr-oetker-mix-pentru-clatite-pufoase-cu-gust-de-vanilie-150g","unitPriceLabel":"20,6 Lei/kg","brand":"Dr. Oetker","brandCode":"55","brandFilterCode":"dr-oetker-b51","sku":"100001460","price":3.09,"originalPrice":null,"currencyCode":"RON","currency":"Lei","image":{"thumbnail":{"default":"https://cdn.freshful.ro/media/cache/sylius_shop_product_thumbnail/d4/66/a50e050649d333f3864387a07388.jpg"},"large":{"default":"https://cdn.freshful.ro/media/cache/freshful_large/d4/66/a50e050649d333f3864387a07388.jpg"},"extralarge":{"default":"https://cdn.freshful.ro/media/cache/sylius_shop_product_original/d4/66/a50e050649d333f3864387a07388.jpg"}},"label":null,"tags":[],"isAvailable":true,"maxAvailableQuantity":66,"maxAllowedQuantity":100,"breadcrumbs":[{"code":"8","name":"Băcănie","slug":"8-ceva-sarat"},{"code":"806","name":"Făină, zahăr și produse gourmet","slug":"faina-zahar-si-produse-gourmet"},{"code":"80604","name":"Creme, budinci și semipreparate","slug":"creme-budinci-si-semipreparate"},{"code":"100001460","name":"Mix pentru clătite pufoase cu gust de vanilie 150g","slug":"100001460-dr-oetker-mix-pentru-clatite-pufoase-cu-gust-de-vanilie-150g"}],"activePromotion":null,"saveMe":null,"labels":[],"geniusPrice":null,"geniusUnitPricePerLabel":null,"banner":null,"discountLabel":null,"geniusDiscountLabel":null,"badge":null},{"code":"100001441","variantCode":"5941132300017","name":"Praf de budincă Original Pudding cu gust de vanilie 40g","slug":"100001441-dr-oetker-praf-de-budinca-original-pudding-cu-gust-de-vanilie-40g","unitPriceLabel":"36,25 Lei/kg","brand":"Dr. Oetker","brandCode":"55","brandFilterCode":"dr-oetker-b51","sku":"100001441","price":1.45,"originalPrice":null,"currencyCode":"RON","currency":"Lei","image":{"thumbnail":{"default":"https://cdn.freshful.ro/media/cache/sylius_shop_product_thumbnail/cc/20/5c91824b964b97456a0093b1f016.jpg"},"large":{"default":"https://cdn.freshful.ro/media/cache/freshful_large/cc/20/5c91824b964b97456a0093b1f016.jpg"},"extralarge":{"default":"https://cdn.freshful.ro/media/cache/sylius_shop_product_original/cc/20/5c91824b964b97456a0093b1f016.jpg"}},"label":null,"tags":[],"isAvailable":true,"maxAvailableQuantity":77,"maxAllowedQuantity":100,"breadcrumbs":[{"code":"8","name":"Băcănie","slug":"8-ceva-sarat"},{"code":"806","name":"Făină, zahăr și produse gourmet","slug":"faina-zahar-si-produse-gourmet"},{"code":"80604","name":"Creme, budinci și semipreparate","slug":"creme-budinci-si-semipreparate"},{"code":"100001441","name":"Praf de budincă Original Pudding cu gust de vanilie 40g","slug":"100001441-dr-oetker-praf-de-budinca-original-pudding-cu-gust-de-vanilie-40g"}],"activePromotion":null,"saveMe":null,"labels":[],"geniusPrice":null,"geniusUnitPricePerLabel":null,"banner":null,"discountLabel":null,"geniusDiscountLabel":null,"badge":null},{"code":"100131223","variantCode":"100131223","name":"Mix pentru waffles 190g","slug":"100131223-dr-oetker-mix-pentru-waffles-190g","unitPriceLabel":"21 Lei/kg","brand":"Dr. Oetker","brandCode":"55","brandFilterCode":"dr-oetker-b51","sku":"100131223","price":3.99,"originalPrice":null,"currencyCode":"RON","currency":"Lei","image":{"thumbnail":{"default":"https://cdn.freshful.ro/media/cache/sylius_shop_product_thumbnail/80/17/4f503ea1b70d0bb09541b42aa2e1.jpg"},"large":{"default":"https://cdn.freshful.ro/media/cache/freshful_large/80/17/4f503ea1b70d0bb09541b42aa2e1.jpg"},"extralarge":{"default":"https://cdn.freshful.ro/media/cache/sylius_shop_product_original/80/17/4f503ea1b70d0bb09541b42aa2e1.jpg"}},"label":null,"tags":[],"isAvailable":true,"maxAvailableQuantity":55,"maxAllowedQuantity":100,"breadcrumbs":[{"code":"8","name":"Băcănie","slug":"8-ceva-sarat"},{"code":"806","name":"Făină, zahăr și produse gourmet","slug":"faina-zahar-si-produse-gourmet"},{"code":"80604","name":"Creme, budinci și semipreparate","slug":"creme-budinci-si-semipreparate"},{"code":"100131223","name":"Mix pentru waffles 190g","slug":"100131223-dr-oetker-mix-pentru-waffles-190g"}],"activePromotion":null,"saveMe":null,"labels":[],"geniusPrice":null,"geniusUnitPricePerLabel":null,"banner":null,"discountLabel":null,"geniusDiscountLabel":null,"badge":null},{"code":"100001444","variantCode":"5941132008012","name":"Lapte praf integral 130g","slug":"100001444-dr-oetker-lapte-praf-integral-130g","unitPriceLabel":"96,15 Lei/kg","brand":"Dr. Oetker","brandCode":"55","brandFilterCode":"dr-oetker-b51","sku":"100001444","price":12.5,"originalPrice":null,"currencyCode":"RON","currency":"Lei","image":{"thumbnail":{"default":"https://cdn.freshful.ro/media/cache/sylius_shop_product_thumbnail/46/60/6de0a17fa540d1ef2bec488fb6af.jpg"},"large":{"default":"https://cdn.freshful.ro/media/cache/freshful_large/46/60/6de0a17fa540d1ef2bec488fb6af.jpg"},"extralarge":{"default":"https://cdn.freshful.ro/media/cache/sylius_shop_product_original/46/60/6de0a17fa540d1ef2bec488fb6af.jpg"}},"label":null,"tags":[],"isAvailable":true,"maxAvailableQuantity":27,"maxAllowedQuantity":100,"breadcrumbs":[{"code":"8","name":"Băcănie","slug":"8-ceva-sarat"},{"code":"806","name":"Făină, zahăr și produse gourmet","slug":"faina-zahar-si-produse-gourmet"},{"code":"80604","name":"Creme, budinci și semipreparate","slug":"creme-budinci-si-semipreparate"},{"code":"100001444","name":"Lapte praf integral 130g","slug":"100001444-dr-oetker-lapte-praf-integral-130g"}],"activePromotion":null,"saveMe":null,"labels":[],"geniusPrice":null,"geniusUnitPricePerLabel":null,"banner":null,"discountLabel":null,"geniusDiscountLabel":null,"badge":null},{"code":"100001445","variantCode":"5941132008029","name":"Lapte praf integral 250g","slug":"100001445-dr-oetker-lapte-praf-integral-250g","unitPriceLabel":"91,6 Lei/kg","brand":"Dr. Oetker","brandCode":"55","brandFilterCode":"dr-oetker-b51","sku":"100001445","price":22.9,"originalPrice":null,"currencyCode":"RON","currency":"Lei","image":{"thumbnail":{"default":"https://cdn.freshful.ro/media/cache/sylius_shop_product_thumbnail/06/22/e78858426425650f2b3cc0c4d154.jpg"},"large":{"default":"https://cdn.freshful.ro/media/cache/freshful_large/06/22/e78858426425650f2b3cc0c4d154.jpg"},"extralarge":{"default":"https://cdn.freshful.ro/media/cache/sylius_shop_product_original/06/22/e78858426425650f2b3cc0c4d154.jpg"}},"label":null,"tags":[],"isAvailable":true,"maxAvailableQuantity":41,"maxAllowedQuantity":100,"breadcrumbs":[{"code":"8","name":"Băcănie","slug":"8-ceva-sarat"},{"code":"806","name":"Făină, zahăr și produse gourmet","slug":"faina-zahar-si-produse-gourmet"},{"code":"80604","name":"Creme, budinci și semipreparate","slug":"creme-budinci-si-semipreparate"},{"code":"100001445","name":"Lapte praf integral 250g","slug":"100001445-dr-oetker-lapte-praf-integral-250g"}],"activePromotion":null,"saveMe":null,"labels":[],"geniusPrice":null,"geniusUnitPricePerLabel":null,"banner":null,"discountLabel":null,"geniusDiscountLabel":null,"badge":null},{"code":"100001463","variantCode":"5941132011371","name":"Mix pentru brioșe cu gust de vanilie și fulgi de ciocolată 340g","slug":"100001463-dr-oetker-mix-pentru-briose-cu-gust-de-vanilie-si-fulgi-de-ciocolata-340g","unitPriceLabel":"30,71 Lei/kg","brand":"Dr. Oetker","brandCode":"55","brandFilterCode":"dr-oetker-b51","sku":"100001463","price":10.44,"originalPrice":null,"currencyCode":"RON","currency":"Lei","image":{"thumbnail":{"default":"https://cdn.freshful.ro/media/cache/sylius_shop_product_thumbnail/53/d8/1903288f1c0884867ac8b771f928.jpg"},"large":{"default":"https://cdn.freshful.ro/media/cache/freshful_large/53/d8/1903288f1c0884867ac8b771f928.jpg"},"extralarge":{"default":"https://cdn.freshful.ro/media/cache/sylius_shop_product_original/53/d8/1903288f1c0884867ac8b771f928.jpg"}},"label":null,"tags":[],"isAvailable":true,"maxAvailableQuantity":44,"maxAllowedQuantity":100,"breadcrumbs":[{"code":"8","name":"Băcănie","slug":"8-ceva-sarat"},{"code":"806","name":"Făină, zahăr și produse gourmet","slug":"faina-zahar-si-produse-gourmet"},{"code":"80604","name":"Creme, budinci și semipreparate","slug":"creme-budinci-si-semipreparate"},{"code":"100001463","name":"Mix pentru brioșe cu gust de vanilie și fulgi de ciocolată 340g","slug":"100001463-dr-oetker-mix-pentru-briose-cu-gust-de-vanilie-si-fulgi-de-ciocolata-340g"}],"activePromotion":null,"saveMe":null,"labels":[],"geniusPrice":null,"geniusUnitPricePerLabel":null,"banner":null,"discountLabel":null,"geniusDiscountLabel":null,"badge":null},{"code":"100105199","variantCode":"100105199","name":"Lapte praf integral 26% grăsime 250g","slug":"100105199-raraul-lapte-praf-integral-26-grasime-250g","unitPriceLabel":"79,96 Lei/kg","brand":"Rarăul","brandCode":"2","brandFilterCode":"raraul-b12","sku":"100105199","price":19.99,"originalPrice":null,"currencyCode":"RON","currency":"Lei","image":{"thumbnail":{"default":"https://cdn.freshful.ro/media/cache/sylius_shop_product_thumbnail/1a/8e/f40d210f2dddb99da2c9fcaf5669.jpg"},"large":{"default":"https://cdn.freshful.ro/media/cache/freshful_large/1a/8e/f40d210f2dddb99da2c9fcaf5669.jpg"},"extralarge":{"default":"https://cdn.freshful.ro/media/cache/sylius_shop_product_original/1a/8e/f40d210f2dddb99da2c9fcaf5669.jpg"}},"label":null,"tags":[],"isAvailable":true,"maxAvailableQuantity":29,"maxAllowedQuantity":100,"breadcrumbs":[{"code":"8","name":"Băcănie","slug":"8-ceva-sarat"},{"code":"806","name":"Făină, zahăr și produse gourmet","slug":"faina-zahar-si-produse-gourmet"},{"code":"80604","name":"Creme, budinci și semipreparate","slug":"creme-budinci-si-semipreparate"},{"code":"100105199","name":"Lapte praf integral 26% grăsime 250g","slug":"100105199-raraul-lapte-praf-integral-26-grasime-250g"}],"activePromotion":null,"saveMe":null,"labels":[],"geniusPrice":null,"geniusUnitPricePerLabel":null,"banner":null,"discountLabel":null,"geniusDiscountLabel":null,"badge":null}],"filters":{"countSelected":0,"items":[{"code":"brand","name":"Brand","countSelected":0,"values":[{"code":"baneasa-b1557","name":"Băneasa","isSelected":false,"count":1},{"code":"cosmin-b923","name":"Cosmin","isSelected":false,"count":3},{"code":"dr-oetker-b51","name":"Dr. Oetker","isSelected":false,"count":79},{"code":"dr-oetker-professional-b2444","name":"Dr. Oetker Professional","isSelected":false,"count":6},{"code":"firesco-b1539","name":"Firesco","isSelected":false,"count":2},{"code":"lekorna-b1541","name":"Lekorna","isSelected":false,"count":1},{"code":"poof-b485","name":"Poof","isSelected":false,"count":1},{"code":"raraul-b12","name":"Rarăul","isSelected":false,"count":2},{"code":"ruf-b2162","name":"Ruf","isSelected":false,"count":3},{"code":"stenger-b2707","name":"Stenger","isSelected":false,"count":2}]},{"code":"diet_lifestyle","name":"Dietă și lifestyle","countSelected":0,"values":[{"code":"fara-gluten-a16","name":"Fara gluten","isSelected":false,"count":1}]}]},"orderBy":[{"field":"price","direction":"asc","name":"Preț crescător","isSelected":false},{"field":"price","direction":"desc","name":"Preț descrescător","isSelected":false},{"field":"popularity","direction":"desc","name":"Cele mai populare","isSelected":true},{"field":"category","direction":"asc","name":"Categorie","isSelected":false}],"metaTitle":"Creme, budinci și semipreparate - Gamă variată","metaDescription":"Vrei Creme, budinci și semipreparate? Alege dintr-o gamă variată. Comanzi simplu și ai livrare rapidă, calitate și prospețime. Hai pe Freshful.ro","metaKeywords":null,"banners":[]}}