{"type":"subcategory","payload":{"analyticsListId":"category_creme-tofu-si-tartinabile-vegetale","analyticsListName":"Category - Creme, tofu și tartinabile vegetale","name":"Creme, tofu și tartinabile vegetale","slug":"creme-tofu-si-tartinabile-vegetale","image":null,"breadcrumbs":[{"code":"17","name":"Produse vegetale","slug":"produse-vegetale"},{"code":"1702","name":"Băuturi, creme și grăsimi vegetale","slug":"bauturi-creme-si-grasimi-vegetale"},{"code":"170201","name":"Creme, tofu și tartinabile vegetale","slug":"creme-tofu-si-tartinabile-vegetale"}],"slots":[],"page":1,"limit":10,"pages":5,"count":42,"siblings":[{"name":"Carne și specialități vegetale","slug":"carne-si-specialitati-vegetale","selected":false},{"name":"Băuturi, creme și grăsimi vegetale","slug":"bauturi-creme-si-grasimi-vegetale","selected":true}],"children":[{"name":"Toate produsele","slug":"bauturi-creme-si-grasimi-vegetale","selected":false},{"name":"Creme, tofu și tartinabile vegetale","slug":"creme-tofu-si-tartinabile-vegetale","selected":true},{"name":"Grăsimi vegetale și produse fermentate","slug":"grasimi-vegetale-si-produse-fermentate","selected":false},{"name":"Băuturi vegetale UHT","slug":"bauturi-vegetale-uht","selected":false},{"name":"Băuturi vegetale și desert","slug":"bauturi-vegetale-si-desert","selected":false}],"products":[{"code":"100064169","variantCode":"100064169","name":"Pastă tartinabilă de caju cu ceapă şi mărar 200g","slug":"100064169-filgud-pasta-tartinabila-de-caju-cu-ceapa-si-marar-200g","unitPriceLabel":"109,95 Lei/kg","brand":"Filgud","brandCode":"950","brandFilterCode":"filgud-b964","sku":"100064169","price":21.99,"originalPrice":23.49,"currencyCode":"RON","currency":"Lei","image":{"thumbnail":{"default":"https://cdn.freshful.ro/media/cache/sylius_shop_product_thumbnail/a3/9f/08a40988598ea24102002ff3d6b4.jpg"},"large":{"default":"https://cdn.freshful.ro/media/cache/freshful_large/a3/9f/08a40988598ea24102002ff3d6b4.jpg"},"extralarge":{"default":"https://cdn.freshful.ro/media/cache/sylius_shop_product_original/a3/9f/08a40988598ea24102002ff3d6b4.jpg"}},"label":{"text":"-6%","backgroundColor":"#FF9903","textColor":"#FFFFFF"},"tags":[{"type":"vegan","text":"Vegan","icon":"https://cdn.freshful.ro/assets/product_tags/vegan.svg","iconPng":"https://cdn.freshful.ro/assets/product_tags/vegan.png","backgroundColor":"#ECF9F8","textColor":"#33A39C"},{"type":"NoGluten","text":"Fara gluten","icon":"https://cdn.freshful.ro/assets/product_tags/fara_gluten.svg","iconPng":"https://cdn.freshful.ro/assets/product_tags/fara_gluten.png","backgroundColor":"#FFF2E5","textColor":"#F07900"},{"type":"LactoseFree","text":"Fara lactoza","icon":"https://cdn.freshful.ro/assets/product_tags/fara_lactoza.svg","iconPng":"https://cdn.freshful.ro/assets/product_tags/fara_lactoza.png","backgroundColor":"#E9F7FB","textColor":"#25A6D0"}],"isAvailable":true,"maxAvailableQuantity":100,"maxAllowedQuantity":100,"breadcrumbs":[{"code":"17","name":"Produse vegetale","slug":"produse-vegetale"},{"code":"1702","name":"Băuturi, creme și grăsimi vegetale","slug":"bauturi-creme-si-grasimi-vegetale"},{"code":"170201","name":"Creme, tofu și tartinabile vegetale","slug":"creme-tofu-si-tartinabile-vegetale"},{"code":"100064169","name":"Pastă tartinabilă de caju cu ceapă şi mărar 200g","slug":"100064169-filgud-pasta-tartinabila-de-caju-cu-ceapa-si-marar-200g"}],"activePromotion":{"code":"special-produse-vegane-mar23","name":"Preț redus","targetQuantity":null},"saveMe":null,"labels":[{"type":"v1","items":[{"text":"-6%","backgroundColor":"#FF9903","textColor":"#FFFFFF"}]}],"geniusPrice":null,"geniusUnitPricePerLabel":null,"banner":{"text":"Super preț","textColor":"#FF0000","bgColor":"#FFF2EC","icon":null,"link":"https://www.freshful.ro/oferte/special-produse-vegane-mar23","type":"promo","analyticsEventType":"select_promotion","analyticsEventPayload":{"promotion_id":"special-produse-vegane-mar23","promotion_name":"Și bun, și de post"}},"discountLabel":"Economisești 6%","geniusDiscountLabel":null,"badge":null},{"code":"100063197","variantCode":"100063197","name":"Grăsime tartinabilă eco vegană 200g","slug":"100063197-naturli-grasime-tartinabila-eco-vegana-200g","unitPriceLabel":"59,95 Lei/kg","brand":"Naturli'","brandCode":"946","brandFilterCode":"naturli-b946","sku":"100063197","price":11.99,"originalPrice":16.49,"currencyCode":"RON","currency":"Lei","image":{"thumbnail":{"default":"https://cdn.freshful.ro/media/cache/sylius_shop_product_thumbnail/0e/13/e9f17f9bd8f7cc5b6c52bf4e7403.jpg"},"large":{"default":"https://cdn.freshful.ro/media/cache/freshful_large/0e/13/e9f17f9bd8f7cc5b6c52bf4e7403.jpg"},"extralarge":{"default":"https://cdn.freshful.ro/media/cache/sylius_shop_product_original/0e/13/e9f17f9bd8f7cc5b6c52bf4e7403.jpg"}},"label":{"text":"-27%","backgroundColor":"#FF9903","textColor":"#FFFFFF"},"tags":[{"type":"vegan","text":"Vegan","icon":"https://cdn.freshful.ro/assets/product_tags/vegan.svg","iconPng":"https://cdn.freshful.ro/assets/product_tags/vegan.png","backgroundColor":"#ECF9F8","textColor":"#33A39C"},{"type":"Eco","text":"Eco","icon":"https://cdn.freshful.ro/assets/product_tags/eco.svg","iconPng":"https://cdn.freshful.ro/assets/product_tags/eco.png","backgroundColor":"#EFFBE4","textColor":"#66BB1B"}],"isAvailable":true,"maxAvailableQuantity":100,"maxAllowedQuantity":100,"breadcrumbs":[{"code":"17","name":"Produse vegetale","slug":"produse-vegetale"},{"code":"1702","name":"Băuturi, creme și grăsimi vegetale","slug":"bauturi-creme-si-grasimi-vegetale"},{"code":"170201","name":"Creme, tofu și tartinabile vegetale","slug":"creme-tofu-si-tartinabile-vegetale"},{"code":"100063197","name":"Grăsime tartinabilă eco vegană 200g","slug":"100063197-naturli-grasime-tartinabila-eco-vegana-200g"}],"activePromotion":{"code":"special-produse-vegane-mar23","name":"Preț redus","targetQuantity":null},"saveMe":null,"labels":[{"type":"v1","items":[{"text":"-27%","backgroundColor":"#FF9903","textColor":"#FFFFFF"}]}],"geniusPrice":null,"geniusUnitPricePerLabel":null,"banner":{"text":"Super preț","textColor":"#FF0000","bgColor":"#FFF2EC","icon":null,"link":"https://www.freshful.ro/oferte/special-produse-vegane-mar23","type":"promo","analyticsEventType":"select_promotion","analyticsEventPayload":{"promotion_id":"special-produse-vegane-mar23","promotion_name":"Și bun, și de post"}},"discountLabel":"Economisești 27%","geniusDiscountLabel":null,"badge":null},{"code":"100138292","variantCode":"100138292","name":"Produs tartinabil din migdale cu verdeață 150g","slug":"100138292-simply-v-produs-tartinabil-din-migdale-cu-verdeata-150g","unitPriceLabel":"99,93 Lei/kg","brand":"Simply V","brandCode":"2635","brandFilterCode":"simply-v-b2639","sku":"100138292","price":14.99,"originalPrice":17.49,"currencyCode":"RON","currency":"Lei","image":{"thumbnail":{"default":"https://cdn.freshful.ro/media/cache/sylius_shop_product_thumbnail/4b/40/490f14085d3318b40dd4fd50fc4f.jpg"},"large":{"default":"https://cdn.freshful.ro/media/cache/freshful_large/4b/40/490f14085d3318b40dd4fd50fc4f.jpg"},"extralarge":{"default":"https://cdn.freshful.ro/media/cache/sylius_shop_product_original/4b/40/490f14085d3318b40dd4fd50fc4f.jpg"}},"label":{"text":"-14%","backgroundColor":"#FF9903","textColor":"#FFFFFF"},"tags":[{"type":"vegan","text":"Vegan","icon":"https://cdn.freshful.ro/assets/product_tags/vegan.svg","iconPng":"https://cdn.freshful.ro/assets/product_tags/vegan.png","backgroundColor":"#ECF9F8","textColor":"#33A39C"}],"isAvailable":true,"maxAvailableQuantity":57,"maxAllowedQuantity":100,"breadcrumbs":[{"code":"17","name":"Produse vegetale","slug":"produse-vegetale"},{"code":"1702","name":"Băuturi, creme și grăsimi vegetale","slug":"bauturi-creme-si-grasimi-vegetale"},{"code":"170201","name":"Creme, tofu și tartinabile vegetale","slug":"creme-tofu-si-tartinabile-vegetale"},{"code":"100138292","name":"Produs tartinabil din migdale cu verdeață 150g","slug":"100138292-simply-v-produs-tartinabil-din-migdale-cu-verdeata-150g"}],"activePromotion":{"code":"bunatatile-saptamanii-cw0923","name":"Preț redus","targetQuantity":null},"saveMe":null,"labels":[{"type":"v1","items":[{"text":"-14%","backgroundColor":"#FF9903","textColor":"#FFFFFF"}]}],"geniusPrice":null,"geniusUnitPricePerLabel":null,"banner":{"text":"Super preț","textColor":"#FF0000","bgColor":"#FFF2EC","icon":null,"link":"https://www.freshful.ro/oferte/bunatatile-saptamanii-cw0923","type":"promo","analyticsEventType":"select_promotion","analyticsEventPayload":{"promotion_id":"bunatatile-saptamanii-cw0923","promotion_name":"Oferta proaspătă a săptămânii"}},"discountLabel":"Economisești 14%","geniusDiscountLabel":null,"badge":null},{"code":"100138291","variantCode":"100138291","name":"Produs tartinabil din migdale 150g","slug":"100138291-simply-v-produs-tartinabil-din-migdale-150g","unitPriceLabel":"106,6 Lei/kg","brand":"Simply V","brandCode":"2635","brandFilterCode":"simply-v-b2639","sku":"100138291","price":15.99,"originalPrice":17.99,"currencyCode":"RON","currency":"Lei","image":{"thumbnail":{"default":"https://cdn.freshful.ro/media/cache/sylius_shop_product_thumbnail/9f/c9/5de400b20c95e8a078869aec42bc.jpg"},"large":{"default":"https://cdn.freshful.ro/media/cache/freshful_large/9f/c9/5de400b20c95e8a078869aec42bc.jpg"},"extralarge":{"default":"https://cdn.freshful.ro/media/cache/sylius_shop_product_original/9f/c9/5de400b20c95e8a078869aec42bc.jpg"}},"label":{"text":"-11%","backgroundColor":"#FF9903","textColor":"#FFFFFF"},"tags":[{"type":"vegan","text":"Vegan","icon":"https://cdn.freshful.ro/assets/product_tags/vegan.svg","iconPng":"https://cdn.freshful.ro/assets/product_tags/vegan.png","backgroundColor":"#ECF9F8","textColor":"#33A39C"}],"isAvailable":true,"maxAvailableQuantity":17,"maxAllowedQuantity":100,"breadcrumbs":[{"code":"17","name":"Produse vegetale","slug":"produse-vegetale"},{"code":"1702","name":"Băuturi, creme și grăsimi vegetale","slug":"bauturi-creme-si-grasimi-vegetale"},{"code":"170201","name":"Creme, tofu și tartinabile vegetale","slug":"creme-tofu-si-tartinabile-vegetale"},{"code":"100138291","name":"Produs tartinabil din migdale 150g","slug":"100138291-simply-v-produs-tartinabil-din-migdale-150g"}],"activePromotion":{"code":"bunatatile-saptamanii-cw0923","name":"Preț redus","targetQuantity":null},"saveMe":null,"labels":[{"type":"v1","items":[{"text":"-11%","backgroundColor":"#FF9903","textColor":"#FFFFFF"}]}],"geniusPrice":null,"geniusUnitPricePerLabel":null,"banner":{"text":"Super preț","textColor":"#FF0000","bgColor":"#FFF2EC","icon":null,"link":"https://www.freshful.ro/oferte/bunatatile-saptamanii-cw0923","type":"promo","analyticsEventType":"select_promotion","analyticsEventPayload":{"promotion_id":"bunatatile-saptamanii-cw0923","promotion_name":"Oferta proaspătă a săptămânii"}},"discountLabel":"Economisești 11%","geniusDiscountLabel":null,"badge":null},{"code":"100136119","variantCode":"100136119","name":"Tartinabil de caju cu busuioc 200g","slug":"100136119-filgud-tartinabil-de-caju-cu-busuioc-200g","unitPriceLabel":"109,95 Lei/kg","brand":"Filgud","brandCode":"950","brandFilterCode":"filgud-b964","sku":"100136119","price":21.99,"originalPrice":25.99,"currencyCode":"RON","currency":"Lei","image":{"thumbnail":{"default":"https://cdn.freshful.ro/media/cache/sylius_shop_product_thumbnail/65/4a/d9caa1ab973d33fd8f3214b92d5d.jpg"},"large":{"default":"https://cdn.freshful.ro/media/cache/freshful_large/65/4a/d9caa1ab973d33fd8f3214b92d5d.jpg"},"extralarge":{"default":"https://cdn.freshful.ro/media/cache/sylius_shop_product_original/65/4a/d9caa1ab973d33fd8f3214b92d5d.jpg"}},"label":{"text":"-15%","backgroundColor":"#FF9903","textColor":"#FFFFFF"},"tags":[{"type":"vegan","text":"Vegan","icon":"https://cdn.freshful.ro/assets/product_tags/vegan.svg","iconPng":"https://cdn.freshful.ro/assets/product_tags/vegan.png","backgroundColor":"#ECF9F8","textColor":"#33A39C"},{"type":"NoGluten","text":"Fara gluten","icon":"https://cdn.freshful.ro/assets/product_tags/fara_gluten.svg","iconPng":"https://cdn.freshful.ro/assets/product_tags/fara_gluten.png","backgroundColor":"#FFF2E5","textColor":"#F07900"},{"type":"LactoseFree","text":"Fara lactoza","icon":"https://cdn.freshful.ro/assets/product_tags/fara_lactoza.svg","iconPng":"https://cdn.freshful.ro/assets/product_tags/fara_lactoza.png","backgroundColor":"#E9F7FB","textColor":"#25A6D0"},{"type":"NoAddedSugar","text":"Fara zahar adaugat","icon":"https://cdn.freshful.ro/assets/product_tags/fara_zahar_adaugat.svg","iconPng":"https://cdn.freshful.ro/assets/product_tags/fara_zahar_adaugat.png","backgroundColor":"#F8EDF7","textColor":"#C05EBC"}],"isAvailable":true,"maxAvailableQuantity":49,"maxAllowedQuantity":100,"breadcrumbs":[{"code":"17","name":"Produse vegetale","slug":"produse-vegetale"},{"code":"1702","name":"Băuturi, creme și grăsimi vegetale","slug":"bauturi-creme-si-grasimi-vegetale"},{"code":"170201","name":"Creme, tofu și tartinabile vegetale","slug":"creme-tofu-si-tartinabile-vegetale"},{"code":"100136119","name":"Tartinabil de caju cu busuioc 200g","slug":"100136119-filgud-tartinabil-de-caju-cu-busuioc-200g"}],"activePromotion":{"code":"special-produse-vegane-mar23","name":"Preț redus","targetQuantity":null},"saveMe":null,"labels":[{"type":"v1","items":[{"text":"-15%","backgroundColor":"#FF9903","textColor":"#FFFFFF"}]}],"geniusPrice":null,"geniusUnitPricePerLabel":null,"banner":{"text":"Super preț","textColor":"#FF0000","bgColor":"#FFF2EC","icon":null,"link":"https://www.freshful.ro/oferte/special-produse-vegane-mar23","type":"promo","analyticsEventType":"select_promotion","analyticsEventPayload":{"promotion_id":"special-produse-vegane-mar23","promotion_name":"Și bun, și de post"}},"discountLabel":"Economisești 15%","geniusDiscountLabel":null,"badge":null},{"code":"100037211","variantCode":"5941132012057","name":"Tofu simplu 300g","slug":"100037211-inedit-tofu-simplu-300g","unitPriceLabel":"30,97 Lei/kg","brand":"Inedit","brandCode":"60","brandFilterCode":"inedit-b57","sku":"100037211","price":9.29,"originalPrice":null,"currencyCode":"RON","currency":"Lei","image":{"thumbnail":{"default":"https://cdn.freshful.ro/media/cache/sylius_shop_product_thumbnail/63/0b/ff6e7d649b6024afcf31b2090b04.jpg"},"large":{"default":"https://cdn.freshful.ro/media/cache/freshful_large/63/0b/ff6e7d649b6024afcf31b2090b04.jpg"},"extralarge":{"default":"https://cdn.freshful.ro/media/cache/sylius_shop_product_original/63/0b/ff6e7d649b6024afcf31b2090b04.jpg"}},"label":null,"tags":[{"type":"NoGluten","text":"Fara gluten","icon":"https://cdn.freshful.ro/assets/product_tags/fara_gluten.svg","iconPng":"https://cdn.freshful.ro/assets/product_tags/fara_gluten.png","backgroundColor":"#FFF2E5","textColor":"#F07900"}],"isAvailable":true,"maxAvailableQuantity":100,"maxAllowedQuantity":100,"breadcrumbs":[{"code":"17","name":"Produse vegetale","slug":"produse-vegetale"},{"code":"1702","name":"Băuturi, creme și grăsimi vegetale","slug":"bauturi-creme-si-grasimi-vegetale"},{"code":"170201","name":"Creme, tofu și tartinabile vegetale","slug":"creme-tofu-si-tartinabile-vegetale"},{"code":"100037211","name":"Tofu simplu 300g","slug":"100037211-inedit-tofu-simplu-300g"}],"activePromotion":null,"saveMe":null,"labels":[],"geniusPrice":null,"geniusUnitPricePerLabel":null,"banner":null,"discountLabel":null,"geniusDiscountLabel":null,"badge":null},{"code":"100037215","variantCode":"5941132012071","name":"Tofu afumat 300g","slug":"100037215-inedit-tofu-afumat-300g","unitPriceLabel":"30,97 Lei/kg","brand":"Inedit","brandCode":"60","brandFilterCode":"inedit-b57","sku":"100037215","price":9.29,"originalPrice":null,"currencyCode":"RON","currency":"Lei","image":{"thumbnail":{"default":"https://cdn.freshful.ro/media/cache/sylius_shop_product_thumbnail/26/c6/fdd2eb87ee08e00f25330fb1b2aa.jpg"},"large":{"default":"https://cdn.freshful.ro/media/cache/freshful_large/26/c6/fdd2eb87ee08e00f25330fb1b2aa.jpg"},"extralarge":{"default":"https://cdn.freshful.ro/media/cache/sylius_shop_product_original/26/c6/fdd2eb87ee08e00f25330fb1b2aa.jpg"}},"label":null,"tags":[{"type":"NoGluten","text":"Fara gluten","icon":"https://cdn.freshful.ro/assets/product_tags/fara_gluten.svg","iconPng":"https://cdn.freshful.ro/assets/product_tags/fara_gluten.png","backgroundColor":"#FFF2E5","textColor":"#F07900"}],"isAvailable":true,"maxAvailableQuantity":100,"maxAllowedQuantity":100,"breadcrumbs":[{"code":"17","name":"Produse vegetale","slug":"produse-vegetale"},{"code":"1702","name":"Băuturi, creme și grăsimi vegetale","slug":"bauturi-creme-si-grasimi-vegetale"},{"code":"170201","name":"Creme, tofu și tartinabile vegetale","slug":"creme-tofu-si-tartinabile-vegetale"},{"code":"100037215","name":"Tofu afumat 300g","slug":"100037215-inedit-tofu-afumat-300g"}],"activePromotion":null,"saveMe":null,"labels":[],"geniusPrice":null,"geniusUnitPricePerLabel":null,"banner":null,"discountLabel":null,"geniusDiscountLabel":null,"badge":null},{"code":"100004445","variantCode":"100004445","name":"Cremă vegetală de gătit din soia 250ml","slug":"100004445-alpro-crema-vegetala-de-gatit-din-soia-250ml","unitPriceLabel":"29,56 Lei/kg","brand":"Alpro","brandCode":"31","brandFilterCode":"alpro-b25","sku":"100004445","price":7.39,"originalPrice":null,"currencyCode":"RON","currency":"Lei","image":{"thumbnail":{"default":"https://cdn.freshful.ro/media/cache/sylius_shop_product_thumbnail/f1/4e/8c9f2d06bb2e85737ffc1044d2ba.jpg"},"large":{"default":"https://cdn.freshful.ro/media/cache/freshful_large/f1/4e/8c9f2d06bb2e85737ffc1044d2ba.jpg"},"extralarge":{"default":"https://cdn.freshful.ro/media/cache/sylius_shop_product_original/f1/4e/8c9f2d06bb2e85737ffc1044d2ba.jpg"}},"label":null,"tags":[{"type":"vegan","text":"Vegan","icon":"https://cdn.freshful.ro/assets/product_tags/vegan.svg","iconPng":"https://cdn.freshful.ro/assets/product_tags/vegan.png","backgroundColor":"#ECF9F8","textColor":"#33A39C"},{"type":"NoGluten","text":"Fara gluten","icon":"https://cdn.freshful.ro/assets/product_tags/fara_gluten.svg","iconPng":"https://cdn.freshful.ro/assets/product_tags/fara_gluten.png","backgroundColor":"#FFF2E5","textColor":"#F07900"},{"type":"LactoseFree","text":"Fara lactoza","icon":"https://cdn.freshful.ro/assets/product_tags/fara_lactoza.svg","iconPng":"https://cdn.freshful.ro/assets/product_tags/fara_lactoza.png","backgroundColor":"#E9F7FB","textColor":"#25A6D0"}],"isAvailable":true,"maxAvailableQuantity":100,"maxAllowedQuantity":100,"breadcrumbs":[{"code":"17","name":"Produse vegetale","slug":"produse-vegetale"},{"code":"1702","name":"Băuturi, creme și grăsimi vegetale","slug":"bauturi-creme-si-grasimi-vegetale"},{"code":"170201","name":"Creme, tofu și tartinabile vegetale","slug":"creme-tofu-si-tartinabile-vegetale"},{"code":"100004445","name":"Cremă vegetală de gătit din soia 250ml","slug":"100004445-alpro-crema-vegetala-de-gatit-din-soia-250ml"}],"activePromotion":null,"saveMe":null,"labels":[],"geniusPrice":null,"geniusUnitPricePerLabel":null,"banner":null,"discountLabel":null,"geniusDiscountLabel":null,"badge":null},{"code":"100037212","variantCode":"5941132012095","name":"Tofu cu ardei 300g","slug":"100037212-inedit-tofu-cu-ardei-300g","unitPriceLabel":"30,5 Lei/kg","brand":"Inedit","brandCode":"60","brandFilterCode":"inedit-b57","sku":"100037212","price":9.15,"originalPrice":null,"currencyCode":"RON","currency":"Lei","image":{"thumbnail":{"default":"https://cdn.freshful.ro/media/cache/sylius_shop_product_thumbnail/8d/0d/53238fe0dce1d35751382e5f63e4.jpg"},"large":{"default":"https://cdn.freshful.ro/media/cache/freshful_large/8d/0d/53238fe0dce1d35751382e5f63e4.jpg"},"extralarge":{"default":"https://cdn.freshful.ro/media/cache/sylius_shop_product_original/8d/0d/53238fe0dce1d35751382e5f63e4.jpg"}},"label":null,"tags":[{"type":"NoGluten","text":"Fara gluten","icon":"https://cdn.freshful.ro/assets/product_tags/fara_gluten.svg","iconPng":"https://cdn.freshful.ro/assets/product_tags/fara_gluten.png","backgroundColor":"#FFF2E5","textColor":"#F07900"},{"type":"Vegetarian","text":"Vegetarian","icon":"https://cdn.freshful.ro/assets/product_tags/vegetarian.svg","iconPng":"https://cdn.freshful.ro/assets/product_tags/vegetarian.png","backgroundColor":"#FAEAEE","textColor":"#B26275"}],"isAvailable":true,"maxAvailableQuantity":47,"maxAllowedQuantity":100,"breadcrumbs":[{"code":"17","name":"Produse vegetale","slug":"produse-vegetale"},{"code":"1702","name":"Băuturi, creme și grăsimi vegetale","slug":"bauturi-creme-si-grasimi-vegetale"},{"code":"170201","name":"Creme, tofu și tartinabile vegetale","slug":"creme-tofu-si-tartinabile-vegetale"},{"code":"100037212","name":"Tofu cu ardei 300g","slug":"100037212-inedit-tofu-cu-ardei-300g"}],"activePromotion":null,"saveMe":null,"labels":[],"geniusPrice":null,"geniusUnitPricePerLabel":null,"banner":null,"discountLabel":null,"geniusDiscountLabel":null,"badge":null},{"code":"100037214","variantCode":"5941132012132","name":"Tofu cu mărar 300g","slug":"100037214-inedit-tofu-cu-marar-300g","unitPriceLabel":"31,63 Lei/kg","brand":"Inedit","brandCode":"60","brandFilterCode":"inedit-b57","sku":"100037214","price":9.49,"originalPrice":null,"currencyCode":"RON","currency":"Lei","image":{"thumbnail":{"default":"https://cdn.freshful.ro/media/cache/sylius_shop_product_thumbnail/3f/5d/d40ff0b9555585012e4d366d6288.jpg"},"large":{"default":"https://cdn.freshful.ro/media/cache/freshful_large/3f/5d/d40ff0b9555585012e4d366d6288.jpg"},"extralarge":{"default":"https://cdn.freshful.ro/media/cache/sylius_shop_product_original/3f/5d/d40ff0b9555585012e4d366d6288.jpg"}},"label":null,"tags":[{"type":"NoGluten","text":"Fara gluten","icon":"https://cdn.freshful.ro/assets/product_tags/fara_gluten.svg","iconPng":"https://cdn.freshful.ro/assets/product_tags/fara_gluten.png","backgroundColor":"#FFF2E5","textColor":"#F07900"}],"isAvailable":true,"maxAvailableQuantity":70,"maxAllowedQuantity":100,"breadcrumbs":[{"code":"17","name":"Produse vegetale","slug":"produse-vegetale"},{"code":"1702","name":"Băuturi, creme și grăsimi vegetale","slug":"bauturi-creme-si-grasimi-vegetale"},{"code":"170201","name":"Creme, tofu și tartinabile vegetale","slug":"creme-tofu-si-tartinabile-vegetale"},{"code":"100037214","name":"Tofu cu mărar 300g","slug":"100037214-inedit-tofu-cu-marar-300g"}],"activePromotion":null,"saveMe":null,"labels":[],"geniusPrice":null,"geniusUnitPricePerLabel":null,"banner":null,"discountLabel":null,"geniusDiscountLabel":null,"badge":null}],"filters":{"countSelected":0,"items":[{"code":"promotion","name":"Promoții","countSelected":0,"values":[{"code":"bunatatile-saptamanii-cw0923","name":"Oferta proaspătă a săptămânii","isSelected":false,"count":2},{"code":"special-produse-vegane-mar23","name":"Și bun, și de post","isSelected":false,"count":3}]},{"code":"brand","name":"Brand","countSelected":0,"values":[{"code":"alpro-b25","name":"Alpro","isSelected":false,"count":2},{"code":"cucina-d-oro-b467","name":"Cucina d'oro","isSelected":false,"count":3},{"code":"filgud-b964","name":"Filgud","isSelected":false,"count":5},{"code":"holland-b947","name":"Holland","isSelected":false,"count":1},{"code":"inedit-b57","name":"Inedit","isSelected":false,"count":5},{"code":"lacto-food-b378","name":"Lacto Food","isSelected":false,"count":1},{"code":"linco-b948","name":"Linco","isSelected":false,"count":3},{"code":"meggle-b498","name":"Meggle","isSelected":false,"count":1},{"code":"naturli-b946","name":"Naturli'","isSelected":false,"count":2},{"code":"nomomoo-b366","name":"NoMoMoo","isSelected":false,"count":9},{"code":"rawckers-b221","name":"Rawckers","isSelected":false,"count":2},{"code":"simply-v-b2639","name":"Simply V","isSelected":false,"count":2},{"code":"the-bridge-b39","name":"The Bridge","isSelected":false,"count":1},{"code":"unirea-b949","name":"Unirea","isSelected":false,"count":2},{"code":"voila-b1668","name":"Voilà","isSelected":false,"count":3}]},{"code":"diet_lifestyle","name":"Dietă și lifestyle","countSelected":0,"values":[{"code":"eco-a83","name":"Eco","isSelected":false,"count":5},{"code":"fara-conservanti-a37","name":"Fara conservanti","isSelected":false,"count":1},{"code":"fara-gluten-a16","name":"Fara gluten","isSelected":false,"count":25},{"code":"fara-lactoza-a38","name":"Fara lactoza","isSelected":false,"count":22},{"code":"fara-zahar-adaugat-a29","name":"Fara zahar adaugat","isSelected":false,"count":2},{"code":"made-in-romania-a85","name":"Made In Romania","isSelected":false,"count":2},{"code":"vegan-a24","name":"Vegan","isSelected":false,"count":23},{"code":"vegetarian-a28","name":"Vegetarian","isSelected":false,"count":5}]}]},"orderBy":[{"field":"price","direction":"asc","name":"Preț crescător","isSelected":false},{"field":"price","direction":"desc","name":"Preț descrescător","isSelected":false},{"field":"popularity","direction":"desc","name":"Cele mai populare","isSelected":true},{"field":"category","direction":"asc","name":"Categorie","isSelected":false}],"metaTitle":"Creme, tofu și tartinabile vegetale - Gamă variată","metaDescription":"Vrei Creme, tofu și tartinabile vegetale? Alege dintr-o gamă variată. Comanzi simplu și ai livrare rapidă, calitate și prospețime. Hai pe Freshful.ro","metaKeywords":null,"banners":[]}}