{"type":"subcategory","payload":{"analyticsListId":"category_dressing-fresh-pentru-salata","analyticsListName":"Category - Dressing fresh pentru salată","name":"Dressing fresh pentru salată","slug":"dressing-fresh-pentru-salata","image":null,"breadcrumbs":[{"code":"3","name":"Fructe & legume","slug":"3-fructe-si-legume"},{"code":"303","name":"Verdețuri și ierburi aromatice","slug":"303-verdeturi-si-plante-aromatice"},{"code":"30305","name":"Dressing fresh pentru salată","slug":"dressing-fresh-pentru-salata"}],"slots":[],"page":1,"limit":10,"pages":2,"count":11,"siblings":[{"name":"Fructe proaspete","slug":"301-fructe-proaspete","selected":false},{"name":"Legume proaspete","slug":"302-legume-proaspete","selected":false},{"name":"Verdețuri și ierburi aromatice","slug":"303-verdeturi-si-plante-aromatice","selected":true},{"name":"Fructe și legume uscate","slug":"304-fructe-uscate-crude","selected":false},{"name":"Sucuri naturale","slug":"305-sucuri-naturale","selected":false}],"children":[{"name":"Toate produsele","slug":"303-verdeturi-si-plante-aromatice","selected":false},{"name":"Salate","slug":"30301-salate","selected":false},{"name":"Germeni și microplante","slug":"30302-germeni","selected":false},{"name":"Verdețuri","slug":"30303-verdeturi","selected":false},{"name":"Ierburi aromatice","slug":"30304-plante-aromate","selected":false},{"name":"Dressing fresh pentru salată","slug":"dressing-fresh-pentru-salata","selected":true}],"products":[{"code":"100046495","variantCode":"7611400968772","name":"Sos pentru salată Caesar 50ml","slug":"100046495-eisberg-sos-pentru-salata-caesar-50ml","unitPriceLabel":"69,8 Lei/l","brand":"Eisberg","brandCode":"232","brandFilterCode":"eisberg-b233","sku":"100046495","price":3.49,"originalPrice":null,"currencyCode":"RON","currency":"Lei","image":{"thumbnail":{"default":"https://cdn.freshful.ro/media/cache/sylius_shop_product_thumbnail/6e/2f/17e1f81337d883e82f9f3b5d12d0.jpg"},"large":{"default":"https://cdn.freshful.ro/media/cache/freshful_large/6e/2f/17e1f81337d883e82f9f3b5d12d0.jpg"},"extralarge":{"default":"https://cdn.freshful.ro/media/cache/sylius_shop_product_original/6e/2f/17e1f81337d883e82f9f3b5d12d0.jpg"}},"label":null,"tags":[],"isAvailable":true,"maxAvailableQuantity":53,"maxAllowedQuantity":100,"breadcrumbs":[{"code":"3","name":"Fructe & legume","slug":"3-fructe-si-legume"},{"code":"303","name":"Verdețuri și ierburi aromatice","slug":"303-verdeturi-si-plante-aromatice"},{"code":"30305","name":"Dressing fresh pentru salată","slug":"dressing-fresh-pentru-salata"},{"code":"100046495","name":"Sos pentru salată Caesar 50ml","slug":"100046495-eisberg-sos-pentru-salata-caesar-50ml"}],"activePromotion":null,"saveMe":null,"labels":[],"geniusPrice":null,"geniusUnitPricePerLabel":null,"banner":null,"discountLabel":null,"geniusDiscountLabel":null,"badge":null},{"code":"100046498","variantCode":"7611400968765","name":"Sos pentru salate Yoghurt 50ml","slug":"100046498-eisberg-sos-pentru-salate-yoghurt-50ml","unitPriceLabel":"69,8 Lei/l","brand":"Eisberg","brandCode":"232","brandFilterCode":"eisberg-b233","sku":"100046498","price":3.49,"originalPrice":null,"currencyCode":"RON","currency":"Lei","image":{"thumbnail":{"default":"https://cdn.freshful.ro/media/cache/sylius_shop_product_thumbnail/44/95/1503791259ca21cdb2e0559c3c67.jpg"},"large":{"default":"https://cdn.freshful.ro/media/cache/freshful_large/44/95/1503791259ca21cdb2e0559c3c67.jpg"},"extralarge":{"default":"https://cdn.freshful.ro/media/cache/sylius_shop_product_original/44/95/1503791259ca21cdb2e0559c3c67.jpg"}},"label":null,"tags":[],"isAvailable":true,"maxAvailableQuantity":29,"maxAllowedQuantity":100,"breadcrumbs":[{"code":"3","name":"Fructe & legume","slug":"3-fructe-si-legume"},{"code":"303","name":"Verdețuri și ierburi aromatice","slug":"303-verdeturi-si-plante-aromatice"},{"code":"30305","name":"Dressing fresh pentru salată","slug":"dressing-fresh-pentru-salata"},{"code":"100046498","name":"Sos pentru salate Yoghurt 50ml","slug":"100046498-eisberg-sos-pentru-salate-yoghurt-50ml"}],"activePromotion":null,"saveMe":null,"labels":[],"geniusPrice":null,"geniusUnitPricePerLabel":null,"banner":null,"discountLabel":null,"geniusDiscountLabel":null,"badge":null},{"code":"100046497","variantCode":"7611400968789","name":"Sos pentru salate Thousand Island 50ml","slug":"100046497-eisberg-sos-pentru-salate-thousand-island-50ml","unitPriceLabel":"66,2 Lei/l","brand":"Eisberg","brandCode":"232","brandFilterCode":"eisberg-b233","sku":"100046497","price":3.31,"originalPrice":null,"currencyCode":"RON","currency":"Lei","image":{"thumbnail":{"default":"https://cdn.freshful.ro/media/cache/sylius_shop_product_thumbnail/99/97/abf4555c4597a8c53e59d45940d2.jpg"},"large":{"default":"https://cdn.freshful.ro/media/cache/freshful_large/99/97/abf4555c4597a8c53e59d45940d2.jpg"},"extralarge":{"default":"https://cdn.freshful.ro/media/cache/sylius_shop_product_original/99/97/abf4555c4597a8c53e59d45940d2.jpg"}},"label":null,"tags":[],"isAvailable":true,"maxAvailableQuantity":13,"maxAllowedQuantity":100,"breadcrumbs":[{"code":"3","name":"Fructe & legume","slug":"3-fructe-si-legume"},{"code":"303","name":"Verdețuri și ierburi aromatice","slug":"303-verdeturi-si-plante-aromatice"},{"code":"30305","name":"Dressing fresh pentru salată","slug":"dressing-fresh-pentru-salata"},{"code":"100046497","name":"Sos pentru salate Thousand Island 50ml","slug":"100046497-eisberg-sos-pentru-salate-thousand-island-50ml"}],"activePromotion":null,"saveMe":null,"labels":[],"geniusPrice":null,"geniusUnitPricePerLabel":null,"banner":null,"discountLabel":null,"geniusDiscountLabel":null,"badge":null},{"code":"100046496","variantCode":"7611400968758","name":"Sos pentru salate French Garlic 50ml","slug":"100046496-eisberg-sos-pentru-salate-french-garlic-50ml","unitPriceLabel":"79,8 Lei/l","brand":"Eisberg","brandCode":"232","brandFilterCode":"eisberg-b233","sku":"100046496","price":3.99,"originalPrice":null,"currencyCode":"RON","currency":"Lei","image":{"thumbnail":{"default":"https://cdn.freshful.ro/media/cache/sylius_shop_product_thumbnail/3b/d1/2b6c62c98c85ff8335e21a483231.jpg"},"large":{"default":"https://cdn.freshful.ro/media/cache/freshful_large/3b/d1/2b6c62c98c85ff8335e21a483231.jpg"},"extralarge":{"default":"https://cdn.freshful.ro/media/cache/sylius_shop_product_original/3b/d1/2b6c62c98c85ff8335e21a483231.jpg"}},"label":null,"tags":[],"isAvailable":true,"maxAvailableQuantity":13,"maxAllowedQuantity":100,"breadcrumbs":[{"code":"3","name":"Fructe & legume","slug":"3-fructe-si-legume"},{"code":"303","name":"Verdețuri și ierburi aromatice","slug":"303-verdeturi-si-plante-aromatice"},{"code":"30305","name":"Dressing fresh pentru salată","slug":"dressing-fresh-pentru-salata"},{"code":"100046496","name":"Sos pentru salate French Garlic 50ml","slug":"100046496-eisberg-sos-pentru-salate-french-garlic-50ml"}],"activePromotion":null,"saveMe":null,"labels":[],"geniusPrice":null,"geniusUnitPricePerLabel":null,"banner":null,"discountLabel":null,"geniusDiscountLabel":null,"badge":null},{"code":"100150244","variantCode":"100150244","name":"Kombucha oțet 500ml","slug":"100150244-ikombucha-kombucha-otet-500ml","unitPriceLabel":"51,98 Lei/l","brand":"iKombucha","brandCode":"2980","brandFilterCode":"ikombucha-b3074","sku":"100150244","price":25.99,"originalPrice":null,"currencyCode":"RON","currency":"Lei","image":{"thumbnail":{"default":"https://cdn.freshful.ro/media/cache/sylius_shop_product_thumbnail/f4/14/de34b9cfafbf6dbf8a7eacaa83e4.jpg"},"large":{"default":"https://cdn.freshful.ro/media/cache/freshful_large/f4/14/de34b9cfafbf6dbf8a7eacaa83e4.jpg"},"extralarge":{"default":"https://cdn.freshful.ro/media/cache/sylius_shop_product_original/f4/14/de34b9cfafbf6dbf8a7eacaa83e4.jpg"}},"label":{"text":"Mici producători","backgroundColor":"#7B61FF","textColor":"#FFFFFF"},"tags":[],"isAvailable":true,"maxAvailableQuantity":39,"maxAllowedQuantity":100,"breadcrumbs":[{"code":"3","name":"Fructe & legume","slug":"3-fructe-si-legume"},{"code":"303","name":"Verdețuri și ierburi aromatice","slug":"303-verdeturi-si-plante-aromatice"},{"code":"30305","name":"Dressing fresh pentru salată","slug":"dressing-fresh-pentru-salata"},{"code":"100150244","name":"Kombucha oțet 500ml","slug":"100150244-ikombucha-kombucha-otet-500ml"}],"activePromotion":null,"saveMe":null,"labels":[{"type":"v1","items":[{"text":"Mici producători","backgroundColor":"#7B61FF","textColor":"#FFFFFF"}]}],"geniusPrice":null,"geniusUnitPricePerLabel":null,"banner":null,"discountLabel":null,"geniusDiscountLabel":null,"badge":null},{"code":"100149831","variantCode":"100149831","name":"Sos iute Habanero cu zmeură 200ml","slug":"100149831-no-brand-sos-iute-habanero-cu-zmeura-200ml","unitPriceLabel":"224,95 Lei/l","brand":null,"brandCode":null,"brandFilterCode":"no-brand-b83","sku":"100149831","price":44.99,"originalPrice":null,"currencyCode":"RON","currency":"Lei","image":{"thumbnail":{"default":"https://cdn.freshful.ro/media/cache/sylius_shop_product_thumbnail/43/78/84aba39677ac00159125fbb60591.jpg"},"large":{"default":"https://cdn.freshful.ro/media/cache/freshful_large/43/78/84aba39677ac00159125fbb60591.jpg"},"extralarge":{"default":"https://cdn.freshful.ro/media/cache/sylius_shop_product_original/43/78/84aba39677ac00159125fbb60591.jpg"}},"label":null,"tags":[{"type":"MadeInRomania","text":"Made In Romania","icon":"https://cdn.freshful.ro/assets/product_tags/made_in_romania.svg","iconPng":"https://cdn.freshful.ro/assets/product_tags/made_in_romania.png","backgroundColor":"#EDF2FD","textColor":"#1653CA"},{"type":"Natural","text":"Natural","icon":"https://cdn.freshful.ro/assets/product_tags/natural.svg","iconPng":"https://cdn.freshful.ro/assets/product_tags/natural.png","backgroundColor":"#E9FCF2","textColor":"#18AF62"}],"isAvailable":true,"maxAvailableQuantity":11,"maxAllowedQuantity":100,"breadcrumbs":[{"code":"3","name":"Fructe & legume","slug":"3-fructe-si-legume"},{"code":"303","name":"Verdețuri și ierburi aromatice","slug":"303-verdeturi-si-plante-aromatice"},{"code":"30305","name":"Dressing fresh pentru salată","slug":"dressing-fresh-pentru-salata"},{"code":"100149831","name":"Sos iute Habanero cu zmeură 200ml","slug":"100149831-no-brand-sos-iute-habanero-cu-zmeura-200ml"}],"activePromotion":null,"saveMe":null,"labels":[],"geniusPrice":null,"geniusUnitPricePerLabel":null,"banner":null,"discountLabel":null,"geniusDiscountLabel":null,"badge":null},{"code":"100149834","variantCode":"100149834","name":"Sos iute Carolina Reaper cu ardei 200ml","slug":"100149834-no-brand-sos-iute-carolina-reaper-cu-ardei-200ml","unitPriceLabel":"224,95 Lei/l","brand":null,"brandCode":null,"brandFilterCode":"no-brand-b83","sku":"100149834","price":44.99,"originalPrice":null,"currencyCode":"RON","currency":"Lei","image":{"thumbnail":{"default":"https://cdn.freshful.ro/media/cache/sylius_shop_product_thumbnail/6e/81/bed8335f27c615bb421f2885b81a.jpg"},"large":{"default":"https://cdn.freshful.ro/media/cache/freshful_large/6e/81/bed8335f27c615bb421f2885b81a.jpg"},"extralarge":{"default":"https://cdn.freshful.ro/media/cache/sylius_shop_product_original/6e/81/bed8335f27c615bb421f2885b81a.jpg"}},"label":null,"tags":[{"type":"MadeInRomania","text":"Made In Romania","icon":"https://cdn.freshful.ro/assets/product_tags/made_in_romania.svg","iconPng":"https://cdn.freshful.ro/assets/product_tags/made_in_romania.png","backgroundColor":"#EDF2FD","textColor":"#1653CA"},{"type":"Natural","text":"Natural","icon":"https://cdn.freshful.ro/assets/product_tags/natural.svg","iconPng":"https://cdn.freshful.ro/assets/product_tags/natural.png","backgroundColor":"#E9FCF2","textColor":"#18AF62"}],"isAvailable":true,"maxAvailableQuantity":13,"maxAllowedQuantity":100,"breadcrumbs":[{"code":"3","name":"Fructe & legume","slug":"3-fructe-si-legume"},{"code":"303","name":"Verdețuri și ierburi aromatice","slug":"303-verdeturi-si-plante-aromatice"},{"code":"30305","name":"Dressing fresh pentru salată","slug":"dressing-fresh-pentru-salata"},{"code":"100149834","name":"Sos iute Carolina Reaper cu ardei 200ml","slug":"100149834-no-brand-sos-iute-carolina-reaper-cu-ardei-200ml"}],"activePromotion":null,"saveMe":null,"labels":[],"geniusPrice":null,"geniusUnitPricePerLabel":null,"banner":null,"discountLabel":null,"geniusDiscountLabel":null,"badge":null},{"code":"100149833","variantCode":"100149833","name":"Sos iute Jalapeno Jalmundo cu mango 200ml","slug":"100149833-no-brand-sos-iute-jalapeno-jalmundo-cu-mango-200ml","unitPriceLabel":"224,95 Lei/l","brand":null,"brandCode":null,"brandFilterCode":"no-brand-b83","sku":"100149833","price":44.99,"originalPrice":null,"currencyCode":"RON","currency":"Lei","image":{"thumbnail":{"default":"https://cdn.freshful.ro/media/cache/sylius_shop_product_thumbnail/9b/71/3e4d5ac85d31c24c85c0e3463c0b.jpg"},"large":{"default":"https://cdn.freshful.ro/media/cache/freshful_large/9b/71/3e4d5ac85d31c24c85c0e3463c0b.jpg"},"extralarge":{"default":"https://cdn.freshful.ro/media/cache/sylius_shop_product_original/9b/71/3e4d5ac85d31c24c85c0e3463c0b.jpg"}},"label":null,"tags":[{"type":"MadeInRomania","text":"Made In Romania","icon":"https://cdn.freshful.ro/assets/product_tags/made_in_romania.svg","iconPng":"https://cdn.freshful.ro/assets/product_tags/made_in_romania.png","backgroundColor":"#EDF2FD","textColor":"#1653CA"},{"type":"Natural","text":"Natural","icon":"https://cdn.freshful.ro/assets/product_tags/natural.svg","iconPng":"https://cdn.freshful.ro/assets/product_tags/natural.png","backgroundColor":"#E9FCF2","textColor":"#18AF62"}],"isAvailable":true,"maxAvailableQuantity":17,"maxAllowedQuantity":100,"breadcrumbs":[{"code":"3","name":"Fructe & legume","slug":"3-fructe-si-legume"},{"code":"303","name":"Verdețuri și ierburi aromatice","slug":"303-verdeturi-si-plante-aromatice"},{"code":"30305","name":"Dressing fresh pentru salată","slug":"dressing-fresh-pentru-salata"},{"code":"100149833","name":"Sos iute Jalapeno Jalmundo cu mango 200ml","slug":"100149833-no-brand-sos-iute-jalapeno-jalmundo-cu-mango-200ml"}],"activePromotion":null,"saveMe":null,"labels":[],"geniusPrice":null,"geniusUnitPricePerLabel":null,"banner":null,"discountLabel":null,"geniusDiscountLabel":null,"badge":null},{"code":"100149835","variantCode":"100149835","name":"Sos iute Trinidad Scorpion cu afine 200ml","slug":"100149835-no-brand-sos-iute-trinidad-scorpion-cu-afine-200ml","unitPriceLabel":"224,95 Lei/l","brand":null,"brandCode":null,"brandFilterCode":"no-brand-b83","sku":"100149835","price":44.99,"originalPrice":null,"currencyCode":"RON","currency":"Lei","image":{"thumbnail":{"default":"https://cdn.freshful.ro/media/cache/sylius_shop_product_thumbnail/d8/c6/1c4d2a2ac7b12aeac0affb15446b.jpg"},"large":{"default":"https://cdn.freshful.ro/media/cache/freshful_large/d8/c6/1c4d2a2ac7b12aeac0affb15446b.jpg"},"extralarge":{"default":"https://cdn.freshful.ro/media/cache/sylius_shop_product_original/d8/c6/1c4d2a2ac7b12aeac0affb15446b.jpg"}},"label":null,"tags":[{"type":"MadeInRomania","text":"Made In Romania","icon":"https://cdn.freshful.ro/assets/product_tags/made_in_romania.svg","iconPng":"https://cdn.freshful.ro/assets/product_tags/made_in_romania.png","backgroundColor":"#EDF2FD","textColor":"#1653CA"},{"type":"Natural","text":"Natural","icon":"https://cdn.freshful.ro/assets/product_tags/natural.svg","iconPng":"https://cdn.freshful.ro/assets/product_tags/natural.png","backgroundColor":"#E9FCF2","textColor":"#18AF62"}],"isAvailable":true,"maxAvailableQuantity":5,"maxAllowedQuantity":100,"breadcrumbs":[{"code":"3","name":"Fructe & legume","slug":"3-fructe-si-legume"},{"code":"303","name":"Verdețuri și ierburi aromatice","slug":"303-verdeturi-si-plante-aromatice"},{"code":"30305","name":"Dressing fresh pentru salată","slug":"dressing-fresh-pentru-salata"},{"code":"100149835","name":"Sos iute Trinidad Scorpion cu afine 200ml","slug":"100149835-no-brand-sos-iute-trinidad-scorpion-cu-afine-200ml"}],"activePromotion":null,"saveMe":null,"labels":[],"geniusPrice":null,"geniusUnitPricePerLabel":null,"banner":null,"discountLabel":null,"geniusDiscountLabel":null,"badge":null},{"code":"100149836","variantCode":"100149836","name":"Pastă de ardei iute 200ml","slug":"100149836-no-brand-pasta-de-ardei-iute-200ml","unitPriceLabel":"199,95 Lei/l","brand":null,"brandCode":null,"brandFilterCode":"no-brand-b83","sku":"100149836","price":39.99,"originalPrice":null,"currencyCode":"RON","currency":"Lei","image":{"thumbnail":{"default":"https://cdn.freshful.ro/media/cache/sylius_shop_product_thumbnail/ca/cd/49cc11d39b9e16f31b692c293ebc.jpg"},"large":{"default":"https://cdn.freshful.ro/media/cache/freshful_large/ca/cd/49cc11d39b9e16f31b692c293ebc.jpg"},"extralarge":{"default":"https://cdn.freshful.ro/media/cache/sylius_shop_product_original/ca/cd/49cc11d39b9e16f31b692c293ebc.jpg"}},"label":null,"tags":[{"type":"MadeInRomania","text":"Made In Romania","icon":"https://cdn.freshful.ro/assets/product_tags/made_in_romania.svg","iconPng":"https://cdn.freshful.ro/assets/product_tags/made_in_romania.png","backgroundColor":"#EDF2FD","textColor":"#1653CA"},{"type":"Natural","text":"Natural","icon":"https://cdn.freshful.ro/assets/product_tags/natural.svg","iconPng":"https://cdn.freshful.ro/assets/product_tags/natural.png","backgroundColor":"#E9FCF2","textColor":"#18AF62"}],"isAvailable":true,"maxAvailableQuantity":21,"maxAllowedQuantity":100,"breadcrumbs":[{"code":"3","name":"Fructe & legume","slug":"3-fructe-si-legume"},{"code":"303","name":"Verdețuri și ierburi aromatice","slug":"303-verdeturi-si-plante-aromatice"},{"code":"30305","name":"Dressing fresh pentru salată","slug":"dressing-fresh-pentru-salata"},{"code":"100149836","name":"Pastă de ardei iute 200ml","slug":"100149836-no-brand-pasta-de-ardei-iute-200ml"}],"activePromotion":null,"saveMe":null,"labels":[],"geniusPrice":null,"geniusUnitPricePerLabel":null,"banner":null,"discountLabel":null,"geniusDiscountLabel":null,"badge":null}],"filters":{"countSelected":0,"items":[{"code":"brand","name":"Brand","countSelected":0,"values":[{"code":"eisberg-b233","name":"Eisberg","isSelected":false,"count":4},{"code":"ikombucha-b3074","name":"iKombucha","isSelected":false,"count":1}]},{"code":"diet_lifestyle","name":"Dietă și lifestyle","countSelected":0,"values":[{"code":"made-in-romania-a85","name":"Made In Romania","isSelected":false,"count":6},{"code":"natural-a27","name":"Natural","isSelected":false,"count":6}]}]},"orderBy":[{"field":"price","direction":"asc","name":"Preț crescător","isSelected":false},{"field":"price","direction":"desc","name":"Preț descrescător","isSelected":false},{"field":"popularity","direction":"desc","name":"Cele mai populare","isSelected":true},{"field":"category","direction":"asc","name":"Categorie","isSelected":false}],"metaTitle":"Dressing fresh pentru salată - Gamă variată","metaDescription":"Vrei Dressing fresh pentru salată? Alege dintr-o gamă variată. Comanzi simplu și ai livrare rapidă, calitate și prospețime. Hai pe Freshful.ro","metaKeywords":null,"banners":[]}}