{"type":"subcategory","payload":{"analyticsListId":"category_faina-malai-si-gris","analyticsListName":"Category - Făină, mălai și griș","name":"Făină, mălai și griș","slug":"faina-malai-si-gris","image":null,"breadcrumbs":[{"code":"8","name":"Băcănie","slug":"8-ceva-sarat"},{"code":"806","name":"Făină, zahăr și produse gourmet","slug":"faina-zahar-si-produse-gourmet"},{"code":"80601","name":"Făină, mălai și griș","slug":"faina-malai-si-gris"}],"slots":[],"page":1,"limit":10,"pages":4,"count":39,"siblings":[{"name":"Paste, orez și legume uscate","slug":"801-paste-orez-si-legume-uscate","selected":false},{"name":"Conserve","slug":"802-conserve","selected":false},{"name":"Condimente și sosuri","slug":"803-condimente-si-sosuri","selected":false},{"name":"Ulei și oțet","slug":"804-ulei-si-otet","selected":false},{"name":"De ronțăit","slug":"805-aperitive-sarate","selected":false},{"name":"Făină, zahăr și produse gourmet","slug":"faina-zahar-si-produse-gourmet","selected":true}],"children":[{"name":"Toate produsele","slug":"faina-zahar-si-produse-gourmet","selected":false},{"name":"Făină, mălai și griș","slug":"faina-malai-si-gris","selected":true},{"name":"Zahăr","slug":"zahar","selected":false},{"name":"Compot de fructe","slug":"compot-de-fructe","selected":false},{"name":"Creme, budinci și semipreparate","slug":"creme-budinci-si-semipreparate","selected":false},{"name":"Zahăr vanilat și esențe","slug":"zahar-vanilat-si-esente","selected":false},{"name":"Praf de copt, drojdie, bicarbonat și decorațiuni","slug":"praf-de-copt-drojdie-bicarbonat-si-decoratiuni","selected":false}],"products":[{"code":"100091929","variantCode":"100091929","name":"Făină de grâu albă 650 1kg","slug":"100091929-baneasa-faina-de-grau-alba-650-1kg","unitPriceLabel":"2,39 Lei/kg","brand":"Băneasa","brandCode":"1560","brandFilterCode":"baneasa-b1557","sku":"100091929","price":2.39,"originalPrice":2.89,"currencyCode":"RON","currency":"Lei","image":{"thumbnail":{"default":"https://cdn.freshful.ro/media/cache/sylius_shop_product_thumbnail/21/54/dcd425ae311f414a82e3d8a67d3e.jpg"},"large":{"default":"https://cdn.freshful.ro/media/cache/freshful_large/21/54/dcd425ae311f414a82e3d8a67d3e.jpg"},"extralarge":{"default":"https://cdn.freshful.ro/media/cache/sylius_shop_product_original/21/54/dcd425ae311f414a82e3d8a67d3e.jpg"}},"label":{"text":"-17%","backgroundColor":"#FF9903","textColor":"#FFFFFF"},"tags":[],"isAvailable":true,"maxAvailableQuantity":100,"maxAllowedQuantity":100,"breadcrumbs":[{"code":"8","name":"Băcănie","slug":"8-ceva-sarat"},{"code":"806","name":"Făină, zahăr și produse gourmet","slug":"faina-zahar-si-produse-gourmet"},{"code":"80601","name":"Făină, mălai și griș","slug":"faina-malai-si-gris"},{"code":"100091929","name":"Făină de grâu albă 650 1kg","slug":"100091929-baneasa-faina-de-grau-alba-650-1kg"}],"activePromotion":{"code":"superpreturile-saptamanii","name":"Preț redus","targetQuantity":null},"saveMe":null,"labels":[{"type":"v1","items":[{"text":"-17%","backgroundColor":"#FF9903","textColor":"#FFFFFF"}]}],"geniusPrice":null,"geniusUnitPricePerLabel":null,"banner":{"text":"Super preț","textColor":"#FF0000","bgColor":"#FFF2EC","icon":null,"link":"https://www.freshful.ro/oferte/superpreturile-saptamanii","type":"promo","analyticsEventType":"select_promotion","analyticsEventPayload":{"promotion_id":"superpreturile-saptamanii","promotion_name":"Superprețurile zilei"}},"discountLabel":"Economisești 17%","geniusDiscountLabel":null,"badge":null},{"code":"100091930","variantCode":"100091930","name":"Făină de grâu albă superioară 000 1kg","slug":"100091930-baneasa-faina-de-grau-alba-superioara-000-1kg","unitPriceLabel":"5,79 Lei/kg","brand":"Băneasa","brandCode":"1560","brandFilterCode":"baneasa-b1557","sku":"100091930","price":5.79,"originalPrice":null,"currencyCode":"RON","currency":"Lei","image":{"thumbnail":{"default":"https://cdn.freshful.ro/media/cache/sylius_shop_product_thumbnail/a2/69/921f1770ec07aa6f75b523fbb5cc.jpg"},"large":{"default":"https://cdn.freshful.ro/media/cache/freshful_large/a2/69/921f1770ec07aa6f75b523fbb5cc.jpg"},"extralarge":{"default":"https://cdn.freshful.ro/media/cache/sylius_shop_product_original/a2/69/921f1770ec07aa6f75b523fbb5cc.jpg"}},"label":null,"tags":[],"isAvailable":true,"maxAvailableQuantity":2,"maxAllowedQuantity":2,"breadcrumbs":[{"code":"8","name":"Băcănie","slug":"8-ceva-sarat"},{"code":"806","name":"Făină, zahăr și produse gourmet","slug":"faina-zahar-si-produse-gourmet"},{"code":"80601","name":"Făină, mălai și griș","slug":"faina-malai-si-gris"},{"code":"100091930","name":"Făină de grâu albă superioară 000 1kg","slug":"100091930-baneasa-faina-de-grau-alba-superioara-000-1kg"}],"activePromotion":null,"saveMe":null,"labels":[],"geniusPrice":null,"geniusUnitPricePerLabel":null,"banner":null,"discountLabel":null,"geniusDiscountLabel":null,"badge":null},{"code":"100102877","variantCode":"100102877","name":"Mălai pentru mămăligă 500g","slug":"100102877-panzani-malai-pentru-mamaliga-500g","unitPriceLabel":"15,78 Lei/kg","brand":"Panzani","brandCode":"1684","brandFilterCode":"panzani-b1688","sku":"100102877","price":7.89,"originalPrice":null,"currencyCode":"RON","currency":"Lei","image":{"thumbnail":{"default":"https://cdn.freshful.ro/media/cache/sylius_shop_product_thumbnail/26/e1/a883df110c40a78b7e0c91d8ac41.jpg"},"large":{"default":"https://cdn.freshful.ro/media/cache/freshful_large/26/e1/a883df110c40a78b7e0c91d8ac41.jpg"},"extralarge":{"default":"https://cdn.freshful.ro/media/cache/sylius_shop_product_original/26/e1/a883df110c40a78b7e0c91d8ac41.jpg"}},"label":null,"tags":[],"isAvailable":true,"maxAvailableQuantity":100,"maxAllowedQuantity":100,"breadcrumbs":[{"code":"8","name":"Băcănie","slug":"8-ceva-sarat"},{"code":"806","name":"Făină, zahăr și produse gourmet","slug":"faina-zahar-si-produse-gourmet"},{"code":"80601","name":"Făină, mălai și griș","slug":"faina-malai-si-gris"},{"code":"100102877","name":"Mălai pentru mămăligă 500g","slug":"100102877-panzani-malai-pentru-mamaliga-500g"}],"activePromotion":null,"saveMe":null,"labels":[],"geniusPrice":null,"geniusUnitPricePerLabel":null,"banner":null,"discountLabel":null,"geniusDiscountLabel":null,"badge":null},{"code":"100143048","variantCode":"100143048","name":"Griș de grâu 500g","slug":"100143048-no-brand-gris-de-grau-500g","unitPriceLabel":"4,58 Lei/kg","brand":"Delizia","brandCode":"2758","brandFilterCode":"delizia-b2832","sku":"100143048","price":2.29,"originalPrice":null,"currencyCode":"RON","currency":"Lei","image":{"thumbnail":{"default":"https://cdn.freshful.ro/media/cache/sylius_shop_product_thumbnail/76/05/6806bcc094433ef8ff1efc62a80f.jpg"},"large":{"default":"https://cdn.freshful.ro/media/cache/freshful_large/76/05/6806bcc094433ef8ff1efc62a80f.jpg"},"extralarge":{"default":"https://cdn.freshful.ro/media/cache/sylius_shop_product_original/76/05/6806bcc094433ef8ff1efc62a80f.jpg"}},"label":{"text":"Primul preț","backgroundColor":"#3A0808","textColor":"#FFFFFF"},"tags":[],"isAvailable":true,"maxAvailableQuantity":100,"maxAllowedQuantity":100,"breadcrumbs":[{"code":"8","name":"Băcănie","slug":"8-ceva-sarat"},{"code":"806","name":"Făină, zahăr și produse gourmet","slug":"faina-zahar-si-produse-gourmet"},{"code":"80601","name":"Făină, mălai și griș","slug":"faina-malai-si-gris"},{"code":"100143048","name":"Griș de grâu 500g","slug":"100143048-no-brand-gris-de-grau-500g"}],"activePromotion":null,"saveMe":null,"labels":[{"type":"v4","items":[{"text":"Primul","backgroundColor":"#3A0808","textColor":"#FFFFFF"},{"text":"preț","backgroundColor":"#BC0606","textColor":"#FFFFFF"}]}],"geniusPrice":null,"geniusUnitPricePerLabel":null,"banner":null,"discountLabel":null,"geniusDiscountLabel":null,"badge":null},{"code":"100089716","variantCode":"5941905077658","name":"Mălai 500g","slug":"100089716-atifco-malai-500g","unitPriceLabel":"5,18 Lei/kg","brand":"Atifco","brandCode":"126","brandFilterCode":"atifco-b110","sku":"100089716","price":2.59,"originalPrice":null,"currencyCode":"RON","currency":"Lei","image":{"thumbnail":{"default":"https://cdn.freshful.ro/media/cache/sylius_shop_product_thumbnail/c2/4b/c3df977e4bf249807c195ffe2c80.jpg"},"large":{"default":"https://cdn.freshful.ro/media/cache/freshful_large/c2/4b/c3df977e4bf249807c195ffe2c80.jpg"},"extralarge":{"default":"https://cdn.freshful.ro/media/cache/sylius_shop_product_original/c2/4b/c3df977e4bf249807c195ffe2c80.jpg"}},"label":{"text":"Primul preț","backgroundColor":"#3A0808","textColor":"#FFFFFF"},"tags":[],"isAvailable":true,"maxAvailableQuantity":6,"maxAllowedQuantity":6,"breadcrumbs":[{"code":"8","name":"Băcănie","slug":"8-ceva-sarat"},{"code":"806","name":"Făină, zahăr și produse gourmet","slug":"faina-zahar-si-produse-gourmet"},{"code":"80601","name":"Făină, mălai și griș","slug":"faina-malai-si-gris"},{"code":"100089716","name":"Mălai 500g","slug":"100089716-atifco-malai-500g"}],"activePromotion":null,"saveMe":null,"labels":[{"type":"v4","items":[{"text":"Primul","backgroundColor":"#3A0808","textColor":"#FFFFFF"},{"text":"preț","backgroundColor":"#BC0606","textColor":"#FFFFFF"}]}],"geniusPrice":null,"geniusUnitPricePerLabel":null,"banner":null,"discountLabel":null,"geniusDiscountLabel":null,"badge":null},{"code":"100091933","variantCode":"100091933","name":"Mălai extra 1kg","slug":"100091933-baneasa-malai-extra-1kg","unitPriceLabel":"6,95 Lei/kg","brand":"Băneasa","brandCode":"1560","brandFilterCode":"baneasa-b1557","sku":"100091933","price":6.95,"originalPrice":null,"currencyCode":"RON","currency":"Lei","image":{"thumbnail":{"default":"https://cdn.freshful.ro/media/cache/sylius_shop_product_thumbnail/4f/65/685aa834f72fd5e794649affc826.jpg"},"large":{"default":"https://cdn.freshful.ro/media/cache/freshful_large/4f/65/685aa834f72fd5e794649affc826.jpg"},"extralarge":{"default":"https://cdn.freshful.ro/media/cache/sylius_shop_product_original/4f/65/685aa834f72fd5e794649affc826.jpg"}},"label":null,"tags":[],"isAvailable":true,"maxAvailableQuantity":6,"maxAllowedQuantity":6,"breadcrumbs":[{"code":"8","name":"Băcănie","slug":"8-ceva-sarat"},{"code":"806","name":"Făină, zahăr și produse gourmet","slug":"faina-zahar-si-produse-gourmet"},{"code":"80601","name":"Făină, mălai și griș","slug":"faina-malai-si-gris"},{"code":"100091933","name":"Mălai extra 1kg","slug":"100091933-baneasa-malai-extra-1kg"}],"activePromotion":null,"saveMe":null,"labels":[],"geniusPrice":null,"geniusUnitPricePerLabel":null,"banner":null,"discountLabel":null,"geniusDiscountLabel":null,"badge":null},{"code":"100064954","variantCode":"100064954","name":"Făină albă de grâu superioară 000 1kg","slug":"100064954-dobrogea-faina-alba-de-grau-superioara-000-1kg","unitPriceLabel":"3,29 Lei/kg","brand":"Dobrogea","brandCode":"228","brandFilterCode":"dobrogea-b229","sku":"100064954","price":3.29,"originalPrice":null,"currencyCode":"RON","currency":"Lei","image":{"thumbnail":{"default":"https://cdn.freshful.ro/media/cache/sylius_shop_product_thumbnail/62/da/64db9a9941a34bb19436034848ea.jpg"},"large":{"default":"https://cdn.freshful.ro/media/cache/freshful_large/62/da/64db9a9941a34bb19436034848ea.jpg"},"extralarge":{"default":"https://cdn.freshful.ro/media/cache/sylius_shop_product_original/62/da/64db9a9941a34bb19436034848ea.jpg"}},"label":{"text":"Primul preț","backgroundColor":"#3A0808","textColor":"#FFFFFF"},"tags":[],"isAvailable":true,"maxAvailableQuantity":2,"maxAllowedQuantity":2,"breadcrumbs":[{"code":"8","name":"Băcănie","slug":"8-ceva-sarat"},{"code":"806","name":"Făină, zahăr și produse gourmet","slug":"faina-zahar-si-produse-gourmet"},{"code":"80601","name":"Făină, mălai și griș","slug":"faina-malai-si-gris"},{"code":"100064954","name":"Făină albă de grâu superioară 000 1kg","slug":"100064954-dobrogea-faina-alba-de-grau-superioara-000-1kg"}],"activePromotion":null,"saveMe":null,"labels":[{"type":"v4","items":[{"text":"Primul","backgroundColor":"#3A0808","textColor":"#FFFFFF"},{"text":"preț","backgroundColor":"#BC0606","textColor":"#FFFFFF"}]}],"geniusPrice":null,"geniusUnitPricePerLabel":null,"banner":null,"discountLabel":null,"geniusDiscountLabel":null,"badge":null},{"code":"100091934","variantCode":"100091934","name":"Pesmet 500g","slug":"100091934-baneasa-pesmet-500g","unitPriceLabel":"15,9 Lei/kg","brand":"Băneasa","brandCode":"1560","brandFilterCode":"baneasa-b1557","sku":"100091934","price":7.95,"originalPrice":null,"currencyCode":"RON","currency":"Lei","image":{"thumbnail":{"default":"https://cdn.freshful.ro/media/cache/sylius_shop_product_thumbnail/98/73/2c07ba37288f7a8315d5ec9c7ef1.jpg"},"large":{"default":"https://cdn.freshful.ro/media/cache/freshful_large/98/73/2c07ba37288f7a8315d5ec9c7ef1.jpg"},"extralarge":{"default":"https://cdn.freshful.ro/media/cache/sylius_shop_product_original/98/73/2c07ba37288f7a8315d5ec9c7ef1.jpg"}},"label":null,"tags":[],"isAvailable":true,"maxAvailableQuantity":100,"maxAllowedQuantity":100,"breadcrumbs":[{"code":"8","name":"Băcănie","slug":"8-ceva-sarat"},{"code":"806","name":"Făină, zahăr și produse gourmet","slug":"faina-zahar-si-produse-gourmet"},{"code":"80601","name":"Făină, mălai și griș","slug":"faina-malai-si-gris"},{"code":"100091934","name":"Pesmet 500g","slug":"100091934-baneasa-pesmet-500g"}],"activePromotion":null,"saveMe":null,"labels":[],"geniusPrice":null,"geniusUnitPricePerLabel":null,"banner":null,"discountLabel":null,"geniusDiscountLabel":null,"badge":null},{"code":"100064960","variantCode":"100064960","name":"Griș de grâu extra fin 500g","slug":"100064960-dobrogea-gris-de-grau-extra-fin-500g","unitPriceLabel":"9,18 Lei/kg","brand":"Dobrogea","brandCode":"228","brandFilterCode":"dobrogea-b229","sku":"100064960","price":4.59,"originalPrice":null,"currencyCode":"RON","currency":"Lei","image":{"thumbnail":{"default":"https://cdn.freshful.ro/media/cache/sylius_shop_product_thumbnail/54/23/f78aa4e8386b7e554cc96c28eb5d.jpg"},"large":{"default":"https://cdn.freshful.ro/media/cache/freshful_large/54/23/f78aa4e8386b7e554cc96c28eb5d.jpg"},"extralarge":{"default":"https://cdn.freshful.ro/media/cache/sylius_shop_product_original/54/23/f78aa4e8386b7e554cc96c28eb5d.jpg"}},"label":null,"tags":[],"isAvailable":true,"maxAvailableQuantity":100,"maxAllowedQuantity":100,"breadcrumbs":[{"code":"8","name":"Băcănie","slug":"8-ceva-sarat"},{"code":"806","name":"Făină, zahăr și produse gourmet","slug":"faina-zahar-si-produse-gourmet"},{"code":"80601","name":"Făină, mălai și griș","slug":"faina-malai-si-gris"},{"code":"100064960","name":"Griș de grâu extra fin 500g","slug":"100064960-dobrogea-gris-de-grau-extra-fin-500g"}],"activePromotion":null,"saveMe":null,"labels":[],"geniusPrice":null,"geniusUnitPricePerLabel":null,"banner":null,"discountLabel":null,"geniusDiscountLabel":null,"badge":null},{"code":"100064957","variantCode":"100064957","name":"Făină albă de grâu 650 panificație 1kg","slug":"100064957-dobrogea-faina-alba-de-grau-650-panificatie-1kg","unitPriceLabel":"6,29 Lei/kg","brand":"Dobrogea","brandCode":"228","brandFilterCode":"dobrogea-b229","sku":"100064957","price":6.29,"originalPrice":null,"currencyCode":"RON","currency":"Lei","image":{"thumbnail":{"default":"https://cdn.freshful.ro/media/cache/sylius_shop_product_thumbnail/f4/3b/a1729448ea217024b0ec855b6415.jpg"},"large":{"default":"https://cdn.freshful.ro/media/cache/freshful_large/f4/3b/a1729448ea217024b0ec855b6415.jpg"},"extralarge":{"default":"https://cdn.freshful.ro/media/cache/sylius_shop_product_original/f4/3b/a1729448ea217024b0ec855b6415.jpg"}},"label":null,"tags":[],"isAvailable":true,"maxAvailableQuantity":100,"maxAllowedQuantity":100,"breadcrumbs":[{"code":"8","name":"Băcănie","slug":"8-ceva-sarat"},{"code":"806","name":"Făină, zahăr și produse gourmet","slug":"faina-zahar-si-produse-gourmet"},{"code":"80601","name":"Făină, mălai și griș","slug":"faina-malai-si-gris"},{"code":"100064957","name":"Făină albă de grâu 650 panificație 1kg","slug":"100064957-dobrogea-faina-alba-de-grau-650-panificatie-1kg"}],"activePromotion":null,"saveMe":null,"labels":[],"geniusPrice":null,"geniusUnitPricePerLabel":null,"banner":null,"discountLabel":null,"geniusDiscountLabel":null,"badge":null}],"filters":{"countSelected":0,"items":[{"code":"promotion","name":"Promoții","countSelected":0,"values":[{"code":"superpreturile-saptamanii","name":"Superprețurile zilei","isSelected":false,"count":1}]},{"code":"brand","name":"Brand","countSelected":0,"values":[{"code":"atifco-b110","name":"Atifco","isSelected":false,"count":1},{"code":"balviten-b688","name":"Balviten","isSelected":false,"count":1},{"code":"boromir-b141","name":"Boromir","isSelected":false,"count":2},{"code":"baneasa-b1557","name":"Băneasa","isSelected":false,"count":6},{"code":"chiavazza-b2166","name":"Chiavazza","isSelected":false,"count":4},{"code":"csaladi-b2921","name":"Csaladi","isSelected":false,"count":1},{"code":"delizia-b2832","name":"Delizia","isSelected":false,"count":3},{"code":"dobrogea-b229","name":"Dobrogea","isSelected":false,"count":9},{"code":"enache-morarit-b2872","name":"Enache Morărit","isSelected":false,"count":1},{"code":"granoro-b2153","name":"Granoro","isSelected":false,"count":1},{"code":"panzani-b1688","name":"Panzani","isSelected":false,"count":3},{"code":"sanovita-b483","name":"Sanovita","isSelected":false,"count":3},{"code":"semper-b2192","name":"Semper","isSelected":false,"count":4}]},{"code":"diet_lifestyle","name":"Dietă și lifestyle","countSelected":0,"values":[{"code":"fara-gluten-a16","name":"Fara gluten","isSelected":false,"count":6},{"code":"fara-lactoza-a38","name":"Fara lactoza","isSelected":false,"count":2}]}]},"orderBy":[{"field":"price","direction":"asc","name":"Preț crescător","isSelected":false},{"field":"price","direction":"desc","name":"Preț descrescător","isSelected":false},{"field":"popularity","direction":"desc","name":"Cele mai populare","isSelected":true},{"field":"category","direction":"asc","name":"Categorie","isSelected":false}],"metaTitle":"Făină, mălai și griș - Gamă variată","metaDescription":"Vrei Făină, mălai și griș? Alege dintr-o gamă variată. Comanzi simplu și ai livrare rapidă, calitate și prospețime. Hai pe Freshful.ro","metaKeywords":null,"banners":[]}}