{"type":"subcategory","payload":{"analyticsListId":"category_faina-zahar-si-produse-gourmet","analyticsListName":"Category - Făină, zahăr și produse gourmet","name":"Făină, zahăr și produse gourmet","slug":"faina-zahar-si-produse-gourmet","image":null,"breadcrumbs":[{"code":"8","name":"Băcănie","slug":"8-ceva-sarat"},{"code":"806","name":"Făină, zahăr și produse gourmet","slug":"faina-zahar-si-produse-gourmet"}],"slots":[],"page":1,"limit":10,"pages":41,"count":408,"siblings":[{"name":"Paste, orez și legume uscate","slug":"801-paste-orez-si-legume-uscate","selected":false},{"name":"Conserve","slug":"802-conserve","selected":false},{"name":"Condimente și sosuri","slug":"803-condimente-si-sosuri","selected":false},{"name":"Ulei și oțet","slug":"804-ulei-si-otet","selected":false},{"name":"De ronțăit","slug":"805-aperitive-sarate","selected":false},{"name":"Făină, zahăr și produse gourmet","slug":"faina-zahar-si-produse-gourmet","selected":true}],"children":[{"name":"Toate produsele","slug":"faina-zahar-si-produse-gourmet","selected":true},{"name":"Făină, mălai și griș","slug":"faina-malai-si-gris","selected":false},{"name":"Zahăr","slug":"zahar","selected":false},{"name":"Compot de fructe","slug":"compot-de-fructe","selected":false},{"name":"Creme, budinci și semipreparate","slug":"creme-budinci-si-semipreparate","selected":false},{"name":"Zahăr vanilat și esențe","slug":"zahar-vanilat-si-esente","selected":false},{"name":"Praf de copt, drojdie, bicarbonat și decorațiuni","slug":"praf-de-copt-drojdie-bicarbonat-si-decoratiuni","selected":false}],"products":[{"code":"100091929","variantCode":"100091929","name":"Făină de grâu albă 650 1kg","slug":"100091929-baneasa-faina-de-grau-alba-650-1kg","unitPriceLabel":"2,39 Lei/kg","brand":"Băneasa","brandCode":"1560","brandFilterCode":"baneasa-b1557","sku":"100091929","price":2.39,"originalPrice":2.89,"currencyCode":"RON","currency":"Lei","image":{"thumbnail":{"default":"https://cdn.freshful.ro/media/cache/sylius_shop_product_thumbnail/21/54/dcd425ae311f414a82e3d8a67d3e.jpg"},"large":{"default":"https://cdn.freshful.ro/media/cache/freshful_large/21/54/dcd425ae311f414a82e3d8a67d3e.jpg"},"extralarge":{"default":"https://cdn.freshful.ro/media/cache/sylius_shop_product_original/21/54/dcd425ae311f414a82e3d8a67d3e.jpg"}},"label":{"text":"-17%","backgroundColor":"#FF9903","textColor":"#FFFFFF"},"tags":[],"isAvailable":true,"maxAvailableQuantity":100,"maxAllowedQuantity":100,"breadcrumbs":[{"code":"8","name":"Băcănie","slug":"8-ceva-sarat"},{"code":"806","name":"Făină, zahăr și produse gourmet","slug":"faina-zahar-si-produse-gourmet"},{"code":"80601","name":"Făină, mălai și griș","slug":"faina-malai-si-gris"},{"code":"100091929","name":"Făină de grâu albă 650 1kg","slug":"100091929-baneasa-faina-de-grau-alba-650-1kg"}],"activePromotion":{"code":"superpreturile-saptamanii","name":"Preț redus","targetQuantity":null},"saveMe":null,"labels":[{"type":"v1","items":[{"text":"-17%","backgroundColor":"#FF9903","textColor":"#FFFFFF"}]}],"geniusPrice":null,"geniusUnitPricePerLabel":null,"banner":{"text":"Super preț","textColor":"#FF0000","bgColor":"#FFF2EC","icon":null,"link":"https://www.freshful.ro/oferte/superpreturile-saptamanii","type":"promo","analyticsEventType":"select_promotion","analyticsEventPayload":{"promotion_id":"superpreturile-saptamanii","promotion_name":"Superprețurile zilei"}},"discountLabel":"Economisești 17%","geniusDiscountLabel":null,"badge":null},{"code":"100075587","variantCode":"5949064010059","name":"Zahăr brut din trestie de zahăr 500g","slug":"100075587-sarkara-zahar-brut-din-trestie-de-zahar-500g","unitPriceLabel":"13,98 Lei/kg","brand":"Sarkara","brandCode":"975","brandFilterCode":"sarkara-b989","sku":"100075587","price":6.99,"originalPrice":7.39,"currencyCode":"RON","currency":"Lei","image":{"thumbnail":{"default":"https://cdn.freshful.ro/media/cache/sylius_shop_product_thumbnail/2d/d4/d9fbd0a9faa407a853b2e2796b35.jpg"},"large":{"default":"https://cdn.freshful.ro/media/cache/freshful_large/2d/d4/d9fbd0a9faa407a853b2e2796b35.jpg"},"extralarge":{"default":"https://cdn.freshful.ro/media/cache/sylius_shop_product_original/2d/d4/d9fbd0a9faa407a853b2e2796b35.jpg"}},"label":{"text":"-5%","backgroundColor":"#FF9903","textColor":"#FFFFFF"},"tags":[],"isAvailable":true,"maxAvailableQuantity":100,"maxAllowedQuantity":100,"breadcrumbs":[{"code":"8","name":"Băcănie","slug":"8-ceva-sarat"},{"code":"806","name":"Făină, zahăr și produse gourmet","slug":"faina-zahar-si-produse-gourmet"},{"code":"80602","name":"Zahăr","slug":"zahar"},{"code":"100075587","name":"Zahăr brut din trestie de zahăr 500g","slug":"100075587-sarkara-zahar-brut-din-trestie-de-zahar-500g"}],"activePromotion":{"code":"oferte-bacanie-bauturi-21feb-8mar23","name":"Preț redus","targetQuantity":null},"saveMe":null,"labels":[{"type":"v1","items":[{"text":"-5%","backgroundColor":"#FF9903","textColor":"#FFFFFF"}]}],"geniusPrice":null,"geniusUnitPricePerLabel":null,"banner":{"text":"Super preț","textColor":"#FF0000","bgColor":"#FFF2EC","icon":null,"link":"https://www.freshful.ro/oferte/oferte-bacanie-bauturi-21feb-8mar23","type":"promo","analyticsEventType":"select_promotion","analyticsEventPayload":{"promotion_id":"oferte-bacanie-bauturi-21feb-8mar23","promotion_name":"Cămara cu băuturi și bunătăți"}},"discountLabel":"Economisești 5%","geniusDiscountLabel":null,"badge":null},{"code":"100091930","variantCode":"100091930","name":"Făină de grâu albă superioară 000 1kg","slug":"100091930-baneasa-faina-de-grau-alba-superioara-000-1kg","unitPriceLabel":"5,79 Lei/kg","brand":"Băneasa","brandCode":"1560","brandFilterCode":"baneasa-b1557","sku":"100091930","price":5.79,"originalPrice":null,"currencyCode":"RON","currency":"Lei","image":{"thumbnail":{"default":"https://cdn.freshful.ro/media/cache/sylius_shop_product_thumbnail/a2/69/921f1770ec07aa6f75b523fbb5cc.jpg"},"large":{"default":"https://cdn.freshful.ro/media/cache/freshful_large/a2/69/921f1770ec07aa6f75b523fbb5cc.jpg"},"extralarge":{"default":"https://cdn.freshful.ro/media/cache/sylius_shop_product_original/a2/69/921f1770ec07aa6f75b523fbb5cc.jpg"}},"label":null,"tags":[],"isAvailable":true,"maxAvailableQuantity":2,"maxAllowedQuantity":2,"breadcrumbs":[{"code":"8","name":"Băcănie","slug":"8-ceva-sarat"},{"code":"806","name":"Făină, zahăr și produse gourmet","slug":"faina-zahar-si-produse-gourmet"},{"code":"80601","name":"Făină, mălai și griș","slug":"faina-malai-si-gris"},{"code":"100091930","name":"Făină de grâu albă superioară 000 1kg","slug":"100091930-baneasa-faina-de-grau-alba-superioara-000-1kg"}],"activePromotion":null,"saveMe":null,"labels":[],"geniusPrice":null,"geniusUnitPricePerLabel":null,"banner":null,"discountLabel":null,"geniusDiscountLabel":null,"badge":null},{"code":"100101100","variantCode":"100101100","name":"Zahăr alb 1kg","slug":"100101100-diamant-zahar-alb-1kg","unitPriceLabel":"5,99 Lei/kg","brand":"Diamant","brandCode":"1250","brandFilterCode":"diamant-b1251","sku":"100101100","price":5.99,"originalPrice":null,"currencyCode":"RON","currency":"Lei","image":{"thumbnail":{"default":"https://cdn.freshful.ro/media/cache/sylius_shop_product_thumbnail/57/1a/7676458a0a59e01bc30274e51a72.jpg"},"large":{"default":"https://cdn.freshful.ro/media/cache/freshful_large/57/1a/7676458a0a59e01bc30274e51a72.jpg"},"extralarge":{"default":"https://cdn.freshful.ro/media/cache/sylius_shop_product_original/57/1a/7676458a0a59e01bc30274e51a72.jpg"}},"label":null,"tags":[],"isAvailable":true,"maxAvailableQuantity":6,"maxAllowedQuantity":6,"breadcrumbs":[{"code":"8","name":"Băcănie","slug":"8-ceva-sarat"},{"code":"806","name":"Făină, zahăr și produse gourmet","slug":"faina-zahar-si-produse-gourmet"},{"code":"80602","name":"Zahăr","slug":"zahar"},{"code":"100101100","name":"Zahăr alb 1kg","slug":"100101100-diamant-zahar-alb-1kg"}],"activePromotion":null,"saveMe":null,"labels":[],"geniusPrice":null,"geniusUnitPricePerLabel":null,"banner":null,"discountLabel":null,"geniusDiscountLabel":null,"badge":null},{"code":"100001511","variantCode":"5941132015850","name":"Praf de copt 3x10g","slug":"100001511-dr-oetker-praf-de-copt-3x10g","unitPriceLabel":"47 Lei/kg","brand":"Dr. Oetker","brandCode":"55","brandFilterCode":"dr-oetker-b51","sku":"100001511","price":1.41,"originalPrice":null,"currencyCode":"RON","currency":"Lei","image":{"thumbnail":{"default":"https://cdn.freshful.ro/media/cache/sylius_shop_product_thumbnail/1a/96/5240eb239fbcfd09f4d90a8d480b.jpg"},"large":{"default":"https://cdn.freshful.ro/media/cache/freshful_large/1a/96/5240eb239fbcfd09f4d90a8d480b.jpg"},"extralarge":{"default":"https://cdn.freshful.ro/media/cache/sylius_shop_product_original/1a/96/5240eb239fbcfd09f4d90a8d480b.jpg"}},"label":null,"tags":[],"isAvailable":true,"maxAvailableQuantity":100,"maxAllowedQuantity":100,"breadcrumbs":[{"code":"8","name":"Băcănie","slug":"8-ceva-sarat"},{"code":"806","name":"Făină, zahăr și produse gourmet","slug":"faina-zahar-si-produse-gourmet"},{"code":"80606","name":"Praf de copt, drojdie, bicarbonat și decorațiuni","slug":"praf-de-copt-drojdie-bicarbonat-si-decoratiuni"},{"code":"100001511","name":"Praf de copt 3x10g","slug":"100001511-dr-oetker-praf-de-copt-3x10g"}],"activePromotion":null,"saveMe":null,"labels":[],"geniusPrice":null,"geniusUnitPricePerLabel":null,"banner":null,"discountLabel":null,"geniusDiscountLabel":null,"badge":null},{"code":"100001533","variantCode":"5941132017267","name":"Drojdie uscată 3x7g ","slug":"100001533-dr-oetker-drojdie-uscata-3x7g","unitPriceLabel":"193,81 Lei/kg","brand":"Dr. Oetker","brandCode":"55","brandFilterCode":"dr-oetker-b51","sku":"100001533","price":4.07,"originalPrice":null,"currencyCode":"RON","currency":"Lei","image":{"thumbnail":{"default":"https://cdn.freshful.ro/media/cache/sylius_shop_product_thumbnail/00/2e/eb21703bae2d9e8f72f1083f87f9.jpg"},"large":{"default":"https://cdn.freshful.ro/media/cache/freshful_large/00/2e/eb21703bae2d9e8f72f1083f87f9.jpg"},"extralarge":{"default":"https://cdn.freshful.ro/media/cache/sylius_shop_product_original/00/2e/eb21703bae2d9e8f72f1083f87f9.jpg"}},"label":null,"tags":[],"isAvailable":true,"maxAvailableQuantity":100,"maxAllowedQuantity":100,"breadcrumbs":[{"code":"8","name":"Băcănie","slug":"8-ceva-sarat"},{"code":"806","name":"Făină, zahăr și produse gourmet","slug":"faina-zahar-si-produse-gourmet"},{"code":"80606","name":"Praf de copt, drojdie, bicarbonat și decorațiuni","slug":"praf-de-copt-drojdie-bicarbonat-si-decoratiuni"},{"code":"100001533","name":"Drojdie uscată 3x7g ","slug":"100001533-dr-oetker-drojdie-uscata-3x7g"}],"activePromotion":null,"saveMe":null,"labels":[],"geniusPrice":null,"geniusUnitPricePerLabel":null,"banner":null,"discountLabel":null,"geniusDiscountLabel":null,"badge":null},{"code":"100102877","variantCode":"100102877","name":"Mălai pentru mămăligă 500g","slug":"100102877-panzani-malai-pentru-mamaliga-500g","unitPriceLabel":"15,78 Lei/kg","brand":"Panzani","brandCode":"1684","brandFilterCode":"panzani-b1688","sku":"100102877","price":7.89,"originalPrice":null,"currencyCode":"RON","currency":"Lei","image":{"thumbnail":{"default":"https://cdn.freshful.ro/media/cache/sylius_shop_product_thumbnail/26/e1/a883df110c40a78b7e0c91d8ac41.jpg"},"large":{"default":"https://cdn.freshful.ro/media/cache/freshful_large/26/e1/a883df110c40a78b7e0c91d8ac41.jpg"},"extralarge":{"default":"https://cdn.freshful.ro/media/cache/sylius_shop_product_original/26/e1/a883df110c40a78b7e0c91d8ac41.jpg"}},"label":null,"tags":[],"isAvailable":true,"maxAvailableQuantity":100,"maxAllowedQuantity":100,"breadcrumbs":[{"code":"8","name":"Băcănie","slug":"8-ceva-sarat"},{"code":"806","name":"Făină, zahăr și produse gourmet","slug":"faina-zahar-si-produse-gourmet"},{"code":"80601","name":"Făină, mălai și griș","slug":"faina-malai-si-gris"},{"code":"100102877","name":"Mălai pentru mămăligă 500g","slug":"100102877-panzani-malai-pentru-mamaliga-500g"}],"activePromotion":null,"saveMe":null,"labels":[],"geniusPrice":null,"geniusUnitPricePerLabel":null,"banner":null,"discountLabel":null,"geniusDiscountLabel":null,"badge":null},{"code":"100139085","variantCode":"100139085","name":"Zahăr brun din trestie de zahăr 500g","slug":"100139085-sanovita-zahar-brun-din-trestie-de-zahar-500g","unitPriceLabel":"15,38 Lei/kg","brand":"Sanovita","brandCode":"482","brandFilterCode":"sanovita-b483","sku":"100139085","price":7.69,"originalPrice":null,"currencyCode":"RON","currency":"Lei","image":{"thumbnail":{"default":"https://cdn.freshful.ro/media/cache/sylius_shop_product_thumbnail/9c/54/7db3d88b0d91e00a6bc66effef41.jpg"},"large":{"default":"https://cdn.freshful.ro/media/cache/freshful_large/9c/54/7db3d88b0d91e00a6bc66effef41.jpg"},"extralarge":{"default":"https://cdn.freshful.ro/media/cache/sylius_shop_product_original/9c/54/7db3d88b0d91e00a6bc66effef41.jpg"}},"label":null,"tags":[],"isAvailable":true,"maxAvailableQuantity":100,"maxAllowedQuantity":100,"breadcrumbs":[{"code":"8","name":"Băcănie","slug":"8-ceva-sarat"},{"code":"806","name":"Făină, zahăr și produse gourmet","slug":"faina-zahar-si-produse-gourmet"},{"code":"80602","name":"Zahăr","slug":"zahar"},{"code":"100139085","name":"Zahăr brun din trestie de zahăr 500g","slug":"100139085-sanovita-zahar-brun-din-trestie-de-zahar-500g"}],"activePromotion":null,"saveMe":null,"labels":[],"geniusPrice":null,"geniusUnitPricePerLabel":null,"banner":null,"discountLabel":null,"geniusDiscountLabel":null,"badge":null},{"code":"100001422","variantCode":"5941132002676","name":"Zahăr vanilinat 4x8g","slug":"100001422-dr-oetker-zahar-vanilinat-4x8g","unitPriceLabel":"60,94 Lei/kg","brand":"Dr. Oetker","brandCode":"55","brandFilterCode":"dr-oetker-b51","sku":"100001422","price":1.95,"originalPrice":null,"currencyCode":"RON","currency":"Lei","image":{"thumbnail":{"default":"https://cdn.freshful.ro/media/cache/sylius_shop_product_thumbnail/ec/ee/303d64acbcd9e0803cb137a92401.jpg"},"large":{"default":"https://cdn.freshful.ro/media/cache/freshful_large/ec/ee/303d64acbcd9e0803cb137a92401.jpg"},"extralarge":{"default":"https://cdn.freshful.ro/media/cache/sylius_shop_product_original/ec/ee/303d64acbcd9e0803cb137a92401.jpg"}},"label":null,"tags":[],"isAvailable":true,"maxAvailableQuantity":100,"maxAllowedQuantity":100,"breadcrumbs":[{"code":"8","name":"Băcănie","slug":"8-ceva-sarat"},{"code":"806","name":"Făină, zahăr și produse gourmet","slug":"faina-zahar-si-produse-gourmet"},{"code":"80605","name":"Zahăr vanilat și esențe","slug":"zahar-vanilat-si-esente"},{"code":"100001422","name":"Zahăr vanilinat 4x8g","slug":"100001422-dr-oetker-zahar-vanilinat-4x8g"}],"activePromotion":null,"saveMe":null,"labels":[],"geniusPrice":null,"geniusUnitPricePerLabel":null,"banner":null,"discountLabel":null,"geniusDiscountLabel":null,"badge":null},{"code":"100143048","variantCode":"100143048","name":"Griș de grâu 500g","slug":"100143048-no-brand-gris-de-grau-500g","unitPriceLabel":"4,58 Lei/kg","brand":"Delizia","brandCode":"2758","brandFilterCode":"delizia-b2832","sku":"100143048","price":2.29,"originalPrice":null,"currencyCode":"RON","currency":"Lei","image":{"thumbnail":{"default":"https://cdn.freshful.ro/media/cache/sylius_shop_product_thumbnail/76/05/6806bcc094433ef8ff1efc62a80f.jpg"},"large":{"default":"https://cdn.freshful.ro/media/cache/freshful_large/76/05/6806bcc094433ef8ff1efc62a80f.jpg"},"extralarge":{"default":"https://cdn.freshful.ro/media/cache/sylius_shop_product_original/76/05/6806bcc094433ef8ff1efc62a80f.jpg"}},"label":{"text":"Primul preț","backgroundColor":"#3A0808","textColor":"#FFFFFF"},"tags":[],"isAvailable":true,"maxAvailableQuantity":100,"maxAllowedQuantity":100,"breadcrumbs":[{"code":"8","name":"Băcănie","slug":"8-ceva-sarat"},{"code":"806","name":"Făină, zahăr și produse gourmet","slug":"faina-zahar-si-produse-gourmet"},{"code":"80601","name":"Făină, mălai și griș","slug":"faina-malai-si-gris"},{"code":"100143048","name":"Griș de grâu 500g","slug":"100143048-no-brand-gris-de-grau-500g"}],"activePromotion":null,"saveMe":null,"labels":[{"type":"v4","items":[{"text":"Primul","backgroundColor":"#3A0808","textColor":"#FFFFFF"},{"text":"preț","backgroundColor":"#BC0606","textColor":"#FFFFFF"}]}],"geniusPrice":null,"geniusUnitPricePerLabel":null,"banner":null,"discountLabel":null,"geniusDiscountLabel":null,"badge":null}],"filters":{"countSelected":0,"items":[{"code":"promotion","name":"Promoții","countSelected":0,"values":[{"code":"oferte-bacanie-bauturi-21feb-8mar23","name":"Cămara cu băuturi și bunătăți","isSelected":false,"count":1},{"code":"superpreturile-saptamanii","name":"Superprețurile zilei","isSelected":false,"count":1}]},{"code":"brand","name":"Brand","countSelected":0,"values":[{"code":"aarts-b985","name":"Aarts","isSelected":false,"count":6},{"code":"askeys-b975","name":"Askeys","isSelected":false,"count":3},{"code":"atifco-b110","name":"Atifco","isSelected":false,"count":1},{"code":"balviten-b688","name":"Balviten","isSelected":false,"count":1},{"code":"billington-s-b978","name":"Billington's","isSelected":false,"count":6},{"code":"boromir-b141","name":"Boromir","isSelected":false,"count":2},{"code":"baneasa-b1557","name":"Băneasa","isSelected":false,"count":7},{"code":"chiavazza-b2166","name":"Chiavazza","isSelected":false,"count":4},{"code":"cima-b1616","name":"Cima","isSelected":false,"count":3},{"code":"coronita-b885","name":"Coronița","isSelected":false,"count":1},{"code":"coseli-b1171","name":"Coseli","isSelected":false,"count":21},{"code":"cosmin-b923","name":"Cosmin","isSelected":false,"count":19},{"code":"csaladi-b2921","name":"Csaladi","isSelected":false,"count":1},{"code":"darinne-b2922","name":"Darinne","isSelected":false,"count":2},{"code":"del-monte-b2397","name":"Del Monte","isSelected":false,"count":6},{"code":"delirs-b965","name":"Delirs","isSelected":false,"count":3},{"code":"delizia-b2832","name":"Delizia","isSelected":false,"count":3},{"code":"diamant-b1251","name":"Diamant","isSelected":false,"count":17},{"code":"dobrogea-b229","name":"Dobrogea","isSelected":false,"count":9},{"code":"docello-b2011","name":"Docello","isSelected":false,"count":1},{"code":"dole-b1626","name":"Dole","isSelected":false,"count":3},{"code":"dr-oetker-b51","name":"Dr. Oetker","isSelected":false,"count":160},{"code":"dr-oetker-professional-b2444","name":"Dr. Oetker Professional","isSelected":false,"count":18},{"code":"enache-morarit-b2872","name":"Enache Morărit","isSelected":false,"count":1},{"code":"firesco-b1539","name":"Firesco","isSelected":false,"count":2},{"code":"galeo-b512","name":"Galeo","isSelected":false,"count":3},{"code":"granoro-b2153","name":"Granoro","isSelected":false,"count":1},{"code":"hada-b2499","name":"Hada","isSelected":false,"count":4},{"code":"home-garden-b782","name":"Home Garden","isSelected":false,"count":5},{"code":"iscal-b973","name":"Iscal","isSelected":false,"count":1},{"code":"italmill-b2165","name":"Italmill","isSelected":false,"count":1},{"code":"kamis-b511","name":"Kamis","isSelected":false,"count":13},{"code":"kandia-b1542","name":"Kandia","isSelected":false,"count":1},{"code":"kaoka-b2496","name":"Kaoka","isSelected":false,"count":1},{"code":"lavazza-b162","name":"Lavazza","isSelected":false,"count":2},{"code":"lekorna-b1541","name":"Lekorna","isSelected":false,"count":1},{"code":"maxim-s-b271","name":"Maxim's","isSelected":false,"count":1},{"code":"mogyi-b754","name":"Mogyi","isSelected":false,"count":2},{"code":"margaritar-b786","name":"Mărgăritar","isSelected":false,"count":1},{"code":"nestle-b698","name":"Nestlé","isSelected":false,"count":2},{"code":"niavis-b191","name":"Niavis","isSelected":false,"count":3},{"code":"olympia-b244","name":"Olympia","isSelected":false,"count":5},{"code":"panzani-b1688","name":"Panzani","isSelected":false,"count":3},{"code":"perugina-b2594","name":"Perugina","isSelected":false,"count":1},{"code":"poof-b485","name":"Poof","isSelected":false,"count":1},{"code":"raraul-b12","name":"Rarăul","isSelected":false,"count":2},{"code":"ruf-b2162","name":"Ruf","isSelected":false,"count":8},{"code":"raureni-b773","name":"Râureni","isSelected":false,"count":8},{"code":"razvan-b1127","name":"Răzvan","isSelected":false,"count":1},{"code":"sanovita-b483","name":"Sanovita","isSelected":false,"count":11},{"code":"sarkara-b989","name":"Sarkara","isSelected":false,"count":3},{"code":"schmidt-b2163","name":"Schmidt","isSelected":false,"count":1},{"code":"schwartau-b880","name":"Schwartau","isSelected":false,"count":4},{"code":"sebahat-b986","name":"Sebahat","isSelected":false,"count":2},{"code":"semper-b2192","name":"Semper","isSelected":false,"count":4},{"code":"silver-spoon-b979","name":"Silver spoon","isSelected":false,"count":1},{"code":"soland-b2753","name":"SOLAND","isSelected":false,"count":1},{"code":"st-mamet-b977","name":"St Mamet","isSelected":false,"count":1},{"code":"stenger-b2707","name":"Stenger","isSelected":false,"count":2},{"code":"van-b456","name":"Van","isSelected":false,"count":1},{"code":"varanini-b2002","name":"Varanini","isSelected":false,"count":2},{"code":"vasluianca-b1833","name":"Vasluianca","isSelected":false,"count":2},{"code":"venus-b2616","name":"Venus","isSelected":false,"count":1},{"code":"videca-b988","name":"Videca","isSelected":false,"count":1}]},{"code":"diet_lifestyle","name":"Dietă și lifestyle","countSelected":0,"values":[{"code":"eco-a83","name":"Eco","isSelected":false,"count":1},{"code":"fara-conservanti-a37","name":"Fara conservanti","isSelected":false,"count":5},{"code":"fara-gluten-a16","name":"Fara gluten","isSelected":false,"count":13},{"code":"fara-lactoza-a38","name":"Fara lactoza","isSelected":false,"count":2},{"code":"made-in-romania-a85","name":"Made In Romania","isSelected":false,"count":4},{"code":"natural-a27","name":"Natural","isSelected":false,"count":6},{"code":"vegan-a24","name":"Vegan","isSelected":false,"count":1}]}]},"orderBy":[{"field":"price","direction":"asc","name":"Preț crescător","isSelected":false},{"field":"price","direction":"desc","name":"Preț descrescător","isSelected":false},{"field":"popularity","direction":"desc","name":"Cele mai populare","isSelected":true},{"field":"category","direction":"asc","name":"Categorie","isSelected":false}],"metaTitle":"Făină, zahăr și produse gourmet - Gamă variată","metaDescription":"Vrei Făină, zahăr și produse gourmet? Alege dintr-o gamă variată. Comanzi simplu și ai livrare rapidă, calitate și prospețime. Hai pe Freshful.ro","metaKeywords":null,"banners":[{"name":"Prim pret","position":2,"type":"listing","displayOnMobile":true,"image":{"jpg":"https://cdn.freshful.ro/media/image/87/b8/2c5353731cb930753b2e9388cb6c.jpg","webp":"https://cdn.freshful.ro/media/image/2f/81/31f258b5a853f724d1a0ee704aea.webp"},"imageResponsive":{"jpg":"https://cdn.freshful.ro/media/image/bc/92/2fd607eef07234c1e524156e1312.jpg","webp":"https://cdn.freshful.ro/media/image/87/db/5b4fc5253bb990fdd0477492ff28.webp"},"url":"/l/custom-listing-prim-pret"}]}}