{"type":"subcategory","payload":{"analyticsListId":"category_grasimi-vegetale-si-produse-fermentate","analyticsListName":"Category - Grăsimi vegetale și produse fermentate","name":"Grăsimi vegetale și produse fermentate","slug":"grasimi-vegetale-si-produse-fermentate","image":null,"breadcrumbs":[{"code":"17","name":"Produse vegetale","slug":"produse-vegetale"},{"code":"1702","name":"Băuturi, creme și grăsimi vegetale","slug":"bauturi-creme-si-grasimi-vegetale"},{"code":"170202","name":"Grăsimi vegetale și produse fermentate","slug":"grasimi-vegetale-si-produse-fermentate"}],"slots":[],"page":1,"limit":10,"pages":6,"count":57,"siblings":[{"name":"Carne și specialități vegetale","slug":"carne-si-specialitati-vegetale","selected":false},{"name":"Băuturi, creme și grăsimi vegetale","slug":"bauturi-creme-si-grasimi-vegetale","selected":true}],"children":[{"name":"Toate produsele","slug":"bauturi-creme-si-grasimi-vegetale","selected":false},{"name":"Creme, tofu și tartinabile vegetale","slug":"creme-tofu-si-tartinabile-vegetale","selected":false},{"name":"Grăsimi vegetale și produse fermentate","slug":"grasimi-vegetale-si-produse-fermentate","selected":true},{"name":"Băuturi vegetale UHT","slug":"bauturi-vegetale-uht","selected":false},{"name":"Băuturi vegetale și desert","slug":"bauturi-vegetale-si-desert","selected":false}],"products":[{"code":"100032206","variantCode":"5941866617214","name":"Specialitate vegetală bloc 200g","slug":"100032206-verdino-specialitate-vegetala-bloc-200g","unitPriceLabel":"71,75 Lei/kg","brand":"Verdino","brandCode":"206","brandFilterCode":"verdino-b207","sku":"100032206","price":14.35,"originalPrice":15.99,"currencyCode":"RON","currency":"Lei","image":{"thumbnail":{"default":"https://cdn.freshful.ro/media/cache/sylius_shop_product_thumbnail/db/27/125bbb50ef27cfed28fe186bbf2f.jpg"},"large":{"default":"https://cdn.freshful.ro/media/cache/freshful_large/db/27/125bbb50ef27cfed28fe186bbf2f.jpg"},"extralarge":{"default":"https://cdn.freshful.ro/media/cache/sylius_shop_product_original/db/27/125bbb50ef27cfed28fe186bbf2f.jpg"}},"label":{"text":"-10%","backgroundColor":"#FF9903","textColor":"#FFFFFF"},"tags":[{"type":"vegan","text":"Vegan","icon":"https://cdn.freshful.ro/assets/product_tags/vegan.svg","iconPng":"https://cdn.freshful.ro/assets/product_tags/vegan.png","backgroundColor":"#ECF9F8","textColor":"#33A39C"},{"type":"LactoseFree","text":"Fara lactoza","icon":"https://cdn.freshful.ro/assets/product_tags/fara_lactoza.svg","iconPng":"https://cdn.freshful.ro/assets/product_tags/fara_lactoza.png","backgroundColor":"#E9F7FB","textColor":"#25A6D0"}],"isAvailable":true,"maxAvailableQuantity":19,"maxAllowedQuantity":100,"breadcrumbs":[{"code":"17","name":"Produse vegetale","slug":"produse-vegetale"},{"code":"1702","name":"Băuturi, creme și grăsimi vegetale","slug":"bauturi-creme-si-grasimi-vegetale"},{"code":"170202","name":"Grăsimi vegetale și produse fermentate","slug":"grasimi-vegetale-si-produse-fermentate"},{"code":"100032206","name":"Specialitate vegetală bloc 200g","slug":"100032206-verdino-specialitate-vegetala-bloc-200g"}],"activePromotion":{"code":"freshful-top-deals-2023","name":"Preț redus","targetQuantity":null},"saveMe":null,"labels":[{"type":"v1","items":[{"text":"-10%","backgroundColor":"#FF9903","textColor":"#FFFFFF"}]}],"geniusPrice":null,"geniusUnitPricePerLabel":null,"banner":{"text":"Super preț","textColor":"#FF0000","bgColor":"#FFF2EC","icon":null,"link":"https://www.freshful.ro/oferte/freshful-top-deals-2023","type":"promo","analyticsEventType":"select_promotion","analyticsEventPayload":{"promotion_id":"freshful-top-deals-2023","promotion_name":"Profită de Top Deals"}},"discountLabel":"Economisești 10%","geniusDiscountLabel":null,"badge":null},{"code":"100145254","variantCode":"100145254","name":"Specialitate vegetală din nuci de caju rasă eco 100g","slug":"100145254-rawckers-specialitate-vegetala-din-nuci-de-caju-rasa-eco-100g","unitPriceLabel":"179,9 Lei/kg","brand":"Rawckers","brandCode":"220","brandFilterCode":"rawckers-b221","sku":"100145254","price":17.99,"originalPrice":19.49,"currencyCode":"RON","currency":"Lei","image":{"thumbnail":{"default":"https://cdn.freshful.ro/media/cache/sylius_shop_product_thumbnail/b9/ec/6c5dd7e111cc5d1a97fbc298b5c8.jpg"},"large":{"default":"https://cdn.freshful.ro/media/cache/freshful_large/b9/ec/6c5dd7e111cc5d1a97fbc298b5c8.jpg"},"extralarge":{"default":"https://cdn.freshful.ro/media/cache/sylius_shop_product_original/b9/ec/6c5dd7e111cc5d1a97fbc298b5c8.jpg"}},"label":{"text":"-7%","backgroundColor":"#FF9903","textColor":"#FFFFFF"},"tags":[{"type":"Eco","text":"Eco","icon":"https://cdn.freshful.ro/assets/product_tags/eco.svg","iconPng":"https://cdn.freshful.ro/assets/product_tags/eco.png","backgroundColor":"#EFFBE4","textColor":"#66BB1B"},{"type":"vegan","text":"Vegan","icon":"https://cdn.freshful.ro/assets/product_tags/vegan.svg","iconPng":"https://cdn.freshful.ro/assets/product_tags/vegan.png","backgroundColor":"#ECF9F8","textColor":"#33A39C"},{"type":"NoGluten","text":"Fara gluten","icon":"https://cdn.freshful.ro/assets/product_tags/fara_gluten.svg","iconPng":"https://cdn.freshful.ro/assets/product_tags/fara_gluten.png","backgroundColor":"#FFF2E5","textColor":"#F07900"},{"type":"LactoseFree","text":"Fara lactoza","icon":"https://cdn.freshful.ro/assets/product_tags/fara_lactoza.svg","iconPng":"https://cdn.freshful.ro/assets/product_tags/fara_lactoza.png","backgroundColor":"#E9F7FB","textColor":"#25A6D0"},{"type":"NoPreservatives","text":"Fara conservanti","icon":"https://cdn.freshful.ro/assets/product_tags/fara_conservanti.svg","iconPng":"https://cdn.freshful.ro/assets/product_tags/fara_conservanti.png","backgroundColor":"#F0F2FF","textColor":"#7889DD"}],"isAvailable":true,"maxAvailableQuantity":23,"maxAllowedQuantity":100,"breadcrumbs":[{"code":"17","name":"Produse vegetale","slug":"produse-vegetale"},{"code":"1702","name":"Băuturi, creme și grăsimi vegetale","slug":"bauturi-creme-si-grasimi-vegetale"},{"code":"170202","name":"Grăsimi vegetale și produse fermentate","slug":"grasimi-vegetale-si-produse-fermentate"},{"code":"100145254","name":"Specialitate vegetală din nuci de caju rasă eco 100g","slug":"100145254-rawckers-specialitate-vegetala-din-nuci-de-caju-rasa-eco-100g"}],"activePromotion":{"code":"special-produse-vegane-mar23","name":"Preț redus","targetQuantity":null},"saveMe":null,"labels":[{"type":"v1","items":[{"text":"-7%","backgroundColor":"#FF9903","textColor":"#FFFFFF"}]}],"geniusPrice":null,"geniusUnitPricePerLabel":null,"banner":{"text":"Super preț","textColor":"#FF0000","bgColor":"#FFF2EC","icon":null,"link":"https://www.freshful.ro/oferte/special-produse-vegane-mar23","type":"promo","analyticsEventType":"select_promotion","analyticsEventPayload":{"promotion_id":"special-produse-vegane-mar23","promotion_name":"Și bun, și de post"}},"discountLabel":"Economisești 7%","geniusDiscountLabel":null,"badge":null},{"code":"100137988","variantCode":"100137988","name":"Preparat alimentar ras pe bază de migdale 200g","slug":"100137988-simply-v-preparat-alimentar-ras-pe-baza-de-migdale-200g","unitPriceLabel":"68,52 Lei/kg","brand":"Simply V","brandCode":"2635","brandFilterCode":"simply-v-b2639","sku":"100137988","price":14.39,"originalPrice":16.49,"currencyCode":"RON","currency":"Lei","image":{"thumbnail":{"default":"https://cdn.freshful.ro/media/cache/sylius_shop_product_thumbnail/37/70/a0e3b1b2d005d7a88cb48e18e7b1.jpg"},"large":{"default":"https://cdn.freshful.ro/media/cache/freshful_large/37/70/a0e3b1b2d005d7a88cb48e18e7b1.jpg"},"extralarge":{"default":"https://cdn.freshful.ro/media/cache/sylius_shop_product_original/37/70/a0e3b1b2d005d7a88cb48e18e7b1.jpg"}},"label":{"text":"-12%","backgroundColor":"#FF9903","textColor":"#FFFFFF"},"tags":[{"type":"vegan","text":"Vegan","icon":"https://cdn.freshful.ro/assets/product_tags/vegan.svg","iconPng":"https://cdn.freshful.ro/assets/product_tags/vegan.png","backgroundColor":"#ECF9F8","textColor":"#33A39C"}],"isAvailable":true,"maxAvailableQuantity":37,"maxAllowedQuantity":100,"breadcrumbs":[{"code":"17","name":"Produse vegetale","slug":"produse-vegetale"},{"code":"1702","name":"Băuturi, creme și grăsimi vegetale","slug":"bauturi-creme-si-grasimi-vegetale"},{"code":"170202","name":"Grăsimi vegetale și produse fermentate","slug":"grasimi-vegetale-si-produse-fermentate"},{"code":"100137988","name":"Preparat alimentar ras pe bază de migdale 200g","slug":"100137988-simply-v-preparat-alimentar-ras-pe-baza-de-migdale-200g"}],"activePromotion":{"code":"special-produse-vegane-mar23","name":"Preț redus","targetQuantity":null},"saveMe":null,"labels":[{"type":"v1","items":[{"text":"-12%","backgroundColor":"#FF9903","textColor":"#FFFFFF"}]}],"geniusPrice":null,"geniusUnitPricePerLabel":null,"banner":{"text":"Super preț","textColor":"#FF0000","bgColor":"#FFF2EC","icon":null,"link":"https://www.freshful.ro/oferte/special-produse-vegane-mar23","type":"promo","analyticsEventType":"select_promotion","analyticsEventPayload":{"promotion_id":"special-produse-vegane-mar23","promotion_name":"Și bun, și de post"}},"discountLabel":"Economisești 12%","geniusDiscountLabel":null,"badge":null},{"code":"100138293","variantCode":"100138293","name":"Felii natur cu migdale 150g","slug":"100138293-simply-v-felii-natur-cu-migdale-150g","unitPriceLabel":"93,27 Lei/kg","brand":"Simply V","brandCode":"2635","brandFilterCode":"simply-v-b2639","sku":"100138293","price":13.99,"originalPrice":16.39,"currencyCode":"RON","currency":"Lei","image":{"thumbnail":{"default":"https://cdn.freshful.ro/media/cache/sylius_shop_product_thumbnail/ba/43/baf62870fe3da644a967966dacf9.jpg"},"large":{"default":"https://cdn.freshful.ro/media/cache/freshful_large/ba/43/baf62870fe3da644a967966dacf9.jpg"},"extralarge":{"default":"https://cdn.freshful.ro/media/cache/sylius_shop_product_original/ba/43/baf62870fe3da644a967966dacf9.jpg"}},"label":{"text":"-14%","backgroundColor":"#FF9903","textColor":"#FFFFFF"},"tags":[{"type":"vegan","text":"Vegan","icon":"https://cdn.freshful.ro/assets/product_tags/vegan.svg","iconPng":"https://cdn.freshful.ro/assets/product_tags/vegan.png","backgroundColor":"#ECF9F8","textColor":"#33A39C"},{"type":"NoGluten","text":"Fara gluten","icon":"https://cdn.freshful.ro/assets/product_tags/fara_gluten.svg","iconPng":"https://cdn.freshful.ro/assets/product_tags/fara_gluten.png","backgroundColor":"#FFF2E5","textColor":"#F07900"},{"type":"LactoseFree","text":"Fara lactoza","icon":"https://cdn.freshful.ro/assets/product_tags/fara_lactoza.svg","iconPng":"https://cdn.freshful.ro/assets/product_tags/fara_lactoza.png","backgroundColor":"#E9F7FB","textColor":"#25A6D0"}],"isAvailable":true,"maxAvailableQuantity":53,"maxAllowedQuantity":100,"breadcrumbs":[{"code":"17","name":"Produse vegetale","slug":"produse-vegetale"},{"code":"1702","name":"Băuturi, creme și grăsimi vegetale","slug":"bauturi-creme-si-grasimi-vegetale"},{"code":"170202","name":"Grăsimi vegetale și produse fermentate","slug":"grasimi-vegetale-si-produse-fermentate"},{"code":"100138293","name":"Felii natur cu migdale 150g","slug":"100138293-simply-v-felii-natur-cu-migdale-150g"}],"activePromotion":{"code":"special-produse-vegane-mar23","name":"Preț redus","targetQuantity":null},"saveMe":null,"labels":[{"type":"v1","items":[{"text":"-14%","backgroundColor":"#FF9903","textColor":"#FFFFFF"}]}],"geniusPrice":null,"geniusUnitPricePerLabel":null,"banner":{"text":"Super preț","textColor":"#FF0000","bgColor":"#FFF2EC","icon":null,"link":"https://www.freshful.ro/oferte/special-produse-vegane-mar23","type":"promo","analyticsEventType":"select_promotion","analyticsEventPayload":{"promotion_id":"special-produse-vegane-mar23","promotion_name":"Și bun, și de post"}},"discountLabel":"Economisești 14%","geniusDiscountLabel":null,"badge":null},{"code":"100138295","variantCode":"100138295","name":"Produs din migdale bloc 150g  ","slug":"100138295-simply-v-produs-din-migdale-bloc-150g","unitPriceLabel":"93,27 Lei/kg","brand":"Simply V","brandCode":"2635","brandFilterCode":"simply-v-b2639","sku":"100138295","price":13.99,"originalPrice":16.99,"currencyCode":"RON","currency":"Lei","image":{"thumbnail":{"default":"https://cdn.freshful.ro/media/cache/sylius_shop_product_thumbnail/99/8b/35d2f7dac6d0202716e633a84b9e.jpg"},"large":{"default":"https://cdn.freshful.ro/media/cache/freshful_large/99/8b/35d2f7dac6d0202716e633a84b9e.jpg"},"extralarge":{"default":"https://cdn.freshful.ro/media/cache/sylius_shop_product_original/99/8b/35d2f7dac6d0202716e633a84b9e.jpg"}},"label":{"text":"-17%","backgroundColor":"#FF9903","textColor":"#FFFFFF"},"tags":[{"type":"vegan","text":"Vegan","icon":"https://cdn.freshful.ro/assets/product_tags/vegan.svg","iconPng":"https://cdn.freshful.ro/assets/product_tags/vegan.png","backgroundColor":"#ECF9F8","textColor":"#33A39C"}],"isAvailable":true,"maxAvailableQuantity":66,"maxAllowedQuantity":100,"breadcrumbs":[{"code":"17","name":"Produse vegetale","slug":"produse-vegetale"},{"code":"1702","name":"Băuturi, creme și grăsimi vegetale","slug":"bauturi-creme-si-grasimi-vegetale"},{"code":"170202","name":"Grăsimi vegetale și produse fermentate","slug":"grasimi-vegetale-si-produse-fermentate"},{"code":"100138295","name":"Produs din migdale bloc 150g  ","slug":"100138295-simply-v-produs-din-migdale-bloc-150g"}],"activePromotion":{"code":"special-produse-vegane-mar23","name":"Preț redus","targetQuantity":null},"saveMe":null,"labels":[{"type":"v1","items":[{"text":"-17%","backgroundColor":"#FF9903","textColor":"#FFFFFF"}]}],"geniusPrice":null,"geniusUnitPricePerLabel":null,"banner":{"text":"Super preț","textColor":"#FF0000","bgColor":"#FFF2EC","icon":null,"link":"https://www.freshful.ro/oferte/special-produse-vegane-mar23","type":"promo","analyticsEventType":"select_promotion","analyticsEventPayload":{"promotion_id":"special-produse-vegane-mar23","promotion_name":"Și bun, și de post"}},"discountLabel":"Economisești 17%","geniusDiscountLabel":null,"badge":null},{"code":"100032632","variantCode":"694026252200","name":"Specialitate de caju Clasic eco 145g","slug":"100032632-rawckers-specialitate-de-caju-clasic-eco-145g","unitPriceLabel":"165,45 Lei/kg","brand":"Rawckers","brandCode":"220","brandFilterCode":"rawckers-b221","sku":"100032632","price":23.99,"originalPrice":26.99,"currencyCode":"RON","currency":"Lei","image":{"thumbnail":{"default":"https://cdn.freshful.ro/media/cache/sylius_shop_product_thumbnail/99/c2/e555b3b2c2f673584e9e86bf4369.jpg"},"large":{"default":"https://cdn.freshful.ro/media/cache/freshful_large/99/c2/e555b3b2c2f673584e9e86bf4369.jpg"},"extralarge":{"default":"https://cdn.freshful.ro/media/cache/sylius_shop_product_original/99/c2/e555b3b2c2f673584e9e86bf4369.jpg"}},"label":{"text":"-11%","backgroundColor":"#FF9903","textColor":"#FFFFFF"},"tags":[{"type":"vegan","text":"Vegan","icon":"https://cdn.freshful.ro/assets/product_tags/vegan.svg","iconPng":"https://cdn.freshful.ro/assets/product_tags/vegan.png","backgroundColor":"#ECF9F8","textColor":"#33A39C"},{"type":"NoGluten","text":"Fara gluten","icon":"https://cdn.freshful.ro/assets/product_tags/fara_gluten.svg","iconPng":"https://cdn.freshful.ro/assets/product_tags/fara_gluten.png","backgroundColor":"#FFF2E5","textColor":"#F07900"},{"type":"NoPreservatives","text":"Fara conservanti","icon":"https://cdn.freshful.ro/assets/product_tags/fara_conservanti.svg","iconPng":"https://cdn.freshful.ro/assets/product_tags/fara_conservanti.png","backgroundColor":"#F0F2FF","textColor":"#7889DD"},{"type":"Eco","text":"Eco","icon":"https://cdn.freshful.ro/assets/product_tags/eco.svg","iconPng":"https://cdn.freshful.ro/assets/product_tags/eco.png","backgroundColor":"#EFFBE4","textColor":"#66BB1B"}],"isAvailable":true,"maxAvailableQuantity":32,"maxAllowedQuantity":100,"breadcrumbs":[{"code":"17","name":"Produse vegetale","slug":"produse-vegetale"},{"code":"1702","name":"Băuturi, creme și grăsimi vegetale","slug":"bauturi-creme-si-grasimi-vegetale"},{"code":"170202","name":"Grăsimi vegetale și produse fermentate","slug":"grasimi-vegetale-si-produse-fermentate"},{"code":"100032632","name":"Specialitate de caju Clasic eco 145g","slug":"100032632-rawckers-specialitate-de-caju-clasic-eco-145g"}],"activePromotion":{"code":"special-produse-vegane-mar23","name":"Preț redus","targetQuantity":null},"saveMe":null,"labels":[{"type":"v1","items":[{"text":"-11%","backgroundColor":"#FF9903","textColor":"#FFFFFF"}]}],"geniusPrice":null,"geniusUnitPricePerLabel":null,"banner":{"text":"Super preț","textColor":"#FF0000","bgColor":"#FFF2EC","icon":null,"link":"https://www.freshful.ro/oferte/special-produse-vegane-mar23","type":"promo","analyticsEventType":"select_promotion","analyticsEventPayload":{"promotion_id":"special-produse-vegane-mar23","promotion_name":"Și bun, și de post"}},"discountLabel":"Economisești 11%","geniusDiscountLabel":null,"badge":null},{"code":"100138294","variantCode":"100138294","name":"Felii intens cu migdale 150g","slug":"100138294-simply-v-felii-intens-cu-migdale-150g","unitPriceLabel":"93,27 Lei/kg","brand":"Simply V","brandCode":"2635","brandFilterCode":"simply-v-b2639","sku":"100138294","price":13.99,"originalPrice":16.49,"currencyCode":"RON","currency":"Lei","image":{"thumbnail":{"default":"https://cdn.freshful.ro/media/cache/sylius_shop_product_thumbnail/4d/65/3967a966e96c237dae558d4ee042.jpg"},"large":{"default":"https://cdn.freshful.ro/media/cache/freshful_large/4d/65/3967a966e96c237dae558d4ee042.jpg"},"extralarge":{"default":"https://cdn.freshful.ro/media/cache/sylius_shop_product_original/4d/65/3967a966e96c237dae558d4ee042.jpg"}},"label":{"text":"-15%","backgroundColor":"#FF9903","textColor":"#FFFFFF"},"tags":[{"type":"vegan","text":"Vegan","icon":"https://cdn.freshful.ro/assets/product_tags/vegan.svg","iconPng":"https://cdn.freshful.ro/assets/product_tags/vegan.png","backgroundColor":"#ECF9F8","textColor":"#33A39C"},{"type":"NoGluten","text":"Fara gluten","icon":"https://cdn.freshful.ro/assets/product_tags/fara_gluten.svg","iconPng":"https://cdn.freshful.ro/assets/product_tags/fara_gluten.png","backgroundColor":"#FFF2E5","textColor":"#F07900"},{"type":"LactoseFree","text":"Fara lactoza","icon":"https://cdn.freshful.ro/assets/product_tags/fara_lactoza.svg","iconPng":"https://cdn.freshful.ro/assets/product_tags/fara_lactoza.png","backgroundColor":"#E9F7FB","textColor":"#25A6D0"}],"isAvailable":true,"maxAvailableQuantity":26,"maxAllowedQuantity":100,"breadcrumbs":[{"code":"17","name":"Produse vegetale","slug":"produse-vegetale"},{"code":"1702","name":"Băuturi, creme și grăsimi vegetale","slug":"bauturi-creme-si-grasimi-vegetale"},{"code":"170202","name":"Grăsimi vegetale și produse fermentate","slug":"grasimi-vegetale-si-produse-fermentate"},{"code":"100138294","name":"Felii intens cu migdale 150g","slug":"100138294-simply-v-felii-intens-cu-migdale-150g"}],"activePromotion":{"code":"special-produse-vegane-mar23","name":"Preț redus","targetQuantity":null},"saveMe":null,"labels":[{"type":"v1","items":[{"text":"-15%","backgroundColor":"#FF9903","textColor":"#FFFFFF"}]}],"geniusPrice":null,"geniusUnitPricePerLabel":null,"banner":{"text":"Super preț","textColor":"#FF0000","bgColor":"#FFF2EC","icon":null,"link":"https://www.freshful.ro/oferte/special-produse-vegane-mar23","type":"promo","analyticsEventType":"select_promotion","analyticsEventPayload":{"promotion_id":"special-produse-vegane-mar23","promotion_name":"Și bun, și de post"}},"discountLabel":"Economisești 15%","geniusDiscountLabel":null,"badge":null},{"code":"100032637","variantCode":"694026252279","name":"Specialitate de caju cu chives și ceapă eco 145g","slug":"100032637-rawckers-specialitate-de-caju-cu-chives-si-ceapa-eco-145g","unitPriceLabel":"179,24 Lei/kg","brand":"Rawckers","brandCode":"220","brandFilterCode":"rawckers-b221","sku":"100032637","price":25.99,"originalPrice":29.99,"currencyCode":"RON","currency":"Lei","image":{"thumbnail":{"default":"https://cdn.freshful.ro/media/cache/sylius_shop_product_thumbnail/cc/b2/59f5692f2802abc7cee60e465c18.jpg"},"large":{"default":"https://cdn.freshful.ro/media/cache/freshful_large/cc/b2/59f5692f2802abc7cee60e465c18.jpg"},"extralarge":{"default":"https://cdn.freshful.ro/media/cache/sylius_shop_product_original/cc/b2/59f5692f2802abc7cee60e465c18.jpg"}},"label":{"text":"-13%","backgroundColor":"#FF9903","textColor":"#FFFFFF"},"tags":[{"type":"vegan","text":"Vegan","icon":"https://cdn.freshful.ro/assets/product_tags/vegan.svg","iconPng":"https://cdn.freshful.ro/assets/product_tags/vegan.png","backgroundColor":"#ECF9F8","textColor":"#33A39C"},{"type":"NoGluten","text":"Fara gluten","icon":"https://cdn.freshful.ro/assets/product_tags/fara_gluten.svg","iconPng":"https://cdn.freshful.ro/assets/product_tags/fara_gluten.png","backgroundColor":"#FFF2E5","textColor":"#F07900"},{"type":"Eco","text":"Eco","icon":"https://cdn.freshful.ro/assets/product_tags/eco.svg","iconPng":"https://cdn.freshful.ro/assets/product_tags/eco.png","backgroundColor":"#EFFBE4","textColor":"#66BB1B"},{"type":"NoPreservatives","text":"Fara conservanti","icon":"https://cdn.freshful.ro/assets/product_tags/fara_conservanti.svg","iconPng":"https://cdn.freshful.ro/assets/product_tags/fara_conservanti.png","backgroundColor":"#F0F2FF","textColor":"#7889DD"}],"isAvailable":true,"maxAvailableQuantity":5,"maxAllowedQuantity":100,"breadcrumbs":[{"code":"17","name":"Produse vegetale","slug":"produse-vegetale"},{"code":"1702","name":"Băuturi, creme și grăsimi vegetale","slug":"bauturi-creme-si-grasimi-vegetale"},{"code":"170202","name":"Grăsimi vegetale și produse fermentate","slug":"grasimi-vegetale-si-produse-fermentate"},{"code":"100032637","name":"Specialitate de caju cu chives și ceapă eco 145g","slug":"100032637-rawckers-specialitate-de-caju-cu-chives-si-ceapa-eco-145g"}],"activePromotion":{"code":"special-produse-vegane-mar23","name":"Preț redus","targetQuantity":null},"saveMe":null,"labels":[{"type":"v1","items":[{"text":"-13%","backgroundColor":"#FF9903","textColor":"#FFFFFF"}]}],"geniusPrice":null,"geniusUnitPricePerLabel":null,"banner":{"text":"Super preț","textColor":"#FF0000","bgColor":"#FFF2EC","icon":null,"link":"https://www.freshful.ro/oferte/special-produse-vegane-mar23","type":"promo","analyticsEventType":"select_promotion","analyticsEventPayload":{"promotion_id":"special-produse-vegane-mar23","promotion_name":"Și bun, și de post"}},"discountLabel":"Economisești 13%","geniusDiscountLabel":null,"badge":null},{"code":"100032636","variantCode":"694026252361","name":"Specialitate de caju Watamu eco 145g","slug":"100032636-rawckers-specialitate-de-caju-watamu-eco-145g","unitPriceLabel":"179,24 Lei/kg","brand":"Rawckers","brandCode":"220","brandFilterCode":"rawckers-b221","sku":"100032636","price":25.99,"originalPrice":29.99,"currencyCode":"RON","currency":"Lei","image":{"thumbnail":{"default":"https://cdn.freshful.ro/media/cache/sylius_shop_product_thumbnail/46/a7/4ab41063239a2b92f3ff079b4eeb.jpg"},"large":{"default":"https://cdn.freshful.ro/media/cache/freshful_large/46/a7/4ab41063239a2b92f3ff079b4eeb.jpg"},"extralarge":{"default":"https://cdn.freshful.ro/media/cache/sylius_shop_product_original/46/a7/4ab41063239a2b92f3ff079b4eeb.jpg"}},"label":{"text":"-13%","backgroundColor":"#FF9903","textColor":"#FFFFFF"},"tags":[{"type":"vegan","text":"Vegan","icon":"https://cdn.freshful.ro/assets/product_tags/vegan.svg","iconPng":"https://cdn.freshful.ro/assets/product_tags/vegan.png","backgroundColor":"#ECF9F8","textColor":"#33A39C"},{"type":"NoGluten","text":"Fara gluten","icon":"https://cdn.freshful.ro/assets/product_tags/fara_gluten.svg","iconPng":"https://cdn.freshful.ro/assets/product_tags/fara_gluten.png","backgroundColor":"#FFF2E5","textColor":"#F07900"},{"type":"Eco","text":"Eco","icon":"https://cdn.freshful.ro/assets/product_tags/eco.svg","iconPng":"https://cdn.freshful.ro/assets/product_tags/eco.png","backgroundColor":"#EFFBE4","textColor":"#66BB1B"},{"type":"NoPreservatives","text":"Fara conservanti","icon":"https://cdn.freshful.ro/assets/product_tags/fara_conservanti.svg","iconPng":"https://cdn.freshful.ro/assets/product_tags/fara_conservanti.png","backgroundColor":"#F0F2FF","textColor":"#7889DD"}],"isAvailable":true,"maxAvailableQuantity":5,"maxAllowedQuantity":100,"breadcrumbs":[{"code":"17","name":"Produse vegetale","slug":"produse-vegetale"},{"code":"1702","name":"Băuturi, creme și grăsimi vegetale","slug":"bauturi-creme-si-grasimi-vegetale"},{"code":"170202","name":"Grăsimi vegetale și produse fermentate","slug":"grasimi-vegetale-si-produse-fermentate"},{"code":"100032636","name":"Specialitate de caju Watamu eco 145g","slug":"100032636-rawckers-specialitate-de-caju-watamu-eco-145g"}],"activePromotion":{"code":"special-produse-vegane-mar23","name":"Preț redus","targetQuantity":null},"saveMe":null,"labels":[{"type":"v1","items":[{"text":"-13%","backgroundColor":"#FF9903","textColor":"#FFFFFF"}]}],"geniusPrice":null,"geniusUnitPricePerLabel":null,"banner":{"text":"Super preț","textColor":"#FF0000","bgColor":"#FFF2EC","icon":null,"link":"https://www.freshful.ro/oferte/special-produse-vegane-mar23","type":"promo","analyticsEventType":"select_promotion","analyticsEventPayload":{"promotion_id":"special-produse-vegane-mar23","promotion_name":"Și bun, și de post"}},"discountLabel":"Economisești 13%","geniusDiscountLabel":null,"badge":null},{"code":"100004449","variantCode":"100004449","name":"Produs fermentat din soia cu afine 150g","slug":"100004449-alpro-produs-fermentat-din-soia-cu-afine-150g","unitPriceLabel":"33,27 Lei/kg","brand":"Alpro","brandCode":"31","brandFilterCode":"alpro-b25","sku":"100004449","price":4.99,"originalPrice":null,"currencyCode":"RON","currency":"Lei","image":{"thumbnail":{"default":"https://cdn.freshful.ro/media/cache/sylius_shop_product_thumbnail/00/00/f20137e19621de811dc2b759a3a2.jpg"},"large":{"default":"https://cdn.freshful.ro/media/cache/freshful_large/00/00/f20137e19621de811dc2b759a3a2.jpg"},"extralarge":{"default":"https://cdn.freshful.ro/media/cache/sylius_shop_product_original/00/00/f20137e19621de811dc2b759a3a2.jpg"}},"label":null,"tags":[{"type":"vegan","text":"Vegan","icon":"https://cdn.freshful.ro/assets/product_tags/vegan.svg","iconPng":"https://cdn.freshful.ro/assets/product_tags/vegan.png","backgroundColor":"#ECF9F8","textColor":"#33A39C"},{"type":"NoGluten","text":"Fara gluten","icon":"https://cdn.freshful.ro/assets/product_tags/fara_gluten.svg","iconPng":"https://cdn.freshful.ro/assets/product_tags/fara_gluten.png","backgroundColor":"#FFF2E5","textColor":"#F07900"},{"type":"LactoseFree","text":"Fara lactoza","icon":"https://cdn.freshful.ro/assets/product_tags/fara_lactoza.svg","iconPng":"https://cdn.freshful.ro/assets/product_tags/fara_lactoza.png","backgroundColor":"#E9F7FB","textColor":"#25A6D0"}],"isAvailable":true,"maxAvailableQuantity":8,"maxAllowedQuantity":100,"breadcrumbs":[{"code":"17","name":"Produse vegetale","slug":"produse-vegetale"},{"code":"1702","name":"Băuturi, creme și grăsimi vegetale","slug":"bauturi-creme-si-grasimi-vegetale"},{"code":"170202","name":"Grăsimi vegetale și produse fermentate","slug":"grasimi-vegetale-si-produse-fermentate"},{"code":"100004449","name":"Produs fermentat din soia cu afine 150g","slug":"100004449-alpro-produs-fermentat-din-soia-cu-afine-150g"}],"activePromotion":null,"saveMe":null,"labels":[],"geniusPrice":null,"geniusUnitPricePerLabel":null,"banner":null,"discountLabel":null,"geniusDiscountLabel":null,"badge":null}],"filters":{"countSelected":0,"items":[{"code":"promotion","name":"Promoții","countSelected":0,"values":[{"code":"freshful-top-deals-2023","name":"Profită de Top Deals","isSelected":false,"count":1},{"code":"special-produse-vegane-mar23","name":"Și bun, și de post","isSelected":false,"count":10}]},{"code":"brand","name":"Brand","countSelected":0,"values":[{"code":"alpro-b25","name":"Alpro","isSelected":false,"count":10},{"code":"berief-b400","name":"Berief","isSelected":false,"count":3},{"code":"cheese-the-queen-b377","name":"CHEESE the QUEEN","isSelected":false,"count":6},{"code":"delishu-b376","name":"Delishu","isSelected":false,"count":3},{"code":"filgud-b964","name":"Filgud","isSelected":false,"count":1},{"code":"mediterranea-b1769","name":"Mediterranea","isSelected":false,"count":3},{"code":"meggle-b498","name":"Meggle","isSelected":false,"count":2},{"code":"nurishh-b2520","name":"Nurishh","isSelected":false,"count":2},{"code":"rawckers-b221","name":"Rawckers","isSelected":false,"count":20},{"code":"simply-v-b2639","name":"Simply V","isSelected":false,"count":4},{"code":"verdino-b207","name":"Verdino","isSelected":false,"count":3}]},{"code":"diet_lifestyle","name":"Dietă și lifestyle","countSelected":0,"values":[{"code":"eco-a83","name":"Eco","isSelected":false,"count":32},{"code":"fara-conservanti-a37","name":"Fara conservanti","isSelected":false,"count":11},{"code":"fara-gluten-a16","name":"Fara gluten","isSelected":false,"count":39},{"code":"fara-lactoza-a38","name":"Fara lactoza","isSelected":false,"count":40},{"code":"fara-zahar-adaugat-a29","name":"Fara zahar adaugat","isSelected":false,"count":1},{"code":"vegan-a24","name":"Vegan","isSelected":false,"count":47}]}]},"orderBy":[{"field":"price","direction":"asc","name":"Preț crescător","isSelected":false},{"field":"price","direction":"desc","name":"Preț descrescător","isSelected":false},{"field":"popularity","direction":"desc","name":"Cele mai populare","isSelected":true},{"field":"category","direction":"asc","name":"Categorie","isSelected":false}],"metaTitle":"Grăsimi vegetale și produse fermentate - Gamă variată","metaDescription":"Vrei Grăsimi vegetale și produse fermentate? Alege dintr-o gamă variată. Comanzi simplu și ai livrare rapidă, calitate și prospețime. Hai pe Freshful.ro","metaKeywords":null,"banners":[]}}