{"type":"subcategory","payload":{"analyticsListId":"category_ice-tea","analyticsListName":"Category - Ice Tea","name":"Ice Tea","slug":"ice-tea","image":null,"breadcrumbs":[{"code":"7","name":"Băuturi","slug":"7-bauturi-si-tutun"},{"code":"701","name":"Băuturi necarbogazoase și siropuri","slug":"701-bauturi-necarbogazoase-si-siropuri"},{"code":"70104","name":"Ice Tea","slug":"ice-tea"}],"slots":[],"page":1,"limit":10,"pages":5,"count":44,"siblings":[{"name":"Băuturi necarbogazoase și siropuri","slug":"701-bauturi-necarbogazoase-si-siropuri","selected":true},{"name":"Apă","slug":"702-apa","selected":false},{"name":"Băuturi carbogazoase","slug":"703-bauturi-carbogazoase","selected":false},{"name":"Bere","slug":"704-bere","selected":false},{"name":"Vinuri","slug":"705-vinuri","selected":false},{"name":"Băuturi spirtoase","slug":"706-bauturi-spirtoase","selected":false},{"name":"Tutun","slug":"707-tutun","selected":false}],"children":[{"name":"Toate produsele","slug":"701-bauturi-necarbogazoase-si-siropuri","selected":false},{"name":"Sucuri și nectaruri","slug":"70101-sucuri-si-nectar","selected":false},{"name":"Băuturi fructate necarbogazoase","slug":"70102-bauturi-fructate-necarbogazoase","selected":false},{"name":"Siropuri și concentrate","slug":"70103-sirop-si-concentrat","selected":false},{"name":"Ice Tea","slug":"ice-tea","selected":true}],"products":[{"code":"100002732","variantCode":"5449000236036","name":"Ceai verde lime și mentă 1.5l","slug":"100002732-fuzetea-ceai-verde-lime-si-menta-1-5l","unitPriceLabel":"3,59 Lei/l","brand":"Fuzetea","brandCode":"280","brandFilterCode":"fuzetea-b281","sku":"100002732","price":5.39,"originalPrice":null,"currencyCode":"RON","currency":"Lei","image":{"thumbnail":{"default":"https://cdn.freshful.ro/media/cache/sylius_shop_product_thumbnail/83/63/d85d99510459612a57a9218dc100.jpg"},"large":{"default":"https://cdn.freshful.ro/media/cache/freshful_large/83/63/d85d99510459612a57a9218dc100.jpg"},"extralarge":{"default":"https://cdn.freshful.ro/media/cache/sylius_shop_product_original/83/63/d85d99510459612a57a9218dc100.jpg"}},"label":{"text":"Profită acum","backgroundColor":"#FF9903","textColor":"#FFFFFF"},"tags":[],"isAvailable":true,"maxAvailableQuantity":24,"maxAllowedQuantity":24,"breadcrumbs":[{"code":"7","name":"Băuturi","slug":"7-bauturi-si-tutun"},{"code":"701","name":"Băuturi necarbogazoase și siropuri","slug":"701-bauturi-necarbogazoase-si-siropuri"},{"code":"70104","name":"Ice Tea","slug":"ice-tea"},{"code":"100002732","name":"Ceai verde lime și mentă 1.5l","slug":"100002732-fuzetea-ceai-verde-lime-si-menta-1-5l"}],"activePromotion":{"code":"oferte-bacanie-bauturi-21feb-8mar23","name":"Preț avantajos","targetQuantity":null},"saveMe":null,"labels":[{"type":"v1","items":[{"text":"Profită acum","backgroundColor":"#FF9903","textColor":"#FFFFFF"}]}],"geniusPrice":null,"geniusUnitPricePerLabel":null,"banner":{"text":"Preț avantajos","textColor":"#F95510","bgColor":"#FEF1CD","icon":null,"link":"https://www.freshful.ro/oferte/oferte-bacanie-bauturi-21feb-8mar23","type":"promo","analyticsEventType":"select_promotion","analyticsEventPayload":{"promotion_id":"oferte-bacanie-bauturi-21feb-8mar23","promotion_name":"Cămara cu băuturi și bunătăți"}},"discountLabel":null,"geniusDiscountLabel":null,"badge":null},{"code":"100046413","variantCode":"100046413","name":"Ice Tea zmeură 1.5l","slug":"100046413-lipton-ice-tea-zmeura-1-5l","unitPriceLabel":"3,33 Lei/l","brand":"Lipton","brandCode":"141","brandFilterCode":"lipton-b125","sku":"100046413","price":4.99,"originalPrice":5.47,"currencyCode":"RON","currency":"Lei","image":{"thumbnail":{"default":"https://cdn.freshful.ro/media/cache/sylius_shop_product_thumbnail/12/75/fb5f8a6dfa21e126f8acf017fc39.jpg"},"large":{"default":"https://cdn.freshful.ro/media/cache/freshful_large/12/75/fb5f8a6dfa21e126f8acf017fc39.jpg"},"extralarge":{"default":"https://cdn.freshful.ro/media/cache/sylius_shop_product_original/12/75/fb5f8a6dfa21e126f8acf017fc39.jpg"}},"label":{"text":"-8%","backgroundColor":"#FF9903","textColor":"#FFFFFF"},"tags":[{"type":"NoPreservatives","text":"Fara conservanti","icon":"https://cdn.freshful.ro/assets/product_tags/fara_conservanti.svg","iconPng":"https://cdn.freshful.ro/assets/product_tags/fara_conservanti.png","backgroundColor":"#F0F2FF","textColor":"#7889DD"}],"isAvailable":true,"maxAvailableQuantity":24,"maxAllowedQuantity":24,"breadcrumbs":[{"code":"7","name":"Băuturi","slug":"7-bauturi-si-tutun"},{"code":"701","name":"Băuturi necarbogazoase și siropuri","slug":"701-bauturi-necarbogazoase-si-siropuri"},{"code":"70104","name":"Ice Tea","slug":"ice-tea"},{"code":"100046413","name":"Ice Tea zmeură 1.5l","slug":"100046413-lipton-ice-tea-zmeura-1-5l"}],"activePromotion":{"code":"oferte-bacanie-bauturi-21feb-8mar23","name":"Preț redus","targetQuantity":null},"saveMe":null,"labels":[{"type":"v1","items":[{"text":"-8%","backgroundColor":"#FF9903","textColor":"#FFFFFF"}]}],"geniusPrice":null,"geniusUnitPricePerLabel":null,"banner":{"text":"Super preț","textColor":"#FF0000","bgColor":"#FFF2EC","icon":null,"link":"https://www.freshful.ro/oferte/oferte-bacanie-bauturi-21feb-8mar23","type":"promo","analyticsEventType":"select_promotion","analyticsEventPayload":{"promotion_id":"oferte-bacanie-bauturi-21feb-8mar23","promotion_name":"Cămara cu băuturi și bunătăți"}},"discountLabel":"Economisești 8%","geniusDiscountLabel":null,"badge":null},{"code":"100046405","variantCode":"100046405","name":"Ice Tea cu ceai verde 1.5l","slug":"100046405-lipton-ice-tea-cu-ceai-verde-1-5l","unitPriceLabel":"3,33 Lei/l","brand":"Lipton","brandCode":"141","brandFilterCode":"lipton-b125","sku":"100046405","price":4.99,"originalPrice":5.47,"currencyCode":"RON","currency":"Lei","image":{"thumbnail":{"default":"https://cdn.freshful.ro/media/cache/sylius_shop_product_thumbnail/51/35/ea25a8ed466bf28eb72250638203.jpg"},"large":{"default":"https://cdn.freshful.ro/media/cache/freshful_large/51/35/ea25a8ed466bf28eb72250638203.jpg"},"extralarge":{"default":"https://cdn.freshful.ro/media/cache/sylius_shop_product_original/51/35/ea25a8ed466bf28eb72250638203.jpg"}},"label":{"text":"-8%","backgroundColor":"#FF9903","textColor":"#FFFFFF"},"tags":[{"type":"NoPreservatives","text":"Fara conservanti","icon":"https://cdn.freshful.ro/assets/product_tags/fara_conservanti.svg","iconPng":"https://cdn.freshful.ro/assets/product_tags/fara_conservanti.png","backgroundColor":"#F0F2FF","textColor":"#7889DD"}],"isAvailable":true,"maxAvailableQuantity":24,"maxAllowedQuantity":24,"breadcrumbs":[{"code":"7","name":"Băuturi","slug":"7-bauturi-si-tutun"},{"code":"701","name":"Băuturi necarbogazoase și siropuri","slug":"701-bauturi-necarbogazoase-si-siropuri"},{"code":"70104","name":"Ice Tea","slug":"ice-tea"},{"code":"100046405","name":"Ice Tea cu ceai verde 1.5l","slug":"100046405-lipton-ice-tea-cu-ceai-verde-1-5l"}],"activePromotion":{"code":"oferte-bacanie-bauturi-21feb-8mar23","name":"Preț redus","targetQuantity":null},"saveMe":null,"labels":[{"type":"v1","items":[{"text":"-8%","backgroundColor":"#FF9903","textColor":"#FFFFFF"}]}],"geniusPrice":null,"geniusUnitPricePerLabel":null,"banner":{"text":"Super preț","textColor":"#FF0000","bgColor":"#FFF2EC","icon":null,"link":"https://www.freshful.ro/oferte/oferte-bacanie-bauturi-21feb-8mar23","type":"promo","analyticsEventType":"select_promotion","analyticsEventPayload":{"promotion_id":"oferte-bacanie-bauturi-21feb-8mar23","promotion_name":"Cămara cu băuturi și bunătăți"}},"discountLabel":"Economisești 8%","geniusDiscountLabel":null,"badge":null},{"code":"100002730","variantCode":"5449000216335","name":"Ceai negru mango și ananas 1.5l","slug":"100002730-fuzetea-ceai-negru-mango-si-ananas-1-5l","unitPriceLabel":"3,59 Lei/l","brand":"Fuzetea","brandCode":"280","brandFilterCode":"fuzetea-b281","sku":"100002730","price":5.39,"originalPrice":null,"currencyCode":"RON","currency":"Lei","image":{"thumbnail":{"default":"https://cdn.freshful.ro/media/cache/sylius_shop_product_thumbnail/a1/e1/f07829d5ed8e01f0b2599f31e0bf.jpg"},"large":{"default":"https://cdn.freshful.ro/media/cache/freshful_large/a1/e1/f07829d5ed8e01f0b2599f31e0bf.jpg"},"extralarge":{"default":"https://cdn.freshful.ro/media/cache/sylius_shop_product_original/a1/e1/f07829d5ed8e01f0b2599f31e0bf.jpg"}},"label":{"text":"Profită acum","backgroundColor":"#FF9903","textColor":"#FFFFFF"},"tags":[],"isAvailable":true,"maxAvailableQuantity":24,"maxAllowedQuantity":24,"breadcrumbs":[{"code":"7","name":"Băuturi","slug":"7-bauturi-si-tutun"},{"code":"701","name":"Băuturi necarbogazoase și siropuri","slug":"701-bauturi-necarbogazoase-si-siropuri"},{"code":"70104","name":"Ice Tea","slug":"ice-tea"},{"code":"100002730","name":"Ceai negru mango și ananas 1.5l","slug":"100002730-fuzetea-ceai-negru-mango-si-ananas-1-5l"}],"activePromotion":{"code":"oferte-bacanie-bauturi-21feb-8mar23","name":"Preț avantajos","targetQuantity":null},"saveMe":null,"labels":[{"type":"v1","items":[{"text":"Profită acum","backgroundColor":"#FF9903","textColor":"#FFFFFF"}]}],"geniusPrice":null,"geniusUnitPricePerLabel":null,"banner":{"text":"Preț avantajos","textColor":"#F95510","bgColor":"#FEF1CD","icon":null,"link":"https://www.freshful.ro/oferte/oferte-bacanie-bauturi-21feb-8mar23","type":"promo","analyticsEventType":"select_promotion","analyticsEventPayload":{"promotion_id":"oferte-bacanie-bauturi-21feb-8mar23","promotion_name":"Cămara cu băuturi și bunătăți"}},"discountLabel":null,"geniusDiscountLabel":null,"badge":null},{"code":"100046407","variantCode":"100046407","name":"Ice Tea lămâie 1.5l","slug":"100046407-lipton-ice-tea-lamaie-1-5l","unitPriceLabel":"3,33 Lei/l","brand":"Lipton","brandCode":"141","brandFilterCode":"lipton-b125","sku":"100046407","price":4.99,"originalPrice":5.47,"currencyCode":"RON","currency":"Lei","image":{"thumbnail":{"default":"https://cdn.freshful.ro/media/cache/sylius_shop_product_thumbnail/4b/26/f2f07f587060ea268bdaca6077fc.jpg"},"large":{"default":"https://cdn.freshful.ro/media/cache/freshful_large/4b/26/f2f07f587060ea268bdaca6077fc.jpg"},"extralarge":{"default":"https://cdn.freshful.ro/media/cache/sylius_shop_product_original/4b/26/f2f07f587060ea268bdaca6077fc.jpg"}},"label":{"text":"-8%","backgroundColor":"#FF9903","textColor":"#FFFFFF"},"tags":[{"type":"NoPreservatives","text":"Fara conservanti","icon":"https://cdn.freshful.ro/assets/product_tags/fara_conservanti.svg","iconPng":"https://cdn.freshful.ro/assets/product_tags/fara_conservanti.png","backgroundColor":"#F0F2FF","textColor":"#7889DD"}],"isAvailable":true,"maxAvailableQuantity":24,"maxAllowedQuantity":24,"breadcrumbs":[{"code":"7","name":"Băuturi","slug":"7-bauturi-si-tutun"},{"code":"701","name":"Băuturi necarbogazoase și siropuri","slug":"701-bauturi-necarbogazoase-si-siropuri"},{"code":"70104","name":"Ice Tea","slug":"ice-tea"},{"code":"100046407","name":"Ice Tea lămâie 1.5l","slug":"100046407-lipton-ice-tea-lamaie-1-5l"}],"activePromotion":{"code":"oferte-bacanie-bauturi-21feb-8mar23","name":"Preț redus","targetQuantity":null},"saveMe":null,"labels":[{"type":"v1","items":[{"text":"-8%","backgroundColor":"#FF9903","textColor":"#FFFFFF"}]}],"geniusPrice":null,"geniusUnitPricePerLabel":null,"banner":{"text":"Super preț","textColor":"#FF0000","bgColor":"#FFF2EC","icon":null,"link":"https://www.freshful.ro/oferte/oferte-bacanie-bauturi-21feb-8mar23","type":"promo","analyticsEventType":"select_promotion","analyticsEventPayload":{"promotion_id":"oferte-bacanie-bauturi-21feb-8mar23","promotion_name":"Cămara cu băuturi și bunătăți"}},"discountLabel":"Economisești 8%","geniusDiscountLabel":null,"badge":null},{"code":"100046411","variantCode":"100046411","name":"Ice Tea piersici 1.5l","slug":"100046411-lipton-ice-tea-piersici-1-5l","unitPriceLabel":"3,33 Lei/l","brand":"Lipton","brandCode":"141","brandFilterCode":"lipton-b125","sku":"100046411","price":4.99,"originalPrice":5.47,"currencyCode":"RON","currency":"Lei","image":{"thumbnail":{"default":"https://cdn.freshful.ro/media/cache/sylius_shop_product_thumbnail/e8/09/c7cd821960d9e862f640e059c83f.jpg"},"large":{"default":"https://cdn.freshful.ro/media/cache/freshful_large/e8/09/c7cd821960d9e862f640e059c83f.jpg"},"extralarge":{"default":"https://cdn.freshful.ro/media/cache/sylius_shop_product_original/e8/09/c7cd821960d9e862f640e059c83f.jpg"}},"label":{"text":"-8%","backgroundColor":"#FF9903","textColor":"#FFFFFF"},"tags":[{"type":"NoPreservatives","text":"Fara conservanti","icon":"https://cdn.freshful.ro/assets/product_tags/fara_conservanti.svg","iconPng":"https://cdn.freshful.ro/assets/product_tags/fara_conservanti.png","backgroundColor":"#F0F2FF","textColor":"#7889DD"}],"isAvailable":true,"maxAvailableQuantity":24,"maxAllowedQuantity":24,"breadcrumbs":[{"code":"7","name":"Băuturi","slug":"7-bauturi-si-tutun"},{"code":"701","name":"Băuturi necarbogazoase și siropuri","slug":"701-bauturi-necarbogazoase-si-siropuri"},{"code":"70104","name":"Ice Tea","slug":"ice-tea"},{"code":"100046411","name":"Ice Tea piersici 1.5l","slug":"100046411-lipton-ice-tea-piersici-1-5l"}],"activePromotion":{"code":"oferte-bacanie-bauturi-21feb-8mar23","name":"Preț redus","targetQuantity":null},"saveMe":null,"labels":[{"type":"v1","items":[{"text":"-8%","backgroundColor":"#FF9903","textColor":"#FFFFFF"}]}],"geniusPrice":null,"geniusUnitPricePerLabel":null,"banner":{"text":"Super preț","textColor":"#FF0000","bgColor":"#FFF2EC","icon":null,"link":"https://www.freshful.ro/oferte/oferte-bacanie-bauturi-21feb-8mar23","type":"promo","analyticsEventType":"select_promotion","analyticsEventPayload":{"promotion_id":"oferte-bacanie-bauturi-21feb-8mar23","promotion_name":"Cămara cu băuturi și bunătăți"}},"discountLabel":"Economisești 8%","geniusDiscountLabel":null,"badge":null},{"code":"100046409","variantCode":"100046409","name":"Ice Tea mure, merișoare, zmeură 1.5l","slug":"100046409-lipton-ice-tea-mure-merisoare-zmeura-1-5l","unitPriceLabel":"3,33 Lei/l","brand":"Lipton","brandCode":"141","brandFilterCode":"lipton-b125","sku":"100046409","price":4.99,"originalPrice":5.47,"currencyCode":"RON","currency":"Lei","image":{"thumbnail":{"default":"https://cdn.freshful.ro/media/cache/sylius_shop_product_thumbnail/b8/0d/ac2dd9e03d4de21a83722389156e.jpg"},"large":{"default":"https://cdn.freshful.ro/media/cache/freshful_large/b8/0d/ac2dd9e03d4de21a83722389156e.jpg"},"extralarge":{"default":"https://cdn.freshful.ro/media/cache/sylius_shop_product_original/b8/0d/ac2dd9e03d4de21a83722389156e.jpg"}},"label":{"text":"-8%","backgroundColor":"#FF9903","textColor":"#FFFFFF"},"tags":[{"type":"NoPreservatives","text":"Fara conservanti","icon":"https://cdn.freshful.ro/assets/product_tags/fara_conservanti.svg","iconPng":"https://cdn.freshful.ro/assets/product_tags/fara_conservanti.png","backgroundColor":"#F0F2FF","textColor":"#7889DD"}],"isAvailable":true,"maxAvailableQuantity":24,"maxAllowedQuantity":24,"breadcrumbs":[{"code":"7","name":"Băuturi","slug":"7-bauturi-si-tutun"},{"code":"701","name":"Băuturi necarbogazoase și siropuri","slug":"701-bauturi-necarbogazoase-si-siropuri"},{"code":"70104","name":"Ice Tea","slug":"ice-tea"},{"code":"100046409","name":"Ice Tea mure, merișoare, zmeură 1.5l","slug":"100046409-lipton-ice-tea-mure-merisoare-zmeura-1-5l"}],"activePromotion":{"code":"oferte-bacanie-bauturi-21feb-8mar23","name":"Preț redus","targetQuantity":null},"saveMe":null,"labels":[{"type":"v1","items":[{"text":"-8%","backgroundColor":"#FF9903","textColor":"#FFFFFF"}]}],"geniusPrice":null,"geniusUnitPricePerLabel":null,"banner":{"text":"Super preț","textColor":"#FF0000","bgColor":"#FFF2EC","icon":null,"link":"https://www.freshful.ro/oferte/oferte-bacanie-bauturi-21feb-8mar23","type":"promo","analyticsEventType":"select_promotion","analyticsEventPayload":{"promotion_id":"oferte-bacanie-bauturi-21feb-8mar23","promotion_name":"Cămara cu băuturi și bunătăți"}},"discountLabel":"Economisești 8%","geniusDiscountLabel":null,"badge":null},{"code":"100043591","variantCode":"100043591","name":"Băutură necarbogazoasă piersici, ceai negru 1.5l","slug":"100043591-nestea-bautura-necarbogazoasa-piersici-ceai-negru-1-5l","unitPriceLabel":"3,73 Lei/l","brand":"Nestea","brandCode":"452","brandFilterCode":"nestea-b453","sku":"100043591","price":5.6,"originalPrice":null,"currencyCode":"RON","currency":"Lei","image":{"thumbnail":{"default":"https://cdn.freshful.ro/media/cache/sylius_shop_product_thumbnail/dd/00/53cae4524a44a2671f5961b1ba0d.jpg"},"large":{"default":"https://cdn.freshful.ro/media/cache/freshful_large/dd/00/53cae4524a44a2671f5961b1ba0d.jpg"},"extralarge":{"default":"https://cdn.freshful.ro/media/cache/sylius_shop_product_original/dd/00/53cae4524a44a2671f5961b1ba0d.jpg"}},"label":null,"tags":[],"isAvailable":true,"maxAvailableQuantity":24,"maxAllowedQuantity":24,"breadcrumbs":[{"code":"7","name":"Băuturi","slug":"7-bauturi-si-tutun"},{"code":"701","name":"Băuturi necarbogazoase și siropuri","slug":"701-bauturi-necarbogazoase-si-siropuri"},{"code":"70104","name":"Ice Tea","slug":"ice-tea"},{"code":"100043591","name":"Băutură necarbogazoasă piersici, ceai negru 1.5l","slug":"100043591-nestea-bautura-necarbogazoasa-piersici-ceai-negru-1-5l"}],"activePromotion":null,"saveMe":null,"labels":[],"geniusPrice":null,"geniusUnitPricePerLabel":null,"banner":null,"discountLabel":null,"geniusDiscountLabel":null,"badge":null},{"code":"100043590","variantCode":"100043590","name":"Băutură necarbogazoasă lămâie, ceai negru 1.5l","slug":"100043590-nestea-bautura-necarbogazoasa-lamaie-ceai-negru-1-5l","unitPriceLabel":"3,73 Lei/l","brand":"Nestea","brandCode":"452","brandFilterCode":"nestea-b453","sku":"100043590","price":5.6,"originalPrice":null,"currencyCode":"RON","currency":"Lei","image":{"thumbnail":{"default":"https://cdn.freshful.ro/media/cache/sylius_shop_product_thumbnail/e1/14/2ac3450131deec5c9e9977e5d778.jpg"},"large":{"default":"https://cdn.freshful.ro/media/cache/freshful_large/e1/14/2ac3450131deec5c9e9977e5d778.jpg"},"extralarge":{"default":"https://cdn.freshful.ro/media/cache/sylius_shop_product_original/e1/14/2ac3450131deec5c9e9977e5d778.jpg"}},"label":null,"tags":[],"isAvailable":true,"maxAvailableQuantity":24,"maxAllowedQuantity":24,"breadcrumbs":[{"code":"7","name":"Băuturi","slug":"7-bauturi-si-tutun"},{"code":"701","name":"Băuturi necarbogazoase și siropuri","slug":"701-bauturi-necarbogazoase-si-siropuri"},{"code":"70104","name":"Ice Tea","slug":"ice-tea"},{"code":"100043590","name":"Băutură necarbogazoasă lămâie, ceai negru 1.5l","slug":"100043590-nestea-bautura-necarbogazoasa-lamaie-ceai-negru-1-5l"}],"activePromotion":null,"saveMe":null,"labels":[],"geniusPrice":null,"geniusUnitPricePerLabel":null,"banner":null,"discountLabel":null,"geniusDiscountLabel":null,"badge":null},{"code":"100043588","variantCode":"100043588","name":"Băutură necarbogazoasă mango, ananas, ceai negru 1.5l","slug":"100043588-nestea-bautura-necarbogazoasa-mango-ananas-ceai-negru-1-5l","unitPriceLabel":"3,79 Lei/l","brand":"Nestea","brandCode":"452","brandFilterCode":"nestea-b453","sku":"100043588","price":5.69,"originalPrice":null,"currencyCode":"RON","currency":"Lei","image":{"thumbnail":{"default":"https://cdn.freshful.ro/media/cache/sylius_shop_product_thumbnail/1c/84/c07fbff830e8a36d3937dbfa4d17.jpg"},"large":{"default":"https://cdn.freshful.ro/media/cache/freshful_large/1c/84/c07fbff830e8a36d3937dbfa4d17.jpg"},"extralarge":{"default":"https://cdn.freshful.ro/media/cache/sylius_shop_product_original/1c/84/c07fbff830e8a36d3937dbfa4d17.jpg"}},"label":null,"tags":[],"isAvailable":true,"maxAvailableQuantity":24,"maxAllowedQuantity":24,"breadcrumbs":[{"code":"7","name":"Băuturi","slug":"7-bauturi-si-tutun"},{"code":"701","name":"Băuturi necarbogazoase și siropuri","slug":"701-bauturi-necarbogazoase-si-siropuri"},{"code":"70104","name":"Ice Tea","slug":"ice-tea"},{"code":"100043588","name":"Băutură necarbogazoasă mango, ananas, ceai negru 1.5l","slug":"100043588-nestea-bautura-necarbogazoasa-mango-ananas-ceai-negru-1-5l"}],"activePromotion":null,"saveMe":null,"labels":[],"geniusPrice":null,"geniusUnitPricePerLabel":null,"banner":null,"discountLabel":null,"geniusDiscountLabel":null,"badge":null}],"filters":{"countSelected":0,"items":[{"code":"promotion","name":"Promoții","countSelected":0,"values":[{"code":"oferte-bacanie-bauturi-21feb-8mar23","name":"Cămara cu băuturi și bunătăți","isSelected":false,"count":9}]},{"code":"brand","name":"Brand","countSelected":0,"values":[{"code":"fuzetea-b281","name":"Fuzetea","isSelected":false,"count":15},{"code":"lipton-b125","name":"Lipton","isSelected":false,"count":10},{"code":"nestea-b453","name":"Nestea","isSelected":false,"count":10},{"code":"pfanner-b778","name":"Pfanner","isSelected":false,"count":6},{"code":"san-benedetto-b1430","name":"San Benedetto","isSelected":false,"count":2},{"code":"santal-b911","name":"Santal","isSelected":false,"count":1}]},{"code":"diet_lifestyle","name":"Dietă și lifestyle","countSelected":0,"values":[{"code":"fara-conservanti-a37","name":"Fara conservanti","isSelected":false,"count":10},{"code":"fara-zahar-adaugat-a29","name":"Fara zahar adaugat","isSelected":false,"count":1},{"code":"vegan-a24","name":"Vegan","isSelected":false,"count":1}]}]},"orderBy":[{"field":"price","direction":"asc","name":"Preț crescător","isSelected":false},{"field":"price","direction":"desc","name":"Preț descrescător","isSelected":false},{"field":"popularity","direction":"desc","name":"Cele mai populare","isSelected":true},{"field":"category","direction":"asc","name":"Categorie","isSelected":false}],"metaTitle":"Ice Tea - Gamă variată","metaDescription":"Vrei Ice Tea? Alege dintr-o gamă variată. Comanzi simplu și ai livrare rapidă, calitate și prospețime. Hai pe Freshful.ro","metaKeywords":null,"banners":[]}}