{"type":"subcategory","payload":{"analyticsListId":"category_lapte-eco","analyticsListName":"Category - Lapte ECO","name":"Lapte ECO","slug":"lapte-eco","image":null,"breadcrumbs":[{"code":"4","name":"Lactate & ouă","slug":"4-lactate-branzeturi-si-oua"},{"code":"407","name":"Lapte și lactate ECO","slug":"lapte-si-lactate-eco"},{"code":"40701","name":"Lapte ECO","slug":"lapte-eco"}],"slots":[],"page":1,"limit":10,"pages":2,"count":16,"siblings":[{"name":"Lapte, smântână și brânză proaspătă","slug":"401-lapte-smantana-si-branza-proaspata","selected":false},{"name":"Unt","slug":"402-unt-si-margarina","selected":false},{"name":"Lactate UHT","slug":"403-lactate-uht","selected":false},{"name":"Iaurt, desert și sana","slug":"404-iaurt-desert-si-sana","selected":false},{"name":"Ouă","slug":"405-oua","selected":false},{"name":"Brânzeturi","slug":"406-branzeturi","selected":false},{"name":"Lapte și lactate ECO","slug":"lapte-si-lactate-eco","selected":true},{"name":"Amestecuri lactate și grasimi vegetale","slug":"amestecuri-lactate-si-grasimi-vegetale","selected":false}],"children":[{"name":"Toate produsele","slug":"lapte-si-lactate-eco","selected":false},{"name":"Lapte ECO","slug":"lapte-eco","selected":true},{"name":"Lactate ECO","slug":"lactate-eco","selected":false}],"products":[{"code":"100030289","variantCode":"5941065009810","name":"Lapte eco 3.8% grăsime 1l","slug":"100030289-napolact-bio-lapte-eco-3-8-grasime-1l","unitPriceLabel":"12,39 Lei/l","brand":"Napolact Bio","brandCode":"80","brandFilterCode":"napolact-bio-b79","sku":"100030289","price":12.39,"originalPrice":null,"currencyCode":"RON","currency":"Lei","image":{"thumbnail":{"default":"https://cdn.freshful.ro/media/cache/sylius_shop_product_thumbnail/7f/fd/1cdf3748a3e627f5532b7674649f.jpg"},"large":{"default":"https://cdn.freshful.ro/media/cache/freshful_large/7f/fd/1cdf3748a3e627f5532b7674649f.jpg"},"extralarge":{"default":"https://cdn.freshful.ro/media/cache/sylius_shop_product_original/7f/fd/1cdf3748a3e627f5532b7674649f.jpg"}},"label":null,"tags":[{"type":"Eco","text":"Eco","icon":"https://cdn.freshful.ro/assets/product_tags/eco.svg","iconPng":"https://cdn.freshful.ro/assets/product_tags/eco.png","backgroundColor":"#EFFBE4","textColor":"#66BB1B"},{"type":"MadeInRomania","text":"Made In Romania","icon":"https://cdn.freshful.ro/assets/product_tags/made_in_romania.svg","iconPng":"https://cdn.freshful.ro/assets/product_tags/made_in_romania.png","backgroundColor":"#EDF2FD","textColor":"#1653CA"}],"isAvailable":true,"maxAvailableQuantity":100,"maxAllowedQuantity":100,"breadcrumbs":[{"code":"4","name":"Lactate & ouă","slug":"4-lactate-branzeturi-si-oua"},{"code":"407","name":"Lapte și lactate ECO","slug":"lapte-si-lactate-eco"},{"code":"40701","name":"Lapte ECO","slug":"lapte-eco"},{"code":"100030289","name":"Lapte eco 3.8% grăsime 1l","slug":"100030289-napolact-bio-lapte-eco-3-8-grasime-1l"}],"activePromotion":null,"saveMe":null,"labels":[],"geniusPrice":null,"geniusUnitPricePerLabel":null,"banner":null,"discountLabel":null,"geniusDiscountLabel":null,"badge":null},{"code":"100030338","variantCode":"5941065012865","name":"Lapte eco 3.8% grăsime 1.6l","slug":"100030338-napolact-bio-lapte-eco-3-8-grasime-1-6l","unitPriceLabel":"12,49 Lei/l","brand":"Napolact Bio","brandCode":"80","brandFilterCode":"napolact-bio-b79","sku":"100030338","price":19.99,"originalPrice":null,"currencyCode":"RON","currency":"Lei","image":{"thumbnail":{"default":"https://cdn.freshful.ro/media/cache/sylius_shop_product_thumbnail/8b/d7/98c7a03a59b2468f4bc254219bd4.jpg"},"large":{"default":"https://cdn.freshful.ro/media/cache/freshful_large/8b/d7/98c7a03a59b2468f4bc254219bd4.jpg"},"extralarge":{"default":"https://cdn.freshful.ro/media/cache/sylius_shop_product_original/8b/d7/98c7a03a59b2468f4bc254219bd4.jpg"}},"label":null,"tags":[{"type":"Eco","text":"Eco","icon":"https://cdn.freshful.ro/assets/product_tags/eco.svg","iconPng":"https://cdn.freshful.ro/assets/product_tags/eco.png","backgroundColor":"#EFFBE4","textColor":"#66BB1B"},{"type":"Natural","text":"Natural","icon":"https://cdn.freshful.ro/assets/product_tags/natural.svg","iconPng":"https://cdn.freshful.ro/assets/product_tags/natural.png","backgroundColor":"#E9FCF2","textColor":"#18AF62"},{"type":"MadeInRomania","text":"Made In Romania","icon":"https://cdn.freshful.ro/assets/product_tags/made_in_romania.svg","iconPng":"https://cdn.freshful.ro/assets/product_tags/made_in_romania.png","backgroundColor":"#EDF2FD","textColor":"#1653CA"}],"isAvailable":true,"maxAvailableQuantity":100,"maxAllowedQuantity":100,"breadcrumbs":[{"code":"4","name":"Lactate & ouă","slug":"4-lactate-branzeturi-si-oua"},{"code":"407","name":"Lapte și lactate ECO","slug":"lapte-si-lactate-eco"},{"code":"40701","name":"Lapte ECO","slug":"lapte-eco"},{"code":"100030338","name":"Lapte eco 3.8% grăsime 1.6l","slug":"100030338-napolact-bio-lapte-eco-3-8-grasime-1-6l"}],"activePromotion":null,"saveMe":null,"labels":[],"geniusPrice":null,"geniusUnitPricePerLabel":null,"banner":null,"discountLabel":null,"geniusDiscountLabel":null,"badge":null},{"code":"100038802","variantCode":"5941192111448","name":"Lapte eco fără lactoză, 1.5% grăsime, „Zile ușoare” 1l","slug":"100038802-ladorna-lapte-eco-fara-lactoza-1-5-grasime-zile-usoare-1l","unitPriceLabel":"9,99 Lei/l","brand":"LaDORNA","brandCode":"594","brandFilterCode":"ladorna-b595","sku":"100038802","price":9.99,"originalPrice":null,"currencyCode":"RON","currency":"Lei","image":{"thumbnail":{"default":"https://cdn.freshful.ro/media/cache/sylius_shop_product_thumbnail/2b/d8/165e971ec3f5836eb0320f02a0fd.jpg"},"large":{"default":"https://cdn.freshful.ro/media/cache/freshful_large/2b/d8/165e971ec3f5836eb0320f02a0fd.jpg"},"extralarge":{"default":"https://cdn.freshful.ro/media/cache/sylius_shop_product_original/2b/d8/165e971ec3f5836eb0320f02a0fd.jpg"}},"label":null,"tags":[{"type":"LactoseFree","text":"Fara lactoza","icon":"https://cdn.freshful.ro/assets/product_tags/fara_lactoza.svg","iconPng":"https://cdn.freshful.ro/assets/product_tags/fara_lactoza.png","backgroundColor":"#E9F7FB","textColor":"#25A6D0"},{"type":"Eco","text":"Eco","icon":"https://cdn.freshful.ro/assets/product_tags/eco.svg","iconPng":"https://cdn.freshful.ro/assets/product_tags/eco.png","backgroundColor":"#EFFBE4","textColor":"#66BB1B"},{"type":"MadeInRomania","text":"Made In Romania","icon":"https://cdn.freshful.ro/assets/product_tags/made_in_romania.svg","iconPng":"https://cdn.freshful.ro/assets/product_tags/made_in_romania.png","backgroundColor":"#EDF2FD","textColor":"#1653CA"}],"isAvailable":true,"maxAvailableQuantity":100,"maxAllowedQuantity":100,"breadcrumbs":[{"code":"4","name":"Lactate & ouă","slug":"4-lactate-branzeturi-si-oua"},{"code":"407","name":"Lapte și lactate ECO","slug":"lapte-si-lactate-eco"},{"code":"40701","name":"Lapte ECO","slug":"lapte-eco"},{"code":"100038802","name":"Lapte eco fără lactoză, 1.5% grăsime, „Zile ușoare” 1l","slug":"100038802-ladorna-lapte-eco-fara-lactoza-1-5-grasime-zile-usoare-1l"}],"activePromotion":null,"saveMe":null,"labels":[],"geniusPrice":null,"geniusUnitPricePerLabel":null,"banner":null,"discountLabel":null,"geniusDiscountLabel":null,"badge":null},{"code":"100038803","variantCode":"5941192111424","name":"Lapte eco fără lactoză, 3.5% grăsime, „Zile ușoare” 1l","slug":"100038803-ladorna-lapte-eco-fara-lactoza-3-5-grasime-zile-usoare-1l","unitPriceLabel":"10,49 Lei/l","brand":"LaDORNA","brandCode":"594","brandFilterCode":"ladorna-b595","sku":"100038803","price":10.49,"originalPrice":null,"currencyCode":"RON","currency":"Lei","image":{"thumbnail":{"default":"https://cdn.freshful.ro/media/cache/sylius_shop_product_thumbnail/49/8c/a47ae8ab0aa5070c5b7f069b8397.jpg"},"large":{"default":"https://cdn.freshful.ro/media/cache/freshful_large/49/8c/a47ae8ab0aa5070c5b7f069b8397.jpg"},"extralarge":{"default":"https://cdn.freshful.ro/media/cache/sylius_shop_product_original/49/8c/a47ae8ab0aa5070c5b7f069b8397.jpg"}},"label":null,"tags":[{"type":"LactoseFree","text":"Fara lactoza","icon":"https://cdn.freshful.ro/assets/product_tags/fara_lactoza.svg","iconPng":"https://cdn.freshful.ro/assets/product_tags/fara_lactoza.png","backgroundColor":"#E9F7FB","textColor":"#25A6D0"},{"type":"Eco","text":"Eco","icon":"https://cdn.freshful.ro/assets/product_tags/eco.svg","iconPng":"https://cdn.freshful.ro/assets/product_tags/eco.png","backgroundColor":"#EFFBE4","textColor":"#66BB1B"},{"type":"MadeInRomania","text":"Made In Romania","icon":"https://cdn.freshful.ro/assets/product_tags/made_in_romania.svg","iconPng":"https://cdn.freshful.ro/assets/product_tags/made_in_romania.png","backgroundColor":"#EDF2FD","textColor":"#1653CA"}],"isAvailable":true,"maxAvailableQuantity":100,"maxAllowedQuantity":100,"breadcrumbs":[{"code":"4","name":"Lactate & ouă","slug":"4-lactate-branzeturi-si-oua"},{"code":"407","name":"Lapte și lactate ECO","slug":"lapte-si-lactate-eco"},{"code":"40701","name":"Lapte ECO","slug":"lapte-eco"},{"code":"100038803","name":"Lapte eco fără lactoză, 3.5% grăsime, „Zile ușoare” 1l","slug":"100038803-ladorna-lapte-eco-fara-lactoza-3-5-grasime-zile-usoare-1l"}],"activePromotion":null,"saveMe":null,"labels":[],"geniusPrice":null,"geniusUnitPricePerLabel":null,"banner":null,"discountLabel":null,"geniusDiscountLabel":null,"badge":null},{"code":"100038790","variantCode":"5941192111516","name":"Lapte eco UHT 3.7% grăsime 1l","slug":"100038790-ladorna-lapte-eco-uht-3-7-grasime-1l","unitPriceLabel":"10,49 Lei/l","brand":"LaDORNA","brandCode":"594","brandFilterCode":"ladorna-b595","sku":"100038790","price":10.49,"originalPrice":null,"currencyCode":"RON","currency":"Lei","image":{"thumbnail":{"default":"https://cdn.freshful.ro/media/cache/sylius_shop_product_thumbnail/49/be/73cb30f8f6397ee1d86bbc890e6a.jpg"},"large":{"default":"https://cdn.freshful.ro/media/cache/freshful_large/49/be/73cb30f8f6397ee1d86bbc890e6a.jpg"},"extralarge":{"default":"https://cdn.freshful.ro/media/cache/sylius_shop_product_original/49/be/73cb30f8f6397ee1d86bbc890e6a.jpg"}},"label":null,"tags":[{"type":"Eco","text":"Eco","icon":"https://cdn.freshful.ro/assets/product_tags/eco.svg","iconPng":"https://cdn.freshful.ro/assets/product_tags/eco.png","backgroundColor":"#EFFBE4","textColor":"#66BB1B"},{"type":"MadeInRomania","text":"Made In Romania","icon":"https://cdn.freshful.ro/assets/product_tags/made_in_romania.svg","iconPng":"https://cdn.freshful.ro/assets/product_tags/made_in_romania.png","backgroundColor":"#EDF2FD","textColor":"#1653CA"}],"isAvailable":true,"maxAvailableQuantity":90,"maxAllowedQuantity":100,"breadcrumbs":[{"code":"4","name":"Lactate & ouă","slug":"4-lactate-branzeturi-si-oua"},{"code":"407","name":"Lapte și lactate ECO","slug":"lapte-si-lactate-eco"},{"code":"40701","name":"Lapte ECO","slug":"lapte-eco"},{"code":"100038790","name":"Lapte eco UHT 3.7% grăsime 1l","slug":"100038790-ladorna-lapte-eco-uht-3-7-grasime-1l"}],"activePromotion":null,"saveMe":null,"labels":[],"geniusPrice":null,"geniusUnitPricePerLabel":null,"banner":null,"discountLabel":null,"geniusDiscountLabel":null,"badge":null},{"code":"100030339","variantCode":"5941065012858","name":"Lapte consum eco 1.5% grăsime 1.6l","slug":"100030339-napolact-bio-lapte-consum-eco-1-5-grasime-1-6l","unitPriceLabel":"12,81 Lei/l","brand":"Napolact Bio","brandCode":"80","brandFilterCode":"napolact-bio-b79","sku":"100030339","price":20.49,"originalPrice":null,"currencyCode":"RON","currency":"Lei","image":{"thumbnail":{"default":"https://cdn.freshful.ro/media/cache/sylius_shop_product_thumbnail/d3/5f/db5196a0e858c1ee6b62ede001e0.jpg"},"large":{"default":"https://cdn.freshful.ro/media/cache/freshful_large/d3/5f/db5196a0e858c1ee6b62ede001e0.jpg"},"extralarge":{"default":"https://cdn.freshful.ro/media/cache/sylius_shop_product_original/d3/5f/db5196a0e858c1ee6b62ede001e0.jpg"}},"label":null,"tags":[{"type":"Eco","text":"Eco","icon":"https://cdn.freshful.ro/assets/product_tags/eco.svg","iconPng":"https://cdn.freshful.ro/assets/product_tags/eco.png","backgroundColor":"#EFFBE4","textColor":"#66BB1B"},{"type":"MadeInRomania","text":"Made In Romania","icon":"https://cdn.freshful.ro/assets/product_tags/made_in_romania.svg","iconPng":"https://cdn.freshful.ro/assets/product_tags/made_in_romania.png","backgroundColor":"#EDF2FD","textColor":"#1653CA"}],"isAvailable":true,"maxAvailableQuantity":30,"maxAllowedQuantity":100,"breadcrumbs":[{"code":"4","name":"Lactate & ouă","slug":"4-lactate-branzeturi-si-oua"},{"code":"407","name":"Lapte și lactate ECO","slug":"lapte-si-lactate-eco"},{"code":"40701","name":"Lapte ECO","slug":"lapte-eco"},{"code":"100030339","name":"Lapte consum eco 1.5% grăsime 1.6l","slug":"100030339-napolact-bio-lapte-consum-eco-1-5-grasime-1-6l"}],"activePromotion":null,"saveMe":null,"labels":[],"geniusPrice":null,"geniusUnitPricePerLabel":null,"banner":null,"discountLabel":null,"geniusDiscountLabel":null,"badge":null},{"code":"100032721","variantCode":"100032721","name":"Lapte eco 3.5% grăsime 1l","slug":"100032721-monor-lapte-eco-3-5-grasime-1l","unitPriceLabel":"9,99 Lei/l","brand":"Monor","brandCode":"325","brandFilterCode":"monor-b326","sku":"100032721","price":9.99,"originalPrice":null,"currencyCode":"RON","currency":"Lei","image":{"thumbnail":{"default":"https://cdn.freshful.ro/media/cache/sylius_shop_product_thumbnail/4c/22/6cb37bd97704cf86497abd6b7a57.jpg"},"large":{"default":"https://cdn.freshful.ro/media/cache/freshful_large/4c/22/6cb37bd97704cf86497abd6b7a57.jpg"},"extralarge":{"default":"https://cdn.freshful.ro/media/cache/sylius_shop_product_original/4c/22/6cb37bd97704cf86497abd6b7a57.jpg"}},"label":null,"tags":[{"type":"Eco","text":"Eco","icon":"https://cdn.freshful.ro/assets/product_tags/eco.svg","iconPng":"https://cdn.freshful.ro/assets/product_tags/eco.png","backgroundColor":"#EFFBE4","textColor":"#66BB1B"},{"type":"MadeInRomania","text":"Made In Romania","icon":"https://cdn.freshful.ro/assets/product_tags/made_in_romania.svg","iconPng":"https://cdn.freshful.ro/assets/product_tags/made_in_romania.png","backgroundColor":"#EDF2FD","textColor":"#1653CA"}],"isAvailable":true,"maxAvailableQuantity":94,"maxAllowedQuantity":100,"breadcrumbs":[{"code":"4","name":"Lactate & ouă","slug":"4-lactate-branzeturi-si-oua"},{"code":"407","name":"Lapte și lactate ECO","slug":"lapte-si-lactate-eco"},{"code":"40701","name":"Lapte ECO","slug":"lapte-eco"},{"code":"100032721","name":"Lapte eco 3.5% grăsime 1l","slug":"100032721-monor-lapte-eco-3-5-grasime-1l"}],"activePromotion":null,"saveMe":null,"labels":[],"geniusPrice":null,"geniusUnitPricePerLabel":null,"banner":null,"discountLabel":null,"geniusDiscountLabel":null,"badge":null},{"code":"100032063","variantCode":"5941875901847","name":"Lapte de consum eco 3.7% grăsime 1l","slug":"100032063-olympus-lapte-de-consum-eco-3-7-grasime-1l","unitPriceLabel":"10,99 Lei/l","brand":"Olympus","brandCode":"45","brandFilterCode":"olympus-b40","sku":"100032063","price":10.99,"originalPrice":null,"currencyCode":"RON","currency":"Lei","image":{"thumbnail":{"default":"https://cdn.freshful.ro/media/cache/sylius_shop_product_thumbnail/de/76/53a4448578679202bc6f88194f35.jpg"},"large":{"default":"https://cdn.freshful.ro/media/cache/freshful_large/de/76/53a4448578679202bc6f88194f35.jpg"},"extralarge":{"default":"https://cdn.freshful.ro/media/cache/sylius_shop_product_original/de/76/53a4448578679202bc6f88194f35.jpg"}},"label":null,"tags":[{"type":"MadeInRomania","text":"Made In Romania","icon":"https://cdn.freshful.ro/assets/product_tags/made_in_romania.svg","iconPng":"https://cdn.freshful.ro/assets/product_tags/made_in_romania.png","backgroundColor":"#EDF2FD","textColor":"#1653CA"},{"type":"Eco","text":"Eco","icon":"https://cdn.freshful.ro/assets/product_tags/eco.svg","iconPng":"https://cdn.freshful.ro/assets/product_tags/eco.png","backgroundColor":"#EFFBE4","textColor":"#66BB1B"}],"isAvailable":true,"maxAvailableQuantity":88,"maxAllowedQuantity":100,"breadcrumbs":[{"code":"4","name":"Lactate & ouă","slug":"4-lactate-branzeturi-si-oua"},{"code":"407","name":"Lapte și lactate ECO","slug":"lapte-si-lactate-eco"},{"code":"40701","name":"Lapte ECO","slug":"lapte-eco"},{"code":"100032063","name":"Lapte de consum eco 3.7% grăsime 1l","slug":"100032063-olympus-lapte-de-consum-eco-3-7-grasime-1l"}],"activePromotion":null,"saveMe":null,"labels":[],"geniusPrice":null,"geniusUnitPricePerLabel":null,"banner":null,"discountLabel":null,"geniusDiscountLabel":null,"badge":null},{"code":"100032062","variantCode":"5941875904435","name":"Lapte de consum eco 1.7% grăsime 1l","slug":"100032062-olympus-lapte-de-consum-eco-1-7-grasime-1l","unitPriceLabel":"9,99 Lei/l","brand":"Olympus","brandCode":"45","brandFilterCode":"olympus-b40","sku":"100032062","price":9.99,"originalPrice":null,"currencyCode":"RON","currency":"Lei","image":{"thumbnail":{"default":"https://cdn.freshful.ro/media/cache/sylius_shop_product_thumbnail/37/3d/7854a6cf45311ac438f33435aeba.jpg"},"large":{"default":"https://cdn.freshful.ro/media/cache/freshful_large/37/3d/7854a6cf45311ac438f33435aeba.jpg"},"extralarge":{"default":"https://cdn.freshful.ro/media/cache/sylius_shop_product_original/37/3d/7854a6cf45311ac438f33435aeba.jpg"}},"label":null,"tags":[{"type":"Eco","text":"Eco","icon":"https://cdn.freshful.ro/assets/product_tags/eco.svg","iconPng":"https://cdn.freshful.ro/assets/product_tags/eco.png","backgroundColor":"#EFFBE4","textColor":"#66BB1B"},{"type":"MadeInRomania","text":"Made In Romania","icon":"https://cdn.freshful.ro/assets/product_tags/made_in_romania.svg","iconPng":"https://cdn.freshful.ro/assets/product_tags/made_in_romania.png","backgroundColor":"#EDF2FD","textColor":"#1653CA"}],"isAvailable":true,"maxAvailableQuantity":51,"maxAllowedQuantity":100,"breadcrumbs":[{"code":"4","name":"Lactate & ouă","slug":"4-lactate-branzeturi-si-oua"},{"code":"407","name":"Lapte și lactate ECO","slug":"lapte-si-lactate-eco"},{"code":"40701","name":"Lapte ECO","slug":"lapte-eco"},{"code":"100032062","name":"Lapte de consum eco 1.7% grăsime 1l","slug":"100032062-olympus-lapte-de-consum-eco-1-7-grasime-1l"}],"activePromotion":null,"saveMe":null,"labels":[],"geniusPrice":null,"geniusUnitPricePerLabel":null,"banner":null,"discountLabel":null,"geniusDiscountLabel":null,"badge":null},{"code":"100038788","variantCode":"5941192000674","name":"Lapte UHT eco 1.5% grăsime 1l","slug":"100038788-ladorna-lapte-uht-eco-1-5-grasime-1l","unitPriceLabel":"9,49 Lei/l","brand":"LaDORNA","brandCode":"594","brandFilterCode":"ladorna-b595","sku":"100038788","price":9.49,"originalPrice":null,"currencyCode":"RON","currency":"Lei","image":{"thumbnail":{"default":"https://cdn.freshful.ro/media/cache/sylius_shop_product_thumbnail/72/6d/7c9651414b2614190d90686f2227.jpg"},"large":{"default":"https://cdn.freshful.ro/media/cache/freshful_large/72/6d/7c9651414b2614190d90686f2227.jpg"},"extralarge":{"default":"https://cdn.freshful.ro/media/cache/sylius_shop_product_original/72/6d/7c9651414b2614190d90686f2227.jpg"}},"label":null,"tags":[{"type":"Eco","text":"Eco","icon":"https://cdn.freshful.ro/assets/product_tags/eco.svg","iconPng":"https://cdn.freshful.ro/assets/product_tags/eco.png","backgroundColor":"#EFFBE4","textColor":"#66BB1B"},{"type":"MadeInRomania","text":"Made In Romania","icon":"https://cdn.freshful.ro/assets/product_tags/made_in_romania.svg","iconPng":"https://cdn.freshful.ro/assets/product_tags/made_in_romania.png","backgroundColor":"#EDF2FD","textColor":"#1653CA"}],"isAvailable":true,"maxAvailableQuantity":17,"maxAllowedQuantity":100,"breadcrumbs":[{"code":"4","name":"Lactate & ouă","slug":"4-lactate-branzeturi-si-oua"},{"code":"407","name":"Lapte și lactate ECO","slug":"lapte-si-lactate-eco"},{"code":"40701","name":"Lapte ECO","slug":"lapte-eco"},{"code":"100038788","name":"Lapte UHT eco 1.5% grăsime 1l","slug":"100038788-ladorna-lapte-uht-eco-1-5-grasime-1l"}],"activePromotion":null,"saveMe":null,"labels":[],"geniusPrice":null,"geniusUnitPricePerLabel":null,"banner":null,"discountLabel":null,"geniusDiscountLabel":null,"badge":null}],"filters":{"countSelected":0,"items":[{"code":"brand","name":"Brand","countSelected":0,"values":[{"code":"andechser-b397","name":"Andechser","isSelected":false,"count":1},{"code":"artesana-b219","name":"Artesana","isSelected":false,"count":1},{"code":"colectar-b383","name":"Colectar","isSelected":false,"count":1},{"code":"ladorna-b595","name":"LaDORNA","isSelected":false,"count":4},{"code":"monor-b326","name":"Monor","isSelected":false,"count":1},{"code":"napolact-bio-b79","name":"Napolact Bio","isSelected":false,"count":4},{"code":"olympus-b40","name":"Olympus","isSelected":false,"count":3},{"code":"salzburgmilch-b398","name":"SalzburgMilch","isSelected":false,"count":1}]},{"code":"diet_lifestyle","name":"Dietă și lifestyle","countSelected":0,"values":[{"code":"eco-a83","name":"Eco","isSelected":false,"count":16},{"code":"fara-lactoza-a38","name":"Fara lactoza","isSelected":false,"count":2},{"code":"made-in-romania-a85","name":"Made In Romania","isSelected":false,"count":13},{"code":"natural-a27","name":"Natural","isSelected":false,"count":1}]}]},"orderBy":[{"field":"price","direction":"asc","name":"Preț crescător","isSelected":false},{"field":"price","direction":"desc","name":"Preț descrescător","isSelected":false},{"field":"popularity","direction":"desc","name":"Cele mai populare","isSelected":true},{"field":"category","direction":"asc","name":"Categorie","isSelected":false}],"metaTitle":"Lapte ECO - Gamă variată","metaDescription":"Vrei Lapte ECO? Alege dintr-o gamă variată. Comanzi simplu și ai livrare rapidă, calitate și prospețime. Hai pe Freshful.ro","metaKeywords":null,"banners":[]}}