{"type":"subcategory","payload":{"analyticsListId":"category_lapte-si-lactate-eco","analyticsListName":"Category - Lapte și lactate ECO","name":"Lapte și lactate ECO","slug":"lapte-si-lactate-eco","image":null,"breadcrumbs":[{"code":"4","name":"Lactate & ouă","slug":"4-lactate-branzeturi-si-oua"},{"code":"407","name":"Lapte și lactate ECO","slug":"lapte-si-lactate-eco"}],"slots":[],"page":1,"limit":10,"pages":11,"count":109,"siblings":[{"name":"Lapte, smântână și brânză proaspătă","slug":"401-lapte-smantana-si-branza-proaspata","selected":false},{"name":"Unt","slug":"402-unt-si-margarina","selected":false},{"name":"Lactate UHT","slug":"403-lactate-uht","selected":false},{"name":"Iaurt, desert și sana","slug":"404-iaurt-desert-si-sana","selected":false},{"name":"Ouă","slug":"405-oua","selected":false},{"name":"Brânzeturi","slug":"406-branzeturi","selected":false},{"name":"Lapte și lactate ECO","slug":"lapte-si-lactate-eco","selected":true},{"name":"Amestecuri lactate și grasimi vegetale","slug":"amestecuri-lactate-si-grasimi-vegetale","selected":false}],"children":[{"name":"Toate produsele","slug":"lapte-si-lactate-eco","selected":true},{"name":"Lapte ECO","slug":"lapte-eco","selected":false},{"name":"Lactate ECO","slug":"lactate-eco","selected":false}],"products":[{"code":"100143894","variantCode":"100143894","name":"Brânză Feta eco D.O.P, 150g","slug":"100143894-kolios-branza-feta-eco-d-o-p-150g","unitPriceLabel":"99,93 Lei/kg","brand":"Kolios","brandCode":"2781","brandFilterCode":"kolios-b2855","sku":"100143894","price":14.99,"originalPrice":20.5,"currencyCode":"RON","currency":"Lei","image":{"thumbnail":{"default":"https://cdn.freshful.ro/media/cache/sylius_shop_product_thumbnail/a8/7b/eecce3af3280e104f0de4ed087f4.jpg"},"large":{"default":"https://cdn.freshful.ro/media/cache/freshful_large/a8/7b/eecce3af3280e104f0de4ed087f4.jpg"},"extralarge":{"default":"https://cdn.freshful.ro/media/cache/sylius_shop_product_original/a8/7b/eecce3af3280e104f0de4ed087f4.jpg"}},"label":{"text":"-26%","backgroundColor":"#FF9903","textColor":"#FFFFFF"},"tags":[{"type":"Eco","text":"Eco","icon":"https://cdn.freshful.ro/assets/product_tags/eco.svg","iconPng":"https://cdn.freshful.ro/assets/product_tags/eco.png","backgroundColor":"#EFFBE4","textColor":"#66BB1B"},{"type":"Vegetarian","text":"Vegetarian","icon":"https://cdn.freshful.ro/assets/product_tags/vegetarian.svg","iconPng":"https://cdn.freshful.ro/assets/product_tags/vegetarian.png","backgroundColor":"#FAEAEE","textColor":"#B26275"}],"isAvailable":true,"maxAvailableQuantity":100,"maxAllowedQuantity":100,"breadcrumbs":[{"code":"4","name":"Lactate & ouă","slug":"4-lactate-branzeturi-si-oua"},{"code":"407","name":"Lapte și lactate ECO","slug":"lapte-si-lactate-eco"},{"code":"40702","name":"Lactate ECO","slug":"lactate-eco"},{"code":"100143894","name":"Brânză Feta eco D.O.P, 150g","slug":"100143894-kolios-branza-feta-eco-d-o-p-150g"}],"activePromotion":{"code":"bunatatile-saptamanii-cw0923","name":"Preț redus","targetQuantity":null},"saveMe":null,"labels":[{"type":"v1","items":[{"text":"-26%","backgroundColor":"#FF9903","textColor":"#FFFFFF"}]}],"geniusPrice":null,"geniusUnitPricePerLabel":null,"banner":{"text":"Super preț","textColor":"#FF0000","bgColor":"#FFF2EC","icon":null,"link":"https://www.freshful.ro/oferte/bunatatile-saptamanii-cw0923","type":"promo","analyticsEventType":"select_promotion","analyticsEventPayload":{"promotion_id":"bunatatile-saptamanii-cw0923","promotion_name":"Oferta proaspătă a săptămânii"}},"discountLabel":"Economisești 26%","geniusDiscountLabel":null,"badge":null},{"code":"100030289","variantCode":"5941065009810","name":"Lapte eco 3.8% grăsime 1l","slug":"100030289-napolact-bio-lapte-eco-3-8-grasime-1l","unitPriceLabel":"12,39 Lei/l","brand":"Napolact Bio","brandCode":"80","brandFilterCode":"napolact-bio-b79","sku":"100030289","price":12.39,"originalPrice":null,"currencyCode":"RON","currency":"Lei","image":{"thumbnail":{"default":"https://cdn.freshful.ro/media/cache/sylius_shop_product_thumbnail/7f/fd/1cdf3748a3e627f5532b7674649f.jpg"},"large":{"default":"https://cdn.freshful.ro/media/cache/freshful_large/7f/fd/1cdf3748a3e627f5532b7674649f.jpg"},"extralarge":{"default":"https://cdn.freshful.ro/media/cache/sylius_shop_product_original/7f/fd/1cdf3748a3e627f5532b7674649f.jpg"}},"label":null,"tags":[{"type":"Eco","text":"Eco","icon":"https://cdn.freshful.ro/assets/product_tags/eco.svg","iconPng":"https://cdn.freshful.ro/assets/product_tags/eco.png","backgroundColor":"#EFFBE4","textColor":"#66BB1B"},{"type":"MadeInRomania","text":"Made In Romania","icon":"https://cdn.freshful.ro/assets/product_tags/made_in_romania.svg","iconPng":"https://cdn.freshful.ro/assets/product_tags/made_in_romania.png","backgroundColor":"#EDF2FD","textColor":"#1653CA"}],"isAvailable":true,"maxAvailableQuantity":100,"maxAllowedQuantity":100,"breadcrumbs":[{"code":"4","name":"Lactate & ouă","slug":"4-lactate-branzeturi-si-oua"},{"code":"407","name":"Lapte și lactate ECO","slug":"lapte-si-lactate-eco"},{"code":"40701","name":"Lapte ECO","slug":"lapte-eco"},{"code":"100030289","name":"Lapte eco 3.8% grăsime 1l","slug":"100030289-napolact-bio-lapte-eco-3-8-grasime-1l"}],"activePromotion":null,"saveMe":null,"labels":[],"geniusPrice":null,"geniusUnitPricePerLabel":null,"banner":null,"discountLabel":null,"geniusDiscountLabel":null,"badge":null},{"code":"100030312","variantCode":"5941065009827","name":"Iaurt natural eco 3.8% grăsime 140g","slug":"100030312-napolact-bio-iaurt-natural-eco-3-8-grasime-140g","unitPriceLabel":"20,64 Lei/kg","brand":"Napolact Bio","brandCode":"80","brandFilterCode":"napolact-bio-b79","sku":"100030312","price":2.89,"originalPrice":null,"currencyCode":"RON","currency":"Lei","image":{"thumbnail":{"default":"https://cdn.freshful.ro/media/cache/sylius_shop_product_thumbnail/5a/7d/e223378f0b49fd3bab8cf53bbc56.jpg"},"large":{"default":"https://cdn.freshful.ro/media/cache/freshful_large/5a/7d/e223378f0b49fd3bab8cf53bbc56.jpg"},"extralarge":{"default":"https://cdn.freshful.ro/media/cache/sylius_shop_product_original/5a/7d/e223378f0b49fd3bab8cf53bbc56.jpg"}},"label":null,"tags":[{"type":"Eco","text":"Eco","icon":"https://cdn.freshful.ro/assets/product_tags/eco.svg","iconPng":"https://cdn.freshful.ro/assets/product_tags/eco.png","backgroundColor":"#EFFBE4","textColor":"#66BB1B"},{"type":"MadeInRomania","text":"Made In Romania","icon":"https://cdn.freshful.ro/assets/product_tags/made_in_romania.svg","iconPng":"https://cdn.freshful.ro/assets/product_tags/made_in_romania.png","backgroundColor":"#EDF2FD","textColor":"#1653CA"},{"type":"Natural","text":"Natural","icon":"https://cdn.freshful.ro/assets/product_tags/natural.svg","iconPng":"https://cdn.freshful.ro/assets/product_tags/natural.png","backgroundColor":"#E9FCF2","textColor":"#18AF62"}],"isAvailable":true,"maxAvailableQuantity":100,"maxAllowedQuantity":100,"breadcrumbs":[{"code":"4","name":"Lactate & ouă","slug":"4-lactate-branzeturi-si-oua"},{"code":"407","name":"Lapte și lactate ECO","slug":"lapte-si-lactate-eco"},{"code":"40702","name":"Lactate ECO","slug":"lactate-eco"},{"code":"100030312","name":"Iaurt natural eco 3.8% grăsime 140g","slug":"100030312-napolact-bio-iaurt-natural-eco-3-8-grasime-140g"}],"activePromotion":null,"saveMe":null,"labels":[],"geniusPrice":null,"geniusUnitPricePerLabel":null,"banner":null,"discountLabel":null,"geniusDiscountLabel":null,"badge":null},{"code":"100030338","variantCode":"5941065012865","name":"Lapte eco 3.8% grăsime 1.6l","slug":"100030338-napolact-bio-lapte-eco-3-8-grasime-1-6l","unitPriceLabel":"12,49 Lei/l","brand":"Napolact Bio","brandCode":"80","brandFilterCode":"napolact-bio-b79","sku":"100030338","price":19.99,"originalPrice":null,"currencyCode":"RON","currency":"Lei","image":{"thumbnail":{"default":"https://cdn.freshful.ro/media/cache/sylius_shop_product_thumbnail/8b/d7/98c7a03a59b2468f4bc254219bd4.jpg"},"large":{"default":"https://cdn.freshful.ro/media/cache/freshful_large/8b/d7/98c7a03a59b2468f4bc254219bd4.jpg"},"extralarge":{"default":"https://cdn.freshful.ro/media/cache/sylius_shop_product_original/8b/d7/98c7a03a59b2468f4bc254219bd4.jpg"}},"label":null,"tags":[{"type":"Eco","text":"Eco","icon":"https://cdn.freshful.ro/assets/product_tags/eco.svg","iconPng":"https://cdn.freshful.ro/assets/product_tags/eco.png","backgroundColor":"#EFFBE4","textColor":"#66BB1B"},{"type":"Natural","text":"Natural","icon":"https://cdn.freshful.ro/assets/product_tags/natural.svg","iconPng":"https://cdn.freshful.ro/assets/product_tags/natural.png","backgroundColor":"#E9FCF2","textColor":"#18AF62"},{"type":"MadeInRomania","text":"Made In Romania","icon":"https://cdn.freshful.ro/assets/product_tags/made_in_romania.svg","iconPng":"https://cdn.freshful.ro/assets/product_tags/made_in_romania.png","backgroundColor":"#EDF2FD","textColor":"#1653CA"}],"isAvailable":true,"maxAvailableQuantity":100,"maxAllowedQuantity":100,"breadcrumbs":[{"code":"4","name":"Lactate & ouă","slug":"4-lactate-branzeturi-si-oua"},{"code":"407","name":"Lapte și lactate ECO","slug":"lapte-si-lactate-eco"},{"code":"40701","name":"Lapte ECO","slug":"lapte-eco"},{"code":"100030338","name":"Lapte eco 3.8% grăsime 1.6l","slug":"100030338-napolact-bio-lapte-eco-3-8-grasime-1-6l"}],"activePromotion":null,"saveMe":null,"labels":[],"geniusPrice":null,"geniusUnitPricePerLabel":null,"banner":null,"discountLabel":null,"geniusDiscountLabel":null,"badge":null},{"code":"100030313","variantCode":"5941065011363","name":"Iaurt cremos eco 4.5% grăsime 140g","slug":"100030313-napolact-bio-iaurt-cremos-eco-4-5-grasime-140g","unitPriceLabel":"27,07 Lei/kg","brand":"Napolact Bio","brandCode":"80","brandFilterCode":"napolact-bio-b79","sku":"100030313","price":3.79,"originalPrice":null,"currencyCode":"RON","currency":"Lei","image":{"thumbnail":{"default":"https://cdn.freshful.ro/media/cache/sylius_shop_product_thumbnail/52/bd/e2543c59ea65ff09c795e45f3627.jpg"},"large":{"default":"https://cdn.freshful.ro/media/cache/freshful_large/52/bd/e2543c59ea65ff09c795e45f3627.jpg"},"extralarge":{"default":"https://cdn.freshful.ro/media/cache/sylius_shop_product_original/52/bd/e2543c59ea65ff09c795e45f3627.jpg"}},"label":null,"tags":[{"type":"Eco","text":"Eco","icon":"https://cdn.freshful.ro/assets/product_tags/eco.svg","iconPng":"https://cdn.freshful.ro/assets/product_tags/eco.png","backgroundColor":"#EFFBE4","textColor":"#66BB1B"},{"type":"MadeInRomania","text":"Made In Romania","icon":"https://cdn.freshful.ro/assets/product_tags/made_in_romania.svg","iconPng":"https://cdn.freshful.ro/assets/product_tags/made_in_romania.png","backgroundColor":"#EDF2FD","textColor":"#1653CA"}],"isAvailable":true,"maxAvailableQuantity":100,"maxAllowedQuantity":100,"breadcrumbs":[{"code":"4","name":"Lactate & ouă","slug":"4-lactate-branzeturi-si-oua"},{"code":"407","name":"Lapte și lactate ECO","slug":"lapte-si-lactate-eco"},{"code":"40702","name":"Lactate ECO","slug":"lactate-eco"},{"code":"100030313","name":"Iaurt cremos eco 4.5% grăsime 140g","slug":"100030313-napolact-bio-iaurt-cremos-eco-4-5-grasime-140g"}],"activePromotion":null,"saveMe":null,"labels":[],"geniusPrice":null,"geniusUnitPricePerLabel":null,"banner":null,"discountLabel":null,"geniusDiscountLabel":null,"badge":null},{"code":"100030314","variantCode":"5941065011493","name":"Iaurt smântânos eco 10% grăsime 140g","slug":"100030314-napolact-bio-iaurt-smantanos-eco-10-grasime-140g","unitPriceLabel":"32,79 Lei/kg","brand":"Napolact Bio","brandCode":"80","brandFilterCode":"napolact-bio-b79","sku":"100030314","price":4.59,"originalPrice":null,"currencyCode":"RON","currency":"Lei","image":{"thumbnail":{"default":"https://cdn.freshful.ro/media/cache/sylius_shop_product_thumbnail/22/43/7e4c95d1c4651762f548b2d8c9c7.jpg"},"large":{"default":"https://cdn.freshful.ro/media/cache/freshful_large/22/43/7e4c95d1c4651762f548b2d8c9c7.jpg"},"extralarge":{"default":"https://cdn.freshful.ro/media/cache/sylius_shop_product_original/22/43/7e4c95d1c4651762f548b2d8c9c7.jpg"}},"label":null,"tags":[{"type":"Eco","text":"Eco","icon":"https://cdn.freshful.ro/assets/product_tags/eco.svg","iconPng":"https://cdn.freshful.ro/assets/product_tags/eco.png","backgroundColor":"#EFFBE4","textColor":"#66BB1B"},{"type":"MadeInRomania","text":"Made In Romania","icon":"https://cdn.freshful.ro/assets/product_tags/made_in_romania.svg","iconPng":"https://cdn.freshful.ro/assets/product_tags/made_in_romania.png","backgroundColor":"#EDF2FD","textColor":"#1653CA"}],"isAvailable":true,"maxAvailableQuantity":100,"maxAllowedQuantity":100,"breadcrumbs":[{"code":"4","name":"Lactate & ouă","slug":"4-lactate-branzeturi-si-oua"},{"code":"407","name":"Lapte și lactate ECO","slug":"lapte-si-lactate-eco"},{"code":"40702","name":"Lactate ECO","slug":"lactate-eco"},{"code":"100030314","name":"Iaurt smântânos eco 10% grăsime 140g","slug":"100030314-napolact-bio-iaurt-smantanos-eco-10-grasime-140g"}],"activePromotion":null,"saveMe":null,"labels":[],"geniusPrice":null,"geniusUnitPricePerLabel":null,"banner":null,"discountLabel":null,"geniusDiscountLabel":null,"badge":null},{"code":"100038802","variantCode":"5941192111448","name":"Lapte eco fără lactoză, 1.5% grăsime, „Zile ușoare” 1l","slug":"100038802-ladorna-lapte-eco-fara-lactoza-1-5-grasime-zile-usoare-1l","unitPriceLabel":"9,99 Lei/l","brand":"LaDORNA","brandCode":"594","brandFilterCode":"ladorna-b595","sku":"100038802","price":9.99,"originalPrice":null,"currencyCode":"RON","currency":"Lei","image":{"thumbnail":{"default":"https://cdn.freshful.ro/media/cache/sylius_shop_product_thumbnail/2b/d8/165e971ec3f5836eb0320f02a0fd.jpg"},"large":{"default":"https://cdn.freshful.ro/media/cache/freshful_large/2b/d8/165e971ec3f5836eb0320f02a0fd.jpg"},"extralarge":{"default":"https://cdn.freshful.ro/media/cache/sylius_shop_product_original/2b/d8/165e971ec3f5836eb0320f02a0fd.jpg"}},"label":null,"tags":[{"type":"LactoseFree","text":"Fara lactoza","icon":"https://cdn.freshful.ro/assets/product_tags/fara_lactoza.svg","iconPng":"https://cdn.freshful.ro/assets/product_tags/fara_lactoza.png","backgroundColor":"#E9F7FB","textColor":"#25A6D0"},{"type":"Eco","text":"Eco","icon":"https://cdn.freshful.ro/assets/product_tags/eco.svg","iconPng":"https://cdn.freshful.ro/assets/product_tags/eco.png","backgroundColor":"#EFFBE4","textColor":"#66BB1B"},{"type":"MadeInRomania","text":"Made In Romania","icon":"https://cdn.freshful.ro/assets/product_tags/made_in_romania.svg","iconPng":"https://cdn.freshful.ro/assets/product_tags/made_in_romania.png","backgroundColor":"#EDF2FD","textColor":"#1653CA"}],"isAvailable":true,"maxAvailableQuantity":100,"maxAllowedQuantity":100,"breadcrumbs":[{"code":"4","name":"Lactate & ouă","slug":"4-lactate-branzeturi-si-oua"},{"code":"407","name":"Lapte și lactate ECO","slug":"lapte-si-lactate-eco"},{"code":"40701","name":"Lapte ECO","slug":"lapte-eco"},{"code":"100038802","name":"Lapte eco fără lactoză, 1.5% grăsime, „Zile ușoare” 1l","slug":"100038802-ladorna-lapte-eco-fara-lactoza-1-5-grasime-zile-usoare-1l"}],"activePromotion":null,"saveMe":null,"labels":[],"geniusPrice":null,"geniusUnitPricePerLabel":null,"banner":null,"discountLabel":null,"geniusDiscountLabel":null,"badge":null},{"code":"100038803","variantCode":"5941192111424","name":"Lapte eco fără lactoză, 3.5% grăsime, „Zile ușoare” 1l","slug":"100038803-ladorna-lapte-eco-fara-lactoza-3-5-grasime-zile-usoare-1l","unitPriceLabel":"10,49 Lei/l","brand":"LaDORNA","brandCode":"594","brandFilterCode":"ladorna-b595","sku":"100038803","price":10.49,"originalPrice":null,"currencyCode":"RON","currency":"Lei","image":{"thumbnail":{"default":"https://cdn.freshful.ro/media/cache/sylius_shop_product_thumbnail/49/8c/a47ae8ab0aa5070c5b7f069b8397.jpg"},"large":{"default":"https://cdn.freshful.ro/media/cache/freshful_large/49/8c/a47ae8ab0aa5070c5b7f069b8397.jpg"},"extralarge":{"default":"https://cdn.freshful.ro/media/cache/sylius_shop_product_original/49/8c/a47ae8ab0aa5070c5b7f069b8397.jpg"}},"label":null,"tags":[{"type":"LactoseFree","text":"Fara lactoza","icon":"https://cdn.freshful.ro/assets/product_tags/fara_lactoza.svg","iconPng":"https://cdn.freshful.ro/assets/product_tags/fara_lactoza.png","backgroundColor":"#E9F7FB","textColor":"#25A6D0"},{"type":"Eco","text":"Eco","icon":"https://cdn.freshful.ro/assets/product_tags/eco.svg","iconPng":"https://cdn.freshful.ro/assets/product_tags/eco.png","backgroundColor":"#EFFBE4","textColor":"#66BB1B"},{"type":"MadeInRomania","text":"Made In Romania","icon":"https://cdn.freshful.ro/assets/product_tags/made_in_romania.svg","iconPng":"https://cdn.freshful.ro/assets/product_tags/made_in_romania.png","backgroundColor":"#EDF2FD","textColor":"#1653CA"}],"isAvailable":true,"maxAvailableQuantity":100,"maxAllowedQuantity":100,"breadcrumbs":[{"code":"4","name":"Lactate & ouă","slug":"4-lactate-branzeturi-si-oua"},{"code":"407","name":"Lapte și lactate ECO","slug":"lapte-si-lactate-eco"},{"code":"40701","name":"Lapte ECO","slug":"lapte-eco"},{"code":"100038803","name":"Lapte eco fără lactoză, 3.5% grăsime, „Zile ușoare” 1l","slug":"100038803-ladorna-lapte-eco-fara-lactoza-3-5-grasime-zile-usoare-1l"}],"activePromotion":null,"saveMe":null,"labels":[],"geniusPrice":null,"geniusUnitPricePerLabel":null,"banner":null,"discountLabel":null,"geniusDiscountLabel":null,"badge":null},{"code":"100138908","variantCode":"100138908","name":"Cașcaval de vacă eco felii 120g","slug":"100138908-napolact-bio-cascaval-de-vaca-eco-felii-120g","unitPriceLabel":"99,92 Lei/kg","brand":"Napolact Bio","brandCode":"80","brandFilterCode":"napolact-bio-b79","sku":"100138908","price":11.99,"originalPrice":null,"currencyCode":"RON","currency":"Lei","image":{"thumbnail":{"default":"https://cdn.freshful.ro/media/cache/sylius_shop_product_thumbnail/93/70/4de7b053f98a7dc8e5155bedd525.jpg"},"large":{"default":"https://cdn.freshful.ro/media/cache/freshful_large/93/70/4de7b053f98a7dc8e5155bedd525.jpg"},"extralarge":{"default":"https://cdn.freshful.ro/media/cache/sylius_shop_product_original/93/70/4de7b053f98a7dc8e5155bedd525.jpg"}},"label":null,"tags":[{"type":"Eco","text":"Eco","icon":"https://cdn.freshful.ro/assets/product_tags/eco.svg","iconPng":"https://cdn.freshful.ro/assets/product_tags/eco.png","backgroundColor":"#EFFBE4","textColor":"#66BB1B"}],"isAvailable":true,"maxAvailableQuantity":100,"maxAllowedQuantity":100,"breadcrumbs":[{"code":"4","name":"Lactate & ouă","slug":"4-lactate-branzeturi-si-oua"},{"code":"407","name":"Lapte și lactate ECO","slug":"lapte-si-lactate-eco"},{"code":"40702","name":"Lactate ECO","slug":"lactate-eco"},{"code":"100138908","name":"Cașcaval de vacă eco felii 120g","slug":"100138908-napolact-bio-cascaval-de-vaca-eco-felii-120g"}],"activePromotion":null,"saveMe":null,"labels":[],"geniusPrice":null,"geniusUnitPricePerLabel":null,"banner":null,"discountLabel":null,"geniusDiscountLabel":null,"badge":null},{"code":"100142596","variantCode":"100142596","name":"Kefir ecologic din lapte de vacă 350ml","slug":"100142596-artesana-kefir-ecologic-din-lapte-de-vaca-350ml","unitPriceLabel":"30,83 Lei/l","brand":"Artesana","brandCode":"218","brandFilterCode":"artesana-b219","sku":"100142596","price":10.79,"originalPrice":null,"currencyCode":"RON","currency":"Lei","image":{"thumbnail":{"default":"https://cdn.freshful.ro/media/cache/sylius_shop_product_thumbnail/67/0c/75972a499d255db6543c81b4734b.jpg"},"large":{"default":"https://cdn.freshful.ro/media/cache/freshful_large/67/0c/75972a499d255db6543c81b4734b.jpg"},"extralarge":{"default":"https://cdn.freshful.ro/media/cache/sylius_shop_product_original/67/0c/75972a499d255db6543c81b4734b.jpg"}},"label":null,"tags":[{"type":"Eco","text":"Eco","icon":"https://cdn.freshful.ro/assets/product_tags/eco.svg","iconPng":"https://cdn.freshful.ro/assets/product_tags/eco.png","backgroundColor":"#EFFBE4","textColor":"#66BB1B"},{"type":"MadeInRomania","text":"Made In Romania","icon":"https://cdn.freshful.ro/assets/product_tags/made_in_romania.svg","iconPng":"https://cdn.freshful.ro/assets/product_tags/made_in_romania.png","backgroundColor":"#EDF2FD","textColor":"#1653CA"}],"isAvailable":true,"maxAvailableQuantity":100,"maxAllowedQuantity":100,"breadcrumbs":[{"code":"4","name":"Lactate & ouă","slug":"4-lactate-branzeturi-si-oua"},{"code":"407","name":"Lapte și lactate ECO","slug":"lapte-si-lactate-eco"},{"code":"40702","name":"Lactate ECO","slug":"lactate-eco"},{"code":"100142596","name":"Kefir ecologic din lapte de vacă 350ml","slug":"100142596-artesana-kefir-ecologic-din-lapte-de-vaca-350ml"}],"activePromotion":null,"saveMe":null,"labels":[],"geniusPrice":null,"geniusUnitPricePerLabel":null,"banner":null,"discountLabel":null,"geniusDiscountLabel":null,"badge":null}],"filters":{"countSelected":0,"items":[{"code":"promotion","name":"Promoții","countSelected":0,"values":[{"code":"bunatatile-saptamanii-cw0923","name":"Oferta proaspătă a săptămânii","isSelected":false,"count":1}]},{"code":"brand","name":"Brand","countSelected":0,"values":[{"code":"agriform-b518","name":"Agriform","isSelected":false,"count":1},{"code":"andechser-b397","name":"Andechser","isSelected":false,"count":16},{"code":"artesana-b219","name":"Artesana","isSelected":false,"count":5},{"code":"bioforia-b783","name":"Bioforia","isSelected":false,"count":13},{"code":"brimi-b523","name":"Brimi","isSelected":false,"count":2},{"code":"colectar-b383","name":"Colectar","isSelected":false,"count":6},{"code":"covalact-b785","name":"Covalact","isSelected":false,"count":3},{"code":"danonino-b30","name":"Danonino","isSelected":false,"count":2},{"code":"delaco-b226","name":"Delaco","isSelected":false,"count":1},{"code":"hochland-b127","name":"Hochland","isSelected":false,"count":2},{"code":"kolios-b2855","name":"Kolios","isSelected":false,"count":2},{"code":"ladorna-b595","name":"LaDORNA","isSelected":false,"count":5},{"code":"mediterranea-b1769","name":"Mediterranea","isSelected":false,"count":2},{"code":"monor-b326","name":"Monor","isSelected":false,"count":6},{"code":"mystakelli-b1091","name":"Mystakelli","isSelected":false,"count":1},{"code":"napolact-bio-b79","name":"Napolact Bio","isSelected":false,"count":27},{"code":"olympus-b40","name":"Olympus","isSelected":false,"count":10},{"code":"q-concept-b2896","name":"Q Concept","isSelected":false,"count":1},{"code":"salzburgmilch-b398","name":"SalzburgMilch","isSelected":false,"count":1},{"code":"sterzing-vipiteno-b413","name":"Sterzing-Vipiteno","isSelected":false,"count":3}]},{"code":"diet_lifestyle","name":"Dietă și lifestyle","countSelected":0,"values":[{"code":"eco-a83","name":"Eco","isSelected":false,"count":109},{"code":"fara-lactoza-a38","name":"Fara lactoza","isSelected":false,"count":4},{"code":"fara-zahar-adaugat-a29","name":"Fara zahar adaugat","isSelected":false,"count":2},{"code":"made-in-romania-a85","name":"Made In Romania","isSelected":false,"count":69},{"code":"natural-a27","name":"Natural","isSelected":false,"count":5},{"code":"vegetarian-a28","name":"Vegetarian","isSelected":false,"count":1}]}]},"orderBy":[{"field":"price","direction":"asc","name":"Preț crescător","isSelected":false},{"field":"price","direction":"desc","name":"Preț descrescător","isSelected":false},{"field":"popularity","direction":"desc","name":"Cele mai populare","isSelected":true},{"field":"category","direction":"asc","name":"Categorie","isSelected":false}],"metaTitle":"Lapte și lactate ECO - Gamă variată","metaDescription":"Vrei Lapte și lactate ECO? Alege dintr-o gamă variată. Comanzi simplu și ai livrare rapidă, calitate și prospețime. Hai pe Freshful.ro","metaKeywords":null,"banners":[]}}