{"type":"subcategory","payload":{"analyticsListId":"category_mezeluri-feliate-eco","analyticsListName":"Category - Mezeluri feliate ECO","name":"Mezeluri feliate ECO","slug":"mezeluri-feliate-eco","image":null,"breadcrumbs":[{"code":"5","name":"Mezeluri & ready meals","slug":"5-mezeluri-si-ready-to-cook"},{"code":"502","name":"Mezeluri feliate","slug":"502-mezeluri-feliate"},{"code":"50204","name":"Mezeluri feliate ECO","slug":"mezeluri-feliate-eco"}],"slots":[],"page":1,"limit":10,"pages":2,"count":17,"siblings":[{"name":"Mezeluri","slug":"501-mezeluri","selected":false},{"name":"Mezeluri feliate","slug":"502-mezeluri-feliate","selected":true},{"name":"Pizza și aluat","slug":"503-pizza-si-aluat","selected":false},{"name":"Paste proaspete","slug":"504-paste-proaspete","selected":false},{"name":"Ready meals","slug":"505-ready-meal","selected":false}],"children":[{"name":"Toate produsele","slug":"502-mezeluri-feliate","selected":false},{"name":"Mezeluri de pasăre feliate","slug":"50201-mezeluri-de-pasare-feliate","selected":false},{"name":"Mezeluri de porc feliate","slug":"50202-mezeluri-de-porc-feliate","selected":false},{"name":"Mezeluri de vită feliate","slug":"50203-mezeluri-de-vita-feliate","selected":false},{"name":"Mezeluri feliate ECO","slug":"mezeluri-feliate-eco","selected":true}],"products":[{"code":"100038184","variantCode":"100038184","name":"Prosciutto cotto eco 80g","slug":"100038184-golfera-prosciutto-cotto-eco-80g","unitPriceLabel":"262,38 Lei/kg","brand":"Golfera","brandCode":"413","brandFilterCode":"golfera-b414","sku":"100038184","price":20.99,"originalPrice":null,"currencyCode":"RON","currency":"Lei","image":{"thumbnail":{"default":"https://cdn.freshful.ro/media/cache/sylius_shop_product_thumbnail/9f/1a/dfd4fa66cd6e15c9139278bc0331.jpg"},"large":{"default":"https://cdn.freshful.ro/media/cache/freshful_large/9f/1a/dfd4fa66cd6e15c9139278bc0331.jpg"},"extralarge":{"default":"https://cdn.freshful.ro/media/cache/sylius_shop_product_original/9f/1a/dfd4fa66cd6e15c9139278bc0331.jpg"}},"label":null,"tags":[{"type":"Eco","text":"Eco","icon":"https://cdn.freshful.ro/assets/product_tags/eco.svg","iconPng":"https://cdn.freshful.ro/assets/product_tags/eco.png","backgroundColor":"#EFFBE4","textColor":"#66BB1B"}],"isAvailable":true,"maxAvailableQuantity":100,"maxAllowedQuantity":100,"breadcrumbs":[{"code":"5","name":"Mezeluri & ready meals","slug":"5-mezeluri-si-ready-to-cook"},{"code":"502","name":"Mezeluri feliate","slug":"502-mezeluri-feliate"},{"code":"50204","name":"Mezeluri feliate ECO","slug":"mezeluri-feliate-eco"},{"code":"100038184","name":"Prosciutto cotto eco 80g","slug":"100038184-golfera-prosciutto-cotto-eco-80g"}],"activePromotion":null,"saveMe":null,"labels":[],"geniusPrice":null,"geniusUnitPricePerLabel":null,"banner":null,"discountLabel":null,"geniusDiscountLabel":null,"badge":null},{"code":"100038187","variantCode":"100038187","name":"Mortadella eco 80g","slug":"100038187-golfera-mortadella-eco-80g","unitPriceLabel":"199,88 Lei/kg","brand":"Golfera","brandCode":"413","brandFilterCode":"golfera-b414","sku":"100038187","price":15.99,"originalPrice":null,"currencyCode":"RON","currency":"Lei","image":{"thumbnail":{"default":"https://cdn.freshful.ro/media/cache/sylius_shop_product_thumbnail/48/3f/1b9d4f7d03b839bfa95b6c703eb8.jpg"},"large":{"default":"https://cdn.freshful.ro/media/cache/freshful_large/48/3f/1b9d4f7d03b839bfa95b6c703eb8.jpg"},"extralarge":{"default":"https://cdn.freshful.ro/media/cache/sylius_shop_product_original/48/3f/1b9d4f7d03b839bfa95b6c703eb8.jpg"}},"label":null,"tags":[{"type":"Eco","text":"Eco","icon":"https://cdn.freshful.ro/assets/product_tags/eco.svg","iconPng":"https://cdn.freshful.ro/assets/product_tags/eco.png","backgroundColor":"#EFFBE4","textColor":"#66BB1B"}],"isAvailable":true,"maxAvailableQuantity":100,"maxAllowedQuantity":100,"breadcrumbs":[{"code":"5","name":"Mezeluri & ready meals","slug":"5-mezeluri-si-ready-to-cook"},{"code":"502","name":"Mezeluri feliate","slug":"502-mezeluri-feliate"},{"code":"50204","name":"Mezeluri feliate ECO","slug":"mezeluri-feliate-eco"},{"code":"100038187","name":"Mortadella eco 80g","slug":"100038187-golfera-mortadella-eco-80g"}],"activePromotion":null,"saveMe":null,"labels":[],"geniusPrice":null,"geniusUnitPricePerLabel":null,"banner":null,"discountLabel":null,"geniusDiscountLabel":null,"badge":null},{"code":"100038180","variantCode":"100038180","name":"Piept de curcan eco 80g","slug":"100038180-golfera-piept-de-curcan-eco-80g","unitPriceLabel":"284,88 Lei/kg","brand":"Golfera","brandCode":"413","brandFilterCode":"golfera-b414","sku":"100038180","price":22.79,"originalPrice":null,"currencyCode":"RON","currency":"Lei","image":{"thumbnail":{"default":"https://cdn.freshful.ro/media/cache/sylius_shop_product_thumbnail/21/84/58e43e5c2b98cbef5af970fb0b5b.jpg"},"large":{"default":"https://cdn.freshful.ro/media/cache/freshful_large/21/84/58e43e5c2b98cbef5af970fb0b5b.jpg"},"extralarge":{"default":"https://cdn.freshful.ro/media/cache/sylius_shop_product_original/21/84/58e43e5c2b98cbef5af970fb0b5b.jpg"}},"label":null,"tags":[{"type":"Eco","text":"Eco","icon":"https://cdn.freshful.ro/assets/product_tags/eco.svg","iconPng":"https://cdn.freshful.ro/assets/product_tags/eco.png","backgroundColor":"#EFFBE4","textColor":"#66BB1B"}],"isAvailable":true,"maxAvailableQuantity":77,"maxAllowedQuantity":100,"breadcrumbs":[{"code":"5","name":"Mezeluri & ready meals","slug":"5-mezeluri-si-ready-to-cook"},{"code":"502","name":"Mezeluri feliate","slug":"502-mezeluri-feliate"},{"code":"50204","name":"Mezeluri feliate ECO","slug":"mezeluri-feliate-eco"},{"code":"100038180","name":"Piept de curcan eco 80g","slug":"100038180-golfera-piept-de-curcan-eco-80g"}],"activePromotion":null,"saveMe":null,"labels":[],"geniusPrice":null,"geniusUnitPricePerLabel":null,"banner":null,"discountLabel":null,"geniusDiscountLabel":null,"badge":null},{"code":"100038185","variantCode":"100038185","name":"Prosciutto cotto cu busuioc eco 100g","slug":"100038185-golfera-prosciutto-cotto-cu-busuioc-eco-100g","unitPriceLabel":"299,9 Lei/kg","brand":"Golfera","brandCode":"413","brandFilterCode":"golfera-b414","sku":"100038185","price":29.99,"originalPrice":null,"currencyCode":"RON","currency":"Lei","image":{"thumbnail":{"default":"https://cdn.freshful.ro/media/cache/sylius_shop_product_thumbnail/42/3f/4e254c406b9e8cfcc209496739b9.jpg"},"large":{"default":"https://cdn.freshful.ro/media/cache/freshful_large/42/3f/4e254c406b9e8cfcc209496739b9.jpg"},"extralarge":{"default":"https://cdn.freshful.ro/media/cache/sylius_shop_product_original/42/3f/4e254c406b9e8cfcc209496739b9.jpg"}},"label":null,"tags":[{"type":"Eco","text":"Eco","icon":"https://cdn.freshful.ro/assets/product_tags/eco.svg","iconPng":"https://cdn.freshful.ro/assets/product_tags/eco.png","backgroundColor":"#EFFBE4","textColor":"#66BB1B"}],"isAvailable":true,"maxAvailableQuantity":33,"maxAllowedQuantity":100,"breadcrumbs":[{"code":"5","name":"Mezeluri & ready meals","slug":"5-mezeluri-si-ready-to-cook"},{"code":"502","name":"Mezeluri feliate","slug":"502-mezeluri-feliate"},{"code":"50204","name":"Mezeluri feliate ECO","slug":"mezeluri-feliate-eco"},{"code":"100038185","name":"Prosciutto cotto cu busuioc eco 100g","slug":"100038185-golfera-prosciutto-cotto-cu-busuioc-eco-100g"}],"activePromotion":null,"saveMe":{"isAvailable":true,"variantCode":"100038185-accsale","maxAvailableQuantity":3,"maxAllowedQuantity":100,"price":23.99,"originalPrice":29.99,"labels":[{"type":"v2","items":[{"text":"Save Me","backgroundColor":"#FF7070","textColor":"#FFFFFF"},{"text":"-20%","backgroundColor":"#333333","textColor":"#FFFFFF"}]},{"type":"v3","items":[{"text":"Expiră pe 04-03-2023","backgroundColor":"#FEF7DC","textColor":"#595959"}]}],"priceColor":"#FF7070","priceIcon":"https://cdn.freshful.ro/assets/save_me/priceIcon.png","unitPriceLabel":"239,9 Lei/kg","badge":null},"labels":[],"geniusPrice":null,"geniusUnitPricePerLabel":null,"banner":{"text":"Cumpără la 23.99 lei","textColor":"#FF7070","bgColor":"#FFF1F1","icon":"https://cdn.freshful.ro/assets/save_me/priceIcon.png","link":"https://www.freshful.ro/p/100038185-golfera-prosciutto-cotto-cu-busuioc-eco-100g?sm=true","type":"saveMe","analyticsEventType":"select_item","analyticsEventPayload":[]},"discountLabel":null,"geniusDiscountLabel":null,"badge":null},{"code":"100038186","variantCode":"100038186","name":"Șuncă coaptă la jar cu ierburi Braceri eco 100g","slug":"100038186-golfera-sunca-coapta-la-jar-cu-ierburi-braceri-eco-100g","unitPriceLabel":"299,9 Lei/kg","brand":"Golfera","brandCode":"413","brandFilterCode":"golfera-b414","sku":"100038186","price":29.99,"originalPrice":null,"currencyCode":"RON","currency":"Lei","image":{"thumbnail":{"default":"https://cdn.freshful.ro/media/cache/sylius_shop_product_thumbnail/74/fd/6c4882a2c31db2b8b5bb9e43de70.jpg"},"large":{"default":"https://cdn.freshful.ro/media/cache/freshful_large/74/fd/6c4882a2c31db2b8b5bb9e43de70.jpg"},"extralarge":{"default":"https://cdn.freshful.ro/media/cache/sylius_shop_product_original/74/fd/6c4882a2c31db2b8b5bb9e43de70.jpg"}},"label":null,"tags":[{"type":"Eco","text":"Eco","icon":"https://cdn.freshful.ro/assets/product_tags/eco.svg","iconPng":"https://cdn.freshful.ro/assets/product_tags/eco.png","backgroundColor":"#EFFBE4","textColor":"#66BB1B"}],"isAvailable":true,"maxAvailableQuantity":47,"maxAllowedQuantity":100,"breadcrumbs":[{"code":"5","name":"Mezeluri & ready meals","slug":"5-mezeluri-si-ready-to-cook"},{"code":"502","name":"Mezeluri feliate","slug":"502-mezeluri-feliate"},{"code":"50204","name":"Mezeluri feliate ECO","slug":"mezeluri-feliate-eco"},{"code":"100038186","name":"Șuncă coaptă la jar cu ierburi Braceri eco 100g","slug":"100038186-golfera-sunca-coapta-la-jar-cu-ierburi-braceri-eco-100g"}],"activePromotion":null,"saveMe":null,"labels":[],"geniusPrice":null,"geniusUnitPricePerLabel":null,"banner":null,"discountLabel":null,"geniusDiscountLabel":null,"badge":null},{"code":"100038182","variantCode":"100038182","name":"Salam eco 80g","slug":"100038182-golfera-salam-eco-80g","unitPriceLabel":"237,38 Lei/kg","brand":"Golfera","brandCode":"413","brandFilterCode":"golfera-b414","sku":"100038182","price":18.99,"originalPrice":null,"currencyCode":"RON","currency":"Lei","image":{"thumbnail":{"default":"https://cdn.freshful.ro/media/cache/sylius_shop_product_thumbnail/08/4d/18c6932ab7f5266fec8920d0b083.jpg"},"large":{"default":"https://cdn.freshful.ro/media/cache/freshful_large/08/4d/18c6932ab7f5266fec8920d0b083.jpg"},"extralarge":{"default":"https://cdn.freshful.ro/media/cache/sylius_shop_product_original/08/4d/18c6932ab7f5266fec8920d0b083.jpg"}},"label":null,"tags":[{"type":"Eco","text":"Eco","icon":"https://cdn.freshful.ro/assets/product_tags/eco.svg","iconPng":"https://cdn.freshful.ro/assets/product_tags/eco.png","backgroundColor":"#EFFBE4","textColor":"#66BB1B"}],"isAvailable":true,"maxAvailableQuantity":36,"maxAllowedQuantity":100,"breadcrumbs":[{"code":"5","name":"Mezeluri & ready meals","slug":"5-mezeluri-si-ready-to-cook"},{"code":"502","name":"Mezeluri feliate","slug":"502-mezeluri-feliate"},{"code":"50204","name":"Mezeluri feliate ECO","slug":"mezeluri-feliate-eco"},{"code":"100038182","name":"Salam eco 80g","slug":"100038182-golfera-salam-eco-80g"}],"activePromotion":null,"saveMe":null,"labels":[],"geniusPrice":null,"geniusUnitPricePerLabel":null,"banner":null,"discountLabel":null,"geniusDiscountLabel":null,"badge":null},{"code":"100038179","variantCode":"100038179","name":"Piept de pui eco 80g","slug":"100038179-golfera-piept-de-pui-eco-80g","unitPriceLabel":"268,63 Lei/kg","brand":"Golfera","brandCode":"413","brandFilterCode":"golfera-b414","sku":"100038179","price":21.49,"originalPrice":null,"currencyCode":"RON","currency":"Lei","image":{"thumbnail":{"default":"https://cdn.freshful.ro/media/cache/sylius_shop_product_thumbnail/2d/34/3deeebbd519823e2e6ca2ba38110.jpg"},"large":{"default":"https://cdn.freshful.ro/media/cache/freshful_large/2d/34/3deeebbd519823e2e6ca2ba38110.jpg"},"extralarge":{"default":"https://cdn.freshful.ro/media/cache/sylius_shop_product_original/2d/34/3deeebbd519823e2e6ca2ba38110.jpg"}},"label":null,"tags":[{"type":"Eco","text":"Eco","icon":"https://cdn.freshful.ro/assets/product_tags/eco.svg","iconPng":"https://cdn.freshful.ro/assets/product_tags/eco.png","backgroundColor":"#EFFBE4","textColor":"#66BB1B"}],"isAvailable":true,"maxAvailableQuantity":11,"maxAllowedQuantity":100,"breadcrumbs":[{"code":"5","name":"Mezeluri & ready meals","slug":"5-mezeluri-si-ready-to-cook"},{"code":"502","name":"Mezeluri feliate","slug":"502-mezeluri-feliate"},{"code":"50204","name":"Mezeluri feliate ECO","slug":"mezeluri-feliate-eco"},{"code":"100038179","name":"Piept de pui eco 80g","slug":"100038179-golfera-piept-de-pui-eco-80g"}],"activePromotion":null,"saveMe":null,"labels":[],"geniusPrice":null,"geniusUnitPricePerLabel":null,"banner":null,"discountLabel":null,"geniusDiscountLabel":null,"badge":null},{"code":"100044790","variantCode":"100044790","name":"Bacon eco 70g","slug":"100044790-silvania-gourmet-bacon-eco-70g","unitPriceLabel":"257 Lei/kg","brand":"Silvania Gourmet","brandCode":"495","brandFilterCode":"silvania-gourmet-b496","sku":"100044790","price":17.99,"originalPrice":null,"currencyCode":"RON","currency":"Lei","image":{"thumbnail":{"default":"https://cdn.freshful.ro/media/cache/sylius_shop_product_thumbnail/9f/7b/0e22fba83b979e3ce24872dc7d6d.jpg"},"large":{"default":"https://cdn.freshful.ro/media/cache/freshful_large/9f/7b/0e22fba83b979e3ce24872dc7d6d.jpg"},"extralarge":{"default":"https://cdn.freshful.ro/media/cache/sylius_shop_product_original/9f/7b/0e22fba83b979e3ce24872dc7d6d.jpg"}},"label":null,"tags":[{"type":"Eco","text":"Eco","icon":"https://cdn.freshful.ro/assets/product_tags/eco.svg","iconPng":"https://cdn.freshful.ro/assets/product_tags/eco.png","backgroundColor":"#EFFBE4","textColor":"#66BB1B"},{"type":"NoE","text":"Fara E-uri","icon":"https://cdn.freshful.ro/assets/product_tags/fara_euri.svg","iconPng":"https://cdn.freshful.ro/assets/product_tags/fara_euri.png","backgroundColor":"#FCF5DF","textColor":"#CAA316"}],"isAvailable":true,"maxAvailableQuantity":92,"maxAllowedQuantity":100,"breadcrumbs":[{"code":"5","name":"Mezeluri & ready meals","slug":"5-mezeluri-si-ready-to-cook"},{"code":"502","name":"Mezeluri feliate","slug":"502-mezeluri-feliate"},{"code":"50204","name":"Mezeluri feliate ECO","slug":"mezeluri-feliate-eco"},{"code":"100044790","name":"Bacon eco 70g","slug":"100044790-silvania-gourmet-bacon-eco-70g"}],"activePromotion":null,"saveMe":null,"labels":[],"geniusPrice":null,"geniusUnitPricePerLabel":null,"banner":null,"discountLabel":null,"geniusDiscountLabel":null,"badge":null},{"code":"100038181","variantCode":"100038181","name":"Salam Ventricina crud uscat eco 80g","slug":"100038181-golfera-salam-ventricina-crud-uscat-eco-80g","unitPriceLabel":"272,38 Lei/kg","brand":"Golfera","brandCode":"413","brandFilterCode":"golfera-b414","sku":"100038181","price":21.79,"originalPrice":null,"currencyCode":"RON","currency":"Lei","image":{"thumbnail":{"default":"https://cdn.freshful.ro/media/cache/sylius_shop_product_thumbnail/19/97/121f2351995a6d3174ffe13b955a.jpg"},"large":{"default":"https://cdn.freshful.ro/media/cache/freshful_large/19/97/121f2351995a6d3174ffe13b955a.jpg"},"extralarge":{"default":"https://cdn.freshful.ro/media/cache/sylius_shop_product_original/19/97/121f2351995a6d3174ffe13b955a.jpg"}},"label":null,"tags":[{"type":"Eco","text":"Eco","icon":"https://cdn.freshful.ro/assets/product_tags/eco.svg","iconPng":"https://cdn.freshful.ro/assets/product_tags/eco.png","backgroundColor":"#EFFBE4","textColor":"#66BB1B"}],"isAvailable":true,"maxAvailableQuantity":100,"maxAllowedQuantity":100,"breadcrumbs":[{"code":"5","name":"Mezeluri & ready meals","slug":"5-mezeluri-si-ready-to-cook"},{"code":"502","name":"Mezeluri feliate","slug":"502-mezeluri-feliate"},{"code":"50204","name":"Mezeluri feliate ECO","slug":"mezeluri-feliate-eco"},{"code":"100038181","name":"Salam Ventricina crud uscat eco 80g","slug":"100038181-golfera-salam-ventricina-crud-uscat-eco-80g"}],"activePromotion":null,"saveMe":null,"labels":[],"geniusPrice":null,"geniusUnitPricePerLabel":null,"banner":null,"discountLabel":null,"geniusDiscountLabel":null,"badge":null},{"code":"100038183","variantCode":"100038183","name":"Prosciutto crudo eco 80g","slug":"100038183-golfera-prosciutto-crudo-eco-80g","unitPriceLabel":"424,88 Lei/kg","brand":"Golfera","brandCode":"413","brandFilterCode":"golfera-b414","sku":"100038183","price":33.99,"originalPrice":null,"currencyCode":"RON","currency":"Lei","image":{"thumbnail":{"default":"https://cdn.freshful.ro/media/cache/sylius_shop_product_thumbnail/0e/c5/f804337af1799bfe9366ed9ee125.jpg"},"large":{"default":"https://cdn.freshful.ro/media/cache/freshful_large/0e/c5/f804337af1799bfe9366ed9ee125.jpg"},"extralarge":{"default":"https://cdn.freshful.ro/media/cache/sylius_shop_product_original/0e/c5/f804337af1799bfe9366ed9ee125.jpg"}},"label":null,"tags":[{"type":"Eco","text":"Eco","icon":"https://cdn.freshful.ro/assets/product_tags/eco.svg","iconPng":"https://cdn.freshful.ro/assets/product_tags/eco.png","backgroundColor":"#EFFBE4","textColor":"#66BB1B"}],"isAvailable":true,"maxAvailableQuantity":34,"maxAllowedQuantity":100,"breadcrumbs":[{"code":"5","name":"Mezeluri & ready meals","slug":"5-mezeluri-si-ready-to-cook"},{"code":"502","name":"Mezeluri feliate","slug":"502-mezeluri-feliate"},{"code":"50204","name":"Mezeluri feliate ECO","slug":"mezeluri-feliate-eco"},{"code":"100038183","name":"Prosciutto crudo eco 80g","slug":"100038183-golfera-prosciutto-crudo-eco-80g"}],"activePromotion":null,"saveMe":null,"labels":[],"geniusPrice":null,"geniusUnitPricePerLabel":null,"banner":null,"discountLabel":null,"geniusDiscountLabel":null,"badge":null}],"filters":{"countSelected":0,"items":[{"code":"brand","name":"Brand","countSelected":0,"values":[{"code":"golfera-b414","name":"Golfera","isSelected":false,"count":10},{"code":"silvania-gourmet-b496","name":"Silvania Gourmet","isSelected":false,"count":7}]},{"code":"diet_lifestyle","name":"Dietă și lifestyle","countSelected":0,"values":[{"code":"eco-a83","name":"Eco","isSelected":false,"count":17},{"code":"fara-e-uri-a84","name":"Fara E-uri","isSelected":false,"count":7}]}]},"orderBy":[{"field":"price","direction":"asc","name":"Preț crescător","isSelected":false},{"field":"price","direction":"desc","name":"Preț descrescător","isSelected":false},{"field":"popularity","direction":"desc","name":"Cele mai populare","isSelected":true},{"field":"category","direction":"asc","name":"Categorie","isSelected":false}],"metaTitle":"Mezeluri feliate ECO - Gamă variată","metaDescription":"Vrei Mezeluri feliate ECO? Alege dintr-o gamă variată. Comanzi simplu și ai livrare rapidă, calitate și prospețime. Hai pe Freshful.ro","metaKeywords":null,"banners":[]}}