{"type":"subcategory","payload":{"analyticsListId":"category_praf-de-copt-drojdie-bicarbonat-si-decoratiuni","analyticsListName":"Category - Praf de copt, drojdie, bicarbonat și decorațiuni","name":"Praf de copt, drojdie, bicarbonat și decorațiuni","slug":"praf-de-copt-drojdie-bicarbonat-si-decoratiuni","image":null,"breadcrumbs":[{"code":"8","name":"Băcănie","slug":"8-ceva-sarat"},{"code":"806","name":"Făină, zahăr și produse gourmet","slug":"faina-zahar-si-produse-gourmet"},{"code":"80606","name":"Praf de copt, drojdie, bicarbonat și decorațiuni","slug":"praf-de-copt-drojdie-bicarbonat-si-decoratiuni"}],"slots":[],"page":1,"limit":10,"pages":13,"count":124,"siblings":[{"name":"Paste, orez și legume uscate","slug":"801-paste-orez-si-legume-uscate","selected":false},{"name":"Conserve","slug":"802-conserve","selected":false},{"name":"Condimente și sosuri","slug":"803-condimente-si-sosuri","selected":false},{"name":"Ulei și oțet","slug":"804-ulei-si-otet","selected":false},{"name":"De ronțăit","slug":"805-aperitive-sarate","selected":false},{"name":"Făină, zahăr și produse gourmet","slug":"faina-zahar-si-produse-gourmet","selected":true}],"children":[{"name":"Toate produsele","slug":"faina-zahar-si-produse-gourmet","selected":false},{"name":"Făină, mălai și griș","slug":"faina-malai-si-gris","selected":false},{"name":"Zahăr","slug":"zahar","selected":false},{"name":"Compot de fructe","slug":"compot-de-fructe","selected":false},{"name":"Creme, budinci și semipreparate","slug":"creme-budinci-si-semipreparate","selected":false},{"name":"Zahăr vanilat și esențe","slug":"zahar-vanilat-si-esente","selected":false},{"name":"Praf de copt, drojdie, bicarbonat și decorațiuni","slug":"praf-de-copt-drojdie-bicarbonat-si-decoratiuni","selected":true}],"products":[{"code":"100001511","variantCode":"5941132015850","name":"Praf de copt 3x10g","slug":"100001511-dr-oetker-praf-de-copt-3x10g","unitPriceLabel":"47 Lei/kg","brand":"Dr. Oetker","brandCode":"55","brandFilterCode":"dr-oetker-b51","sku":"100001511","price":1.41,"originalPrice":null,"currencyCode":"RON","currency":"Lei","image":{"thumbnail":{"default":"https://cdn.freshful.ro/media/cache/sylius_shop_product_thumbnail/1a/96/5240eb239fbcfd09f4d90a8d480b.jpg"},"large":{"default":"https://cdn.freshful.ro/media/cache/freshful_large/1a/96/5240eb239fbcfd09f4d90a8d480b.jpg"},"extralarge":{"default":"https://cdn.freshful.ro/media/cache/sylius_shop_product_original/1a/96/5240eb239fbcfd09f4d90a8d480b.jpg"}},"label":null,"tags":[],"isAvailable":true,"maxAvailableQuantity":100,"maxAllowedQuantity":100,"breadcrumbs":[{"code":"8","name":"Băcănie","slug":"8-ceva-sarat"},{"code":"806","name":"Făină, zahăr și produse gourmet","slug":"faina-zahar-si-produse-gourmet"},{"code":"80606","name":"Praf de copt, drojdie, bicarbonat și decorațiuni","slug":"praf-de-copt-drojdie-bicarbonat-si-decoratiuni"},{"code":"100001511","name":"Praf de copt 3x10g","slug":"100001511-dr-oetker-praf-de-copt-3x10g"}],"activePromotion":null,"saveMe":null,"labels":[],"geniusPrice":null,"geniusUnitPricePerLabel":null,"banner":null,"discountLabel":null,"geniusDiscountLabel":null,"badge":null},{"code":"100001533","variantCode":"5941132017267","name":"Drojdie uscată 3x7g ","slug":"100001533-dr-oetker-drojdie-uscata-3x7g","unitPriceLabel":"193,81 Lei/kg","brand":"Dr. Oetker","brandCode":"55","brandFilterCode":"dr-oetker-b51","sku":"100001533","price":4.07,"originalPrice":null,"currencyCode":"RON","currency":"Lei","image":{"thumbnail":{"default":"https://cdn.freshful.ro/media/cache/sylius_shop_product_thumbnail/00/2e/eb21703bae2d9e8f72f1083f87f9.jpg"},"large":{"default":"https://cdn.freshful.ro/media/cache/freshful_large/00/2e/eb21703bae2d9e8f72f1083f87f9.jpg"},"extralarge":{"default":"https://cdn.freshful.ro/media/cache/sylius_shop_product_original/00/2e/eb21703bae2d9e8f72f1083f87f9.jpg"}},"label":null,"tags":[],"isAvailable":true,"maxAvailableQuantity":100,"maxAllowedQuantity":100,"breadcrumbs":[{"code":"8","name":"Băcănie","slug":"8-ceva-sarat"},{"code":"806","name":"Făină, zahăr și produse gourmet","slug":"faina-zahar-si-produse-gourmet"},{"code":"80606","name":"Praf de copt, drojdie, bicarbonat și decorațiuni","slug":"praf-de-copt-drojdie-bicarbonat-si-decoratiuni"},{"code":"100001533","name":"Drojdie uscată 3x7g ","slug":"100001533-dr-oetker-drojdie-uscata-3x7g"}],"activePromotion":null,"saveMe":null,"labels":[],"geniusPrice":null,"geniusUnitPricePerLabel":null,"banner":null,"discountLabel":null,"geniusDiscountLabel":null,"badge":null},{"code":"100001451","variantCode":"5941132400052","name":"Bicarbonat de sodiu alimentar 50g","slug":"100001451-dr-oetker-bicarbonat-de-sodiu-alimentar-50g","unitPriceLabel":"21 Lei/kg","brand":"Dr. Oetker","brandCode":"55","brandFilterCode":"dr-oetker-b51","sku":"100001451","price":1.05,"originalPrice":null,"currencyCode":"RON","currency":"Lei","image":{"thumbnail":{"default":"https://cdn.freshful.ro/media/cache/sylius_shop_product_thumbnail/50/87/bf836a6643c3b925410c16b9e13f.jpg"},"large":{"default":"https://cdn.freshful.ro/media/cache/freshful_large/50/87/bf836a6643c3b925410c16b9e13f.jpg"},"extralarge":{"default":"https://cdn.freshful.ro/media/cache/sylius_shop_product_original/50/87/bf836a6643c3b925410c16b9e13f.jpg"}},"label":null,"tags":[],"isAvailable":true,"maxAvailableQuantity":100,"maxAllowedQuantity":100,"breadcrumbs":[{"code":"8","name":"Băcănie","slug":"8-ceva-sarat"},{"code":"806","name":"Făină, zahăr și produse gourmet","slug":"faina-zahar-si-produse-gourmet"},{"code":"80606","name":"Praf de copt, drojdie, bicarbonat și decorațiuni","slug":"praf-de-copt-drojdie-bicarbonat-si-decoratiuni"},{"code":"100001451","name":"Bicarbonat de sodiu alimentar 50g","slug":"100001451-dr-oetker-bicarbonat-de-sodiu-alimentar-50g"}],"activePromotion":null,"saveMe":null,"labels":[],"geniusPrice":null,"geniusUnitPricePerLabel":null,"banner":null,"discountLabel":null,"geniusDiscountLabel":null,"badge":null},{"code":"100043708","variantCode":"7613035159860","name":"Ciocolată de menaj neagră 205g","slug":"100043708-nestle-ciocolata-de-menaj-neagra-205g","unitPriceLabel":"70,68 Lei/kg","brand":"Nestlé","brandCode":"697","brandFilterCode":"nestle-b698","sku":"100043708","price":14.49,"originalPrice":null,"currencyCode":"RON","currency":"Lei","image":{"thumbnail":{"default":"https://cdn.freshful.ro/media/cache/sylius_shop_product_thumbnail/ca/cd/6f2fbf31991d7f37f58e0e9c282c.jpg"},"large":{"default":"https://cdn.freshful.ro/media/cache/freshful_large/ca/cd/6f2fbf31991d7f37f58e0e9c282c.jpg"},"extralarge":{"default":"https://cdn.freshful.ro/media/cache/sylius_shop_product_original/ca/cd/6f2fbf31991d7f37f58e0e9c282c.jpg"}},"label":null,"tags":[{"type":"NoGluten","text":"Fara gluten","icon":"https://cdn.freshful.ro/assets/product_tags/fara_gluten.svg","iconPng":"https://cdn.freshful.ro/assets/product_tags/fara_gluten.png","backgroundColor":"#FFF2E5","textColor":"#F07900"}],"isAvailable":true,"maxAvailableQuantity":100,"maxAllowedQuantity":100,"breadcrumbs":[{"code":"8","name":"Băcănie","slug":"8-ceva-sarat"},{"code":"806","name":"Făină, zahăr și produse gourmet","slug":"faina-zahar-si-produse-gourmet"},{"code":"80606","name":"Praf de copt, drojdie, bicarbonat și decorațiuni","slug":"praf-de-copt-drojdie-bicarbonat-si-decoratiuni"},{"code":"100043708","name":"Ciocolată de menaj neagră 205g","slug":"100043708-nestle-ciocolata-de-menaj-neagra-205g"}],"activePromotion":null,"saveMe":null,"labels":[],"geniusPrice":null,"geniusUnitPricePerLabel":null,"banner":null,"discountLabel":null,"geniusDiscountLabel":null,"badge":null},{"code":"100091679","variantCode":"5941891400072","name":"Miez de nucă 200g","slug":"100091679-razvan-miez-de-nuca-200g","unitPriceLabel":"99,95 Lei/kg","brand":"Răzvan","brandCode":"1126","brandFilterCode":"razvan-b1127","sku":"100091679","price":19.99,"originalPrice":null,"currencyCode":"RON","currency":"Lei","image":{"thumbnail":{"default":"https://cdn.freshful.ro/media/cache/sylius_shop_product_thumbnail/6c/35/1c1d643fff199f3e4f811afe1e7e.jpg"},"large":{"default":"https://cdn.freshful.ro/media/cache/freshful_large/6c/35/1c1d643fff199f3e4f811afe1e7e.jpg"},"extralarge":{"default":"https://cdn.freshful.ro/media/cache/sylius_shop_product_original/6c/35/1c1d643fff199f3e4f811afe1e7e.jpg"}},"label":{"text":"Mici producători","backgroundColor":"#7B61FF","textColor":"#FFFFFF"},"tags":[],"isAvailable":true,"maxAvailableQuantity":100,"maxAllowedQuantity":100,"breadcrumbs":[{"code":"8","name":"Băcănie","slug":"8-ceva-sarat"},{"code":"806","name":"Făină, zahăr și produse gourmet","slug":"faina-zahar-si-produse-gourmet"},{"code":"80606","name":"Praf de copt, drojdie, bicarbonat și decorațiuni","slug":"praf-de-copt-drojdie-bicarbonat-si-decoratiuni"},{"code":"100091679","name":"Miez de nucă 200g","slug":"100091679-razvan-miez-de-nuca-200g"}],"activePromotion":null,"saveMe":null,"labels":[{"type":"v1","items":[{"text":"Mici producători","backgroundColor":"#7B61FF","textColor":"#FFFFFF"}]}],"geniusPrice":null,"geniusUnitPricePerLabel":null,"banner":null,"discountLabel":null,"geniusDiscountLabel":null,"badge":null},{"code":"100001413","variantCode":"5941132400090","name":"Cacao 50g","slug":"100001413-dr-oetker-cacao-50g","unitPriceLabel":"70 Lei/kg","brand":"Dr. Oetker","brandCode":"55","brandFilterCode":"dr-oetker-b51","sku":"100001413","price":3.5,"originalPrice":null,"currencyCode":"RON","currency":"Lei","image":{"thumbnail":{"default":"https://cdn.freshful.ro/media/cache/sylius_shop_product_thumbnail/a9/a2/de181120f4c2fdc3dae08fa494d2.jpg"},"large":{"default":"https://cdn.freshful.ro/media/cache/freshful_large/a9/a2/de181120f4c2fdc3dae08fa494d2.jpg"},"extralarge":{"default":"https://cdn.freshful.ro/media/cache/sylius_shop_product_original/a9/a2/de181120f4c2fdc3dae08fa494d2.jpg"}},"label":null,"tags":[],"isAvailable":true,"maxAvailableQuantity":100,"maxAllowedQuantity":100,"breadcrumbs":[{"code":"8","name":"Băcănie","slug":"8-ceva-sarat"},{"code":"806","name":"Făină, zahăr și produse gourmet","slug":"faina-zahar-si-produse-gourmet"},{"code":"80606","name":"Praf de copt, drojdie, bicarbonat și decorațiuni","slug":"praf-de-copt-drojdie-bicarbonat-si-decoratiuni"},{"code":"100001413","name":"Cacao 50g","slug":"100001413-dr-oetker-cacao-50g"}],"activePromotion":null,"saveMe":null,"labels":[],"geniusPrice":null,"geniusUnitPricePerLabel":null,"banner":null,"discountLabel":null,"geniusDiscountLabel":null,"badge":null},{"code":"100001594","variantCode":"5941132008739","name":"Cacao neagră 100g","slug":"100001594-dr-oetker-cacao-neagra-100g","unitPriceLabel":"72,1 Lei/kg","brand":"Dr. Oetker","brandCode":"55","brandFilterCode":"dr-oetker-b51","sku":"100001594","price":7.21,"originalPrice":null,"currencyCode":"RON","currency":"Lei","image":{"thumbnail":{"default":"https://cdn.freshful.ro/media/cache/sylius_shop_product_thumbnail/2d/5b/4262f165c2301777702d6cb24c23.jpg"},"large":{"default":"https://cdn.freshful.ro/media/cache/freshful_large/2d/5b/4262f165c2301777702d6cb24c23.jpg"},"extralarge":{"default":"https://cdn.freshful.ro/media/cache/sylius_shop_product_original/2d/5b/4262f165c2301777702d6cb24c23.jpg"}},"label":null,"tags":[],"isAvailable":true,"maxAvailableQuantity":100,"maxAllowedQuantity":100,"breadcrumbs":[{"code":"8","name":"Băcănie","slug":"8-ceva-sarat"},{"code":"806","name":"Făină, zahăr și produse gourmet","slug":"faina-zahar-si-produse-gourmet"},{"code":"80606","name":"Praf de copt, drojdie, bicarbonat și decorațiuni","slug":"praf-de-copt-drojdie-bicarbonat-si-decoratiuni"},{"code":"100001594","name":"Cacao neagră 100g","slug":"100001594-dr-oetker-cacao-neagra-100g"}],"activePromotion":null,"saveMe":null,"labels":[],"geniusPrice":null,"geniusUnitPricePerLabel":null,"banner":null,"discountLabel":null,"geniusDiscountLabel":null,"badge":null},{"code":"100001578","variantCode":"5941132022308","name":"Amidon alimentar din porumb 30g","slug":"100001578-dr-oetker-amidon-alimentar-din-porumb-30g","unitPriceLabel":"26,33 Lei/kg","brand":"Dr. Oetker","brandCode":"55","brandFilterCode":"dr-oetker-b51","sku":"100001578","price":0.79,"originalPrice":null,"currencyCode":"RON","currency":"Lei","image":{"thumbnail":{"default":"https://cdn.freshful.ro/media/cache/sylius_shop_product_thumbnail/f3/d7/9cb576f589ac2aa54feb341486a1.jpg"},"large":{"default":"https://cdn.freshful.ro/media/cache/freshful_large/f3/d7/9cb576f589ac2aa54feb341486a1.jpg"},"extralarge":{"default":"https://cdn.freshful.ro/media/cache/sylius_shop_product_original/f3/d7/9cb576f589ac2aa54feb341486a1.jpg"}},"label":null,"tags":[],"isAvailable":true,"maxAvailableQuantity":100,"maxAllowedQuantity":100,"breadcrumbs":[{"code":"8","name":"Băcănie","slug":"8-ceva-sarat"},{"code":"806","name":"Făină, zahăr și produse gourmet","slug":"faina-zahar-si-produse-gourmet"},{"code":"80606","name":"Praf de copt, drojdie, bicarbonat și decorațiuni","slug":"praf-de-copt-drojdie-bicarbonat-si-decoratiuni"},{"code":"100001578","name":"Amidon alimentar din porumb 30g","slug":"100001578-dr-oetker-amidon-alimentar-din-porumb-30g"}],"activePromotion":null,"saveMe":null,"labels":[],"geniusPrice":null,"geniusUnitPricePerLabel":null,"banner":null,"discountLabel":null,"geniusDiscountLabel":null,"badge":null},{"code":"100139912","variantCode":"100139912","name":"Nucă de cocos 250g","slug":"100139912-sanovita-nuca-de-cocos-250g","unitPriceLabel":"29,56 Lei/kg","brand":"Sanovita","brandCode":"482","brandFilterCode":"sanovita-b483","sku":"100139912","price":7.39,"originalPrice":null,"currencyCode":"RON","currency":"Lei","image":{"thumbnail":{"default":"https://cdn.freshful.ro/media/cache/sylius_shop_product_thumbnail/66/a6/1e022543c598d69dea12663319cb.jpg"},"large":{"default":"https://cdn.freshful.ro/media/cache/freshful_large/66/a6/1e022543c598d69dea12663319cb.jpg"},"extralarge":{"default":"https://cdn.freshful.ro/media/cache/sylius_shop_product_original/66/a6/1e022543c598d69dea12663319cb.jpg"}},"label":null,"tags":[],"isAvailable":true,"maxAvailableQuantity":82,"maxAllowedQuantity":100,"breadcrumbs":[{"code":"8","name":"Băcănie","slug":"8-ceva-sarat"},{"code":"806","name":"Făină, zahăr și produse gourmet","slug":"faina-zahar-si-produse-gourmet"},{"code":"80606","name":"Praf de copt, drojdie, bicarbonat și decorațiuni","slug":"praf-de-copt-drojdie-bicarbonat-si-decoratiuni"},{"code":"100139912","name":"Nucă de cocos 250g","slug":"100139912-sanovita-nuca-de-cocos-250g"}],"activePromotion":null,"saveMe":null,"labels":[],"geniusPrice":null,"geniusUnitPricePerLabel":null,"banner":null,"discountLabel":null,"geniusDiscountLabel":null,"badge":null},{"code":"100001498","variantCode":"5941132014792","name":"Nucă de cocos fulgi 80g","slug":"100001498-dr-oetker-nuca-de-cocos-fulgi-80g","unitPriceLabel":"47,38 Lei/kg","brand":"Dr. Oetker","brandCode":"55","brandFilterCode":"dr-oetker-b51","sku":"100001498","price":3.79,"originalPrice":null,"currencyCode":"RON","currency":"Lei","image":{"thumbnail":{"default":"https://cdn.freshful.ro/media/cache/sylius_shop_product_thumbnail/25/6a/3c798a1f06e1390ed2db3126790c.jpg"},"large":{"default":"https://cdn.freshful.ro/media/cache/freshful_large/25/6a/3c798a1f06e1390ed2db3126790c.jpg"},"extralarge":{"default":"https://cdn.freshful.ro/media/cache/sylius_shop_product_original/25/6a/3c798a1f06e1390ed2db3126790c.jpg"}},"label":null,"tags":[],"isAvailable":true,"maxAvailableQuantity":100,"maxAllowedQuantity":100,"breadcrumbs":[{"code":"8","name":"Băcănie","slug":"8-ceva-sarat"},{"code":"806","name":"Făină, zahăr și produse gourmet","slug":"faina-zahar-si-produse-gourmet"},{"code":"80606","name":"Praf de copt, drojdie, bicarbonat și decorațiuni","slug":"praf-de-copt-drojdie-bicarbonat-si-decoratiuni"},{"code":"100001498","name":"Nucă de cocos fulgi 80g","slug":"100001498-dr-oetker-nuca-de-cocos-fulgi-80g"}],"activePromotion":null,"saveMe":null,"labels":[],"geniusPrice":null,"geniusUnitPricePerLabel":null,"banner":null,"discountLabel":null,"geniusDiscountLabel":null,"badge":null}],"filters":{"countSelected":0,"items":[{"code":"brand","name":"Brand","countSelected":0,"values":[{"code":"askeys-b975","name":"Askeys","isSelected":false,"count":3},{"code":"cima-b1616","name":"Cima","isSelected":false,"count":3},{"code":"coseli-b1171","name":"Coseli","isSelected":false,"count":6},{"code":"cosmin-b923","name":"Cosmin","isSelected":false,"count":7},{"code":"docello-b2011","name":"Docello","isSelected":false,"count":1},{"code":"dr-oetker-b51","name":"Dr. Oetker","isSelected":false,"count":57},{"code":"dr-oetker-professional-b2444","name":"Dr. Oetker Professional","isSelected":false,"count":10},{"code":"galeo-b512","name":"Galeo","isSelected":false,"count":2},{"code":"italmill-b2165","name":"Italmill","isSelected":false,"count":1},{"code":"kamis-b511","name":"Kamis","isSelected":false,"count":9},{"code":"kandia-b1542","name":"Kandia","isSelected":false,"count":1},{"code":"kaoka-b2496","name":"Kaoka","isSelected":false,"count":1},{"code":"mogyi-b754","name":"Mogyi","isSelected":false,"count":2},{"code":"nestle-b698","name":"Nestlé","isSelected":false,"count":2},{"code":"niavis-b191","name":"Niavis","isSelected":false,"count":3},{"code":"olympia-b244","name":"Olympia","isSelected":false,"count":2},{"code":"perugina-b2594","name":"Perugina","isSelected":false,"count":1},{"code":"ruf-b2162","name":"Ruf","isSelected":false,"count":1},{"code":"razvan-b1127","name":"Răzvan","isSelected":false,"count":1},{"code":"sanovita-b483","name":"Sanovita","isSelected":false,"count":5},{"code":"schmidt-b2163","name":"Schmidt","isSelected":false,"count":1},{"code":"schwartau-b880","name":"Schwartau","isSelected":false,"count":4},{"code":"van-b456","name":"Van","isSelected":false,"count":1}]},{"code":"diet_lifestyle","name":"Dietă și lifestyle","countSelected":0,"values":[{"code":"eco-a83","name":"Eco","isSelected":false,"count":1},{"code":"fara-gluten-a16","name":"Fara gluten","isSelected":false,"count":6},{"code":"natural-a27","name":"Natural","isSelected":false,"count":1},{"code":"vegan-a24","name":"Vegan","isSelected":false,"count":1}]}]},"orderBy":[{"field":"price","direction":"asc","name":"Preț crescător","isSelected":false},{"field":"price","direction":"desc","name":"Preț descrescător","isSelected":false},{"field":"popularity","direction":"desc","name":"Cele mai populare","isSelected":true},{"field":"category","direction":"asc","name":"Categorie","isSelected":false}],"metaTitle":"Praf de copt, drojdie, bicarbonat și decorațiuni - Gamă variată","metaDescription":"Vrei Praf de copt, drojdie, bicarbonat și decorațiuni? Alege dintr-o gamă variată. Comanzi simplu și ai livrare rapidă, calitate și prospețime. Hai pe Freshful.ro","metaKeywords":null,"banners":[]}}