{"type":"subcategory","payload":{"analyticsListId":"category_zahar","analyticsListName":"Category - Zahăr","name":"Zahăr","slug":"zahar","image":null,"breadcrumbs":[{"code":"8","name":"Băcănie","slug":"8-ceva-sarat"},{"code":"806","name":"Făină, zahăr și produse gourmet","slug":"faina-zahar-si-produse-gourmet"},{"code":"80602","name":"Zahăr","slug":"zahar"}],"slots":[],"page":1,"limit":10,"pages":5,"count":41,"siblings":[{"name":"Paste, orez și legume uscate","slug":"801-paste-orez-si-legume-uscate","selected":false},{"name":"Conserve","slug":"802-conserve","selected":false},{"name":"Condimente și sosuri","slug":"803-condimente-si-sosuri","selected":false},{"name":"Ulei și oțet","slug":"804-ulei-si-otet","selected":false},{"name":"De ronțăit","slug":"805-aperitive-sarate","selected":false},{"name":"Făină, zahăr și produse gourmet","slug":"faina-zahar-si-produse-gourmet","selected":true}],"children":[{"name":"Toate produsele","slug":"faina-zahar-si-produse-gourmet","selected":false},{"name":"Făină, mălai și griș","slug":"faina-malai-si-gris","selected":false},{"name":"Zahăr","slug":"zahar","selected":true},{"name":"Compot de fructe","slug":"compot-de-fructe","selected":false},{"name":"Creme, budinci și semipreparate","slug":"creme-budinci-si-semipreparate","selected":false},{"name":"Zahăr vanilat și esențe","slug":"zahar-vanilat-si-esente","selected":false},{"name":"Praf de copt, drojdie, bicarbonat și decorațiuni","slug":"praf-de-copt-drojdie-bicarbonat-si-decoratiuni","selected":false}],"products":[{"code":"100075587","variantCode":"5949064010059","name":"Zahăr brut din trestie de zahăr 500g","slug":"100075587-sarkara-zahar-brut-din-trestie-de-zahar-500g","unitPriceLabel":"13,98 Lei/kg","brand":"Sarkara","brandCode":"975","brandFilterCode":"sarkara-b989","sku":"100075587","price":6.99,"originalPrice":7.39,"currencyCode":"RON","currency":"Lei","image":{"thumbnail":{"default":"https://cdn.freshful.ro/media/cache/sylius_shop_product_thumbnail/2d/d4/d9fbd0a9faa407a853b2e2796b35.jpg"},"large":{"default":"https://cdn.freshful.ro/media/cache/freshful_large/2d/d4/d9fbd0a9faa407a853b2e2796b35.jpg"},"extralarge":{"default":"https://cdn.freshful.ro/media/cache/sylius_shop_product_original/2d/d4/d9fbd0a9faa407a853b2e2796b35.jpg"}},"label":{"text":"-5%","backgroundColor":"#FF9903","textColor":"#FFFFFF"},"tags":[],"isAvailable":true,"maxAvailableQuantity":100,"maxAllowedQuantity":100,"breadcrumbs":[{"code":"8","name":"Băcănie","slug":"8-ceva-sarat"},{"code":"806","name":"Făină, zahăr și produse gourmet","slug":"faina-zahar-si-produse-gourmet"},{"code":"80602","name":"Zahăr","slug":"zahar"},{"code":"100075587","name":"Zahăr brut din trestie de zahăr 500g","slug":"100075587-sarkara-zahar-brut-din-trestie-de-zahar-500g"}],"activePromotion":{"code":"oferte-bacanie-bauturi-21feb-8mar23","name":"Preț redus","targetQuantity":null},"saveMe":null,"labels":[{"type":"v1","items":[{"text":"-5%","backgroundColor":"#FF9903","textColor":"#FFFFFF"}]}],"geniusPrice":null,"geniusUnitPricePerLabel":null,"banner":{"text":"Super preț","textColor":"#FF0000","bgColor":"#FFF2EC","icon":null,"link":"https://www.freshful.ro/oferte/oferte-bacanie-bauturi-21feb-8mar23","type":"promo","analyticsEventType":"select_promotion","analyticsEventPayload":{"promotion_id":"oferte-bacanie-bauturi-21feb-8mar23","promotion_name":"Cămara cu băuturi și bunătăți"}},"discountLabel":"Economisești 5%","geniusDiscountLabel":null,"badge":null},{"code":"100101100","variantCode":"100101100","name":"Zahăr alb 1kg","slug":"100101100-diamant-zahar-alb-1kg","unitPriceLabel":"5,99 Lei/kg","brand":"Diamant","brandCode":"1250","brandFilterCode":"diamant-b1251","sku":"100101100","price":5.99,"originalPrice":null,"currencyCode":"RON","currency":"Lei","image":{"thumbnail":{"default":"https://cdn.freshful.ro/media/cache/sylius_shop_product_thumbnail/57/1a/7676458a0a59e01bc30274e51a72.jpg"},"large":{"default":"https://cdn.freshful.ro/media/cache/freshful_large/57/1a/7676458a0a59e01bc30274e51a72.jpg"},"extralarge":{"default":"https://cdn.freshful.ro/media/cache/sylius_shop_product_original/57/1a/7676458a0a59e01bc30274e51a72.jpg"}},"label":null,"tags":[],"isAvailable":true,"maxAvailableQuantity":6,"maxAllowedQuantity":6,"breadcrumbs":[{"code":"8","name":"Băcănie","slug":"8-ceva-sarat"},{"code":"806","name":"Făină, zahăr și produse gourmet","slug":"faina-zahar-si-produse-gourmet"},{"code":"80602","name":"Zahăr","slug":"zahar"},{"code":"100101100","name":"Zahăr alb 1kg","slug":"100101100-diamant-zahar-alb-1kg"}],"activePromotion":null,"saveMe":null,"labels":[],"geniusPrice":null,"geniusUnitPricePerLabel":null,"banner":null,"discountLabel":null,"geniusDiscountLabel":null,"badge":null},{"code":"100139085","variantCode":"100139085","name":"Zahăr brun din trestie de zahăr 500g","slug":"100139085-sanovita-zahar-brun-din-trestie-de-zahar-500g","unitPriceLabel":"15,38 Lei/kg","brand":"Sanovita","brandCode":"482","brandFilterCode":"sanovita-b483","sku":"100139085","price":7.69,"originalPrice":null,"currencyCode":"RON","currency":"Lei","image":{"thumbnail":{"default":"https://cdn.freshful.ro/media/cache/sylius_shop_product_thumbnail/9c/54/7db3d88b0d91e00a6bc66effef41.jpg"},"large":{"default":"https://cdn.freshful.ro/media/cache/freshful_large/9c/54/7db3d88b0d91e00a6bc66effef41.jpg"},"extralarge":{"default":"https://cdn.freshful.ro/media/cache/sylius_shop_product_original/9c/54/7db3d88b0d91e00a6bc66effef41.jpg"}},"label":null,"tags":[],"isAvailable":true,"maxAvailableQuantity":100,"maxAllowedQuantity":100,"breadcrumbs":[{"code":"8","name":"Băcănie","slug":"8-ceva-sarat"},{"code":"806","name":"Făină, zahăr și produse gourmet","slug":"faina-zahar-si-produse-gourmet"},{"code":"80602","name":"Zahăr","slug":"zahar"},{"code":"100139085","name":"Zahăr brun din trestie de zahăr 500g","slug":"100139085-sanovita-zahar-brun-din-trestie-de-zahar-500g"}],"activePromotion":null,"saveMe":null,"labels":[],"geniusPrice":null,"geniusUnitPricePerLabel":null,"banner":null,"discountLabel":null,"geniusDiscountLabel":null,"badge":null},{"code":"100101106","variantCode":"100101106","name":"Zahăr brun din trestie de zahăr 500g","slug":"100101106-diamant-zahar-brun-din-trestie-de-zahar-500g","unitPriceLabel":"9,38 Lei/kg","brand":"Diamant","brandCode":"1250","brandFilterCode":"diamant-b1251","sku":"100101106","price":4.69,"originalPrice":null,"currencyCode":"RON","currency":"Lei","image":{"thumbnail":{"default":"https://cdn.freshful.ro/media/cache/sylius_shop_product_thumbnail/7a/0e/7cf87946979a95e83f916cbebc33.jpg"},"large":{"default":"https://cdn.freshful.ro/media/cache/freshful_large/7a/0e/7cf87946979a95e83f916cbebc33.jpg"},"extralarge":{"default":"https://cdn.freshful.ro/media/cache/sylius_shop_product_original/7a/0e/7cf87946979a95e83f916cbebc33.jpg"}},"label":null,"tags":[],"isAvailable":true,"maxAvailableQuantity":100,"maxAllowedQuantity":100,"breadcrumbs":[{"code":"8","name":"Băcănie","slug":"8-ceva-sarat"},{"code":"806","name":"Făină, zahăr și produse gourmet","slug":"faina-zahar-si-produse-gourmet"},{"code":"80602","name":"Zahăr","slug":"zahar"},{"code":"100101106","name":"Zahăr brun din trestie de zahăr 500g","slug":"100101106-diamant-zahar-brun-din-trestie-de-zahar-500g"}],"activePromotion":null,"saveMe":null,"labels":[],"geniusPrice":null,"geniusUnitPricePerLabel":null,"banner":null,"discountLabel":null,"geniusDiscountLabel":null,"badge":null},{"code":"100150311","variantCode":"100150311","name":"Zahăr alb 1kg","slug":"100150311-soland-zahar-alb-1kg","unitPriceLabel":"5,89 Lei/kg","brand":"SOLAND","brandCode":"2747","brandFilterCode":"soland-b2753","sku":"100150311","price":5.89,"originalPrice":null,"currencyCode":"RON","currency":"Lei","image":{"thumbnail":{"default":"https://cdn.freshful.ro/media/cache/sylius_shop_product_thumbnail/fa/bb/b86de0a243f2e218725ffde30260.jpg"},"large":{"default":"https://cdn.freshful.ro/media/cache/freshful_large/fa/bb/b86de0a243f2e218725ffde30260.jpg"},"extralarge":{"default":"https://cdn.freshful.ro/media/cache/sylius_shop_product_original/fa/bb/b86de0a243f2e218725ffde30260.jpg"}},"label":{"text":"Primul preț","backgroundColor":"#3A0808","textColor":"#FFFFFF"},"tags":[],"isAvailable":true,"maxAvailableQuantity":6,"maxAllowedQuantity":6,"breadcrumbs":[{"code":"8","name":"Băcănie","slug":"8-ceva-sarat"},{"code":"806","name":"Făină, zahăr și produse gourmet","slug":"faina-zahar-si-produse-gourmet"},{"code":"80602","name":"Zahăr","slug":"zahar"},{"code":"100150311","name":"Zahăr alb 1kg","slug":"100150311-soland-zahar-alb-1kg"}],"activePromotion":null,"saveMe":null,"labels":[{"type":"v4","items":[{"text":"Primul","backgroundColor":"#3A0808","textColor":"#FFFFFF"},{"text":"preț","backgroundColor":"#BC0606","textColor":"#FFFFFF"}]}],"geniusPrice":null,"geniusUnitPricePerLabel":null,"banner":null,"discountLabel":null,"geniusDiscountLabel":null,"badge":null},{"code":"100151042","variantCode":"100151042","name":"Zahăr cristal 1kg","slug":"100151042-coronita-zahar-cristal-1kg","unitPriceLabel":"6,99 Lei/kg","brand":"Coronița","brandCode":"884","brandFilterCode":"coronita-b885","sku":"100151042","price":6.99,"originalPrice":null,"currencyCode":"RON","currency":"Lei","image":{"thumbnail":{"default":"https://cdn.freshful.ro/media/cache/sylius_shop_product_thumbnail/84/a2/78828572b96fd14798dafec0fa7f.jpg"},"large":{"default":"https://cdn.freshful.ro/media/cache/freshful_large/84/a2/78828572b96fd14798dafec0fa7f.jpg"},"extralarge":{"default":"https://cdn.freshful.ro/media/cache/sylius_shop_product_original/84/a2/78828572b96fd14798dafec0fa7f.jpg"}},"label":null,"tags":[],"isAvailable":true,"maxAvailableQuantity":6,"maxAllowedQuantity":6,"breadcrumbs":[{"code":"8","name":"Băcănie","slug":"8-ceva-sarat"},{"code":"806","name":"Făină, zahăr și produse gourmet","slug":"faina-zahar-si-produse-gourmet"},{"code":"80602","name":"Zahăr","slug":"zahar"},{"code":"100151042","name":"Zahăr cristal 1kg","slug":"100151042-coronita-zahar-cristal-1kg"}],"activePromotion":null,"saveMe":null,"labels":[],"geniusPrice":null,"geniusUnitPricePerLabel":null,"banner":null,"discountLabel":null,"geniusDiscountLabel":null,"badge":null},{"code":"100101110","variantCode":"100101110","name":"Zahăr cubic brun din trestie de zahăr 500g","slug":"100101110-diamant-zahar-cubic-brun-din-trestie-de-zahar-500g","unitPriceLabel":"13,3 Lei/kg","brand":"Diamant","brandCode":"1250","brandFilterCode":"diamant-b1251","sku":"100101110","price":6.65,"originalPrice":null,"currencyCode":"RON","currency":"Lei","image":{"thumbnail":{"default":"https://cdn.freshful.ro/media/cache/sylius_shop_product_thumbnail/0d/8f/e888de573b426696a50513c6f373.jpg"},"large":{"default":"https://cdn.freshful.ro/media/cache/freshful_large/0d/8f/e888de573b426696a50513c6f373.jpg"},"extralarge":{"default":"https://cdn.freshful.ro/media/cache/sylius_shop_product_original/0d/8f/e888de573b426696a50513c6f373.jpg"}},"label":null,"tags":[],"isAvailable":true,"maxAvailableQuantity":32,"maxAllowedQuantity":100,"breadcrumbs":[{"code":"8","name":"Băcănie","slug":"8-ceva-sarat"},{"code":"806","name":"Făină, zahăr și produse gourmet","slug":"faina-zahar-si-produse-gourmet"},{"code":"80602","name":"Zahăr","slug":"zahar"},{"code":"100101110","name":"Zahăr cubic brun din trestie de zahăr 500g","slug":"100101110-diamant-zahar-cubic-brun-din-trestie-de-zahar-500g"}],"activePromotion":null,"saveMe":null,"labels":[],"geniusPrice":null,"geniusUnitPricePerLabel":null,"banner":null,"discountLabel":null,"geniusDiscountLabel":null,"badge":null},{"code":"100101102","variantCode":"100101102","name":"Zahăr pudră 500g","slug":"100101102-diamant-zahar-pudra-500g","unitPriceLabel":"6,7 Lei/kg","brand":"Diamant","brandCode":"1250","brandFilterCode":"diamant-b1251","sku":"100101102","price":3.35,"originalPrice":null,"currencyCode":"RON","currency":"Lei","image":{"thumbnail":{"default":"https://cdn.freshful.ro/media/cache/sylius_shop_product_thumbnail/bc/38/cce4482af0c04d42837334f20ae9.jpg"},"large":{"default":"https://cdn.freshful.ro/media/cache/freshful_large/bc/38/cce4482af0c04d42837334f20ae9.jpg"},"extralarge":{"default":"https://cdn.freshful.ro/media/cache/sylius_shop_product_original/bc/38/cce4482af0c04d42837334f20ae9.jpg"}},"label":null,"tags":[],"isAvailable":true,"maxAvailableQuantity":100,"maxAllowedQuantity":100,"breadcrumbs":[{"code":"8","name":"Băcănie","slug":"8-ceva-sarat"},{"code":"806","name":"Făină, zahăr și produse gourmet","slug":"faina-zahar-si-produse-gourmet"},{"code":"80602","name":"Zahăr","slug":"zahar"},{"code":"100101102","name":"Zahăr pudră 500g","slug":"100101102-diamant-zahar-pudra-500g"}],"activePromotion":null,"saveMe":null,"labels":[],"geniusPrice":null,"geniusUnitPricePerLabel":null,"banner":null,"discountLabel":null,"geniusDiscountLabel":null,"badge":null},{"code":"100139084","variantCode":"100139084","name":"Zahăr brun din trestie de zahăr 1kg","slug":"100139084-sanovita-zahar-brun-din-trestie-de-zahar-1kg","unitPriceLabel":"13,49 Lei/kg","brand":"Sanovita","brandCode":"482","brandFilterCode":"sanovita-b483","sku":"100139084","price":13.49,"originalPrice":null,"currencyCode":"RON","currency":"Lei","image":{"thumbnail":{"default":"https://cdn.freshful.ro/media/cache/sylius_shop_product_thumbnail/fe/99/4d64eb4b9149783162875c310b58.jpg"},"large":{"default":"https://cdn.freshful.ro/media/cache/freshful_large/fe/99/4d64eb4b9149783162875c310b58.jpg"},"extralarge":{"default":"https://cdn.freshful.ro/media/cache/sylius_shop_product_original/fe/99/4d64eb4b9149783162875c310b58.jpg"}},"label":null,"tags":[],"isAvailable":true,"maxAvailableQuantity":76,"maxAllowedQuantity":100,"breadcrumbs":[{"code":"8","name":"Băcănie","slug":"8-ceva-sarat"},{"code":"806","name":"Făină, zahăr și produse gourmet","slug":"faina-zahar-si-produse-gourmet"},{"code":"80602","name":"Zahăr","slug":"zahar"},{"code":"100139084","name":"Zahăr brun din trestie de zahăr 1kg","slug":"100139084-sanovita-zahar-brun-din-trestie-de-zahar-1kg"}],"activePromotion":null,"saveMe":null,"labels":[],"geniusPrice":null,"geniusUnitPricePerLabel":null,"banner":null,"discountLabel":null,"geniusDiscountLabel":null,"badge":null},{"code":"100101113","variantCode":"100101113","name":"Zahăr brun la plic, din trestie 125x4g","slug":"100101113-diamant-zahar-brun-la-plic-din-trestie-125x4g","unitPriceLabel":"17,58 Lei/kg","brand":"Diamant","brandCode":"1250","brandFilterCode":"diamant-b1251","sku":"100101113","price":8.79,"originalPrice":null,"currencyCode":"RON","currency":"Lei","image":{"thumbnail":{"default":"https://cdn.freshful.ro/media/cache/sylius_shop_product_thumbnail/07/fa/4f4af51ee77ea2dc9fa9c56350a4.jpg"},"large":{"default":"https://cdn.freshful.ro/media/cache/freshful_large/07/fa/4f4af51ee77ea2dc9fa9c56350a4.jpg"},"extralarge":{"default":"https://cdn.freshful.ro/media/cache/sylius_shop_product_original/07/fa/4f4af51ee77ea2dc9fa9c56350a4.jpg"}},"label":null,"tags":[],"isAvailable":true,"maxAvailableQuantity":100,"maxAllowedQuantity":100,"breadcrumbs":[{"code":"8","name":"Băcănie","slug":"8-ceva-sarat"},{"code":"806","name":"Făină, zahăr și produse gourmet","slug":"faina-zahar-si-produse-gourmet"},{"code":"80602","name":"Zahăr","slug":"zahar"},{"code":"100101113","name":"Zahăr brun la plic, din trestie 125x4g","slug":"100101113-diamant-zahar-brun-la-plic-din-trestie-125x4g"}],"activePromotion":null,"saveMe":null,"labels":[],"geniusPrice":null,"geniusUnitPricePerLabel":null,"banner":null,"discountLabel":null,"geniusDiscountLabel":null,"badge":null}],"filters":{"countSelected":0,"items":[{"code":"promotion","name":"Promoții","countSelected":0,"values":[{"code":"oferte-bacanie-bauturi-21feb-8mar23","name":"Cămara cu băuturi și bunătăți","isSelected":false,"count":1}]},{"code":"brand","name":"Brand","countSelected":0,"values":[{"code":"billington-s-b978","name":"Billington's","isSelected":false,"count":6},{"code":"coronita-b885","name":"Coronița","isSelected":false,"count":1},{"code":"coseli-b1171","name":"Coseli","isSelected":false,"count":1},{"code":"diamant-b1251","name":"Diamant","isSelected":false,"count":16},{"code":"dr-oetker-professional-b2444","name":"Dr. Oetker Professional","isSelected":false,"count":1},{"code":"iscal-b973","name":"Iscal","isSelected":false,"count":1},{"code":"lavazza-b162","name":"Lavazza","isSelected":false,"count":2},{"code":"margaritar-b786","name":"Mărgăritar","isSelected":false,"count":1},{"code":"sanovita-b483","name":"Sanovita","isSelected":false,"count":3},{"code":"sarkara-b989","name":"Sarkara","isSelected":false,"count":3},{"code":"sebahat-b986","name":"Sebahat","isSelected":false,"count":2},{"code":"silver-spoon-b979","name":"Silver spoon","isSelected":false,"count":1},{"code":"soland-b2753","name":"SOLAND","isSelected":false,"count":1},{"code":"varanini-b2002","name":"Varanini","isSelected":false,"count":2}]}]},"orderBy":[{"field":"price","direction":"asc","name":"Preț crescător","isSelected":false},{"field":"price","direction":"desc","name":"Preț descrescător","isSelected":false},{"field":"popularity","direction":"desc","name":"Cele mai populare","isSelected":true},{"field":"category","direction":"asc","name":"Categorie","isSelected":false}],"metaTitle":"Zahăr - Gamă variată","metaDescription":"Vrei Zahăr? Alege dintr-o gamă variată. Comanzi simplu și ai livrare rapidă, calitate și prospețime. Hai pe Freshful.ro","metaKeywords":null,"banners":[]}}