{"type":"subcategory","payload":{"analyticsListId":"category_zahar-vanilat-si-esente","analyticsListName":"Category - Zahăr vanilat și esențe","name":"Zahăr vanilat și esențe","slug":"zahar-vanilat-si-esente","image":null,"breadcrumbs":[{"code":"8","name":"Băcănie","slug":"8-ceva-sarat"},{"code":"806","name":"Făină, zahăr și produse gourmet","slug":"faina-zahar-si-produse-gourmet"},{"code":"80605","name":"Zahăr vanilat și esențe","slug":"zahar-vanilat-si-esente"}],"slots":[],"page":1,"limit":10,"pages":6,"count":58,"siblings":[{"name":"Paste, orez și legume uscate","slug":"801-paste-orez-si-legume-uscate","selected":false},{"name":"Conserve","slug":"802-conserve","selected":false},{"name":"Condimente și sosuri","slug":"803-condimente-si-sosuri","selected":false},{"name":"Ulei și oțet","slug":"804-ulei-si-otet","selected":false},{"name":"De ronțăit","slug":"805-aperitive-sarate","selected":false},{"name":"Făină, zahăr și produse gourmet","slug":"faina-zahar-si-produse-gourmet","selected":true}],"children":[{"name":"Toate produsele","slug":"faina-zahar-si-produse-gourmet","selected":false},{"name":"Făină, mălai și griș","slug":"faina-malai-si-gris","selected":false},{"name":"Zahăr","slug":"zahar","selected":false},{"name":"Compot de fructe","slug":"compot-de-fructe","selected":false},{"name":"Creme, budinci și semipreparate","slug":"creme-budinci-si-semipreparate","selected":false},{"name":"Zahăr vanilat și esențe","slug":"zahar-vanilat-si-esente","selected":true},{"name":"Praf de copt, drojdie, bicarbonat și decorațiuni","slug":"praf-de-copt-drojdie-bicarbonat-si-decoratiuni","selected":false}],"products":[{"code":"100001422","variantCode":"5941132002676","name":"Zahăr vanilinat 4x8g","slug":"100001422-dr-oetker-zahar-vanilinat-4x8g","unitPriceLabel":"60,94 Lei/kg","brand":"Dr. Oetker","brandCode":"55","brandFilterCode":"dr-oetker-b51","sku":"100001422","price":1.95,"originalPrice":null,"currencyCode":"RON","currency":"Lei","image":{"thumbnail":{"default":"https://cdn.freshful.ro/media/cache/sylius_shop_product_thumbnail/ec/ee/303d64acbcd9e0803cb137a92401.jpg"},"large":{"default":"https://cdn.freshful.ro/media/cache/freshful_large/ec/ee/303d64acbcd9e0803cb137a92401.jpg"},"extralarge":{"default":"https://cdn.freshful.ro/media/cache/sylius_shop_product_original/ec/ee/303d64acbcd9e0803cb137a92401.jpg"}},"label":null,"tags":[],"isAvailable":true,"maxAvailableQuantity":100,"maxAllowedQuantity":100,"breadcrumbs":[{"code":"8","name":"Băcănie","slug":"8-ceva-sarat"},{"code":"806","name":"Făină, zahăr și produse gourmet","slug":"faina-zahar-si-produse-gourmet"},{"code":"80605","name":"Zahăr vanilat și esențe","slug":"zahar-vanilat-si-esente"},{"code":"100001422","name":"Zahăr vanilinat 4x8g","slug":"100001422-dr-oetker-zahar-vanilinat-4x8g"}],"activePromotion":null,"saveMe":null,"labels":[],"geniusPrice":null,"geniusUnitPricePerLabel":null,"banner":null,"discountLabel":null,"geniusDiscountLabel":null,"badge":null},{"code":"100001483","variantCode":"59458852","name":"Esență de vanilie 38ml","slug":"100001483-dr-oetker-esenta-de-vanilie-38ml","unitPriceLabel":"124,74 Lei/kg","brand":"Dr. Oetker","brandCode":"55","brandFilterCode":"dr-oetker-b51","sku":"100001483","price":4.74,"originalPrice":null,"currencyCode":"RON","currency":"Lei","image":{"thumbnail":{"default":"https://cdn.freshful.ro/media/cache/sylius_shop_product_thumbnail/ff/99/28712a9dc9a5974fc8775846b860.jpg"},"large":{"default":"https://cdn.freshful.ro/media/cache/freshful_large/ff/99/28712a9dc9a5974fc8775846b860.jpg"},"extralarge":{"default":"https://cdn.freshful.ro/media/cache/sylius_shop_product_original/ff/99/28712a9dc9a5974fc8775846b860.jpg"}},"label":null,"tags":[],"isAvailable":true,"maxAvailableQuantity":100,"maxAllowedQuantity":100,"breadcrumbs":[{"code":"8","name":"Băcănie","slug":"8-ceva-sarat"},{"code":"806","name":"Făină, zahăr și produse gourmet","slug":"faina-zahar-si-produse-gourmet"},{"code":"80605","name":"Zahăr vanilat și esențe","slug":"zahar-vanilat-si-esente"},{"code":"100001483","name":"Esență de vanilie 38ml","slug":"100001483-dr-oetker-esenta-de-vanilie-38ml"}],"activePromotion":null,"saveMe":null,"labels":[],"geniusPrice":null,"geniusUnitPricePerLabel":null,"banner":null,"discountLabel":null,"geniusDiscountLabel":null,"badge":null},{"code":"100001431","variantCode":"5941132007770","name":"Esență de vanilie 4x2ml","slug":"100001431-dr-oetker-esenta-de-vanilie-4x2ml","unitPriceLabel":"456,25 Lei/kg","brand":"Dr. Oetker","brandCode":"55","brandFilterCode":"dr-oetker-b51","sku":"100001431","price":3.65,"originalPrice":null,"currencyCode":"RON","currency":"Lei","image":{"thumbnail":{"default":"https://cdn.freshful.ro/media/cache/sylius_shop_product_thumbnail/5b/1e/b135052fea6b291350f32ae6a245.jpg"},"large":{"default":"https://cdn.freshful.ro/media/cache/freshful_large/5b/1e/b135052fea6b291350f32ae6a245.jpg"},"extralarge":{"default":"https://cdn.freshful.ro/media/cache/sylius_shop_product_original/5b/1e/b135052fea6b291350f32ae6a245.jpg"}},"label":null,"tags":[],"isAvailable":true,"maxAvailableQuantity":100,"maxAllowedQuantity":100,"breadcrumbs":[{"code":"8","name":"Băcănie","slug":"8-ceva-sarat"},{"code":"806","name":"Făină, zahăr și produse gourmet","slug":"faina-zahar-si-produse-gourmet"},{"code":"80605","name":"Zahăr vanilat și esențe","slug":"zahar-vanilat-si-esente"},{"code":"100001431","name":"Esență de vanilie 4x2ml","slug":"100001431-dr-oetker-esenta-de-vanilie-4x2ml"}],"activePromotion":null,"saveMe":null,"labels":[],"geniusPrice":null,"geniusUnitPricePerLabel":null,"banner":null,"discountLabel":null,"geniusDiscountLabel":null,"badge":null},{"code":"100001567","variantCode":"5941132002959","name":"Zahăr vanilat Bourbon 8g","slug":"100001567-dr-oetker-zahar-vanilat-bourbon-8g","unitPriceLabel":"307,5 Lei/kg","brand":"Dr. Oetker","brandCode":"55","brandFilterCode":"dr-oetker-b51","sku":"100001567","price":2.46,"originalPrice":null,"currencyCode":"RON","currency":"Lei","image":{"thumbnail":{"default":"https://cdn.freshful.ro/media/cache/sylius_shop_product_thumbnail/a6/ac/f67a5b0e40808582c70c17c95558.jpg"},"large":{"default":"https://cdn.freshful.ro/media/cache/freshful_large/a6/ac/f67a5b0e40808582c70c17c95558.jpg"},"extralarge":{"default":"https://cdn.freshful.ro/media/cache/sylius_shop_product_original/a6/ac/f67a5b0e40808582c70c17c95558.jpg"}},"label":null,"tags":[],"isAvailable":true,"maxAvailableQuantity":100,"maxAllowedQuantity":100,"breadcrumbs":[{"code":"8","name":"Băcănie","slug":"8-ceva-sarat"},{"code":"806","name":"Făină, zahăr și produse gourmet","slug":"faina-zahar-si-produse-gourmet"},{"code":"80605","name":"Zahăr vanilat și esențe","slug":"zahar-vanilat-si-esente"},{"code":"100001567","name":"Zahăr vanilat Bourbon 8g","slug":"100001567-dr-oetker-zahar-vanilat-bourbon-8g"}],"activePromotion":null,"saveMe":null,"labels":[],"geniusPrice":null,"geniusUnitPricePerLabel":null,"banner":null,"discountLabel":null,"geniusDiscountLabel":null,"badge":null},{"code":"100001420","variantCode":"5941132400083","name":"Zahăr pudră cu aromă de vanilie 80g","slug":"100001420-dr-oetker-zahar-pudra-cu-aroma-de-vanilie-80g","unitPriceLabel":"22,5 Lei/kg","brand":"Dr. Oetker","brandCode":"55","brandFilterCode":"dr-oetker-b51","sku":"100001420","price":1.8,"originalPrice":null,"currencyCode":"RON","currency":"Lei","image":{"thumbnail":{"default":"https://cdn.freshful.ro/media/cache/sylius_shop_product_thumbnail/03/04/434d0d1dc150a5cea3f7915786cf.jpg"},"large":{"default":"https://cdn.freshful.ro/media/cache/freshful_large/03/04/434d0d1dc150a5cea3f7915786cf.jpg"},"extralarge":{"default":"https://cdn.freshful.ro/media/cache/sylius_shop_product_original/03/04/434d0d1dc150a5cea3f7915786cf.jpg"}},"label":null,"tags":[],"isAvailable":true,"maxAvailableQuantity":100,"maxAllowedQuantity":100,"breadcrumbs":[{"code":"8","name":"Băcănie","slug":"8-ceva-sarat"},{"code":"806","name":"Făină, zahăr și produse gourmet","slug":"faina-zahar-si-produse-gourmet"},{"code":"80605","name":"Zahăr vanilat și esențe","slug":"zahar-vanilat-si-esente"},{"code":"100001420","name":"Zahăr pudră cu aromă de vanilie 80g","slug":"100001420-dr-oetker-zahar-pudra-cu-aroma-de-vanilie-80g"}],"activePromotion":null,"saveMe":null,"labels":[],"geniusPrice":null,"geniusUnitPricePerLabel":null,"banner":null,"discountLabel":null,"geniusDiscountLabel":null,"badge":null},{"code":"100001404","variantCode":"4000521026158","name":"Aromă naturală de vanilie bourbon 2x5g","slug":"100001404-dr-oetker-aroma-naturala-de-vanilie-bourbon-2x5g","unitPriceLabel":"446 Lei/kg","brand":"Dr. Oetker","brandCode":"55","brandFilterCode":"dr-oetker-b51","sku":"100001404","price":4.46,"originalPrice":null,"currencyCode":"RON","currency":"Lei","image":{"thumbnail":{"default":"https://cdn.freshful.ro/media/cache/sylius_shop_product_thumbnail/01/f3/5a6eb7eaf69a58a945c735d1c977.jpg"},"large":{"default":"https://cdn.freshful.ro/media/cache/freshful_large/01/f3/5a6eb7eaf69a58a945c735d1c977.jpg"},"extralarge":{"default":"https://cdn.freshful.ro/media/cache/sylius_shop_product_original/01/f3/5a6eb7eaf69a58a945c735d1c977.jpg"}},"label":null,"tags":[],"isAvailable":true,"maxAvailableQuantity":100,"maxAllowedQuantity":100,"breadcrumbs":[{"code":"8","name":"Băcănie","slug":"8-ceva-sarat"},{"code":"806","name":"Făină, zahăr și produse gourmet","slug":"faina-zahar-si-produse-gourmet"},{"code":"80605","name":"Zahăr vanilat și esențe","slug":"zahar-vanilat-si-esente"},{"code":"100001404","name":"Aromă naturală de vanilie bourbon 2x5g","slug":"100001404-dr-oetker-aroma-naturala-de-vanilie-bourbon-2x5g"}],"activePromotion":null,"saveMe":null,"labels":[],"geniusPrice":null,"geniusUnitPricePerLabel":null,"banner":null,"discountLabel":null,"geniusDiscountLabel":null,"badge":null},{"code":"100001482","variantCode":"59458845","name":"Esență de rom 38ml ","slug":"100001482-dr-oetker-esenta-de-rom-38ml","unitPriceLabel":"124,74 Lei/kg","brand":"Dr. Oetker","brandCode":"55","brandFilterCode":"dr-oetker-b51","sku":"100001482","price":4.74,"originalPrice":null,"currencyCode":"RON","currency":"Lei","image":{"thumbnail":{"default":"https://cdn.freshful.ro/media/cache/sylius_shop_product_thumbnail/90/57/d43e4962b170a17efc0f462d3268.jpg"},"large":{"default":"https://cdn.freshful.ro/media/cache/freshful_large/90/57/d43e4962b170a17efc0f462d3268.jpg"},"extralarge":{"default":"https://cdn.freshful.ro/media/cache/sylius_shop_product_original/90/57/d43e4962b170a17efc0f462d3268.jpg"}},"label":null,"tags":[],"isAvailable":true,"maxAvailableQuantity":100,"maxAllowedQuantity":100,"breadcrumbs":[{"code":"8","name":"Băcănie","slug":"8-ceva-sarat"},{"code":"806","name":"Făină, zahăr și produse gourmet","slug":"faina-zahar-si-produse-gourmet"},{"code":"80605","name":"Zahăr vanilat și esențe","slug":"zahar-vanilat-si-esente"},{"code":"100001482","name":"Esență de rom 38ml ","slug":"100001482-dr-oetker-esenta-de-rom-38ml"}],"activePromotion":null,"saveMe":null,"labels":[],"geniusPrice":null,"geniusUnitPricePerLabel":null,"banner":null,"discountLabel":null,"geniusDiscountLabel":null,"badge":null},{"code":"100130659","variantCode":"100130659","name":"Esență vanilie 25ml","slug":"100130659-cosmin-esenta-vanilie-25ml","unitPriceLabel":"66 Lei/l","brand":"Cosmin","brandCode":"923","brandFilterCode":"cosmin-b923","sku":"100130659","price":1.65,"originalPrice":null,"currencyCode":"RON","currency":"Lei","image":{"thumbnail":{"default":"https://cdn.freshful.ro/media/cache/sylius_shop_product_thumbnail/15/4a/60408a6853efb1550911f9c6e617.jpg"},"large":{"default":"https://cdn.freshful.ro/media/cache/freshful_large/15/4a/60408a6853efb1550911f9c6e617.jpg"},"extralarge":{"default":"https://cdn.freshful.ro/media/cache/sylius_shop_product_original/15/4a/60408a6853efb1550911f9c6e617.jpg"}},"label":null,"tags":[],"isAvailable":true,"maxAvailableQuantity":100,"maxAllowedQuantity":100,"breadcrumbs":[{"code":"8","name":"Băcănie","slug":"8-ceva-sarat"},{"code":"806","name":"Făină, zahăr și produse gourmet","slug":"faina-zahar-si-produse-gourmet"},{"code":"80605","name":"Zahăr vanilat și esențe","slug":"zahar-vanilat-si-esente"},{"code":"100130659","name":"Esență vanilie 25ml","slug":"100130659-cosmin-esenta-vanilie-25ml"}],"activePromotion":null,"saveMe":null,"labels":[],"geniusPrice":null,"geniusUnitPricePerLabel":null,"banner":null,"discountLabel":null,"geniusDiscountLabel":null,"badge":null},{"code":"100001432","variantCode":"5941132007763","name":"Esență de rom 4x2ml","slug":"100001432-dr-oetker-esenta-de-rom-4x2ml","unitPriceLabel":"456,25 Lei/kg","brand":"Dr. Oetker","brandCode":"55","brandFilterCode":"dr-oetker-b51","sku":"100001432","price":3.65,"originalPrice":null,"currencyCode":"RON","currency":"Lei","image":{"thumbnail":{"default":"https://cdn.freshful.ro/media/cache/sylius_shop_product_thumbnail/28/c0/3ff040573a54957c2f51ea7c411f.jpg"},"large":{"default":"https://cdn.freshful.ro/media/cache/freshful_large/28/c0/3ff040573a54957c2f51ea7c411f.jpg"},"extralarge":{"default":"https://cdn.freshful.ro/media/cache/sylius_shop_product_original/28/c0/3ff040573a54957c2f51ea7c411f.jpg"}},"label":null,"tags":[],"isAvailable":true,"maxAvailableQuantity":100,"maxAllowedQuantity":100,"breadcrumbs":[{"code":"8","name":"Băcănie","slug":"8-ceva-sarat"},{"code":"806","name":"Făină, zahăr și produse gourmet","slug":"faina-zahar-si-produse-gourmet"},{"code":"80605","name":"Zahăr vanilat și esențe","slug":"zahar-vanilat-si-esente"},{"code":"100001432","name":"Esență de rom 4x2ml","slug":"100001432-dr-oetker-esenta-de-rom-4x2ml"}],"activePromotion":null,"saveMe":null,"labels":[],"geniusPrice":null,"geniusUnitPricePerLabel":null,"banner":null,"discountLabel":null,"geniusDiscountLabel":null,"badge":null},{"code":"100148279","variantCode":"100148279","name":" Esență naturală de vanilie 20ml","slug":"100148279-kamis-esenta-naturala-de-vanilie-20ml","unitPriceLabel":"699,5 Lei/l","brand":"Kamis","brandCode":"510","brandFilterCode":"kamis-b511","sku":"100148279","price":13.99,"originalPrice":null,"currencyCode":"RON","currency":"Lei","image":{"thumbnail":{"default":"https://cdn.freshful.ro/media/cache/sylius_shop_product_thumbnail/23/91/4ac000c666ae502f05b44d0245ca.jpg"},"large":{"default":"https://cdn.freshful.ro/media/cache/freshful_large/23/91/4ac000c666ae502f05b44d0245ca.jpg"},"extralarge":{"default":"https://cdn.freshful.ro/media/cache/sylius_shop_product_original/23/91/4ac000c666ae502f05b44d0245ca.jpg"}},"label":null,"tags":[{"type":"Natural","text":"Natural","icon":"https://cdn.freshful.ro/assets/product_tags/natural.svg","iconPng":"https://cdn.freshful.ro/assets/product_tags/natural.png","backgroundColor":"#E9FCF2","textColor":"#18AF62"}],"isAvailable":true,"maxAvailableQuantity":54,"maxAllowedQuantity":100,"breadcrumbs":[{"code":"8","name":"Băcănie","slug":"8-ceva-sarat"},{"code":"806","name":"Făină, zahăr și produse gourmet","slug":"faina-zahar-si-produse-gourmet"},{"code":"80605","name":"Zahăr vanilat și esențe","slug":"zahar-vanilat-si-esente"},{"code":"100148279","name":" Esență naturală de vanilie 20ml","slug":"100148279-kamis-esenta-naturala-de-vanilie-20ml"}],"activePromotion":null,"saveMe":null,"labels":[],"geniusPrice":null,"geniusUnitPricePerLabel":null,"banner":null,"discountLabel":null,"geniusDiscountLabel":null,"badge":null}],"filters":{"countSelected":0,"items":[{"code":"brand","name":"Brand","countSelected":0,"values":[{"code":"coseli-b1171","name":"Coseli","isSelected":false,"count":14},{"code":"cosmin-b923","name":"Cosmin","isSelected":false,"count":9},{"code":"diamant-b1251","name":"Diamant","isSelected":false,"count":1},{"code":"dr-oetker-b51","name":"Dr. Oetker","isSelected":false,"count":24},{"code":"dr-oetker-professional-b2444","name":"Dr. Oetker Professional","isSelected":false,"count":1},{"code":"galeo-b512","name":"Galeo","isSelected":false,"count":1},{"code":"kamis-b511","name":"Kamis","isSelected":false,"count":4},{"code":"ruf-b2162","name":"Ruf","isSelected":false,"count":4}]},{"code":"diet_lifestyle","name":"Dietă și lifestyle","countSelected":0,"values":[{"code":"natural-a27","name":"Natural","isSelected":false,"count":2}]}]},"orderBy":[{"field":"price","direction":"asc","name":"Preț crescător","isSelected":false},{"field":"price","direction":"desc","name":"Preț descrescător","isSelected":false},{"field":"popularity","direction":"desc","name":"Cele mai populare","isSelected":true},{"field":"category","direction":"asc","name":"Categorie","isSelected":false}],"metaTitle":"Zahăr vanilat și esențe - Gamă variată","metaDescription":"Vrei Zahăr vanilat și esențe? Alege dintr-o gamă variată. Comanzi simplu și ai livrare rapidă, calitate și prospețime. Hai pe Freshful.ro","metaKeywords":null,"banners":[]}}